{
    "goal": {
        "global_pose": {
            "orientation": {
                "w": -0.4816463035849501,
                "x": 0.5182115481033762,
                "y": 0.4908360881923453,
                "z": -0.5084816262002911
            },
            "position": {
                "x": -0.8240239810943604,
                "y": 0.19912469901144506,
                "z": 0.16403168439865112
            }
        },
        "name": "move_to_storage_D"
    },
    "id": "STRIDE_move_to_storage_D_25",
    "joint_names": [
        "shoulder_pan_joint",
        "shoulder_lift_joint",
        "elbow_joint",
        "wrist_1_joint",
        "wrist_2_joint",
        "wrist_3_joint"
    ],
    "metrics": {
        "cart_traj_len": 3.7132410560043665,
        "distance_elbow_joint": 4.208434491909937,
        "distance_shoulder_lift_joint": 1.2651171977274993,
        "distance_shoulder_pan_joint": 2.812756968119248,
        "distance_wrist_1_joint": 2.3427189542310085,
        "distance_wrist_2_joint": 0.9788903063891352,
        "distance_wrist_3_joint": 3.1817893956053243,
        "smoothness": 0.2286486290174322,
        "time": 0.30182171599999996,
        "traj_len": 3.84573885150593,
        "weighted_distance": 4.947210867328473
    },
    "planner": "STRIDE",
    "start": {
        "state": {
            "elbow_joint": -2.384821988534728,
            "shoulder_lift_joint": -2.2788054721415256,
            "shoulder_pan_joint": -0.1854694642142757,
            "wrist_1_joint": 1.4845938289331202,
            "wrist_2_joint": 0.17898776772866878,
            "wrist_3_joint": 0.037105688729662994
        }
    },
    "waypoints": [
        {
            "positions": [
                -0.1854694642142757,
                -2.2788054721415256,
                -2.384821988534728,
                1.4845938289331202,
                0.17898776772866878,
                0.037105688729662994
            ]
        },
        {
            "positions": [
                -0.12970916804315155,
                -2.2312248714832994,
                -2.363631671621323,
                1.5243511960134537,
                0.12378745753003338,
                0.018275790265417393
            ]
        },
        {
            "positions": [
                -0.05264490311445601,
                -2.200545014737818,
                -2.245126946048467,
                1.4645844205887528,
                0.145076141547777,
                0.10285402108687293
            ]
        },
        {
            "positions": [
                0.024419361814239537,
                -2.169865157992337,
                -2.126622220475611,
                1.404817645164052,
                0.16636482556552065,
                0.18743225190832846
            ]
        },
        {
            "positions": [
                0.1014836267429351,
                -2.139185301246856,
                -2.008117494902755,
                1.345050869739351,
                0.1876535095832643,
                0.272010482729784
            ]
        },
        {
            "positions": [
                0.17854789167163063,
                -2.1085054445013744,
                -1.889612769329899,
                1.2852840943146504,
                0.2089421936010079,
                0.3565887135512395
            ]
        },
        {
            "positions": [
                0.2556121566003262,
                -2.077825587755893,
                -1.7711080437570432,
                1.2255173188899495,
                0.23023087761875155,
                0.44116694437269505
            ]
        },
        {
            "positions": [
                0.33267642152902177,
                -2.047145731010412,
                -1.652603318184187,
                1.1657505434652486,
                0.2515195616364952,
                0.5257451751941506
            ]
        },
        {
            "positions": [
                0.40974068645771733,
                -2.016465874264931,
                -1.5340985926113313,
                1.1059837680405478,
                0.27280824565423883,
                0.6103234060156062
            ]
        },
        {
            "positions": [
                0.4868049513864128,
                -1.9857860175194495,
                -1.4155938670384753,
                1.0462169926158469,
                0.2940969296719825,
                0.6949016368370616
            ]
        },
        {
            "positions": [
                0.5638692163151083,
                -1.9551061607739684,
                -1.2970891414656194,
                0.9864502171911461,
                0.31538561368972606,
                0.7794798676585172
            ]
        },
        {
            "positions": [
                0.6409334812438039,
                -1.924426304028487,
                -1.1785844158927634,
                0.9266834417664452,
                0.3366742977074697,
                0.8640580984799727
            ]
        },
        {
            "positions": [
                0.7179977461724995,
                -1.893746447283006,
                -1.0600796903199075,
                0.8669166663417444,
                0.35796298172521335,
                0.9486363293014283
            ]
        },
        {
            "positions": [
                0.795062011101195,
                -1.8630665905375245,
                -0.9415749647470515,
                0.8071498909170435,
                0.37925166574295704,
                1.033214560122884
            ]
        },
        {
            "positions": [
                0.8721262760298906,
                -1.8323867337920432,
                -0.8230702391741955,
                0.7473831154923426,
                0.4005403497607007,
                1.1177927909443395
            ]
        },
        {
            "positions": [
                0.9491905409585862,
                -1.801706877046562,
                -0.7045655136013396,
                0.6876163400676418,
                0.42182903377844433,
                1.202371021765795
            ]
        },
        {
            "positions": [
                1.0262548058872818,
                -1.771027020301081,
                -0.5860607880284838,
                0.6278495646429411,
                0.4431177177961879,
                1.2869492525872503
            ]
        },
        {
            "positions": [
                1.1033190708159772,
                -1.7403471635555996,
                -0.46755606245562786,
                0.5680827892182402,
                0.46440640181393156,
                1.371527483408706
            ]
        },
        {
            "positions": [
                1.180383335744673,
                -1.7096673068101185,
                -0.3490513368827717,
                0.5083160137935392,
                0.4856950858316752,
                1.4561057142301614
            ]
        },
        {
            "positions": [
                1.2574476006733684,
                -1.6789874500646373,
                -0.23054661130991594,
                0.44854923836883853,
                0.5069837698494187,
                1.540683945051617
            ]
        },
        {
            "positions": [
                1.3345118656020638,
                -1.648307593319156,
                -0.1120418857370602,
                0.38878246294413765,
                0.5282724538671624,
                1.6252621758730725
            ]
        },
        {
            "positions": [
                1.4115761305307595,
                -1.6176277365736746,
                0.006462839835795986,
                0.3290156875194368,
                0.549561137884906,
                1.709840406694528
            ]
        },
        {
            "positions": [
                1.488640395459455,
                -1.5869478798281935,
                0.12496756540865173,
                0.2692489120947359,
                0.5708498219026497,
                1.7944186375159836
            ]
        },
        {
            "positions": [
                1.5657046603881506,
                -1.5562680230827124,
                0.2434722909815079,
                0.209482136670035,
                0.5921385059203933,
                1.8789968683374392
            ]
        },
        {
            "positions": [
                1.642768925316846,
                -1.525588166337231,
                0.36197701655436365,
                0.14971536124533413,
                0.6134271899381369,
                1.9635750991588947
            ]
        },
        {
            "positions": [
                1.7198331902455417,
                -1.4949083095917497,
                0.48048174212721984,
                0.08994858582063325,
                0.6347158739558807,
                2.0481533299803507
            ]
        },
        {
            "positions": [
                1.7968974551742374,
                -1.4642284528462686,
                0.598986467700076,
                0.030181810395932374,
                0.6560045579736243,
                2.132731560801806
            ]
        },
        {
            "positions": [
                1.8739617201029328,
                -1.4335485961007872,
                0.7174911932729318,
                -0.029584965028768506,
                0.677293241991368,
                2.217309791623262
            ]
        },
        {
            "positions": [
                1.9510259850316283,
                -1.402868739355306,
                0.8359959188457879,
                -0.08935174045346916,
                0.6985819260091116,
                2.301888022444717
            ]
        },
        {
            "positions": [
                2.028090249960324,
                -1.3721888826098247,
                0.9545006444186437,
                -0.14911851587817004,
                0.7198706100268553,
                2.386466253266173
            ]
        },
        {
            "positions": [
                2.1051545148890196,
                -1.3415090258643434,
                1.0730053699914999,
                -0.20888529130287092,
                0.7411592940445989,
                2.4710444840876282
            ]
        },
        {
            "positions": [
                2.182218779817715,
                -1.3108291691188625,
                1.1915100955643552,
                -0.2686520667275716,
                0.7624479780623424,
                2.5556227149090835
            ]
        },
        {
            "positions": [
                2.2592830447464105,
                -1.2801493123733811,
                1.3100148211372113,
                -0.32841884215227246,
                0.7837366620800861,
                2.6402009457305393
            ]
        },
        {
            "positions": [
                2.336347309675106,
                -1.2494694556278998,
                1.428519546710067,
                -0.38818561757697334,
                0.8050253460978297,
                2.7247791765519946
            ]
        },
        {
            "positions": [
                2.4134115746038014,
                -1.2187895988824187,
                1.5470242722829233,
                -0.4479523930016742,
                0.8263140301155734,
                2.8093574073734504
            ]
        },
        {
            "positions": [
                2.4904758395324973,
                -1.1881097421369375,
                1.6655289978557795,
                -0.5077191684263753,
                0.847602714133317,
                2.8939356381949057
            ]
        },
        {
            "positions": [
                2.5675401044611927,
                -1.1574298853914562,
                1.7840337234286352,
                -0.5674859438510759,
                0.8688913981510606,
                2.9785138690163615
            ]
        },
        {
            "positions": [
                2.587455904275786,
                -1.1095160150656462,
                1.7972266500774938,
                -0.6378607596131244,
                0.9284200833408848,
                3.0460876751464063
            ]
        },
        {
            "positions": [
                2.607371704090379,
                -1.0616021447398363,
                1.8104195767263522,
                -0.7082355753751728,
                0.987948768530709,
                3.1136614812764516
            ]
        },
        {
            "positions": [
                2.6272875039049723,
                -1.0136882744140263,
                1.8236125033752109,
                -0.7786103911372213,
                1.0474774537205331,
                3.1812352874064964
            ]
        }
    ]
}