{
    "goal": {
        "global_pose": {
            "orientation": {
                "w": -0.4816463035849501,
                "x": 0.5182115481033762,
                "y": 0.4908360881923453,
                "z": -0.5084816262002911
            },
            "position": {
                "x": -0.8240239810943604,
                "y": -0.300875300988555,
                "z": 0.16403168439865112
            }
        },
        "name": "move_to_storage_C"
    },
    "id": "STRIDE_move_to_storage_C_78",
    "joint_names": [
        "shoulder_pan_joint",
        "shoulder_lift_joint",
        "elbow_joint",
        "wrist_1_joint",
        "wrist_2_joint",
        "wrist_3_joint"
    ],
    "metrics": {
        "cart_traj_len": 0.5763272840971659,
        "distance_elbow_joint": 0.25701710171469294,
        "distance_shoulder_lift_joint": 0.18925649616920048,
        "distance_shoulder_pan_joint": 0.49505634791167763,
        "distance_wrist_1_joint": 0.07694404354001916,
        "distance_wrist_2_joint": 1.0638721483597822,
        "distance_wrist_3_joint": 0.06907348208770481,
        "smoothness": 0.0,
        "time": 0.15758095,
        "traj_len": 1.4667036577929016,
        "weighted_distance": 1.8520752619314065
    },
    "planner": "STRIDE",
    "start": {
        "state": {
            "elbow_joint": 2.010868314990456,
            "shoulder_lift_joint": -1.1634956873337592,
            "shoulder_pan_joint": -2.4736205022346125,
            "wrist_1_joint": -0.8367026794202681,
            "wrist_2_joint": 0.6746043897044499,
            "wrist_3_joint": -3.1496632123970403
        }
    },
    "waypoints": [
        {
            "positions": [
                -2.4736205022346125,
                -1.1634956873337592,
                2.010868314990456,
                -0.8367026794202681,
                0.6746043897044499,
                -3.1496632123970403
            ]
        },
        {
            "positions": [
                -2.5561298935532255,
                -1.1319529379722257,
                1.9680321313713403,
                -0.8238786721635982,
                0.8519164144310802,
                -3.138150965382423
            ]
        },
        {
            "positions": [
                -2.6386392848718385,
                -1.1004101886106923,
                1.925195947752225,
                -0.8110546649069283,
                1.0292284391577107,
                -3.1266387183678055
            ]
        },
        {
            "positions": [
                -2.7211486761904515,
                -1.0688674392491588,
                1.8823597641331093,
                -0.7982306576502585,
                1.206540463884341,
                -3.1151264713531877
            ]
        },
        {
            "positions": [
                -2.803658067509064,
                -1.0373246898876256,
                1.8395235805139938,
                -0.7854066503935887,
                1.3838524886109713,
                -3.1036142243385703
            ]
        },
        {
            "positions": [
                -2.886167458827677,
                -1.0057819405260922,
                1.7966873968948784,
                -0.7725826431369188,
                1.5611645133376018,
                -3.092101977323953
            ]
        },
        {
            "positions": [
                -2.96867685014629,
                -0.9742391911645587,
                1.7538512132757629,
                -0.759758635880249,
                1.738476538064232,
                -3.0805897303093355
            ]
        }
    ]
}