{
    "goal": {
        "global_pose": {
            "orientation": {
                "w": 0.005598929693374612,
                "x": 0.007748599140229565,
                "y": 0.7110244013736278,
                "z": -0.7031023480610252
            },
            "position": {
                "x": 0.1141497679147869,
                "y": -0.7141253447532654,
                "z": 0.3711530566215515
            }
        },
        "name": "move_to_auspresseinheit_B"
    },
    "id": "STRIDE_move_to_auspresseinheit_B_107",
    "joint_names": [
        "shoulder_pan_joint",
        "shoulder_lift_joint",
        "elbow_joint",
        "wrist_1_joint",
        "wrist_2_joint",
        "wrist_3_joint"
    ],
    "metrics": {
        "cart_traj_len": 0.5646398049796053,
        "distance_elbow_joint": 0.06331893458070503,
        "distance_shoulder_lift_joint": 0.29608142868899723,
        "distance_shoulder_pan_joint": 0.5784946262241091,
        "distance_wrist_1_joint": 0.33425258766968935,
        "distance_wrist_2_joint": 0.9869138454791149,
        "distance_wrist_3_joint": 0.0083724587004248,
        "smoothness": 5.075305295617109e-16,
        "time": 0.052958232,
        "traj_len": 1.5058000801378115,
        "weighted_distance": 1.8987746659076463
    },
    "planner": "STRIDE",
    "start": {
        "state": {
            "elbow_joint": 2.0193083361928714,
            "shoulder_lift_joint": -1.1220246554650708,
            "shoulder_pan_joint": -1.0952077554168747,
            "wrist_1_joint": -0.8559753972642168,
            "wrist_2_joint": 0.4759566250798843,
            "wrist_3_joint": -3.1240929996934557
        }
    },
    "waypoints": [
        {
            "positions": [
                -1.0952077554168747,
                -1.1220246554650708,
                2.0193083361928714,
                -0.8559753972642168,
                0.4759566250798843,
                -3.1240929996934557
            ]
        },
        {
            "positions": [
                -1.191623526454226,
                -1.1713715602465704,
                2.0087551804294206,
                -0.8002666326526019,
                0.6404422659930701,
                -3.1226975899100515
            ]
        },
        {
            "positions": [
                -1.2880392974915778,
                -1.2207184650280698,
                1.9982020246659697,
                -0.744557868040987,
                0.8049279069062558,
                -3.1213021801266474
            ]
        },
        {
            "positions": [
                -1.3844550685289292,
                -1.2700653698095694,
                1.987648868902519,
                -0.6888491034293721,
                0.9694135478194417,
                -3.1199067703432433
            ]
        },
        {
            "positions": [
                -1.4808708395662806,
                -1.319412274591069,
                1.977095713139068,
                -0.6331403388177572,
                1.1338991887326275,
                -3.118511360559839
            ]
        },
        {
            "positions": [
                -1.5772866106036323,
                -1.3687591793725684,
                1.9665425573756172,
                -0.5774315742061423,
                1.2983848296458134,
                -3.117115950776435
            ]
        },
        {
            "positions": [
                -1.6737023816409837,
                -1.418106084154068,
                1.9559894016121664,
                -0.5217228095945274,
                1.4628704705589992,
                -3.115720540993031
            ]
        }
    ]
}