{
    "goal": {
        "global_pose": {
            "orientation": {
                "w": 0.7031023502349854,
                "x": -0.7110244035720825,
                "y": 0.007748599164187908,
                "z": 0.005598929710686207
            },
            "position": {
                "x": 0.11585023208521307,
                "y": 0.44412534475326537,
                "z": 0.3711530566215515
            }
        },
        "name": "move_to_auspresseinheit_A"
    },
    "id": "STRIDE_move_to_auspresseinheit_A_40",
    "joint_names": [
        "shoulder_pan_joint",
        "shoulder_lift_joint",
        "elbow_joint",
        "wrist_1_joint",
        "wrist_2_joint",
        "wrist_3_joint"
    ],
    "metrics": {
        "cart_traj_len": 0.6793365811466219,
        "distance_elbow_joint": 0.04517399352441931,
        "distance_shoulder_lift_joint": 0.5846039669827101,
        "distance_shoulder_pan_joint": 1.0454162467616945,
        "distance_wrist_1_joint": 0.576208192320192,
        "distance_wrist_2_joint": 0.5431561565754739,
        "distance_wrist_3_joint": 0.21327388081850263,
        "smoothness": 0.335034889307856,
        "time": 0.33519575300000004,
        "traj_len": 1.734310363511385,
        "weighted_distance": 2.1339504557312625
    },
    "planner": "STRIDE",
    "start": {
        "state": {
            "elbow_joint": 2.4225746658250005,
            "shoulder_lift_joint": -1.3736534386056498,
            "shoulder_pan_joint": -0.3378633547517467,
            "wrist_1_joint": -1.0288598680537169,
            "wrist_2_joint": 1.233022673432363,
            "wrist_3_joint": -3.0940220416140027
        }
    },
    "waypoints": [
        {
            "positions": [
                -0.3378633547517467,
                -1.3736534386056498,
                2.4225746658250005,
                -1.0288598680537169,
                1.233022673432363,
                -3.0940220416140027
            ]
        },
        {
            "positions": [
                -0.18770690788896163,
                -1.466782792524477,
                2.4237459626143307,
                -0.949600065419528,
                1.2352432045952915,
                -3.1155888125020357
            ]
        },
        {
            "positions": [
                -0.03755046102617654,
                -1.5599121464433041,
                2.424917259403661,
                -0.8703402627853392,
                1.23746373575822,
                -3.137155583390068
            ]
        },
        {
            "positions": [
                0.11260598583660858,
                -1.6530415003621313,
                2.4260885561929912,
                -0.7910804601511503,
                1.2396842669211485,
                -3.158722354278101
            ]
        },
        {
            "positions": [
                0.26276243269939364,
                -1.7461708542809582,
                2.4272598529823215,
                -0.7118206575169616,
                1.241904798084077,
                -3.180289125166134
            ]
        },
        {
            "positions": [
                0.4129188795621788,
                -1.8393002081997853,
                2.4284311497716518,
                -0.6325608548827726,
                1.2441253292470056,
                -3.2018558960541665
            ]
        },
        {
            "positions": [
                0.5630753264249638,
                -1.9324295621186125,
                2.429602446560982,
                -0.5533010522485838,
                1.246345860409934,
                -3.2234226669421995
            ]
        },
        {
            "positions": [
                0.6112345149532918,
                -1.92382028096203,
                2.4168870422981694,
                -0.5197512600768975,
                1.0697348705439664,
                -3.1954649151120975
            ]
        },
        {
            "positions": [
                0.6593937034816197,
                -1.9152109998054476,
                2.404171638035357,
                -0.48620146790521124,
                0.8931238806779987,
                -3.1675071632819956
            ]
        },
        {
            "positions": [
                0.7075528920099478,
                -1.906601718648865,
                2.3914562337725442,
                -0.4526516757335249,
                0.7165128908120311,
                -3.1395494114518936
            ]
        }
    ]
}