{
    "goal": {
        "global_pose": {
            "orientation": {
                "w": 0.5084816217422485,
                "x": -0.49083608388900757,
                "y": 0.5182115435600281,
                "z": -0.4816462993621826
            },
            "position": {
                "x": 0.5540239810943604,
                "y": 0.030875300988554955,
                "z": 0.16403168439865112
            }
        },
        "name": "move_to_storage_A"
    },
    "id": "STRIDE_move_to_storage_A_67",
    "joint_names": [
        "shoulder_pan_joint",
        "shoulder_lift_joint",
        "elbow_joint",
        "wrist_1_joint",
        "wrist_2_joint",
        "wrist_3_joint"
    ],
    "metrics": {
        "cart_traj_len": 0.35359070581560936,
        "distance_elbow_joint": 0.4496978799389859,
        "distance_shoulder_lift_joint": 0.23456357900365998,
        "distance_shoulder_pan_joint": 0.4643257878507532,
        "distance_wrist_1_joint": 0.24410856291339467,
        "distance_wrist_2_joint": 1.091095072597059,
        "distance_wrist_3_joint": 0.10698065629797737,
        "smoothness": 1.1102230298998083e-15,
        "time": 0.059042012,
        "traj_len": 1.6095873814744666,
        "weighted_distance": 2.0346833873377546
    },
    "planner": "STRIDE",
    "start": {
        "state": {
            "elbow_joint": 1.971548259319323,
            "shoulder_lift_joint": -1.1394851275133948,
            "shoulder_pan_joint": 0.1228115487234821,
            "wrist_1_joint": -0.7804723859257726,
            "wrist_2_joint": 0.12958671773740124,
            "wrist_3_joint": -3.192489227718131
        }
    },
    "waypoints": [
        {
            "positions": [
                0.1228115487234821,
                -1.1394851275133948,
                1.971548259319323,
                -0.7804723859257726,
                0.12958671773740124,
                -3.192489227718131
            ]
        },
        {
            "positions": [
                0.05647929331623165,
                -1.1729942102282034,
                2.035790813596321,
                -0.8153450377705432,
                0.28545744239412396,
                -3.17720627681842
            ]
        },
        {
            "positions": [
                -0.009852962091018796,
                -1.206503292943012,
                2.100033367873319,
                -0.850217689615314,
                0.44132816705084665,
                -3.161923325918709
            ]
        },
        {
            "positions": [
                -0.07618521749826926,
                -1.2400123756578205,
                2.164275922150317,
                -0.8850903414600846,
                0.5971988917075693,
                -3.146640375018998
            ]
        },
        {
            "positions": [
                -0.1425174729055197,
                -1.273521458372629,
                2.2285184764273147,
                -0.9199629933048553,
                0.753069616364292,
                -3.1313574241192867
            ]
        },
        {
            "positions": [
                -0.20884972831277016,
                -1.3070305410874377,
                2.292761030704313,
                -0.9548356451496259,
                0.9089403410210148,
                -3.1160744732195758
            ]
        },
        {
            "positions": [
                -0.2751819837200206,
                -1.3405396238022462,
                2.357003584981311,
                -0.9897082969943967,
                1.0648110656777374,
                -3.1007915223198648
            ]
        },
        {
            "positions": [
                -0.3415142391272711,
                -1.3740487065170548,
                2.421246139258309,
                -1.0245809488391673,
                1.2206817903344602,
                -3.085508571420154
            ]
        }
    ]
}{
    "goal": {
        "global_pose": {
            "orientation": {
                "w": 0.5084816217422485,
                "x": -0.49083608388900757,
                "y": 0.5182115435600281,
                "z": -0.4816462993621826
            },
            "position": {
                "x": 0.5540239810943604,
                "y": 0.030875300988554955,
                "z": 0.16403168439865112
            }
        },
        "name": "move_to_storage_A"
    },
    "id": "STRIDE_move_to_storage_A_67",
    "joint_names": [
        "shoulder_pan_joint",
        "shoulder_lift_joint",
        "elbow_joint",
        "wrist_1_joint",
        "wrist_2_joint",
        "wrist_3_joint"
    ],
    "metrics": {
        "cart_traj_len": 0.3537624464962728,
        "distance_elbow_joint": 0.4499993820394703,
        "distance_shoulder_lift_joint": 0.23607730044296882,
        "distance_shoulder_pan_joint": 0.4648239746510733,
        "distance_wrist_1_joint": 0.23777554938906875,
        "distance_wrist_2_joint": 1.0915656868193477,
        "distance_wrist_3_joint": 0.093145000618994,
        "smoothness": 4.440892098500626e-16,
        "time": 0.10398075600000001,
        "traj_len": 1.6041779495931625,
        "weighted_distance": 2.0221320756585923
    },
    "planner": "STRIDE",
    "start": {
        "state": {
            "elbow_joint": 1.97154746011099,
            "shoulder_lift_joint": -1.13948474672311,
            "shoulder_pan_joint": 0.12281154466712228,
            "wrist_1_joint": -0.7804688027058302,
            "wrist_2_joint": 0.12958655903071145,
            "wrist_3_joint": 3.0906928834467795
        }
    },
    "waypoints": [
        {
            "positions": [
                0.12281154466712228,
                -1.13948474672311,
                1.97154746011099,
                -0.7804688027058302,
                0.12958655903071145,
                3.0906928834467795
            ]
        },
        {
            "positions": [
                0.05640811971696896,
                -1.1732100753578198,
                2.0358330861166287,
                -0.81443673833284,
                0.28552451429061826,
                3.1039993121066356
            ]
        },
        {
            "positions": [
                -0.009995305233184357,
                -1.2069354039925295,
                2.100118712122267,
                -0.8484046739598499,
                0.44146246955052504,
                3.117305740766492
            ]
        },
        {
            "positions": [
                -0.07639873018333769,
                -1.2406607326272394,
                2.164404338127906,
                -0.8823726095868596,
                0.5974004248104319,
                3.1306121694263482
            ]
        },
        {
            "positions": [
                -0.14280215513349098,
                -1.2743860612619493,
                2.2286899641335443,
                -0.9163405452138694,
                0.7533383800703387,
                3.1439185980862048
            ]
        },
        {
            "positions": [
                -0.20920558008364432,
                -1.3081113898966592,
                2.292975590139183,
                -0.9503084808408793,
                0.9092763353302455,
                3.157225026746061
            ]
        },
        {
            "positions": [
                -0.27560900503379765,
                -1.3418367185313689,
                2.3572612161448214,
                -0.9842764164678891,
                1.0652142905901523,
                3.1705314554059174
            ]
        },
        {
            "positions": [
                -0.342012429983951,
                -1.3755620471660788,
                2.4215468421504602,
                -1.018244352094899,
                1.2211522458500592,
                3.1838378840657735
            ]
        }
    ]
}{
    "goal": {
        "global_pose": {
            "orientation": {
                "w": 0.5084816217422485,
                "x": -0.49083608388900757,
                "y": 0.5182115435600281,
                "z": -0.4816462993621826
            },
            "position": {
                "x": 0.5540239810943604,
                "y": 0.030875300988554955,
                "z": 0.16403168439865112
            }
        },
        "name": "move_to_storage_A"
    },
    "id": "STRIDE_move_to_storage_A_67",
    "joint_names": [
        "shoulder_pan_joint",
        "shoulder_lift_joint",
        "elbow_joint",
        "wrist_1_joint",
        "wrist_2_joint",
        "wrist_3_joint"
    ],
    "metrics": {
        "cart_traj_len": 0.353020201935856,
        "distance_elbow_joint": 0.4539525900237087,
        "distance_shoulder_lift_joint": 0.2350247580875371,
        "distance_shoulder_pan_joint": 0.4622077429649319,
        "distance_wrist_1_joint": 0.2578091205264583,
        "distance_wrist_2_joint": 1.0969885372296582,
        "distance_wrist_3_joint": 0.09568078436064242,
        "smoothness": 0.0,
        "time": 0.15074721200000002,
        "traj_len": 1.6129673069200554,
        "weighted_distance": 2.0366204260171648
    },
    "planner": "STRIDE",
    "start": {
        "state": {
            "elbow_joint": 1.9715472970024885,
            "shoulder_lift_joint": -1.1394870060712896,
            "shoulder_pan_joint": 0.12281152778156021,
            "wrist_1_joint": -0.780463741449964,
            "wrist_2_joint": 0.12958659822042276,
            "wrist_3_joint": 3.090690232415272
        }
    },
    "waypoints": [
        {
            "positions": [
                0.12281152778156021,
                -1.1394870060712896,
                1.9715472970024885,
                -0.780463741449964,
                0.12958659822042276,
                3.090690232415272
            ]
        },
        {
            "positions": [
                0.056781850215141386,
                -1.1730619715123662,
                2.0363976670058754,
                -0.8172936158108867,
                0.28629924639608817,
                3.1043589158953635
            ]
        },
        {
            "positions": [
                -0.009247827351277438,
                -1.206636936953443,
                2.1012480370092623,
                -0.8541234901718092,
                0.4430118945717536,
                3.1180275993754556
            ]
        },
        {
            "positions": [
                -0.07527750491769628,
                -1.2402119023945197,
                2.166098407012649,
                -0.8909533645327319,
                0.599724542747419,
                3.1316962828555472
            ]
        },
        {
            "positions": [
                -0.14130718248411508,
                -1.2737868678355966,
                2.230948777016036,
                -0.9277832388936544,
                0.7564371909230845,
                3.145364966335639
            ]
        },
        {
            "positions": [
                -0.20733686005053395,
                -1.3073618332766732,
                2.2957991470194234,
                -0.9646131132545771,
                0.91314983909875,
                3.1590336498157305
            ]
        },
        {
            "positions": [
                -0.27336653761695273,
                -1.3409367987177498,
                2.3606495170228103,
                -1.0014429876154998,
                1.0698624872744154,
                3.1727023332958226
            ]
        },
        {
            "positions": [
                -0.33939621518337165,
                -1.3745117641588267,
                2.4254998870261972,
                -1.0382728619764223,
                1.226575135450081,
                3.1863710167759143
            ]
        }
    ]
}