{
    "goal": {
        "global_pose": {
            "orientation": {
                "w": 0.7047431493862688,
                "x": -0.7094548369677653,
                "y": 0.0024358444001904,
                "z": -0.0022348060817251984
            },
            "position": {
                "x": -0.39052492380142206,
                "y": 0.3671506643295288,
                "z": 0.19426114857196808
            }
        },
        "name": "move_to_magneteinheit_D"
    },
    "id": "STRIDE_move_to_magneteinheit_D_18",
    "joint_names": [
        "shoulder_pan_joint",
        "shoulder_lift_joint",
        "elbow_joint",
        "wrist_1_joint",
        "wrist_2_joint",
        "wrist_3_joint"
    ],
    "metrics": {
        "cart_traj_len": 5.273145085069189,
        "distance_elbow_joint": 3.105961764995639,
        "distance_shoulder_lift_joint": 2.403357550490483,
        "distance_shoulder_pan_joint": 9.250210186846282,
        "distance_wrist_1_joint": 3.466187629028319,
        "distance_wrist_2_joint": 8.098839005499954,
        "distance_wrist_3_joint": 7.051626121433753,
        "smoothness": 0.3527120494128889,
        "time": 0.9002447060000001,
        "traj_len": 5.777212325879533,
        "weighted_distance": 7.684039376245424
    },
    "planner": "STRIDE",
    "start": {
        "state": {
            "elbow_joint": 0.749534889911806,
            "shoulder_lift_joint": -0.6476975780787326,
            "shoulder_pan_joint": -2.711696901376241,
            "wrist_1_joint": -0.07506478083263063,
            "wrist_2_joint": 0.43296659715538205,
            "wrist_3_joint": -3.14703540197715
        }
    },
    "waypoints": [
        {
            "positions": [
                -2.711696901376241,
                -0.6476975780787326,
                0.749534889911806,
                -0.07506478083263063,
                0.43296659715538205,
                -3.14703540197715
            ]
        },
        {
            "positions": [
                -2.725881055355576,
                -0.6322709390602074,
                0.7164435418875783,
                0.02716717104035117,
                0.34942580075086166,
                -3.1277670306710643
            ]
        },
        {
            "positions": [
                -2.7400652093349103,
                -0.6168443000416822,
                0.6833521938633507,
                0.12939912291333297,
                0.2658850043463412,
                -3.1084986593649786
            ]
        },
        {
            "positions": [
                -2.754249363314245,
                -0.601417661023157,
                0.650260845839123,
                0.23163107478631478,
                0.18234420794182082,
                -3.089230288058893
            ]
        },
        {
            "positions": [
                -2.7386665176161076,
                -0.5939044347227082,
                0.5651729579797837,
                0.2770336850240928,
                0.10675525515746426,
                -2.942634371889982
            ]
        },
        {
            "positions": [
                -2.7230836719179705,
                -0.5863912084222592,
                0.4800850701204443,
                0.32243629526187084,
                0.03116630237310769,
                -2.796038455721071
            ]
        },
        {
            "positions": [
                -2.707500826219833,
                -0.5788779821218104,
                0.394997182261105,
                0.3678389054996489,
                -0.044422650411248876,
                -2.6494425395521595
            ]
        },
        {
            "positions": [
                -2.6919179805216955,
                -0.5713647558213615,
                0.3099092944017656,
                0.41324151573742696,
                -0.12001160319560544,
                -2.5028466233832485
            ]
        },
        {
            "positions": [
                -2.676335134823558,
                -0.5638515295209127,
                0.22482140654242622,
                0.458644125975205,
                -0.19560055597996207,
                -2.356250707214337
            ]
        },
        {
            "positions": [
                -2.660752289125421,
                -0.5563383032204637,
                0.13973351868308692,
                0.504046736212983,
                -0.2711895087643186,
                -2.209654791045426
            ]
        },
        {
            "positions": [
                -2.6451694434272834,
                -0.5488250769200149,
                0.054645630823747515,
                0.549449346450761,
                -0.3467784615486752,
                -2.063058874876515
            ]
        },
        {
            "positions": [
                -2.619622170741761,
                -0.5490521606068217,
                -0.0290498015971489,
                0.5601447527231888,
                -0.40846989582086285,
                -1.9057502924865162
            ]
        },
        {
            "positions": [
                -2.5940748980562383,
                -0.5492792442936285,
                -0.11274523401804531,
                0.5708401589956165,
                -0.4701613300930505,
                -1.7484417100965173
            ]
        },
        {
            "positions": [
                -2.568527625370715,
                -0.5495063279804352,
                -0.19644066643894176,
                0.5815355652680442,
                -0.5318527643652382,
                -1.5911331277065184
            ]
        },
        {
            "positions": [
                -2.5429803526851926,
                -0.549733411667242,
                -0.28013609885983815,
                0.5922309715404719,
                -0.5935441986374258,
                -1.4338245453165195
            ]
        },
        {
            "positions": [
                -2.4815850958686103,
                -0.5774683386704862,
                -0.33704725527094026,
                0.514622089678642,
                -0.6084293236804836,
                -1.2890521907861576
            ]
        },
        {
            "positions": [
                -2.420189839052028,
                -0.6052032656737303,
                -0.3939584116820423,
                0.437013207816812,
                -0.6233144487235415,
                -1.1442798362557955
            ]
        },
        {
            "positions": [
                -2.3587945822354457,
                -0.6329381926769745,
                -0.4508695680931444,
                0.3594043259549821,
                -0.6381995737665993,
                -0.9995074817254337
            ]
        },
        {
            "positions": [
                -2.2973993254188634,
                -0.6606731196802187,
                -0.5077807245042465,
                0.28179544409315216,
                -0.653084698809657,
                -0.8547351271950717
            ]
        },
        {
            "positions": [
                -2.2360040686022806,
                -0.6884080466834629,
                -0.5646918809153486,
                0.20418656223132226,
                -0.6679698238527149,
                -0.7099627726647098
            ]
        },
        {
            "positions": [
                -2.1746088117856983,
                -0.7161429736867071,
                -0.6216030373264507,
                0.12657768036949235,
                -0.6828549488957727,
                -0.5651904181343478
            ]
        },
        {
            "positions": [
                -2.113213554969116,
                -0.7438779006899512,
                -0.6785141937375527,
                0.04896879850766245,
                -0.6977400739388305,
                -0.4204180636039858
            ]
        },
        {
            "positions": [
                -2.0518182981525337,
                -0.7716128276931954,
                -0.735425350148655,
                -0.028640083354167567,
                -0.7126251989818884,
                -0.27564570907362396
            ]
        },
        {
            "positions": [
                -1.9904230413359514,
                -0.7993477546964396,
                -0.792336506559757,
                -0.10624896521599747,
                -0.7275103240249462,
                -0.13087335454326188
            ]
        },
        {
            "positions": [
                -1.929027784519369,
                -0.8270826816996837,
                -0.8492476629708591,
                -0.18385784707782737,
                -0.742395449068004,
                0.01389899998709998
            ]
        },
        {
            "positions": [
                -1.8676325277027868,
                -0.854817608702928,
                -0.9061588193819612,
                -0.2614667289396574,
                -0.7572805741110618,
                0.15867135451746206
            ]
        },
        {
            "positions": [
                -1.8062372708862044,
                -0.8825525357061721,
                -0.9630699757930632,
                -0.3390756108014872,
                -0.7721656991541196,
                0.3034437090478239
            ]
        },
        {
            "positions": [
                -1.7448420140696221,
                -0.9102874627094163,
                -1.0199811322041654,
                -0.4166844926633171,
                -0.7870508241971774,
                0.4482160635781858
            ]
        },
        {
            "positions": [
                -1.6834467572530398,
                -0.9380223897126605,
                -1.0768922886152674,
                -0.494293374525147,
                -0.8019359492402353,
                0.5929884181085479
            ]
        },
        {
            "positions": [
                -1.6220515004364573,
                -0.9657573167159046,
                -1.1338034450263694,
                -0.5719022563869771,
                -0.8168210742832931,
                0.7377607726389099
            ]
        },
        {
            "positions": [
                -1.5606562436198748,
                -0.9934922437191488,
                -1.1907146014374717,
                -0.649511138248807,
                -0.8317061993263509,
                0.8825331271692716
            ]
        },
        {
            "positions": [
                -1.4992609868032927,
                -1.021227170722393,
                -1.2476257578485737,
                -0.7271200201106369,
                -0.8465913243694088,
                1.0273054816996336
            ]
        },
        {
            "positions": [
                -1.4378657299867101,
                -1.048962097725637,
                -1.3045369142596757,
                -0.8047289019724668,
                -0.8614764494124665,
                1.1720778362299957
            ]
        },
        {
            "positions": [
                -1.3764704731701278,
                -1.0766970247288814,
                -1.3614480706707779,
                -0.8823377838342967,
                -0.8763615744555243,
                1.3168501907603574
            ]
        },
        {
            "positions": [
                -1.3150752163535455,
                -1.1044319517321255,
                -1.4183592270818801,
                -0.9599466656961266,
                -0.8912466994985822,
                1.4616225452907194
            ]
        },
        {
            "positions": [
                -1.1439965871458104,
                -1.083184776910938,
                -1.4413738478466147,
                -0.9721742755737034,
                -0.7473669044114964,
                1.4475685980424888
            ]
        },
        {
            "positions": [
                -0.9729179579380755,
                -1.0619376020897504,
                -1.4643884686113493,
                -0.9844018854512802,
                -0.6034871093244107,
                1.4335146507942584
            ]
        },
        {
            "positions": [
                -0.8018393287303404,
                -1.040690427268563,
                -1.487403089376084,
                -0.9966294953288568,
                -0.4596073142373249,
                1.4194607035460278
            ]
        },
        {
            "positions": [
                -0.6307606995226054,
                -1.0194432524473755,
                -1.5104177101408185,
                -1.0088571052064337,
                -0.3157275191502392,
                1.4054067562977974
            ]
        },
        {
            "positions": [
                -0.4596820703148703,
                -0.998196077626188,
                -1.533432330905553,
                -1.0210847150840103,
                -0.1718477240631534,
                1.3913528090495668
            ]
        },
        {
            "positions": [
                -0.2886034411071352,
                -0.9769489028050006,
                -1.5564469516702877,
                -1.033312324961587,
                -0.027967928976067702,
                1.3772988618013364
            ]
        },
        {
            "positions": [
                -0.11752481189940034,
                -0.955701727983813,
                -1.5794615724350223,
                -1.0455399348391639,
                0.11591186611101789,
                1.3632449145531058
            ]
        },
        {
            "positions": [
                0.05355381730833475,
                -0.9344545531626256,
                -1.6024761931997569,
                -1.0577675447167405,
                0.2597916611981037,
                1.3491909673048754
            ]
        },
        {
            "positions": [
                0.22463244651606984,
                -0.9132073783414381,
                -1.6254908139644915,
                -1.0699951545943172,
                0.4036714562851893,
                1.3351370200566448
            ]
        },
        {
            "positions": [
                0.39571107572380493,
                -0.8919602035202505,
                -1.648505434729226,
                -1.082222764471894,
                0.5475512513722753,
                1.3210830728084144
            ]
        },
        {
            "positions": [
                0.5667897049315398,
                -0.8707130286990631,
                -1.6715200554939607,
                -1.0944503743494707,
                0.6914310464593609,
                1.3070291255601838
            ]
        },
        {
            "positions": [
                0.7378683341392751,
                -0.8494658538778757,
                -1.6945346762586952,
                -1.1066779842270476,
                0.8353108415464467,
                1.2929751783119534
            ]
        },
        {
            "positions": [
                0.90894696334701,
                -0.8282186790566881,
                -1.7175492970234298,
                -1.1189055941046242,
                0.9791906366335323,
                1.2789212310637228
            ]
        },
        {
            "positions": [
                1.0800255925547448,
                -0.8069715042355006,
                -1.7405639177881644,
                -1.1311332039822009,
                1.123070431720618,
                1.2648672838154922
            ]
        },
        {
            "positions": [
                1.2511042217624797,
                -0.7857243294143131,
                -1.763578538552899,
                -1.1433608138597777,
                1.2669502268077035,
                1.2508133365672618
            ]
        },
        {
            "positions": [
                1.422182850970215,
                -0.7644771545931256,
                -1.7865931593176336,
                -1.1555884237373544,
                1.4108300218947896,
                1.2367593893190312
            ]
        },
        {
            "positions": [
                1.5932614801779503,
                -0.7432299797719382,
                -1.8096077800823682,
                -1.167816033614931,
                1.5547098169818752,
                1.2227054420708008
            ]
        },
        {
            "positions": [
                1.7643401093856852,
                -0.7219828049507506,
                -1.8326224008471028,
                -1.180043643492508,
                1.6985896120689608,
                1.2086514948225702
            ]
        },
        {
            "positions": [
                1.93541873859342,
                -0.7007356301295632,
                -1.8556370216118374,
                -1.1922712533700845,
                1.8424694071560463,
                1.1945975475743398
            ]
        },
        {
            "positions": [
                2.1064973678011554,
                -0.6794884553083756,
                -1.878651642376572,
                -1.2044988632476614,
                1.9863492022431328,
                1.1805436003261092
            ]
        },
        {
            "positions": [
                2.2775759970088902,
                -0.6582412804871882,
                -1.9016662631413066,
                -1.216726473125238,
                2.130228997330218,
                1.1664896530778788
            ]
        },
        {
            "positions": [
                2.448654626216625,
                -0.6369941056660007,
                -1.9246808839060412,
                -1.2289540830028147,
                2.2741087924173042,
                1.1524357058296482
            ]
        },
        {
            "positions": [
                2.6197332554243604,
                -0.6157469308448132,
                -1.9476955046707758,
                -1.2411816928803916,
                2.4179885875043894,
                1.1383817585814178
            ]
        },
        {
            "positions": [
                2.7908118846320957,
                -0.5944997560236257,
                -1.9707101254355104,
                -1.2534093027579682,
                2.5618683825914754,
                1.1243278113331872
            ]
        },
        {
            "positions": [
                2.96189051383983,
                -0.5732525812024382,
                -1.993724746200245,
                -1.2656369126355451,
                2.7057481776785615,
                1.1102738640849568
            ]
        },
        {
            "positions": [
                3.132969143047565,
                -0.5520054063812507,
                -2.0167393669649796,
                -1.2778645225131218,
                2.849627972765647,
                1.0962199168367261
            ]
        },
        {
            "positions": [
                3.014382028099477,
                -0.5947358217087071,
                -2.02887106368351,
                -1.3110358218917513,
                2.7412797214591555,
                1.1704186863264363
            ]
        },
        {
            "positions": [
                2.8957949131513887,
                -0.6374662370361635,
                -2.0410027604020406,
                -1.3442071212703806,
                2.632931470152664,
                1.2446174558161465
            ]
        },
        {
            "positions": [
                2.7772077982033005,
                -0.6801966523636198,
                -2.053134457120571,
                -1.37737842064901,
                2.5245832188461725,
                1.3188162253058566
            ]
        },
        {
            "positions": [
                2.658620683255212,
                -0.7229270676910762,
                -2.0652661538391013,
                -1.4105497200276393,
                2.416234967539681,
                1.3930149947955668
            ]
        },
        {
            "positions": [
                2.540033568307124,
                -0.7656574830185325,
                -2.077397850557632,
                -1.4437210194062688,
                2.3078867162331895,
                1.4672137642852772
            ]
        },
        {
            "positions": [
                2.4214464533590356,
                -0.8083878983459889,
                -2.0895295472761624,
                -1.4768923187848981,
                2.1995384649266985,
                1.5414125337749873
            ]
        },
        {
            "positions": [
                2.3028593384109475,
                -0.8511183136734453,
                -2.101661243994693,
                -1.5100636181635276,
                2.091190213620207,
                1.6156113032646975
            ]
        },
        {
            "positions": [
                2.1842722234628593,
                -0.8938487290009016,
                -2.1137929407132234,
                -1.543234917542157,
                1.9828419623137155,
                1.6898100727544076
            ]
        },
        {
            "positions": [
                2.0656851085147707,
                -0.9365791443283581,
                -2.125924637431754,
                -1.5764062169207864,
                1.8744937110072237,
                1.764008842244118
            ]
        },
        {
            "positions": [
                1.9470979935666826,
                -0.9793095596558145,
                -2.1380563341502845,
                -1.609577516299416,
                1.7661454597007322,
                1.8382076117338282
            ]
        },
        {
            "positions": [
                1.8285108786185944,
                -1.0220399749832707,
                -2.1501880308688146,
                -1.6427488156780452,
                1.657797208394241,
                1.9124063812235383
            ]
        },
        {
            "positions": [
                1.7099237636705062,
                -1.064770390310727,
                -2.162319727587345,
                -1.6759201150566747,
                1.5494489570877494,
                1.9866051507132485
            ]
        },
        {
            "positions": [
                1.5913366487224179,
                -1.1075008056381836,
                -2.1744514243058757,
                -1.7090914144353042,
                1.441100705781258,
                2.0608039202029587
            ]
        },
        {
            "positions": [
                1.4727495337743297,
                -1.1502312209656398,
                -2.186583121024406,
                -1.7422627138139335,
                1.3327524544747664,
                2.135002689692669
            ]
        },
        {
            "positions": [
                1.3541624188262416,
                -1.1929616362930964,
                -2.1987148177429368,
                -1.7754340131925628,
                1.224404203168275,
                2.209201459182379
            ]
        },
        {
            "positions": [
                1.2355753038781534,
                -1.2356920516205525,
                -2.2108465144614673,
                -1.8086053125711923,
                1.1160559518617836,
                2.283400228672089
            ]
        },
        {
            "positions": [
                1.116988188930065,
                -1.278422466948009,
                -2.222978211179998,
                -1.8417766119498218,
                1.0077077005552921,
                2.3575989981617993
            ]
        },
        {
            "positions": [
                0.9984010739819764,
                -1.3211528822754655,
                -2.235109907898528,
                -1.874947911328451,
                0.8993594492488004,
                2.43179776765151
            ]
        },
        {
            "positions": [
                0.8798139590338883,
                -1.3638832976029218,
                -2.2472416046170585,
                -1.9081192107070806,
                0.7910111979423089,
                2.50599653714122
            ]
        },
        {
            "positions": [
                0.7612268440858001,
                -1.4066137129303782,
                -2.259373301335589,
                -1.94129051008571,
                0.6826629466358174,
                2.58019530663093
            ]
        },
        {
            "positions": [
                0.642639729137712,
                -1.4493441282578345,
                -2.2715049980541195,
                -1.9744618094643394,
                0.5743146953293263,
                2.6543940761206404
            ]
        },
        {
            "positions": [
                0.5240526141896238,
                -1.4920745435852907,
                -2.28363669477265,
                -2.0076331088429686,
                0.4659664440228348,
                2.7285928456103505
            ]
        },
        {
            "positions": [
                0.40546549924153563,
                -1.5348049589127473,
                -2.2957683914911806,
                -2.0408044082215984,
                0.3576181927163433,
                2.8027916151000607
            ]
        },
        {
            "positions": [
                0.2868783842934475,
                -1.5775353742402036,
                -2.3079000882097107,
                -2.0739757076002276,
                0.24926994140985181,
                2.876990384589771
            ]
        },
        {
            "positions": [
                0.16829126934535887,
                -1.62026578956766,
                -2.3200317849282417,
                -2.107147006978857,
                0.14092169010335986,
                2.951189154079481
            ]
        },
        {
            "positions": [
                0.04970415439727072,
                -1.6629962048951163,
                -2.332163481646772,
                -2.1403183063574867,
                0.0325734387968688,
                3.025387923569191
            ]
        },
        {
            "positions": [
                -0.06888296055081744,
                -1.7057266202225727,
                -2.3442951783653023,
                -2.173489605736116,
                -0.0757748125096227,
                3.0995866930589013
            ]
        },
        {
            "positions": [
                -0.1874700754989057,
                -1.748457035550029,
                -2.356426875083833,
                -2.206660905114745,
                -0.18412306381611424,
                3.1737854625486115
            ]
        }
    ]
}