{
    "goal": {
        "global_pose": {
            "orientation": {
                "w": 0.5084816262002911,
                "x": -0.4908360881923452,
                "y": 0.5182115481033761,
                "z": -0.48164630358495003
            },
            "position": {
                "x": 0.5540239810943604,
                "y": -0.46912469901144505,
                "z": 0.16403168439865112
            }
        },
        "name": "move_to_storage_B"
    },
    "id": "STRIDE_move_to_storage_B_10",
    "joint_names": [
        "shoulder_pan_joint",
        "shoulder_lift_joint",
        "elbow_joint",
        "wrist_1_joint",
        "wrist_2_joint",
        "wrist_3_joint"
    ],
    "metrics": {
        "cart_traj_len": 2.3578732721398583,
        "distance_elbow_joint": 3.192679881586076,
        "distance_shoulder_lift_joint": 0.4595879122325517,
        "distance_shoulder_pan_joint": 1.3684068829264355,
        "distance_wrist_1_joint": 2.980758950688993,
        "distance_wrist_2_joint": 2.701302125622366,
        "distance_wrist_3_joint": 3.131689117121881,
        "smoothness": 0.2152317827797851,
        "time": 0.117997298,
        "traj_len": 3.7194656699824926,
        "weighted_distance": 5.077387535015763
    },
    "planner": "STRIDE",
    "start": {
        "state": {
            "elbow_joint": 1.664937868594044,
            "shoulder_lift_joint": -0.661644460510453,
            "shoulder_pan_joint": -0.9139846352900073,
            "wrist_1_joint": 2.146753192139373,
            "wrist_2_joint": -2.2341966793290973,
            "wrist_3_joint": 0.005466555786416001
        }
    },
    "waypoints": [
        {
            "positions": [
                -0.9139846352900073,
                -0.661644460510453,
                1.664937868594044,
                2.146753192139373,
                -2.2341966793290973,
                0.005466555786416001
            ]
        },
        {
            "positions": [
                -0.8145916918365792,
                -0.6910875116336879,
                1.5769635670741993,
                2.1079289514509103,
                -2.178840561059195,
                0.08627270395594237
            ]
        },
        {
            "positions": [
                -0.7899060011574874,
                -0.7099062732581586,
                1.5102711431721816,
                2.0143360686273755,
                -2.070264166419446,
                0.1645610521224442
            ]
        },
        {
            "positions": [
                -0.7652203104783956,
                -0.7287250348826293,
                1.443578719270164,
                1.9207431858038404,
                -1.9616877717796972,
                0.24284940028894608
            ]
        },
        {
            "positions": [
                -0.7405346197993038,
                -0.7475437965071001,
                1.3768862953681462,
                1.8271503029803056,
                -1.8531113771399483,
                0.3211377484554479
            ]
        },
        {
            "positions": [
                -0.7158489291202119,
                -0.7663625581315708,
                1.3101938714661285,
                1.7335574201567707,
                -1.7445349825001992,
                0.3994260966219498
            ]
        },
        {
            "positions": [
                -0.6911632384411202,
                -0.7851813197560416,
                1.2435014475641109,
                1.6399645373332357,
                -1.6359585878604503,
                0.4777144447884516
            ]
        },
        {
            "positions": [
                -0.6664775477620284,
                -0.8040000813805123,
                1.1768090236620932,
                1.5463716545097008,
                -1.5273821932207015,
                0.5560027929549534
            ]
        },
        {
            "positions": [
                -0.6417918570829365,
                -0.822818843004983,
                1.1101165997600755,
                1.452778771686166,
                -1.4188057985809523,
                0.6342911411214552
            ]
        },
        {
            "positions": [
                -0.6171061664038447,
                -0.8416376046294538,
                1.0434241758580576,
                1.3591858888626311,
                -1.3102294039412032,
                0.7125794892879571
            ]
        },
        {
            "positions": [
                -0.5924204757247529,
                -0.8604563662539245,
                0.9767317519560399,
                1.265593006039096,
                -1.2016530093014546,
                0.7908678374544589
            ]
        },
        {
            "positions": [
                -0.5677347850456611,
                -0.8792751278783952,
                0.9100393280540222,
                1.1720001232155612,
                -1.0930766146617055,
                0.8691561856209608
            ]
        },
        {
            "positions": [
                -0.5430490943665693,
                -0.898093889502866,
                0.8433469041520044,
                1.0784072403920262,
                -0.9845002200219564,
                0.9474445337874626
            ]
        },
        {
            "positions": [
                -0.5183634036874776,
                -0.9169126511273367,
                0.7766544802499868,
                0.9848143575684916,
                -0.8759238253822075,
                1.0257328819539644
            ]
        },
        {
            "positions": [
                -0.49367771300838564,
                -0.9357314127518075,
                0.709962056347969,
                0.8912214747449565,
                -0.7673474307424586,
                1.1040212301204664
            ]
        },
        {
            "positions": [
                -0.4689920223292939,
                -0.9545501743762781,
                0.6432696324459515,
                0.7976285919214217,
                -0.6587710361027097,
                1.1823095782869681
            ]
        },
        {
            "positions": [
                -0.44430633165020206,
                -0.9733689360007489,
                0.5765772085439336,
                0.7040357090978868,
                -0.5501946414629606,
                1.26059792645347
            ]
        },
        {
            "positions": [
                -0.41962064097111024,
                -0.9921876976252197,
                0.5098847846419159,
                0.6104428262743518,
                -0.4416182468232115,
                1.338886274619972
            ]
        },
        {
            "positions": [
                -0.39493495029201847,
                -1.0110064592496903,
                0.4431923607398982,
                0.5168499434508169,
                -0.3330418521834626,
                1.4171746227864737
            ]
        },
        {
            "positions": [
                -0.3702492596129266,
                -1.0298252208741612,
                0.3764999368378805,
                0.42325706062728186,
                -0.22446545754371372,
                1.4954629709529754
            ]
        },
        {
            "positions": [
                -0.34556356893383483,
                -1.0486439824986318,
                0.30980751293586284,
                0.32966417780374724,
                -0.11588906290396483,
                1.5737513191194772
            ]
        },
        {
            "positions": [
                -0.320877878254743,
                -1.0674627441231026,
                0.24311508903384513,
                0.2360712949802122,
                -0.0073126682642158936,
                1.6520396672859792
            ]
        },
        {
            "positions": [
                -0.3725645533141544,
                -1.071047386031096,
                0.3611722291689036,
                0.16473282474489004,
                0.02431520603961658,
                1.7510474009941337
            ]
        },
        {
            "positions": [
                -0.4242512283735658,
                -1.0746320279390895,
                0.4792293693039621,
                0.09339435450956785,
                0.05594308034344905,
                1.8500551347022882
            ]
        },
        {
            "positions": [
                -0.47593790343297726,
                -1.078216669847083,
                0.5972865094390206,
                0.022055884274245652,
                0.08757095464728153,
                1.9490628684104427
            ]
        },
        {
            "positions": [
                -0.5276245784923886,
                -1.0818013117550764,
                0.7153436495740791,
                -0.049282585961076514,
                0.119198828951114,
                2.0480706021185973
            ]
        },
        {
            "positions": [
                -0.5793112535518,
                -1.08538595366307,
                0.8334007897091376,
                -0.12062105619639871,
                0.15082670325494646,
                2.147078335826752
            ]
        },
        {
            "positions": [
                -0.6309979286112115,
                -1.0889705955710633,
                0.9514579298441962,
                -0.1919595264317209,
                0.18245457755877895,
                2.2460860695349063
            ]
        },
        {
            "positions": [
                -0.6826846036706229,
                -1.0925552374790568,
                1.0695150699792546,
                -0.2632979966670431,
                0.2140824518626114,
                2.345093803243061
            ]
        },
        {
            "positions": [
                -0.7343712787300343,
                -1.0961398793870505,
                1.1875722101143131,
                -0.33463646690236526,
                0.2457103261664439,
                2.444101536951215
            ]
        },
        {
            "positions": [
                -0.7860579537894457,
                -1.099724521295044,
                1.3056293502493717,
                -0.4059749371376874,
                0.27733820047027635,
                2.5431092706593694
            ]
        },
        {
            "positions": [
                -0.837744628848857,
                -1.1033091632030374,
                1.42368649038443,
                -0.47731340737300965,
                0.3089660747741088,
                2.642117004367524
            ]
        },
        {
            "positions": [
                -0.8894313039082685,
                -1.1068938051110309,
                1.5417436305194885,
                -0.5486518776083318,
                0.34059394907794127,
                2.7411247380756785
            ]
        },
        {
            "positions": [
                -0.94111797896768,
                -1.1104784470190243,
                1.6598007706545472,
                -0.619990347843654,
                0.3722218233817738,
                2.840132471783833
            ]
        },
        {
            "positions": [
                -0.9928046540270914,
                -1.1140630889270178,
                1.7778579107896058,
                -0.6913288180789762,
                0.40384969768560625,
                2.9391402054919875
            ]
        },
        {
            "positions": [
                -1.0444913290865028,
                -1.1176477308350112,
                1.895915050924664,
                -0.7626672883142984,
                0.4354775719894387,
                3.038147939200142
            ]
        },
        {
            "positions": [
                -1.0961780041459142,
                -1.1212323727430047,
                2.0139721910597226,
                -0.8340057585496204,
                0.46710544629327116,
                3.1371556729082966
            ]
        }
    ]
}