{
    "goal": {
        "global_pose": {
            "orientation": {
                "w": 0.7047431493862688,
                "x": -0.7094548369677653,
                "y": 0.0024358444001904,
                "z": -0.0022348060817251984
            },
            "position": {
                "x": -0.39052492380142206,
                "y": 0.3671506643295288,
                "z": 0.19426114857196808
            }
        },
        "name": "move_to_magneteinheit_D"
    },
    "id": "STRIDE_move_to_magneteinheit_D_141",
    "joint_names": [
        "shoulder_pan_joint",
        "shoulder_lift_joint",
        "elbow_joint",
        "wrist_1_joint",
        "wrist_2_joint",
        "wrist_3_joint"
    ],
    "metrics": {
        "cart_traj_len": 6.159376879506093,
        "distance_elbow_joint": 3.7768588522835227,
        "distance_shoulder_lift_joint": 2.454452599583081,
        "distance_shoulder_pan_joint": 7.518816403062487,
        "distance_wrist_1_joint": 3.138868248303617,
        "distance_wrist_2_joint": 2.1389555506448428,
        "distance_wrist_3_joint": 10.050693380848237,
        "smoothness": 0.7460225375021833,
        "time": 0.512155999,
        "traj_len": 5.392461871420675,
        "weighted_distance": 7.379556598832394
    },
    "planner": "STRIDE",
    "start": {
        "state": {
            "elbow_joint": 0.749534889911806,
            "shoulder_lift_joint": -0.6476975780787326,
            "shoulder_pan_joint": -2.711696901376241,
            "wrist_1_joint": -0.07506478083263063,
            "wrist_2_joint": 0.43296659715538205,
            "wrist_3_joint": -3.14703540197715
        }
    },
    "waypoints": [
        {
            "positions": [
                -2.711696901376241,
                -0.6476975780787326,
                0.749534889911806,
                -0.07506478083263063,
                0.43296659715538205,
                -3.14703540197715
            ]
        },
        {
            "positions": [
                -2.7510842966881586,
                -0.6783250091339514,
                0.8310527590516466,
                -0.014278427858348555,
                0.48114594426419716,
                -3.094035233156831
            ]
        },
        {
            "positions": [
                -2.790471692000076,
                -0.7089524401891704,
                0.9125706281914872,
                0.04650792511593352,
                0.5293252913730123,
                -3.041035064336512
            ]
        },
        {
            "positions": [
                -2.829859087311994,
                -0.7395798712443893,
                0.9940884973313278,
                0.10729427809021558,
                0.5775046384818274,
                -2.9880348955161926
            ]
        },
        {
            "positions": [
                -2.8692464826239115,
                -0.7702073022996081,
                1.0756063664711684,
                0.16808063106449767,
                0.6256839855906425,
                -2.9350347266958736
            ]
        },
        {
            "positions": [
                -2.8308894661476094,
                -0.7896260750074937,
                0.9794689200474357,
                0.04054043679067992,
                0.5635972647888161,
                -2.932018056966169
            ]
        },
        {
            "positions": [
                -2.792532449671307,
                -0.8090448477153794,
                0.8833314736237031,
                -0.08699975748313782,
                0.5015105439869898,
                -2.9290013872364646
            ]
        },
        {
            "positions": [
                -2.754175433195005,
                -0.828463620423265,
                0.7871940271999704,
                -0.21453995175695562,
                0.4394238231851634,
                -2.92598471750676
            ]
        },
        {
            "positions": [
                -2.597882577702844,
                -0.8802610309404675,
                0.7394853391641418,
                -0.18947153447352053,
                0.41399180823033105,
                -2.8555904756043944
            ]
        },
        {
            "positions": [
                -2.441589722210683,
                -0.9320584414576699,
                0.6917766511283131,
                -0.16440311719008543,
                0.3885597932754987,
                -2.785196233702029
            ]
        },
        {
            "positions": [
                -2.285296866718522,
                -0.9838558519748722,
                0.6440679630924845,
                -0.13933469990665032,
                0.36312777832066645,
                -2.7148019917996633
            ]
        },
        {
            "positions": [
                -2.1290040112263613,
                -1.0356532624920747,
                0.5963592750566559,
                -0.11426628262321523,
                0.3376957633658341,
                -2.6444077498972978
            ]
        },
        {
            "positions": [
                -1.9727111557342,
                -1.0874506730092772,
                0.5486505870208271,
                -0.08919786533978014,
                0.3122637484110018,
                -2.5740135079949322
            ]
        },
        {
            "positions": [
                -1.8164183002420393,
                -1.1392480835264795,
                0.5009418989849985,
                -0.06412944805634505,
                0.2868317334561695,
                -2.5036192660925662
            ]
        },
        {
            "positions": [
                -1.6601254447498783,
                -1.1910454940436819,
                0.4532332109491699,
                -0.039061030772909955,
                0.26139971850133725,
                -2.4332250241902007
            ]
        },
        {
            "positions": [
                -1.5038325892577173,
                -1.2428429045608844,
                0.40552452291334123,
                -0.013992613489474837,
                0.23596770354650487,
                -2.362830782287835
            ]
        },
        {
            "positions": [
                -1.3475397337655566,
                -1.2946403150780867,
                0.35781583487751256,
                0.011075803793960254,
                0.21053568859167257,
                -2.2924365403854696
            ]
        },
        {
            "positions": [
                -1.1912468782733956,
                -1.346437725595289,
                0.31010714684168394,
                0.036144221077395344,
                0.18510367363684027,
                -2.222042298483104
            ]
        },
        {
            "positions": [
                -1.0349540227812346,
                -1.3982351361124916,
                0.2623984588058552,
                0.06121263836083046,
                0.15967165868200794,
                -2.1516480565807385
            ]
        },
        {
            "positions": [
                -0.8786611672890738,
                -1.450032546629694,
                0.2146897707700267,
                0.08628105564426553,
                0.13423964372717567,
                -2.081253814678373
            ]
        },
        {
            "positions": [
                -0.7223683117969126,
                -1.5018299571468965,
                0.16698108273419798,
                0.11134947292770064,
                0.10880762877234335,
                -2.0108595727760075
            ]
        },
        {
            "positions": [
                -0.5660754563047519,
                -1.5536273676640988,
                0.11927239469836937,
                0.1364178902111357,
                0.08337561381751107,
                -1.940465330873642
            ]
        },
        {
            "positions": [
                -0.4097826008125911,
                -1.6054247781813014,
                0.07156370666254075,
                0.16148630749457082,
                0.05794359886267875,
                -1.8700710889712762
            ]
        },
        {
            "positions": [
                -0.2534897453204299,
                -1.6572221886985037,
                0.02385501862671202,
                0.18655472477800594,
                0.032511583907846364,
                -1.7996768470689106
            ]
        },
        {
            "positions": [
                -0.09719688982826913,
                -1.709019599215706,
                -0.023853669409116596,
                0.211623142061441,
                0.007079568953014093,
                -1.729282605166545
            ]
        },
        {
            "positions": [
                0.059095965663891636,
                -1.7608170097329086,
                -0.07156235744494532,
                0.23669155934487612,
                -0.018352446001818234,
                -1.6588883632641793
            ]
        },
        {
            "positions": [
                0.2153888211560524,
                -1.8126144202501109,
                -0.11927104548077383,
                0.2617599766283112,
                -0.043784460956650506,
                -1.5884941213618138
            ]
        },
        {
            "positions": [
                0.3716816766482137,
                -1.8644118307673132,
                -0.16697973351660256,
                0.2868283939117463,
                -0.06921647591148286,
                -1.5180998794594482
            ]
        },
        {
            "positions": [
                0.43108545777408297,
                -1.8507128047779149,
                -0.23265595857883425,
                0.34084639881195966,
                -0.04440174474189637,
                -1.3525688777761389
            ]
        },
        {
            "positions": [
                0.4904892388999523,
                -1.8370137787885163,
                -0.29833218364106595,
                0.394864403712173,
                -0.019587013572309873,
                -1.1870378760928295
            ]
        },
        {
            "positions": [
                0.5498930200258215,
                -1.823314752799118,
                -0.36400840870329765,
                0.4488824086123864,
                0.005227717597276624,
                -1.02150687440952
            ]
        },
        {
            "positions": [
                0.6092968011516908,
                -1.8096157268097197,
                -0.4296846337655293,
                0.5029004135125997,
                0.030042448766863114,
                -0.8559758727262106
            ]
        },
        {
            "positions": [
                0.66870058227756,
                -1.7959167008203214,
                -0.495360858827761,
                0.5569184184128131,
                0.054857179936449604,
                -0.6904448710429012
            ]
        },
        {
            "positions": [
                0.7281043634034293,
                -1.7822176748309229,
                -0.5610370838899927,
                0.6109364233130266,
                0.07967191110603611,
                -0.5249138693595917
            ]
        },
        {
            "positions": [
                0.7875081445292986,
                -1.7685186488415245,
                -0.6267133089522243,
                0.6649544282132398,
                0.1044866422756226,
                -0.35938286767628247
            ]
        },
        {
            "positions": [
                0.8469119256551678,
                -1.7548196228521262,
                -0.692389534014456,
                0.7189724331134533,
                0.1293013734452091,
                -0.19385186599297288
            ]
        },
        {
            "positions": [
                0.9063157067810371,
                -1.7411205968627277,
                -0.7580657590766877,
                0.7729904380136665,
                0.15411610461479558,
                -0.028320864309663518
            ]
        },
        {
            "positions": [
                0.9657194879069063,
                -1.7274215708733294,
                -0.8237419841389194,
                0.8270084429138799,
                0.17893083578438207,
                0.13721013737364585
            ]
        },
        {
            "positions": [
                1.0251232690327756,
                -1.713722544883931,
                -0.8894182092011511,
                0.8810264478140932,
                0.20374556695396853,
                0.3027411390569552
            ]
        },
        {
            "positions": [
                1.0845270501586448,
                -1.7000235188945325,
                -0.9550944342633829,
                0.9350444527143067,
                0.22856029812355508,
                0.4682721407402648
            ]
        },
        {
            "positions": [
                1.1439308312845142,
                -1.6863244929051342,
                -1.0207706593256145,
                0.98906245761452,
                0.2533750292931416,
                0.6338031424235742
            ]
        },
        {
            "positions": [
                1.2033346124103834,
                -1.6726254669157359,
                -1.086446884387846,
                1.0430804625147334,
                0.27818976046272803,
                0.7993341441068833
            ]
        },
        {
            "positions": [
                1.2627383935362526,
                -1.6589264409263373,
                -1.152123109450078,
                1.0970984674149467,
                0.3030044916323146,
                0.9648651457901929
            ]
        },
        {
            "positions": [
                1.322142174662122,
                -1.645227414936939,
                -1.2177993345123095,
                1.1511164723151601,
                0.327819222801901,
                1.1303961474735025
            ]
        },
        {
            "positions": [
                1.3815459557879914,
                -1.6315283889475407,
                -1.2834755595745413,
                1.2051344772153736,
                0.35263395397148756,
                1.2959271491568116
            ]
        },
        {
            "positions": [
                1.4409497369138604,
                -1.6178293629581424,
                -1.3491517846367729,
                1.2591524821155868,
                0.377448685141074,
                1.4614581508401212
            ]
        },
        {
            "positions": [
                1.5003535180397298,
                -1.6041303369687439,
                -1.4148280096990047,
                1.3131704870158,
                0.40226341631066054,
                1.6269891525234303
            ]
        },
        {
            "positions": [
                1.5597572991655988,
                -1.5904313109793455,
                -1.4805042347612363,
                1.3671884919160133,
                0.427078147480247,
                1.79252015420674
            ]
        },
        {
            "positions": [
                1.6191610802914682,
                -1.5767322849899472,
                -1.5461804598234679,
                1.421206496816227,
                0.4518928786498335,
                1.958051155890049
            ]
        },
        {
            "positions": [
                1.6785648614173376,
                -1.563033259000549,
                -1.6118566848856997,
                1.4752245017164403,
                0.47670760981941995,
                2.1235821575733587
            ]
        },
        {
            "positions": [
                1.737968642543207,
                -1.5493342330111504,
                -1.6775329099479315,
                1.529242506616654,
                0.5015223409890066,
                2.2891131592566683
            ]
        },
        {
            "positions": [
                1.797372423669076,
                -1.535635207021752,
                -1.7432091350101633,
                1.5832605115168672,
                0.526337072158593,
                2.454644160939978
            ]
        },
        {
            "positions": [
                1.8567762047949454,
                -1.5219361810323537,
                -1.8088853600723949,
                1.6372785164170804,
                0.5511518033281796,
                2.6201751626232874
            ]
        },
        {
            "positions": [
                1.9161799859208148,
                -1.5082371550429552,
                -1.8745615851346265,
                1.6912965213172937,
                0.575966534497766,
                2.7857061643065966
            ]
        },
        {
            "positions": [
                1.9755837670466838,
                -1.4945381290535569,
                -1.9402378101968583,
                1.7453145262175074,
                0.6007812656673526,
                2.9512371659899057
            ]
        },
        {
            "positions": [
                2.0349875481725532,
                -1.4808391030641586,
                -2.0059140352590896,
                1.7993325311177206,
                0.625595996836939,
                3.116768167673215
            ]
        },
        {
            "positions": [
                2.0943913292984226,
                -1.46714007707476,
                -2.0715902603213214,
                1.8533505360179339,
                0.6504107280065256,
                3.282299169356525
            ]
        },
        {
            "positions": [
                2.1537951104242916,
                -1.4534410510853617,
                -2.1372664853835532,
                1.9073685409181471,
                0.675225459176112,
                3.447830171039834
            ]
        },
        {
            "positions": [
                2.0368838489859615,
                -1.494779429445989,
                -2.1491622115770252,
                1.8878088528726504,
                0.6498806708951189,
                3.2750387806482713
            ]
        },
        {
            "positions": [
                1.9199725875476312,
                -1.5361178078066164,
                -2.161057937770497,
                1.8682491648271538,
                0.6245358826141258,
                3.1022473902567085
            ]
        },
        {
            "positions": [
                1.803061326109301,
                -1.5774561861672438,
                -2.172953663963969,
                1.848689476781657,
                0.5991910943331327,
                2.9294559998651457
            ]
        },
        {
            "positions": [
                1.6861500646709708,
                -1.6187945645278714,
                -2.1848493901574404,
                1.8291297887361604,
                0.5738463060521396,
                2.756664609473583
            ]
        },
        {
            "positions": [
                1.5692388032326405,
                -1.6601329428884988,
                -2.1967451163509124,
                1.8095701006906637,
                0.5485015177711465,
                2.58387321908202
            ]
        },
        {
            "positions": [
                1.4523275417943102,
                -1.7014713212491261,
                -2.208640842544384,
                1.790010412645167,
                0.5231567294901533,
                2.4110818286904574
            ]
        },
        {
            "positions": [
                1.3354162803559801,
                -1.7428096996097535,
                -2.220536568737856,
                1.7704507245996703,
                0.4978119412091603,
                2.2382904382988946
            ]
        },
        {
            "positions": [
                1.2185050189176498,
                -1.7841480779703809,
                -2.2324322949313276,
                1.7508910365541737,
                0.4724671529281672,
                2.065499047907332
            ]
        },
        {
            "positions": [
                1.1015937574793195,
                -1.8254864563310083,
                -2.2443280211247996,
                1.731331348508677,
                0.44712236464717414,
                1.892707657515769
            ]
        },
        {
            "positions": [
                0.9846824960409895,
                -1.8668248346916356,
                -2.2562237473182716,
                1.7117716604631803,
                0.421777576366181,
                1.7199162671242063
            ]
        },
        {
            "positions": [
                0.8677712346026591,
                -1.9081632130522632,
                -2.268119473511743,
                1.6922119724176836,
                0.3964327880851879,
                1.5471248767326433
            ]
        },
        {
            "positions": [
                0.7508599731643291,
                -1.9495015914128906,
                -2.280015199705215,
                1.672652284372187,
                0.3710879998041948,
                1.3743334863410808
            ]
        },
        {
            "positions": [
                0.6339487117259988,
                -1.990839969773518,
                -2.2919109258986867,
                1.6530925963266903,
                0.3457432115232017,
                1.201542095949518
            ]
        },
        {
            "positions": [
                0.5170374502876687,
                -2.0321783481341456,
                -2.3038066520921587,
                1.6335329082811936,
                0.32039842324220863,
                1.0287507055579552
            ]
        },
        {
            "positions": [
                0.40012618884933837,
                -2.0735167264947725,
                -2.3157023782856303,
                1.613973220235697,
                0.2950536349612155,
                0.8559593151663925
            ]
        },
        {
            "positions": [
                0.28321492741100807,
                -2.1148551048554003,
                -2.3275981044791023,
                1.5944135321902002,
                0.26970884668022244,
                0.6831679247748297
            ]
        },
        {
            "positions": [
                0.16630366597267798,
                -2.1561934832160277,
                -2.339493830672574,
                1.5748538441447035,
                0.24436405839922937,
                0.5103765343832669
            ]
        },
        {
            "positions": [
                0.049392404534347456,
                -2.197531861576655,
                -2.351389556866046,
                1.5552941560992068,
                0.21901927011823624,
                0.33758514399170414
            ]
        },
        {
            "positions": [
                -0.06751885690398218,
                -2.2388702399372824,
                -2.3632852830595175,
                1.5357344680537102,
                0.19367448183724317,
                0.16479375360014137
            ]
        },
        {
            "positions": [
                -0.18443011834231263,
                -2.2802086182979098,
                -2.3751810092529895,
                1.5161747800082135,
                0.16832969355625002,
                -0.007997636791421205
            ]
        }
    ]
}