{
    "goal": {
        "global_pose": {
            "orientation": {
                "w": 0.005598929693374612,
                "x": 0.007748599140229565,
                "y": 0.7110244013736278,
                "z": -0.7031023480610252
            },
            "position": {
                "x": -0.8858502320852131,
                "y": -0.7141253447532654,
                "z": 0.3711530566215515
            }
        },
        "name": "move_to_auspresseinheit_C"
    },
    "id": "STRIDE_move_to_auspresseinheit_C_40",
    "joint_names": [
        "shoulder_pan_joint",
        "shoulder_lift_joint",
        "elbow_joint",
        "wrist_1_joint",
        "wrist_2_joint",
        "wrist_3_joint"
    ],
    "metrics": {
        "cart_traj_len": 0.49308925413634863,
        "distance_elbow_joint": 0.9989856221828406,
        "distance_shoulder_lift_joint": 0.324052678800987,
        "distance_shoulder_pan_joint": 0.25570831353536816,
        "distance_wrist_1_joint": 0.6715639277565189,
        "distance_wrist_2_joint": 1.318714761970322,
        "distance_wrist_3_joint": 0.05214495859615953,
        "smoothness": 3.2297397080004555e-16,
        "time": 1.096473493,
        "traj_len": 1.9029372724402127,
        "weighted_distance": 2.390761148622203
    },
    "planner": "STRIDE",
    "start": {
        "state": {
            "elbow_joint": 1.7527959577737207,
            "shoulder_lift_joint": -0.9740617694225068,
            "shoulder_pan_joint": -2.967991417825858,
            "wrist_1_joint": -0.759517768980727,
            "wrist_2_joint": 1.7443932448377408,
            "wrist_3_joint": -3.0840537646736568
        }
    },
    "waypoints": [
        {
            "positions": [
                -2.967991417825858,
                -0.9740617694225068,
                1.7527959577737207,
                -0.759517768980727,
                1.7443932448377408,
                -3.0840537646736568
            ]
        },
        {
            "positions": [
                -2.942420586472321,
                -0.9416565015424081,
                1.6528973955554367,
                -0.6923613762050751,
                1.6125217686407087,
                -3.089268260533273
            ]
        },
        {
            "positions": [
                -2.9168497551187844,
                -0.9092512336623094,
                1.5529988333371525,
                -0.6252049834294232,
                1.4806502924436764,
                -3.0944827563928885
            ]
        },
        {
            "positions": [
                -2.8912789237652476,
                -0.8768459657822106,
                1.4531002711188685,
                -0.5580485906537713,
                1.3487788162466443,
                -3.0996972522525046
            ]
        },
        {
            "positions": [
                -2.865708092411711,
                -0.844440697902112,
                1.3532017089005843,
                -0.49089219787811944,
                1.216907340049612,
                -3.1049117481121207
            ]
        },
        {
            "positions": [
                -2.8401372610581737,
                -0.8120354300220133,
                1.2533031466823004,
                -0.42373580510246756,
                1.0850358638525799,
                -3.1101262439717363
            ]
        },
        {
            "positions": [
                -2.814566429704637,
                -0.7796301621419146,
                1.1534045844640164,
                -0.35657941232681567,
                0.9531643876555477,
                -3.1153407398313524
            ]
        },
        {
            "positions": [
                -2.7889955983511,
                -0.7472248942618159,
                1.0535060222457324,
                -0.28942301955116384,
                0.8212929114585156,
                -3.1205552356909685
            ]
        },
        {
            "positions": [
                -2.7634247669975633,
                -0.7148196263817173,
                0.9536074600274481,
                -0.2222666267755119,
                0.6894214352614834,
                -3.1257697315505846
            ]
        },
        {
            "positions": [
                -2.7378539356440266,
                -0.6824143585016185,
                0.8537088978091641,
                -0.15511023399986001,
                0.557549959064451,
                -3.1309842274102
            ]
        },
        {
            "positions": [
                -2.71228310429049,
                -0.6500090906215198,
                0.7538103355908801,
                -0.08795384122420816,
                0.42567848286741894,
                -3.1361987232698163
            ]
        }
    ]
}