{
    "goal": {
        "global_pose": {
            "orientation": {
                "w": 0.7031023502349854,
                "x": -0.7110244035720825,
                "y": 0.007748599164187908,
                "z": 0.005598929710686207
            },
            "position": {
                "x": 0.11585023208521307,
                "y": 0.44412534475326537,
                "z": 0.3711530566215515
            }
        },
        "name": "move_to_auspresseinheit_A"
    },
    "id": "STRIDE_move_to_auspresseinheit_A_54",
    "joint_names": [
        "shoulder_pan_joint",
        "shoulder_lift_joint",
        "elbow_joint",
        "wrist_1_joint",
        "wrist_2_joint",
        "wrist_3_joint"
    ],
    "metrics": {
        "cart_traj_len": 0.9909805726727636,
        "distance_elbow_joint": 0.4283927397845746,
        "distance_shoulder_lift_joint": 0.5355600911251504,
        "distance_shoulder_pan_joint": 1.357537790086668,
        "distance_wrist_1_joint": 1.372487852239718,
        "distance_wrist_2_joint": 1.2499286215568128,
        "distance_wrist_3_joint": 0.5320711854773017,
        "smoothness": 1.3435055501168485,
        "time": 0.28349624500000004,
        "traj_len": 2.3400808277216036,
        "weighted_distance": 3.026968305916228
    },
    "planner": "STRIDE",
    "start": {
        "state": {
            "elbow_joint": 2.4225746658250005,
            "shoulder_lift_joint": -1.3736534386056498,
            "shoulder_pan_joint": -0.3378633547517467,
            "wrist_1_joint": -1.0288598680537169,
            "wrist_2_joint": 1.233022673432363,
            "wrist_3_joint": -3.0940220416140027
        }
    },
    "waypoints": [
        {
            "positions": [
                -0.3378633547517467,
                -1.3736534386056498,
                2.4225746658250005,
                -1.0288598680537169,
                1.233022673432363,
                -3.0940220416140027
            ]
        },
        {
            "positions": [
                -0.4165965223948149,
                -1.4203260355373573,
                2.360877955724552,
                -0.999315222624844,
                1.2253747745815051,
                -3.0075835241120092
            ]
        },
        {
            "positions": [
                -0.4953296900378832,
                -1.466998632469065,
                2.299181245624103,
                -0.969770577195971,
                1.217726875730647,
                -2.9211450066100157
            ]
        },
        {
            "positions": [
                -0.4025930683443616,
                -1.515815175703361,
                2.2861193040259478,
                -0.8569473592662241,
                1.1081187807163295,
                -2.91113508329327
            ]
        },
        {
            "positions": [
                -0.30985644665083995,
                -1.5646317189376575,
                2.273057362427792,
                -0.7441241413364772,
                0.9985106857020123,
                -2.901125159976524
            ]
        },
        {
            "positions": [
                -0.2171198249573183,
                -1.613448262171954,
                2.2599954208296364,
                -0.6313009234067302,
                0.8889025906876948,
                -2.891115236659778
            ]
        },
        {
            "positions": [
                -0.1243832032637967,
                -1.66226480540625,
                2.2469334792314806,
                -0.5184777054769832,
                0.7792944956733776,
                -2.881105313343032
            ]
        },
        {
            "positions": [
                -0.03164658157027511,
                -1.7110813486405463,
                2.233871537633325,
                -0.4056544875472363,
                0.6696864006590602,
                -2.8710953900262863
            ]
        },
        {
            "positions": [
                0.06109004012324659,
                -1.7598978918748427,
                2.2208095960351697,
                -0.2928312696174893,
                0.5600783056447428,
                -2.8610854667095404
            ]
        },
        {
            "positions": [
                0.15382666181676818,
                -1.808714435109139,
                2.207747654437014,
                -0.18000805168774237,
                0.45047021063042547,
                -2.8510755433927946
            ]
        },
        {
            "positions": [
                0.2465632835102898,
                -1.8575309783434353,
                2.1946857128388584,
                -0.06718483375799542,
                0.34086211561610813,
                -2.8410656200760487
            ]
        },
        {
            "positions": [
                0.32195170012761265,
                -1.8670995118229854,
                2.255626811400866,
                -0.13332477823312378,
                0.40202196396491285,
                -2.927997434908499
            ]
        },
        {
            "positions": [
                0.41764921628637164,
                -1.877628016299939,
                2.290517483459972,
                -0.21949299660034083,
                0.4761740178128512,
                -2.976043172185223
            ]
        },
        {
            "positions": [
                0.5133467324451306,
                -1.8881565207768927,
                2.3254081555190784,
                -0.30566121496755794,
                0.5503260716607895,
                -3.0240889094619474
            ]
        },
        {
            "positions": [
                0.6090442486038896,
                -1.8986850252538465,
                2.360298827578185,
                -0.391829433334775,
                0.6244781255087278,
                -3.072134646738672
            ]
        },
        {
            "positions": [
                0.7047417647626486,
                -1.9092135297308002,
                2.395189499637291,
                -0.47799765170199204,
                0.6986301793566662,
                -3.1201803840153963
            ]
        }
    ]
}