{
    "goal": {
        "global_pose": {
            "orientation": {
                "w": 0.7047431493862688,
                "x": -0.7094548369677653,
                "y": 0.0024358444001904,
                "z": -0.0022348060817251984
            },
            "position": {
                "x": -0.39052492380142206,
                "y": 0.3671506643295288,
                "z": 0.19426114857196808
            }
        },
        "name": "move_to_magneteinheit_D"
    },
    "id": "STRIDE_move_to_magneteinheit_D_3",
    "joint_names": [
        "shoulder_pan_joint",
        "shoulder_lift_joint",
        "elbow_joint",
        "wrist_1_joint",
        "wrist_2_joint",
        "wrist_3_joint"
    ],
    "metrics": {
        "cart_traj_len": 4.446797336654778,
        "distance_elbow_joint": 6.570232679952218,
        "distance_shoulder_lift_joint": 1.9708554007766315,
        "distance_shoulder_pan_joint": 5.261782521606193,
        "distance_wrist_1_joint": 2.1775531543802256,
        "distance_wrist_2_joint": 1.2786703541897095,
        "distance_wrist_3_joint": 3.1475568652603623,
        "smoothness": 0.5105515207549747,
        "time": 0.195284413,
        "traj_len": 4.517372131689543,
        "weighted_distance": 5.49162892184605
    },
    "planner": "STRIDE",
    "start": {
        "state": {
            "elbow_joint": 0.749534889911806,
            "shoulder_lift_joint": -0.6476975780787326,
            "shoulder_pan_joint": -2.711696901376241,
            "wrist_1_joint": -0.07506478083263063,
            "wrist_2_joint": 0.43296659715538205,
            "wrist_3_joint": -3.14703540197715
        }
    },
    "waypoints": [
        {
            "positions": [
                -2.711696901376241,
                -0.6476975780787326,
                0.749534889911806,
                -0.07506478083263063,
                0.43296659715538205,
                -3.14703540197715
            ]
        },
        {
            "positions": [
                -2.7059176612304494,
                -0.7210716521436974,
                0.8515760077880107,
                -0.09758685392812928,
                0.3739560405527319,
                -3.0364586488732197
            ]
        },
        {
            "positions": [
                -2.7001384210846577,
                -0.7944457262086622,
                0.9536171256642154,
                -0.12010892702362794,
                0.3149454839500817,
                -2.9258818957692894
            ]
        },
        {
            "positions": [
                -2.694359180938866,
                -0.8678198002736269,
                1.05565824354042,
                -0.1426310001191266,
                0.25593492734743156,
                -2.815305142665359
            ]
        },
        {
            "positions": [
                -2.6885799407930744,
                -0.9411938743385917,
                1.1576993614166249,
                -0.16515307321462525,
                0.19692437074478142,
                -2.7047283895614282
            ]
        },
        {
            "positions": [
                -2.6828007006472827,
                -1.0145679484035566,
                1.2597404792928295,
                -0.18767514631012389,
                0.13791381414213127,
                -2.594151636457498
            ]
        },
        {
            "positions": [
                -2.677021460501491,
                -1.0879420224685212,
                1.3617815971690344,
                -0.21019721940562255,
                0.07890325753948108,
                -2.4835748833535676
            ]
        },
        {
            "positions": [
                -2.6712422203557,
                -1.1613160965334859,
                1.463822715045239,
                -0.2327192925011212,
                0.019892700936830987,
                -2.3729981302496372
            ]
        },
        {
            "positions": [
                -2.665462980209908,
                -1.234690170598451,
                1.5658638329214436,
                -0.25524136559661986,
                -0.03911785566581921,
                -2.262421377145707
            ]
        },
        {
            "positions": [
                -2.6596837400641165,
                -1.3080642446634156,
                1.6679049507976482,
                -0.2777634386921185,
                -0.0981284122684693,
                -2.1518446240417766
            ]
        },
        {
            "positions": [
                -2.6539044999183248,
                -1.3814383187283803,
                1.769946068673853,
                -0.3002855117876172,
                -0.1571389688711195,
                -2.041267870937846
            ]
        },
        {
            "positions": [
                -2.648125259772533,
                -1.4548123927933452,
                1.8719871865500577,
                -0.3228075848831158,
                -0.2161495254737697,
                -1.9306911178339157
            ]
        },
        {
            "positions": [
                -2.6423460196267414,
                -1.52818646685831,
                1.9740283044262625,
                -0.3453296579786145,
                -0.2751600820764199,
                -1.8201143647299851
            ]
        },
        {
            "positions": [
                -2.6365667794809498,
                -1.6015605409232747,
                2.076069422302467,
                -0.3678517310741131,
                -0.33417063867907,
                -1.7095376116260548
            ]
        },
        {
            "positions": [
                -2.513351138339079,
                -1.5961445519640498,
                1.9196842654281876,
                -0.3188802907616119,
                -0.32620776182346417,
                -1.6670270344851243
            ]
        },
        {
            "positions": [
                -2.3901354971972086,
                -1.590728563004825,
                1.763299108553908,
                -0.26990885044911067,
                -0.3182448849678584,
                -1.624516457344194
            ]
        },
        {
            "positions": [
                -2.266919856055338,
                -1.5853125740455998,
                1.6069139516796282,
                -0.22093741013660947,
                -0.3102820081122526,
                -1.5820058802032635
            ]
        },
        {
            "positions": [
                -2.143704214913467,
                -1.5798965850863749,
                1.4505287948053487,
                -0.17196596982410825,
                -0.30231913125664683,
                -1.539495303062333
            ]
        },
        {
            "positions": [
                -2.0204885737715967,
                -1.57448059612715,
                1.294143637931069,
                -0.12299452951160705,
                -0.294356254401041,
                -1.4969847259214026
            ]
        },
        {
            "positions": [
                -1.897272932629726,
                -1.569064607167925,
                1.1377584810567893,
                -0.07402308919910583,
                -0.28639337754543526,
                -1.4544741487804722
            ]
        },
        {
            "positions": [
                -1.7740572914878554,
                -1.5636486182087002,
                0.9813733241825098,
                -0.025051648886604605,
                -0.27843050068982944,
                -1.4119635716395416
            ]
        },
        {
            "positions": [
                -1.6508416503459848,
                -1.558232629249475,
                0.8249881673082302,
                0.02391979142589662,
                -0.2704676238342236,
                -1.3694529944986114
            ]
        },
        {
            "positions": [
                -1.527626009204114,
                -1.5528166402902501,
                0.6686030104339504,
                0.07289123173839784,
                -0.26250474697861786,
                -1.3269424173576807
            ]
        },
        {
            "positions": [
                -1.4044103680622435,
                -1.5474006513310252,
                0.5122178535596709,
                0.12186267205089901,
                -0.25454187012301205,
                -1.2844318402167505
            ]
        },
        {
            "positions": [
                -1.2811947269203727,
                -1.5419846623718003,
                0.3558326966853911,
                0.17083411236340035,
                -0.24657899326740626,
                -1.2419212630758198
            ]
        },
        {
            "positions": [
                -1.1579790857785024,
                -1.5365686734125754,
                0.19944753981111152,
                0.21980555267590146,
                -0.23861611641180047,
                -1.1994106859348896
            ]
        },
        {
            "positions": [
                -1.0347634446366316,
                -1.5311526844533505,
                0.043062382936831956,
                0.2687769929884027,
                -0.23065323955619468,
                -1.156900108793959
            ]
        },
        {
            "positions": [
                -0.911547803494761,
                -1.5257366954941254,
                -0.11332277393744761,
                0.3177484333009039,
                -0.2226903627005889,
                -1.1143895316530286
            ]
        },
        {
            "positions": [
                -0.7883321623528903,
                -1.5203207065349005,
                -0.2697079308117276,
                0.36671987361340513,
                -0.21472748584498308,
                -1.0718789545120981
            ]
        },
        {
            "positions": [
                -0.6651165212110199,
                -1.5149047175756756,
                -0.42609308768600673,
                0.41569131392590636,
                -0.20676460898937732,
                -1.0293683773711677
            ]
        },
        {
            "positions": [
                -0.5419008800691492,
                -1.5094887286164507,
                -0.5824782445602863,
                0.46466275423840747,
                -0.19880173213377153,
                -0.9868578002302373
            ]
        },
        {
            "positions": [
                -0.4186852389272784,
                -1.5040727396572255,
                -0.7388634014345663,
                0.5136341945509089,
                -0.19083885527816571,
                -0.9443472230893067
            ]
        },
        {
            "positions": [
                -0.29546959778540804,
                -1.4986567506980006,
                -0.8952485583088459,
                0.5626056348634101,
                -0.18287597842255993,
                -0.9018366459483763
            ]
        },
        {
            "positions": [
                -0.17225395664353726,
                -1.4932407617387757,
                -1.0516337151831254,
                0.6115770751759111,
                -0.17491310156695414,
                -0.859326068807446
            ]
        },
        {
            "positions": [
                -0.04903831550166693,
                -1.4878247727795508,
                -1.208018872057405,
                0.6605485154884123,
                -0.16695022471134835,
                -0.8168154916665156
            ]
        },
        {
            "positions": [
                0.0741773256402043,
                -1.482408783820326,
                -1.364404028931685,
                0.7095199558009138,
                -0.15898734785574253,
                -0.774304914525585
            ]
        },
        {
            "positions": [
                0.19739296678207463,
                -1.476992794861101,
                -1.5207891858059646,
                0.7584913961134148,
                -0.15102447100013675,
                -0.7317943373846546
            ]
        },
        {
            "positions": [
                0.32060860792394497,
                -1.471576805901876,
                -1.6771743426802441,
                0.807462836425916,
                -0.14306159414453096,
                -0.6892837602437243
            ]
        },
        {
            "positions": [
                0.44382424906581575,
                -1.466160816942651,
                -1.8335594995545232,
                0.8564342767384172,
                -0.13509871728892517,
                -0.6467731831027939
            ]
        },
        {
            "positions": [
                0.5670398902076865,
                -1.460744827983426,
                -1.9899446564288032,
                0.9054057170509184,
                -0.12713584043331938,
                -0.6042626059618632
            ]
        },
        {
            "positions": [
                0.6902555313495569,
                -1.4553288390242012,
                -2.1463298133030833,
                0.9543771573634197,
                -0.11917296357771359,
                -0.5617520288209328
            ]
        },
        {
            "positions": [
                0.8134711724914276,
                -1.4499128500649763,
                -2.3027149701773624,
                1.0033485976759209,
                -0.1112100867221078,
                -0.5192414516800024
            ]
        },
        {
            "positions": [
                0.936686813633298,
                -1.4444968611057512,
                -2.4591001270516424,
                1.052320037988422,
                -0.10324720986650202,
                -0.4767308745390719
            ]
        },
        {
            "positions": [
                1.0599024547751692,
                -1.4390808721465262,
                -2.6154852839259224,
                1.1012914783009233,
                -0.0952843330108962,
                -0.4342202973981415
            ]
        },
        {
            "positions": [
                1.1831180959170398,
                -1.4336648831873013,
                -2.771870440800201,
                1.1502629186134246,
                -0.08732145615529041,
                -0.39170972025721107
            ]
        },
        {
            "positions": [
                1.0464213434857486,
                -1.518574561206913,
                -2.7322946123543117,
                1.186928074058545,
                -0.0608530625721427,
                -0.35248660190316894
            ]
        },
        {
            "positions": [
                0.9097245910544575,
                -1.6034842392265245,
                -2.692718783908423,
                1.2235932295036656,
                -0.03438466898899499,
                -0.3132634835491268
            ]
        },
        {
            "positions": [
                0.7730278386231664,
                -1.6883939172461362,
                -2.653142955462534,
                1.260258384948786,
                -0.007916275405847287,
                -0.2740403651950847
            ]
        },
        {
            "positions": [
                0.6363310861918752,
                -1.7733035952657477,
                -2.6135671270166445,
                1.2969235403939066,
                0.01855211817730043,
                -0.23481724684104252
            ]
        },
        {
            "positions": [
                0.4996343337605841,
                -1.8582132732853593,
                -2.573991298570755,
                1.333588695839027,
                0.045020511760448134,
                -0.1955941284870004
            ]
        },
        {
            "positions": [
                0.362937581329293,
                -1.943122951304971,
                -2.5344154701248662,
                1.3702538512841478,
                0.07148890534359584,
                -0.15637101013295826
            ]
        },
        {
            "positions": [
                0.2262408288980019,
                -2.0280326293245823,
                -2.4948396416789773,
                1.4069190067292683,
                0.09795729892674354,
                -0.11714789177891616
            ]
        },
        {
            "positions": [
                0.08954407646671059,
                -2.112942307344194,
                -2.455263813233088,
                1.4435841621743888,
                0.12442569250989127,
                -0.07792477342487397
            ]
        },
        {
            "positions": [
                -0.04715267596458039,
                -2.1978519853638057,
                -2.4156879847871986,
                1.4802493176195093,
                0.15089408609303898,
                -0.03870165507083184
            ]
        },
        {
            "positions": [
                -0.18384942839587162,
                -2.2827616633834173,
                -2.3761121563413097,
                1.5169144730646298,
                0.17736247967618665,
                0.0005214632832102959
            ]
        }
    ]
}