{
    "goal": {
        "global_pose": {
            "orientation": {
                "w": -0.00223480608172531,
                "x": 0.0024358444001904467,
                "y": 0.7094548369677653,
                "z": -0.704743149386269
            },
            "position": {
                "x": -0.37947507619857795,
                "y": -0.6371506643295288,
                "z": 0.19426114857196808
            }
        },
        "name": "move_to_magneteinheit_C"
    },
    "id": "STRIDE_move_to_magneteinheit_C_16",
    "joint_names": [
        "shoulder_pan_joint",
        "shoulder_lift_joint",
        "elbow_joint",
        "wrist_1_joint",
        "wrist_2_joint",
        "wrist_3_joint"
    ],
    "metrics": {
        "cart_traj_len": 2.6814765498761575,
        "distance_elbow_joint": 0.9861906631308086,
        "distance_shoulder_lift_joint": 1.6498348283021367,
        "distance_shoulder_pan_joint": 2.844899101858205,
        "distance_wrist_1_joint": 1.6209963405943761,
        "distance_wrist_2_joint": 0.8846289571601651,
        "distance_wrist_3_joint": 3.260155387355984,
        "smoothness": 0.8877619469150643,
        "time": 0.273439444,
        "traj_len": 3.353610782187116,
        "weighted_distance": 4.502515002847651
    },
    "planner": "STRIDE",
    "start": {
        "state": {
            "elbow_joint": 1.9565354010623817,
            "shoulder_lift_joint": -1.4165861575791021,
            "shoulder_pan_joint": -1.6717766225146293,
            "wrist_1_joint": -0.5286633292919765,
            "wrist_2_joint": 1.472756589071564,
            "wrist_3_joint": -3.1238370188695823
        }
    },
    "waypoints": [
        {
            "positions": [
                -1.6717766225146293,
                -1.4165861575791021,
                1.9565354010623817,
                -0.5286633292919765,
                1.472756589071564,
                -3.1238370188695823
            ]
        },
        {
            "positions": [
                -1.6457116045551414,
                -1.4222449399560464,
                1.9451361061734802,
                -0.5313681325838692,
                1.4598106915564106,
                -3.1101308109668535
            ]
        },
        {
            "positions": [
                -1.5461656634836665,
                -1.4914441557260947,
                1.8994793299660506,
                -0.5028894519806417,
                1.4218933769846271,
                -3.021769110907035
            ]
        },
        {
            "positions": [
                -1.4466197224121915,
                -1.560643371496143,
                1.853822553758621,
                -0.4744107713774142,
                1.3839760624128439,
                -2.9334074108472166
            ]
        },
        {
            "positions": [
                -1.3470737813407165,
                -1.6298425872661915,
                1.8081657775511915,
                -0.4459320907741867,
                1.3460587478410604,
                -2.8450457107873977
            ]
        },
        {
            "positions": [
                -1.2475278402692416,
                -1.6990418030362398,
                1.7625090013437619,
                -0.41745341017095927,
                1.308141433269277,
                -2.756684010727579
            ]
        },
        {
            "positions": [
                -1.1479818991977666,
                -1.768241018806288,
                1.7168522251363325,
                -0.38897472956773177,
                1.2702241186974934,
                -2.6683223106677607
            ]
        },
        {
            "positions": [
                -1.0484359581262916,
                -1.8374402345763363,
                1.671195448928903,
                -0.36049604896450427,
                1.2323068041257101,
                -2.5799606106079422
            ]
        },
        {
            "positions": [
                -0.9488900170548167,
                -1.9066394503463846,
                1.6255386727214733,
                -0.3320173683612768,
                1.1943894895539267,
                -2.4915989105481238
            ]
        },
        {
            "positions": [
                -0.8493440759833417,
                -1.975838666116433,
                1.5798818965140438,
                -0.3035386877580493,
                1.1564721749821432,
                -2.403237210488305
            ]
        },
        {
            "positions": [
                -0.7497981349118668,
                -2.0450378818864814,
                1.5342251203066142,
                -0.2750600071548218,
                1.11855486041036,
                -2.3148755104284864
            ]
        },
        {
            "positions": [
                -0.6502521938403918,
                -2.1142370976565297,
                1.4885683440991846,
                -0.24658132655159437,
                1.0806375458385764,
                -2.226513810368668
            ]
        },
        {
            "positions": [
                -0.8065811640762908,
                -2.0741896451038926,
                1.5193691713927664,
                -0.2086610869996968,
                1.0456470751663698,
                -2.154871050516375
            ]
        },
        {
            "positions": [
                -0.9629101343121897,
                -2.0341421925512555,
                1.5501699986863482,
                -0.17074084744779922,
                1.0106566044941632,
                -2.0832282906640818
            ]
        },
        {
            "positions": [
                -1.1192391045480885,
                -1.9940947399986186,
                1.5809708259799302,
                -0.1328206078959016,
                0.9756661338219564,
                -2.0115855308117885
            ]
        },
        {
            "positions": [
                -1.2755680747839877,
                -1.9540472874459818,
                1.611771653273512,
                -0.09490036834400403,
                0.9406756631497498,
                -1.9399427709594956
            ]
        },
        {
            "positions": [
                -1.4318970450198865,
                -1.9139998348933447,
                1.6425724805670938,
                -0.056980128792106455,
                0.9056851924775431,
                -1.8683000111072026
            ]
        },
        {
            "positions": [
                -1.5882260152557852,
                -1.8739523823407076,
                1.6733733078606756,
                -0.019059889240208877,
                0.8706947218053365,
                -1.7966572512549095
            ]
        },
        {
            "positions": [
                -1.7445549854916842,
                -1.8339049297880707,
                1.7041741351542574,
                0.0188603503116887,
                0.8357042511331298,
                -1.7250144914026164
            ]
        },
        {
            "positions": [
                -1.9008839557275834,
                -1.7938574772354337,
                1.7349749624478394,
                0.056780589863586306,
                0.8007137804609232,
                -1.6533717315503234
            ]
        },
        {
            "positions": [
                -2.057212925963482,
                -1.7538100246827968,
                1.7657757897414212,
                0.09470082941548391,
                0.7657233097887165,
                -1.5817289716980303
            ]
        },
        {
            "positions": [
                -2.213541896199381,
                -1.7137625721301597,
                1.796576617035003,
                0.13262106896738146,
                0.7307328391165099,
                -1.5100862118457372
            ]
        },
        {
            "positions": [
                -2.273183300664189,
                -1.6738282654411039,
                1.8355171918151307,
                0.03422515837090162,
                0.7420734083377903,
                -1.6547255339554399
            ]
        },
        {
            "positions": [
                -2.3328247051289965,
                -1.633893958752048,
                1.8744577665952586,
                -0.06417075222557822,
                0.7534139775590707,
                -1.7993648560651423
            ]
        },
        {
            "positions": [
                -2.3924661095938045,
                -1.5939596520629922,
                1.9133983413753866,
                -0.16256666282205806,
                0.7647545467803512,
                -1.9440041781748447
            ]
        },
        {
            "positions": [
                -2.4521075140586124,
                -1.5540253453739363,
                1.9523389161555142,
                -0.2609625734185379,
                0.7760951160016316,
                -2.0886435002845474
            ]
        },
        {
            "positions": [
                -2.455694072886237,
                -1.4886966560502504,
                1.961414421840728,
                -0.35441568897942355,
                0.7598879609483,
                -2.2666180489334353
            ]
        },
        {
            "positions": [
                -2.4592806317138614,
                -1.4233679667265644,
                1.9704899275259415,
                -0.4478688045403092,
                0.7436808058949685,
                -2.4445925975823237
            ]
        },
        {
            "positions": [
                -2.462867190541486,
                -1.3580392774028784,
                1.9795654332111552,
                -0.5413219201011948,
                0.727473650841637,
                -2.6225671462312117
            ]
        },
        {
            "positions": [
                -2.4664537493691103,
                -1.2927105880791925,
                1.9886409388963688,
                -0.6347750356620805,
                0.7112664957883054,
                -2.8005416948800996
            ]
        },
        {
            "positions": [
                -2.470040308196735,
                -1.2273818987555065,
                1.9977164445815825,
                -0.7282281512229661,
                0.6950593407349739,
                -2.978516243528988
            ]
        },
        {
            "positions": [
                -2.4736268670243593,
                -1.1620532094318206,
                2.006791950266796,
                -0.8216812667838518,
                0.6788521856816423,
                -3.156490792177876
            ]
        }
    ]
}