{
    "goal": {
        "global_pose": {
            "orientation": {
                "w": 0.005598929693374612,
                "x": 0.007748599140229565,
                "y": 0.7110244013736278,
                "z": -0.7031023480610252
            },
            "position": {
                "x": 0.1141497679147869,
                "y": -0.7141253447532654,
                "z": 0.3711530566215515
            }
        },
        "name": "move_to_auspresseinheit_B"
    },
    "id": "STRIDE_move_to_auspresseinheit_B_93",
    "joint_names": [
        "shoulder_pan_joint",
        "shoulder_lift_joint",
        "elbow_joint",
        "wrist_1_joint",
        "wrist_2_joint",
        "wrist_3_joint"
    ],
    "metrics": {
        "cart_traj_len": 0.5647228879281618,
        "distance_elbow_joint": 0.06190275040686233,
        "distance_shoulder_lift_joint": 0.2939732906682282,
        "distance_shoulder_pan_joint": 0.5767500968604446,
        "distance_wrist_1_joint": 0.3243268557156571,
        "distance_wrist_2_joint": 0.9974884916936098,
        "distance_wrist_3_joint": 0.00994279646652485,
        "smoothness": 2.5376526478085547e-16,
        "time": 0.046618423,
        "traj_len": 1.5047871217588644,
        "weighted_distance": 1.8989695158568618
    },
    "planner": "STRIDE",
    "start": {
        "state": {
            "elbow_joint": 2.0193083361928714,
            "shoulder_lift_joint": -1.1220246554650708,
            "shoulder_pan_joint": -1.0952077554168747,
            "wrist_1_joint": -0.8559753972642168,
            "wrist_2_joint": 0.4759566250798843,
            "wrist_3_joint": -3.1240929996934557
        }
    },
    "waypoints": [
        {
            "positions": [
                -1.0952077554168747,
                -1.1220246554650708,
                2.0193083361928714,
                -0.8559753972642168,
                0.4759566250798843,
                -3.1240929996934557
            ]
        },
        {
            "positions": [
                -1.1913327715602822,
                -1.1710202039097755,
                2.008991211125061,
                -0.8019209213116073,
                0.6422047070288193,
                -3.1224358669490346
            ]
        },
        {
            "positions": [
                -1.2874577877036895,
                -1.2200157523544801,
                1.9986740860572507,
                -0.7478664453589977,
                0.8084527889777542,
                -3.120778734204614
            ]
        },
        {
            "positions": [
                -1.383582803847097,
                -1.269011300799185,
                1.9883569609894403,
                -0.6938119694063882,
                0.9747008709266891,
                -3.1191216014601935
            ]
        },
        {
            "positions": [
                -1.4797078199905043,
                -1.3180068492438897,
                1.9780398359216298,
                -0.6397574934537787,
                1.140948952875624,
                -3.1174644687157724
            ]
        },
        {
            "positions": [
                -1.575832836133912,
                -1.3670023976885943,
                1.9677227108538196,
                -0.5857030175011692,
                1.3071970348245592,
                -3.1158073359713514
            ]
        },
        {
            "positions": [
                -1.6719578522773193,
                -1.415997946133299,
                1.957405585786009,
                -0.5316485415485597,
                1.473445116773494,
                -3.114150203226931
            ]
        }
    ]
}