{
    "goal": {
        "global_pose": {
            "orientation": {
                "w": 0.7031023502349854,
                "x": -0.7110244035720825,
                "y": 0.007748599164187908,
                "z": 0.005598929710686207
            },
            "position": {
                "x": 0.11585023208521307,
                "y": 0.44412534475326537,
                "z": 0.3711530566215515
            }
        },
        "name": "move_to_auspresseinheit_A"
    },
    "id": "STRIDE_move_to_auspresseinheit_A_11",
    "joint_names": [
        "shoulder_pan_joint",
        "shoulder_lift_joint",
        "elbow_joint",
        "wrist_1_joint",
        "wrist_2_joint",
        "wrist_3_joint"
    ],
    "metrics": {
        "cart_traj_len": 0.8264244875026465,
        "distance_elbow_joint": 0.09882911207460587,
        "distance_shoulder_lift_joint": 1.110533143294929,
        "distance_shoulder_pan_joint": 1.0411455058174282,
        "distance_wrist_1_joint": 0.7520747068923961,
        "distance_wrist_2_joint": 1.356114907503296,
        "distance_wrist_3_joint": 4.200456239194112,
        "smoothness": 0.9915898862155403,
        "time": 0.178389524,
        "traj_len": 2.9256031198330312,
        "weighted_distance": 4.366721391108057
    },
    "planner": "STRIDE",
    "start": {
        "state": {
            "elbow_joint": 2.4225746658250005,
            "shoulder_lift_joint": -1.3736534386056498,
            "shoulder_pan_joint": -0.3378633547517467,
            "wrist_1_joint": -1.0288598680537169,
            "wrist_2_joint": 1.233022673432363,
            "wrist_3_joint": -3.0940220416140027
        }
    },
    "waypoints": [
        {
            "positions": [
                -0.3378633547517467,
                -1.3736534386056498,
                2.4225746658250005,
                -1.0288598680537169,
                1.233022673432363,
                -3.0940220416140027
            ]
        },
        {
            "positions": [
                -0.2809111049935074,
                -1.4324052219981362,
                2.4180201307757936,
                -0.982292530863831,
                1.1654429813033784,
                -2.9452062462931474
            ]
        },
        {
            "positions": [
                -0.22395885523526807,
                -1.4911570053906227,
                2.4134655957265867,
                -0.9357251936739451,
                1.0978632891743938,
                -2.7963904509722926
            ]
        },
        {
            "positions": [
                -0.16700660547702875,
                -1.549908788783109,
                2.40891106067738,
                -0.8891578564840592,
                1.0302835970454092,
                -2.6475746556514372
            ]
        },
        {
            "positions": [
                -0.11005435571878941,
                -1.6086605721755953,
                2.404356525628173,
                -0.8425905192941734,
                0.9627039049164245,
                -2.4987588603305824
            ]
        },
        {
            "positions": [
                -0.05310210596055004,
                -1.6674123555680818,
                2.399801990578966,
                -0.7960231821042875,
                0.8951242127874398,
                -2.349943065009727
            ]
        },
        {
            "positions": [
                0.0038501437976892205,
                -1.7261641389605682,
                2.395247455529759,
                -0.7494558449144015,
                0.8275445206584553,
                -2.201127269688872
            ]
        },
        {
            "positions": [
                0.06080239355592859,
                -1.7849159223530546,
                2.390692920480552,
                -0.7028885077245157,
                0.7599648285294706,
                -2.052311474368017
            ]
        },
        {
            "positions": [
                0.1177546433141679,
                -1.8436677057455408,
                2.386138385431345,
                -0.6563211705346299,
                0.6923851364004859,
                -1.9034956790471618
            ]
        },
        {
            "positions": [
                0.17470689307240733,
                -1.9024194891380273,
                2.381583850382138,
                -0.6097538333447439,
                0.6248054442715012,
                -1.7546798837263065
            ]
        },
        {
            "positions": [
                0.23165914283064665,
                -1.9611712725305137,
                2.377029315332931,
                -0.563186496154858,
                0.5572257521425166,
                -1.6058640884054514
            ]
        },
        {
            "positions": [
                0.28861139258888585,
                -2.019923055923,
                2.3724747802837243,
                -0.5166191589649722,
                0.48964606001353206,
                -1.4570482930845965
            ]
        },
        {
            "positions": [
                0.34556364234712517,
                -2.0786748393154864,
                2.3679202452345174,
                -0.4700518217750863,
                0.42206636788454743,
                -1.3082324977637414
            ]
        },
        {
            "positions": [
                0.4025158921053646,
                -2.137426622707973,
                2.3633657101853105,
                -0.4234844845852004,
                0.3544866757555627,
                -1.159416702442886
            ]
        },
        {
            "positions": [
                0.45946814186360396,
                -2.1961784061004592,
                2.3588111751361036,
                -0.3769171473953146,
                0.28690698362657807,
                -1.010600907122031
            ]
        },
        {
            "positions": [
                0.4865585873305015,
                -2.1641774976782235,
                2.3627073552900715,
                -0.38804292364353615,
                0.3324624522596349,
                -1.2458270298667131
            ]
        },
        {
            "positions": [
                0.513649032797399,
                -2.1321765892559883,
                2.366603535444039,
                -0.3991686998917577,
                0.3780179208926917,
                -1.4810531526113953
            ]
        },
        {
            "positions": [
                0.5407394782642965,
                -2.1001756808337526,
                2.3704997155980068,
                -0.41029447613997927,
                0.42357338952574847,
                -1.7162792753560776
            ]
        },
        {
            "positions": [
                0.567829923731194,
                -2.0681747724115174,
                2.374395895751974,
                -0.4214202523882008,
                0.4691288581588053,
                -1.9515053981007597
            ]
        },
        {
            "positions": [
                0.5949203691980915,
                -2.0361738639892817,
                2.378292075905942,
                -0.43254602863642233,
                0.5146843267918622,
                -2.1867315208454423
            ]
        },
        {
            "positions": [
                0.622010814664989,
                -2.004172955567046,
                2.3821882560599095,
                -0.44367180488464386,
                0.5602397954249189,
                -2.421957643590124
            ]
        },
        {
            "positions": [
                0.6491012601318866,
                -1.9721720471448105,
                2.3860844362138773,
                -0.4547975811328654,
                0.6057952640579758,
                -2.657183766334806
            ]
        },
        {
            "positions": [
                0.676191705598784,
                -1.940171138722575,
                2.3899806163678448,
                -0.465923357381087,
                0.6513507326910325,
                -2.8924098890794885
            ]
        },
        {
            "positions": [
                0.7032821510656816,
                -1.9081702303003396,
                2.3938767965218126,
                -0.4770491336293085,
                0.6969062013240893,
                -3.127636011824171
            ]
        }
    ]
}