{
    "goal": {
        "global_pose": {
            "orientation": {
                "w": 0.7047431468963623,
                "x": -0.7094548344612122,
                "y": 0.0024358443915843964,
                "z": -0.0022348060738295317
            },
            "position": {
                "x": 0.6094750761985779,
                "y": 0.3671506643295288,
                "z": 0.19426114857196808
            }
        },
        "name": "move_to_magneteinheit_A"
    },
    "id": "STRIDE_move_to_magneteinheit_A_49",
    "joint_names": [
        "shoulder_pan_joint",
        "shoulder_lift_joint",
        "elbow_joint",
        "wrist_1_joint",
        "wrist_2_joint",
        "wrist_3_joint"
    ],
    "metrics": {
        "cart_traj_len": 2.8917187629301675,
        "distance_elbow_joint": 3.9081470829648337,
        "distance_shoulder_lift_joint": 1.3039487971321342,
        "distance_shoulder_pan_joint": 2.8444728615628914,
        "distance_wrist_1_joint": 3.4555992730452116,
        "distance_wrist_2_joint": 1.435406317105851,
        "distance_wrist_3_joint": 1.2600497111643225,
        "smoothness": 0.1546067914304036,
        "time": 0.083481413,
        "traj_len": 3.7693002060031313,
        "weighted_distance": 4.649594504411643
    },
    "planner": "STRIDE",
    "start": {
        "state": {
            "elbow_joint": -1.9196185241190666,
            "shoulder_lift_joint": -1.2443396400964142,
            "shoulder_pan_joint": 2.6996025414629847,
            "wrist_1_joint": -1.5485510000780065,
            "wrist_2_joint": -1.5709468930060704,
            "wrist_3_joint": 0.4420197071253992
        }
    },
    "waypoints": [
        {
            "positions": [
                2.6996025414629847,
                -1.2443396400964142,
                -1.9196185241190666,
                -1.5485510000780065,
                -1.5709468930060704,
                0.4420197071253992
            ]
        },
        {
            "positions": [
                2.596822657287461,
                -1.2624980630081486,
                -1.7813478457465113,
                -1.4926586266830897,
                -1.539136501062737,
                0.40558586303223937
            ]
        },
        {
            "positions": [
                2.4940427731119374,
                -1.280656485919883,
                -1.6430771673739557,
                -1.4367662532881726,
                -1.5073261091194037,
                0.36915201893907956
            ]
        },
        {
            "positions": [
                2.3912628889364136,
                -1.2988149088316174,
                -1.5048064890014003,
                -1.3808738798932558,
                -1.4755157171760702,
                0.33271817484591976
            ]
        },
        {
            "positions": [
                2.28848300476089,
                -1.3169733317433518,
                -1.3665358106288448,
                -1.324981506498339,
                -1.4437053252327368,
                0.29628433075275995
            ]
        },
        {
            "positions": [
                2.1857031205853663,
                -1.3351317546550863,
                -1.2282651322562894,
                -1.269089133103422,
                -1.4118949332894035,
                0.2598504866596001
            ]
        },
        {
            "positions": [
                2.082923236409843,
                -1.3532901775668207,
                -1.089994453883734,
                -1.2131967597085052,
                -1.38008454134607,
                0.2234166425664403
            ]
        },
        {
            "positions": [
                1.980143352234319,
                -1.371448600478555,
                -0.9517237755111784,
                -1.1573043863135881,
                -1.3482741494027366,
                0.18698279847328048
            ]
        },
        {
            "positions": [
                1.8773634680587954,
                -1.3896070233902895,
                -0.8134530971386231,
                -1.1014120129186713,
                -1.3164637574594034,
                0.15054895438012067
            ]
        },
        {
            "positions": [
                1.7745835838832718,
                -1.407765446302024,
                -0.6751824187660675,
                -1.0455196395237545,
                -1.28465336551607,
                0.11411511028696086
            ]
        },
        {
            "positions": [
                1.6718036997077481,
                -1.4259238692137584,
                -0.5369117403935122,
                -0.9896272661288376,
                -1.2528429735727364,
                0.07768126619380106
            ]
        },
        {
            "positions": [
                1.5690238155322243,
                -1.444082292125493,
                -0.3986410620209566,
                -0.9337348927339206,
                -1.221032581629403,
                0.041247422100641196
            ]
        },
        {
            "positions": [
                1.4662439313567008,
                -1.4622407150372272,
                -0.26037038364840126,
                -0.8778425193390038,
                -1.1892221896860697,
                0.004813578007481445
            ]
        },
        {
            "positions": [
                1.3634640471811772,
                -1.4803991379489618,
                -0.1220997052758459,
                -0.8219501459440869,
                -1.1574117977427365,
                -0.03162026608567836
            ]
        },
        {
            "positions": [
                1.2606841630056533,
                -1.4985575608606962,
                0.016170973096709895,
                -0.76605777254917,
                -1.125601405799403,
                -0.06805411017883822
            ]
        },
        {
            "positions": [
                1.1579042788301297,
                -1.5167159837724307,
                0.15444165146926503,
                -0.710165399154253,
                -1.0937910138560696,
                -0.10448795427199808
            ]
        },
        {
            "positions": [
                1.055124394654606,
                -1.534874406684165,
                0.2927123298418204,
                -0.6542730257593362,
                -1.0619806219127361,
                -0.14092179836515784
            ]
        },
        {
            "positions": [
                0.9523445104790824,
                -1.5530328295958995,
                0.43098300821437574,
                -0.5983806523644194,
                -1.0301702299694027,
                -0.17735564245831759
            ]
        },
        {
            "positions": [
                0.8495646263035586,
                -1.571191252507634,
                0.5692536865869315,
                -0.5424882789695025,
                -0.9983598380260694,
                -0.21378948655147745
            ]
        },
        {
            "positions": [
                0.7467847421280349,
                -1.5893496754193683,
                0.7075243649594869,
                -0.48659590557458543,
                -0.966549446082736,
                -0.2502233306446373
            ]
        },
        {
            "positions": [
                0.6440048579525115,
                -1.6075080983311028,
                0.8457950433320423,
                -0.4307035321796686,
                -0.9347390541394026,
                -0.28665717473779706
            ]
        },
        {
            "positions": [
                0.5412249737769876,
                -1.6256665212428372,
                0.9840657217045976,
                -0.3748111587847518,
                -0.9029286621960693,
                -0.3230910188309568
            ]
        },
        {
            "positions": [
                0.4384450896014638,
                -1.6438249441545716,
                1.1223364000771534,
                -0.31891878538983476,
                -0.8711182702527358,
                -0.3595248629241168
            ]
        },
        {
            "positions": [
                0.33566520542594025,
                -1.661983367066306,
                1.260607078449709,
                -0.26302641199491783,
                -0.8393078783094025,
                -0.39595870701727653
            ]
        },
        {
            "positions": [
                0.3010261256448685,
                -1.6095053919275,
                1.3274471712174956,
                -0.13300763137101998,
                -0.7890630803109412,
                -0.3730977262967059
            ]
        },
        {
            "positions": [
                0.2663870458637968,
                -1.557027416788694,
                1.3942872639852821,
                -0.0029888507471221293,
                -0.7388182823124798,
                -0.3502367455761352
            ]
        },
        {
            "positions": [
                0.23174796608272508,
                -1.504549441649888,
                1.4611273567530687,
                0.1270299298767757,
                -0.6885734843140185,
                -0.3273757648555645
            ]
        },
        {
            "positions": [
                0.19710888630165335,
                -1.4520714665110819,
                1.5279674495208555,
                0.25704871050067357,
                -0.6383286863155572,
                -0.3045147841349939
            ]
        },
        {
            "positions": [
                0.16246980652058163,
                -1.3995934913722756,
                1.5948075422886419,
                0.3870674911245714,
                -0.5880838883170959,
                -0.28165380341442325
            ]
        },
        {
            "positions": [
                0.1278307267395099,
                -1.3471155162334698,
                1.6616476350564287,
                0.5170862717484692,
                -0.5378390903186345,
                -0.25879282269385256
            ]
        },
        {
            "positions": [
                0.0931916469584382,
                -1.2946375410946636,
                1.728487727824215,
                0.647105052372367,
                -0.4875942923201733,
                -0.2359318419732819
            ]
        },
        {
            "positions": [
                0.058552567177366455,
                -1.2421595659558575,
                1.7953278205920018,
                0.777123832996265,
                -0.43734949432171194,
                -0.21307086125271124
            ]
        },
        {
            "positions": [
                0.02391348739629473,
                -1.1896815908170515,
                1.8621679133597884,
                0.9071426136201629,
                -0.3871046963232507,
                -0.19020988053214058
            ]
        },
        {
            "positions": [
                -0.010725592384776994,
                -1.1372036156782455,
                1.929008006127575,
                1.0371613942440605,
                -0.3368598983247893,
                -0.16734889981156992
            ]
        },
        {
            "positions": [
                0.01610335315824889,
                -1.064898551923409,
                1.9409121166712133,
                1.2111387699886893,
                -0.2965960338398753,
                -0.1286566018483818
            ]
        },
        {
            "positions": [
                0.042932298701274775,
                -0.9925934881685727,
                1.9528162272148517,
                1.3851161457333183,
                -0.2563321693549614,
                -0.08996430388519365
            ]
        },
        {
            "positions": [
                0.06976124424430065,
                -0.9202884244137365,
                1.9647203377584903,
                1.559093521477947,
                -0.2160683048700474,
                -0.05127200592200552
            ]
        },
        {
            "positions": [
                0.09659018978732654,
                -0.8479833606589,
                1.9766244483021287,
                1.7330708972225761,
                -0.17580444038513346,
                -0.012579707958817382
            ]
        },
        {
            "positions": [
                0.12341913533035244,
                -0.7756782969040638,
                1.988528558845767,
                1.907048272967205,
                -0.1355405759002195,
                0.026112590004370734
            ]
        }
    ]
}