{
    "goal": {
        "global_pose": {
            "orientation": {
                "w": -0.00223480608172531,
                "x": 0.0024358444001904467,
                "y": 0.7094548369677653,
                "z": -0.704743149386269
            },
            "position": {
                "x": -0.37947507619857795,
                "y": -0.6371506643295288,
                "z": 0.19426114857196808
            }
        },
        "name": "move_to_magneteinheit_C"
    },
    "id": "STRIDE_move_to_magneteinheit_C_11",
    "joint_names": [
        "shoulder_pan_joint",
        "shoulder_lift_joint",
        "elbow_joint",
        "wrist_1_joint",
        "wrist_2_joint",
        "wrist_3_joint"
    ],
    "metrics": {
        "cart_traj_len": 1.1741613370132336,
        "distance_elbow_joint": 0.9487809411843933,
        "distance_shoulder_lift_joint": 0.8837850295109551,
        "distance_shoulder_pan_joint": 1.2655017181065744,
        "distance_wrist_1_joint": 0.9485534116046053,
        "distance_wrist_2_joint": 1.9297382878425604,
        "distance_wrist_3_joint": 2.986867647832268,
        "smoothness": 1.259578930933954,
        "time": 0.5834402320000001,
        "traj_len": 2.993864899437073,
        "weighted_distance": 4.220812010880496
    },
    "planner": "STRIDE",
    "start": {
        "state": {
            "elbow_joint": 1.9565354010623817,
            "shoulder_lift_joint": -1.4165861575791021,
            "shoulder_pan_joint": -1.6717766225146293,
            "wrist_1_joint": -0.5286633292919765,
            "wrist_2_joint": 1.472756589071564,
            "wrist_3_joint": -3.1238370188695823
        }
    },
    "waypoints": [
        {
            "positions": [
                -1.6717766225146293,
                -1.4165861575791021,
                1.9565354010623817,
                -0.5286633292919765,
                1.472756589071564,
                -3.1238370188695823
            ]
        },
        {
            "positions": [
                -1.7396653581938333,
                -1.4656278381595857,
                1.955615098973246,
                -0.4306941187785644,
                1.3587166841299196,
                -3.107946658024469
            ]
        },
        {
            "positions": [
                -1.807554093873037,
                -1.5146695187400694,
                1.9546947968841102,
                -0.33272490826515233,
                1.2446767791882751,
                -3.0920562971793557
            ]
        },
        {
            "positions": [
                -1.8495223945279338,
                -1.5475710433868022,
                1.9163269909412926,
                -0.28483185424516155,
                1.1543771129283322,
                -3.0350053179658207
            ]
        },
        {
            "positions": [
                -1.8914906951828305,
                -1.5804725680335348,
                1.877959184998475,
                -0.23693880022517078,
                1.0640774466683895,
                -2.9779543387522858
            ]
        },
        {
            "positions": [
                -1.9113792532139358,
                -1.599934991769599,
                1.815910165806811,
                -0.2303298411317503,
                0.9999926972648427,
                -2.8842808667036612
            ]
        },
        {
            "positions": [
                -1.9927713293096077,
                -1.6188117135640343,
                1.8066899425154446,
                -0.22704014553821003,
                0.913544888463111,
                -2.7064449978327985
            ]
        },
        {
            "positions": [
                -2.0741634054052795,
                -1.6376884353584693,
                1.797469719224078,
                -0.22375044994466975,
                0.8270970796613792,
                -2.528609128961936
            ]
        },
        {
            "positions": [
                -2.1555554815009517,
                -1.6565651571529045,
                1.7882494959327115,
                -0.22046075435112947,
                0.7406492708596475,
                -2.3507732600910733
            ]
        },
        {
            "positions": [
                -2.236947557596624,
                -1.6754418789473395,
                1.779029272641345,
                -0.2171710587575892,
                0.6542014620579156,
                -2.1729373912202106
            ]
        },
        {
            "positions": [
                -2.318339633692296,
                -1.6943186007417748,
                1.7698090493499785,
                -0.21388136316404893,
                0.5677536532561838,
                -1.995101522349348
            ]
        },
        {
            "positions": [
                -2.3997317097879676,
                -1.7131953225362098,
                1.760588826058612,
                -0.21059166757050865,
                0.4813058444544521,
                -1.8172656534784855
            ]
        },
        {
            "positions": [
                -2.4811237858836397,
                -1.732072044330645,
                1.7513686027672455,
                -0.20730197197696837,
                0.3948580356527202,
                -1.6394297846076227
            ]
        },
        {
            "positions": [
                -2.509179127476393,
                -1.7087334391713171,
                1.8139681352306622,
                -0.2779399263364942,
                0.4654250214490475,
                -1.7477792834830628
            ]
        },
        {
            "positions": [
                -2.5372344690691464,
                -1.6853948340119895,
                1.876567667694079,
                -0.3485778806960201,
                0.5359920072453748,
                -1.8561287823585029
            ]
        },
        {
            "positions": [
                -2.5652898106618998,
                -1.6620562288526617,
                1.9391672001574958,
                -0.41921583505554594,
                0.606558993041702,
                -1.9644782812339432
            ]
        },
        {
            "positions": [
                -2.5933451522546536,
                -1.638717623693334,
                2.0017667326209128,
                -0.4898537894150718,
                0.6771259788380293,
                -2.0728277801093835
            ]
        },
        {
            "positions": [
                -2.621400493847407,
                -1.6153790185340062,
                2.0643662650843293,
                -0.5604917437745977,
                0.7476929646343566,
                -2.1811772789848236
            ]
        },
        {
            "positions": [
                -2.6494558354401603,
                -1.5920404133746784,
                2.1269657975477463,
                -0.6311296981341235,
                0.8182599504306839,
                -2.2895267778602637
            ]
        },
        {
            "positions": [
                -2.6775111770329136,
                -1.5687018082153508,
                2.1895653300111633,
                -0.7017676524936494,
                0.8888269362270111,
                -2.397876276735704
            ]
        },
        {
            "positions": [
                -2.705566518625667,
                -1.545363203056023,
                2.25216486247458,
                -0.7724056068531753,
                0.9593939220233385,
                -2.506225775611144
            ]
        },
        {
            "positions": [
                -2.6592241542265596,
                -1.469045142759065,
                2.2036012858381953,
                -0.7848232907358533,
                0.9019331524127189,
                -2.633358660124501
            ]
        },
        {
            "positions": [
                -2.612881789827452,
                -1.3927270824621067,
                2.1550377092018107,
                -0.7972409746185313,
                0.8444723828020991,
                -2.760491544637859
            ]
        },
        {
            "positions": [
                -2.566539425428345,
                -1.316409022165149,
                2.106474132565426,
                -0.8096586585012093,
                0.7870116131914795,
                -2.887624429151216
            ]
        },
        {
            "positions": [
                -2.5201970610292377,
                -1.2400909618681908,
                2.0579105559290416,
                -0.8220763423838873,
                0.7295508435808598,
                -3.014757313664574
            ]
        },
        {
            "positions": [
                -2.4738546966301302,
                -1.1637729015712328,
                2.009346979292657,
                -0.8344940262665653,
                0.6720900739702401,
                -3.141890198177931
            ]
        }
    ]
}