{
    "goal": {
        "global_pose": {
            "orientation": {
                "w": 0.7047431493862688,
                "x": -0.7094548369677653,
                "y": 0.0024358444001904,
                "z": -0.0022348060817251984
            },
            "position": {
                "x": -0.39052492380142206,
                "y": 0.3671506643295288,
                "z": 0.19426114857196808
            }
        },
        "name": "move_to_magneteinheit_D"
    },
    "id": "STRIDE_move_to_magneteinheit_D_131",
    "joint_names": [
        "shoulder_pan_joint",
        "shoulder_lift_joint",
        "elbow_joint",
        "wrist_1_joint",
        "wrist_2_joint",
        "wrist_3_joint"
    ],
    "metrics": {
        "cart_traj_len": 4.920466108335585,
        "distance_elbow_joint": 3.6046691983538746,
        "distance_shoulder_lift_joint": 1.62853319603882,
        "distance_shoulder_pan_joint": 3.331516578038087,
        "distance_wrist_1_joint": 3.4094094166046647,
        "distance_wrist_2_joint": 0.7041938591449174,
        "distance_wrist_3_joint": 3.3127779416378935,
        "smoothness": 0.5849544975069403,
        "time": 0.36659582999999996,
        "traj_len": 3.9988873689838096,
        "weighted_distance": 5.170131463400483
    },
    "planner": "STRIDE",
    "start": {
        "state": {
            "elbow_joint": 0.749534889911806,
            "shoulder_lift_joint": -0.6476975780787326,
            "shoulder_pan_joint": -2.711696901376241,
            "wrist_1_joint": -0.07506478083263063,
            "wrist_2_joint": 0.43296659715538205,
            "wrist_3_joint": -3.14703540197715
        }
    },
    "waypoints": [
        {
            "positions": [
                -2.711696901376241,
                -0.6476975780787326,
                0.749534889911806,
                -0.07506478083263063,
                0.43296659715538205,
                -3.14703540197715
            ]
        },
        {
            "positions": [
                -2.7672621912954867,
                -0.6707294984729435,
                0.8261362116406058,
                -0.29244748665654835,
                0.42892965701896285,
                -3.1414545004563212
            ]
        },
        {
            "positions": [
                -2.8228274812147327,
                -0.6937614188671543,
                0.9027375333694055,
                -0.509830192480466,
                0.4248927168825436,
                -3.135873598935493
            ]
        },
        {
            "positions": [
                -2.8783927711339783,
                -0.7167933392613651,
                0.9793388550982054,
                -0.7272128983043837,
                0.4208557767461244,
                -3.130292697414664
            ]
        },
        {
            "positions": [
                -2.7919505357591157,
                -0.7742193195193482,
                0.9268625070336234,
                -0.7763486601849534,
                0.4520296131959483,
                -3.0381726778178466
            ]
        },
        {
            "positions": [
                -2.7055083003842535,
                -0.8316452997773313,
                0.8743861589690414,
                -0.825484422065523,
                0.4832034496457722,
                -2.9460526582210296
            ]
        },
        {
            "positions": [
                -2.619066065009391,
                -0.8890712800353144,
                0.8219098109044594,
                -0.8746201839460926,
                0.5143772860955962,
                -2.853932638624212
            ]
        },
        {
            "positions": [
                -2.5326238296345283,
                -0.9464972602932975,
                0.7694334628398773,
                -0.9237559458266622,
                0.54555112254542,
                -2.7618126190273946
            ]
        },
        {
            "positions": [
                -2.446181594259666,
                -1.0039232405512806,
                0.7169571147752953,
                -0.9728917077072319,
                0.5767249589952439,
                -2.6696925994305776
            ]
        },
        {
            "positions": [
                -2.3597393588848035,
                -1.0613492208092636,
                0.6644807667107133,
                -1.0220274695878016,
                0.6078987954450679,
                -2.57757257983376
            ]
        },
        {
            "positions": [
                -2.279379808412986,
                -1.1011976497600644,
                0.5777866396129527,
                -0.9499850707075326,
                0.59226586294188,
                -2.487559601819784
            ]
        },
        {
            "positions": [
                -2.1990202579411684,
                -1.141046078710865,
                0.49109251251519215,
                -0.8779426718272637,
                0.5766329304386921,
                -2.3975466238058076
            ]
        },
        {
            "positions": [
                -2.1186607074693504,
                -1.1808945076616657,
                0.4043983854174316,
                -0.8059002729469947,
                0.5609999979355043,
                -2.3075336457918314
            ]
        },
        {
            "positions": [
                -2.038301156997533,
                -1.2207429366124662,
                0.31770425831967103,
                -0.7338578740667259,
                0.5453670654323164,
                -2.217520667777855
            ]
        },
        {
            "positions": [
                -1.9579416065257154,
                -1.260591365563267,
                0.2310101312219105,
                -0.6618154751864569,
                0.5297341329291286,
                -2.1275076897638785
            ]
        },
        {
            "positions": [
                -1.8775820560538976,
                -1.3004397945140675,
                0.1443160041241499,
                -0.5897730763061879,
                0.5141012004259408,
                -2.0374947117499023
            ]
        },
        {
            "positions": [
                -1.7972225055820799,
                -1.3402882234648683,
                0.05762187702638932,
                -0.517730677425919,
                0.4984682679227529,
                -1.947481733735926
            ]
        },
        {
            "positions": [
                -1.7168629551102623,
                -1.3801366524156689,
                -0.029072250071371264,
                -0.4456882785456501,
                0.482835335419565,
                -1.8574687557219498
            ]
        },
        {
            "positions": [
                -1.6365034046384448,
                -1.4199850813664696,
                -0.11576637716913185,
                -0.3736458796653812,
                0.46720240291637716,
                -1.7674557777079736
            ]
        },
        {
            "positions": [
                -1.5561438541666273,
                -1.4598335103172702,
                -0.20246050426689233,
                -0.30160348078511223,
                0.45156947041318934,
                -1.6774427996939973
            ]
        },
        {
            "positions": [
                -1.4757843036948095,
                -1.499681939268071,
                -0.2891546313646529,
                -0.22956108190484337,
                0.4359365379100015,
                -1.5874298216800211
            ]
        },
        {
            "positions": [
                -1.3954247532229918,
                -1.5395303682188715,
                -0.3758487584624135,
                -0.15751868302457428,
                0.4203036054068136,
                -1.4974168436660447
            ]
        },
        {
            "positions": [
                -1.3150652027511742,
                -1.5793787971696722,
                -0.4625428855601741,
                -0.08547628414430541,
                0.4046706729036258,
                -1.4074038656520684
            ]
        },
        {
            "positions": [
                -1.2347056522793565,
                -1.619227226120473,
                -0.5492370126579347,
                -0.01343388526403655,
                0.3890377404004379,
                -1.3173908876380922
            ]
        },
        {
            "positions": [
                -1.154346101807539,
                -1.6590756550712735,
                -0.6359311397556953,
                0.05860851361623243,
                0.37340480789725006,
                -1.227377909624116
            ]
        },
        {
            "positions": [
                -1.0739865513357214,
                -1.698924084022074,
                -0.7226252668534558,
                0.1306509124965014,
                0.3577718753940622,
                -1.1373649316101397
            ]
        },
        {
            "positions": [
                -0.9936270008639037,
                -1.7387725129728748,
                -0.8093193939512164,
                0.20269331137677016,
                0.3421389428908744,
                -1.0473519535961635
            ]
        },
        {
            "positions": [
                -0.9132674503920861,
                -1.7786209419236756,
                -0.896013521048977,
                0.27473571025703913,
                0.3265060103876865,
                -0.9573389755821873
            ]
        },
        {
            "positions": [
                -0.8329078999202684,
                -1.8184693708744761,
                -0.9827076481467374,
                0.3467781091373081,
                0.31087307788449864,
                -0.867325997568211
            ]
        },
        {
            "positions": [
                -0.7525483494484508,
                -1.8583177998252767,
                -1.069401775244498,
                0.4188205080175771,
                0.2952401453813108,
                -0.7773130195542346
            ]
        },
        {
            "positions": [
                -0.6721887989766333,
                -1.8981662287760774,
                -1.1560959023422586,
                0.49086290689784584,
                0.27960721287812296,
                -0.6873000415402584
            ]
        },
        {
            "positions": [
                -0.5918292485048156,
                -1.9380146577268782,
                -1.2427900294400192,
                0.5629053057781148,
                0.2639742803749351,
                -0.5972870635262821
            ]
        },
        {
            "positions": [
                -0.5114696980329978,
                -1.977863086677679,
                -1.32948415653778,
                0.634947704658384,
                0.24834134787174722,
                -0.5072740855123055
            ]
        },
        {
            "positions": [
                -0.43111014756118005,
                -2.0177115156284797,
                -1.4161782836355403,
                0.706990103538653,
                0.23270841536855935,
                -0.41726110749832923
            ]
        },
        {
            "positions": [
                -0.3507505970893625,
                -2.05755994457928,
                -1.5028724107333011,
                0.7790325024189217,
                0.21707548286537148,
                -0.327248129484353
            ]
        },
        {
            "positions": [
                -0.270391046617545,
                -2.097408373530081,
                -1.5895665378310615,
                0.8510749012991907,
                0.20144255036218367,
                -0.23723515147037677
            ]
        },
        {
            "positions": [
                -0.19003149614572745,
                -2.1372568024808816,
                -1.6762606649288223,
                0.9231173001794597,
                0.1858096178589958,
                -0.14722217345640054
            ]
        },
        {
            "positions": [
                -0.10967194567390948,
                -2.177105231431682,
                -1.7629547920265827,
                0.9951596990597285,
                0.17017668535580793,
                -0.05720919544242431
            ]
        },
        {
            "positions": [
                -0.029312395202091945,
                -2.216953660382483,
                -1.8496489191243435,
                1.0672020979399974,
                0.15454375285262012,
                0.03280378257155192
            ]
        },
        {
            "positions": [
                0.0510471552697255,
                -2.2568020893332834,
                -1.936343046222104,
                1.1392444968202664,
                0.13891082034943225,
                0.12281676058552803
            ]
        },
        {
            "positions": [
                -0.02741310535582281,
                -2.2632783175947067,
                -2.0894041568378263,
                1.2396360839674079,
                0.15092816866312572,
                0.10850816756045609
            ]
        },
        {
            "positions": [
                -0.10587336598137112,
                -2.2697545458561295,
                -2.2424652674535483,
                1.3400276711145493,
                0.1629455169768192,
                0.09419957453538413
            ]
        },
        {
            "positions": [
                -0.18433362660691946,
                -2.2762307741175527,
                -2.395526378069271,
                1.4404192582616908,
                0.17496286529051266,
                0.0798909815103122
            ]
        }
    ]
}