{
    "goal": {
        "global_pose": {
            "orientation": {
                "w": 0.7031023480610252,
                "x": -0.7110244013736278,
                "y": 0.0077485991402295624,
                "z": 0.005598929693374583
            },
            "position": {
                "x": -0.8841497679147869,
                "y": 0.44412534475326537,
                "z": 0.3711530566215515
            }
        },
        "name": "move_to_auspresseinheit_D"
    },
    "id": "STRIDE_move_to_auspresseinheit_D_3",
    "joint_names": [
        "shoulder_pan_joint",
        "shoulder_lift_joint",
        "elbow_joint",
        "wrist_1_joint",
        "wrist_2_joint",
        "wrist_3_joint"
    ],
    "metrics": {
        "cart_traj_len": 0.3429320752629538,
        "distance_elbow_joint": 0.6391450054030323,
        "distance_shoulder_lift_joint": 0.122253232893907,
        "distance_shoulder_pan_joint": 0.13343561179581517,
        "distance_wrist_1_joint": 0.5234631140859878,
        "distance_wrist_2_joint": 1.4462214664053505,
        "distance_wrist_3_joint": 0.002310893864256869,
        "smoothness": 7.894919182364742e-16,
        "time": 0.220587715,
        "traj_len": 1.6931713807079156,
        "weighted_distance": 2.200258096830506
    },
    "planner": "STRIDE",
    "start": {
        "state": {
            "elbow_joint": -1.8275523626775212,
            "shoulder_lift_joint": -2.126789852344167,
            "shoulder_pan_joint": -0.03513704404078235,
            "wrist_1_joint": -2.347782403156801,
            "wrist_2_joint": -1.6058999987535132,
            "wrist_3_joint": -3.0880379163319196
        }
    },
    "waypoints": [
        {
            "positions": [
                -0.03513704404078235,
                -2.126789852344167,
                -1.8275523626775212,
                -2.347782403156801,
                -1.6058999987535132,
                -3.0880379163319196
            ]
        },
        {
            "positions": [
                -0.05181649551525924,
                -2.1420715064559053,
                -1.7476592370021422,
                -2.4132152924175494,
                -1.4251223154528443,
                -3.0883267780649515
            ]
        },
        {
            "positions": [
                -0.06849594698973614,
                -2.1573531605676437,
                -1.6677661113267632,
                -2.478648181678298,
                -1.2443446321521756,
                -3.088615639797984
            ]
        },
        {
            "positions": [
                -0.08517539846421304,
                -2.172634814679382,
                -1.587872985651384,
                -2.5440810709390465,
                -1.0635669488515067,
                -3.088904501531016
            ]
        },
        {
            "positions": [
                -0.10185484993868993,
                -2.18791646879112,
                -1.507979859976005,
                -2.609513960199795,
                -0.8827892655508379,
                -3.089193363264048
            ]
        },
        {
            "positions": [
                -0.11853430141316684,
                -2.2031981229028585,
                -1.428086734300626,
                -2.674946849460543,
                -0.7020115822501691,
                -3.08948222499708
            ]
        },
        {
            "positions": [
                -0.13521375288764373,
                -2.218479777014597,
                -1.3481936086252468,
                -2.7403797387212916,
                -0.5212338989495002,
                -3.0897710867301122
            ]
        },
        {
            "positions": [
                -0.15189320436212062,
                -2.2337614311263354,
                -1.2683004829498679,
                -2.80581262798204,
                -0.34045621564883155,
                -3.0900599484631446
            ]
        },
        {
            "positions": [
                -0.16857265583659753,
                -2.249043085238074,
                -1.1884073572744889,
                -2.8712455172427886,
                -0.15967853234816262,
                -3.0903488101961765
            ]
        }
    ]
}