{
    "goal": {
        "global_pose": {
            "orientation": {
                "w": 0.7047431468963623,
                "x": -0.7094548344612122,
                "y": 0.0024358443915843964,
                "z": -0.0022348060738295317
            },
            "position": {
                "x": 0.6094750761985779,
                "y": 0.3671506643295288,
                "z": 0.19426114857196808
            }
        },
        "name": "move_to_magneteinheit_A"
    },
    "id": "STRIDE_move_to_magneteinheit_A_144",
    "joint_names": [
        "shoulder_pan_joint",
        "shoulder_lift_joint",
        "elbow_joint",
        "wrist_1_joint",
        "wrist_2_joint",
        "wrist_3_joint"
    ],
    "metrics": {
        "cart_traj_len": 5.556808897996885,
        "distance_elbow_joint": 3.942927650883499,
        "distance_shoulder_lift_joint": 1.6917002573272648,
        "distance_shoulder_pan_joint": 8.028454373067015,
        "distance_wrist_1_joint": 5.285123506284213,
        "distance_wrist_2_joint": 1.4319075842683802,
        "distance_wrist_3_joint": 0.6923410530508067,
        "smoothness": 0.2998370851986291,
        "time": 0.176419755,
        "traj_len": 4.590474313715433,
        "weighted_distance": 5.401311657508328
    },
    "planner": "STRIDE",
    "start": {
        "state": {
            "elbow_joint": -1.9196185241190666,
            "shoulder_lift_joint": -1.2443396400964142,
            "shoulder_pan_joint": 2.6996025414629847,
            "wrist_1_joint": -1.5485510000780065,
            "wrist_2_joint": -1.5709468930060704,
            "wrist_3_joint": 0.4420197071253992
        }
    },
    "waypoints": [
        {
            "positions": [
                2.6996025414629847,
                -1.2443396400964142,
                -1.9196185241190666,
                -1.5485510000780065,
                -1.5709468930060704,
                0.4420197071253992
            ]
        },
        {
            "positions": [
                2.53389197556067,
                -1.2636958294698606,
                -1.8768042459360454,
                -1.4102143663585136,
                -1.5484765803884513,
                0.4441053623971951
            ]
        },
        {
            "positions": [
                2.368181409658355,
                -1.2830520188433068,
                -1.8339899677530245,
                -1.2718777326390205,
                -1.526006267770832,
                0.4461910176689911
            ]
        },
        {
            "positions": [
                2.2024708437560405,
                -1.3024082082167532,
                -1.7911756895700033,
                -1.1335410989195274,
                -1.5035359551532128,
                0.44827667294078705
            ]
        },
        {
            "positions": [
                2.036760277853726,
                -1.3217643975901994,
                -1.7483614113869823,
                -0.9952044652000345,
                -1.4810656425355935,
                0.450362328212583
            ]
        },
        {
            "positions": [
                1.8710497119514113,
                -1.3411205869636458,
                -1.7055471332039611,
                -0.8568678314805415,
                -1.4585953299179744,
                0.452447983484379
            ]
        },
        {
            "positions": [
                1.7053391460490965,
                -1.360476776337092,
                -1.66273285502094,
                -0.7185311977610485,
                -1.436125017300355,
                0.4545336387561749
            ]
        },
        {
            "positions": [
                1.5396285801467817,
                -1.3798329657105384,
                -1.619918576837919,
                -0.5801945640415554,
                -1.413654704682736,
                0.45661929402797086
            ]
        },
        {
            "positions": [
                1.3739180142444671,
                -1.3991891550839846,
                -1.577104298654898,
                -0.44185793032206244,
                -1.3911843920651166,
                0.4587049492997668
            ]
        },
        {
            "positions": [
                1.2082074483421525,
                -1.418545344457431,
                -1.5342900204718768,
                -0.3035212966025693,
                -1.3687140794474975,
                0.4607906045715628
            ]
        },
        {
            "positions": [
                1.0424968824398377,
                -1.4379015338308772,
                -1.4914757422888556,
                -0.16518466288307643,
                -1.3462437668298781,
                0.46287625984335873
            ]
        },
        {
            "positions": [
                0.8767863165375229,
                -1.4572577232043236,
                -1.4486614641058346,
                -0.02684802916358353,
                -1.323773454212259,
                0.46496191511515467
            ]
        },
        {
            "positions": [
                0.7110757506352083,
                -1.4766139125777697,
                -1.4058471859228134,
                0.11148860455590959,
                -1.30130314159464,
                0.46704757038695066
            ]
        },
        {
            "positions": [
                0.5453651847328937,
                -1.4959701019512162,
                -1.3630329077397922,
                0.2498252382754027,
                -1.2788328289770206,
                0.4691332256587466
            ]
        },
        {
            "positions": [
                0.3796546188305787,
                -1.5153262913246626,
                -1.3202186295567713,
                0.3881618719948956,
                -1.2563625163594012,
                0.47121888093054254
            ]
        },
        {
            "positions": [
                0.21394405292826413,
                -1.5346824806981088,
                -1.2774043513737503,
                0.5264985057143885,
                -1.233892203741782,
                0.47330453620233853
            ]
        },
        {
            "positions": [
                0.04823348702594954,
                -1.554038670071555,
                -1.234590073190729,
                0.6648351394338816,
                -1.211421891124163,
                0.47539019147413447
            ]
        },
        {
            "positions": [
                -0.11747707887636505,
                -1.5733948594450013,
                -1.191775795007708,
                0.8031717731533747,
                -1.1889515785065436,
                0.4774758467459304
            ]
        },
        {
            "positions": [
                -0.28318764477867964,
                -1.5927510488184478,
                -1.148961516824687,
                0.9415084068728679,
                -1.1664812658889243,
                0.4795615020177264
            ]
        },
        {
            "positions": [
                -0.44889821068099467,
                -1.612107238191894,
                -1.106147238641666,
                1.0798450405923605,
                -1.1440109532713052,
                0.48164715728952234
            ]
        },
        {
            "positions": [
                -0.6146087765833093,
                -1.6314634275653401,
                -1.0633329604586448,
                1.2181816743118536,
                -1.121540640653686,
                0.4837328125613183
            ]
        },
        {
            "positions": [
                -0.7803193424856238,
                -1.6508196169387865,
                -1.0205186822756236,
                1.3565183080313468,
                -1.0990703280360667,
                0.4858184678331142
            ]
        },
        {
            "positions": [
                -0.9460299083879389,
                -1.670175806312233,
                -0.9777044040926025,
                1.4948549417508394,
                -1.0766000154184476,
                0.4879041231049102
            ]
        },
        {
            "positions": [
                -1.1117404742902535,
                -1.6895319956856791,
                -0.9348901259095814,
                1.6331915754703326,
                -1.0541297028008283,
                0.48998977837670615
            ]
        },
        {
            "positions": [
                -1.277451040192568,
                -1.7088881850591255,
                -0.8920758477265602,
                1.7715282091898257,
                -1.0316593901832092,
                0.49207543364850215
            ]
        },
        {
            "positions": [
                -1.443161606094883,
                -1.7282443744325717,
                -0.8492615695435393,
                1.9098648429093188,
                -1.00918907756559,
                0.4941610889202981
            ]
        },
        {
            "positions": [
                -1.6088721719971972,
                -1.7476005638060181,
                -0.8064472913605181,
                2.0482014766288117,
                -0.9867187649479707,
                0.496246744192094
            ]
        },
        {
            "positions": [
                -1.7745827378995123,
                -1.7669567531794645,
                -0.7636330131774971,
                2.1865381103483044,
                -0.9642484523303515,
                0.49833239946388996
            ]
        },
        {
            "positions": [
                -1.9402933038018273,
                -1.7863129425529107,
                -0.7208187349944759,
                2.324874744067798,
                -0.9417781397127323,
                0.5004180547356859
            ]
        },
        {
            "positions": [
                -2.1060038697041414,
                -1.805669131926357,
                -0.6780044568114549,
                2.4632113777872906,
                -0.919307827095113,
                0.5025037100074818
            ]
        },
        {
            "positions": [
                -2.2717144356064565,
                -1.8250253212998033,
                -0.6351901786284337,
                2.6015480115067833,
                -0.8968375144774938,
                0.5045893652792779
            ]
        },
        {
            "positions": [
                -2.4374250015087706,
                -1.8443815106732497,
                -0.5923759004454128,
                2.739884645226277,
                -0.8743672018598746,
                0.5066750205510738
            ]
        },
        {
            "positions": [
                -2.6031355674110856,
                -1.863737700046696,
                -0.5495616222623916,
                2.87822127894577,
                -0.8518968892422554,
                0.5087606758228698
            ]
        },
        {
            "positions": [
                -2.4792393735841336,
                -1.8149966910750148,
                -0.4326129518520814,
                2.8392053140702957,
                -0.8194942719465933,
                0.4803243083522636
            ]
        },
        {
            "positions": [
                -2.3553431797571815,
                -1.7662556821033337,
                -0.31566428144177117,
                2.8001893491948215,
                -0.7870916546509312,
                0.4518879408816574
            ]
        },
        {
            "positions": [
                -2.2314469859302295,
                -1.7175146731316528,
                -0.19871561103146096,
                2.7611733843193473,
                -0.7546890373552692,
                0.4234515734110512
            ]
        },
        {
            "positions": [
                -2.1075507921032774,
                -1.6687736641599717,
                -0.08176694062115075,
                2.722157419443873,
                -0.7222864200596071,
                0.39501520594044504
            ]
        },
        {
            "positions": [
                -1.9836545982763252,
                -1.6200326551882906,
                0.035181729789159455,
                2.683141454568399,
                -0.6898838027639449,
                0.36657883846983885
            ]
        },
        {
            "positions": [
                -1.8597584044493731,
                -1.5712916462166095,
                0.15213040019946966,
                2.644125489692925,
                -0.6574811854682829,
                0.33814247099923267
            ]
        },
        {
            "positions": [
                -1.735862210622421,
                -1.5225506372449285,
                0.26907907060977987,
                2.605109524817451,
                -0.6250785681726208,
                0.3097061035286265
            ]
        },
        {
            "positions": [
                -1.6119660167954688,
                -1.4738096282732474,
                0.3860277410200901,
                2.5660935599419767,
                -0.5926759508769587,
                0.28126973605802025
            ]
        },
        {
            "positions": [
                -1.4880698229685168,
                -1.4250686193015665,
                0.5029764114304003,
                2.5270775950665025,
                -0.5602733335812966,
                0.25283336858741406
            ]
        },
        {
            "positions": [
                -1.3641736291415647,
                -1.3763276103298854,
                0.6199250818407105,
                2.4880616301910283,
                -0.5278707162856345,
                0.22439700111680788
            ]
        },
        {
            "positions": [
                -1.2402774353146127,
                -1.3275866013582043,
                0.7368737522510207,
                2.449045665315554,
                -0.49546809898997246,
                0.1959606336462017
            ]
        },
        {
            "positions": [
                -1.1163812414876606,
                -1.2788455923865234,
                0.8538224226613309,
                2.41002970044008,
                -0.4630654816943104,
                0.16752426617559552
            ]
        },
        {
            "positions": [
                -0.9924850476607083,
                -1.230104583414842,
                0.9707710930716411,
                2.3710137355646057,
                -0.43066286439864826,
                0.13908789870498928
            ]
        },
        {
            "positions": [
                -0.8685888538337565,
                -1.1813635744431612,
                1.0877197634819513,
                2.3319977706891315,
                -0.39826024710298624,
                0.11065153123438315
            ]
        },
        {
            "positions": [
                -0.7446926600068045,
                -1.13262256547148,
                1.2046684338922613,
                2.2929818058136577,
                -0.36585762980732417,
                0.08221516376377697
            ]
        },
        {
            "positions": [
                -0.6207964661798522,
                -1.083881556499799,
                1.3216171043025717,
                2.253965840938183,
                -0.333455012511662,
                0.05377879629317073
            ]
        },
        {
            "positions": [
                -0.49690027235290035,
                -1.035140547528118,
                1.438565774712882,
                2.2149498760627093,
                -0.301052395216,
                0.0253424288225646
            ]
        },
        {
            "positions": [
                -0.37300407852594786,
                -0.9863995385564368,
                1.5555144451231921,
                2.1759339111872347,
                -0.26864977792033784,
                -0.0030939386480416387
            ]
        },
        {
            "positions": [
                -0.2491078846989958,
                -0.9376585295847558,
                1.6724631155335024,
                2.136917946311761,
                -0.23624716062467577,
                -0.03153030611864782
            ]
        },
        {
            "positions": [
                -0.12521169087204376,
                -0.8889175206130748,
                1.7894117859438126,
                2.0979019814362867,
                -0.2038445433290137,
                -0.059966673589254005
            ]
        },
        {
            "positions": [
                -0.001315497045091707,
                -0.8401765116413937,
                1.9063604563541228,
                2.0588860165608125,
                -0.17144192603335162,
                -0.08840304105986019
            ]
        },
        {
            "positions": [
                0.12258069678186037,
                -0.7914355026697127,
                2.023309126764433,
                2.0198700516853383,
                -0.13903930873768955,
                -0.11683940853046636
            ]
        }
    ]
}