{
    "goal": {
        "global_pose": {
            "orientation": {
                "w": -0.00223480608172531,
                "x": 0.0024358444001904467,
                "y": 0.7094548369677653,
                "z": -0.704743149386269
            },
            "position": {
                "x": -0.37947507619857795,
                "y": -0.6371506643295288,
                "z": 0.19426114857196808
            }
        },
        "name": "move_to_magneteinheit_C"
    },
    "id": "STRIDE_move_to_magneteinheit_C_48",
    "joint_names": [
        "shoulder_pan_joint",
        "shoulder_lift_joint",
        "elbow_joint",
        "wrist_1_joint",
        "wrist_2_joint",
        "wrist_3_joint"
    ],
    "metrics": {
        "cart_traj_len": 1.7851295380724277,
        "distance_elbow_joint": 0.5591602653329972,
        "distance_shoulder_lift_joint": 0.7498852374968474,
        "distance_shoulder_pan_joint": 1.9427283484934728,
        "distance_wrist_1_joint": 0.5151206019649528,
        "distance_wrist_2_joint": 1.7410371709742716,
        "distance_wrist_3_joint": 0.254530197363771,
        "smoothness": 1.2780562754031324,
        "time": 0.742533116,
        "traj_len": 2.4005128247160674,
        "weighted_distance": 2.9202191680237086
    },
    "planner": "STRIDE",
    "start": {
        "state": {
            "elbow_joint": 1.9565354010623817,
            "shoulder_lift_joint": -1.4165861575791021,
            "shoulder_pan_joint": -1.6717766225146293,
            "wrist_1_joint": -0.5286633292919765,
            "wrist_2_joint": 1.472756589071564,
            "wrist_3_joint": -3.1238370188695823
        }
    },
    "waypoints": [
        {
            "positions": [
                -1.6717766225146293,
                -1.4165861575791021,
                1.9565354010623817,
                -0.5286633292919765,
                1.472756589071564,
                -3.1238370188695823
            ]
        },
        {
            "positions": [
                -1.5903650001414016,
                -1.452001567727104,
                1.9201005367218098,
                -0.5126387776843023,
                1.2906166803217973,
                -3.108084099004363
            ]
        },
        {
            "positions": [
                -1.508953377768174,
                -1.487416977875106,
                1.8836656723812382,
                -0.49661422607662825,
                1.1084767715720307,
                -3.0923311791391446
            ]
        },
        {
            "positions": [
                -1.4275417553949463,
                -1.522832388023108,
                1.8472308080406663,
                -0.4805896744689542,
                0.9263368628222642,
                -3.0765782592739255
            ]
        },
        {
            "positions": [
                -1.3461301330217188,
                -1.5582477981711103,
                1.8107959437000944,
                -0.46456512286128004,
                0.7441969540724978,
                -3.060825339408707
            ]
        },
        {
            "positions": [
                -1.264718510648491,
                -1.5936632083191122,
                1.7743610793595226,
                -0.44854057125360597,
                0.562057045322731,
                -3.0450724195434877
            ]
        },
        {
            "positions": [
                -1.1833068882752635,
                -1.6290786184671142,
                1.737926215018951,
                -0.4325160196459319,
                0.37991713657296455,
                -3.029319499678269
            ]
        },
        {
            "positions": [
                -1.1018952659020358,
                -1.6644940286151162,
                1.701491350678379,
                -0.41649146803825776,
                0.19777722782319798,
                -3.01356657981305
            ]
        },
        {
            "positions": [
                -1.2418359965038261,
                -1.6178373786679232,
                1.7412096844128306,
                -0.46087588497768356,
                0.22020601874237808,
                -3.043468009311919
            ]
        },
        {
            "positions": [
                -1.3817767271056163,
                -1.5711807287207304,
                1.780928018147282,
                -0.5052603019171094,
                0.2426348096615582,
                -3.073369438810788
            ]
        },
        {
            "positions": [
                -1.5217174577074066,
                -1.5245240787735375,
                1.8206463518817335,
                -0.5496447188565352,
                0.2650636005807383,
                -3.1032708683096573
            ]
        },
        {
            "positions": [
                -1.680554924386658,
                -1.464189509336995,
                1.8514732208393403,
                -0.5946106338386946,
                0.33152550674213266,
                -3.112363446611429
            ]
        },
        {
            "positions": [
                -1.8393923910659093,
                -1.4038549399004525,
                1.8823000897969469,
                -0.6395765488208541,
                0.397987412903527,
                -3.121456024913201
            ]
        },
        {
            "positions": [
                -1.998229857745161,
                -1.34352037046391,
                1.9131269587545536,
                -0.6845424638030135,
                0.4644493190649214,
                -3.130548603214973
            ]
        },
        {
            "positions": [
                -2.1570673244244123,
                -1.2831858010273678,
                1.9439538277121604,
                -0.7295083787851729,
                0.5309112252263157,
                -3.139641181516745
            ]
        },
        {
            "positions": [
                -2.3159047911036637,
                -1.2228512315908253,
                1.974780696669767,
                -0.7744742937673325,
                0.5973731313877101,
                -3.1487337598185166
            ]
        },
        {
            "positions": [
                -2.474742257782915,
                -1.1625166621542828,
                2.0056075656273737,
                -0.8194402087494919,
                0.6638350375491044,
                -3.1578263381202887
            ]
        }
    ]
}