{
    "goal": {
        "global_pose": {
            "orientation": {
                "w": -0.00223480608172531,
                "x": 0.0024358444001904467,
                "y": 0.7094548369677653,
                "z": -0.704743149386269
            },
            "position": {
                "x": -0.37947507619857795,
                "y": -0.6371506643295288,
                "z": 0.19426114857196808
            }
        },
        "name": "move_to_magneteinheit_C"
    },
    "id": "STRIDE_move_to_magneteinheit_C_143",
    "joint_names": [
        "shoulder_pan_joint",
        "shoulder_lift_joint",
        "elbow_joint",
        "wrist_1_joint",
        "wrist_2_joint",
        "wrist_3_joint"
    ],
    "metrics": {
        "cart_traj_len": 0.9352512550867662,
        "distance_elbow_joint": 0.17285943171629858,
        "distance_shoulder_lift_joint": 1.1847293655600748,
        "distance_shoulder_pan_joint": 0.9709740728702261,
        "distance_wrist_1_joint": 1.866168505387538,
        "distance_wrist_2_joint": 0.8817827398219805,
        "distance_wrist_3_joint": 3.282514910001395,
        "smoothness": 1.0634657212404501,
        "time": 1.6107024559999998,
        "traj_len": 2.891198544783376,
        "weighted_distance": 4.203808997869649
    },
    "planner": "STRIDE",
    "start": {
        "state": {
            "elbow_joint": 1.9565354010623817,
            "shoulder_lift_joint": -1.4165861575791021,
            "shoulder_pan_joint": -1.6717766225146293,
            "wrist_1_joint": -0.5286633292919765,
            "wrist_2_joint": 1.472756589071564,
            "wrist_3_joint": -3.1238370188695823
        }
    },
    "waypoints": [
        {
            "positions": [
                -1.6717766225146293,
                -1.4165861575791021,
                1.9565354010623817,
                -0.5286633292919765,
                1.472756589071564,
                -3.1238370188695823
            ]
        },
        {
            "positions": [
                -1.6917988867881069,
                -1.4422907859316443,
                1.9514094190093678,
                -0.4532616908271084,
                1.411563959379466,
                -3.019039375638069
            ]
        },
        {
            "positions": [
                -1.7118211510615844,
                -1.4679954142841862,
                1.9462834369563542,
                -0.3778600523622403,
                1.350371329687368,
                -2.914241732406555
            ]
        },
        {
            "positions": [
                -1.731843415335062,
                -1.4937000426367284,
                1.9411574549033404,
                -0.30245841389737216,
                1.2891786999952701,
                -2.8094440891750416
            ]
        },
        {
            "positions": [
                -1.7868297375453364,
                -1.5368876473458235,
                1.9418370459899972,
                -0.24065272567340895,
                1.221935995493778,
                -2.6635486675349522
            ]
        },
        {
            "positions": [
                -1.8418160597556108,
                -1.5800752520549186,
                1.9425166370766538,
                -0.17884703744944574,
                1.1546932909922858,
                -2.5176532458948624
            ]
        },
        {
            "positions": [
                -1.896802381965885,
                -1.6232628567640137,
                1.9431962281633106,
                -0.11704134922548257,
                1.0874505864907937,
                -2.371757824254773
            ]
        },
        {
            "positions": [
                -1.9517887041761595,
                -1.6664504614731088,
                1.9438758192499672,
                -0.05523566100151936,
                1.0202078819893017,
                -2.225862402614683
            ]
        },
        {
            "positions": [
                -2.0067750263864337,
                -1.7096380661822037,
                1.944555410336624,
                0.006570027222443875,
                0.9529651774878094,
                -2.0799669809745938
            ]
        },
        {
            "positions": [
                -2.061761348596708,
                -1.7528256708912988,
                1.9452350014232807,
                0.06837571544640703,
                0.8857224729863173,
                -1.9340715593345041
            ]
        },
        {
            "positions": [
                -2.1167476708069826,
                -1.796013275600394,
                1.9459145925099375,
                0.13018140367037023,
                0.8184797684848253,
                -1.7881761376944145
            ]
        },
        {
            "positions": [
                -2.171733993017257,
                -1.839200880309489,
                1.946594183596594,
                0.19198709189433344,
                0.7512370639833331,
                -1.642280716054325
            ]
        },
        {
            "positions": [
                -2.2267203152275314,
                -1.8823884850185841,
                1.947273774683251,
                0.25379278011829665,
                0.683994359481841,
                -1.4963852944142353
            ]
        },
        {
            "positions": [
                -2.2740834504380585,
                -1.8237115450868686,
                1.9624267838493223,
                0.15802757490535263,
                0.6760509830768451,
                -1.6256717699566807
            ]
        },
        {
            "positions": [
                -2.321446585648585,
                -1.765034605155153,
                1.9775797930153935,
                0.06226236969240864,
                0.6681076066718493,
                -1.7549582454991262
            ]
        },
        {
            "positions": [
                -2.368809720859112,
                -1.7063576652234376,
                1.992732802181465,
                -0.033502835520535346,
                0.6601642302668534,
                -1.8842447210415718
            ]
        },
        {
            "positions": [
                -2.416172856069639,
                -1.647680725291722,
                2.007885811347536,
                -0.12926804073347936,
                0.6522208538618576,
                -2.013531196584017
            ]
        },
        {
            "positions": [
                -2.463535991280166,
                -1.5890037853600063,
                2.0230388205136074,
                -0.22503324594642338,
                0.6442774774568617,
                -2.142817672126463
            ]
        },
        {
            "positions": [
                -2.510899126490693,
                -1.5303268454282908,
                2.038191829679679,
                -0.32079845115936734,
                0.6363341010518659,
                -2.2721041476689083
            ]
        },
        {
            "positions": [
                -2.55826226170122,
                -1.4716499054965753,
                2.0533448388457503,
                -0.41656365637231135,
                0.6283907246468701,
                -2.4013906232113538
            ]
        },
        {
            "positions": [
                -2.5413645749644926,
                -1.4100122137768585,
                2.0442860185227807,
                -0.49923484826964276,
                0.6358740997263274,
                -2.5514021945611396
            ]
        },
        {
            "positions": [
                -2.5244668882277654,
                -1.3483745220571417,
                2.035227198199811,
                -0.5819060401669742,
                0.6433574748057848,
                -2.7014137659109254
            ]
        },
        {
            "positions": [
                -2.5075692014910387,
                -1.286736830337425,
                2.026168377876842,
                -0.6645772320643055,
                0.650840849885242,
                -2.8514253372607117
            ]
        },
        {
            "positions": [
                -2.4906715147543115,
                -1.2250991386177081,
                2.0171095575538724,
                -0.747248423961637,
                0.6583242249646994,
                -3.0014369086104975
            ]
        },
        {
            "positions": [
                -2.4737738280175843,
                -1.1634614468979914,
                2.008050737230903,
                -0.8299196158589683,
                0.6658076000441567,
                -3.1514484799602833
            ]
        }
    ]
}