{
    "goal": {
        "global_pose": {
            "orientation": {
                "w": 0.005598929693374612,
                "x": 0.007748599140229565,
                "y": 0.7110244013736278,
                "z": -0.7031023480610252
            },
            "position": {
                "x": -0.8858502320852131,
                "y": -0.7141253447532654,
                "z": 0.3711530566215515
            }
        },
        "name": "move_to_auspresseinheit_C"
    },
    "id": "STRIDE_move_to_auspresseinheit_C_109",
    "joint_names": [
        "shoulder_pan_joint",
        "shoulder_lift_joint",
        "elbow_joint",
        "wrist_1_joint",
        "wrist_2_joint",
        "wrist_3_joint"
    ],
    "metrics": {
        "cart_traj_len": 0.4934234522230635,
        "distance_elbow_joint": 1.0044459353415789,
        "distance_shoulder_lift_joint": 0.3262955790180331,
        "distance_shoulder_pan_joint": 0.25657635896064024,
        "distance_wrist_1_joint": 0.6932123257303899,
        "distance_wrist_2_joint": 1.3015324334334832,
        "distance_wrist_3_joint": 0.06696336146023185,
        "smoothness": 1.6148698667872622e-16,
        "time": 0.529203368,
        "traj_len": 1.9102423914111941,
        "weighted_distance": 2.4036841464777967
    },
    "planner": "STRIDE",
    "start": {
        "state": {
            "elbow_joint": 1.7527959577737207,
            "shoulder_lift_joint": -0.9740617694225068,
            "shoulder_pan_joint": -2.967991417825858,
            "wrist_1_joint": -0.759517768980727,
            "wrist_2_joint": 1.7443932448377408,
            "wrist_3_joint": -3.0840537646736568
        }
    },
    "waypoints": [
        {
            "positions": [
                -2.967991417825858,
                -0.9740617694225068,
                1.7527959577737207,
                -0.759517768980727,
                1.7443932448377408,
                -3.0840537646736568
            ]
        },
        {
            "positions": [
                -2.942333781929794,
                -0.9414322115207034,
                1.6523513642395629,
                -0.690196536407688,
                1.6142400014943925,
                -3.09075010081968
            ]
        },
        {
            "positions": [
                -2.91667614603373,
                -0.9088026536189001,
                1.5519067707054048,
                -0.620875303834649,
                1.4840867581510442,
                -3.0974464369657033
            ]
        },
        {
            "positions": [
                -2.8910185101376658,
                -0.8761730957170969,
                1.451462177171247,
                -0.55155407126161,
                1.3539335148076959,
                -3.104142773111726
            ]
        },
        {
            "positions": [
                -2.8653608742416017,
                -0.8435435378152936,
                1.351017583637089,
                -0.482232838688571,
                1.2237802714643475,
                -3.1108391092577494
            ]
        },
        {
            "positions": [
                -2.839703238345538,
                -0.8109139799134902,
                1.2505729901029312,
                -0.412911606115532,
                1.0936270281209992,
                -3.1175354454037727
            ]
        },
        {
            "positions": [
                -2.814045602449474,
                -0.7782844220116869,
                1.1501283965687734,
                -0.34359037354249305,
                0.9634737847776509,
                -3.124231781549796
            ]
        },
        {
            "positions": [
                -2.78838796655341,
                -0.7456548641098837,
                1.0496838030346156,
                -0.27426914096945404,
                0.8333205414343027,
                -3.1309281176958192
            ]
        },
        {
            "positions": [
                -2.762730330657346,
                -0.7130253062080802,
                0.9492392095004575,
                -0.20494790839641497,
                0.7031672980909542,
                -3.137624453841842
            ]
        },
        {
            "positions": [
                -2.737072694761282,
                -0.680395748306277,
                0.8487946159662997,
                -0.13562667582337606,
                0.5730140547476059,
                -3.1443207899878653
            ]
        },
        {
            "positions": [
                -2.7114150588652177,
                -0.6477661904044737,
                0.7483500224321419,
                -0.066305443250337,
                0.4428608114042575,
                -3.1510171261338886
            ]
        }
    ]
}