{
    "goal": {
        "global_pose": {
            "orientation": {
                "w": 0.7031023480610252,
                "x": -0.7110244013736278,
                "y": 0.0077485991402295624,
                "z": 0.005598929693374583
            },
            "position": {
                "x": -0.8841497679147869,
                "y": 0.44412534475326537,
                "z": 0.3711530566215515
            }
        },
        "name": "move_to_auspresseinheit_D"
    },
    "id": "STRIDE_move_to_auspresseinheit_D_23",
    "joint_names": [
        "shoulder_pan_joint",
        "shoulder_lift_joint",
        "elbow_joint",
        "wrist_1_joint",
        "wrist_2_joint",
        "wrist_3_joint"
    ],
    "metrics": {
        "cart_traj_len": 0.345482981280829,
        "distance_elbow_joint": 0.6735181779201205,
        "distance_shoulder_lift_joint": 0.14048357523269095,
        "distance_shoulder_pan_joint": 0.13374671188991835,
        "distance_wrist_1_joint": 0.6351081455333878,
        "distance_wrist_2_joint": 1.4482770851096312,
        "distance_wrist_3_joint": 0.09129147073872224,
        "smoothness": 1.9737298371844314e-16,
        "time": 0.11884454,
        "traj_len": 1.7670385299773377,
        "weighted_distance": 2.3212913084197195
    },
    "planner": "STRIDE",
    "start": {
        "state": {
            "elbow_joint": -1.8275523626775212,
            "shoulder_lift_joint": -2.126789852344167,
            "shoulder_pan_joint": -0.03513704404078235,
            "wrist_1_joint": -2.347782403156801,
            "wrist_2_joint": -1.6058999987535132,
            "wrist_3_joint": -3.0880379163319196
        }
    },
    "waypoints": [
        {
            "positions": [
                -0.03513704404078235,
                -2.126789852344167,
                -1.8275523626775212,
                -2.347782403156801,
                -1.6058999987535132,
                -3.0880379163319196
            ]
        },
        {
            "positions": [
                -0.05185538302702214,
                -2.144350299248253,
                -1.743362590437506,
                -2.4271709213484742,
                -1.4248653631148094,
                -3.0766264824895795
            ]
        },
        {
            "positions": [
                -0.06857372201326194,
                -2.1619107461523397,
                -1.659172818197491,
                -2.5065594395401476,
                -1.2438307274761053,
                -3.065215048647239
            ]
        },
        {
            "positions": [
                -0.08529206099950173,
                -2.179471193056426,
                -1.574983045957476,
                -2.5859479577318214,
                -1.0627960918374015,
                -3.053803614804899
            ]
        },
        {
            "positions": [
                -0.10201039998574152,
                -2.197031639960512,
                -1.490793273717461,
                -2.6653364759234948,
                -0.8817614561986976,
                -3.0423921809625583
            ]
        },
        {
            "positions": [
                -0.11872873897198133,
                -2.2145920868645987,
                -1.4066035014774458,
                -2.744724994115168,
                -0.7007268205599937,
                -3.030980747120218
            ]
        },
        {
            "positions": [
                -0.1354470779582211,
                -2.232152533768685,
                -1.322413729237431,
                -2.824113512306842,
                -0.5196921849212899,
                -3.019569313277878
            ]
        },
        {
            "positions": [
                -0.1521654169444609,
                -2.2497129806727716,
                -1.2382239569974158,
                -2.9035020304985153,
                -0.33865754928258585,
                -3.0081578794355375
            ]
        },
        {
            "positions": [
                -0.1688837559307007,
                -2.267273427576858,
                -1.1540341847574007,
                -2.9828905486901887,
                -0.15762291364388203,
                -2.9967464455931974
            ]
        }
    ]
}