{
    "goal": {
        "global_pose": {
            "orientation": {
                "w": 0.5084816262002911,
                "x": -0.4908360881923452,
                "y": 0.5182115481033761,
                "z": -0.48164630358495003
            },
            "position": {
                "x": 0.5540239810943604,
                "y": -0.46912469901144505,
                "z": 0.16403168439865112
            }
        },
        "name": "move_to_storage_B"
    },
    "id": "STRIDE_move_to_storage_B_123",
    "joint_names": [
        "shoulder_pan_joint",
        "shoulder_lift_joint",
        "elbow_joint",
        "wrist_1_joint",
        "wrist_2_joint",
        "wrist_3_joint"
    ],
    "metrics": {
        "cart_traj_len": 2.295092328690656,
        "distance_elbow_joint": 0.583706984448594,
        "distance_shoulder_lift_joint": 1.0694502443035356,
        "distance_shoulder_pan_joint": 2.3447712633050757,
        "distance_wrist_1_joint": 4.161320824743034,
        "distance_wrist_2_joint": 2.7102724841230086,
        "distance_wrist_3_joint": 5.097556875768793,
        "smoothness": 0.8361042574420742,
        "time": 0.093365448,
        "traj_len": 3.9958827155826335,
        "weighted_distance": 5.747502565210012
    },
    "planner": "STRIDE",
    "start": {
        "state": {
            "elbow_joint": 1.664937868594044,
            "shoulder_lift_joint": -0.661644460510453,
            "shoulder_pan_joint": -0.9139846352900073,
            "wrist_1_joint": 2.146753192139373,
            "wrist_2_joint": -2.2341966793290973,
            "wrist_3_joint": 0.005466555786416001
        }
    },
    "waypoints": [
        {
            "positions": [
                -0.9139846352900073,
                -0.661644460510453,
                1.664937868594044,
                2.146753192139373,
                -2.2341966793290973,
                0.005466555786416001
            ]
        },
        {
            "positions": [
                -0.8035936002056543,
                -0.6908281618614709,
                1.6682546443683057,
                2.088999100466396,
                -2.1346199094255196,
                0.09486020882189458
            ]
        },
        {
            "positions": [
                -0.6932025651213014,
                -0.7200118632124888,
                1.6715714201425675,
                2.0312450087934186,
                -2.035043139521942,
                0.18425386185737316
            ]
        },
        {
            "positions": [
                -0.5828115300369484,
                -0.7491955645635066,
                1.6748881959168296,
                1.9734909171204418,
                -1.9354663696183645,
                0.2736475148928518
            ]
        },
        {
            "positions": [
                -0.47242049495259547,
                -0.7783792659145244,
                1.6782049716910914,
                1.9157368254474645,
                -1.8358895997147868,
                0.36304116792833035
            ]
        },
        {
            "positions": [
                -0.5695958749646487,
                -0.828241745328604,
                1.6695254075541885,
                1.9596951317789257,
                -1.7298769818532234,
                0.2886692084669741
            ]
        },
        {
            "positions": [
                -0.666771254976702,
                -0.8781042247426833,
                1.6608458434172857,
                2.003653438110387,
                -1.62386436399166,
                0.21429724900561783
            ]
        },
        {
            "positions": [
                -0.7639466349887551,
                -0.9279667041567629,
                1.6521662792803828,
                2.047611744441848,
                -1.5178517461300967,
                0.13992528954426156
            ]
        },
        {
            "positions": [
                -0.8611220150008083,
                -0.9778291835708424,
                1.64348671514348,
                2.0915700507733095,
                -1.4118391282685332,
                0.06555333008290531
            ]
        },
        {
            "positions": [
                -0.9582973950128616,
                -1.0276916629849218,
                1.6348071510065771,
                2.1355283571047705,
                -1.3058265104069697,
                -0.00881862937845096
            ]
        },
        {
            "positions": [
                -1.0554727750249149,
                -1.0775541423990014,
                1.6261275868696743,
                2.1794866634362315,
                -1.1998138925454063,
                -0.08319058883980723
            ]
        },
        {
            "positions": [
                -1.152648155036968,
                -1.1274166218130808,
                1.6174480227327717,
                2.223444969767693,
                -1.0938012746838428,
                -0.1575625483011634
            ]
        },
        {
            "positions": [
                -1.2498235350490212,
                -1.1772791012271602,
                1.6087684585958688,
                2.267403276099154,
                -0.9877886568222793,
                -0.23193450776251973
            ]
        },
        {
            "positions": [
                -1.3469989150610744,
                -1.2271415806412396,
                1.600088894458966,
                2.3113615824306155,
                -0.881776038960716,
                -0.30630646722387594
            ]
        },
        {
            "positions": [
                -1.4441742950731278,
                -1.2770040600553192,
                1.591409330322063,
                2.3553198887620765,
                -0.7757634210991524,
                -0.3806784266852323
            ]
        },
        {
            "positions": [
                -1.5413496750851807,
                -1.3268665394693988,
                1.5827297661851603,
                2.3992781950935376,
                -0.6697508032375892,
                -0.4550503861465885
            ]
        },
        {
            "positions": [
                -1.6385250550972341,
                -1.3767290188834782,
                1.5740502020482574,
                2.443236501424999,
                -0.5637381853760257,
                -0.5294223456079448
            ]
        },
        {
            "positions": [
                -1.7357004351092873,
                -1.4265914982975576,
                1.5653706379113546,
                2.48719480775646,
                -0.4577255675144622,
                -0.603794305069301
            ]
        },
        {
            "positions": [
                -1.7090368024921636,
                -1.4139038646927062,
                1.5844375357268465,
                2.3472428712672047,
                -0.41881717700161325,
                -0.44657985545974904
            ]
        },
        {
            "positions": [
                -1.6823731698750397,
                -1.401216231087855,
                1.6035044335423387,
                2.2072909347779492,
                -0.3799087864887643,
                -0.2893654058501971
            ]
        },
        {
            "positions": [
                -1.6557095372579158,
                -1.3885285974830037,
                1.6225713313578307,
                2.067338998288694,
                -0.34100039597591536,
                -0.13215095624064516
            ]
        },
        {
            "positions": [
                -1.6290459046407921,
                -1.3758409638781524,
                1.641638229173323,
                1.9273870617994384,
                -0.30209200546306647,
                0.025063493368906786
            ]
        },
        {
            "positions": [
                -1.6023822720236685,
                -1.3631533302733012,
                1.660705126988815,
                1.7874351253101828,
                -0.26318361495021747,
                0.18227794297845878
            ]
        },
        {
            "positions": [
                -1.5757186394065446,
                -1.3504656966684498,
                1.6797720248043069,
                1.6474831888209274,
                -0.22427522443736855,
                0.33949239258801067
            ]
        },
        {
            "positions": [
                -1.5490550067894207,
                -1.3377780630635985,
                1.698838922619799,
                1.5075312523316717,
                -0.18536683392451958,
                0.4967068421975628
            ]
        },
        {
            "positions": [
                -1.522391374172297,
                -1.3250904294587473,
                1.717905820435291,
                1.3675793158424165,
                -0.1464584434116707,
                0.6539212918071146
            ]
        },
        {
            "positions": [
                -1.4957277415551733,
                -1.312402795853896,
                1.7369727182507833,
                1.227627379353161,
                -0.10755005289882175,
                0.8111357414166666
            ]
        },
        {
            "positions": [
                -1.4690641089380494,
                -1.2997151622490446,
                1.7560396160662752,
                1.0876754428639055,
                -0.0686416623859728,
                0.9683501910262186
            ]
        },
        {
            "positions": [
                -1.4424004763209255,
                -1.2870275286441935,
                1.7751065138817674,
                0.9477235063746501,
                -0.029733271873123857,
                1.1255646406357704
            ]
        },
        {
            "positions": [
                -1.4157368437038018,
                -1.274339895039342,
                1.7941734116972594,
                0.8077715698853947,
                0.009175118639725088,
                1.2827790902453224
            ]
        },
        {
            "positions": [
                -1.3890732110866781,
                -1.2616522614344907,
                1.8132403095127514,
                0.6678196333961393,
                0.04808350915257403,
                1.439993539854874
            ]
        },
        {
            "positions": [
                -1.3624095784695542,
                -1.2489646278296396,
                1.8323072073282436,
                0.5278676969068836,
                0.08699189966542303,
                1.5972079894644264
            ]
        },
        {
            "positions": [
                -1.3357459458524303,
                -1.2362769942247882,
                1.8513741051437356,
                0.38791576041762843,
                0.12590029017827192,
                1.754422439073978
            ]
        },
        {
            "positions": [
                -1.3090823132353067,
                -1.2235893606199368,
                1.8704410029592275,
                0.24796382392837302,
                0.1648086806911208,
                1.91163688868353
            ]
        },
        {
            "positions": [
                -1.282418680618183,
                -1.2109017270150857,
                1.8895079007747198,
                0.10801188743911716,
                0.2037170712039698,
                2.068851338293082
            ]
        },
        {
            "positions": [
                -1.255755048001059,
                -1.1982140934102343,
                1.908574798590212,
                -0.03194004905013825,
                0.2426254617168187,
                2.226065787902634
            ]
        },
        {
            "positions": [
                -1.2290914153839352,
                -1.185526459805383,
                1.927641696405704,
                -0.17189198553939322,
                0.2815338522296676,
                2.3832802375121855
            ]
        },
        {
            "positions": [
                -1.2024277827668115,
                -1.1728388262005316,
                1.946708594221196,
                -0.3118439220286491,
                0.3204422427425166,
                2.540494687121738
            ]
        },
        {
            "positions": [
                -1.1757641501496878,
                -1.1601511925956804,
                1.965775492036688,
                -0.4517958585179045,
                0.3593506332553656,
                2.6977091367312895
            ]
        },
        {
            "positions": [
                -1.149100517532564,
                -1.1474635589908293,
                1.98484238985218,
                -0.5917477950071599,
                0.3982590237682145,
                2.8549235863408415
            ]
        },
        {
            "positions": [
                -1.12243688491544,
                -1.134775925385978,
                2.003909287667672,
                -0.7316997314964153,
                0.4371674142810635,
                3.0121380359503935
            ]
        },
        {
            "positions": [
                -1.0957732522983163,
                -1.1220882917811266,
                2.0229761854831643,
                -0.8716516679856706,
                0.47607580479391237,
                3.1693524855599455
            ]
        }
    ]
}