{
    "goal": {
        "global_pose": {
            "orientation": {
                "w": -0.4816463035849501,
                "x": 0.5182115481033762,
                "y": 0.4908360881923453,
                "z": -0.5084816262002911
            },
            "position": {
                "x": -0.8240239810943604,
                "y": -0.300875300988555,
                "z": 0.16403168439865112
            }
        },
        "name": "move_to_storage_C"
    },
    "id": "STRIDE_move_to_storage_C_116",
    "joint_names": [
        "shoulder_pan_joint",
        "shoulder_lift_joint",
        "elbow_joint",
        "wrist_1_joint",
        "wrist_2_joint",
        "wrist_3_joint"
    ],
    "metrics": {
        "cart_traj_len": 0.57626943408683,
        "distance_elbow_joint": 0.2587844548329348,
        "distance_shoulder_lift_joint": 0.19052898836999865,
        "distance_shoulder_pan_joint": 0.49333291122737366,
        "distance_wrist_1_joint": 0.0779629638977819,
        "distance_wrist_2_joint": 1.0720149138119157,
        "distance_wrist_3_joint": 0.061917617619277276,
        "smoothness": 2.5376526478085547e-16,
        "time": 0.061825838,
        "traj_len": 1.4678357707043668,
        "weighted_distance": 1.8515817461585469
    },
    "planner": "STRIDE",
    "start": {
        "state": {
            "elbow_joint": 2.010868314990456,
            "shoulder_lift_joint": -1.1634956873337592,
            "shoulder_pan_joint": -2.4736205022346125,
            "wrist_1_joint": -0.8367026794202681,
            "wrist_2_joint": 0.6746043897044499,
            "wrist_3_joint": -3.1496632123970403
        }
    },
    "waypoints": [
        {
            "positions": [
                -2.4736205022346125,
                -1.1634956873337592,
                2.010868314990456,
                -0.8367026794202681,
                0.6746043897044499,
                -3.1496632123970403
            ]
        },
        {
            "positions": [
                -2.5558426541058417,
                -1.1317408559387594,
                1.9677375725183,
                -0.8237088521039712,
                0.8532735420064359,
                -3.139343609460494
            ]
        },
        {
            "positions": [
                -2.6380648059770704,
                -1.0999860245437596,
                1.9246068300461443,
                -0.8107150247876741,
                1.0319426943084218,
                -3.129024006523948
            ]
        },
        {
            "positions": [
                -2.720286957848299,
                -1.0682311931487598,
                1.8814760875739884,
                -0.7977211974713772,
                1.2106118466104077,
                -3.118704403587402
            ]
        },
        {
            "positions": [
                -2.8025091097195283,
                -1.03647636175376,
                1.8383453451018326,
                -0.7847273701550802,
                1.3892809989123935,
                -3.1083848006508554
            ]
        },
        {
            "positions": [
                -2.8847312615907574,
                -1.0047215303587602,
                1.795214602629677,
                -0.7717335428387831,
                1.5679501512143799,
                -3.098065197714309
            ]
        },
        {
            "positions": [
                -2.966953413461986,
                -0.9729666989637605,
                1.752083860157521,
                -0.7587397155224862,
                1.7466193035163657,
                -3.087745594777763
            ]
        }
    ]
}