{
    "goal": {
        "global_pose": {
            "orientation": {
                "w": 0.5084816262002911,
                "x": -0.4908360881923452,
                "y": 0.5182115481033761,
                "z": -0.48164630358495003
            },
            "position": {
                "x": 0.5540239810943604,
                "y": -0.46912469901144505,
                "z": 0.16403168439865112
            }
        },
        "name": "move_to_storage_B"
    },
    "id": "STRIDE_move_to_storage_B_116",
    "joint_names": [
        "shoulder_pan_joint",
        "shoulder_lift_joint",
        "elbow_joint",
        "wrist_1_joint",
        "wrist_2_joint",
        "wrist_3_joint"
    ],
    "metrics": {
        "cart_traj_len": 0.8072956650699283,
        "distance_elbow_joint": 0.6568601384569055,
        "distance_shoulder_lift_joint": 0.475720683069931,
        "distance_shoulder_pan_joint": 0.617374839630438,
        "distance_wrist_1_joint": 2.988507209022816,
        "distance_wrist_2_joint": 2.7148063456747957,
        "distance_wrist_3_joint": 3.3337273558522154,
        "smoothness": 0.28316119643971227,
        "time": 0.206088469,
        "traj_len": 3.2843563405494085,
        "weighted_distance": 4.812251535207729
    },
    "planner": "STRIDE",
    "start": {
        "state": {
            "elbow_joint": 1.664937868594044,
            "shoulder_lift_joint": -0.661644460510453,
            "shoulder_pan_joint": -0.9139846352900073,
            "wrist_1_joint": 2.146753192139373,
            "wrist_2_joint": -2.2341966793290973,
            "wrist_3_joint": 0.005466555786416001
        }
    },
    "waypoints": [
        {
            "positions": [
                -0.9139846352900073,
                -0.661644460510453,
                1.664937868594044,
                2.146753192139373,
                -2.2341966793290973,
                0.005466555786416001
            ]
        },
        {
            "positions": [
                -0.8047278512919656,
                -0.6577456209869932,
                1.5883988197356504,
                2.138630757833615,
                -2.145696665080419,
                0.05545484840568635
            ]
        },
        {
            "positions": [
                -0.6954710672939239,
                -0.6538467814635334,
                1.511859770877257,
                2.130508323527857,
                -2.0571966508317403,
                0.1054431410249567
            ]
        },
        {
            "positions": [
                -0.7108118854337068,
                -0.671843820079803,
                1.5312360032134154,
                2.0161905412043453,
                -1.959588715555685,
                -0.018931888614030806
            ]
        },
        {
            "positions": [
                -0.7261527035734897,
                -0.6898408586960727,
                1.5506122355495737,
                1.9018727588808337,
                -1.8619807802796295,
                -0.1433069182530183
            ]
        },
        {
            "positions": [
                -0.7414935217132725,
                -0.7078378973123424,
                1.569988467885732,
                1.7875549765573222,
                -1.7643728450035743,
                -0.26768194789200583
            ]
        },
        {
            "positions": [
                -0.7568343398530555,
                -0.725834935928612,
                1.5893647002218907,
                1.6732371942338107,
                -1.666764909727519,
                -0.39205697753099333
            ]
        },
        {
            "positions": [
                -0.7721751579928383,
                -0.7438319745448817,
                1.608740932558049,
                1.5589194119102991,
                -1.5691569744514635,
                -0.5164320071699808
            ]
        },
        {
            "positions": [
                -0.7875159761326211,
                -0.7618290131611514,
                1.6281171648942074,
                1.4446016295867876,
                -1.4715490391754082,
                -0.6408070368089683
            ]
        },
        {
            "positions": [
                -0.8028567942724041,
                -0.779826051777421,
                1.6474933972303658,
                1.330283847263276,
                -1.373941103899353,
                -0.7651820664479557
            ]
        },
        {
            "positions": [
                -0.8181976124121869,
                -0.7978230903936907,
                1.6668696295665242,
                1.2159660649397646,
                -1.2763331686232977,
                -0.8895570960869433
            ]
        },
        {
            "positions": [
                -0.8335384305519697,
                -0.8158201290099604,
                1.6862458619026826,
                1.101648282616253,
                -1.1787252333472424,
                -1.0139321257259306
            ]
        },
        {
            "positions": [
                -0.8488792486917527,
                -0.83381716762623,
                1.7056220942388411,
                0.9873305002927415,
                -1.0811172980711867,
                -1.1383071553649182
            ]
        },
        {
            "positions": [
                -0.8642200668315355,
                -0.8518142062424997,
                1.7249983265749995,
                0.87301271796923,
                -0.9835093627951317,
                -1.2626821850039056
            ]
        },
        {
            "positions": [
                -0.8795608849713185,
                -0.8698112448587694,
                1.744374558911158,
                0.7586949356457184,
                -0.8859014275190762,
                -1.3870572146428932
            ]
        },
        {
            "positions": [
                -0.8949017031111013,
                -0.887808283475039,
                1.7637507912473163,
                0.6443771533222069,
                -0.7882934922430209,
                -1.5114322442818806
            ]
        },
        {
            "positions": [
                -0.9102425212508841,
                -0.9058053220913087,
                1.7831270235834746,
                0.5300593709986954,
                -0.6906855569669657,
                -1.635807273920868
            ]
        },
        {
            "positions": [
                -0.925583339390667,
                -0.9238023607075784,
                1.802503255919633,
                0.41574158867518407,
                -0.5930776216909104,
                -1.7601823035598554
            ]
        },
        {
            "positions": [
                -0.9409241575304499,
                -0.941799399323848,
                1.8218794882557914,
                0.3014238063516723,
                -0.4954696864148549,
                -1.8845573331988432
            ]
        },
        {
            "positions": [
                -0.9562649756702328,
                -0.9597964379401177,
                1.84125572059195,
                0.1871060240281608,
                -0.3978617511387996,
                -2.0089323628378306
            ]
        },
        {
            "positions": [
                -0.9716057938100157,
                -0.9777934765563874,
                1.8606319529281083,
                0.07278824170464926,
                -0.30025381586274436,
                -2.133307392476818
            ]
        },
        {
            "positions": [
                -0.9869466119497985,
                -0.995790515172657,
                1.8800081852642667,
                -0.04152954061886227,
                -0.2026458805866891,
                -2.2576824221158054
            ]
        },
        {
            "positions": [
                -1.0022874300895814,
                -1.0137875537889267,
                1.899384417600425,
                -0.1558473229423738,
                -0.10503794531063337,
                -2.382057451754793
            ]
        },
        {
            "positions": [
                -1.0176282482293644,
                -1.0317845924051965,
                1.9187606499365835,
                -0.27016510526588533,
                -0.007430010034578327,
                -2.5064324813937806
            ]
        },
        {
            "positions": [
                -1.032969066369147,
                -1.049781631021466,
                1.9381368822727418,
                -0.38448288758939686,
                0.09017792524147694,
                -2.630807511032768
            ]
        },
        {
            "positions": [
                -1.04830988450893,
                -1.0677786696377356,
                1.9575131146089002,
                -0.4988006699129084,
                0.1877858605175322,
                -2.7551825406717554
            ]
        },
        {
            "positions": [
                -1.063650702648713,
                -1.0857757082540054,
                1.9768893469450588,
                -0.6131184522364199,
                0.2853937957935879,
                -2.879557570310743
            ]
        },
        {
            "positions": [
                -1.0789915207884957,
                -1.1037727468702752,
                1.9962655792812172,
                -0.7274362345599314,
                0.3830017310696432,
                -3.0039325999497306
            ]
        },
        {
            "positions": [
                -1.0943323389282786,
                -1.1217697854865447,
                2.0156418116173755,
                -0.8417540168834428,
                0.4806096663456984,
                -3.128307629588718
            ]
        }
    ]
}