{
    "goal": {
        "global_pose": {
            "orientation": {
                "w": 0.5084816262002911,
                "x": -0.4908360881923452,
                "y": 0.5182115481033761,
                "z": -0.48164630358495003
            },
            "position": {
                "x": 0.5540239810943604,
                "y": -0.46912469901144505,
                "z": 0.16403168439865112
            }
        },
        "name": "move_to_storage_B"
    },
    "id": "STRIDE_move_to_storage_B_128",
    "joint_names": [
        "shoulder_pan_joint",
        "shoulder_lift_joint",
        "elbow_joint",
        "wrist_1_joint",
        "wrist_2_joint",
        "wrist_3_joint"
    ],
    "metrics": {
        "cart_traj_len": 1.031567411246934,
        "distance_elbow_joint": 0.6345453095283768,
        "distance_shoulder_lift_joint": 0.46238967715487433,
        "distance_shoulder_pan_joint": 1.0814317358070058,
        "distance_wrist_1_joint": 3.0201848396886946,
        "distance_wrist_2_joint": 2.712405894593743,
        "distance_wrist_3_joint": 4.278760243119471,
        "smoothness": 0.4276025067627779,
        "time": 0.07988519499999999,
        "traj_len": 3.491377622070143,
        "weighted_distance": 5.145855509088216
    },
    "planner": "STRIDE",
    "start": {
        "state": {
            "elbow_joint": 1.664937868594044,
            "shoulder_lift_joint": -0.661644460510453,
            "shoulder_pan_joint": -0.9139846352900073,
            "wrist_1_joint": 2.146753192139373,
            "wrist_2_joint": -2.2341966793290973,
            "wrist_3_joint": 0.005466555786416001
        }
    },
    "waypoints": [
        {
            "positions": [
                -0.9139846352900073,
                -0.661644460510453,
                1.664937868594044,
                2.146753192139373,
                -2.2341966793290973,
                0.005466555786416001
            ]
        },
        {
            "positions": [
                -0.8238735598631073,
                -0.6771046131422931,
                1.6372976322660744,
                2.0768463174763205,
                -2.181953058740241,
                -0.10638819964275648
            ]
        },
        {
            "positions": [
                -0.7337624844362074,
                -0.6925647657741332,
                1.6096573959381049,
                2.006939442813268,
                -2.1297094381513855,
                -0.21824295507192895
            ]
        },
        {
            "positions": [
                -0.6436514090093075,
                -0.7080249184059733,
                1.5820171596101353,
                1.9370325681502152,
                -2.0774658175625293,
                -0.33009771050110137
            ]
        },
        {
            "positions": [
                -0.5535403335824074,
                -0.7234850710378133,
                1.5543769232821658,
                1.8671256934871625,
                -2.0252221969736732,
                -0.4419524659302739
            ]
        },
        {
            "positions": [
                -0.4634292581555075,
                -0.7389452236696534,
                1.5267366869541963,
                1.7972188188241098,
                -1.9729785763848173,
                -0.5538072213594464
            ]
        },
        {
            "positions": [
                -0.48679504921745215,
                -0.7532077760398636,
                1.5451198028019195,
                1.6983058385880567,
                -1.8821938433607632,
                -0.4160484633604238
            ]
        },
        {
            "positions": [
                -0.5101608402793968,
                -0.7674703284100737,
                1.563502918649643,
                1.5993928583520038,
                -1.791409110336709,
                -0.27828970536140124
            ]
        },
        {
            "positions": [
                -0.5335266313413415,
                -0.7817328807802839,
                1.5818860344973662,
                1.500479878115951,
                -1.7006243773126548,
                -0.1405309473623787
            ]
        },
        {
            "positions": [
                -0.5568924224032862,
                -0.795995433150494,
                1.6002691503450894,
                1.4015668978798979,
                -1.6098396442886007,
                -0.0027721893633561034
            ]
        },
        {
            "positions": [
                -0.5802582134652308,
                -0.8102579855207042,
                1.6186522661928129,
                1.3026539176438447,
                -1.5190549112645464,
                0.13498656863566638
            ]
        },
        {
            "positions": [
                -0.6036240045271755,
                -0.8245205378909143,
                1.6370353820405361,
                1.2037409374077919,
                -1.4282701782404923,
                0.272745326634689
            ]
        },
        {
            "positions": [
                -0.6269897955891202,
                -0.8387830902611244,
                1.6554184978882593,
                1.104827957171739,
                -1.337485445216438,
                0.4105040846337116
            ]
        },
        {
            "positions": [
                -0.6503555866510649,
                -0.8530456426313345,
                1.6738016137359828,
                1.0059149769356859,
                -1.2467007121923839,
                0.5482628426327342
            ]
        },
        {
            "positions": [
                -0.6737213777130094,
                -0.8673081950015447,
                1.692184729583706,
                0.9070019966996328,
                -1.1559159791683298,
                0.6860216006317567
            ]
        },
        {
            "positions": [
                -0.6970871687749541,
                -0.8815707473717549,
                1.7105678454314293,
                0.8080890164635798,
                -1.0651312461442757,
                0.8237803586307791
            ]
        },
        {
            "positions": [
                -0.7204529598368987,
                -0.895833299741965,
                1.7289509612791527,
                0.7091760362275268,
                -0.9743465131202214,
                0.9615391166298018
            ]
        },
        {
            "positions": [
                -0.7438187508988434,
                -0.9100958521121751,
                1.747334077126876,
                0.6102630559914739,
                -0.8835617800961673,
                1.0992978746288244
            ]
        },
        {
            "positions": [
                -0.7671845419607881,
                -0.9243584044823853,
                1.7657171929745992,
                0.5113500757554208,
                -0.7927770470721129,
                1.237056632627847
            ]
        },
        {
            "positions": [
                -0.7905503330227328,
                -0.9386209568525954,
                1.7841003088223224,
                0.4124370955193679,
                -0.7019923140480588,
                1.3748153906268694
            ]
        },
        {
            "positions": [
                -0.8139161240846775,
                -0.9528835092228056,
                1.8024834246700459,
                0.3135241152833146,
                -0.6112075810240045,
                1.5125741486258923
            ]
        },
        {
            "positions": [
                -0.8372819151466221,
                -0.9671460615930157,
                1.820866540517769,
                0.21461113504726193,
                -0.5204228479999504,
                1.6503329066249148
            ]
        },
        {
            "positions": [
                -0.8606477062085668,
                -0.9814086139632259,
                1.8392496563654925,
                0.1156981548112086,
                -0.4296381149758961,
                1.7880916646239373
            ]
        },
        {
            "positions": [
                -0.8840134972705114,
                -0.995671166333436,
                1.8576327722132158,
                0.016785174575155715,
                -0.3388533819518422,
                1.9258504226229598
            ]
        },
        {
            "positions": [
                -0.9073792883324561,
                -1.0099337187036461,
                1.876015888060939,
                -0.08212780566089739,
                -0.2480686489277879,
                2.0636091806219827
            ]
        },
        {
            "positions": [
                -0.9307450793944008,
                -1.0241962710738564,
                1.8943990039086622,
                -0.18104078589695027,
                -0.1572839159037338,
                2.2013679386210048
            ]
        },
        {
            "positions": [
                -0.9541108704563455,
                -1.0384588234440666,
                1.9127821197563857,
                -0.27995376613300316,
                -0.06649918287967949,
                2.3391266966200277
            ]
        },
        {
            "positions": [
                -0.97747666151829,
                -1.0527213758142766,
                1.931165235604109,
                -0.37886674636905626,
                0.024285550144374612,
                2.47688545461905
            ]
        },
        {
            "positions": [
                -1.0008424525802346,
                -1.0669839281844868,
                1.9495483514518324,
                -0.47777972660510937,
                0.11507028316842871,
                2.6146442126180727
            ]
        },
        {
            "positions": [
                -1.0242082436421795,
                -1.0812464805546969,
                1.9679314672995556,
                -0.576692706841162,
                0.2058550161924828,
                2.752402970617095
            ]
        },
        {
            "positions": [
                -1.047574034704124,
                -1.095509032924907,
                1.9863145831472788,
                -0.6756056870772151,
                0.29663974921653735,
                2.890161728616118
            ]
        },
        {
            "positions": [
                -1.0709398257660687,
                -1.109771585295117,
                2.004697698995002,
                -0.7745186673132682,
                0.38742448224059145,
                3.02792048661514
            ]
        },
        {
            "positions": [
                -1.0943056168280134,
                -1.1240341376653273,
                2.0230808148427255,
                -0.8734316475493212,
                0.47820921526464555,
                3.165679244614163
            ]
        }
    ]
}