{
    "goal": {
        "global_pose": {
            "orientation": {
                "w": 0.5084816217422485,
                "x": -0.49083608388900757,
                "y": 0.5182115435600281,
                "z": -0.4816462993621826
            },
            "position": {
                "x": 0.5540239810943604,
                "y": 0.030875300988554955,
                "z": 0.16403168439865112
            }
        },
        "name": "move_to_storage_A"
    },
    "id": "STRIDE_move_to_storage_A_120",
    "joint_names": [
        "shoulder_pan_joint",
        "shoulder_lift_joint",
        "elbow_joint",
        "wrist_1_joint",
        "wrist_2_joint",
        "wrist_3_joint"
    ],
    "metrics": {
        "cart_traj_len": 0.3536372369282784,
        "distance_elbow_joint": 0.4537928443777435,
        "distance_shoulder_lift_joint": 0.234642123194857,
        "distance_shoulder_pan_joint": 0.46124245812140646,
        "distance_wrist_1_joint": 0.2583431698661435,
        "distance_wrist_2_joint": 1.1055306870041397,
        "distance_wrist_3_joint": 0.10775012787025284,
        "smoothness": 4.440892098500626e-16,
        "time": 0.082494051,
        "traj_len": 1.619043362740647,
        "weighted_distance": 2.0495549573127656
    },
    "planner": "STRIDE",
    "start": {
        "state": {
            "elbow_joint": 1.971548259319323,
            "shoulder_lift_joint": -1.1394851275133948,
            "shoulder_pan_joint": 0.1228115487234821,
            "wrist_1_joint": -0.7804723859257726,
            "wrist_2_joint": 0.12958671773740124,
            "wrist_3_joint": -3.192489227718131
        }
    },
    "waypoints": [
        {
            "positions": [
                0.1228115487234821,
                -1.1394851275133948,
                1.971548259319323,
                -0.7804723859257726,
                0.12958671773740124,
                -3.192489227718131
            ]
        },
        {
            "positions": [
                0.05691976899185261,
                -1.1730054308269457,
                2.0363758085161434,
                -0.8173785530495074,
                0.2875196730237069,
                -3.177096352308095
            ]
        },
        {
            "positions": [
                -0.008972010739776881,
                -1.206525734140497,
                2.101203357712964,
                -0.8542847201732422,
                0.44545262831001253,
                -3.161703476898059
            ]
        },
        {
            "positions": [
                -0.07486379047140637,
                -1.2400460374540478,
                2.1660309069097843,
                -0.8911908872969769,
                0.6033855835963182,
                -3.1463106014880227
            ]
        },
        {
            "positions": [
                -0.14075557020303586,
                -1.2735663407675988,
                2.230858456106605,
                -0.9280970544207118,
                0.7613185388826239,
                -3.130917726077987
            ]
        },
        {
            "positions": [
                -0.20664734993466538,
                -1.3070866440811497,
                2.2956860053034256,
                -0.9650032215444465,
                0.9192514941689296,
                -3.1155248506679505
            ]
        },
        {
            "positions": [
                -0.27253912966629484,
                -1.3406069473947009,
                2.360513554500246,
                -1.0019093886681814,
                1.0771844494552352,
                -3.1001319752579146
            ]
        },
        {
            "positions": [
                -0.33843090939792436,
                -1.3741272507082518,
                2.4253411036970665,
                -1.038815555791916,
                1.235117404741541,
                -3.0847390998478783
            ]
        }
    ]
}{
    "goal": {
        "global_pose": {
            "orientation": {
                "w": 0.5084816217422485,
                "x": -0.49083608388900757,
                "y": 0.5182115435600281,
                "z": -0.4816462993621826
            },
            "position": {
                "x": 0.5540239810943604,
                "y": 0.030875300988554955,
                "z": 0.16403168439865112
            }
        },
        "name": "move_to_storage_A"
    },
    "id": "STRIDE_move_to_storage_A_120",
    "joint_names": [
        "shoulder_pan_joint",
        "shoulder_lift_joint",
        "elbow_joint",
        "wrist_1_joint",
        "wrist_2_joint",
        "wrist_3_joint"
    ],
    "metrics": {
        "cart_traj_len": 0.3535595651372324,
        "distance_elbow_joint": 0.4536451722335251,
        "distance_shoulder_lift_joint": 0.2354067456312614,
        "distance_shoulder_pan_joint": 0.46423556875843897,
        "distance_wrist_1_joint": 0.2554087953405264,
        "distance_wrist_2_joint": 1.0924969051262907,
        "distance_wrist_3_joint": 0.09470352943843707,
        "smoothness": 0.0,
        "time": 0.029310802,
        "traj_len": 1.611178673061582,
        "weighted_distance": 2.0330296298559376
    },
    "planner": "STRIDE",
    "start": {
        "state": {
            "elbow_joint": 1.97154746011099,
            "shoulder_lift_joint": -1.13948474672311,
            "shoulder_pan_joint": 0.12281154466712228,
            "wrist_1_joint": -0.7804688027058302,
            "wrist_2_joint": 0.12958655903071145,
            "wrist_3_joint": 3.0906928834467795
        }
    },
    "waypoints": [
        {
            "positions": [
                0.12281154466712228,
                -1.13948474672311,
                1.97154746011099,
                -0.7804688027058302,
                0.12958655903071145,
                3.0906928834467795
            ]
        },
        {
            "positions": [
                0.05649217770163101,
                -1.1731142818132902,
                2.0363539132872077,
                -0.8169557734687626,
                0.2856575454773244,
                3.1042219590808418
            ]
        },
        {
            "positions": [
                -0.009827189263860267,
                -1.2067438169034703,
                2.1011603664634255,
                -0.8534427442316949,
                0.44172853192393735,
                3.1177510347149044
            ]
        },
        {
            "positions": [
                -0.07614655622935156,
                -1.2403733519936506,
                2.1659668196396433,
                -0.8899297149946273,
                0.5977995183705503,
                3.1312801103489667
            ]
        },
        {
            "positions": [
                -0.1424659231948428,
                -1.2740028870838307,
                2.2307732728158616,
                -0.9264166857575595,
                0.7538705048171633,
                3.1448091859830294
            ]
        },
        {
            "positions": [
                -0.2087852901603341,
                -1.307632422174011,
                2.2955797259920794,
                -0.9629036565204919,
                0.9099414912637763,
                3.1583382616170916
            ]
        },
        {
            "positions": [
                -0.2751046571258254,
                -1.341261957264191,
                2.360386179168297,
                -0.9993906272834242,
                1.0660124777103892,
                3.1718673372511543
            ]
        },
        {
            "positions": [
                -0.34142402409131667,
                -1.3748914923543714,
                2.425192632344515,
                -1.0358775980463566,
                1.2220834641570022,
                3.1853964128852166
            ]
        }
    ]
}{
    "goal": {
        "global_pose": {
            "orientation": {
                "w": 0.5084816217422485,
                "x": -0.49083608388900757,
                "y": 0.5182115435600281,
                "z": -0.4816462993621826
            },
            "position": {
                "x": 0.5540239810943604,
                "y": 0.030875300988554955,
                "z": 0.16403168439865112
            }
        },
        "name": "move_to_storage_A"
    },
    "id": "STRIDE_move_to_storage_A_120",
    "joint_names": [
        "shoulder_pan_joint",
        "shoulder_lift_joint",
        "elbow_joint",
        "wrist_1_joint",
        "wrist_2_joint",
        "wrist_3_joint"
    ],
    "metrics": {
        "cart_traj_len": 0.3533151613290707,
        "distance_elbow_joint": 0.45025795383376943,
        "distance_shoulder_lift_joint": 0.23341940038654507,
        "distance_shoulder_pan_joint": 0.4639006152372628,
        "distance_wrist_1_joint": 0.24622706909098646,
        "distance_wrist_2_joint": 1.0905525147526565,
        "distance_wrist_3_joint": 0.0908516637256791,
        "smoothness": 4.440892098500626e-16,
        "time": 0.03581189,
        "traj_len": 1.6047458418786755,
        "weighted_distance": 2.0232874556824347
    },
    "planner": "STRIDE",
    "start": {
        "state": {
            "elbow_joint": 1.9715472970024885,
            "shoulder_lift_joint": -1.1394870060712896,
            "shoulder_pan_joint": 0.12281152778156021,
            "wrist_1_joint": -0.780463741449964,
            "wrist_2_joint": 0.12958659822042276,
            "wrist_3_joint": 3.090690232415272
        }
    },
    "waypoints": [
        {
            "positions": [
                0.12281152778156021,
                -1.1394870060712896,
                1.9715472970024885,
                -0.780463741449964,
                0.12958659822042276,
                3.090690232415272
            ]
        },
        {
            "positions": [
                0.0565400113190941,
                -1.172832634697939,
                2.0358698618358844,
                -0.8156390370343907,
                0.28537981461365935,
                3.1036690415189403
            ]
        },
        {
            "positions": [
                -0.00973150514337201,
                -1.206178263324588,
                2.1001924266692797,
                -0.8508143326188172,
                0.441173031006896,
                3.1166478506226087
            ]
        },
        {
            "positions": [
                -0.0760030216058381,
                -1.2395238919512375,
                2.1645149915026756,
                -0.8859896282032439,
                0.5969662474001326,
                3.129626659726277
            ]
        },
        {
            "positions": [
                -0.14227453806830423,
                -1.2728695205778868,
                2.228837556336071,
                -0.9211649237876706,
                0.7527594637933692,
                3.1426054688299456
            ]
        },
        {
            "positions": [
                -0.20854605453077038,
                -1.3062151492045362,
                2.2931601211694668,
                -0.9563402193720971,
                0.908552680186606,
                3.155584277933614
            ]
        },
        {
            "positions": [
                -0.27481757099323645,
                -1.3395607778311853,
                2.357482686002862,
                -0.9915155149565238,
                1.0643458965798425,
                3.1685630870372825
            ]
        },
        {
            "positions": [
                -0.34108908745570254,
                -1.3729064064578347,
                2.421805250836258,
                -1.0266908105409505,
                1.2201391129730792,
                3.181541896140951
            ]
        }
    ]
}