{
    "goal": {
        "global_pose": {
            "orientation": {
                "w": 0.7047431493862688,
                "x": -0.7094548369677653,
                "y": 0.0024358444001904,
                "z": -0.0022348060817251984
            },
            "position": {
                "x": -0.39052492380142206,
                "y": 0.3671506643295288,
                "z": 0.19426114857196808
            }
        },
        "name": "move_to_magneteinheit_D"
    },
    "id": "STRIDE_move_to_magneteinheit_D_120",
    "joint_names": [
        "shoulder_pan_joint",
        "shoulder_lift_joint",
        "elbow_joint",
        "wrist_1_joint",
        "wrist_2_joint",
        "wrist_3_joint"
    ],
    "metrics": {
        "cart_traj_len": 5.419142545813919,
        "distance_elbow_joint": 3.472346534862786,
        "distance_shoulder_lift_joint": 1.5200866419037047,
        "distance_shoulder_pan_joint": 4.161709246310693,
        "distance_wrist_1_joint": 2.9147803363249376,
        "distance_wrist_2_joint": 0.6203263949803551,
        "distance_wrist_3_joint": 1.3324744435370008,
        "smoothness": 0.8727262633377015,
        "time": 0.699597169,
        "traj_len": 3.7445591994144625,
        "weighted_distance": 4.496863264131874
    },
    "planner": "STRIDE",
    "start": {
        "state": {
            "elbow_joint": 0.749534889911806,
            "shoulder_lift_joint": -0.6476975780787326,
            "shoulder_pan_joint": -2.711696901376241,
            "wrist_1_joint": -0.07506478083263063,
            "wrist_2_joint": 0.43296659715538205,
            "wrist_3_joint": -3.14703540197715
        }
    },
    "waypoints": [
        {
            "positions": [
                -2.711696901376241,
                -0.6476975780787326,
                0.749534889911806,
                -0.07506478083263063,
                0.43296659715538205,
                -3.14703540197715
            ]
        },
        {
            "positions": [
                -2.747226825928487,
                -0.7556080930599701,
                0.8393116339006755,
                0.049414058535704825,
                0.4122247084262614,
                -3.1422055801564213
            ]
        },
        {
            "positions": [
                -2.7827567504807322,
                -0.8635186080412076,
                0.9290883778895451,
                0.17389289790404028,
                0.39148281969714077,
                -3.1373757583356925
            ]
        },
        {
            "positions": [
                -2.6541455711894644,
                -0.905512083174103,
                0.8512384853052993,
                0.07737234367414488,
                0.37584362087109974,
                -3.1121210319341004
            ]
        },
        {
            "positions": [
                -2.5255343918981965,
                -0.9475055583069983,
                0.7733885927210535,
                -0.019148210555750528,
                0.3602044220450587,
                -3.0868663055325083
            ]
        },
        {
            "positions": [
                -2.3969232126069286,
                -0.9894990334398936,
                0.6955387001368076,
                -0.11566876478564597,
                0.34456522321901767,
                -3.061611579130916
            ]
        },
        {
            "positions": [
                -2.268312033315661,
                -1.031492508572789,
                0.6176888075525618,
                -0.21218931901554133,
                0.3289260243929767,
                -3.036356852729324
            ]
        },
        {
            "positions": [
                -2.139700854024393,
                -1.0734859837056845,
                0.539838914968316,
                -0.30870987324543675,
                0.31328682556693566,
                -3.011102126327732
            ]
        },
        {
            "positions": [
                -2.0110896747331246,
                -1.1154794588385797,
                0.4619890223840702,
                -0.4052304274753322,
                0.2976476267408946,
                -2.98584739992614
            ]
        },
        {
            "positions": [
                -1.882478495441857,
                -1.157472933971475,
                0.38413912979982445,
                -0.5017509817052275,
                0.2820084279148536,
                -2.9605926735245482
            ]
        },
        {
            "positions": [
                -1.753867316150589,
                -1.1994664091043705,
                0.30628923721557855,
                -0.5982715359351229,
                0.26636922908881255,
                -2.935337947122956
            ]
        },
        {
            "positions": [
                -1.6252561368593212,
                -1.241459884237266,
                0.22843934463133275,
                -0.6947920901650183,
                0.2507300302627715,
                -2.910083220721364
            ]
        },
        {
            "positions": [
                -1.4966449575680532,
                -1.2834533593701614,
                0.15058945204708685,
                -0.7913126443949138,
                0.23509083143673049,
                -2.884828494319772
            ]
        },
        {
            "positions": [
                -1.3680337782767853,
                -1.3254468345030566,
                0.07273955946284116,
                -0.8878331986248092,
                0.21945163261068948,
                -2.85957376791818
            ]
        },
        {
            "positions": [
                -1.2394225989855174,
                -1.367440309635952,
                -0.005110333121404742,
                -0.9843537528547047,
                0.20381243378464842,
                -2.8343190415165878
            ]
        },
        {
            "positions": [
                -1.1108114196942496,
                -1.4094337847688472,
                -0.08296022570565054,
                -1.0808743070846,
                0.1881732349586074,
                -2.8090643151149957
            ]
        },
        {
            "positions": [
                -0.9822002404029817,
                -1.4514272599017426,
                -0.16081011828989622,
                -1.1773948613144953,
                0.1725340361325664,
                -2.7838095887134036
            ]
        },
        {
            "positions": [
                -0.8535890611117138,
                -1.493420735034638,
                -0.23866001087414213,
                -1.2739154155443906,
                0.15689483730652537,
                -2.7585548623118115
            ]
        },
        {
            "positions": [
                -0.724977881820446,
                -1.5354142101675334,
                -0.31650990345838803,
                -1.3704359697742863,
                0.14125563848048434,
                -2.7333001359102194
            ]
        },
        {
            "positions": [
                -0.5963667025291781,
                -1.5774076853004289,
                -0.39435979604263394,
                -1.4669565240041815,
                0.1256164396544433,
                -2.7080454095086273
            ]
        },
        {
            "positions": [
                -0.46775552323791025,
                -1.619401160433324,
                -0.4722096886268796,
                -1.5634770782340768,
                0.10997724082840227,
                -2.682790683107035
            ]
        },
        {
            "positions": [
                -0.3391443439466424,
                -1.6613946355662192,
                -0.5500595812111253,
                -1.6599976324639725,
                0.09433804200236129,
                -2.657535956705443
            ]
        },
        {
            "positions": [
                -0.21053316465537408,
                -1.7033881106991149,
                -0.6279094737953714,
                -1.7565181866938677,
                0.0786988431763202,
                -2.6322812303038514
            ]
        },
        {
            "positions": [
                -0.08192198536410622,
                -1.74538158583201,
                -0.7057593663796171,
                -1.853038740923763,
                0.06305964435027916,
                -2.607026503902259
            ]
        },
        {
            "positions": [
                0.04668919392716164,
                -1.7873750609649055,
                -0.7836092589638628,
                -1.9495592951536587,
                0.047420445524238186,
                -2.581771777500667
            ]
        },
        {
            "positions": [
                0.1753003732184295,
                -1.829368536097801,
                -0.8614591515481087,
                -2.046079849383554,
                0.03178124669819715,
                -2.556517051099075
            ]
        },
        {
            "positions": [
                0.30391155250969737,
                -1.8713620112306963,
                -0.9393090441323546,
                -2.1426004036134496,
                0.016142047872156062,
                -2.531262324697483
            ]
        },
        {
            "positions": [
                0.43252273180096523,
                -1.9133554863635915,
                -1.0171589367166005,
                -2.239120957843345,
                0.0005028490461150836,
                -2.506007598295891
            ]
        },
        {
            "positions": [
                0.5611339110922329,
                -1.955348961496487,
                -1.0950088293008462,
                -2.33564151207324,
                -0.01513634977992595,
                -2.480752871894299
            ]
        },
        {
            "positions": [
                0.4781607182440953,
                -1.931745043886937,
                -1.2359750337113633,
                -2.318276151227575,
                -0.034272288451597854,
                -2.5547741956114267
            ]
        },
        {
            "positions": [
                0.3951875253959577,
                -1.9081411262773869,
                -1.3769412381218806,
                -2.3009107903819097,
                -0.053408227123269765,
                -2.628795519328554
            ]
        },
        {
            "positions": [
                0.31221433254782005,
                -1.884537208667837,
                -1.5179074425323977,
                -2.2835454295362445,
                -0.07254416579494168,
                -2.702816843045682
            ]
        },
        {
            "positions": [
                0.22924113969968246,
                -1.8609332910582868,
                -1.658873646942915,
                -2.2661800686905793,
                -0.09168010446661358,
                -2.77683816676281
            ]
        },
        {
            "positions": [
                0.14626794685154482,
                -1.8373293734487368,
                -1.7998398513534322,
                -2.2488147078449146,
                -0.11081604313828551,
                -2.8508594904799374
            ]
        },
        {
            "positions": [
                0.06329475400340723,
                -1.8137254558391867,
                -1.9408060557639493,
                -2.2314493469992494,
                -0.1299519818099574,
                -2.9248808141970652
            ]
        },
        {
            "positions": [
                -0.019678438844730417,
                -1.7901215382296367,
                -2.081772260174467,
                -2.214083986153584,
                -0.14908792048162933,
                -2.998902137914193
            ]
        },
        {
            "positions": [
                -0.10265163169286795,
                -1.7665176206200868,
                -2.2227384645849835,
                -2.196718625307919,
                -0.1682238591533012,
                -3.0729234616313206
            ]
        },
        {
            "positions": [
                -0.18562482454100562,
                -1.7429137030105366,
                -2.363704668995501,
                -2.1793532644622537,
                -0.18735979782497314,
                -3.1469447853484485
            ]
        }
    ]
}