{
    "goal": {
        "global_pose": {
            "orientation": {
                "w": 0.7047431468963623,
                "x": -0.7094548344612122,
                "y": 0.0024358443915843964,
                "z": -0.0022348060738295317
            },
            "position": {
                "x": 0.6094750761985779,
                "y": 0.3671506643295288,
                "z": 0.19426114857196808
            }
        },
        "name": "move_to_magneteinheit_A"
    },
    "id": "STRIDE_move_to_magneteinheit_A_47",
    "joint_names": [
        "shoulder_pan_joint",
        "shoulder_lift_joint",
        "elbow_joint",
        "wrist_1_joint",
        "wrist_2_joint",
        "wrist_3_joint"
    ],
    "metrics": {
        "cart_traj_len": 3.6179764376581276,
        "distance_elbow_joint": 3.9248551049383105,
        "distance_shoulder_lift_joint": 0.4631140863252814,
        "distance_shoulder_pan_joint": 4.053332822313514,
        "distance_wrist_1_joint": 3.5018471032322602,
        "distance_wrist_2_joint": 1.9846060100641316,
        "distance_wrist_3_joint": 0.48008451696008847,
        "smoothness": 0.22836273263355183,
        "time": 0.083509437,
        "traj_len": 3.7957660154221293,
        "weighted_distance": 4.566668565929671
    },
    "planner": "STRIDE",
    "start": {
        "state": {
            "elbow_joint": -1.9196185241190666,
            "shoulder_lift_joint": -1.2443396400964142,
            "shoulder_pan_joint": 2.6996025414629847,
            "wrist_1_joint": -1.5485510000780065,
            "wrist_2_joint": -1.5709468930060704,
            "wrist_3_joint": 0.4420197071253992
        }
    },
    "waypoints": [
        {
            "positions": [
                2.6996025414629847,
                -1.2443396400964142,
                -1.9196185241190666,
                -1.5485510000780065,
                -1.5709468930060704,
                0.4420197071253992
            ]
        },
        {
            "positions": [
                2.5768300001204123,
                -1.2397160746521285,
                -1.8276654654276874,
                -1.4478226703209822,
                -1.5076147560340956,
                0.4378879528254553
            ]
        },
        {
            "positions": [
                2.45405745877784,
                -1.2350925092078429,
                -1.7357124067363079,
                -1.3470943405639582,
                -1.4442826190621207,
                0.4337561985255114
            ]
        },
        {
            "positions": [
                2.3312849174352674,
                -1.230468943763557,
                -1.6437593480449286,
                -1.2463660108069339,
                -1.380950482090146,
                0.4296244442255675
            ]
        },
        {
            "positions": [
                2.208512376092695,
                -1.2258453783192713,
                -1.5518062893535491,
                -1.1456376810499098,
                -1.317618345118171,
                0.4254926899256236
            ]
        },
        {
            "positions": [
                2.0857398347501226,
                -1.2212218128749857,
                -1.4598532306621699,
                -1.0449093512928855,
                -1.2542862081461963,
                0.4213609356256797
            ]
        },
        {
            "positions": [
                1.9629672934075502,
                -1.2165982474307,
                -1.3679001719707906,
                -0.9441810215358614,
                -1.1909540711742217,
                0.41722918132573583
            ]
        },
        {
            "positions": [
                1.8401947520649777,
                -1.2119746819864143,
                -1.2759471132794111,
                -0.8434526917788372,
                -1.1276219342022469,
                0.41309742702579194
            ]
        },
        {
            "positions": [
                1.7174222107224055,
                -1.2073511165421287,
                -1.1839940545880319,
                -0.742724362021813,
                -1.064289797230272,
                0.40896567272584805
            ]
        },
        {
            "positions": [
                1.594649669379833,
                -1.2027275510978428,
                -1.0920409958966526,
                -0.6419960322647889,
                -1.0009576602582972,
                0.40483391842590416
            ]
        },
        {
            "positions": [
                1.4718771280372607,
                -1.1981039856535571,
                -1.0000879372052731,
                -0.5412677025077646,
                -0.9376255232863224,
                0.40070216412596027
            ]
        },
        {
            "positions": [
                1.3491045866946882,
                -1.1934804202092715,
                -0.9081348785138939,
                -0.4405393727507405,
                -0.8742933863143476,
                0.39657040982601643
            ]
        },
        {
            "positions": [
                1.2263320453521158,
                -1.1888568547649858,
                -0.8161818198225144,
                -0.33981104299371623,
                -0.8109612493423728,
                0.3924386555260725
            ]
        },
        {
            "positions": [
                1.1035595040095434,
                -1.1842332893207002,
                -0.7242287611311351,
                -0.23908271323669217,
                -0.747629112370398,
                0.38830690122612865
            ]
        },
        {
            "positions": [
                0.980786962666971,
                -1.1796097238764143,
                -0.6322757024397558,
                -0.1383543834796679,
                -0.6842969753984233,
                0.38417514692618476
            ]
        },
        {
            "positions": [
                0.8580144213243985,
                -1.1749861584321286,
                -0.5403226437483764,
                -0.037626053722643604,
                -0.6209648384264483,
                0.3800433926262409
            ]
        },
        {
            "positions": [
                0.7352418799818263,
                -1.170362592987843,
                -0.4483695850569971,
                0.06310227603438046,
                -0.5576327014544735,
                0.375911638326297
            ]
        },
        {
            "positions": [
                0.6124693386392535,
                -1.1657390275435573,
                -0.3564165263656176,
                0.16383060579140474,
                -0.4943005644824987,
                0.3717798840263531
            ]
        },
        {
            "positions": [
                0.4896967972966815,
                -1.1611154620992716,
                -0.26446346767423834,
                0.2645589355484288,
                -0.4309684275105241,
                0.3676481297264092
            ]
        },
        {
            "positions": [
                0.36692425595410905,
                -1.1564918966549858,
                -0.17251040898285885,
                0.3652872653054531,
                -0.36763629053854907,
                0.3635163754264653
            ]
        },
        {
            "positions": [
                0.24415171461153662,
                -1.1518683312107,
                -0.08055735029147959,
                0.46601559506247736,
                -0.3043041535665745,
                0.3593846211265214
            ]
        },
        {
            "positions": [
                0.12137917326896419,
                -1.1472447657664144,
                0.011395708399899895,
                0.5667439248195014,
                -0.24097201659459944,
                0.35525286682657753
            ]
        },
        {
            "positions": [
                -0.0013933680736082366,
                -1.1426212003221288,
                0.10334876709127894,
                0.6674722545765255,
                -0.17763987962262484,
                0.35112111252663364
            ]
        },
        {
            "positions": [
                -0.12416590941618066,
                -1.1379976348778431,
                0.19530182578265842,
                0.76820058433355,
                -0.11430774265065002,
                0.34698935822668975
            ]
        },
        {
            "positions": [
                -0.2469384507587531,
                -1.1333740694335575,
                0.2872548844740379,
                0.868928914090574,
                -0.050975605678675207,
                0.34285760392674586
            ]
        },
        {
            "positions": [
                -0.3697109921013255,
                -1.1287505039892716,
                0.3792079431654174,
                0.9696572438475981,
                0.01235653129329961,
                0.33872584962680197
            ]
        },
        {
            "positions": [
                -0.49248353344389795,
                -1.124126938544986,
                0.47116100185679644,
                1.0703855736046222,
                0.07568866826527443,
                0.3345940953268581
            ]
        },
        {
            "positions": [
                -0.6152560747864706,
                -1.1195033731007002,
                0.563114060548176,
                1.1711139033616467,
                0.1390208052372492,
                0.3304623410269142
            ]
        },
        {
            "positions": [
                -0.5414086541800646,
                -1.0856755911677436,
                0.7073263125752829,
                1.2493321233409074,
                0.11155697405516793,
                0.29360962594075385
            ]
        },
        {
            "positions": [
                -0.46756123357365853,
                -1.0518478092347867,
                0.8515385646023896,
                1.327550343320168,
                0.08409314287308665,
                0.2567569108545935
            ]
        },
        {
            "positions": [
                -0.3937138129672525,
                -1.01802002730183,
                0.9957508166294964,
                1.4057685632994288,
                0.05662931169100539,
                0.21990419576843315
            ]
        },
        {
            "positions": [
                -0.31986639236084646,
                -0.9841922453688733,
                1.1399630686566034,
                1.4839867832786895,
                0.02916548050892412,
                0.18305148068227278
            ]
        },
        {
            "positions": [
                -0.24601897175444043,
                -0.9503644634359165,
                1.28417532068371,
                1.5622050032579502,
                0.0017016493268428579,
                0.14619876559611245
            ]
        },
        {
            "positions": [
                -0.1721715511480344,
                -0.9165366815029597,
                1.4283875727108168,
                1.640423223237211,
                -0.025762181855238403,
                0.10934605050995211
            ]
        },
        {
            "positions": [
                -0.09832413054162836,
                -0.882708899570003,
                1.5725998247379236,
                1.7186414432164716,
                -0.053226013037319664,
                0.07249333542379177
            ]
        },
        {
            "positions": [
                -0.02447670993522233,
                -0.8488811176370463,
                1.7168120767650303,
                1.7968596631957323,
                -0.08068984421940095,
                0.03564062033763138
            ]
        },
        {
            "positions": [
                0.049370710671183704,
                -0.8150533357040894,
                1.861024328792137,
                1.875077883174993,
                -0.10815367540148221,
                -0.001212094748528958
            ]
        },
        {
            "positions": [
                0.12321813127758974,
                -0.7812255537711328,
                2.005236580819244,
                1.9532961031542537,
                -0.1356175065835635,
                -0.03806480983468931
            ]
        }
    ]
}