{
    "goal": {
        "global_pose": {
            "orientation": {
                "w": 0.7031023480610252,
                "x": -0.7110244013736278,
                "y": 0.0077485991402295624,
                "z": 0.005598929693374583
            },
            "position": {
                "x": -0.8841497679147869,
                "y": 0.44412534475326537,
                "z": 0.3711530566215515
            }
        },
        "name": "move_to_auspresseinheit_D"
    },
    "id": "STRIDE_move_to_auspresseinheit_D_25",
    "joint_names": [
        "shoulder_pan_joint",
        "shoulder_lift_joint",
        "elbow_joint",
        "wrist_1_joint",
        "wrist_2_joint",
        "wrist_3_joint"
    ],
    "metrics": {
        "cart_traj_len": 0.3436842313721408,
        "distance_elbow_joint": 0.661859870978339,
        "distance_shoulder_lift_joint": 0.13510455796462661,
        "distance_shoulder_pan_joint": 0.13374178291418864,
        "distance_wrist_1_joint": 0.6108858550035032,
        "distance_wrist_2_joint": 1.4342752105867291,
        "distance_wrist_3_joint": 0.06777057765431138,
        "smoothness": 0.0,
        "time": 0.257970119,
        "traj_len": 1.7446024920026046,
        "weighted_distance": 2.2856815342476198
    },
    "planner": "STRIDE",
    "start": {
        "state": {
            "elbow_joint": -1.8275523626775212,
            "shoulder_lift_joint": -2.126789852344167,
            "shoulder_pan_joint": -0.03513704404078235,
            "wrist_1_joint": -2.347782403156801,
            "wrist_2_joint": -1.6058999987535132,
            "wrist_3_joint": -3.0880379163319196
        }
    },
    "waypoints": [
        {
            "positions": [
                -0.03513704404078235,
                -2.126789852344167,
                -1.8275523626775212,
                -2.347782403156801,
                -1.6058999987535132,
                -3.0880379163319196
            ]
        },
        {
            "positions": [
                -0.05185476690505593,
                -2.1436779220897453,
                -1.7448198788052287,
                -2.4241431350322387,
                -1.426615597430172,
                -3.0795665941251307
            ]
        },
        {
            "positions": [
                -0.0685724897693295,
                -2.1605659918353233,
                -1.6620873949329364,
                -2.5005038669076765,
                -1.247331196106831,
                -3.0710952719183418
            ]
        },
        {
            "positions": [
                -0.08529021263360309,
                -2.1774540615809017,
                -1.5793549110606442,
                -2.5768645987831147,
                -1.0680467947834897,
                -3.062623949711553
            ]
        },
        {
            "positions": [
                -0.10200793549787668,
                -2.19434213132648,
                -1.4966224271883517,
                -2.6532253306585525,
                -0.8887623934601486,
                -3.054152627504764
            ]
        },
        {
            "positions": [
                -0.11872565836215027,
                -2.2112302010720586,
                -1.4138899433160592,
                -2.7295860625339903,
                -0.7094779921368075,
                -3.045681305297975
            ]
        },
        {
            "positions": [
                -0.13544338122642383,
                -2.228118270817637,
                -1.331157459443767,
                -2.8059467944094285,
                -0.5301935908134663,
                -3.037209983091186
            ]
        },
        {
            "positions": [
                -0.1521611040906974,
                -2.245006340563215,
                -1.2484249755714747,
                -2.8823075262848663,
                -0.3509091894901253,
                -3.028738660884397
            ]
        },
        {
            "positions": [
                -0.168878826954971,
                -2.2618944103087935,
                -1.1656924916991822,
                -2.958668258160304,
                -0.1716247881667841,
                -3.020267338677608
            ]
        }
    ]
}