{
    "goal": {
        "global_pose": {
            "orientation": {
                "w": 0.5084816262002911,
                "x": -0.4908360881923452,
                "y": 0.5182115481033761,
                "z": -0.48164630358495003
            },
            "position": {
                "x": 0.5540239810943604,
                "y": -0.46912469901144505,
                "z": 0.16403168439865112
            }
        },
        "name": "move_to_storage_B"
    },
    "id": "STRIDE_move_to_storage_B_113",
    "joint_names": [
        "shoulder_pan_joint",
        "shoulder_lift_joint",
        "elbow_joint",
        "wrist_1_joint",
        "wrist_2_joint",
        "wrist_3_joint"
    ],
    "metrics": {
        "cart_traj_len": 3.1799064195044013,
        "distance_elbow_joint": 2.6349765138572834,
        "distance_shoulder_lift_joint": 0.9488282958473273,
        "distance_shoulder_pan_joint": 2.2935534303695153,
        "distance_wrist_1_joint": 3.0073797573547667,
        "distance_wrist_2_joint": 3.0383747585402068,
        "distance_wrist_3_joint": 3.1202621232820182,
        "smoothness": 0.25715470891527353,
        "time": 0.11421759199999999,
        "traj_len": 3.8785789767969288,
        "weighted_distance": 5.227777122421165
    },
    "planner": "STRIDE",
    "start": {
        "state": {
            "elbow_joint": 1.664937868594044,
            "shoulder_lift_joint": -0.661644460510453,
            "shoulder_pan_joint": -0.9139846352900073,
            "wrist_1_joint": 2.146753192139373,
            "wrist_2_joint": -2.2341966793290973,
            "wrist_3_joint": 0.005466555786416001
        }
    },
    "waypoints": [
        {
            "positions": [
                -0.9139846352900073,
                -0.661644460510453,
                1.664937868594044,
                2.146753192139373,
                -2.2341966793290973,
                0.005466555786416001
            ]
        },
        {
            "positions": [
                -0.8969112580527481,
                -0.6676916571802967,
                1.6539140344227783,
                2.1365242345686255,
                -2.221123797470213,
                0.004884720939183787
            ]
        },
        {
            "positions": [
                -0.8517321544076469,
                -0.6980531777088572,
                1.6047958601755776,
                2.027456640828165,
                -2.0968178712468784,
                -0.018679122270746515
            ]
        },
        {
            "positions": [
                -0.8065530507625457,
                -0.7284146982374179,
                1.5556776859283772,
                1.9183890470877043,
                -1.9725119450235438,
                -0.04224296548067681
            ]
        },
        {
            "positions": [
                -0.7613739471174445,
                -0.7587762187659784,
                1.5065595116811765,
                1.809321453347244,
                -1.8482060188002092,
                -0.06580680869060712
            ]
        },
        {
            "positions": [
                -0.7161948434723434,
                -0.789137739294539,
                1.4574413374339759,
                1.7002538596067833,
                -1.7239000925768746,
                -0.08937065190053742
            ]
        },
        {
            "positions": [
                -0.6710157398272423,
                -0.8194992598230997,
                1.4083231631867754,
                1.5911862658663227,
                -1.59959416635354,
                -0.11293449511046771
            ]
        },
        {
            "positions": [
                -0.625836636182141,
                -0.8498607803516602,
                1.3592049889395748,
                1.4821186721258623,
                -1.4752882401302054,
                -0.136498338320398
            ]
        },
        {
            "positions": [
                -0.5806575325370398,
                -0.8802223008802208,
                1.310086814692374,
                1.3730510783854015,
                -1.3509823139068708,
                -0.1600621815303283
            ]
        },
        {
            "positions": [
                -0.5354784288919388,
                -0.9105838214087815,
                1.2609686404451736,
                1.2639834846449411,
                -1.2266763876835365,
                -0.1836260247402586
            ]
        },
        {
            "positions": [
                -0.4902993252468375,
                -0.940945341937342,
                1.211850466197973,
                1.1549158909044805,
                -1.102370461460202,
                -0.20718986795018893
            ]
        },
        {
            "positions": [
                -0.44512022160173637,
                -0.9713068624659027,
                1.1627322919507725,
                1.04584829716402,
                -0.9780645352368673,
                -0.2307537111601192
            ]
        },
        {
            "positions": [
                -0.3999411179566352,
                -1.0016683829944633,
                1.1136141177035719,
                0.9367807034235593,
                -0.8537586090135327,
                -0.2543175543700495
            ]
        },
        {
            "positions": [
                -0.354762014311534,
                -1.0320299035230238,
                1.0644959434563712,
                0.827713109683099,
                -0.7294526827901981,
                -0.2778813975799798
            ]
        },
        {
            "positions": [
                -0.30958291066643284,
                -1.0623914240515844,
                1.0153777692091706,
                0.7186455159426384,
                -0.6051467565668638,
                -0.3014452407899101
            ]
        },
        {
            "positions": [
                -0.2644038070213316,
                -1.0927529445801452,
                0.96625959496197,
                0.6095779222021778,
                -0.480840830343529,
                -0.3250090839998404
            ]
        },
        {
            "positions": [
                -0.21922470337623046,
                -1.1231144651087057,
                0.9171414207147695,
                0.5005103284617172,
                -0.3565349041201944,
                -0.34857292720977073
            ]
        },
        {
            "positions": [
                -0.17404559973112932,
                -1.1534759856372663,
                0.8680232464675689,
                0.3914427347212568,
                -0.23222897789686003,
                -0.372136770419701
            ]
        },
        {
            "positions": [
                -0.12886649608602818,
                -1.1838375061658268,
                0.8189050722203683,
                0.2823751409807962,
                -0.10792305167352545,
                -0.39570061362963127
            ]
        },
        {
            "positions": [
                -0.08368739244092693,
                -1.2141990266943874,
                0.7697868979731677,
                0.1733075472403356,
                0.016382874549809134,
                -0.41926445683956165
            ]
        },
        {
            "positions": [
                -0.038508288795825796,
                -1.2445605472229482,
                0.7206687237259671,
                0.06423995349987521,
                0.14068880077314372,
                -0.4428283000494919
            ]
        },
        {
            "positions": [
                0.006670814849275342,
                -1.2749220677515085,
                0.6715505494787666,
                -0.04482764024058561,
                0.2649947269964783,
                -0.4663921432594222
            ]
        },
        {
            "positions": [
                0.05184991849437648,
                -1.3052835882800693,
                0.6224323752315661,
                -0.153895233981046,
                0.3893006532198129,
                -0.48995598646935246
            ]
        },
        {
            "positions": [
                0.09702902213947773,
                -1.3356451088086299,
                0.5733142009843655,
                -0.2629628277215068,
                0.5136065794431475,
                -0.5135198296792828
            ]
        },
        {
            "positions": [
                0.14220812578457892,
                -1.3660066293371904,
                0.5241960267371649,
                -0.3720304214619674,
                0.637912505666482,
                -0.5370836728892131
            ]
        },
        {
            "positions": [
                0.0648730839536459,
                -1.3507274963984035,
                0.6175856937371902,
                -0.4025676804465564,
                0.6275209073199429,
                -0.6981906663021125
            ]
        },
        {
            "positions": [
                -0.012461957877287128,
                -1.3354483634596166,
                0.7109753607372156,
                -0.43310493943114536,
                0.6171293089734039,
                -0.8592976597150117
            ]
        },
        {
            "positions": [
                -0.08979699970822014,
                -1.32016923052083,
                0.8043650277372408,
                -0.4636421984157344,
                0.6067377106268648,
                -1.020404653127911
            ]
        },
        {
            "positions": [
                -0.16713204153915318,
                -1.304890097582043,
                0.8977546947372661,
                -0.4941794574003234,
                0.5963461122803257,
                -1.1815116465408102
            ]
        },
        {
            "positions": [
                -0.2444670833700862,
                -1.289610964643256,
                0.9911443617372914,
                -0.5247167163849124,
                0.5859545139337866,
                -1.3426186399537094
            ]
        },
        {
            "positions": [
                -0.3218021252010192,
                -1.2743318317044692,
                1.0845340287373166,
                -0.5552539753695014,
                0.5755629155872476,
                -1.503725633366609
            ]
        },
        {
            "positions": [
                -0.3991371670319523,
                -1.2590526987656823,
                1.177923695737342,
                -0.5857912343540903,
                0.5651713172407085,
                -1.6648326267795084
            ]
        },
        {
            "positions": [
                -0.47647220886288527,
                -1.2437735658268956,
                1.2713133627373674,
                -0.6163284933386793,
                0.5547797188941694,
                -1.8259396201924076
            ]
        },
        {
            "positions": [
                -0.5538072506938183,
                -1.2284944328881087,
                1.3647030297373925,
                -0.6468657523232684,
                0.5443881205476303,
                -1.9870466136053069
            ]
        },
        {
            "positions": [
                -0.6311422925247514,
                -1.2132152999493218,
                1.4580926967374177,
                -0.6774030113078573,
                0.5339965222010913,
                -2.148153607018206
            ]
        },
        {
            "positions": [
                -0.7084773343556843,
                -1.1979361670105348,
                1.5514823637374433,
                -0.7079402702924463,
                0.5236049238545522,
                -2.3092606004311054
            ]
        },
        {
            "positions": [
                -0.7858123761866174,
                -1.182657034071748,
                1.6448720307374685,
                -0.7384775292770354,
                0.5132133255080131,
                -2.4703675938440046
            ]
        },
        {
            "positions": [
                -0.8631474180175505,
                -1.1673779011329612,
                1.7382616977374936,
                -0.7690147882616243,
                0.502821727161474,
                -2.6314745872569043
            ]
        },
        {
            "positions": [
                -0.9404824598484836,
                -1.1520987681941743,
                1.8316513647375192,
                -0.7995520472462133,
                0.4924301288149349,
                -2.7925815806698036
            ]
        },
        {
            "positions": [
                -1.0178175016794164,
                -1.1368196352553874,
                1.9250410317375444,
                -0.8300893062308023,
                0.48203853046839584,
                -2.953688574082703
            ]
        },
        {
            "positions": [
                -1.0951525435103495,
                -1.1215405023166005,
                2.0184306987375695,
                -0.8606265652153913,
                0.47164693212185677,
                -3.114795567495602
            ]
        }
    ]
}