{
    "goal": {
        "global_pose": {
            "orientation": {
                "w": -0.4816463035849501,
                "x": 0.5182115481033762,
                "y": 0.4908360881923453,
                "z": -0.5084816262002911
            },
            "position": {
                "x": -0.8240239810943604,
                "y": -0.300875300988555,
                "z": 0.16403168439865112
            }
        },
        "name": "move_to_storage_C"
    },
    "id": "STRIDE_move_to_storage_C_34",
    "joint_names": [
        "shoulder_pan_joint",
        "shoulder_lift_joint",
        "elbow_joint",
        "wrist_1_joint",
        "wrist_2_joint",
        "wrist_3_joint"
    ],
    "metrics": {
        "cart_traj_len": 0.5763374256261317,
        "distance_elbow_joint": 0.2560589983227035,
        "distance_shoulder_lift_joint": 0.18859143740139128,
        "distance_shoulder_pan_joint": 0.49394202001489607,
        "distance_wrist_1_joint": 0.07101207926556508,
        "distance_wrist_2_joint": 1.0725056361835197,
        "distance_wrist_3_joint": 0.06993560743942817,
        "smoothness": 0.0,
        "time": 0.10106911499999999,
        "traj_len": 1.466985268715233,
        "weighted_distance": 1.8534925705153085
    },
    "planner": "STRIDE",
    "start": {
        "state": {
            "elbow_joint": 2.010868314990456,
            "shoulder_lift_joint": -1.1634956873337592,
            "shoulder_pan_joint": -2.4736205022346125,
            "wrist_1_joint": -0.8367026794202681,
            "wrist_2_joint": 0.6746043897044499,
            "wrist_3_joint": -3.1496632123970403
        }
    },
    "waypoints": [
        {
            "positions": [
                -2.4736205022346125,
                -1.1634956873337592,
                2.010868314990456,
                -0.8367026794202681,
                0.6746043897044499,
                -3.1496632123970403
            ]
        },
        {
            "positions": [
                -2.555944172237095,
                -1.132063781100194,
                1.9681918152700053,
                -0.8248673328760072,
                0.8533553290683699,
                -3.138007277823802
            ]
        },
        {
            "positions": [
                -2.638267842239578,
                -1.1006318748666288,
                1.9255153155495546,
                -0.8130319863317464,
                1.03210626843229,
                -3.126351343250564
            ]
        },
        {
            "positions": [
                -2.7205915122420605,
                -1.0691999686330635,
                1.882838815829104,
                -0.8011966397874856,
                1.2108572077962099,
                -3.114695408677326
            ]
        },
        {
            "positions": [
                -2.802915182244543,
                -1.0377680623994983,
                1.8401623161086536,
                -0.7893612932432247,
                1.3896081471601298,
                -3.1030394741040883
            ]
        },
        {
            "positions": [
                -2.885238852247026,
                -1.0063361561659332,
                1.7974858163882028,
                -0.7775259466989639,
                1.5683590865240498,
                -3.09138353953085
            ]
        },
        {
            "positions": [
                -2.9675625222495086,
                -0.9749042499323679,
                1.7548093166677523,
                -0.765690600154703,
                1.7471100258879697,
                -3.079727604957612
            ]
        }
    ]
}