{
    "goal": {
        "global_pose": {
            "orientation": {
                "w": 0.7031023502349854,
                "x": -0.7110244035720825,
                "y": 0.007748599164187908,
                "z": 0.005598929710686207
            },
            "position": {
                "x": 0.11585023208521307,
                "y": 0.44412534475326537,
                "z": 0.3711530566215515
            }
        },
        "name": "move_to_auspresseinheit_A"
    },
    "id": "STRIDE_move_to_auspresseinheit_A_110",
    "joint_names": [
        "shoulder_pan_joint",
        "shoulder_lift_joint",
        "elbow_joint",
        "wrist_1_joint",
        "wrist_2_joint",
        "wrist_3_joint"
    ],
    "metrics": {
        "cart_traj_len": 2.741834865000375,
        "distance_elbow_joint": 3.8087321608399733,
        "distance_shoulder_lift_joint": 0.7439693246626249,
        "distance_shoulder_pan_joint": 1.598298406218764,
        "distance_wrist_1_joint": 0.8749326119567558,
        "distance_wrist_2_joint": 2.9606693511561106,
        "distance_wrist_3_joint": 4.879634735423183,
        "smoothness": 0.4842108081138286,
        "time": 0.082260519,
        "traj_len": 3.8556758927920027,
        "weighted_distance": 5.334895315206912
    },
    "planner": "STRIDE",
    "start": {
        "state": {
            "elbow_joint": 2.4225746658250005,
            "shoulder_lift_joint": -1.3736534386056498,
            "shoulder_pan_joint": -0.3378633547517467,
            "wrist_1_joint": -1.0288598680537169,
            "wrist_2_joint": 1.233022673432363,
            "wrist_3_joint": -3.0940220416140027
        }
    },
    "waypoints": [
        {
            "positions": [
                -0.3378633547517467,
                -1.3736534386056498,
                2.4225746658250005,
                -1.0288598680537169,
                1.233022673432363,
                -3.0940220416140027
            ]
        },
        {
            "positions": [
                -0.28507156248319215,
                -1.3883871936630305,
                2.3312194019395354,
                -1.0037701550214067,
                1.1498282904920891,
                -2.978881174825897
            ]
        },
        {
            "positions": [
                -0.23227977021463758,
                -1.4031209487204115,
                2.2398641380540703,
                -0.9786804419890965,
                1.0666339075518152,
                -2.8637403080377917
            ]
        },
        {
            "positions": [
                -0.17948797794608298,
                -1.4178547037777922,
                2.1485088741686056,
                -0.9535907289567864,
                0.9834395246115414,
                -2.748599441249686
            ]
        },
        {
            "positions": [
                -0.1266961856775284,
                -1.4325884588351732,
                2.0571536102831405,
                -0.9285010159244763,
                0.9002451416712676,
                -2.6334585744615806
            ]
        },
        {
            "positions": [
                -0.07390439340897381,
                -1.4473222138925539,
                1.9657983463976754,
                -0.9034113028921662,
                0.8170507587309936,
                -2.518317707673475
            ]
        },
        {
            "positions": [
                -0.02111260114041924,
                -1.4620559689499348,
                1.8744430825122105,
                -0.878321589859856,
                0.7338563757907197,
                -2.4031768408853695
            ]
        },
        {
            "positions": [
                0.03167919112813533,
                -1.4767897240073156,
                1.7830878186267456,
                -0.8532318768275459,
                0.6506619928504459,
                -2.288035974097264
            ]
        },
        {
            "positions": [
                0.0844709833966899,
                -1.4915234790646963,
                1.6917325547412805,
                -0.8281421637952358,
                0.567467609910172,
                -2.1728951073091585
            ]
        },
        {
            "positions": [
                0.13726277566524447,
                -1.5062572341220772,
                1.6003772908558154,
                -0.8030524507629255,
                0.48427322696989816,
                -2.057754240521053
            ]
        },
        {
            "positions": [
                0.1900545679337991,
                -1.520990989179458,
                1.5090220269703505,
                -0.7779627377306154,
                0.40107884402962424,
                -1.9426133737329474
            ]
        },
        {
            "positions": [
                0.24284636020235367,
                -1.535724744236839,
                1.4176667630848854,
                -0.7528730246983052,
                0.3178844610893503,
                -1.8274725069448419
            ]
        },
        {
            "positions": [
                0.29563815247090824,
                -1.5504584992942196,
                1.3263114991994205,
                -0.7277833116659951,
                0.2346900781490765,
                -1.7123316401567363
            ]
        },
        {
            "positions": [
                0.3484299447394628,
                -1.5651922543516006,
                1.2349562353139554,
                -0.7026935986336849,
                0.15149569520880246,
                -1.5971907733686308
            ]
        },
        {
            "positions": [
                0.4012217370080174,
                -1.5799260094089813,
                1.1436009714284905,
                -0.6776038856013749,
                0.06830131226852876,
                -1.4820499065805253
            ]
        },
        {
            "positions": [
                0.45401352927657207,
                -1.5946597644663623,
                1.0522457075430254,
                -0.6525141725690646,
                -0.014893070671745168,
                -1.3669090397924197
            ]
        },
        {
            "positions": [
                0.5068053215451265,
                -1.609393519523743,
                0.9608904436575605,
                -0.6274244595367545,
                -0.0980874536120191,
                -1.2517681730043142
            ]
        },
        {
            "positions": [
                0.5595971138136813,
                -1.6241272745811237,
                0.8695351797720954,
                -0.6023347465044444,
                -0.18128183655229302,
                -1.1366273062162087
            ]
        },
        {
            "positions": [
                0.6123889060822356,
                -1.6388610296385047,
                0.7781799158866305,
                -0.5772450334721342,
                -0.2644762194925667,
                -1.0214864394281031
            ]
        },
        {
            "positions": [
                0.6651806983507904,
                -1.6535947846958854,
                0.6868246520011654,
                -0.552155320439824,
                -0.34767060243284065,
                -0.9063455726399976
            ]
        },
        {
            "positions": [
                0.717972490619345,
                -1.6683285397532663,
                0.5954693881157005,
                -0.527065607407514,
                -0.4308649853731146,
                -0.7912047058518921
            ]
        },
        {
            "positions": [
                0.7707642828878994,
                -1.683062294810647,
                0.5041141242302354,
                -0.5019758943752037,
                -0.5140593683133885,
                -0.6760638390637865
            ]
        },
        {
            "positions": [
                0.8235908531109021,
                -1.716232775899394,
                0.5822625284913043,
                -0.45519562808540537,
                -0.4789036819758393,
                -0.7368674098553978
            ]
        },
        {
            "positions": [
                0.8764174233339048,
                -1.749403256988141,
                0.6604109327523732,
                -0.40841536179560695,
                -0.4437479956382901,
                -0.7976709806470091
            ]
        },
        {
            "positions": [
                0.9292439935569075,
                -1.782573738076888,
                0.738559337013442,
                -0.3616350955058085,
                -0.40859230930074086,
                -0.8584745514386205
            ]
        },
        {
            "positions": [
                0.9820705637799101,
                -1.815744219165635,
                0.816707741274511,
                -0.31485482921601016,
                -0.3734366229631917,
                -0.9192781222302318
            ]
        },
        {
            "positions": [
                0.9810203447338045,
                -1.8337752924469208,
                0.9548840641999012,
                -0.31459066055400514,
                -0.29152083274542206,
                -1.0680636781196993
            ]
        },
        {
            "positions": [
                0.979970125687699,
                -1.8518063657282064,
                1.0930603871252917,
                -0.3143264918920001,
                -0.2096050425276525,
                -1.2168492340091666
            ]
        },
        {
            "positions": [
                0.9789199066415935,
                -1.8698374390094923,
                1.2312367100506818,
                -0.31406232322999517,
                -0.12768925230988293,
                -1.365634789898634
            ]
        },
        {
            "positions": [
                0.977869687595488,
                -1.8878685122907781,
                1.3694130329760723,
                -0.31379815456799015,
                -0.045773462092113304,
                -1.5144203457881016
            ]
        },
        {
            "positions": [
                0.9768194685493824,
                -1.905899585572064,
                1.5075893559014626,
                -0.31353398590598514,
                0.036142328125656265,
                -1.663205901677569
            ]
        },
        {
            "positions": [
                0.9757692495032769,
                -1.9239306588533496,
                1.6457656788268529,
                -0.3132698172439801,
                0.11805811834342583,
                -1.8119914575670364
            ]
        },
        {
            "positions": [
                0.9747190304571713,
                -1.9419617321346354,
                1.7839420017522432,
                -0.3130056485819751,
                0.19997390856119546,
                -1.960777013456504
            ]
        },
        {
            "positions": [
                0.9736688114110659,
                -1.9599928054159212,
                1.9221183246776337,
                -0.3127414799199701,
                0.2818896987789651,
                -2.1095625693459716
            ]
        },
        {
            "positions": [
                0.9726185923649603,
                -1.978023878697207,
                2.060294647603024,
                -0.31247731125796513,
                0.3638054889967347,
                -2.2583481252354387
            ]
        },
        {
            "positions": [
                0.9715683733188548,
                -1.9960549519784927,
                2.1984709705284144,
                -0.3122131425959601,
                0.4457212792145042,
                -2.407133681124906
            ]
        },
        {
            "positions": [
                0.9705181542727492,
                -2.0140860252597785,
                2.3366472934538045,
                -0.3119489739339551,
                0.5276370694322738,
                -2.5559192370143737
            ]
        },
        {
            "positions": [
                0.9038151347277625,
                -1.9882018407576545,
                2.3510819059592145,
                -0.35145440339320355,
                0.5706097873484481,
                -2.7013745207449684
            ]
        },
        {
            "positions": [
                0.8371121151827757,
                -1.9623176562555305,
                2.3655165184646245,
                -0.39095983285245195,
                0.6135825052646224,
                -2.8468298044755636
            ]
        },
        {
            "positions": [
                0.7704090956377889,
                -1.9364334717534064,
                2.379951130970034,
                -0.4304652623117004,
                0.6565552231807967,
                -2.9922850882061587
            ]
        },
        {
            "positions": [
                0.7037060760928022,
                -1.9105492872512824,
                2.394385743475444,
                -0.46997069177094886,
                0.699527941096971,
                -3.1377403719367534
            ]
        }
    ]
}