{
    "goal": {
        "global_pose": {
            "orientation": {
                "w": 0.5084816262002911,
                "x": -0.4908360881923452,
                "y": 0.5182115481033761,
                "z": -0.48164630358495003
            },
            "position": {
                "x": 0.5540239810943604,
                "y": -0.46912469901144505,
                "z": 0.16403168439865112
            }
        },
        "name": "move_to_storage_B"
    },
    "id": "STRIDE_move_to_storage_B_20",
    "joint_names": [
        "shoulder_pan_joint",
        "shoulder_lift_joint",
        "elbow_joint",
        "wrist_1_joint",
        "wrist_2_joint",
        "wrist_3_joint"
    ],
    "metrics": {
        "cart_traj_len": 1.8747605253675597,
        "distance_elbow_joint": 1.058366999025968,
        "distance_shoulder_lift_joint": 0.8568781431823838,
        "distance_shoulder_pan_joint": 1.3105049248473604,
        "distance_wrist_1_joint": 3.1233518950490424,
        "distance_wrist_2_joint": 3.243182365462758,
        "distance_wrist_3_joint": 3.5713908972059554,
        "smoothness": 0.4992539979489163,
        "time": 0.135673908,
        "traj_len": 3.6281779483334975,
        "weighted_distance": 5.164590136661105
    },
    "planner": "STRIDE",
    "start": {
        "state": {
            "elbow_joint": 1.664937868594044,
            "shoulder_lift_joint": -0.661644460510453,
            "shoulder_pan_joint": -0.9139846352900073,
            "wrist_1_joint": 2.146753192139373,
            "wrist_2_joint": -2.2341966793290973,
            "wrist_3_joint": 0.005466555786416001
        }
    },
    "waypoints": [
        {
            "positions": [
                -0.9139846352900073,
                -0.661644460510453,
                1.664937868594044,
                2.146753192139373,
                -2.2341966793290973,
                0.005466555786416001
            ]
        },
        {
            "positions": [
                -0.7624305651271569,
                -0.7135777914323983,
                1.5732954231253509,
                2.1704359199549175,
                -2.235449284548026,
                -0.06745861229159256
            ]
        },
        {
            "positions": [
                -0.6108764949643064,
                -0.7655111223543437,
                1.4816529776566578,
                2.194118647770462,
                -2.2367018897669544,
                -0.1403837803696011
            ]
        },
        {
            "positions": [
                -0.459322424801456,
                -0.817444453276289,
                1.3900105321879648,
                2.2178013755860064,
                -2.237954494985883,
                -0.21330894844760967
            ]
        },
        {
            "positions": [
                -0.49172355383146704,
                -0.8393104954395254,
                1.386588669412505,
                2.0965085413454307,
                -2.108380502710258,
                -0.12760458912534872
            ]
        },
        {
            "positions": [
                -0.5241246828614781,
                -0.8611765376027617,
                1.383166806637045,
                1.9752157071048546,
                -1.9788065104346324,
                -0.041900229803087774
            ]
        },
        {
            "positions": [
                -0.5565258118914891,
                -0.8830425797659981,
                1.3797449438615852,
                1.853922872864279,
                -1.8492325181590072,
                0.043804129519173174
            ]
        },
        {
            "positions": [
                -0.5889269409215002,
                -0.9049086219292344,
                1.3763230810861253,
                1.7326300386237028,
                -1.7196585258833819,
                0.12950848884143412
            ]
        },
        {
            "positions": [
                -0.6213280699515112,
                -0.9267746640924708,
                1.3729012183106655,
                1.611337204383127,
                -1.5900845336077567,
                0.21521284816369507
            ]
        },
        {
            "positions": [
                -0.6537291989815223,
                -0.9486407062557071,
                1.3694793555352056,
                1.4900443701425512,
                -1.4605105413321313,
                0.300917207485956
            ]
        },
        {
            "positions": [
                -0.6861303280115333,
                -0.9705067484189435,
                1.3660574927597458,
                1.3687515359019753,
                -1.330936549056506,
                0.3866215668082171
            ]
        },
        {
            "positions": [
                -0.7185314570415444,
                -0.9923727905821798,
                1.362635629984286,
                1.2474587016613994,
                -1.2013625567808806,
                0.4723259261304779
            ]
        },
        {
            "positions": [
                -0.7509325860715554,
                -1.0142388327454162,
                1.359213767208826,
                1.1261658674208235,
                -1.0717885645052552,
                0.558030285452739
            ]
        },
        {
            "positions": [
                -0.7833337151015665,
                -1.0361048749086526,
                1.3557919044333662,
                1.0048730331802476,
                -0.94221457222963,
                0.6437346447749999
            ]
        },
        {
            "positions": [
                -0.8157348441315775,
                -1.057970917071889,
                1.3523700416579063,
                0.8835801989396717,
                -0.8126405799540046,
                0.7294390040972609
            ]
        },
        {
            "positions": [
                -0.8481359731615885,
                -1.0798369592351251,
                1.3489481788824462,
                0.762287364699096,
                -0.6830665876783792,
                0.8151433634195218
            ]
        },
        {
            "positions": [
                -0.8805371021915995,
                -1.1017030013983615,
                1.3455263161069864,
                0.6409945304585201,
                -0.5534925954027541,
                0.9008477227417826
            ]
        },
        {
            "positions": [
                -0.9129382312216106,
                -1.123569043561598,
                1.3421044533315265,
                0.5197016962179439,
                -0.4239186031271285,
                0.9865520820640439
            ]
        },
        {
            "positions": [
                -0.9453393602516216,
                -1.1454350857248343,
                1.3386825905560666,
                0.39840886197736824,
                -0.2943446108515033,
                1.0722564413863047
            ]
        },
        {
            "positions": [
                -0.9777404892816327,
                -1.1673011278880705,
                1.3352607277806068,
                0.27711602773679234,
                -0.16477061857587794,
                1.1579608007085656
            ]
        },
        {
            "positions": [
                -1.0101416183116436,
                -1.189167170051307,
                1.331838865005147,
                0.15582319349621665,
                -0.035196626300253,
                1.2436651600308264
            ]
        },
        {
            "positions": [
                -1.0425427473416549,
                -1.2110332122145433,
                1.328417002229687,
                0.03453035925564052,
                0.09437736597537283,
                1.3293695193530877
            ]
        },
        {
            "positions": [
                -1.0749438763716657,
                -1.2328992543777797,
                1.3249951394542272,
                -0.08676247498493517,
                0.2239513582509982,
                1.4150738786753485
            ]
        },
        {
            "positions": [
                -1.107345005401677,
                -1.254765296541016,
                1.3215732766787673,
                -0.2080553092255113,
                0.35352535052662315,
                1.5007782379976093
            ]
        },
        {
            "positions": [
                -1.1397461344316877,
                -1.2766313387042523,
                1.3181514139033075,
                -0.329348143466087,
                0.48309934280224853,
                1.5864825973198702
            ]
        },
        {
            "positions": [
                -1.172147263461699,
                -1.2984973808674887,
                1.3147295511278476,
                -0.4506409777066631,
                0.6126733350778739,
                1.6721869566421315
            ]
        },
        {
            "positions": [
                -1.20454839249171,
                -1.320363423030725,
                1.3113076883523878,
                -0.5719338119472387,
                0.7422473273534992,
                1.7578913159643923
            ]
        },
        {
            "positions": [
                -1.1907212991581406,
                -1.2955935254479611,
                1.3993997907004267,
                -0.6047548774558843,
                0.7098444864201755,
                1.9305682070343833
            ]
        },
        {
            "positions": [
                -1.1768942058245713,
                -1.2708236278651972,
                1.4874918930484657,
                -0.6375759429645298,
                0.6774416454868518,
                2.103245098104374
            ]
        },
        {
            "positions": [
                -1.163067112491002,
                -1.2460537302824333,
                1.5755839953965047,
                -0.6703970084731754,
                0.6450388045535282,
                2.275921989174365
            ]
        },
        {
            "positions": [
                -1.1492400191574323,
                -1.2212838326996693,
                1.6636760977445437,
                -0.703218073981821,
                0.6126359636202046,
                2.448598880244356
            ]
        },
        {
            "positions": [
                -1.135412925823863,
                -1.1965139351169052,
                1.7517682000925827,
                -0.7360391394904665,
                0.5802331226868809,
                2.6212757713143473
            ]
        },
        {
            "positions": [
                -1.1215858324902936,
                -1.1717440375341412,
                1.8398603024406217,
                -0.7688602049991121,
                0.5478302817535572,
                2.793952662384338
            ]
        },
        {
            "positions": [
                -1.1077587391567243,
                -1.1469741399513773,
                1.9279524047886607,
                -0.8016812705077576,
                0.5154274408202335,
                2.9666295534543288
            ]
        },
        {
            "positions": [
                -1.093931645823155,
                -1.1222042423686134,
                2.0160445071366997,
                -0.8345023360164032,
                0.4830245998869099,
                3.13930644452432
            ]
        }
    ]
}