{
    "goal": {
        "global_pose": {
            "orientation": {
                "w": 0.005598929693374612,
                "x": 0.007748599140229565,
                "y": 0.7110244013736278,
                "z": -0.7031023480610252
            },
            "position": {
                "x": -0.8858502320852131,
                "y": -0.7141253447532654,
                "z": 0.3711530566215515
            }
        },
        "name": "move_to_auspresseinheit_C"
    },
    "id": "STRIDE_move_to_auspresseinheit_C_84",
    "joint_names": [
        "shoulder_pan_joint",
        "shoulder_lift_joint",
        "elbow_joint",
        "wrist_1_joint",
        "wrist_2_joint",
        "wrist_3_joint"
    ],
    "metrics": {
        "cart_traj_len": 0.49286827381317455,
        "distance_elbow_joint": 0.9917550643140706,
        "distance_shoulder_lift_joint": 0.3213861404840047,
        "distance_shoulder_pan_joint": 0.25633758037548926,
        "distance_wrist_1_joint": 0.6552349047288787,
        "distance_wrist_2_joint": 1.3110069352117455,
        "distance_wrist_3_joint": 0.050480044787083234,
        "smoothness": 6.459479416000911e-16,
        "time": 1.28744431,
        "traj_len": 1.8937266618763309,
        "weighted_distance": 2.377688499239558
    },
    "planner": "STRIDE",
    "start": {
        "state": {
            "elbow_joint": 1.7527959577737207,
            "shoulder_lift_joint": -0.9740617694225068,
            "shoulder_pan_joint": -2.967991417825858,
            "wrist_1_joint": -0.759517768980727,
            "wrist_2_joint": 1.7443932448377408,
            "wrist_3_joint": -3.0840537646736568
        }
    },
    "waypoints": [
        {
            "positions": [
                -2.967991417825858,
                -0.9740617694225068,
                1.7527959577737207,
                -0.759517768980727,
                1.7443932448377408,
                -3.0840537646736568
            ]
        },
        {
            "positions": [
                -2.942357659788309,
                -0.9419231553741063,
                1.6536204513423136,
                -0.6939942785078391,
                1.6132925513165663,
                -3.0891017691523652
            ]
        },
        {
            "positions": [
                -2.91672390175076,
                -0.9097845413257059,
                1.5544449449109066,
                -0.6284707880349513,
                1.4821918577953916,
                -3.0941497736310732
            ]
        },
        {
            "positions": [
                -2.8910901437132113,
                -0.8776459272773054,
                1.4552694384794995,
                -0.5629472975620634,
                1.3510911642742172,
                -3.0991977781097817
            ]
        },
        {
            "positions": [
                -2.865456385675662,
                -0.8455073132289048,
                1.3560939320480925,
                -0.4974238070891755,
                1.2199904707530425,
                -3.10424578258849
            ]
        },
        {
            "positions": [
                -2.8398226276381133,
                -0.8133686991805045,
                1.2569184256166854,
                -0.43190031661628764,
                1.0888897772318682,
                -3.109293787067198
            ]
        },
        {
            "positions": [
                -2.8141888696005646,
                -0.7812300851321039,
                1.1577429191852784,
                -0.3663768261433998,
                0.9577890837106936,
                -3.1143417915459066
            ]
        },
        {
            "positions": [
                -2.7885551115630154,
                -0.7490914710837036,
                1.0585674127538713,
                -0.3008533356705119,
                0.826688390189519,
                -3.119389796024615
            ]
        },
        {
            "positions": [
                -2.7629213535254666,
                -0.716952857035303,
                0.9593919063224642,
                -0.235329845197624,
                0.6955876966683443,
                -3.1244378005033235
            ]
        },
        {
            "positions": [
                -2.7372875954879174,
                -0.6848142429869025,
                0.8602163998910571,
                -0.16980635472473615,
                0.5644870031471698,
                -3.1294858049820315
            ]
        },
        {
            "positions": [
                -2.7116538374503687,
                -0.6526756289385021,
                0.7610408934596501,
                -0.10428286425184831,
                0.4333863096259954,
                -3.13453380946074
            ]
        }
    ]
}