{
    "goal": {
        "global_pose": {
            "orientation": {
                "w": -0.00223480608172531,
                "x": 0.0024358444001904467,
                "y": 0.7094548369677653,
                "z": -0.704743149386269
            },
            "position": {
                "x": -0.37947507619857795,
                "y": -0.6371506643295288,
                "z": 0.19426114857196808
            }
        },
        "name": "move_to_magneteinheit_C"
    },
    "id": "STRIDE_move_to_magneteinheit_C_129",
    "joint_names": [
        "shoulder_pan_joint",
        "shoulder_lift_joint",
        "elbow_joint",
        "wrist_1_joint",
        "wrist_2_joint",
        "wrist_3_joint"
    ],
    "metrics": {
        "cart_traj_len": 0.9452103727762898,
        "distance_elbow_joint": 0.9894906527794394,
        "distance_shoulder_lift_joint": 0.39167714574635304,
        "distance_shoulder_pan_joint": 1.712273495523151,
        "distance_wrist_1_joint": 0.5195181522656463,
        "distance_wrist_2_joint": 2.2969758945696657,
        "distance_wrist_3_joint": 0.5132655539642164,
        "smoothness": 1.9209347833393804,
        "time": 0.307196711,
        "traj_len": 2.534403459366419,
        "weighted_distance": 3.204095199836019
    },
    "planner": "STRIDE",
    "start": {
        "state": {
            "elbow_joint": 1.9565354010623817,
            "shoulder_lift_joint": -1.4165861575791021,
            "shoulder_pan_joint": -1.6717766225146293,
            "wrist_1_joint": -0.5286633292919765,
            "wrist_2_joint": 1.472756589071564,
            "wrist_3_joint": -3.1238370188695823
        }
    },
    "waypoints": [
        {
            "positions": [
                -1.6717766225146293,
                -1.4165861575791021,
                1.9565354010623817,
                -0.5286633292919765,
                1.472756589071564,
                -3.1238370188695823
            ]
        },
        {
            "positions": [
                -1.6478252858377407,
                -1.4535168013305437,
                1.937472238524065,
                -0.43237046083795966,
                1.4693455669797344,
                -3.0255591563632267
            ]
        },
        {
            "positions": [
                -1.773602867335272,
                -1.4567273191187278,
                1.9898028612425602,
                -0.47438077357712577,
                1.3146100378403158,
                -3.0100043991369825
            ]
        },
        {
            "positions": [
                -1.8993804488328034,
                -1.459937836906912,
                2.0421334839610554,
                -0.5163910863162919,
                1.1598745087008973,
                -2.9944496419107383
            ]
        },
        {
            "positions": [
                -2.025158030330335,
                -1.4631483546950963,
                2.094464106679551,
                -0.558401399055458,
                1.005138979561479,
                -2.9788948846844945
            ]
        },
        {
            "positions": [
                -2.150935611827866,
                -1.4663588724832803,
                2.1467947293980463,
                -0.6004117117946242,
                0.8504034504220603,
                -2.9633401274582503
            ]
        },
        {
            "positions": [
                -2.2767131933253975,
                -1.4695693902714644,
                2.1991253521165417,
                -0.6424220245337903,
                0.6956679212826419,
                -2.947785370232006
            ]
        },
        {
            "positions": [
                -2.4024907748229287,
                -1.4727799080596486,
                2.2514559748350367,
                -0.6844323372729564,
                0.5409323921432234,
                -2.932230613005762
            ]
        },
        {
            "positions": [
                -2.52826835632046,
                -1.475990425847833,
                2.303786597553532,
                -0.7264426500121226,
                0.38619686300380485,
                -2.9166758557795176
            ]
        },
        {
            "positions": [
                -2.6540459378179913,
                -1.479200943636017,
                2.3561172202720275,
                -0.7684529627512887,
                0.23146133386438628,
                -2.901121098553274
            ]
        },
        {
            "positions": [
                -2.779823519315523,
                -1.482411461424201,
                2.4084478429905225,
                -0.8104632754904548,
                0.07672580472496793,
                -2.8855663413270296
            ]
        },
        {
            "positions": [
                -2.9056011008130542,
                -1.4856219792123853,
                2.460778465709018,
                -0.8524735882296209,
                -0.07800972441445064,
                -2.8700115841007854
            ]
        },
        {
            "positions": [
                -2.8338433768345626,
                -1.4318484251935404,
                2.3862582551996563,
                -0.852993947632949,
                0.04635853909949125,
                -2.9132516039666885
            ]
        },
        {
            "positions": [
                -2.7620856528560713,
                -1.3780748711746953,
                2.3117380446902946,
                -0.8535143070362771,
                0.17072680261343315,
                -2.956491623832592
            ]
        },
        {
            "positions": [
                -2.69032792887758,
                -1.3243013171558502,
                2.237217834180933,
                -0.854034666439605,
                0.29509506612737507,
                -2.999731643698495
            ]
        },
        {
            "positions": [
                -2.6185702048990884,
                -1.2705277631370053,
                2.1626976236715714,
                -0.8545550258429331,
                0.41946332964131694,
                -3.042971663564398
            ]
        },
        {
            "positions": [
                -2.5468124809205968,
                -1.2167542091181605,
                2.0881774131622097,
                -0.8550753852462611,
                0.5438315931552589,
                -3.0862116834303017
            ]
        },
        {
            "positions": [
                -2.4750547569421055,
                -1.1629806550993154,
                2.013657202652848,
                -0.8555957446495892,
                0.6681998566692008,
                -3.129451703296205
            ]
        }
    ]
}