{
    "goal": {
        "global_pose": {
            "orientation": {
                "w": -0.4816463035849501,
                "x": 0.5182115481033762,
                "y": 0.4908360881923453,
                "z": -0.5084816262002911
            },
            "position": {
                "x": -0.8240239810943604,
                "y": 0.19912469901144506,
                "z": 0.16403168439865112
            }
        },
        "name": "move_to_storage_D"
    },
    "id": "STRIDE_move_to_storage_D_125",
    "joint_names": [
        "shoulder_pan_joint",
        "shoulder_lift_joint",
        "elbow_joint",
        "wrist_1_joint",
        "wrist_2_joint",
        "wrist_3_joint"
    ],
    "metrics": {
        "cart_traj_len": 3.880376595978715,
        "distance_elbow_joint": 4.210572112361314,
        "distance_shoulder_lift_joint": 1.2662085088010167,
        "distance_shoulder_pan_joint": 2.812785352305738,
        "distance_wrist_1_joint": 2.5279352401011472,
        "distance_wrist_2_joint": 0.8678916111944902,
        "distance_wrist_3_joint": 3.12666615631241,
        "smoothness": 0.0387104232489325,
        "time": 0.140747466,
        "traj_len": 3.84864378464364,
        "weighted_distance": 4.945828357817988
    },
    "planner": "STRIDE",
    "start": {
        "state": {
            "elbow_joint": -2.384821988534728,
            "shoulder_lift_joint": -2.2788054721415256,
            "shoulder_pan_joint": -0.1854694642142757,
            "wrist_1_joint": 1.4845938289331202,
            "wrist_2_joint": 0.17898776772866878,
            "wrist_3_joint": 0.037105688729662994
        }
    },
    "waypoints": [
        {
            "positions": [
                -0.1854694642142757,
                -2.2788054721415256,
                -2.384821988534728,
                1.4845938289331202,
                0.17898776772866878,
                0.037105688729662994
            ]
        },
        {
            "positions": [
                -0.10036323430465788,
                -2.247501289667164,
                -2.2671646421464553,
                1.4070488012916664,
                0.19839327516285157,
                -0.027783297544937982
            ]
        },
        {
            "positions": [
                -0.015257004395040047,
                -2.216197107192802,
                -2.149507295758183,
                1.3295037736502129,
                0.21779878259703433,
                -0.09267228381953896
            ]
        },
        {
            "positions": [
                0.06984922551457781,
                -2.18489292471844,
                -2.0318499493699105,
                1.2519587460087591,
                0.23720429003121712,
                -0.15756127009413992
            ]
        },
        {
            "positions": [
                0.15495545542419562,
                -2.153588742244078,
                -1.914192602981638,
                1.1744137183673053,
                0.2566097974653999,
                -0.2224502563687409
            ]
        },
        {
            "positions": [
                0.24006168533381347,
                -2.122284559769716,
                -1.7965352565933657,
                1.0968686907258518,
                0.2760153048995827,
                -0.2873392426433419
            ]
        },
        {
            "positions": [
                0.32516791524343136,
                -2.090980377295354,
                -1.678877910205093,
                1.019323663084398,
                0.2954208123337655,
                -0.3522282289179428
            ]
        },
        {
            "positions": [
                0.41027414515304916,
                -2.0596761948209923,
                -1.5612205638168206,
                0.9417786354429444,
                0.3148263197679483,
                -0.41711721519254386
            ]
        },
        {
            "positions": [
                0.49538037506266697,
                -2.0283720123466304,
                -1.4435632174285482,
                0.8642336078014906,
                0.33423182720213107,
                -0.4820062014671448
            ]
        },
        {
            "positions": [
                0.5804866049722849,
                -1.9970678298722686,
                -1.3259058710402756,
                0.7866885801600368,
                0.35363733463631386,
                -0.5468951877417458
            ]
        },
        {
            "positions": [
                0.6655928348819027,
                -1.9657636473979068,
                -1.2082485246520032,
                0.7091435525185833,
                0.3730428420704966,
                -0.6117841740163468
            ]
        },
        {
            "positions": [
                0.7506990647915206,
                -1.9344594649235447,
                -1.0905911782637308,
                0.6315985248771295,
                0.39244834950467944,
                -0.6766731602909478
            ]
        },
        {
            "positions": [
                0.8358052947011384,
                -1.9031552824491829,
                -0.9729338318754583,
                0.5540534972356759,
                0.4118538569388622,
                -0.7415621465655486
            ]
        },
        {
            "positions": [
                0.9209115246107563,
                -1.8718510999748208,
                -0.8552764854871857,
                0.4765084695942221,
                0.4312593643730449,
                -0.8064511328401497
            ]
        },
        {
            "positions": [
                1.006017754520374,
                -1.840546917500459,
                -0.7376191390989133,
                0.39896344195276856,
                0.4506648718072277,
                -0.8713401191147506
            ]
        },
        {
            "positions": [
                1.0911239844299918,
                -1.8092427350260971,
                -0.6199617927106407,
                0.3214184143113148,
                0.4700703792414105,
                -0.9362291053893517
            ]
        },
        {
            "positions": [
                1.1762302143396095,
                -1.7779385525517353,
                -0.5023044463223685,
                0.24387338666986103,
                0.4894758866755933,
                -1.0011180916639526
            ]
        },
        {
            "positions": [
                1.2613364442492272,
                -1.7466343700773734,
                -0.38464709993409585,
                0.16632835902840748,
                0.5088813941097761,
                -1.0660070779385535
            ]
        },
        {
            "positions": [
                1.3464426741588453,
                -1.7153301876030114,
                -0.2669897535458232,
                0.08878333138695349,
                0.5282869015439589,
                -1.1308960642131547
            ]
        },
        {
            "positions": [
                1.431548904068463,
                -1.6840260051286495,
                -0.14933240715755103,
                0.011238303745499945,
                0.5476924089781416,
                -1.1957850504877556
            ]
        },
        {
            "positions": [
                1.516655133978081,
                -1.6527218226542877,
                -0.031675060769278396,
                -0.0663067238959536,
                0.5670979164123244,
                -1.2606740367623566
            ]
        },
        {
            "positions": [
                1.6017613638876986,
                -1.6214176401799258,
                0.08598228561899379,
                -0.14385175153740737,
                0.5865034238465072,
                -1.3255630230369575
            ]
        },
        {
            "positions": [
                1.6868675937973168,
                -1.5901134577055638,
                0.20363963200726642,
                -0.22139677917886114,
                0.60590893128069,
                -1.3904520093115587
            ]
        },
        {
            "positions": [
                1.7719738237069345,
                -1.558809275231202,
                0.32129697839553906,
                -0.2989418068203149,
                0.6253144387148728,
                -1.4553409955861596
            ]
        },
        {
            "positions": [
                1.8570800536165524,
                -1.52750509275684,
                0.43895432478381124,
                -0.37648683446176845,
                0.6447199461490556,
                -1.5202299818607603
            ]
        },
        {
            "positions": [
                1.94218628352617,
                -1.4962009102824783,
                0.5566116711720839,
                -0.454031862103222,
                0.6641254535832383,
                -1.5851189681353612
            ]
        },
        {
            "positions": [
                2.027292513435788,
                -1.4648967278081162,
                0.6742690175603565,
                -0.531576889744676,
                0.6835309610174211,
                -1.6500079544099624
            ]
        },
        {
            "positions": [
                2.112398743345406,
                -1.4335925453337544,
                0.7919263639486287,
                -0.6091219173861298,
                0.7029364684516038,
                -1.7148969406845633
            ]
        },
        {
            "positions": [
                2.1975049732550236,
                -1.4022883628593925,
                0.9095837103369013,
                -0.6866669450275831,
                0.7223419758857866,
                -1.7797859269591643
            ]
        },
        {
            "positions": [
                2.2826112031646413,
                -1.3709841803850307,
                1.0272410567251735,
                -0.7642119726690368,
                0.7417474833199694,
                -1.8446749132337652
            ]
        },
        {
            "positions": [
                2.3677174330742594,
                -1.3396799979106686,
                1.1448984031134466,
                -0.8417570003104906,
                0.7611529907541522,
                -1.9095638995083664
            ]
        },
        {
            "positions": [
                2.452823662983877,
                -1.3083758154363068,
                1.2625557495017186,
                -0.9193020279519446,
                0.780558498188335,
                -1.9744528857829675
            ]
        },
        {
            "positions": [
                2.477751123713532,
                -1.2661216937083357,
                1.3430120886909853,
                -0.9015821160639328,
                0.8186043382933098,
                -2.1337539688972216
            ]
        },
        {
            "positions": [
                2.502678584443187,
                -1.2238675719803644,
                1.423468427880252,
                -0.8838622041759209,
                0.8566501783982847,
                -2.293055052011476
            ]
        },
        {
            "positions": [
                2.527606045172842,
                -1.1816134502523934,
                1.5039247670695188,
                -0.8661422922879091,
                0.8946960185032595,
                -2.45235613512573
            ]
        },
        {
            "positions": [
                2.552533505902497,
                -1.1393593285244223,
                1.5843811062587856,
                -0.8484223803998973,
                0.9327418586082344,
                -2.6116572182399844
            ]
        },
        {
            "positions": [
                2.577460966632152,
                -1.097105206796451,
                1.6648374454480523,
                -0.8307024685118853,
                0.9707876987132092,
                -2.7709583013542387
            ]
        },
        {
            "positions": [
                2.602388427361807,
                -1.05485108506848,
                1.745293784637319,
                -0.8129825566238735,
                1.0088335388181842,
                -2.9302593844684925
            ]
        },
        {
            "positions": [
                2.627315888091462,
                -1.012596963340509,
                1.8257501238265859,
                -0.7952626447358617,
                1.046879378923159,
                -3.089560467582747
            ]
        }
    ]
}