{
    "goal": {
        "global_pose": {
            "orientation": {
                "w": -0.00223480608172531,
                "x": 0.0024358444001904467,
                "y": 0.7094548369677653,
                "z": -0.704743149386269
            },
            "position": {
                "x": -0.37947507619857795,
                "y": -0.6371506643295288,
                "z": 0.19426114857196808
            }
        },
        "name": "move_to_magneteinheit_C"
    },
    "id": "STRIDE_move_to_magneteinheit_C_78",
    "joint_names": [
        "shoulder_pan_joint",
        "shoulder_lift_joint",
        "elbow_joint",
        "wrist_1_joint",
        "wrist_2_joint",
        "wrist_3_joint"
    ],
    "metrics": {
        "cart_traj_len": 1.5977997962386359,
        "distance_elbow_joint": 0.1737019648861189,
        "distance_shoulder_lift_joint": 1.1217184894596468,
        "distance_shoulder_pan_joint": 1.7373054804542474,
        "distance_wrist_1_joint": 1.2770016382113614,
        "distance_wrist_2_joint": 1.3739754541409324,
        "distance_wrist_3_joint": 3.0947033461186724,
        "smoothness": 1.3050329135995875,
        "time": 1.704651649,
        "traj_len": 2.9628375543169723,
        "weighted_distance": 4.197474259344615
    },
    "planner": "STRIDE",
    "start": {
        "state": {
            "elbow_joint": 1.9565354010623817,
            "shoulder_lift_joint": -1.4165861575791021,
            "shoulder_pan_joint": -1.6717766225146293,
            "wrist_1_joint": -0.5286633292919765,
            "wrist_2_joint": 1.472756589071564,
            "wrist_3_joint": -3.1238370188695823
        }
    },
    "waypoints": [
        {
            "positions": [
                -1.6717766225146293,
                -1.4165861575791021,
                1.9565354010623817,
                -0.5286633292919765,
                1.472756589071564,
                -3.1238370188695823
            ]
        },
        {
            "positions": [
                -1.5795258419259628,
                -1.4456508952259473,
                1.954801405637646,
                -0.5565163198546135,
                1.4048143401221573,
                -2.9981639812348333
            ]
        },
        {
            "positions": [
                -1.487275061337296,
                -1.4747156328727922,
                1.9530674102129104,
                -0.5843693104172505,
                1.3368720911727507,
                -2.8724909436000843
            ]
        },
        {
            "positions": [
                -1.3950242807486295,
                -1.503780370519637,
                1.951333414788175,
                -0.6122223009798875,
                1.2689298422233442,
                -2.7468179059653353
            ]
        },
        {
            "positions": [
                -1.302773500159963,
                -1.5328451081664822,
                1.9495994193634392,
                -0.6400752915425245,
                1.2009875932739376,
                -2.6211448683305862
            ]
        },
        {
            "positions": [
                -1.4182332225861998,
                -1.5617809147094517,
                1.9535155835934097,
                -0.7027187504613943,
                1.12656795550403,
                -2.5265897199491616
            ]
        },
        {
            "positions": [
                -1.5336929450124366,
                -1.590716721252421,
                1.9574317478233803,
                -0.765362209380264,
                1.0521483177341222,
                -2.432034571567737
            ]
        },
        {
            "positions": [
                -1.6491526674386734,
                -1.6196525277953904,
                1.9613479120533506,
                -0.8280056682991338,
                0.9777286799642146,
                -2.3374794231863123
            ]
        },
        {
            "positions": [
                -1.7646123898649102,
                -1.6485883343383598,
                1.9652640762833211,
                -0.8906491272180035,
                0.903309042194307,
                -2.2429242748048877
            ]
        },
        {
            "positions": [
                -1.8800721122911472,
                -1.677524140881329,
                1.9691802405132917,
                -0.9532925861368733,
                0.8288894044243993,
                -2.148369126423463
            ]
        },
        {
            "positions": [
                -1.9955318347173838,
                -1.7064599474242985,
                1.9730964047432622,
                -1.015936045055743,
                0.7544697666544917,
                -2.0538139780420384
            ]
        },
        {
            "positions": [
                -2.110991557143621,
                -1.7353957539672678,
                1.9770125689732327,
                -1.0785795039746129,
                0.680050128884584,
                -1.9592588296606137
            ]
        },
        {
            "positions": [
                -2.226451279569858,
                -1.7643315605102372,
                1.9809287332032033,
                -1.1412229628934827,
                0.6056304911146764,
                -1.8647036812791888
            ]
        },
        {
            "positions": [
                -2.3419110019960945,
                -1.7932673670532067,
                1.9848448974331736,
                -1.2038664218123523,
                0.5312108533447687,
                -1.7701485328977642
            ]
        },
        {
            "positions": [
                -2.457370724422331,
                -1.822203173596176,
                1.9887610616631441,
                -1.266509880731222,
                0.45679121557486113,
                -1.6755933845163395
            ]
        },
        {
            "positions": [
                -2.572830446848568,
                -1.8511389801391454,
                1.9926772258931147,
                -1.3291533396500919,
                0.38237157780495346,
                -1.581038236134915
            ]
        },
        {
            "positions": [
                -2.5671526075070146,
                -1.7812868060501699,
                2.0070330703140002,
                -1.265560945932429,
                0.4318461932763244,
                -1.7643503779362573
            ]
        },
        {
            "positions": [
                -2.5614747681654615,
                -1.7114346319611946,
                2.0213889147348856,
                -1.2019685522147663,
                0.48132080874769534,
                -1.9476625197375999
            ]
        },
        {
            "positions": [
                -2.555796928823908,
                -1.6415824578722191,
                2.035744759155771,
                -1.1383761584971035,
                0.5307954242190663,
                -2.130974661538942
            ]
        },
        {
            "positions": [
                -2.550119089482355,
                -1.5717302837832436,
                2.0501006035766562,
                -1.0747837647794407,
                0.5802700396904372,
                -2.314286803340285
            ]
        },
        {
            "positions": [
                -2.5444412501408014,
                -1.5018781096942684,
                2.0644564479975416,
                -1.011191371061778,
                0.6297446551618082,
                -2.497598945141627
            ]
        },
        {
            "positions": [
                -2.526977196464999,
                -1.4174019105805868,
                2.051479209359273,
                -0.971553956245545,
                0.6387989965411749,
                -2.6564349087359505
            ]
        },
        {
            "positions": [
                -2.5095131427891966,
                -1.332925711466905,
                2.0385019707210046,
                -0.931916541429312,
                0.6478533379205416,
                -2.8152708723302737
            ]
        },
        {
            "positions": [
                -2.4920490891133946,
                -1.2484495123532233,
                2.025524732082736,
                -0.892279126613079,
                0.6569076792999083,
                -2.9741068359245966
            ]
        },
        {
            "positions": [
                -2.4745850354375922,
                -1.1639733132395418,
                2.0125474934444676,
                -0.852641711796846,
                0.665962020679275,
                -3.13294279951892
            ]
        }
    ]
}