{
    "goal": {
        "global_pose": {
            "orientation": {
                "w": -0.00223480608172531,
                "x": 0.0024358444001904467,
                "y": 0.7094548369677653,
                "z": -0.704743149386269
            },
            "position": {
                "x": -0.37947507619857795,
                "y": -0.6371506643295288,
                "z": 0.19426114857196808
            }
        },
        "name": "move_to_magneteinheit_C"
    },
    "id": "STRIDE_move_to_magneteinheit_C_60",
    "joint_names": [
        "shoulder_pan_joint",
        "shoulder_lift_joint",
        "elbow_joint",
        "wrist_1_joint",
        "wrist_2_joint",
        "wrist_3_joint"
    ],
    "metrics": {
        "cart_traj_len": 6.362447947624301,
        "distance_elbow_joint": 0.8411753238154005,
        "distance_shoulder_lift_joint": 3.690684464436826,
        "distance_shoulder_pan_joint": 9.581716284664466,
        "distance_wrist_1_joint": 0.8550414092497007,
        "distance_wrist_2_joint": 5.233783589553639,
        "distance_wrist_3_joint": 3.9994801577383154,
        "smoothness": 0.5736864010770268,
        "time": 2.197436556,
        "traj_len": 4.919540753917822,
        "weighted_distance": 6.1878644574472
    },
    "planner": "STRIDE",
    "start": {
        "state": {
            "elbow_joint": 1.9565354010623817,
            "shoulder_lift_joint": -1.4165861575791021,
            "shoulder_pan_joint": -1.6717766225146293,
            "wrist_1_joint": -0.5286633292919765,
            "wrist_2_joint": 1.472756589071564,
            "wrist_3_joint": -3.1238370188695823
        }
    },
    "waypoints": [
        {
            "positions": [
                -1.6717766225146293,
                -1.4165861575791021,
                1.9565354010623817,
                -0.5286633292919765,
                1.472756589071564,
                -3.1238370188695823
            ]
        },
        {
            "positions": [
                -1.4808856556784993,
                -1.4913100412118818,
                1.9549671455681148,
                -0.5429367789105877,
                1.4552247899336677,
                -3.040970552242872
            ]
        },
        {
            "positions": [
                -1.289994688842369,
                -1.5660339248446615,
                1.953398890073848,
                -0.5572102285291989,
                1.4376929907957714,
                -2.958104085616162
            ]
        },
        {
            "positions": [
                -1.0991037220062387,
                -1.6407578084774412,
                1.951830634579581,
                -0.5714836781478101,
                1.4201611916578751,
                -2.8752376189894515
            ]
        },
        {
            "positions": [
                -0.9082127551701087,
                -1.7154816921102212,
                1.9502623790853142,
                -0.5857571277664213,
                1.4026293925199786,
                -2.7923711523627412
            ]
        },
        {
            "positions": [
                -0.7173217883339785,
                -1.7902055757430009,
                1.9486941235910473,
                -0.6000305773850325,
                1.3850975933820824,
                -2.709504685736031
            ]
        },
        {
            "positions": [
                -0.5264308214978484,
                -1.8649294593757806,
                1.9471258680967805,
                -0.6143040270036437,
                1.3675657942441861,
                -2.6266382191093207
            ]
        },
        {
            "positions": [
                -0.3355398546617181,
                -1.9396533430085605,
                1.9455576126025136,
                -0.6285774766222549,
                1.3500339951062899,
                -2.5437717524826104
            ]
        },
        {
            "positions": [
                -0.14464888782558805,
                -2.01437722664134,
                1.9439893571082467,
                -0.6428509262408661,
                1.3325021959683936,
                -2.4609052858559
            ]
        },
        {
            "positions": [
                0.046242079010542225,
                -2.08910111027412,
                1.9424211016139799,
                -0.6571243758594774,
                1.314970396830497,
                -2.37803881922919
            ]
        },
        {
            "positions": [
                0.23713304584667227,
                -2.1638249939068994,
                1.940852846119713,
                -0.6713978254780886,
                1.2974385976926008,
                -2.2951723526024796
            ]
        },
        {
            "positions": [
                0.42802401268280277,
                -2.2385488775396793,
                1.9392845906254461,
                -0.6856712750966998,
                1.2799067985547046,
                -2.2123058859757694
            ]
        },
        {
            "positions": [
                0.6189149795189326,
                -2.313272761172459,
                1.9377163351311792,
                -0.699944724715311,
                1.2623749994168083,
                -2.129439419349059
            ]
        },
        {
            "positions": [
                0.8098059463550629,
                -2.3879966448052388,
                1.9361480796369124,
                -0.7142181743339222,
                1.244843200278912,
                -2.046572952722349
            ]
        },
        {
            "positions": [
                1.0006969131911931,
                -2.4627205284380187,
                1.9345798241426455,
                -0.7284916239525334,
                1.2273114011410158,
                -1.9637064860956386
            ]
        },
        {
            "positions": [
                1.1915878800273234,
                -2.5374444120707986,
                1.9330115686483786,
                -0.7427650735711446,
                1.2097796020031193,
                -1.8808400194689283
            ]
        },
        {
            "positions": [
                1.3824788468634532,
                -2.612168295703578,
                1.9314433131541118,
                -0.7570385231897558,
                1.192247802865223,
                -1.797973552842218
            ]
        },
        {
            "positions": [
                1.5733698136995835,
                -2.6868921793363576,
                1.929875057659845,
                -0.771311972808367,
                1.1747160037273268,
                -1.7151070862155078
            ]
        },
        {
            "positions": [
                1.7642607805357138,
                -2.7616160629691375,
                1.928306802165578,
                -0.7855854224269783,
                1.1571842045894305,
                -1.6322406195887975
            ]
        },
        {
            "positions": [
                1.955151747371844,
                -2.8363399466019175,
                1.9267385466713112,
                -0.7998588720455895,
                1.1396524054515342,
                -1.5493741529620872
            ]
        },
        {
            "positions": [
                2.146042714207974,
                -2.911063830234697,
                1.9251702911770443,
                -0.8141323216642007,
                1.1221206063136377,
                -1.466507686335377
            ]
        },
        {
            "positions": [
                2.336933681044104,
                -2.9857877138674764,
                1.9236020356827774,
                -0.8284057712828119,
                1.1045888071757415,
                -1.3836412197086667
            ]
        },
        {
            "positions": [
                2.5278246478802346,
                -3.0605115975002564,
                1.9220337801885106,
                -0.8426792209014231,
                1.0870570080378452,
                -1.3007747530819564
            ]
        },
        {
            "positions": [
                2.7187156147163645,
                -3.1352354811330363,
                1.9204655246942437,
                -0.8569526705200343,
                1.069525208899949,
                -1.2179082864552462
            ]
        },
        {
            "positions": [
                2.5990100322420115,
                -3.0798912376159735,
                1.9056402279815805,
                -0.8678329960593355,
                0.9606426055566007,
                -1.3013634292406604
            ]
        },
        {
            "positions": [
                2.479304449767658,
                -3.0245469940989107,
                1.8908149312689173,
                -0.8787133215986367,
                0.8517600022132525,
                -1.3848185720260744
            ]
        },
        {
            "positions": [
                2.3595988672933053,
                -2.969202750581848,
                1.8759896345562541,
                -0.8895936471379378,
                0.7428773988699042,
                -1.4682737148114886
            ]
        },
        {
            "positions": [
                2.2398932848189523,
                -2.913858507064785,
                1.861164337843591,
                -0.9004739726772389,
                0.6339947955265561,
                -1.5517288575969026
            ]
        },
        {
            "positions": [
                2.120187702344599,
                -2.858514263547722,
                1.8463390411309277,
                -0.9113542982165401,
                0.5251121921832078,
                -1.635184000382317
            ]
        },
        {
            "positions": [
                2.000482119870246,
                -2.8031700200306595,
                1.8315137444182645,
                -0.9222346237558413,
                0.4162295888398596,
                -1.718639143167731
            ]
        },
        {
            "positions": [
                1.880776537395893,
                -2.7478257765135963,
                1.8166884477056013,
                -0.9331149492951425,
                0.3073469854965113,
                -1.8020942859531452
            ]
        },
        {
            "positions": [
                1.76107095492154,
                -2.6924815329965335,
                1.8018631509929381,
                -0.9439952748344437,
                0.1984643821531632,
                -1.8855494287385592
            ]
        },
        {
            "positions": [
                1.6413653724471868,
                -2.6371372894794707,
                1.787037854280275,
                -0.9548756003737449,
                0.089581778809815,
                -1.9690045715239735
            ]
        },
        {
            "positions": [
                1.5216597899728337,
                -2.581793045962408,
                1.7722125575676118,
                -0.9657559259130459,
                -0.019300824533533323,
                -2.0524597143093875
            ]
        },
        {
            "positions": [
                1.4019542074984808,
                -2.526448802445345,
                1.7573872608549486,
                -0.9766362514523471,
                -0.12818342787688142,
                -2.135914857094802
            ]
        },
        {
            "positions": [
                1.2822486250241276,
                -2.4711045589282823,
                1.7425619641422854,
                -0.9875165769916483,
                -0.23706603122022973,
                -2.219369999880216
            ]
        },
        {
            "positions": [
                1.1625430425497747,
                -2.4157603154112195,
                1.7277366674296222,
                -0.9983969025309495,
                -0.34594863456357783,
                -2.30282514266563
            ]
        },
        {
            "positions": [
                1.0428374600754213,
                -2.3604160718941567,
                1.712911370716959,
                -1.0092772280702507,
                -0.45483123790692637,
                -2.3862802854510443
            ]
        },
        {
            "positions": [
                0.9231318776010684,
                -2.305071828377094,
                1.6980860740042958,
                -1.0201575536095517,
                -0.5637138412502745,
                -2.4697354282364583
            ]
        },
        {
            "positions": [
                0.8034262951267155,
                -2.249727584860031,
                1.6832607772916326,
                -1.031037879148853,
                -0.6725964445936226,
                -2.5531905710218723
            ]
        },
        {
            "positions": [
                0.6837207126523621,
                -2.1943833413429683,
                1.6684354805789694,
                -1.041918204688154,
                -0.7814790479369709,
                -2.6366457138072867
            ]
        },
        {
            "positions": [
                0.5640151301780092,
                -2.139039097825905,
                1.6536101838663062,
                -1.0527985302274554,
                -0.890361651280319,
                -2.7201008565927007
            ]
        },
        {
            "positions": [
                0.44430954770365627,
                -2.0836948543088427,
                1.638784887153643,
                -1.0636788557667565,
                -0.9992442546236671,
                -2.8035559993781147
            ]
        },
        {
            "positions": [
                0.3246039652293029,
                -2.0283506107917795,
                1.6239595904409798,
                -1.0745591813060575,
                -1.1081268579670156,
                -2.887011142163529
            ]
        },
        {
            "positions": [
                0.20489838275494998,
                -1.9730063672747167,
                1.6091342937283166,
                -1.0854395068453588,
                -1.2170094613103637,
                -2.970466284948943
            ]
        },
        {
            "positions": [
                0.08519280028059706,
                -1.917662123757654,
                1.5943089970156534,
                -1.09631983238466,
                -1.3258920646537118,
                -3.053921427734357
            ]
        },
        {
            "positions": [
                -0.03451278219375631,
                -1.862317880240591,
                1.5794837003029902,
                -1.1072001579239612,
                -1.4347746679970603,
                -3.1373765705197716
            ]
        },
        {
            "positions": [
                -0.15421836466810923,
                -1.8069736367235283,
                1.564658403590327,
                -1.1180804834632623,
                -1.5436572713404084,
                -3.2208317133051856
            ]
        },
        {
            "positions": [
                -0.2991114939211716,
                -1.766737805693942,
                1.5927395489867862,
                -1.1014789675208614,
                -1.405071663269054,
                -3.215167463400558
            ]
        },
        {
            "positions": [
                -0.44400462317423395,
                -1.7265019746643555,
                1.6208206943832453,
                -1.0848774515784605,
                -1.2664860551976997,
                -3.2095032134959305
            ]
        },
        {
            "positions": [
                -0.5888977524272963,
                -1.6862661436347692,
                1.6489018397797044,
                -1.0682759356360594,
                -1.1279004471263456,
                -3.2038389635913034
            ]
        },
        {
            "positions": [
                -0.7337908816803587,
                -1.6460303126051827,
                1.6769829851761635,
                -1.0516744196936585,
                -0.9893148390549913,
                -3.198174713686676
            ]
        },
        {
            "positions": [
                -0.8786840109334211,
                -1.6057944815755965,
                1.7050641305726226,
                -1.0350729037512576,
                -0.850729230983637,
                -3.1925104637820483
            ]
        },
        {
            "positions": [
                -1.0235771401864833,
                -1.56555865054601,
                1.7331452759690817,
                -1.0184713878088567,
                -0.7121436229122827,
                -3.1868462138774207
            ]
        },
        {
            "positions": [
                -1.1684702694395457,
                -1.5253228195164237,
                1.7612264213655409,
                -1.0018698718664558,
                -0.5735580148409285,
                -3.181181963972793
            ]
        },
        {
            "positions": [
                -1.313363398692608,
                -1.4850869884868372,
                1.789307566762,
                -0.9852683559240548,
                -0.43497240676957416,
                -3.1755177140681656
            ]
        },
        {
            "positions": [
                -1.4582565279456705,
                -1.444851157457251,
                1.817388712158459,
                -0.9686668399816538,
                -0.2963867986982198,
                -3.1698534641635385
            ]
        },
        {
            "positions": [
                -1.603149657198733,
                -1.4046153264276646,
                1.8454698575549182,
                -0.9520653240392529,
                -0.15780119062686548,
                -3.164189214258911
            ]
        },
        {
            "positions": [
                -1.7480427864517951,
                -1.3643794953980781,
                1.8735510029513773,
                -0.935463808096852,
                -0.019215582555511368,
                -3.1585249643542834
            ]
        },
        {
            "positions": [
                -1.8929359157048575,
                -1.3241436643684918,
                1.9016321483478364,
                -0.9188622921544511,
                0.11937002551584297,
                -3.152860714449656
            ]
        },
        {
            "positions": [
                -2.03782904495792,
                -1.2839078333389056,
                1.9297132937442956,
                -0.9022607762120501,
                0.2579556335871973,
                -3.1471964645450283
            ]
        },
        {
            "positions": [
                -2.182722174210982,
                -1.243672002309319,
                1.9577944391407547,
                -0.8856592602696493,
                0.3965412416585514,
                -3.141532214640401
            ]
        },
        {
            "positions": [
                -2.3276153034640448,
                -1.2034361712797326,
                1.9858755845372138,
                -0.8690577443272482,
                0.535126849729906,
                -3.1358679647357737
            ]
        },
        {
            "positions": [
                -2.472508432717107,
                -1.1632003402501463,
                2.013956729933673,
                -0.8524562283848474,
                0.6737124578012603,
                -3.130203714831146
            ]
        }
    ]
}