{
    "goal": {
        "global_pose": {
            "orientation": {
                "w": -0.00223480608172531,
                "x": 0.0024358444001904467,
                "y": 0.7094548369677653,
                "z": -0.704743149386269
            },
            "position": {
                "x": -0.37947507619857795,
                "y": -0.6371506643295288,
                "z": 0.19426114857196808
            }
        },
        "name": "move_to_magneteinheit_C"
    },
    "id": "STRIDE_move_to_magneteinheit_C_13",
    "joint_names": [
        "shoulder_pan_joint",
        "shoulder_lift_joint",
        "elbow_joint",
        "wrist_1_joint",
        "wrist_2_joint",
        "wrist_3_joint"
    ],
    "metrics": {
        "cart_traj_len": 1.182638623554905,
        "distance_elbow_joint": 0.0494327705354487,
        "distance_shoulder_lift_joint": 0.4847380584993606,
        "distance_shoulder_pan_joint": 1.4002528318044931,
        "distance_wrist_1_joint": 1.134634675000342,
        "distance_wrist_2_joint": 0.7952697255863317,
        "distance_wrist_3_joint": 0.6930402479121422,
        "smoothness": 1.5782129207215299,
        "time": 1.138928779,
        "traj_len": 2.1347993604407227,
        "weighted_distance": 2.805949608554843
    },
    "planner": "STRIDE",
    "start": {
        "state": {
            "elbow_joint": 1.9565354010623817,
            "shoulder_lift_joint": -1.4165861575791021,
            "shoulder_pan_joint": -1.6717766225146293,
            "wrist_1_joint": -0.5286633292919765,
            "wrist_2_joint": 1.472756589071564,
            "wrist_3_joint": -3.1238370188695823
        }
    },
    "waypoints": [
        {
            "positions": [
                -1.6717766225146293,
                -1.4165861575791021,
                1.9565354010623817,
                -0.5286633292919765,
                1.472756589071564,
                -3.1238370188695823
            ]
        },
        {
            "positions": [
                -1.6118977350942003,
                -1.4395919281611835,
                1.9571512424694892,
                -0.4442482275469275,
                1.317299477134789,
                -3.0574113297890317
            ]
        },
        {
            "positions": [
                -1.5520188476737713,
                -1.4625976987432652,
                1.9577670838765968,
                -0.35983312580187854,
                1.161842365198014,
                -2.9909856407084816
            ]
        },
        {
            "positions": [
                -1.4921399602533425,
                -1.4856034693253466,
                1.9583829252837044,
                -0.27541802405682964,
                1.006385253261239,
                -2.924559951627931
            ]
        },
        {
            "positions": [
                -1.4322610728329135,
                -1.5086092399074282,
                1.958998766690812,
                -0.19100292231178068,
                0.850928141324464,
                -2.858134262547381
            ]
        },
        {
            "positions": [
                -1.3723821854124845,
                -1.5316150104895097,
                1.9596146080979195,
                -0.1065878205667318,
                0.6954710293876891,
                -2.7917085734668303
            ]
        },
        {
            "positions": [
                -1.5261531612008694,
                -1.4792853796734133,
                1.9672037251248806,
                -0.2100628840453435,
                0.6928832634738615,
                -2.8431713011562487
            ]
        },
        {
            "positions": [
                -1.6799241369892541,
                -1.4269557488573168,
                1.974792842151842,
                -0.31353794752395525,
                0.6902954975600339,
                -2.894634028845667
            ]
        },
        {
            "positions": [
                -1.833695112777639,
                -1.3746261180412205,
                1.982381959178803,
                -0.41701301100256694,
                0.6877077316462062,
                -2.946096756535086
            ]
        },
        {
            "positions": [
                -1.9874660885660238,
                -1.322296487225124,
                1.9899710762057643,
                -0.5204880744811786,
                0.6851199657323787,
                -2.9975594842245044
            ]
        },
        {
            "positions": [
                -2.1412370643544087,
                -1.2699668564090276,
                1.9975601932327254,
                -0.6239631379597903,
                0.6825321998185511,
                -3.0490222119139228
            ]
        },
        {
            "positions": [
                -2.3072388222346207,
                -1.2159363306547921,
                2.001764182415278,
                -0.7215550624008098,
                0.6800095316518917,
                -3.1008212939450717
            ]
        },
        {
            "positions": [
                -2.4732405801148327,
                -1.1619058049005566,
                2.0059681715978304,
                -0.8191469868418292,
                0.6774868634852322,
                -3.1526203759762206
            ]
        }
    ]
}