{
    "goal": {
        "global_pose": {
            "orientation": {
                "w": -0.00223480608172531,
                "x": 0.0024358444001904467,
                "y": 0.7094548369677653,
                "z": -0.704743149386269
            },
            "position": {
                "x": -0.37947507619857795,
                "y": -0.6371506643295288,
                "z": 0.19426114857196808
            }
        },
        "name": "move_to_magneteinheit_C"
    },
    "id": "STRIDE_move_to_magneteinheit_C_121",
    "joint_names": [
        "shoulder_pan_joint",
        "shoulder_lift_joint",
        "elbow_joint",
        "wrist_1_joint",
        "wrist_2_joint",
        "wrist_3_joint"
    ],
    "metrics": {
        "cart_traj_len": 0.9676654804023966,
        "distance_elbow_joint": 1.5335673115597412,
        "distance_shoulder_lift_joint": 1.868263572920049,
        "distance_shoulder_pan_joint": 0.8020877313892363,
        "distance_wrist_1_joint": 0.3276641549500947,
        "distance_wrist_2_joint": 0.7960560702491725,
        "distance_wrist_3_joint": 1.869201757176699,
        "smoothness": 1.2161818091166015,
        "time": 1.89361817,
        "traj_len": 2.6826927886444607,
        "weighted_distance": 3.4726019549896097
    },
    "planner": "STRIDE",
    "start": {
        "state": {
            "elbow_joint": 1.9565354010623817,
            "shoulder_lift_joint": -1.4165861575791021,
            "shoulder_pan_joint": -1.6717766225146293,
            "wrist_1_joint": -0.5286633292919765,
            "wrist_2_joint": 1.472756589071564,
            "wrist_3_joint": -3.1238370188695823
        }
    },
    "waypoints": [
        {
            "positions": [
                -1.6717766225146293,
                -1.4165861575791021,
                1.9565354010623817,
                -0.5286633292919765,
                1.472756589071564,
                -3.1238370188695823
            ]
        },
        {
            "positions": [
                -1.7470881944858554,
                -1.497321251631421,
                2.036092487580902,
                -0.5416999455705318,
                1.4347169729839107,
                -3.0309213106206023
            ]
        },
        {
            "positions": [
                -1.8223997664570817,
                -1.57805634568374,
                2.115649574099422,
                -0.5547365618490872,
                1.3966773568962574,
                -2.9380056023716223
            ]
        },
        {
            "positions": [
                -1.8977113384283077,
                -1.6587914397360588,
                2.1952066606179423,
                -0.5677731781276425,
                1.358637740808604,
                -2.8450898941226423
            ]
        },
        {
            "positions": [
                -1.9730229103995338,
                -1.7395265337883776,
                2.274763747136463,
                -0.5808097944061978,
                1.3205981247209508,
                -2.7521741858736624
            ]
        },
        {
            "positions": [
                -2.04833448237076,
                -1.8202616278406967,
                2.354320833654983,
                -0.5938464106847532,
                1.2825585086332976,
                -2.6592584776246824
            ]
        },
        {
            "positions": [
                -2.123646054341986,
                -1.9009967218930155,
                2.4338779201735035,
                -0.6068830269633085,
                1.2445188925456445,
                -2.566342769375703
            ]
        },
        {
            "positions": [
                -2.198957626313212,
                -1.9817318159453343,
                2.5134350066920232,
                -0.6199196432418639,
                1.2064792764579912,
                -2.473427061126723
            ]
        },
        {
            "positions": [
                -2.2742691982844385,
                -2.0624669099976534,
                2.592992093210544,
                -0.6329562595204192,
                1.168439660370338,
                -2.380511352877743
            ]
        },
        {
            "positions": [
                -2.3495807702556646,
                -2.1432020040499724,
                2.672549179729064,
                -0.6459928757989746,
                1.1304000442826847,
                -2.287595644628763
            ]
        },
        {
            "positions": [
                -2.4248923422268907,
                -2.223937098102291,
                2.7521062662475844,
                -0.6590294920775299,
                1.0923604281950314,
                -2.194679936379783
            ]
        },
        {
            "positions": [
                -2.4303336768576655,
                -2.106057916724862,
                2.670106661094858,
                -0.6809514912069234,
                1.0461759938202937,
                -2.2991293446783274
            ]
        },
        {
            "positions": [
                -2.4357750114884404,
                -1.9881787353474332,
                2.5881070559421313,
                -0.7028734903363169,
                0.9999915594455558,
                -2.4035787529768715
            ]
        },
        {
            "positions": [
                -2.441216346119216,
                -1.8702995539700042,
                2.506107450789405,
                -0.7247954894657104,
                0.9538071250708181,
                -2.508028161275416
            ]
        },
        {
            "positions": [
                -2.4466576807499907,
                -1.7524203725925753,
                2.4241078456366782,
                -0.7467174885951038,
                0.9076226906960804,
                -2.6124775695739606
            ]
        },
        {
            "positions": [
                -2.4520990153807656,
                -1.6345411912151464,
                2.342108240483952,
                -0.7686394877244973,
                0.8614382563213425,
                -2.7169269778725047
            ]
        },
        {
            "positions": [
                -2.4575403500115405,
                -1.5166620098377177,
                2.260108635331225,
                -0.7905614868538907,
                0.8152538219466048,
                -2.8213763861710492
            ]
        },
        {
            "positions": [
                -2.462981684642316,
                -1.3987828284602886,
                2.178109030178499,
                -0.8124834859832842,
                0.769069387571867,
                -2.925825794469594
            ]
        },
        {
            "positions": [
                -2.4684230192730907,
                -1.2809036470828599,
                2.096109425025772,
                -0.8344054851126776,
                0.7228849531971293,
                -3.030275202768138
            ]
        },
        {
            "positions": [
                -2.4738643539038656,
                -1.163024465705431,
                2.014109819873046,
                -0.8563274842420712,
                0.6767005188223915,
                -3.1347246110666824
            ]
        }
    ]
}