{
    "goal": {
        "global_pose": {
            "orientation": {
                "w": -0.4816463035849501,
                "x": 0.5182115481033762,
                "y": 0.4908360881923453,
                "z": -0.5084816262002911
            },
            "position": {
                "x": -0.8240239810943604,
                "y": 0.19912469901144506,
                "z": 0.16403168439865112
            }
        },
        "name": "move_to_storage_D"
    },
    "id": "STRIDE_move_to_storage_D_8",
    "joint_names": [
        "shoulder_pan_joint",
        "shoulder_lift_joint",
        "elbow_joint",
        "wrist_1_joint",
        "wrist_2_joint",
        "wrist_3_joint"
    ],
    "metrics": {
        "cart_traj_len": 0.611020843457577,
        "distance_elbow_joint": 0.7762635480322393,
        "distance_shoulder_lift_joint": 0.29885876693284263,
        "distance_shoulder_pan_joint": 0.3188259472232744,
        "distance_wrist_1_joint": 4.002022951239811,
        "distance_wrist_2_joint": 2.156470533904439,
        "distance_wrist_3_joint": 3.201267546627183,
        "smoothness": 0.7709291922362218,
        "time": 0.057004146000000006,
        "traj_len": 3.279284875389723,
        "weighted_distance": 4.828533718672617
    },
    "planner": "STRIDE",
    "start": {
        "state": {
            "elbow_joint": -2.384821988534728,
            "shoulder_lift_joint": -2.2788054721415256,
            "shoulder_pan_joint": -0.1854694642142757,
            "wrist_1_joint": 1.4845938289331202,
            "wrist_2_joint": 0.17898776772866878,
            "wrist_3_joint": 0.037105688729662994
        }
    },
    "waypoints": [
        {
            "positions": [
                -0.1854694642142757,
                -2.2788054721415256,
                -2.384821988534728,
                1.4845938289331202,
                0.17898776772866878,
                0.037105688729662994
            ]
        },
        {
            "positions": [
                -0.13983195145097504,
                -2.2306111333363026,
                -2.4399944835729097,
                1.4118477360775556,
                0.21895632438540624,
                -0.03869309255407152
            ]
        },
        {
            "positions": [
                -0.09419443868767441,
                -2.1824167945310795,
                -2.4951669786110915,
                1.339101643221991,
                0.2589248810421437,
                -0.11449187383780604
            ]
        },
        {
            "positions": [
                -0.022602441523025638,
                -2.118010443028985,
                -2.4694708730736012,
                1.383119779382691,
                0.3124679407468846,
                -0.09489210489082991
            ]
        },
        {
            "positions": [
                0.048989555641623134,
                -2.053604091526891,
                -2.443774767536111,
                1.4271379155433912,
                0.36601100045162555,
                -0.0752923359438538
            ]
        },
        {
            "positions": [
                0.045614878546928125,
                -2.056550386979619,
                -2.419193713660875,
                1.2763981358151,
                0.2872331084043662,
                -0.19571115379048426
            ]
        },
        {
            "positions": [
                0.04224020145223312,
                -2.0594966824323477,
                -2.3946126597856394,
                1.1256583560868085,
                0.20845521635710693,
                -0.31612997163711476
            ]
        },
        {
            "positions": [
                0.03886552435753811,
                -2.062442977885076,
                -2.3700316059104036,
                0.9749185763585174,
                0.12967732430984763,
                -0.4365487894837452
            ]
        },
        {
            "positions": [
                0.0354908472628431,
                -2.065389273337804,
                -2.345450552035168,
                0.8241787966302261,
                0.05089943226258831,
                -0.5569676073303756
            ]
        },
        {
            "positions": [
                0.03211617016814809,
                -2.0683355687905327,
                -2.320869498159932,
                0.6734390169019349,
                -0.027878459784671017,
                -0.6773864251770062
            ]
        },
        {
            "positions": [
                0.02874149307345309,
                -2.071281864243261,
                -2.2962884442846963,
                0.5226992371736436,
                -0.10665635183193029,
                -0.7978052430236365
            ]
        },
        {
            "positions": [
                0.025366815978758082,
                -2.074228159695989,
                -2.2717073904094605,
                0.3719594574453522,
                -0.18543424387918966,
                -0.9182240608702672
            ]
        },
        {
            "positions": [
                0.021992138884063074,
                -2.0771744551487177,
                -2.2471263365342247,
                0.22121967771706097,
                -0.26421213592644893,
                -1.0386428787168975
            ]
        },
        {
            "positions": [
                0.01861746178936807,
                -2.080120750601446,
                -2.222545282658989,
                0.07047989798876975,
                -0.3429900279737082,
                -1.159061696563528
            ]
        },
        {
            "positions": [
                0.015242784694673057,
                -2.083067046054174,
                -2.197964228783753,
                -0.08025988173952148,
                -0.4217679200209676,
                -1.2794805144101586
            ]
        },
        {
            "positions": [
                0.011868107599978056,
                -2.0860133415069027,
                -2.1733831749085173,
                -0.2309996614678127,
                -0.5005458120682269,
                -1.399899332256789
            ]
        },
        {
            "positions": [
                0.008493430505283048,
                -2.088959636959631,
                -2.148802121033281,
                -0.3817394411961039,
                -0.5793237041154862,
                -1.5203181501034193
            ]
        },
        {
            "positions": [
                0.0051187534105880395,
                -2.091905932412359,
                -2.1242210671580457,
                -0.5324792209243954,
                -0.6581015961627454,
                -1.64073696795005
            ]
        },
        {
            "positions": [
                0.0017440763158930311,
                -2.094852227865087,
                -2.0996400132828095,
                -0.6832190006526868,
                -0.7368794882100049,
                -1.7611557857966806
            ]
        },
        {
            "positions": [
                -0.0016306007788019702,
                -2.097798523317816,
                -2.0750589594075737,
                -0.8339587803809778,
                -0.815657380257264,
                -1.8815746036433108
            ]
        },
        {
            "positions": [
                -0.0050052778734969855,
                -2.100744818770544,
                -2.050477905532338,
                -0.9846985601092693,
                -0.8944352723045235,
                -2.0019934214899413
            ]
        },
        {
            "positions": [
                -0.008379954968191994,
                -2.103691114223272,
                -2.025896851657102,
                -1.1354383398375607,
                -0.9732131643517827,
                -2.122412239336572
            ]
        },
        {
            "positions": [
                -0.011754632062886995,
                -2.1066374096760008,
                -2.0013157977818663,
                -1.2861781195658517,
                -1.051991056399042,
                -2.2428310571832024
            ]
        },
        {
            "positions": [
                -0.01512930915758201,
                -2.109583705128729,
                -1.9767347439066305,
                -1.4369178992941427,
                -1.1307689484463013,
                -2.3632498750298327
            ]
        },
        {
            "positions": [
                -0.01850398625227702,
                -2.112530000581457,
                -1.9521536900313947,
                -1.5876576790224342,
                -1.2095468404935608,
                -2.4836686928764635
            ]
        },
        {
            "positions": [
                -0.021878663346972013,
                -2.1154762960341857,
                -1.927572636156159,
                -1.7383974587507252,
                -1.2883247325408198,
                -2.604087510723094
            ]
        },
        {
            "positions": [
                -0.02525334044166702,
                -2.118422591486914,
                -1.9029915822809231,
                -1.8891372384790166,
                -1.3671026245880793,
                -2.724506328569724
            ]
        },
        {
            "positions": [
                -0.02862801753636203,
                -2.121368886939642,
                -1.8784105284056873,
                -2.0398770182073083,
                -1.4458805166353386,
                -2.844925146416355
            ]
        },
        {
            "positions": [
                -0.03200269463105704,
                -2.1243151823923707,
                -1.8538294745304515,
                -2.190616797935599,
                -1.5246584086825978,
                -2.965343964262985
            ]
        },
        {
            "positions": [
                -0.035377371725752046,
                -2.127261477845099,
                -1.8292484206552158,
                -2.3413565776638907,
                -1.603436300729857,
                -3.0857627821096156
            ]
        }
    ]
}