{
    "goal": {
        "global_pose": {
            "orientation": {
                "w": -0.4816463035849501,
                "x": 0.5182115481033762,
                "y": 0.4908360881923453,
                "z": -0.5084816262002911
            },
            "position": {
                "x": -0.8240239810943604,
                "y": -0.300875300988555,
                "z": 0.16403168439865112
            }
        },
        "name": "move_to_storage_C"
    },
    "id": "STRIDE_move_to_storage_C_123",
    "joint_names": [
        "shoulder_pan_joint",
        "shoulder_lift_joint",
        "elbow_joint",
        "wrist_1_joint",
        "wrist_2_joint",
        "wrist_3_joint"
    ],
    "metrics": {
        "cart_traj_len": 0.5770721663007978,
        "distance_elbow_joint": 0.25752989857523234,
        "distance_shoulder_lift_joint": 0.18957375755789174,
        "distance_shoulder_pan_joint": 0.49591642821681514,
        "distance_wrist_1_joint": 0.0781190675646114,
        "distance_wrist_2_joint": 1.063527890144817,
        "distance_wrist_3_joint": 0.06861953553329547,
        "smoothness": 2.5376526478085547e-16,
        "time": 0.013718543000000001,
        "traj_len": 1.4674081155536325,
        "weighted_distance": 1.852612373479321
    },
    "planner": "STRIDE",
    "start": {
        "state": {
            "elbow_joint": 2.010868314990456,
            "shoulder_lift_joint": -1.1634956873337592,
            "shoulder_pan_joint": -2.4736205022346125,
            "wrist_1_joint": -0.8367026794202681,
            "wrist_2_joint": 0.6746043897044499,
            "wrist_3_joint": -3.1496632123970403
        }
    },
    "waypoints": [
        {
            "positions": [
                -2.4736205022346125,
                -1.1634956873337592,
                2.010868314990456,
                -0.8367026794202681,
                0.6746043897044499,
                -3.1496632123970403
            ]
        },
        {
            "positions": [
                -2.556273240270748,
                -1.1319000610741106,
                1.9679466652279172,
                -0.8236828348261662,
                0.8518590380619194,
                -3.138226623141491
            ]
        },
        {
            "positions": [
                -2.6389259783068844,
                -1.100304434814462,
                1.9250250154653783,
                -0.8106629902320643,
                1.029113686419389,
                -3.126790033885942
            ]
        },
        {
            "positions": [
                -2.72157871634302,
                -1.0687088085548133,
                1.8821033657028396,
                -0.7976431456379625,
                1.2063683347768586,
                -3.1153534446303928
            ]
        },
        {
            "positions": [
                -2.8042314543791558,
                -1.0371131822951647,
                1.839181715940301,
                -0.7846233010438605,
                1.383622983134328,
                -3.1039168553748433
            ]
        },
        {
            "positions": [
                -2.886884192415292,
                -1.005517556035516,
                1.7962600661777621,
                -0.7716034564497586,
                1.5608776314917976,
                -3.092480266119294
            ]
        },
        {
            "positions": [
                -2.9695369304514276,
                -0.9739219297758674,
                1.7533384164152235,
                -0.7585836118556567,
                1.738132279849267,
                -3.081043676863745
            ]
        }
    ]
}