{
    "goal": {
        "global_pose": {
            "orientation": {
                "w": -0.4816463035849501,
                "x": 0.5182115481033762,
                "y": 0.4908360881923453,
                "z": -0.5084816262002911
            },
            "position": {
                "x": -0.8240239810943604,
                "y": -0.300875300988555,
                "z": 0.16403168439865112
            }
        },
        "name": "move_to_storage_C"
    },
    "id": "STRIDE_move_to_storage_C_65",
    "joint_names": [
        "shoulder_pan_joint",
        "shoulder_lift_joint",
        "elbow_joint",
        "wrist_1_joint",
        "wrist_2_joint",
        "wrist_3_joint"
    ],
    "metrics": {
        "cart_traj_len": 0.5771618284861105,
        "distance_elbow_joint": 0.2576141225601478,
        "distance_shoulder_lift_joint": 0.18948139762698712,
        "distance_shoulder_pan_joint": 0.4953828938750111,
        "distance_wrist_1_joint": 0.07284494584341383,
        "distance_wrist_2_joint": 1.0642689797712594,
        "distance_wrist_3_joint": 0.07037026731247176,
        "smoothness": 5.075305295617109e-16,
        "time": 0.04557965,
        "traj_len": 1.4662750788952568,
        "weighted_distance": 1.851436487495293
    },
    "planner": "STRIDE",
    "start": {
        "state": {
            "elbow_joint": 2.010868314990456,
            "shoulder_lift_joint": -1.1634956873337592,
            "shoulder_pan_joint": -2.4736205022346125,
            "wrist_1_joint": -0.8367026794202681,
            "wrist_2_joint": 0.6746043897044499,
            "wrist_3_joint": -3.1496632123970403
        }
    },
    "waypoints": [
        {
            "positions": [
                -2.4736205022346125,
                -1.1634956873337592,
                2.010868314990456,
                -0.8367026794202681,
                0.6746043897044499,
                -3.1496632123970403
            ]
        },
        {
            "positions": [
                -2.5561843178804478,
                -1.131915454395928,
                1.9679326278970979,
                -0.8245618551130325,
                0.8519825529996599,
                -3.1379348345116282
            ]
        },
        {
            "positions": [
                -2.638748133526283,
                -1.1003352214580968,
                1.92499694080374,
                -0.8124210308057969,
                1.0293607162948697,
                -3.126206456626216
            ]
        },
        {
            "positions": [
                -2.721311949172118,
                -1.0687549885202656,
                1.8820612537103818,
                -0.8002802064985612,
                1.2067388795900795,
                -3.114478078740804
            ]
        },
        {
            "positions": [
                -2.803875764817953,
                -1.0371747555824344,
                1.8391255666170239,
                -0.7881393821913255,
                1.3841170428852894,
                -3.1027497008553926
            ]
        },
        {
            "positions": [
                -2.8864395804637883,
                -1.0055945226446033,
                1.796189879523666,
                -0.7759985578840899,
                1.5614952061804996,
                -3.0910213229699806
            ]
        },
        {
            "positions": [
                -2.9690033961096236,
                -0.9740142897067721,
                1.753254192430308,
                -0.7638577335768543,
                1.7388733694757095,
                -3.0792929450845685
            ]
        }
    ]
}