{
    "goal": {
        "global_pose": {
            "orientation": {
                "w": -0.00223480608172531,
                "x": 0.0024358444001904467,
                "y": 0.7094548369677653,
                "z": -0.704743149386269
            },
            "position": {
                "x": 0.6205249238014221,
                "y": -0.6371506643295288,
                "z": 0.19426114857196808
            }
        },
        "name": "move_to_magneteinheit_B"
    },
    "id": "STRIDE_move_to_magneteinheit_B_101",
    "joint_names": [
        "shoulder_pan_joint",
        "shoulder_lift_joint",
        "elbow_joint",
        "wrist_1_joint",
        "wrist_2_joint",
        "wrist_3_joint"
    ],
    "metrics": {
        "cart_traj_len": 1.8419886556947453,
        "distance_elbow_joint": 1.2965214587918512,
        "distance_shoulder_lift_joint": 1.0215993842060793,
        "distance_shoulder_pan_joint": 1.8688387462949636,
        "distance_wrist_1_joint": 0.6900153381167566,
        "distance_wrist_2_joint": 3.8684232445900957,
        "distance_wrist_3_joint": 0.45763887193047076,
        "smoothness": 0.8427817208257911,
        "time": 0.489934555,
        "traj_len": 3.0336507781763906,
        "weighted_distance": 3.831025107004393
    },
    "planner": "STRIDE",
    "start": {
        "state": {
            "elbow_joint": 2.6216224122426386,
            "shoulder_lift_joint": -1.4174107377796124,
            "shoulder_pan_joint": 0.7066234856936794,
            "wrist_1_joint": 1.9546482284002225,
            "wrist_2_joint": -0.7096286983471962,
            "wrist_3_joint": 0.005740856962016249
        }
    },
    "waypoints": [
        {
            "positions": [
                0.7066234856936794,
                -1.4174107377796124,
                2.6216224122426386,
                1.9546482284002225,
                -0.7096286983471962,
                0.005740856962016249
            ]
        },
        {
            "positions": [
                0.7375356153268783,
                -1.450706924159334,
                2.6642880714704136,
                1.9992995008517922,
                -0.5906615815384498,
                -0.050771641996952735
            ]
        },
        {
            "positions": [
                0.7684477449600773,
                -1.4840031105390556,
                2.706953730698188,
                2.043950773303362,
                -0.4716944647297035,
                -0.10728414095592172
            ]
        },
        {
            "positions": [
                0.7993598745932762,
                -1.517299296918777,
                2.7496193899259627,
                2.0886020457549317,
                -0.35272734792095717,
                -0.16379663991489068
            ]
        },
        {
            "positions": [
                0.8302720042264751,
                -1.5505954832984987,
                2.7922850491537377,
                2.1332533182065014,
                -0.23376023111221078,
                -0.22030913887385967
            ]
        },
        {
            "positions": [
                0.7135468520516159,
                -1.5013962860908374,
                2.721948515619593,
                2.1626349224433916,
                -0.15591137108350184,
                -0.19461969675704704
            ]
        },
        {
            "positions": [
                0.5968216998767567,
                -1.452197088883176,
                2.651611982085449,
                2.192016526680282,
                -0.0780625110547929,
                -0.16893025464023442
            ]
        },
        {
            "positions": [
                0.4800965477018976,
                -1.4029978916755146,
                2.5812754485513043,
                2.221398130917172,
                -0.0002136510260839497,
                -0.1432408125234218
            ]
        },
        {
            "positions": [
                0.3633713955270384,
                -1.3537986944678533,
                2.5109389150171597,
                2.250779735154062,
                0.077635209002625,
                -0.11755137040660918
            ]
        },
        {
            "positions": [
                0.24664624335217922,
                -1.3045994972601918,
                2.4406023814830156,
                2.280161339390952,
                0.15548406903133394,
                -0.09186192828979656
            ]
        },
        {
            "positions": [
                0.1299210911773201,
                -1.2554003000525304,
                2.370265847948871,
                2.309542943627842,
                0.23333292906004288,
                -0.06617248617298394
            ]
        },
        {
            "positions": [
                0.013195939002460855,
                -1.2062011028448691,
                2.2999293144147264,
                2.3389245478647323,
                0.3111817890887518,
                -0.04048304405617131
            ]
        },
        {
            "positions": [
                -0.10352921317239827,
                -1.1570019056372076,
                2.229592780880582,
                2.3683061521016224,
                0.38903064911746077,
                -0.014793601939358691
            ]
        },
        {
            "positions": [
                -0.2202543653472575,
                -1.1078027084295463,
                2.1592562473464376,
                2.3976877563385126,
                0.4668795091461697,
                0.01089584017745393
            ]
        },
        {
            "positions": [
                -0.2781430201962938,
                -1.0706675531113596,
                2.1181870790069834,
                2.3771064388236405,
                0.2425532560547755,
                0.010927831597727386
            ]
        },
        {
            "positions": [
                -0.33603167504533005,
                -1.033532397793173,
                2.077117910667529,
                2.3565251213087683,
                0.01822700296338131,
                0.010959823018000841
            ]
        },
        {
            "positions": [
                -0.39392032989436637,
                -0.9963972424749862,
                2.0360487423280746,
                2.3359438037938958,
                -0.2060992501280129,
                0.010991814438274298
            ]
        },
        {
            "positions": [
                -0.45180898474340264,
                -0.9592620871567995,
                1.9949795739886202,
                2.3153624862790236,
                -0.4304255032194071,
                0.011023805858547753
            ]
        },
        {
            "positions": [
                -0.509697639592439,
                -0.9221269318386127,
                1.9539104056491658,
                2.2947811687641515,
                -0.6547517563108014,
                0.011055797278821208
            ]
        },
        {
            "positions": [
                -0.5675862944414752,
                -0.884991776520426,
                1.9128412373097117,
                2.2741998512492794,
                -0.8790780094021955,
                0.011087788699094664
            ]
        },
        {
            "positions": [
                -0.6254749492905116,
                -0.8478566212022394,
                1.8717720689702573,
                2.2536185337344072,
                -1.1034042624935898,
                0.011119780119368119
            ]
        },
        {
            "positions": [
                -0.6833636041395478,
                -0.8107214658840527,
                1.8307029006308029,
                2.233037216219535,
                -1.327730515584984,
                0.011151771539641574
            ]
        },
        {
            "positions": [
                -0.7412522589885842,
                -0.7735863105658659,
                1.7896337322913485,
                2.212455898704663,
                -1.552056768676378,
                0.01118376295991503
            ]
        },
        {
            "positions": [
                -0.7991409138376204,
                -0.7364511552476791,
                1.748564563951894,
                2.1918745811897904,
                -1.7763830217677725,
                0.011215754380188486
            ]
        },
        {
            "positions": [
                -0.8570295686866567,
                -0.6993159999294924,
                1.70749539561244,
                2.1712932636749183,
                -2.0007092748591666,
                0.011247745800461941
            ]
        },
        {
            "positions": [
                -0.914918223535693,
                -0.6621808446113058,
                1.6664262272729855,
                2.150711946160046,
                -2.2250355279505607,
                0.011279737220735397
            ]
        }
    ]
}