{
    "goal": {
        "global_pose": {
            "orientation": {
                "w": 0.5084816217422485,
                "x": -0.49083608388900757,
                "y": 0.5182115435600281,
                "z": -0.4816462993621826
            },
            "position": {
                "x": 0.5540239810943604,
                "y": 0.030875300988554955,
                "z": 0.16403168439865112
            }
        },
        "name": "move_to_storage_A"
    },
    "id": "STRIDE_move_to_storage_A_148",
    "joint_names": [
        "shoulder_pan_joint",
        "shoulder_lift_joint",
        "elbow_joint",
        "wrist_1_joint",
        "wrist_2_joint",
        "wrist_3_joint"
    ],
    "metrics": {
        "cart_traj_len": 0.35341802310537473,
        "distance_elbow_joint": 0.44908202294560184,
        "distance_shoulder_lift_joint": 0.2345231785311619,
        "distance_shoulder_pan_joint": 0.4632367404962261,
        "distance_wrist_1_joint": 0.24154048439790066,
        "distance_wrist_2_joint": 1.0944312479407834,
        "distance_wrist_3_joint": 0.10687656852225746,
        "smoothness": 0.0,
        "time": 0.121229817,
        "traj_len": 1.6092514541966185,
        "weighted_distance": 2.034555261529441
    },
    "planner": "STRIDE",
    "start": {
        "state": {
            "elbow_joint": 1.971548259319323,
            "shoulder_lift_joint": -1.1394851275133948,
            "shoulder_pan_joint": 0.1228115487234821,
            "wrist_1_joint": -0.7804723859257726,
            "wrist_2_joint": 0.12958671773740124,
            "wrist_3_joint": -3.192489227718131
        }
    },
    "waypoints": [
        {
            "positions": [
                0.1228115487234821,
                -1.1394851275133948,
                1.971548259319323,
                -0.7804723859257726,
                0.12958671773740124,
                -3.192489227718131
            ]
        },
        {
            "positions": [
                0.05663487150973552,
                -1.1729884387321323,
                2.0357028340258374,
                -0.814978169411187,
                0.28593403887179886,
                -3.1772211465006657
            ]
        },
        {
            "positions": [
                -0.009541805704011058,
                -1.2064917499508696,
                2.099857408732352,
                -0.8494839528966014,
                0.44228136000619644,
                -3.1619530652832006
            ]
        },
        {
            "positions": [
                -0.07571848291775765,
                -1.2399950611696071,
                2.1640119834388667,
                -0.8839897363820157,
                0.5986286811405941,
                -3.146684984065735
            ]
        },
        {
            "positions": [
                -0.14189516013150422,
                -1.2734983723883444,
                2.2281665581453813,
                -0.9184955198674302,
                0.7549760022749917,
                -3.1314169028482697
            ]
        },
        {
            "positions": [
                -0.2080718373452508,
                -1.307001683607082,
                2.292321132851896,
                -0.9530013033528445,
                0.9113233234093894,
                -3.116148821630804
            ]
        },
        {
            "positions": [
                -0.2742485145589974,
                -1.3405049948258192,
                2.35647570755841,
                -0.9875070868382589,
                1.067670644543787,
                -3.100880740413339
            ]
        },
        {
            "positions": [
                -0.340425191772744,
                -1.3740083060445567,
                2.420630282264925,
                -1.0220128703236733,
                1.2240179656781847,
                -3.0856126591958737
            ]
        }
    ]
}{
    "goal": {
        "global_pose": {
            "orientation": {
                "w": 0.5084816217422485,
                "x": -0.49083608388900757,
                "y": 0.5182115435600281,
                "z": -0.4816462993621826
            },
            "position": {
                "x": 0.5540239810943604,
                "y": 0.030875300988554955,
                "z": 0.16403168439865112
            }
        },
        "name": "move_to_storage_A"
    },
    "id": "STRIDE_move_to_storage_A_148",
    "joint_names": [
        "shoulder_pan_joint",
        "shoulder_lift_joint",
        "elbow_joint",
        "wrist_1_joint",
        "wrist_2_joint",
        "wrist_3_joint"
    ],
    "metrics": {
        "cart_traj_len": 0.352124318088238,
        "distance_elbow_joint": 0.44825492114727705,
        "distance_shoulder_lift_joint": 0.23392824343859053,
        "distance_shoulder_pan_joint": 0.4613459621070675,
        "distance_wrist_1_joint": 0.235840481077648,
        "distance_wrist_2_joint": 1.0927993983968018,
        "distance_wrist_3_joint": 0.0888395791448291,
        "smoothness": 8.881784232165597e-16,
        "time": 0.174144257,
        "traj_len": 1.6003151518723473,
        "weighted_distance": 2.01676166739561
    },
    "planner": "STRIDE",
    "start": {
        "state": {
            "elbow_joint": 1.97154746011099,
            "shoulder_lift_joint": -1.13948474672311,
            "shoulder_pan_joint": 0.12281154466712228,
            "wrist_1_joint": -0.7804688027058302,
            "wrist_2_joint": 0.12958655903071145,
            "wrist_3_joint": 3.0906928834467795
        }
    },
    "waypoints": [
        {
            "positions": [
                0.12281154466712228,
                -1.13948474672311,
                1.97154746011099,
                -0.7804688027058302,
                0.12958655903071145,
                3.0906928834467795
            ]
        },
        {
            "positions": [
                0.05690497865182692,
                -1.1729030672143372,
                2.0355838774177437,
                -0.8141603000026371,
                0.2857007588016831,
                3.1033842518960406
            ]
        },
        {
            "positions": [
                -0.009001587363468441,
                -1.2063213877055643,
                2.0996202947244975,
                -0.8478517972994439,
                0.44181495857265485,
                3.116075620345302
            ]
        },
        {
            "positions": [
                -0.07490815337876379,
                -1.2397397081967916,
                2.1636567120312513,
                -0.8815432945962507,
                0.5979291583436265,
                3.1287669887945633
            ]
        },
        {
            "positions": [
                -0.14081471939405915,
                -1.2731580286880189,
                2.2276931293380056,
                -0.9152347918930576,
                0.7540433581145982,
                3.141458357243825
            ]
        },
        {
            "positions": [
                -0.20672128540935453,
                -1.3065763491792461,
                2.2917295466447594,
                -0.9489262891898644,
                0.91015755788557,
                3.154149725693086
            ]
        },
        {
            "positions": [
                -0.27262785142464985,
                -1.3399946696704732,
                2.355765963951513,
                -0.9826177864866713,
                1.0662717576565415,
                3.1668410941423475
            ]
        },
        {
            "positions": [
                -0.3385344174399452,
                -1.3734129901617005,
                2.419802381258267,
                -1.0163092837834782,
                1.2223859574275133,
                3.1795324625916086
            ]
        }
    ]
}{
    "goal": {
        "global_pose": {
            "orientation": {
                "w": 0.5084816217422485,
                "x": -0.49083608388900757,
                "y": 0.5182115435600281,
                "z": -0.4816462993621826
            },
            "position": {
                "x": 0.5540239810943604,
                "y": 0.030875300988554955,
                "z": 0.16403168439865112
            }
        },
        "name": "move_to_storage_A"
    },
    "id": "STRIDE_move_to_storage_A_148",
    "joint_names": [
        "shoulder_pan_joint",
        "shoulder_lift_joint",
        "elbow_joint",
        "wrist_1_joint",
        "wrist_2_joint",
        "wrist_3_joint"
    ],
    "metrics": {
        "cart_traj_len": 0.35344210716214147,
        "distance_elbow_joint": 0.45286874047765746,
        "distance_shoulder_lift_joint": 0.23616879866913454,
        "distance_shoulder_pan_joint": 0.4599633064734918,
        "distance_wrist_1_joint": 0.2532689200039453,
        "distance_wrist_2_joint": 1.110116366516572,
        "distance_wrist_3_joint": 0.09106903047786608,
        "smoothness": 2.2204460668324854e-16,
        "time": 0.04800949,
        "traj_len": 1.6135225943936042,
        "weighted_distance": 2.0369041484799713
    },
    "planner": "STRIDE",
    "start": {
        "state": {
            "elbow_joint": 1.9715472970024885,
            "shoulder_lift_joint": -1.1394870060712896,
            "shoulder_pan_joint": 0.12281152778156021,
            "wrist_1_joint": -0.780463741449964,
            "wrist_2_joint": 0.12958659822042276,
            "wrist_3_joint": 3.090690232415272
        }
    },
    "waypoints": [
        {
            "positions": [
                0.12281152778156021,
                -1.1394870060712896,
                1.9715472970024885,
                -0.780463741449964,
                0.12958659822042276,
                3.090690232415272
            ]
        },
        {
            "positions": [
                0.057102483999632817,
                -1.173225405881166,
                2.03624283135644,
                -0.8166450157362419,
                0.2881746505799331,
                3.10370009391211
            ]
        },
        {
            "positions": [
                -0.008606559782294576,
                -1.2069638056910423,
                2.1009383657103906,
                -0.8528262900225198,
                0.4467627029394433,
                3.1167099554089477
            ]
        },
        {
            "positions": [
                -0.07431560356422198,
                -1.2407022055009187,
                2.165633900064342,
                -0.8890075643087977,
                0.6053507552989537,
                3.129719816905786
            ]
        },
        {
            "positions": [
                -0.14002464734614936,
                -1.274440605310795,
                2.2303294344182927,
                -0.9251888385950756,
                0.7639388076584639,
                3.142729678402624
            ]
        },
        {
            "positions": [
                -0.2057336911280768,
                -1.3081790051206714,
                2.295024968772244,
                -0.9613701128813534,
                0.9225268600179742,
                3.155739539899462
            ]
        },
        {
            "positions": [
                -0.27144273491000415,
                -1.3419174049305478,
                2.3597205031261947,
                -0.9975513871676314,
                1.0811149123774846,
                3.1687494013963
            ]
        },
        {
            "positions": [
                -0.3371517786919316,
                -1.3756558047404241,
                2.424416037480146,
                -1.0337326614539093,
                1.2397029647369948,
                3.181759262893138
            ]
        }
    ]
}