{
    "goal": {
        "global_pose": {
            "orientation": {
                "w": 0.005598929693374612,
                "x": 0.007748599140229565,
                "y": 0.7110244013736278,
                "z": -0.7031023480610252
            },
            "position": {
                "x": 0.1141497679147869,
                "y": -0.7141253447532654,
                "z": 0.3711530566215515
            }
        },
        "name": "move_to_auspresseinheit_B"
    },
    "id": "STRIDE_move_to_auspresseinheit_B_65",
    "joint_names": [
        "shoulder_pan_joint",
        "shoulder_lift_joint",
        "elbow_joint",
        "wrist_1_joint",
        "wrist_2_joint",
        "wrist_3_joint"
    ],
    "metrics": {
        "cart_traj_len": 0.5642709729412592,
        "distance_elbow_joint": 0.06376938503002294,
        "distance_shoulder_lift_joint": 0.2944302985956906,
        "distance_shoulder_pan_joint": 0.5779283042040813,
        "distance_wrist_1_joint": 0.33187748029448105,
        "distance_wrist_2_joint": 0.9855923814022889,
        "distance_wrist_3_joint": 0.0005997196663027893,
        "smoothness": 2.5376526478085547e-16,
        "time": 0.670149909,
        "traj_len": 1.5013985377616657,
        "weighted_distance": 1.8902028648328313
    },
    "planner": "STRIDE",
    "start": {
        "state": {
            "elbow_joint": 2.0193083361928714,
            "shoulder_lift_joint": -1.1220246554650708,
            "shoulder_pan_joint": -1.0952077554168747,
            "wrist_1_joint": -0.8559753972642168,
            "wrist_2_joint": 0.4759566250798843,
            "wrist_3_joint": -3.1240929996934557
        }
    },
    "waypoints": [
        {
            "positions": [
                -1.0952077554168747,
                -1.1220246554650708,
                2.0193083361928714,
                -0.8559753972642168,
                0.4759566250798843,
                -3.1240929996934557
            ]
        },
        {
            "positions": [
                -1.1915291394508882,
                -1.171096371897686,
                2.0086801053545345,
                -0.8006624838818033,
                0.6402220219802658,
                -3.1239930464157384
            ]
        },
        {
            "positions": [
                -1.2878505234849018,
                -1.220168088330301,
                1.998051874516197,
                -0.7453495704993898,
                0.8044874188806472,
                -3.1238930931380215
            ]
        },
        {
            "positions": [
                -1.3841719075189154,
                -1.269239804762916,
                1.98742364367786,
                -0.6900366571169763,
                0.9687528157810288,
                -3.1237931398603043
            ]
        },
        {
            "positions": [
                -1.4804932915529287,
                -1.3183115211955312,
                1.9767954128395229,
                -0.6347237437345628,
                1.1330182126814101,
                -3.123693186582587
            ]
        },
        {
            "positions": [
                -1.5768146755869423,
                -1.3673832376281463,
                1.9661671820011857,
                -0.5794108303521492,
                1.2972836095817917,
                -3.12359323330487
            ]
        },
        {
            "positions": [
                -1.673136059620956,
                -1.4164549540607614,
                1.9555389511628485,
                -0.5240979169697357,
                1.4615490064821732,
                -3.123493280027153
            ]
        }
    ]
}