{
    "goal": {
        "global_pose": {
            "orientation": {
                "w": 0.005598929693374612,
                "x": 0.007748599140229565,
                "y": 0.7110244013736278,
                "z": -0.7031023480610252
            },
            "position": {
                "x": -0.8858502320852131,
                "y": -0.7141253447532654,
                "z": 0.3711530566215515
            }
        },
        "name": "move_to_auspresseinheit_C"
    },
    "id": "STRIDE_move_to_auspresseinheit_C_45",
    "joint_names": [
        "shoulder_pan_joint",
        "shoulder_lift_joint",
        "elbow_joint",
        "wrist_1_joint",
        "wrist_2_joint",
        "wrist_3_joint"
    ],
    "metrics": {
        "cart_traj_len": 0.4932648670856417,
        "distance_elbow_joint": 0.9938465154711248,
        "distance_shoulder_lift_joint": 0.3224712371388613,
        "distance_shoulder_pan_joint": 0.25646785739389566,
        "distance_wrist_1_joint": 0.6567811739212298,
        "distance_wrist_2_joint": 1.3197279588317385,
        "distance_wrist_3_joint": 0.0371791740627927,
        "smoothness": 1.6148698667872622e-16,
        "time": 1.974296688,
        "traj_len": 1.8937988057921153,
        "weighted_distance": 2.3743086146704258
    },
    "planner": "STRIDE",
    "start": {
        "state": {
            "elbow_joint": 1.7527959577737207,
            "shoulder_lift_joint": -0.9740617694225068,
            "shoulder_pan_joint": -2.967991417825858,
            "wrist_1_joint": -0.759517768980727,
            "wrist_2_joint": 1.7443932448377408,
            "wrist_3_joint": -3.0840537646736568
        }
    },
    "waypoints": [
        {
            "positions": [
                -2.967991417825858,
                -0.9740617694225068,
                1.7527959577737207,
                -0.759517768980727,
                1.7443932448377408,
                -3.0840537646736568
            ]
        },
        {
            "positions": [
                -2.9423446320864683,
                -0.9418146457086206,
                1.6534113062266083,
                -0.6938396515886041,
                1.612420448954567,
                -3.087771682079936
            ]
        },
        {
            "positions": [
                -2.9166978463470787,
                -0.9095675219947346,
                1.5540266546794956,
                -0.628161534196481,
                1.480447653071393,
                -3.0914895994862155
            ]
        },
        {
            "positions": [
                -2.891051060607689,
                -0.8773203982808484,
                1.4546420031323832,
                -0.562483416804358,
                1.3484748571882192,
                -3.0952075168924944
            ]
        },
        {
            "positions": [
                -2.8654042748682995,
                -0.8450732745669622,
                1.3552573515852706,
                -0.49680529941223506,
                1.2165020613050452,
                -3.0989254342987738
            ]
        },
        {
            "positions": [
                -2.8397574891289104,
                -0.8128261508530761,
                1.2558727000381582,
                -0.4311271820201121,
                1.0845292654218714,
                -3.102643351705053
            ]
        },
        {
            "positions": [
                -2.8141107033895207,
                -0.78057902713919,
                1.1564880484910458,
                -0.3654490646279891,
                0.9525564695386978,
                -3.1063612691113325
            ]
        },
        {
            "positions": [
                -2.788463917650131,
                -0.7483319034253039,
                1.0571033969439334,
                -0.29977094723586617,
                0.8205836736555239,
                -3.110079186517612
            ]
        },
        {
            "positions": [
                -2.7628171319107415,
                -0.7160847797114178,
                0.9577187453968208,
                -0.23409282984374313,
                0.6886108777723499,
                -3.1137971039238908
            ]
        },
        {
            "positions": [
                -2.737170346171352,
                -0.6838376559975317,
                0.8583340938497084,
                -0.1684147124516201,
                0.5566380818891761,
                -3.11751502133017
            ]
        },
        {
            "positions": [
                -2.7115235604319623,
                -0.6515905322836455,
                0.7589494423025959,
                -0.10273659505949718,
                0.4246652860060023,
                -3.1212329387364495
            ]
        }
    ]
}