{
    "goal": {
        "global_pose": {
            "orientation": {
                "w": 0.7047431493862688,
                "x": -0.7094548369677653,
                "y": 0.0024358444001904,
                "z": -0.0022348060817251984
            },
            "position": {
                "x": -0.39052492380142206,
                "y": 0.3671506643295288,
                "z": 0.19426114857196808
            }
        },
        "name": "move_to_magneteinheit_D"
    },
    "id": "STRIDE_move_to_magneteinheit_D_116",
    "joint_names": [
        "shoulder_pan_joint",
        "shoulder_lift_joint",
        "elbow_joint",
        "wrist_1_joint",
        "wrist_2_joint",
        "wrist_3_joint"
    ],
    "metrics": {
        "cart_traj_len": 4.575022225864618,
        "distance_elbow_joint": 3.550161663146554,
        "distance_shoulder_lift_joint": 1.0984492045156533,
        "distance_shoulder_pan_joint": 3.389023092062265,
        "distance_wrist_1_joint": 2.1320379130705707,
        "distance_wrist_2_joint": 0.6033414767257089,
        "distance_wrist_3_joint": 6.289114304274109,
        "smoothness": 0.3542938146460164,
        "time": 0.629753107,
        "traj_len": 4.130632839383677,
        "weighted_distance": 5.689967983401958
    },
    "planner": "STRIDE",
    "start": {
        "state": {
            "elbow_joint": 0.749534889911806,
            "shoulder_lift_joint": -0.6476975780787326,
            "shoulder_pan_joint": -2.711696901376241,
            "wrist_1_joint": -0.07506478083263063,
            "wrist_2_joint": 0.43296659715538205,
            "wrist_3_joint": -3.14703540197715
        }
    },
    "waypoints": [
        {
            "positions": [
                -2.711696901376241,
                -0.6476975780787326,
                0.749534889911806,
                -0.07506478083263063,
                0.43296659715538205,
                -3.14703540197715
            ]
        },
        {
            "positions": [
                -2.7303751553445292,
                -0.7322158597683041,
                0.8225382084659858,
                -0.06900227966025307,
                0.411340931778941,
                -3.0187024671900247
            ]
        },
        {
            "positions": [
                -2.749053409312818,
                -0.8167341414578754,
                0.8955415270201657,
                -0.06293977848787552,
                0.3897152664025,
                -2.890369532402899
            ]
        },
        {
            "positions": [
                -2.767731663281106,
                -0.9012524231474468,
                0.9685448455743455,
                -0.056877277315497965,
                0.3680896010260589,
                -2.7620365976157735
            ]
        },
        {
            "positions": [
                -2.6898763158271524,
                -0.9215392658110233,
                0.8901533171116737,
                -0.10981095824114345,
                0.35553372470556177,
                -2.609959308909707
            ]
        },
        {
            "positions": [
                -2.6120209683731987,
                -0.9418261084745997,
                0.811761788649002,
                -0.16274463916678894,
                0.3429778483850646,
                -2.4578820202036407
            ]
        },
        {
            "positions": [
                -2.534165620919245,
                -0.9621129511381762,
                0.7333702601863301,
                -0.21567832009243446,
                0.33042197206456747,
                -2.3058047314975743
            ]
        },
        {
            "positions": [
                -2.4563102734652915,
                -0.9823997938017526,
                0.6549787317236584,
                -0.2686120010180799,
                0.3178660957440703,
                -2.153727442791508
            ]
        },
        {
            "positions": [
                -2.3784549260113375,
                -1.002686636465329,
                0.5765872032609866,
                -0.32154568194372546,
                0.30531021942357317,
                -2.001650154085441
            ]
        },
        {
            "positions": [
                -2.300599578557384,
                -1.0229734791289056,
                0.4981956747983148,
                -0.37447936286937095,
                0.292754343103076,
                -1.8495728653793748
            ]
        },
        {
            "positions": [
                -2.2227442311034302,
                -1.043260321792482,
                0.419804146335643,
                -0.42741304379501643,
                0.2801984667825789,
                -1.6974955766733084
            ]
        },
        {
            "positions": [
                -2.1448888836494766,
                -1.0635471644560583,
                0.34141261787297117,
                -0.4803467247206619,
                0.2676425904620818,
                -1.545418287967242
            ]
        },
        {
            "positions": [
                -2.067033536195523,
                -1.0838340071196348,
                0.26302108941029945,
                -0.5332804056463074,
                0.2550867141415846,
                -1.3933409992611754
            ]
        },
        {
            "positions": [
                -1.9891781887415694,
                -1.1041208497832113,
                0.1846295609476276,
                -0.586214086571953,
                0.24253083782108747,
                -1.241263710555109
            ]
        },
        {
            "positions": [
                -1.9113228412876158,
                -1.1244076924467878,
                0.10623803248495578,
                -0.6391477674975985,
                0.22997496150059032,
                -1.0891864218490424
            ]
        },
        {
            "positions": [
                -1.8334674938336621,
                -1.1446945351103643,
                0.027846504022284058,
                -0.6920814484232439,
                0.21741908518009317,
                -0.9371091331429762
            ]
        },
        {
            "positions": [
                -1.7556121463797083,
                -1.1649813777739408,
                -0.050545024440387776,
                -0.7450151293488895,
                0.20486320885959602,
                -0.7850318444369095
            ]
        },
        {
            "positions": [
                -1.6777567989257547,
                -1.1852682204375171,
                -0.1289365529030595,
                -0.7979488102745349,
                0.1923073325390989,
                -0.6329545557308434
            ]
        },
        {
            "positions": [
                -1.599901451471801,
                -1.2055550631010936,
                -0.20732808136573144,
                -0.8508824912001804,
                0.17975145621860172,
                -0.4808772670247765
            ]
        },
        {
            "positions": [
                -1.5220461040178475,
                -1.2258419057646701,
                -0.28571960982840316,
                -0.9038161721258259,
                0.1671955798981046,
                -0.32879997831871055
            ]
        },
        {
            "positions": [
                -1.4441907565638936,
                -1.2461287484282466,
                -0.3641111382910749,
                -0.9567498530514714,
                0.15463970357760745,
                -0.1767226896126437
            ]
        },
        {
            "positions": [
                -1.3663354091099402,
                -1.266415591091823,
                -0.4425026667537466,
                -1.0096835339771169,
                0.1420838272571103,
                -0.024645400906577297
            ]
        },
        {
            "positions": [
                -1.2884800616559864,
                -1.2867024337553996,
                -0.5208941952164186,
                -1.0626172149027624,
                0.12952795093661315,
                0.1274318877994891
            ]
        },
        {
            "positions": [
                -1.2106247142020328,
                -1.3069892764189759,
                -0.5992857236790903,
                -1.115550895828408,
                0.11697207461611603,
                0.2795091765055555
            ]
        },
        {
            "positions": [
                -1.132769366748079,
                -1.3272761190825524,
                -0.6776772521417622,
                -1.1684845767540535,
                0.10441619829561882,
                0.43158646521162236
            ]
        },
        {
            "positions": [
                -1.0549140192941253,
                -1.3475629617461289,
                -0.7560687806044339,
                -1.221418257679699,
                0.09186032197512173,
                0.5836637539176888
            ]
        },
        {
            "positions": [
                -0.9770586718401717,
                -1.3678498044097054,
                -0.8344603090671057,
                -1.2743519386053443,
                0.07930444565462458,
                0.7357410426237547
            ]
        },
        {
            "positions": [
                -0.8992033243862181,
                -1.3881366470732819,
                -0.9128518375297774,
                -1.32728561953099,
                0.06674856933412743,
                0.8878183313298211
            ]
        },
        {
            "positions": [
                -0.8213479769322642,
                -1.4084234897368582,
                -0.9912433659924496,
                -1.3802193004566354,
                0.05419269301363028,
                1.039895620035888
            ]
        },
        {
            "positions": [
                -0.7434926294783106,
                -1.4287103324004349,
                -1.069634894455121,
                -1.433152981382281,
                0.04163681669313313,
                1.1919729087419544
            ]
        },
        {
            "positions": [
                -0.665637282024357,
                -1.4489971750640112,
                -1.1480264229177928,
                -1.4860866623079263,
                0.029080940372635977,
                1.3440501974480203
            ]
        },
        {
            "positions": [
                -0.5877819345704034,
                -1.4692840177275874,
                -1.2264179513804645,
                -1.5390203432335718,
                0.016525064052138883,
                1.4961274861540867
            ]
        },
        {
            "positions": [
                -0.5099265871164498,
                -1.4895708603911642,
                -1.3048094798431367,
                -1.5919540241592174,
                0.003969187731641677,
                1.648204774860154
            ]
        },
        {
            "positions": [
                -0.43207123966249616,
                -1.5098577030547404,
                -1.3832010083058084,
                -1.644887705084863,
                -0.008586688588855473,
                1.8002820635662204
            ]
        },
        {
            "positions": [
                -0.35421589220854255,
                -1.530144545718317,
                -1.46159253676848,
                -1.6978213860105082,
                -0.021142564909352568,
                1.9523593522722869
            ]
        },
        {
            "positions": [
                -0.27636054475458893,
                -1.5504313883818934,
                -1.5399840652311518,
                -1.7507550669361538,
                -0.03369844122984972,
                2.1044366409783524
            ]
        },
        {
            "positions": [
                -0.19850519730063487,
                -1.57071823104547,
                -1.6183755936938236,
                -1.8036887478617993,
                -0.046254317550346924,
                2.2565139296844197
            ]
        },
        {
            "positions": [
                -0.12064984984668126,
                -1.5910050737090464,
                -1.6967671221564953,
                -1.8566224287874449,
                -0.05881019387084402,
                2.408591218390486
            ]
        },
        {
            "positions": [
                -0.04279450239272764,
                -1.6112919163726227,
                -1.775158650619167,
                -1.9095561097130902,
                -0.07136607019134117,
                2.5606685070965525
            ]
        },
        {
            "positions": [
                0.03506084506122553,
                -1.6315787590361992,
                -1.8535501790818387,
                -1.9624897906387357,
                -0.08392194651183832,
                2.712745795802619
            ]
        },
        {
            "positions": [
                0.11291619251517959,
                -1.6518656016997757,
                -1.9319417075445109,
                -2.0154234715643815,
                -0.09647782283233547,
                2.8648230845086853
            ]
        },
        {
            "positions": [
                0.19077153996913307,
                -1.6721524443633522,
                -2.010333236007183,
                -2.0683571524900266,
                -0.10903369915283262,
                3.0169003732147512
            ]
        },
        {
            "positions": [
                0.06594316433341291,
                -1.6968172237736967,
                -2.1277577779746784,
                -2.102480663949663,
                -0.12948075929199734,
                3.0586265495754867
            ]
        },
        {
            "positions": [
                -0.058885211302307255,
                -1.7214820031840414,
                -2.245182319942174,
                -2.1366041754092997,
                -0.14992781943116207,
                3.1003527259362222
            ]
        },
        {
            "positions": [
                -0.18371358693802747,
                -1.746146782594386,
                -2.3626068619096694,
                -2.1707276868689362,
                -0.17037487957032682,
                3.1420789022969577
            ]
        }
    ]
}