{
    "goal": {
        "global_pose": {
            "orientation": {
                "w": 0.7047431493862688,
                "x": -0.7094548369677653,
                "y": 0.0024358444001904,
                "z": -0.0022348060817251984
            },
            "position": {
                "x": -0.39052492380142206,
                "y": 0.3671506643295288,
                "z": 0.19426114857196808
            }
        },
        "name": "move_to_magneteinheit_D"
    },
    "id": "STRIDE_move_to_magneteinheit_D_70",
    "joint_names": [
        "shoulder_pan_joint",
        "shoulder_lift_joint",
        "elbow_joint",
        "wrist_1_joint",
        "wrist_2_joint",
        "wrist_3_joint"
    ],
    "metrics": {
        "cart_traj_len": 8.98360778811124,
        "distance_elbow_joint": 7.5860742819640405,
        "distance_shoulder_lift_joint": 2.2685190508901516,
        "distance_shoulder_pan_joint": 8.843540062217649,
        "distance_wrist_1_joint": 4.85071557120107,
        "distance_wrist_2_joint": 7.459567669164692,
        "distance_wrist_3_joint": 6.1581430250397355,
        "smoothness": 0.4945001295125748,
        "time": 2.038677048,
        "traj_len": 6.096438276606869,
        "weighted_distance": 7.860860573176614
    },
    "planner": "STRIDE",
    "start": {
        "state": {
            "elbow_joint": 0.749534889911806,
            "shoulder_lift_joint": -0.6476975780787326,
            "shoulder_pan_joint": -2.711696901376241,
            "wrist_1_joint": -0.07506478083263063,
            "wrist_2_joint": 0.43296659715538205,
            "wrist_3_joint": -3.14703540197715
        }
    },
    "waypoints": [
        {
            "positions": [
                -2.711696901376241,
                -0.6476975780787326,
                0.749534889911806,
                -0.07506478083263063,
                0.43296659715538205,
                -3.14703540197715
            ]
        },
        {
            "positions": [
                -2.70056671345384,
                -0.7004345845846828,
                0.8032135007236505,
                -0.005408488805272352,
                0.4131581888564452,
                -3.0494760349340018
            ]
        },
        {
            "positions": [
                -2.6894365255314385,
                -0.7531715910906329,
                0.8568921115354949,
                0.06424780322208593,
                0.39334978055750824,
                -2.9519166678908535
            ]
        },
        {
            "positions": [
                -2.5767299832986352,
                -0.7882280969074508,
                0.7383325510247039,
                0.07088883079327866,
                0.3621135368510212,
                -2.8631922247737136
            ]
        },
        {
            "positions": [
                -2.464023441065832,
                -0.8232846027242685,
                0.6197729905139129,
                0.0775298583644714,
                0.3308772931445342,
                -2.7744677816565737
            ]
        },
        {
            "positions": [
                -2.351316898833029,
                -0.8583411085410864,
                0.5012134300031219,
                0.08417088593566413,
                0.29964104943804715,
                -2.6857433385394343
            ]
        },
        {
            "positions": [
                -2.238610356600226,
                -0.8933976143579041,
                0.3826538694923308,
                0.09081191350685687,
                0.26840480573156017,
                -2.5970188954222944
            ]
        },
        {
            "positions": [
                -2.1259038143674225,
                -0.928454120174722,
                0.26409430898153974,
                0.09745294107804961,
                0.2371685620250731,
                -2.5082944523051545
            ]
        },
        {
            "positions": [
                -2.013197272134619,
                -0.9635106259915398,
                0.14553474847074876,
                0.10409396864924235,
                0.2059323183185861,
                -2.4195700091880146
            ]
        },
        {
            "positions": [
                -1.900490729901816,
                -0.9985671318083575,
                0.02697518795995768,
                0.11073499622043509,
                0.17469607461209907,
                -2.3308455660708747
            ]
        },
        {
            "positions": [
                -1.787784187669013,
                -1.0336236376251753,
                -0.09158437255083329,
                0.11737602379162781,
                0.14345983090561207,
                -2.2421211229537352
            ]
        },
        {
            "positions": [
                -1.6750776454362097,
                -1.068680143441993,
                -0.21014393306162427,
                0.12401705136282057,
                0.11222358719912506,
                -2.153396679836595
            ]
        },
        {
            "positions": [
                -1.5623711032034064,
                -1.103736649258811,
                -0.32870349357241546,
                0.13065807893401332,
                0.08098734349263798,
                -2.0646722367194554
            ]
        },
        {
            "positions": [
                -1.4496645609706034,
                -1.1387931550756287,
                -0.44726305408320643,
                0.13729910650520605,
                0.049751099786151,
                -1.9759477936023155
            ]
        },
        {
            "positions": [
                -1.3369580187378,
                -1.1738496608924467,
                -0.5658226145939974,
                0.14394013407639877,
                0.018514856079663966,
                -1.8872233504851756
            ]
        },
        {
            "positions": [
                -1.224251476504997,
                -1.2089061667092644,
                -0.6843821751047884,
                0.1505811616475915,
                -0.01272138762682301,
                -1.798498907368036
            ]
        },
        {
            "positions": [
                -1.1115449342721935,
                -1.2439626725260822,
                -0.8029417356155796,
                0.15722218921878425,
                -0.0439576313333101,
                -1.7097744642508959
            ]
        },
        {
            "positions": [
                -0.9988383920393904,
                -1.2790191783429,
                -0.9215012961263706,
                0.16386321678997698,
                -0.07519387503979713,
                -1.6210500211337562
            ]
        },
        {
            "positions": [
                -0.8861318498065873,
                -1.3140756841597176,
                -1.0400608566371616,
                0.17050424436116973,
                -0.10643011874628411,
                -1.5323255780166165
            ]
        },
        {
            "positions": [
                -0.773425307573784,
                -1.3491321899765356,
                -1.1586204171479526,
                0.17714527193236246,
                -0.1376663624527712,
                -1.4436011348994764
            ]
        },
        {
            "positions": [
                -0.660718765340981,
                -1.3841886957933534,
                -1.2771799776587436,
                0.18378629950355518,
                -0.16890260615925812,
                -1.3548766917823367
            ]
        },
        {
            "positions": [
                -0.5480122231081777,
                -1.4192452016101713,
                -1.3957395381695346,
                0.19042732707474794,
                -0.20013884986574515,
                -1.266152248665197
            ]
        },
        {
            "positions": [
                -0.43530568087537436,
                -1.454301707426989,
                -1.514299098680326,
                0.1970683546459407,
                -0.2313750935722323,
                -1.177427805548057
            ]
        },
        {
            "positions": [
                -0.32259913864257106,
                -1.4893582132438068,
                -1.632858659191117,
                0.20370938221713342,
                -0.2626113372787192,
                -1.0887033624309173
            ]
        },
        {
            "positions": [
                -0.2098925964097682,
                -1.5244147190606245,
                -1.751418219701908,
                0.21035040978832614,
                -0.29384758098520625,
                -0.9999789193137776
            ]
        },
        {
            "positions": [
                -0.09718605417696491,
                -1.5594712248774425,
                -1.869977780212699,
                0.2169914373595189,
                -0.3250838246916933,
                -0.9112544761966377
            ]
        },
        {
            "positions": [
                0.015520488055838472,
                -1.5945277306942602,
                -1.9885373407234899,
                0.22363246493071162,
                -0.35632006839818037,
                -0.822530033079498
            ]
        },
        {
            "positions": [
                0.10517973231242876,
                -1.5849144372435162,
                -1.924238938037734,
                0.17407370575377243,
                -0.24728214680871238,
                -0.7518626325264913
            ]
        },
        {
            "positions": [
                0.19483897656901905,
                -1.5753011437927722,
                -1.8599405353519782,
                0.12451494657683325,
                -0.1382442252192444,
                -0.6811952319734846
            ]
        },
        {
            "positions": [
                0.2844982208256094,
                -1.5656878503420282,
                -1.7956421326662224,
                0.07495618739989407,
                -0.029206303629776442,
                -0.610527831420478
            ]
        },
        {
            "positions": [
                0.3741574650821996,
                -1.5560745568912842,
                -1.7313437299804668,
                0.025397428222954876,
                0.07983161795969157,
                -0.5398604308674713
            ]
        },
        {
            "positions": [
                0.46381670933878993,
                -1.5464612634405401,
                -1.667045327294711,
                -0.02416133095398429,
                0.18886953954915947,
                -0.4691930303144645
            ]
        },
        {
            "positions": [
                0.5534759535953803,
                -1.5368479699897961,
                -1.6027469246089552,
                -0.07372009013092348,
                0.2979074611386275,
                -0.39852562976145783
            ]
        },
        {
            "positions": [
                0.6431351978519705,
                -1.527234676539052,
                -1.5384485219231994,
                -0.12327884930786268,
                0.4069453827280955,
                -0.3278582292084511
            ]
        },
        {
            "positions": [
                0.7327944421085608,
                -1.517621383088308,
                -1.4741501192374438,
                -0.17283760848480187,
                0.5159833043175635,
                -0.2571908286554444
            ]
        },
        {
            "positions": [
                0.822453686365151,
                -1.508008089637564,
                -1.409851716551688,
                -0.222396367661741,
                0.6250212259070314,
                -0.18652342810243783
            ]
        },
        {
            "positions": [
                0.9121129306217414,
                -1.49839479618682,
                -1.3455533138659321,
                -0.2719551268386802,
                0.7340591474964993,
                -0.11585602754943103
            ]
        },
        {
            "positions": [
                1.0017721748783315,
                -1.488781502736076,
                -1.2812549111801763,
                -0.32151388601561937,
                0.8430970690859672,
                -0.04518862699642434
            ]
        },
        {
            "positions": [
                1.091431419134922,
                -1.479168209285332,
                -1.2169565084944205,
                -0.37107264519255856,
                0.9521349906754353,
                0.025478773556582346
            ]
        },
        {
            "positions": [
                1.1810906633915121,
                -1.469554915834588,
                -1.1526581058086647,
                -0.42063140436949775,
                1.0611729122649032,
                0.09614617410958903
            ]
        },
        {
            "positions": [
                1.2707499076481024,
                -1.459941622383844,
                -1.0883597031229089,
                -0.47019016354643695,
                1.1702108338543713,
                0.16681357466259583
            ]
        },
        {
            "positions": [
                1.3604091519046926,
                -1.4503283289331002,
                -1.0240613004371533,
                -0.519748922723376,
                1.2792487554438392,
                0.2374809752156024
            ]
        },
        {
            "positions": [
                1.450068396161283,
                -1.4407150354823561,
                -0.9597628977513974,
                -0.5693076819003153,
                1.3882866770333073,
                0.3081483757686092
            ]
        },
        {
            "positions": [
                1.5397276404178732,
                -1.4311017420316121,
                -0.8954644950656416,
                -0.6188664410772544,
                1.497324598622775,
                0.3788157763216158
            ]
        },
        {
            "positions": [
                1.6293868846744635,
                -1.421488448580868,
                -0.831166092379886,
                -0.6684252002541936,
                1.606362520212243,
                0.44948317687462236
            ]
        },
        {
            "positions": [
                1.719046128931054,
                -1.411875155130124,
                -0.76686768969413,
                -0.7179839594311329,
                1.7154004418017113,
                0.5201505774276294
            ]
        },
        {
            "positions": [
                1.8087053731876441,
                -1.40226186167938,
                -0.7025692870083742,
                -0.767542718608072,
                1.824438363391179,
                0.590817977980636
            ]
        },
        {
            "positions": [
                1.8983646174442343,
                -1.392648568228636,
                -0.6382708843226186,
                -0.8171014777850111,
                1.933476284980647,
                0.6614853785336425
            ]
        },
        {
            "positions": [
                1.9880238617008246,
                -1.383035274777892,
                -0.5739724816368628,
                -0.8666602369619504,
                2.042514206570115,
                0.7321527790866493
            ]
        },
        {
            "positions": [
                2.0776831059574152,
                -1.373421981327148,
                -0.509674078951107,
                -0.9162189961388897,
                2.1515521281595835,
                0.8028201796396561
            ]
        },
        {
            "positions": [
                2.1673423502140055,
                -1.363808687876404,
                -0.44537567626535113,
                -0.9657777553158288,
                2.260590049749051,
                0.8734875801926627
            ]
        },
        {
            "positions": [
                2.2570015944705957,
                -1.35419539442566,
                -0.38107727357959553,
                -1.015336514492768,
                2.3696279713385193,
                0.9441549807456695
            ]
        },
        {
            "positions": [
                2.346660838727186,
                -1.344582100974916,
                -0.3167788708938397,
                -1.0648952736697073,
                2.478665892927987,
                1.014822381298676
            ]
        },
        {
            "positions": [
                2.436320082983776,
                -1.334968807524172,
                -0.2524804682080837,
                -1.1144540328466466,
                2.587703814517455,
                1.0854897818516829
            ]
        },
        {
            "positions": [
                2.5259793272403663,
                -1.3253555140734279,
                -0.18818206552232808,
                -1.1640127920235857,
                2.6967417361069232,
                1.1561571824046897
            ]
        },
        {
            "positions": [
                2.6156385714969566,
                -1.3157422206226839,
                -0.12388366283657226,
                -1.2135715512005247,
                2.805779657696391,
                1.2268245829576963
            ]
        },
        {
            "positions": [
                2.7052978157535468,
                -1.3061289271719398,
                -0.059585260150816666,
                -1.2631303103774638,
                2.914817579285859,
                1.2974919835107028
            ]
        },
        {
            "positions": [
                2.7949570600101374,
                -1.2965156337211958,
                0.004713142534939374,
                -1.3126890695544031,
                3.023855500875327,
                1.3681593840637098
            ]
        },
        {
            "positions": [
                2.8846163042667277,
                -1.2869023402704518,
                0.06901154522069497,
                -1.3622478287313424,
                3.1328934224647953,
                1.4388267846167164
            ]
        },
        {
            "positions": [
                2.974275548523318,
                -1.2772890468197078,
                0.1333099479064508,
                -1.4118065879082815,
                3.241931344054263,
                1.5094941851697228
            ]
        },
        {
            "positions": [
                2.8865653370700377,
                -1.3051904416641542,
                0.063547716810578,
                -1.330790497002761,
                3.1565971887443,
                1.4677827007838102
            ]
        },
        {
            "positions": [
                2.798855125616757,
                -1.3330918365086006,
                -0.006214514285294792,
                -1.2497744060972409,
                3.0712630334343363,
                1.4260712163978975
            ]
        },
        {
            "positions": [
                2.711144914163477,
                -1.360993231353047,
                -0.07597674538116761,
                -1.1687583151917207,
                2.985928878124373,
                1.384359732011985
            ]
        },
        {
            "positions": [
                2.6234347027101967,
                -1.3888946261974935,
                -0.14573897647704037,
                -1.0877422242862003,
                2.90059472281441,
                1.3426482476260722
            ]
        },
        {
            "positions": [
                2.535724491256916,
                -1.41679602104194,
                -0.21550120757291324,
                -1.0067261333806798,
                2.815260567504447,
                1.3009367632401596
            ]
        },
        {
            "positions": [
                2.448014279803636,
                -1.4446974158863863,
                -0.285263438668786,
                -0.9257100424751596,
                2.7299264121944837,
                1.259225278854247
            ]
        },
        {
            "positions": [
                2.3603040683503558,
                -1.4725988107308328,
                -0.3550256697646588,
                -0.8446939515696393,
                2.64459225688452,
                1.2175137944683343
            ]
        },
        {
            "positions": [
                2.2725938568970756,
                -1.5005002055752792,
                -0.42478790086053153,
                -0.763677860664119,
                2.559258101574557,
                1.1758023100824218
            ]
        },
        {
            "positions": [
                2.184883645443795,
                -1.5284016004197256,
                -0.4945501319564044,
                -0.6826617697585987,
                2.473923946264594,
                1.134090825696509
            ]
        },
        {
            "positions": [
                2.097173433990515,
                -1.556302995264172,
                -0.5643123630522773,
                -0.6016456788530784,
                2.3885897909546303,
                1.0923793413105964
            ]
        },
        {
            "positions": [
                2.009463222537234,
                -1.5842043901086187,
                -0.63407459414815,
                -0.520629587947558,
                2.303255635644667,
                1.0506678569246837
            ]
        },
        {
            "positions": [
                1.9217530110839542,
                -1.612105784953065,
                -0.7038368252440228,
                -0.4396134970420378,
                2.217921480334704,
                1.0089563725387711
            ]
        },
        {
            "positions": [
                1.8340427996306738,
                -1.6400071797975115,
                -0.7735990563398956,
                -0.3585974061365176,
                2.132587325024741,
                0.9672448881528585
            ]
        },
        {
            "positions": [
                1.7463325881773935,
                -1.667908574641958,
                -0.8433612874357684,
                -0.27758131523099716,
                2.0472531697147778,
                0.9255334037669458
            ]
        },
        {
            "positions": [
                1.6586223767241133,
                -1.6958099694864044,
                -0.9131235185316413,
                -0.19656522432547674,
                1.9619190144048142,
                0.8838219193810332
            ]
        },
        {
            "positions": [
                1.570912165270833,
                -1.7237113643308508,
                -0.9828857496275138,
                -0.11554913341995654,
                1.876584859094851,
                0.8421104349951206
            ]
        },
        {
            "positions": [
                1.4832019538175527,
                -1.7516127591752972,
                -1.0526479807233868,
                -0.03453304251443634,
                1.791250703784888,
                0.800398950609208
            ]
        },
        {
            "positions": [
                1.3954917423642723,
                -1.7795141540197437,
                -1.1224102118192596,
                0.04648304839108408,
                1.7059165484749246,
                0.7586874662232953
            ]
        },
        {
            "positions": [
                1.307781530910992,
                -1.80741554886419,
                -1.1921724429151324,
                0.1274991392966045,
                1.6205823931649612,
                0.7169759818373826
            ]
        },
        {
            "positions": [
                1.2200713194577115,
                -1.8353169437086365,
                -1.2619346740110053,
                0.2085152302021247,
                1.535248237854998,
                0.67526449745147
            ]
        },
        {
            "positions": [
                1.1323611080044313,
                -1.8632183385530832,
                -1.331696905106878,
                0.2895313211076451,
                1.4499140825450347,
                0.6335530130655573
            ]
        },
        {
            "positions": [
                1.044650896551151,
                -1.8911197333975296,
                -1.4014591362027509,
                0.37054741201316554,
                1.3645799272350714,
                0.5918415286796447
            ]
        },
        {
            "positions": [
                0.9569406850978708,
                -1.9190211282419758,
                -1.4712213672986234,
                0.4515635029186855,
                1.2792457719251085,
                0.5501300442937322
            ]
        },
        {
            "positions": [
                0.8692304736445906,
                -1.9469225230864222,
                -1.5409835983944964,
                0.5325795938242059,
                1.193911616615145,
                0.5084185599078195
            ]
        },
        {
            "positions": [
                0.7815202621913104,
                -1.9748239179308689,
                -1.6107458294903692,
                0.6135956847297264,
                1.108577461305182,
                0.46670707552190693
            ]
        },
        {
            "positions": [
                0.6938100507380298,
                -2.0027253127753153,
                -1.680508060586242,
                0.6946117756352463,
                1.0232433059952188,
                0.42499559113599417
            ]
        },
        {
            "positions": [
                0.6060998392847496,
                -2.0306267076197617,
                -1.750270291682115,
                0.7756278665407668,
                0.9379091506852553,
                0.3832841067500816
            ]
        },
        {
            "positions": [
                0.518389627831469,
                -2.058528102464208,
                -1.8200325227779877,
                0.8566439574462872,
                0.8525749953752921,
                0.34157262236416885
            ]
        },
        {
            "positions": [
                0.43067941637818885,
                -2.0864294973086546,
                -1.8897947538738604,
                0.9376600483518076,
                0.767240840065329,
                0.2998611379782563
            ]
        },
        {
            "positions": [
                0.3429692049249087,
                -2.114330892153101,
                -1.9595569849697334,
                1.018676139257328,
                0.6819066847553654,
                0.25814965359234354
            ]
        },
        {
            "positions": [
                0.25525899347162806,
                -2.1422322869975474,
                -2.029319216065606,
                1.0996922301628484,
                0.5965725294454023,
                0.216438169206431
            ]
        },
        {
            "positions": [
                0.16754878201834833,
                -2.170133681841994,
                -2.0990814471614785,
                1.1807083210683684,
                0.5112383741354392,
                0.17472668482051845
            ]
        },
        {
            "positions": [
                0.07983857056506771,
                -2.1980350766864403,
                -2.1688436782573515,
                1.2617244119738888,
                0.425904218825476,
                0.1330152004346059
            ]
        },
        {
            "positions": [
                -0.007871640888212461,
                -2.2259364715308867,
                -2.2386059093532245,
                1.3427405028794088,
                0.3405700635155129,
                0.09130371604869314
            ]
        },
        {
            "positions": [
                -0.09558185234149308,
                -2.253837866375333,
                -2.308368140449097,
                1.4237565937849292,
                0.2552359082055493,
                0.049592231662780595
            ]
        },
        {
            "positions": [
                -0.18329206379477334,
                -2.2817392612197795,
                -2.37813037154497,
                1.5047726846904497,
                0.1699017528955863,
                0.007880747276867871
            ]
        }
    ]
}