{
    "goal": {
        "global_pose": {
            "orientation": {
                "w": -0.4816463035849501,
                "x": 0.5182115481033762,
                "y": 0.4908360881923453,
                "z": -0.5084816262002911
            },
            "position": {
                "x": -0.8240239810943604,
                "y": -0.300875300988555,
                "z": 0.16403168439865112
            }
        },
        "name": "move_to_storage_C"
    },
    "id": "STRIDE_move_to_storage_C_128",
    "joint_names": [
        "shoulder_pan_joint",
        "shoulder_lift_joint",
        "elbow_joint",
        "wrist_1_joint",
        "wrist_2_joint",
        "wrist_3_joint"
    ],
    "metrics": {
        "cart_traj_len": 0.5769587566264583,
        "distance_elbow_joint": 0.2579974255830504,
        "distance_shoulder_lift_joint": 0.18839856905590824,
        "distance_shoulder_pan_joint": 0.4957408245206958,
        "distance_wrist_1_joint": 0.08297454373488711,
        "distance_wrist_2_joint": 1.0668339461903908,
        "distance_wrist_3_joint": 0.07070279064133045,
        "smoothness": 0.0,
        "time": 0.220025568,
        "traj_len": 1.4705944715407653,
        "weighted_distance": 1.8584569327628233
    },
    "planner": "STRIDE",
    "start": {
        "state": {
            "elbow_joint": 2.010868314990456,
            "shoulder_lift_joint": -1.1634956873337592,
            "shoulder_pan_joint": -2.4736205022346125,
            "wrist_1_joint": -0.8367026794202681,
            "wrist_2_joint": 0.6746043897044499,
            "wrist_3_joint": -3.1496632123970403
        }
    },
    "waypoints": [
        {
            "positions": [
                -2.4736205022346125,
                -1.1634956873337592,
                2.010868314990456,
                -0.8367026794202681,
                0.6746043897044499,
                -3.1496632123970403
            ]
        },
        {
            "positions": [
                -2.556243972988062,
                -1.1320959258244412,
                1.9678687440599474,
                -0.8228735887977869,
                0.8524100474028484,
                -3.1378794139568185
            ]
        },
        {
            "positions": [
                -2.638867443741511,
                -1.1006961643151232,
                1.924869173129439,
                -0.8090444981753058,
                1.0302157051012468,
                -3.1260956155165966
            ]
        },
        {
            "positions": [
                -2.7214909144949604,
                -1.0692964028058052,
                1.8818696021989307,
                -0.7952154075528246,
                1.2080213627996454,
                -3.1143118170763753
            ]
        },
        {
            "positions": [
                -2.80411438524841,
                -1.037896641296487,
                1.8388700312684223,
                -0.7813863169303433,
                1.3858270204980436,
                -3.1025280186361535
            ]
        },
        {
            "positions": [
                -2.886737856001859,
                -1.006496879787169,
                1.7958704603379139,
                -0.7675572263078622,
                1.5636326781964422,
                -3.0907442201959316
            ]
        },
        {
            "positions": [
                -2.9693613267553083,
                -0.975097118277851,
                1.7528708894074054,
                -0.753728135685381,
                1.7414383358948406,
                -3.07896042175571
            ]
        }
    ]
}