{
    "goal": {
        "global_pose": {
            "orientation": {
                "w": -0.4816463035849501,
                "x": 0.5182115481033762,
                "y": 0.4908360881923453,
                "z": -0.5084816262002911
            },
            "position": {
                "x": -0.8240239810943604,
                "y": -0.300875300988555,
                "z": 0.16403168439865112
            }
        },
        "name": "move_to_storage_C"
    },
    "id": "STRIDE_move_to_storage_C_73",
    "joint_names": [
        "shoulder_pan_joint",
        "shoulder_lift_joint",
        "elbow_joint",
        "wrist_1_joint",
        "wrist_2_joint",
        "wrist_3_joint"
    ],
    "metrics": {
        "cart_traj_len": 0.5771473743712779,
        "distance_elbow_joint": 0.26089727701654586,
        "distance_shoulder_lift_joint": 0.1904797772576149,
        "distance_shoulder_pan_joint": 0.49417376581540307,
        "distance_wrist_1_joint": 0.08885713924751415,
        "distance_wrist_2_joint": 1.0760294053710888,
        "distance_wrist_3_joint": 0.07707064648050377,
        "smoothness": 0.0,
        "time": 0.100806773,
        "traj_len": 1.4790226540485005,
        "weighted_distance": 1.8725746577288396
    },
    "planner": "STRIDE",
    "start": {
        "state": {
            "elbow_joint": 2.010868314990456,
            "shoulder_lift_joint": -1.1634956873337592,
            "shoulder_pan_joint": -2.4736205022346125,
            "wrist_1_joint": -0.8367026794202681,
            "wrist_2_joint": 0.6746043897044499,
            "wrist_3_joint": -3.1496632123970403
        }
    },
    "waypoints": [
        {
            "positions": [
                -2.4736205022346125,
                -1.1634956873337592,
                2.010868314990456,
                -0.8367026794202681,
                0.6746043897044499,
                -3.1496632123970403
            ]
        },
        {
            "positions": [
                -2.5559827965371795,
                -1.1317490577908234,
                1.967385435487698,
                -0.821893156212349,
                0.8539426239329647,
                -3.1368181046502897
            ]
        },
        {
            "positions": [
                -2.638345090839747,
                -1.1000024282478875,
                1.9239025559849405,
                -0.8070836330044301,
                1.0332808581614796,
                -3.123972996903539
            ]
        },
        {
            "positions": [
                -2.720707385142314,
                -1.0682557987049517,
                1.880419676482183,
                -0.792274109796511,
                1.2126190923899944,
                -3.1111278891567884
            ]
        },
        {
            "positions": [
                -2.803069679444881,
                -1.0365091691620159,
                1.8369367969794252,
                -0.777464586588592,
                1.3919573266185092,
                -3.0982827814100378
            ]
        },
        {
            "positions": [
                -2.8854319737474485,
                -1.00476253961908,
                1.7934539174766675,
                -0.762655063380673,
                1.571295560847024,
                -3.085437673663287
            ]
        },
        {
            "positions": [
                -2.9677942680500156,
                -0.9730159100761443,
                1.74997103797391,
                -0.747845540172754,
                1.7506337950755386,
                -3.0725925659165365
            ]
        }
    ]
}