{
    "goal": {
        "global_pose": {
            "orientation": {
                "w": 0.7047431468963623,
                "x": -0.7094548344612122,
                "y": 0.0024358443915843964,
                "z": -0.0022348060738295317
            },
            "position": {
                "x": 0.6094750761985779,
                "y": 0.3671506643295288,
                "z": 0.19426114857196808
            }
        },
        "name": "move_to_magneteinheit_A"
    },
    "id": "STRIDE_move_to_magneteinheit_A_78",
    "joint_names": [
        "shoulder_pan_joint",
        "shoulder_lift_joint",
        "elbow_joint",
        "wrist_1_joint",
        "wrist_2_joint",
        "wrist_3_joint"
    ],
    "metrics": {
        "cart_traj_len": 3.5972657625611526,
        "distance_elbow_joint": 3.8755621488133505,
        "distance_shoulder_lift_joint": 1.625026591085135,
        "distance_shoulder_pan_joint": 4.753820501801828,
        "distance_wrist_1_joint": 0.8371948102649683,
        "distance_wrist_2_joint": 1.6920928559020934,
        "distance_wrist_3_joint": 2.5782696685687867,
        "smoothness": 0.23949886862774017,
        "time": 0.047780328,
        "traj_len": 3.919434471506847,
        "weighted_distance": 4.800811762581489
    },
    "planner": "STRIDE",
    "start": {
        "state": {
            "elbow_joint": -1.9196185241190666,
            "shoulder_lift_joint": -1.2443396400964142,
            "shoulder_pan_joint": 2.6996025414629847,
            "wrist_1_joint": -1.5485510000780065,
            "wrist_2_joint": -1.5709468930060704,
            "wrist_3_joint": 0.4420197071253992
        }
    },
    "waypoints": [
        {
            "positions": [
                2.6996025414629847,
                -1.2443396400964142,
                -1.9196185241190666,
                -1.5485510000780065,
                -1.5709468930060704,
                0.4420197071253992
            ]
        },
        {
            "positions": [
                2.5638259703887423,
                -1.2723219158954235,
                -1.7915501819262214,
                -1.5403789904078105,
                -1.519261816309075,
                0.47612707797176457
            ]
        },
        {
            "positions": [
                2.4280493993145003,
                -1.3003041916944327,
                -1.6634818397333762,
                -1.5322069807376144,
                -1.4675767396120798,
                0.5102344488181301
            ]
        },
        {
            "positions": [
                2.2922728282402582,
                -1.328286467493442,
                -1.535413497540531,
                -1.5240349710674184,
                -1.4158916629150844,
                0.5443418196644955
            ]
        },
        {
            "positions": [
                2.156496257166016,
                -1.3562687432924512,
                -1.4073451553476857,
                -1.5158629613972225,
                -1.364206586218089,
                0.5784491905108609
            ]
        },
        {
            "positions": [
                2.0207196860917733,
                -1.3842510190914605,
                -1.2792768131548402,
                -1.5076909517270265,
                -1.3125215095210938,
                0.6125565613572264
            ]
        },
        {
            "positions": [
                1.8849431150175313,
                -1.4122332948904697,
                -1.1512084709619952,
                -1.4995189420568305,
                -1.2608364328240984,
                0.6466639322035918
            ]
        },
        {
            "positions": [
                1.749166543943289,
                -1.440215570689479,
                -1.0231401287691497,
                -1.4913469323866344,
                -1.2091513561271032,
                0.6807713030499571
            ]
        },
        {
            "positions": [
                1.6133899728690468,
                -1.4681978464884882,
                -0.8950717865763045,
                -1.4831749227164384,
                -1.1574662794301078,
                0.7148786738963225
            ]
        },
        {
            "positions": [
                1.4776134017948046,
                -1.4961801222874975,
                -0.7670034443834592,
                -1.4750029130462423,
                -1.1057812027331124,
                0.7489860447426879
            ]
        },
        {
            "positions": [
                1.3418368307205624,
                -1.5241623980865069,
                -0.638935102190614,
                -1.4668309033760463,
                -1.054096126036117,
                0.7830934155890534
            ]
        },
        {
            "positions": [
                1.2060602596463201,
                -1.552144673885516,
                -0.5108667599977688,
                -1.4586588937058504,
                -1.0024110493391218,
                0.8172007864354188
            ]
        },
        {
            "positions": [
                1.070283688572078,
                -1.5801269496845252,
                -0.3827984178049235,
                -1.4504868840356544,
                -0.9507259726421264,
                0.8513081572817842
            ]
        },
        {
            "positions": [
                0.9345071174978357,
                -1.6081092254835345,
                -0.2547300756120783,
                -1.4423148743654584,
                -0.8990408959451311,
                0.8854155281281497
            ]
        },
        {
            "positions": [
                0.7987305464235934,
                -1.6360915012825439,
                -0.12666173341923304,
                -1.4341428646952623,
                -0.8473558192481359,
                0.9195228989745151
            ]
        },
        {
            "positions": [
                0.662953975349351,
                -1.664073777081553,
                0.0014066087736124278,
                -1.4259708550250663,
                -0.7956707425511405,
                0.9536302698208806
            ]
        },
        {
            "positions": [
                0.527177404275109,
                -1.6920560528805624,
                0.12947495096645767,
                -1.4177988453548702,
                -0.7439856658541452,
                0.9877376406672459
            ]
        },
        {
            "positions": [
                0.3914008332008665,
                -1.7200383286795717,
                0.25754329315930313,
                -1.4096268356846742,
                -0.6923005891571498,
                1.0218450115136113
            ]
        },
        {
            "positions": [
                0.2556242621266245,
                -1.7480206044785809,
                0.38561163535214815,
                -1.4014548260144783,
                -0.6406155124601545,
                1.0559523823599768
            ]
        },
        {
            "positions": [
                0.11984769105238202,
                -1.77600288027759,
                0.5136799775449936,
                -1.3932828163442823,
                -0.5889304357631591,
                1.0900597532063423
            ]
        },
        {
            "positions": [
                -0.015928880021859992,
                -1.8039851560765994,
                0.6417483197378386,
                -1.3851108066740863,
                -0.5372453590661639,
                1.1241671240527076
            ]
        },
        {
            "positions": [
                -0.15170545109610245,
                -1.8319674318756087,
                0.7698166619306841,
                -1.3769387970038902,
                -0.4855602823691685,
                1.158274494899073
            ]
        },
        {
            "positions": [
                -0.28748202217034446,
                -1.8599497076746179,
                0.8978850041235291,
                -1.3687667873336942,
                -0.4338752056721733,
                1.1923818657454386
            ]
        },
        {
            "positions": [
                -0.4232585932445869,
                -1.8879319834736272,
                1.0259533463163746,
                -1.3605947776634981,
                -0.3821901289751779,
                1.2264892365918039
            ]
        },
        {
            "positions": [
                -0.5590351643188289,
                -1.9159142592726364,
                1.1540216885092196,
                -1.3524227679933023,
                -0.3305050522781825,
                1.2605966074381694
            ]
        },
        {
            "positions": [
                -0.6948117353930714,
                -1.9438965350716457,
                1.282090030702065,
                -1.3442507583231063,
                -0.2788199755811871,
                1.2947039782845349
            ]
        },
        {
            "positions": [
                -0.8305883064673134,
                -1.9718788108706549,
                1.41015837289491,
                -1.3360787486529102,
                -0.22713489888419192,
                1.3288113491309002
            ]
        },
        {
            "positions": [
                -0.966364877541556,
                -1.9998610866696642,
                1.5382267150877555,
                -1.3279067389827142,
                -0.17544982218719649,
                1.3629187199772657
            ]
        },
        {
            "positions": [
                -0.8826838711725339,
                -1.9329760755533654,
                1.5703587850574883,
                -1.2804797736619697,
                -0.15263476179617957,
                1.4904087704170288
            ]
        },
        {
            "positions": [
                -0.7990028648035119,
                -1.8660910644370665,
                1.6024908550272212,
                -1.2330528083412255,
                -0.1298197014051627,
                1.617898820856792
            ]
        },
        {
            "positions": [
                -0.7153218584344898,
                -1.7992060533207677,
                1.634622924996954,
                -1.1856258430204814,
                -0.10700464101414578,
                1.745388871296555
            ]
        },
        {
            "positions": [
                -0.6316408520654677,
                -1.7323210422044688,
                1.6667549949666869,
                -1.138198877699737,
                -0.08418958062312888,
                1.872878921736318
            ]
        },
        {
            "positions": [
                -0.5479598456964456,
                -1.66543603108817,
                1.6988870649364196,
                -1.0907719123789925,
                -0.06137452023211197,
                2.0003689721760813
            ]
        },
        {
            "positions": [
                -0.46427883932742364,
                -1.598551019971871,
                1.7310191349061523,
                -1.0433449470582483,
                -0.03855945984109507,
                2.1278590226158443
            ]
        },
        {
            "positions": [
                -0.38059783295840155,
                -1.5316660088555725,
                1.7631512048758853,
                -0.995917981737504,
                -0.01574439945007819,
                2.255349073055607
            ]
        },
        {
            "positions": [
                -0.29691682658937946,
                -1.4647809977392736,
                1.795283274845618,
                -0.9484910164167597,
                0.007070660940938722,
                2.3828391234953705
            ]
        },
        {
            "positions": [
                -0.21323582022035747,
                -1.3978959866229748,
                1.8274153448153507,
                -0.9010640510960154,
                0.029885721331955606,
                2.5103291739351334
            ]
        },
        {
            "positions": [
                -0.12955481385133538,
                -1.331010975506676,
                1.8595474147850837,
                -0.8536370857752711,
                0.052700781722972545,
                2.637819224374897
            ]
        },
        {
            "positions": [
                -0.04587380748231329,
                -1.264125964390377,
                1.8916794847548164,
                -0.8062101204545268,
                0.0755158421139894,
                2.7653092748146597
            ]
        },
        {
            "positions": [
                0.03780719888670869,
                -1.1972409532740782,
                1.9238115547245493,
                -0.7587831551337825,
                0.09833090250500634,
                2.892799325254423
            ]
        },
        {
            "positions": [
                0.12148820525573067,
                -1.1303559421577793,
                1.955943624694282,
                -0.7113561898130382,
                0.12114596289602321,
                3.020289375694186
            ]
        }
    ]
}