{
    "goal": {
        "global_pose": {
            "orientation": {
                "w": -0.4816463035849501,
                "x": 0.5182115481033762,
                "y": 0.4908360881923453,
                "z": -0.5084816262002911
            },
            "position": {
                "x": -0.8240239810943604,
                "y": -0.300875300988555,
                "z": 0.16403168439865112
            }
        },
        "name": "move_to_storage_C"
    },
    "id": "STRIDE_move_to_storage_C_18",
    "joint_names": [
        "shoulder_pan_joint",
        "shoulder_lift_joint",
        "elbow_joint",
        "wrist_1_joint",
        "wrist_2_joint",
        "wrist_3_joint"
    ],
    "metrics": {
        "cart_traj_len": 0.5762162544623076,
        "distance_elbow_joint": 0.25891801010551063,
        "distance_shoulder_lift_joint": 0.18921774917676526,
        "distance_shoulder_pan_joint": 0.49517766779622363,
        "distance_wrist_1_joint": 0.08702889343848164,
        "distance_wrist_2_joint": 1.0632842720835445,
        "distance_wrist_3_joint": 0.06071886196546261,
        "smoothness": 0.0,
        "time": 0.072759983,
        "traj_len": 1.4677688695997022,
        "weighted_distance": 1.8509717296649724
    },
    "planner": "STRIDE",
    "start": {
        "state": {
            "elbow_joint": 2.010868314990456,
            "shoulder_lift_joint": -1.1634956873337592,
            "shoulder_pan_joint": -2.4736205022346125,
            "wrist_1_joint": -0.8367026794202681,
            "wrist_2_joint": 0.6746043897044499,
            "wrist_3_joint": -3.1496632123970403
        }
    },
    "waypoints": [
        {
            "positions": [
                -2.4736205022346125,
                -1.1634956873337592,
                2.010868314990456,
                -0.8367026794202681,
                0.6746043897044499,
                -3.1496632123970403
            ]
        },
        {
            "positions": [
                -2.5561501135339832,
                -1.1319593958042984,
                1.967715313306204,
                -0.8221978638471878,
                0.8518184350517073,
                -3.1395434020694633
            ]
        },
        {
            "positions": [
                -2.6386797248333536,
                -1.1004231042748374,
                1.9245623116219523,
                -0.8076930482741076,
                1.0290324803989648,
                -3.1294235917418862
            ]
        },
        {
            "positions": [
                -2.7212093361327243,
                -1.0688868127453766,
                1.8814093099377005,
                -0.7931882327010273,
                1.2062465257462223,
                -3.1193037814143088
            ]
        },
        {
            "positions": [
                -2.803738947432095,
                -1.0373505212159158,
                1.8382563082534487,
                -0.778683417127947,
                1.3834605710934795,
                -3.1091839710867317
            ]
        },
        {
            "positions": [
                -2.8862685587314654,
                -1.0058142296864547,
                1.795103306569197,
                -0.7641786015548667,
                1.560674616440737,
                -3.0990641607591547
            ]
        },
        {
            "positions": [
                -2.968798170030836,
                -0.9742779381569939,
                1.7519503048849452,
                -0.7496737859817865,
                1.7378886617879943,
                -3.0889443504315777
            ]
        }
    ]
}