{
    "goal": {
        "global_pose": {
            "orientation": {
                "w": 0.005598929693374612,
                "x": 0.007748599140229565,
                "y": 0.7110244013736278,
                "z": -0.7031023480610252
            },
            "position": {
                "x": 0.1141497679147869,
                "y": -0.7141253447532654,
                "z": 0.3711530566215515
            }
        },
        "name": "move_to_auspresseinheit_B"
    },
    "id": "STRIDE_move_to_auspresseinheit_B_45",
    "joint_names": [
        "shoulder_pan_joint",
        "shoulder_lift_joint",
        "elbow_joint",
        "wrist_1_joint",
        "wrist_2_joint",
        "wrist_3_joint"
    ],
    "metrics": {
        "cart_traj_len": 0.5654808898366323,
        "distance_elbow_joint": 0.05999447476773856,
        "distance_shoulder_lift_joint": 0.29565105672302505,
        "distance_shoulder_pan_joint": 0.577546935353568,
        "distance_wrist_1_joint": 0.31754049094509884,
        "distance_wrist_2_joint": 0.9981276626870559,
        "distance_wrist_3_joint": 0.005221802846696821,
        "smoothness": 2.5376526478085547e-16,
        "time": 0.193169609,
        "traj_len": 1.501360191067814,
        "weighted_distance": 1.8921401065060512
    },
    "planner": "STRIDE",
    "start": {
        "state": {
            "elbow_joint": 2.0193083361928714,
            "shoulder_lift_joint": -1.1220246554650708,
            "shoulder_pan_joint": -1.0952077554168747,
            "wrist_1_joint": -0.8559753972642168,
            "wrist_2_joint": 0.4759566250798843,
            "wrist_3_joint": -3.1240929996934557
        }
    },
    "waypoints": [
        {
            "positions": [
                -1.0952077554168747,
                -1.1220246554650708,
                2.0193083361928714,
                -0.8559753972642168,
                0.4759566250798843,
                -3.1240929996934557
            ]
        },
        {
            "positions": [
                -1.1914655779758028,
                -1.171299831585575,
                2.009309257064915,
                -0.8030519821067004,
                0.642311235527727,
                -3.1232226992190064
            ]
        },
        {
            "positions": [
                -1.2877234005347307,
                -1.220575007706079,
                1.9993101779369586,
                -0.7501285669491838,
                0.8086658459755696,
                -3.1223523987445567
            ]
        },
        {
            "positions": [
                -1.3839812230936586,
                -1.2698501838265832,
                1.9893110988090021,
                -0.6972051517916673,
                0.9750204564234122,
                -3.121482098270107
            ]
        },
        {
            "positions": [
                -1.4802390456525867,
                -1.3191253599470876,
                1.9793120196810456,
                -0.6442817366341509,
                1.1413750668712548,
                -3.120611797795658
            ]
        },
        {
            "positions": [
                -1.5764968682115148,
                -1.3684005360675917,
                1.9693129405530894,
                -0.5913583214766345,
                1.3077296773190976,
                -3.1197414973212085
            ]
        },
        {
            "positions": [
                -1.6727546907704427,
                -1.4176757121880958,
                1.9593138614251329,
                -0.538434906319118,
                1.4740842877669402,
                -3.118871196846759
            ]
        }
    ]
}