{
    "goal": {
        "global_pose": {
            "orientation": {
                "w": 0.7047431468963623,
                "x": -0.7094548344612122,
                "y": 0.0024358443915843964,
                "z": -0.0022348060738295317
            },
            "position": {
                "x": 0.6094750761985779,
                "y": 0.3671506643295288,
                "z": 0.19426114857196808
            }
        },
        "name": "move_to_magneteinheit_A"
    },
    "id": "STRIDE_move_to_magneteinheit_A_29",
    "joint_names": [
        "shoulder_pan_joint",
        "shoulder_lift_joint",
        "elbow_joint",
        "wrist_1_joint",
        "wrist_2_joint",
        "wrist_3_joint"
    ],
    "metrics": {
        "cart_traj_len": 4.047479945231931,
        "distance_elbow_joint": 3.879186281267499,
        "distance_shoulder_lift_joint": 1.6384894701988457,
        "distance_shoulder_pan_joint": 6.1047693390442515,
        "distance_wrist_1_joint": 2.7081330965078694,
        "distance_wrist_2_joint": 1.7073302941120219,
        "distance_wrist_3_joint": 2.5936205856728383,
        "smoothness": 0.32006277248337134,
        "time": 0.2338558,
        "traj_len": 4.3164254964963,
        "weighted_distance": 5.313589523925318
    },
    "planner": "STRIDE",
    "start": {
        "state": {
            "elbow_joint": -1.9196185241190666,
            "shoulder_lift_joint": -1.2443396400964142,
            "shoulder_pan_joint": 2.6996025414629847,
            "wrist_1_joint": -1.5485510000780065,
            "wrist_2_joint": -1.5709468930060704,
            "wrist_3_joint": 0.4420197071253992
        }
    },
    "waypoints": [
        {
            "positions": [
                2.6996025414629847,
                -1.2443396400964142,
                -1.9196185241190666,
                -1.5485510000780065,
                -1.5709468930060704,
                0.4420197071253992
            ]
        },
        {
            "positions": [
                2.5549204353996857,
                -1.269772631334156,
                -1.8480691907416742,
                -1.489680766020895,
                -1.535160694371864,
                0.4895768410030362
            ]
        },
        {
            "positions": [
                2.4102383293363867,
                -1.2952056225718978,
                -1.7765198573642818,
                -1.4308105319637834,
                -1.4993744957376578,
                0.5371339748806733
            ]
        },
        {
            "positions": [
                2.2655562232730877,
                -1.3206386138096393,
                -1.704970523986889,
                -1.371940297906672,
                -1.4635882971034515,
                0.5846911087583103
            ]
        },
        {
            "positions": [
                2.1208741172097887,
                -1.346071605047381,
                -1.6334211906094966,
                -1.3130700638495605,
                -1.4278020984692452,
                0.6322482426359473
            ]
        },
        {
            "positions": [
                1.97619201114649,
                -1.371504596285123,
                -1.5618718572321042,
                -1.2541998297924488,
                -1.392015899835039,
                0.6798053765135843
            ]
        },
        {
            "positions": [
                1.8315099050831907,
                -1.3969375875228647,
                -1.4903225238547118,
                -1.1953295957353374,
                -1.3562297012008326,
                0.7273625103912214
            ]
        },
        {
            "positions": [
                1.6868277990198919,
                -1.4223705787606065,
                -1.418773190477319,
                -1.136459361678226,
                -1.3204435025666266,
                0.7749196442688584
            ]
        },
        {
            "positions": [
                1.5421456929565929,
                -1.447803569998348,
                -1.3472238570999266,
                -1.0775891276211143,
                -1.2846573039324203,
                0.8224767781464954
            ]
        },
        {
            "positions": [
                1.3974635868932939,
                -1.4732365612360898,
                -1.2756745237225342,
                -1.0187188935640028,
                -1.248871105298214,
                0.8700339120241325
            ]
        },
        {
            "positions": [
                1.252781480829995,
                -1.4986695524738316,
                -1.2041251903451418,
                -0.9598486595068912,
                -1.2130849066640077,
                0.9175910459017695
            ]
        },
        {
            "positions": [
                1.108099374766696,
                -1.5241025437115734,
                -1.1325758569677493,
                -0.9009784254497797,
                -1.1772987080298014,
                0.9651481797794065
            ]
        },
        {
            "positions": [
                0.9634172687033968,
                -1.5495355349493152,
                -1.0610265235903569,
                -0.8421081913926681,
                -1.1415125093955951,
                1.0127053136570436
            ]
        },
        {
            "positions": [
                0.8187351626400978,
                -1.5749685261870567,
                -0.9894771902129643,
                -0.7832379573355566,
                -1.1057263107613888,
                1.0602624475346807
            ]
        },
        {
            "positions": [
                0.674053056576799,
                -1.6004015174247985,
                -0.9179278568355718,
                -0.7243677232784451,
                -1.0699401121271825,
                1.1078195814123175
            ]
        },
        {
            "positions": [
                0.5293709505135,
                -1.6258345086625403,
                -0.8463785234581793,
                -0.6654974892213336,
                -1.0341539134929763,
                1.1553767152899548
            ]
        },
        {
            "positions": [
                0.384688844450201,
                -1.651267499900282,
                -0.7748291900807869,
                -0.606627255164222,
                -0.99836771485877,
                1.2029338491675916
            ]
        },
        {
            "positions": [
                0.240006738386902,
                -1.6767004911380239,
                -0.7032798567033944,
                -0.5477570211071106,
                -0.9625815162245637,
                1.2504909830452289
            ]
        },
        {
            "positions": [
                0.095324632323603,
                -1.7021334823757654,
                -0.631730523326002,
                -0.4888867870499991,
                -0.9267953175903575,
                1.2980481169228657
            ]
        },
        {
            "positions": [
                -0.04935747373969557,
                -1.7275664736135072,
                -0.5601811899486093,
                -0.43001655299288744,
                -0.8910091189561512,
                1.3456052508005028
            ]
        },
        {
            "positions": [
                -0.19403957980299458,
                -1.752999464851249,
                -0.4886318565712169,
                -0.371146318935776,
                -0.8552229203219449,
                1.3931623846781398
            ]
        },
        {
            "positions": [
                -0.3387216858662936,
                -1.7784324560889906,
                -0.41708252319382444,
                -0.31227608487866454,
                -0.8194367216877386,
                1.4407195185557768
            ]
        },
        {
            "positions": [
                -0.4834037919295926,
                -1.8038654473267326,
                -0.345533189816432,
                -0.25340585082155287,
                -0.7836505230535323,
                1.488276652433414
            ]
        },
        {
            "positions": [
                -0.628085897992892,
                -1.8292984385644742,
                -0.27398385643903933,
                -0.1945356167644412,
                -0.747864324419326,
                1.5358337863110512
            ]
        },
        {
            "positions": [
                -0.7727680040561911,
                -1.8547314298022162,
                -0.2024345230616469,
                -0.13566538270732975,
                -0.7120781257851198,
                1.583390920188688
            ]
        },
        {
            "positions": [
                -0.9174501101194901,
                -1.8801644210399577,
                -0.13088518968425444,
                -0.0767951486502183,
                -0.6762919271509135,
                1.6309480540663253
            ]
        },
        {
            "positions": [
                -1.062132216182789,
                -1.9055974122776995,
                -0.059335856306862,
                -0.017924914593106633,
                -0.6405057285167072,
                1.678505187943962
            ]
        },
        {
            "positions": [
                -1.2068143222460876,
                -1.9310304035154413,
                0.012213477070530665,
                0.040945319464004815,
                -0.6047195298825009,
                1.726062321821599
            ]
        },
        {
            "positions": [
                -1.3514964283093867,
                -1.9564633947531829,
                0.08376281044792311,
                0.09981555352111626,
                -0.5689333312482947,
                1.7736194556992362
            ]
        },
        {
            "positions": [
                -1.4961785343726857,
                -1.9818963859909247,
                0.15531214382531555,
                0.15868578757822793,
                -0.5331471326140884,
                1.821176589576873
            ]
        },
        {
            "positions": [
                -1.6408606404359847,
                -2.0073293772286664,
                0.226861477202708,
                0.21755602163533933,
                -0.49736093397988224,
                1.8687337234545103
            ]
        },
        {
            "positions": [
                -1.542843631705691,
                -1.9586905031694113,
                0.32312293719969276,
                0.16522123970231034,
                -0.4621529153640026,
                1.9335618661958285
            ]
        },
        {
            "positions": [
                -1.4448266229753972,
                -1.9100516291101561,
                0.41938439719667747,
                0.11288645776928134,
                -0.4269448967481229,
                1.9983900089371467
            ]
        },
        {
            "positions": [
                -1.3468096142451036,
                -1.861412755050901,
                0.5156458571936622,
                0.060551675836252344,
                -0.3917368781322433,
                2.063218151678465
            ]
        },
        {
            "positions": [
                -1.2487926055148098,
                -1.8127738809916456,
                0.611907317190647,
                0.00821689390322336,
                -0.3565288595163636,
                2.128046294419783
            ]
        },
        {
            "positions": [
                -1.1507755967845161,
                -1.7641350069323904,
                0.7081687771876317,
                -0.04411788802980565,
                -0.32132084090048396,
                2.1928744371611013
            ]
        },
        {
            "positions": [
                -1.0527585880542225,
                -1.7154961328731353,
                0.8044302371846164,
                -0.09645266996283464,
                -0.28611282228460433,
                2.2577025799024195
            ]
        },
        {
            "positions": [
                -0.9547415793239287,
                -1.6668572588138801,
                0.9006916971816012,
                -0.14878745189586368,
                -0.25090480366872464,
                2.3225307226437377
            ]
        },
        {
            "positions": [
                -0.8567245705936349,
                -1.618218384754625,
                0.9969531571785859,
                -0.2011222338288926,
                -0.215696785052845,
                2.387358865385056
            ]
        },
        {
            "positions": [
                -0.7587075618633412,
                -1.5695795106953696,
                1.0932146171755708,
                -0.25345701576192164,
                -0.18048876643696532,
                2.4521870081263737
            ]
        },
        {
            "positions": [
                -0.6606905531330475,
                -1.5209406366361145,
                1.1894760771725554,
                -0.30579179769495063,
                -0.14528074782108563,
                2.5170151508676923
            ]
        },
        {
            "positions": [
                -0.5626735444027537,
                -1.4723017625768593,
                1.2857375371695403,
                -0.3581265796279797,
                -0.110072729205206,
                2.58184329360901
            ]
        },
        {
            "positions": [
                -0.4646565356724601,
                -1.4236628885176041,
                1.3819989971665247,
                -0.4104613615610086,
                -0.07486471058932637,
                2.6466714363503283
            ]
        },
        {
            "positions": [
                -0.3666395269421663,
                -1.375024014458349,
                1.4782604571635096,
                -0.4627961434940376,
                -0.03965669197344668,
                2.7114995790916465
            ]
        },
        {
            "positions": [
                -0.26862251821187266,
                -1.3263851403990938,
                1.5745219171604945,
                -0.5151309254270666,
                -0.004448673357567046,
                2.7763277218329647
            ]
        },
        {
            "positions": [
                -0.17060550948157882,
                -1.2777462663398387,
                1.6707833771574792,
                -0.5674657073600957,
                0.030759345258312698,
                2.841155864574283
            ]
        },
        {
            "positions": [
                -0.0725885007512852,
                -1.2291073922805835,
                1.7670448371544638,
                -0.6198004892931246,
                0.06596736387419222,
                2.905984007315601
            ]
        },
        {
            "positions": [
                0.02542850797900842,
                -1.1804685182213284,
                1.8633062971514485,
                -0.6721352712261537,
                0.10117538249007196,
                2.9708121500569193
            ]
        },
        {
            "positions": [
                0.12344551670930216,
                -1.131829644162073,
                1.9595677571484333,
                -0.7244700531591827,
                0.13638340110595154,
                3.0356402927982375
            ]
        }
    ]
}