{
    "goal": {
        "global_pose": {
            "orientation": {
                "w": -0.00223480608172531,
                "x": 0.0024358444001904467,
                "y": 0.7094548369677653,
                "z": -0.704743149386269
            },
            "position": {
                "x": -0.37947507619857795,
                "y": -0.6371506643295288,
                "z": 0.19426114857196808
            }
        },
        "name": "move_to_magneteinheit_C"
    },
    "id": "STRIDE_move_to_magneteinheit_C_43",
    "joint_names": [
        "shoulder_pan_joint",
        "shoulder_lift_joint",
        "elbow_joint",
        "wrist_1_joint",
        "wrist_2_joint",
        "wrist_3_joint"
    ],
    "metrics": {
        "cart_traj_len": 1.4085654095226547,
        "distance_elbow_joint": 0.10753139465524342,
        "distance_shoulder_lift_joint": 0.3418161915201723,
        "distance_shoulder_pan_joint": 1.8339196784501113,
        "distance_wrist_1_joint": 0.657639430379118,
        "distance_wrist_2_joint": 0.7920176157764494,
        "distance_wrist_3_joint": 1.2783572265935668,
        "smoothness": 1.4008076145286756,
        "time": 0.129473509,
        "traj_len": 2.2385891845925325,
        "weighted_distance": 3.002940731469298
    },
    "planner": "STRIDE",
    "start": {
        "state": {
            "elbow_joint": 1.9565354010623817,
            "shoulder_lift_joint": -1.4165861575791021,
            "shoulder_pan_joint": -1.6717766225146293,
            "wrist_1_joint": -0.5286633292919765,
            "wrist_2_joint": 1.472756589071564,
            "wrist_3_joint": -3.1238370188695823
        }
    },
    "waypoints": [
        {
            "positions": [
                -1.6717766225146293,
                -1.4165861575791021,
                1.9565354010623817,
                -0.5286633292919765,
                1.472756589071564,
                -3.1238370188695823
            ]
        },
        {
            "positions": [
                -1.5857526123774663,
                -1.4240669219205004,
                1.9704758297825404,
                -0.6105950064303376,
                1.3909654057227119,
                -3.0180603896121
            ]
        },
        {
            "positions": [
                -1.4997286022403034,
                -1.4315476862618988,
                1.9844162585026992,
                -0.6925266835686986,
                1.30917422237386,
                -2.9122837603546174
            ]
        },
        {
            "positions": [
                -1.4137045921031404,
                -1.4390284506032973,
                1.998356687222858,
                -0.7744583607070598,
                1.227383039025008,
                -2.8065071310971352
            ]
        },
        {
            "positions": [
                -1.3276805819659772,
                -1.4465092149446956,
                2.0122971159430167,
                -0.8563900378454208,
                1.1455918556761562,
                -2.700730501839653
            ]
        },
        {
            "positions": [
                -1.2416565718288142,
                -1.453989979286094,
                2.0262375446631755,
                -0.9383217149837819,
                1.0638006723273041,
                -2.5949538725821704
            ]
        },
        {
            "positions": [
                -1.1556325616916512,
                -1.4614707436274923,
                2.0401779733833343,
                -1.020253392122143,
                0.9820094889784521,
                -2.489177243324688
            ]
        },
        {
            "positions": [
                -1.34388622135267,
                -1.419051942845809,
                2.0367652844784354,
                -0.9965320539008643,
                0.9389708438808324,
                -2.581134022045927
            ]
        },
        {
            "positions": [
                -1.5321398810136893,
                -1.376633142064126,
                2.033352595573537,
                -0.9728107156795855,
                0.8959321987832128,
                -2.673090800767166
            ]
        },
        {
            "positions": [
                -1.7203935406747082,
                -1.3342143412824428,
                2.029939906668638,
                -0.9490893774583068,
                0.8528935536855932,
                -2.765047579488405
            ]
        },
        {
            "positions": [
                -1.9086472003357273,
                -1.2917955405007597,
                2.0265272177637397,
                -0.925368039237028,
                0.8098549085879735,
                -2.857004358209644
            ]
        },
        {
            "positions": [
                -2.0969008599967465,
                -1.2493767397190765,
                2.023114528858841,
                -0.9016467010157492,
                0.7668162634903539,
                -2.948961136930883
            ]
        },
        {
            "positions": [
                -2.285154519657765,
                -1.2069579389373934,
                2.0197018399539424,
                -0.8779253627944704,
                0.7237776183927342,
                -3.0409179156521216
            ]
        },
        {
            "positions": [
                -2.4734081793187843,
                -1.1645391381557102,
                2.0162891510490435,
                -0.8542040245731917,
                0.6807389732951146,
                -3.1328746943733607
            ]
        }
    ]
}