{
    "goal": {
        "global_pose": {
            "orientation": {
                "w": -0.4816463035849501,
                "x": 0.5182115481033762,
                "y": 0.4908360881923453,
                "z": -0.5084816262002911
            },
            "position": {
                "x": -0.8240239810943604,
                "y": -0.300875300988555,
                "z": 0.16403168439865112
            }
        },
        "name": "move_to_storage_C"
    },
    "id": "STRIDE_move_to_storage_C_2",
    "joint_names": [
        "shoulder_pan_joint",
        "shoulder_lift_joint",
        "elbow_joint",
        "wrist_1_joint",
        "wrist_2_joint",
        "wrist_3_joint"
    ],
    "metrics": {
        "cart_traj_len": 0.5761650016892694,
        "distance_elbow_joint": 0.25725179656992214,
        "distance_shoulder_lift_joint": 0.189235120101232,
        "distance_shoulder_pan_joint": 0.4936919976440133,
        "distance_wrist_1_joint": 0.07561676980603993,
        "distance_wrist_2_joint": 1.0720232012500461,
        "distance_wrist_3_joint": 0.05968709736978495,
        "smoothness": 2.5376526478085547e-16,
        "time": 0.013675836,
        "traj_len": 1.465437130258763,
        "weighted_distance": 1.84784202477828
    },
    "planner": "STRIDE",
    "start": {
        "state": {
            "elbow_joint": 2.010868314990456,
            "shoulder_lift_joint": -1.1634956873337592,
            "shoulder_pan_joint": -2.4736205022346125,
            "wrist_1_joint": -0.8367026794202681,
            "wrist_2_joint": 0.6746043897044499,
            "wrist_3_joint": -3.1496632123970403
        }
    },
    "waypoints": [
        {
            "positions": [
                -2.4736205022346125,
                -1.1634956873337592,
                2.010868314990456,
                -0.8367026794202681,
                0.6746043897044499,
                -3.1496632123970403
            ]
        },
        {
            "positions": [
                -2.555902501841948,
                -1.1319565006502206,
                1.9679930155621355,
                -0.8240998844525947,
                0.8532749232461243,
                -3.1397153628354095
            ]
        },
        {
            "positions": [
                -2.6381845014492837,
                -1.1004173139666817,
                1.925117716133815,
                -0.8114970894849215,
                1.0319454567877986,
                -3.129767513273779
            ]
        },
        {
            "positions": [
                -2.7204665010566194,
                -1.0688781272831431,
                1.8822424167054947,
                -0.7988942945172481,
                1.2106159903294729,
                -3.119819663712148
            ]
        },
        {
            "positions": [
                -2.8027485006639545,
                -1.0373389405996045,
                1.8393671172771744,
                -0.7862914995495748,
                1.3892865238711471,
                -3.109871814150517
            ]
        },
        {
            "positions": [
                -2.88503050027129,
                -1.005799753916066,
                1.796491817848854,
                -0.7736887045819015,
                1.5679570574128219,
                -3.099923964588886
            ]
        },
        {
            "positions": [
                -2.9673124998786258,
                -0.9742605672325272,
                1.7536165184205337,
                -0.7610859096142282,
                1.746627590954496,
                -3.0899761150272553
            ]
        }
    ]
}