{
    "goal": {
        "global_pose": {
            "orientation": {
                "w": 0.005598929693374612,
                "x": 0.007748599140229565,
                "y": 0.7110244013736278,
                "z": -0.7031023480610252
            },
            "position": {
                "x": 0.1141497679147869,
                "y": -0.7141253447532654,
                "z": 0.3711530566215515
            }
        },
        "name": "move_to_auspresseinheit_B"
    },
    "id": "STRIDE_move_to_auspresseinheit_B_35",
    "joint_names": [
        "shoulder_pan_joint",
        "shoulder_lift_joint",
        "elbow_joint",
        "wrist_1_joint",
        "wrist_2_joint",
        "wrist_3_joint"
    ],
    "metrics": {
        "cart_traj_len": 0.564631595810936,
        "distance_elbow_joint": 0.06550750586665388,
        "distance_shoulder_lift_joint": 0.2944313176724067,
        "distance_shoulder_pan_joint": 0.5760733647980243,
        "distance_wrist_1_joint": 0.3374086650435596,
        "distance_wrist_2_joint": 0.9975179664324325,
        "distance_wrist_3_joint": 0.007704835034533453,
        "smoothness": 3.806478935924272e-16,
        "time": 0.04391808,
        "traj_len": 1.5095176894782023,
        "weighted_distance": 1.904988177494199
    },
    "planner": "STRIDE",
    "start": {
        "state": {
            "elbow_joint": 2.0193083361928714,
            "shoulder_lift_joint": -1.1220246554650708,
            "shoulder_pan_joint": -1.0952077554168747,
            "wrist_1_joint": -0.8559753972642168,
            "wrist_2_joint": 0.4759566250798843,
            "wrist_3_joint": -3.1240929996934557
        }
    },
    "waypoints": [
        {
            "positions": [
                -1.0952077554168747,
                -1.1220246554650708,
                2.0193083361928714,
                -0.8559753972642168,
                0.4759566250798843,
                -3.1240929996934557
            ]
        },
        {
            "positions": [
                -1.191219982883212,
                -1.1710965417438053,
                2.008390418548429,
                -0.7997406197569569,
                0.6422096194852898,
                -3.1228088605210336
            ]
        },
        {
            "positions": [
                -1.2872322103495495,
                -1.2201684280225398,
                1.9974725009039869,
                -0.743505842249697,
                0.8084626138906952,
                -3.121524721348611
            ]
        },
        {
            "positions": [
                -1.3832444378158868,
                -1.2692403143012743,
                1.9865545832595446,
                -0.6872710647424369,
                0.9747156082961006,
                -3.120240582176189
            ]
        },
        {
            "positions": [
                -1.479256665282224,
                -1.3183122005800085,
                1.975636665615102,
                -0.6310362872351771,
                1.140968602701506,
                -3.118956443003767
            ]
        },
        {
            "positions": [
                -1.5752688927485616,
                -1.367384086858743,
                1.9647187479706598,
                -0.5748015097279171,
                1.3072215971069114,
                -3.1176723038313443
            ]
        },
        {
            "positions": [
                -1.671281120214899,
                -1.4164559731374775,
                1.9538008303262175,
                -0.5185667322206572,
                1.4734745915123169,
                -3.116388164658922
            ]
        }
    ]
}