{
    "goal": {
        "global_pose": {
            "orientation": {
                "w": 0.005598929693374612,
                "x": 0.007748599140229565,
                "y": 0.7110244013736278,
                "z": -0.7031023480610252
            },
            "position": {
                "x": -0.8858502320852131,
                "y": -0.7141253447532654,
                "z": 0.3711530566215515
            }
        },
        "name": "move_to_auspresseinheit_C"
    },
    "id": "STRIDE_move_to_auspresseinheit_C_97",
    "joint_names": [
        "shoulder_pan_joint",
        "shoulder_lift_joint",
        "elbow_joint",
        "wrist_1_joint",
        "wrist_2_joint",
        "wrist_3_joint"
    ],
    "metrics": {
        "cart_traj_len": 0.4936394481539919,
        "distance_elbow_joint": 0.9951507480923693,
        "distance_shoulder_lift_joint": 0.3226719931055487,
        "distance_shoulder_pan_joint": 0.2563138009915562,
        "distance_wrist_1_joint": 0.6560613304337894,
        "distance_wrist_2_joint": 1.3149869015635431,
        "distance_wrist_3_joint": 0.03330648131107461,
        "smoothness": 4.844609600361787e-16,
        "time": 2.849792568,
        "traj_len": 1.891690052703635,
        "weighted_distance": 2.3698422838065327
    },
    "planner": "STRIDE",
    "start": {
        "state": {
            "elbow_joint": 1.7527959577737207,
            "shoulder_lift_joint": -0.9740617694225068,
            "shoulder_pan_joint": -2.967991417825858,
            "wrist_1_joint": -0.759517768980727,
            "wrist_2_joint": 1.7443932448377408,
            "wrist_3_joint": -3.0840537646736568
        }
    },
    "waypoints": [
        {
            "positions": [
                -2.967991417825858,
                -0.9740617694225068,
                1.7527959577737207,
                -0.759517768980727,
                1.7443932448377408,
                -3.0840537646736568
            ]
        },
        {
            "positions": [
                -2.9423600377267025,
                -0.9417945701119519,
                1.6532808829644838,
                -0.6939116359373481,
                1.6128945546813864,
                -3.0873844128047643
            ]
        },
        {
            "positions": [
                -2.9167286576275466,
                -0.909527370801397,
                1.5537658081552468,
                -0.628305502893969,
                1.4813958645250322,
                -3.090715060935872
            ]
        },
        {
            "positions": [
                -2.891097277528391,
                -0.8772601714908421,
                1.45425073334601,
                -0.5626993698505902,
                1.3498971743686778,
                -3.0940457090669793
            ]
        },
        {
            "positions": [
                -2.8654658974292353,
                -0.8449929721802872,
                1.354735658536773,
                -0.4970932368072112,
                1.2183984842123237,
                -3.097376357198087
            ]
        },
        {
            "positions": [
                -2.83983451733008,
                -0.8127257728697324,
                1.255220583727536,
                -0.43148710376383226,
                1.0868997940559693,
                -3.100707005329194
            ]
        },
        {
            "positions": [
                -2.8142031372309244,
                -0.7804585735591776,
                1.1557055089182993,
                -0.36588097072045334,
                0.955401103899615,
                -3.1040376534603014
            ]
        },
        {
            "positions": [
                -2.7885717571317685,
                -0.7481913742486227,
                1.0561904341090622,
                -0.3002748376770744,
                0.8239024137432607,
                -3.107368301591409
            ]
        },
        {
            "positions": [
                -2.762940377032613,
                -0.7159241749380678,
                0.9566753592998252,
                -0.23466870463369538,
                0.6924037235869063,
                -3.1106989497225164
            ]
        },
        {
            "positions": [
                -2.737308996933457,
                -0.6836569756275129,
                0.8571602844905883,
                -0.16906257159031646,
                0.5609050334305519,
                -3.114029597853624
            ]
        },
        {
            "positions": [
                -2.7116776168343018,
                -0.651389776316958,
                0.7576452096813514,
                -0.10345643854693756,
                0.4294063432741977,
                -3.1173602459847314
            ]
        }
    ]
}