{
    "goal": {
        "global_pose": {
            "orientation": {
                "w": 0.7047431468963623,
                "x": -0.7094548344612122,
                "y": 0.0024358443915843964,
                "z": -0.0022348060738295317
            },
            "position": {
                "x": 0.6094750761985779,
                "y": 0.3671506643295288,
                "z": 0.19426114857196808
            }
        },
        "name": "move_to_magneteinheit_A"
    },
    "id": "STRIDE_move_to_magneteinheit_A_22",
    "joint_names": [
        "shoulder_pan_joint",
        "shoulder_lift_joint",
        "elbow_joint",
        "wrist_1_joint",
        "wrist_2_joint",
        "wrist_3_joint"
    ],
    "metrics": {
        "cart_traj_len": 3.716146596033832,
        "distance_elbow_joint": 3.907620731147065,
        "distance_shoulder_lift_joint": 0.787940950542221,
        "distance_shoulder_pan_joint": 2.576454135211333,
        "distance_wrist_1_joint": 3.4588226322216986,
        "distance_wrist_2_joint": 2.7482168303243086,
        "distance_wrist_3_joint": 2.611310281638233,
        "smoothness": 0.19148974539481564,
        "time": 0.107771215,
        "traj_len": 4.011279790925192,
        "weighted_distance": 5.245953258170277
    },
    "planner": "STRIDE",
    "start": {
        "state": {
            "elbow_joint": -1.9196185241190666,
            "shoulder_lift_joint": -1.2443396400964142,
            "shoulder_pan_joint": 2.6996025414629847,
            "wrist_1_joint": -1.5485510000780065,
            "wrist_2_joint": -1.5709468930060704,
            "wrist_3_joint": 0.4420197071253992
        }
    },
    "waypoints": [
        {
            "positions": [
                2.6996025414629847,
                -1.2443396400964142,
                -1.9196185241190666,
                -1.5485510000780065,
                -1.5709468930060704,
                0.4420197071253992
            ]
        },
        {
            "positions": [
                2.6058210332214404,
                -1.2192003907860813,
                -1.8298415298686779,
                -1.4910001127694439,
                -1.4869922717544166,
                0.48592433645138955
            ]
        },
        {
            "positions": [
                2.512039524979896,
                -1.1940611414757483,
                -1.7400645356182893,
                -1.4334492254608815,
                -1.4030376505027626,
                0.5298289657773799
            ]
        },
        {
            "positions": [
                2.4182580167383523,
                -1.1689218921654154,
                -1.6502875413679008,
                -1.3758983381523189,
                -1.3190830292511089,
                0.5737335951033703
            ]
        },
        {
            "positions": [
                2.324476508496808,
                -1.1437826428550824,
                -1.560510547117512,
                -1.3183474508437563,
                -1.2351284079994551,
                0.6176382244293607
            ]
        },
        {
            "positions": [
                2.2306950002552637,
                -1.1186433935447495,
                -1.4707335528671233,
                -1.2607965635351939,
                -1.1511737867478011,
                0.661542853755351
            ]
        },
        {
            "positions": [
                2.1369134920137194,
                -1.0935041442344164,
                -1.3809565586167347,
                -1.2032456762266313,
                -1.0672191654961474,
                0.7054474830813414
            ]
        },
        {
            "positions": [
                2.043131983772175,
                -1.0683648949240836,
                -1.291179564366346,
                -1.1456947889180686,
                -0.9832645442444934,
                0.7493521124073319
            ]
        },
        {
            "positions": [
                1.949350475530631,
                -1.0432256456137505,
                -1.2014025701159574,
                -1.0881439016095062,
                -0.8993099229928396,
                0.7932567417333222
            ]
        },
        {
            "positions": [
                1.855568967289087,
                -1.0180863963034177,
                -1.1116255758655686,
                -1.0305930143009436,
                -0.8153553017411859,
                0.8371613710593125
            ]
        },
        {
            "positions": [
                1.7617874590475426,
                -0.9929471469930847,
                -1.0218485816151799,
                -0.9730421269923811,
                -0.7314006804895319,
                0.8810660003853029
            ]
        },
        {
            "positions": [
                1.6680059508059983,
                -0.9678078976827518,
                -0.9320715873647915,
                -0.9154912396838186,
                -0.6474460592378781,
                0.9249706297112933
            ]
        },
        {
            "positions": [
                1.5742244425644543,
                -0.9426686483724189,
                -0.8422945931144028,
                -0.8579403523752561,
                -0.5634914379862244,
                0.9688752590372837
            ]
        },
        {
            "positions": [
                1.48044293432291,
                -0.9175293990620859,
                -0.752517598864014,
                -0.8003894650666935,
                -0.4795368167345704,
                1.0127798883632742
            ]
        },
        {
            "positions": [
                1.3866614260813657,
                -0.892390149751753,
                -0.6627406046136253,
                -0.7428385777581309,
                -0.3955821954829164,
                1.0566845176892645
            ]
        },
        {
            "positions": [
                1.2928799178398216,
                -0.8672509004414201,
                -0.5729636103632367,
                -0.6852876904495685,
                -0.31162757423126286,
                1.100589147015255
            ]
        },
        {
            "positions": [
                1.1990984095982773,
                -0.8421116511310871,
                -0.4831866161128482,
                -0.6277368031410059,
                -0.22767295297960888,
                1.1444937763412453
            ]
        },
        {
            "positions": [
                1.105316901356733,
                -0.8169724018207541,
                -0.3934096218624594,
                -0.5701859158324434,
                -0.1437183317279549,
                1.1883984056672356
            ]
        },
        {
            "positions": [
                1.011535393115189,
                -0.7918331525104212,
                -0.3036326276120709,
                -0.512635028523881,
                -0.05976371047630136,
                1.232303034993226
            ]
        },
        {
            "positions": [
                0.9177538848736448,
                -0.7666939032000882,
                -0.21385563336168212,
                -0.45508414121531837,
                0.024190910775352625,
                1.2762076643192164
            ]
        },
        {
            "positions": [
                0.8239723766321005,
                -0.7415546538897553,
                -0.12407863911129335,
                -0.39753325390675576,
                0.10814553202700661,
                1.3201122936452068
            ]
        },
        {
            "positions": [
                0.7301908683905565,
                -0.7164154045794224,
                -0.03430164486090481,
                -0.33998236659819336,
                0.19210015327866015,
                1.3640169229711971
            ]
        },
        {
            "positions": [
                0.636409360149012,
                -0.6912761552690895,
                0.05547534938948373,
                -0.28243147928963075,
                0.27605477453031413,
                1.4079215522971875
            ]
        },
        {
            "positions": [
                0.5426278519074677,
                -0.6661369059587565,
                0.14525234363987272,
                -0.22488059198106813,
                0.3600093957819681,
                1.451826181623178
            ]
        },
        {
            "positions": [
                0.4488463436659238,
                -0.6409976566484236,
                0.23502933789026104,
                -0.16732970467250574,
                0.44396401703362165,
                1.4957308109491683
            ]
        },
        {
            "positions": [
                0.3550648354243795,
                -0.6158584073380906,
                0.3248063321406497,
                -0.10977881736394314,
                0.5279186382852756,
                1.5396354402751586
            ]
        },
        {
            "positions": [
                0.3405700586010842,
                -0.6258246396995842,
                0.42875607432110896,
                0.016474335730283993,
                0.4873341820957155,
                1.445029530994629
            ]
        },
        {
            "positions": [
                0.3260752817777889,
                -0.6357908720610778,
                0.5327058165015681,
                0.14272748882451114,
                0.44674972590615536,
                1.3504236217140992
            ]
        },
        {
            "positions": [
                0.3115805049544936,
                -0.6457571044225714,
                0.6366555586820274,
                0.2689806419187383,
                0.4061652697165953,
                1.2558177124335697
            ]
        },
        {
            "positions": [
                0.29708572813119827,
                -0.6557233367840649,
                0.7406053008624867,
                0.3952337950129654,
                0.36558081352703514,
                1.1612118031530398
            ]
        },
        {
            "positions": [
                0.28259095130790296,
                -0.6656895691455585,
                0.8445550430429459,
                0.5214869481071925,
                0.324996357337475,
                1.0666058938725103
            ]
        },
        {
            "positions": [
                0.26809617448460765,
                -0.6756558015070522,
                0.9485047852234051,
                0.6477401012014197,
                0.2844119011479149,
                0.9719999845919806
            ]
        },
        {
            "positions": [
                0.2536013976613123,
                -0.6856220338685457,
                1.0524545274038644,
                0.7739932542956468,
                0.2438274449583548,
                0.8773940753114509
            ]
        },
        {
            "positions": [
                0.239106620838017,
                -0.6955882662300393,
                1.1564042695843235,
                0.9002464073898739,
                0.20324298876879465,
                0.7827881660309212
            ]
        },
        {
            "positions": [
                0.2246118440147217,
                -0.705554498591533,
                1.260354011764783,
                1.0264995604841012,
                0.16265853257923452,
                0.6881822567503915
            ]
        },
        {
            "positions": [
                0.2101170671914264,
                -0.7155207309530265,
                1.3643037539452423,
                1.1527527135783282,
                0.12207407638967438,
                0.5935763474698618
            ]
        },
        {
            "positions": [
                0.19562229036813109,
                -0.7254869633145201,
                1.4682534961257012,
                1.2790058666725552,
                0.0814896202001143,
                0.49897043818933207
            ]
        },
        {
            "positions": [
                0.18112751354483575,
                -0.7354531956760137,
                1.5722032383061606,
                1.4052590197667825,
                0.04090516401055416,
                0.4043645289088025
            ]
        },
        {
            "positions": [
                0.16663273672154044,
                -0.7454194280375073,
                1.67615298048662,
                1.5315121728610097,
                0.00032070782099402617,
                0.30975861962827267
            ]
        },
        {
            "positions": [
                0.15213795989824513,
                -0.7553856603990009,
                1.780102722667079,
                1.6577653259552367,
                -0.040263748368566055,
                0.21515271034774308
            ]
        },
        {
            "positions": [
                0.13764318307494983,
                -0.7653518927604945,
                1.8840524648475383,
                1.7840184790494638,
                -0.08084820455812625,
                0.12054680106721327
            ]
        },
        {
            "positions": [
                0.12314840625165452,
                -0.7753181251219881,
                1.9880022070279977,
                1.9102716321436908,
                -0.12143266074768631,
                0.025940891786683677
            ]
        }
    ]
}