{
    "goal": {
        "global_pose": {
            "orientation": {
                "w": -0.00223480608172531,
                "x": 0.0024358444001904467,
                "y": 0.7094548369677653,
                "z": -0.704743149386269
            },
            "position": {
                "x": 0.6205249238014221,
                "y": -0.6371506643295288,
                "z": 0.19426114857196808
            }
        },
        "name": "move_to_magneteinheit_B"
    },
    "id": "STRIDE_move_to_magneteinheit_B_119",
    "joint_names": [
        "shoulder_pan_joint",
        "shoulder_lift_joint",
        "elbow_joint",
        "wrist_1_joint",
        "wrist_2_joint",
        "wrist_3_joint"
    ],
    "metrics": {
        "cart_traj_len": 3.8165052162021293,
        "distance_elbow_joint": 4.697284867858986,
        "distance_shoulder_lift_joint": 0.768336446102277,
        "distance_shoulder_pan_joint": 2.6929511926885445,
        "distance_wrist_1_joint": 4.391294908815084,
        "distance_wrist_2_joint": 2.7486561662216893,
        "distance_wrist_3_joint": 3.3608631798112043,
        "smoothness": 0.1312911643257986,
        "time": 1.497598134,
        "traj_len": 4.31965123146508,
        "weighted_distance": 5.70272427846174
    },
    "planner": "STRIDE",
    "start": {
        "state": {
            "elbow_joint": 2.6216224122426386,
            "shoulder_lift_joint": -1.4174107377796124,
            "shoulder_pan_joint": 0.7066234856936794,
            "wrist_1_joint": 1.9546482284002225,
            "wrist_2_joint": -0.7096286983471962,
            "wrist_3_joint": 0.005740856962016249
        }
    },
    "waypoints": [
        {
            "positions": [
                0.7066234856936794,
                -1.4174107377796124,
                2.6216224122426386,
                1.9546482284002225,
                -0.7096286983471962,
                0.005740856962016249
            ]
        },
        {
            "positions": [
                0.6544488900289693,
                -1.4437496946498565,
                2.6267690363040943,
                1.8809618549970566,
                -0.6232289907858971,
                -0.03399963098357445
            ]
        },
        {
            "positions": [
                0.6022742943642592,
                -1.4700886515201004,
                2.63191566036555,
                1.807275481593891,
                -0.536829283224598,
                -0.07374011892916514
            ]
        },
        {
            "positions": [
                0.5500996986995491,
                -1.4964276083903445,
                2.6370622844270057,
                1.733589108190725,
                -0.4504295756632988,
                -0.11348060687475585
            ]
        },
        {
            "positions": [
                0.5305163326018428,
                -1.5305659812179653,
                2.5583006251496108,
                1.6409001969316246,
                -0.3235716051794338,
                -0.1072963556731016
            ]
        },
        {
            "positions": [
                0.5109329665041367,
                -1.564704354045586,
                2.479538965872216,
                1.548211285672524,
                -0.1967136346955688,
                -0.10111210447144736
            ]
        },
        {
            "positions": [
                0.4913496004064304,
                -1.5988427268732066,
                2.400777306594821,
                1.4555223744134236,
                -0.0698556642117038,
                -0.09492785326979311
            ]
        },
        {
            "positions": [
                0.4717662343087241,
                -1.6329810997008274,
                2.322015647317426,
                1.3628334631543229,
                0.057002306272161185,
                -0.08874360206813886
            ]
        },
        {
            "positions": [
                0.45218286821101783,
                -1.6671194725284482,
                2.243253988040031,
                1.2701445518952224,
                0.18386027675602623,
                -0.08255935086648462
            ]
        },
        {
            "positions": [
                0.4325995021133116,
                -1.7012578453560687,
                2.164492328762636,
                1.1774556406361218,
                0.31071824723989117,
                -0.07637509966483037
            ]
        },
        {
            "positions": [
                0.4130161360156054,
                -1.7353962181836895,
                2.085730669485241,
                1.0847667293770211,
                0.4375762177237561,
                -0.07019084846317614
            ]
        },
        {
            "positions": [
                0.3934327699178991,
                -1.7695345910113103,
                2.006969010207846,
                0.9920778181179207,
                0.564434188207621,
                -0.06400659726152189
            ]
        },
        {
            "positions": [
                0.44623474076260483,
                -1.7733388417498648,
                1.8989528259830717,
                0.9006084030738932,
                0.6181671611231565,
                -0.046762975258478424
            ]
        },
        {
            "positions": [
                0.4990367116073106,
                -1.777143092488419,
                1.7909366417582975,
                0.8091389880298656,
                0.6719001340386919,
                -0.029519353255434963
            ]
        },
        {
            "positions": [
                0.5518386824520164,
                -1.7809473432269733,
                1.6829204575335233,
                0.717669572985838,
                0.7256331069542273,
                -0.012275731252391502
            ]
        },
        {
            "positions": [
                0.6046406532967221,
                -1.7847515939655278,
                1.574904273308749,
                0.6262001579418105,
                0.7793660798697628,
                0.004967890750651967
            ]
        },
        {
            "positions": [
                0.6883735325348372,
                -1.788912250151736,
                1.4363764773040912,
                0.5178952385442234,
                0.7726019490156615,
                0.05134613303518769
            ]
        },
        {
            "positions": [
                0.7721064117729524,
                -1.793072906337944,
                1.2978486812994336,
                0.40959031914663635,
                0.7658378181615603,
                0.09772437531972342
            ]
        },
        {
            "positions": [
                0.8558392910110674,
                -1.797233562524152,
                1.1593208852947758,
                0.3012853997490493,
                0.7590736873074589,
                0.1441026176042591
            ]
        },
        {
            "positions": [
                0.9395721702491825,
                -1.8013942187103602,
                1.0207930892901182,
                0.19298048035146215,
                0.7523095564533576,
                0.19048085988879485
            ]
        },
        {
            "positions": [
                1.0233050494872975,
                -1.8055548748965684,
                0.8822652932854606,
                0.08467556095387507,
                0.7455454255992564,
                0.23685910217333053
            ]
        },
        {
            "positions": [
                1.1070379287254126,
                -1.8097155310827764,
                0.7437374972808029,
                -0.023629358443711945,
                0.7387812947451551,
                0.28323734445786625
            ]
        },
        {
            "positions": [
                1.1907708079635277,
                -1.8138761872689844,
                0.6052097012761452,
                -0.13193427784129907,
                0.7320171638910539,
                0.329615586742402
            ]
        },
        {
            "positions": [
                1.2745036872016429,
                -1.8180368434551926,
                0.46668190527148723,
                -0.2402391972388862,
                0.7252530330369525,
                0.37599382902693773
            ]
        },
        {
            "positions": [
                1.358236566439758,
                -1.8221974996414008,
                0.32815410926682964,
                -0.34854411663647333,
                0.7184889021828512,
                0.4223720713114734
            ]
        },
        {
            "positions": [
                1.441969445677873,
                -1.8263581558276087,
                0.18962631326217205,
                -0.45684903603406035,
                0.71172477132875,
                0.4687503135960091
            ]
        },
        {
            "positions": [
                1.5257023249159882,
                -1.8305188120138167,
                0.05109851725751424,
                -0.5651539554316475,
                0.7049606404746487,
                0.5151285558805448
            ]
        },
        {
            "positions": [
                1.6094352041541031,
                -1.834679468200025,
                -0.08742927874714335,
                -0.6734588748292344,
                0.6981965096205474,
                0.5615067981650805
            ]
        },
        {
            "positions": [
                1.6931680833922182,
                -1.8388401243862331,
                -0.22595707475180138,
                -0.7817637942268217,
                0.6914323787664461,
                0.6078850404496163
            ]
        },
        {
            "positions": [
                1.7769009626303334,
                -1.843000780572441,
                -0.36448487075645875,
                -0.8900687136244086,
                0.6846682479123448,
                0.654263282734152
            ]
        },
        {
            "positions": [
                1.8606338418684485,
                -1.847161436758649,
                -0.5030126667611166,
                -0.9983736330219958,
                0.6779041170582436,
                0.7006415250186877
            ]
        },
        {
            "positions": [
                1.9443667211065636,
                -1.8513220929448573,
                -0.6415404627657746,
                -1.106678552419583,
                0.6711399862041423,
                0.7470197673032235
            ]
        },
        {
            "positions": [
                2.028099600344679,
                -1.8554827491310655,
                -0.7800682587704317,
                -1.21498347181717,
                0.664375855350041,
                0.7933980095877591
            ]
        },
        {
            "positions": [
                2.1118324795827936,
                -1.8596434053172735,
                -0.9185960547750898,
                -1.3232883912147573,
                0.6576117244959396,
                0.8397762518722949
            ]
        },
        {
            "positions": [
                2.1955653588209088,
                -1.8638040615034814,
                -1.0571238507797474,
                -1.4315933106123442,
                0.6508475936418384,
                0.8861544941568306
            ]
        },
        {
            "positions": [
                2.279298238059024,
                -1.8679647176896896,
                -1.195651646784405,
                -1.539898230009931,
                0.6440834627877371,
                0.9325327364413663
            ]
        },
        {
            "positions": [
                2.363031117297139,
                -1.8721253738758978,
                -1.334179442789063,
                -1.6482031494075184,
                0.6373193319336359,
                0.978910978725902
            ]
        },
        {
            "positions": [
                2.446763996535254,
                -1.8762860300621058,
                -1.4727072387937206,
                -1.7565080688051053,
                0.6305552010795346,
                1.0252892210104378
            ]
        },
        {
            "positions": [
                2.4853343781519652,
                -1.8929459788438074,
                -1.5266545021048146,
                -1.7971676655173519,
                0.5301970779288803,
                1.118325741537594
            ]
        },
        {
            "positions": [
                2.5239047597686763,
                -1.9096059276255088,
                -1.5806017654159088,
                -1.8378272622295981,
                0.4298389547782261,
                1.2113622620647502
            ]
        },
        {
            "positions": [
                2.5624751413853875,
                -1.9262658764072105,
                -1.6345490287270028,
                -1.8784868589418446,
                0.32948083162757186,
                1.3043987825919063
            ]
        },
        {
            "positions": [
                2.601045523002098,
                -1.942925825188912,
                -1.688496292038097,
                -1.9191464556540911,
                0.22912270847691762,
                1.3974353031190623
            ]
        },
        {
            "positions": [
                2.6396159046188092,
                -1.9595857739706137,
                -1.742443555349191,
                -1.9598060523663376,
                0.12876458532626334,
                1.4904718236462184
            ]
        },
        {
            "positions": [
                2.6781862862355204,
                -1.9762457227523151,
                -1.796390818660285,
                -2.000465649078584,
                0.02840646217560916,
                1.5835083441733746
            ]
        },
        {
            "positions": [
                2.7167566678522315,
                -1.9929056715340168,
                -1.8503380819713793,
                -2.0411252457908304,
                -0.07195166097504517,
                1.6765448647005308
            ]
        },
        {
            "positions": [
                2.708694299426741,
                -2.020454459012284,
                -1.8225602777890602,
                -2.0976283078799782,
                -0.1302864677121766,
                1.8839186139004087
            ]
        },
        {
            "positions": [
                2.7006319310012508,
                -2.048003246490552,
                -1.794782473606741,
                -2.1541313699691256,
                -0.18862127444930804,
                2.0912923631002864
            ]
        },
        {
            "positions": [
                2.6925695625757604,
                -2.0755520339688194,
                -1.767004669424422,
                -2.2106344320582734,
                -0.24695608118643947,
                2.2986661123001646
            ]
        },
        {
            "positions": [
                2.6845071941502705,
                -2.1031008214470868,
                -1.739226865242103,
                -2.2671374941474207,
                -0.3052908879235709,
                2.5060398615000423
            ]
        },
        {
            "positions": [
                2.67644482572478,
                -2.130649608925354,
                -1.711449061059784,
                -2.3236405562365685,
                -0.3636256946607023,
                2.71341361069992
            ]
        },
        {
            "positions": [
                2.66838245729929,
                -2.158198396403622,
                -1.6836712568774648,
                -2.380143618325716,
                -0.42196050139783375,
                2.9207873598997978
            ]
        },
        {
            "positions": [
                2.6603200888737994,
                -2.1857471838818894,
                -1.6558934526951457,
                -2.4366466804148637,
                -0.4802953081349652,
                3.128161109099676
            ]
        }
    ]
}