{
    "goal": {
        "global_pose": {
            "orientation": {
                "w": 0.7031023480610252,
                "x": -0.7110244013736278,
                "y": 0.0077485991402295624,
                "z": 0.005598929693374583
            },
            "position": {
                "x": -0.8841497679147869,
                "y": 0.44412534475326537,
                "z": 0.3711530566215515
            }
        },
        "name": "move_to_auspresseinheit_D"
    },
    "id": "STRIDE_move_to_auspresseinheit_D_80",
    "joint_names": [
        "shoulder_pan_joint",
        "shoulder_lift_joint",
        "elbow_joint",
        "wrist_1_joint",
        "wrist_2_joint",
        "wrist_3_joint"
    ],
    "metrics": {
        "cart_traj_len": 0.3431226778710244,
        "distance_elbow_joint": 0.6454434924877206,
        "distance_shoulder_lift_joint": 0.12509451515915604,
        "distance_shoulder_pan_joint": 0.13341437699837314,
        "distance_wrist_1_joint": 0.5584124511045734,
        "distance_wrist_2_joint": 1.4361761436790403,
        "distance_wrist_3_joint": 0.0237074646268165,
        "smoothness": 0.0,
        "time": 0.077027663,
        "traj_len": 1.7094585236429927,
        "weighted_distance": 2.2280601356545398
    },
    "planner": "STRIDE",
    "start": {
        "state": {
            "elbow_joint": -1.8275523626775212,
            "shoulder_lift_joint": -2.126789852344167,
            "shoulder_pan_joint": -0.03513704404078235,
            "wrist_1_joint": -2.347782403156801,
            "wrist_2_joint": -1.6058999987535132,
            "wrist_3_joint": -3.0880379163319196
        }
    },
    "waypoints": [
        {
            "positions": [
                -0.03513704404078235,
                -2.126789852344167,
                -1.8275523626775212,
                -2.347782403156801,
                -1.6058999987535132,
                -3.0880379163319196
            ]
        },
        {
            "positions": [
                -0.051813841165578994,
                -2.1424266667390612,
                -1.7468719261165562,
                -2.4175839595448725,
                -1.4263779807936332,
                -3.0850744832535675
            ]
        },
        {
            "positions": [
                -0.06849063829037563,
                -2.158063481133956,
                -1.6661914895555912,
                -2.487385515932944,
                -1.2468559628337532,
                -3.0821110501752154
            ]
        },
        {
            "positions": [
                -0.08516743541517227,
                -2.1737002955288505,
                -1.585511052994626,
                -2.5571870723210157,
                -1.067333944873873,
                -3.0791476170968632
            ]
        },
        {
            "positions": [
                -0.10184423253996891,
                -2.189337109923745,
                -1.504830616433661,
                -2.6269886287090873,
                -0.887811926913993,
                -3.076184184018511
            ]
        },
        {
            "positions": [
                -0.11852102966476555,
                -2.2049739243186393,
                -1.4241501798726959,
                -2.6967901850971594,
                -0.708289908954113,
                -3.0732207509401595
            ]
        },
        {
            "positions": [
                -0.13519782678956221,
                -2.2206107387135336,
                -1.3434697433117306,
                -2.766591741485231,
                -0.5287678909942328,
                -3.0702573178618073
            ]
        },
        {
            "positions": [
                -0.15187462391435885,
                -2.2362475531084285,
                -1.2627893067507656,
                -2.8363932978733026,
                -0.34924587303435284,
                -3.067293884783455
            ]
        },
        {
            "positions": [
                -0.1685514210391555,
                -2.251884367503323,
                -1.1821088701898006,
                -2.9061948542613742,
                -0.16972385507447285,
                -3.064330451705103
            ]
        }
    ]
}