{
    "goal": {
        "global_pose": {
            "orientation": {
                "w": -0.4816463035849501,
                "x": 0.5182115481033762,
                "y": 0.4908360881923453,
                "z": -0.5084816262002911
            },
            "position": {
                "x": -0.8240239810943604,
                "y": 0.19912469901144506,
                "z": 0.16403168439865112
            }
        },
        "name": "move_to_storage_D"
    },
    "id": "STRIDE_move_to_storage_D_54",
    "joint_names": [
        "shoulder_pan_joint",
        "shoulder_lift_joint",
        "elbow_joint",
        "wrist_1_joint",
        "wrist_2_joint",
        "wrist_3_joint"
    ],
    "metrics": {
        "cart_traj_len": 0.6057068659475463,
        "distance_elbow_joint": 0.555804080733709,
        "distance_shoulder_lift_joint": 0.15128676510431216,
        "distance_shoulder_pan_joint": 0.3735409925405536,
        "distance_wrist_1_joint": 4.096484957808012,
        "distance_wrist_2_joint": 1.776923525717933,
        "distance_wrist_3_joint": 3.1512196747969634,
        "smoothness": 0.1716252416137374,
        "time": 0.093692954,
        "traj_len": 3.178877159737614,
        "weighted_distance": 4.72028683766372
    },
    "planner": "STRIDE",
    "start": {
        "state": {
            "elbow_joint": -2.384821988534728,
            "shoulder_lift_joint": -2.2788054721415256,
            "shoulder_pan_joint": -0.1854694642142757,
            "wrist_1_joint": 1.4845938289331202,
            "wrist_2_joint": 0.17898776772866878,
            "wrist_3_joint": 0.037105688729662994
        }
    },
    "waypoints": [
        {
            "positions": [
                -0.1854694642142757,
                -2.2788054721415256,
                -2.384821988534728,
                1.4845938289331202,
                0.17898776772866878,
                0.037105688729662994
            ]
        },
        {
            "positions": [
                -0.09794218076672301,
                -2.2506069237876067,
                -2.358456566265407,
                1.5295039307843423,
                0.10414304069407404,
                0.07862857463584585
            ]
        },
        {
            "positions": [
                -0.010414897319170308,
                -2.2224083754336874,
                -2.332091143996086,
                1.5744140326355647,
                0.029298313659479297,
                0.12015146054202872
            ]
        },
        {
            "positions": [
                0.07711238612838245,
                -2.1942098270797685,
                -2.305725721726765,
                1.6193241344867868,
                -0.04554641337511545,
                0.16167434644821158
            ]
        },
        {
            "positions": [
                0.07248908853680347,
                -2.1914310304113287,
                -2.2858628961465253,
                1.4542510239761892,
                -0.1102293027340383,
                0.28778480549314556
            ]
        },
        {
            "positions": [
                0.06786579094522448,
                -2.188652233742889,
                -2.266000070566286,
                1.2891779134655914,
                -0.17491219209296116,
                0.41389526453807945
            ]
        },
        {
            "positions": [
                0.0632424933536455,
                -2.185873437074449,
                -2.2461372449860466,
                1.1241048029549936,
                -0.23959508145188405,
                0.5400057235830135
            ]
        },
        {
            "positions": [
                0.05861919576206652,
                -2.183094640406009,
                -2.226274419405807,
                0.959031692444396,
                -0.3042779708108069,
                0.6661161826279474
            ]
        },
        {
            "positions": [
                0.05399589817048753,
                -2.1803158437375694,
                -2.206411593825568,
                0.7939585819337982,
                -0.3689608601697298,
                0.7922266416728814
            ]
        },
        {
            "positions": [
                0.04937260057890855,
                -2.17753704706913,
                -2.1865487682453284,
                0.6288854714232005,
                -0.43364374952865264,
                0.9183371007178153
            ]
        },
        {
            "positions": [
                0.04474930298732956,
                -2.17475825040069,
                -2.166685942665089,
                0.4638123609126028,
                -0.49832663888757556,
                1.0444475597627494
            ]
        },
        {
            "positions": [
                0.040126005395750584,
                -2.1719794537322503,
                -2.1468231170848497,
                0.2987392504020052,
                -0.5630095282464983,
                1.1705580188076832
            ]
        },
        {
            "positions": [
                0.0355027078041716,
                -2.1692006570638105,
                -2.12696029150461,
                0.1336661398914074,
                -0.6276924176054213,
                1.2966684778526172
            ]
        },
        {
            "positions": [
                0.030879410212592613,
                -2.1664218603953707,
                -2.1070974659243706,
                -0.0314069706191904,
                -0.6923753069643441,
                1.4227789368975512
            ]
        },
        {
            "positions": [
                0.026256112621013634,
                -2.163643063726931,
                -2.087234640344131,
                -0.196480081129788,
                -0.757058196323267,
                1.548889395942485
            ]
        },
        {
            "positions": [
                0.02163281502943465,
                -2.160864267058491,
                -2.067371814763892,
                -0.3615531916403858,
                -0.8217410856821898,
                1.674999854987419
            ]
        },
        {
            "positions": [
                0.01700951743785567,
                -2.158085470390051,
                -2.0475089891836524,
                -0.5266263021509832,
                -0.8864239750411127,
                1.8011103140323528
            ]
        },
        {
            "positions": [
                0.012386219846276678,
                -2.1553066737216113,
                -2.027646163603413,
                -0.6916994126615812,
                -0.9511068644000357,
                1.927220773077287
            ]
        },
        {
            "positions": [
                0.007762922254697699,
                -2.1525278770531715,
                -2.0077833380231738,
                -0.8567725231721788,
                -1.0157897537589584,
                2.053331232122221
            ]
        },
        {
            "positions": [
                0.0031396246631187202,
                -2.1497490803847317,
                -1.9879205124429342,
                -1.0218456336827764,
                -1.0804726431178813,
                2.179441691167155
            ]
        },
        {
            "positions": [
                -0.0014836729284602723,
                -2.146970283716292,
                -1.9680576868626947,
                -1.1869187441933744,
                -1.1451555324768043,
                2.305552150212089
            ]
        },
        {
            "positions": [
                -0.006106970520039251,
                -2.144191487047852,
                -1.9481948612824553,
                -1.351991854703972,
                -1.2098384218357272,
                2.431662609257023
            ]
        },
        {
            "positions": [
                -0.01073026811161823,
                -2.1414126903794126,
                -1.928332035702216,
                -1.5170649652145696,
                -1.27452131119465,
                2.5577730683019566
            ]
        },
        {
            "positions": [
                -0.015353565703197222,
                -2.138633893710973,
                -1.9084692101219765,
                -1.6821380757251676,
                -1.339204200553573,
                2.683883527346891
            ]
        },
        {
            "positions": [
                -0.0199768632947762,
                -2.135855097042533,
                -1.8886063845417371,
                -1.8472111862357652,
                -1.4038870899124958,
                2.8099939863918246
            ]
        },
        {
            "positions": [
                -0.02460016088635518,
                -2.133076300374093,
                -1.8687435589614978,
                -2.0122842967463628,
                -1.4685699792714186,
                2.9361044454367584
            ]
        },
        {
            "positions": [
                -0.029223458477934172,
                -2.1302975037056533,
                -1.8488807333812582,
                -2.177357407256961,
                -1.5332528686303415,
                3.0622149044816926
            ]
        },
        {
            "positions": [
                -0.03384675606951315,
                -2.1275187070372135,
                -1.829017907801019,
                -2.3424305177675584,
                -1.5979357579892643,
                3.1883253635266264
            ]
        }
    ]
}