{
    "goal": {
        "global_pose": {
            "orientation": {
                "w": -0.4816463035849501,
                "x": 0.5182115481033762,
                "y": 0.4908360881923453,
                "z": -0.5084816262002911
            },
            "position": {
                "x": -0.8240239810943604,
                "y": -0.300875300988555,
                "z": 0.16403168439865112
            }
        },
        "name": "move_to_storage_C"
    },
    "id": "STRIDE_move_to_storage_C_147",
    "joint_names": [
        "shoulder_pan_joint",
        "shoulder_lift_joint",
        "elbow_joint",
        "wrist_1_joint",
        "wrist_2_joint",
        "wrist_3_joint"
    ],
    "metrics": {
        "cart_traj_len": 0.5761691960296973,
        "distance_elbow_joint": 0.25931918890854044,
        "distance_shoulder_lift_joint": 0.189142923651332,
        "distance_shoulder_pan_joint": 0.49430379309230643,
        "distance_wrist_1_joint": 0.0855310978637418,
        "distance_wrist_2_joint": 1.0676136078433007,
        "distance_wrist_3_joint": 0.06528434596176647,
        "smoothness": 0.0,
        "time": 0.046170294,
        "traj_len": 1.4701003221960698,
        "weighted_distance": 1.8560464312488423
    },
    "planner": "STRIDE",
    "start": {
        "state": {
            "elbow_joint": 2.010868314990456,
            "shoulder_lift_joint": -1.1634956873337592,
            "shoulder_pan_joint": -2.4736205022346125,
            "wrist_1_joint": -0.8367026794202681,
            "wrist_2_joint": 0.6746043897044499,
            "wrist_3_joint": -3.1496632123970403
        }
    },
    "waypoints": [
        {
            "positions": [
                -2.4736205022346125,
                -1.1634956873337592,
                2.010868314990456,
                -0.8367026794202681,
                0.6746043897044499,
                -3.1496632123970403
            ]
        },
        {
            "positions": [
                -2.5560044677499967,
                -1.131971866725204,
                1.9676484501723657,
                -0.8224474964429778,
                0.8525399910116667,
                -3.1387824880700794
            ]
        },
        {
            "positions": [
                -2.6383884332653813,
                -1.1004480461166486,
                1.9244285853542757,
                -0.8081923134656875,
                1.0304755923188835,
                -3.127901763743118
            ]
        },
        {
            "positions": [
                -2.720772398780766,
                -1.068924225508093,
                1.8812087205361856,
                -0.7939371304883972,
                1.2084111936261004,
                -3.117021039416157
            ]
        },
        {
            "positions": [
                -2.80315636429615,
                -1.0374004048995378,
                1.8379888557180954,
                -0.7796819475111069,
                1.386346794933317,
                -3.106140315089196
            ]
        },
        {
            "positions": [
                -2.8855403298115343,
                -1.0058765842909825,
                1.7947689909000055,
                -0.7654267645338166,
                1.564282396240534,
                -3.095259590762235
            ]
        },
        {
            "positions": [
                -2.967924295326919,
                -0.9743527636824272,
                1.7515491260819154,
                -0.7511715815565263,
                1.7422179975477508,
                -3.084378866435274
            ]
        }
    ]
}