{
    "goal": {
        "global_pose": {
            "orientation": {
                "w": 0.005598929693374612,
                "x": 0.007748599140229565,
                "y": 0.7110244013736278,
                "z": -0.7031023480610252
            },
            "position": {
                "x": 0.1141497679147869,
                "y": -0.7141253447532654,
                "z": 0.3711530566215515
            }
        },
        "name": "move_to_auspresseinheit_B"
    },
    "id": "STRIDE_move_to_auspresseinheit_B_12",
    "joint_names": [
        "shoulder_pan_joint",
        "shoulder_lift_joint",
        "elbow_joint",
        "wrist_1_joint",
        "wrist_2_joint",
        "wrist_3_joint"
    ],
    "metrics": {
        "cart_traj_len": 0.5647237259394772,
        "distance_elbow_joint": 0.06049692732068457,
        "distance_shoulder_lift_joint": 0.2945903592115531,
        "distance_shoulder_pan_joint": 0.5780216340944708,
        "distance_wrist_1_joint": 0.3164231841337807,
        "distance_wrist_2_joint": 0.9875203849193239,
        "distance_wrist_3_joint": 0.003188230160256378,
        "smoothness": 2.5376526478085547e-16,
        "time": 0.011186749000000001,
        "traj_len": 1.4967433714034177,
        "weighted_distance": 1.8842931696563798
    },
    "planner": "STRIDE",
    "start": {
        "state": {
            "elbow_joint": 2.0193083361928714,
            "shoulder_lift_joint": -1.1220246554650708,
            "shoulder_pan_joint": -1.0952077554168747,
            "wrist_1_joint": -0.8559753972642168,
            "wrist_2_joint": 0.4759566250798843,
            "wrist_3_joint": -3.1240929996934557
        }
    },
    "waypoints": [
        {
            "positions": [
                -1.0952077554168747,
                -1.1220246554650708,
                2.0193083361928714,
                -0.8559753972642168,
                0.4759566250798843,
                -3.1240929996934557
            ]
        },
        {
            "positions": [
                -1.1915446944326198,
                -1.1711230486669963,
                2.009225514972757,
                -0.8032381999085867,
                0.6405433558997716,
                -3.1235616280000795
            ]
        },
        {
            "positions": [
                -1.287881633448365,
                -1.220221441868922,
                1.9991426937526433,
                -0.7505010025529566,
                0.8051300867196589,
                -3.1230302563067034
            ]
        },
        {
            "positions": [
                -1.38421857246411,
                -1.2693198350708474,
                1.989059872532529,
                -0.6977638051973265,
                0.9697168175395463,
                -3.1224988846133277
            ]
        },
        {
            "positions": [
                -1.4805555114798552,
                -1.3184182282727728,
                1.978977051312415,
                -0.6450266078416964,
                1.1343035483594335,
                -3.1219675129199516
            ]
        },
        {
            "positions": [
                -1.5768924504956003,
                -1.3675166214746983,
                1.968894230092301,
                -0.5922894104860662,
                1.2988902791793209,
                -3.1214361412265754
            ]
        },
        {
            "positions": [
                -1.6732293895113455,
                -1.4166150146766239,
                1.9588114088721869,
                -0.5395522131304361,
                1.4634770099992083,
                -3.1209047695331993
            ]
        }
    ]
}