{
    "goal": {
        "global_pose": {
            "orientation": {
                "w": 0.5084816262002911,
                "x": -0.4908360881923452,
                "y": 0.5182115481033761,
                "z": -0.48164630358495003
            },
            "position": {
                "x": 0.5540239810943604,
                "y": -0.46912469901144505,
                "z": 0.16403168439865112
            }
        },
        "name": "move_to_storage_B"
    },
    "id": "STRIDE_move_to_storage_B_27",
    "joint_names": [
        "shoulder_pan_joint",
        "shoulder_lift_joint",
        "elbow_joint",
        "wrist_1_joint",
        "wrist_2_joint",
        "wrist_3_joint"
    ],
    "metrics": {
        "cart_traj_len": 3.7345971287635407,
        "distance_elbow_joint": 0.9181188264408044,
        "distance_shoulder_lift_joint": 2.060027653377844,
        "distance_shoulder_pan_joint": 4.569958374883431,
        "distance_wrist_1_joint": 2.989907312591983,
        "distance_wrist_2_joint": 5.400011153935345,
        "distance_wrist_3_joint": 4.533012848409624,
        "smoothness": 0.22746084390428584,
        "time": 0.188885829,
        "traj_len": 4.524492918509106,
        "weighted_distance": 6.1584884779453475
    },
    "planner": "STRIDE",
    "start": {
        "state": {
            "elbow_joint": 1.664937868594044,
            "shoulder_lift_joint": -0.661644460510453,
            "shoulder_pan_joint": -0.9139846352900073,
            "wrist_1_joint": 2.146753192139373,
            "wrist_2_joint": -2.2341966793290973,
            "wrist_3_joint": 0.005466555786416001
        }
    },
    "waypoints": [
        {
            "positions": [
                -0.9139846352900073,
                -0.661644460510453,
                1.664937868594044,
                2.146753192139373,
                -2.2341966793290973,
                0.005466555786416001
            ]
        },
        {
            "positions": [
                -0.8111001564557327,
                -0.7232064809444828,
                1.6593822212965872,
                2.111761849051975,
                -2.0907483942035565,
                -0.03307718082213888
            ]
        },
        {
            "positions": [
                -0.7082156776214582,
                -0.7847685013785126,
                1.6538265739991305,
                2.0767705059645767,
                -1.9473001090780153,
                -0.07162091743069376
            ]
        },
        {
            "positions": [
                -0.6053311987871837,
                -0.8463305218125423,
                1.6482709267016737,
                2.0417791628771784,
                -1.8038518239524743,
                -0.11016465403924866
            ]
        },
        {
            "positions": [
                -0.5024467199529091,
                -0.9078925422465721,
                1.642715279404217,
                2.00678781978978,
                -1.6604035388269334,
                -0.14870839064780353
            ]
        },
        {
            "positions": [
                -0.3995622411186346,
                -0.9694545626806019,
                1.6371596321067603,
                1.9717964767023817,
                -1.5169552537013924,
                -0.18725212725635845
            ]
        },
        {
            "positions": [
                -0.29667776228436005,
                -1.0310165831146316,
                1.6316039848093036,
                1.9368051336149834,
                -1.3735069685758514,
                -0.22579586386491332
            ]
        },
        {
            "positions": [
                -0.1937932834500855,
                -1.0925786035486615,
                1.6260483375118469,
                1.901813790527585,
                -1.2300586834503104,
                -0.26433960047346816
            ]
        },
        {
            "positions": [
                -0.09090880461581097,
                -1.1541406239826912,
                1.6204926902143901,
                1.8668224474401867,
                -1.0866103983247695,
                -0.30288333708202303
            ]
        },
        {
            "positions": [
                0.011975674218463572,
                -1.2157026444167212,
                1.6149370429169334,
                1.8318311043527884,
                -0.9431621131992285,
                -0.34142707369057795
            ]
        },
        {
            "positions": [
                0.11486015305273811,
                -1.2772646648507509,
                1.6093813956194767,
                1.7968397612653901,
                -0.7997138280736875,
                -0.3799708102991329
            ]
        },
        {
            "positions": [
                0.21774463188701276,
                -1.3388266852847805,
                1.60382574832202,
                1.7618484181779919,
                -0.6562655429481463,
                -0.41851454690768775
            ]
        },
        {
            "positions": [
                0.3206291107212872,
                -1.4003887057188105,
                1.5982701010245632,
                1.7268570750905936,
                -0.5128172578226056,
                -0.4570582835162426
            ]
        },
        {
            "positions": [
                0.4235135895555616,
                -1.4619507261528402,
                1.5927144537271065,
                1.6918657320031951,
                -0.3693689726970646,
                -0.49560202012479754
            ]
        },
        {
            "positions": [
                0.5263980683898363,
                -1.5235127465868699,
                1.5871588064296498,
                1.6568743889157969,
                -0.22592068757152362,
                -0.5341457567333524
            ]
        },
        {
            "positions": [
                0.6292825472241109,
                -1.5850747670208998,
                1.581603159132193,
                1.6218830458283984,
                -0.08247240244598242,
                -0.5726894933419073
            ]
        },
        {
            "positions": [
                0.7321670260583854,
                -1.6466367874549295,
                1.5760475118347363,
                1.586891702741,
                0.060975882679558335,
                -0.6112332299504621
            ]
        },
        {
            "positions": [
                0.8350515048926598,
                -1.7081988078889592,
                1.5704918645372796,
                1.5519003596536018,
                0.2044241678050991,
                -0.6497769665590171
            ]
        },
        {
            "positions": [
                0.9379359837269344,
                -1.769760828322989,
                1.564936217239823,
                1.5169090165662036,
                0.3478724529306404,
                -0.688320703167572
            ]
        },
        {
            "positions": [
                0.9760534475027476,
                -1.7867025043625042,
                1.6049920961612452,
                1.4474233002769883,
                0.47935626577840673,
                -0.6049301937022524
            ]
        },
        {
            "positions": [
                1.0141709112785606,
                -1.8036441804020196,
                1.6450479750826672,
                1.3779375839877732,
                0.6108400786261732,
                -0.5215396842369329
            ]
        },
        {
            "positions": [
                1.052288375054374,
                -1.8205858564415347,
                1.6851038540040895,
                1.308451867698558,
                0.7423238914739395,
                -0.43814917477161336
            ]
        },
        {
            "positions": [
                1.0904058388301872,
                -1.83752753248105,
                1.7251597329255115,
                1.2389661514093429,
                0.8738077043217058,
                -0.3547586653062938
            ]
        },
        {
            "positions": [
                1.1285233026060002,
                -1.8544692085205652,
                1.7652156118469338,
                1.1694804351201276,
                1.0052915171694723,
                -0.27136815584097423
            ]
        },
        {
            "positions": [
                1.1666407663818132,
                -1.8714108845600805,
                1.8052714907683558,
                1.0999947188309123,
                1.1367753300172385,
                -0.18797764637565473
            ]
        },
        {
            "positions": [
                1.2047582301576265,
                -1.8883525605995957,
                1.845327369689778,
                1.030509002541697,
                1.268259142865005,
                -0.10458713691033517
            ]
        },
        {
            "positions": [
                1.2428756939334398,
                -1.905294236639111,
                1.8853832486112,
                0.9610232862524819,
                1.3997429557127714,
                -0.021196627445015603
            ]
        },
        {
            "positions": [
                1.2809931577092528,
                -1.9222359126786261,
                1.9254391275326224,
                0.8915375699632666,
                1.5312267685605376,
                0.062193882020304
            ]
        },
        {
            "positions": [
                1.229926994038291,
                -1.9032258397946218,
                1.9560727774579119,
                0.8085001331276718,
                1.5639758261341874,
                0.19794972643904707
            ]
        },
        {
            "positions": [
                1.1788608303673296,
                -1.8842157669106174,
                1.9867064273832016,
                0.725462696292077,
                1.596724883707837,
                0.3337055708577901
            ]
        },
        {
            "positions": [
                1.1277946666963679,
                -1.8652056940266128,
                2.017340077308491,
                0.6424252594564823,
                1.6294739412814867,
                0.46946141527653323
            ]
        },
        {
            "positions": [
                1.0767285030254061,
                -1.8461956211426085,
                2.0479737272337806,
                0.5593878226208875,
                1.6622229988551365,
                0.6052172596952762
            ]
        },
        {
            "positions": [
                1.0256623393544444,
                -1.8271855482586041,
                2.07860737715907,
                0.47635038578529265,
                1.694972056428786,
                0.7409731041140194
            ]
        },
        {
            "positions": [
                0.9745961756834829,
                -1.8081754753745998,
                2.1092410270843596,
                0.3933129489496979,
                1.7277211140024358,
                0.8767289485327624
            ]
        },
        {
            "positions": [
                0.9235300120125212,
                -1.7891654024905952,
                2.1398746770096495,
                0.3102755121141031,
                1.7604701715760855,
                1.0124847929515055
            ]
        },
        {
            "positions": [
                0.8724638483415594,
                -1.7701553296065908,
                2.170508326934939,
                0.22723807527850837,
                1.793219229149735,
                1.1482406373702485
            ]
        },
        {
            "positions": [
                0.8213976846705978,
                -1.7511452567225865,
                2.2011419768602285,
                0.14420063844291353,
                1.8259682867233848,
                1.2839964817889917
            ]
        },
        {
            "positions": [
                0.7149874008458469,
                -1.7162371708751625,
                2.1910357871121073,
                0.08934759628205108,
                1.751532387396559,
                1.3877136153722736
            ]
        },
        {
            "positions": [
                0.608577117021096,
                -1.6813290850277385,
                2.1809295973639866,
                0.034494554121188625,
                1.6770964880697332,
                1.4914307489555554
            ]
        },
        {
            "positions": [
                0.5021668331963449,
                -1.6464209991803145,
                2.1708234076158655,
                -0.020358488039673828,
                1.6026605887429073,
                1.5951478825388372
            ]
        },
        {
            "positions": [
                0.39575654937159405,
                -1.6115129133328905,
                2.1607172178677447,
                -0.07521153020053628,
                1.5282246894160814,
                1.698865016122119
            ]
        },
        {
            "positions": [
                0.28934626554684306,
                -1.5766048274854665,
                2.1506110281196236,
                -0.13006457236139873,
                1.4537887900892554,
                1.8025821497054009
            ]
        },
        {
            "positions": [
                0.18293598172209213,
                -1.5416967416380427,
                2.1405048383715024,
                -0.1849176145222612,
                1.3793528907624295,
                1.9062992832886825
            ]
        },
        {
            "positions": [
                0.0765256978973411,
                -1.5067886557906187,
                2.1303986486233817,
                -0.23977065668312364,
                1.3049169914356038,
                2.0100164168719643
            ]
        },
        {
            "positions": [
                -0.029884585927409724,
                -1.4718805699431947,
                2.1202924588752605,
                -0.2946236988439861,
                1.2304810921087779,
                2.113733550455246
            ]
        },
        {
            "positions": [
                -0.13629486975216076,
                -1.4369724840957707,
                2.11018626912714,
                -0.34947674100484855,
                1.156045192781952,
                2.217450684038528
            ]
        },
        {
            "positions": [
                -0.2427051535769117,
                -1.4020643982483467,
                2.1000800793790186,
                -0.404329783165711,
                1.081609293455126,
                2.3211678176218102
            ]
        },
        {
            "positions": [
                -0.34911543740166284,
                -1.3671563124009227,
                2.0899738896308975,
                -0.4591828253265735,
                1.0071733941283,
                2.424884951205092
            ]
        },
        {
            "positions": [
                -0.45552572122641355,
                -1.332248226553499,
                2.0798676998827768,
                -0.5140358674874359,
                0.9327374948014744,
                2.5286020847883734
            ]
        },
        {
            "positions": [
                -0.5619360050511645,
                -1.297340140706075,
                2.0697615101346556,
                -0.5688889096482983,
                0.8583015954746485,
                2.6323192183716553
            ]
        },
        {
            "positions": [
                -0.6683462888759156,
                -1.262432054858651,
                2.0596553203865344,
                -0.6237419518091608,
                0.7838656961478225,
                2.736036351954937
            ]
        },
        {
            "positions": [
                -0.7747565727006666,
                -1.227523969011227,
                2.0495491306384137,
                -0.6785949939700233,
                0.7094297968209966,
                2.839753485538219
            ]
        },
        {
            "positions": [
                -0.8811668565254173,
                -1.192615883163803,
                2.0394429408902925,
                -0.7334480361308857,
                0.6349938974941709,
                2.9434706191215008
            ]
        },
        {
            "positions": [
                -0.9875771403501684,
                -1.157707797316379,
                2.029336751142172,
                -0.7883010782917481,
                0.560557998167345,
                3.0471877527047826
            ]
        },
        {
            "positions": [
                -1.0939874241749195,
                -1.122799711468955,
                2.0192305613940507,
                -0.8431541204526106,
                0.48612209884051905,
                3.1509048862880644
            ]
        }
    ]
}