{
    "goal": {
        "global_pose": {
            "orientation": {
                "w": 0.7031023502349854,
                "x": -0.7110244035720825,
                "y": 0.007748599164187908,
                "z": 0.005598929710686207
            },
            "position": {
                "x": 0.11585023208521307,
                "y": 0.44412534475326537,
                "z": 0.3711530566215515
            }
        },
        "name": "move_to_auspresseinheit_A"
    },
    "id": "STRIDE_move_to_auspresseinheit_A_86",
    "joint_names": [
        "shoulder_pan_joint",
        "shoulder_lift_joint",
        "elbow_joint",
        "wrist_1_joint",
        "wrist_2_joint",
        "wrist_3_joint"
    ],
    "metrics": {
        "cart_traj_len": 1.8991154252882831,
        "distance_elbow_joint": 2.4684344827331284,
        "distance_shoulder_lift_joint": 0.9093636173369175,
        "distance_shoulder_pan_joint": 1.1110765076781504,
        "distance_wrist_1_joint": 1.972249817470733,
        "distance_wrist_2_joint": 0.8364630747760841,
        "distance_wrist_3_joint": 3.536881235734778,
        "smoothness": 0.7543035225134066,
        "time": 0.097269605,
        "traj_len": 3.2915754185085584,
        "weighted_distance": 4.551586986914143
    },
    "planner": "STRIDE",
    "start": {
        "state": {
            "elbow_joint": 2.4225746658250005,
            "shoulder_lift_joint": -1.3736534386056498,
            "shoulder_pan_joint": -0.3378633547517467,
            "wrist_1_joint": -1.0288598680537169,
            "wrist_2_joint": 1.233022673432363,
            "wrist_3_joint": -3.0940220416140027
        }
    },
    "waypoints": [
        {
            "positions": [
                -0.3378633547517467,
                -1.3736534386056498,
                2.4225746658250005,
                -1.0288598680537169,
                1.233022673432363,
                -3.0940220416140027
            ]
        },
        {
            "positions": [
                -0.31913981059342855,
                -1.3662581044617057,
                2.3265773922627844,
                -0.9530251507564093,
                1.18042341948082,
                -2.9591736329130707
            ]
        },
        {
            "positions": [
                -0.3004162664351104,
                -1.3588627703177618,
                2.2305801187005687,
                -0.8771904334591016,
                1.127824165529277,
                -2.824325224212139
            ]
        },
        {
            "positions": [
                -0.28169272227679226,
                -1.3514674361738177,
                2.1345828451383526,
                -0.801355716161794,
                1.075224911577734,
                -2.689476815511207
            ]
        },
        {
            "positions": [
                -0.2629691781184741,
                -1.3440721020298736,
                2.0385855715761365,
                -0.7255209988644864,
                1.0226256576261907,
                -2.554628406810275
            ]
        },
        {
            "positions": [
                -0.24424563396015592,
                -1.3366767678859297,
                1.9425882980139206,
                -0.6496862815671789,
                0.9700264036746478,
                -2.419779998109343
            ]
        },
        {
            "positions": [
                -0.22552208980183774,
                -1.3292814337419856,
                1.8465910244517048,
                -0.5738515642698712,
                0.9174271497231047,
                -2.2849315894084112
            ]
        },
        {
            "positions": [
                -0.2067985456435196,
                -1.3218860995980415,
                1.7505937508894887,
                -0.49801684697256365,
                0.8648278957715617,
                -2.150083180707479
            ]
        },
        {
            "positions": [
                -0.18807500148520143,
                -1.3144907654540974,
                1.6545964773272726,
                -0.42218212967525603,
                0.8122286418200186,
                -2.015234772006547
            ]
        },
        {
            "positions": [
                -0.16935145732688328,
                -1.3070954313101535,
                1.558599203765057,
                -0.3463474123779485,
                0.7596293878684756,
                -1.8803863633056155
            ]
        },
        {
            "positions": [
                -0.1506279131685651,
                -1.2997000971662094,
                1.4626019302028408,
                -0.2705126950806408,
                0.7070301339169325,
                -1.7455379546046834
            ]
        },
        {
            "positions": [
                -0.13190436901024696,
                -1.2923047630222653,
                1.366604656640625,
                -0.1946779777833333,
                0.6544308799653895,
                -1.6106895459037516
            ]
        },
        {
            "positions": [
                -0.11318082485192879,
                -1.2849094288783214,
                1.2706073830784088,
                -0.11884326048602556,
                0.6018316260138463,
                -1.4758411372028195
            ]
        },
        {
            "positions": [
                -0.09445728069361065,
                -1.2775140947343773,
                1.174610109516193,
                -0.04300854318871809,
                0.5492323720623034,
                -1.3409927285018877
            ]
        },
        {
            "positions": [
                -0.007444720869542759,
                -1.352701277487717,
                1.2330052993751306,
                -0.12629214378481546,
                0.5528599735083449,
                -1.3883270887674595
            ]
        },
        {
            "positions": [
                0.07956783895452513,
                -1.4278884602410564,
                1.291400489234068,
                -0.2095757443809128,
                0.5564875749543864,
                -1.4356614490330315
            ]
        },
        {
            "positions": [
                0.166580398778593,
                -1.503075642994396,
                1.3497956790930057,
                -0.2928593449770102,
                0.560115176400428,
                -1.4829958092986033
            ]
        },
        {
            "positions": [
                0.2535929586026609,
                -1.5782628257477358,
                1.4081908689519433,
                -0.37614294557310757,
                0.5637427778464694,
                -1.5303301695641751
            ]
        },
        {
            "positions": [
                0.3406055184267288,
                -1.6534500085010753,
                1.466586058810881,
                -0.459426546169205,
                0.567370379292511,
                -1.5776645298297471
            ]
        },
        {
            "positions": [
                0.4276180782507966,
                -1.728637191254415,
                1.5249812486698184,
                -0.5427101467653023,
                0.5709979807385525,
                -1.624998890095319
            ]
        },
        {
            "positions": [
                0.5146306380748645,
                -1.8038243740077546,
                1.583376438528756,
                -0.6259937473613997,
                0.574625582184594,
                -1.6723332503608908
            ]
        },
        {
            "positions": [
                0.5595222469463944,
                -1.842952519152983,
                1.6840229440382637,
                -0.6516412764734171,
                0.5943699554464551,
                -1.8236471150803777
            ]
        },
        {
            "positions": [
                0.6044138558179243,
                -1.8820806642982113,
                1.784669449547771,
                -0.6772888055854345,
                0.6141143287083162,
                -1.9749609797998646
            ]
        },
        {
            "positions": [
                0.6493054646894542,
                -1.9212088094434394,
                1.8853159550572787,
                -0.702936334697452,
                0.6338587019701774,
                -2.126274844519352
            ]
        },
        {
            "positions": [
                0.694197073560984,
                -1.9603369545886677,
                1.9859624605667863,
                -0.7285838638094694,
                0.6536030752320384,
                -2.277588709238839
            ]
        },
        {
            "positions": [
                0.7390886824325139,
                -1.999465099733896,
                2.0866089660762936,
                -0.7542313929214868,
                0.6733474484938995,
                -2.4289025739583257
            ]
        },
        {
            "positions": [
                0.7379858003046547,
                -1.994258121892703,
                2.1129468890302907,
                -0.7350236925858609,
                0.6763928753517955,
                -2.4852474967152194
            ]
        },
        {
            "positions": [
                0.7302786005035892,
                -1.971837885926523,
                2.195711441366332,
                -0.664622403742767,
                0.6845407562329979,
                -2.669511850353979
            ]
        },
        {
            "positions": [
                0.723674282830383,
                -1.9546246278015365,
                2.252138070748377,
                -0.6134288152352992,
                0.6896432102563044,
                -2.7974312812358457
            ]
        },
        {
            "positions": [
                0.7143192473845035,
                -1.9314082295346533,
                2.3236090533444456,
                -0.5462422826419103,
                0.6957741778623161,
                -2.961137966180198
            ]
        },
        {
            "positions": [
                0.704964211938624,
                -1.90819183126777,
                2.3950800359405138,
                -0.47905575004852147,
                0.7019051454683277,
                -3.1248446511245507
            ]
        }
    ]
}