{
    "goal": {
        "global_pose": {
            "orientation": {
                "w": -0.00223480608172531,
                "x": 0.0024358444001904467,
                "y": 0.7094548369677653,
                "z": -0.704743149386269
            },
            "position": {
                "x": -0.37947507619857795,
                "y": -0.6371506643295288,
                "z": 0.19426114857196808
            }
        },
        "name": "move_to_magneteinheit_C"
    },
    "id": "STRIDE_move_to_magneteinheit_C_102",
    "joint_names": [
        "shoulder_pan_joint",
        "shoulder_lift_joint",
        "elbow_joint",
        "wrist_1_joint",
        "wrist_2_joint",
        "wrist_3_joint"
    ],
    "metrics": {
        "cart_traj_len": 1.3325063532104802,
        "distance_elbow_joint": 0.7994563806635537,
        "distance_shoulder_lift_joint": 0.6069088297254446,
        "distance_shoulder_pan_joint": 1.3553396384880265,
        "distance_wrist_1_joint": 1.6814016188564436,
        "distance_wrist_2_joint": 0.7941479076953488,
        "distance_wrist_3_joint": 2.3541780720599776,
        "smoothness": 0.8413483826242517,
        "time": 0.263904613,
        "traj_len": 2.755255423275453,
        "weighted_distance": 3.843870200482912
    },
    "planner": "STRIDE",
    "start": {
        "state": {
            "elbow_joint": 1.9565354010623817,
            "shoulder_lift_joint": -1.4165861575791021,
            "shoulder_pan_joint": -1.6717766225146293,
            "wrist_1_joint": -0.5286633292919765,
            "wrist_2_joint": 1.472756589071564,
            "wrist_3_joint": -3.1238370188695823
        }
    },
    "waypoints": [
        {
            "positions": [
                -1.6717766225146293,
                -1.4165861575791021,
                1.9565354010623817,
                -0.5286633292919765,
                1.472756589071564,
                -3.1238370188695823
            ]
        },
        {
            "positions": [
                -1.6387021322782744,
                -1.4168228921029633,
                1.946447143950746,
                -0.5084826651691045,
                1.4578609368668523,
                -3.1237373882803263
            ]
        },
        {
            "positions": [
                -1.598465277088523,
                -1.435305237384177,
                1.9015786053047334,
                -0.42956229290370596,
                1.41883954770802,
                -3.0720163375387743
            ]
        },
        {
            "positions": [
                -1.5582284218987719,
                -1.453787582665391,
                1.856710066658721,
                -0.3506419206383074,
                1.3798181585491875,
                -3.020295286797222
            ]
        },
        {
            "positions": [
                -1.5179915667090205,
                -1.4722699279466047,
                1.8118415280127085,
                -0.27172154837290885,
                1.3407967693903553,
                -2.96857423605567
            ]
        },
        {
            "positions": [
                -1.4880686620166217,
                -1.5027025185673788,
                1.7546308446134349,
                -0.16302229026361217,
                1.2953196903202782,
                -2.8764592442795833
            ]
        },
        {
            "positions": [
                -1.4581457573242227,
                -1.5331351091881529,
                1.6974201612141613,
                -0.0543230321543155,
                1.2498426112502012,
                -2.784344252503497
            ]
        },
        {
            "positions": [
                -1.4282228526318237,
                -1.5635676998089272,
                1.6402094778148877,
                0.05437622595498115,
                1.204365532180124,
                -2.6922292607274105
            ]
        },
        {
            "positions": [
                -1.398299947939425,
                -1.5940002904297013,
                1.582998794415614,
                0.16307548406427785,
                1.158888453110047,
                -2.600114268951324
            ]
        },
        {
            "positions": [
                -1.5427744867767161,
                -1.584527330907307,
                1.6330075120644205,
                0.1314662190703207,
                1.0929215931691563,
                -2.5089912544632655
            ]
        },
        {
            "positions": [
                -1.6872490256140074,
                -1.5750543713849126,
                1.683016229713227,
                0.09985695407636351,
                1.0269547332282656,
                -2.417868239975207
            ]
        },
        {
            "positions": [
                -1.8317235644512984,
                -1.5655814118625182,
                1.7330249473620332,
                0.06824768908240635,
                0.9609878732873748,
                -2.326745225487149
            ]
        },
        {
            "positions": [
                -1.9761981032885898,
                -1.5561084523401238,
                1.7830336650108396,
                0.03663842408844917,
                0.8950210133464841,
                -2.235622210999091
            ]
        },
        {
            "positions": [
                -2.120672642125881,
                -1.5466354928177295,
                1.833042382659646,
                0.005029159094491975,
                0.8290541534055933,
                -2.1444991965110325
            ]
        },
        {
            "positions": [
                -2.2651471809631722,
                -1.5371625332953351,
                1.8830511003084525,
                -0.026580105899465162,
                0.7630872934647026,
                -2.053376182022974
            ]
        },
        {
            "positions": [
                -2.4096217198004632,
                -1.5276895737729408,
                1.933059817957259,
                -0.058189370893422354,
                0.6971204335238119,
                -1.9622531675349157
            ]
        },
        {
            "positions": [
                -2.4320778874800015,
                -1.4894525321869294,
                1.9559571442277723,
                -0.1493338836677784,
                0.6953925697975601,
                -2.0729338394465544
            ]
        },
        {
            "positions": [
                -2.4545340551595403,
                -1.4512154906009183,
                1.9788544704982856,
                -0.24047839644213445,
                0.6936647060713085,
                -2.183614511358193
            ]
        },
        {
            "positions": [
                -2.4769902228390785,
                -1.4129784490149069,
                2.001751796768799,
                -0.3316229092164905,
                0.6919368423450567,
                -2.2942951832698317
            ]
        },
        {
            "positions": [
                -2.4763556850364448,
                -1.3632838779228966,
                2.003185151101519,
                -0.43061579166037467,
                0.6892712101512883,
                -2.4664056242679107
            ]
        },
        {
            "positions": [
                -2.475721147233811,
                -1.3135893068308864,
                2.0046185054342396,
                -0.5296086741042588,
                0.6866055779575201,
                -2.63851606526599
            ]
        },
        {
            "positions": [
                -2.4750866094311776,
                -1.2638947357388763,
                2.0060518597669597,
                -0.6286015565481429,
                0.6839399457637517,
                -2.810626506264069
            ]
        },
        {
            "positions": [
                -2.474452071628544,
                -1.214200164646866,
                2.00748521409968,
                -0.727594438992027,
                0.6812743135699835,
                -2.982736947262148
            ]
        },
        {
            "positions": [
                -2.47381753382591,
                -1.1645055935548558,
                2.0089185684324002,
                -0.8265873214359112,
                0.6786086813762151,
                -3.154847388260227
            ]
        }
    ]
}