{
    "goal": {
        "global_pose": {
            "orientation": {
                "w": -0.00223480608172531,
                "x": 0.0024358444001904467,
                "y": 0.7094548369677653,
                "z": -0.704743149386269
            },
            "position": {
                "x": -0.37947507619857795,
                "y": -0.6371506643295288,
                "z": 0.19426114857196808
            }
        },
        "name": "move_to_magneteinheit_C"
    },
    "id": "STRIDE_move_to_magneteinheit_C_6",
    "joint_names": [
        "shoulder_pan_joint",
        "shoulder_lift_joint",
        "elbow_joint",
        "wrist_1_joint",
        "wrist_2_joint",
        "wrist_3_joint"
    ],
    "metrics": {
        "cart_traj_len": 1.3149431360383348,
        "distance_elbow_joint": 0.38738630885215697,
        "distance_shoulder_lift_joint": 0.8354402554853015,
        "distance_shoulder_pan_joint": 1.575969737947567,
        "distance_wrist_1_joint": 0.31912672657096497,
        "distance_wrist_2_joint": 1.1378106610062546,
        "distance_wrist_3_joint": 3.00179914070129,
        "smoothness": 0.9222319954316944,
        "time": 0.495503872,
        "traj_len": 2.6939808519296373,
        "weighted_distance": 3.8364134943386037
    },
    "planner": "STRIDE",
    "start": {
        "state": {
            "elbow_joint": 1.9565354010623817,
            "shoulder_lift_joint": -1.4165861575791021,
            "shoulder_pan_joint": -1.6717766225146293,
            "wrist_1_joint": -0.5286633292919765,
            "wrist_2_joint": 1.472756589071564,
            "wrist_3_joint": -3.1238370188695823
        }
    },
    "waypoints": [
        {
            "positions": [
                -1.6717766225146293,
                -1.4165861575791021,
                1.9565354010623817,
                -0.5286633292919765,
                1.472756589071564,
                -3.1238370188695823
            ]
        },
        {
            "positions": [
                -1.6607032300592715,
                -1.4222883123265753,
                1.9597416425562577,
                -0.5360782937584121,
                1.4711119742116354,
                -3.077077436055676
            ]
        },
        {
            "positions": [
                -1.6126172915453139,
                -1.458644945607547,
                1.9672269633214365,
                -0.5753848642503436,
                1.435020393781341,
                -2.8492292133448887
            ]
        },
        {
            "positions": [
                -1.564531353031356,
                -1.4950015788885187,
                1.9747122840866154,
                -0.6146914347422753,
                1.398928813351047,
                -2.621380990634101
            ]
        },
        {
            "positions": [
                -1.5309223199649813,
                -1.5374483892143476,
                1.9707601529960306,
                -0.6524755923804163,
                1.3307336711059325,
                -2.4241792259158252
            ]
        },
        {
            "positions": [
                -1.4973132868986065,
                -1.5798951995401764,
                1.9668080219054458,
                -0.6902597500185573,
                1.262538528860818,
                -2.22697746119755
            ]
        },
        {
            "positions": [
                -1.4637042538322318,
                -1.622342009866005,
                1.9628558908148608,
                -0.7280439076566982,
                1.1943433866157036,
                -2.029775696479275
            ]
        },
        {
            "positions": [
                -1.430095220765857,
                -1.664788820191834,
                1.958903759724276,
                -0.7658280652948393,
                1.126148244370589,
                -1.8325739317609995
            ]
        },
        {
            "positions": [
                -1.3964861876994823,
                -1.7072356305176628,
                1.9549516286336912,
                -0.8036122229329803,
                1.0579531021254747,
                -1.6353721670427241
            ]
        },
        {
            "positions": [
                -1.566319855546006,
                -1.686313492935897,
                1.983572705742291,
                -0.8080915078719975,
                0.9784666443650011,
                -1.7020890497071886
            ]
        },
        {
            "positions": [
                -1.7361535233925298,
                -1.6653913553541309,
                2.0121937828508907,
                -0.8125707928110146,
                0.8989801866045275,
                -1.768805932371653
            ]
        },
        {
            "positions": [
                -1.9059871912390536,
                -1.644469217772365,
                2.0408148599594904,
                -0.8170500777500318,
                0.8194937288440539,
                -1.8355228150361174
            ]
        },
        {
            "positions": [
                -2.075820859085577,
                -1.623547080190599,
                2.0694359370680897,
                -0.8215293626890489,
                0.7400072710835803,
                -1.9022396977005818
            ]
        },
        {
            "positions": [
                -2.245654526932101,
                -1.602624942608833,
                2.0980570141766894,
                -0.826008647628066,
                0.6605208133231067,
                -1.9689565803650462
            ]
        },
        {
            "positions": [
                -2.415488194778625,
                -1.5817028050270672,
                2.126678091285289,
                -0.8304879325670832,
                0.5810343555626332,
                -2.035673463029511
            ]
        },
        {
            "positions": [
                -2.5853218626251486,
                -1.560780667445301,
                2.155299168393889,
                -0.8349672175061004,
                0.5015478978021596,
                -2.102390345693975
            ]
        },
        {
            "positions": [
                -2.562953136983798,
                -1.4811135035504253,
                2.1254789222709287,
                -0.8324026498347321,
                0.5348682917495295,
                -2.311653567738611
            ]
        },
        {
            "positions": [
                -2.540584411342447,
                -1.4014463396555494,
                2.0956586761479685,
                -0.829838082163364,
                0.5681886856968995,
                -2.5209167897832474
            ]
        },
        {
            "positions": [
                -2.5182156857010964,
                -1.3217791757606736,
                2.065838430025008,
                -0.8272735144919957,
                0.6015090796442696,
                -2.7301800118278834
            ]
        },
        {
            "positions": [
                -2.4958469600597457,
                -1.2421120118657978,
                2.0360181839020477,
                -0.8247089468206276,
                0.6348294735916395,
                -2.93944323387252
            ]
        },
        {
            "positions": [
                -2.473478234418395,
                -1.162444847970922,
                2.0061979377790875,
                -0.8221443791492593,
                0.6681498675390095,
                -3.148706455917156
            ]
        }
    ]
}