{
    "goal": {
        "global_pose": {
            "orientation": {
                "w": -0.00223480608172531,
                "x": 0.0024358444001904467,
                "y": 0.7094548369677653,
                "z": -0.704743149386269
            },
            "position": {
                "x": 0.6205249238014221,
                "y": -0.6371506643295288,
                "z": 0.19426114857196808
            }
        },
        "name": "move_to_magneteinheit_B"
    },
    "id": "STRIDE_move_to_magneteinheit_B_111",
    "joint_names": [
        "shoulder_pan_joint",
        "shoulder_lift_joint",
        "elbow_joint",
        "wrist_1_joint",
        "wrist_2_joint",
        "wrist_3_joint"
    ],
    "metrics": {
        "cart_traj_len": 3.7304172656637897,
        "distance_elbow_joint": 4.277127806782778,
        "distance_shoulder_lift_joint": 0.7721130112733299,
        "distance_shoulder_pan_joint": 2.6005479368043463,
        "distance_wrist_1_joint": 4.39697848719603,
        "distance_wrist_2_joint": 1.6609925932833471,
        "distance_wrist_3_joint": 3.82388019271562,
        "smoothness": 0.15054634866942831,
        "time": 2.560037522,
        "traj_len": 4.187080131554143,
        "weighted_distance": 5.589040301694565
    },
    "planner": "STRIDE",
    "start": {
        "state": {
            "elbow_joint": 2.6216224122426386,
            "shoulder_lift_joint": -1.4174107377796124,
            "shoulder_pan_joint": 0.7066234856936794,
            "wrist_1_joint": 1.9546482284002225,
            "wrist_2_joint": -0.7096286983471962,
            "wrist_3_joint": 0.005740856962016249
        }
    },
    "waypoints": [
        {
            "positions": [
                0.7066234856936794,
                -1.4174107377796124,
                2.6216224122426386,
                1.9546482284002225,
                -0.7096286983471962,
                0.005740856962016249
            ]
        },
        {
            "positions": [
                0.6051165333738382,
                -1.4163144242510803,
                2.6139990213155895,
                1.845686043490561,
                -0.6652447047387281,
                -0.03394551024552188
            ]
        },
        {
            "positions": [
                0.503609581053997,
                -1.4152181107225483,
                2.6063756303885404,
                1.7367238585809,
                -0.62086071113026,
                -0.07363187745306
            ]
        },
        {
            "positions": [
                0.48228558070042077,
                -1.4274680431549291,
                2.4758476755346583,
                1.6728363780942301,
                -0.5961814968553015,
                -0.12395248218729674
            ]
        },
        {
            "positions": [
                0.4992778467797147,
                -1.4403593332333289,
                2.29784358154747,
                1.5963752711287553,
                -0.5659973648361939,
                -0.1604012177190889
            ]
        },
        {
            "positions": [
                0.5162701128590087,
                -1.4532506233117288,
                2.1198394875602817,
                1.5199141641632805,
                -0.5358132328170863,
                -0.1968499532508811
            ]
        },
        {
            "positions": [
                0.5332623789383026,
                -1.4661419133901286,
                1.9418353935730934,
                1.4434530571978057,
                -0.5056291007979785,
                -0.2332986887826733
            ]
        },
        {
            "positions": [
                0.5502546450175966,
                -1.4790332034685283,
                1.7638312995859051,
                1.3669919502323309,
                -0.47544496877887094,
                -0.2697474243144654
            ]
        },
        {
            "positions": [
                0.5672469110968905,
                -1.4919244935469282,
                1.5858272055987168,
                1.290530843266856,
                -0.44526083675976325,
                -0.30619615984625764
            ]
        },
        {
            "positions": [
                0.5842391771761845,
                -1.504815783625328,
                1.4078231116115285,
                1.2140697363013813,
                -0.4150767047406556,
                -0.3426448953780498
            ]
        },
        {
            "positions": [
                0.6528999940183121,
                -1.5136067974990244,
                1.3081543288287927,
                1.1143232119165458,
                -0.3934565693114542,
                -0.24958851116017167
            ]
        },
        {
            "positions": [
                0.7215608108604399,
                -1.5223978113727206,
                1.2084855460460568,
                1.0145766875317102,
                -0.37183643388225274,
                -0.15653212694229351
            ]
        },
        {
            "positions": [
                0.7902216277025675,
                -1.531188825246417,
                1.108816763263321,
                0.9148301631468747,
                -0.35021629845305136,
                -0.06347574272441536
            ]
        },
        {
            "positions": [
                0.8588824445446952,
                -1.5399798391201132,
                1.0091479804805852,
                0.8150836387620393,
                -0.3285961630238499,
                0.02958064149346279
            ]
        },
        {
            "positions": [
                0.927543261386823,
                -1.5487708529938096,
                0.9094791976978494,
                0.7153371143772037,
                -0.3069760275946485,
                0.12263702571134089
            ]
        },
        {
            "positions": [
                0.9962040782289507,
                -1.557561866867506,
                0.8098104149151135,
                0.6155905899923682,
                -0.2853558921654471,
                0.2156934099292191
            ]
        },
        {
            "positions": [
                1.0648648950710784,
                -1.5663528807412022,
                0.7101416321323777,
                0.5158440656075326,
                -0.26373575673624566,
                0.3087497941470972
            ]
        },
        {
            "positions": [
                1.133525711913206,
                -1.5751438946148986,
                0.6104728493496419,
                0.41609754122269715,
                -0.24211562130704423,
                0.4018061783649754
            ]
        },
        {
            "positions": [
                1.2021865287553337,
                -1.5839349084885948,
                0.510804066566906,
                0.3163510168378616,
                -0.22049548587784282,
                0.4948625625828535
            ]
        },
        {
            "positions": [
                1.2708473455974616,
                -1.5927259223622912,
                0.4111352837841702,
                0.21660449245302615,
                -0.1988753504486414,
                0.5879189468007315
            ]
        },
        {
            "positions": [
                1.3395081624395893,
                -1.6015169362359876,
                0.31146650100143436,
                0.11685796806819071,
                -0.17725521501943997,
                0.6809753310186097
            ]
        },
        {
            "positions": [
                1.408168979281717,
                -1.6103079501096838,
                0.21179771821869853,
                0.017111443683355043,
                -0.15563507959023853,
                0.774031715236488
            ]
        },
        {
            "positions": [
                1.4768297961238446,
                -1.6190989639833802,
                0.1121289354359627,
                -0.08263508070148062,
                -0.1340149441610371,
                0.8670880994543662
            ]
        },
        {
            "positions": [
                1.5454906129659722,
                -1.6278899778570763,
                0.012460152653226864,
                -0.18238160508631607,
                -0.11239480873183572,
                0.9601444836722441
            ]
        },
        {
            "positions": [
                1.6141514298081,
                -1.6366809917307727,
                -0.08720863012950897,
                -0.2821281294711515,
                -0.09077467330263428,
                1.0532008678901223
            ]
        },
        {
            "positions": [
                1.6828122466502276,
                -1.6454720056044692,
                -0.1868774129122448,
                -0.38187465385598696,
                -0.06915453787343284,
                1.1462572521080006
            ]
        },
        {
            "positions": [
                1.7514730634923552,
                -1.6542630194781653,
                -0.28654619569498063,
                -0.4816211782408224,
                -0.04753440244423146,
                1.2393136363258785
            ]
        },
        {
            "positions": [
                1.8201338803344829,
                -1.6630540333518617,
                -0.38621497847771646,
                -0.5813677026256581,
                -0.025914267015030024,
                1.3323700205437568
            ]
        },
        {
            "positions": [
                1.888794697176611,
                -1.671845047225558,
                -0.4858837612604523,
                -0.6811142270104935,
                -0.004294131585828587,
                1.425426404761635
            ]
        },
        {
            "positions": [
                1.9574555140187386,
                -1.6806360610992543,
                -0.5855525440431881,
                -0.780860751395329,
                0.017326003843372795,
                1.518482788979513
            ]
        },
        {
            "positions": [
                2.0261163308608663,
                -1.6894270749729507,
                -0.685221326825924,
                -0.8806072757801646,
                0.03894613927257423,
                1.6115391731973912
            ]
        },
        {
            "positions": [
                2.094777147702994,
                -1.698218088846647,
                -0.7848901096086598,
                -0.9803538001649998,
                0.06056627470177567,
                1.7045955574152694
            ]
        },
        {
            "positions": [
                2.1634379645451216,
                -1.7070091027203433,
                -0.8845588923913956,
                -1.080100324549836,
                0.0821864101309771,
                1.7976519416331476
            ]
        },
        {
            "positions": [
                2.2320987813872493,
                -1.7158001165940395,
                -0.9842276751741315,
                -1.1798468489346712,
                0.10380654556017854,
                1.8907083258510258
            ]
        },
        {
            "positions": [
                2.300759598229377,
                -1.724591130467736,
                -1.0838964579568673,
                -1.2795933733195068,
                0.12542668098937992,
                1.983764710068904
            ]
        },
        {
            "positions": [
                2.3694204150715046,
                -1.7333821443414323,
                -1.1835652407396031,
                -1.3793398977043425,
                0.14704681641858142,
                2.076821094286782
            ]
        },
        {
            "positions": [
                2.4380812319136327,
                -1.7421731582151285,
                -1.283234023522339,
                -1.4790864220891777,
                0.1686669518477828,
                2.1698774785046604
            ]
        },
        {
            "positions": [
                2.5067420487557603,
                -1.750964172088825,
                -1.3829028063050748,
                -1.5788329464740134,
                0.19028708727698418,
                2.262933862722538
            ]
        },
        {
            "positions": [
                2.575402865597888,
                -1.7597551859625211,
                -1.4825715890878106,
                -1.6785794708588486,
                0.21190722270618567,
                2.3559902469404164
            ]
        },
        {
            "positions": [
                2.6440636824400157,
                -1.7685461998362175,
                -1.5822403718705464,
                -1.778325995243684,
                0.23352735813538703,
                2.4490466311582946
            ]
        },
        {
            "positions": [
                2.682520332982933,
                -1.7884976996574504,
                -1.5986939586962345,
                -1.8444939094918147,
                0.20737649833170982,
                2.550780458959576
            ]
        },
        {
            "positions": [
                2.72097698352585,
                -1.8084491994786835,
                -1.6151475455219224,
                -1.910661823739945,
                0.18122563852803258,
                2.6525142867608573
            ]
        },
        {
            "positions": [
                2.7594336340687673,
                -1.8284006992999164,
                -1.6316011323476105,
                -1.9768297379880757,
                0.15507477872435538,
                2.754248114562139
            ]
        },
        {
            "positions": [
                2.757949682922732,
                -1.875965409639567,
                -1.6392899627937036,
                -2.048281277107127,
                0.07238344509850478,
                2.8283599310110734
            ]
        },
        {
            "positions": [
                2.7564657317766965,
                -1.9235301199792176,
                -1.6469787932397968,
                -2.1197328162261777,
                -0.010307888527345821,
                2.902471747460008
            ]
        },
        {
            "positions": [
                2.7549817806306613,
                -1.9710948303188682,
                -1.65466762368589,
                -2.1911843553452286,
                -0.09299922215319645,
                2.9765835639089424
            ]
        },
        {
            "positions": [
                2.723445072295783,
                -2.0424427185255167,
                -1.6549468806373069,
                -2.2748996564954216,
                -0.22343587432392345,
                3.028672224271796
            ]
        },
        {
            "positions": [
                2.6919083639609043,
                -2.1137906067321657,
                -1.6552261375887236,
                -2.358614957645614,
                -0.35387252649465045,
                3.0807608846346497
            ]
        },
        {
            "positions": [
                2.660371655626026,
                -2.185138494938814,
                -1.6555053945401406,
                -2.442330258795807,
                -0.4843091786653775,
                3.1328495449975033
            ]
        }
    ]
}