{
    "goal": {
        "global_pose": {
            "orientation": {
                "w": 0.7047431493862688,
                "x": -0.7094548369677653,
                "y": 0.0024358444001904,
                "z": -0.0022348060817251984
            },
            "position": {
                "x": -0.39052492380142206,
                "y": 0.3671506643295288,
                "z": 0.19426114857196808
            }
        },
        "name": "move_to_magneteinheit_D"
    },
    "id": "STRIDE_move_to_magneteinheit_D_79",
    "joint_names": [
        "shoulder_pan_joint",
        "shoulder_lift_joint",
        "elbow_joint",
        "wrist_1_joint",
        "wrist_2_joint",
        "wrist_3_joint"
    ],
    "metrics": {
        "cart_traj_len": 4.335095811484253,
        "distance_elbow_joint": 3.1322032593680165,
        "distance_shoulder_lift_joint": 1.6318505603730504,
        "distance_shoulder_pan_joint": 3.0744450594088253,
        "distance_wrist_1_joint": 1.5642462508525878,
        "distance_wrist_2_joint": 0.8735016789178178,
        "distance_wrist_3_joint": 3.182193515301152,
        "smoothness": 0.11695715466302212,
        "time": 0.544174859,
        "traj_len": 3.6685746992832864,
        "weighted_distance": 4.71811141078654
    },
    "planner": "STRIDE",
    "start": {
        "state": {
            "elbow_joint": 0.749534889911806,
            "shoulder_lift_joint": -0.6476975780787326,
            "shoulder_pan_joint": -2.711696901376241,
            "wrist_1_joint": -0.07506478083263063,
            "wrist_2_joint": 0.43296659715538205,
            "wrist_3_joint": -3.14703540197715
        }
    },
    "waypoints": [
        {
            "positions": [
                -2.711696901376241,
                -0.6476975780787326,
                0.749534889911806,
                -0.07506478083263063,
                0.43296659715538205,
                -3.14703540197715
            ]
        },
        {
            "positions": [
                -2.5720143080782223,
                -0.7563391285286615,
                0.7134693079592345,
                -0.049776533749793274,
                0.38442664554384015,
                -3.1201404134180377
            ]
        },
        {
            "positions": [
                -2.432331714780203,
                -0.8649806789785903,
                0.6774037260066631,
                -0.02448828666695592,
                0.3358866939322983,
                -3.093245424858925
            ]
        },
        {
            "positions": [
                -2.2926491214821842,
                -0.9736222294285192,
                0.6413381440540916,
                0.0007999604158814427,
                0.2873467423207564,
                -3.0663504362998126
            ]
        },
        {
            "positions": [
                -2.1529665281841655,
                -1.082263779878448,
                0.6052725621015203,
                0.02608820749871879,
                0.23880679070921454,
                -3.0394554477407003
            ]
        },
        {
            "positions": [
                -2.013283934886146,
                -1.190905330328377,
                0.5692069801489488,
                0.05137645458155615,
                0.19026683909767264,
                -3.0125604591815875
            ]
        },
        {
            "positions": [
                -1.8736013415881274,
                -1.2995468807783057,
                0.5331413981963773,
                0.07666470166439351,
                0.14172688748613074,
                -2.9856654706224752
            ]
        },
        {
            "positions": [
                -1.7801149899338777,
                -1.3328998322992878,
                0.40778596535495704,
                0.09498489884674448,
                0.13045189015661418,
                -2.88471298383829
            ]
        },
        {
            "positions": [
                -1.686628638279628,
                -1.3662527838202698,
                0.28243053251353684,
                0.11330509602909544,
                0.11917689282709759,
                -2.7837604970541046
            ]
        },
        {
            "positions": [
                -1.5931422866253786,
                -1.3996057353412519,
                0.15707509967211658,
                0.13162529321144642,
                0.10790189549758103,
                -2.6828080102699197
            ]
        },
        {
            "positions": [
                -1.499655934971129,
                -1.432958686862234,
                0.03171966683069638,
                0.1499454903937974,
                0.09662689816806445,
                -2.5818555234857343
            ]
        },
        {
            "positions": [
                -1.4061695833168792,
                -1.466311638383216,
                -0.09363576601072388,
                0.16826568757614835,
                0.08535190083854788,
                -2.480903036701549
            ]
        },
        {
            "positions": [
                -1.3126832316626298,
                -1.499664589904198,
                -0.21899119885214413,
                0.18658588475849933,
                0.07407690350903132,
                -2.3799505499173637
            ]
        },
        {
            "positions": [
                -1.2191968800083801,
                -1.53301754142518,
                -0.3443466316935644,
                0.20490608194085028,
                0.06280190617951474,
                -2.2789980631331783
            ]
        },
        {
            "positions": [
                -1.1257105283541304,
                -1.5663704929461622,
                -0.46970206453498453,
                0.22322627912320125,
                0.051526908849998165,
                -2.178045576348993
            ]
        },
        {
            "positions": [
                -1.0322241766998808,
                -1.5997234444671442,
                -0.5950574973764049,
                0.24154647630555223,
                0.040251911520481604,
                -2.0770930895648076
            ]
        },
        {
            "positions": [
                -0.9387378250456311,
                -1.6330763959881263,
                -0.720412930217825,
                0.25986667348790315,
                0.028976914190965028,
                -1.9761406027806225
            ]
        },
        {
            "positions": [
                -0.8452514733913814,
                -1.6664293475091085,
                -0.8457683630592454,
                0.27818687067025416,
                0.01770191686144844,
                -1.8751881159964372
            ]
        },
        {
            "positions": [
                -0.751765121737132,
                -1.6997822990300904,
                -0.9711237959006656,
                0.29650706785260517,
                0.006426919531931891,
                -1.774235629212252
            ]
        },
        {
            "positions": [
                -0.658278770082882,
                -1.7331352505510726,
                -1.096479228742086,
                0.3148272650349561,
                -0.004848077797584699,
                -1.6732831424280667
            ]
        },
        {
            "positions": [
                -0.5647924184286326,
                -1.7664882020720545,
                -1.221834661583506,
                0.33314746221730707,
                -0.01612307512710126,
                -1.5723306556438814
            ]
        },
        {
            "positions": [
                -0.4713060667743829,
                -1.7998411535930368,
                -1.3471900944249264,
                0.35146765939965807,
                -0.02739807245661785,
                -1.471378168859696
            ]
        },
        {
            "positions": [
                -0.37781971512013324,
                -1.8331941051140186,
                -1.4725455272663464,
                0.36978785658200897,
                -0.03867306978613441,
                -1.370425682075511
            ]
        },
        {
            "positions": [
                -0.28433336346588356,
                -1.8665470566350009,
                -1.5979009601077667,
                0.38810805376436,
                -0.049948067115651,
                -1.2694731952913256
            ]
        },
        {
            "positions": [
                -0.1908470118116341,
                -1.8999000081559827,
                -1.723256392949187,
                0.406428250946711,
                -0.061223064445167535,
                -1.1685207085071405
            ]
        },
        {
            "positions": [
                -0.09736066015738443,
                -1.933252959676965,
                -1.8486118257906075,
                0.4247484481290619,
                -0.07249806177468412,
                -1.067568221722955
            ]
        },
        {
            "positions": [
                -0.003874308503134749,
                -1.966605911197947,
                -1.9739672586320274,
                0.4430686453114129,
                -0.08377305910420069,
                -0.9666157349387698
            ]
        },
        {
            "positions": [
                0.08961204315111504,
                -1.999958862718929,
                -2.0993226914734477,
                0.46138884249376383,
                -0.09504805643371728,
                -0.8656632481545844
            ]
        },
        {
            "positions": [
                0.050698515288470025,
                -2.0321581816393937,
                -2.166994964402283,
                0.5723242164130266,
                -0.10503320113306755,
                -0.7621992083300844
            ]
        },
        {
            "positions": [
                0.011784987425825011,
                -2.0643575005598582,
                -2.2346672373311183,
                0.6832595903322892,
                -0.11501834583241784,
                -0.6587351685055844
            ]
        },
        {
            "positions": [
                -0.027128540436820003,
                -2.096556819480323,
                -2.3023395102599533,
                0.794194964251552,
                -0.12500349053176812,
                -0.5552711286810845
            ]
        },
        {
            "positions": [
                -0.06604206829946502,
                -2.1287561384007874,
                -2.3700117831887884,
                0.9051303381708147,
                -0.1349886352311184,
                -0.4518070888565845
            ]
        },
        {
            "positions": [
                -0.0895384689856426,
                -2.1589145384109867,
                -2.372543100442273,
                1.0219405645406432,
                -0.0738793459248549,
                -0.354414048420467
            ]
        },
        {
            "positions": [
                -0.11303486967182019,
                -2.1890729384211856,
                -2.3750744176957572,
                1.1387507909104717,
                -0.012770056618591402,
                -0.25702100798434946
            ]
        },
        {
            "positions": [
                -0.13653127035799778,
                -2.219231338431385,
                -2.377605734949242,
                1.2555610172803002,
                0.04833923268767207,
                -0.15962796754823194
            ]
        },
        {
            "positions": [
                -0.16002767104417537,
                -2.2493897384415837,
                -2.380137052202726,
                1.3723712436501287,
                0.1094485219939356,
                -0.06223492711211437
            ]
        },
        {
            "positions": [
                -0.18352407173035296,
                -2.279548138451783,
                -2.3826683694562107,
                1.4891814700199573,
                0.17055781130019904,
                0.035158113324003135
            ]
        }
    ]
}