{
    "goal": {
        "global_pose": {
            "orientation": {
                "w": 0.5084816262002911,
                "x": -0.4908360881923452,
                "y": 0.5182115481033761,
                "z": -0.48164630358495003
            },
            "position": {
                "x": 0.5540239810943604,
                "y": -0.46912469901144505,
                "z": 0.16403168439865112
            }
        },
        "name": "move_to_storage_B"
    },
    "id": "STRIDE_move_to_storage_B_35",
    "joint_names": [
        "shoulder_pan_joint",
        "shoulder_lift_joint",
        "elbow_joint",
        "wrist_1_joint",
        "wrist_2_joint",
        "wrist_3_joint"
    ],
    "metrics": {
        "cart_traj_len": 0.9624397255189712,
        "distance_elbow_joint": 0.35294831173863894,
        "distance_shoulder_lift_joint": 0.46089983183259675,
        "distance_shoulder_pan_joint": 0.725026283755639,
        "distance_wrist_1_joint": 2.9900079483642212,
        "distance_wrist_2_joint": 2.7157840870000554,
        "distance_wrist_3_joint": 3.1465366595805504,
        "smoothness": 0.061791290234686304,
        "time": 0.134489404,
        "traj_len": 3.223538912790057,
        "weighted_distance": 4.731814501520223
    },
    "planner": "STRIDE",
    "start": {
        "state": {
            "elbow_joint": 1.664937868594044,
            "shoulder_lift_joint": -0.661644460510453,
            "shoulder_pan_joint": -0.9139846352900073,
            "wrist_1_joint": 2.146753192139373,
            "wrist_2_joint": -2.2341966793290973,
            "wrist_3_joint": 0.005466555786416001
        }
    },
    "waypoints": [
        {
            "positions": [
                -0.9139846352900073,
                -0.661644460510453,
                1.664937868594044,
                2.146753192139373,
                -2.2341966793290973,
                0.005466555786416001
            ]
        },
        {
            "positions": [
                -0.8460769852574215,
                -0.7308216403749523,
                1.6712310583205692,
                2.098072714312487,
                -2.1302215723043885,
                -0.04561195197251798
            ]
        },
        {
            "positions": [
                -0.7781693352248356,
                -0.7999988202394516,
                1.6775242480470944,
                2.049392236485601,
                -2.0262464652796797,
                -0.09669045973145196
            ]
        },
        {
            "positions": [
                -0.7102616851922497,
                -0.8691760001039508,
                1.6838174377736195,
                2.0007117586587144,
                -1.9222713582549709,
                -0.14776896749038596
            ]
        },
        {
            "positions": [
                -0.6423540351596639,
                -0.9383531799684501,
                1.6901106275001447,
                1.9520312808318283,
                -1.818296251230262,
                -0.19884747524931992
            ]
        },
        {
            "positions": [
                -0.6620668909694594,
                -0.9463614892021284,
                1.7043617384928638,
                1.830497105307625,
                -1.7183013095389048,
                -0.32677019822952924
            ]
        },
        {
            "positions": [
                -0.6817797467792549,
                -0.9543697984358066,
                1.7186128494855828,
                1.7089629297834217,
                -1.6183063678475473,
                -0.4546929212097386
            ]
        },
        {
            "positions": [
                -0.7014926025890503,
                -0.9623781076694848,
                1.7328639604783018,
                1.5874287542592185,
                -1.51831142615619,
                -0.5826156441899479
            ]
        },
        {
            "positions": [
                -0.7212054583988458,
                -0.9703864169031631,
                1.7471150714710209,
                1.465894578735015,
                -1.4183164844648326,
                -0.7105383671701572
            ]
        },
        {
            "positions": [
                -0.7409183142086413,
                -0.9783947261368413,
                1.7613661824637399,
                1.3443604032108118,
                -1.3183215427734754,
                -0.8384610901503665
            ]
        },
        {
            "positions": [
                -0.7606311700184367,
                -0.9864030353705195,
                1.7756172934564591,
                1.2228262276866086,
                -1.2183266010821179,
                -0.9663838131305759
            ]
        },
        {
            "positions": [
                -0.7803440258282321,
                -0.9944113446041979,
                1.7898684044491782,
                1.101292052162405,
                -1.1183316593907606,
                -1.0943065361107853
            ]
        },
        {
            "positions": [
                -0.8000568816380277,
                -1.002419653837876,
                1.8041195154418972,
                0.9797578766382019,
                -1.0183367176994031,
                -1.2222292590909944
            ]
        },
        {
            "positions": [
                -0.8197697374478231,
                -1.0104279630715542,
                1.8183706264346162,
                0.8582237011139986,
                -0.9183417760080458,
                -1.3501519820712038
            ]
        },
        {
            "positions": [
                -0.8394825932576186,
                -1.0184362723052325,
                1.8326217374273353,
                0.7366895255897954,
                -0.8183468343166885,
                -1.4780747050514131
            ]
        },
        {
            "positions": [
                -0.8591954490674141,
                -1.026444581538911,
                1.8468728484200543,
                0.615155350065592,
                -0.7183518926253312,
                -1.6059974280316225
            ]
        },
        {
            "positions": [
                -0.8789083048772095,
                -1.034452890772589,
                1.8611239594127733,
                0.49362117454138876,
                -0.6183569509339737,
                -1.7339201510118318
            ]
        },
        {
            "positions": [
                -0.8986211606870049,
                -1.0424612000062674,
                1.8753750704054923,
                0.37208699901718556,
                -0.5183620092426164,
                -1.861842873992041
            ]
        },
        {
            "positions": [
                -0.9183340164968005,
                -1.0504695092399456,
                1.8896261813982114,
                0.2505528234929819,
                -0.41836706755125896,
                -1.9897655969722505
            ]
        },
        {
            "positions": [
                -0.938046872306596,
                -1.0584778184736239,
                1.9038772923909304,
                0.1290186479687787,
                -0.3183721258599017,
                -2.11768831995246
            ]
        },
        {
            "positions": [
                -0.9577597281163914,
                -1.0664861277073021,
                1.9181284033836494,
                0.007484472444575507,
                -0.21837718416854446,
                -2.245611042932669
            ]
        },
        {
            "positions": [
                -0.9774725839261869,
                -1.0744944369409803,
                1.9323795143763685,
                -0.11404970307962747,
                -0.11838224247718698,
                -2.3735337659128786
            ]
        },
        {
            "positions": [
                -0.9971854397359823,
                -1.0825027461746586,
                1.9466306253690875,
                -0.23558387860383112,
                -0.018387300785829508,
                -2.501456488893088
            ]
        },
        {
            "positions": [
                -1.0168982955457777,
                -1.0905110554083368,
                1.9608817363618067,
                -0.3571180541280343,
                0.08160764090552775,
                -2.6293792118732973
            ]
        },
        {
            "positions": [
                -1.0366111513555731,
                -1.098519364642015,
                1.9751328473545258,
                -0.4786522296522375,
                0.181602582596885,
                -2.7573019348535066
            ]
        },
        {
            "positions": [
                -1.0563240071653688,
                -1.1065276738756933,
                1.9893839583472448,
                -0.6001864051764407,
                0.28159752428824225,
                -2.885224657833716
            ]
        },
        {
            "positions": [
                -1.0760368629751642,
                -1.1145359831093715,
                2.003635069339964,
                -0.7217205807006444,
                0.3815924659795997,
                -3.0131473808139253
            ]
        },
        {
            "positions": [
                -1.0957497187849596,
                -1.1225442923430498,
                2.017886180332683,
                -0.8432547562248474,
                0.48158740767095704,
                -3.1410701037941346
            ]
        }
    ]
}