{
    "goal": {
        "global_pose": {
            "orientation": {
                "w": 0.7047431468963623,
                "x": -0.7094548344612122,
                "y": 0.0024358443915843964,
                "z": -0.0022348060738295317
            },
            "position": {
                "x": 0.6094750761985779,
                "y": 0.3671506643295288,
                "z": 0.19426114857196808
            }
        },
        "name": "move_to_magneteinheit_A"
    },
    "id": "STRIDE_move_to_magneteinheit_A_72",
    "joint_names": [
        "shoulder_pan_joint",
        "shoulder_lift_joint",
        "elbow_joint",
        "wrist_1_joint",
        "wrist_2_joint",
        "wrist_3_joint"
    ],
    "metrics": {
        "cart_traj_len": 3.771092327815399,
        "distance_elbow_joint": 3.8788962729565712,
        "distance_shoulder_lift_joint": 0.6484744125404842,
        "distance_shoulder_pan_joint": 4.722143235353113,
        "distance_wrist_1_joint": 2.6890284741388353,
        "distance_wrist_2_joint": 2.356089238029967,
        "distance_wrist_3_joint": 2.615096568806391,
        "smoothness": 0.36394268152548737,
        "time": 0.073564167,
        "traj_len": 4.112143990891536,
        "weighted_distance": 5.2139274114248035
    },
    "planner": "STRIDE",
    "start": {
        "state": {
            "elbow_joint": -1.9196185241190666,
            "shoulder_lift_joint": -1.2443396400964142,
            "shoulder_pan_joint": 2.6996025414629847,
            "wrist_1_joint": -1.5485510000780065,
            "wrist_2_joint": -1.5709468930060704,
            "wrist_3_joint": 0.4420197071253992
        }
    },
    "waypoints": [
        {
            "positions": [
                2.6996025414629847,
                -1.2443396400964142,
                -1.9196185241190666,
                -1.5485510000780065,
                -1.5709468930060704,
                0.4420197071253992
            ]
        },
        {
            "positions": [
                2.585559993680517,
                -1.2527103298545532,
                -1.8577158203157798,
                -1.4935144839634498,
                -1.5074021382181522,
                0.5234516034140864
            ]
        },
        {
            "positions": [
                2.4715174458980487,
                -1.261081019612692,
                -1.7958131165124929,
                -1.4384779678488933,
                -1.443857383430234,
                0.6048834997027737
            ]
        },
        {
            "positions": [
                2.357474898115581,
                -1.269451709370831,
                -1.733910412709206,
                -1.3834414517343365,
                -1.3803126286423157,
                0.686315395991461
            ]
        },
        {
            "positions": [
                2.243432350333113,
                -1.27782239912897,
                -1.672007708905919,
                -1.3284049356197798,
                -1.3167678738543975,
                0.7677472922801482
            ]
        },
        {
            "positions": [
                2.1293898025506452,
                -1.2861930888871091,
                -1.6101050051026322,
                -1.273368419505223,
                -1.2532231190664793,
                0.8491791885688353
            ]
        },
        {
            "positions": [
                2.0153472547681774,
                -1.294563778645248,
                -1.5482023012993453,
                -1.2183319033906663,
                -1.189678364278561,
                0.9306110848575226
            ]
        },
        {
            "positions": [
                1.9013047069857092,
                -1.302934468403387,
                -1.4862995974960587,
                -1.1632953872761098,
                -1.126133609490643,
                1.0120429811462097
            ]
        },
        {
            "positions": [
                1.7872621592032414,
                -1.311305158161526,
                -1.4243968936927716,
                -1.108258871161553,
                -1.0625888547027247,
                1.0934748774348972
            ]
        },
        {
            "positions": [
                1.6732196114207736,
                -1.3196758479196649,
                -1.362494189889485,
                -1.0532223550469964,
                -0.9990440999148065,
                1.1749067737235843
            ]
        },
        {
            "positions": [
                1.5591770636383055,
                -1.328046537677804,
                -1.3005914860861978,
                -0.9981858389324397,
                -0.9354993451268883,
                1.2563386700122716
            ]
        },
        {
            "positions": [
                1.4451345158558375,
                -1.336417227435943,
                -1.2386887822829111,
                -0.9431493228178831,
                -0.87195459033897,
                1.337770566300959
            ]
        },
        {
            "positions": [
                1.3310919680733697,
                -1.344787917194082,
                -1.1767860784796242,
                -0.8881128067033264,
                -0.8084098355510518,
                1.419202462589646
            ]
        },
        {
            "positions": [
                1.217049420290902,
                -1.3531586069522208,
                -1.1148833746763374,
                -0.8330762905887696,
                -0.7448650807631336,
                1.5006343588783335
            ]
        },
        {
            "positions": [
                1.1030068725084339,
                -1.3615292967103598,
                -1.0529806708730505,
                -0.778039774474213,
                -0.6813203259752154,
                1.5820662551670206
            ]
        },
        {
            "positions": [
                0.9889643247259658,
                -1.3698999864684989,
                -0.9910779670697636,
                -0.7230032583596564,
                -0.6177755711872972,
                1.6634981514557077
            ]
        },
        {
            "positions": [
                0.874921776943498,
                -1.378270676226638,
                -0.9291752632664767,
                -0.6679667422450997,
                -0.554230816399379,
                1.7449300477443952
            ]
        },
        {
            "positions": [
                0.7608792291610302,
                -1.3866413659847767,
                -0.8672725594631898,
                -0.6129302261305429,
                -0.4906860616114608,
                1.8263619440330823
            ]
        },
        {
            "positions": [
                0.6468366813785624,
                -1.3950120557429158,
                -0.8053698556599029,
                -0.5578937100159863,
                -0.42714130682354257,
                1.9077938403217698
            ]
        },
        {
            "positions": [
                0.5327941335960942,
                -1.4033827455010548,
                -0.743467151856616,
                -0.5028571939014297,
                -0.36359655203562435,
                1.9892257366104569
            ]
        },
        {
            "positions": [
                0.41875158581362637,
                -1.4117534352591936,
                -0.6815644480533292,
                -0.44782067778687296,
                -0.30005179724770614,
                2.070657632899144
            ]
        },
        {
            "positions": [
                0.30470903803115856,
                -1.4201241250173327,
                -0.6196617442500423,
                -0.3927841616723162,
                -0.23650704245978793,
                2.1520895291878315
            ]
        },
        {
            "positions": [
                0.1906664902486903,
                -1.4284948147754717,
                -0.5577590404467554,
                -0.3377476455577597,
                -0.17296228767186972,
                2.2335214254765186
            ]
        },
        {
            "positions": [
                0.0766239424662225,
                -1.4368655045336105,
                -0.4958563366434685,
                -0.282711129443203,
                -0.10941753288395151,
                2.3149533217652056
            ]
        },
        {
            "positions": [
                -0.0374186053162453,
                -1.4452361942917495,
                -0.43395363284018185,
                -0.22767461332864625,
                -0.045872778096033295,
                2.396385218053893
            ]
        },
        {
            "positions": [
                -0.1514611530987131,
                -1.4536068840498886,
                -0.37205092903689496,
                -0.17263809721408951,
                0.017671976691884916,
                2.4778171143425802
            ]
        },
        {
            "positions": [
                -0.2655037008811809,
                -1.4619775738080276,
                -0.3101482252336081,
                -0.11760158109953278,
                0.08121673147980313,
                2.5592490106312678
            ]
        },
        {
            "positions": [
                -0.37954624866364917,
                -1.4703482635661664,
                -0.2482455214303212,
                -0.06256506498497627,
                0.14476148626772134,
                2.640680906919955
            ]
        },
        {
            "positions": [
                -0.493588796446117,
                -1.4787189533243055,
                -0.1863428176270343,
                -0.007528548870419538,
                0.20830624105563955,
                2.722112803208642
            ]
        },
        {
            "positions": [
                -0.6076313442285848,
                -1.4870896430824445,
                -0.12444011382374742,
                0.047507967244137195,
                0.27185099584355776,
                2.8035446994973294
            ]
        },
        {
            "positions": [
                -0.721673892011053,
                -1.4954603328405836,
                -0.06253741002046054,
                0.1025444833586937,
                0.335395750631476,
                2.8849765957860165
            ]
        },
        {
            "positions": [
                -0.8357164397935208,
                -1.5038310225987224,
                -0.0006347062171736528,
                0.15758099947325044,
                0.3989405054193942,
                2.966408492074704
            ]
        },
        {
            "positions": [
                -0.9497589875759884,
                -1.5122017123568614,
                0.06126799758611312,
                0.21261751558780717,
                0.4624852602073124,
                3.047840388363391
            ]
        },
        {
            "positions": [
                -0.8603605120498102,
                -1.480484017333525,
                0.21943547685706236,
                0.13529585238172193,
                0.4355971698059302,
                3.047067397732691
            ]
        },
        {
            "positions": [
                -0.770962036523632,
                -1.4487663223101885,
                0.3776029561280116,
                0.05797418917563671,
                0.40870907940454804,
                3.0462944071019913
            ]
        },
        {
            "positions": [
                -0.6815635609974537,
                -1.417048627286852,
                0.5357704353989609,
                -0.019347474030448536,
                0.38182098900316586,
                3.045521416471291
            ]
        },
        {
            "positions": [
                -0.5921650854712757,
                -1.3853309322635157,
                0.6939379146699101,
                -0.09666913723653375,
                0.3549328986017837,
                3.0447484258405915
            ]
        },
        {
            "positions": [
                -0.5027666099450974,
                -1.3536132372401792,
                0.8521053939408594,
                -0.173990800442619,
                0.3280448082004015,
                3.0439754352098913
            ]
        },
        {
            "positions": [
                -0.4133681344189192,
                -1.321895542216843,
                1.0102728732118087,
                -0.25131246364870424,
                0.3011567177990193,
                3.043202444579191
            ]
        },
        {
            "positions": [
                -0.3239696588927409,
                -1.2901778471935064,
                1.168440352482758,
                -0.32863412685478954,
                0.2742686273976371,
                3.0424294539484915
            ]
        },
        {
            "positions": [
                -0.2345711833665628,
                -1.2584601521701702,
                1.326607831753707,
                -0.4059557900608747,
                0.24738053699625492,
                3.0416564633177914
            ]
        },
        {
            "positions": [
                -0.1451727078403846,
                -1.2267424571468337,
                1.4847753110246562,
                -0.4832774532669599,
                0.22049244659487272,
                3.0408834726870917
            ]
        },
        {
            "positions": [
                -0.05577423231420631,
                -1.1950247621234973,
                1.6429427902956055,
                -0.5605991164730452,
                0.19360435619349053,
                3.0401104820563916
            ]
        },
        {
            "positions": [
                0.03362424321197177,
                -1.1633070671001609,
                1.8011102695665548,
                -0.6379207796791304,
                0.16671626579210835,
                3.039337491425692
            ]
        },
        {
            "positions": [
                0.12302271873815,
                -1.1315893720768244,
                1.9592777488375042,
                -0.7152424428852157,
                0.13982817539072617,
                3.0385645007949917
            ]
        }
    ]
}