{
    "goal": {
        "global_pose": {
            "orientation": {
                "w": -0.4816463035849501,
                "x": 0.5182115481033762,
                "y": 0.4908360881923453,
                "z": -0.5084816262002911
            },
            "position": {
                "x": -0.8240239810943604,
                "y": 0.19912469901144506,
                "z": 0.16403168439865112
            }
        },
        "name": "move_to_storage_D"
    },
    "id": "STRIDE_move_to_storage_D_130",
    "joint_names": [
        "shoulder_pan_joint",
        "shoulder_lift_joint",
        "elbow_joint",
        "wrist_1_joint",
        "wrist_2_joint",
        "wrist_3_joint"
    ],
    "metrics": {
        "cart_traj_len": 3.652518044581173,
        "distance_elbow_joint": 4.215846603421802,
        "distance_shoulder_lift_joint": 1.262779142795352,
        "distance_shoulder_pan_joint": 3.1159511424573543,
        "distance_wrist_1_joint": 2.288559651106797,
        "distance_wrist_2_joint": 3.3163670287614986,
        "distance_wrist_3_joint": 3.1457688030796835,
        "smoothness": 0.06693687615105892,
        "time": 0.245596821,
        "traj_len": 4.164765584234303,
        "weighted_distance": 5.407562912962747
    },
    "planner": "STRIDE",
    "start": {
        "state": {
            "elbow_joint": -2.384821988534728,
            "shoulder_lift_joint": -2.2788054721415256,
            "shoulder_pan_joint": -0.1854694642142757,
            "wrist_1_joint": 1.4845938289331202,
            "wrist_2_joint": 0.17898776772866878,
            "wrist_3_joint": 0.037105688729662994
        }
    },
    "waypoints": [
        {
            "positions": [
                -0.1854694642142757,
                -2.2788054721415256,
                -2.384821988534728,
                1.4845938289331202,
                0.17898776772866878,
                0.037105688729662994
            ]
        },
        {
            "positions": [
                -0.19647891422498137,
                -2.2731715254893716,
                -2.3828730390299517,
                1.4340466303280899,
                0.12011980305357284,
                0.03974657942921798
            ]
        },
        {
            "positions": [
                -0.2248409952559513,
                -2.2575780365285105,
                -2.373161666824645,
                1.2875364421858158,
                -0.049521228287803254,
                0.04815909623115207
            ]
        },
        {
            "positions": [
                -0.25320307628692124,
                -2.24198454756765,
                -2.363450294619338,
                1.1410262540435414,
                -0.21916225962917935,
                0.05657161303308615
            ]
        },
        {
            "positions": [
                -0.28156515731789117,
                -2.226391058606789,
                -2.3537389224140313,
                0.9945160659012673,
                -0.38880329097055544,
                0.06498412983502025
            ]
        },
        {
            "positions": [
                -0.3099272383488611,
                -2.210797569645928,
                -2.3440275502087244,
                0.8480058777589932,
                -0.5584443223119315,
                0.07339664663695433
            ]
        },
        {
            "positions": [
                -0.3188982465456361,
                -2.196191232894336,
                -2.3112884435733405,
                0.7006621907116308,
                -0.7189987583816513,
                0.09011653815025021
            ]
        },
        {
            "positions": [
                -0.3278692547424111,
                -2.1815848961427444,
                -2.2785493369379566,
                0.5533185036642684,
                -0.879553194451371,
                0.10683642966354609
            ]
        },
        {
            "positions": [
                -0.33684026293918606,
                -2.1669785593911524,
                -2.2458102303025727,
                0.405974816616906,
                -1.0401076305210908,
                0.12355632117684198
            ]
        },
        {
            "positions": [
                -0.24863966199089776,
                -2.1451587242546872,
                -2.1235482482719994,
                0.3573653287593383,
                -1.0121359944231152,
                0.19772774236978777
            ]
        },
        {
            "positions": [
                -0.1604390610426095,
                -2.123338889118222,
                -2.001286266241426,
                0.3087558409017706,
                -0.9841643583251398,
                0.2718991635627336
            ]
        },
        {
            "positions": [
                -0.07223846009432122,
                -2.101519053981757,
                -1.8790242842108529,
                0.26014635304420297,
                -0.9561927222271643,
                0.3460705847556793
            ]
        },
        {
            "positions": [
                0.015962140853967077,
                -2.079699218845292,
                -1.7567623021802796,
                0.21153686518663525,
                -0.9282210861291889,
                0.42024200594862515
            ]
        },
        {
            "positions": [
                0.10416274180225538,
                -2.0578793837088267,
                -1.6345003201497064,
                0.16292737732906756,
                -0.9002494500312134,
                0.4944134271415709
            ]
        },
        {
            "positions": [
                0.19236334275054362,
                -2.0360595485723616,
                -1.512238338119133,
                0.1143178894714999,
                -0.8722778139332379,
                0.5685848483345167
            ]
        },
        {
            "positions": [
                0.28056394369883203,
                -2.014239713435897,
                -1.3899763560885596,
                0.06570840161393215,
                -0.8443061778352623,
                0.6427562695274626
            ]
        },
        {
            "positions": [
                0.3687645446471202,
                -1.9924198782994316,
                -1.2677143740579866,
                0.01709891375636452,
                -0.8163345417372869,
                0.7169276907204083
            ]
        },
        {
            "positions": [
                0.45696514559540863,
                -1.9706000431629667,
                -1.1454523920274131,
                -0.031510574101203226,
                -0.7883629056393113,
                0.7910991119133541
            ]
        },
        {
            "positions": [
                0.5451657465436968,
                -1.9487802080265015,
                -1.0231904099968399,
                -0.08012006195877086,
                -0.760391269541336,
                0.8652705331062999
            ]
        },
        {
            "positions": [
                0.6333663474919851,
                -1.9269603728900364,
                -0.9009284279662666,
                -0.1287295498163386,
                -0.7324196334433604,
                0.9394419542992456
            ]
        },
        {
            "positions": [
                0.7215669484402734,
                -1.9051405377535713,
                -0.7786664459356933,
                -0.17733903767390619,
                -0.704447997345385,
                1.0136133754921914
            ]
        },
        {
            "positions": [
                0.8097675493885617,
                -1.8833207026171062,
                -0.6564044639051201,
                -0.22594852553147388,
                -0.6764763612474094,
                1.087784796685137
            ]
        },
        {
            "positions": [
                0.8979681503368502,
                -1.861500867480641,
                -0.5341424818745466,
                -0.2745580133890417,
                -0.6485047251494339,
                1.1619562178780831
            ]
        },
        {
            "positions": [
                0.9861687512851383,
                -1.839681032344176,
                -0.41188049984397357,
                -0.32316750124660926,
                -0.6205330890514584,
                1.2361276390710287
            ]
        },
        {
            "positions": [
                1.0743693522334266,
                -1.817861197207711,
                -0.2896185178134003,
                -0.37177698910417695,
                -0.5925614529534831,
                1.3102990602639746
            ]
        },
        {
            "positions": [
                1.1625699531817149,
                -1.7960413620712459,
                -0.16735653578282728,
                -0.42038647696174464,
                -0.5645898168555075,
                1.3844704814569202
            ]
        },
        {
            "positions": [
                1.2507705541300034,
                -1.7742215269347807,
                -0.045094553752253574,
                -0.46899596481931244,
                -0.536618180757532,
                1.4586419026498663
            ]
        },
        {
            "positions": [
                1.3389711550782915,
                -1.7524016917983156,
                0.07716742827831968,
                -0.5176054526768801,
                -0.5086465446595565,
                1.5328133238428119
            ]
        },
        {
            "positions": [
                1.4271717560265798,
                -1.7305818566618507,
                0.19942941030889294,
                -0.5662149405344477,
                -0.480674908561581,
                1.6069847450357577
            ]
        },
        {
            "positions": [
                1.515372356974868,
                -1.7087620215253856,
                0.3216913923394662,
                -0.6148244283920155,
                -0.45270327246360553,
                1.6811561662287033
            ]
        },
        {
            "positions": [
                1.6035729579231564,
                -1.6869421863889205,
                0.44395337437003946,
                -0.6634339162495833,
                -0.42473163636563005,
                1.7553275874216492
            ]
        },
        {
            "positions": [
                1.6917735588714444,
                -1.6651223512524553,
                0.5662153564006128,
                -0.7120434041071508,
                -0.39676000026765457,
                1.829499008614595
            ]
        },
        {
            "positions": [
                1.7541713269995654,
                -1.62184928312537,
                0.6505359736330436,
                -0.718171565311586,
                -0.2998317335837677,
                1.9197240408275784
            ]
        },
        {
            "positions": [
                1.8165690951276863,
                -1.5785762149982845,
                0.7348565908654744,
                -0.724299726516021,
                -0.20290346689988087,
                2.009949073040562
            ]
        },
        {
            "positions": [
                1.8789668632558072,
                -1.535303146871199,
                0.8191772080979052,
                -0.7304278877204562,
                -0.10597520021599399,
                2.1001741052535454
            ]
        },
        {
            "positions": [
                1.9413646313839281,
                -1.4920300787441136,
                0.9034978253303358,
                -0.7365560489248912,
                -0.009046933532107171,
                2.1903991374665286
            ]
        },
        {
            "positions": [
                2.003762399512049,
                -1.448757010617028,
                0.9878184425627667,
                -0.7426842101293264,
                0.08788133315177965,
                2.280624169679512
            ]
        },
        {
            "positions": [
                2.0661601676401697,
                -1.4054839424899426,
                1.0721390597951976,
                -0.7488123713337614,
                0.18480959983566658,
                2.370849201892496
            ]
        },
        {
            "positions": [
                2.1285579357682907,
                -1.3622108743628571,
                1.1564596770276283,
                -0.7549405325381966,
                0.28173786651955335,
                2.461074234105479
            ]
        },
        {
            "positions": [
                2.1909557038964116,
                -1.3189378062357717,
                1.240780294260059,
                -0.7610686937426316,
                0.3786661332034402,
                2.5512992663184626
            ]
        },
        {
            "positions": [
                2.2533534720245325,
                -1.2756647381086863,
                1.3251009114924899,
                -0.7671968549470668,
                0.475594399887327,
                2.6415242985314458
            ]
        },
        {
            "positions": [
                2.3157512401526534,
                -1.2323916699816009,
                1.4094215287249205,
                -0.7733250161515018,
                0.5725226665712139,
                2.7317493307444294
            ]
        },
        {
            "positions": [
                2.3781490082807744,
                -1.1891186018545155,
                1.4937421459573512,
                -0.779453177355937,
                0.6694509332551006,
                2.8219743629574126
            ]
        },
        {
            "positions": [
                2.4405467764088953,
                -1.1458455337274298,
                1.5780627631897821,
                -0.785581338560372,
                0.7663791999389877,
                2.912199395170396
            ]
        },
        {
            "positions": [
                2.502944544537016,
                -1.1025724656003444,
                1.662383380422213,
                -0.7917094997648072,
                0.8633074666228744,
                3.00242442738338
            ]
        },
        {
            "positions": [
                2.565342312665137,
                -1.059299397473259,
                1.746703997654644,
                -0.7978376609692424,
                0.9602357333067613,
                3.0926494595963634
            ]
        },
        {
            "positions": [
                2.627740080793258,
                -1.0160263293461735,
                1.8310246148870744,
                -0.8039658221736774,
                1.0571639999906481,
                3.1828744918093466
            ]
        }
    ]
}