{
    "goal": {
        "global_pose": {
            "orientation": {
                "w": -0.00223480608172531,
                "x": 0.0024358444001904467,
                "y": 0.7094548369677653,
                "z": -0.704743149386269
            },
            "position": {
                "x": -0.37947507619857795,
                "y": -0.6371506643295288,
                "z": 0.19426114857196808
            }
        },
        "name": "move_to_magneteinheit_C"
    },
    "id": "STRIDE_move_to_magneteinheit_C_114",
    "joint_names": [
        "shoulder_pan_joint",
        "shoulder_lift_joint",
        "elbow_joint",
        "wrist_1_joint",
        "wrist_2_joint",
        "wrist_3_joint"
    ],
    "metrics": {
        "cart_traj_len": 3.489120040149407,
        "distance_elbow_joint": 1.4098668448230987,
        "distance_shoulder_lift_joint": 3.0889873539685397,
        "distance_shoulder_pan_joint": 2.5071657381420587,
        "distance_wrist_1_joint": 6.834282175147953,
        "distance_wrist_2_joint": 4.4468892351864255,
        "distance_wrist_3_joint": 7.565746672233665,
        "smoothness": 0.5021286751108643,
        "time": 0.900022865,
        "traj_len": 5.084578450520922,
        "weighted_distance": 7.22949533330671
    },
    "planner": "STRIDE",
    "start": {
        "state": {
            "elbow_joint": 1.9565354010623817,
            "shoulder_lift_joint": -1.4165861575791021,
            "shoulder_pan_joint": -1.6717766225146293,
            "wrist_1_joint": -0.5286633292919765,
            "wrist_2_joint": 1.472756589071564,
            "wrist_3_joint": -3.1238370188695823
        }
    },
    "waypoints": [
        {
            "positions": [
                -1.6717766225146293,
                -1.4165861575791021,
                1.9565354010623817,
                -0.5286633292919765,
                1.472756589071564,
                -3.1238370188695823
            ]
        },
        {
            "positions": [
                -1.5844187366075095,
                -1.4295049845736063,
                1.9331445802667024,
                -0.5329154546778598,
                1.3813997225965418,
                -3.041404656054954
            ]
        },
        {
            "positions": [
                -1.4970608507003895,
                -1.4424238115681103,
                1.9097537594710232,
                -0.5371675800637433,
                1.2900428561215196,
                -2.9589722932403255
            ]
        },
        {
            "positions": [
                -1.5201105518308236,
                -1.44250641023268,
                1.8754934493828734,
                -0.49956962222608225,
                1.216081473152253,
                -2.7470666661099723
            ]
        },
        {
            "positions": [
                -1.5431602529612574,
                -1.4425890088972495,
                1.8412331392947239,
                -0.4619716643884212,
                1.1421200901829864,
                -2.5351610389796186
            ]
        },
        {
            "positions": [
                -1.5662099540916914,
                -1.4426716075618193,
                1.806972829206574,
                -0.42437370655076007,
                1.0681587072137197,
                -2.3232554118492654
            ]
        },
        {
            "positions": [
                -1.5892596552221254,
                -1.442754206226389,
                1.7727125191184245,
                -0.386775748713099,
                0.9941973242444533,
                -2.111349784718912
            ]
        },
        {
            "positions": [
                -1.6123093563525592,
                -1.4428368048909586,
                1.7384522090302748,
                -0.3491777908754379,
                0.9202359412751866,
                -1.8994441575885588
            ]
        },
        {
            "positions": [
                -1.6353590574829933,
                -1.4429194035555282,
                1.7041918989421252,
                -0.3115798330377768,
                0.8462745583059199,
                -1.6875385304582053
            ]
        },
        {
            "positions": [
                -1.6584087586134273,
                -1.4430020022200978,
                1.6699315888539754,
                -0.2739818752001158,
                0.7723131753366534,
                -1.4756329033278521
            ]
        },
        {
            "positions": [
                -1.681458459743861,
                -1.4430846008846674,
                1.6356712787658259,
                -0.23638391736245468,
                0.6983517923673869,
                -1.2637272761974987
            ]
        },
        {
            "positions": [
                -1.7045081608742951,
                -1.4431671995492372,
                1.601410968677676,
                -0.1987859595247936,
                0.6243904093981202,
                -1.0518216490671455
            ]
        },
        {
            "positions": [
                -1.727557862004729,
                -1.4432497982138068,
                1.5671506585895265,
                -0.1611880016871325,
                0.5504290264288536,
                -0.839916021936792
            ]
        },
        {
            "positions": [
                -1.750607563135163,
                -1.4433323968783764,
                1.5328903485013767,
                -0.12359004384947142,
                0.47646764345958703,
                -0.6280103948064384
            ]
        },
        {
            "positions": [
                -1.773657264265597,
                -1.443414995542946,
                1.4986300384132272,
                -0.08599208601181035,
                0.40250626049032034,
                -0.4161047676760852
            ]
        },
        {
            "positions": [
                -1.7967069653960308,
                -1.4434975942075157,
                1.4643697283250774,
                -0.04839412817414934,
                0.3285448775210539,
                -0.2041991405457324
            ]
        },
        {
            "positions": [
                -1.8197566665264648,
                -1.4435801928720853,
                1.4301094182369278,
                -0.010796170336488276,
                0.2545834945517873,
                0.007706486584621253
            ]
        },
        {
            "positions": [
                -1.8428063676568989,
                -1.443662791536655,
                1.395849108148778,
                0.026801787501172902,
                0.18062211158252062,
                0.21961211371497447
            ]
        },
        {
            "positions": [
                -1.8658560687873327,
                -1.4437453902012247,
                1.3615887980606285,
                0.06439974533883397,
                0.10666072861325415,
                0.4315177408453281
            ]
        },
        {
            "positions": [
                -1.8889057699177667,
                -1.4438279888657943,
                1.3273284879724787,
                0.10199770317649498,
                0.03269934564398749,
                0.6434233679756813
            ]
        },
        {
            "positions": [
                -1.949060229046179,
                -1.5100282312875914,
                1.3249250339690137,
                0.22719705492094558,
                -0.023714747898062154,
                0.5692572307677305
            ]
        },
        {
            "positions": [
                -2.009214688174591,
                -1.5762284737093886,
                1.3225215799655485,
                0.3523964066653962,
                -0.0801288414401118,
                0.49509109355977965
            ]
        },
        {
            "positions": [
                -2.069369147303003,
                -1.6424287161311857,
                1.3201181259620836,
                0.4775957584098468,
                -0.13654293498216144,
                0.4209249563518288
            ]
        },
        {
            "positions": [
                -2.129523606431415,
                -1.7086289585529828,
                1.3177146719586184,
                0.6027951101542974,
                -0.1929570285242111,
                0.346758819143878
            ]
        },
        {
            "positions": [
                -2.1896780655598276,
                -1.77482920097478,
                1.3153112179551534,
                0.727994461898748,
                -0.24937112206626075,
                0.2725926819359272
            ]
        },
        {
            "positions": [
                -2.2498325246882396,
                -1.841029443396577,
                1.3129077639516884,
                0.8531938136431987,
                -0.3057852156083104,
                0.19842654472797633
            ]
        },
        {
            "positions": [
                -2.309986983816652,
                -1.9072296858183742,
                1.3105043099482232,
                0.9783931653876492,
                -0.36219930915036,
                0.12426040752002554
            ]
        },
        {
            "positions": [
                -2.370141442945064,
                -1.9734299282401713,
                1.3081008559447582,
                1.1035925171320997,
                -0.41861340269240965,
                0.050094270312074696
            ]
        },
        {
            "positions": [
                -2.430295902073476,
                -2.0396301706619684,
                1.3056974019412932,
                1.2287918688765505,
                -0.4750274962344593,
                -0.02407186689587615
            ]
        },
        {
            "positions": [
                -2.4904503612018885,
                -2.1058304130837655,
                1.303293947937828,
                1.353991220621001,
                -0.531441589776509,
                -0.09823800410382699
            ]
        },
        {
            "positions": [
                -2.5506048203303004,
                -2.172030655505563,
                1.300890493934363,
                1.4791905723654517,
                -0.5878556833185586,
                -0.17240414131177795
            ]
        },
        {
            "positions": [
                -2.610759279458713,
                -2.2382308979273597,
                1.2984870399308979,
                1.6043899241099022,
                -0.6442697768606083,
                -0.24657027851972868
            ]
        },
        {
            "positions": [
                -2.670913738587125,
                -2.3044311403491573,
                1.296083585927433,
                1.729589275854353,
                -0.700683870402658,
                -0.32073641572767964
            ]
        },
        {
            "positions": [
                -2.731068197715537,
                -2.370631382770954,
                1.293680131923968,
                1.8547886275988035,
                -0.7570979639447075,
                -0.39490255293563026
            ]
        },
        {
            "positions": [
                -2.7912226568439493,
                -2.4368316251927515,
                1.2912766779205027,
                1.9799879793432542,
                -0.8135120574867573,
                -0.4690686901435812
            ]
        },
        {
            "positions": [
                -2.8513771159723613,
                -2.503031867614548,
                1.2888732239170377,
                2.1051873310877047,
                -0.8699261510288069,
                -0.543234827351532
            ]
        },
        {
            "positions": [
                -2.9115315751007733,
                -2.5692321100363458,
                1.2864697699135728,
                2.2303866828321555,
                -0.9263402445708565,
                -0.6174009645594829
            ]
        },
        {
            "positions": [
                -2.9716860342291858,
                -2.6354323524581424,
                1.2840663159101076,
                2.355586034576606,
                -0.982754338112906,
                -0.6915671017674336
            ]
        },
        {
            "positions": [
                -3.031840493357598,
                -2.70163259487994,
                1.2816628619066426,
                2.480785386321057,
                -1.0391684316549559,
                -0.7657332389753846
            ]
        },
        {
            "positions": [
                -3.0919949524860098,
                -2.767832837301737,
                1.2792594079031774,
                2.6059847380655072,
                -1.0955825251970055,
                -0.8398993761833353
            ]
        },
        {
            "positions": [
                -3.152149411614422,
                -2.8340330797235342,
                1.2768559538997124,
                2.731184089809958,
                -1.1519966187390551,
                -0.9140655133912863
            ]
        },
        {
            "positions": [
                -3.127957932849644,
                -2.7743352071583876,
                1.3029340752447278,
                2.6041331521491546,
                -1.0869203320470622,
                -0.9941011349634803
            ]
        },
        {
            "positions": [
                -3.103766454084866,
                -2.714637334593241,
                1.329012196589743,
                2.4770822144883513,
                -1.0218440453550692,
                -1.0741367565356743
            ]
        },
        {
            "positions": [
                -3.079574975320088,
                -2.654939462028094,
                1.3550903179347584,
                2.350031276827548,
                -0.9567677586630763,
                -1.1541723781078683
            ]
        },
        {
            "positions": [
                -3.0553834965553097,
                -2.5952415894629475,
                1.3811684392797738,
                2.2229803391667446,
                -0.8916914719710833,
                -1.2342079996800623
            ]
        },
        {
            "positions": [
                -3.0311920177905316,
                -2.535543716897801,
                1.407246560624789,
                2.0959294015059413,
                -0.8266151852790903,
                -1.3142436212522564
            ]
        },
        {
            "positions": [
                -3.0070005390257535,
                -2.475845844332654,
                1.4333246819698044,
                1.968878463845138,
                -0.7615388985870974,
                -1.3942792428244504
            ]
        },
        {
            "positions": [
                -2.9828090602609754,
                -2.4161479717675074,
                1.4594028033148199,
                1.8418275261843347,
                -0.6964626118951044,
                -1.4743148643966444
            ]
        },
        {
            "positions": [
                -2.9586175814961977,
                -2.3564500992023607,
                1.485480924659835,
                1.7147765885235313,
                -0.6313863252031114,
                -1.5543504859688384
            ]
        },
        {
            "positions": [
                -2.9344261027314196,
                -2.296752226637214,
                1.5115590460048505,
                1.587725650862728,
                -0.5663100385111184,
                -1.6343861075410324
            ]
        },
        {
            "positions": [
                -2.9102346239666415,
                -2.2370543540720673,
                1.5376371673498657,
                1.4606747132019247,
                -0.5012337518191254,
                -1.7144217291132264
            ]
        },
        {
            "positions": [
                -2.8860431452018633,
                -2.1773564815069206,
                1.563715288694881,
                1.3336237755411213,
                -0.4361574651271326,
                -1.7944573506854204
            ]
        },
        {
            "positions": [
                -2.861851666437085,
                -2.117658608941774,
                1.5897934100398965,
                1.206572837880318,
                -0.37108117843513966,
                -1.8744929722576145
            ]
        },
        {
            "positions": [
                -2.837660187672307,
                -2.0579607363766272,
                1.615871531384912,
                1.0795219002195147,
                -0.3060048917431466,
                -1.9545285938298085
            ]
        },
        {
            "positions": [
                -2.813468708907529,
                -1.9982628638114805,
                1.641949652729927,
                0.9524709625587113,
                -0.24092860505115365,
                -2.0345642154020025
            ]
        },
        {
            "positions": [
                -2.789277230142751,
                -1.9385649912463339,
                1.6680277740749423,
                0.825420024897908,
                -0.1758523183591607,
                -2.1145998369741967
            ]
        },
        {
            "positions": [
                -2.7650857513779727,
                -1.8788671186811872,
                1.6941058954199577,
                0.6983690872371047,
                -0.11077603166716776,
                -2.1946354585463905
            ]
        },
        {
            "positions": [
                -2.7408942726131946,
                -1.8191692461160405,
                1.7201840167649731,
                0.5713181495763013,
                -0.045699744975174816,
                -2.2746710801185843
            ]
        },
        {
            "positions": [
                -2.7167027938484165,
                -1.7594713735508936,
                1.7462621381099885,
                0.444267211915498,
                0.019376541716818352,
                -2.3547067016907786
            ]
        },
        {
            "positions": [
                -2.6925113150836384,
                -1.6997735009857469,
                1.7723402594550037,
                0.3172162742546947,
                0.0844528284088113,
                -2.434742323262973
            ]
        },
        {
            "positions": [
                -2.6683198363188603,
                -1.6400756284206002,
                1.7984183808000191,
                0.19016533659389134,
                0.14952911510080424,
                -2.5147779448351666
            ]
        },
        {
            "positions": [
                -2.6441283575540826,
                -1.5803777558554535,
                1.8244965021450343,
                0.06311439893308801,
                0.21460540179279697,
                -2.5948135664073604
            ]
        },
        {
            "positions": [
                -2.6199368787893045,
                -1.5206798832903068,
                1.8505746234900498,
                -0.06393653872771532,
                0.2796816884847899,
                -2.6748491879795546
            ]
        },
        {
            "positions": [
                -2.5957454000245264,
                -1.46098201072516,
                1.8766527448350652,
                -0.19098747638851865,
                0.34475797517678286,
                -2.754884809551749
            ]
        },
        {
            "positions": [
                -2.5715539212597482,
                -1.4012841381600136,
                1.9027308661800806,
                -0.318038414049322,
                0.4098342618687758,
                -2.8349204311239427
            ]
        },
        {
            "positions": [
                -2.54736244249497,
                -1.3415862655948667,
                1.9288089875250958,
                -0.4450893517101253,
                0.474910548560769,
                -2.914956052696137
            ]
        },
        {
            "positions": [
                -2.523170963730192,
                -1.28188839302972,
                1.9548871088701112,
                -0.5721402893709286,
                0.5399868352527619,
                -2.9949916742683307
            ]
        },
        {
            "positions": [
                -2.498979484965414,
                -1.2221905204645733,
                1.9809652302151264,
                -0.699191227031732,
                0.6050631219447549,
                -3.075027295840525
            ]
        },
        {
            "positions": [
                -2.4747880062006358,
                -1.1624926478994266,
                2.007043351560142,
                -0.8262421646925351,
                0.6701394086367477,
                -3.1550629174127187
            ]
        }
    ]
}