{
    "goal": {
        "global_pose": {
            "orientation": {
                "w": 0.7047431493862688,
                "x": -0.7094548369677653,
                "y": 0.0024358444001904,
                "z": -0.0022348060817251984
            },
            "position": {
                "x": -0.39052492380142206,
                "y": 0.3671506643295288,
                "z": 0.19426114857196808
            }
        },
        "name": "move_to_magneteinheit_D"
    },
    "id": "STRIDE_move_to_magneteinheit_D_106",
    "joint_names": [
        "shoulder_pan_joint",
        "shoulder_lift_joint",
        "elbow_joint",
        "wrist_1_joint",
        "wrist_2_joint",
        "wrist_3_joint"
    ],
    "metrics": {
        "cart_traj_len": 4.371979091182558,
        "distance_elbow_joint": 3.3754796265905838,
        "distance_shoulder_lift_joint": 1.6355863179420937,
        "distance_shoulder_pan_joint": 3.5018732199735534,
        "distance_wrist_1_joint": 2.043742418004813,
        "distance_wrist_2_joint": 0.7456466664072284,
        "distance_wrist_3_joint": 3.1696529770182558,
        "smoothness": 0.462845669462434,
        "time": 1.338372184,
        "traj_len": 3.804205728655658,
        "weighted_distance": 4.8580527235081625
    },
    "planner": "STRIDE",
    "start": {
        "state": {
            "elbow_joint": 0.749534889911806,
            "shoulder_lift_joint": -0.6476975780787326,
            "shoulder_pan_joint": -2.711696901376241,
            "wrist_1_joint": -0.07506478083263063,
            "wrist_2_joint": 0.43296659715538205,
            "wrist_3_joint": -3.14703540197715
        }
    },
    "waypoints": [
        {
            "positions": [
                -2.711696901376241,
                -0.6476975780787326,
                0.749534889911806,
                -0.07506478083263063,
                0.43296659715538205,
                -3.14703540197715
            ]
        },
        {
            "positions": [
                -2.6802320664529504,
                -0.7242658939483175,
                0.8114263133370353,
                0.051560739704555714,
                0.43436432941706926,
                -3.0540803167216617
            ]
        },
        {
            "positions": [
                -2.6487672315296598,
                -0.8008342098179024,
                0.8733177367622647,
                0.17818626024174206,
                0.4357620616787564,
                -2.9611252314661733
            ]
        },
        {
            "positions": [
                -2.5464789210086898,
                -0.8428802705725457,
                0.7778924337747487,
                0.2057693805810921,
                0.4431481761966963,
                -2.847211583843879
            ]
        },
        {
            "positions": [
                -2.44419061048772,
                -0.8849263313271889,
                0.6824671307872328,
                0.23335250092044213,
                0.4505342907146361,
                -2.733297936221585
            ]
        },
        {
            "positions": [
                -2.34190229996675,
                -0.9269723920818322,
                0.5870418277997169,
                0.2609356212597922,
                0.45792040523257593,
                -2.6193842885992913
            ]
        },
        {
            "positions": [
                -2.23961398944578,
                -0.9690184528364755,
                0.491616524812201,
                0.28851874159914226,
                0.46530651975051573,
                -2.505470640976997
            ]
        },
        {
            "positions": [
                -2.13732567892481,
                -1.0110645135911187,
                0.396191221824685,
                0.31610186193849227,
                0.4726926342684556,
                -2.391556993354703
            ]
        },
        {
            "positions": [
                -2.03503736840384,
                -1.0531105743457618,
                0.3007659188371692,
                0.3436849822778423,
                0.4800787487863954,
                -2.277643345732409
            ]
        },
        {
            "positions": [
                -1.9327490578828699,
                -1.0951566351004052,
                0.20534061584965313,
                0.37126810261719234,
                0.48746486330433525,
                -2.1637296981101146
            ]
        },
        {
            "positions": [
                -1.8304607473619,
                -1.1372026958550485,
                0.1099153128621373,
                0.3988512229565424,
                0.49485097782227505,
                -2.0498160504878205
            ]
        },
        {
            "positions": [
                -1.7281724368409301,
                -1.1792487566096916,
                0.014490009874621457,
                0.4264343432958924,
                0.5022370923402149,
                -1.9359024028655265
            ]
        },
        {
            "positions": [
                -1.6258841263199602,
                -1.221294817364335,
                -0.0809352931128946,
                0.4540174636352425,
                0.5096232068581548,
                -1.8219887552432323
            ]
        },
        {
            "positions": [
                -1.5235958157989902,
                -1.2633408781189783,
                -0.17636059610041044,
                0.48160058397459254,
                0.5170093213760946,
                -1.7080751076209382
            ]
        },
        {
            "positions": [
                -1.4213075052780202,
                -1.3053869388736214,
                -0.2717858990879263,
                0.5091837043139426,
                0.5243954358940344,
                -1.5941614599986442
            ]
        },
        {
            "positions": [
                -1.3190191947570502,
                -1.3474329996282648,
                -0.36721120207544233,
                0.5367668246532926,
                0.5317815504119743,
                -1.48024781237635
            ]
        },
        {
            "positions": [
                -1.2167308842360802,
                -1.3894790603829081,
                -0.4626365050629584,
                0.5643499449926427,
                0.5391676649299141,
                -1.366334164754056
            ]
        },
        {
            "positions": [
                -1.1144425737151102,
                -1.4315251211375513,
                -0.558061808050474,
                0.5919330653319927,
                0.5465537794478539,
                -1.252420517131762
            ]
        },
        {
            "positions": [
                -1.0121542631941403,
                -1.4735711818921944,
                -0.6534871110379901,
                0.6195161856713427,
                0.5539398939657938,
                -1.1385068695094678
            ]
        },
        {
            "positions": [
                -0.9098659526731703,
                -1.515617242646838,
                -0.7489124140255061,
                0.6470993060106929,
                0.5613260084837336,
                -1.0245932218871736
            ]
        },
        {
            "positions": [
                -0.8075776421522005,
                -1.557663303401481,
                -0.8443377170130217,
                0.6746824263500428,
                0.5687121230016734,
                -0.9106795742648797
            ]
        },
        {
            "positions": [
                -0.7052893316312303,
                -1.5997093641561242,
                -0.9397630200005378,
                0.7022655466893928,
                0.5760982375196132,
                -0.7967659266425855
            ]
        },
        {
            "positions": [
                -0.6030010211102605,
                -1.6417554249107675,
                -1.0351883229880539,
                0.729848667028743,
                0.5834843520375531,
                -0.6828522790202913
            ]
        },
        {
            "positions": [
                -0.5007127105892906,
                -1.6838014856654109,
                -1.1306136259755695,
                0.7574317873680929,
                0.5908704665554929,
                -0.5689386313979976
            ]
        },
        {
            "positions": [
                -0.3984244000683206,
                -1.725847546420054,
                -1.2260389289630855,
                0.7850149077074431,
                0.5982565810734327,
                -0.455024983775703
            ]
        },
        {
            "positions": [
                -0.2961360895473506,
                -1.7678936071746973,
                -1.3214642319506016,
                0.812598028046793,
                0.6056426955913725,
                -0.34111133615340883
            ]
        },
        {
            "positions": [
                -0.19384777902638062,
                -1.8099396679293405,
                -1.4168895349381172,
                0.840181148386143,
                0.6130288101093124,
                -0.2271976885311151
            ]
        },
        {
            "positions": [
                -0.09155946850541061,
                -1.8519857286839838,
                -1.5123148379256333,
                0.8677642687254932,
                0.6204149246272522,
                -0.11328404090882101
            ]
        },
        {
            "positions": [
                -0.03526409145534089,
                -1.85551739802535,
                -1.5927954842618914,
                0.9928450601937844,
                0.5494471639455333,
                -0.09495399914328376
            ]
        },
        {
            "positions": [
                0.021031285594728832,
                -1.8590490673667162,
                -1.6732761305981496,
                1.1179258516620756,
                0.47847940326381444,
                -0.07662395737774652
            ]
        },
        {
            "positions": [
                0.07732666264479854,
                -1.8625807367080824,
                -1.7537567769344076,
                1.2430066431303666,
                0.4075116425820955,
                -0.058293915612209264
            ]
        },
        {
            "positions": [
                0.13362203969486827,
                -1.8661124060494485,
                -1.8342374232706657,
                1.368087434598658,
                0.3365438819003766,
                -0.03996387384667202
            ]
        },
        {
            "positions": [
                0.18991741674493803,
                -1.8696440753908148,
                -1.914718069606924,
                1.493168226066949,
                0.26557612121865765,
                -0.02163383208113477
            ]
        },
        {
            "positions": [
                0.24621279379500768,
                -1.8731757447321808,
                -1.995198715943182,
                1.6182490175352402,
                0.1946083605369388,
                -0.0033037903155975212
            ]
        },
        {
            "positions": [
                0.3025081708450774,
                -1.8767074140735471,
                -2.0756793622794403,
                1.7433298090035314,
                0.12364059985521986,
                0.015026251449939743
            ]
        },
        {
            "positions": [
                0.18059113390701867,
                -1.978351534560367,
                -2.1513542824540455,
                1.6869928519613686,
                0.13899660339605133,
                0.013128420552148707
            ]
        },
        {
            "positions": [
                0.05867409696895992,
                -2.0799956550471865,
                -2.2270292026286507,
                1.6306558949192058,
                0.1543526069368828,
                0.011230589654357673
            ]
        },
        {
            "positions": [
                -0.0632429399690988,
                -2.1816397755340065,
                -2.3027041228032563,
                1.574318937877043,
                0.1697086104777143,
                0.00933275875656664
            ]
        },
        {
            "positions": [
                -0.18515997690715755,
                -2.2832838960208264,
                -2.3783790429778615,
                1.5179819808348802,
                0.18506461401854576,
                0.007434927858775604
            ]
        }
    ]
}