{
    "goal": {
        "global_pose": {
            "orientation": {
                "w": 0.5084816262002911,
                "x": -0.4908360881923452,
                "y": 0.5182115481033761,
                "z": -0.48164630358495003
            },
            "position": {
                "x": 0.5540239810943604,
                "y": -0.46912469901144505,
                "z": 0.16403168439865112
            }
        },
        "name": "move_to_storage_B"
    },
    "id": "STRIDE_move_to_storage_B_127",
    "joint_names": [
        "shoulder_pan_joint",
        "shoulder_lift_joint",
        "elbow_joint",
        "wrist_1_joint",
        "wrist_2_joint",
        "wrist_3_joint"
    ],
    "metrics": {
        "cart_traj_len": 1.1294162883354544,
        "distance_elbow_joint": 1.4269797410727674,
        "distance_shoulder_lift_joint": 0.49529014589596887,
        "distance_shoulder_pan_joint": 0.8847214817422572,
        "distance_wrist_1_joint": 2.983516396361522,
        "distance_wrist_2_joint": 2.798755072535235,
        "distance_wrist_3_joint": 3.1383507684125442,
        "smoothness": 0.44744973639552044,
        "time": 0.057471548,
        "traj_len": 3.4245603522233767,
        "weighted_distance": 4.877149435043194
    },
    "planner": "STRIDE",
    "start": {
        "state": {
            "elbow_joint": 1.664937868594044,
            "shoulder_lift_joint": -0.661644460510453,
            "shoulder_pan_joint": -0.9139846352900073,
            "wrist_1_joint": 2.146753192139373,
            "wrist_2_joint": -2.2341966793290973,
            "wrist_3_joint": 0.005466555786416001
        }
    },
    "waypoints": [
        {
            "positions": [
                -0.9139846352900073,
                -0.661644460510453,
                1.664937868594044,
                2.146753192139373,
                -2.2341966793290973,
                0.005466555786416001
            ]
        },
        {
            "positions": [
                -0.8697110365181511,
                -0.6985222364351573,
                1.7340690037069395,
                2.127677735346398,
                -2.248805934325896,
                0.08895264599655625
            ]
        },
        {
            "positions": [
                -0.8254374377462947,
                -0.7354000123598616,
                1.803200138819835,
                2.108602278553422,
                -2.2634151893226946,
                0.1724387362066965
            ]
        },
        {
            "positions": [
                -0.7811638389744385,
                -0.772277788284566,
                1.8723312739327307,
                2.0895268217604466,
                -2.2780244443194935,
                0.2559248264168368
            ]
        },
        {
            "positions": [
                -0.726487349820201,
                -0.7676766174530125,
                1.7375844387983537,
                2.071406209540342,
                -2.14715337882627,
                0.2860952749780126
            ]
        },
        {
            "positions": [
                -0.6718108606659636,
                -0.763075446621459,
                1.6028376036639767,
                2.0532855973202375,
                -2.016282313333047,
                0.31626572353918847
            ]
        },
        {
            "positions": [
                -0.6171343715117261,
                -0.7584742757899054,
                1.4680907685295994,
                2.0351649851001334,
                -1.8854112478398242,
                0.3464361721003643
            ]
        },
        {
            "positions": [
                -0.5624578823574886,
                -0.753873104958352,
                1.3333439333952224,
                2.017044372880029,
                -1.754540182346601,
                0.37660662066154016
            ]
        },
        {
            "positions": [
                -0.5846743293912278,
                -0.7691336105748371,
                1.3617022248617463,
                1.8981357238341048,
                -1.6615633887811032,
                0.491907066642266
            ]
        },
        {
            "positions": [
                -0.6068907764249668,
                -0.7843941161913222,
                1.39006051632827,
                1.7792270747881809,
                -1.5685865952156055,
                0.6072075126229919
            ]
        },
        {
            "positions": [
                -0.629107223458706,
                -0.7996546218078073,
                1.418418807794794,
                1.6603184257422567,
                -1.4756098016501076,
                0.7225079586037177
            ]
        },
        {
            "positions": [
                -0.651323670492445,
                -0.8149151274242924,
                1.4467770992613178,
                1.5414097766963328,
                -1.3826330080846099,
                0.8378084045844435
            ]
        },
        {
            "positions": [
                -0.6735401175261841,
                -0.8301756330407775,
                1.4751353907278417,
                1.4225011276504085,
                -1.2896562145191122,
                0.9531088505651694
            ]
        },
        {
            "positions": [
                -0.6957565645599233,
                -0.8454361386572625,
                1.5034936821943654,
                1.3035924786044846,
                -1.1966794209536142,
                1.0684092965458953
            ]
        },
        {
            "positions": [
                -0.7179730115936623,
                -0.8606966442737476,
                1.5318519736608893,
                1.1846838295585604,
                -1.1037026273881165,
                1.183709742526621
            ]
        },
        {
            "positions": [
                -0.7401894586274014,
                -0.8759571498902327,
                1.5602102651274132,
                1.0657751805126365,
                -1.0107258338226188,
                1.2990101885073468
            ]
        },
        {
            "positions": [
                -0.7624059056611405,
                -0.8912176555067177,
                1.5885685565939371,
                0.9468665314667124,
                -0.9177490402571211,
                1.4143106344880727
            ]
        },
        {
            "positions": [
                -0.7846223526948797,
                -0.9064781611232029,
                1.6169268480604608,
                0.8279578824207883,
                -0.8247722466916233,
                1.5296110804687986
            ]
        },
        {
            "positions": [
                -0.8068387997286187,
                -0.921738666739688,
                1.6452851395269847,
                0.7090492333748644,
                -0.7317954531261255,
                1.6449115264495244
            ]
        },
        {
            "positions": [
                -0.8290552467623579,
                -0.936999172356173,
                1.6736434309935087,
                0.5901405843289402,
                -0.6388186595606278,
                1.7602119724302503
            ]
        },
        {
            "positions": [
                -0.8512716937960969,
                -0.9522596779726581,
                1.7020017224600323,
                0.4712319352830163,
                -0.5458418659951301,
                1.875512418410976
            ]
        },
        {
            "positions": [
                -0.8734881408298361,
                -0.9675201835891432,
                1.7303600139265563,
                0.35232328623709197,
                -0.45286507242963214,
                1.990812864391702
            ]
        },
        {
            "positions": [
                -0.8957045878635752,
                -0.9827806892056283,
                1.7587183053930802,
                0.23341463719116806,
                -0.35988827886413444,
                2.106113310372428
            ]
        },
        {
            "positions": [
                -0.9179210348973142,
                -0.9980411948221133,
                1.7870765968596038,
                0.11450598814524415,
                -0.26691148529863673,
                2.2214137563531535
            ]
        },
        {
            "positions": [
                -0.9401374819310534,
                -1.0133017004385985,
                1.8154348883261278,
                -0.0044026609006802,
                -0.1739346917331388,
                2.3367142023338796
            ]
        },
        {
            "positions": [
                -0.9623539289647924,
                -1.0285622060550836,
                1.8437931797926517,
                -0.12331130994660411,
                -0.08095789816764132,
                2.4520146483146052
            ]
        },
        {
            "positions": [
                -0.9845703759985316,
                -1.0438227116715686,
                1.8721514712591754,
                -0.24221995899252802,
                0.012018895397856388,
                2.567315094295331
            ]
        },
        {
            "positions": [
                -1.0067868230322707,
                -1.0590832172880538,
                1.9005097627256995,
                -0.36112860803845237,
                0.10499568896335432,
                2.682615540276057
            ]
        },
        {
            "positions": [
                -1.02900327006601,
                -1.0743437229045387,
                1.9288680541922232,
                -0.4800372570843763,
                0.19797248252885202,
                2.797915986256783
            ]
        },
        {
            "positions": [
                -1.0512197170997488,
                -1.089604228521024,
                1.9572263456587469,
                -0.5989459061303002,
                0.29094927609434995,
                2.9132164322375087
            ]
        },
        {
            "positions": [
                -1.0734361641334882,
                -1.104864734137509,
                1.985584637125271,
                -0.7178545551762245,
                0.3839260696598479,
                3.028516878218235
            ]
        },
        {
            "positions": [
                -1.0956526111672271,
                -1.120125239753994,
                2.0139429285917947,
                -0.8367632042221487,
                0.47690286322534536,
                3.1438173241989604
            ]
        }
    ]
}