{
    "goal": {
        "global_pose": {
            "orientation": {
                "w": -0.4816463035849501,
                "x": 0.5182115481033762,
                "y": 0.4908360881923453,
                "z": -0.5084816262002911
            },
            "position": {
                "x": -0.8240239810943604,
                "y": 0.19912469901144506,
                "z": 0.16403168439865112
            }
        },
        "name": "move_to_storage_D"
    },
    "id": "STRIDE_move_to_storage_D_146",
    "joint_names": [
        "shoulder_pan_joint",
        "shoulder_lift_joint",
        "elbow_joint",
        "wrist_1_joint",
        "wrist_2_joint",
        "wrist_3_joint"
    ],
    "metrics": {
        "cart_traj_len": 3.7230685485036745,
        "distance_elbow_joint": 4.27781540272453,
        "distance_shoulder_lift_joint": 1.2641538359974478,
        "distance_shoulder_pan_joint": 2.8139700972220347,
        "distance_wrist_1_joint": 2.7281353092514204,
        "distance_wrist_2_joint": 1.4122571443898784,
        "distance_wrist_3_joint": 3.13485553639295,
        "smoothness": 0.23690697841870068,
        "time": 0.478408926,
        "traj_len": 3.9536296394551496,
        "weighted_distance": 5.103066808538319
    },
    "planner": "STRIDE",
    "start": {
        "state": {
            "elbow_joint": -2.384821988534728,
            "shoulder_lift_joint": -2.2788054721415256,
            "shoulder_pan_joint": -0.1854694642142757,
            "wrist_1_joint": 1.4845938289331202,
            "wrist_2_joint": 0.17898776772866878,
            "wrist_3_joint": 0.037105688729662994
        }
    },
    "waypoints": [
        {
            "positions": [
                -0.1854694642142757,
                -2.2788054721415256,
                -2.384821988534728,
                1.4845938289331202,
                0.17898776772866878,
                0.037105688729662994
            ]
        },
        {
            "positions": [
                -0.1228961164393487,
                -2.2136059767430867,
                -2.3961409948680945,
                1.5617407915173747,
                0.23734020204457318,
                -0.01107788154921073
            ]
        },
        {
            "positions": [
                -0.06032276866442168,
                -2.148406481344648,
                -2.4074600012014615,
                1.6388877541016291,
                0.2956926363604776,
                -0.059261451828084455
            ]
        },
        {
            "positions": [
                0.0022505791105053574,
                -2.0832069859462092,
                -2.418779007534828,
                1.7160347166858836,
                0.354045070676382,
                -0.10744502210695821
            ]
        },
        {
            "positions": [
                0.07102648671334841,
                -2.0639164967297328,
                -2.291967436563343,
                1.6493048631452496,
                0.38452105349277943,
                -0.1803304936990083
            ]
        },
        {
            "positions": [
                0.13980239431619146,
                -2.044626007513256,
                -2.165155865591858,
                1.5825750096046156,
                0.41499703630917684,
                -0.2532159652910584
            ]
        },
        {
            "positions": [
                0.2085783019190345,
                -2.0253355182967794,
                -2.038344294620373,
                1.5158451560639816,
                0.4454730191255743,
                -0.3261014368831085
            ]
        },
        {
            "positions": [
                0.27735420952187756,
                -2.006045029080303,
                -1.9115327236488877,
                1.4491153025233476,
                0.4759490019419717,
                -0.3989869084751586
            ]
        },
        {
            "positions": [
                0.3461301171247206,
                -1.9867545398638262,
                -1.7847211526774025,
                1.3823854489827136,
                0.5064249847583691,
                -0.4718723800672087
            ]
        },
        {
            "positions": [
                0.41490602472756366,
                -1.9674640506473495,
                -1.6579095817059175,
                1.3156555954420797,
                0.5369009675747666,
                -0.5447578516592587
            ]
        },
        {
            "positions": [
                0.48368193233040674,
                -1.948173561430873,
                -1.5310980107344325,
                1.2489257419014457,
                0.567376950391164,
                -0.6176433232513089
            ]
        },
        {
            "positions": [
                0.5524578399332498,
                -1.9288830722143964,
                -1.4042864397629473,
                1.1821958883608117,
                0.5978529332075614,
                -0.6905287948433589
            ]
        },
        {
            "positions": [
                0.6212337475360927,
                -1.9095925829979197,
                -1.277474868791462,
                1.1154660348201777,
                0.6283289160239588,
                -0.763414266435409
            ]
        },
        {
            "positions": [
                0.6900096551389359,
                -1.8903020937814432,
                -1.1506632978199771,
                1.0487361812795437,
                0.6588048988403562,
                -0.8362997380274592
            ]
        },
        {
            "positions": [
                0.758785562741779,
                -1.8710116045649665,
                -1.0238517268484921,
                0.9820063277389097,
                0.6892808816567537,
                -0.9091852096195092
            ]
        },
        {
            "positions": [
                0.8275614703446219,
                -1.8517211153484898,
                -0.8970401558770069,
                0.9152764741982757,
                0.7197568644731511,
                -0.9820706812115593
            ]
        },
        {
            "positions": [
                0.896337377947465,
                -1.8324306261320134,
                -0.7702285849055217,
                0.8485466206576417,
                0.7502328472895485,
                -1.0549561528036095
            ]
        },
        {
            "positions": [
                0.9651132855503082,
                -1.8131401369155367,
                -0.6434170139340367,
                0.7818167671170078,
                0.7807088301059459,
                -1.1278416243956597
            ]
        },
        {
            "positions": [
                1.033889193153151,
                -1.79384964769906,
                -0.5166054429625517,
                0.7150869135763738,
                0.8111848129223433,
                -1.2007270959877097
            ]
        },
        {
            "positions": [
                1.1026651007559942,
                -1.7745591584825835,
                -0.3897938719910665,
                0.6483570600357398,
                0.8416607957387408,
                -1.2736125675797598
            ]
        },
        {
            "positions": [
                1.1714410083588374,
                -1.755268669266107,
                -0.2629823010195813,
                0.5816272064951058,
                0.8721367785551382,
                -1.34649803917181
            ]
        },
        {
            "positions": [
                1.2402169159616803,
                -1.7359781800496303,
                -0.1361707300480961,
                0.5148973529544718,
                0.9026127613715356,
                -1.41938351076386
            ]
        },
        {
            "positions": [
                1.3089928235645234,
                -1.7166876908331536,
                -0.009359159076611334,
                0.4481674994138378,
                0.933088744187933,
                -1.49226898235591
            ]
        },
        {
            "positions": [
                1.3777687311673663,
                -1.6973972016166772,
                0.11745241189487388,
                0.38143764587320383,
                0.9635647270043304,
                -1.5651544539479603
            ]
        },
        {
            "positions": [
                1.4465446387702094,
                -1.6781067124002005,
                0.2442639828663591,
                0.31470779233256985,
                0.9940407098207279,
                -1.6380399255400102
            ]
        },
        {
            "positions": [
                1.5153205463730526,
                -1.6588162231837238,
                0.37107555383784385,
                0.24797793879193586,
                1.0245166926371252,
                -1.7109253971320604
            ]
        },
        {
            "positions": [
                1.5840964539758955,
                -1.6395257339672473,
                0.49788712480932906,
                0.18124808525130187,
                1.0549926754535228,
                -1.7838108687241105
            ]
        },
        {
            "positions": [
                1.6528723615787386,
                -1.6202352447507706,
                0.6246986957808143,
                0.11451823171066788,
                1.08546865826992,
                -1.8566963403161605
            ]
        },
        {
            "positions": [
                1.7216482691815818,
                -1.600944755534294,
                0.7515102667522995,
                0.047788378170033896,
                1.1159446410863176,
                -1.9295818119082107
            ]
        },
        {
            "positions": [
                1.7904241767844247,
                -1.5816542663178175,
                0.8783218377237847,
                -0.01894147537060009,
                1.1464206239027148,
                -2.002467283500261
            ]
        },
        {
            "positions": [
                1.8592000843872678,
                -1.5623637771013408,
                1.0051334086952695,
                -0.08567132891123408,
                1.1768966067191124,
                -2.075352755092311
            ]
        },
        {
            "positions": [
                1.927975991990111,
                -1.543073287884864,
                1.1319449796667547,
                -0.15240118245186807,
                1.2073725895355099,
                -2.148238226684361
            ]
        },
        {
            "positions": [
                1.9967518995929538,
                -1.5237827986683876,
                1.2587565506382399,
                -0.21913103599250205,
                1.2378485723519073,
                -2.221123698276411
            ]
        },
        {
            "positions": [
                2.0655278071957968,
                -1.504492309451911,
                1.3855681216097246,
                -0.28586088953313604,
                1.2683245551683047,
                -2.294009169868461
            ]
        },
        {
            "positions": [
                2.13430371479864,
                -1.4852018202354342,
                1.5123796925812099,
                -0.3525907430737698,
                1.298800537984702,
                -2.366894641460511
            ]
        },
        {
            "positions": [
                2.203079622401483,
                -1.4659113310189578,
                1.6391912635526955,
                -0.4193205966144039,
                1.3292765208010995,
                -2.4397801130525614
            ]
        },
        {
            "positions": [
                2.2739831241691957,
                -1.3907013818731444,
                1.6701726156588468,
                -0.47954378131413206,
                1.2856151222481915,
                -2.549441735487682
            ]
        },
        {
            "positions": [
                2.3448866259369083,
                -1.315491432727331,
                1.701153967764998,
                -0.5397669660138602,
                1.2419537236952836,
                -2.6591033579228034
            ]
        },
        {
            "positions": [
                2.4157901277046205,
                -1.240281483581518,
                1.732135319871149,
                -0.5999901507135883,
                1.1982923251423756,
                -2.768764980357924
            ]
        },
        {
            "positions": [
                2.486693629472333,
                -1.1650715344357045,
                1.7631166719773004,
                -0.6602133354133165,
                1.1546309265894676,
                -2.878426602793045
            ]
        },
        {
            "positions": [
                2.557597131240046,
                -1.0898615852898912,
                1.7940980240834516,
                -0.7204365201130447,
                1.1109695280365597,
                -2.988088225228166
            ]
        },
        {
            "positions": [
                2.6285006330077585,
                -1.0146516361440778,
                1.825079376189603,
                -0.7806597048127728,
                1.0673081294836517,
                -3.097749847663287
            ]
        }
    ]
}