{
    "goal": {
        "global_pose": {
            "orientation": {
                "w": 0.7031023480610252,
                "x": -0.7110244013736278,
                "y": 0.0077485991402295624,
                "z": 0.005598929693374583
            },
            "position": {
                "x": -0.8841497679147869,
                "y": 0.44412534475326537,
                "z": 0.3711530566215515
            }
        },
        "name": "move_to_auspresseinheit_D"
    },
    "id": "STRIDE_move_to_auspresseinheit_D_72",
    "joint_names": [
        "shoulder_pan_joint",
        "shoulder_lift_joint",
        "elbow_joint",
        "wrist_1_joint",
        "wrist_2_joint",
        "wrist_3_joint"
    ],
    "metrics": {
        "cart_traj_len": 0.3430972246176873,
        "distance_elbow_joint": 0.6396527401073988,
        "distance_shoulder_lift_joint": 0.1222831110475191,
        "distance_shoulder_pan_joint": 0.13403884553896347,
        "distance_wrist_1_joint": 0.53664591800056,
        "distance_wrist_2_joint": 1.4421122264370387,
        "distance_wrist_3_joint": 0.0057861426657659365,
        "smoothness": 7.894919300567339e-16,
        "time": 0.06107411,
        "traj_len": 1.6972091750274174,
        "weighted_distance": 2.2070000936942384
    },
    "planner": "STRIDE",
    "start": {
        "state": {
            "elbow_joint": -1.8275523626775212,
            "shoulder_lift_joint": -2.126789852344167,
            "shoulder_pan_joint": -0.03513704404078235,
            "wrist_1_joint": -2.347782403156801,
            "wrist_2_joint": -1.6058999987535132,
            "wrist_3_joint": -3.0880379163319196
        }
    },
    "waypoints": [
        {
            "positions": [
                -0.03513704404078235,
                -2.126789852344167,
                -1.8275523626775212,
                -2.347782403156801,
                -1.6058999987535132,
                -3.0880379163319196
            ]
        },
        {
            "positions": [
                -0.05189189973315278,
                -2.1420752412251067,
                -1.7475957701640963,
                -2.4148631429068708,
                -1.4256359704488832,
                -3.087314648498699
            ]
        },
        {
            "positions": [
                -0.06864675542552322,
                -2.1573606301060466,
                -1.6676391776506714,
                -2.4819438826569407,
                -1.2453719421442535,
                -3.086591380665478
            ]
        },
        {
            "positions": [
                -0.08540161111789366,
                -2.1726460189869865,
                -1.5876825851372467,
                -2.549024622407011,
                -1.0651079138396238,
                -3.0858681128322574
            ]
        },
        {
            "positions": [
                -0.10215646681026408,
                -2.1879314078679264,
                -1.5077259926238218,
                -2.616105362157081,
                -0.8848438855349938,
                -3.0851448449990366
            ]
        },
        {
            "positions": [
                -0.11891132250263453,
                -2.2032167967488663,
                -1.4277694001103969,
                -2.683186101907151,
                -0.704579857230364,
                -3.084421577165816
            ]
        },
        {
            "positions": [
                -0.13566617819500496,
                -2.218502185629806,
                -1.3478128075969722,
                -2.750266841657221,
                -0.5243158289257341,
                -3.083698309332595
            ]
        },
        {
            "positions": [
                -0.15242103388737538,
                -2.233787574510746,
                -1.2678562150835473,
                -2.817347581407291,
                -0.3440518006211044,
                -3.0829750414993744
            ]
        },
        {
            "positions": [
                -0.16917588957974583,
                -2.249072963391686,
                -1.1878996225701224,
                -2.884428321157361,
                -0.16378777231647443,
                -3.0822517736661537
            ]
        }
    ]
}