{
    "goal": {
        "global_pose": {
            "orientation": {
                "w": -0.4816463035849501,
                "x": 0.5182115481033762,
                "y": 0.4908360881923453,
                "z": -0.5084816262002911
            },
            "position": {
                "x": -0.8240239810943604,
                "y": 0.19912469901144506,
                "z": 0.16403168439865112
            }
        },
        "name": "move_to_storage_D"
    },
    "id": "STRIDE_move_to_storage_D_9",
    "joint_names": [
        "shoulder_pan_joint",
        "shoulder_lift_joint",
        "elbow_joint",
        "wrist_1_joint",
        "wrist_2_joint",
        "wrist_3_joint"
    ],
    "metrics": {
        "cart_traj_len": 0.9636242918289962,
        "distance_elbow_joint": 0.5566194894800989,
        "distance_shoulder_lift_joint": 1.0201515179475358,
        "distance_shoulder_pan_joint": 0.788538781678282,
        "distance_wrist_1_joint": 3.907784644474919,
        "distance_wrist_2_joint": 1.7781307760597893,
        "distance_wrist_3_joint": 3.1519420780593324,
        "smoothness": 0.27312275309341066,
        "time": 0.15947598600000001,
        "traj_len": 3.3471132767953877,
        "weighted_distance": 4.815907688520756
    },
    "planner": "STRIDE",
    "start": {
        "state": {
            "elbow_joint": -2.384821988534728,
            "shoulder_lift_joint": -2.2788054721415256,
            "shoulder_pan_joint": -0.1854694642142757,
            "wrist_1_joint": 1.4845938289331202,
            "wrist_2_joint": 0.17898776772866878,
            "wrist_3_joint": 0.037105688729662994
        }
    },
    "waypoints": [
        {
            "positions": [
                -0.1854694642142757,
                -2.2788054721415256,
                -2.384821988534728,
                1.4845938289331202,
                0.17898776772866878,
                0.037105688729662994
            ]
        },
        {
            "positions": [
                -0.030923765830502853,
                -2.259783546667886,
                -2.351646395327347,
                1.5255400745540353,
                0.14878261830233921,
                0.050578558772649954
            ]
        },
        {
            "positions": [
                0.021570132928053716,
                -2.165339301816559,
                -2.3221345857785938,
                1.3371541035550898,
                0.14323511718328805,
                0.02614483550523737
            ]
        },
        {
            "positions": [
                0.07406403168661028,
                -2.0708950569652322,
                -2.2926227762298406,
                1.1487681325561443,
                0.13768761606423688,
                0.0017111122378247884
            ]
        },
        {
            "positions": [
                0.12655793044516686,
                -1.976450812113905,
                -2.2631109666810874,
                0.9603821615571988,
                0.13214011494518574,
                -0.022722611029587794
            ]
        },
        {
            "positions": [
                0.17905182920372342,
                -1.882006567262578,
                -2.2335991571323337,
                0.7719961905582533,
                0.12659261382613457,
                -0.04715633429700038
            ]
        },
        {
            "positions": [
                0.23154572796228004,
                -1.787562322411251,
                -2.2040873475835805,
                0.5836102195593078,
                0.1210451127070834,
                -0.07159005756441296
            ]
        },
        {
            "positions": [
                0.28403962672083655,
                -1.693118077559924,
                -2.1745755380348273,
                0.39522424856036237,
                0.11549761158803223,
                -0.09602378083182556
            ]
        },
        {
            "positions": [
                0.26953827714160156,
                -1.71286644680383,
                -2.1588313089902726,
                0.2708368588848928,
                0.037559401591707106,
                -0.2320177293960015
            ]
        },
        {
            "positions": [
                0.25503692756236657,
                -1.7326148160477362,
                -2.1430870799457185,
                0.1464494692094232,
                -0.04037880840461802,
                -0.3680116779601774
            ]
        },
        {
            "positions": [
                0.24053557798313158,
                -1.7523631852916421,
                -2.127342850901164,
                0.02206207953395367,
                -0.11831701840094314,
                -0.5040056265243533
            ]
        },
        {
            "positions": [
                0.2260342284038966,
                -1.7721115545355484,
                -2.1115986218566096,
                -0.10232531014151597,
                -0.19625522839726828,
                -0.6399995750885292
            ]
        },
        {
            "positions": [
                0.2115328788246616,
                -1.7918599237794544,
                -2.095854392812055,
                -0.22671269981698544,
                -0.2741934383935934,
                -0.7759935236527051
            ]
        },
        {
            "positions": [
                0.1970315292454266,
                -1.8116082930233606,
                -2.0801101637675004,
                -0.351100089492455,
                -0.3521316483899185,
                -0.911987472216881
            ]
        },
        {
            "positions": [
                0.18253017966619162,
                -1.8313566622672666,
                -2.064365934722946,
                -0.4754874791679246,
                -0.4300698583862436,
                -1.047981420781057
            ]
        },
        {
            "positions": [
                0.1680288300869566,
                -1.8511050315111728,
                -2.0486217056783915,
                -0.5998748688433944,
                -0.5080080683825687,
                -1.183975369345233
            ]
        },
        {
            "positions": [
                0.1535274805077216,
                -1.8708534007550788,
                -2.032877476633837,
                -0.7242622585188638,
                -0.585946278378894,
                -1.319969317909409
            ]
        },
        {
            "positions": [
                0.13902613092848662,
                -1.8906017699989848,
                -2.0171332475892827,
                -0.8486496481943333,
                -0.6638844883752191,
                -1.4559632664735849
            ]
        },
        {
            "positions": [
                0.12452478134925163,
                -1.910350139242891,
                -2.001389018544728,
                -0.973037037869803,
                -0.7418226983715441,
                -1.5919572150377608
            ]
        },
        {
            "positions": [
                0.11002343177001664,
                -1.930098508486797,
                -1.9856447895001736,
                -1.0974244275452725,
                -0.8197609083678692,
                -1.7279511636019367
            ]
        },
        {
            "positions": [
                0.09552208219078162,
                -1.9498468777307032,
                -1.9699005604556192,
                -1.2218118172207422,
                -0.8976991183641945,
                -1.8639451121661128
            ]
        },
        {
            "positions": [
                0.08102073261154666,
                -1.9695952469746092,
                -1.9541563314110648,
                -1.3461992068962116,
                -0.9756373283605195,
                -1.9999390607302885
            ]
        },
        {
            "positions": [
                0.06651938303231167,
                -1.9893436162185154,
                -1.9384121023665104,
                -1.4705865965716811,
                -1.0535755383568446,
                -2.1359330092944644
            ]
        },
        {
            "positions": [
                0.05201803345307665,
                -2.0090919854624216,
                -1.9226678733219558,
                -1.594973986247151,
                -1.1315137483531699,
                -2.2719269578586405
            ]
        },
        {
            "positions": [
                0.03751668387384169,
                -2.0288403547063276,
                -1.9069236442774014,
                -1.7193613759226203,
                -1.209451958349495,
                -2.407920906422816
            ]
        },
        {
            "positions": [
                0.02301533429460667,
                -2.0485887239502336,
                -1.891179415232847,
                -1.84374876559809,
                -1.2873901683458202,
                -2.5439148549869923
            ]
        },
        {
            "positions": [
                0.00851398471537168,
                -2.0683370931941396,
                -1.8754351861882925,
                -1.9681361552735597,
                -1.3653283783421453,
                -2.679908803551168
            ]
        },
        {
            "positions": [
                -0.005987364863863309,
                -2.0880854624380456,
                -1.859690957143738,
                -2.092523544949029,
                -1.4432665883384703,
                -2.815902752115344
            ]
        },
        {
            "positions": [
                -0.0204887144430983,
                -2.107833831681952,
                -1.8439467280991835,
                -2.216910934624499,
                -1.5212047983347956,
                -2.9518967006795203
            ]
        },
        {
            "positions": [
                -0.034990064022333296,
                -2.127582200925858,
                -1.828202499054629,
                -2.3412983242999683,
                -1.5991430083311207,
                -3.087890649243696
            ]
        }
    ]
}