{
    "goal": {
        "global_pose": {
            "orientation": {
                "w": -0.00223480608172531,
                "x": 0.0024358444001904467,
                "y": 0.7094548369677653,
                "z": -0.704743149386269
            },
            "position": {
                "x": -0.37947507619857795,
                "y": -0.6371506643295288,
                "z": 0.19426114857196808
            }
        },
        "name": "move_to_magneteinheit_C"
    },
    "id": "STRIDE_move_to_magneteinheit_C_3",
    "joint_names": [
        "shoulder_pan_joint",
        "shoulder_lift_joint",
        "elbow_joint",
        "wrist_1_joint",
        "wrist_2_joint",
        "wrist_3_joint"
    ],
    "metrics": {
        "cart_traj_len": 2.5596552645721555,
        "distance_elbow_joint": 1.381006945700924,
        "distance_shoulder_lift_joint": 3.046488311949058,
        "distance_shoulder_pan_joint": 3.1989803973562685,
        "distance_wrist_1_joint": 4.697392666421935,
        "distance_wrist_2_joint": 3.607201289667405,
        "distance_wrist_3_joint": 6.8940674338019035,
        "smoothness": 0.624844716094597,
        "time": 0.962760005,
        "traj_len": 4.7775660168015985,
        "weighted_distance": 6.702079219808629
    },
    "planner": "STRIDE",
    "start": {
        "state": {
            "elbow_joint": 1.9565354010623817,
            "shoulder_lift_joint": -1.4165861575791021,
            "shoulder_pan_joint": -1.6717766225146293,
            "wrist_1_joint": -0.5286633292919765,
            "wrist_2_joint": 1.472756589071564,
            "wrist_3_joint": -3.1238370188695823
        }
    },
    "waypoints": [
        {
            "positions": [
                -1.6717766225146293,
                -1.4165861575791021,
                1.9565354010623817,
                -0.5286633292919765,
                1.472756589071564,
                -3.1238370188695823
            ]
        },
        {
            "positions": [
                -1.636028901821898,
                -1.4202243991500536,
                1.9263018630860969,
                -0.48205410010508554,
                1.4496231758168296,
                -3.053645102622446
            ]
        },
        {
            "positions": [
                -1.6002811811291666,
                -1.423862640721005,
                1.896068325109812,
                -0.43544487091819467,
                1.4264897625620954,
                -2.98345318637531
            ]
        },
        {
            "positions": [
                -1.5143190201216066,
                -1.4239415882635436,
                1.8146314605189835,
                -0.35479982620115635,
                1.3609098690719756,
                -2.9217941325065286
            ]
        },
        {
            "positions": [
                -1.4283568591140465,
                -1.4240205358060818,
                1.733194595928155,
                -0.2741547814841181,
                1.295329975581856,
                -2.8601350786377466
            ]
        },
        {
            "positions": [
                -1.3423946981064865,
                -1.4240994833486202,
                1.6517577313373266,
                -0.19350973676707975,
                1.229750082091736,
                -2.798476024768965
            ]
        },
        {
            "positions": [
                -1.2564325370989264,
                -1.4241784308911585,
                1.570320866746498,
                -0.11286469205004146,
                1.1641701886016163,
                -2.736816970900183
            ]
        },
        {
            "positions": [
                -1.1704703760913664,
                -1.424257378433697,
                1.4888840021556695,
                -0.03221964733300314,
                1.0985902951114963,
                -2.6751579170314015
            ]
        },
        {
            "positions": [
                -1.0845082150838063,
                -1.4243363259762352,
                1.407447137564841,
                0.048425397384035174,
                1.0330104016213766,
                -2.6134988631626195
            ]
        },
        {
            "positions": [
                -0.9985460540762463,
                -1.4244152735187736,
                1.3260102729740124,
                0.12907044210107355,
                0.9674305081312569,
                -2.551839809293838
            ]
        },
        {
            "positions": [
                -1.07548571026811,
                -1.4778250005340121,
                1.3536281475223786,
                0.1880214045655818,
                0.9019716361212902,
                -2.4415015861196974
            ]
        },
        {
            "positions": [
                -1.1524253664599733,
                -1.5312347275492506,
                1.3812460220707448,
                0.24697236703009007,
                0.8365127641113235,
                -2.331163362945557
            ]
        },
        {
            "positions": [
                -1.229365022651837,
                -1.5846444545644893,
                1.408863896619111,
                0.30592332949459833,
                0.7710538921013568,
                -2.2208251397714163
            ]
        },
        {
            "positions": [
                -1.3063046788437005,
                -1.6380541815797278,
                1.436481771167477,
                0.3648742919591066,
                0.7055950200913901,
                -2.1104869165972757
            ]
        },
        {
            "positions": [
                -1.383244335035564,
                -1.6914639085949663,
                1.4640996457158433,
                0.42382525442361485,
                0.6401361480814233,
                -2.000148693423135
            ]
        },
        {
            "positions": [
                -1.4601839912274275,
                -1.744873635610205,
                1.4917175202642095,
                0.48277621688812306,
                0.5746772760714566,
                -1.8898104702489946
            ]
        },
        {
            "positions": [
                -1.5371236474192909,
                -1.7982833626254435,
                1.5193353948125754,
                0.5417271793526313,
                0.5092184040614899,
                -1.779472247074854
            ]
        },
        {
            "positions": [
                -1.6140633036111547,
                -1.851693089640682,
                1.5469532693609418,
                0.6006781418171396,
                0.4437595320515232,
                -1.6691340239007135
            ]
        },
        {
            "positions": [
                -1.691002959803018,
                -1.9051028166559205,
                1.5745711439093077,
                0.6596291042816478,
                0.3783006600415565,
                -1.5587958007265732
            ]
        },
        {
            "positions": [
                -1.7679426159948817,
                -1.958512543671159,
                1.602189018457674,
                0.7185800667461562,
                0.3128417880315897,
                -1.4484575775524324
            ]
        },
        {
            "positions": [
                -1.8448822721867453,
                -2.0119222706863975,
                1.62980689300604,
                0.7775310292106643,
                0.247382916021623,
                -1.338119354378292
            ]
        },
        {
            "positions": [
                -1.9218219283786087,
                -2.0653319977016364,
                1.6574247675544063,
                0.8364819916751726,
                0.1819240440116563,
                -1.2277811312041516
            ]
        },
        {
            "positions": [
                -1.9987615845704723,
                -2.118741724716875,
                1.6850426421027724,
                0.8954329541396808,
                0.1164651720016896,
                -1.117442908030011
            ]
        },
        {
            "positions": [
                -2.075701240762336,
                -2.1721514517321134,
                1.7126605166511386,
                0.9543839166041891,
                0.0510062999917229,
                -1.0071046848558705
            ]
        },
        {
            "positions": [
                -2.1526408969541992,
                -2.225561178747352,
                1.7402783911995048,
                1.0133348790686973,
                -0.014452572018243792,
                -0.8967664616817301
            ]
        },
        {
            "positions": [
                -2.2295805531460626,
                -2.2789709057625904,
                1.767896265747871,
                1.0722858415332057,
                -0.07991144402821049,
                -0.7864282385075894
            ]
        },
        {
            "positions": [
                -2.3065202093379265,
                -2.332380632777829,
                1.7955141402962371,
                1.1312368039977139,
                -0.14537031603817718,
                -0.6760900153334488
            ]
        },
        {
            "positions": [
                -2.38345986552979,
                -2.3857903597930674,
                1.823132014844603,
                1.190187766462222,
                -0.21082918804814388,
                -0.5657517921593085
            ]
        },
        {
            "positions": [
                -2.460399521721653,
                -2.439200086808306,
                1.8507498893929695,
                1.2491387289267302,
                -0.2762880600581106,
                -0.45541356898516794
            ]
        },
        {
            "positions": [
                -2.537339177913517,
                -2.4926098138235444,
                1.8783677639413354,
                1.3080896913912388,
                -0.3417469320680775,
                -0.34507534581102695
            ]
        },
        {
            "positions": [
                -2.614278834105381,
                -2.546019540838783,
                1.9059856384897018,
                1.367040653855747,
                -0.4072058040780442,
                -0.23473712263688684
            ]
        },
        {
            "positions": [
                -2.691218490297244,
                -2.5994292678540214,
                1.9336035130380678,
                1.425991616320255,
                -0.4726646760880109,
                -0.12439889946274629
            ]
        },
        {
            "positions": [
                -2.7681581464891076,
                -2.65283899486926,
                1.961221387586434,
                1.4849425787847632,
                -0.5381235480979776,
                -0.014060676288605745
            ]
        },
        {
            "positions": [
                -2.8450978026809715,
                -2.706248721884499,
                1.9888392621348001,
                1.5438935412492716,
                -0.6035824201079443,
                0.0962775468855348
            ]
        },
        {
            "positions": [
                -2.922037458872835,
                -2.7596584488997373,
                2.016457136683166,
                1.60284450371378,
                -0.669041292117911,
                0.20661577005967535
            ]
        },
        {
            "positions": [
                -2.998977115064698,
                -2.813068175914976,
                2.0440750112315325,
                1.661795466178288,
                -0.7345001641278777,
                0.3169539932338159
            ]
        },
        {
            "positions": [
                -2.9779643643475207,
                -2.7470679241704485,
                2.0427783280573313,
                1.5615181113402212,
                -0.6785023826691592,
                0.17882293636587568
            ]
        },
        {
            "positions": [
                -2.9569516136303435,
                -2.681067672425921,
                2.0414816448831297,
                1.4612407565021543,
                -0.6225046012104407,
                0.04069187949793546
            ]
        },
        {
            "positions": [
                -2.935938862913166,
                -2.6150674206813935,
                2.0401849617089285,
                1.3609634016640875,
                -0.5665068197517222,
                -0.09743917737000474
            ]
        },
        {
            "positions": [
                -2.914926112195989,
                -2.5490671689368662,
                2.038888278534727,
                1.2606860468260206,
                -0.5105090382930038,
                -0.235570234237945
            ]
        },
        {
            "positions": [
                -2.8939133614788113,
                -2.4830669171923385,
                2.0375915953605257,
                1.1604086919879535,
                -0.45451125683428534,
                -0.37370129110588524
            ]
        },
        {
            "positions": [
                -2.872900610761634,
                -2.4170666654478112,
                2.036294912186324,
                1.0601313371498868,
                -0.39851347537556686,
                -0.5118323479738254
            ]
        },
        {
            "positions": [
                -2.8518878600444566,
                -2.3510664137032835,
                2.034998229012123,
                0.9598539823118197,
                -0.34251569391684833,
                -0.6499634048417656
            ]
        },
        {
            "positions": [
                -2.8308751093272795,
                -2.2850661619587562,
                2.0337015458379213,
                0.8595766274737529,
                -0.2865179124581299,
                -0.7880944617097059
            ]
        },
        {
            "positions": [
                -2.809862358610102,
                -2.219065910214229,
                2.03240486266372,
                0.759299272635686,
                -0.2305201309994115,
                -0.926225518577646
            ]
        },
        {
            "positions": [
                -2.788849607892925,
                -2.1530656584697017,
                2.0311081794895185,
                0.6590219177976191,
                -0.174522349540693,
                -1.0643565754455864
            ]
        },
        {
            "positions": [
                -2.7678368571757472,
                -2.087065406725174,
                2.0298114963153173,
                0.5587445629595522,
                -0.11852456808197454,
                -1.2024876323135265
            ]
        },
        {
            "positions": [
                -2.74682410645857,
                -2.0210651549806466,
                2.0285148131411157,
                0.45846720812148534,
                -0.06252678662325606,
                -1.3406186891814666
            ]
        },
        {
            "positions": [
                -2.7258113557413925,
                -1.9550649032361191,
                2.0272181299669145,
                0.35818985328341824,
                -0.006529005164537582,
                -1.4787497460494068
            ]
        },
        {
            "positions": [
                -2.7047986050242154,
                -1.8890646514915916,
                2.025921446792713,
                0.25791249844535136,
                0.049468776294181005,
                -1.6168808029173471
            ]
        },
        {
            "positions": [
                -2.683785854307038,
                -1.8230643997470644,
                2.0246247636185117,
                0.15763514360728448,
                0.10546655775289937,
                -1.755011859785287
            ]
        },
        {
            "positions": [
                -2.6627731035898607,
                -1.7570641480025369,
                2.02332808044431,
                0.0573577887692176,
                0.16146433921161785,
                -1.8931429166532276
            ]
        },
        {
            "positions": [
                -2.641760352872683,
                -1.6910638962580093,
                2.022031397270109,
                -0.0429195660688495,
                0.21746212067033632,
                -2.031273973521168
            ]
        },
        {
            "positions": [
                -2.620747602155506,
                -1.625063644513482,
                2.0207347140959073,
                -0.14319692090691616,
                0.2734599021290547,
                -2.169405030389108
            ]
        },
        {
            "positions": [
                -2.5997348514383285,
                -1.5590633927689546,
                2.019438030921706,
                -0.24347427574498304,
                0.32945768358777316,
                -2.307536087257048
            ]
        },
        {
            "positions": [
                -2.5787221007211514,
                -1.493063141024427,
                2.0181413477475045,
                -0.3437516305830499,
                0.38545546504649164,
                -2.4456671441249886
            ]
        },
        {
            "positions": [
                -2.557709350003974,
                -1.4270628892798998,
                2.0168446645733034,
                -0.444028985421117,
                0.4414532465052101,
                -2.5837982009929283
            ]
        },
        {
            "positions": [
                -2.5366965992867962,
                -1.3610626375353723,
                2.0155479813991017,
                -0.5443063402591837,
                0.4974510279639286,
                -2.721929257860869
            ]
        },
        {
            "positions": [
                -2.515683848569619,
                -1.2950623857908448,
                2.0142512982249006,
                -0.6445836950972508,
                0.5534488094226471,
                -2.860060314728809
            ]
        },
        {
            "positions": [
                -2.494671097852442,
                -1.2290621340463175,
                2.012954615050699,
                -0.7448610499353174,
                0.6094465908813655,
                -2.998191371596749
            ]
        },
        {
            "positions": [
                -2.4736583471352644,
                -1.16306188230179,
                2.0116579318764978,
                -0.8451384047733844,
                0.6654443723400839,
                -3.1363224284646893
            ]
        }
    ]
}