{
    "goal": {
        "global_pose": {
            "orientation": {
                "w": 0.5084816217422485,
                "x": -0.49083608388900757,
                "y": 0.5182115435600281,
                "z": -0.4816462993621826
            },
            "position": {
                "x": 0.5540239810943604,
                "y": 0.030875300988554955,
                "z": 0.16403168439865112
            }
        },
        "name": "move_to_storage_A"
    },
    "id": "STRIDE_move_to_storage_A_141",
    "joint_names": [
        "shoulder_pan_joint",
        "shoulder_lift_joint",
        "elbow_joint",
        "wrist_1_joint",
        "wrist_2_joint",
        "wrist_3_joint"
    ],
    "metrics": {
        "cart_traj_len": 0.35272158981330287,
        "distance_elbow_joint": 0.45126708489995315,
        "distance_shoulder_lift_joint": 0.2319271953321127,
        "distance_shoulder_pan_joint": 0.4611875589215563,
        "distance_wrist_1_joint": 0.2533791978291199,
        "distance_wrist_2_joint": 1.0971171250339549,
        "distance_wrist_3_joint": 0.09127961368080761,
        "smoothness": 0.0,
        "time": 0.078719067,
        "traj_len": 1.6081535298899494,
        "weighted_distance": 2.0295845205169933
    },
    "planner": "STRIDE",
    "start": {
        "state": {
            "elbow_joint": 1.971548259319323,
            "shoulder_lift_joint": -1.1394851275133948,
            "shoulder_pan_joint": 0.1228115487234821,
            "wrist_1_joint": -0.7804723859257726,
            "wrist_2_joint": 0.12958671773740124,
            "wrist_3_joint": -3.192489227718131
        }
    },
    "waypoints": [
        {
            "positions": [
                0.1228115487234821,
                -1.1394851275133948,
                1.971548259319323,
                -0.7804723859257726,
                0.12958671773740124,
                -3.192489227718131
            ]
        },
        {
            "positions": [
                0.056927611734688355,
                -1.1726175839894108,
                2.036014985733602,
                -0.8166694141870755,
                0.2863177355993948,
                -3.179449282906587
            ]
        },
        {
            "positions": [
                -0.00895632525410539,
                -1.205750040465427,
                2.100481712147881,
                -0.8528664424483783,
                0.4430487534613883,
                -3.1664093380950433
            ]
        },
        {
            "positions": [
                -0.07484026224289914,
                -1.2388824969414431,
                2.1649484385621602,
                -0.8890634707096812,
                0.5997797713233819,
                -3.153369393283499
            ]
        },
        {
            "positions": [
                -0.14072419923169288,
                -1.2720149534174592,
                2.229415164976439,
                -0.925260498970984,
                0.7565107891853754,
                -3.1403294484719555
            ]
        },
        {
            "positions": [
                -0.20660813622048668,
                -1.3051474098934754,
                2.293881891390718,
                -0.9614575272322868,
                0.913241807047369,
                -3.1272895036604114
            ]
        },
        {
            "positions": [
                -0.27249207320928037,
                -1.3382798663694915,
                2.3583486178049973,
                -0.9976545554935896,
                1.0699728249093625,
                -3.1142495588488677
            ]
        },
        {
            "positions": [
                -0.3383760101980742,
                -1.3714123228455075,
                2.422815344219276,
                -1.0338515837548925,
                1.2267038427713561,
                -3.1012096140373235
            ]
        }
    ]
}{
    "goal": {
        "global_pose": {
            "orientation": {
                "w": 0.5084816217422485,
                "x": -0.49083608388900757,
                "y": 0.5182115435600281,
                "z": -0.4816462993621826
            },
            "position": {
                "x": 0.5540239810943604,
                "y": 0.030875300988554955,
                "z": 0.16403168439865112
            }
        },
        "name": "move_to_storage_A"
    },
    "id": "STRIDE_move_to_storage_A_141",
    "joint_names": [
        "shoulder_pan_joint",
        "shoulder_lift_joint",
        "elbow_joint",
        "wrist_1_joint",
        "wrist_2_joint",
        "wrist_3_joint"
    ],
    "metrics": {
        "cart_traj_len": 0.3529884853399431,
        "distance_elbow_joint": 0.45256854142610115,
        "distance_shoulder_lift_joint": 0.23418469210670256,
        "distance_shoulder_pan_joint": 0.45845352188942917,
        "distance_wrist_1_joint": 0.2545774275006383,
        "distance_wrist_2_joint": 1.1122612836733679,
        "distance_wrist_3_joint": 0.10302099302237089,
        "smoothness": 1.3322676295501878e-15,
        "time": 0.094926232,
        "traj_len": 1.6171167118110583,
        "weighted_distance": 2.04644744785625
    },
    "planner": "STRIDE",
    "start": {
        "state": {
            "elbow_joint": 1.97154746011099,
            "shoulder_lift_joint": -1.13948474672311,
            "shoulder_pan_joint": 0.12281154466712228,
            "wrist_1_joint": -0.7804688027058302,
            "wrist_2_joint": 0.12958655903071145,
            "wrist_3_joint": 3.0906928834467795
        }
    },
    "waypoints": [
        {
            "positions": [
                0.12281154466712228,
                -1.13948474672311,
                1.97154746011099,
                -0.7804688027058302,
                0.12958655903071145,
                3.0906928834467795
            ]
        },
        {
            "positions": [
                0.057318184397203834,
                -1.1729397027383532,
                2.036200108886147,
                -0.8168370066344928,
                0.28848102812690685,
                3.105410168164261
            ]
        },
        {
            "positions": [
                -0.008175175872714616,
                -1.2063946587535963,
                2.1008527576613045,
                -0.8532052105631553,
                0.4473754972231022,
                3.1201274528817424
            ]
        },
        {
            "positions": [
                -0.07366853614263306,
                -1.2398496147688396,
                2.165505406436462,
                -0.889573414491818,
                0.6062699663192976,
                3.134844737599224
            ]
        },
        {
            "positions": [
                -0.1391618964125515,
                -1.2733045707840829,
                2.230158055211619,
                -0.9259416184204806,
                0.7651644354154931,
                3.149562022316706
            ]
        },
        {
            "positions": [
                -0.20465525668246998,
                -1.3067595267993262,
                2.2948107039867764,
                -0.9623098223491433,
                0.9240589045116885,
                3.1642793070341875
            ]
        },
        {
            "positions": [
                -0.2701486169523884,
                -1.3402144828145692,
                2.3594633527619338,
                -0.9986780262778059,
                1.0829533736078838,
                3.1789965917516687
            ]
        },
        {
            "positions": [
                -0.3356419772223069,
                -1.3736694388298125,
                2.424116001537091,
                -1.0350462302064685,
                1.2418478427040793,
                3.1937138764691504
            ]
        }
    ]
}{
    "goal": {
        "global_pose": {
            "orientation": {
                "w": 0.5084816217422485,
                "x": -0.49083608388900757,
                "y": 0.5182115435600281,
                "z": -0.4816462993621826
            },
            "position": {
                "x": 0.5540239810943604,
                "y": 0.030875300988554955,
                "z": 0.16403168439865112
            }
        },
        "name": "move_to_storage_A"
    },
    "id": "STRIDE_move_to_storage_A_141",
    "joint_names": [
        "shoulder_pan_joint",
        "shoulder_lift_joint",
        "elbow_joint",
        "wrist_1_joint",
        "wrist_2_joint",
        "wrist_3_joint"
    ],
    "metrics": {
        "cart_traj_len": 0.35387338716349837,
        "distance_elbow_joint": 0.4528484993321342,
        "distance_shoulder_lift_joint": 0.23349323660892551,
        "distance_shoulder_pan_joint": 0.46155427008575345,
        "distance_wrist_1_joint": 0.25420724755693214,
        "distance_wrist_2_joint": 1.1054873730851236,
        "distance_wrist_3_joint": 0.10439361276111692,
        "smoothness": 4.440892098500626e-16,
        "time": 0.07774210200000001,
        "traj_len": 1.6161634321534397,
        "weighted_distance": 2.044618811806806
    },
    "planner": "STRIDE",
    "start": {
        "state": {
            "elbow_joint": 1.9715472970024885,
            "shoulder_lift_joint": -1.1394870060712896,
            "shoulder_pan_joint": 0.12281152778156021,
            "wrist_1_joint": -0.780463741449964,
            "wrist_2_joint": 0.12958659822042276,
            "wrist_3_joint": 3.090690232415272
        }
    },
    "waypoints": [
        {
            "positions": [
                0.12281152778156021,
                -1.1394870060712896,
                1.9715472970024885,
                -0.780463741449964,
                0.12958659822042276,
                3.090690232415272
            ]
        },
        {
            "positions": [
                0.05687520348359544,
                -1.1728431827297074,
                2.036239939764222,
                -0.8167790625295257,
                0.2875133658040118,
                3.10560360566686
            ]
        },
        {
            "positions": [
                -0.009061120814369328,
                -1.2061993593881255,
                2.1009325825259553,
                -0.8530943836090874,
                0.4454401333876009,
                3.120516978918448
            ]
        },
        {
            "positions": [
                -0.07499744511233411,
                -1.2395555360465433,
                2.165625225287689,
                -0.8894097046886492,
                0.60336690097119,
                3.135430352170036
            ]
        },
        {
            "positions": [
                -0.14093376941029886,
                -1.2729117127049614,
                2.2303178680494224,
                -0.9257250257682109,
                0.761293668554779,
                3.1503437254216244
            ]
        },
        {
            "positions": [
                -0.20687009370826367,
                -1.3062678893633792,
                2.295010510811156,
                -0.9620403468477727,
                0.9192204361383681,
                3.1652570986732127
            ]
        },
        {
            "positions": [
                -0.2728064180062284,
                -1.339624066021797,
                2.359703153572889,
                -0.9983556679273344,
                1.0771472037219572,
                3.1801704719248005
            ]
        },
        {
            "positions": [
                -0.3387427423041932,
                -1.3729802426802151,
                2.4243957963346228,
                -1.0346709890068961,
                1.2350739713055463,
                3.1950838451763888
            ]
        }
    ]
}