{
    "goal": {
        "global_pose": {
            "orientation": {
                "w": -0.4816463035849501,
                "x": 0.5182115481033762,
                "y": 0.4908360881923453,
                "z": -0.5084816262002911
            },
            "position": {
                "x": -0.8240239810943604,
                "y": -0.300875300988555,
                "z": 0.16403168439865112
            }
        },
        "name": "move_to_storage_C"
    },
    "id": "STRIDE_move_to_storage_C_93",
    "joint_names": [
        "shoulder_pan_joint",
        "shoulder_lift_joint",
        "elbow_joint",
        "wrist_1_joint",
        "wrist_2_joint",
        "wrist_3_joint"
    ],
    "metrics": {
        "cart_traj_len": 0.5769265399239666,
        "distance_elbow_joint": 0.2569580276277714,
        "distance_shoulder_lift_joint": 0.1884488671938046,
        "distance_shoulder_pan_joint": 0.49464792924991086,
        "distance_wrist_1_joint": 0.07430873700929863,
        "distance_wrist_2_joint": 1.0723746596238386,
        "distance_wrist_3_joint": 0.07287040329629946,
        "smoothness": 2.5376526478085547e-16,
        "time": 0.01172121,
        "traj_len": 1.4695606908191725,
        "weighted_distance": 1.8579647002100605
    },
    "planner": "STRIDE",
    "start": {
        "state": {
            "elbow_joint": 2.010868314990456,
            "shoulder_lift_joint": -1.1634956873337592,
            "shoulder_pan_joint": -2.4736205022346125,
            "wrist_1_joint": -0.8367026794202681,
            "wrist_2_joint": 0.6746043897044499,
            "wrist_3_joint": -3.1496632123970403
        }
    },
    "waypoints": [
        {
            "positions": [
                -2.4736205022346125,
                -1.1634956873337592,
                2.010868314990456,
                -0.8367026794202681,
                0.6746043897044499,
                -3.1496632123970403
            ]
        },
        {
            "positions": [
                -2.5560618237762642,
                -1.1320875428014585,
                1.968041977052494,
                -0.8243178899187183,
                0.8533334996417563,
                -3.1375181451809904
            ]
        },
        {
            "positions": [
                -2.638503145317916,
                -1.1006793982691576,
                1.925215639114532,
                -0.8119331004171686,
                1.0320626095790628,
                -3.1253730779649405
            ]
        },
        {
            "positions": [
                -2.720944466859568,
                -1.069271253736857,
                1.8823893011765702,
                -0.7995483109156187,
                1.210791719516369,
                -3.1132280107488906
            ]
        },
        {
            "positions": [
                -2.80338578840122,
                -1.037863109204556,
                1.8395629632386081,
                -0.787163521414069,
                1.3895208294536756,
                -3.1010829435328406
            ]
        },
        {
            "positions": [
                -2.8858271099428716,
                -1.0064549646722554,
                1.7967366253006463,
                -0.7747787319125192,
                1.5682499393909821,
                -3.0889378763167907
            ]
        },
        {
            "positions": [
                -2.9682684314845234,
                -0.9750468201399546,
                1.7539102873626844,
                -0.7623939424109695,
                1.7469790493282886,
                -3.076792809100741
            ]
        }
    ]
}