{
    "goal": {
        "global_pose": {
            "orientation": {
                "w": 0.5084816217422485,
                "x": -0.49083608388900757,
                "y": 0.5182115435600281,
                "z": -0.4816462993621826
            },
            "position": {
                "x": 0.5540239810943604,
                "y": 0.030875300988554955,
                "z": 0.16403168439865112
            }
        },
        "name": "move_to_storage_A"
    },
    "id": "STRIDE_move_to_storage_A_51",
    "joint_names": [
        "shoulder_pan_joint",
        "shoulder_lift_joint",
        "elbow_joint",
        "wrist_1_joint",
        "wrist_2_joint",
        "wrist_3_joint"
    ],
    "metrics": {
        "cart_traj_len": 0.3534187900717155,
        "distance_elbow_joint": 0.44869032666092834,
        "distance_shoulder_lift_joint": 0.2340061839768195,
        "distance_shoulder_pan_joint": 0.46182605511886865,
        "distance_wrist_1_joint": 0.2369431480115517,
        "distance_wrist_2_joint": 1.1006231038849097,
        "distance_wrist_3_joint": 0.09257127176113888,
        "smoothness": 4.440892098500626e-16,
        "time": 0.032625489,
        "traj_len": 1.6045747378711335,
        "weighted_distance": 2.024195861282439
    },
    "planner": "STRIDE",
    "start": {
        "state": {
            "elbow_joint": 1.971548259319323,
            "shoulder_lift_joint": -1.1394851275133948,
            "shoulder_pan_joint": 0.1228115487234821,
            "wrist_1_joint": -0.7804723859257726,
            "wrist_2_joint": 0.12958671773740124,
            "wrist_3_joint": -3.192489227718131
        }
    },
    "waypoints": [
        {
            "positions": [
                0.1228115487234821,
                -1.1394851275133948,
                1.971548259319323,
                -0.7804723859257726,
                0.12958671773740124,
                -3.192489227718131
            ]
        },
        {
            "positions": [
                0.056836397992215154,
                -1.1729145823672262,
                2.0356468774137415,
                -0.81432140707028,
                0.28681858972095975,
                -3.1792647603236825
            ]
        },
        {
            "positions": [
                -0.009138752739051792,
                -1.2063440372210574,
                2.09974549550816,
                -0.8481704282147874,
                0.44405046170451823,
                -3.1660402929292344
            ]
        },
        {
            "positions": [
                -0.07511390347031874,
                -1.2397734920748888,
                2.163844113602578,
                -0.8820194493592948,
                0.6012823336880768,
                -3.152815825534786
            ]
        },
        {
            "positions": [
                -0.14108905420158568,
                -1.2732029469287203,
                2.2279427316969964,
                -0.9158684705038022,
                0.7585142056716353,
                -3.1395913581403376
            ]
        },
        {
            "positions": [
                -0.20706420493285266,
                -1.3066324017825517,
                2.2920413497914147,
                -0.9497174916483095,
                0.9157460776551939,
                -3.126366890745889
            ]
        },
        {
            "positions": [
                -0.2730393556641196,
                -1.3400618566363829,
                2.356139967885833,
                -0.9835665127928169,
                1.0729779496387524,
                -3.113142423351441
            ]
        },
        {
            "positions": [
                -0.33901450639538655,
                -1.3734913114902143,
                2.4202385859802513,
                -1.0174155339373243,
                1.230209821622311,
                -3.0999179559569923
            ]
        }
    ]
}{
    "goal": {
        "global_pose": {
            "orientation": {
                "w": 0.5084816217422485,
                "x": -0.49083608388900757,
                "y": 0.5182115435600281,
                "z": -0.4816462993621826
            },
            "position": {
                "x": 0.5540239810943604,
                "y": 0.030875300988554955,
                "z": 0.16403168439865112
            }
        },
        "name": "move_to_storage_A"
    },
    "id": "STRIDE_move_to_storage_A_51",
    "joint_names": [
        "shoulder_pan_joint",
        "shoulder_lift_joint",
        "elbow_joint",
        "wrist_1_joint",
        "wrist_2_joint",
        "wrist_3_joint"
    ],
    "metrics": {
        "cart_traj_len": 0.35218343340409364,
        "distance_elbow_joint": 0.44876339378297025,
        "distance_shoulder_lift_joint": 0.23514918647431693,
        "distance_shoulder_pan_joint": 0.46105167075859416,
        "distance_wrist_1_joint": 0.23838455446838713,
        "distance_wrist_2_joint": 1.0949501955658867,
        "distance_wrist_3_joint": 0.09552460046767086,
        "smoothness": 8.881784197001252e-16,
        "time": 0.043443098,
        "traj_len": 1.6043140595026355,
        "weighted_distance": 2.0244030113807483
    },
    "planner": "STRIDE",
    "start": {
        "state": {
            "elbow_joint": 1.97154746011099,
            "shoulder_lift_joint": -1.13948474672311,
            "shoulder_pan_joint": 0.12281154466712228,
            "wrist_1_joint": -0.7804688027058302,
            "wrist_2_joint": 0.12958655903071145,
            "wrist_3_joint": 3.0906928834467795
        }
    },
    "waypoints": [
        {
            "positions": [
                0.12281154466712228,
                -1.13948474672311,
                1.97154746011099,
                -0.7804688027058302,
                0.12958655903071145,
                3.0906928834467795
            ]
        },
        {
            "positions": [
                0.05694702027303741,
                -1.1730774876480123,
                2.0356565163657,
                -0.8145237390584569,
                0.28600801554012384,
                3.104339254942161
            ]
        },
        {
            "positions": [
                -0.008917504121047456,
                -1.2066702285729147,
                2.09976557262041,
                -0.8485786754110837,
                0.4424294720495362,
                3.1179856264375427
            ]
        },
        {
            "positions": [
                -0.07478202851513234,
                -1.2402629694978171,
                2.16387462887512,
                -0.8826336117637104,
                0.5988509285589486,
                3.1316319979329243
            ]
        },
        {
            "positions": [
                -0.14064655290921718,
                -1.2738557104227195,
                2.2279836851298302,
                -0.9166885481163372,
                0.755272385068361,
                3.1452783694283055
            ]
        },
        {
            "positions": [
                -0.2065110773033021,
                -1.307448451347622,
                2.2920927413845402,
                -0.9507434844689638,
                0.9116938415777734,
                3.158924740923687
            ]
        },
        {
            "positions": [
                -0.27237560169738695,
                -1.3410411922725245,
                2.35620179763925,
                -0.9847984208215905,
                1.0681152980871857,
                3.1725711124190688
            ]
        },
        {
            "positions": [
                -0.33824012609147186,
                -1.3746339331974269,
                2.42031085389396,
                -1.0188533571742173,
                1.2245367545965982,
                3.1862174839144504
            ]
        }
    ]
}{
    "goal": {
        "global_pose": {
            "orientation": {
                "w": 0.5084816217422485,
                "x": -0.49083608388900757,
                "y": 0.5182115435600281,
                "z": -0.4816462993621826
            },
            "position": {
                "x": 0.5540239810943604,
                "y": 0.030875300988554955,
                "z": 0.16403168439865112
            }
        },
        "name": "move_to_storage_A"
    },
    "id": "STRIDE_move_to_storage_A_51",
    "joint_names": [
        "shoulder_pan_joint",
        "shoulder_lift_joint",
        "elbow_joint",
        "wrist_1_joint",
        "wrist_2_joint",
        "wrist_3_joint"
    ],
    "metrics": {
        "cart_traj_len": 0.3532734361437053,
        "distance_elbow_joint": 0.448625401947913,
        "distance_shoulder_lift_joint": 0.23420081304870433,
        "distance_shoulder_pan_joint": 0.4631712177690358,
        "distance_wrist_1_joint": 0.24027410202745902,
        "distance_wrist_2_joint": 1.0934014294330887,
        "distance_wrist_3_joint": 0.089309287605567,
        "smoothness": 4.440892098500626e-16,
        "time": 0.047193107,
        "traj_len": 1.6028044958234202,
        "weighted_distance": 2.0202169087757507
    },
    "planner": "STRIDE",
    "start": {
        "state": {
            "elbow_joint": 1.9715472970024885,
            "shoulder_lift_joint": -1.1394870060712896,
            "shoulder_pan_joint": 0.12281152778156021,
            "wrist_1_joint": -0.780463741449964,
            "wrist_2_joint": 0.12958659822042276,
            "wrist_3_joint": 3.090690232415272
        }
    },
    "waypoints": [
        {
            "positions": [
                0.12281152778156021,
                -1.1394870060712896,
                1.9715472970024885,
                -0.780463741449964,
                0.12958659822042276,
                3.090690232415272
            ]
        },
        {
            "positions": [
                0.05664421095741225,
                -1.1729442650782473,
                2.0356366401379047,
                -0.8147886131681724,
                0.2857868024251497,
                3.10344870207321
            ]
        },
        {
            "positions": [
                -0.009523105866735715,
                -1.206401524085205,
                2.099725983273321,
                -0.8491134848863808,
                0.44198700662987667,
                3.116207171731148
            ]
        },
        {
            "positions": [
                -0.07569042269088369,
                -1.2398587830921628,
                2.163815326408737,
                -0.8834383566045892,
                0.5981872108346036,
                3.1289656413890863
            ]
        },
        {
            "positions": [
                -0.14185773951503164,
                -1.2733160420991205,
                2.227904669544153,
                -0.9177632283227977,
                0.7543874150393305,
                3.1417241110470244
            ]
        },
        {
            "positions": [
                -0.20802505633917964,
                -1.3067733011060785,
                2.2919940126795693,
                -0.9520881000410062,
                0.9105876192440575,
                3.1544825807049626
            ]
        },
        {
            "positions": [
                -0.27419237316332756,
                -1.3402305601130362,
                2.3560833558149854,
                -0.9864129717592146,
                1.0667878234487844,
                3.1672410503629007
            ]
        },
        {
            "positions": [
                -0.34035968998747557,
                -1.373687819119994,
                2.4201726989504015,
                -1.020737843477423,
                1.2229880276535114,
                3.179999520020839
            ]
        }
    ]
}