{
    "goal": {
        "global_pose": {
            "orientation": {
                "w": 0.7031023480610252,
                "x": -0.7110244013736278,
                "y": 0.0077485991402295624,
                "z": 0.005598929693374583
            },
            "position": {
                "x": -0.8841497679147869,
                "y": 0.44412534475326537,
                "z": 0.3711530566215515
            }
        },
        "name": "move_to_auspresseinheit_D"
    },
    "id": "STRIDE_move_to_auspresseinheit_D_58",
    "joint_names": [
        "shoulder_pan_joint",
        "shoulder_lift_joint",
        "elbow_joint",
        "wrist_1_joint",
        "wrist_2_joint",
        "wrist_3_joint"
    ],
    "metrics": {
        "cart_traj_len": 0.3422686676198081,
        "distance_elbow_joint": 0.6256595710080788,
        "distance_shoulder_lift_joint": 0.11377958354142814,
        "distance_shoulder_pan_joint": 0.13337917541705419,
        "distance_wrist_1_joint": 0.4992784260534888,
        "distance_wrist_2_joint": 1.431239353983364,
        "distance_wrist_3_joint": 0.02544984905844716,
        "smoothness": 1.9737298371844314e-16,
        "time": 0.09125565,
        "traj_len": 1.6818995092043583,
        "weighted_distance": 2.1932175991487046
    },
    "planner": "STRIDE",
    "start": {
        "state": {
            "elbow_joint": -1.8275523626775212,
            "shoulder_lift_joint": -2.126789852344167,
            "shoulder_pan_joint": -0.03513704404078235,
            "wrist_1_joint": -2.347782403156801,
            "wrist_2_joint": -1.6058999987535132,
            "wrist_3_joint": -3.0880379163319196
        }
    },
    "waypoints": [
        {
            "positions": [
                -0.03513704404078235,
                -2.126789852344167,
                -1.8275523626775212,
                -2.347782403156801,
                -1.6058999987535132,
                -3.0880379163319196
            ]
        },
        {
            "positions": [
                -0.05180944096791412,
                -2.1410123002868455,
                -1.7493449163015113,
                -2.410192206413487,
                -1.4269950795055926,
                -3.0912191474642254
            ]
        },
        {
            "positions": [
                -0.06848183789504589,
                -2.1552347482295238,
                -1.6711374699255015,
                -2.4726020096701733,
                -1.2480901602576722,
                -3.0944003785965313
            ]
        },
        {
            "positions": [
                -0.08515423482217767,
                -2.1694571961722025,
                -1.5929300235494916,
                -2.535011812926859,
                -1.0691852410097518,
                -3.097581609728837
            ]
        },
        {
            "positions": [
                -0.10182663174930945,
                -2.183679644114881,
                -1.5147225771734818,
                -2.5974216161835453,
                -0.8902803217618311,
                -3.100762840861143
            ]
        },
        {
            "positions": [
                -0.11849902867644121,
                -2.1979020920575594,
                -1.436515130797472,
                -2.6598314194402315,
                -0.7113754025139106,
                -3.1039440719934492
            ]
        },
        {
            "positions": [
                -0.13517142560357298,
                -2.212124540000238,
                -1.358307684421462,
                -2.7222412226969173,
                -0.5324704832659901,
                -3.107125303125755
            ]
        },
        {
            "positions": [
                -0.15184382253070478,
                -2.2263469879429163,
                -1.2801002380454523,
                -2.7846510259536035,
                -0.3535655640180697,
                -3.110306534258061
            ]
        },
        {
            "positions": [
                -0.16851621945783654,
                -2.240569435885595,
                -1.2018927916694424,
                -2.8470608292102897,
                -0.17466064477014911,
                -3.1134877653903668
            ]
        }
    ]
}