{
    "goal": {
        "global_pose": {
            "orientation": {
                "w": 0.005598929693374612,
                "x": 0.007748599140229565,
                "y": 0.7110244013736278,
                "z": -0.7031023480610252
            },
            "position": {
                "x": 0.1141497679147869,
                "y": -0.7141253447532654,
                "z": 0.3711530566215515
            }
        },
        "name": "move_to_auspresseinheit_B"
    },
    "id": "STRIDE_move_to_auspresseinheit_B_84",
    "joint_names": [
        "shoulder_pan_joint",
        "shoulder_lift_joint",
        "elbow_joint",
        "wrist_1_joint",
        "wrist_2_joint",
        "wrist_3_joint"
    ],
    "metrics": {
        "cart_traj_len": 0.5645222911166474,
        "distance_elbow_joint": 0.05958208061321213,
        "distance_shoulder_lift_joint": 0.2945613806964862,
        "distance_shoulder_pan_joint": 0.5779528743163902,
        "distance_wrist_1_joint": 0.31637388982514414,
        "distance_wrist_2_joint": 0.9898945696965091,
        "distance_wrist_3_joint": 0.01003799050908949,
        "smoothness": 2.5376526478085547e-16,
        "time": 0.181435757,
        "traj_len": 1.4994675007004423,
        "weighted_distance": 1.890700194688905
    },
    "planner": "STRIDE",
    "start": {
        "state": {
            "elbow_joint": 2.0193083361928714,
            "shoulder_lift_joint": -1.1220246554650708,
            "shoulder_pan_joint": -1.0952077554168747,
            "wrist_1_joint": -0.8559753972642168,
            "wrist_2_joint": 0.4759566250798843,
            "wrist_3_joint": -3.1240929996934557
        }
    },
    "waypoints": [
        {
            "positions": [
                -1.0952077554168747,
                -1.1220246554650708,
                2.0193083361928714,
                -0.8559753972642168,
                0.4759566250798843,
                -3.1240929996934557
            ]
        },
        {
            "positions": [
                -1.1915332344696064,
                -1.171118218914485,
                2.009377989424003,
                -0.8032464156266927,
                0.6409390533626358,
                -3.122420001275274
            ]
        },
        {
            "positions": [
                -1.287858713522338,
                -1.2202117823638996,
                1.999447642655134,
                -0.7505174339891687,
                0.8059214816453872,
                -3.1207470028570925
            ]
        },
        {
            "positions": [
                -1.3841841925750697,
                -1.269305345813314,
                1.9895172958862655,
                -0.6977884523516447,
                0.9709039099281389,
                -3.119074004438911
            ]
        },
        {
            "positions": [
                -1.4805096716278014,
                -1.3183989092627282,
                1.9795869491173967,
                -0.6450594707141207,
                1.1358863382108904,
                -3.1174010060207293
            ]
        },
        {
            "positions": [
                -1.5768351506805331,
                -1.3674924727121427,
                1.969656602348528,
                -0.5923304890765966,
                1.300868766493642,
                -3.1157280076025478
            ]
        },
        {
            "positions": [
                -1.6731606297332648,
                -1.416586036161557,
                1.9597262555796593,
                -0.5396015074390726,
                1.4658511947763935,
                -3.114055009184366
            ]
        }
    ]
}