{
    "goal": {
        "global_pose": {
            "orientation": {
                "w": -0.4816463035849501,
                "x": 0.5182115481033762,
                "y": 0.4908360881923453,
                "z": -0.5084816262002911
            },
            "position": {
                "x": -0.8240239810943604,
                "y": 0.19912469901144506,
                "z": 0.16403168439865112
            }
        },
        "name": "move_to_storage_D"
    },
    "id": "STRIDE_move_to_storage_D_62",
    "joint_names": [
        "shoulder_pan_joint",
        "shoulder_lift_joint",
        "elbow_joint",
        "wrist_1_joint",
        "wrist_2_joint",
        "wrist_3_joint"
    ],
    "metrics": {
        "cart_traj_len": 0.7253588862060476,
        "distance_elbow_joint": 0.5819592505582658,
        "distance_shoulder_lift_joint": 0.37384832774350407,
        "distance_shoulder_pan_joint": 0.18719161443629445,
        "distance_wrist_1_joint": 3.8270670279788264,
        "distance_wrist_2_joint": 1.8973879423849,
        "distance_wrist_3_joint": 3.1152022261077548,
        "smoothness": 0.15973282945540798,
        "time": 0.278713475,
        "traj_len": 3.159534204468998,
        "weighted_distance": 4.683750186740192
    },
    "planner": "STRIDE",
    "start": {
        "state": {
            "elbow_joint": -2.384821988534728,
            "shoulder_lift_joint": -2.2788054721415256,
            "shoulder_pan_joint": -0.1854694642142757,
            "wrist_1_joint": 1.4845938289331202,
            "wrist_2_joint": 0.17898776772866878,
            "wrist_3_joint": 0.037105688729662994
        }
    },
    "waypoints": [
        {
            "positions": [
                -0.1854694642142757,
                -2.2788054721415256,
                -2.384821988534728,
                1.4845938289331202,
                0.17898776772866878,
                0.037105688729662994
            ]
        },
        {
            "positions": [
                -0.08302596607975164,
                -2.242216085490225,
                -2.3971541793962587,
                1.4746908101676537,
                0.23025333052747318,
                0.010023619291748493
            ]
        },
        {
            "positions": [
                -0.06663194309100459,
                -2.1858146252873913,
                -2.3209468670020668,
                1.3694957426840197,
                0.2087414090324503,
                -0.05411731033847648
            ]
        },
        {
            "positions": [
                -0.05023792010225755,
                -2.1294131650845576,
                -2.244739554607875,
                1.2643006752003858,
                0.1872294875374274,
                -0.11825823996870144
            ]
        },
        {
            "positions": [
                -0.033843897113510504,
                -2.073011704881724,
                -2.1685322422136832,
                1.1591056077167519,
                0.16571756604240453,
                -0.1823991695989264
            ]
        },
        {
            "positions": [
                -0.017449874124763454,
                -2.01661024467889,
                -2.0923249298194913,
                1.053910540233118,
                0.14420564454738166,
                -0.24654009922915138
            ]
        },
        {
            "positions": [
                -0.01832132977688992,
                -2.0216853856007475,
                -2.080288665723129,
                0.8995294611749896,
                0.06420224938347238,
                -0.3752472100541032
            ]
        },
        {
            "positions": [
                -0.019192785429016392,
                -2.0267605265226054,
                -2.0682524016267667,
                0.7451483821168612,
                -0.015801145780436898,
                -0.5039543208790551
            ]
        },
        {
            "positions": [
                -0.02006424108114286,
                -2.031835667444463,
                -2.056216137530405,
                0.5907673030587328,
                -0.09580454094434615,
                -0.6326614317040069
            ]
        },
        {
            "positions": [
                -0.020935696733269327,
                -2.0369108083663208,
                -2.0441798734340426,
                0.43638622400060434,
                -0.17580793610825546,
                -0.7613685425289587
            ]
        },
        {
            "positions": [
                -0.021807152385395795,
                -2.0419859492881782,
                -2.0321436093376803,
                0.28200514494247597,
                -0.2558113312721647,
                -0.8900756533539105
            ]
        },
        {
            "positions": [
                -0.022678608037522266,
                -2.047061090210036,
                -2.0201073452413185,
                0.12762406588434771,
                -0.33581472643607396,
                -1.0187827641788623
            ]
        },
        {
            "positions": [
                -0.023550063689648734,
                -2.0521362311318936,
                -2.0080710811449562,
                -0.026757013173780875,
                -0.41581812159998327,
                -1.147489875003814
            ]
        },
        {
            "positions": [
                -0.0244215193417752,
                -2.0572113720537515,
                -1.996034817048594,
                -0.18113809223190924,
                -0.4958215167638926,
                -1.276196985828766
            ]
        },
        {
            "positions": [
                -0.025292974993901672,
                -2.062286512975609,
                -1.9839985529522317,
                -0.3355191712900376,
                -0.5758249119278018,
                -1.4049040966537178
            ]
        },
        {
            "positions": [
                -0.026164430646028136,
                -2.067361653897467,
                -1.9719622888558697,
                -0.489900250348166,
                -0.655828307091711,
                -1.5336112074786696
            ]
        },
        {
            "positions": [
                -0.027035886298154607,
                -2.0724367948193243,
                -1.9599260247595076,
                -0.6442813294062943,
                -0.7358317022556204,
                -1.6623183183036214
            ]
        },
        {
            "positions": [
                -0.027907341950281075,
                -2.0775119357411818,
                -1.9478897606631453,
                -0.7986624084644225,
                -0.8158350974195296,
                -1.7910254291285732
            ]
        },
        {
            "positions": [
                -0.028778797602407542,
                -2.0825870766630397,
                -1.935853496566783,
                -0.9530434875225513,
                -0.8958384925834391,
                -1.9197325399535252
            ]
        },
        {
            "positions": [
                -0.029650253254534013,
                -2.087662217584897,
                -1.923817232470421,
                -1.1074245665806797,
                -0.9758418877473483,
                -2.048439650778477
            ]
        },
        {
            "positions": [
                -0.03052170890666048,
                -2.092737358506755,
                -1.911780968374059,
                -1.2618056456388076,
                -1.0558452829112575,
                -2.177146761603429
            ]
        },
        {
            "positions": [
                -0.03139316455878695,
                -2.0978124994286125,
                -1.8997447042776967,
                -1.4161867246969364,
                -1.1358486780751669,
                -2.305853872428381
            ]
        },
        {
            "positions": [
                -0.03226462021091342,
                -2.1028876403504704,
                -1.8877084401813344,
                -1.5705678037550648,
                -1.215852073239076,
                -2.4345609832533324
            ]
        },
        {
            "positions": [
                -0.03313607586303989,
                -2.107962781272328,
                -1.8756721760849724,
                -1.7249488828131931,
                -1.2958554684029855,
                -2.5632680940782846
            ]
        },
        {
            "positions": [
                -0.034007531515166355,
                -2.1130379221941857,
                -1.8636359119886103,
                -1.8793299618713215,
                -1.3758588635668947,
                -2.6919752049032364
            ]
        },
        {
            "positions": [
                -0.03487898716729282,
                -2.118113063116043,
                -1.851599647892248,
                -2.03371104092945,
                -1.4558622587308039,
                -2.820682315728188
            ]
        },
        {
            "positions": [
                -0.03575044281941929,
                -2.123188204037901,
                -1.8395633837958858,
                -2.1880921199875782,
                -1.5358656538947133,
                -2.94938942655314
            ]
        },
        {
            "positions": [
                -0.03662189847154576,
                -2.1282633449597586,
                -1.8275271196995237,
                -2.3424731990457066,
                -1.6158690490586225,
                -3.0780965373780917
            ]
        }
    ]
}