{
    "goal": {
        "global_pose": {
            "orientation": {
                "w": 0.5084816262002911,
                "x": -0.4908360881923452,
                "y": 0.5182115481033761,
                "z": -0.48164630358495003
            },
            "position": {
                "x": 0.5540239810943604,
                "y": -0.46912469901144505,
                "z": 0.16403168439865112
            }
        },
        "name": "move_to_storage_B"
    },
    "id": "STRIDE_move_to_storage_B_45",
    "joint_names": [
        "shoulder_pan_joint",
        "shoulder_lift_joint",
        "elbow_joint",
        "wrist_1_joint",
        "wrist_2_joint",
        "wrist_3_joint"
    ],
    "metrics": {
        "cart_traj_len": 1.1853059243409052,
        "distance_elbow_joint": 2.4336025121234885,
        "distance_shoulder_lift_joint": 0.45805574153882844,
        "distance_shoulder_pan_joint": 0.8345035202221612,
        "distance_wrist_1_joint": 2.9772645983448998,
        "distance_wrist_2_joint": 2.7057613730382353,
        "distance_wrist_3_joint": 3.4718194075962345,
        "smoothness": 0.2419773447015074,
        "time": 0.15322301700000002,
        "traj_len": 3.5890120023293113,
        "weighted_distance": 5.050512047252184
    },
    "planner": "STRIDE",
    "start": {
        "state": {
            "elbow_joint": 1.664937868594044,
            "shoulder_lift_joint": -0.661644460510453,
            "shoulder_pan_joint": -0.9139846352900073,
            "wrist_1_joint": 2.146753192139373,
            "wrist_2_joint": -2.2341966793290973,
            "wrist_3_joint": 0.005466555786416001
        }
    },
    "waypoints": [
        {
            "positions": [
                -0.9139846352900073,
                -0.661644460510453,
                1.664937868594044,
                2.146753192139373,
                -2.2341966793290973,
                0.005466555786416001
            ]
        },
        {
            "positions": [
                -0.8342224896261587,
                -0.6884594764669775,
                1.634525627288697,
                2.0553857647179097,
                -2.11705429870901,
                -0.03273202168809421
            ]
        },
        {
            "positions": [
                -0.80686798946373,
                -0.6920101153833963,
                1.5220078280139115,
                1.9254734478308793,
                -2.0523948455335392,
                -0.04714748621724615
            ]
        },
        {
            "positions": [
                -0.779513489301301,
                -0.695560754299815,
                1.4094900287391263,
                1.7955611309438488,
                -1.9877353923580685,
                -0.06156295074639809
            ]
        },
        {
            "positions": [
                -0.7521589891388722,
                -0.6991113932162338,
                1.2969722294643409,
                1.6656488140568184,
                -1.9230759391825978,
                -0.07597841527555002
            ]
        },
        {
            "positions": [
                -0.7248044889764435,
                -0.7026620321326527,
                1.1844544301895557,
                1.5357364971697878,
                -1.858416486007127,
                -0.09039387980470195
            ]
        },
        {
            "positions": [
                -0.6974499888140145,
                -0.7062126710490714,
                1.0719366309147702,
                1.4058241802827574,
                -1.7937570328316563,
                -0.1048093443338539
            ]
        },
        {
            "positions": [
                -0.6700954886515857,
                -0.7097633099654902,
                0.9594188316399848,
                1.275911863395727,
                -1.7290975796561858,
                -0.11922480886300584
            ]
        },
        {
            "positions": [
                -0.642740988489157,
                -0.713313948881909,
                0.8469010323651994,
                1.1459995465086963,
                -1.664438126480715,
                -0.13364027339215778
            ]
        },
        {
            "positions": [
                -0.6153864883267282,
                -0.7168645877983277,
                0.7343832330904141,
                1.0160872296216659,
                -1.5997786733052444,
                -0.14805573792130972
            ]
        },
        {
            "positions": [
                -0.5880319881642992,
                -0.7204152267147466,
                0.6218654338156286,
                0.8861749127346354,
                -1.5351192201297736,
                -0.16247120245046165
            ]
        },
        {
            "positions": [
                -0.6092216078766515,
                -0.7370521006870189,
                0.67980418703834,
                0.8146463161121287,
                -1.4515073903864857,
                -0.02480946706048845
            ]
        },
        {
            "positions": [
                -0.6304112275890037,
                -0.7536889746592912,
                0.7377429402610515,
                0.7431177194896219,
                -1.3678955606431977,
                0.11285226832948475
            ]
        },
        {
            "positions": [
                -0.6516008473013559,
                -0.7703258486315634,
                0.7956816934837628,
                0.6715891228671151,
                -1.2842837308999098,
                0.250514003719458
            ]
        },
        {
            "positions": [
                -0.6727904670137081,
                -0.7869627226038357,
                0.8536204467064743,
                0.6000605262446085,
                -1.2006719011566216,
                0.38817573910943115
            ]
        },
        {
            "positions": [
                -0.6939800867260604,
                -0.803599596576108,
                0.9115591999291857,
                0.5285319296221016,
                -1.1170600714133336,
                0.5258374744994044
            ]
        },
        {
            "positions": [
                -0.7151697064384126,
                -0.8202364705483802,
                0.969497953151897,
                0.45700333299959495,
                -1.0334482416700457,
                0.6634992098893776
            ]
        },
        {
            "positions": [
                -0.7363593261507648,
                -0.8368733445206525,
                1.0274367063746084,
                0.3854747363770882,
                -0.9498364119267576,
                0.8011609452793509
            ]
        },
        {
            "positions": [
                -0.7575489458631169,
                -0.8535102184929249,
                1.0853754595973197,
                0.3139461397545815,
                -0.8662245821834698,
                0.938822680669324
            ]
        },
        {
            "positions": [
                -0.7787385655754692,
                -0.8701470924651972,
                1.1433142128200313,
                0.24241754313207475,
                -0.7826127524401817,
                1.076484416059297
            ]
        },
        {
            "positions": [
                -0.7999281852878214,
                -0.8867839664374695,
                1.2012529660427427,
                0.17088894650956787,
                -0.6990009226968936,
                1.2141461514492704
            ]
        },
        {
            "positions": [
                -0.8211178050001736,
                -0.9034208404097417,
                1.259191719265454,
                0.09936034988706122,
                -0.6153890929536058,
                1.3518078868392438
            ]
        },
        {
            "positions": [
                -0.8423074247125258,
                -0.920057714382014,
                1.3171304724881656,
                0.02783175326455445,
                -0.5317772632103177,
                1.4894696222292167
            ]
        },
        {
            "positions": [
                -0.863497044424878,
                -0.9366945883542863,
                1.375069225710877,
                -0.04369684335795221,
                -0.44816543346702975,
                1.6271313576191901
            ]
        },
        {
            "positions": [
                -0.8846866641372303,
                -0.9533314623265586,
                1.4330079789335883,
                -0.11522543998045909,
                -0.36455360372374157,
                1.7647930930091635
            ]
        },
        {
            "positions": [
                -0.9058762838495825,
                -0.9699683362988308,
                1.4909467321562997,
                -0.18675403660296586,
                -0.2809417739804536,
                1.9024548283991365
            ]
        },
        {
            "positions": [
                -0.9270659035619346,
                -0.9866052102711032,
                1.548885485379011,
                -0.2582826332254724,
                -0.19732994423716588,
                2.0401165637891094
            ]
        },
        {
            "positions": [
                -0.948255523274287,
                -1.0032420842433756,
                1.6068242386017226,
                -0.3298112298479794,
                -0.1137181144938777,
                2.177778299179083
            ]
        },
        {
            "positions": [
                -0.9694451429866391,
                -1.0198789582156478,
                1.664762991824434,
                -0.40133982647048594,
                -0.03010628475058974,
                2.315440034569056
            ]
        },
        {
            "positions": [
                -0.9906347626989913,
                -1.03651583218792,
                1.7227017450471453,
                -0.4728684230929927,
                0.05350554499269822,
                2.453101769959029
            ]
        },
        {
            "positions": [
                -1.0118243824113435,
                -1.0531527061601924,
                1.7806404982698567,
                -0.5443970197154997,
                0.1371173747359864,
                2.5907635053490026
            ]
        },
        {
            "positions": [
                -1.0330140021236958,
                -1.0697895801324646,
                1.838579251492568,
                -0.6159256163380062,
                0.22072920447927413,
                2.7284252407389755
            ]
        },
        {
            "positions": [
                -1.054203621836048,
                -1.0864264541047368,
                1.8965180047152794,
                -0.687454212960513,
                0.3043410342225621,
                2.866086976128949
            ]
        },
        {
            "positions": [
                -1.0753932415484002,
                -1.1030633280770092,
                1.954456757937991,
                -0.7589828095830198,
                0.38795286396585027,
                3.0037487115189223
            ]
        },
        {
            "positions": [
                -1.0965828612607524,
                -1.1197002020492814,
                2.0123955111607024,
                -0.8305114062055267,
                0.47156469370913817,
                3.1414104469088953
            ]
        }
    ]
}