{
    "goal": {
        "global_pose": {
            "orientation": {
                "w": -0.00223480608172531,
                "x": 0.0024358444001904467,
                "y": 0.7094548369677653,
                "z": -0.704743149386269
            },
            "position": {
                "x": 0.6205249238014221,
                "y": -0.6371506643295288,
                "z": 0.19426114857196808
            }
        },
        "name": "move_to_magneteinheit_B"
    },
    "id": "STRIDE_move_to_magneteinheit_B_63",
    "joint_names": [
        "shoulder_pan_joint",
        "shoulder_lift_joint",
        "elbow_joint",
        "wrist_1_joint",
        "wrist_2_joint",
        "wrist_3_joint"
    ],
    "metrics": {
        "cart_traj_len": 4.491537634212455,
        "distance_elbow_joint": 4.273114478229253,
        "distance_shoulder_lift_joint": 0.7926331113601939,
        "distance_shoulder_pan_joint": 3.497983165241329,
        "distance_wrist_1_joint": 4.403835233740859,
        "distance_wrist_2_joint": 3.057407264145408,
        "distance_wrist_3_joint": 3.400152650276657,
        "smoothness": 0.09345085111377284,
        "time": 0.479036978,
        "traj_len": 4.407394457385644,
        "weighted_distance": 5.80402220028777
    },
    "planner": "STRIDE",
    "start": {
        "state": {
            "elbow_joint": 2.6216224122426386,
            "shoulder_lift_joint": -1.4174107377796124,
            "shoulder_pan_joint": 0.7066234856936794,
            "wrist_1_joint": 1.9546482284002225,
            "wrist_2_joint": -0.7096286983471962,
            "wrist_3_joint": 0.005740856962016249
        }
    },
    "waypoints": [
        {
            "positions": [
                0.7066234856936794,
                -1.4174107377796124,
                2.6216224122426386,
                1.9546482284002225,
                -0.7096286983471962,
                0.005740856962016249
            ]
        },
        {
            "positions": [
                0.6476284867309892,
                -1.4253502618518452,
                2.5908919427287116,
                1.785496562374455,
                -0.6401101173128028,
                0.049912302993539014
            ]
        },
        {
            "positions": [
                0.5886334877682989,
                -1.4332897859240779,
                2.5601614732147846,
                1.6163448963486877,
                -0.5705915362784093,
                0.09408374902506178
            ]
        },
        {
            "positions": [
                0.5296384888056087,
                -1.4412293099963107,
                2.5294310037008576,
                1.4471932303229202,
                -0.5010729552440157,
                0.13825519505658457
            ]
        },
        {
            "positions": [
                0.4494847739975631,
                -1.4432652922477547,
                2.4293254046748274,
                1.3878897956533371,
                -0.41536451936503205,
                0.11762296579409875
            ]
        },
        {
            "positions": [
                0.3693310591895175,
                -1.4453012744991987,
                2.329219805648797,
                1.328586360983754,
                -0.32965608348604836,
                0.09699073653161294
            ]
        },
        {
            "positions": [
                0.28917734438147186,
                -1.4473372567506426,
                2.229114206622767,
                1.269282926314171,
                -0.2439476476070646,
                0.07635850726912713
            ]
        },
        {
            "positions": [
                0.20902362957342624,
                -1.4493732390020866,
                2.1290086075967363,
                1.2099794916445878,
                -0.15823921172808092,
                0.05572627800664133
            ]
        },
        {
            "positions": [
                0.12886991476538062,
                -1.4514092212535306,
                2.028903008570706,
                1.1506760569750047,
                -0.07253077584909717,
                0.03509404874415552
            ]
        },
        {
            "positions": [
                0.048716199957335,
                -1.4534452035049745,
                1.9287974095446758,
                1.0913726223054216,
                0.013177660029886495,
                0.014461819481669705
            ]
        },
        {
            "positions": [
                0.045729319469923924,
                -1.4476090055480597,
                1.7213189653052325,
                1.027477004056817,
                0.023641736001737725,
                -0.04566980974250648
            ]
        },
        {
            "positions": [
                0.04274243898251284,
                -1.441772807591145,
                1.5138405210657893,
                0.9635813858082125,
                0.03410581197358896,
                -0.10580143896668266
            ]
        },
        {
            "positions": [
                0.12108745878287674,
                -1.4602305270783635,
                1.4099865327296648,
                0.8576393141527203,
                0.08468707219582086,
                -0.14062863261521036
            ]
        },
        {
            "positions": [
                0.19943247858324065,
                -1.4786882465655824,
                1.3061325443935403,
                0.7516972424972281,
                0.13526833241805275,
                -0.17545582626373807
            ]
        },
        {
            "positions": [
                0.27777749838360455,
                -1.497145966052801,
                1.2022785560574158,
                0.645755170841736,
                0.18584959264028467,
                -0.21028301991226578
            ]
        },
        {
            "positions": [
                0.35612251818396845,
                -1.5156036855400197,
                1.0984245677212914,
                0.5398130991862438,
                0.23643085286251658,
                -0.2451102135607935
            ]
        },
        {
            "positions": [
                0.43446753798433235,
                -1.5340614050272383,
                0.994570579385167,
                0.4338710275307516,
                0.2870121130847485,
                -0.2799374072093212
            ]
        },
        {
            "positions": [
                0.5128125577846963,
                -1.5525191245144572,
                0.8907165910490425,
                0.3279289558752594,
                0.3375933733069804,
                -0.3147646008578489
            ]
        },
        {
            "positions": [
                0.5911575775850602,
                -1.5709768440016758,
                0.7868626027129181,
                0.2219868842197672,
                0.38817463352921233,
                -0.3495917945063766
            ]
        },
        {
            "positions": [
                0.6695025973854241,
                -1.5894345634888944,
                0.6830086143767937,
                0.11604481256427501,
                0.4387558937514442,
                -0.3844189881549043
            ]
        },
        {
            "positions": [
                0.747847617185788,
                -1.6078922829761133,
                0.5791546260406691,
                0.010102740908782715,
                0.48933715397367616,
                -0.41924618180343204
            ]
        },
        {
            "positions": [
                0.8261926369861519,
                -1.626350002463332,
                0.4753006377045448,
                -0.09583933074670936,
                0.539918414195908,
                -0.4540733754519597
            ]
        },
        {
            "positions": [
                0.9045376567865158,
                -1.6448077219505506,
                0.3714466493684203,
                -0.20178140240220155,
                0.59049967441814,
                -0.4889005691004874
            ]
        },
        {
            "positions": [
                0.9828826765868797,
                -1.6632654414377692,
                0.26759266103229584,
                -0.30772347405769374,
                0.6410809346403719,
                -0.5237277627490151
            ]
        },
        {
            "positions": [
                1.0612276963872436,
                -1.681723160924988,
                0.16373867269617137,
                -0.4136655457131859,
                0.6916621948626038,
                -0.5585549563975428
            ]
        },
        {
            "positions": [
                1.1395727161876075,
                -1.7001808804122067,
                0.0598846843600469,
                -0.519607617368678,
                0.7422434550848357,
                -0.5933821500460705
            ]
        },
        {
            "positions": [
                1.2692520903947033,
                -1.7277576567721475,
                -0.0228966792449187,
                -0.6407761070689518,
                0.7588290300859291,
                -0.6077376035026688
            ]
        },
        {
            "positions": [
                1.3989314646017992,
                -1.7553344331320881,
                -0.1056780428498843,
                -0.7619445967692255,
                0.7754146050870224,
                -0.6220930569592672
            ]
        },
        {
            "positions": [
                1.528610838808895,
                -1.782911209492029,
                -0.1884594064548499,
                -0.8831130864694994,
                0.7920001800881158,
                -0.6364485104158655
            ]
        },
        {
            "positions": [
                1.6582902130159907,
                -1.8104879858519698,
                -0.2712407700598155,
                -1.0042815761697732,
                0.808585755089209,
                -0.6508039638724638
            ]
        },
        {
            "positions": [
                1.7879695872230865,
                -1.8380647622119104,
                -0.35402213366478114,
                -1.125450065870047,
                0.8251713300903024,
                -0.6651594173290621
            ]
        },
        {
            "positions": [
                1.9176489614301824,
                -1.8656415385718512,
                -0.4368034972697467,
                -1.2466185555703206,
                0.8417569050913958,
                -0.6795148707856604
            ]
        },
        {
            "positions": [
                2.0473283356372782,
                -1.893218314931792,
                -0.5195848608747123,
                -1.3677870452705947,
                0.8583424800924891,
                -0.6938703242422587
            ]
        },
        {
            "positions": [
                2.177007709844374,
                -1.9207950912917326,
                -0.6023662244796779,
                -1.4889555349708683,
                0.8749280550935825,
                -0.7082257776988571
            ]
        },
        {
            "positions": [
                2.30668708405147,
                -1.9483718676516735,
                -0.6851475880846435,
                -1.6101240246711424,
                0.8915136300946758,
                -0.7225812311554554
            ]
        },
        {
            "positions": [
                2.436366458258566,
                -1.9759486440116143,
                -0.7679289516896092,
                -1.731292514371416,
                0.9080992050957692,
                -0.7369366846120537
            ]
        },
        {
            "positions": [
                2.5660458324656616,
                -2.003525420371555,
                -0.8507103152945746,
                -1.8524610040716896,
                0.9246847800968625,
                -0.7512921380686519
            ]
        },
        {
            "positions": [
                2.6957252066727575,
                -2.0311021967314957,
                -0.9334916788995403,
                -1.9736294937719636,
                0.9412703550979559,
                -0.7656475915252503
            ]
        },
        {
            "positions": [
                2.70385856010539,
                -2.040325843887351,
                -1.009616316017695,
                -2.012740019849821,
                0.8370629382298047,
                -0.9113946795639387
            ]
        },
        {
            "positions": [
                2.711991913538022,
                -2.049549491043206,
                -1.0857409531358497,
                -2.0518505459276777,
                0.7328555213616537,
                -1.0571417676026271
            ]
        },
        {
            "positions": [
                2.7201252669706544,
                -2.058773138199061,
                -1.1618655902540045,
                -2.090961072005535,
                0.6286481044935025,
                -1.2028888556413153
            ]
        },
        {
            "positions": [
                2.7282586204032864,
                -2.067996785354916,
                -1.2379902273721592,
                -2.130071598083392,
                0.5244406876253513,
                -1.3486359436800037
            ]
        },
        {
            "positions": [
                2.736391973835919,
                -2.077220432510771,
                -1.314114864490314,
                -2.169182124161249,
                0.4202332707572002,
                -1.4943830317186921
            ]
        },
        {
            "positions": [
                2.744525327268551,
                -2.086444079666626,
                -1.3902395016084688,
                -2.2082926502391063,
                0.31602585388904914,
                -1.6401301197573805
            ]
        },
        {
            "positions": [
                2.7526586807011832,
                -2.095667726822481,
                -1.4663641387266235,
                -2.2474031763169635,
                0.21181843702089787,
                -1.785877207796069
            ]
        },
        {
            "positions": [
                2.7607920341338152,
                -2.104891373978336,
                -1.5424887758447783,
                -2.2865137023948203,
                0.10761102015274682,
                -1.9316242958347574
            ]
        },
        {
            "positions": [
                2.7689253875664477,
                -2.1141150211341913,
                -1.618613412962933,
                -2.3256242284726776,
                0.0034036032845956438,
                -2.0773713838734458
            ]
        },
        {
            "positions": [
                2.747341553577202,
                -2.1286318283697825,
                -1.62518914356767,
                -2.350336783846269,
                -0.09032468849278309,
                -2.2877737305238575
            ]
        },
        {
            "positions": [
                2.7257577195879565,
                -2.1431486356053737,
                -1.6317648741724067,
                -2.3750493392198613,
                -0.18405298027016181,
                -2.498176077174269
            ]
        },
        {
            "positions": [
                2.7041738855987107,
                -2.1576654428409645,
                -1.6383406047771436,
                -2.399761894593453,
                -0.27778127204754055,
                -2.7085784238246804
            ]
        },
        {
            "positions": [
                2.6825900516094654,
                -2.1721822500765557,
                -1.6449163353818803,
                -2.424474449967045,
                -0.3715095638249193,
                -2.918980770475092
            ]
        },
        {
            "positions": [
                2.6610062176202196,
                -2.186699057312147,
                -1.6514920659866172,
                -2.4491870053406366,
                -0.465237855602298,
                -3.1293831171255038
            ]
        }
    ]
}