{
    "goal": {
        "global_pose": {
            "orientation": {
                "w": 0.7047431493862688,
                "x": -0.7094548369677653,
                "y": 0.0024358444001904,
                "z": -0.0022348060817251984
            },
            "position": {
                "x": -0.39052492380142206,
                "y": 0.3671506643295288,
                "z": 0.19426114857196808
            }
        },
        "name": "move_to_magneteinheit_D"
    },
    "id": "STRIDE_move_to_magneteinheit_D_86",
    "joint_names": [
        "shoulder_pan_joint",
        "shoulder_lift_joint",
        "elbow_joint",
        "wrist_1_joint",
        "wrist_2_joint",
        "wrist_3_joint"
    ],
    "metrics": {
        "cart_traj_len": 5.26811165464319,
        "distance_elbow_joint": 5.160382024767946,
        "distance_shoulder_lift_joint": 1.843856696561319,
        "distance_shoulder_pan_joint": 3.7829497773088767,
        "distance_wrist_1_joint": 5.036808444283119,
        "distance_wrist_2_joint": 3.066421685454098,
        "distance_wrist_3_joint": 8.212525388363208,
        "smoothness": 0.5163875048194598,
        "time": 0.350451385,
        "traj_len": 5.2060487912368405,
        "weighted_distance": 7.185487104101028
    },
    "planner": "STRIDE",
    "start": {
        "state": {
            "elbow_joint": 0.749534889911806,
            "shoulder_lift_joint": -0.6476975780787326,
            "shoulder_pan_joint": -2.711696901376241,
            "wrist_1_joint": -0.07506478083263063,
            "wrist_2_joint": 0.43296659715538205,
            "wrist_3_joint": -3.14703540197715
        }
    },
    "waypoints": [
        {
            "positions": [
                -2.711696901376241,
                -0.6476975780787326,
                0.749534889911806,
                -0.07506478083263063,
                0.43296659715538205,
                -3.14703540197715
            ]
        },
        {
            "positions": [
                -2.7136867394816004,
                -0.6815855844749708,
                0.8041748325613143,
                -0.02089570805879691,
                0.4458524008866039,
                -2.9496903628770417
            ]
        },
        {
            "positions": [
                -2.7156765775869594,
                -0.7154735908712089,
                0.8588147752108225,
                0.03327336471503681,
                0.4587382046178257,
                -2.7523453237769333
            ]
        },
        {
            "positions": [
                -2.7176664156923187,
                -0.749361597267447,
                0.9134547178603308,
                0.08744243748887054,
                0.4716240083490475,
                -2.5550002846768245
            ]
        },
        {
            "positions": [
                -2.719656253797678,
                -0.7832496036636851,
                0.9680946605098391,
                0.14161151026270424,
                0.48450981208026933,
                -2.357655245576716
            ]
        },
        {
            "positions": [
                -2.721646091903037,
                -0.8171376100599232,
                1.0227346031593474,
                0.195780583036538,
                0.49739561581149117,
                -2.1603102064766078
            ]
        },
        {
            "positions": [
                -2.7236359300083963,
                -0.8510256164561614,
                1.0773745458088557,
                0.24994965581037168,
                0.510281419542713,
                -1.9629651673764992
            ]
        },
        {
            "positions": [
                -2.7055236592107623,
                -0.8904379493107524,
                1.1251088172157504,
                0.3017905610417339,
                0.5347023550670056,
                -1.7806512443838338
            ]
        },
        {
            "positions": [
                -2.6874113884131283,
                -0.9298502821653434,
                1.1728430886226453,
                0.35363146627309616,
                0.5591232905912982,
                -1.5983373213911685
            ]
        },
        {
            "positions": [
                -2.6692991176154943,
                -0.9692626150199343,
                1.22057736002954,
                0.40547237150445836,
                0.5835442261155908,
                -1.416023398398503
            ]
        },
        {
            "positions": [
                -2.6511868468178603,
                -1.0086749478745252,
                1.2683116314364349,
                0.45731327673582056,
                0.6079651616398833,
                -1.2337094754058378
            ]
        },
        {
            "positions": [
                -2.633074576020226,
                -1.0480872807291162,
                1.3160459028433296,
                0.5091541819671828,
                0.6323860971641759,
                -1.0513955524131724
            ]
        },
        {
            "positions": [
                -2.614962305222592,
                -1.0874996135837072,
                1.3637801742502242,
                0.5609950871985451,
                0.6568070326884685,
                -0.869081629420507
            ]
        },
        {
            "positions": [
                -2.596850034424958,
                -1.1269119464382982,
                1.4115144456571191,
                0.6128359924299073,
                0.6812279682127611,
                -0.6867677064278417
            ]
        },
        {
            "positions": [
                -2.578737763627324,
                -1.1663242792928892,
                1.4592487170640138,
                0.6646768976612695,
                0.7056489037370537,
                -0.5044537834351763
            ]
        },
        {
            "positions": [
                -2.5479865861230877,
                -1.2108994434079163,
                1.50528843432161,
                0.7177004158863599,
                0.7380106281867204,
                -0.321981027765889
            ]
        },
        {
            "positions": [
                -2.517235408618851,
                -1.2554746075229437,
                1.551328151579206,
                0.7707239341114502,
                0.770372352636387,
                -0.13950827209660166
            ]
        },
        {
            "positions": [
                -2.486484231114615,
                -1.3000497716379709,
                1.597367868836802,
                0.8237474523365407,
                0.8027340770860538,
                0.042964483572685674
            ]
        },
        {
            "positions": [
                -2.4557330536103783,
                -1.3446249357529982,
                1.6434075860943982,
                0.876770970561631,
                0.8350958015357205,
                0.225437239241973
            ]
        },
        {
            "positions": [
                -2.424981876106142,
                -1.3892000998680254,
                1.6894473033519943,
                0.9297944887867214,
                0.8674575259853872,
                0.40790999491126034
            ]
        },
        {
            "positions": [
                -2.3942306986019055,
                -1.4337752639830526,
                1.7354870206095903,
                0.9828180070118118,
                0.899819250435054,
                0.5903827505805477
            ]
        },
        {
            "positions": [
                -2.3634795210976693,
                -1.47835042809808,
                1.7815267378671864,
                1.0358415252369022,
                0.9321809748847206,
                0.7728555062498349
            ]
        },
        {
            "positions": [
                -2.2918197708840675,
                -1.4948560658961987,
                1.7245870512649253,
                0.9433400576369699,
                0.8851170053820637,
                0.6685677937104458
            ]
        },
        {
            "positions": [
                -2.220160020670466,
                -1.5113617036943172,
                1.6676473646626642,
                0.8508385900370377,
                0.8380530358794067,
                0.5642800811710568
            ]
        },
        {
            "positions": [
                -2.1485002704568643,
                -1.527867341492436,
                1.610707678060403,
                0.7583371224371054,
                0.7909890663767498,
                0.4599923686316677
            ]
        },
        {
            "positions": [
                -2.0768405202432625,
                -1.5443729792905547,
                1.553767991458142,
                0.6658356548371732,
                0.7439250968740929,
                0.3557046560922787
            ]
        },
        {
            "positions": [
                -2.0051807700296607,
                -1.5608786170886735,
                1.4968283048558808,
                0.573334187237241,
                0.696861127371436,
                0.2514169435528897
            ]
        },
        {
            "positions": [
                -1.933521019816059,
                -1.577384254886792,
                1.4398886182536195,
                0.48083271963730867,
                0.649797157868779,
                0.1471292310135005
            ]
        },
        {
            "positions": [
                -1.8618612696024575,
                -1.5938898926849108,
                1.3829489316513583,
                0.3883312520373765,
                0.6027331883661221,
                0.04284151847411155
            ]
        },
        {
            "positions": [
                -1.7902015193888556,
                -1.6103955304830295,
                1.3260092450490972,
                0.29582978443744423,
                0.5556692188634651,
                -0.061446194065277515
            ]
        },
        {
            "positions": [
                -1.718541769175254,
                -1.6269011682811483,
                1.269069558446836,
                0.20332831683751196,
                0.5086052493608082,
                -0.1657339066046667
            ]
        },
        {
            "positions": [
                -1.6468820189616524,
                -1.6434068060792668,
                1.212129871844575,
                0.1108268492375798,
                0.46154127985815135,
                -0.27002161914405554
            ]
        },
        {
            "positions": [
                -1.5752222687480506,
                -1.6599124438773856,
                1.1551901852423139,
                0.01832538163764741,
                0.4144773103554944,
                -0.3743093316834446
            ]
        },
        {
            "positions": [
                -1.5035625185344488,
                -1.6764180816755043,
                1.0982504986400525,
                -0.07417608596228487,
                0.3674133408528374,
                -0.4785970442228339
            ]
        },
        {
            "positions": [
                -1.4319027683208474,
                -1.692923719473623,
                1.0413108120377916,
                -0.16667755356221692,
                0.3203493713501805,
                -0.5828847567622227
            ]
        },
        {
            "positions": [
                -1.3602430181072456,
                -1.7094293572717416,
                0.9843711254355304,
                -0.2591790211621492,
                0.2732854018475236,
                -0.6871724693016118
            ]
        },
        {
            "positions": [
                -1.2885832678936437,
                -1.7259349950698604,
                0.9274314388332692,
                -0.35168048876208147,
                0.22622143234486658,
                -0.7914601818410011
            ]
        },
        {
            "positions": [
                -1.2169235176800421,
                -1.7424406328679791,
                0.8704917522310082,
                -0.44418195636201374,
                0.17915746284220968,
                -0.8957478943803899
            ]
        },
        {
            "positions": [
                -1.1452637674664405,
                -1.7589462706660979,
                0.8135520656287469,
                -0.536683423961946,
                0.13209349333955278,
                -1.0000356069197789
            ]
        },
        {
            "positions": [
                -1.0736040172528387,
                -1.7754519084642166,
                0.7566123790264858,
                -0.6291848915618783,
                0.08502952383689577,
                -1.1043233194591684
            ]
        },
        {
            "positions": [
                -1.0019442670392371,
                -1.7919575462623352,
                0.6996726924242247,
                -0.7216863591618103,
                0.03796555433423887,
                -1.208611031998557
            ]
        },
        {
            "positions": [
                -0.9302845168256355,
                -1.808463184060454,
                0.6427330058219636,
                -0.8141878267617426,
                -0.009098415168417917,
                -1.312898744537946
            ]
        },
        {
            "positions": [
                -0.8586247666120337,
                -1.8249688218585725,
                0.5857933192197025,
                -0.9066892943616749,
                -0.05616238467107493,
                -1.4171864570773351
            ]
        },
        {
            "positions": [
                -0.7869650163984319,
                -1.8414744596566912,
                0.5288536326174413,
                -0.9991907619616074,
                -0.10322635417373183,
                -1.5214741696167242
            ]
        },
        {
            "positions": [
                -0.7153052661848303,
                -1.85798009745481,
                0.47191394601518,
                -1.0916922295615394,
                -0.15029032367638895,
                -1.6257618821561137
            ]
        },
        {
            "positions": [
                -0.6436455159712284,
                -1.8744857352529287,
                0.4149742594129189,
                -1.184193697161472,
                -0.19735429317904585,
                -1.7300495946955028
            ]
        },
        {
            "positions": [
                -0.5719857657576266,
                -1.8909913730510475,
                0.35803457281065776,
                -1.276695164761404,
                -0.24441826268170275,
                -1.8343373072348919
            ]
        },
        {
            "positions": [
                -0.5003260155440252,
                -1.907497010849166,
                0.30109488620839686,
                -1.369196632361336,
                -0.29148223218435965,
                -1.9386250197742805
            ]
        },
        {
            "positions": [
                -0.4286662653304234,
                -1.9240026486472848,
                0.24415519960613552,
                -1.4616980999612685,
                -0.33854620168701655,
                -2.0429127323136695
            ]
        },
        {
            "positions": [
                -0.3570065151168218,
                -1.9405082864454035,
                0.1872155130038744,
                -1.5541995675612006,
                -0.38561017118967345,
                -2.1472004448530586
            ]
        },
        {
            "positions": [
                -0.28534676490322,
                -1.9570139242435223,
                0.13027582640161328,
                -1.646701035161133,
                -0.43267414069233057,
                -2.2514881573924477
            ]
        },
        {
            "positions": [
                -0.21368701468961815,
                -1.9735195620416408,
                0.07333613979935194,
                -1.7392025027610651,
                -0.47973811019498747,
                -2.355775869931837
            ]
        },
        {
            "positions": [
                -0.14202726447601677,
                -1.9900251998397596,
                0.016396453197091043,
                -1.8317039703609972,
                -0.5268020796976441,
                -2.460063582471226
            ]
        },
        {
            "positions": [
                -0.07036751426241494,
                -2.0065308376378783,
                -0.040543233405170076,
                -1.9242054379609297,
                -0.5738660492003013,
                -2.564351295010615
            ]
        },
        {
            "positions": [
                0.001292235951186882,
                -2.023036475435997,
                -0.0974829200074312,
                -2.016706905560862,
                -0.6209300187029582,
                -2.668639007550004
            ]
        },
        {
            "positions": [
                0.07295198616478826,
                -2.039542113234116,
                -0.15442260660969254,
                -2.1092083731607945,
                -0.6679939882056151,
                -2.772926720089393
            ]
        },
        {
            "positions": [
                0.1446117363783901,
                -2.056047751032234,
                -0.21136229321195366,
                -2.201709840760727,
                -0.7150579577082722,
                -2.877214432628782
            ]
        },
        {
            "positions": [
                0.2162714865919919,
                -2.072553388830353,
                -0.2683019798142148,
                -2.2942113083606586,
                -0.7621219272109291,
                -2.9815021451681716
            ]
        },
        {
            "positions": [
                0.2879312368055933,
                -2.0890590266284716,
                -0.3252416664164759,
                -2.386712775960591,
                -0.8091858967135858,
                -3.08578985770756
            ]
        },
        {
            "positions": [
                0.3595909870191951,
                -2.1055646644265904,
                -0.382181353018737,
                -2.4792142435605227,
                -0.8562498662162429,
                -3.1900775702469493
            ]
        },
        {
            "positions": [
                0.43125073723279694,
                -2.122070302224709,
                -0.43912103962099813,
                -2.571715711160455,
                -0.9033138357188999,
                -3.294365282786338
            ]
        },
        {
            "positions": [
                0.37523945710229434,
                -2.0884808501869507,
                -0.6125521668323057,
                -2.5427752655407976,
                -0.8367945177987962,
                -3.27387312904997
            ]
        },
        {
            "positions": [
                0.31922817697179173,
                -2.0548913981491923,
                -0.7859832940436133,
                -2.51383481992114,
                -0.7702751998786926,
                -3.2533809753136014
            ]
        },
        {
            "positions": [
                0.2632168968412891,
                -2.021301946111434,
                -0.9594144212549208,
                -2.484894374301483,
                -0.703755881958589,
                -3.2328888215772333
            ]
        },
        {
            "positions": [
                0.20720561671078647,
                -1.9877124940736755,
                -1.1328455484662285,
                -2.4559539286818253,
                -0.6372365640384854,
                -3.212396667840865
            ]
        },
        {
            "positions": [
                0.15119433658028386,
                -1.954123042035917,
                -1.306276675677536,
                -2.4270134830621677,
                -0.5707172461183817,
                -3.191904514104497
            ]
        },
        {
            "positions": [
                0.09518305644978126,
                -1.9205335899981588,
                -1.4797078028888435,
                -2.39807303744251,
                -0.504197928198278,
                -3.1714123603681283
            ]
        },
        {
            "positions": [
                0.03917177631927865,
                -1.8869441379604004,
                -1.6531389301001511,
                -2.3691325918228525,
                -0.4376786102781744,
                -3.1509202066317603
            ]
        },
        {
            "positions": [
                -0.01683950381122401,
                -1.853354685922642,
                -1.8265700573114587,
                -2.340192146203195,
                -0.37115929235807077,
                -3.130428052895392
            ]
        },
        {
            "positions": [
                -0.07285078394172662,
                -1.8197652338848835,
                -2.000001184522766,
                -2.311251700583538,
                -0.3046399744379671,
                -3.109935899159024
            ]
        },
        {
            "positions": [
                -0.12886206407222922,
                -1.786175781847125,
                -2.1734323117340737,
                -2.28231125496388,
                -0.23812065651786352,
                -3.0894437454226553
            ]
        },
        {
            "positions": [
                -0.18487334420273185,
                -1.7525863298093667,
                -2.3468634389453813,
                -2.2533708093442226,
                -0.17160133859775983,
                -3.0689515916862873
            ]
        }
    ]
}