{
    "goal": {
        "global_pose": {
            "orientation": {
                "w": -0.4816463035849501,
                "x": 0.5182115481033762,
                "y": 0.4908360881923453,
                "z": -0.5084816262002911
            },
            "position": {
                "x": -0.8240239810943604,
                "y": -0.300875300988555,
                "z": 0.16403168439865112
            }
        },
        "name": "move_to_storage_C"
    },
    "id": "STRIDE_move_to_storage_C_20",
    "joint_names": [
        "shoulder_pan_joint",
        "shoulder_lift_joint",
        "elbow_joint",
        "wrist_1_joint",
        "wrist_2_joint",
        "wrist_3_joint"
    ],
    "metrics": {
        "cart_traj_len": 0.5766495733515464,
        "distance_elbow_joint": 0.26051364558927204,
        "distance_shoulder_lift_joint": 0.18965476758975897,
        "distance_shoulder_pan_joint": 0.49492081979961355,
        "distance_wrist_1_joint": 0.08865380929122668,
        "distance_wrist_2_joint": 1.0655237894268912,
        "distance_wrist_3_joint": 0.06680655827997262,
        "smoothness": 0.0,
        "time": 0.034465584,
        "traj_len": 1.4717586045193467,
        "weighted_distance": 1.858457453173141
    },
    "planner": "STRIDE",
    "start": {
        "state": {
            "elbow_joint": 2.010868314990456,
            "shoulder_lift_joint": -1.1634956873337592,
            "shoulder_pan_joint": -2.4736205022346125,
            "wrist_1_joint": -0.8367026794202681,
            "wrist_2_joint": 0.6746043897044499,
            "wrist_3_joint": -3.1496632123970403
        }
    },
    "waypoints": [
        {
            "positions": [
                -2.4736205022346125,
                -1.1634956873337592,
                2.010868314990456,
                -0.8367026794202681,
                0.6746043897044499,
                -3.1496632123970403
            ]
        },
        {
            "positions": [
                -2.5561073055345482,
                -1.1318865594021328,
                1.9674493740589105,
                -0.821927044538397,
                0.8521916879422651,
                -3.1385287860170448
            ]
        },
        {
            "positions": [
                -2.6385941088344835,
                -1.1002774314705062,
                1.9240304331273652,
                -0.8071514096565259,
                1.0297789861800803,
                -3.1273943596370493
            ]
        },
        {
            "positions": [
                -2.7210809121344193,
                -1.0686683035388798,
                1.8806114921958197,
                -0.7923757747746547,
                1.2073662844178954,
                -3.116259933257054
            ]
        },
        {
            "positions": [
                -2.803567715434355,
                -1.0370591756072531,
                1.8371925512642744,
                -0.7776001398927836,
                1.3849535826557107,
                -3.1051255068770587
            ]
        },
        {
            "positions": [
                -2.8860545187342903,
                -1.0054500476756267,
                1.793773610332729,
                -0.7628245050109126,
                1.562540880893526,
                -3.093991080497063
            ]
        },
        {
            "positions": [
                -2.968541322034226,
                -0.9738409197440002,
                1.7503546694011838,
                -0.7480488701290414,
                1.740128179131341,
                -3.0828566541170677
            ]
        }
    ]
}