{
    "goal": {
        "global_pose": {
            "orientation": {
                "w": 0.5084816262002911,
                "x": -0.4908360881923452,
                "y": 0.5182115481033761,
                "z": -0.48164630358495003
            },
            "position": {
                "x": 0.5540239810943604,
                "y": -0.46912469901144505,
                "z": 0.16403168439865112
            }
        },
        "name": "move_to_storage_B"
    },
    "id": "STRIDE_move_to_storage_B_85",
    "joint_names": [
        "shoulder_pan_joint",
        "shoulder_lift_joint",
        "elbow_joint",
        "wrist_1_joint",
        "wrist_2_joint",
        "wrist_3_joint"
    ],
    "metrics": {
        "cart_traj_len": 0.7287926930191252,
        "distance_elbow_joint": 0.3532584922214683,
        "distance_shoulder_lift_joint": 0.45882055912980113,
        "distance_shoulder_pan_joint": 0.4836911878502058,
        "distance_wrist_1_joint": 3.0073537867501132,
        "distance_wrist_2_joint": 2.6995823128653424,
        "distance_wrist_3_joint": 3.269503576421288,
        "smoothness": 0.20437729847103508,
        "time": 0.116281385,
        "traj_len": 3.2050288478012514,
        "weighted_distance": 4.7453296163381795
    },
    "planner": "STRIDE",
    "start": {
        "state": {
            "elbow_joint": 1.664937868594044,
            "shoulder_lift_joint": -0.661644460510453,
            "shoulder_pan_joint": -0.9139846352900073,
            "wrist_1_joint": 2.146753192139373,
            "wrist_2_joint": -2.2341966793290973,
            "wrist_3_joint": 0.005466555786416001
        }
    },
    "waypoints": [
        {
            "positions": [
                -0.9139846352900073,
                -0.661644460510453,
                1.664937868594044,
                2.146753192139373,
                -2.2341966793290973,
                0.005466555786416001
            ]
        },
        {
            "positions": [
                -0.8386937302260118,
                -0.6770981840501795,
                1.6880884074716362,
                2.138606222654714,
                -2.158537513378063,
                0.042823369782323845
            ]
        },
        {
            "positions": [
                -0.7634028251620164,
                -0.692551907589906,
                1.7112389463492286,
                2.130459253170055,
                -2.082878347427029,
                0.08018018377823169
            ]
        },
        {
            "positions": [
                -0.776727200270905,
                -0.70966843207192,
                1.72351724292788,
                2.010816859258823,
                -1.980947788188498,
                -0.04761141415894718
            ]
        },
        {
            "positions": [
                -0.7900515753797936,
                -0.7267849565539339,
                1.7357955395065312,
                1.8911744653475913,
                -1.8790172289499671,
                -0.17540301209612605
            ]
        },
        {
            "positions": [
                -0.8033759504886822,
                -0.7439014810359478,
                1.7480738360851826,
                1.7715320714363594,
                -1.777086669711436,
                -0.30319461003330495
            ]
        },
        {
            "positions": [
                -0.8167003255975708,
                -0.7610180055179617,
                1.760352132663834,
                1.6518896775251277,
                -1.6751561104729051,
                -0.4309862079704838
            ]
        },
        {
            "positions": [
                -0.8300247007064594,
                -0.7781345299999757,
                1.7726304292424853,
                1.5322472836138958,
                -1.573225551234374,
                -0.5587778059076628
            ]
        },
        {
            "positions": [
                -0.843349075815348,
                -0.7952510544819895,
                1.7849087258211367,
                1.412604889702664,
                -1.4712949919958431,
                -0.6865694038448416
            ]
        },
        {
            "positions": [
                -0.8566734509242366,
                -0.8123675789640035,
                1.797187022399788,
                1.292962495791432,
                -1.3693644327573122,
                -0.8143610017820205
            ]
        },
        {
            "positions": [
                -0.8699978260331251,
                -0.8294841034460174,
                1.8094653189784393,
                1.1733201018802004,
                -1.2674338735187813,
                -0.9421525997191993
            ]
        },
        {
            "positions": [
                -0.8833222011420138,
                -0.8466006279280314,
                1.8217436155570907,
                1.0536777079689688,
                -1.1655033142802504,
                -1.0699441976563782
            ]
        },
        {
            "positions": [
                -0.8966465762509024,
                -0.8637171524100453,
                1.834021912135742,
                0.9340353140577369,
                -1.0635727550417193,
                -1.1977357955935573
            ]
        },
        {
            "positions": [
                -0.909970951359791,
                -0.8808336768920592,
                1.8463002087143934,
                0.814392920146505,
                -0.9616421958031884,
                -1.325527393530736
            ]
        },
        {
            "positions": [
                -0.9232953264686796,
                -0.8979502013740731,
                1.8585785052930448,
                0.6947505262352733,
                -0.8597116365646575,
                -1.4533189914679148
            ]
        },
        {
            "positions": [
                -0.9366197015775681,
                -0.9150667258560871,
                1.870856801871696,
                0.5751081323240415,
                -0.7577810773261267,
                -1.5811105894050939
            ]
        },
        {
            "positions": [
                -0.9499440766864568,
                -0.932183250338101,
                1.8831350984503474,
                0.4554657384128096,
                -0.6558505180875955,
                -1.7089021873422727
            ]
        },
        {
            "positions": [
                -0.9632684517953454,
                -0.9492997748201149,
                1.8954133950289989,
                0.3358233445015779,
                -0.5539199588490649,
                -1.8366937852794514
            ]
        },
        {
            "positions": [
                -0.976592826904234,
                -0.9664162993021288,
                1.90769169160765,
                0.21618095059034603,
                -0.45198939961053375,
                -1.9644853832166302
            ]
        },
        {
            "positions": [
                -0.9899172020131226,
                -0.9835328237841428,
                1.9199699881863015,
                0.09653855667911415,
                -0.35005884037200263,
                -2.0922769811538093
            ]
        },
        {
            "positions": [
                -1.0032415771220111,
                -1.0006493482661567,
                1.932248284764953,
                -0.023103837232117286,
                -0.24812828113347196,
                -2.220068579090988
            ]
        },
        {
            "positions": [
                -1.0165659522308998,
                -1.0177658727481707,
                1.9445265813436041,
                -0.14274623114334917,
                -0.14619772189494085,
                -2.347860177028167
            ]
        },
        {
            "positions": [
                -1.0298903273397884,
                -1.0348823972301846,
                1.9568048779222555,
                -0.26238862505458105,
                -0.04426716265640973,
                -2.475651774965346
            ]
        },
        {
            "positions": [
                -1.0432147024486769,
                -1.0519989217121983,
                1.969083174500907,
                -0.38203101896581293,
                0.05766339658212072,
                -2.603443372902525
            ]
        },
        {
            "positions": [
                -1.0565390775575656,
                -1.0691154461942123,
                1.9813614710795582,
                -0.5016734128770448,
                0.15959395582065206,
                -2.7312349708397035
            ]
        },
        {
            "positions": [
                -1.069863452666454,
                -1.0862319706762262,
                1.9936397676582096,
                -0.6213158067882767,
                0.26152451505918295,
                -2.8590265687768825
            ]
        },
        {
            "positions": [
                -1.0831878277753426,
                -1.1033484951582402,
                2.005918064236861,
                -0.7409582006995081,
                0.36345507429771384,
                -2.986818166714061
            ]
        },
        {
            "positions": [
                -1.0965122028842313,
                -1.1204650196402541,
                2.0181963608155122,
                -0.86060059461074,
                0.4653856335362449,
                -3.1146097646512403
            ]
        }
    ]
}