{
    "goal": {
        "global_pose": {
            "orientation": {
                "w": 0.5084816217422485,
                "x": -0.49083608388900757,
                "y": 0.5182115435600281,
                "z": -0.4816462993621826
            },
            "position": {
                "x": 0.5540239810943604,
                "y": 0.030875300988554955,
                "z": 0.16403168439865112
            }
        },
        "name": "move_to_storage_A"
    },
    "id": "STRIDE_move_to_storage_A_77",
    "joint_names": [
        "shoulder_pan_joint",
        "shoulder_lift_joint",
        "elbow_joint",
        "wrist_1_joint",
        "wrist_2_joint",
        "wrist_3_joint"
    ],
    "metrics": {
        "cart_traj_len": 0.3537037006938592,
        "distance_elbow_joint": 0.4518519449361065,
        "distance_shoulder_lift_joint": 0.23447647319698572,
        "distance_shoulder_pan_joint": 0.4605844491285106,
        "distance_wrist_1_joint": 0.24551414083767187,
        "distance_wrist_2_joint": 1.109068111022922,
        "distance_wrist_3_joint": 0.09342559316780852,
        "smoothness": 6.661338165333112e-16,
        "time": 0.217060029,
        "traj_len": 1.6108757594209446,
        "weighted_distance": 2.033802878964974
    },
    "planner": "STRIDE",
    "start": {
        "state": {
            "elbow_joint": 1.971548259319323,
            "shoulder_lift_joint": -1.1394851275133948,
            "shoulder_pan_joint": 0.1228115487234821,
            "wrist_1_joint": -0.7804723859257726,
            "wrist_2_joint": 0.12958671773740124,
            "wrist_3_joint": -3.192489227718131
        }
    },
    "waypoints": [
        {
            "positions": [
                0.1228115487234821,
                -1.1394851275133948,
                1.971548259319323,
                -0.7804723859257726,
                0.12958671773740124,
                -3.192489227718131
            ]
        },
        {
            "positions": [
                0.05701377027655202,
                -1.1729817665415356,
                2.036098537167338,
                -0.8155458346168686,
                0.28802501931210434,
                -3.179142714408444
            ]
        },
        {
            "positions": [
                -0.008784008170378055,
                -1.2064784055696764,
                2.1006488150153535,
                -0.8506192833079645,
                0.4464633208868075,
                -3.1657962010987575
            ]
        },
        {
            "positions": [
                -0.07458178661730813,
                -1.2399750445978173,
                2.1651990928633684,
                -0.8856927319990605,
                0.6049016224615106,
                -3.1524496877890704
            ]
        },
        {
            "positions": [
                -0.1403795650642382,
                -1.273471683625958,
                2.229749370711384,
                -0.9207661806901566,
                0.7633399240362138,
                -3.1391031744793834
            ]
        },
        {
            "positions": [
                -0.20617734351116834,
                -1.306968322654099,
                2.294299648559399,
                -0.9558396293812526,
                0.9217782256109169,
                -3.1257566611696963
            ]
        },
        {
            "positions": [
                -0.27197512195809836,
                -1.3404649616822397,
                2.358849926407414,
                -0.9909130780723485,
                1.08021652718562,
                -3.1124101478600097
            ]
        },
        {
            "positions": [
                -0.3377729004050285,
                -1.3739616007103805,
                2.4234002042554295,
                -1.0259865267634445,
                1.2386548287603232,
                -3.0990636345503226
            ]
        }
    ]
}{
    "goal": {
        "global_pose": {
            "orientation": {
                "w": 0.5084816217422485,
                "x": -0.49083608388900757,
                "y": 0.5182115435600281,
                "z": -0.4816462993621826
            },
            "position": {
                "x": 0.5540239810943604,
                "y": 0.030875300988554955,
                "z": 0.16403168439865112
            }
        },
        "name": "move_to_storage_A"
    },
    "id": "STRIDE_move_to_storage_A_77",
    "joint_names": [
        "shoulder_pan_joint",
        "shoulder_lift_joint",
        "elbow_joint",
        "wrist_1_joint",
        "wrist_2_joint",
        "wrist_3_joint"
    ],
    "metrics": {
        "cart_traj_len": 0.35350915683031314,
        "distance_elbow_joint": 0.4501375920111621,
        "distance_shoulder_lift_joint": 0.23224758234518195,
        "distance_shoulder_pan_joint": 0.46000953941099193,
        "distance_wrist_1_joint": 0.2458457459189849,
        "distance_wrist_2_joint": 1.1084006404728108,
        "distance_wrist_3_joint": 0.09320008304682181,
        "smoothness": 2.2204460668324854e-16,
        "time": 0.043152097,
        "traj_len": 1.6092983512096053,
        "weighted_distance": 2.0323601392694632
    },
    "planner": "STRIDE",
    "start": {
        "state": {
            "elbow_joint": 1.97154746011099,
            "shoulder_lift_joint": -1.13948474672311,
            "shoulder_pan_joint": 0.12281154466712228,
            "wrist_1_joint": -0.7804688027058302,
            "wrist_2_joint": 0.12958655903071145,
            "wrist_3_joint": 3.0906928834467795
        }
    },
    "waypoints": [
        {
            "positions": [
                0.12281154466712228,
                -1.13948474672311,
                1.97154746011099,
                -0.7804688027058302,
                0.12958655903071145,
                3.0906928834467795
            ]
        },
        {
            "positions": [
                0.05709589617983772,
                -1.1726629727724216,
                2.035852830398299,
                -0.8155896235513994,
                0.2879295076696844,
                3.104007181024897
            ]
        },
        {
            "positions": [
                -0.00861975230744684,
                -1.2058411988217335,
                2.1001582006856077,
                -0.8507104443969687,
                0.4462724563086574,
                3.117321478603014
            ]
        },
        {
            "positions": [
                -0.0743354007947314,
                -1.239019424871045,
                2.1644635709729165,
                -0.885831265242538,
                0.6046154049476303,
                3.1306357761811316
            ]
        },
        {
            "positions": [
                -0.14005104928201595,
                -1.2721976509203567,
                2.2287689412602254,
                -0.9209520860881073,
                0.7629583535866034,
                3.143950073759249
            ]
        },
        {
            "positions": [
                -0.2057666977693005,
                -1.3053758769696686,
                2.2930743115475343,
                -0.9560729069336765,
                0.9213013022255764,
                3.1572643713373667
            ]
        },
        {
            "positions": [
                -0.27148234625658507,
                -1.3385541030189803,
                2.357379681834843,
                -0.9911937277792457,
                1.0796442508645492,
                3.170578668915484
            ]
        },
        {
            "positions": [
                -0.33719799474386963,
                -1.371732329068292,
                2.421685052122152,
                -1.026314548624815,
                1.2379871995035223,
                3.1838929664936013
            ]
        }
    ]
}{
    "goal": {
        "global_pose": {
            "orientation": {
                "w": 0.5084816217422485,
                "x": -0.49083608388900757,
                "y": 0.5182115435600281,
                "z": -0.4816462993621826
            },
            "position": {
                "x": 0.5540239810943604,
                "y": 0.030875300988554955,
                "z": 0.16403168439865112
            }
        },
        "name": "move_to_storage_A"
    },
    "id": "STRIDE_move_to_storage_A_77",
    "joint_names": [
        "shoulder_pan_joint",
        "shoulder_lift_joint",
        "elbow_joint",
        "wrist_1_joint",
        "wrist_2_joint",
        "wrist_3_joint"
    ],
    "metrics": {
        "cart_traj_len": 0.3523540247778044,
        "distance_elbow_joint": 0.4473597833882219,
        "distance_shoulder_lift_joint": 0.234666998207667,
        "distance_shoulder_pan_joint": 0.45997264834847784,
        "distance_wrist_1_joint": 0.2357806637139157,
        "distance_wrist_2_joint": 1.1002680356164407,
        "distance_wrist_3_joint": 0.0919329355415428,
        "smoothness": 4.440892133664971e-16,
        "time": 0.091347202,
        "traj_len": 1.603116048455715,
        "weighted_distance": 2.0223490389222403
    },
    "planner": "STRIDE",
    "start": {
        "state": {
            "elbow_joint": 1.9715472970024885,
            "shoulder_lift_joint": -1.1394870060712896,
            "shoulder_pan_joint": 0.12281152778156021,
            "wrist_1_joint": -0.780463741449964,
            "wrist_2_joint": 0.12958659822042276,
            "wrist_3_joint": 3.090690232415272
        }
    },
    "waypoints": [
        {
            "positions": [
                0.12281152778156021,
                -1.1394870060712896,
                1.9715472970024885,
                -0.780463741449964,
                0.12958659822042276,
                3.090690232415272
            ]
        },
        {
            "positions": [
                0.057101149446063384,
                -1.173010862958099,
                2.0354558374865204,
                -0.8141466934090948,
                0.28676774616562856,
                3.1038235089212067
            ]
        },
        {
            "positions": [
                -0.00860922888943344,
                -1.2065347198449088,
                2.0993643779705518,
                -0.8478296453682256,
                0.4439488941108344,
                3.116956785427141
            ]
        },
        {
            "positions": [
                -0.07431960722493028,
                -1.2400585767317183,
                2.1632729184545836,
                -0.8815125973273564,
                0.6011300420560401,
                3.130090061933076
            ]
        },
        {
            "positions": [
                -0.1400299855604271,
                -1.273582433618528,
                2.2271814589386154,
                -0.9151955492864873,
                0.7583111900012459,
                3.1432233384390105
            ]
        },
        {
            "positions": [
                -0.20574036389592396,
                -1.3071062905053374,
                2.2910899994226472,
                -0.948878501245618,
                0.9154923379464518,
                3.1563566149449453
            ]
        },
        {
            "positions": [
                -0.27145074223142074,
                -1.340630147392147,
                2.3549985399066786,
                -0.9825614532047489,
                1.0726734858916576,
                3.16948989145088
            ]
        },
        {
            "positions": [
                -0.3371611205669176,
                -1.3741540042789566,
                2.4189070803907105,
                -1.0162444051638797,
                1.2298546338368634,
                3.1826231679568147
            ]
        }
    ]
}