{
    "goal": {
        "global_pose": {
            "orientation": {
                "w": 0.7031023502349854,
                "x": -0.7110244035720825,
                "y": 0.007748599164187908,
                "z": 0.005598929710686207
            },
            "position": {
                "x": 0.11585023208521307,
                "y": 0.44412534475326537,
                "z": 0.3711530566215515
            }
        },
        "name": "move_to_auspresseinheit_A"
    },
    "id": "STRIDE_move_to_auspresseinheit_A_16",
    "joint_names": [
        "shoulder_pan_joint",
        "shoulder_lift_joint",
        "elbow_joint",
        "wrist_1_joint",
        "wrist_2_joint",
        "wrist_3_joint"
    ],
    "metrics": {
        "cart_traj_len": 1.2534050271883042,
        "distance_elbow_joint": 1.1431883587973197,
        "distance_shoulder_lift_joint": 0.6022928162070649,
        "distance_shoulder_pan_joint": 1.0411433122230838,
        "distance_wrist_1_joint": 3.107869418885371,
        "distance_wrist_2_joint": 2.8734157175596757,
        "distance_wrist_3_joint": 5.316294635918819,
        "smoothness": 0.7938304715271572,
        "time": 0.25032889,
        "traj_len": 3.7528927855177705,
        "weighted_distance": 5.540584686463516
    },
    "planner": "STRIDE",
    "start": {
        "state": {
            "elbow_joint": 2.4225746658250005,
            "shoulder_lift_joint": -1.3736534386056498,
            "shoulder_pan_joint": -0.3378633547517467,
            "wrist_1_joint": -1.0288598680537169,
            "wrist_2_joint": 1.233022673432363,
            "wrist_3_joint": -3.0940220416140027
        }
    },
    "waypoints": [
        {
            "positions": [
                -0.3378633547517467,
                -1.3736534386056498,
                2.4225746658250005,
                -1.0288598680537169,
                1.233022673432363,
                -3.0940220416140027
            ]
        },
        {
            "positions": [
                -0.3075055160554582,
                -1.4007660082465772,
                2.3947273986292634,
                -0.941674694763238,
                1.1520062157213324,
                -2.9682082389198827
            ]
        },
        {
            "positions": [
                -0.2771476773591696,
                -1.4278785778875045,
                2.3668801314335264,
                -0.8544895214727591,
                1.070989758010302,
                -2.842394436225763
            ]
        },
        {
            "positions": [
                -0.2467898386628811,
                -1.454991147528432,
                2.3390328642377898,
                -0.7673043481822802,
                0.9899733002992714,
                -2.716580633531643
            ]
        },
        {
            "positions": [
                -0.21643199996659257,
                -1.4821037171693594,
                2.3111855970420527,
                -0.6801191748918014,
                0.9089568425882408,
                -2.590766830837523
            ]
        },
        {
            "positions": [
                -0.18607416127030402,
                -1.5092162868102867,
                2.2833383298463157,
                -0.5929340016013225,
                0.8279403848772103,
                -2.4649530281434036
            ]
        },
        {
            "positions": [
                -0.15571632257401546,
                -1.536328856451214,
                2.2554910626505786,
                -0.5057488283108436,
                0.7469239271661798,
                -2.3391392254492835
            ]
        },
        {
            "positions": [
                -0.1253584838777269,
                -1.5634414260921414,
                2.227643795454842,
                -0.41856365502036463,
                0.6659074694551492,
                -2.2133254227551635
            ]
        },
        {
            "positions": [
                -0.09500064518143839,
                -1.5905539957330688,
                2.199796528259105,
                -0.3313784817298858,
                0.5848910117441187,
                -2.0875116200610435
            ]
        },
        {
            "positions": [
                -0.06464280648514986,
                -1.6176665653739963,
                2.171949261063368,
                -0.2441933084394069,
                0.5038745540330882,
                -1.9616978173669237
            ]
        },
        {
            "positions": [
                -0.03428496778886131,
                -1.6447791350149237,
                2.144101993867631,
                -0.15700813514892797,
                0.4228580963220576,
                -1.835884014672804
            ]
        },
        {
            "positions": [
                -0.003927129092572701,
                -1.671891704655851,
                2.1162547266718943,
                -0.06982296185844905,
                0.341841638611027,
                -1.710070211978684
            ]
        },
        {
            "positions": [
                0.026430709603715796,
                -1.6990042742967784,
                2.0884074594761572,
                0.01736221143202976,
                0.2608251808999965,
                -1.5842564092845641
            ]
        },
        {
            "positions": [
                0.05678854830000435,
                -1.7261168439377057,
                2.06056019228042,
                0.10454738472250868,
                0.179808723188966,
                -1.4584426065904441
            ]
        },
        {
            "positions": [
                0.0871463869962929,
                -1.7532294135786333,
                2.032712925084683,
                0.1917325580129876,
                0.0987922654779354,
                -1.3326288038963243
            ]
        },
        {
            "positions": [
                0.11750422569258145,
                -1.7803419832195606,
                2.0048656578889466,
                0.27891773130346653,
                0.017775807766904794,
                -1.2068150012022043
            ]
        },
        {
            "positions": [
                0.14786206438886995,
                -1.807454552860488,
                1.9770183906932095,
                0.36610290459394523,
                -0.0632406499441256,
                -1.0810011985080847
            ]
        },
        {
            "positions": [
                0.1782199030851585,
                -1.8345671225014153,
                1.9491711234974725,
                0.4532880778844244,
                -0.1442571076551562,
                -0.9551873958139647
            ]
        },
        {
            "positions": [
                0.208577741781447,
                -1.8616796921423426,
                1.9213238563017354,
                0.5404732511749031,
                -0.2252735653661866,
                -0.8293735931198447
            ]
        },
        {
            "positions": [
                0.2389355804777356,
                -1.8887922617832702,
                1.8934765891059986,
                0.627658424465382,
                -0.3062900230772174,
                -0.7035597904257247
            ]
        },
        {
            "positions": [
                0.2692934191740241,
                -1.9159048314241973,
                1.8656293219102618,
                0.7148435977558609,
                -0.3873064807882478,
                -0.5777459877316051
            ]
        },
        {
            "positions": [
                0.29965125787031266,
                -1.9430174010651249,
                1.8377820547145247,
                0.8020287710463399,
                -0.4683229384992784,
                -0.45193218503748506
            ]
        },
        {
            "positions": [
                0.324389549529463,
                -1.9410562570099923,
                1.8771155620214852,
                0.721926850937675,
                -0.3947208586617471,
                -0.623289120646457
            ]
        },
        {
            "positions": [
                0.3491278411886133,
                -1.93909511295486,
                1.9164490693284457,
                0.64182493082901,
                -0.3211187788242158,
                -0.7946460562554291
            ]
        },
        {
            "positions": [
                0.3738661328477636,
                -1.9371339688997273,
                1.9557825766354062,
                0.5617230107203453,
                -0.24751669898668444,
                -0.9660029918644011
            ]
        },
        {
            "positions": [
                0.39860442450691397,
                -1.9351728248445947,
                1.9951160839423667,
                0.4816210906116803,
                -0.17391461914915313,
                -1.137359927473373
            ]
        },
        {
            "positions": [
                0.4233427161660643,
                -1.9332116807894624,
                2.0344495912493272,
                0.4015191705030154,
                -0.1003125393116217,
                -1.3087168630823451
            ]
        },
        {
            "positions": [
                0.4480810078252146,
                -1.9312505367343298,
                2.0737830985562877,
                0.32141725039435054,
                -0.026710459474090453,
                -1.480073798691317
            ]
        },
        {
            "positions": [
                0.47281929948436496,
                -1.9292893926791972,
                2.1131166058632482,
                0.24131533028568564,
                0.04689162036344097,
                -1.6514307343002892
            ]
        },
        {
            "positions": [
                0.4975575911435153,
                -1.9273282486240648,
                2.1524501131702087,
                0.16121341017702073,
                0.12049370020097216,
                -1.822787669909261
            ]
        },
        {
            "positions": [
                0.5222958828026656,
                -1.9253671045689322,
                2.1917836204771692,
                0.08111149006835583,
                0.19409578003850356,
                -1.9941446055182332
            ]
        },
        {
            "positions": [
                0.5481507506124758,
                -1.9231844535330183,
                2.2209827893234833,
                0.0016738473815941651,
                0.2669031210513968,
                -2.1558577996413124
            ]
        },
        {
            "positions": [
                0.574005618422286,
                -1.9210018024971045,
                2.2501819581697977,
                -0.0777637953051675,
                0.33971046206429,
                -2.317570993764391
            ]
        },
        {
            "positions": [
                0.5998604862320962,
                -1.9188191514611905,
                2.2793811270161117,
                -0.15720143799192915,
                0.4125178030771832,
                -2.4792841878874703
            ]
        },
        {
            "positions": [
                0.6257153540419064,
                -1.9166365004252768,
                2.308580295862426,
                -0.23663908067869083,
                0.48532514409007643,
                -2.6409973820105495
            ]
        },
        {
            "positions": [
                0.6515702218517165,
                -1.9144538493893628,
                2.33777946470874,
                -0.3160767233654525,
                0.5581324851029696,
                -2.802710576133628
            ]
        },
        {
            "positions": [
                0.6774250896615268,
                -1.912271198353449,
                2.3669786335550547,
                -0.39551436605221413,
                0.6309398261158629,
                -2.9644237702567073
            ]
        },
        {
            "positions": [
                0.703279957471337,
                -1.910088547317535,
                2.3961778024013687,
                -0.47495200873897586,
                0.7037471671287561,
                -3.1261369643797865
            ]
        }
    ]
}