{
    "goal": {
        "global_pose": {
            "orientation": {
                "w": -0.4816463035849501,
                "x": 0.5182115481033762,
                "y": 0.4908360881923453,
                "z": -0.5084816262002911
            },
            "position": {
                "x": -0.8240239810943604,
                "y": 0.19912469901144506,
                "z": 0.16403168439865112
            }
        },
        "name": "move_to_storage_D"
    },
    "id": "STRIDE_move_to_storage_D_24",
    "joint_names": [
        "shoulder_pan_joint",
        "shoulder_lift_joint",
        "elbow_joint",
        "wrist_1_joint",
        "wrist_2_joint",
        "wrist_3_joint"
    ],
    "metrics": {
        "cart_traj_len": 0.5853493122588518,
        "distance_elbow_joint": 0.5551878918719175,
        "distance_shoulder_lift_joint": 0.2223288675326791,
        "distance_shoulder_pan_joint": 0.15155410540794997,
        "distance_wrist_1_joint": 3.8250194897801153,
        "distance_wrist_2_joint": 1.7770522342708024,
        "distance_wrist_3_joint": 3.1249556080757297,
        "smoothness": 0.00532182099671431,
        "time": 0.148507672,
        "traj_len": 3.107426297909444,
        "weighted_distance": 4.637680577308184
    },
    "planner": "STRIDE",
    "start": {
        "state": {
            "elbow_joint": -2.384821988534728,
            "shoulder_lift_joint": -2.2788054721415256,
            "shoulder_pan_joint": -0.1854694642142757,
            "wrist_1_joint": 1.4845938289331202,
            "wrist_2_joint": 0.17898776772866878,
            "wrist_3_joint": 0.037105688729662994
        }
    },
    "waypoints": [
        {
            "positions": [
                -0.1854694642142757,
                -2.2788054721415256,
                -2.384821988534728,
                1.4845938289331202,
                0.17898776772866878,
                0.037105688729662994
            ]
        },
        {
            "positions": [
                -0.14038967819267567,
                -2.216560109211747,
                -2.381852589902355,
                1.3697139849189668,
                0.09349642810080423,
                -0.01246154175268855
            ]
        },
        {
            "positions": [
                -0.09530989217107566,
                -2.154314746281969,
                -2.3788831912699817,
                1.2548341409048136,
                0.008005088472939681,
                -0.062028772235040094
            ]
        },
        {
            "positions": [
                -0.05023010614947564,
                -2.0920693833521904,
                -2.3759137926376086,
                1.1399542968906602,
                -0.07748625115492487,
                -0.11159600271739166
            ]
        },
        {
            "positions": [
                -0.049488526724787006,
                -2.093687236931433,
                -2.3510828973660267,
                0.981755207902585,
                -0.1466034427634344,
                -0.24688027165505871
            ]
        },
        {
            "positions": [
                -0.04874694730009838,
                -2.095305090510676,
                -2.3262520020944453,
                0.8235561189145097,
                -0.2157206343719439,
                -0.38216454059272575
            ]
        },
        {
            "positions": [
                -0.04800536787540975,
                -2.0969229440899193,
                -2.3014211068228634,
                0.6653570299264346,
                -0.2848378259804534,
                -0.5174488095303927
            ]
        },
        {
            "positions": [
                -0.04726378845072112,
                -2.098540797669162,
                -2.2765902115512815,
                0.5071579409383593,
                -0.3539550175889629,
                -0.6527330784680598
            ]
        },
        {
            "positions": [
                -0.0465222090260325,
                -2.100158651248405,
                -2.2517593162797,
                0.3489588519502842,
                -0.4230722091974724,
                -0.7880173474057269
            ]
        },
        {
            "positions": [
                -0.04578062960134387,
                -2.1017765048276478,
                -2.226928421008118,
                0.19075976296220898,
                -0.4921894008059819,
                -0.9233016163433939
            ]
        },
        {
            "positions": [
                -0.045039050176655236,
                -2.1033943584068906,
                -2.2020975257365363,
                0.03256067397413376,
                -0.5613065924144914,
                -1.058585885281061
            ]
        },
        {
            "positions": [
                -0.044297470751966606,
                -2.1050122119861334,
                -2.177266630464955,
                -0.12563841501394157,
                -0.630423784023001,
                -1.193870154218728
            ]
        },
        {
            "positions": [
                -0.04355589132727798,
                -2.1066300655653767,
                -2.152435735193373,
                -0.2838375040020167,
                -0.6995409756315105,
                -1.3291544231563952
            ]
        },
        {
            "positions": [
                -0.04281431190258935,
                -2.1082479191446195,
                -2.127604839921791,
                -0.4420365929900918,
                -0.76865816724002,
                -1.4644386920940622
            ]
        },
        {
            "positions": [
                -0.04207273247790072,
                -2.1098657727238623,
                -2.1027739446502096,
                -0.6002356819781671,
                -0.8377753588485295,
                -1.5997229610317292
            ]
        },
        {
            "positions": [
                -0.0413311530532121,
                -2.111483626303105,
                -2.0779430493786277,
                -0.7584347709662422,
                -0.906892550457039,
                -1.7350072299693962
            ]
        },
        {
            "positions": [
                -0.040589573628523466,
                -2.113101479882348,
                -2.053112154107046,
                -0.9166338599543178,
                -0.9760097420655486,
                -1.8702914989070634
            ]
        },
        {
            "positions": [
                -0.039847994203834836,
                -2.1147193334615912,
                -2.0282812588354644,
                -1.0748329489423927,
                -1.0451269336740578,
                -2.0055757678447304
            ]
        },
        {
            "positions": [
                -0.03910641477914621,
                -2.116337187040834,
                -2.0034503635638825,
                -1.233032037930468,
                -1.1142441252825674,
                -2.140860036782397
            ]
        },
        {
            "positions": [
                -0.03836483535445758,
                -2.117955040620077,
                -1.9786194682923008,
                -1.3912311269185433,
                -1.183361316891077,
                -2.2761443057200643
            ]
        },
        {
            "positions": [
                -0.03762325592976895,
                -2.1195728941993197,
                -1.9537885730207192,
                -1.5494302159066182,
                -1.2524785084995864,
                -2.4114285746577315
            ]
        },
        {
            "positions": [
                -0.03688167650508033,
                -2.1211907477785625,
                -1.9289576777491373,
                -1.7076293048946936,
                -1.321595700108096,
                -2.5467128435953987
            ]
        },
        {
            "positions": [
                -0.036140097080391696,
                -2.1228086013578054,
                -1.9041267824775556,
                -1.8658283938827689,
                -1.3907128917166054,
                -2.6819971125330655
            ]
        },
        {
            "positions": [
                -0.035398517655703066,
                -2.1244264549370486,
                -1.879295887205974,
                -2.024027482870844,
                -1.459830083325115,
                -2.8172813814707327
            ]
        },
        {
            "positions": [
                -0.03465693823101444,
                -2.1260443085162914,
                -1.854464991934392,
                -2.1822265718589193,
                -1.5289472749336246,
                -2.9525656504084
            ]
        },
        {
            "positions": [
                -0.03391535880632581,
                -2.1276621620955343,
                -1.8296340966628104,
                -2.3404256608469947,
                -1.598064466542134,
                -3.0878499193460667
            ]
        }
    ]
}