{
    "goal": {
        "global_pose": {
            "orientation": {
                "w": -0.4816463035849501,
                "x": 0.5182115481033762,
                "y": 0.4908360881923453,
                "z": -0.5084816262002911
            },
            "position": {
                "x": -0.8240239810943604,
                "y": 0.19912469901144506,
                "z": 0.16403168439865112
            }
        },
        "name": "move_to_storage_D"
    },
    "id": "STRIDE_move_to_storage_D_76",
    "joint_names": [
        "shoulder_pan_joint",
        "shoulder_lift_joint",
        "elbow_joint",
        "wrist_1_joint",
        "wrist_2_joint",
        "wrist_3_joint"
    ],
    "metrics": {
        "cart_traj_len": 3.5254560223268805,
        "distance_elbow_joint": 4.212716863369895,
        "distance_shoulder_lift_joint": 1.2642753491915797,
        "distance_shoulder_pan_joint": 2.813279397134348,
        "distance_wrist_1_joint": 3.162425430665425,
        "distance_wrist_2_joint": 2.0133784203213683,
        "distance_wrist_3_joint": 3.124866577409781,
        "smoothness": 0.24268145720700132,
        "time": 0.50150195,
        "traj_len": 4.073198011156885,
        "weighted_distance": 5.2930595163760215
    },
    "planner": "STRIDE",
    "start": {
        "state": {
            "elbow_joint": -2.384821988534728,
            "shoulder_lift_joint": -2.2788054721415256,
            "shoulder_pan_joint": -0.1854694642142757,
            "wrist_1_joint": 1.4845938289331202,
            "wrist_2_joint": 0.17898776772866878,
            "wrist_3_joint": 0.037105688729662994
        }
    },
    "waypoints": [
        {
            "positions": [
                -0.1854694642142757,
                -2.2788054721415256,
                -2.384821988534728,
                1.4845938289331202,
                0.17898776772866878,
                0.037105688729662994
            ]
        },
        {
            "positions": [
                -0.11278051203624335,
                -2.220899359873003,
                -2.3697863627279188,
                1.5725452144850751,
                0.065036948760453,
                0.0312945675280625
            ]
        },
        {
            "positions": [
                -0.040091559858211,
                -2.1629932476044806,
                -2.3547507369211096,
                1.66049660003703,
                -0.04891387020776278,
                0.025483446326462003
            ]
        },
        {
            "positions": [
                0.03259739231982134,
                -2.105087135335958,
                -2.3397151111143,
                1.7484479855889847,
                -0.16286468917597854,
                0.01967232512486151
            ]
        },
        {
            "positions": [
                0.1052863444978537,
                -2.0471810230674357,
                -2.324679485307491,
                1.8363993711409397,
                -0.2768155081441943,
                0.013861203923261015
            ]
        },
        {
            "positions": [
                0.17797529667588607,
                -1.989274910798913,
                -2.3096438595006816,
                1.9243507566928946,
                -0.3907663271124101,
                0.008050082721660523
            ]
        },
        {
            "positions": [
                0.24558900996321326,
                -1.966518480003592,
                -2.195684215507792,
                1.8433270878901236,
                -0.3530038585285795,
                -0.05434684457431165
            ]
        },
        {
            "positions": [
                0.31320272325054044,
                -1.9437620492082712,
                -2.0817245715149024,
                1.7623034190873526,
                -0.31524138994474893,
                -0.11674377187028383
            ]
        },
        {
            "positions": [
                0.3808164365378677,
                -1.9210056184129503,
                -1.967764927522013,
                1.6812797502845815,
                -0.27747892136091834,
                -0.179140699166256
            ]
        },
        {
            "positions": [
                0.44843014982519486,
                -1.8982491876176293,
                -1.8538052835291234,
                1.6002560814818103,
                -0.23971645277708778,
                -0.24153762646222818
            ]
        },
        {
            "positions": [
                0.516043863112522,
                -1.8754927568223083,
                -1.739845639536234,
                1.5192324126790393,
                -0.2019539841932572,
                -0.30393455375820033
            ]
        },
        {
            "positions": [
                0.5836575763998493,
                -1.8527363260269876,
                -1.6258859955433445,
                1.4382087438762683,
                -0.1641915156094266,
                -0.3663314810541725
            ]
        },
        {
            "positions": [
                0.6512712896871764,
                -1.8299798952316666,
                -1.5119263515504549,
                1.357185075073497,
                -0.12642904702559604,
                -0.4287284083501447
            ]
        },
        {
            "positions": [
                0.7188850029745036,
                -1.8072234644363456,
                -1.3979667075575652,
                1.276161406270726,
                -0.08866657844176545,
                -0.4911253356461169
            ]
        },
        {
            "positions": [
                0.7864987162618309,
                -1.7844670336410249,
                -1.2840070635646759,
                1.195137737467955,
                -0.05090410985793481,
                -0.5535222629420891
            ]
        },
        {
            "positions": [
                0.854112429549158,
                -1.761710602845704,
                -1.1700474195717863,
                1.114114068665184,
                -0.013141641274104277,
                -0.6159191902380612
            ]
        },
        {
            "positions": [
                0.9217261428364852,
                -1.738954172050383,
                -1.0560877755788967,
                1.033090399862413,
                0.024620827309726367,
                -0.6783161175340334
            ]
        },
        {
            "positions": [
                0.9893398561238125,
                -1.716197741255062,
                -0.9421281315860073,
                0.952066731059642,
                0.0623832958935569,
                -0.7407130448300056
            ]
        },
        {
            "positions": [
                1.0569535694111396,
                -1.6934413104597412,
                -0.8281684875931177,
                0.8710430622568708,
                0.10014576447738754,
                -0.8031099721259778
            ]
        },
        {
            "positions": [
                1.1245672826984667,
                -1.6706848796644203,
                -0.7142088436002283,
                0.7900193934540998,
                0.13790823306121802,
                -0.8655068994219499
            ]
        },
        {
            "positions": [
                1.192180995985794,
                -1.6479284488690993,
                -0.6002491996073387,
                0.7089957246513288,
                0.17567070164504872,
                -0.9279038267179222
            ]
        },
        {
            "positions": [
                1.2597947092731212,
                -1.6251720180737785,
                -0.4862895556144491,
                0.6279720558485578,
                0.2134331702288792,
                -0.9903007540138943
            ]
        },
        {
            "positions": [
                1.3274084225604483,
                -1.6024155872784576,
                -0.3723299116215597,
                0.5469483870457867,
                0.2511956388127098,
                -1.0526976813098663
            ]
        },
        {
            "positions": [
                1.3950221358477757,
                -1.5796591564831366,
                -0.2583702676286701,
                0.4659247182430155,
                0.2889581073965405,
                -1.1150946086058386
            ]
        },
        {
            "positions": [
                1.4626358491351028,
                -1.5569027256878156,
                -0.1444106236357805,
                0.3849010494402445,
                0.3267205759803711,
                -1.1774915359018108
            ]
        },
        {
            "positions": [
                1.53024956242243,
                -1.5341462948924949,
                -0.030450979642890896,
                0.3038773806374735,
                0.36448304456420155,
                -1.239888463197783
            ]
        },
        {
            "positions": [
                1.597863275709757,
                -1.511389864097174,
                0.08350866434999826,
                0.22285371183470248,
                0.40224551314803214,
                -1.302285390493755
            ]
        },
        {
            "positions": [
                1.6654769889970844,
                -1.4886334333018532,
                0.1974683083428883,
                0.14183004303193125,
                0.44000798173186284,
                -1.3646823177897274
            ]
        },
        {
            "positions": [
                1.7330907022844115,
                -1.4658770025065322,
                0.31142795233577747,
                0.06080637422916024,
                0.4777704503156933,
                -1.4270792450856995
            ]
        },
        {
            "positions": [
                1.8007044155717389,
                -1.4431205717112112,
                0.4253875963286671,
                -0.020217294573610545,
                0.5155329188995239,
                -1.4894761723816716
            ]
        },
        {
            "positions": [
                1.868318128859066,
                -1.4203641409158902,
                0.5393472403215567,
                -0.10124096337638155,
                0.5532953874833545,
                -1.5518730996776438
            ]
        },
        {
            "positions": [
                1.9359318421463934,
                -1.3976077101205693,
                0.6533068843144463,
                -0.182264632179153,
                0.5910578560671852,
                -1.614270026973616
            ]
        },
        {
            "positions": [
                2.0035455554337203,
                -1.3748512793252485,
                0.7672665283073359,
                -0.263288300981924,
                0.6288203246510157,
                -1.6766669542695882
            ]
        },
        {
            "positions": [
                2.071159268721048,
                -1.3520948485299276,
                0.881226172300225,
                -0.344311969784695,
                0.6665827932348461,
                -1.7390638815655604
            ]
        },
        {
            "positions": [
                2.1387729820083745,
                -1.3293384177346068,
                0.9951858162931146,
                -0.42533563858746604,
                0.7043452618186768,
                -1.8014608088615325
            ]
        },
        {
            "positions": [
                2.206386695295702,
                -1.3065819869392858,
                1.1091454602860042,
                -0.506359307390237,
                0.7421077304025075,
                -1.8638577361575048
            ]
        },
        {
            "positions": [
                2.274000408583029,
                -1.2838255561439649,
                1.2231051042788939,
                -0.5873829761930083,
                0.7798701989863379,
                -1.926254663453477
            ]
        },
        {
            "positions": [
                2.31822659912516,
                -1.2501636269947125,
                1.298703825598428,
                -0.6137498224454767,
                0.8139936739090305,
                -2.071442941606807
            ]
        },
        {
            "positions": [
                2.36245278966729,
                -1.2165016978454601,
                1.3743025469179622,
                -0.6401166686979451,
                0.8481171488317232,
                -2.216631219760137
            ]
        },
        {
            "positions": [
                2.4066789802094206,
                -1.1828397686962078,
                1.4499012682374965,
                -0.6664835149504135,
                0.8822406237544159,
                -2.3618194979134675
            ]
        },
        {
            "positions": [
                2.4509051707515512,
                -1.1491778395469554,
                1.5254999895570307,
                -0.6928503612028819,
                0.9163640986771086,
                -2.5070077760667973
            ]
        },
        {
            "positions": [
                2.4951313612936814,
                -1.115515910397703,
                1.6010987108765649,
                -0.7192172074553503,
                0.9504875735998012,
                -2.6521960542201275
            ]
        },
        {
            "positions": [
                2.539357551835812,
                -1.0818539812484507,
                1.6766974321960992,
                -0.7455840537078187,
                0.9846110485224939,
                -2.7973843323734577
            ]
        },
        {
            "positions": [
                2.583583742377942,
                -1.0481920520991983,
                1.7522961535156334,
                -0.7719508999602871,
                1.0187345234451866,
                -2.9425726105267875
            ]
        },
        {
            "positions": [
                2.627809932920073,
                -1.014530122949946,
                1.8278948748351675,
                -0.7983177462127555,
                1.0528579983678792,
                -3.0877608886801178
            ]
        }
    ]
}