{
    "goal": {
        "global_pose": {
            "orientation": {
                "w": 0.5084816262002911,
                "x": -0.4908360881923452,
                "y": 0.5182115481033761,
                "z": -0.48164630358495003
            },
            "position": {
                "x": 0.5540239810943604,
                "y": -0.46912469901144505,
                "z": 0.16403168439865112
            }
        },
        "name": "move_to_storage_B"
    },
    "id": "STRIDE_move_to_storage_B_89",
    "joint_names": [
        "shoulder_pan_joint",
        "shoulder_lift_joint",
        "elbow_joint",
        "wrist_1_joint",
        "wrist_2_joint",
        "wrist_3_joint"
    ],
    "metrics": {
        "cart_traj_len": 0.7073957318873871,
        "distance_elbow_joint": 0.34978581159724254,
        "distance_shoulder_lift_joint": 0.4589554047214348,
        "distance_shoulder_pan_joint": 0.3651773778602839,
        "distance_wrist_1_joint": 2.9806571862851463,
        "distance_wrist_2_joint": 2.710964720665651,
        "distance_wrist_3_joint": 3.127814085552559,
        "smoothness": 0.038046221522482666,
        "time": 0.259009216,
        "traj_len": 3.161226753442771,
        "weighted_distance": 4.684079916561867
    },
    "planner": "STRIDE",
    "start": {
        "state": {
            "elbow_joint": 1.664937868594044,
            "shoulder_lift_joint": -0.661644460510453,
            "shoulder_pan_joint": -0.9139846352900073,
            "wrist_1_joint": 2.146753192139373,
            "wrist_2_joint": -2.2341966793290973,
            "wrist_3_joint": 0.005466555786416001
        }
    },
    "waypoints": [
        {
            "positions": [
                -0.9139846352900073,
                -0.661644460510453,
                1.664937868594044,
                2.146753192139373,
                -2.2341966793290973,
                0.005466555786416001
            ]
        },
        {
            "positions": [
                -0.8679777348366458,
                -0.7044794195939621,
                1.677890969469953,
                2.129285395311729,
                -2.032084858192559,
                0.013127168109022366
            ]
        },
        {
            "positions": [
                -0.8219708343832841,
                -0.7473143786774713,
                1.6908440703458623,
                2.111817598484085,
                -1.8299730370560205,
                0.02078778043162873
            ]
        },
        {
            "positions": [
                -0.8333526500896825,
                -0.7628679406172386,
                1.7043390540894217,
                1.989079198791174,
                -1.7338588254563299,
                0.15047498296943485
            ]
        },
        {
            "positions": [
                -0.8447344657960808,
                -0.778421502557006,
                1.717834037832981,
                1.8663407990982632,
                -1.6377446138566394,
                0.2801621855072409
            ]
        },
        {
            "positions": [
                -0.8561162815024792,
                -0.7939750644967734,
                1.7313290215765402,
                1.7436023994053524,
                -1.5416304022569487,
                0.40984938804504706
            ]
        },
        {
            "positions": [
                -0.8674980972088776,
                -0.8095286264365407,
                1.7448240053200996,
                1.6208639997124419,
                -1.4455161906572582,
                0.5395365905828532
            ]
        },
        {
            "positions": [
                -0.8788799129152759,
                -0.8250821883763081,
                1.758318989063659,
                1.4981256000195309,
                -1.3494019790575675,
                0.6692237931206594
            ]
        },
        {
            "positions": [
                -0.8902617286216743,
                -0.8406357503160754,
                1.7718139728072182,
                1.3753872003266203,
                -1.253287767457877,
                0.7989109956584655
            ]
        },
        {
            "positions": [
                -0.9016435443280727,
                -0.8561893122558428,
                1.7853089565507776,
                1.2526488006337095,
                -1.1571735558581864,
                0.9285981981962717
            ]
        },
        {
            "positions": [
                -0.913025360034471,
                -0.8717428741956101,
                1.798803940294337,
                1.129910400940799,
                -1.0610593442584957,
                1.0582854007340776
            ]
        },
        {
            "positions": [
                -0.9244071757408694,
                -0.8872964361353775,
                1.8122989240378964,
                1.0071720012478882,
                -0.9649451326588052,
                1.1879726032718838
            ]
        },
        {
            "positions": [
                -0.9357889914472678,
                -0.9028499980751449,
                1.8257939077814558,
                0.8844336015549772,
                -0.8688309210591145,
                1.31765980580969
            ]
        },
        {
            "positions": [
                -0.9471708071536661,
                -0.9184035600149122,
                1.839288891525015,
                0.7616952018620666,
                -0.7727167094594241,
                1.447347008347496
            ]
        },
        {
            "positions": [
                -0.9585526228600645,
                -0.9339571219546796,
                1.8527838752685744,
                0.6389568021691558,
                -0.6766024978597334,
                1.5770342108853022
            ]
        },
        {
            "positions": [
                -0.9699344385664628,
                -0.9495106838944469,
                1.8662788590121338,
                0.5162184024762453,
                -0.5804882862600429,
                1.7067214134231081
            ]
        },
        {
            "positions": [
                -0.9813162542728613,
                -0.9650642458342142,
                1.879773842755693,
                0.3934800027833343,
                -0.484374074660352,
                1.8364086159609145
            ]
        },
        {
            "positions": [
                -0.9926980699792596,
                -0.9806178077739816,
                1.8932688264992523,
                0.2707416030904235,
                -0.3882598630606615,
                1.9660958184987205
            ]
        },
        {
            "positions": [
                -1.0040798856856579,
                -0.996171369713749,
                1.9067638102428117,
                0.14800320339751294,
                -0.29214565146097105,
                2.0957830210365263
            ]
        },
        {
            "positions": [
                -1.0154617013920564,
                -1.0117249316535164,
                1.9202587939863711,
                0.025264803704601935,
                -0.19603143986128035,
                2.2254702235743324
            ]
        },
        {
            "positions": [
                -1.0268435170984547,
                -1.0272784935932837,
                1.9337537777299305,
                -0.0974735959883084,
                -0.09991722826158989,
                2.3551574261121386
            ]
        },
        {
            "positions": [
                -1.038225332804853,
                -1.042832055533051,
                1.9472487614734897,
                -0.22021199568121919,
                -0.0038030166618991945,
                2.484844628649945
            ]
        },
        {
            "positions": [
                -1.0496071485112515,
                -1.0583856174728183,
                1.960743745217049,
                -0.3429503953741304,
                0.0923111949377915,
                2.614531831187751
            ]
        },
        {
            "positions": [
                -1.0609889642176498,
                -1.0739391794125859,
                1.9742387289606085,
                -0.46568879506704075,
                0.1884254065374822,
                2.744219033725557
            ]
        },
        {
            "positions": [
                -1.072370779924048,
                -1.0894927413523532,
                1.9877337127041677,
                -0.5884271947599515,
                0.28453961813717243,
                2.873906236263363
            ]
        },
        {
            "positions": [
                -1.0837525956304466,
                -1.1050463032921205,
                2.0012286964477273,
                -0.7111655944528623,
                0.3806538297368631,
                3.003593438801169
            ]
        },
        {
            "positions": [
                -1.0951344113368449,
                -1.1205998652318878,
                2.0147236801912864,
                -0.8339039941457733,
                0.47676804133655387,
                3.1332806413389753
            ]
        }
    ]
}