{
    "goal": {
        "global_pose": {
            "orientation": {
                "w": -0.00223480608172531,
                "x": 0.0024358444001904467,
                "y": 0.7094548369677653,
                "z": -0.704743149386269
            },
            "position": {
                "x": 0.6205249238014221,
                "y": -0.6371506643295288,
                "z": 0.19426114857196808
            }
        },
        "name": "move_to_magneteinheit_B"
    },
    "id": "STRIDE_move_to_magneteinheit_B_19",
    "joint_names": [
        "shoulder_pan_joint",
        "shoulder_lift_joint",
        "elbow_joint",
        "wrist_1_joint",
        "wrist_2_joint",
        "wrist_3_joint"
    ],
    "metrics": {
        "cart_traj_len": 3.673194546158873,
        "distance_elbow_joint": 4.363823037453461,
        "distance_shoulder_lift_joint": 1.0616943273425559,
        "distance_shoulder_pan_joint": 3.1946370603487777,
        "distance_wrist_1_joint": 1.090196142582822,
        "distance_wrist_2_joint": 1.9965527811614767,
        "distance_wrist_3_joint": 0.775768767615104,
        "smoothness": 0.6806207269373545,
        "time": 0.999607643,
        "traj_len": 3.5330825233079683,
        "weighted_distance": 4.137748007730619
    },
    "planner": "STRIDE",
    "start": {
        "state": {
            "elbow_joint": 2.6216224122426386,
            "shoulder_lift_joint": -1.4174107377796124,
            "shoulder_pan_joint": 0.7066234856936794,
            "wrist_1_joint": 1.9546482284002225,
            "wrist_2_joint": -0.7096286983471962,
            "wrist_3_joint": 0.005740856962016249
        }
    },
    "waypoints": [
        {
            "positions": [
                0.7066234856936794,
                -1.4174107377796124,
                2.6216224122426386,
                1.9546482284002225,
                -0.7096286983471962,
                0.005740856962016249
            ]
        },
        {
            "positions": [
                0.5628859288454212,
                -1.4360567582202373,
                2.5856170059789045,
                1.964811170638992,
                -0.7788038458315083,
                -0.0340958474639903
            ]
        },
        {
            "positions": [
                0.419148371997163,
                -1.4547027786608622,
                2.5496115997151705,
                1.9749741128777614,
                -0.8479789933158205,
                -0.07393255188999685
            ]
        },
        {
            "positions": [
                0.27541081514890475,
                -1.473348799101487,
                2.5136061934514364,
                1.9851370551165306,
                -0.9171541408001327,
                -0.1137692563160034
            ]
        },
        {
            "positions": [
                0.13167325830064658,
                -1.491994819542112,
                2.4776007871877024,
                1.9952999973553,
                -0.9863292882844448,
                -0.15360596074200994
            ]
        },
        {
            "positions": [
                0.21706899920165346,
                -1.5105353298250084,
                2.3114932599833757,
                1.9659576331972048,
                -0.9201038515428417,
                -0.1369665093963222
            ]
        },
        {
            "positions": [
                0.30246474010266033,
                -1.5290758401079048,
                2.1453857327790495,
                1.9366152690391096,
                -0.8538784148012386,
                -0.12032705805063448
            ]
        },
        {
            "positions": [
                0.3878604810036672,
                -1.5476163503908014,
                1.979278205574723,
                1.9072729048810144,
                -0.7876529780596355,
                -0.10368760670494674
            ]
        },
        {
            "positions": [
                0.4732562219046741,
                -1.5661568606736977,
                1.8131706783703967,
                1.8779305407229192,
                -0.7214275413180326,
                -0.08704815535925901
            ]
        },
        {
            "positions": [
                0.558651962805681,
                -1.5846973709565941,
                1.64706315116607,
                1.848588176564824,
                -0.6552021045764294,
                -0.07040870401357127
            ]
        },
        {
            "positions": [
                0.6440477037066878,
                -1.6032378812394907,
                1.4809556239617436,
                1.8192458124067288,
                -0.5889766678348264,
                -0.053769252667883544
            ]
        },
        {
            "positions": [
                0.7294434446076947,
                -1.6217783915223871,
                1.3148480967574172,
                1.7899034482486336,
                -0.5227512310932233,
                -0.0371298013221958
            ]
        },
        {
            "positions": [
                0.8148391855087016,
                -1.6403189018052835,
                1.1487405695530908,
                1.7605610840905384,
                -0.45652579435162033,
                -0.020490349976508088
            ]
        },
        {
            "positions": [
                0.9002349264097085,
                -1.6588594120881799,
                0.9826330423487644,
                1.7312187199324431,
                -0.39030035761001725,
                -0.003850898630820332
            ]
        },
        {
            "positions": [
                0.9856306673107154,
                -1.6773999223710763,
                0.8165255151444377,
                1.701876355774348,
                -0.32407492086841405,
                0.012788552714867396
            ]
        },
        {
            "positions": [
                1.0710264082117222,
                -1.6959404326539729,
                0.6504179879401113,
                1.6725339916162527,
                -0.2578494841268111,
                0.029428004060555124
            ]
        },
        {
            "positions": [
                1.1564221491127291,
                -1.7144809429368693,
                0.4843104607357849,
                1.6431916274581575,
                -0.191624047385208,
                0.04606745540624285
            ]
        },
        {
            "positions": [
                1.241817890013736,
                -1.7330214532197656,
                0.3182029335314587,
                1.6138492633000623,
                -0.12539861064360502,
                0.06270690675193058
            ]
        },
        {
            "positions": [
                1.3272136309147429,
                -1.7515619635026622,
                0.15209540632713203,
                1.584506899141967,
                -0.05917317390200183,
                0.07934635809761834
            ]
        },
        {
            "positions": [
                1.4126093718157497,
                -1.7701024737855586,
                -0.014012120877194612,
                1.5551645349838719,
                0.007052262839601253,
                0.09598580944330604
            ]
        },
        {
            "positions": [
                1.4980051127167566,
                -1.788642984068455,
                -0.1801196480815208,
                1.5258221708257766,
                0.07327769958120411,
                0.11262526078899376
            ]
        },
        {
            "positions": [
                1.5834008536177635,
                -1.8071834943513514,
                -0.34622717528584745,
                1.4964798066676814,
                0.13950313632280742,
                0.12926471213468155
            ]
        },
        {
            "positions": [
                1.6687965945187704,
                -1.8257240046342478,
                -0.5123347024901737,
                1.4671374425095862,
                0.20572857306441028,
                0.14590416348036928
            ]
        },
        {
            "positions": [
                1.7541923354197773,
                -1.8442645149171444,
                -0.6784422296945003,
                1.437795078351491,
                0.27195400980601336,
                0.16254361482605695
            ]
        },
        {
            "positions": [
                1.8395880763207841,
                -1.8628050252000408,
                -0.8445497568988269,
                1.4084527141933958,
                0.33817944654761667,
                0.17918306617174473
            ]
        },
        {
            "positions": [
                1.924983817221791,
                -1.8813455354829371,
                -1.0106572841031531,
                1.3791103500353006,
                0.40440488328921953,
                0.19582251751743246
            ]
        },
        {
            "positions": [
                2.010379558122798,
                -1.8998860457658338,
                -1.1767648113074798,
                1.3497679858772054,
                0.4706303200308226,
                0.2124619688631202
            ]
        },
        {
            "positions": [
                2.0957752990238045,
                -1.9184265560487301,
                -1.3428723385118064,
                1.3204256217191102,
                0.5368557567724257,
                0.22910142020880792
            ]
        },
        {
            "positions": [
                2.181171039924812,
                -1.9369670663316265,
                -1.5089798657161326,
                1.291083257561015,
                0.6030811935140287,
                0.24574087155449564
            ]
        },
        {
            "positions": [
                2.356258884138776,
                -2.056420376141151,
                -1.5742248921382596,
                1.2974523662376962,
                0.5843347583875652,
                0.2433209896050178
            ]
        },
        {
            "positions": [
                2.5313467283527396,
                -2.1758736859506755,
                -1.6394699185603865,
                1.3038214749143777,
                0.5655883232611016,
                0.24090110765553996
            ]
        },
        {
            "positions": [
                2.7064345725667036,
                -2.2953269957602,
                -1.7047149449825134,
                1.310190583591059,
                0.5468418881346382,
                0.23848122570606212
            ]
        },
        {
            "positions": [
                2.691459399670141,
                -2.3565863522141894,
                -1.6922197182397434,
                1.2014504809899207,
                0.5221077534525166,
                0.16854273511734924
            ]
        },
        {
            "positions": [
                2.676484226773578,
                -2.4178457086681786,
                -1.6797244914969736,
                1.0927103783887822,
                0.49737361877039504,
                0.09860424452863636
            ]
        },
        {
            "positions": [
                2.6615090538770154,
                -2.479105065122168,
                -1.6672292647542035,
                0.9839702757876438,
                0.47263948408827344,
                0.02866575393992345
            ]
        }
    ]
}