{
    "goal": {
        "global_pose": {
            "orientation": {
                "w": 0.7047431493862688,
                "x": -0.7094548369677653,
                "y": 0.0024358444001904,
                "z": -0.0022348060817251984
            },
            "position": {
                "x": -0.39052492380142206,
                "y": 0.3671506643295288,
                "z": 0.19426114857196808
            }
        },
        "name": "move_to_magneteinheit_D"
    },
    "id": "STRIDE_move_to_magneteinheit_D_83",
    "joint_names": [
        "shoulder_pan_joint",
        "shoulder_lift_joint",
        "elbow_joint",
        "wrist_1_joint",
        "wrist_2_joint",
        "wrist_3_joint"
    ],
    "metrics": {
        "cart_traj_len": 5.672800577980886,
        "distance_elbow_joint": 3.229414676833232,
        "distance_shoulder_lift_joint": 2.900221670313628,
        "distance_shoulder_pan_joint": 3.7018555394699426,
        "distance_wrist_1_joint": 2.409647025657322,
        "distance_wrist_2_joint": 2.117267957201784,
        "distance_wrist_3_joint": 3.5972278796301156,
        "smoothness": 0.7040570892432564,
        "time": 0.46025293300000003,
        "traj_len": 4.237408966468309,
        "weighted_distance": 5.447660552129269
    },
    "planner": "STRIDE",
    "start": {
        "state": {
            "elbow_joint": 0.749534889911806,
            "shoulder_lift_joint": -0.6476975780787326,
            "shoulder_pan_joint": -2.711696901376241,
            "wrist_1_joint": -0.07506478083263063,
            "wrist_2_joint": 0.43296659715538205,
            "wrist_3_joint": -3.14703540197715
        }
    },
    "waypoints": [
        {
            "positions": [
                -2.711696901376241,
                -0.6476975780787326,
                0.749534889911806,
                -0.07506478083263063,
                0.43296659715538205,
                -3.14703540197715
            ]
        },
        {
            "positions": [
                -2.793812020722391,
                -0.6106213790082035,
                0.733907475295951,
                -0.12917602589259894,
                0.3199281061514935,
                -3.0689141498148462
            ]
        },
        {
            "positions": [
                -2.8759271400685407,
                -0.5735451799376742,
                0.7182800606800961,
                -0.18328727095256725,
                0.20688961514760487,
                -2.990792897652542
            ]
        },
        {
            "positions": [
                -2.958042259414691,
                -0.536468980867145,
                0.7026526460642413,
                -0.23739851601253553,
                0.09385112414371632,
                -2.912671645490238
            ]
        },
        {
            "positions": [
                -3.0401573787608407,
                -0.4993927817966157,
                0.6870252314483863,
                -0.29150976107250387,
                -0.019187366860172306,
                -2.834550393327934
            ]
        },
        {
            "positions": [
                -3.1222724981069905,
                -0.46231658272608656,
                0.6713978168325314,
                -0.34562100613247215,
                -0.13222585786406085,
                -2.75642914116563
            ]
        },
        {
            "positions": [
                -3.0005818129429382,
                -0.5379277305459141,
                0.6216898107344181,
                -0.35356967522566696,
                -0.15907065395558811,
                -2.6595011261620534
            ]
        },
        {
            "positions": [
                -2.8788911277788856,
                -0.6135388783657416,
                0.5719818046363048,
                -0.3615183443188618,
                -0.18591545004711538,
                -2.562573111158476
            ]
        },
        {
            "positions": [
                -2.7572004426148333,
                -0.6891500261855692,
                0.5222737985381916,
                -0.3694670134120566,
                -0.21276024613864264,
                -2.4656450961548995
            ]
        },
        {
            "positions": [
                -2.635509757450781,
                -0.7647611740053968,
                0.47256579244007824,
                -0.3774156825052514,
                -0.23960504223016993,
                -2.3687170811513223
            ]
        },
        {
            "positions": [
                -2.5138190722867284,
                -0.8403723218252243,
                0.4228577863419649,
                -0.38536435159844623,
                -0.26644983832169716,
                -2.2717890661477456
            ]
        },
        {
            "positions": [
                -2.392128387122676,
                -0.9159834696450517,
                0.37314978024385165,
                -0.3933130206916411,
                -0.29329463441322445,
                -2.174861051144169
            ]
        },
        {
            "positions": [
                -2.270437701958624,
                -0.9915946174648793,
                0.3234417741457383,
                -0.4012616897848359,
                -0.3201394305047517,
                -2.0779330361405917
            ]
        },
        {
            "positions": [
                -2.1487470167945713,
                -1.067205765284707,
                0.273733768047625,
                -0.4092103588780307,
                -0.346984226596279,
                -1.981005021137015
            ]
        },
        {
            "positions": [
                -2.027056331630519,
                -1.1428169131045345,
                0.22402576194951168,
                -0.4171590279712255,
                -0.37382902268780627,
                -1.884077006133438
            ]
        },
        {
            "positions": [
                -1.9053656464664668,
                -1.2184280609243618,
                0.17431775585139841,
                -0.42510769706442036,
                -0.4006738187793335,
                -1.7871489911298613
            ]
        },
        {
            "positions": [
                -1.7836749613024143,
                -1.2940392087441897,
                0.12460974975328509,
                -0.43305636615761517,
                -0.42751861487086074,
                -1.6902209761262843
            ]
        },
        {
            "positions": [
                -1.661984276138362,
                -1.369650356564017,
                0.07490174365517188,
                -0.44100503525081,
                -0.45436341096238797,
                -1.5932929611227076
            ]
        },
        {
            "positions": [
                -1.5402935909743094,
                -1.4452615043838448,
                0.02519373755705845,
                -0.44895370434400483,
                -0.4812082070539153,
                -1.4963649461191304
            ]
        },
        {
            "positions": [
                -1.4186029058102572,
                -1.5208726522036722,
                -0.024514268541054762,
                -0.45690237343719964,
                -0.5080530031454425,
                -1.3994369311155537
            ]
        },
        {
            "positions": [
                -1.296912220646205,
                -1.5964838000234995,
                -0.07422227463916808,
                -0.46485104253039444,
                -0.5348977992369698,
                -1.302508916111977
            ]
        },
        {
            "positions": [
                -1.1752215354821525,
                -1.6720949478433274,
                -0.1239302807372814,
                -0.47279971162358925,
                -0.5617425953284971,
                -1.2055809011083998
            ]
        },
        {
            "positions": [
                -1.0535308503181002,
                -1.7477060956631547,
                -0.17363828683539473,
                -0.48074838071678405,
                -0.5885873914200244,
                -1.108652886104823
            ]
        },
        {
            "positions": [
                -0.9318401651540476,
                -1.8233172434829825,
                -0.22334629293350805,
                -0.4886970498099789,
                -0.6154321875115516,
                -1.0117248711012459
            ]
        },
        {
            "positions": [
                -0.8101494799899953,
                -1.8989283913028099,
                -0.2730542990316214,
                -0.4966457189031737,
                -0.6422769836030788,
                -0.9147968560976691
            ]
        },
        {
            "positions": [
                -0.6884587948259431,
                -1.9745395391226372,
                -0.3227623051297346,
                -0.5045943879963686,
                -0.6691217796946061,
                -0.8178688410940924
            ]
        },
        {
            "positions": [
                -0.5667681096618904,
                -2.050150686942465,
                -0.372470311227848,
                -0.5125430570895634,
                -0.6959665757861334,
                -0.7209408260905152
            ]
        },
        {
            "positions": [
                -0.4450774244978382,
                -2.1257618347622924,
                -0.4221783173259612,
                -0.5204917261827582,
                -0.7228113718776606,
                -0.6240128110869387
            ]
        },
        {
            "positions": [
                -0.4139276097595273,
                -2.1413105753769033,
                -0.528176420042049,
                -0.39401537384807483,
                -0.6639758345436011,
                -0.5690607197984875
            ]
        },
        {
            "positions": [
                -0.38277779502121634,
                -2.156859315991514,
                -0.6341745227581368,
                -0.26753902151339154,
                -0.6051402972095417,
                -0.5141086285100362
            ]
        },
        {
            "positions": [
                -0.35162798028290543,
                -2.172408056606125,
                -0.7401726254742246,
                -0.1410626691787082,
                -0.5463047598754821,
                -0.459156537221585
            ]
        },
        {
            "positions": [
                -0.3204781655445945,
                -2.1879567972207363,
                -0.8461707281903124,
                -0.014586316844024894,
                -0.48746922254142255,
                -0.4042044459331338
            ]
        },
        {
            "positions": [
                -0.28932835080628355,
                -2.203505537835347,
                -0.9521688309064001,
                0.11189003549065846,
                -0.42863368520736306,
                -0.34925235464468257
            ]
        },
        {
            "positions": [
                -0.2581785360679726,
                -2.219054278449958,
                -1.058166933622488,
                0.2383663878253418,
                -0.36979814787330356,
                -0.29430026335623133
            ]
        },
        {
            "positions": [
                -0.22702872132966168,
                -2.234603019064569,
                -1.1641650363385758,
                0.36484274016002516,
                -0.310962610539244,
                -0.23934817206778009
            ]
        },
        {
            "positions": [
                -0.19587890659135077,
                -2.25015175967918,
                -1.2701631390546635,
                0.4913190924947084,
                -0.2521270732051845,
                -0.1843960807793289
            ]
        },
        {
            "positions": [
                -0.1647290918530398,
                -2.2657005002937907,
                -1.3761612417707514,
                0.6177954448293919,
                -0.1932915358711249,
                -0.1294439894908776
            ]
        },
        {
            "positions": [
                -0.1335792771147289,
                -2.2812492409084015,
                -1.482159344486839,
                0.7442717971640751,
                -0.13445599853706547,
                -0.07449189820242641
            ]
        },
        {
            "positions": [
                -0.10242946237641792,
                -2.296797981523013,
                -1.5881574472029267,
                0.8707481494987586,
                -0.07562046120300592,
                -0.019539806913975166
            ]
        },
        {
            "positions": [
                -0.07127964763810701,
                -2.3123467221376237,
                -1.6941555499190146,
                0.9972245018334418,
                -0.016784923868946477,
                0.03541228437447608
            ]
        },
        {
            "positions": [
                -0.04012983289979605,
                -2.3278954627522346,
                -1.8001536526351025,
                1.1237008541681253,
                0.042050613465113185,
                0.09036437566292732
            ]
        },
        {
            "positions": [
                -0.00898001816148512,
                -2.3434442033668454,
                -1.9061517553511902,
                1.2501772065028085,
                0.10088615079917265,
                0.14531646695137854
            ]
        },
        {
            "positions": [
                -0.016899816010549795,
                -2.2307258706142723,
                -2.0392903976426777,
                1.2692079338076805,
                0.12892723882339088,
                0.1772649893812948
            ]
        },
        {
            "positions": [
                -0.02481961385961447,
                -2.1180075378616987,
                -2.1724290399341655,
                1.2882386611125525,
                0.15696832684760914,
                0.20921351181121112
            ]
        },
        {
            "positions": [
                -0.032739411708679146,
                -2.0052892051091256,
                -2.3055676822256532,
                1.3072693884174247,
                0.18500941487182737,
                0.2411620342411274
            ]
        },
        {
            "positions": [
                -0.040659209557743825,
                -1.8925708723565524,
                -2.438706324517141,
                1.3263001157222967,
                0.2130505028960456,
                0.27311055667104367
            ]
        },
        {
            "positions": [
                -0.0894286333568865,
                -2.0201841134598624,
                -2.4249818370490455,
                1.365442861856343,
                0.20450779843103356,
                0.21408324967706927
            ]
        },
        {
            "positions": [
                -0.13819805715602917,
                -2.1477973545631723,
                -2.4112573495809504,
                1.4045856079903891,
                0.19596509396602155,
                0.15505594268309486
            ]
        },
        {
            "positions": [
                -0.18696748095517188,
                -2.2754105956664823,
                -2.397532862112855,
                1.4437283541244355,
                0.1874223895010095,
                0.09602863568912044
            ]
        }
    ]
}