{
    "goal": {
        "global_pose": {
            "orientation": {
                "w": 0.7047431468963623,
                "x": -0.7094548344612122,
                "y": 0.0024358443915843964,
                "z": -0.0022348060738295317
            },
            "position": {
                "x": 0.6094750761985779,
                "y": 0.3671506643295288,
                "z": 0.19426114857196808
            }
        },
        "name": "move_to_magneteinheit_A"
    },
    "id": "STRIDE_move_to_magneteinheit_A_43",
    "joint_names": [
        "shoulder_pan_joint",
        "shoulder_lift_joint",
        "elbow_joint",
        "wrist_1_joint",
        "wrist_2_joint",
        "wrist_3_joint"
    ],
    "metrics": {
        "cart_traj_len": 3.5356073888131343,
        "distance_elbow_joint": 3.907449985929466,
        "distance_shoulder_lift_joint": 0.5858522536324361,
        "distance_shoulder_pan_joint": 2.974363134398695,
        "distance_wrist_1_joint": 3.458497624668935,
        "distance_wrist_2_joint": 2.6241546081037033,
        "distance_wrist_3_joint": 1.3264627060979022,
        "smoothness": 0.13445493151317983,
        "time": 0.151030317,
        "traj_len": 3.8570429493111877,
        "weighted_distance": 4.859254876809775
    },
    "planner": "STRIDE",
    "start": {
        "state": {
            "elbow_joint": -1.9196185241190666,
            "shoulder_lift_joint": -1.2443396400964142,
            "shoulder_pan_joint": 2.6996025414629847,
            "wrist_1_joint": -1.5485510000780065,
            "wrist_2_joint": -1.5709468930060704,
            "wrist_3_joint": 0.4420197071253992
        }
    },
    "waypoints": [
        {
            "positions": [
                2.6996025414629847,
                -1.2443396400964142,
                -1.9196185241190666,
                -1.5485510000780065,
                -1.5709468930060704,
                0.4420197071253992
            ]
        },
        {
            "positions": [
                2.5757160810611173,
                -1.2470155376637664,
                -1.826013201795705,
                -1.493881836212838,
                -1.4783587572546981,
                0.4624175908543081
            ]
        },
        {
            "positions": [
                2.4518296206592503,
                -1.2496914352311184,
                -1.7324078794723432,
                -1.4392126723476697,
                -1.385770621503326,
                0.48281547458321705
            ]
        },
        {
            "positions": [
                2.327943160257383,
                -1.2523673327984706,
                -1.6388025571489813,
                -1.3845435084825013,
                -1.2931824857519538,
                0.503213358312126
            ]
        },
        {
            "positions": [
                2.2040566998555153,
                -1.2550432303658228,
                -1.5451972348256195,
                -1.329874344617333,
                -1.2005943500005816,
                0.5236112420410349
            ]
        },
        {
            "positions": [
                2.080170239453648,
                -1.2577191279331748,
                -1.4515919125022578,
                -1.2752051807521645,
                -1.1080062142492095,
                0.5440091257699439
            ]
        },
        {
            "positions": [
                1.9562837790517809,
                -1.260395025500527,
                -1.3579865901788961,
                -1.220536016886996,
                -1.0154180784978373,
                0.5644070094988528
            ]
        },
        {
            "positions": [
                1.8323973186499134,
                -1.2630709230678792,
                -1.2643812678555344,
                -1.1658668530218277,
                -0.922829942746465,
                0.5848048932277617
            ]
        },
        {
            "positions": [
                1.708510858248046,
                -1.2657468206352311,
                -1.1707759455321725,
                -1.1111976891566593,
                -0.8302418069950928,
                0.6052027769566707
            ]
        },
        {
            "positions": [
                1.5846243978461787,
                -1.2684227182025833,
                -1.0771706232088107,
                -1.0565285252914909,
                -0.7376536712437205,
                0.6256006606855796
            ]
        },
        {
            "positions": [
                1.4607379374443115,
                -1.2710986157699355,
                -0.9835653008854491,
                -1.0018593614263225,
                -0.6450655354923485,
                0.6459985444144886
            ]
        },
        {
            "positions": [
                1.336851477042444,
                -1.2737745133372878,
                -0.8899599785620873,
                -0.9471901975611541,
                -0.5524773997409762,
                0.6663964281433975
            ]
        },
        {
            "positions": [
                1.2129650166405768,
                -1.2764504109046397,
                -0.7963546562387256,
                -0.8925210336959857,
                -0.45988926398960417,
                0.6867943118723064
            ]
        },
        {
            "positions": [
                1.0890785562387093,
                -1.279126308471992,
                -0.7027493339153636,
                -0.8378518698308173,
                -0.3673011282382317,
                0.7071921956012154
            ]
        },
        {
            "positions": [
                0.9651920958368421,
                -1.2818022060393441,
                -0.6091440115920022,
                -0.7831827059656489,
                -0.27471299248685965,
                0.7275900793301243
            ]
        },
        {
            "positions": [
                0.8413056354349748,
                -1.2844781036066961,
                -0.5155386892686404,
                -0.7285135421004806,
                -0.18212485673548762,
                0.7479879630590333
            ]
        },
        {
            "positions": [
                0.7174191750331071,
                -1.2871540011740483,
                -0.4219333669452785,
                -0.6738443782353121,
                -0.08953672098411514,
                0.7683858467879422
            ]
        },
        {
            "positions": [
                0.5935327146312401,
                -1.2898298987414005,
                -0.3283280446219168,
                -0.6191752143701437,
                0.003051414767256899,
                0.7887837305168511
            ]
        },
        {
            "positions": [
                0.4696462542293727,
                -1.2925057963087525,
                -0.23472272229855484,
                -0.5645060505049752,
                0.09563955051862938,
                0.8091816142457601
            ]
        },
        {
            "positions": [
                0.3457597938275052,
                -1.2951816938761047,
                -0.14111739997519313,
                -0.5098368866398069,
                0.18822768627000142,
                0.829579497974669
            ]
        },
        {
            "positions": [
                0.2218733334256382,
                -1.297857591443457,
                -0.04751207765183163,
                -0.45516772277463846,
                0.28081582202137345,
                0.849977381703578
            ]
        },
        {
            "positions": [
                0.0979868730237703,
                -1.300533489010809,
                0.04609324467153031,
                -0.40049855890947006,
                0.37340395777274593,
                0.8703752654324869
            ]
        },
        {
            "positions": [
                -0.02589958737809676,
                -1.303209386578161,
                0.13969856699489222,
                -0.34582939504430166,
                0.4659920935241182,
                0.8907731491613958
            ]
        },
        {
            "positions": [
                -0.029458512101575584,
                -1.2664639050875772,
                0.2555943597266641,
                -0.21433360631016785,
                0.4296655073911113,
                0.8298178517956944
            ]
        },
        {
            "positions": [
                -0.03301743682505441,
                -1.2297184235969933,
                0.3714901524584361,
                -0.08283781757603403,
                0.3933389212581045,
                0.7688625544299932
            ]
        },
        {
            "positions": [
                -0.036576361548533234,
                -1.1929729421064095,
                0.48738594519020795,
                0.04865797115809978,
                0.3570123351250976,
                0.7079072570642918
            ]
        },
        {
            "positions": [
                -0.04013528627201206,
                -1.1562274606158254,
                0.6032817379219799,
                0.1801537598922336,
                0.3206857489920908,
                0.6469519596985904
            ]
        },
        {
            "positions": [
                -0.04369421099549088,
                -1.1194819791252415,
                0.7191775306537519,
                0.3116495486263674,
                0.2843591628590839,
                0.5859966623328892
            ]
        },
        {
            "positions": [
                -0.047253135718969705,
                -1.0827364976346576,
                0.8350733233855238,
                0.4431453373605012,
                0.24803257672607704,
                0.5250413649671879
            ]
        },
        {
            "positions": [
                -0.05081206044244853,
                -1.0459910161440737,
                0.9509691161172957,
                0.574641126094635,
                0.21170599059307016,
                0.46408606760148646
            ]
        },
        {
            "positions": [
                -0.05437098516592735,
                -1.0092455346534899,
                1.0668649088490676,
                0.7061369148287688,
                0.17537940446006334,
                0.40313077023578514
            ]
        },
        {
            "positions": [
                -0.05792990988940619,
                -0.9725000531629059,
                1.1827607015808397,
                0.8376327035629028,
                0.1390528183270564,
                0.34217547287008376
            ]
        },
        {
            "positions": [
                -0.06148883461288501,
                -0.935754571672322,
                1.2986564943126115,
                0.9691284922970365,
                0.10272623219404958,
                0.2812201755043824
            ]
        },
        {
            "positions": [
                -0.06504775933636382,
                -0.8990090901817381,
                1.4145522870443834,
                1.1006242810311702,
                0.0663996460610427,
                0.22026487813868112
            ]
        },
        {
            "positions": [
                -0.06860668405984265,
                -0.8622636086911543,
                1.5304480797761553,
                1.232120069765304,
                0.030073059928035883,
                0.15930958077297985
            ]
        },
        {
            "positions": [
                -0.07216560878332148,
                -0.8255181272005703,
                1.6463438725079274,
                1.363615858499438,
                -0.006253526204971049,
                0.09835428340727836
            ]
        },
        {
            "positions": [
                -0.0757245335068003,
                -0.7887726457099864,
                1.7622396652396992,
                1.4951116472335717,
                -0.04258011233797787,
                0.037398986041577126
            ]
        },
        {
            "positions": [
                -0.009379180363829537,
                -0.7845907236158149,
                1.837436930763266,
                1.6333899730193577,
                -0.06879458424178389,
                0.02928728572754808
            ]
        },
        {
            "positions": [
                0.05696617277914123,
                -0.7804088015216434,
                1.9126341962868332,
                1.7716682988051435,
                -0.09500905614558992,
                0.021175585413519032
            ]
        },
        {
            "positions": [
                0.123311525922112,
                -0.7762268794274719,
                1.9878314618104,
                1.9099466245909296,
                -0.12122352804939596,
                0.013063885099489983
            ]
        }
    ]
}