{
    "goal": {
        "global_pose": {
            "orientation": {
                "w": -0.00223480608172531,
                "x": 0.0024358444001904467,
                "y": 0.7094548369677653,
                "z": -0.704743149386269
            },
            "position": {
                "x": 0.6205249238014221,
                "y": -0.6371506643295288,
                "z": 0.19426114857196808
            }
        },
        "name": "move_to_magneteinheit_B"
    },
    "id": "STRIDE_move_to_magneteinheit_B_49",
    "joint_names": [
        "shoulder_pan_joint",
        "shoulder_lift_joint",
        "elbow_joint",
        "wrist_1_joint",
        "wrist_2_joint",
        "wrist_3_joint"
    ],
    "metrics": {
        "cart_traj_len": 4.221826939885633,
        "distance_elbow_joint": 4.633653914996908,
        "distance_shoulder_lift_joint": 1.058532575510844,
        "distance_shoulder_pan_joint": 3.9430742956602143,
        "distance_wrist_1_joint": 2.7162523391733524,
        "distance_wrist_2_joint": 2.3410701724485214,
        "distance_wrist_3_joint": 1.4858055900921694,
        "smoothness": 0.5885828007273546,
        "time": 2.979752565,
        "traj_len": 4.022236801567258,
        "weighted_distance": 4.920093757205062
    },
    "planner": "STRIDE",
    "start": {
        "state": {
            "elbow_joint": 2.6216224122426386,
            "shoulder_lift_joint": -1.4174107377796124,
            "shoulder_pan_joint": 0.7066234856936794,
            "wrist_1_joint": 1.9546482284002225,
            "wrist_2_joint": -0.7096286983471962,
            "wrist_3_joint": 0.005740856962016249
        }
    },
    "waypoints": [
        {
            "positions": [
                0.7066234856936794,
                -1.4174107377796124,
                2.6216224122426386,
                1.9546482284002225,
                -0.7096286983471962,
                0.005740856962016249
            ]
        },
        {
            "positions": [
                0.7311730747421972,
                -1.447173584980735,
                2.5475928035025435,
                1.8151042924112724,
                -0.7818797447035979,
                0.05966132489716799
            ]
        },
        {
            "positions": [
                0.7557226637907151,
                -1.4769364321818577,
                2.4735631947624483,
                1.6755603564223223,
                -0.8541307910599996,
                0.11358179283231973
            ]
        },
        {
            "positions": [
                0.7550485812083099,
                -1.4932213899251776,
                2.4223689019371886,
                1.5873203850352515,
                -0.8825821653243251,
                0.1488887357962304
            ]
        },
        {
            "positions": [
                0.7543744986259047,
                -1.5095063476684976,
                2.3711746091119283,
                1.4990804136481808,
                -0.9110335395886505,
                0.18419567876014106
            ]
        },
        {
            "positions": [
                0.6941356143789177,
                -1.5191630816090416,
                2.282214588011798,
                1.3857006717567235,
                -0.8756516768472987,
                0.23701342819527219
            ]
        },
        {
            "positions": [
                0.6338967301319306,
                -1.5288198155495858,
                2.1932545669116674,
                1.2723209298652662,
                -0.8402698141059468,
                0.28983117763040334
            ]
        },
        {
            "positions": [
                0.5736578458849436,
                -1.5384765494901298,
                2.104294545811537,
                1.158941187973809,
                -0.804887951364595,
                0.3426489270655344
            ]
        },
        {
            "positions": [
                0.5134189616379566,
                -1.5481332834306738,
                2.015334524711407,
                1.0455614460823517,
                -0.7695060886232432,
                0.3954666765006656
            ]
        },
        {
            "positions": [
                0.4531800773909696,
                -1.557790017371218,
                1.9263745036112763,
                0.9321817041908943,
                -0.7341242258818914,
                0.44828442593579665
            ]
        },
        {
            "positions": [
                0.3929411931439826,
                -1.567446751311762,
                1.837414482511146,
                0.818801962299437,
                -0.6987423631405396,
                0.5011021753709278
            ]
        },
        {
            "positions": [
                0.3327023088969956,
                -1.5771034852523063,
                1.7484544614110156,
                0.7054222204079797,
                -0.6633605003991877,
                0.553919924806059
            ]
        },
        {
            "positions": [
                0.27246342465000856,
                -1.5867602191928503,
                1.659494440310885,
                0.5920424785165224,
                -0.6279786376578358,
                0.6067376742411901
            ]
        },
        {
            "positions": [
                0.21222454040302152,
                -1.5964169531333943,
                1.5705344192107547,
                0.4786627366250651,
                -0.592596774916484,
                0.6595554236763213
            ]
        },
        {
            "positions": [
                0.15198565615603454,
                -1.6060736870739385,
                1.4815743981106244,
                0.3652829947336078,
                -0.5572149121751322,
                0.7123731731114523
            ]
        },
        {
            "positions": [
                0.09174677190904752,
                -1.6157304210144825,
                1.392614377010494,
                0.25190325284215054,
                -0.5218330494337804,
                0.7651909225465835
            ]
        },
        {
            "positions": [
                0.2183283440769231,
                -1.628059580941329,
                1.2308773682482967,
                0.2693273501467524,
                -0.45646155479378364,
                0.7559595862998849
            ]
        },
        {
            "positions": [
                0.34490991624479866,
                -1.6403887408681754,
                1.0691403594860993,
                0.2867514474513543,
                -0.3910900601537869,
                0.7467282500531863
            ]
        },
        {
            "positions": [
                0.47149148841267424,
                -1.652717900795022,
                0.907403350723902,
                0.3041755447559561,
                -0.32571856551379014,
                0.7374969138064877
            ]
        },
        {
            "positions": [
                0.5980730605805499,
                -1.6650470607218684,
                0.7456663419617047,
                0.32159964206055797,
                -0.2603470708737934,
                0.7282655775597892
            ]
        },
        {
            "positions": [
                0.7246546327484255,
                -1.6773762206487146,
                0.5839293331995073,
                0.33902373936515984,
                -0.19497557623379663,
                0.7190342413130906
            ]
        },
        {
            "positions": [
                0.851236204916301,
                -1.689705380575561,
                0.42219232443731003,
                0.3564478366697617,
                -0.12960408159379988,
                0.709802905066392
            ]
        },
        {
            "positions": [
                0.9778177770841765,
                -1.7020345405024075,
                0.2604553156751128,
                0.3738719339743636,
                -0.06423258695380318,
                0.7005715688196934
            ]
        },
        {
            "positions": [
                1.104399349252052,
                -1.714363700429254,
                0.09871830691291539,
                0.3912960312789654,
                0.0011389076861936243,
                0.6913402325729948
            ]
        },
        {
            "positions": [
                1.2309809214199277,
                -1.7266928603561005,
                -0.06301870184928204,
                0.4087201285835673,
                0.06651040232619043,
                0.6821088963262962
            ]
        },
        {
            "positions": [
                1.3575624935878032,
                -1.739022020282947,
                -0.22475571061147925,
                0.42614422588816914,
                0.13188189696618713,
                0.6728775600795976
            ]
        },
        {
            "positions": [
                1.484144065755679,
                -1.7513511802097934,
                -0.3864927193736767,
                0.443568323192771,
                0.19725339160618394,
                0.6636462238328991
            ]
        },
        {
            "positions": [
                1.6107256379235544,
                -1.7636803401366399,
                -0.5482297281358739,
                0.4609924204973729,
                0.26262488624618063,
                0.6544148875862005
            ]
        },
        {
            "positions": [
                1.73730721009143,
                -1.7760095000634863,
                -0.7099667368980711,
                0.4784165178019747,
                0.32799638088617744,
                0.6451835513395019
            ]
        },
        {
            "positions": [
                1.8638887822593053,
                -1.7883386599903326,
                -0.8717037456602683,
                0.49584061510657657,
                0.393367875526174,
                0.6359522150928033
            ]
        },
        {
            "positions": [
                1.9904703544271811,
                -1.8006678199171793,
                -1.033440754422466,
                0.5132647124111784,
                0.45873937016617083,
                0.6267208788461047
            ]
        },
        {
            "positions": [
                2.1170519265950567,
                -1.8129969798440255,
                -1.1951777631846632,
                0.5306888097157803,
                0.5241108648061676,
                0.6174895425994061
            ]
        },
        {
            "positions": [
                2.2436334987629323,
                -1.825326139770872,
                -1.3569147719468604,
                0.5481129070203821,
                0.5894823594461645,
                0.6082582063527076
            ]
        },
        {
            "positions": [
                2.370215070930808,
                -1.8376552996977185,
                -1.518651780709058,
                0.5655370043249841,
                0.6548538540861613,
                0.599026870106009
            ]
        },
        {
            "positions": [
                2.4967966430986834,
                -1.849984459624565,
                -1.6803887894712548,
                0.5829611016295859,
                0.7202253487261578,
                0.5897955338593104
            ]
        },
        {
            "positions": [
                2.623378215266559,
                -1.8623136195514114,
                -1.8421257982334525,
                0.6003851989341877,
                0.7855968433661547,
                0.5805641976126118
            ]
        },
        {
            "positions": [
                2.7148737723495056,
                -1.9537178990261308,
                -1.8307642936079236,
                0.56382325151306,
                0.8021221864473049,
                0.4655013153104713
            ]
        },
        {
            "positions": [
                2.806369329432452,
                -2.04512217850085,
                -1.8194027889823947,
                0.5272613040919322,
                0.8186475295284552,
                0.3504384330083308
            ]
        },
        {
            "positions": [
                2.897864886515398,
                -2.1365264579755694,
                -1.8080412843568658,
                0.49069935667080444,
                0.8351728726096054,
                0.23537555070619032
            ]
        },
        {
            "positions": [
                2.9893604435983447,
                -2.227930737450289,
                -1.796679779731337,
                0.45413740924967666,
                0.8516982156907557,
                0.1203126684040498
            ]
        },
        {
            "positions": [
                2.906603114744057,
                -2.2747866712478135,
                -1.7699873661748255,
                0.5752028621690908,
                0.7651604195712008,
                0.11252895058375903
            ]
        },
        {
            "positions": [
                2.8238457858897688,
                -2.321642605045338,
                -1.7432949526183141,
                0.6962683150885048,
                0.6786226234516461,
                0.10474523276346824
            ]
        },
        {
            "positions": [
                2.741088457035481,
                -2.368498538842863,
                -1.7166025390618027,
                0.8173337680079189,
                0.5920848273320913,
                0.09696151494317745
            ]
        },
        {
            "positions": [
                2.658331128181193,
                -2.4153544726403875,
                -1.6899101255052913,
                0.9383992209273331,
                0.5055470312125365,
                0.08917779712288668
            ]
        },
        {
            "positions": [
                2.659687366756255,
                -2.4759433132904562,
                -1.6722200937126355,
                0.9729150370884102,
                0.4747646397630953,
                0.03883539803898152
            ]
        }
    ]
}