{
    "goal": {
        "global_pose": {
            "orientation": {
                "w": -0.4816463035849501,
                "x": 0.5182115481033762,
                "y": 0.4908360881923453,
                "z": -0.5084816262002911
            },
            "position": {
                "x": -0.8240239810943604,
                "y": 0.19912469901144506,
                "z": 0.16403168439865112
            }
        },
        "name": "move_to_storage_D"
    },
    "id": "STRIDE_move_to_storage_D_7",
    "joint_names": [
        "shoulder_pan_joint",
        "shoulder_lift_joint",
        "elbow_joint",
        "wrist_1_joint",
        "wrist_2_joint",
        "wrist_3_joint"
    ],
    "metrics": {
        "cart_traj_len": 3.7826614224801824,
        "distance_elbow_joint": 4.217795429461708,
        "distance_shoulder_lift_joint": 1.2651152969900683,
        "distance_shoulder_pan_joint": 2.811451395469052,
        "distance_wrist_1_joint": 2.275869317915748,
        "distance_wrist_2_joint": 0.9155241337203277,
        "distance_wrist_3_joint": 3.2517383993088234,
        "smoothness": 0.2783747115238874,
        "time": 0.21431643,
        "traj_len": 3.8389443826220937,
        "weighted_distance": 4.942910501224906
    },
    "planner": "STRIDE",
    "start": {
        "state": {
            "elbow_joint": -2.384821988534728,
            "shoulder_lift_joint": -2.2788054721415256,
            "shoulder_pan_joint": -0.1854694642142757,
            "wrist_1_joint": 1.4845938289331202,
            "wrist_2_joint": 0.17898776772866878,
            "wrist_3_joint": 0.037105688729662994
        }
    },
    "waypoints": [
        {
            "positions": [
                -0.1854694642142757,
                -2.2788054721415256,
                -2.384821988534728,
                1.4845938289331202,
                0.17898776772866878,
                0.037105688729662994
            ]
        },
        {
            "positions": [
                -0.13070004112184824,
                -2.2352493620108875,
                -2.3883543466865342,
                1.4654046167985326,
                0.1556064627491272,
                0.10021114732185456
            ]
        },
        {
            "positions": [
                -0.05454100071837932,
                -2.20114168114118,
                -2.277406920470162,
                1.409996977840433,
                0.17584856913864558,
                0.008906909550583056
            ]
        },
        {
            "positions": [
                0.0216180396850896,
                -2.1670340002714727,
                -2.16645949425379,
                1.3545893388823336,
                0.19609067552816395,
                -0.08239732822068845
            ]
        },
        {
            "positions": [
                0.09777708008855854,
                -2.1329263194017654,
                -2.0555120680374177,
                1.2991816999242338,
                0.2163327819176823,
                -0.17370156599196002
            ]
        },
        {
            "positions": [
                0.17393612049202745,
                -2.098818638532058,
                -1.9445646418210456,
                1.2437740609661343,
                0.2365748883072007,
                -0.26500580376323146
            ]
        },
        {
            "positions": [
                0.2500951608954964,
                -2.0647109576623506,
                -1.8336172156046735,
                1.1883664220080348,
                0.25681699469671904,
                -0.356310041534503
            ]
        },
        {
            "positions": [
                0.3262542012989653,
                -2.030603276792643,
                -1.7226697893883012,
                1.1329587830499352,
                0.27705910108623744,
                -0.4476142793057746
            ]
        },
        {
            "positions": [
                0.40241324170243414,
                -1.996495595922936,
                -1.6117223631719293,
                1.0775511440918357,
                0.2973012074757558,
                -0.538918517077046
            ]
        },
        {
            "positions": [
                0.47857228210590314,
                -1.9623879150532286,
                -1.500774936955557,
                1.022143505133736,
                0.3175433138652741,
                -0.6302227548483175
            ]
        },
        {
            "positions": [
                0.554731322509372,
                -1.9282802341835212,
                -1.3898275107391849,
                0.9667358661756366,
                0.3377854202547925,
                -0.7215269926195891
            ]
        },
        {
            "positions": [
                0.6308903629128411,
                -1.8941725533138138,
                -1.2788800845228125,
                0.9113282272175369,
                0.35802752664431087,
                -0.8128312303908606
            ]
        },
        {
            "positions": [
                0.7070494033163099,
                -1.8600648724441065,
                -1.1679326583064404,
                0.8559205882594374,
                0.3782696330338292,
                -0.9041354681621321
            ]
        },
        {
            "positions": [
                0.7832084437197788,
                -1.825957191574399,
                -1.0569852320900683,
                0.8005129493013378,
                0.3985117394233476,
                -0.9954397059334037
            ]
        },
        {
            "positions": [
                0.8593674841232477,
                -1.791849510704692,
                -0.9460378058736962,
                0.7451053103432383,
                0.41875384581286595,
                -1.086743943704675
            ]
        },
        {
            "positions": [
                0.9355265245267166,
                -1.7577418298349845,
                -0.8350903796573241,
                0.6896976713851387,
                0.43899595220238435,
                -1.1780481814759465
            ]
        },
        {
            "positions": [
                1.0116855649301855,
                -1.7236341489652771,
                -0.724142953440952,
                0.6342900324270392,
                0.4592380585919027,
                -1.269352419247218
            ]
        },
        {
            "positions": [
                1.0878446053336546,
                -1.6895264680955697,
                -0.6131955272245797,
                0.5788823934689395,
                0.4794801649814211,
                -1.3606566570184895
            ]
        },
        {
            "positions": [
                1.1640036457371234,
                -1.6554187872258623,
                -0.5022481010082076,
                0.52347475451084,
                0.49972227137093944,
                -1.451960894789761
            ]
        },
        {
            "positions": [
                1.2401626861405923,
                -1.621311106356155,
                -0.3913006747918355,
                0.4680671155527405,
                0.5199643777604578,
                -1.5432651325610327
            ]
        },
        {
            "positions": [
                1.3163217265440614,
                -1.5872034254864475,
                -0.2803532485754632,
                0.412659476594641,
                0.5402064841499762,
                -1.634569370332304
            ]
        },
        {
            "positions": [
                1.3924807669475303,
                -1.5530957446167402,
                -0.16940582235909085,
                0.3572518376365412,
                0.5604485905394945,
                -1.7258736081035757
            ]
        },
        {
            "positions": [
                1.4686398073509992,
                -1.5189880637470328,
                -0.05845839614271897,
                0.3018441986784417,
                0.5806906969290129,
                -1.817177845874847
            ]
        },
        {
            "positions": [
                1.544798847754468,
                -1.4848803828773254,
                0.05248903007365335,
                0.24643655972034217,
                0.6009328033185313,
                -1.9084820836461187
            ]
        },
        {
            "positions": [
                1.6209578881579372,
                -1.450772702007618,
                0.16343645629002568,
                0.19102892076224265,
                0.6211749097080497,
                -1.9997863214173903
            ]
        },
        {
            "positions": [
                1.697116928561406,
                -1.4166650211379106,
                0.27438388250639756,
                0.1356212818041429,
                0.6414170160975681,
                -2.091090559188662
            ]
        },
        {
            "positions": [
                1.773275968964875,
                -1.3825573402682032,
                0.3853313087227699,
                0.08021364284604338,
                0.6616591224870865,
                -2.182394796959933
            ]
        },
        {
            "positions": [
                1.8494350093683436,
                -1.3484496593984963,
                0.49627873493914176,
                0.024806003887944073,
                0.6819012288766046,
                -2.2736990347312047
            ]
        },
        {
            "positions": [
                1.9255940497718127,
                -1.3143419785287889,
                0.6072261611555136,
                -0.030601635070155453,
                0.702143335266123,
                -2.365003272502476
            ]
        },
        {
            "positions": [
                2.0017530901752814,
                -1.2802342976590815,
                0.718173587371886,
                -0.0860092740282552,
                0.7223854416556414,
                -2.4563075102737475
            ]
        },
        {
            "positions": [
                2.0779121305787505,
                -1.246126616789374,
                0.8291210135882583,
                -0.14141691298635473,
                0.7426275480451598,
                -2.547611748045019
            ]
        },
        {
            "positions": [
                2.154071170982219,
                -1.2120189359196667,
                0.9400684398046302,
                -0.19682455194445425,
                0.7628696544346782,
                -2.6389159858162907
            ]
        },
        {
            "positions": [
                2.230230211385688,
                -1.1779112550499593,
                1.0510158660210025,
                -0.2522321909025538,
                0.7831117608241966,
                -2.7302202235875623
            ]
        },
        {
            "positions": [
                2.3063892517891573,
                -1.143803574180252,
                1.1619632922373748,
                -0.3076398298606535,
                0.803353867213715,
                -2.8215244613588335
            ]
        },
        {
            "positions": [
                2.382548292192626,
                -1.1096958933105445,
                1.2729107184537467,
                -0.36304746881875305,
                0.8235959736032332,
                -2.912828699130105
            ]
        },
        {
            "positions": [
                2.458707332596095,
                -1.0755882124408371,
                1.383858144670119,
                -0.4184551077768526,
                0.8438380799927516,
                -3.0041329369013767
            ]
        },
        {
            "positions": [
                2.5005259822607653,
                -1.0601137031184922,
                1.494370789658431,
                -0.5116602030782964,
                0.8948158828670421,
                -3.0252051510247266
            ]
        },
        {
            "positions": [
                2.5423446319254355,
                -1.0446391937961472,
                1.6048834346467433,
                -0.6048652983797402,
                0.9457936857413325,
                -3.046277365148077
            ]
        },
        {
            "positions": [
                2.584163281590106,
                -1.0291646844738023,
                1.7153960796350556,
                -0.698070393681184,
                0.9967714886156229,
                -3.0673495792714274
            ]
        },
        {
            "positions": [
                2.6259819312547763,
                -1.0136901751514573,
                1.8259087246233676,
                -0.7912754889826278,
                1.0477492914899134,
                -3.0884217933947773
            ]
        }
    ]
}