{
    "goal": {
        "global_pose": {
            "orientation": {
                "w": -0.00223480608172531,
                "x": 0.0024358444001904467,
                "y": 0.7094548369677653,
                "z": -0.704743149386269
            },
            "position": {
                "x": -0.37947507619857795,
                "y": -0.6371506643295288,
                "z": 0.19426114857196808
            }
        },
        "name": "move_to_magneteinheit_C"
    },
    "id": "STRIDE_move_to_magneteinheit_C_124",
    "joint_names": [
        "shoulder_pan_joint",
        "shoulder_lift_joint",
        "elbow_joint",
        "wrist_1_joint",
        "wrist_2_joint",
        "wrist_3_joint"
    ],
    "metrics": {
        "cart_traj_len": 2.4073622939608517,
        "distance_elbow_joint": 0.13422489157152562,
        "distance_shoulder_lift_joint": 0.9781355643267768,
        "distance_shoulder_pan_joint": 3.2181506387024528,
        "distance_wrist_1_joint": 0.5161091220905463,
        "distance_wrist_2_joint": 0.7964667236642082,
        "distance_wrist_3_joint": 1.3724917486156967,
        "smoothness": 1.552417277918449,
        "time": 0.420042836,
        "traj_len": 2.648693770327405,
        "weighted_distance": 3.3276324965292297
    },
    "planner": "STRIDE",
    "start": {
        "state": {
            "elbow_joint": 1.9565354010623817,
            "shoulder_lift_joint": -1.4165861575791021,
            "shoulder_pan_joint": -1.6717766225146293,
            "wrist_1_joint": -0.5286633292919765,
            "wrist_2_joint": 1.472756589071564,
            "wrist_3_joint": -3.1238370188695823
        }
    },
    "waypoints": [
        {
            "positions": [
                -1.6717766225146293,
                -1.4165861575791021,
                1.9565354010623817,
                -0.5286633292919765,
                1.472756589071564,
                -3.1238370188695823
            ]
        },
        {
            "positions": [
                -1.4991758010854723,
                -1.468488575953008,
                1.9512741841893626,
                -0.5152711703342194,
                1.428731298737058,
                -3.0271110434698656
            ]
        },
        {
            "positions": [
                -1.3265749796563153,
                -1.5203909943269136,
                1.9460129673163433,
                -0.5018790113764623,
                1.3847060084025522,
                -2.930385068070149
            ]
        },
        {
            "positions": [
                -1.1539741582271583,
                -1.5722934127008195,
                1.9407517504433243,
                -0.48848685241870526,
                1.3406807180680462,
                -2.833659092670432
            ]
        },
        {
            "positions": [
                -0.9813733367980014,
                -1.6241958310747253,
                1.935490533570305,
                -0.47509469346094824,
                1.2966554277335405,
                -2.7369331172707154
            ]
        },
        {
            "positions": [
                -0.8087725153688444,
                -1.6760982494486312,
                1.930229316697286,
                -0.46170253450319115,
                1.2526301373990345,
                -2.6402071418709987
            ]
        },
        {
            "positions": [
                -0.6361716939396875,
                -1.7280006678225368,
                1.9249680998242666,
                -0.4483103755454341,
                1.2086048470645288,
                -2.543481166471282
            ]
        },
        {
            "positions": [
                -0.46357087251053064,
                -1.7799030861964427,
                1.9197068829512476,
                -0.43491821658767704,
                1.1645795567300228,
                -2.4467551910715652
            ]
        },
        {
            "positions": [
                -0.6462931351194718,
                -1.7240104829501304,
                1.928561098720374,
                -0.4733149447136995,
                1.1201895847915986,
                -2.5099742747822633
            ]
        },
        {
            "positions": [
                -0.8290153977284132,
                -1.6681178797038179,
                1.9374153144895006,
                -0.511711672839722,
                1.0757996128531742,
                -2.5731933584929614
            ]
        },
        {
            "positions": [
                -1.0117376603373542,
                -1.6122252764575056,
                1.946269530258627,
                -0.5501084009657443,
                1.03140964091475,
                -2.6364124422036594
            ]
        },
        {
            "positions": [
                -1.1944599229462955,
                -1.556332673211193,
                1.9551237460277535,
                -0.5885051290917668,
                0.9870196689763256,
                -2.699631525914358
            ]
        },
        {
            "positions": [
                -1.3771821855552369,
                -1.5004400699648808,
                1.96397796179688,
                -0.6269018572177892,
                0.9426296970379013,
                -2.762850609625056
            ]
        },
        {
            "positions": [
                -1.5599044481641777,
                -1.4445474667185683,
                1.9728321775660067,
                -0.6652985853438117,
                0.8982397250994771,
                -2.826069693335754
            ]
        },
        {
            "positions": [
                -1.742626710773119,
                -1.388654863472256,
                1.9816863933351332,
                -0.703695313469834,
                0.8538497531610528,
                -2.889288777046452
            ]
        },
        {
            "positions": [
                -1.9253489733820603,
                -1.3327622602259435,
                1.9905406091042597,
                -0.7420920415958565,
                0.8094597812226285,
                -2.9525078607571507
            ]
        },
        {
            "positions": [
                -2.1080712359910017,
                -1.2768696569796312,
                1.9993948248733862,
                -0.780488769721879,
                0.7650698092842042,
                -3.0157269444678487
            ]
        },
        {
            "positions": [
                -2.290793498599943,
                -1.2209770537333187,
                2.0082490406425126,
                -0.8188854978479014,
                0.72067983734578,
                -3.078946028178547
            ]
        },
        {
            "positions": [
                -2.4735157612088843,
                -1.1650844504870064,
                2.017103256411639,
                -0.8572822259739239,
                0.6762898654073557,
                -3.142165111889245
            ]
        }
    ]
}