{
    "goal": {
        "global_pose": {
            "orientation": {
                "w": 0.7031023502349854,
                "x": -0.7110244035720825,
                "y": 0.007748599164187908,
                "z": 0.005598929710686207
            },
            "position": {
                "x": 0.11585023208521307,
                "y": 0.44412534475326537,
                "z": 0.3711530566215515
            }
        },
        "name": "move_to_auspresseinheit_A"
    },
    "id": "STRIDE_move_to_auspresseinheit_A_114",
    "joint_names": [
        "shoulder_pan_joint",
        "shoulder_lift_joint",
        "elbow_joint",
        "wrist_1_joint",
        "wrist_2_joint",
        "wrist_3_joint"
    ],
    "metrics": {
        "cart_traj_len": 1.1565792979372924,
        "distance_elbow_joint": 0.28705719804359653,
        "distance_shoulder_lift_joint": 1.514169934157708,
        "distance_shoulder_pan_joint": 1.5488976744741807,
        "distance_wrist_1_joint": 0.9126019896428124,
        "distance_wrist_2_joint": 0.8280990390140459,
        "distance_wrist_3_joint": 0.7174544299478369,
        "smoothness": 1.5735124604258581,
        "time": 0.918031418,
        "traj_len": 2.4100373991455366,
        "weighted_distance": 2.9973138230476826
    },
    "planner": "STRIDE",
    "start": {
        "state": {
            "elbow_joint": 2.4225746658250005,
            "shoulder_lift_joint": -1.3736534386056498,
            "shoulder_pan_joint": -0.3378633547517467,
            "wrist_1_joint": -1.0288598680537169,
            "wrist_2_joint": 1.233022673432363,
            "wrist_3_joint": -3.0940220416140027
        }
    },
    "waypoints": [
        {
            "positions": [
                -0.3378633547517467,
                -1.3736534386056498,
                2.4225746658250005,
                -1.0288598680537169,
                1.233022673432363,
                -3.0940220416140027
            ]
        },
        {
            "positions": [
                -0.21999615491982893,
                -1.4666959309535261,
                2.4341939775057964,
                -0.9615776192810225,
                1.171636523932591,
                -3.063289668820779
            ]
        },
        {
            "positions": [
                -0.10212895508791112,
                -1.5597384233014022,
                2.445813289186592,
                -0.8942953705083281,
                1.1102503744328192,
                -3.032557296027555
            ]
        },
        {
            "positions": [
                0.015738244744006646,
                -1.6527809156492785,
                2.4574326008673877,
                -0.8270131217356338,
                1.048864224933047,
                -3.001824923234331
            ]
        },
        {
            "positions": [
                0.1336054445759245,
                -1.7458234079971546,
                2.469051912548183,
                -0.7597308729629394,
                0.9874780754332753,
                -2.971092550441107
            ]
        },
        {
            "positions": [
                0.2514726444078423,
                -1.838865900345031,
                2.480671224228979,
                -0.692448624190245,
                0.9260919259335032,
                -2.940360177647883
            ]
        },
        {
            "positions": [
                0.36933984423976,
                -1.931908392692907,
                2.4922905359097745,
                -0.6251663754175507,
                0.8647057764337314,
                -2.9096278048546593
            ]
        },
        {
            "positions": [
                0.48720704407167786,
                -2.0249508850407834,
                2.5039098475905703,
                -0.5578841266448563,
                0.8033196269339593,
                -2.8788954320614355
            ]
        },
        {
            "positions": [
                0.6050742439035957,
                -2.1179933773886597,
                2.5155291592713658,
                -0.4906018778721619,
                0.7419334774341874,
                -2.8481630592682112
            ]
        },
        {
            "positions": [
                0.7229414437355137,
                -2.211035869736536,
                2.5271484709521617,
                -0.4233196290994675,
                0.6805473279344154,
                -2.8174306864749874
            ]
        },
        {
            "positions": [
                0.8408086435674313,
                -2.304078362084412,
                2.538767782632957,
                -0.35603738032677323,
                0.6191611784346435,
                -2.7866983136817636
            ]
        },
        {
            "positions": [
                0.9586758433993492,
                -2.397120854432288,
                2.550387094313753,
                -0.2887551315540789,
                0.5577750289348715,
                -2.7559659408885397
            ]
        },
        {
            "positions": [
                0.9082041481347322,
                -2.298980350766074,
                2.518538140402784,
                -0.32325458218271375,
                0.5883453078381824,
                -2.8318456067330144
            ]
        },
        {
            "positions": [
                0.8577324528701151,
                -2.2008398470998602,
                2.4866891864918155,
                -0.3577540328113486,
                0.6189155867414933,
                -2.907725272577489
            ]
        },
        {
            "positions": [
                0.8072607576054982,
                -2.1026993434336463,
                2.4548402325808465,
                -0.3922534834399834,
                0.6494858656448042,
                -2.9836049384219643
            ]
        },
        {
            "positions": [
                0.7567890623408812,
                -2.0045588397674323,
                2.422991278669878,
                -0.42675293406861825,
                0.680056144548115,
                -3.059484604266439
            ]
        },
        {
            "positions": [
                0.7063173670762641,
                -1.9064183361012186,
                2.391142324758909,
                -0.4612523846972531,
                0.7106264234514259,
                -3.1353642701109137
            ]
        }
    ]
}