{
    "goal": {
        "global_pose": {
            "orientation": {
                "w": -0.4816463035849501,
                "x": 0.5182115481033762,
                "y": 0.4908360881923453,
                "z": -0.5084816262002911
            },
            "position": {
                "x": -0.8240239810943604,
                "y": -0.300875300988555,
                "z": 0.16403168439865112
            }
        },
        "name": "move_to_storage_C"
    },
    "id": "STRIDE_move_to_storage_C_95",
    "joint_names": [
        "shoulder_pan_joint",
        "shoulder_lift_joint",
        "elbow_joint",
        "wrist_1_joint",
        "wrist_2_joint",
        "wrist_3_joint"
    ],
    "metrics": {
        "cart_traj_len": 0.5768456781473711,
        "distance_elbow_joint": 0.25749656923308173,
        "distance_shoulder_lift_joint": 0.18793404943962555,
        "distance_shoulder_pan_joint": 0.49578722160552813,
        "distance_wrist_1_joint": 0.0783658685902211,
        "distance_wrist_2_joint": 1.0631905465078297,
        "distance_wrist_3_joint": 0.06483206437742162,
        "smoothness": 5.075305295617109e-16,
        "time": 0.037525013,
        "traj_len": 1.4654713643581398,
        "weighted_distance": 1.8490069939312295
    },
    "planner": "STRIDE",
    "start": {
        "state": {
            "elbow_joint": 2.010868314990456,
            "shoulder_lift_joint": -1.1634956873337592,
            "shoulder_pan_joint": -2.4736205022346125,
            "wrist_1_joint": -0.8367026794202681,
            "wrist_2_joint": 0.6746043897044499,
            "wrist_3_joint": -3.1496632123970403
        }
    },
    "waypoints": [
        {
            "positions": [
                -2.4736205022346125,
                -1.1634956873337592,
                2.010868314990456,
                -0.8367026794202681,
                0.6746043897044499,
                -3.1496632123970403
            ]
        },
        {
            "positions": [
                -2.5562517058355336,
                -1.1321733457604883,
                1.9679522201182755,
                -0.823641701321898,
                0.8518028141224215,
                -3.138857868334137
            ]
        },
        {
            "positions": [
                -2.638882909436455,
                -1.1008510041872173,
                1.9250361252460952,
                -0.8105807232235277,
                1.0290012385403933,
                -3.128052524271233
            ]
        },
        {
            "positions": [
                -2.721514113037377,
                -1.0695286626139464,
                1.882120030373915,
                -0.7975197451251576,
                1.206199662958365,
                -3.1172471802083295
            ]
        },
        {
            "positions": [
                -2.804145316638298,
                -1.0382063210406756,
                1.8392039355017347,
                -0.7844587670267874,
                1.3833980873763365,
                -3.106441836145426
            ]
        },
        {
            "positions": [
                -2.886776520239219,
                -1.0068839794674045,
                1.7962878406295544,
                -0.7713977889284171,
                1.5605965117943081,
                -3.095636492082522
            ]
        },
        {
            "positions": [
                -2.9694077238401406,
                -0.9755616378941336,
                1.753371745757374,
                -0.758336810830047,
                1.7377949362122798,
                -3.0848311480196187
            ]
        }
    ]
}