{
    "goal": {
        "global_pose": {
            "orientation": {
                "w": 0.005598929693374612,
                "x": 0.007748599140229565,
                "y": 0.7110244013736278,
                "z": -0.7031023480610252
            },
            "position": {
                "x": -0.8858502320852131,
                "y": -0.7141253447532654,
                "z": 0.3711530566215515
            }
        },
        "name": "move_to_auspresseinheit_C"
    },
    "id": "STRIDE_move_to_auspresseinheit_C_130",
    "joint_names": [
        "shoulder_pan_joint",
        "shoulder_lift_joint",
        "elbow_joint",
        "wrist_1_joint",
        "wrist_2_joint",
        "wrist_3_joint"
    ],
    "metrics": {
        "cart_traj_len": 0.49305513422302544,
        "distance_elbow_joint": 0.9898908238080826,
        "distance_shoulder_lift_joint": 0.31982107137282634,
        "distance_shoulder_pan_joint": 0.2567109966293981,
        "distance_wrist_1_joint": 0.6553545575060821,
        "distance_wrist_2_joint": 1.313914250072549,
        "distance_wrist_3_joint": 0.04805577054377652,
        "smoothness": 1.6148698667872622e-16,
        "time": 0.298942262,
        "traj_len": 1.893078833522977,
        "weighted_distance": 2.376789392983505
    },
    "planner": "STRIDE",
    "start": {
        "state": {
            "elbow_joint": 1.7527959577737207,
            "shoulder_lift_joint": -0.9740617694225068,
            "shoulder_pan_joint": -2.967991417825858,
            "wrist_1_joint": -0.759517768980727,
            "wrist_2_joint": 1.7443932448377408,
            "wrist_3_joint": -3.0840537646736568
        }
    },
    "waypoints": [
        {
            "positions": [
                -2.967991417825858,
                -0.9740617694225068,
                1.7527959577737207,
                -0.759517768980727,
                1.7443932448377408,
                -3.0840537646736568
            ]
        },
        {
            "positions": [
                -2.9423203181629183,
                -0.9420796622852241,
                1.6538068753929125,
                -0.6939823132301188,
                1.6130018198304859,
                -3.0888593417280346
            ]
        },
        {
            "positions": [
                -2.916649218499978,
                -0.9100975551479416,
                1.554817793012104,
                -0.6284468574795106,
                1.481610394823231,
                -3.093664918782412
            ]
        },
        {
            "positions": [
                -2.8909781188370385,
                -0.8781154480106589,
                1.455828710631296,
                -0.5629114017289023,
                1.3502189698159761,
                -3.0984704958367897
            ]
        },
        {
            "positions": [
                -2.865307019174099,
                -0.8461333408733762,
                1.3568396282504875,
                -0.49737594597829415,
                1.2188275448087214,
                -3.1032760728911675
            ]
        },
        {
            "positions": [
                -2.839635919511159,
                -0.8141512337360937,
                1.2578505458696794,
                -0.43184049022768595,
                1.0874361198014664,
                -3.108081649945545
            ]
        },
        {
            "positions": [
                -2.813964819848219,
                -0.782169126598811,
                1.1588614634888712,
                -0.36630503447707774,
                0.9560446947942115,
                -3.1128872269999226
            ]
        },
        {
            "positions": [
                -2.7882937201852793,
                -0.7501870194615283,
                1.0598723811080628,
                -0.3007695787264696,
                0.8246532697869566,
                -3.1176928040543004
            ]
        },
        {
            "positions": [
                -2.7626226205223396,
                -0.7182049123242458,
                0.9608832987272545,
                -0.23523412297586133,
                0.6932618447797017,
                -3.122498381108678
            ]
        },
        {
            "positions": [
                -2.7369515208593995,
                -0.686222805186963,
                0.8618942163464464,
                -0.16969866722525306,
                0.5618704197724467,
                -3.1273039581630555
            ]
        },
        {
            "positions": [
                -2.71128042119646,
                -0.6542406980496804,
                0.7629051339656381,
                -0.10416321147464493,
                0.43047899476519197,
                -3.1321095352174333
            ]
        }
    ]
}