{
    "goal": {
        "global_pose": {
            "orientation": {
                "w": 0.7047431493862688,
                "x": -0.7094548369677653,
                "y": 0.0024358444001904,
                "z": -0.0022348060817251984
            },
            "position": {
                "x": -0.39052492380142206,
                "y": 0.3671506643295288,
                "z": 0.19426114857196808
            }
        },
        "name": "move_to_magneteinheit_D"
    },
    "id": "STRIDE_move_to_magneteinheit_D_98",
    "joint_names": [
        "shoulder_pan_joint",
        "shoulder_lift_joint",
        "elbow_joint",
        "wrist_1_joint",
        "wrist_2_joint",
        "wrist_3_joint"
    ],
    "metrics": {
        "cart_traj_len": 4.385862335156606,
        "distance_elbow_joint": 3.9002489755508205,
        "distance_shoulder_lift_joint": 1.1031301351299438,
        "distance_shoulder_pan_joint": 3.0562288949749665,
        "distance_wrist_1_joint": 3.985120537006599,
        "distance_wrist_2_joint": 1.4082225623248494,
        "distance_wrist_3_joint": 5.611124248237651,
        "smoothness": 0.38854720986733354,
        "time": 0.171181378,
        "traj_len": 4.366242704342583,
        "weighted_distance": 5.973245930734107
    },
    "planner": "STRIDE",
    "start": {
        "state": {
            "elbow_joint": 0.749534889911806,
            "shoulder_lift_joint": -0.6476975780787326,
            "shoulder_pan_joint": -2.711696901376241,
            "wrist_1_joint": -0.07506478083263063,
            "wrist_2_joint": 0.43296659715538205,
            "wrist_3_joint": -3.14703540197715
        }
    },
    "waypoints": [
        {
            "positions": [
                -2.711696901376241,
                -0.6476975780787326,
                0.749534889911806,
                -0.07506478083263063,
                0.43296659715538205,
                -3.14703540197715
            ]
        },
        {
            "positions": [
                -2.715769246912829,
                -0.6611909982128582,
                0.7938058069972135,
                -0.12394447193067167,
                0.4597284869797104,
                -3.0164264214461114
            ]
        },
        {
            "positions": [
                -2.7198415924494177,
                -0.6746844183469839,
                0.8380767240826211,
                -0.1728241630287127,
                0.48649037680403884,
                -2.8858174409150723
            ]
        },
        {
            "positions": [
                -2.723913937986006,
                -0.6881778384811095,
                0.8823476411680287,
                -0.22170385412675375,
                0.5132522666283672,
                -2.7552084603840337
            ]
        },
        {
            "positions": [
                -2.730804685198338,
                -0.71074342553757,
                0.915626808351146,
                -0.22426919340995144,
                0.5531729969275041,
                -2.5031985681867073
            ]
        },
        {
            "positions": [
                -2.737695432410671,
                -0.7333090125940305,
                0.9489059755342633,
                -0.22683453269314913,
                0.5930937272266411,
                -2.251188675989381
            ]
        },
        {
            "positions": [
                -2.7445861796230036,
                -0.755874599650491,
                0.9821851427173807,
                -0.22939987197634684,
                0.633014457525778,
                -1.9991787837920545
            ]
        },
        {
            "positions": [
                -2.751476926835336,
                -0.7784401867069515,
                1.0154643099004979,
                -0.23196521125954453,
                0.672935187824915,
                -1.747168891594728
            ]
        },
        {
            "positions": [
                -2.758367674047668,
                -0.801005773763412,
                1.0487434770836153,
                -0.23453055054274222,
                0.7128559181240519,
                -1.4951589993974017
            ]
        },
        {
            "positions": [
                -2.765258421260001,
                -0.8235713608198725,
                1.0820226442667327,
                -0.23709588982593993,
                0.7527766484231888,
                -1.2431491072000753
            ]
        },
        {
            "positions": [
                -2.7721491684723336,
                -0.846136947876333,
                1.1153018114498499,
                -0.23966122910913762,
                0.7926973787223257,
                -0.9911392150027489
            ]
        },
        {
            "positions": [
                -2.779039915684666,
                -0.8687025349327935,
                1.1485809786329673,
                -0.2422265683923353,
                0.8326181090214627,
                -0.7391293228054225
            ]
        },
        {
            "positions": [
                -2.7675226060544054,
                -0.8695786778976454,
                1.0617148298994994,
                -0.08960493298979533,
                0.8224769675786847,
                -0.6677765395165793
            ]
        },
        {
            "positions": [
                -2.7560052964241444,
                -0.8704548208624973,
                0.9748486811660314,
                0.06301670241274465,
                0.8123358261359068,
                -0.5964237562277361
            ]
        },
        {
            "positions": [
                -2.744487986793884,
                -0.8713309638273492,
                0.8879825324325634,
                0.2156383378152847,
                0.8021946846931288,
                -0.5250709729388929
            ]
        },
        {
            "positions": [
                -2.7329706771636233,
                -0.8722071067922011,
                0.8011163836990955,
                0.3682599732178246,
                0.7920535432503508,
                -0.4537181896500498
            ]
        },
        {
            "positions": [
                -2.7214533675333623,
                -0.873083249757053,
                0.7142502349656277,
                0.5208816086203647,
                0.7819124018075729,
                -0.3823654063612066
            ]
        },
        {
            "positions": [
                -2.7099360579031018,
                -0.8739593927219049,
                0.6273840862321597,
                0.6735032440229046,
                0.7717712603647949,
                -0.3110126230723634
            ]
        },
        {
            "positions": [
                -2.6066218085668242,
                -0.8871129909069337,
                0.5411779463986305,
                0.5994793402634498,
                0.743339927361742,
                -0.3977256233023311
            ]
        },
        {
            "positions": [
                -2.503307559230547,
                -0.9002665890919626,
                0.4549718065651014,
                0.525455436503995,
                0.7149085943586891,
                -0.48443862353229883
            ]
        },
        {
            "positions": [
                -2.3999933098942696,
                -0.9134201872769915,
                0.36876566673157224,
                0.4514315327445402,
                0.6864772613556362,
                -0.5711516237622665
            ]
        },
        {
            "positions": [
                -2.2966790605579925,
                -0.9265737854620203,
                0.28255952689804303,
                0.37740762898508534,
                0.6580459283525834,
                -0.6578646239922342
            ]
        },
        {
            "positions": [
                -2.193364811221715,
                -0.9397273836470491,
                0.19635338706451388,
                0.3033837252256305,
                0.6296145953495305,
                -0.744577624222202
            ]
        },
        {
            "positions": [
                -2.090050561885438,
                -0.9528809818320779,
                0.11014724723098479,
                0.22935982146617573,
                0.6011832623464776,
                -0.8312906244521696
            ]
        },
        {
            "positions": [
                -1.9867363125491604,
                -0.9660345800171068,
                0.023941107397455474,
                0.15533591770672084,
                0.5727519293434247,
                -0.9180036246821375
            ]
        },
        {
            "positions": [
                -1.883422063212883,
                -0.9791881782021357,
                -0.06226503243607362,
                0.08131201394726606,
                0.5443205963403718,
                -1.0047166249121051
            ]
        },
        {
            "positions": [
                -1.7801078138766058,
                -0.9923417763871645,
                -0.1484711722696027,
                0.007288110187811281,
                0.5158892633373189,
                -1.0914296251420728
            ]
        },
        {
            "positions": [
                -1.6767935645403285,
                -1.0054953745721933,
                -0.23467731210313192,
                -0.06673579357164361,
                0.48745793033426593,
                -1.1781426253720406
            ]
        },
        {
            "positions": [
                -1.5734793152040512,
                -1.018648972757222,
                -0.3208834519366611,
                -0.1407596973310984,
                0.45902659733121304,
                -1.2648556256020083
            ]
        },
        {
            "positions": [
                -1.4701650658677738,
                -1.031802570942251,
                -0.4070895917701901,
                -0.21478360109055317,
                0.43059526432816014,
                -1.351568625831976
            ]
        },
        {
            "positions": [
                -1.3668508165314963,
                -1.04495616912728,
                -0.49329573160371953,
                -0.28880750485000795,
                0.40216393132510725,
                -1.4382816260619435
            ]
        },
        {
            "positions": [
                -1.263536567195219,
                -1.0581097673123088,
                -0.5795018714372487,
                -0.36283140860946295,
                0.3737325983220543,
                -1.5249946262919114
            ]
        },
        {
            "positions": [
                -1.1602223178589417,
                -1.0712633654973376,
                -0.6657080112707777,
                -0.4368553123689175,
                0.34530126531900146,
                -1.611707626521879
            ]
        },
        {
            "positions": [
                -1.0569080685226644,
                -1.0844169636823664,
                -0.7519141511043069,
                -0.5108792161283725,
                0.31686993231594857,
                -1.6984206267518467
            ]
        },
        {
            "positions": [
                -0.9535938191863869,
                -1.0975705618673952,
                -0.8381202909378361,
                -0.5849031198878273,
                0.2884385993128956,
                -1.7851336269818145
            ]
        },
        {
            "positions": [
                -0.8502795698501098,
                -1.110724160052424,
                -0.9243264307713651,
                -0.6589270236472821,
                0.2600072663098427,
                -1.871846627211782
            ]
        },
        {
            "positions": [
                -0.7469653205138325,
                -1.1238777582374528,
                -1.0105325706048944,
                -0.7329509274067368,
                0.23157593330678983,
                -1.9585596274417498
            ]
        },
        {
            "positions": [
                -0.6436510711775552,
                -1.1370313564224817,
                -1.0967387104384234,
                -0.8069748311661918,
                0.20314460030373693,
                -2.045272627671718
            ]
        },
        {
            "positions": [
                -0.5403368218412776,
                -1.1501849546075107,
                -1.1829448502719524,
                -0.8809987349256464,
                0.17471326730068404,
                -2.131985627901685
            ]
        },
        {
            "positions": [
                -0.43702257250500054,
                -1.1633385527925395,
                -1.2691509901054818,
                -0.9550226386851014,
                0.14628193429763114,
                -2.218698628131653
            ]
        },
        {
            "positions": [
                -0.333708323168723,
                -1.1764921509775683,
                -1.3553571299390113,
                -1.029046542444556,
                0.11785060129457825,
                -2.305411628361621
            ]
        },
        {
            "positions": [
                -0.23039407383244592,
                -1.1896457491625971,
                -1.4415632697725398,
                -1.1030704462040108,
                0.08941926829152536,
                -2.3921246285915885
            ]
        },
        {
            "positions": [
                -0.12707982449616834,
                -1.202799347347626,
                -1.5277694096060692,
                -1.1770943499634656,
                0.06098793528847249,
                -2.478837628821556
            ]
        },
        {
            "positions": [
                -0.10956468636894903,
                -1.2512806965908776,
                -1.6105313196397266,
                -1.2869802574032407,
                0.035639725612243135,
                -2.544620803908314
            ]
        },
        {
            "positions": [
                -0.09204954824172973,
                -1.2997620458341292,
                -1.6932932296733838,
                -1.3968661648430158,
                0.010291515936013781,
                -2.6104039789950715
            ]
        },
        {
            "positions": [
                -0.07453441011451042,
                -1.3482433950773811,
                -1.776055139707041,
                -1.506752072282791,
                -0.015056693740215565,
                -2.6761871540818296
            ]
        },
        {
            "positions": [
                -0.05701927198729112,
                -1.3967247443206328,
                -1.8588170497406984,
                -1.616637979722566,
                -0.040404903416444926,
                -2.7419703291685873
            ]
        },
        {
            "positions": [
                -0.039504133860071816,
                -1.4452060935638844,
                -1.9415789597743558,
                -1.7265238871623412,
                -0.06575311309267429,
                -2.807753504255345
            ]
        },
        {
            "positions": [
                -0.021988995732852512,
                -1.4936874428071363,
                -2.0243408698080128,
                -1.8364097946021163,
                -0.09110132276890362,
                -2.873536679342103
            ]
        },
        {
            "positions": [
                -0.004473857605633208,
                -1.542168792050388,
                -2.10710277984167,
                -1.9462957020418914,
                -0.11644953244513298,
                -2.939319854428861
            ]
        },
        {
            "positions": [
                0.013041280521586106,
                -1.5906501412936396,
                -2.1898646898753276,
                -2.0561816094816665,
                -0.14179774212136234,
                -3.0051030295156185
            ]
        },
        {
            "positions": [
                -0.026237740628400726,
                -1.6339520121444915,
                -2.2400155911911477,
                -2.115100084116108,
                -0.15542986529767258,
                -3.0339949427928996
            ]
        },
        {
            "positions": [
                -0.06551676177838756,
                -1.6772538829953432,
                -2.290166492506968,
                -2.1740185587505496,
                -0.16906198847398282,
                -3.0628868560701807
            ]
        },
        {
            "positions": [
                -0.18376340393870383,
                -1.7508277132086765,
                -2.3526219081966926,
                -2.2287256930087507,
                -0.17595294143730528,
                -3.086114092405228
            ]
        }
    ]
}