{
    "goal": {
        "global_pose": {
            "orientation": {
                "w": 0.005598929693374612,
                "x": 0.007748599140229565,
                "y": 0.7110244013736278,
                "z": -0.7031023480610252
            },
            "position": {
                "x": -0.8858502320852131,
                "y": -0.7141253447532654,
                "z": 0.3711530566215515
            }
        },
        "name": "move_to_auspresseinheit_C"
    },
    "id": "STRIDE_move_to_auspresseinheit_C_92",
    "joint_names": [
        "shoulder_pan_joint",
        "shoulder_lift_joint",
        "elbow_joint",
        "wrist_1_joint",
        "wrist_2_joint",
        "wrist_3_joint"
    ],
    "metrics": {
        "cart_traj_len": 0.4937587453027649,
        "distance_elbow_joint": 1.0040880530287883,
        "distance_shoulder_lift_joint": 0.32721777296082055,
        "distance_shoulder_pan_joint": 0.2568781511907603,
        "distance_wrist_1_joint": 0.6846315383324784,
        "distance_wrist_2_joint": 1.3141725996091789,
        "distance_wrist_3_joint": 0.05943507979305984,
        "smoothness": 8.074349282788172e-16,
        "time": 0.074287303,
        "traj_len": 1.9095609953376944,
        "weighted_distance": 2.4008534924986287
    },
    "planner": "STRIDE",
    "start": {
        "state": {
            "elbow_joint": 1.7527959577737207,
            "shoulder_lift_joint": -0.9740617694225068,
            "shoulder_pan_joint": -2.967991417825858,
            "wrist_1_joint": -0.759517768980727,
            "wrist_2_joint": 1.7443932448377408,
            "wrist_3_joint": -3.0840537646736568
        }
    },
    "waypoints": [
        {
            "positions": [
                -2.967991417825858,
                -0.9740617694225068,
                1.7527959577737207,
                -0.759517768980727,
                1.7443932448377408,
                -3.0840537646736568
            ]
        },
        {
            "positions": [
                -2.942303602706782,
                -0.9413399921264247,
                1.6523871524708418,
                -0.6910546151474791,
                1.612975984876823,
                -3.0899972726529628
            ]
        },
        {
            "positions": [
                -2.916615787587706,
                -0.9086182148303427,
                1.551978347167963,
                -0.6225914613142313,
                1.481558724915905,
                -3.0959407806322687
            ]
        },
        {
            "positions": [
                -2.8909279724686296,
                -0.8758964375342606,
                1.4515695418650842,
                -0.5541283074809835,
                1.3501414649549872,
                -3.1018842886115747
            ]
        },
        {
            "positions": [
                -2.865240157349554,
                -0.8431746602381786,
                1.3511607365622054,
                -0.4856651536477356,
                1.2187242049940692,
                -3.1078277965908807
            ]
        },
        {
            "positions": [
                -2.839552342230478,
                -0.8104528829420965,
                1.2507519312593265,
                -0.4172019998144878,
                1.0873069450331514,
                -3.1137713045701867
            ]
        },
        {
            "positions": [
                -2.813864527111402,
                -0.7777311056460144,
                1.1503431259564478,
                -0.34873884598124,
                0.9558896850722335,
                -3.1197148125494927
            ]
        },
        {
            "positions": [
                -2.7881767119923255,
                -0.7450093283499324,
                1.049934320653569,
                -0.28027569214799214,
                0.8244724251113157,
                -3.1256583205287987
            ]
        },
        {
            "positions": [
                -2.7624888968732497,
                -0.7122875510538503,
                0.94952551535069,
                -0.21181253831474423,
                0.6930551651503978,
                -3.1316018285081046
            ]
        },
        {
            "positions": [
                -2.736801081754174,
                -0.6795657737577683,
                0.8491167100478111,
                -0.14334938448149648,
                0.5616379051894798,
                -3.1375453364874106
            ]
        },
        {
            "positions": [
                -2.7111132666350977,
                -0.6468439964616862,
                0.7487079047449323,
                -0.07488623064824865,
                0.43022064522856185,
                -3.1434888444667166
            ]
        }
    ]
}