{
    "goal": {
        "global_pose": {
            "orientation": {
                "w": 0.005598929693374612,
                "x": 0.007748599140229565,
                "y": 0.7110244013736278,
                "z": -0.7031023480610252
            },
            "position": {
                "x": 0.1141497679147869,
                "y": -0.7141253447532654,
                "z": 0.3711530566215515
            }
        },
        "name": "move_to_auspresseinheit_B"
    },
    "id": "STRIDE_move_to_auspresseinheit_B_34",
    "joint_names": [
        "shoulder_pan_joint",
        "shoulder_lift_joint",
        "elbow_joint",
        "wrist_1_joint",
        "wrist_2_joint",
        "wrist_3_joint"
    ],
    "metrics": {
        "cart_traj_len": 0.5645732945975726,
        "distance_elbow_joint": 0.06137040789886883,
        "distance_shoulder_lift_joint": 0.2946877339797134,
        "distance_shoulder_pan_joint": 0.5774835804454637,
        "distance_wrist_1_joint": 0.31726186831272307,
        "distance_wrist_2_joint": 0.9864637258554354,
        "distance_wrist_3_joint": 0.005562539192263127,
        "smoothness": 2.5376526478085547e-16,
        "time": 0.320983033,
        "traj_len": 1.4976080447448417,
        "weighted_distance": 1.8861814674726163
    },
    "planner": "STRIDE",
    "start": {
        "state": {
            "elbow_joint": 2.0193083361928714,
            "shoulder_lift_joint": -1.1220246554650708,
            "shoulder_pan_joint": -1.0952077554168747,
            "wrist_1_joint": -0.8559753972642168,
            "wrist_2_joint": 0.4759566250798843,
            "wrist_3_joint": -3.1240929996934557
        }
    },
    "waypoints": [
        {
            "positions": [
                -1.0952077554168747,
                -1.1220246554650708,
                2.0193083361928714,
                -0.8559753972642168,
                0.4759566250798843,
                -3.1240929996934557
            ]
        },
        {
            "positions": [
                -1.191455018824452,
                -1.1711392777950231,
                2.0090799348763935,
                -0.8030984192120962,
                0.6403672460557902,
                -3.1231659098280784
            ]
        },
        {
            "positions": [
                -1.2877022822320292,
                -1.2202539001249753,
                1.998851533559915,
                -0.7502214411599758,
                0.8047778670316961,
                -3.122238819962701
            ]
        },
        {
            "positions": [
                -1.3839495456396065,
                -1.2693685224549274,
                1.9886231322434371,
                -0.6973444631078553,
                0.969188488007602,
                -3.1213117300973243
            ]
        },
        {
            "positions": [
                -1.4801968090471838,
                -1.3184831447848797,
                1.978394730926959,
                -0.6444674850557348,
                1.1335991089835078,
                -3.120384640231947
            ]
        },
        {
            "positions": [
                -1.576444072454761,
                -1.367597767114832,
                1.9681663296104808,
                -0.5915905070036143,
                1.2980097299594138,
                -3.11945755036657
            ]
        },
        {
            "positions": [
                -1.6726913358623383,
                -1.4167123894447842,
                1.9579379282940026,
                -0.5387135289514937,
                1.4624203509353197,
                -3.1185304605011925
            ]
        }
    ]
}