{
    "goal": {
        "global_pose": {
            "orientation": {
                "w": 0.5084816217422485,
                "x": -0.49083608388900757,
                "y": 0.5182115435600281,
                "z": -0.4816462993621826
            },
            "position": {
                "x": 0.5540239810943604,
                "y": 0.030875300988554955,
                "z": 0.16403168439865112
            }
        },
        "name": "move_to_storage_A"
    },
    "id": "STRIDE_move_to_storage_A_58",
    "joint_names": [
        "shoulder_pan_joint",
        "shoulder_lift_joint",
        "elbow_joint",
        "wrist_1_joint",
        "wrist_2_joint",
        "wrist_3_joint"
    ],
    "metrics": {
        "cart_traj_len": 0.3528575858469455,
        "distance_elbow_joint": 0.45265539957320855,
        "distance_shoulder_lift_joint": 0.23146585129108632,
        "distance_shoulder_pan_joint": 0.4596689260184073,
        "distance_wrist_1_joint": 0.25978427901294376,
        "distance_wrist_2_joint": 1.104631388755476,
        "distance_wrist_3_joint": 0.10254911757045004,
        "smoothness": 8.881784197001252e-16,
        "time": 0.046247653,
        "traj_len": 1.6157830801879232,
        "weighted_distance": 2.044570582085855
    },
    "planner": "STRIDE",
    "start": {
        "state": {
            "elbow_joint": 1.971548259319323,
            "shoulder_lift_joint": -1.1394851275133948,
            "shoulder_pan_joint": 0.1228115487234821,
            "wrist_1_joint": -0.7804723859257726,
            "wrist_2_joint": 0.12958671773740124,
            "wrist_3_joint": -3.192489227718131
        }
    },
    "waypoints": [
        {
            "positions": [
                0.1228115487234821,
                -1.1394851275133948,
                1.971548259319323,
                -0.7804723859257726,
                0.12958671773740124,
                -3.192489227718131
            ]
        },
        {
            "positions": [
                0.05714455929228106,
                -1.1725516776978357,
                2.0362133164012097,
                -0.8175844257847645,
                0.2873912018453264,
                -3.1778393537794956
            ]
        },
        {
            "positions": [
                -0.008522430138919984,
                -1.2056182278822767,
                2.1008783734830967,
                -0.8546964656437566,
                0.44519568595325154,
                -3.1631894798408595
            ]
        },
        {
            "positions": [
                -0.07418941957012101,
                -1.2386847780667176,
                2.1655434305649837,
                -0.8918085055027485,
                0.6030001700611767,
                -3.148539605902224
            ]
        },
        {
            "positions": [
                -0.13985640900132207,
                -1.2717513282511583,
                2.2302084876468706,
                -0.9289205453617405,
                0.7608046541691018,
                -3.1338897319635883
            ]
        },
        {
            "positions": [
                -0.20552339843252315,
                -1.3048178784355993,
                2.2948735447287576,
                -0.9660325852207324,
                0.918609138277027,
                -3.1192398580249527
            ]
        },
        {
            "positions": [
                -0.2711903878637241,
                -1.3378844286200402,
                2.3595386018106446,
                -1.0031446250797245,
                1.076413622384952,
                -3.1045899840863167
            ]
        },
        {
            "positions": [
                -0.3368573772949252,
                -1.3709509788044811,
                2.4242036588925315,
                -1.0402566649387164,
                1.2342181064928772,
                -3.089940110147681
            ]
        }
    ]
}{
    "goal": {
        "global_pose": {
            "orientation": {
                "w": 0.5084816217422485,
                "x": -0.49083608388900757,
                "y": 0.5182115435600281,
                "z": -0.4816462993621826
            },
            "position": {
                "x": 0.5540239810943604,
                "y": 0.030875300988554955,
                "z": 0.16403168439865112
            }
        },
        "name": "move_to_storage_A"
    },
    "id": "STRIDE_move_to_storage_A_58",
    "joint_names": [
        "shoulder_pan_joint",
        "shoulder_lift_joint",
        "elbow_joint",
        "wrist_1_joint",
        "wrist_2_joint",
        "wrist_3_joint"
    ],
    "metrics": {
        "cart_traj_len": 0.35333620214315026,
        "distance_elbow_joint": 0.45071971187094384,
        "distance_shoulder_lift_joint": 0.23245454409485555,
        "distance_shoulder_pan_joint": 0.45835709378844763,
        "distance_wrist_1_joint": 0.24718259165434708,
        "distance_wrist_2_joint": 1.114461757262019,
        "distance_wrist_3_joint": 0.10051380390823095,
        "smoothness": 2.2204460668324854e-16,
        "time": 0.090368218,
        "traj_len": 1.6135952102614968,
        "weighted_distance": 2.0411666907216746
    },
    "planner": "STRIDE",
    "start": {
        "state": {
            "elbow_joint": 1.97154746011099,
            "shoulder_lift_joint": -1.13948474672311,
            "shoulder_pan_joint": 0.12281154466712228,
            "wrist_1_joint": -0.7804688027058302,
            "wrist_2_joint": 0.12958655903071145,
            "wrist_3_joint": 3.0906928834467795
        }
    },
    "waypoints": [
        {
            "positions": [
                0.12281154466712228,
                -1.13948474672311,
                1.97154746011099,
                -0.7804688027058302,
                0.12958655903071145,
                3.0906928834467795
            ]
        },
        {
            "positions": [
                0.0573319598402012,
                -1.1726925387366607,
                2.0359359903782677,
                -0.8157806015135941,
                0.28879538149671413,
                3.1050519982908127
            ]
        },
        {
            "positions": [
                -0.008147624986719879,
                -1.2059003307502116,
                2.1003245206455454,
                -0.8510924003213579,
                0.4480042039627169,
                3.1194111131348454
            ]
        },
        {
            "positions": [
                -0.07362720981364097,
                -1.2391081227637624,
                2.164713050912823,
                -0.8864041991291218,
                0.6072130264287195,
                3.1337702279788786
            ]
        },
        {
            "positions": [
                -0.13910679464056203,
                -1.272315914777313,
                2.2291015811801005,
                -0.9217159979368856,
                0.7664218488947223,
                3.1481293428229113
            ]
        },
        {
            "positions": [
                -0.20458637946748315,
                -1.305523706790864,
                2.2934901114473782,
                -0.9570277967446496,
                0.9256306713607251,
                3.1624884576669445
            ]
        },
        {
            "positions": [
                -0.2700659642944042,
                -1.3387314988044148,
                2.357878641714656,
                -0.9923395955524134,
                1.0848394938267276,
                3.1768475725109773
            ]
        },
        {
            "positions": [
                -0.33554554912132534,
                -1.3719392908179655,
                2.4222671719819338,
                -1.0276513943601773,
                1.2440483162927305,
                3.1912066873550105
            ]
        }
    ]
}{
    "goal": {
        "global_pose": {
            "orientation": {
                "w": 0.5084816217422485,
                "x": -0.49083608388900757,
                "y": 0.5182115435600281,
                "z": -0.4816462993621826
            },
            "position": {
                "x": 0.5540239810943604,
                "y": 0.030875300988554955,
                "z": 0.16403168439865112
            }
        },
        "name": "move_to_storage_A"
    },
    "id": "STRIDE_move_to_storage_A_58",
    "joint_names": [
        "shoulder_pan_joint",
        "shoulder_lift_joint",
        "elbow_joint",
        "wrist_1_joint",
        "wrist_2_joint",
        "wrist_3_joint"
    ],
    "metrics": {
        "cart_traj_len": 0.3531911288830236,
        "distance_elbow_joint": 0.45147245693677496,
        "distance_shoulder_lift_joint": 0.2327152050690724,
        "distance_shoulder_pan_joint": 0.460137340103524,
        "distance_wrist_1_joint": 0.2503826927632493,
        "distance_wrist_2_joint": 1.1058673809006108,
        "distance_wrist_3_joint": 0.09866081115883185,
        "smoothness": 1.3322676330666221e-15,
        "time": 0.0176856,
        "traj_len": 1.612214590844551,
        "weighted_distance": 2.0378438563623043
    },
    "planner": "STRIDE",
    "start": {
        "state": {
            "elbow_joint": 1.9715472970024885,
            "shoulder_lift_joint": -1.1394870060712896,
            "shoulder_pan_joint": 0.12281152778156021,
            "wrist_1_joint": -0.780463741449964,
            "wrist_2_joint": 0.12958659822042276,
            "wrist_3_joint": 3.090690232415272
        }
    },
    "waypoints": [
        {
            "positions": [
                0.12281152778156021,
                -1.1394870060712896,
                1.9715472970024885,
                -0.780463741449964,
                0.12958659822042276,
                3.090690232415272
            ]
        },
        {
            "positions": [
                0.05707762205248537,
                -1.1727320353668713,
                2.0360433622791705,
                -0.8162326975589996,
                0.2875676526347957,
                3.1047846340093908
            ]
        },
        {
            "positions": [
                -0.008656283676589466,
                -1.2059770646624532,
                2.100539427555853,
                -0.8520016536680353,
                0.4455487070491687,
                3.1188790356035097
            ]
        },
        {
            "positions": [
                -0.0743901894056643,
                -1.239222093958035,
                2.165035492832535,
                -0.8877706097770708,
                0.6035297614635416,
                3.1329734371976286
            ]
        },
        {
            "positions": [
                -0.14012409513473914,
                -1.2724671232536167,
                2.229531558109217,
                -0.9235395658861064,
                0.7615108158779146,
                3.147067838791747
            ]
        },
        {
            "positions": [
                -0.20585800086381403,
                -1.3057121525491984,
                2.294027623385899,
                -0.959308521995142,
                0.9194918702922876,
                3.161162240385866
            ]
        },
        {
            "positions": [
                -0.2715919065928888,
                -1.3389571818447803,
                2.358523688662581,
                -0.9950774781041777,
                1.0774729247066606,
                3.175256641979985
            ]
        },
        {
            "positions": [
                -0.33732581232196374,
                -1.372202211140362,
                2.4230197539392635,
                -1.0308464342132133,
                1.2354539791210335,
                3.1893510435741037
            ]
        }
    ]
}