{
    "goal": {
        "global_pose": {
            "orientation": {
                "w": 0.7047431493862688,
                "x": -0.7094548369677653,
                "y": 0.0024358444001904,
                "z": -0.0022348060817251984
            },
            "position": {
                "x": -0.39052492380142206,
                "y": 0.3671506643295288,
                "z": 0.19426114857196808
            }
        },
        "name": "move_to_magneteinheit_D"
    },
    "id": "STRIDE_move_to_magneteinheit_D_149",
    "joint_names": [
        "shoulder_pan_joint",
        "shoulder_lift_joint",
        "elbow_joint",
        "wrist_1_joint",
        "wrist_2_joint",
        "wrist_3_joint"
    ],
    "metrics": {
        "cart_traj_len": 3.6859173498891256,
        "distance_elbow_joint": 3.8013358391975314,
        "distance_shoulder_lift_joint": 1.6328419035259152,
        "distance_shoulder_pan_joint": 3.018719539450954,
        "distance_wrist_1_joint": 1.5752174325069053,
        "distance_wrist_2_joint": 0.9095230483373461,
        "distance_wrist_3_joint": 3.7756943698808554,
        "smoothness": 0.27648152321814756,
        "time": 0.562700086,
        "traj_len": 3.8357961537208283,
        "weighted_distance": 4.974883049228944
    },
    "planner": "STRIDE",
    "start": {
        "state": {
            "elbow_joint": 0.749534889911806,
            "shoulder_lift_joint": -0.6476975780787326,
            "shoulder_pan_joint": -2.711696901376241,
            "wrist_1_joint": -0.07506478083263063,
            "wrist_2_joint": 0.43296659715538205,
            "wrist_3_joint": -3.14703540197715
        }
    },
    "waypoints": [
        {
            "positions": [
                -2.711696901376241,
                -0.6476975780787326,
                0.749534889911806,
                -0.07506478083263063,
                0.43296659715538205,
                -3.14703540197715
            ]
        },
        {
            "positions": [
                -2.7250372749822627,
                -0.6776486779749489,
                0.5594581963915757,
                -0.040325660152925644,
                0.40670938615597396,
                -3.1128093293425736
            ]
        },
        {
            "positions": [
                -2.738377648588284,
                -0.7075997778711652,
                0.3693815028713454,
                -0.005586539473220659,
                0.3804521751565659,
                -3.0785832567079976
            ]
        },
        {
            "positions": [
                -2.7517180221943054,
                -0.7375508777673815,
                0.1793048093511152,
                0.029152581206484333,
                0.3541949641571578,
                -3.044357184073421
            ]
        },
        {
            "positions": [
                -2.672205509513454,
                -0.7693639032963293,
                0.054869883363136085,
                0.046378545836700355,
                0.3315570389973996,
                -2.934551292044526
            ]
        },
        {
            "positions": [
                -2.592692996832603,
                -0.8011769288252771,
                -0.06956504262484303,
                0.06360451046691637,
                0.30891911383764137,
                -2.82474540001563
            ]
        },
        {
            "positions": [
                -2.5131804841517518,
                -0.832989954354225,
                -0.19399996861282215,
                0.08083047509713238,
                0.28628118867788316,
                -2.7149395079867347
            ]
        },
        {
            "positions": [
                -2.433667971470901,
                -0.8648029798831727,
                -0.31843489460080127,
                0.0980564397273484,
                0.26364326351812495,
                -2.605133615957839
            ]
        },
        {
            "positions": [
                -2.3541554587900495,
                -0.8966160054121205,
                -0.4428698205887804,
                0.11528240435756443,
                0.24100533835836677,
                -2.4953277239289435
            ]
        },
        {
            "positions": [
                -2.2746429461091986,
                -0.9284290309410683,
                -0.5673047465767596,
                0.13250836898778043,
                0.21836741319860856,
                -2.385521831900048
            ]
        },
        {
            "positions": [
                -2.1951304334283472,
                -0.9602420564700161,
                -0.6917396725647387,
                0.14973433361799646,
                0.19572948803885035,
                -2.2757159398711524
            ]
        },
        {
            "positions": [
                -2.1156179207474963,
                -0.992055081998964,
                -0.8161745985527178,
                0.16696029824821249,
                0.17309156287909214,
                -2.165910047842257
            ]
        },
        {
            "positions": [
                -2.036105408066645,
                -1.0238681075279117,
                -0.9406095245406969,
                0.18418626287842851,
                0.15045363771933393,
                -2.0561041558133617
            ]
        },
        {
            "positions": [
                -1.9565928953857938,
                -1.0556811330568596,
                -1.065044450528676,
                0.20141222750864451,
                0.12781571255957574,
                -1.9462982637844661
            ]
        },
        {
            "positions": [
                -1.8770803827049427,
                -1.0874941585858073,
                -1.1894793765166551,
                0.21863819213886054,
                0.10517778739981753,
                -1.8364923717555706
            ]
        },
        {
            "positions": [
                -1.7975678700240914,
                -1.119307184114755,
                -1.3139143025046343,
                0.23586415676907654,
                0.08253986224005933,
                -1.7266864797266752
            ]
        },
        {
            "positions": [
                -1.7180553573432402,
                -1.151120209643703,
                -1.4383492284926134,
                0.2530901213992926,
                0.059901937080301115,
                -1.6168805876977794
            ]
        },
        {
            "positions": [
                -1.638542844662389,
                -1.182933235172651,
                -1.5627841544805925,
                0.2703160860295086,
                0.037264011920542905,
                -1.507074695668884
            ]
        },
        {
            "positions": [
                -1.559030331981538,
                -1.2147462607015986,
                -1.6872190804685714,
                0.2875420506597246,
                0.014626086760784751,
                -1.3972688036399887
            ]
        },
        {
            "positions": [
                -1.4795178193006868,
                -1.2465592862305463,
                -1.8116540064565507,
                0.30476801528994063,
                -0.008011838398973514,
                -1.287462911611093
            ]
        },
        {
            "positions": [
                -1.4000053066198357,
                -1.2783723117594943,
                -1.9360889324445298,
                0.32199397992015666,
                -0.03064976355873167,
                -1.1776570195821976
            ]
        },
        {
            "positions": [
                -1.3204927939389843,
                -1.3101853372884422,
                -2.060523858432509,
                0.3392199445503727,
                -0.053287688718489934,
                -1.0678511275533018
            ]
        },
        {
            "positions": [
                -1.2409802812581332,
                -1.3419983628173897,
                -2.184958784420488,
                0.3564459091805887,
                -0.07592561387824809,
                -0.9580452355244065
            ]
        },
        {
            "positions": [
                -1.1614677685772823,
                -1.3738113883463376,
                -2.309393710408467,
                0.3736718738108047,
                -0.0985635390380063,
                -0.8482393434955111
            ]
        },
        {
            "positions": [
                -1.081955255896431,
                -1.4056244138752856,
                -2.4338286363964463,
                0.3908978384410207,
                -0.12120146419776451,
                -0.7384334514666153
            ]
        },
        {
            "positions": [
                -1.0024427432155798,
                -1.4374374394042333,
                -2.5582635623844254,
                0.40812380307123675,
                -0.14383938935752275,
                -0.6286275594377198
            ]
        },
        {
            "positions": [
                -0.8746281888171749,
                -1.4831404950956122,
                -2.5780879325625246,
                0.47363847834677025,
                -0.13957858353210703,
                -0.5097928410323398
            ]
        },
        {
            "positions": [
                -0.7468136344187699,
                -1.5288435507869909,
                -2.5979123027406237,
                0.5391531536223038,
                -0.13531777770669134,
                -0.3909581226269597
            ]
        },
        {
            "positions": [
                -0.6189990800203649,
                -1.5745466064783697,
                -2.617736672918723,
                0.6046678288978373,
                -0.13105697188127563,
                -0.2721234042215797
            ]
        },
        {
            "positions": [
                -0.4911845256219599,
                -1.6202496621697486,
                -2.637561043096822,
                0.6701825041733709,
                -0.12679616605585992,
                -0.1532886858161997
            ]
        },
        {
            "positions": [
                -0.36336997122355497,
                -1.6659527178611275,
                -2.6573854132749206,
                0.7356971794489043,
                -0.12253536023044423,
                -0.03445396741081974
            ]
        },
        {
            "positions": [
                -0.2355554168251499,
                -1.7116557735525064,
                -2.6772097834530197,
                0.8012118547244379,
                -0.11827455440502851,
                0.08438075099456033
            ]
        },
        {
            "positions": [
                -0.10774086242674497,
                -1.757358829243885,
                -2.697034153631119,
                0.8667265299999714,
                -0.11401374857961281,
                0.2032154693999404
            ]
        },
        {
            "positions": [
                0.02007369197165998,
                -1.803061884935264,
                -2.716858523809218,
                0.9322412052755049,
                -0.10975294275419711,
                0.3220501878053204
            ]
        },
        {
            "positions": [
                -0.014410758772827333,
                -1.8826414843801613,
                -2.6610347862298003,
                1.0268931130086332,
                -0.05998117355067782,
                0.2709487244555897
            ]
        },
        {
            "positions": [
                -0.048895209517314644,
                -1.9622210838250587,
                -2.605211048650382,
                1.1215450207417614,
                -0.01020940434715853,
                0.21984726110585898
            ]
        },
        {
            "positions": [
                -0.08337966026180196,
                -2.041800683269956,
                -2.5493873110709644,
                1.2161969284748897,
                0.03956236485636078,
                0.16874579775612825
            ]
        },
        {
            "positions": [
                -0.11786411100628927,
                -2.121380282714853,
                -2.4935635734915467,
                1.310848836208018,
                0.08933413405988005,
                0.11764433440639754
            ]
        },
        {
            "positions": [
                -0.1523485617507766,
                -2.2009598821597507,
                -2.4377398359121285,
                1.4055007439411462,
                0.1391059032633994,
                0.06654287105666679
            ]
        },
        {
            "positions": [
                -0.1868330124952639,
                -2.280539481604648,
                -2.381916098332711,
                1.5001526516742745,
                0.18887767246691864,
                0.015441407706936104
            ]
        }
    ]
}