{
    "goal": {
        "global_pose": {
            "orientation": {
                "w": -0.00223480608172531,
                "x": 0.0024358444001904467,
                "y": 0.7094548369677653,
                "z": -0.704743149386269
            },
            "position": {
                "x": 0.6205249238014221,
                "y": -0.6371506643295288,
                "z": 0.19426114857196808
            }
        },
        "name": "move_to_magneteinheit_B"
    },
    "id": "STRIDE_move_to_magneteinheit_B_80",
    "joint_names": [
        "shoulder_pan_joint",
        "shoulder_lift_joint",
        "elbow_joint",
        "wrist_1_joint",
        "wrist_2_joint",
        "wrist_3_joint"
    ],
    "metrics": {
        "cart_traj_len": 3.844064292767127,
        "distance_elbow_joint": 4.651697785446219,
        "distance_shoulder_lift_joint": 1.0642457500997144,
        "distance_shoulder_pan_joint": 3.7879039314619956,
        "distance_wrist_1_joint": 2.9216986522161874,
        "distance_wrist_2_joint": 1.5448748565552848,
        "distance_wrist_3_joint": 0.848212110167343,
        "smoothness": 0.7245333574450239,
        "time": 0.6573390189999999,
        "traj_len": 3.8494977706119977,
        "weighted_distance": 4.580571014082514
    },
    "planner": "STRIDE",
    "start": {
        "state": {
            "elbow_joint": 2.6216224122426386,
            "shoulder_lift_joint": -1.4174107377796124,
            "shoulder_pan_joint": 0.7066234856936794,
            "wrist_1_joint": 1.9546482284002225,
            "wrist_2_joint": -0.7096286983471962,
            "wrist_3_joint": 0.005740856962016249
        }
    },
    "waypoints": [
        {
            "positions": [
                0.7066234856936794,
                -1.4174107377796124,
                2.6216224122426386,
                1.9546482284002225,
                -0.7096286983471962,
                0.005740856962016249
            ]
        },
        {
            "positions": [
                0.5787833809604039,
                -1.4254093372688765,
                2.630593568629241,
                1.9893589710226356,
                -0.7568128594897788,
                0.04240409976959626
            ]
        },
        {
            "positions": [
                0.4509432762271286,
                -1.4334079367581405,
                2.639564725015844,
                2.0240697136450487,
                -0.8039970206323614,
                0.07906734257717628
            ]
        },
        {
            "positions": [
                0.30737053455273466,
                -1.4601211290220928,
                2.615407500948507,
                2.081791942902319,
                -0.8269459663479319,
                0.12940154000208925
            ]
        },
        {
            "positions": [
                0.16379779287834073,
                -1.4868343212860453,
                2.5912502768811696,
                2.1395141721595894,
                -0.8498949120635023,
                0.17973573742700222
            ]
        },
        {
            "positions": [
                0.020225051203946798,
                -1.5135475135499976,
                2.5670930528138323,
                2.19723640141686,
                -0.8728438577790727,
                0.23006993485191518
            ]
        },
        {
            "positions": [
                -0.12334769047044712,
                -1.54026070581395,
                2.5429358287464954,
                2.25495863067413,
                -0.8957928034946432,
                0.28040413227682814
            ]
        },
        {
            "positions": [
                -0.01840925213267823,
                -1.5542758461475754,
                2.386462151142762,
                2.1831657563830618,
                -0.8599514427464844,
                0.2678340048822686
            ]
        },
        {
            "positions": [
                0.08652918620509066,
                -1.5682909864812007,
                2.2299884735390294,
                2.111372882091993,
                -0.8241100819983256,
                0.2552638774877091
            ]
        },
        {
            "positions": [
                0.19146762454285954,
                -1.5823061268148262,
                2.073514795935296,
                2.0395800078009247,
                -0.7882687212501668,
                0.24269375009314959
            ]
        },
        {
            "positions": [
                0.29640606288062843,
                -1.5963212671484517,
                1.917041118331563,
                1.967787133509856,
                -0.752427360502008,
                0.23012362269859005
            ]
        },
        {
            "positions": [
                0.4013445012183974,
                -1.6103364074820772,
                1.76056744072783,
                1.8959942592187877,
                -0.7165859997538492,
                0.21755349530403054
            ]
        },
        {
            "positions": [
                0.5062829395561662,
                -1.6243515478157025,
                1.604093763124097,
                1.824201384927719,
                -0.6807446390056904,
                0.20498336790947103
            ]
        },
        {
            "positions": [
                0.6112213778939352,
                -1.638366688149328,
                1.4476200855203638,
                1.7524085106366507,
                -0.6449032782575317,
                0.1924132405149115
            ]
        },
        {
            "positions": [
                0.716159816231704,
                -1.6523818284829535,
                1.2911464079166308,
                1.680615636345582,
                -0.6090619175093728,
                0.17984311312035198
            ]
        },
        {
            "positions": [
                0.8210982545694729,
                -1.666396968816579,
                1.1346727303128978,
                1.6088227620545137,
                -0.5732205567612141,
                0.16727298572579247
            ]
        },
        {
            "positions": [
                0.9260366929072419,
                -1.6804121091502042,
                0.9781990527091646,
                1.5370298877634452,
                -0.5373791960130552,
                0.15470285833123293
            ]
        },
        {
            "positions": [
                1.0309751312450106,
                -1.6944272494838297,
                0.8217253751054316,
                1.4652370134723767,
                -0.5015378352648965,
                0.14213273093667342
            ]
        },
        {
            "positions": [
                1.1359135695827796,
                -1.7084423898174552,
                0.6652516975016987,
                1.3934441391813082,
                -0.4656964745167376,
                0.12956260354211388
            ]
        },
        {
            "positions": [
                1.2408520079205485,
                -1.7224575301510807,
                0.5087780198979655,
                1.3216512648902397,
                -0.4298551137685788,
                0.11699247614755437
            ]
        },
        {
            "positions": [
                1.3457904462583175,
                -1.736472670484706,
                0.35230434229423224,
                1.2498583905991711,
                -0.3940137530204201,
                0.10442234875299486
            ]
        },
        {
            "positions": [
                1.4507288845960864,
                -1.7504878108183315,
                0.19583066469049903,
                1.1780655163081026,
                -0.35817239227226116,
                0.09185222135843532
            ]
        },
        {
            "positions": [
                1.5556673229338551,
                -1.764502951151957,
                0.03935698708676627,
                1.1062726420170341,
                -0.3223310315241025,
                0.07928209396387581
            ]
        },
        {
            "positions": [
                1.660605761271624,
                -1.7785180914855825,
                -0.11711669051696694,
                1.0344797677259656,
                -0.28648967077594356,
                0.06671196656931627
            ]
        },
        {
            "positions": [
                1.765544199609393,
                -1.7925332318192078,
                -0.2735903681206997,
                0.9626868934348973,
                -0.25064831002778487,
                0.05414183917475676
            ]
        },
        {
            "positions": [
                1.870482637947162,
                -1.8065483721528333,
                -0.43006404572443335,
                0.8908940191438286,
                -0.21480694927962607,
                0.041571711780197224
            ]
        },
        {
            "positions": [
                1.975421076284931,
                -1.8205635124864588,
                -0.5865377233281661,
                0.8191011448527603,
                -0.17896558853146727,
                0.029001584385637713
            ]
        },
        {
            "positions": [
                2.0803595146227,
                -1.8345786528200843,
                -0.7430114009318993,
                0.7473082705616916,
                -0.14312422778330847,
                0.016431456991078175
            ]
        },
        {
            "positions": [
                2.1852979529604686,
                -1.8485937931537095,
                -0.8994850785356321,
                0.6755153962706233,
                -0.10728286703514966,
                0.0038613295965186922
            ]
        },
        {
            "positions": [
                2.2902363912982375,
                -1.862608933487335,
                -1.0559587561393653,
                0.6037225219795548,
                -0.07144150628699086,
                -0.008708797798040846
            ]
        },
        {
            "positions": [
                2.3951748296360065,
                -1.8766240738209605,
                -1.212432433743098,
                0.5319296476884863,
                -0.03560014553883206,
                -0.021278925192600384
            ]
        },
        {
            "positions": [
                2.5001132679737754,
                -1.8906392141545858,
                -1.3689061113468317,
                0.46013677339741776,
                0.00024121520932673945,
                -0.03384905258715992
            ]
        },
        {
            "positions": [
                2.6050517063115444,
                -1.9046543544882113,
                -1.5253797889505645,
                0.38834389910634926,
                0.03608257595748554,
                -0.046419179981719405
            ]
        },
        {
            "positions": [
                2.7099901446493133,
                -1.9186694948218368,
                -1.6818534665542981,
                0.31655102481528075,
                0.0719239367056443,
                -0.05898930737627894
            ]
        },
        {
            "positions": [
                2.729177802331778,
                -2.0040598948643584,
                -1.7546623305868339,
                0.32267934291638856,
                0.14045544817028854,
                -0.10472308024862692
            ]
        },
        {
            "positions": [
                2.7483654600142424,
                -2.0894502949068796,
                -1.8274711946193696,
                0.32880766101749637,
                0.2089869596349328,
                -0.1504568531209749
            ]
        },
        {
            "positions": [
                2.731121539051607,
                -2.167891533501369,
                -1.7941272840118094,
                0.4629524625937397,
                0.25977315729058514,
                -0.12191928323002926
            ]
        },
        {
            "positions": [
                2.713877618088971,
                -2.2463327720958586,
                -1.7607833734042493,
                0.597097264169983,
                0.31055935494623743,
                -0.09338171333908363
            ]
        },
        {
            "positions": [
                2.696633697126335,
                -2.324774010690348,
                -1.7274394627966894,
                0.7312420657462262,
                0.3613455526018897,
                -0.064844143448138
            ]
        },
        {
            "positions": [
                2.6793897761636996,
                -2.4032152492848375,
                -1.6940955521891292,
                0.8653868673224695,
                0.41213175025754206,
                -0.03630657355719237
            ]
        },
        {
            "positions": [
                2.662145855201064,
                -2.481656487879327,
                -1.660751641581569,
                0.9995316688987127,
                0.46291794791319435,
                -0.007769003666246761
            ]
        }
    ]
}