{
    "goal": {
        "global_pose": {
            "orientation": {
                "w": 0.005598929693374612,
                "x": 0.007748599140229565,
                "y": 0.7110244013736278,
                "z": -0.7031023480610252
            },
            "position": {
                "x": 0.1141497679147869,
                "y": -0.7141253447532654,
                "z": 0.3711530566215515
            }
        },
        "name": "move_to_auspresseinheit_B"
    },
    "id": "STRIDE_move_to_auspresseinheit_B_18",
    "joint_names": [
        "shoulder_pan_joint",
        "shoulder_lift_joint",
        "elbow_joint",
        "wrist_1_joint",
        "wrist_2_joint",
        "wrist_3_joint"
    ],
    "metrics": {
        "cart_traj_len": 0.5643356879852436,
        "distance_elbow_joint": 0.060912951676197036,
        "distance_shoulder_lift_joint": 0.2954941567874745,
        "distance_shoulder_pan_joint": 0.5753892778271035,
        "distance_wrist_1_joint": 0.31789003226921553,
        "distance_wrist_2_joint": 0.9977663678568611,
        "distance_wrist_3_joint": 0.006250614635473273,
        "smoothness": 5.075305255429287e-16,
        "time": 0.088718929,
        "traj_len": 1.5012339594654542,
        "weighted_distance": 1.8925805215232847
    },
    "planner": "STRIDE",
    "start": {
        "state": {
            "elbow_joint": 2.0193083361928714,
            "shoulder_lift_joint": -1.1220246554650708,
            "shoulder_pan_joint": -1.0952077554168747,
            "wrist_1_joint": -0.8559753972642168,
            "wrist_2_joint": 0.4759566250798843,
            "wrist_3_joint": -3.1240929996934557
        }
    },
    "waypoints": [
        {
            "positions": [
                -1.0952077554168747,
                -1.1220246554650708,
                2.0193083361928714,
                -0.8559753972642168,
                0.4759566250798843,
                -3.1240929996934557
            ]
        },
        {
            "positions": [
                -1.1911059683880585,
                -1.1712736815963165,
                2.009156177580172,
                -0.8029937252193475,
                0.6422510197226945,
                -3.1230512305875435
            ]
        },
        {
            "positions": [
                -1.2870041813592425,
                -1.2205227077275622,
                1.9990040189674725,
                -0.7500120531744783,
                0.8085454143655046,
                -3.1220094614816314
            ]
        },
        {
            "positions": [
                -1.3829023943304264,
                -1.269771733858808,
                1.988851860354773,
                -0.697030381129609,
                0.9748398090083148,
                -3.120967692375719
            ]
        },
        {
            "positions": [
                -1.4788006073016102,
                -1.3190207599900539,
                1.9786997017420733,
                -0.6440487090847398,
                1.141134203651125,
                -3.1199259232698067
            ]
        },
        {
            "positions": [
                -1.5746988202727943,
                -1.3682697861212996,
                1.968547543129374,
                -0.5910670370398705,
                1.3074285982939353,
                -3.1188841541638945
            ]
        },
        {
            "positions": [
                -1.6705970332439781,
                -1.4175188122525453,
                1.9583953845166744,
                -0.5380853649950013,
                1.4737229929367455,
                -3.1178423850579824
            ]
        }
    ]
}