{
    "goal": {
        "global_pose": {
            "orientation": {
                "w": -0.00223480608172531,
                "x": 0.0024358444001904467,
                "y": 0.7094548369677653,
                "z": -0.704743149386269
            },
            "position": {
                "x": 0.6205249238014221,
                "y": -0.6371506643295288,
                "z": 0.19426114857196808
            }
        },
        "name": "move_to_magneteinheit_B"
    },
    "id": "STRIDE_move_to_magneteinheit_B_43",
    "joint_names": [
        "shoulder_pan_joint",
        "shoulder_lift_joint",
        "elbow_joint",
        "wrist_1_joint",
        "wrist_2_joint",
        "wrist_3_joint"
    ],
    "metrics": {
        "cart_traj_len": 5.3208133603052845,
        "distance_elbow_joint": 4.290455590273982,
        "distance_shoulder_lift_joint": 2.90355061334353,
        "distance_shoulder_pan_joint": 5.528603547250867,
        "distance_wrist_1_joint": 6.969562541181625,
        "distance_wrist_2_joint": 2.712929719024946,
        "distance_wrist_3_joint": 3.2975387559240716,
        "smoothness": 0.5511357757302061,
        "time": 4.497570886,
        "traj_len": 5.0697771910606715,
        "weighted_distance": 6.479213728459168
    },
    "planner": "STRIDE",
    "start": {
        "state": {
            "elbow_joint": 2.6216224122426386,
            "shoulder_lift_joint": -1.4174107377796124,
            "shoulder_pan_joint": 0.7066234856936794,
            "wrist_1_joint": 1.9546482284002225,
            "wrist_2_joint": -0.7096286983471962,
            "wrist_3_joint": 0.005740856962016249
        }
    },
    "waypoints": [
        {
            "positions": [
                0.7066234856936794,
                -1.4174107377796124,
                2.6216224122426386,
                1.9546482284002225,
                -0.7096286983471962,
                0.005740856962016249
            ]
        },
        {
            "positions": [
                0.6660148663535292,
                -1.4265481140944993,
                2.5830841630712804,
                1.8357847780564285,
                -0.6420872131112448,
                0.02978381531722711
            ]
        },
        {
            "positions": [
                0.625406247013379,
                -1.4356854904093863,
                2.5445459138999222,
                1.7169213277126345,
                -0.5745457278752935,
                0.05382677367243797
            ]
        },
        {
            "positions": [
                0.5847976276732288,
                -1.4448228667242733,
                2.5060076647285636,
                1.5980578773688405,
                -0.5070042426393421,
                0.07786973202764882
            ]
        },
        {
            "positions": [
                0.5441890083330787,
                -1.4539602430391603,
                2.4674694155572054,
                1.4791944270250466,
                -0.4394627574033907,
                0.10191269038285969
            ]
        },
        {
            "positions": [
                0.43610218960098035,
                -1.4540515693984182,
                2.3723610116179996,
                1.4147747843474667,
                -0.34977362157331976,
                0.11003118806262518
            ]
        },
        {
            "positions": [
                0.32801537086888194,
                -1.454142895757676,
                2.2772526076787942,
                1.350355141669887,
                -0.26008448574324883,
                0.11814968574239068
            ]
        },
        {
            "positions": [
                0.25638439821609876,
                -1.4488922972202445,
                2.1687509275792025,
                1.2639085844554683,
                -0.161738437718951,
                0.10845302419980507
            ]
        },
        {
            "positions": [
                0.18475342556331556,
                -1.4436416986828127,
                2.060249247479611,
                1.1774620272410496,
                -0.06339238969465316,
                0.09875636265721946
            ]
        },
        {
            "positions": [
                0.11312245291053238,
                -1.438391100145381,
                1.9517475673800193,
                1.091015470026631,
                0.0349536583296447,
                0.08905970111463385
            ]
        },
        {
            "positions": [
                0.04149148025774918,
                -1.4331405016079493,
                1.8432458872804278,
                1.0045689128122124,
                0.1332997063539425,
                0.07936303957204824
            ]
        },
        {
            "positions": [
                -0.030139492395033995,
                -1.4278899030705177,
                1.734744207180836,
                0.918122355597794,
                0.23164575437824036,
                0.06966637802946263
            ]
        },
        {
            "positions": [
                -0.10177046504781717,
                -1.422639304533086,
                1.6262425270812444,
                0.8316757983833754,
                0.3299918024025382,
                0.05996971648687702
            ]
        },
        {
            "positions": [
                -0.1734014377006003,
                -1.4173887059956543,
                1.5177408469816531,
                0.7452292411689567,
                0.4283378504268359,
                0.050273054944291407
            ]
        },
        {
            "positions": [
                -0.24503241035338358,
                -1.4121381074582227,
                1.4092391668820614,
                0.6587826839545381,
                0.5266838984511338,
                0.040576393401705796
            ]
        },
        {
            "positions": [
                -0.31666338300616675,
                -1.406887508920791,
                1.3007374867824697,
                0.5723361267401196,
                0.6250299464754316,
                0.030879731859120185
            ]
        },
        {
            "positions": [
                -0.38829435565894993,
                -1.4016369103833592,
                1.192235806682878,
                0.48588956952570095,
                0.7233759944997296,
                0.021183070316534575
            ]
        },
        {
            "positions": [
                -0.4599253283117331,
                -1.3963863118459277,
                1.0837341265832865,
                0.3994430123112823,
                0.8217220425240274,
                0.011486408773948964
            ]
        },
        {
            "positions": [
                -0.5315563009645163,
                -1.3911357133084958,
                0.9752324464836948,
                0.3129964550968638,
                0.9200680905483253,
                0.0017897472313633533
            ]
        },
        {
            "positions": [
                -0.6031872736172995,
                -1.3858851147710642,
                0.8667307663841033,
                0.22654989788244506,
                1.0184141385726229,
                -0.007906914311222249
            ]
        },
        {
            "positions": [
                -0.4824864590681028,
                -1.3583680945294285,
                0.7983305156736968,
                0.32319661176750847,
                0.9936314455196875,
                0.04211353277947439
            ]
        },
        {
            "positions": [
                -0.36178564451890605,
                -1.3308510742877928,
                0.7299302649632904,
                0.41984332565257193,
                0.9688487524667521,
                0.09213397987017104
            ]
        },
        {
            "positions": [
                -0.2410848299697093,
                -1.3033340540461569,
                0.661530014252884,
                0.5164900395376354,
                0.9440660594138167,
                0.14215442696086766
            ]
        },
        {
            "positions": [
                -0.12038401542051252,
                -1.2758170338045212,
                0.5931297635424776,
                0.6131367534226988,
                0.9192833663608813,
                0.1921748740515643
            ]
        },
        {
            "positions": [
                0.0003167991286842087,
                -1.2483000135628854,
                0.5247295128320711,
                0.7097834673077623,
                0.8945006733079459,
                0.24219532114226094
            ]
        },
        {
            "positions": [
                0.12101761367788089,
                -1.2207829933212497,
                0.45632926212166475,
                0.8064301811928257,
                0.8697179802550106,
                0.2922157682329576
            ]
        },
        {
            "positions": [
                0.24171842822707768,
                -1.193265973079614,
                0.3879290114112583,
                0.9030768950778891,
                0.8449352872020751,
                0.3422362153236542
            ]
        },
        {
            "positions": [
                0.36241924277627446,
                -1.165748952837978,
                0.3195287607008519,
                0.9997236089629525,
                0.8201525941491398,
                0.39225666241435087
            ]
        },
        {
            "positions": [
                0.48312005732547136,
                -1.1382319325963424,
                0.25112850999044534,
                1.0963703228480162,
                0.7953699010962043,
                0.44227710950504756
            ]
        },
        {
            "positions": [
                0.6038208718746679,
                -1.1107149123547067,
                0.182728259280039,
                1.1930170367330795,
                0.770587208043269,
                0.49229755659574415
            ]
        },
        {
            "positions": [
                0.7245216864238647,
                -1.0831978921130707,
                0.11432800856963254,
                1.2896637506181428,
                0.7458045149903336,
                0.5423180036864408
            ]
        },
        {
            "positions": [
                0.8452225009730613,
                -1.055680871871435,
                0.045927757859226204,
                1.3863104645032065,
                0.7210218219373983,
                0.5923384507771374
            ]
        },
        {
            "positions": [
                0.9659233155222583,
                -1.0281638516297993,
                -0.02247249285118036,
                1.4829571783882698,
                0.6962391288844628,
                0.6423588978678341
            ]
        },
        {
            "positions": [
                1.086624130071455,
                -1.0006468313881636,
                -0.0908727435615867,
                1.579603892273333,
                0.6714564358315274,
                0.6923793449585307
            ]
        },
        {
            "positions": [
                1.2073249446206518,
                -0.9731298111465277,
                -0.15927299427199326,
                1.6762506061583968,
                0.646673742778592,
                0.7423997920492273
            ]
        },
        {
            "positions": [
                1.3280257591698486,
                -0.945612790904892,
                -0.2276732449823995,
                1.7728973200434601,
                0.6218910497256567,
                0.792420239139924
            ]
        },
        {
            "positions": [
                1.448726573719045,
                -0.9180957706632562,
                -0.29607349569280594,
                1.8695440339285234,
                0.5971083566727213,
                0.8424406862306205
            ]
        },
        {
            "positions": [
                1.5694273882682421,
                -0.8905787504216205,
                -0.3644737464032126,
                1.9661907478135872,
                0.5723256636197859,
                0.8924611333213174
            ]
        },
        {
            "positions": [
                1.6901282028174385,
                -0.8630617301799847,
                -0.43287399711361885,
                2.0628374616986505,
                0.5475429705668504,
                0.9424815804120139
            ]
        },
        {
            "positions": [
                1.8108290173666353,
                -0.835544709938349,
                -0.5012742478240253,
                2.1594841755837137,
                0.5227602775139151,
                0.9925020275027105
            ]
        },
        {
            "positions": [
                1.931529831915832,
                -0.8080276896967132,
                -0.5696744985344318,
                2.256130889468777,
                0.4979775844609797,
                1.0425224745934072
            ]
        },
        {
            "positions": [
                2.052230646465029,
                -0.7805106694550774,
                -0.6380747492448382,
                2.352777603353841,
                0.47319489140804427,
                1.0925429216841038
            ]
        },
        {
            "positions": [
                2.1729314610142256,
                -0.7529936492134417,
                -0.7064749999552447,
                2.449424317238904,
                0.4484121983551089,
                1.1425633687748005
            ]
        },
        {
            "positions": [
                2.293632275563422,
                -0.7254766289718059,
                -0.7748752506656509,
                2.546071031123968,
                0.4236295053021736,
                1.192583815865497
            ]
        },
        {
            "positions": [
                2.4143330901126188,
                -0.6979596087301702,
                -0.8432755013760573,
                2.642717745009031,
                0.39884681224923824,
                1.2426042629561938
            ]
        },
        {
            "positions": [
                2.535033904661816,
                -0.6704425884885343,
                -0.911675752086464,
                2.739364458894095,
                0.3740641191963028,
                1.2926247100468904
            ]
        },
        {
            "positions": [
                2.6557347192110123,
                -0.6429255682468986,
                -0.9800760027968702,
                2.836011172779158,
                0.34928142614336743,
                1.342645157137587
            ]
        },
        {
            "positions": [
                2.776435533760209,
                -0.6154085480052629,
                -1.0484762535072767,
                2.9326578866642214,
                0.324498733090432,
                1.3926656042282837
            ]
        },
        {
            "positions": [
                2.897136348309406,
                -0.5878915277636271,
                -1.1168765042176831,
                3.0293046005492847,
                0.29971604003749663,
                1.4426860513189803
            ]
        },
        {
            "positions": [
                3.0178371628586027,
                -0.5603745075219912,
                -1.1852767549280898,
                3.1259513144343485,
                0.2749333469845612,
                1.492706498409677
            ]
        },
        {
            "positions": [
                3.1385379774077995,
                -0.5328574872803555,
                -1.253677005638496,
                3.2225980283194118,
                0.25015065393162583,
                1.5427269455003736
            ]
        },
        {
            "positions": [
                3.112034225356978,
                -0.6409426565519192,
                -1.2767412374380986,
                3.0978526905290296,
                0.26218528712407757,
                1.4589247528737908
            ]
        },
        {
            "positions": [
                3.085530473306156,
                -0.7490278258234828,
                -1.2998054692377015,
                2.9731073527386473,
                0.2742199203165293,
                1.3751225602472081
            ]
        },
        {
            "positions": [
                3.0590267212553344,
                -0.8571129950950465,
                -1.322869701037304,
                2.848362014948265,
                0.28625455350898105,
                1.2913203676206253
            ]
        },
        {
            "positions": [
                3.0325229692045124,
                -0.9651981643666101,
                -1.3459339328369067,
                2.723616677157883,
                0.2982891867014328,
                1.2075181749940427
            ]
        },
        {
            "positions": [
                3.006019217153691,
                -1.073283333638174,
                -1.3689981646365095,
                2.5988713393675003,
                0.3103238198938845,
                1.1237159823674598
            ]
        },
        {
            "positions": [
                2.9795154651028692,
                -1.1813685029097374,
                -1.392062396436112,
                2.474126001577118,
                0.32235845308633626,
                1.039913789740877
            ]
        },
        {
            "positions": [
                2.9530117130520472,
                -1.2894536721813012,
                -1.4151266282357147,
                2.349380663786736,
                0.334393086278788,
                0.9561115971142943
            ]
        },
        {
            "positions": [
                2.9265079610012257,
                -1.3975388414528647,
                -1.4381908600353175,
                2.2246353259963536,
                0.34642771947123974,
                0.8723094044877117
            ]
        },
        {
            "positions": [
                2.9000042089504037,
                -1.5056240107244285,
                -1.46125509183492,
                2.0998899882059714,
                0.3584623526636915,
                0.7885072118611288
            ]
        },
        {
            "positions": [
                2.873500456899582,
                -1.6137091799959922,
                -1.4843193236345227,
                1.9751446504155892,
                0.3704969858561432,
                0.704705019234546
            ]
        },
        {
            "positions": [
                2.8469967048487606,
                -1.721794349267556,
                -1.5073835554341255,
                1.8503993126252067,
                0.38253161904859495,
                0.6209028266079633
            ]
        },
        {
            "positions": [
                2.8204929527979385,
                -1.8298795185391195,
                -1.530447787233728,
                1.7256539748348247,
                0.3945662522410467,
                0.5371006339813806
            ]
        },
        {
            "positions": [
                2.793989200747117,
                -1.937964687810683,
                -1.5535120190333307,
                1.6009086370444423,
                0.4066008854334984,
                0.4532984413547978
            ]
        },
        {
            "positions": [
                2.767485448696295,
                -2.046049857082247,
                -1.5765762508329335,
                1.47616329925406,
                0.41863551862595016,
                0.36949624872821496
            ]
        },
        {
            "positions": [
                2.7409816966454734,
                -2.154135026353811,
                -1.599640482632536,
                1.3514179614636777,
                0.4306701518184019,
                0.28569405610163234
            ]
        },
        {
            "positions": [
                2.714477944594652,
                -2.262220195625374,
                -1.6227047144321387,
                1.2266726236732957,
                0.44270478501085364,
                0.20189186347504973
            ]
        },
        {
            "positions": [
                2.68797419254383,
                -2.3703053648969377,
                -1.6457689462317413,
                1.1019272858829132,
                0.4547394182033054,
                0.11808967084846689
            ]
        },
        {
            "positions": [
                2.6614704404930083,
                -2.4783905341685015,
                -1.6688331780313441,
                0.977181948092531,
                0.4667740513957571,
                0.034287478221884
            ]
        }
    ]
}