{
    "goal": {
        "global_pose": {
            "orientation": {
                "w": 0.7047431493862688,
                "x": -0.7094548369677653,
                "y": 0.0024358444001904,
                "z": -0.0022348060817251984
            },
            "position": {
                "x": -0.39052492380142206,
                "y": 0.3671506643295288,
                "z": 0.19426114857196808
            }
        },
        "name": "move_to_magneteinheit_D"
    },
    "id": "STRIDE_move_to_magneteinheit_D_21",
    "joint_names": [
        "shoulder_pan_joint",
        "shoulder_lift_joint",
        "elbow_joint",
        "wrist_1_joint",
        "wrist_2_joint",
        "wrist_3_joint"
    ],
    "metrics": {
        "cart_traj_len": 4.562882473090085,
        "distance_elbow_joint": 3.813145953028036,
        "distance_shoulder_lift_joint": 1.1075754149864534,
        "distance_shoulder_pan_joint": 3.9211812885470856,
        "distance_wrist_1_joint": 4.114501363876068,
        "distance_wrist_2_joint": 1.5394093134401687,
        "distance_wrist_3_joint": 2.1577815180020146,
        "smoothness": 0.7939484119187075,
        "time": 0.48163846,
        "traj_len": 4.0808816267909345,
        "weighted_distance": 5.159754700099618
    },
    "planner": "STRIDE",
    "start": {
        "state": {
            "elbow_joint": 0.749534889911806,
            "shoulder_lift_joint": -0.6476975780787326,
            "shoulder_pan_joint": -2.711696901376241,
            "wrist_1_joint": -0.07506478083263063,
            "wrist_2_joint": 0.43296659715538205,
            "wrist_3_joint": -3.14703540197715
        }
    },
    "waypoints": [
        {
            "positions": [
                -2.711696901376241,
                -0.6476975780787326,
                0.749534889911806,
                -0.07506478083263063,
                0.43296659715538205,
                -3.14703540197715
            ]
        },
        {
            "positions": [
                -2.704414902339101,
                -0.6997457711267875,
                0.7973628743978591,
                -0.02144527411457125,
                0.45261711142937316,
                -2.9867725024744343
            ]
        },
        {
            "positions": [
                -2.6971329033019606,
                -0.7517939641748422,
                0.8451908588839123,
                0.03217423260348813,
                0.4722676257033643,
                -2.8265096029717185
            ]
        },
        {
            "positions": [
                -2.6898509042648207,
                -0.8038421572228971,
                0.8930188433699655,
                0.08579373932154752,
                0.49191813997735534,
                -2.6662467034690023
            ]
        },
        {
            "positions": [
                -2.6825689052276807,
                -0.8558903502709518,
                0.9408468278560187,
                0.1394132460396069,
                0.5115686542513465,
                -2.5059838039662865
            ]
        },
        {
            "positions": [
                -2.6752869061905407,
                -0.9079385433190067,
                0.9886748123420719,
                0.1930327527576663,
                0.5312191685253376,
                -2.3457209044635707
            ]
        },
        {
            "positions": [
                -2.6680049071534,
                -0.9599867363670616,
                1.036502796828125,
                0.24665225947572567,
                0.5508696827993287,
                -2.1854580049608545
            ]
        },
        {
            "positions": [
                -2.66072290811626,
                -1.0120349294151163,
                1.0843307813141783,
                0.30027176619378504,
                0.5705201970733198,
                -2.0251951054581387
            ]
        },
        {
            "positions": [
                -2.55838849732869,
                -1.0272085034241467,
                0.9729082330742554,
                0.198651961569693,
                0.5358073408947571,
                -2.045351909789004
            ]
        },
        {
            "positions": [
                -2.45605408654112,
                -1.0423820774331773,
                0.8614856848343325,
                0.09703215694560097,
                0.5010944847161944,
                -2.0655087141198685
            ]
        },
        {
            "positions": [
                -2.3537196757535495,
                -1.0575556514422078,
                0.7500631365944097,
                -0.004587647678491069,
                0.4663816285376319,
                -2.0856655184507336
            ]
        },
        {
            "positions": [
                -2.2513852649659793,
                -1.0727292254512384,
                0.6386405883544868,
                -0.1062074523025831,
                0.4316687723590692,
                -2.105822322781598
            ]
        },
        {
            "positions": [
                -2.1490508541784092,
                -1.0879027994602688,
                0.527218040114564,
                -0.20782725692667514,
                0.3969559161805065,
                -2.1259791271124633
            ]
        },
        {
            "positions": [
                -2.0467164433908387,
                -1.1030763734692994,
                0.41579549187464115,
                -0.3094470615507672,
                0.3622430600019439,
                -2.146135931443328
            ]
        },
        {
            "positions": [
                -1.9443820326032686,
                -1.1182499474783298,
                0.30437294363471834,
                -0.4110668661748592,
                0.32753020382338127,
                -2.166292735774193
            ]
        },
        {
            "positions": [
                -1.8420476218156985,
                -1.1334235214873605,
                0.19295039539479542,
                -0.5126866707989512,
                0.2928173476448186,
                -2.186449540105058
            ]
        },
        {
            "positions": [
                -1.7397132110281281,
                -1.1485970954963909,
                0.0815278471548726,
                -0.6143064754230433,
                0.2581044914662559,
                -2.2066063444359227
            ]
        },
        {
            "positions": [
                -1.637378800240558,
                -1.1637706695054215,
                -0.029894701085050324,
                -0.7159262800471353,
                0.2233916352876933,
                -2.226763148766788
            ]
        },
        {
            "positions": [
                -1.5350443894529877,
                -1.178944243514452,
                -0.14131724932497325,
                -0.8175460846712275,
                0.1886787791091306,
                -2.2469199530976525
            ]
        },
        {
            "positions": [
                -1.4327099786654176,
                -1.1941178175234826,
                -0.25273979756489595,
                -0.9191658892953194,
                0.153965922930568,
                -2.2670767574285176
            ]
        },
        {
            "positions": [
                -1.3303755678778473,
                -1.209291391532513,
                -0.3641623458048189,
                -1.0207856939194115,
                0.11925306675200531,
                -2.2872335617593826
            ]
        },
        {
            "positions": [
                -1.2280411570902772,
                -1.2244649655415436,
                -0.4755848940447416,
                -1.1224054985435035,
                0.08454021057344269,
                -2.3073903660902473
            ]
        },
        {
            "positions": [
                -1.1257067463027068,
                -1.239638539550574,
                -0.5870074422846645,
                -1.2240253031675954,
                0.04982735439487995,
                -2.3275471704211124
            ]
        },
        {
            "positions": [
                -1.0233723355151367,
                -1.2548121135596046,
                -0.6984299905245874,
                -1.3256451077916875,
                0.015114498216317385,
                -2.347703974751977
            ]
        },
        {
            "positions": [
                -0.9210379247275666,
                -1.269985687568635,
                -0.8098525387645101,
                -1.4272649124157795,
                -0.019598357962245294,
                -2.367860779082842
            ]
        },
        {
            "positions": [
                -0.8187035139399961,
                -1.2851592615776657,
                -0.9212750870044331,
                -1.5288847170398716,
                -0.05431121414080797,
                -2.388017583413707
            ]
        },
        {
            "positions": [
                -0.716369103152426,
                -1.300332835586696,
                -1.032697635244356,
                -1.6305045216639635,
                -0.08902407031937065,
                -2.408174387744572
            ]
        },
        {
            "positions": [
                -0.6140346923648559,
                -1.3155064095957267,
                -1.144120183484279,
                -1.7321243262880557,
                -0.12373692649793322,
                -2.428331192075437
            ]
        },
        {
            "positions": [
                -0.5117002815772858,
                -1.3306799836047571,
                -1.2555427317242014,
                -1.8337441309121474,
                -0.1584497826764959,
                -2.4484879964063015
            ]
        },
        {
            "positions": [
                -0.4093658707897152,
                -1.3458535576137878,
                -1.3669652799641248,
                -1.93536393553624,
                -0.19316263885505858,
                -2.4686448007371666
            ]
        },
        {
            "positions": [
                -0.3070314600021451,
                -1.3610271316228182,
                -1.4783878282040472,
                -2.0369837401603315,
                -0.22787549503362126,
                -2.4888016050680313
            ]
        },
        {
            "positions": [
                -0.204697049214575,
                -1.3762007056318488,
                -1.5898103764439702,
                -2.1386035447844236,
                -0.2625883512121838,
                -2.5089584093988964
            ]
        },
        {
            "positions": [
                -0.10236263842700488,
                -1.3913742796408792,
                -1.701232924683893,
                -2.2402233494085158,
                -0.2973012073907465,
                -2.529115213729761
            ]
        },
        {
            "positions": [
                -2.8227639434330598e-05,
                -1.4065478536499099,
                -1.812655472923816,
                -2.341843154032608,
                -0.3320140635693092,
                -2.549272018060626
            ]
        },
        {
            "positions": [
                0.10230618314813578,
                -1.4217214276589403,
                -1.924078021163739,
                -2.4434629586567,
                -0.36672691974787186,
                -2.569428822391491
            ]
        },
        {
            "positions": [
                0.20464059393570588,
                -1.436895001667971,
                -2.0355005694036614,
                -2.545082763280792,
                -0.40143977592643443,
                -2.589585626722356
            ]
        },
        {
            "positions": [
                0.306975004723276,
                -1.4520685756770013,
                -2.1469231176435843,
                -2.6467025679048835,
                -0.4361526321049971,
                -2.609742431053221
            ]
        },
        {
            "positions": [
                0.40930941551084654,
                -1.4672421496860317,
                -2.2583456658835073,
                -2.7483223725289756,
                -0.4708654882835599,
                -2.6298992353840855
            ]
        },
        {
            "positions": [
                0.5116438262984166,
                -1.4824157236950624,
                -2.36976821412343,
                -2.849942177153068,
                -0.5055783444621224,
                -2.6500560397149506
            ]
        },
        {
            "positions": [
                0.39533706615301195,
                -1.5278919352567497,
                -2.3657263697587543,
                -2.7517836982359354,
                -0.4512854824643242,
                -2.718569420919316
            ]
        },
        {
            "positions": [
                0.27903030600760725,
                -1.5733681468184368,
                -2.3616845253940784,
                -2.653625219318802,
                -0.39699262046652606,
                -2.787082802123681
            ]
        },
        {
            "positions": [
                0.16272354586220256,
                -1.6188443583801242,
                -2.357642681029403,
                -2.5554667404016693,
                -0.34269975846872786,
                -2.8555961833280463
            ]
        },
        {
            "positions": [
                0.04641678571679786,
                -1.6643205699418115,
                -2.353600836664727,
                -2.4573082614845365,
                -0.2884068964709297,
                -2.9241095645324116
            ]
        },
        {
            "positions": [
                -0.0698899744286069,
                -1.7097967815034987,
                -2.349558992300051,
                -2.3591497825674033,
                -0.2341140344731315,
                -2.992622945736777
            ]
        },
        {
            "positions": [
                -0.1861967345740115,
                -1.755272993065186,
                -2.345517147935375,
                -2.2609913036502705,
                -0.17982117247533339,
                -3.061136326941142
            ]
        }
    ]
}