{
    "goal": {
        "global_pose": {
            "orientation": {
                "w": 0.5084816217422485,
                "x": -0.49083608388900757,
                "y": 0.5182115435600281,
                "z": -0.4816462993621826
            },
            "position": {
                "x": 0.5540239810943604,
                "y": 0.030875300988554955,
                "z": 0.16403168439865112
            }
        },
        "name": "move_to_storage_A"
    },
    "id": "STRIDE_move_to_storage_A_8",
    "joint_names": [
        "shoulder_pan_joint",
        "shoulder_lift_joint",
        "elbow_joint",
        "wrist_1_joint",
        "wrist_2_joint",
        "wrist_3_joint"
    ],
    "metrics": {
        "cart_traj_len": 0.3540383603860044,
        "distance_elbow_joint": 0.4533356725723243,
        "distance_shoulder_lift_joint": 0.23289969437324998,
        "distance_shoulder_pan_joint": 0.4611184184832573,
        "distance_wrist_1_joint": 0.26014006926696676,
        "distance_wrist_2_joint": 1.1080641083610059,
        "distance_wrist_3_joint": 0.0983228803386842,
        "smoothness": 1.998401446083499e-15,
        "time": 0.018732297000000002,
        "traj_len": 1.6167500868704132,
        "weighted_distance": 2.044194408978958
    },
    "planner": "STRIDE",
    "start": {
        "state": {
            "elbow_joint": 1.971548259319323,
            "shoulder_lift_joint": -1.1394851275133948,
            "shoulder_pan_joint": 0.1228115487234821,
            "wrist_1_joint": -0.7804723859257726,
            "wrist_2_joint": 0.12958671773740124,
            "wrist_3_joint": -3.192489227718131
        }
    },
    "waypoints": [
        {
            "positions": [
                0.1228115487234821,
                -1.1394851275133948,
                1.971548259319323,
                -0.7804723859257726,
                0.12958671773740124,
                -3.192489227718131
            ]
        },
        {
            "positions": [
                0.05693748894015964,
                -1.172756512423859,
                2.0363104982582265,
                -0.8176352529639107,
                0.28788159036040206,
                -3.178443101955462
            ]
        },
        {
            "positions": [
                -0.008936570843162822,
                -1.2060278973343235,
                2.10107273719713,
                -0.8547981200020488,
                0.44617646298340286,
                -3.164396976192793
            ]
        },
        {
            "positions": [
                -0.0748106306264853,
                -1.2392992822447877,
                2.1658349761360336,
                -0.8919609870401869,
                0.6044713356064038,
                -3.1503508504301236
            ]
        },
        {
            "positions": [
                -0.14068469040980774,
                -1.272570667155252,
                2.230597215074937,
                -0.9291238540783251,
                0.7627662082294046,
                -3.1363047246674545
            ]
        },
        {
            "positions": [
                -0.20655875019313025,
                -1.3058420520657164,
                2.2953594540138402,
                -0.9662867211164632,
                0.9210610808524055,
                -3.1222585989047853
            ]
        },
        {
            "positions": [
                -0.2724328099764527,
                -1.3391134369761806,
                2.360121692952744,
                -1.0034495881546013,
                1.0793559534754062,
                -3.108212473142116
            ]
        },
        {
            "positions": [
                -0.3383068697597752,
                -1.3723848218866448,
                2.4248839318916473,
                -1.0406124551927394,
                1.2376508260984072,
                -3.094166347379447
            ]
        }
    ]
}{
    "goal": {
        "global_pose": {
            "orientation": {
                "w": 0.5084816217422485,
                "x": -0.49083608388900757,
                "y": 0.5182115435600281,
                "z": -0.4816462993621826
            },
            "position": {
                "x": 0.5540239810943604,
                "y": 0.030875300988554955,
                "z": 0.16403168439865112
            }
        },
        "name": "move_to_storage_A"
    },
    "id": "STRIDE_move_to_storage_A_8",
    "joint_names": [
        "shoulder_pan_joint",
        "shoulder_lift_joint",
        "elbow_joint",
        "wrist_1_joint",
        "wrist_2_joint",
        "wrist_3_joint"
    ],
    "metrics": {
        "cart_traj_len": 0.3534237083683123,
        "distance_elbow_joint": 0.4540522531746394,
        "distance_shoulder_lift_joint": 0.2336925617257284,
        "distance_shoulder_pan_joint": 0.46210809778366935,
        "distance_wrist_1_joint": 0.2565573105798271,
        "distance_wrist_2_joint": 1.1001741590663667,
        "distance_wrist_3_joint": 0.0926791093847048,
        "smoothness": 1.8873791433662325e-15,
        "time": 0.10679177399999999,
        "traj_len": 1.6122231519597203,
        "weighted_distance": 2.0350314936458695
    },
    "planner": "STRIDE",
    "start": {
        "state": {
            "elbow_joint": 1.97154746011099,
            "shoulder_lift_joint": -1.13948474672311,
            "shoulder_pan_joint": 0.12281154466712228,
            "wrist_1_joint": -0.7804688027058302,
            "wrist_2_joint": 0.12958655903071145,
            "wrist_3_joint": 3.0906928834467795
        }
    },
    "waypoints": [
        {
            "positions": [
                0.12281154466712228,
                -1.13948474672311,
                1.97154746011099,
                -0.7804688027058302,
                0.12958655903071145,
                3.0906928834467795
            ]
        },
        {
            "positions": [
                0.056796102126598094,
                -1.172869398398214,
                2.036412067707367,
                -0.8171198470743769,
                0.2867542960401924,
                3.103932756216023
            ]
        },
        {
            "positions": [
                -0.009219340413926094,
                -1.206254050073318,
                2.101276675303744,
                -0.8537708914429236,
                0.44392203304967337,
                3.1171726289852666
            ]
        },
        {
            "positions": [
                -0.07523478295445028,
                -1.239638701748422,
                2.166141282900121,
                -0.8904219358114703,
                0.6010897700591543,
                3.13041250175451
            ]
        },
        {
            "positions": [
                -0.14125022549497446,
                -1.2730233534235262,
                2.231005890496498,
                -0.927072980180017,
                0.7582575070686353,
                3.1436523745237537
            ]
        },
        {
            "positions": [
                -0.20726566803549867,
                -1.3064080050986302,
                2.2958704980928752,
                -0.9637240245485639,
                0.9154252440781163,
                3.1568922472929972
            ]
        },
        {
            "positions": [
                -0.27328111057602283,
                -1.3397926567737342,
                2.360735105689252,
                -1.0003750689171105,
                1.0725929810875972,
                3.1701321200622408
            ]
        },
        {
            "positions": [
                -0.33929655311654705,
                -1.3731773084488383,
                2.4255997132856293,
                -1.0370261132856573,
                1.2297607180970782,
                3.1833719928314843
            ]
        }
    ]
}{
    "goal": {
        "global_pose": {
            "orientation": {
                "w": 0.5084816217422485,
                "x": -0.49083608388900757,
                "y": 0.5182115435600281,
                "z": -0.4816462993621826
            },
            "position": {
                "x": 0.5540239810943604,
                "y": 0.030875300988554955,
                "z": 0.16403168439865112
            }
        },
        "name": "move_to_storage_A"
    },
    "id": "STRIDE_move_to_storage_A_8",
    "joint_names": [
        "shoulder_pan_joint",
        "shoulder_lift_joint",
        "elbow_joint",
        "wrist_1_joint",
        "wrist_2_joint",
        "wrist_3_joint"
    ],
    "metrics": {
        "cart_traj_len": 0.35284635543674825,
        "distance_elbow_joint": 0.4495401869548017,
        "distance_shoulder_lift_joint": 0.23405815978965938,
        "distance_shoulder_pan_joint": 0.4612713126076184,
        "distance_wrist_1_joint": 0.24508136642605916,
        "distance_wrist_2_joint": 1.0983583586212304,
        "distance_wrist_3_joint": 0.09354205281204697,
        "smoothness": 1.3322676295501878e-15,
        "time": 0.041609546,
        "traj_len": 1.6068140642935063,
        "weighted_distance": 2.0278992252779227
    },
    "planner": "STRIDE",
    "start": {
        "state": {
            "elbow_joint": 1.9715472970024885,
            "shoulder_lift_joint": -1.1394870060712896,
            "shoulder_pan_joint": 0.12281152778156021,
            "wrist_1_joint": -0.780463741449964,
            "wrist_2_joint": 0.12958659822042276,
            "wrist_3_joint": 3.090690232415272
        }
    },
    "waypoints": [
        {
            "positions": [
                0.12281152778156021,
                -1.1394870060712896,
                1.9715472970024885,
                -0.780463741449964,
                0.12958659822042276,
                3.090690232415272
            ]
        },
        {
            "positions": [
                0.05691562598047188,
                -1.172923886041241,
                2.0357673237103175,
                -0.8154753652251153,
                0.2864949351663128,
                3.1040533828169927
            ]
        },
        {
            "positions": [
                -0.008980275820616446,
                -1.2063607660111924,
                2.099987350418146,
                -0.8504869890002666,
                0.4434032721122029,
                3.117416533218714
            ]
        },
        {
            "positions": [
                -0.07487617762170479,
                -1.2397976459811437,
                2.164207377125975,
                -0.8854986127754179,
                0.6003116090580929,
                3.130779683620435
            ]
        },
        {
            "positions": [
                -0.1407720794227931,
                -1.2732345259510949,
                2.2284274038338037,
                -0.9205102365505692,
                0.7572199460039829,
                3.1441428340221558
            ]
        },
        {
            "positions": [
                -0.20666798122388144,
                -1.3066714059210462,
                2.2926474305416327,
                -0.9555218603257205,
                0.914128282949873,
                3.1575059844238766
            ]
        },
        {
            "positions": [
                -0.2725638830249698,
                -1.3401082858909976,
                2.3568674572494612,
                -0.9905334841008718,
                1.071036619895763,
                3.170869134825598
            ]
        },
        {
            "positions": [
                -0.33845978482605815,
                -1.373545165860949,
                2.4210874839572902,
                -1.0255451078760232,
                1.2279449568416532,
                3.184232285227319
            ]
        }
    ]
}