{
    "goal": {
        "global_pose": {
            "orientation": {
                "w": 0.5084816262002911,
                "x": -0.4908360881923452,
                "y": 0.5182115481033761,
                "z": -0.48164630358495003
            },
            "position": {
                "x": 0.5540239810943604,
                "y": -0.46912469901144505,
                "z": 0.16403168439865112
            }
        },
        "name": "move_to_storage_B"
    },
    "id": "STRIDE_move_to_storage_B_94",
    "joint_names": [
        "shoulder_pan_joint",
        "shoulder_lift_joint",
        "elbow_joint",
        "wrist_1_joint",
        "wrist_2_joint",
        "wrist_3_joint"
    ],
    "metrics": {
        "cart_traj_len": 3.213125033126443,
        "distance_elbow_joint": 2.1595413351281936,
        "distance_shoulder_lift_joint": 0.8370284781487236,
        "distance_shoulder_pan_joint": 3.126478541579152,
        "distance_wrist_1_joint": 2.9831063975747645,
        "distance_wrist_2_joint": 2.7049496290999366,
        "distance_wrist_3_joint": 3.1355221497779997,
        "smoothness": 0.29888794983889533,
        "time": 0.181682216,
        "traj_len": 3.8660867206141103,
        "weighted_distance": 5.187073053036699
    },
    "planner": "STRIDE",
    "start": {
        "state": {
            "elbow_joint": 1.664937868594044,
            "shoulder_lift_joint": -0.661644460510453,
            "shoulder_pan_joint": -0.9139846352900073,
            "wrist_1_joint": 2.146753192139373,
            "wrist_2_joint": -2.2341966793290973,
            "wrist_3_joint": 0.005466555786416001
        }
    },
    "waypoints": [
        {
            "positions": [
                -0.9139846352900073,
                -0.661644460510453,
                1.664937868594044,
                2.146753192139373,
                -2.2341966793290973,
                0.005466555786416001
            ]
        },
        {
            "positions": [
                -0.8219343600491242,
                -0.7021221912859091,
                1.6083473338888266,
                2.0612618554313338,
                -2.141591696698871,
                -0.013939892066363053
            ]
        },
        {
            "positions": [
                -0.7298840848082413,
                -0.7425999220613654,
                1.5517567991836092,
                1.975770518723294,
                -2.0489867140686453,
                -0.033346339919142105
            ]
        },
        {
            "positions": [
                -0.6378338095673582,
                -0.7830776528368215,
                1.4951662644783916,
                1.8902791820152545,
                -1.956381731438419,
                -0.05275278777192116
            ]
        },
        {
            "positions": [
                -0.5457835343264752,
                -0.8235553836122778,
                1.4385757297731743,
                1.8047878453072148,
                -1.863776748808193,
                -0.07215923562470021
            ]
        },
        {
            "positions": [
                -0.45373325908559214,
                -0.8640331143877339,
                1.381985195067957,
                1.7192965085991752,
                -1.7711717661779671,
                -0.09156568347747926
            ]
        },
        {
            "positions": [
                -0.3616829838447092,
                -0.90451084516319,
                1.3253946603627393,
                1.6338051718911357,
                -1.678566783547741,
                -0.11097213133025832
            ]
        },
        {
            "positions": [
                -0.26963270860382615,
                -0.9449885759386463,
                1.268804125657522,
                1.548313835183096,
                -1.585961800917515,
                -0.13037857918303736
            ]
        },
        {
            "positions": [
                -0.1775824333629431,
                -0.9854663067141024,
                1.2122135909523046,
                1.4628224984750564,
                -1.493356818287289,
                -0.14978502703581642
            ]
        },
        {
            "positions": [
                -0.08553215812206005,
                -1.0259440374895585,
                1.1556230562470873,
                1.3773311617670168,
                -1.400751835657063,
                -0.16919147488859548
            ]
        },
        {
            "positions": [
                0.006518117118822997,
                -1.0664217682650148,
                1.09903252154187,
                1.291839825058977,
                -1.308146853026837,
                -0.18859792274137452
            ]
        },
        {
            "positions": [
                0.09856839235970594,
                -1.106899499040471,
                1.0424419868366523,
                1.2063484883509377,
                -1.2155418703966108,
                -0.20800437059415358
            ]
        },
        {
            "positions": [
                0.19061866760058888,
                -1.147377229815927,
                0.985851452131435,
                1.120857151642898,
                -1.1229368877663848,
                -0.22741081844693264
            ]
        },
        {
            "positions": [
                0.28266894284147204,
                -1.1878549605913833,
                0.9292609174262176,
                1.0353658149348584,
                -1.0303319051361588,
                -0.2468172662997117
            ]
        },
        {
            "positions": [
                0.374719218082355,
                -1.2283326913668393,
                0.8726703827210002,
                0.9498744782268189,
                -0.9377269225059326,
                -0.2662237141524907
            ]
        },
        {
            "positions": [
                0.46676949332323814,
                -1.2688104221422956,
                0.8160798480157827,
                0.8643831415187793,
                -0.8451219398757066,
                -0.28563016200526975
            ]
        },
        {
            "positions": [
                0.5588197685641211,
                -1.3092881529177518,
                0.7594893133105654,
                0.7788918048107396,
                -0.7525169572454806,
                -0.3050366098580488
            ]
        },
        {
            "positions": [
                0.4869208930108592,
                -1.3010540317985595,
                0.814015086347292,
                0.7086637608869948,
                -0.6993313091143362,
                -0.4278635222116808
            ]
        },
        {
            "positions": [
                0.41502201745759737,
                -1.292819910679367,
                0.8685408593840188,
                0.6384357169632501,
                -0.6461456609831918,
                -0.5506904345653127
            ]
        },
        {
            "positions": [
                0.3431231419043355,
                -1.2845857895601747,
                0.9230666324207455,
                0.5682076730395054,
                -0.5929600128520474,
                -0.6735173469189446
            ]
        },
        {
            "positions": [
                0.27122426635107366,
                -1.2763516684409824,
                0.9775924054574723,
                0.49797962911576055,
                -0.5397743647209029,
                -0.7963442592725766
            ]
        },
        {
            "positions": [
                0.1993253907978118,
                -1.2681175473217898,
                1.032118178494199,
                0.4277515851920158,
                -0.4865887165897585,
                -0.9191711716262085
            ]
        },
        {
            "positions": [
                0.12742651524454995,
                -1.2598834262025975,
                1.0866439515309256,
                0.357523541268271,
                -0.4334030684586141,
                -1.0419980839798404
            ]
        },
        {
            "positions": [
                0.055527639691288044,
                -1.2516493050834052,
                1.1411697245676524,
                0.28729549734452625,
                -0.38021742032746964,
                -1.1648249963334725
            ]
        },
        {
            "positions": [
                -0.016371235861973754,
                -1.2434151839642127,
                1.1956954976043792,
                0.2170674534207815,
                -0.32703177219632523,
                -1.2876519086871043
            ]
        },
        {
            "positions": [
                -0.08827011141523566,
                -1.2351810628450204,
                1.2502212706411058,
                0.14683940949703667,
                -0.2738461240651808,
                -1.4104788210407364
            ]
        },
        {
            "positions": [
                -0.16016898696849746,
                -1.226946941725828,
                1.3047470436778326,
                0.07661136557329196,
                -0.22066047593403637,
                -1.5333057333943683
            ]
        },
        {
            "positions": [
                -0.23206786252175926,
                -1.2187128206066355,
                1.3592728167145594,
                0.006383321649547247,
                -0.1674748278028919,
                -1.6561326457480001
            ]
        },
        {
            "positions": [
                -0.30396673807502117,
                -1.2104786994874432,
                1.413798589751286,
                -0.06384472227419757,
                -0.11428917967174756,
                -1.7789595581016322
            ]
        },
        {
            "positions": [
                -0.37586561362828297,
                -1.202244578368251,
                1.4683243627880127,
                -0.13407276619794228,
                -0.06110353154060311,
                -1.901786470455264
            ]
        },
        {
            "positions": [
                -0.447764489181545,
                -1.1940104572490584,
                1.5228501358247395,
                -0.2043008101216871,
                -0.007917883409458648,
                -2.024613382808896
            ]
        },
        {
            "positions": [
                -0.5196633647348067,
                -1.185776336129866,
                1.577375908861466,
                -0.2745288540454318,
                0.04526776472168581,
                -2.1474402951625278
            ]
        },
        {
            "positions": [
                -0.5915622402880686,
                -1.1775422150106736,
                1.6319016818981928,
                -0.34475689796917663,
                0.09845341285283016,
                -2.27026720751616
            ]
        },
        {
            "positions": [
                -0.6634611158413303,
                -1.1693080938914813,
                1.6864274549349196,
                -0.41498494189292123,
                0.1516390609839745,
                -2.393094119869792
            ]
        },
        {
            "positions": [
                -0.7353599913945924,
                -1.161073972772289,
                1.7409532279716462,
                -0.4852129858166663,
                0.20482470911511907,
                -2.515921032223424
            ]
        },
        {
            "positions": [
                -0.8072588669478541,
                -1.1528398516530964,
                1.795479001008373,
                -0.5554410297404109,
                0.25801035724626353,
                -2.6387479445770556
            ]
        },
        {
            "positions": [
                -0.879157742501116,
                -1.1446057305339041,
                1.8500047740450998,
                -0.6256690736641557,
                0.3111960053774079,
                -2.7615748569306877
            ]
        },
        {
            "positions": [
                -0.9510566180543777,
                -1.1363716094147118,
                1.9045305470818263,
                -0.6958971175879003,
                0.36438165350855223,
                -2.8844017692843194
            ]
        },
        {
            "positions": [
                -1.0229554936076397,
                -1.1281374882955193,
                1.9590563201185531,
                -0.7661251615116451,
                0.4175673016396968,
                -3.0072286816379514
            ]
        },
        {
            "positions": [
                -1.0948543691609016,
                -1.119903367176327,
                2.01358209315528,
                -0.8363532054353899,
                0.47075294977084114,
                -3.1300555939915835
            ]
        }
    ]
}