{
    "goal": {
        "global_pose": {
            "orientation": {
                "w": 0.005598929693374612,
                "x": 0.007748599140229565,
                "y": 0.7110244013736278,
                "z": -0.7031023480610252
            },
            "position": {
                "x": 0.1141497679147869,
                "y": -0.7141253447532654,
                "z": 0.3711530566215515
            }
        },
        "name": "move_to_auspresseinheit_B"
    },
    "id": "STRIDE_move_to_auspresseinheit_B_118",
    "joint_names": [
        "shoulder_pan_joint",
        "shoulder_lift_joint",
        "elbow_joint",
        "wrist_1_joint",
        "wrist_2_joint",
        "wrist_3_joint"
    ],
    "metrics": {
        "cart_traj_len": 0.5651742425171014,
        "distance_elbow_joint": 0.062048223943204306,
        "distance_shoulder_lift_joint": 0.29577083639975954,
        "distance_shoulder_pan_joint": 0.5789730243372124,
        "distance_wrist_1_joint": 0.3237587897417896,
        "distance_wrist_2_joint": 0.9845602691774467,
        "distance_wrist_3_joint": 0.00881494267399141,
        "smoothness": 7.612957943425664e-16,
        "time": 0.314487759,
        "traj_len": 1.5013081250274387,
        "weighted_distance": 1.8920557683484447
    },
    "planner": "STRIDE",
    "start": {
        "state": {
            "elbow_joint": 2.0193083361928714,
            "shoulder_lift_joint": -1.1220246554650708,
            "shoulder_pan_joint": -1.0952077554168747,
            "wrist_1_joint": -0.8559753972642168,
            "wrist_2_joint": 0.4759566250798843,
            "wrist_3_joint": -3.1240929996934557
        }
    },
    "waypoints": [
        {
            "positions": [
                -1.0952077554168747,
                -1.1220246554650708,
                2.0193083361928714,
                -0.8559753972642168,
                0.4759566250798843,
                -3.1240929996934557
            ]
        },
        {
            "positions": [
                -1.1917032594730768,
                -1.1713197948650307,
                2.0089669655356706,
                -0.8020155989739185,
                0.6400500032761254,
                -3.122623842581124
            ]
        },
        {
            "positions": [
                -1.2881987635292789,
                -1.2206149342649906,
                1.99862559487847,
                -0.7480558006836202,
                0.8041433814723664,
                -3.1211546854687917
            ]
        },
        {
            "positions": [
                -1.384694267585481,
                -1.2699100736649505,
                1.9882842242212693,
                -0.694096002393322,
                0.9682367596686077,
                -3.11968552835646
            ]
        },
        {
            "positions": [
                -1.4811897716416829,
                -1.3192052130649106,
                1.9779428535640686,
                -0.6401362041030237,
                1.1323301378648487,
                -3.118216371244128
            ]
        },
        {
            "positions": [
                -1.577685275697885,
                -1.3685003524648705,
                1.9676014829068678,
                -0.5861764058127255,
                1.29642351606109,
                -3.116747214131796
            ]
        },
        {
            "positions": [
                -1.674180779754087,
                -1.4177954918648303,
                1.9572601122496671,
                -0.5322166075224272,
                1.460516894257331,
                -3.1152780570194643
            ]
        }
    ]
}