{
    "goal": {
        "global_pose": {
            "orientation": {
                "w": 0.005598929693374612,
                "x": 0.007748599140229565,
                "y": 0.7110244013736278,
                "z": -0.7031023480610252
            },
            "position": {
                "x": 0.1141497679147869,
                "y": -0.7141253447532654,
                "z": 0.3711530566215515
            }
        },
        "name": "move_to_auspresseinheit_B"
    },
    "id": "STRIDE_move_to_auspresseinheit_B_10",
    "joint_names": [
        "shoulder_pan_joint",
        "shoulder_lift_joint",
        "elbow_joint",
        "wrist_1_joint",
        "wrist_2_joint",
        "wrist_3_joint"
    ],
    "metrics": {
        "cart_traj_len": 0.5641929569877364,
        "distance_elbow_joint": 0.06329464978589083,
        "distance_shoulder_lift_joint": 0.2943925712370714,
        "distance_shoulder_pan_joint": 0.5755581502346869,
        "distance_wrist_1_joint": 0.32616094147517816,
        "distance_wrist_2_joint": 0.9953375585767275,
        "distance_wrist_3_joint": 0.004452875008552404,
        "smoothness": 5.075305255429287e-16,
        "time": 0.094170123,
        "traj_len": 1.5030624558940016,
        "weighted_distance": 1.8946242361975416
    },
    "planner": "STRIDE",
    "start": {
        "state": {
            "elbow_joint": 2.0193083361928714,
            "shoulder_lift_joint": -1.1220246554650708,
            "shoulder_pan_joint": -1.0952077554168747,
            "wrist_1_joint": -0.8559753972642168,
            "wrist_2_joint": 0.4759566250798843,
            "wrist_3_joint": -3.1240929996934557
        }
    },
    "waypoints": [
        {
            "positions": [
                -1.0952077554168747,
                -1.1220246554650708,
                2.0193083361928714,
                -0.8559753972642168,
                0.4759566250798843,
                -3.1240929996934557
            ]
        },
        {
            "positions": [
                -1.1911341137893225,
                -1.1710900840045828,
                2.008759227895223,
                -0.8016152403516871,
                0.6418462181760055,
                -3.123350853858697
            ]
        },
        {
            "positions": [
                -1.2870604721617702,
                -1.2201555125440946,
                1.9982101195975746,
                -0.7472550834391574,
                0.8077358112721267,
                -3.122608708023938
            ]
        },
        {
            "positions": [
                -1.3829868305342181,
                -1.2692209410836064,
                1.987661011299926,
                -0.6928949265266278,
                0.973625404368248,
                -3.1218665621891795
            ]
        },
        {
            "positions": [
                -1.4789131889066658,
                -1.3182863696231184,
                1.9771119030022775,
                -0.638534769614098,
                1.1395149974643692,
                -3.1211244163544207
            ]
        },
        {
            "positions": [
                -1.574839547279114,
                -1.3673517981626304,
                1.9665627947046291,
                -0.5841746127015683,
                1.3054045905604905,
                -3.120382270519662
            ]
        },
        {
            "positions": [
                -1.6707659056515616,
                -1.4164172267021422,
                1.9560136864069806,
                -0.5298144557890386,
                1.4712941836566118,
                -3.1196401246849033
            ]
        }
    ]
}