{
    "goal": {
        "global_pose": {
            "orientation": {
                "w": 0.7047431468963623,
                "x": -0.7094548344612122,
                "y": 0.0024358443915843964,
                "z": -0.0022348060738295317
            },
            "position": {
                "x": 0.6094750761985779,
                "y": 0.3671506643295288,
                "z": 0.19426114857196808
            }
        },
        "name": "move_to_magneteinheit_A"
    },
    "id": "STRIDE_move_to_magneteinheit_A_9",
    "joint_names": [
        "shoulder_pan_joint",
        "shoulder_lift_joint",
        "elbow_joint",
        "wrist_1_joint",
        "wrist_2_joint",
        "wrist_3_joint"
    ],
    "metrics": {
        "cart_traj_len": 3.4802186364283485,
        "distance_elbow_joint": 3.885548646484042,
        "distance_shoulder_lift_joint": 1.478044360345534,
        "distance_shoulder_pan_joint": 4.453066771438128,
        "distance_wrist_1_joint": 0.791591393482516,
        "distance_wrist_2_joint": 1.6905748693761078,
        "distance_wrist_3_joint": 2.631874242125674,
        "smoothness": 0.24136883114051738,
        "time": 0.106520381,
        "traj_len": 3.8640264340778017,
        "weighted_distance": 4.761996958247871
    },
    "planner": "STRIDE",
    "start": {
        "state": {
            "elbow_joint": -1.9196185241190666,
            "shoulder_lift_joint": -1.2443396400964142,
            "shoulder_pan_joint": 2.6996025414629847,
            "wrist_1_joint": -1.5485510000780065,
            "wrist_2_joint": -1.5709468930060704,
            "wrist_3_joint": 0.4420197071253992
        }
    },
    "waypoints": [
        {
            "positions": [
                2.6996025414629847,
                -1.2443396400964142,
                -1.9196185241190666,
                -1.5485510000780065,
                -1.5709468930060704,
                0.4420197071253992
            ]
        },
        {
            "positions": [
                2.5740649992098583,
                -1.2688129263962402,
                -1.8103855652494854,
                -1.5315189858971279,
                -1.5301905308088248,
                0.5081247594443643
            ]
        },
        {
            "positions": [
                2.448527456956732,
                -1.2932862126960663,
                -1.701152606379904,
                -1.5144869717162495,
                -1.4894341686115793,
                0.5742298117633293
            ]
        },
        {
            "positions": [
                2.3229899147036055,
                -1.3177594989958923,
                -1.5919196475103226,
                -1.4974549575353708,
                -1.4486778064143337,
                0.6403348640822943
            ]
        },
        {
            "positions": [
                2.197452372450479,
                -1.3422327852957183,
                -1.4826866886407413,
                -1.4804229433544922,
                -1.4079214442170884,
                0.7064399164012595
            ]
        },
        {
            "positions": [
                2.0719148301973527,
                -1.3667060715955444,
                -1.37345372977116,
                -1.4633909291736138,
                -1.3671650820198429,
                0.7725449687202246
            ]
        },
        {
            "positions": [
                1.9463772879442263,
                -1.3911793578953704,
                -1.2642207709015787,
                -1.4463589149927352,
                -1.3264087198225973,
                0.8386500210391896
            ]
        },
        {
            "positions": [
                1.8208397456910999,
                -1.4156526441951964,
                -1.1549878120319974,
                -1.4293269008118568,
                -1.2856523576253518,
                0.9047550733581547
            ]
        },
        {
            "positions": [
                1.6953022034379737,
                -1.4401259304950225,
                -1.045754853162416,
                -1.4122948866309781,
                -1.2448959954281063,
                0.9708601256771198
            ]
        },
        {
            "positions": [
                1.569764661184847,
                -1.4645992167948487,
                -0.9365218942928345,
                -1.3952628724500995,
                -1.2041396332308607,
                1.036965177996085
            ]
        },
        {
            "positions": [
                1.4442271189317208,
                -1.4890725030946748,
                -0.8272889354232533,
                -1.3782308582692209,
                -1.1633832710336152,
                1.10307023031505
            ]
        },
        {
            "positions": [
                1.3186895766785944,
                -1.5135457893945008,
                -0.718055976553672,
                -1.3611988440883425,
                -1.1226269088363696,
                1.169175282634015
            ]
        },
        {
            "positions": [
                1.193152034425468,
                -1.5380190756943268,
                -0.6088230176840908,
                -1.3441668299074638,
                -1.0818705466391243,
                1.23528033495298
            ]
        },
        {
            "positions": [
                1.0676144921723416,
                -1.5624923619941529,
                -0.49959005881450924,
                -1.3271348157265854,
                -1.0411141844418788,
                1.3013853872719454
            ]
        },
        {
            "positions": [
                0.9420769499192152,
                -1.586965648293979,
                -0.39035709994492795,
                -1.3101028015457068,
                -1.0003578222446332,
                1.3674904395909104
            ]
        },
        {
            "positions": [
                0.8165394076660888,
                -1.611438934593805,
                -0.28112414107534667,
                -1.2930707873648282,
                -0.9596014600473877,
                1.4335954919098755
            ]
        },
        {
            "positions": [
                0.6910018654129626,
                -1.635912220893631,
                -0.17189118220576538,
                -1.2760387731839498,
                -0.9188450978501422,
                1.4997005442288405
            ]
        },
        {
            "positions": [
                0.5654643231598362,
                -1.660385507193457,
                -0.0626582233361841,
                -1.2590067590030711,
                -0.8780887356528967,
                1.5658055965478055
            ]
        },
        {
            "positions": [
                0.43992678090670934,
                -1.6848587934932833,
                0.04657473553339764,
                -1.2419747448221925,
                -0.8373323734556511,
                1.631910648866771
            ]
        },
        {
            "positions": [
                0.3143892386535829,
                -1.7093320797931093,
                0.15580769440297892,
                -1.224942730641314,
                -0.7965760112584056,
                1.698015701185736
            ]
        },
        {
            "positions": [
                0.18885169640045696,
                -1.7338053660929353,
                0.26504065327256,
                -1.2079107164604355,
                -0.7558196490611602,
                1.764120753504701
            ]
        },
        {
            "positions": [
                0.06331415414733055,
                -1.7582786523927614,
                0.3742736121421415,
                -1.1908787022795568,
                -0.7150632868639146,
                1.830225805823666
            ]
        },
        {
            "positions": [
                -0.06222338810579586,
                -1.7827519386925874,
                0.48350657101172256,
                -1.1738466880986784,
                -0.6743069246666691,
                1.896330858142631
            ]
        },
        {
            "positions": [
                -0.18776093035892227,
                -1.8072252249924134,
                0.5927395298813041,
                -1.1568146739177998,
                -0.6335505624694237,
                1.962435910461596
            ]
        },
        {
            "positions": [
                -0.3132984726120487,
                -1.8316985112922395,
                0.7019724887508851,
                -1.1397826597369214,
                -0.5927942002721781,
                2.028540962780561
            ]
        },
        {
            "positions": [
                -0.4388360148651751,
                -1.8561717975920655,
                0.8112054476204671,
                -1.1227506455560428,
                -0.5520378380749325,
                2.0946460150995265
            ]
        },
        {
            "positions": [
                -0.5643735571183015,
                -1.8806450838918916,
                0.9204384064900482,
                -1.1057186313751641,
                -0.5112814758776871,
                2.1607510674184915
            ]
        },
        {
            "positions": [
                -0.6899110993714279,
                -1.9051183701917176,
                1.0296713653596297,
                -1.0886866171942855,
                -0.4705251136804416,
                2.2268561197374566
            ]
        },
        {
            "positions": [
                -0.8154486416245543,
                -1.9295916564915436,
                1.1389043242292107,
                -1.071654603013407,
                -0.42976875148319604,
                2.2929611720564216
            ]
        },
        {
            "positions": [
                -0.7301744972290463,
                -1.857519625223325,
                1.2140884876960985,
                -1.0430459669754146,
                -0.3798235944056293,
                2.363955060892299
            ]
        },
        {
            "positions": [
                -0.6449003528335382,
                -1.7854475939551064,
                1.2892726511629862,
                -1.0144373309374222,
                -0.3298784373280626,
                2.4349489497281764
            ]
        },
        {
            "positions": [
                -0.5596262084380301,
                -1.7133755626868878,
                1.364456814629874,
                -0.9858286948994298,
                -0.2799332802504959,
                2.505942838564054
            ]
        },
        {
            "positions": [
                -0.47435206404252206,
                -1.6413035314186692,
                1.4396409780967616,
                -0.9572200588614375,
                -0.22998812317292913,
                2.5769367273999313
            ]
        },
        {
            "positions": [
                -0.389077919647014,
                -1.5692315001504507,
                1.5148251415636493,
                -0.928611422823445,
                -0.1800429660953624,
                2.6479306162358087
            ]
        },
        {
            "positions": [
                -0.3038037752515059,
                -1.497159468882232,
                1.5900093050305368,
                -0.9000027867854526,
                -0.13009780901779572,
                2.718924505071686
            ]
        },
        {
            "positions": [
                -0.21852963085599786,
                -1.4250874376140135,
                1.6651934684974248,
                -0.8713941507474602,
                -0.08015265194022897,
                2.7899183939075636
            ]
        },
        {
            "positions": [
                -0.1332554864604898,
                -1.3530154063457949,
                1.7403776319643125,
                -0.8427855147094678,
                -0.03020749486266222,
                2.860912282743441
            ]
        },
        {
            "positions": [
                -0.047981342064981725,
                -1.2809433750775763,
                1.8155617954312002,
                -0.8141768786714754,
                0.019737662214904528,
                2.9319061715793184
            ]
        },
        {
            "positions": [
                0.03729280233052634,
                -1.2088713438093577,
                1.8907459588980877,
                -0.7855682426334829,
                0.06968281929247122,
                3.002900060415196
            ]
        },
        {
            "positions": [
                0.12256694672603445,
                -1.136799312541139,
                1.9659301223649754,
                -0.7569596065954906,
                0.11962797637003797,
                3.0738939492510733
            ]
        }
    ]
}