{
    "goal": {
        "global_pose": {
            "orientation": {
                "w": 0.7047431468963623,
                "x": -0.7094548344612122,
                "y": 0.0024358443915843964,
                "z": -0.0022348060738295317
            },
            "position": {
                "x": 0.6094750761985779,
                "y": 0.3671506643295288,
                "z": 0.19426114857196808
            }
        },
        "name": "move_to_magneteinheit_A"
    },
    "id": "STRIDE_move_to_magneteinheit_A_139",
    "joint_names": [
        "shoulder_pan_joint",
        "shoulder_lift_joint",
        "elbow_joint",
        "wrist_1_joint",
        "wrist_2_joint",
        "wrist_3_joint"
    ],
    "metrics": {
        "cart_traj_len": 4.534150221770102,
        "distance_elbow_joint": 3.88700111837262,
        "distance_shoulder_lift_joint": 3.09220602652819,
        "distance_shoulder_pan_joint": 5.070418646070857,
        "distance_wrist_1_joint": 4.259129686794644,
        "distance_wrist_2_joint": 1.698504697352088,
        "distance_wrist_3_joint": 9.342961215634686,
        "smoothness": 0.2612664570595744,
        "time": 0.12239649899999999,
        "traj_len": 5.2297439125403695,
        "weighted_distance": 7.210671134240499
    },
    "planner": "STRIDE",
    "start": {
        "state": {
            "elbow_joint": -1.9196185241190666,
            "shoulder_lift_joint": -1.2443396400964142,
            "shoulder_pan_joint": 2.6996025414629847,
            "wrist_1_joint": -1.5485510000780065,
            "wrist_2_joint": -1.5709468930060704,
            "wrist_3_joint": 0.4420197071253992
        }
    },
    "waypoints": [
        {
            "positions": [
                2.6996025414629847,
                -1.2443396400964142,
                -1.9196185241190666,
                -1.5485510000780065,
                -1.5709468930060704,
                0.4420197071253992
            ]
        },
        {
            "positions": [
                2.593386873503472,
                -1.2857826340535694,
                -1.8249667896998614,
                -1.596828099264954,
                -1.5540239631689576,
                0.5210983512412306
            ]
        },
        {
            "positions": [
                2.4871712055439588,
                -1.3272256280107244,
                -1.730315055280656,
                -1.6451051984519014,
                -1.5371010333318447,
                0.600176995357062
            ]
        },
        {
            "positions": [
                2.380955537584446,
                -1.3686686219678796,
                -1.6356633208614508,
                -1.6933822976388488,
                -1.520178103494732,
                0.6792556394728935
            ]
        },
        {
            "positions": [
                2.274739869624933,
                -1.4101116159250346,
                -1.5410115864422458,
                -1.7416593968257963,
                -1.503255173657619,
                0.758334283588725
            ]
        },
        {
            "positions": [
                2.16852420166542,
                -1.4515546098821899,
                -1.4463598520230405,
                -1.7899364960127437,
                -1.4863322438205062,
                0.8374129277045566
            ]
        },
        {
            "positions": [
                2.062308533705907,
                -1.492997603839345,
                -1.3517081176038352,
                -1.8382135951996912,
                -1.4694093139833933,
                0.9164915718203879
            ]
        },
        {
            "positions": [
                1.956092865746394,
                -1.5344405977965,
                -1.25705638318463,
                -1.8864906943866386,
                -1.4524863841462805,
                0.9955702159362194
            ]
        },
        {
            "positions": [
                1.849877197786881,
                -1.5758835917536553,
                -1.162404648765425,
                -1.934767793573586,
                -1.4355634543091675,
                1.0746488600520507
            ]
        },
        {
            "positions": [
                1.743661529827368,
                -1.6173265857108103,
                -1.0677529143462197,
                -1.9830448927605335,
                -1.4186405244720548,
                1.1537275041678823
            ]
        },
        {
            "positions": [
                1.6374458618678551,
                -1.6587695796679656,
                -0.9731011799270143,
                -2.0313219919474808,
                -1.4017175946349418,
                1.2328061482837138
            ]
        },
        {
            "positions": [
                1.5312301939083421,
                -1.7002125736251208,
                -0.8784494455078089,
                -2.0795990911344284,
                -1.384794664797829,
                1.3118847923995451
            ]
        },
        {
            "positions": [
                1.4250145259488294,
                -1.7416555675822758,
                -0.7837977110886039,
                -2.1278761903213756,
                -1.3678717349607161,
                1.3909634365153765
            ]
        },
        {
            "positions": [
                1.3187988579893164,
                -1.783098561539431,
                -0.6891459766693986,
                -2.1761532895083233,
                -1.3509488051236034,
                1.4700420806312082
            ]
        },
        {
            "positions": [
                1.2125831900298032,
                -1.824541555496586,
                -0.5944942422501933,
                -2.2244303886952705,
                -1.3340258752864904,
                1.5491207247470395
            ]
        },
        {
            "positions": [
                1.1063675220702902,
                -1.8659845494537413,
                -0.49984250783098805,
                -2.272707487882218,
                -1.3171029454493777,
                1.6281993688628709
            ]
        },
        {
            "positions": [
                1.0001518541107774,
                -1.9074275434108965,
                -0.405190773411783,
                -2.3209845870691654,
                -1.300180015612265,
                1.7072780129787022
            ]
        },
        {
            "positions": [
                0.8939361861512645,
                -1.9488705373680517,
                -0.31053903899257773,
                -2.369261686256113,
                -1.283257085775152,
                1.786356657094534
            ]
        },
        {
            "positions": [
                0.7877205181917515,
                -1.9903135313252067,
                -0.21588730457337246,
                -2.4175387854430603,
                -1.266334155938039,
                1.8654353012103653
            ]
        },
        {
            "positions": [
                0.6815048502322383,
                -2.0317565252823617,
                -0.1212355701541672,
                -2.465815884630008,
                -1.2494112261009263,
                1.944513945326197
            ]
        },
        {
            "positions": [
                0.5752891822727255,
                -2.073199519239517,
                -0.026583835734961925,
                -2.5140929838169552,
                -1.2324882962638135,
                2.0235925894420284
            ]
        },
        {
            "positions": [
                0.4690735143132123,
                -2.114642513196672,
                0.06806789868424334,
                -2.562370083003903,
                -1.2155653664267005,
                2.1026712335578597
            ]
        },
        {
            "positions": [
                0.36285784635369955,
                -2.1560855071538274,
                0.16271963310344884,
                -2.61064718219085,
                -1.1986424365895876,
                2.1817498776736914
            ]
        },
        {
            "positions": [
                0.2566421783941868,
                -2.197528501110982,
                0.25737136752265366,
                -2.6589242813777973,
                -1.1817195067524748,
                2.2608285217895223
            ]
        },
        {
            "positions": [
                0.15042651043467403,
                -2.2389714950681374,
                0.35202310194185893,
                -2.707201380564745,
                -1.164796576915362,
                2.339907165905354
            ]
        },
        {
            "positions": [
                0.04421084247516083,
                -2.2804144890252926,
                0.4466748363610642,
                -2.7554784797516927,
                -1.1478736470782491,
                2.4189858100211854
            ]
        },
        {
            "positions": [
                -0.06200482548435193,
                -2.321857482982448,
                0.5413265707802695,
                -2.80375557893864,
                -1.1309507172411364,
                2.498064454137017
            ]
        },
        {
            "positions": [
                -0.16822049344386514,
                -2.363300476939603,
                0.6359783051994747,
                -2.852032678125587,
                -1.1140277874040234,
                2.5771430982528485
            ]
        },
        {
            "positions": [
                -0.27443616140337834,
                -2.404743470896758,
                0.73063003961868,
                -2.900309777312535,
                -1.0971048575669107,
                2.6562217423686802
            ]
        },
        {
            "positions": [
                -0.3806518293628911,
                -2.4461864648539136,
                0.8252817740378853,
                -2.9485868764994825,
                -1.0801819277297977,
                2.7353003864845116
            ]
        },
        {
            "positions": [
                -0.4868674973224043,
                -2.4876294588110683,
                0.9199335084570905,
                -2.9968639756864297,
                -1.0632589978926847,
                2.814379030600343
            ]
        },
        {
            "positions": [
                -0.5930831652819171,
                -2.5290724527682236,
                1.0145852428762958,
                -3.0451410748733774,
                -1.046336068055572,
                2.8934576747161747
            ]
        },
        {
            "positions": [
                -0.6992988332414298,
                -2.570515446725379,
                1.1092369772955006,
                -3.0934181740603246,
                -1.0294131382184593,
                2.9725363188320055
            ]
        },
        {
            "positions": [
                -0.8055145012009426,
                -2.6119584406825336,
                1.203888711714706,
                -3.1416952732472723,
                -1.0124902083813465,
                3.0516149629478373
            ]
        },
        {
            "positions": [
                -0.9117301691604558,
                -2.6534014346396892,
                1.2985404461339112,
                -3.1899723724342195,
                -0.9955672785442335,
                3.1306936070636686
            ]
        },
        {
            "positions": [
                -1.0179458371199686,
                -2.694844428596844,
                1.3931921805531164,
                -3.2382494716211667,
                -0.9786443487071207,
                3.2097722511795004
            ]
        },
        {
            "positions": [
                -1.1241615050794818,
                -2.7362874225539993,
                1.4878439149723217,
                -3.2865265708081144,
                -0.9617214188700078,
                3.2888508952953317
            ]
        },
        {
            "positions": [
                -1.087495193328647,
                -2.6892210036107462,
                1.5019479937747109,
                -3.2123749791591574,
                -0.9296837946577717,
                3.0977882474287215
            ]
        },
        {
            "positions": [
                -1.0508288815778122,
                -2.642154584667493,
                1.5160520725771,
                -3.1382233875102004,
                -0.8976461704455356,
                2.9067255995621113
            ]
        },
        {
            "positions": [
                -1.0141625698269774,
                -2.59508816572424,
                1.5301561513794892,
                -3.064071795861244,
                -0.8656085462332996,
                2.715662951695501
            ]
        },
        {
            "positions": [
                -0.9774962580761426,
                -2.5480217467809867,
                1.5442602301818782,
                -2.9899202042122868,
                -0.8335709220210635,
                2.524600303828891
            ]
        },
        {
            "positions": [
                -0.9408299463253077,
                -2.5009553278377337,
                1.5583643089842674,
                -2.9157686125633298,
                -0.8015332978088274,
                2.3335376559622807
            ]
        },
        {
            "positions": [
                -0.9041636345744729,
                -2.4538889088944806,
                1.5724683877866565,
                -2.8416170209143727,
                -0.7694956735965913,
                2.1424750080956705
            ]
        },
        {
            "positions": [
                -0.8674973228236382,
                -2.4068224899512276,
                1.5865724665890457,
                -2.7674654292654157,
                -0.7374580493843553,
                1.9514123602290605
            ]
        },
        {
            "positions": [
                -0.8308310110728033,
                -2.3597560710079746,
                1.600676545391435,
                -2.6933138376164587,
                -0.7054204251721192,
                1.7603497123624503
            ]
        },
        {
            "positions": [
                -0.7941646993219685,
                -2.3126896520647215,
                1.614780624193824,
                -2.6191622459675017,
                -0.6733828009598831,
                1.56928706449584
            ]
        },
        {
            "positions": [
                -0.7574983875711336,
                -2.2656232331214685,
                1.628884702996213,
                -2.545010654318545,
                -0.641345176747647,
                1.37822441662923
            ]
        },
        {
            "positions": [
                -0.7208320758202988,
                -2.218556814178215,
                1.6429887817986022,
                -2.470859062669588,
                -0.609307552535411,
                1.1871617687626195
            ]
        },
        {
            "positions": [
                -0.684165764069464,
                -2.171490395234962,
                1.6570928606009914,
                -2.396707471020631,
                -0.5772699283231748,
                0.9960991208960093
            ]
        },
        {
            "positions": [
                -0.6474994523186294,
                -2.124423976291709,
                1.6711969394033805,
                -2.3225558793716745,
                -0.5452323041109388,
                0.8050364730293995
            ]
        },
        {
            "positions": [
                -0.6108331405677946,
                -2.077357557348456,
                1.6853010182057697,
                -2.2484042877227175,
                -0.5131946798987028,
                0.6139738251627893
            ]
        },
        {
            "positions": [
                -0.5741668288169597,
                -2.030291138405203,
                1.699405097008159,
                -2.1742526960737605,
                -0.48115705568646666,
                0.4229111772961791
            ]
        },
        {
            "positions": [
                -0.5375005170661249,
                -1.98322471946195,
                1.713509175810548,
                -2.1001011044248035,
                -0.4491194314742306,
                0.2318485294295689
            ]
        },
        {
            "positions": [
                -0.5008342053152901,
                -1.9361583005186969,
                1.7276132546129372,
                -2.0259495127758465,
                -0.4170818072619945,
                0.040785881562958703
            ]
        },
        {
            "positions": [
                -0.4641678935644553,
                -1.8890918815754436,
                1.7417173334153262,
                -1.9517979211268894,
                -0.3850441830497584,
                -0.1502767663036515
            ]
        },
        {
            "positions": [
                -0.4275015818136205,
                -1.8420254626321906,
                1.7558214122177154,
                -1.8776463294779326,
                -0.3530065588375223,
                -0.3413394141702617
            ]
        },
        {
            "positions": [
                -0.3908352700627856,
                -1.7949590436889373,
                1.7699254910201045,
                -1.8034947378289756,
                -0.3209689346252863,
                -0.5324020620368719
            ]
        },
        {
            "positions": [
                -0.35416895831195083,
                -1.7478926247456843,
                1.7840295698224937,
                -1.7293431461800186,
                -0.2889313104130502,
                -0.7234647099034821
            ]
        },
        {
            "positions": [
                -0.31750264656111604,
                -1.7008262058024313,
                1.798133648624883,
                -1.6551915545310616,
                -0.2568936862008141,
                -0.9145273577700928
            ]
        },
        {
            "positions": [
                -0.28083633481028125,
                -1.6537597868591782,
                1.812237727427272,
                -1.5810399628821048,
                -0.224856061988578,
                -1.1055900056367025
            ]
        },
        {
            "positions": [
                -0.24417002305944646,
                -1.606693367915925,
                1.826341806229661,
                -1.5068883712331478,
                -0.1928184377763419,
                -1.2966526535033132
            ]
        },
        {
            "positions": [
                -0.20750371130861156,
                -1.559626948972672,
                1.8404458850320502,
                -1.4327367795841908,
                -0.16078081356410578,
                -1.487715301369923
            ]
        },
        {
            "positions": [
                -0.170837399557777,
                -1.512560530029419,
                1.8545499638344394,
                -1.3585851879352342,
                -0.1287431893518699,
                -1.6787779492365327
            ]
        },
        {
            "positions": [
                -0.1341710878069421,
                -1.465494111086166,
                1.8686540426368285,
                -1.2844335962862772,
                -0.0967055651396338,
                -1.8698405971031424
            ]
        },
        {
            "positions": [
                -0.09750477605610741,
                -1.4184276921429129,
                1.8827581214392177,
                -1.2102820046373202,
                -0.0646679409273977,
                -2.060903244969753
            ]
        },
        {
            "positions": [
                -0.0608384643052724,
                -1.3713612731996598,
                1.896862200241607,
                -1.1361304129883631,
                -0.03263031671516159,
                -2.251965892836363
            ]
        },
        {
            "positions": [
                -0.02417215255443761,
                -1.3242948542564066,
                1.910966279043996,
                -1.0619788213394061,
                -0.0005926925029254848,
                -2.4430285407029735
            ]
        },
        {
            "positions": [
                0.012494159196397181,
                -1.2772284353131536,
                1.9250703578463852,
                -0.9878272296904496,
                0.03144493170931062,
                -2.6340911885695832
            ]
        },
        {
            "positions": [
                0.04916047094723197,
                -1.2301620163699005,
                1.9391744366487742,
                -0.9136756380414925,
                0.06348255592154661,
                -2.825153836436194
            ]
        },
        {
            "positions": [
                0.08582678269806676,
                -1.1830955974266473,
                1.9532785154511634,
                -0.8395240463925355,
                0.09552018013378283,
                -3.0162164843028036
            ]
        },
        {
            "positions": [
                0.1224930944489016,
                -1.1360291784833942,
                1.9673825942535526,
                -0.7653724547435787,
                0.12755780434601874,
                -3.207279132169414
            ]
        }
    ]
}