{
    "goal": {
        "global_pose": {
            "orientation": {
                "w": -0.00223480608172531,
                "x": 0.0024358444001904467,
                "y": 0.7094548369677653,
                "z": -0.704743149386269
            },
            "position": {
                "x": 0.6205249238014221,
                "y": -0.6371506643295288,
                "z": 0.19426114857196808
            }
        },
        "name": "move_to_magneteinheit_B"
    },
    "id": "STRIDE_move_to_magneteinheit_B_23",
    "joint_names": [
        "shoulder_pan_joint",
        "shoulder_lift_joint",
        "elbow_joint",
        "wrist_1_joint",
        "wrist_2_joint",
        "wrist_3_joint"
    ],
    "metrics": {
        "cart_traj_len": 3.160082989656871,
        "distance_elbow_joint": 2.0865214384609345,
        "distance_shoulder_lift_joint": 1.2615494612500084,
        "distance_shoulder_pan_joint": 4.442873346708071,
        "distance_wrist_1_joint": 2.67545847885333,
        "distance_wrist_2_joint": 3.2383704101819046,
        "distance_wrist_3_joint": 0.8262481201538675,
        "smoothness": 0.5511188149301793,
        "time": 0.090721193,
        "traj_len": 3.8119576670797524,
        "weighted_distance": 4.700781465347128
    },
    "planner": "STRIDE",
    "start": {
        "state": {
            "elbow_joint": 2.6216224122426386,
            "shoulder_lift_joint": -1.4174107377796124,
            "shoulder_pan_joint": 0.7066234856936794,
            "wrist_1_joint": 1.9546482284002225,
            "wrist_2_joint": -0.7096286983471962,
            "wrist_3_joint": 0.005740856962016249
        }
    },
    "waypoints": [
        {
            "positions": [
                0.7066234856936794,
                -1.4174107377796124,
                2.6216224122426386,
                1.9546482284002225,
                -0.7096286983471962,
                0.005740856962016249
            ]
        },
        {
            "positions": [
                0.6104503743028162,
                -1.4426511562411306,
                2.6141870813090895,
                1.8430637922573827,
                -0.5685145811410193,
                0.016729799282595603
            ]
        },
        {
            "positions": [
                0.5142772629119531,
                -1.4678915747026489,
                2.606751750375541,
                1.731479356114543,
                -0.42740046393484243,
                0.02771874160317496
            ]
        },
        {
            "positions": [
                0.41810415152108993,
                -1.493131993164167,
                2.599316419441992,
                1.6198949199717032,
                -0.28628634672866554,
                0.038707683923754316
            ]
        },
        {
            "positions": [
                0.3219310401302268,
                -1.5183724116256851,
                2.591881088508443,
                1.5083104838288635,
                -0.14517222952248868,
                0.04969662624433367
            ]
        },
        {
            "positions": [
                0.4338698857695328,
                -1.5394733688040945,
                2.5257521213416925,
                1.4376745813936342,
                -0.10491271113734946,
                0.07314657999463316
            ]
        },
        {
            "positions": [
                0.5458087314088388,
                -1.5605743259825038,
                2.459623154174942,
                1.367038678958405,
                -0.06465319275221022,
                0.09659653374493264
            ]
        },
        {
            "positions": [
                0.6577475770481447,
                -1.581675283160913,
                2.3934941870081916,
                1.2964027765231758,
                -0.024393674367071003,
                0.12004648749523211
            ]
        },
        {
            "positions": [
                0.7696864226874507,
                -1.6027762403393224,
                2.327365219841441,
                1.2257668740879466,
                0.01586584401806823,
                0.14349644124553163
            ]
        },
        {
            "positions": [
                0.8816252683267567,
                -1.6238771975177317,
                2.2612362526746903,
                1.1551309716527174,
                0.05612536240320745,
                0.16694639499583108
            ]
        },
        {
            "positions": [
                1.0218901090683286,
                -1.633013044719351,
                2.1533043780543517,
                1.0907386565291737,
                0.07530091166681604,
                0.20381411125523272
            ]
        },
        {
            "positions": [
                1.1621549498099002,
                -1.6421488919209704,
                2.045372503434013,
                1.0263463414056302,
                0.09447646093042465,
                0.24068182751463435
            ]
        },
        {
            "positions": [
                1.302419790551472,
                -1.6512847391225896,
                1.9374406288136743,
                0.9619540262820865,
                0.11365201019403325,
                0.277549543774036
            ]
        },
        {
            "positions": [
                1.442684631293044,
                -1.660420586324209,
                1.8295087541933355,
                0.8975617111585429,
                0.13282755945764185,
                0.3144172600334376
            ]
        },
        {
            "positions": [
                1.5829494720346156,
                -1.6695564335258282,
                1.7215768795729969,
                0.8331693960349993,
                0.15200310872125045,
                0.3512849762928393
            ]
        },
        {
            "positions": [
                1.6578473519150083,
                -1.664663031828276,
                1.5988228394725998,
                0.7707360853269248,
                0.1504564430440914,
                0.38346705897308514
            ]
        },
        {
            "positions": [
                1.732745231795401,
                -1.6597696301307239,
                1.4760687993722028,
                0.7083027746188504,
                0.14890977736693234,
                0.415649141653331
            ]
        },
        {
            "positions": [
                1.5748679132238494,
                -1.6171451454137922,
                1.4132418999361505,
                0.7131553566825413,
                0.05463917781524312,
                0.40001917661579633
            ]
        },
        {
            "positions": [
                1.4169905946522978,
                -1.5745206606968607,
                1.3504150005000979,
                0.7180079387462323,
                -0.0396314217364461,
                0.38438921157826167
            ]
        },
        {
            "positions": [
                1.259113276080746,
                -1.531896175979929,
                1.2875881010640455,
                0.7228605208099232,
                -0.13390202128813533,
                0.368759246540727
            ]
        },
        {
            "positions": [
                1.1012359575091943,
                -1.4892716912629973,
                1.2247612016279932,
                0.7277131028736141,
                -0.22817262083982454,
                0.35312928150319234
            ]
        },
        {
            "positions": [
                0.9433586389376425,
                -1.4466472065460658,
                1.1619343021919406,
                0.732565684937305,
                -0.3224432203915138,
                0.3374993164656576
            ]
        },
        {
            "positions": [
                0.7854813203660909,
                -1.4040227218291341,
                1.0991074027558883,
                0.737418267000996,
                -0.416713819943203,
                0.32186935142812295
            ]
        },
        {
            "positions": [
                0.6854752734219655,
                -1.3602656598404812,
                1.1322842515190756,
                0.8197710630415732,
                -0.523068036087262,
                0.30289523112004385
            ]
        },
        {
            "positions": [
                0.58546922647784,
                -1.3165085978518285,
                1.1654611002822628,
                0.9021238590821504,
                -0.6294222522313211,
                0.28392111081196475
            ]
        },
        {
            "positions": [
                0.4854631795337146,
                -1.2727515358631756,
                1.1986379490454502,
                0.9844766551227276,
                -0.7357764683753801,
                0.26494699050388565
            ]
        },
        {
            "positions": [
                0.38545713258958925,
                -1.2289944738745227,
                1.2318147978086376,
                1.0668294511633047,
                -0.8421306845194392,
                0.24597287019580655
            ]
        },
        {
            "positions": [
                0.28545108564546384,
                -1.18523741188587,
                1.2649916465718247,
                1.149182247203882,
                -0.9484849006634982,
                0.22699874988772745
            ]
        },
        {
            "positions": [
                0.18544503870133833,
                -1.141480349897217,
                1.298168495335012,
                1.2315350432444594,
                -1.0548391168075573,
                0.20802462957964835
            ]
        },
        {
            "positions": [
                0.08543899175721303,
                -1.0977232879085643,
                1.3313453440981995,
                1.3138878392850364,
                -1.1611933329516162,
                0.18905050927156927
            ]
        },
        {
            "positions": [
                -0.01456705518691237,
                -1.0539662259199114,
                1.3645221928613869,
                1.3962406353256136,
                -1.2675475490956751,
                0.17007638896349017
            ]
        },
        {
            "positions": [
                -0.11457310213103788,
                -1.0102091639312585,
                1.397699041624574,
                1.4785934313661908,
                -1.3739017652397343,
                0.15110226865541107
            ]
        },
        {
            "positions": [
                -0.21457914907516318,
                -0.9664521019426057,
                1.4308758903877614,
                1.560946227406768,
                -1.4802559813837934,
                0.13212814834733197
            ]
        },
        {
            "positions": [
                -0.3145851960192887,
                -0.9226950399539529,
                1.4640527391509488,
                1.6432990234473452,
                -1.5866101975278524,
                0.11315402803925287
            ]
        },
        {
            "positions": [
                -0.4145912429634142,
                -0.8789379779652999,
                1.497229587914136,
                1.7256518194879227,
                -1.6929644136719115,
                0.09417990773117377
            ]
        },
        {
            "positions": [
                -0.5145972899075393,
                -0.8351809159766472,
                1.5304064366773233,
                1.8080046155284997,
                -1.7993186298159705,
                0.0752057874230947
            ]
        },
        {
            "positions": [
                -0.6146033368516648,
                -0.7914238539879943,
                1.5635832854405107,
                1.8903574115690769,
                -1.9056728459600294,
                0.05623166711501559
            ]
        },
        {
            "positions": [
                -0.7146093837957903,
                -0.7476667919993415,
                1.5967601342036981,
                1.972710207609654,
                -2.0120270621040888,
                0.03725754680693649
            ]
        },
        {
            "positions": [
                -0.8146154307399156,
                -0.7039097300106886,
                1.6299369829668855,
                2.0550630036502313,
                -2.1183812782481475,
                0.01828342649885739
            ]
        },
        {
            "positions": [
                -0.9146214776840411,
                -0.6601526680220358,
                1.6631138317300727,
                2.1374157996908085,
                -2.2247354943922066,
                -0.0006906938092216869
            ]
        }
    ]
}