{
    "goal": {
        "global_pose": {
            "orientation": {
                "w": 0.7031023480610252,
                "x": -0.7110244013736278,
                "y": 0.0077485991402295624,
                "z": 0.005598929693374583
            },
            "position": {
                "x": -0.8841497679147869,
                "y": 0.44412534475326537,
                "z": 0.3711530566215515
            }
        },
        "name": "move_to_auspresseinheit_D"
    },
    "id": "STRIDE_move_to_auspresseinheit_D_44",
    "joint_names": [
        "shoulder_pan_joint",
        "shoulder_lift_joint",
        "elbow_joint",
        "wrist_1_joint",
        "wrist_2_joint",
        "wrist_3_joint"
    ],
    "metrics": {
        "cart_traj_len": 0.34294104462218106,
        "distance_elbow_joint": 0.6421526189850535,
        "distance_shoulder_lift_joint": 0.12414594281070324,
        "distance_shoulder_pan_joint": 0.1340919619774371,
        "distance_wrist_1_joint": 0.5451872286262187,
        "distance_wrist_2_joint": 1.4353360697416324,
        "distance_wrist_3_joint": 0.01664113028317571,
        "smoothness": 1.9737298371844314e-16,
        "time": 0.056873669,
        "traj_len": 1.702220594524758,
        "weighted_distance": 2.21615895444312
    },
    "planner": "STRIDE",
    "start": {
        "state": {
            "elbow_joint": -1.8275523626775212,
            "shoulder_lift_joint": -2.126789852344167,
            "shoulder_pan_joint": -0.03513704404078235,
            "wrist_1_joint": -2.347782403156801,
            "wrist_2_joint": -1.6058999987535132,
            "wrist_3_joint": -3.0880379163319196
        }
    },
    "waypoints": [
        {
            "positions": [
                -0.03513704404078235,
                -2.126789852344167,
                -1.8275523626775212,
                -2.347782403156801,
                -1.6058999987535132,
                -3.0880379163319196
            ]
        },
        {
            "positions": [
                -0.05189853928796199,
                -2.1423080951955047,
                -1.7472832853043896,
                -2.415930806735078,
                -1.4264829900358091,
                -3.0859577750465226
            ]
        },
        {
            "positions": [
                -0.06866003453514163,
                -2.1578263380468425,
                -1.6670142079312578,
                -2.4840792103133555,
                -1.247065981318105,
                -3.0838776337611256
            ]
        },
        {
            "positions": [
                -0.08542152978232126,
                -2.1733445808981804,
                -1.5867451305581262,
                -2.552227613891633,
                -1.067648972600401,
                -3.0817974924757285
            ]
        },
        {
            "positions": [
                -0.10218302502950091,
                -2.1888628237495187,
                -1.5064760531849943,
                -2.6203760174699102,
                -0.888231963882697,
                -3.0797173511903315
            ]
        },
        {
            "positions": [
                -0.11894452027668054,
                -2.2043810666008565,
                -1.4262069758118627,
                -2.6885244210481876,
                -0.7088149551649929,
                -3.077637209904935
            ]
        },
        {
            "positions": [
                -0.1357060155238602,
                -2.2198993094521944,
                -1.3459378984387311,
                -2.756672824626465,
                -0.5293979464472889,
                -3.075557068619538
            ]
        },
        {
            "positions": [
                -0.15246751077103982,
                -2.2354175523035322,
                -1.2656688210655993,
                -2.8248212282047422,
                -0.34998093772958483,
                -3.073476927334141
            ]
        },
        {
            "positions": [
                -0.16922900601821947,
                -2.25093579515487,
                -1.1853997436924677,
                -2.8929696317830196,
                -0.17056392901188078,
                -3.071396786048744
            ]
        }
    ]
}