{
    "goal": {
        "global_pose": {
            "orientation": {
                "w": -0.00223480608172531,
                "x": 0.0024358444001904467,
                "y": 0.7094548369677653,
                "z": -0.704743149386269
            },
            "position": {
                "x": 0.6205249238014221,
                "y": -0.6371506643295288,
                "z": 0.19426114857196808
            }
        },
        "name": "move_to_magneteinheit_B"
    },
    "id": "STRIDE_move_to_magneteinheit_B_46",
    "joint_names": [
        "shoulder_pan_joint",
        "shoulder_lift_joint",
        "elbow_joint",
        "wrist_1_joint",
        "wrist_2_joint",
        "wrist_3_joint"
    ],
    "metrics": {
        "cart_traj_len": 1.63154641973374,
        "distance_elbow_joint": 1.3636137162095638,
        "distance_shoulder_lift_joint": 1.9392265430967406,
        "distance_shoulder_pan_joint": 1.6220948249184632,
        "distance_wrist_1_joint": 0.9393520753482321,
        "distance_wrist_2_joint": 1.517035188890801,
        "distance_wrist_3_joint": 1.0823430122982054,
        "smoothness": 0.6773180460531933,
        "time": 0.221888454,
        "traj_len": 2.909237934711083,
        "weighted_distance": 3.617283324485027
    },
    "planner": "STRIDE",
    "start": {
        "state": {
            "elbow_joint": 2.6216224122426386,
            "shoulder_lift_joint": -1.4174107377796124,
            "shoulder_pan_joint": 0.7066234856936794,
            "wrist_1_joint": 1.9546482284002225,
            "wrist_2_joint": -0.7096286983471962,
            "wrist_3_joint": 0.005740856962016249
        }
    },
    "waypoints": [
        {
            "positions": [
                0.7066234856936794,
                -1.4174107377796124,
                2.6216224122426386,
                1.9546482284002225,
                -0.7096286983471962,
                0.005740856962016249
            ]
        },
        {
            "positions": [
                0.6886035653509344,
                -1.5158484381156792,
                2.6553705921522948,
                2.0481747677528186,
                -0.7213017662668575,
                0.09470115771949728
            ]
        },
        {
            "positions": [
                0.6705836450081893,
                -1.6142861384517457,
                2.6891187720619514,
                2.1417013071054147,
                -0.7329748341865189,
                0.18366145847697832
            ]
        },
        {
            "positions": [
                0.6525637246654443,
                -1.7127238387878125,
                2.722866951971608,
                2.235227846458011,
                -0.7446479021061801,
                0.27262175923445936
            ]
        },
        {
            "positions": [
                0.6345438043226994,
                -1.8111615391238791,
                2.756615131881264,
                2.328754385810607,
                -0.7563209700258414,
                0.3615820599919404
            ]
        },
        {
            "positions": [
                0.6165238839799544,
                -1.9095992394599461,
                2.7903633117909203,
                2.422280925163203,
                -0.7679940379455028,
                0.45054236074942144
            ]
        },
        {
            "positions": [
                0.5985039636372094,
                -2.0080369397960127,
                2.824111491700577,
                2.5158074645157993,
                -0.7796671058651641,
                0.5395026615069024
            ]
        },
        {
            "positions": [
                0.5094465928806216,
                -1.9287075079677574,
                2.7558100424798933,
                2.4935608269138783,
                -0.8647845635929778,
                0.5072331786978836
            ]
        },
        {
            "positions": [
                0.4203892221240337,
                -1.849378076139502,
                2.687508593259209,
                2.4713141893119577,
                -0.9499020213207915,
                0.4749636958888649
            ]
        },
        {
            "positions": [
                0.3313318513674458,
                -1.7700486443112469,
                2.6192071440385254,
                2.4490675517100366,
                -1.0350194790486051,
                0.4426942130798461
            ]
        },
        {
            "positions": [
                0.242274480610858,
                -1.6907192124829915,
                2.5509056948178417,
                2.4268209141081156,
                -1.120136936776419,
                0.4104247302708273
            ]
        },
        {
            "positions": [
                0.15321710985427012,
                -1.6113897806547361,
                2.4826042455971575,
                2.4045742765061946,
                -1.2052543945042327,
                0.3781552474618085
            ]
        },
        {
            "positions": [
                0.06415973909768224,
                -1.5320603488264808,
                2.414302796376474,
                2.382327638904274,
                -1.2903718522320462,
                0.34588576465278975
            ]
        },
        {
            "positions": [
                -0.02489763165890546,
                -1.4527309169982257,
                2.34600134715579,
                2.360081001302353,
                -1.37548930995986,
                0.313616281843771
            ]
        },
        {
            "positions": [
                -0.11395500241549339,
                -1.3734014851699703,
                2.277699897935106,
                2.337834363700432,
                -1.4606067676876737,
                0.28134679903475224
            ]
        },
        {
            "positions": [
                -0.2030123731720812,
                -1.294072053341715,
                2.2093984487144223,
                2.3155877260985114,
                -1.5457242254154875,
                0.24907731622573348
            ]
        },
        {
            "positions": [
                -0.29206974392866913,
                -1.2147426215134596,
                2.1410969994937386,
                2.2933410884965904,
                -1.6308416831433012,
                0.21680783341671467
            ]
        },
        {
            "positions": [
                -0.38112711468525695,
                -1.1354131896852042,
                2.0727955502730544,
                2.2710944508946693,
                -1.715959140871115,
                0.1845383506076959
            ]
        },
        {
            "positions": [
                -0.4701844854418449,
                -1.0560837578569489,
                2.0044941010523707,
                2.2488478132927483,
                -1.8010765985989285,
                0.15226886779867715
            ]
        },
        {
            "positions": [
                -0.5592418561984325,
                -0.9767543260286937,
                1.936192651831687,
                2.2266011756908277,
                -1.8861940563267423,
                0.1199993849896584
            ]
        },
        {
            "positions": [
                -0.6482992269550203,
                -0.8974248942004386,
                1.867891202611003,
                2.2043545380889067,
                -1.9713115140545558,
                0.08772990218063964
            ]
        },
        {
            "positions": [
                -0.7373565977116083,
                -0.8180954623721832,
                1.7995897533903191,
                2.1821079004869857,
                -2.0564289717823696,
                0.055460419371620884
            ]
        },
        {
            "positions": [
                -0.8264139684681961,
                -0.7387660305439279,
                1.7312883041696354,
                2.159861262885065,
                -2.1415464295101834,
                0.02319093656260207
            ]
        },
        {
            "positions": [
                -0.915471339224784,
                -0.6594365987156725,
                1.6629868549489515,
                2.137614625283144,
                -2.226663887237997,
                -0.009078546246416717
            ]
        }
    ]
}