{
    "goal": {
        "global_pose": {
            "orientation": {
                "w": 0.7047431468963623,
                "x": -0.7094548344612122,
                "y": 0.0024358443915843964,
                "z": -0.0022348060738295317
            },
            "position": {
                "x": 0.6094750761985779,
                "y": 0.3671506643295288,
                "z": 0.19426114857196808
            }
        },
        "name": "move_to_magneteinheit_A"
    },
    "id": "STRIDE_move_to_magneteinheit_A_122",
    "joint_names": [
        "shoulder_pan_joint",
        "shoulder_lift_joint",
        "elbow_joint",
        "wrist_1_joint",
        "wrist_2_joint",
        "wrist_3_joint"
    ],
    "metrics": {
        "cart_traj_len": 3.2160565699452026,
        "distance_elbow_joint": 3.9272436472259677,
        "distance_shoulder_lift_joint": 0.4607559108524183,
        "distance_shoulder_pan_joint": 3.218381198545484,
        "distance_wrist_1_joint": 3.5054762581000896,
        "distance_wrist_2_joint": 1.4327666551368836,
        "distance_wrist_3_joint": 1.3216478113228833,
        "smoothness": 0.20653320516343138,
        "time": 0.12139170199999999,
        "traj_len": 3.723744282464053,
        "weighted_distance": 4.631178037720691
    },
    "planner": "STRIDE",
    "start": {
        "state": {
            "elbow_joint": -1.9196185241190666,
            "shoulder_lift_joint": -1.2443396400964142,
            "shoulder_pan_joint": 2.6996025414629847,
            "wrist_1_joint": -1.5485510000780065,
            "wrist_2_joint": -1.5709468930060704,
            "wrist_3_joint": 0.4420197071253992
        }
    },
    "waypoints": [
        {
            "positions": [
                2.6996025414629847,
                -1.2443396400964142,
                -1.9196185241190666,
                -1.5485510000780065,
                -1.5709468930060704,
                0.4420197071253992
            ]
        },
        {
            "positions": [
                2.6061227187856355,
                -1.241330752003237,
                -1.8131647990893094,
                -1.4375243246890692,
                -1.5295611589182347,
                0.4128721131421132
            ]
        },
        {
            "positions": [
                2.5126428961082863,
                -1.2383218639100602,
                -1.7067110740595521,
                -1.3264976493001321,
                -1.488175424830399,
                0.38372451915882727
            ]
        },
        {
            "positions": [
                2.419163073430937,
                -1.235312975816883,
                -1.6002573490297949,
                -1.2154709739111949,
                -1.4467896907425635,
                0.3545769251755413
            ]
        },
        {
            "positions": [
                2.3256832507535874,
                -1.232304087723706,
                -1.4938036240000376,
                -1.1044442985222576,
                -1.405403956654728,
                0.32542933119225537
            ]
        },
        {
            "positions": [
                2.232203428076238,
                -1.2292951996305288,
                -1.3873498989702804,
                -0.9934176231333204,
                -1.3640182225668924,
                0.2962817372089694
            ]
        },
        {
            "positions": [
                2.138723605398889,
                -1.226286311537352,
                -1.2808961739405231,
                -0.8823909477443832,
                -1.3226324884790568,
                0.2671341432256834
            ]
        },
        {
            "positions": [
                2.0452437827215397,
                -1.2232774234441748,
                -1.1744424489107659,
                -0.7713642723554459,
                -1.2812467543912212,
                0.23798654924239745
            ]
        },
        {
            "positions": [
                1.9517639600441905,
                -1.2202685353509977,
                -1.0679887238810086,
                -0.6603375969665087,
                -1.2398610203033855,
                0.2088389552591115
            ]
        },
        {
            "positions": [
                1.8582841373668413,
                -1.2172596472578208,
                -0.9615349988512512,
                -0.5493109215775714,
                -1.1984752862155499,
                0.17969136127582552
            ]
        },
        {
            "positions": [
                1.764804314689492,
                -1.2142507591646436,
                -0.8550812738214939,
                -0.43828424618863426,
                -1.1570895521277142,
                0.1505437672925396
            ]
        },
        {
            "positions": [
                1.6713244920121426,
                -1.2112418710714665,
                -0.7486275487917367,
                -0.327257570799697,
                -1.1157038180398786,
                0.12139617330925362
            ]
        },
        {
            "positions": [
                1.5778446693347934,
                -1.2082329829782896,
                -0.6421738237619794,
                -0.2162308954107599,
                -1.074318083952043,
                0.09224857932596764
            ]
        },
        {
            "positions": [
                1.484364846657444,
                -1.2052240948851125,
                -0.5357200987322221,
                -0.10520422002182261,
                -1.0329323498642076,
                0.06310098534268166
            ]
        },
        {
            "positions": [
                1.390885023980095,
                -1.2022152067919354,
                -0.4292663737024649,
                0.005822455367114676,
                -0.9915466157763719,
                0.033953391359395735
            ]
        },
        {
            "positions": [
                1.2974052013027455,
                -1.1992063186987583,
                -0.32281264867270765,
                0.11684913075605197,
                -0.9501608816885363,
                0.004805797376109755
            ]
        },
        {
            "positions": [
                1.2039253786253963,
                -1.1961974306055814,
                -0.2163589236429504,
                0.22787580614498903,
                -0.9087751476007007,
                -0.02434179660717617
            ]
        },
        {
            "positions": [
                1.110445555948047,
                -1.1931885425124042,
                -0.10990519861319337,
                0.3389024815339261,
                -0.8673894135128651,
                -0.053489390590462094
            ]
        },
        {
            "positions": [
                1.0169657332706976,
                -1.1901796544192271,
                -0.0034514735834356713,
                0.4499291569228636,
                -0.8260036794250294,
                -0.08263698457374813
            ]
        },
        {
            "positions": [
                0.9234859105933484,
                -1.1871707663260502,
                0.10300225144632158,
                0.5609558323118009,
                -0.7846179453371939,
                -0.11178457855703405
            ]
        },
        {
            "positions": [
                0.8300060879159992,
                -1.184161878232873,
                0.20945597647607883,
                0.671982507700738,
                -0.7432322112493582,
                -0.14093217254031998
            ]
        },
        {
            "positions": [
                0.73652626523865,
                -1.181152990139696,
                0.31590970150583564,
                0.783009183089675,
                -0.7018464771615227,
                -0.1700797665236059
            ]
        },
        {
            "positions": [
                0.6430464425613005,
                -1.1781441020465189,
                0.42236342653559333,
                0.8940358584786126,
                -0.660460743073687,
                -0.19922736050689194
            ]
        },
        {
            "positions": [
                0.5495666198839513,
                -1.175135213953342,
                0.5288171515653506,
                1.0050625338675496,
                -0.6190750089858514,
                -0.22837495449017786
            ]
        },
        {
            "positions": [
                0.45608679720660206,
                -1.1721263258601649,
                0.6352708765951078,
                1.1160892092564867,
                -0.5776892748980158,
                -0.2575225484734639
            ]
        },
        {
            "positions": [
                0.36260697452925283,
                -1.1691174377669877,
                0.7417246016248646,
                1.2271158846454238,
                -0.5363035408101804,
                -0.2866701424567498
            ]
        },
        {
            "positions": [
                0.26912715185190317,
                -1.1661085496738108,
                0.8481783266546223,
                1.3381425600343613,
                -0.49491780672234453,
                -0.31581773644003586
            ]
        },
        {
            "positions": [
                0.17564732917455395,
                -1.1630996615806337,
                0.9546320516843796,
                1.4491692354232988,
                -0.4535320726345089,
                -0.3449653304233218
            ]
        },
        {
            "positions": [
                0.08216750649720517,
                -1.1600907734874566,
                1.0610857767141368,
                1.5601959108122359,
                -0.4121463385466735,
                -0.3741129244066077
            ]
        },
        {
            "positions": [
                -0.011312316180144055,
                -1.1570818853942795,
                1.167539501743894,
                1.671222586201173,
                -0.37076060445883785,
                -0.40326051838989363
            ]
        },
        {
            "positions": [
                -0.10479213885749372,
                -1.1540729973011026,
                1.2739932267736513,
                1.7822492615901104,
                -0.3293748703710022,
                -0.43240811237317966
            ]
        },
        {
            "positions": [
                -0.19827196153484303,
                -1.1510641092079255,
                1.3804469518034086,
                1.8932759369790473,
                -0.2879891362831666,
                -0.46155570635646553
            ]
        },
        {
            "positions": [
                -0.14092025444095838,
                -1.0846203192075536,
                1.4941732823731666,
                1.904760408894441,
                -0.26058764831187464,
                -0.38589118379848
            ]
        },
        {
            "positions": [
                -0.08356854734707372,
                -1.0181765292071818,
                1.6078996129429246,
                1.916244880809835,
                -0.23318616034058273,
                -0.3102266612404944
            ]
        },
        {
            "positions": [
                -0.026216840253189072,
                -0.9517327392068101,
                1.7216259435126826,
                1.9277293527252286,
                -0.20578467236929082,
                -0.23456213868250891
            ]
        },
        {
            "positions": [
                0.03113486684069558,
                -0.8852889492064384,
                1.8353522740824408,
                1.9392138246406225,
                -0.17838318439799888,
                -0.1588976161245233
            ]
        },
        {
            "positions": [
                0.08848657393458023,
                -0.8188451592060666,
                1.9490786046521988,
                1.9506982965560162,
                -0.15098169642670695,
                -0.08323309356653782
            ]
        },
        {
            "positions": [
                0.12223473401281434,
                -0.7835837292439959,
                2.0076251231069007,
                1.956925258022083,
                -0.1381802378691867,
                -0.04348330851544681
            ]
        }
    ]
}