{
    "goal": {
        "global_pose": {
            "orientation": {
                "w": 0.7047431468963623,
                "x": -0.7094548344612122,
                "y": 0.0024358443915843964,
                "z": -0.0022348060738295317
            },
            "position": {
                "x": 0.6094750761985779,
                "y": 0.3671506643295288,
                "z": 0.19426114857196808
            }
        },
        "name": "move_to_magneteinheit_A"
    },
    "id": "STRIDE_move_to_magneteinheit_A_42",
    "joint_names": [
        "shoulder_pan_joint",
        "shoulder_lift_joint",
        "elbow_joint",
        "wrist_1_joint",
        "wrist_2_joint",
        "wrist_3_joint"
    ],
    "metrics": {
        "cart_traj_len": 3.5904492769087324,
        "distance_elbow_joint": 3.8896886508662254,
        "distance_shoulder_lift_joint": 0.10987679295070718,
        "distance_shoulder_pan_joint": 3.6614151171869502,
        "distance_wrist_1_joint": 1.187546096272813,
        "distance_wrist_2_joint": 1.6905925449372405,
        "distance_wrist_3_joint": 3.6299116456963096,
        "smoothness": 0.1385444739474249,
        "time": 0.166401754,
        "traj_len": 3.764177313558733,
        "weighted_distance": 4.9302122449761665
    },
    "planner": "STRIDE",
    "start": {
        "state": {
            "elbow_joint": -1.9196185241190666,
            "shoulder_lift_joint": -1.2443396400964142,
            "shoulder_pan_joint": 2.6996025414629847,
            "wrist_1_joint": -1.5485510000780065,
            "wrist_2_joint": -1.5709468930060704,
            "wrist_3_joint": 0.4420197071253992
        }
    },
    "waypoints": [
        {
            "positions": [
                2.6996025414629847,
                -1.2443396400964142,
                -1.9196185241190666,
                -1.5485510000780065,
                -1.5709468930060704,
                0.4420197071253992
            ]
        },
        {
            "positions": [
                2.5748322264525236,
                -1.2444239073939682,
                -1.8356402365382216,
                -1.5096353282278867,
                -1.5177280597548048,
                0.3568423085915236
            ]
        },
        {
            "positions": [
                2.450061911442063,
                -1.2445081746915223,
                -1.7516619489573766,
                -1.4707196563777667,
                -1.464509226503539,
                0.27166491005764803
            ]
        },
        {
            "positions": [
                2.325291596431602,
                -1.2445924419890764,
                -1.6676836613765316,
                -1.431803984527647,
                -1.4112903932522736,
                0.18648751152377252
            ]
        },
        {
            "positions": [
                2.200521281421141,
                -1.2446767092866302,
                -1.5837053737956865,
                -1.3928883126775269,
                -1.3580715600010078,
                0.10131011298989695
            ]
        },
        {
            "positions": [
                2.0757509664106797,
                -1.2447609765841843,
                -1.4997270862148415,
                -1.353972640827407,
                -1.3048527267497423,
                0.01613271445602138
            ]
        },
        {
            "positions": [
                1.950980651400219,
                -1.2448452438817383,
                -1.4157487986339965,
                -1.315056968977287,
                -1.2516338934984768,
                -0.06904468407785413
            ]
        },
        {
            "positions": [
                1.826210336389758,
                -1.2449295111792924,
                -1.3317705110531513,
                -1.2761412971271673,
                -1.198415060247211,
                -0.15422208261172976
            ]
        },
        {
            "positions": [
                1.7014400213792968,
                -1.2450137784768465,
                -1.2477922234723064,
                -1.2372256252770475,
                -1.1451962269959455,
                -0.23939948114560528
            ]
        },
        {
            "positions": [
                1.576669706368836,
                -1.2450980457744005,
                -1.1638139358914614,
                -1.1983099534269275,
                -1.09197739374468,
                -0.3245768796794808
            ]
        },
        {
            "positions": [
                1.4518993913583749,
                -1.2451823130719544,
                -1.0798356483106162,
                -1.1593942815768075,
                -1.0387585604934142,
                -0.4097542782133564
            ]
        },
        {
            "positions": [
                1.327129076347914,
                -1.2452665803695084,
                -0.9958573607297712,
                -1.1204786097266877,
                -0.9855397272421486,
                -0.49493167674723193
            ]
        },
        {
            "positions": [
                1.2023587613374531,
                -1.2453508476670625,
                -0.9118790731489261,
                -1.0815629378765679,
                -0.932320893990883,
                -0.5801090752811074
            ]
        },
        {
            "positions": [
                1.077588446326992,
                -1.2454351149646166,
                -0.8279007855680811,
                -1.0426472660264479,
                -0.8791020607396173,
                -0.665286473814983
            ]
        },
        {
            "positions": [
                0.9528181313165309,
                -1.2455193822621706,
                -0.7439224979872359,
                -1.0037315941763278,
                -0.8258832274883516,
                -0.7504638723488587
            ]
        },
        {
            "positions": [
                0.8280478163060703,
                -1.2456036495597247,
                -0.6599442104063911,
                -0.9648159223262082,
                -0.7726643942370861,
                -0.835641270882734
            ]
        },
        {
            "positions": [
                0.7032775012956092,
                -1.2456879168572785,
                -0.575965922825546,
                -0.9259002504760883,
                -0.7194455609858205,
                -0.9208186694166097
            ]
        },
        {
            "positions": [
                0.5785071862851479,
                -1.2457721841548326,
                -0.4919876352447008,
                -0.8869845786259684,
                -0.6662267277345548,
                -1.0059960679504854
            ]
        },
        {
            "positions": [
                0.4537368712746872,
                -1.2458564514523867,
                -0.408009347663856,
                -0.8480689067758485,
                -0.6130078944832893,
                -1.0911734664843609
            ]
        },
        {
            "positions": [
                0.3289665562642261,
                -1.2459407187499407,
                -0.32403106008301075,
                -0.8091532349257285,
                -0.5597890612320235,
                -1.1763508650182364
            ]
        },
        {
            "positions": [
                0.204196241253765,
                -1.2460249860474948,
                -0.24005277250216572,
                -0.7702375630756086,
                -0.506570227980758,
                -1.261528263552112
            ]
        },
        {
            "positions": [
                0.07942592624330436,
                -1.2461092533450489,
                -0.15607448492132092,
                -0.7313218912254889,
                -0.4533513947294925,
                -1.3467056620859874
            ]
        },
        {
            "positions": [
                -0.04534438876715674,
                -1.2461935206426027,
                -0.07209619734047568,
                -0.692406219375369,
                -0.40013256147822673,
                -1.431883060619863
            ]
        },
        {
            "positions": [
                -0.17011470377761784,
                -1.2462777879401568,
                0.011882090240369347,
                -0.6534905475252489,
                -0.3469137282269612,
                -1.5170604591537384
            ]
        },
        {
            "positions": [
                -0.2948850187880785,
                -1.2463620552377108,
                0.09586037782121437,
                -0.6145748756751291,
                -0.2936948949756957,
                -1.602237857687614
            ]
        },
        {
            "positions": [
                -0.4196553337985396,
                -1.2464463225352649,
                0.17983866540205962,
                -0.5756592038250092,
                -0.2404760617244298,
                -1.6874152562214895
            ]
        },
        {
            "positions": [
                -0.37564652802690124,
                -1.2377626904183394,
                0.3261817108963674,
                -0.5934994951729482,
                -0.21097127987451095,
                -1.8099072543658918
            ]
        },
        {
            "positions": [
                -0.3316377222552629,
                -1.2290790583014142,
                0.4725247563906752,
                -0.6113397865208872,
                -0.1814664980245921,
                -1.9323992525102942
            ]
        },
        {
            "positions": [
                -0.2876289164836245,
                -1.2203954261844887,
                0.618867801884983,
                -0.6291800778688261,
                -0.15196171617467324,
                -2.0548912506546966
            ]
        },
        {
            "positions": [
                -0.24362011071198614,
                -1.2117117940675635,
                0.7652108473792908,
                -0.6470203692167652,
                -0.1224569343247544,
                -2.177383248799099
            ]
        },
        {
            "positions": [
                -0.19961130494034773,
                -1.203028161950638,
                0.9115538928735987,
                -0.6648606605647042,
                -0.09295215247483551,
                -2.2998752469435013
            ]
        },
        {
            "positions": [
                -0.15560249916870939,
                -1.1943445298337125,
                1.0578969383679064,
                -0.6827009519126431,
                -0.06344737062491668,
                -2.422367245087904
            ]
        },
        {
            "positions": [
                -0.11159369339707098,
                -1.1856608977167873,
                1.2042399838622142,
                -0.7005412432605821,
                -0.03394258877499781,
                -2.5448592432323065
            ]
        },
        {
            "positions": [
                -0.06758488762543269,
                -1.1769772655998618,
                1.350583029356522,
                -0.718381534608521,
                -0.004437806925078974,
                -2.667351241376709
            ]
        },
        {
            "positions": [
                -0.023576081853794284,
                -1.1682936334829366,
                1.49692607485083,
                -0.7362218259564601,
                0.02506697492483989,
                -2.7898432395211112
            ]
        },
        {
            "positions": [
                0.02043272391784412,
                -1.1596100013660111,
                1.6432691203451377,
                -0.7540621173043991,
                0.054571756774758784,
                -2.9123352376655136
            ]
        },
        {
            "positions": [
                0.06444152968948241,
                -1.1509263692490859,
                1.7896121658394455,
                -0.7719024086523381,
                0.08407653862467757,
                -3.034827235809916
            ]
        },
        {
            "positions": [
                0.10845033546112076,
                -1.1422427371321604,
                1.9359552113337533,
                -0.789742700000277,
                0.11358132047459646,
                -3.1573192339543183
            ]
        },
        {
            "positions": [
                0.12250190812688536,
                -1.1386762120234084,
                1.9700701267471594,
                -0.7903135038448248,
                0.11964565193117119,
                -3.1878919385709104
            ]
        }
    ]
}