{
    "goal": {
        "global_pose": {
            "orientation": {
                "w": -0.4816463035849501,
                "x": 0.5182115481033762,
                "y": 0.4908360881923453,
                "z": -0.5084816262002911
            },
            "position": {
                "x": -0.8240239810943604,
                "y": 0.19912469901144506,
                "z": 0.16403168439865112
            }
        },
        "name": "move_to_storage_D"
    },
    "id": "STRIDE_move_to_storage_D_123",
    "joint_names": [
        "shoulder_pan_joint",
        "shoulder_lift_joint",
        "elbow_joint",
        "wrist_1_joint",
        "wrist_2_joint",
        "wrist_3_joint"
    ],
    "metrics": {
        "cart_traj_len": 3.8026676151691725,
        "distance_elbow_joint": 4.21143222484195,
        "distance_shoulder_lift_joint": 1.2634278688403286,
        "distance_shoulder_pan_joint": 2.814014118594916,
        "distance_wrist_1_joint": 2.2672240254077445,
        "distance_wrist_2_joint": 1.2317268899666918,
        "distance_wrist_3_joint": 3.1509685403804175,
        "smoothness": 0.016638476018163713,
        "time": 0.10280619899999999,
        "traj_len": 3.8650735656688413,
        "weighted_distance": 4.973900045655052
    },
    "planner": "STRIDE",
    "start": {
        "state": {
            "elbow_joint": -2.384821988534728,
            "shoulder_lift_joint": -2.2788054721415256,
            "shoulder_pan_joint": -0.1854694642142757,
            "wrist_1_joint": 1.4845938289331202,
            "wrist_2_joint": 0.17898776772866878,
            "wrist_3_joint": 0.037105688729662994
        }
    },
    "waypoints": [
        {
            "positions": [
                -0.1854694642142757,
                -2.2788054721415256,
                -2.384821988534728,
                1.4845938289331202,
                0.17898776772866878,
                0.037105688729662994
            ]
        },
        {
            "positions": [
                -0.09216322960066033,
                -2.2402426083481055,
                -2.2579930977608615,
                1.3846354716370144,
                0.17106619265945883,
                0.058688405472980265
            ]
        },
        {
            "positions": [
                0.0011430050129550562,
                -2.2016797445546854,
                -2.131164206986995,
                1.2846771143409086,
                0.16314461759024884,
                0.08027112221629754
            ]
        },
        {
            "positions": [
                0.0944492396265704,
                -2.1631168807612653,
                -2.0043353162131288,
                1.1847187570448028,
                0.15522304252103888,
                0.1018538389596148
            ]
        },
        {
            "positions": [
                0.18775547424018582,
                -2.124554016967845,
                -1.8775064254392622,
                1.084760399748697,
                0.14730146745182893,
                0.12343655570293209
            ]
        },
        {
            "positions": [
                0.2810617088538011,
                -2.085991153174425,
                -1.7506775346653958,
                0.9848020424525913,
                0.13937989238261897,
                0.14501927244624935
            ]
        },
        {
            "positions": [
                0.37436794346741653,
                -2.047428289381005,
                -1.6238486438915294,
                0.8848436851564855,
                0.131458317313409,
                0.16660198918956662
            ]
        },
        {
            "positions": [
                0.46767417808103195,
                -2.008865425587585,
                -1.497019753117663,
                0.7848853278603797,
                0.12353674224419904,
                0.18818470593288392
            ]
        },
        {
            "positions": [
                0.5609804126946474,
                -1.9703025617941647,
                -1.3701908623437964,
                0.6849269705642739,
                0.11561516717498907,
                0.2097674226762012
            ]
        },
        {
            "positions": [
                0.6542866473082627,
                -1.9317396980007446,
                -1.24336197156993,
                0.5849686132681681,
                0.10769359210577911,
                0.23135013941951846
            ]
        },
        {
            "positions": [
                0.747592881921878,
                -1.8931768342073245,
                -1.1165330807960636,
                0.4850102559720624,
                0.09977201703656915,
                0.25293285616283573
            ]
        },
        {
            "positions": [
                0.8408991165354934,
                -1.8546139704139044,
                -0.9897041900221972,
                0.38505189867595657,
                0.09185044196735918,
                0.274515572906153
            ]
        },
        {
            "positions": [
                0.9342053511491087,
                -1.8160511066204843,
                -0.8628752992483308,
                0.28509354137985077,
                0.08392886689814923,
                0.29609828964947027
            ]
        },
        {
            "positions": [
                1.0275115857627242,
                -1.7774882428270642,
                -0.7360464084744642,
                0.18513518408374496,
                0.07600729182893926,
                0.3176810063927875
            ]
        },
        {
            "positions": [
                1.1208178203763395,
                -1.738925379033644,
                -0.6092175177005981,
                0.08517682678763916,
                0.0680857167597293,
                0.33926372313610487
            ]
        },
        {
            "positions": [
                1.2141240549899548,
                -1.700362515240224,
                -0.4823886269267317,
                -0.014781530508466423,
                0.06016414169051934,
                0.3608464398794221
            ]
        },
        {
            "positions": [
                1.3074302896035703,
                -1.6617996514468036,
                -0.35555973615286485,
                -0.11473988780457245,
                0.052242566621309355,
                0.38242915662273935
            ]
        },
        {
            "positions": [
                1.4007365242171854,
                -1.6232367876533838,
                -0.2287308453789989,
                -0.21469824510067803,
                0.0443209915520994,
                0.4040118733660566
            ]
        },
        {
            "positions": [
                1.494042758830801,
                -1.5846739238599634,
                -0.10190195460513207,
                -0.31465660239678406,
                0.03639941648288944,
                0.42559459010937395
            ]
        },
        {
            "positions": [
                1.5873489934444163,
                -1.5461110600665433,
                0.024926936168734315,
                -0.41461495969288964,
                0.028477841413679483,
                0.4471773068526912
            ]
        },
        {
            "positions": [
                1.6806552280580316,
                -1.5075481962731232,
                0.1517558269426007,
                -0.5145733169889954,
                0.020556266344469526,
                0.46876002359600843
            ]
        },
        {
            "positions": [
                1.7739614626716471,
                -1.468985332479703,
                0.2785847177164671,
                -0.6145316742851015,
                0.01263469127525954,
                0.4903427403393258
            ]
        },
        {
            "positions": [
                1.8672676972852624,
                -1.430422468686283,
                0.4054136084903337,
                -0.714490031581207,
                0.0047131162060495835,
                0.511925457082643
            ]
        },
        {
            "positions": [
                1.9120486947614612,
                -1.4060080648401014,
                0.4890134101266212,
                -0.7184982765749375,
                0.0669161890557009,
                0.669345973084257
            ]
        },
        {
            "positions": [
                1.9568296922376598,
                -1.38159366099392,
                0.5726132117629087,
                -0.7225065215686679,
                0.12911926190535222,
                0.826766489085871
            ]
        },
        {
            "positions": [
                2.001610689713859,
                -1.3571792571477383,
                0.6562130133991961,
                -0.7265147665623983,
                0.19132233475500357,
                0.984187005087485
            ]
        },
        {
            "positions": [
                2.046391687190057,
                -1.3327648533015568,
                0.7398128150354837,
                -0.7305230115561288,
                0.2535254076046549,
                1.141607521089099
            ]
        },
        {
            "positions": [
                2.091172684666256,
                -1.3083504494553753,
                0.8234126166717711,
                -0.7345312565498592,
                0.31572848045430624,
                1.299028037090713
            ]
        },
        {
            "positions": [
                2.1359536821424547,
                -1.2839360456091937,
                0.9070124183080587,
                -0.7385395015435896,
                0.37793155330395756,
                1.456448553092327
            ]
        },
        {
            "positions": [
                2.1807346796186535,
                -1.2595216417630124,
                0.9906122199443461,
                -0.74254774653732,
                0.4401346261536088,
                1.6138690690939408
            ]
        },
        {
            "positions": [
                2.2255156770948523,
                -1.2351072379168309,
                1.0742120215806334,
                -0.7465559915310505,
                0.5023376990032602,
                1.7712895850955548
            ]
        },
        {
            "positions": [
                2.2702966745710507,
                -1.2106928340706493,
                1.157811823216921,
                -0.750564236524781,
                0.5645407718529116,
                1.9287101010971688
            ]
        },
        {
            "positions": [
                2.3150776720472495,
                -1.1862784302244678,
                1.2414116248532086,
                -0.7545724815185114,
                0.6267438447025628,
                2.0861306170987826
            ]
        },
        {
            "positions": [
                2.3598586695234482,
                -1.1618640263782862,
                1.325011426489496,
                -0.7585807265122418,
                0.6889469175522143,
                2.2435511331003966
            ]
        },
        {
            "positions": [
                2.404639666999647,
                -1.1374496225321047,
                1.4086112281257837,
                -0.7625889715059723,
                0.7511499904018655,
                2.4009716491020106
            ]
        },
        {
            "positions": [
                2.449420664475846,
                -1.1130352186859231,
                1.492211029762071,
                -0.7665972164997027,
                0.8133530632515167,
                2.5583921651036245
            ]
        },
        {
            "positions": [
                2.4942016619520446,
                -1.0886208148397416,
                1.5758108313983585,
                -0.7706054614934331,
                0.8755561361011681,
                2.7158126811052385
            ]
        },
        {
            "positions": [
                2.538982659428243,
                -1.06420641099356,
                1.6594106330346459,
                -0.7746137064871635,
                0.9377592089508195,
                2.8732331971068525
            ]
        },
        {
            "positions": [
                2.5837636569044418,
                -1.0397920071473785,
                1.7430104346709334,
                -0.778621951480894,
                0.9999622818004708,
                3.0306537131084665
            ]
        },
        {
            "positions": [
                2.6285446543806406,
                -1.015377603301197,
                1.826610236307221,
                -0.7826301964746244,
                1.0621653546501222,
                3.1880742291100805
            ]
        }
    ]
}