{
    "goal": {
        "global_pose": {
            "orientation": {
                "w": 0.5084816217422485,
                "x": -0.49083608388900757,
                "y": 0.5182115435600281,
                "z": -0.4816462993621826
            },
            "position": {
                "x": 0.5540239810943604,
                "y": 0.030875300988554955,
                "z": 0.16403168439865112
            }
        },
        "name": "move_to_storage_A"
    },
    "id": "STRIDE_move_to_storage_A_57",
    "joint_names": [
        "shoulder_pan_joint",
        "shoulder_lift_joint",
        "elbow_joint",
        "wrist_1_joint",
        "wrist_2_joint",
        "wrist_3_joint"
    ],
    "metrics": {
        "cart_traj_len": 0.353733870339612,
        "distance_elbow_joint": 0.4490677641048315,
        "distance_shoulder_lift_joint": 0.23566336738507743,
        "distance_shoulder_pan_joint": 0.4648198033495576,
        "distance_wrist_1_joint": 0.23716443495241302,
        "distance_wrist_2_joint": 1.0907889193012712,
        "distance_wrist_3_joint": 0.09482862829878691,
        "smoothness": 6.661338165333112e-16,
        "time": 0.061385666,
        "traj_len": 1.6038494060827337,
        "weighted_distance": 2.0223608798241712
    },
    "planner": "STRIDE",
    "start": {
        "state": {
            "elbow_joint": 1.971548259319323,
            "shoulder_lift_joint": -1.1394851275133948,
            "shoulder_pan_joint": 0.1228115487234821,
            "wrist_1_joint": -0.7804723859257726,
            "wrist_2_joint": 0.12958671773740124,
            "wrist_3_joint": -3.192489227718131
        }
    },
    "waypoints": [
        {
            "positions": [
                0.1228115487234821,
                -1.1394851275133948,
                1.971548259319323,
                -0.7804723859257726,
                0.12958671773740124,
                -3.192489227718131
            ]
        },
        {
            "positions": [
                0.05640871967354531,
                -1.1731513228541202,
                2.0357007970485848,
                -0.8143530194904031,
                0.2854137062090114,
                -3.1789422808183043
            ]
        },
        {
            "positions": [
                -0.009994109376391475,
                -1.2068175181948455,
                2.0998533347778463,
                -0.8482336530550335,
                0.44124069468062155,
                -3.165395333918478
            ]
        },
        {
            "positions": [
                -0.07639693842632828,
                -1.2404837135355709,
                2.164005872507108,
                -0.8821142866196638,
                0.5970676831522317,
                -3.151848387018651
            ]
        },
        {
            "positions": [
                -0.14279976747626505,
                -1.2741499088762962,
                2.2281584102363694,
                -0.9159949201842943,
                0.7528946716238419,
                -3.1383014401188243
            ]
        },
        {
            "positions": [
                -0.20920259652620188,
                -1.3078161042170215,
                2.2923109479656314,
                -0.9498755537489247,
                0.9087216600954522,
                -3.1247544932189975
            ]
        },
        {
            "positions": [
                -0.27560542557613865,
                -1.341482299557747,
                2.356463485694893,
                -0.9837561873135552,
                1.064548648567062,
                -3.111207546319171
            ]
        },
        {
            "positions": [
                -0.3420082546260755,
                -1.3751484948984722,
                2.4206160234241545,
                -1.0176368208781856,
                1.2203756370386725,
                -3.0976605994193442
            ]
        }
    ]
}{
    "goal": {
        "global_pose": {
            "orientation": {
                "w": 0.5084816217422485,
                "x": -0.49083608388900757,
                "y": 0.5182115435600281,
                "z": -0.4816462993621826
            },
            "position": {
                "x": 0.5540239810943604,
                "y": 0.030875300988554955,
                "z": 0.16403168439865112
            }
        },
        "name": "move_to_storage_A"
    },
    "id": "STRIDE_move_to_storage_A_57",
    "joint_names": [
        "shoulder_pan_joint",
        "shoulder_lift_joint",
        "elbow_joint",
        "wrist_1_joint",
        "wrist_2_joint",
        "wrist_3_joint"
    ],
    "metrics": {
        "cart_traj_len": 0.3524088863548811,
        "distance_elbow_joint": 0.4516417526537162,
        "distance_shoulder_lift_joint": 0.23238581162070449,
        "distance_shoulder_pan_joint": 0.45789439095401757,
        "distance_wrist_1_joint": 0.2559622319771584,
        "distance_wrist_2_joint": 1.1090950048708337,
        "distance_wrist_3_joint": 0.1070131146465787,
        "smoothness": 2.2204460668324854e-16,
        "time": 0.10546311200000001,
        "traj_len": 1.6167845579182805,
        "weighted_distance": 2.047700117904025
    },
    "planner": "STRIDE",
    "start": {
        "state": {
            "elbow_joint": 1.97154746011099,
            "shoulder_lift_joint": -1.13948474672311,
            "shoulder_pan_joint": 0.12281154466712228,
            "wrist_1_joint": -0.7804688027058302,
            "wrist_2_joint": 0.12958655903071145,
            "wrist_3_joint": 3.0906928834467795
        }
    },
    "waypoints": [
        {
            "positions": [
                0.12281154466712228,
                -1.13948474672311,
                1.97154746011099,
                -0.7804688027058302,
                0.12958655903071145,
                3.0906928834467795
            ]
        },
        {
            "positions": [
                0.05739806024511977,
                -1.172682719811782,
                2.036067710490092,
                -0.8170348358454242,
                0.2880287025836877,
                3.105980471253434
            ]
        },
        {
            "positions": [
                -0.008015424176882738,
                -1.2058806929004542,
                2.1005879608691944,
                -0.8536008689850183,
                0.4464708461366639,
                3.1212680590600876
            ]
        },
        {
            "positions": [
                -0.07342890859888525,
                -1.2390786659891262,
                2.1651082112482967,
                -0.8901669021246124,
                0.6049129896896401,
                3.136555646866742
            ]
        },
        {
            "positions": [
                -0.13884239302088774,
                -1.2722766390777982,
                2.2296284616273994,
                -0.9267329352642064,
                0.7633551332426164,
                3.1518432346733958
            ]
        },
        {
            "positions": [
                -0.20425587744289025,
                -1.3054746121664702,
                2.2941487120065016,
                -0.9632989684038005,
                0.9217972767955926,
                3.16713082248005
            ]
        },
        {
            "positions": [
                -0.26966936186489276,
                -1.3386725852551424,
                2.358668962385604,
                -0.9998650015433945,
                1.0802394203485688,
                3.182418410286704
            ]
        },
        {
            "positions": [
                -0.3350828462868953,
                -1.3718705583438144,
                2.423189212764706,
                -1.0364310346829886,
                1.2386815639015452,
                3.197705998093358
            ]
        }
    ]
}{
    "goal": {
        "global_pose": {
            "orientation": {
                "w": 0.5084816217422485,
                "x": -0.49083608388900757,
                "y": 0.5182115435600281,
                "z": -0.4816462993621826
            },
            "position": {
                "x": 0.5540239810943604,
                "y": 0.030875300988554955,
                "z": 0.16403168439865112
            }
        },
        "name": "move_to_storage_A"
    },
    "id": "STRIDE_move_to_storage_A_57",
    "joint_names": [
        "shoulder_pan_joint",
        "shoulder_lift_joint",
        "elbow_joint",
        "wrist_1_joint",
        "wrist_2_joint",
        "wrist_3_joint"
    ],
    "metrics": {
        "cart_traj_len": 0.35333977994437565,
        "distance_elbow_joint": 0.45512751533287066,
        "distance_shoulder_lift_joint": 0.23510541458992584,
        "distance_shoulder_pan_joint": 0.4640318526069601,
        "distance_wrist_1_joint": 0.2605996884140973,
        "distance_wrist_2_joint": 1.091877925464887,
        "distance_wrist_3_joint": 0.10311627298668435,
        "smoothness": 4.440892098500626e-16,
        "time": 0.080823052,
        "traj_len": 1.6155057008241802,
        "weighted_distance": 2.0417073319278103
    },
    "planner": "STRIDE",
    "start": {
        "state": {
            "elbow_joint": 1.9715472970024885,
            "shoulder_lift_joint": -1.1394870060712896,
            "shoulder_pan_joint": 0.12281152778156021,
            "wrist_1_joint": -0.780463741449964,
            "wrist_2_joint": 0.12958659822042276,
            "wrist_3_joint": 3.090690232415272
        }
    },
    "waypoints": [
        {
            "positions": [
                0.12281152778156021,
                -1.1394870060712896,
                1.9715472970024885,
                -0.780463741449964,
                0.12958659822042276,
                3.090690232415272
            ]
        },
        {
            "positions": [
                0.05652126312342305,
                -1.1730734938698504,
                2.036565513478613,
                -0.8176922683662636,
                0.2855691590011209,
                3.1054211285562268
            ]
        },
        {
            "positions": [
                -0.009769001534714106,
                -1.2066599816684114,
                2.1015837299547373,
                -0.8549207952825633,
                0.44155171978181906,
                3.1201520246971817
            ]
        },
        {
            "positions": [
                -0.07605926619285125,
                -1.2402464694669721,
                2.1666019464308617,
                -0.8921493221988628,
                0.5975342805625171,
                3.1348829208381366
            ]
        },
        {
            "positions": [
                -0.14234953085098842,
                -1.273832957265533,
                2.231620162906986,
                -0.9293778491151624,
                0.7535168413432153,
                3.1496138169790915
            ]
        },
        {
            "positions": [
                -0.20863979550912562,
                -1.307419445064094,
                2.2966383793831104,
                -0.966606376031462,
                0.9094994021239134,
                3.1643447131200464
            ]
        },
        {
            "positions": [
                -0.27493006016726274,
                -1.3410059328626547,
                2.361656595859235,
                -1.0038349029477618,
                1.0654819629046115,
                3.1790756092610013
            ]
        },
        {
            "positions": [
                -0.3412203248253999,
                -1.3745924206612155,
                2.426674812335359,
                -1.0410634298640613,
                1.2214645236853097,
                3.193806505401956
            ]
        }
    ]
}