{
    "goal": {
        "global_pose": {
            "orientation": {
                "w": 0.7047431493862688,
                "x": -0.7094548369677653,
                "y": 0.0024358444001904,
                "z": -0.0022348060817251984
            },
            "position": {
                "x": -0.39052492380142206,
                "y": 0.3671506643295288,
                "z": 0.19426114857196808
            }
        },
        "name": "move_to_magneteinheit_D"
    },
    "id": "STRIDE_move_to_magneteinheit_D_122",
    "joint_names": [
        "shoulder_pan_joint",
        "shoulder_lift_joint",
        "elbow_joint",
        "wrist_1_joint",
        "wrist_2_joint",
        "wrist_3_joint"
    ],
    "metrics": {
        "cart_traj_len": 6.322904842188525,
        "distance_elbow_joint": 3.492743803546413,
        "distance_shoulder_lift_joint": 1.6318022179076686,
        "distance_shoulder_pan_joint": 7.752627352001284,
        "distance_wrist_1_joint": 2.157489664539428,
        "distance_wrist_2_joint": 2.0097164976269113,
        "distance_wrist_3_joint": 8.101650160052586,
        "smoothness": 0.4791244096217408,
        "time": 0.9034048189999999,
        "traj_len": 5.014581706949671,
        "weighted_distance": 6.746594413327795
    },
    "planner": "STRIDE",
    "start": {
        "state": {
            "elbow_joint": 0.749534889911806,
            "shoulder_lift_joint": -0.6476975780787326,
            "shoulder_pan_joint": -2.711696901376241,
            "wrist_1_joint": -0.07506478083263063,
            "wrist_2_joint": 0.43296659715538205,
            "wrist_3_joint": -3.14703540197715
        }
    },
    "waypoints": [
        {
            "positions": [
                -2.711696901376241,
                -0.6476975780787326,
                0.749534889911806,
                -0.07506478083263063,
                0.43296659715538205,
                -3.14703540197715
            ]
        },
        {
            "positions": [
                -2.7236040347916606,
                -0.6968595105324246,
                0.7604973689313597,
                0.006873301463618878,
                0.4579138928979783,
                -2.9787176305449528
            ]
        },
        {
            "positions": [
                -2.7355111682070796,
                -0.7460214429861164,
                0.7714598479509133,
                0.08881138375986838,
                0.48286118864057453,
                -2.8103998591127555
            ]
        },
        {
            "positions": [
                -2.747418301622499,
                -0.7951833754398083,
                0.782422326970467,
                0.1707494660561179,
                0.5078084843831708,
                -2.642082087680558
            ]
        },
        {
            "positions": [
                -2.7593254350379186,
                -0.8443453078935003,
                0.7933848059900207,
                0.2526875483523674,
                0.5327557801257671,
                -2.473764316248361
            ]
        },
        {
            "positions": [
                -2.771232568453338,
                -0.8935072403471922,
                0.8043472850095744,
                0.33462563064861695,
                0.5577030758683633,
                -2.3054465448161636
            ]
        },
        {
            "positions": [
                -2.783139701868757,
                -0.942669172800884,
                0.815309764029128,
                0.41656371294486644,
                0.5826503716109596,
                -2.1371287733839663
            ]
        },
        {
            "positions": [
                -2.7950468352841766,
                -0.991831105254576,
                0.8262722430486817,
                0.498501795241116,
                0.6075976673535558,
                -1.9688110019517693
            ]
        },
        {
            "positions": [
                -2.6569378622907744,
                -1.0109225918817926,
                0.7374667327911189,
                0.497381565514056,
                0.5650750725880676,
                -1.866761478362748
            ]
        },
        {
            "positions": [
                -2.5188288892973727,
                -1.0300140785090093,
                0.648661222533556,
                0.49626133578699594,
                0.5225524778225793,
                -1.7647119547737264
            ]
        },
        {
            "positions": [
                -2.3807199163039705,
                -1.049105565136226,
                0.5598557122759931,
                0.49514110605993594,
                0.48002988305709104,
                -1.6626624311847051
            ]
        },
        {
            "positions": [
                -2.2426109433105683,
                -1.0681970517634427,
                0.4710502020184303,
                0.4940208763328759,
                0.4375072882916028,
                -1.5606129075956838
            ]
        },
        {
            "positions": [
                -2.104501970317166,
                -1.0872885383906594,
                0.38224469176086734,
                0.4929006466058159,
                0.39498469352611454,
                -1.4585633840066623
            ]
        },
        {
            "positions": [
                -1.9663929973237644,
                -1.1063800250178761,
                0.2934391815033045,
                0.49178041687875584,
                0.3524620987606263,
                -1.356513860417641
            ]
        },
        {
            "positions": [
                -1.8282840243303622,
                -1.1254715116450926,
                0.2046336712457416,
                0.49066018715169585,
                0.30993950399513803,
                -1.2544643368286197
            ]
        },
        {
            "positions": [
                -1.6901750513369604,
                -1.1445629982723093,
                0.11582816098817883,
                0.48953995742463585,
                0.2674169092296498,
                -1.1524148132395982
            ]
        },
        {
            "positions": [
                -1.5520660783435583,
                -1.163654484899526,
                0.027022650730615938,
                0.4884197276975758,
                0.22489431446416153,
                -1.0503652896505768
            ]
        },
        {
            "positions": [
                -1.413957105350156,
                -1.1827459715267428,
                -0.061782859526947065,
                0.4872994979705158,
                0.18237171969867327,
                -0.9483157660615553
            ]
        },
        {
            "positions": [
                -1.2758481323567543,
                -1.2018374581539595,
                -0.15058836978450985,
                0.48617926824345575,
                0.13984912493318502,
                -0.8462662424725342
            ]
        },
        {
            "positions": [
                -1.1377391593633521,
                -1.2209289447811762,
                -0.23939388004207274,
                0.48505903851639576,
                0.09732653016769677,
                -0.7442167188835127
            ]
        },
        {
            "positions": [
                -0.9996301863699502,
                -1.240020431408393,
                -0.32819939029963563,
                0.48393880878933576,
                0.054803935402208515,
                -0.6421671952944914
            ]
        },
        {
            "positions": [
                -0.861521213376548,
                -1.2591119180356096,
                -0.4170049005571985,
                0.4828185790622757,
                0.012281340636720262,
                -0.5401176717054699
            ]
        },
        {
            "positions": [
                -0.723412240383146,
                -1.2782034046628261,
                -0.5058104108147614,
                0.4816983493352157,
                -0.03024125412876799,
                -0.43806814811644856
            ]
        },
        {
            "positions": [
                -0.5853032673897443,
                -1.2972948912900428,
                -0.5946159210723241,
                0.48057811960815566,
                -0.07276384889425624,
                -0.33601862452742726
            ]
        },
        {
            "positions": [
                -0.4471942943963416,
                -1.3163863779172595,
                -0.6834214313298872,
                0.47945788988109567,
                -0.1152864436597445,
                -0.23396910093840573
            ]
        },
        {
            "positions": [
                -0.30908532140293987,
                -1.3354778645444763,
                -0.7722269415874499,
                0.47833766015403567,
                -0.15780903842523275,
                -0.13191957734938442
            ]
        },
        {
            "positions": [
                -0.17097634840953813,
                -1.354569351171693,
                -0.8610324518450128,
                0.4772174304269756,
                -0.200331633190721,
                -0.029870053760363113
            ]
        },
        {
            "positions": [
                -0.03286737541613549,
                -1.3736608377989097,
                -0.9498379621025759,
                0.4760972006999156,
                -0.24285422795620926,
                0.07217946982865864
            ]
        },
        {
            "positions": [
                0.10524159757726625,
                -1.3927523244261262,
                -1.0386434723601385,
                0.47497697097285557,
                -0.2853768227216975,
                0.17422899341767972
            ]
        },
        {
            "positions": [
                0.243350570570668,
                -1.411843811053343,
                -1.1274489826177014,
                0.4738567412457956,
                -0.32789941748718576,
                0.2762785170067008
            ]
        },
        {
            "positions": [
                0.38145954356407064,
                -1.4309352976805596,
                -1.2162544928752645,
                0.4727365115187355,
                -0.370422012252674,
                0.3783280405957228
            ]
        },
        {
            "positions": [
                0.5195685165574724,
                -1.4500267843077763,
                -1.3050600031328272,
                0.47161628179167553,
                -0.4129446070181622,
                0.48037756418474375
            ]
        },
        {
            "positions": [
                0.6269056039057087,
                -1.4786504115626509,
                -1.374629157708809,
                0.4557301644606804,
                -0.37137991168127327,
                0.5991286836509757
            ]
        },
        {
            "positions": [
                0.734242691253945,
                -1.5072740388175252,
                -1.4441983122847908,
                0.4398440471296853,
                -0.3298152163443844,
                0.7178798031172077
            ]
        },
        {
            "positions": [
                0.8415797786021812,
                -1.5358976660723997,
                -1.5137674668607726,
                0.4239579297986901,
                -0.2882505210074955,
                0.8366309225834396
            ]
        },
        {
            "positions": [
                0.9489168659504176,
                -1.5645212933272743,
                -1.5833366214367544,
                0.40807181246769497,
                -0.24668582567060654,
                0.9553820420496716
            ]
        },
        {
            "positions": [
                1.056253953298654,
                -1.5931449205821488,
                -1.6529057760127361,
                0.3921856951366998,
                -0.20512113033371762,
                1.0741331615159035
            ]
        },
        {
            "positions": [
                1.1635910406468901,
                -1.6217685478370232,
                -1.7224749305887181,
                0.37629957780570467,
                -0.1635564349968287,
                1.1928842809821356
            ]
        },
        {
            "positions": [
                1.2709281279951266,
                -1.6503921750918977,
                -1.7920440851646997,
                0.36041346047470957,
                -0.12199173965993981,
                1.3116354004483675
            ]
        },
        {
            "positions": [
                1.3782652153433628,
                -1.6790158023467723,
                -1.8616132397406817,
                0.3445273431437144,
                -0.08042704432305087,
                1.4303865199145993
            ]
        },
        {
            "positions": [
                1.4856023026915992,
                -1.7076394296016466,
                -1.9311823943166635,
                0.32864122581271926,
                -0.038862348986161976,
                1.5491376393808314
            ]
        },
        {
            "positions": [
                1.5929393900398354,
                -1.7362630568565212,
                -2.0007515488926453,
                0.31275510848172416,
                0.0027023463507269696,
                1.6678887588470634
            ]
        },
        {
            "positions": [
                1.7002764773880719,
                -1.7648866841113957,
                -2.070320703468627,
                0.29686899115072896,
                0.044267041687615916,
                1.7866398783132955
            ]
        },
        {
            "positions": [
                1.807613564736308,
                -1.79351031136627,
                -2.139889858044609,
                0.28098287381973386,
                0.0858317370245048,
                1.9053909977795276
            ]
        },
        {
            "positions": [
                1.9149506520845443,
                -1.8221339386211446,
                -2.2094590126205906,
                0.26509675648873876,
                0.1273964323613937,
                2.024142117245759
            ]
        },
        {
            "positions": [
                2.0222877394327803,
                -1.8507575658760191,
                -2.2790281671965724,
                0.24921063915774358,
                0.1689611276982826,
                2.1428932367119913
            ]
        },
        {
            "positions": [
                2.1296248267810167,
                -1.8793811931308935,
                -2.348597321772554,
                0.23332452182674843,
                0.21052582303517148,
                2.2616443561782233
            ]
        },
        {
            "positions": [
                2.236961914129253,
                -1.908004820385768,
                -2.418166476348536,
                0.2174384044957533,
                0.2520905183720605,
                2.380395475644455
            ]
        },
        {
            "positions": [
                2.3442990014774896,
                -1.9366284476406426,
                -2.4877356309245178,
                0.20155228716475815,
                0.2936552137089494,
                2.499146595110687
            ]
        },
        {
            "positions": [
                2.203747246959063,
                -1.9556768558820736,
                -2.4820690433447212,
                0.27305081940860937,
                0.2876583619128434,
                2.362731697168201
            ]
        },
        {
            "positions": [
                2.063195492440636,
                -1.9747252641235047,
                -2.4764024557649247,
                0.3445493516524606,
                0.28166151011673735,
                2.2263167992257147
            ]
        },
        {
            "positions": [
                1.9226437379222097,
                -1.9937736723649357,
                -2.470735868185128,
                0.41604788389631187,
                0.2756646583206313,
                2.0899019012832287
            ]
        },
        {
            "positions": [
                1.782091983403783,
                -2.012822080606367,
                -2.4650692806053316,
                0.4875464161401631,
                0.26966780652452527,
                1.9534870033407428
            ]
        },
        {
            "positions": [
                1.6415402288853562,
                -2.031870488847798,
                -2.459402693025535,
                0.5590449483840143,
                0.26367095472841917,
                1.8170721053982566
            ]
        },
        {
            "positions": [
                1.5009884743669297,
                -2.050918897089229,
                -2.4537361054457385,
                0.6305434806278656,
                0.25767410293231313,
                1.6806572074557706
            ]
        },
        {
            "positions": [
                1.360436719848503,
                -2.06996730533066,
                -2.448069517865942,
                0.7020420128717169,
                0.2516772511362071,
                1.5442423095132845
            ]
        },
        {
            "positions": [
                1.2198849653300763,
                -2.089015713572091,
                -2.4424029302861454,
                0.773540545115568,
                0.24568039934010105,
                1.4078274115707985
            ]
        },
        {
            "positions": [
                1.0793332108116496,
                -2.1080641218135217,
                -2.4367363427063493,
                0.8450390773594193,
                0.239683547543995,
                1.2714125136283123
            ]
        },
        {
            "positions": [
                0.9387814562932228,
                -2.1271125300549527,
                -2.4310697551265528,
                0.9165376096032706,
                0.23368669574788897,
                1.1349976156858261
            ]
        },
        {
            "positions": [
                0.7982297017747961,
                -2.1461609382963838,
                -2.4254031675467562,
                0.9880361418471219,
                0.22768984395178293,
                0.99858271774334
            ]
        },
        {
            "positions": [
                0.6576779472563696,
                -2.165209346537815,
                -2.4197365799669597,
                1.059534674090973,
                0.2216929921556769,
                0.8621678198008542
            ]
        },
        {
            "positions": [
                0.5171261927379429,
                -2.184257754779246,
                -2.414069992387163,
                1.1310332063348243,
                0.21569614035957083,
                0.725752921858368
            ]
        },
        {
            "positions": [
                0.3765744382195162,
                -2.203306163020677,
                -2.4084034048073666,
                1.2025317385786756,
                0.2096992885634648,
                0.5893380239158819
            ]
        },
        {
            "positions": [
                0.23602268370108925,
                -2.222354571262108,
                -2.40273681722757,
                1.2740302708225268,
                0.20370243676735872,
                0.4529231259733959
            ]
        },
        {
            "positions": [
                0.09547092918266298,
                -2.241402979503539,
                -2.3970702296477735,
                1.345528803066378,
                0.19770558497125268,
                0.31650822803090994
            ]
        },
        {
            "positions": [
                -0.04508082533576374,
                -2.26045138774497,
                -2.391403642067977,
                1.4170273353102292,
                0.19170873317514664,
                0.18009333008842354
            ]
        },
        {
            "positions": [
                -0.18563257985419043,
                -2.279499795986401,
                -2.3857370544881804,
                1.4885258675540805,
                0.1857118813790406,
                0.04367843214593778
            ]
        }
    ]
}