{
    "goal": {
        "global_pose": {
            "orientation": {
                "w": 0.005598929693374612,
                "x": 0.007748599140229565,
                "y": 0.7110244013736278,
                "z": -0.7031023480610252
            },
            "position": {
                "x": 0.1141497679147869,
                "y": -0.7141253447532654,
                "z": 0.3711530566215515
            }
        },
        "name": "move_to_auspresseinheit_B"
    },
    "id": "STRIDE_move_to_auspresseinheit_B_6",
    "joint_names": [
        "shoulder_pan_joint",
        "shoulder_lift_joint",
        "elbow_joint",
        "wrist_1_joint",
        "wrist_2_joint",
        "wrist_3_joint"
    ],
    "metrics": {
        "cart_traj_len": 0.5650400062169759,
        "distance_elbow_joint": 0.06229203512492054,
        "distance_shoulder_lift_joint": 0.2939531309819956,
        "distance_shoulder_pan_joint": 0.5762847992730917,
        "distance_wrist_1_joint": 0.32191581990031204,
        "distance_wrist_2_joint": 0.999112102653936,
        "distance_wrist_3_joint": 0.004291936068901769,
        "smoothness": 5.075305295617109e-16,
        "time": 0.339213629,
        "traj_len": 1.5026143297610193,
        "weighted_distance": 1.894059560493072
    },
    "planner": "STRIDE",
    "start": {
        "state": {
            "elbow_joint": 2.0193083361928714,
            "shoulder_lift_joint": -1.1220246554650708,
            "shoulder_pan_joint": -1.0952077554168747,
            "wrist_1_joint": -0.8559753972642168,
            "wrist_2_joint": 0.4759566250798843,
            "wrist_3_joint": -3.1240929996934557
        }
    },
    "waypoints": [
        {
            "positions": [
                -1.0952077554168747,
                -1.1220246554650708,
                2.0193083361928714,
                -0.8559753972642168,
                0.4759566250798843,
                -3.1240929996934557
            ]
        },
        {
            "positions": [
                -1.19125522196239,
                -1.17101684396207,
                2.008926330338718,
                -0.8023227606141647,
                0.6424753088555403,
                -3.123377677015305
            ]
        },
        {
            "positions": [
                -1.2873026885079053,
                -1.2200090324590693,
                1.9985443244845646,
                -0.7486701239641128,
                0.8089939926311962,
                -3.122662354337155
            ]
        },
        {
            "positions": [
                -1.3833501550534204,
                -1.2690012209560686,
                1.9881623186304112,
                -0.6950174873140608,
                0.9755126764068522,
                -3.121947031659005
            ]
        },
        {
            "positions": [
                -1.4793976215989357,
                -1.3179934094530679,
                1.9777803127762577,
                -0.6413648506640088,
                1.1420313601825083,
                -3.1212317089808543
            ]
        },
        {
            "positions": [
                -1.575445088144451,
                -1.3669855979500671,
                1.9673983069221044,
                -0.5877122140139568,
                1.3085500439581643,
                -3.1205163863027043
            ]
        },
        {
            "positions": [
                -1.6714925546899664,
                -1.4159777864470664,
                1.9570163010679509,
                -0.5340595773639047,
                1.4750687277338204,
                -3.119801063624554
            ]
        }
    ]
}