{
    "goal": {
        "global_pose": {
            "orientation": {
                "w": -0.4816463035849501,
                "x": 0.5182115481033762,
                "y": 0.4908360881923453,
                "z": -0.5084816262002911
            },
            "position": {
                "x": -0.8240239810943604,
                "y": -0.300875300988555,
                "z": 0.16403168439865112
            }
        },
        "name": "move_to_storage_C"
    },
    "id": "STRIDE_move_to_storage_C_109",
    "joint_names": [
        "shoulder_pan_joint",
        "shoulder_lift_joint",
        "elbow_joint",
        "wrist_1_joint",
        "wrist_2_joint",
        "wrist_3_joint"
    ],
    "metrics": {
        "cart_traj_len": 0.5764305190070295,
        "distance_elbow_joint": 0.25701050316847973,
        "distance_shoulder_lift_joint": 0.18850228617119924,
        "distance_shoulder_pan_joint": 0.4942173109474872,
        "distance_wrist_1_joint": 0.07421176294463205,
        "distance_wrist_2_joint": 1.0703362362466446,
        "distance_wrist_3_joint": 0.06634751543354733,
        "smoothness": 7.612957943425664e-16,
        "time": 0.010739153999999999,
        "traj_len": 1.4665011472590093,
        "weighted_distance": 1.8514504165573435
    },
    "planner": "STRIDE",
    "start": {
        "state": {
            "elbow_joint": 2.010868314990456,
            "shoulder_lift_joint": -1.1634956873337592,
            "shoulder_pan_joint": -2.4736205022346125,
            "wrist_1_joint": -0.8367026794202681,
            "wrist_2_joint": 0.6746043897044499,
            "wrist_3_joint": -3.1496632123970403
        }
    },
    "waypoints": [
        {
            "positions": [
                -2.4736205022346125,
                -1.1634956873337592,
                2.010868314990456,
                -0.8367026794202681,
                0.6746043897044499,
                -3.1496632123970403
            ]
        },
        {
            "positions": [
                -2.5559900540591936,
                -1.1320786396385594,
                1.9680332311290425,
                -0.8243340522628294,
                0.852993762412224,
                -3.1386052931581156
            ]
        },
        {
            "positions": [
                -2.638359605883775,
                -1.1006615919433593,
                1.9251981472676292,
                -0.8119654251053907,
                1.0313831351199982,
                -3.127547373919191
            ]
        },
        {
            "positions": [
                -2.720729157708356,
                -1.0692445442481595,
                1.882363063406216,
                -0.7995967979479521,
                1.2097725078277723,
                -3.1164894546802664
            ]
        },
        {
            "positions": [
                -2.803098709532937,
                -1.0378274965529597,
                1.8395279795448027,
                -0.7872281707905134,
                1.3881618805355465,
                -3.105431535441342
            ]
        },
        {
            "positions": [
                -2.8854682613575187,
                -1.0064104488577599,
                1.7966928956833894,
                -0.7748595436330747,
                1.5665512532433206,
                -3.0943736162024176
            ]
        },
        {
            "positions": [
                -2.9678378131820997,
                -0.97499340116256,
                1.753857811821976,
                -0.762490916475636,
                1.7449406259510944,
                -3.083315696963493
            ]
        }
    ]
}