{
    "goal": {
        "global_pose": {
            "orientation": {
                "w": 0.5084816262002911,
                "x": -0.4908360881923452,
                "y": 0.5182115481033761,
                "z": -0.48164630358495003
            },
            "position": {
                "x": 0.5540239810943604,
                "y": -0.46912469901144505,
                "z": 0.16403168439865112
            }
        },
        "name": "move_to_storage_B"
    },
    "id": "STRIDE_move_to_storage_B_17",
    "joint_names": [
        "shoulder_pan_joint",
        "shoulder_lift_joint",
        "elbow_joint",
        "wrist_1_joint",
        "wrist_2_joint",
        "wrist_3_joint"
    ],
    "metrics": {
        "cart_traj_len": 3.022435865577574,
        "distance_elbow_joint": 3.005964088577125,
        "distance_shoulder_lift_joint": 0.9135041816944562,
        "distance_shoulder_pan_joint": 2.2471556879806167,
        "distance_wrist_1_joint": 3.049687387063356,
        "distance_wrist_2_joint": 2.88366452569535,
        "distance_wrist_3_joint": 3.4665763236031215,
        "smoothness": 0.7129097916219553,
        "time": 0.099024532,
        "traj_len": 3.9454470208854704,
        "weighted_distance": 5.332265630534453
    },
    "planner": "STRIDE",
    "start": {
        "state": {
            "elbow_joint": 1.664937868594044,
            "shoulder_lift_joint": -0.661644460510453,
            "shoulder_pan_joint": -0.9139846352900073,
            "wrist_1_joint": 2.146753192139373,
            "wrist_2_joint": -2.2341966793290973,
            "wrist_3_joint": 0.005466555786416001
        }
    },
    "waypoints": [
        {
            "positions": [
                -0.9139846352900073,
                -0.661644460510453,
                1.664937868594044,
                2.146753192139373,
                -2.2341966793290973,
                0.005466555786416001
            ]
        },
        {
            "positions": [
                -0.8139004711232642,
                -0.6847673469163214,
                1.7481049234822506,
                2.1633777016316786,
                -2.3223903204413228,
                -0.053934077873143416
            ]
        },
        {
            "positions": [
                -0.7555710877685462,
                -0.726248800134834,
                1.6652775482609157,
                2.0657923644039724,
                -2.212820619886417,
                -0.059888048044943513
            ]
        },
        {
            "positions": [
                -0.6972417044138282,
                -0.7677302533533465,
                1.5824501730395808,
                1.9682070271762666,
                -2.103250919331512,
                -0.06584201821674361
            ]
        },
        {
            "positions": [
                -0.6389123210591101,
                -0.8092117065718591,
                1.4996227978182457,
                1.8706216899485604,
                -1.9936812187766062,
                -0.0717959883885437
            ]
        },
        {
            "positions": [
                -0.580582937704392,
                -0.8506931597903717,
                1.4167954225969108,
                1.7730363527208544,
                -1.8841115182217005,
                -0.07774995856034381
            ]
        },
        {
            "positions": [
                -0.5222535543496739,
                -0.8921746130088843,
                1.333968047375576,
                1.6754510154931483,
                -1.774541817666795,
                -0.08370392873214391
            ]
        },
        {
            "positions": [
                -0.46392417099495586,
                -0.9336560662273969,
                1.251140672154241,
                1.5778656782654423,
                -1.6649721171118896,
                -0.089657898903944
            ]
        },
        {
            "positions": [
                -0.40559478764023776,
                -0.9751375194459095,
                1.1683132969329062,
                1.4802803410377363,
                -1.555402416556984,
                -0.0956118690757441
            ]
        },
        {
            "positions": [
                -0.3472654042855197,
                -1.0166189726644221,
                1.0854859217115713,
                1.38269500381003,
                -1.4458327160020783,
                -0.1015658392475442
            ]
        },
        {
            "positions": [
                -0.2889360209308016,
                -1.0581004258829347,
                1.0026585464902364,
                1.2851096665823243,
                -1.3362630154471729,
                -0.1075198094193443
            ]
        },
        {
            "positions": [
                -0.23060663757608357,
                -1.0995818791014473,
                0.9198311712689013,
                1.187524329354618,
                -1.2266933148922674,
                -0.1134737795911444
            ]
        },
        {
            "positions": [
                -0.17227725422136553,
                -1.14106333231996,
                0.8370037960475665,
                1.089938992126912,
                -1.1171236143373617,
                -0.11942774976294449
            ]
        },
        {
            "positions": [
                -0.11394787086664748,
                -1.1825447855384725,
                0.7541764208262316,
                0.992353654899206,
                -1.0075539137824563,
                -0.1253817199347446
            ]
        },
        {
            "positions": [
                -0.05561848751192944,
                -1.2240262387569851,
                0.6713490456048967,
                0.8947683176715,
                -0.8979842132275506,
                -0.1313356901065447
            ]
        },
        {
            "positions": [
                0.0027108958427887186,
                -1.2655076919754977,
                0.5885216703835616,
                0.7971829804437938,
                -0.7884145126726452,
                -0.13728966027834477
            ]
        },
        {
            "positions": [
                0.061040279197506764,
                -1.3069891451940103,
                0.5056942951622267,
                0.6995976432160878,
                -0.6788448121177395,
                -0.14324363045014488
            ]
        },
        {
            "positions": [
                0.11936966255222481,
                -1.348470598412523,
                0.4228669199408919,
                0.6020123059883817,
                -0.5692751115628341,
                -0.14919760062194498
            ]
        },
        {
            "positions": [
                0.06659568906794724,
                -1.338615031291115,
                0.49232600820817723,
                0.5380254589480447,
                -0.523955299575676,
                -0.005201419439564092
            ]
        },
        {
            "positions": [
                0.01382171558366968,
                -1.3287594641697067,
                0.5617850964754625,
                0.4740386119077076,
                -0.4786354875885178,
                0.1387947617428168
            ]
        },
        {
            "positions": [
                -0.038952257900607884,
                -1.3189038970482987,
                0.6312441847427478,
                0.41005176486737044,
                -0.43331567560135975,
                0.2827909429251977
            ]
        },
        {
            "positions": [
                -0.09172623138488545,
                -1.3090483299268905,
                0.7007032730100331,
                0.34606491782703336,
                -0.3879958636142016,
                0.4267871241075786
            ]
        },
        {
            "positions": [
                -0.14450020486916298,
                -1.2991927628054825,
                0.7701623612773184,
                0.2820780707866962,
                -0.3426760516270435,
                0.5707833052899595
            ]
        },
        {
            "positions": [
                -0.19727417835344058,
                -1.2893371956840742,
                0.8396214495446037,
                0.21809122374635914,
                -0.2973562396398854,
                0.7147794864723404
            ]
        },
        {
            "positions": [
                -0.25004815183771817,
                -1.2794816285626662,
                0.909080537811889,
                0.154104376706022,
                -0.25203642765272727,
                0.8587756676547215
            ]
        },
        {
            "positions": [
                -0.3028221253219957,
                -1.2696260614412582,
                0.9785396260791743,
                0.09011752966568498,
                -0.20671661566556915,
                1.002771848837102
            ]
        },
        {
            "positions": [
                -0.3555960988062733,
                -1.25977049431985,
                1.0479987143464595,
                0.02613068262534779,
                -0.16139680367841103,
                1.1467680300194831
            ]
        },
        {
            "positions": [
                -0.4083700722905508,
                -1.249914927198442,
                1.117457802613745,
                -0.03785616441498929,
                -0.11607699169125296,
                1.2907642112018638
            ]
        },
        {
            "positions": [
                -0.46114404577482837,
                -1.2400593600770338,
                1.1869168908810301,
                -0.10184301145532637,
                -0.07075717970409479,
                1.434760392384245
            ]
        },
        {
            "positions": [
                -0.513918019259106,
                -1.2302037929556258,
                1.2563759791483153,
                -0.16582985849566345,
                -0.02543736771693672,
                1.5787565735666256
            ]
        },
        {
            "positions": [
                -0.5666919927433834,
                -1.2203482258342175,
                1.3258350674156008,
                -0.22981670553600053,
                0.019882444270221344,
                1.7227527547490067
            ]
        },
        {
            "positions": [
                -0.6194659662276611,
                -1.2104926587128095,
                1.3952941556828862,
                -0.2938035525763377,
                0.06520225625737952,
                1.8667489359313878
            ]
        },
        {
            "positions": [
                -0.6722399397119386,
                -1.2006370915914015,
                1.4647532439501714,
                -0.3577903996166748,
                0.1105220682445377,
                2.0107451171137685
            ]
        },
        {
            "positions": [
                -0.7250139131962162,
                -1.1907815244699933,
                1.5342123322174566,
                -0.4217772466570118,
                0.15584188023169576,
                2.154741298296149
            ]
        },
        {
            "positions": [
                -0.7777878866804937,
                -1.1809259573485853,
                1.6036714204847418,
                -0.48576409369734885,
                0.20116169221885383,
                2.2987374794785302
            ]
        },
        {
            "positions": [
                -0.8305618601647714,
                -1.171070390227177,
                1.6731305087520272,
                -0.5497509407376862,
                0.246481504206012,
                2.4427336606609114
            ]
        },
        {
            "positions": [
                -0.883335833649049,
                -1.161214823105769,
                1.7425895970193124,
                -0.6137377877780232,
                0.29180131619317007,
                2.586729841843292
            ]
        },
        {
            "positions": [
                -0.9361098071333264,
                -1.1513592559843608,
                1.8120486852865978,
                -0.6777246348183603,
                0.33712112818032813,
                2.7307260230256727
            ]
        },
        {
            "positions": [
                -0.988883780617604,
                -1.1415036888629528,
                1.881507773553883,
                -0.7417114818586972,
                0.3824409401674863,
                2.874722204208054
            ]
        },
        {
            "positions": [
                -1.0416577541018817,
                -1.1316481217415446,
                1.9509668618211684,
                -0.8056983288990345,
                0.4277607521546445,
                3.018718385390435
            ]
        },
        {
            "positions": [
                -1.0944317275861593,
                -1.1217925546201366,
                2.0204259500884536,
                -0.8696851759393716,
                0.4730805641418026,
                3.1627145665728156
            ]
        }
    ]
}