{
    "goal": {
        "global_pose": {
            "orientation": {
                "w": -0.00223480608172531,
                "x": 0.0024358444001904467,
                "y": 0.7094548369677653,
                "z": -0.704743149386269
            },
            "position": {
                "x": 0.6205249238014221,
                "y": -0.6371506643295288,
                "z": 0.19426114857196808
            }
        },
        "name": "move_to_magneteinheit_B"
    },
    "id": "STRIDE_move_to_magneteinheit_B_40",
    "joint_names": [
        "shoulder_pan_joint",
        "shoulder_lift_joint",
        "elbow_joint",
        "wrist_1_joint",
        "wrist_2_joint",
        "wrist_3_joint"
    ],
    "metrics": {
        "cart_traj_len": 1.6265971697606476,
        "distance_elbow_joint": 0.9555778817540972,
        "distance_shoulder_lift_joint": 1.1182191939512158,
        "distance_shoulder_pan_joint": 1.9432241573562674,
        "distance_wrist_1_joint": 0.4986732154869067,
        "distance_wrist_2_joint": 2.2120831989501113,
        "distance_wrist_3_joint": 1.6850502360166253,
        "smoothness": 0.6581574060985724,
        "time": 0.455586506,
        "traj_len": 2.9004875251438724,
        "weighted_distance": 3.807057232297079
    },
    "planner": "STRIDE",
    "start": {
        "state": {
            "elbow_joint": 2.6216224122426386,
            "shoulder_lift_joint": -1.4174107377796124,
            "shoulder_pan_joint": 0.7066234856936794,
            "wrist_1_joint": 1.9546482284002225,
            "wrist_2_joint": -0.7096286983471962,
            "wrist_3_joint": 0.005740856962016249
        }
    },
    "waypoints": [
        {
            "positions": [
                0.7066234856936794,
                -1.4174107377796124,
                2.6216224122426386,
                1.9546482284002225,
                -0.7096286983471962,
                0.005740856962016249
            ]
        },
        {
            "positions": [
                0.5340500395841637,
                -1.435508562526926,
                2.564764828294724,
                1.9387560069461987,
                -0.6747337251142819,
                -0.07888772800881817
            ]
        },
        {
            "positions": [
                0.3614765934746481,
                -1.4536063872742395,
                2.5079072443468093,
                1.9228637854921748,
                -0.6398387518813676,
                -0.16351631297965258
            ]
        },
        {
            "positions": [
                0.18890314736513247,
                -1.471704212021553,
                2.451049660398895,
                1.9069715640381508,
                -0.6049437786484533,
                -0.248144897950487
            ]
        },
        {
            "positions": [
                0.016329701255616835,
                -1.4898020367688667,
                2.39419207645098,
                1.891079342584127,
                -0.570048805415539,
                -0.3327734829213214
            ]
        },
        {
            "positions": [
                -0.1562437448538988,
                -1.5078998615161803,
                2.3373344925030657,
                1.8751871211301032,
                -0.5351538321826247,
                -0.41740206789215584
            ]
        },
        {
            "positions": [
                -0.32881719096341444,
                -1.525997686263494,
                2.2804769085551513,
                1.8592948996760794,
                -0.5002588589497103,
                -0.5020306528629903
            ]
        },
        {
            "positions": [
                -0.5013906370729301,
                -1.5440955110108077,
                2.2236193246072364,
                1.8434026782220556,
                -0.4653638857167961,
                -0.5866592378338247
            ]
        },
        {
            "positions": [
                -0.6739640831824457,
                -1.5621933357581212,
                2.166761740659322,
                1.8275104567680316,
                -0.43046891248388175,
                -0.6712878228046592
            ]
        },
        {
            "positions": [
                -0.8465375292919614,
                -1.5802911605054348,
                2.109904156711407,
                1.8116182353140078,
                -0.39557393925096745,
                -0.7559164077754936
            ]
        },
        {
            "positions": [
                -1.019110975401477,
                -1.5983889852527484,
                2.053046572763493,
                1.795726013859984,
                -0.36067896601805316,
                -0.840544992746328
            ]
        },
        {
            "positions": [
                -1.0045211007050916,
                -1.5210245674570342,
                2.0194109541746754,
                1.8231243425917136,
                -0.5205312940016071,
                -0.7694564590908033
            ]
        },
        {
            "positions": [
                -0.9899312260087059,
                -1.4436601496613197,
                1.985775335585858,
                1.8505226713234433,
                -0.6803836219851611,
                -0.6983679254352785
            ]
        },
        {
            "positions": [
                -0.9753413513123202,
                -1.3662957318656055,
                1.952139716997041,
                1.877921000055173,
                -0.8402359499687149,
                -0.6272793917797538
            ]
        },
        {
            "positions": [
                -0.9607514766159346,
                -1.2889313140698913,
                1.9185040984082236,
                1.9053193287869028,
                -1.000088277952269,
                -0.556190858124229
            ]
        },
        {
            "positions": [
                -0.9461616019195491,
                -1.211566896274177,
                1.8848684798194062,
                1.9327176575186324,
                -1.1599406059358228,
                -0.4851023244687043
            ]
        },
        {
            "positions": [
                -0.9315717272231635,
                -1.1342024784784626,
                1.8512328612305888,
                1.960115986250362,
                -1.3197929339193766,
                -0.41401379081317957
            ]
        },
        {
            "positions": [
                -0.9169818525267779,
                -1.0568380606827483,
                1.8175972426417715,
                1.9875143149820917,
                -1.4796452619029308,
                -0.3429252571576548
            ]
        },
        {
            "positions": [
                -0.9023919778303923,
                -0.979473642887034,
                1.7839616240529543,
                2.0149126437138216,
                -1.6394975898864848,
                -0.27183672350213006
            ]
        },
        {
            "positions": [
                -0.8878021031340066,
                -0.9021092250913196,
                1.750326005464137,
                2.0423109724455513,
                -1.7993499178700387,
                -0.20074818984660525
            ]
        },
        {
            "positions": [
                -0.873212228437621,
                -0.8247448072956054,
                1.7166903868753196,
                2.069709301177281,
                -1.9592022458535925,
                -0.12965965619108066
            ]
        },
        {
            "positions": [
                -0.8586223537412354,
                -0.747380389499891,
                1.6830547682865022,
                2.0971076299090106,
                -2.1190545738371465,
                -0.05857112253555588
            ]
        },
        {
            "positions": [
                -0.9156234283421055,
                -0.6611480387746685,
                1.6660445304885414,
                2.135477014806652,
                -2.2238124326390216,
                -0.0017806064380468227
            ]
        }
    ]
}