{
    "goal": {
        "global_pose": {
            "orientation": {
                "w": -0.4816463035849501,
                "x": 0.5182115481033762,
                "y": 0.4908360881923453,
                "z": -0.5084816262002911
            },
            "position": {
                "x": -0.8240239810943604,
                "y": -0.300875300988555,
                "z": 0.16403168439865112
            }
        },
        "name": "move_to_storage_C"
    },
    "id": "STRIDE_move_to_storage_C_59",
    "joint_names": [
        "shoulder_pan_joint",
        "shoulder_lift_joint",
        "elbow_joint",
        "wrist_1_joint",
        "wrist_2_joint",
        "wrist_3_joint"
    ],
    "metrics": {
        "cart_traj_len": 0.5769053831180357,
        "distance_elbow_joint": 0.2590054263671935,
        "distance_shoulder_lift_joint": 0.1895329676463866,
        "distance_shoulder_pan_joint": 0.4950395190265944,
        "distance_wrist_1_joint": 0.0854231297294391,
        "distance_wrist_2_joint": 1.07025903879647,
        "distance_wrist_3_joint": 0.05699234327170277,
        "smoothness": 0.0,
        "time": 0.042489395,
        "traj_len": 1.4684183412222098,
        "weighted_distance": 1.850923899004792
    },
    "planner": "STRIDE",
    "start": {
        "state": {
            "elbow_joint": 2.010868314990456,
            "shoulder_lift_joint": -1.1634956873337592,
            "shoulder_pan_joint": -2.4736205022346125,
            "wrist_1_joint": -0.8367026794202681,
            "wrist_2_joint": 0.6746043897044499,
            "wrist_3_joint": -3.1496632123970403
        }
    },
    "waypoints": [
        {
            "positions": [
                -2.4736205022346125,
                -1.1634956873337592,
                2.010868314990456,
                -0.8367026794202681,
                0.6746043897044499,
                -3.1496632123970403
            ]
        },
        {
            "positions": [
                -2.556127088739045,
                -1.1319068593926946,
                1.9677007439292569,
                -0.8224654911320283,
                0.8529808961705283,
                -3.140164488518423
            ]
        },
        {
            "positions": [
                -2.638633675243477,
                -1.1003180314516303,
                1.924533172868058,
                -0.8082283028437884,
                1.0313574026366066,
                -3.130665764639806
            ]
        },
        {
            "positions": [
                -2.7211402617479097,
                -1.068729203510566,
                1.8813656018068592,
                -0.7939911145555485,
                1.209733909102685,
                -3.121167040761189
            ]
        },
        {
            "positions": [
                -2.8036468482523422,
                -1.0371403755695014,
                1.8381980307456602,
                -0.7797539262673087,
                1.3881104155687631,
                -3.1116683168825716
            ]
        },
        {
            "positions": [
                -2.8861534347567743,
                -1.005551547628437,
                1.7950304596844613,
                -0.7655167379790688,
                1.5664869220348416,
                -3.102169593003955
            ]
        },
        {
            "positions": [
                -2.968660021261207,
                -0.9739627196873726,
                1.7518628886232623,
                -0.751279549690829,
                1.7448634285009201,
                -3.0926708691253375
            ]
        }
    ]
}