{
    "goal": {
        "global_pose": {
            "orientation": {
                "w": -0.4816463035849501,
                "x": 0.5182115481033762,
                "y": 0.4908360881923453,
                "z": -0.5084816262002911
            },
            "position": {
                "x": -0.8240239810943604,
                "y": -0.300875300988555,
                "z": 0.16403168439865112
            }
        },
        "name": "move_to_storage_C"
    },
    "id": "STRIDE_move_to_storage_C_42",
    "joint_names": [
        "shoulder_pan_joint",
        "shoulder_lift_joint",
        "elbow_joint",
        "wrist_1_joint",
        "wrist_2_joint",
        "wrist_3_joint"
    ],
    "metrics": {
        "cart_traj_len": 0.5768731889040902,
        "distance_elbow_joint": 0.25922944868079,
        "distance_shoulder_lift_joint": 0.1893167735442115,
        "distance_shoulder_pan_joint": 0.4948880527359134,
        "distance_wrist_1_joint": 0.08445483906527118,
        "distance_wrist_2_joint": 1.0696100313655421,
        "distance_wrist_3_joint": 0.06665083269783612,
        "smoothness": 2.5376526478085547e-16,
        "time": 0.013013505,
        "traj_len": 1.4711050193951363,
        "weighted_distance": 1.8578257490722994
    },
    "planner": "STRIDE",
    "start": {
        "state": {
            "elbow_joint": 2.010868314990456,
            "shoulder_lift_joint": -1.1634956873337592,
            "shoulder_pan_joint": -2.4736205022346125,
            "wrist_1_joint": -0.8367026794202681,
            "wrist_2_joint": 0.6746043897044499,
            "wrist_3_joint": -3.1496632123970403
        }
    },
    "waypoints": [
        {
            "positions": [
                -2.4736205022346125,
                -1.1634956873337592,
                2.010868314990456,
                -0.8367026794202681,
                0.6746043897044499,
                -3.1496632123970403
            ]
        },
        {
            "positions": [
                -2.556101844357265,
                -1.1319428917430572,
                1.9676634068769907,
                -0.8226268729093895,
                0.8528727282653736,
                -3.138554740280734
            ]
        },
        {
            "positions": [
                -2.638583186479917,
                -1.1003900961523554,
                1.9244584987635258,
                -0.808551066398511,
                1.0311410668262972,
                -3.1274462681644284
            ]
        },
        {
            "positions": [
                -2.721064528602569,
                -1.0688373005616534,
                1.881253590650061,
                -0.7944752598876326,
                1.209409405387221,
                -3.1163377960481222
            ]
        },
        {
            "positions": [
                -2.8035458707252214,
                -1.0372845049709516,
                1.8380486825365958,
                -0.780399453376754,
                1.3876777439481445,
                -3.105229323931816
            ]
        },
        {
            "positions": [
                -2.886027212847874,
                -1.0057317093802496,
                1.7948437744231307,
                -0.7663236468658754,
                1.5659460825090683,
                -3.0941208518155103
            ]
        },
        {
            "positions": [
                -2.968508554970526,
                -0.9741789137895477,
                1.7516388663096658,
                -0.7522478403549969,
                1.7442144210699921,
                -3.083012379699204
            ]
        }
    ]
}