{
    "goal": {
        "global_pose": {
            "orientation": {
                "w": -0.4816463035849501,
                "x": 0.5182115481033762,
                "y": 0.4908360881923453,
                "z": -0.5084816262002911
            },
            "position": {
                "x": -0.8240239810943604,
                "y": 0.19912469901144506,
                "z": 0.16403168439865112
            }
        },
        "name": "move_to_storage_D"
    },
    "id": "STRIDE_move_to_storage_D_75",
    "joint_names": [
        "shoulder_pan_joint",
        "shoulder_lift_joint",
        "elbow_joint",
        "wrist_1_joint",
        "wrist_2_joint",
        "wrist_3_joint"
    ],
    "metrics": {
        "cart_traj_len": 0.7956615104900446,
        "distance_elbow_joint": 0.5535445756579516,
        "distance_shoulder_lift_joint": 0.6298512878298101,
        "distance_shoulder_pan_joint": 0.8663275589558276,
        "distance_wrist_1_joint": 3.822613007197467,
        "distance_wrist_2_joint": 1.785714667037927,
        "distance_wrist_3_joint": 3.57636349207346,
        "smoothness": 0.2316954718943961,
        "time": 0.076654125,
        "traj_len": 3.3517778250881194,
        "weighted_distance": 4.898517045712382
    },
    "planner": "STRIDE",
    "start": {
        "state": {
            "elbow_joint": -2.384821988534728,
            "shoulder_lift_joint": -2.2788054721415256,
            "shoulder_pan_joint": -0.1854694642142757,
            "wrist_1_joint": 1.4845938289331202,
            "wrist_2_joint": 0.17898776772866878,
            "wrist_3_joint": 0.037105688729662994
        }
    },
    "waypoints": [
        {
            "positions": [
                -0.1854694642142757,
                -2.2788054721415256,
                -2.384821988534728,
                1.4845938289331202,
                0.17898776772866878,
                0.037105688729662994
            ]
        },
        {
            "positions": [
                -0.058343455917204023,
                -2.181005372645094,
                -2.378041203689043,
                1.44694656965848,
                0.1609967020170144,
                -0.015520362253313165
            ]
        },
        {
            "positions": [
                0.06878255237986766,
                -2.083205273148663,
                -2.3712604188433586,
                1.40929931038384,
                0.14300563630536003,
                -0.06814641323628932
            ]
        },
        {
            "positions": [
                0.19590856067693938,
                -1.9854051736522318,
                -2.3644796339976737,
                1.3716520511092,
                0.1250145705937057,
                -0.12077246421926549
            ]
        },
        {
            "positions": [
                0.32303456897401106,
                -1.8876050741558004,
                -2.357698849151989,
                1.3340047918345599,
                0.1070235048820513,
                -0.17339851520224164
            ]
        },
        {
            "positions": [
                0.30872162794330943,
                -1.8971511097495637,
                -2.33664199170098,
                1.1871238330306035,
                0.038473488714398915,
                -0.03876414367657943
            ]
        },
        {
            "positions": [
                0.2944086869126078,
                -1.9066971453433272,
                -2.3155851342499716,
                1.0402428742266474,
                -0.030076527453253468,
                0.09587022784908278
            ]
        },
        {
            "positions": [
                0.2800957458819062,
                -1.9162431809370906,
                -2.2945282767989634,
                0.893361915422691,
                -0.09862654362090582,
                0.23050459937474493
            ]
        },
        {
            "positions": [
                0.2657828048512046,
                -1.9257892165308539,
                -2.273471419347955,
                0.7464809566187348,
                -0.16717655978855822,
                0.3651389709004072
            ]
        },
        {
            "positions": [
                0.25146986382050296,
                -1.9353352521246174,
                -2.252414561896946,
                0.5995999978147785,
                -0.2357265759562106,
                0.49977334242606936
            ]
        },
        {
            "positions": [
                0.23715692278980133,
                -1.9448812877183808,
                -2.2313577044459376,
                0.45271903901082233,
                -0.30427659212386293,
                0.6344077139517315
            ]
        },
        {
            "positions": [
                0.2228439817590997,
                -1.954427323312144,
                -2.2103008469949295,
                0.30583808020686587,
                -0.37282660829151537,
                0.7690420854773938
            ]
        },
        {
            "positions": [
                0.2085310407283981,
                -1.9639733589059076,
                -2.189243989543921,
                0.15895712140290974,
                -0.44137662445916775,
                0.903676457003056
            ]
        },
        {
            "positions": [
                0.1942180996976965,
                -1.973519394499671,
                -2.1681871320929123,
                0.012076162598953388,
                -0.5099266406268201,
                1.0383108285287181
            ]
        },
        {
            "positions": [
                0.17990515866699486,
                -1.9830654300934343,
                -2.1471302746419036,
                -0.13480479620500296,
                -0.5784766567944726,
                1.1729452000543803
            ]
        },
        {
            "positions": [
                0.16559221763629323,
                -1.9926114656871978,
                -2.1260734171908955,
                -0.2816857550089591,
                -0.6470266729621249,
                1.3075795715800425
            ]
        },
        {
            "positions": [
                0.15127927660559162,
                -2.002157501280961,
                -2.105016559739887,
                -0.4285667138129152,
                -0.7155766891297772,
                1.4422139431057046
            ]
        },
        {
            "positions": [
                0.13696633557489,
                -2.0117035368747245,
                -2.0839597022888783,
                -0.5754476726168718,
                -0.7841267052974297,
                1.576848314631367
            ]
        },
        {
            "positions": [
                0.12265339454418836,
                -2.021249572468488,
                -2.0629028448378697,
                -0.7223286314208281,
                -0.8526767214650821,
                1.7114826861570294
            ]
        },
        {
            "positions": [
                0.10834045351348676,
                -2.030795608062251,
                -2.0418459873868615,
                -0.8692095902247843,
                -0.9212267376327344,
                1.8461170576826913
            ]
        },
        {
            "positions": [
                0.09402751248278512,
                -2.040341643656015,
                -2.020789129935853,
                -1.0160905490287404,
                -0.9897767538003869,
                1.9807514292083537
            ]
        },
        {
            "positions": [
                0.0797145714520835,
                -2.049887679249778,
                -1.9997322724848443,
                -1.162971507832697,
                -1.0583267699680392,
                2.1153858007340163
            ]
        },
        {
            "positions": [
                0.06540163042138192,
                -2.0594337148435415,
                -1.978675415033836,
                -1.3098524666366531,
                -1.1268767861356914,
                2.250020172259678
            ]
        },
        {
            "positions": [
                0.051088689390680286,
                -2.068979750437305,
                -1.9576185575828273,
                -1.4567334254406092,
                -1.1954268023033439,
                2.38465454378534
            ]
        },
        {
            "positions": [
                0.036775748359978655,
                -2.078525786031068,
                -1.936561700131819,
                -1.6036143842445658,
                -1.2639768184709963,
                2.5192889153110025
            ]
        },
        {
            "positions": [
                0.022462807329277024,
                -2.0880718216248315,
                -1.9155048426808103,
                -1.7504953430485215,
                -1.3325268346386485,
                2.6539232868366645
            ]
        },
        {
            "positions": [
                0.008149866298575392,
                -2.0976178572185953,
                -1.8944479852298017,
                -1.897376301852478,
                -1.401076850806301,
                2.788557658362327
            ]
        },
        {
            "positions": [
                -0.006163074732126239,
                -2.1071638928123586,
                -1.8733911277787934,
                -2.0442572606564346,
                -1.4696268669739534,
                2.923192029887989
            ]
        },
        {
            "positions": [
                -0.020476015762827815,
                -2.116709928406122,
                -1.852334270327785,
                -2.1911382194603903,
                -1.5381768831416056,
                3.057826401413651
            ]
        },
        {
            "positions": [
                -0.03478895679352947,
                -2.1262559639998853,
                -1.8312774128767764,
                -2.338019178264347,
                -1.606726899309258,
                3.1924607729393135
            ]
        }
    ]
}