{
    "goal": {
        "global_pose": {
            "orientation": {
                "w": 0.005598929693374612,
                "x": 0.007748599140229565,
                "y": 0.7110244013736278,
                "z": -0.7031023480610252
            },
            "position": {
                "x": 0.1141497679147869,
                "y": -0.7141253447532654,
                "z": 0.3711530566215515
            }
        },
        "name": "move_to_auspresseinheit_B"
    },
    "id": "STRIDE_move_to_auspresseinheit_B_54",
    "joint_names": [
        "shoulder_pan_joint",
        "shoulder_lift_joint",
        "elbow_joint",
        "wrist_1_joint",
        "wrist_2_joint",
        "wrist_3_joint"
    ],
    "metrics": {
        "cart_traj_len": 0.5643974895476431,
        "distance_elbow_joint": 0.0631668840455144,
        "distance_shoulder_lift_joint": 0.2935499629952216,
        "distance_shoulder_pan_joint": 0.577276995844306,
        "distance_wrist_1_joint": 0.3253195413363389,
        "distance_wrist_2_joint": 0.988146224895148,
        "distance_wrist_3_joint": 0.0028830599921203515,
        "smoothness": 2.5376526478085547e-16,
        "time": 0.771895452,
        "traj_len": 1.5001142186875802,
        "weighted_distance": 1.889331774814677
    },
    "planner": "STRIDE",
    "start": {
        "state": {
            "elbow_joint": 2.0193083361928714,
            "shoulder_lift_joint": -1.1220246554650708,
            "shoulder_pan_joint": -1.0952077554168747,
            "wrist_1_joint": -0.8559753972642168,
            "wrist_2_joint": 0.4759566250798843,
            "wrist_3_joint": -3.1240929996934557
        }
    },
    "waypoints": [
        {
            "positions": [
                -1.0952077554168747,
                -1.1220246554650708,
                2.0193083361928714,
                -0.8559753972642168,
                0.4759566250798843,
                -3.1240929996934557
            ]
        },
        {
            "positions": [
                -1.1914205880575923,
                -1.1709496492976077,
                2.008780522185286,
                -0.8017554737081602,
                0.6406476625624089,
                -3.123612489694769
            ]
        },
        {
            "positions": [
                -1.28763342069831,
                -1.2198746431301446,
                1.9982527081777,
                -0.7475355501521038,
                0.8053387000449337,
                -3.1231319796960824
            ]
        },
        {
            "positions": [
                -1.3838462533390277,
                -1.2687996369626817,
                1.9877248941701142,
                -0.6933156265960474,
                0.9700297375274582,
                -3.1226514696973955
            ]
        },
        {
            "positions": [
                -1.4800590859797453,
                -1.3177246307952186,
                1.9771970801625285,
                -0.6390957030399909,
                1.134720775009983,
                -3.1221709596987086
            ]
        },
        {
            "positions": [
                -1.576271918620463,
                -1.3666496246277555,
                1.9666692661549428,
                -0.5848757794839343,
                1.2994118124925076,
                -3.121690449700022
            ]
        },
        {
            "positions": [
                -1.6724847512611807,
                -1.4155746184602924,
                1.956141452147357,
                -0.5306558559278779,
                1.4641028499750324,
                -3.1212099397013353
            ]
        }
    ]
}