{
    "goal": {
        "global_pose": {
            "orientation": {
                "w": 0.5084816217422485,
                "x": -0.49083608388900757,
                "y": 0.5182115435600281,
                "z": -0.4816462993621826
            },
            "position": {
                "x": 0.5540239810943604,
                "y": 0.030875300988554955,
                "z": 0.16403168439865112
            }
        },
        "name": "move_to_storage_A"
    },
    "id": "STRIDE_move_to_storage_A_147",
    "joint_names": [
        "shoulder_pan_joint",
        "shoulder_lift_joint",
        "elbow_joint",
        "wrist_1_joint",
        "wrist_2_joint",
        "wrist_3_joint"
    ],
    "metrics": {
        "cart_traj_len": 0.3524107032520046,
        "distance_elbow_joint": 0.4520057070756198,
        "distance_shoulder_lift_joint": 0.23376064503269478,
        "distance_shoulder_pan_joint": 0.4607755106417814,
        "distance_wrist_1_joint": 0.25123045524995413,
        "distance_wrist_2_joint": 1.0977913309876854,
        "distance_wrist_3_joint": 0.10807515396425549,
        "smoothness": 4.440892133664971e-16,
        "time": 0.064139483,
        "traj_len": 1.6135795000408226,
        "weighted_distance": 2.0417666118139315
    },
    "planner": "STRIDE",
    "start": {
        "state": {
            "elbow_joint": 1.971548259319323,
            "shoulder_lift_joint": -1.1394851275133948,
            "shoulder_pan_joint": 0.1228115487234821,
            "wrist_1_joint": -0.7804723859257726,
            "wrist_2_joint": 0.12958671773740124,
            "wrist_3_joint": -3.192489227718131
        }
    },
    "waypoints": [
        {
            "positions": [
                0.1228115487234821,
                -1.1394851275133948,
                1.971548259319323,
                -0.7804723859257726,
                0.12958671773740124,
                -3.192489227718131
            ]
        },
        {
            "positions": [
                0.056986475774656195,
                -1.1728795053752084,
                2.0361205031872687,
                -0.8163624509614803,
                0.286414050735642,
                -3.177049920008952
            ]
        },
        {
            "positions": [
                -0.00883859717416971,
                -1.206273883237022,
                2.1006927470552146,
                -0.8522525159971881,
                0.4432413837338828,
                -3.1616106122997722
            ]
        },
        {
            "positions": [
                -0.07466367012299563,
                -1.2396682610988354,
                2.16526499092316,
                -0.8881425810328958,
                0.6000687167321236,
                -3.146171304590593
            ]
        },
        {
            "positions": [
                -0.14048874307182152,
                -1.273062638960649,
                2.2298372347911055,
                -0.9240326460686036,
                0.7568960497303644,
                -3.130731996881414
            ]
        },
        {
            "positions": [
                -0.20631381602064747,
                -1.3064570168224625,
                2.2944094786590514,
                -0.9599227111043113,
                0.9137233827286052,
                -3.1152926891722346
            ]
        },
        {
            "positions": [
                -0.27213888896947336,
                -1.339851394684276,
                2.3589817225269973,
                -0.9958127761400191,
                1.070550715726846,
                -3.099853381463055
            ]
        },
        {
            "positions": [
                -0.3379639619182993,
                -1.3732457725460896,
                2.423553966394943,
                -1.0317028411757267,
                1.2273780487250867,
                -3.0844140737538757
            ]
        }
    ]
}{
    "goal": {
        "global_pose": {
            "orientation": {
                "w": 0.5084816217422485,
                "x": -0.49083608388900757,
                "y": 0.5182115435600281,
                "z": -0.4816462993621826
            },
            "position": {
                "x": 0.5540239810943604,
                "y": 0.030875300988554955,
                "z": 0.16403168439865112
            }
        },
        "name": "move_to_storage_A"
    },
    "id": "STRIDE_move_to_storage_A_147",
    "joint_names": [
        "shoulder_pan_joint",
        "shoulder_lift_joint",
        "elbow_joint",
        "wrist_1_joint",
        "wrist_2_joint",
        "wrist_3_joint"
    ],
    "metrics": {
        "cart_traj_len": 0.3538655595063639,
        "distance_elbow_joint": 0.45034236150077955,
        "distance_shoulder_lift_joint": 0.23458945720826652,
        "distance_shoulder_pan_joint": 0.4608882684663411,
        "distance_wrist_1_joint": 0.24512671050332857,
        "distance_wrist_2_joint": 1.1082730276563015,
        "distance_wrist_3_joint": 0.08785414447698514,
        "smoothness": 8.881784232165597e-16,
        "time": 0.108911908,
        "traj_len": 1.6084383636969128,
        "weighted_distance": 2.0288375974743773
    },
    "planner": "STRIDE",
    "start": {
        "state": {
            "elbow_joint": 1.97154746011099,
            "shoulder_lift_joint": -1.13948474672311,
            "shoulder_pan_joint": 0.12281154466712228,
            "wrist_1_joint": -0.7804688027058302,
            "wrist_2_joint": 0.12958655903071145,
            "wrist_3_joint": 3.0906928834467795
        }
    },
    "waypoints": [
        {
            "positions": [
                0.12281154466712228,
                -1.13948474672311,
                1.97154746011099,
                -0.7804688027058302,
                0.12958655903071145,
                3.0906928834467795
            ]
        },
        {
            "positions": [
                0.05697036345764499,
                -1.1729975263242909,
                2.0358820831825297,
                -0.8154869042063057,
                0.28791127726732596,
                3.1032434755149203
            ]
        },
        {
            "positions": [
                -0.008870817751832308,
                -1.2065103059254718,
                2.10021670625407,
                -0.8505050057067812,
                0.44623599550394044,
                3.115794067583061
            ]
        },
        {
            "positions": [
                -0.0747119989613096,
                -1.2400230855266527,
                2.16455132932561,
                -0.8855231072072567,
                0.604560713740555,
                3.128344659651202
            ]
        },
        {
            "positions": [
                -0.14055318017078688,
                -1.2735358651278337,
                2.2288859523971496,
                -0.9205412087077323,
                0.7628854319771695,
                3.1408952517193423
            ]
        },
        {
            "positions": [
                -0.20639436138026424,
                -1.3070486447290146,
                2.2932205754686894,
                -0.9555593102082077,
                0.921210150213784,
                3.153445843787483
            ]
        },
        {
            "positions": [
                -0.2722355425897415,
                -1.3405614243301955,
                2.3575551985402297,
                -0.9905774117086832,
                1.0795348684503985,
                3.165996435855624
            ]
        },
        {
            "positions": [
                -0.3380767237992188,
                -1.3740742039313765,
                2.4218898216117695,
                -1.0255955132091588,
                1.237859586687013,
                3.1785470279237646
            ]
        }
    ]
}{
    "goal": {
        "global_pose": {
            "orientation": {
                "w": 0.5084816217422485,
                "x": -0.49083608388900757,
                "y": 0.5182115435600281,
                "z": -0.4816462993621826
            },
            "position": {
                "x": 0.5540239810943604,
                "y": 0.030875300988554955,
                "z": 0.16403168439865112
            }
        },
        "name": "move_to_storage_A"
    },
    "id": "STRIDE_move_to_storage_A_147",
    "joint_names": [
        "shoulder_pan_joint",
        "shoulder_lift_joint",
        "elbow_joint",
        "wrist_1_joint",
        "wrist_2_joint",
        "wrist_3_joint"
    ],
    "metrics": {
        "cart_traj_len": 0.352922458536266,
        "distance_elbow_joint": 0.451777635293225,
        "distance_shoulder_lift_joint": 0.23163882317391438,
        "distance_shoulder_pan_joint": 0.4602828849295173,
        "distance_wrist_1_joint": 0.2610476497619094,
        "distance_wrist_2_joint": 1.1019435001571003,
        "distance_wrist_3_joint": 0.10052469377083195,
        "smoothness": 4.440892098500626e-16,
        "time": 0.04362015599999999,
        "traj_len": 1.6146873341568324,
        "weighted_distance": 2.042365228000901
    },
    "planner": "STRIDE",
    "start": {
        "state": {
            "elbow_joint": 1.9715472970024885,
            "shoulder_lift_joint": -1.1394870060712896,
            "shoulder_pan_joint": 0.12281152778156021,
            "wrist_1_joint": -0.780463741449964,
            "wrist_2_joint": 0.12958659822042276,
            "wrist_3_joint": 3.090690232415272
        }
    },
    "waypoints": [
        {
            "positions": [
                0.12281152778156021,
                -1.1394870060712896,
                1.9715472970024885,
                -0.780463741449964,
                0.12958659822042276,
                3.090690232415272
            ]
        },
        {
            "positions": [
                0.05705682993448631,
                -1.172578266524706,
                2.036086959187235,
                -0.8177562628445225,
                0.28700709824286563,
                3.105050902953962
            ]
        },
        {
            "positions": [
                -0.008697867912587587,
                -1.2056695269781224,
                2.1006266213719815,
                -0.8550487842390809,
                0.44442759826530853,
                3.1194115734926524
            ]
        },
        {
            "positions": [
                -0.07445256575966147,
                -1.2387607874315387,
                2.165166283556728,
                -0.8923413056336394,
                0.6018480982877514,
                3.1337722440313427
            ]
        },
        {
            "positions": [
                -0.14020726360673538,
                -1.2718520478849549,
                2.229705945741474,
                -0.929633827028198,
                0.7592685983101943,
                3.148132914570033
            ]
        },
        {
            "positions": [
                -0.20596196145380932,
                -1.3049433083383712,
                2.2942456079262206,
                -0.9669263484227564,
                0.9166890983326372,
                3.1624935851087232
            ]
        },
        {
            "positions": [
                -0.2717166593008832,
                -1.3380345687917876,
                2.358785270110967,
                -1.004218869817315,
                1.0741095983550801,
                3.1768542556474135
            ]
        },
        {
            "positions": [
                -0.33747135714795706,
                -1.371125829245204,
                2.4233249322957136,
                -1.0415113912118734,
                1.231530098377523,
                3.191214926186104
            ]
        }
    ]
}