{
    "goal": {
        "global_pose": {
            "orientation": {
                "w": 0.005598929693374612,
                "x": 0.007748599140229565,
                "y": 0.7110244013736278,
                "z": -0.7031023480610252
            },
            "position": {
                "x": 0.1141497679147869,
                "y": -0.7141253447532654,
                "z": 0.3711530566215515
            }
        },
        "name": "move_to_auspresseinheit_B"
    },
    "id": "STRIDE_move_to_auspresseinheit_B_132",
    "joint_names": [
        "shoulder_pan_joint",
        "shoulder_lift_joint",
        "elbow_joint",
        "wrist_1_joint",
        "wrist_2_joint",
        "wrist_3_joint"
    ],
    "metrics": {
        "cart_traj_len": 0.5647740999162625,
        "distance_elbow_joint": 0.06500742976334095,
        "distance_shoulder_lift_joint": 0.2945041586489874,
        "distance_shoulder_pan_joint": 0.576263588739163,
        "distance_wrist_1_joint": 0.3339984048306538,
        "distance_wrist_2_joint": 0.9963688794544403,
        "distance_wrist_3_joint": 0.003473882258549388,
        "smoothness": 2.5376526478085547e-16,
        "time": 0.19559802699999998,
        "traj_len": 1.5065245911352176,
        "weighted_distance": 1.8991923000310758
    },
    "planner": "STRIDE",
    "start": {
        "state": {
            "elbow_joint": 2.0193083361928714,
            "shoulder_lift_joint": -1.1220246554650708,
            "shoulder_pan_joint": -1.0952077554168747,
            "wrist_1_joint": -0.8559753972642168,
            "wrist_2_joint": 0.4759566250798843,
            "wrist_3_joint": -3.1240929996934557
        }
    },
    "waypoints": [
        {
            "positions": [
                -1.0952077554168747,
                -1.1220246554650708,
                2.0193083361928714,
                -0.8559753972642168,
                0.4759566250798843,
                -3.1240929996934557
            ]
        },
        {
            "positions": [
                -1.1912516868734018,
                -1.1711086819065688,
                2.008473764565648,
                -0.8003089964591078,
                0.6420181049889577,
                -3.1235140193170308
            ]
        },
        {
            "positions": [
                -1.287295618329929,
                -1.2201927083480666,
                1.9976391929384245,
                -0.7446425956539988,
                0.8080795848980311,
                -3.122935038940606
            ]
        },
        {
            "positions": [
                -1.3833395497864562,
                -1.2692767347895644,
                1.986804621311201,
                -0.6889761948488899,
                0.9741410648071045,
                -3.122356058564181
            ]
        },
        {
            "positions": [
                -1.4793834812429831,
                -1.3183607612310624,
                1.9759700496839774,
                -0.633309794043781,
                1.1402025447161779,
                -3.121777078187756
            ]
        },
        {
            "positions": [
                -1.5754274126995105,
                -1.3674447876725604,
                1.965135478056754,
                -0.577643393238672,
                1.3062640246252513,
                -3.121198097811331
            ]
        },
        {
            "positions": [
                -1.6714713441560376,
                -1.4165288141140582,
                1.9543009064295305,
                -0.521976992433563,
                1.4723255045343246,
                -3.1206191174349063
            ]
        }
    ]
}