{
    "goal": {
        "global_pose": {
            "orientation": {
                "w": 0.5084816217422485,
                "x": -0.49083608388900757,
                "y": 0.5182115435600281,
                "z": -0.4816462993621826
            },
            "position": {
                "x": 0.5540239810943604,
                "y": 0.030875300988554955,
                "z": 0.16403168439865112
            }
        },
        "name": "move_to_storage_A"
    },
    "id": "STRIDE_move_to_storage_A_113",
    "joint_names": [
        "shoulder_pan_joint",
        "shoulder_lift_joint",
        "elbow_joint",
        "wrist_1_joint",
        "wrist_2_joint",
        "wrist_3_joint"
    ],
    "metrics": {
        "cart_traj_len": 0.35417461692170754,
        "distance_elbow_joint": 0.45078172334781086,
        "distance_shoulder_lift_joint": 0.2350573024068432,
        "distance_shoulder_pan_joint": 0.460980183396897,
        "distance_wrist_1_joint": 0.2437194269369215,
        "distance_wrist_2_joint": 1.110724159360572,
        "distance_wrist_3_joint": 0.10415355769755408,
        "smoothness": 4.440892098500626e-16,
        "time": 0.06768666699999999,
        "traj_len": 1.6141302156723907,
        "weighted_distance": 2.0416089377839235
    },
    "planner": "STRIDE",
    "start": {
        "state": {
            "elbow_joint": 1.971548259319323,
            "shoulder_lift_joint": -1.1394851275133948,
            "shoulder_pan_joint": 0.1228115487234821,
            "wrist_1_joint": -0.7804723859257726,
            "wrist_2_joint": 0.12958671773740124,
            "wrist_3_joint": -3.192489227718131
        }
    },
    "waypoints": [
        {
            "positions": [
                0.1228115487234821,
                -1.1394851275133948,
                1.971548259319323,
                -0.7804723859257726,
                0.12958671773740124,
                -3.192489227718131
            ]
        },
        {
            "positions": [
                0.05695723680963967,
                -1.1730647421429439,
                2.0359456483690104,
                -0.8152894469167614,
                0.28826159764605436,
                -3.177610148047052
            ]
        },
        {
            "positions": [
                -0.008897075104202762,
                -1.206644356772493,
                2.1003430374186975,
                -0.8501065079077502,
                0.44693647755470745,
                -3.162731068375973
            ]
        },
        {
            "positions": [
                -0.07475138701804518,
                -1.240223971402042,
                2.1647404264683847,
                -0.8849235688987389,
                0.6056113574633606,
                -3.1478519887048937
            ]
        },
        {
            "positions": [
                -0.14060569893188762,
                -1.2738035860315908,
                2.229137815518072,
                -0.9197406298897277,
                0.7642862373720137,
                -3.1329729090338145
            ]
        },
        {
            "positions": [
                -0.20646001084573007,
                -1.3073832006611399,
                2.2935352045677595,
                -0.9545576908807165,
                0.9229611172806669,
                -3.1180938293627354
            ]
        },
        {
            "positions": [
                -0.27231432275957246,
                -1.340962815290689,
                2.3579325936174467,
                -0.9893747518717053,
                1.08163599718932,
                -3.1032147496916562
            ]
        },
        {
            "positions": [
                -0.3381686346734149,
                -1.374542429920238,
                2.422329982667134,
                -1.0241918128626941,
                1.2403108770979732,
                -3.088335670020577
            ]
        }
    ]
}{
    "goal": {
        "global_pose": {
            "orientation": {
                "w": 0.5084816217422485,
                "x": -0.49083608388900757,
                "y": 0.5182115435600281,
                "z": -0.4816462993621826
            },
            "position": {
                "x": 0.5540239810943604,
                "y": 0.030875300988554955,
                "z": 0.16403168439865112
            }
        },
        "name": "move_to_storage_A"
    },
    "id": "STRIDE_move_to_storage_A_113",
    "joint_names": [
        "shoulder_pan_joint",
        "shoulder_lift_joint",
        "elbow_joint",
        "wrist_1_joint",
        "wrist_2_joint",
        "wrist_3_joint"
    ],
    "metrics": {
        "cart_traj_len": 0.3524329722134256,
        "distance_elbow_joint": 0.4489872095088834,
        "distance_shoulder_lift_joint": 0.2341350526619992,
        "distance_shoulder_pan_joint": 0.45797683232873215,
        "distance_wrist_1_joint": 0.24062482296700893,
        "distance_wrist_2_joint": 1.1096632835763165,
        "distance_wrist_3_joint": 0.10331075054886485,
        "smoothness": 1.3322676295501878e-15,
        "time": 0.02879362,
        "traj_len": 1.6108066152061224,
        "weighted_distance": 2.037549400439867
    },
    "planner": "STRIDE",
    "start": {
        "state": {
            "elbow_joint": 1.97154746011099,
            "shoulder_lift_joint": -1.13948474672311,
            "shoulder_pan_joint": 0.12281154466712228,
            "wrist_1_joint": -0.7804688027058302,
            "wrist_2_joint": 0.12958655903071145,
            "wrist_3_joint": 3.0906928834467795
        }
    },
    "waypoints": [
        {
            "positions": [
                0.12281154466712228,
                -1.13948474672311,
                1.97154746011099,
                -0.7804688027058302,
                0.12958655903071145,
                3.0906928834467795
            ]
        },
        {
            "positions": [
                0.05738628290587483,
                -1.1729326113891099,
                2.0356884900408305,
                -0.8148437774154029,
                0.28810988525589953,
                3.105451562096617
            ]
        },
        {
            "positions": [
                -0.008038978855372622,
                -1.2063804760551098,
                2.0998295199706707,
                -0.8492187521249756,
                0.4466332114810876,
                3.1202102407464554
            ]
        },
        {
            "positions": [
                -0.07346424061662006,
                -1.2398283407211097,
                2.1639705499005113,
                -0.8835937268345483,
                0.6051565377062756,
                3.134968919396293
            ]
        },
        {
            "positions": [
                -0.1388895023778675,
                -1.2732762053871094,
                2.228111579830352,
                -0.917968701544121,
                0.7636798639314637,
                3.149727598046131
            ]
        },
        {
            "positions": [
                -0.20431476413911498,
                -1.3067240700531093,
                2.2922526097601925,
                -0.9523436762536936,
                0.9222031901566519,
                3.1644862766959685
            ]
        },
        {
            "positions": [
                -0.2697400259003624,
                -1.3401719347191092,
                2.3563936396900327,
                -0.9867186509632664,
                1.0807265163818398,
                3.1792449553458066
            ]
        },
        {
            "positions": [
                -0.33516528766160986,
                -1.3736197993851091,
                2.4205346696198733,
                -1.0210936256728391,
                1.239249842607028,
                3.1940036339956444
            ]
        }
    ]
}{
    "goal": {
        "global_pose": {
            "orientation": {
                "w": 0.5084816217422485,
                "x": -0.49083608388900757,
                "y": 0.5182115435600281,
                "z": -0.4816462993621826
            },
            "position": {
                "x": 0.5540239810943604,
                "y": 0.030875300988554955,
                "z": 0.16403168439865112
            }
        },
        "name": "move_to_storage_A"
    },
    "id": "STRIDE_move_to_storage_A_113",
    "joint_names": [
        "shoulder_pan_joint",
        "shoulder_lift_joint",
        "elbow_joint",
        "wrist_1_joint",
        "wrist_2_joint",
        "wrist_3_joint"
    ],
    "metrics": {
        "cart_traj_len": 0.3521188560819326,
        "distance_elbow_joint": 0.4475180048087126,
        "distance_shoulder_lift_joint": 0.2352019561139702,
        "distance_shoulder_pan_joint": 0.46012806750262697,
        "distance_wrist_1_joint": 0.23463783488547563,
        "distance_wrist_2_joint": 1.0982039767104979,
        "distance_wrist_3_joint": 0.08678052659179158,
        "smoothness": 4.440892133664971e-16,
        "time": 0.060456401,
        "traj_len": 1.6007718034164253,
        "weighted_distance": 2.0171448216210535
    },
    "planner": "STRIDE",
    "start": {
        "state": {
            "elbow_joint": 1.9715472970024885,
            "shoulder_lift_joint": -1.1394870060712896,
            "shoulder_pan_joint": 0.12281152778156021,
            "wrist_1_joint": -0.780463741449964,
            "wrist_2_joint": 0.12958659822042276,
            "wrist_3_joint": 3.090690232415272
        }
    },
    "waypoints": [
        {
            "positions": [
                0.12281152778156021,
                -1.1394870060712896,
                1.9715472970024885,
                -0.780463741449964,
                0.12958659822042276,
                3.090690232415272
            ]
        },
        {
            "positions": [
                0.05707894670975637,
                -1.1730872855161425,
                2.03547844054659,
                -0.813983432147889,
                0.28647288060763676,
                3.1030874504998134
            ]
        },
        {
            "positions": [
                -0.008653634362047469,
                -1.2066875649609954,
                2.0994095840906923,
                -0.8475031228458142,
                0.4433591629948507,
                3.1154846685843554
            ]
        },
        {
            "positions": [
                -0.07438621543385132,
                -1.2402878444058483,
                2.163340727634794,
                -0.8810228135437392,
                0.6002454453820647,
                3.127881886668897
            ]
        },
        {
            "positions": [
                -0.14011879650565515,
                -1.2738881238507012,
                2.2272718711788957,
                -0.9145425042416644,
                0.7571317277692786,
                3.1402791047534384
            ]
        },
        {
            "positions": [
                -0.205851377577459,
                -1.307488403295554,
                2.2912030147229974,
                -0.9480621949395894,
                0.9140180101564926,
                3.15267632283798
            ]
        },
        {
            "positions": [
                -0.2715839586492629,
                -1.341088682740407,
                2.3551341582670995,
                -0.9815818856375145,
                1.0709042925437067,
                3.165073540922522
            ]
        },
        {
            "positions": [
                -0.33731653972106673,
                -1.3746889621852598,
                2.419065301811201,
                -1.0151015763354396,
                1.2277905749309206,
                3.1774707590070634
            ]
        }
    ]
}