{
    "goal": {
        "global_pose": {
            "orientation": {
                "w": -0.00223480608172531,
                "x": 0.0024358444001904467,
                "y": 0.7094548369677653,
                "z": -0.704743149386269
            },
            "position": {
                "x": 0.6205249238014221,
                "y": -0.6371506643295288,
                "z": 0.19426114857196808
            }
        },
        "name": "move_to_magneteinheit_B"
    },
    "id": "STRIDE_move_to_magneteinheit_B_72",
    "joint_names": [
        "shoulder_pan_joint",
        "shoulder_lift_joint",
        "elbow_joint",
        "wrist_1_joint",
        "wrist_2_joint",
        "wrist_3_joint"
    ],
    "metrics": {
        "cart_traj_len": 3.299931496000228,
        "distance_elbow_joint": 4.642325394610031,
        "distance_shoulder_lift_joint": 0.7848309384544594,
        "distance_shoulder_pan_joint": 2.549310827492821,
        "distance_wrist_1_joint": 4.399066440851946,
        "distance_wrist_2_joint": 0.6832265853393065,
        "distance_wrist_3_joint": 3.14531655379684,
        "smoothness": 0.21404676126499314,
        "time": 1.882154517,
        "traj_len": 4.0254287648082165,
        "weighted_distance": 5.251381044480618
    },
    "planner": "STRIDE",
    "start": {
        "state": {
            "elbow_joint": 2.6216224122426386,
            "shoulder_lift_joint": -1.4174107377796124,
            "shoulder_pan_joint": 0.7066234856936794,
            "wrist_1_joint": 1.9546482284002225,
            "wrist_2_joint": -0.7096286983471962,
            "wrist_3_joint": 0.005740856962016249
        }
    },
    "waypoints": [
        {
            "positions": [
                0.7066234856936794,
                -1.4174107377796124,
                2.6216224122426386,
                1.9546482284002225,
                -0.7096286983471962,
                0.005740856962016249
            ]
        },
        {
            "positions": [
                0.6584240212776404,
                -1.5018979472910658,
                2.5789515835720205,
                1.9260464263413146,
                -0.6405027280603052,
                0.06331878044671199
            ]
        },
        {
            "positions": [
                0.6102245568616016,
                -1.5863851568025193,
                2.5362807549014024,
                1.8974446242824066,
                -0.5713767577734141,
                0.12089670393140774
            ]
        },
        {
            "positions": [
                0.5539628194030649,
                -1.610073306750782,
                2.4986613055491524,
                1.8454489852114762,
                -0.5331387485738149,
                0.1508051275775792
            ]
        },
        {
            "positions": [
                0.49770108194452817,
                -1.6337614566990446,
                2.4610418561969025,
                1.7934533461405455,
                -0.4949007393742158,
                0.18071355122375066
            ]
        },
        {
            "positions": [
                0.5767402114290501,
                -1.6506590912582682,
                2.307534691677755,
                1.7075207356890394,
                -0.5030216475718415,
                0.21987110748456284
            ]
        },
        {
            "positions": [
                0.6557793409135722,
                -1.6675567258174917,
                2.1540275271586076,
                1.6215881252375333,
                -0.5111425557694672,
                0.25902866374537503
            ]
        },
        {
            "positions": [
                0.734818470398094,
                -1.6844543603767153,
                2.0005203626394596,
                1.5356555147860271,
                -0.5192634639670929,
                0.2981862200061872
            ]
        },
        {
            "positions": [
                0.8138575998826161,
                -1.701351994935939,
                1.8470131981203122,
                1.449722904334521,
                -0.5273843721647187,
                0.3373437762669994
            ]
        },
        {
            "positions": [
                0.8928967293671379,
                -1.7182496294951626,
                1.6935060336011647,
                1.3637902938830149,
                -0.5355052803623443,
                0.3765013325278116
            ]
        },
        {
            "positions": [
                0.97193585885166,
                -1.7351472640543861,
                1.5399988690820172,
                1.2778576834315087,
                -0.54362618855997,
                0.4156588887886238
            ]
        },
        {
            "positions": [
                1.0509749883361819,
                -1.7520448986136097,
                1.3864917045628695,
                1.1919250729800026,
                -0.5517470967575957,
                0.45481644504943597
            ]
        },
        {
            "positions": [
                1.130014117820704,
                -1.7689425331728332,
                1.232984540043722,
                1.1059924625284965,
                -0.5598680049552215,
                0.49397400131024816
            ]
        },
        {
            "positions": [
                1.2090532473052258,
                -1.7858401677320568,
                1.0794773755245743,
                1.0200598520769901,
                -0.5679889131528472,
                0.5331315575710603
            ]
        },
        {
            "positions": [
                1.2880923767897479,
                -1.8027378022912806,
                0.9259702110054269,
                0.9341272416254842,
                -0.5761098213504728,
                0.5722891138318725
            ]
        },
        {
            "positions": [
                1.3671315062742697,
                -1.819635436850504,
                0.7724630464862792,
                0.8481946311739781,
                -0.5842307295480985,
                0.6114466700926847
            ]
        },
        {
            "positions": [
                1.4461706357587918,
                -1.8365330714097277,
                0.6189558819671317,
                0.762262020722472,
                -0.5923516377457243,
                0.6506042263534969
            ]
        },
        {
            "positions": [
                1.5252097652433139,
                -1.8534307059689512,
                0.465448717447984,
                0.6763294102709658,
                -0.60047254594335,
                0.6897617826143091
            ]
        },
        {
            "positions": [
                1.6042488947278357,
                -1.8703283405281748,
                0.3119415529288365,
                0.5903967998194597,
                -0.6085934541409757,
                0.7289193388751213
            ]
        },
        {
            "positions": [
                1.6832880242123576,
                -1.8872259750873983,
                0.15843438840968904,
                0.5044641893679536,
                -0.6167143623386013,
                0.7680768951359335
            ]
        },
        {
            "positions": [
                1.7623271536968796,
                -1.9041236096466219,
                0.0049272238905415655,
                0.41853157891644743,
                -0.6248352705362271,
                0.8072344513967457
            ]
        },
        {
            "positions": [
                1.8413662831814015,
                -1.9210212442058454,
                -0.1485799406286059,
                0.3325989684649415,
                -0.6329561787338528,
                0.8463920076575578
            ]
        },
        {
            "positions": [
                1.9204054126659236,
                -1.9379188787650692,
                -0.30208710514775383,
                0.24666635801343495,
                -0.6410770869314786,
                0.88554956391837
            ]
        },
        {
            "positions": [
                1.9994445421504456,
                -1.9548165133242927,
                -0.4555942696669013,
                0.16073374756192904,
                -0.6491979951291043,
                0.9247071201791822
            ]
        },
        {
            "positions": [
                2.0784836716349675,
                -1.9717141478835163,
                -0.6091014341860488,
                0.07480113711042291,
                -0.6573189033267299,
                0.9638646764399944
            ]
        },
        {
            "positions": [
                2.1575228011194896,
                -1.9886117824427398,
                -0.7626085987051967,
                -0.01113147334108322,
                -0.6654398115243556,
                1.0030222327008067
            ]
        },
        {
            "positions": [
                2.236561930604011,
                -2.0055094170019636,
                -0.9161157632243442,
                -0.09706408379258935,
                -0.6735607197219813,
                1.0421797889616187
            ]
        },
        {
            "positions": [
                2.3156010600885333,
                -2.022407051561187,
                -1.0696229277434917,
                -0.18299669424409548,
                -0.681681627919607,
                1.081337345222431
            ]
        },
        {
            "positions": [
                2.3946401895730554,
                -2.0393046861204107,
                -1.2231300922626391,
                -0.2689293046956016,
                -0.6898025361172327,
                1.120494901483243
            ]
        },
        {
            "positions": [
                2.4736793190575774,
                -2.0562023206796343,
                -1.376637256781787,
                -0.35486191514710796,
                -0.6979234443148584,
                1.1596524577440555
            ]
        },
        {
            "positions": [
                2.5527184485420995,
                -2.073099955238858,
                -1.5301444213009345,
                -0.4407945255986139,
                -0.7060443525124842,
                1.1988100140048674
            ]
        },
        {
            "positions": [
                2.631757578026621,
                -2.0899975897980814,
                -1.6836515858200816,
                -0.5267271360501202,
                -0.7141652607101099,
                1.2379675702656798
            ]
        },
        {
            "positions": [
                2.710796707511143,
                -2.106895224357305,
                -1.8371587503392295,
                -0.6126597465016262,
                -0.7222861689077356,
                1.2771251265264918
            ]
        },
        {
            "positions": [
                2.715565761334706,
                -2.1167348198303175,
                -1.8283755189919457,
                -0.7753846951464919,
                -0.7017093250571946,
                1.444538107829707
            ]
        },
        {
            "positions": [
                2.7203348151582687,
                -2.12657441530333,
                -1.819592287644662,
                -0.9381096437913575,
                -0.6811324812066538,
                1.6119510891329223
            ]
        },
        {
            "positions": [
                2.725103868981831,
                -2.1364140107763427,
                -1.8108090562973782,
                -1.100834592436223,
                -0.6605556373561129,
                1.7793640704361373
            ]
        },
        {
            "positions": [
                2.729872922805394,
                -2.1462536062493554,
                -1.8020258249500944,
                -1.2635595410810887,
                -0.6399787935055721,
                1.9467770517393526
            ]
        },
        {
            "positions": [
                2.734641976628957,
                -2.156093201722368,
                -1.7932425936028105,
                -1.4262844897259543,
                -0.6194019496550311,
                2.1141900330425676
            ]
        },
        {
            "positions": [
                2.7394110304525197,
                -2.1659327971953806,
                -1.7844593622555267,
                -1.58900943837082,
                -0.5988251058044902,
                2.281603014345783
            ]
        },
        {
            "positions": [
                2.744180084276082,
                -2.175772392668393,
                -1.775676130908243,
                -1.7517343870156856,
                -0.5782482619539493,
                2.449015995648998
            ]
        },
        {
            "positions": [
                2.748949138099645,
                -2.185611988141406,
                -1.7668928995609592,
                -1.9144593356605515,
                -0.5576714181034085,
                2.6164289769522133
            ]
        },
        {
            "positions": [
                2.739297069537851,
                -2.1897696383125114,
                -1.7483068380237636,
                -2.0495239259398192,
                -0.5391564141391594,
                2.753314793140111
            ]
        },
        {
            "positions": [
                2.729645000976057,
                -2.193927288483617,
                -1.729720776486568,
                -2.184588516219087,
                -0.5206414101749102,
                2.8902006093280086
            ]
        },
        {
            "positions": [
                2.6947268857435747,
                -2.18977009460839,
                -1.6916676473988175,
                -2.3145033643354056,
                -0.5009071911249198,
                3.0206290100434323
            ]
        },
        {
            "positions": [
                2.659808770511092,
                -2.185612900733162,
                -1.653614518311067,
                -2.444418212451725,
                -0.4811729720749293,
                3.1510574107588565
            ]
        }
    ]
}