{
    "goal": {
        "global_pose": {
            "orientation": {
                "w": 0.005598929693374612,
                "x": 0.007748599140229565,
                "y": 0.7110244013736278,
                "z": -0.7031023480610252
            },
            "position": {
                "x": -0.8858502320852131,
                "y": -0.7141253447532654,
                "z": 0.3711530566215515
            }
        },
        "name": "move_to_auspresseinheit_C"
    },
    "id": "STRIDE_move_to_auspresseinheit_C_73",
    "joint_names": [
        "shoulder_pan_joint",
        "shoulder_lift_joint",
        "elbow_joint",
        "wrist_1_joint",
        "wrist_2_joint",
        "wrist_3_joint"
    ],
    "metrics": {
        "cart_traj_len": 0.4942833083923878,
        "distance_elbow_joint": 1.020471806588838,
        "distance_shoulder_lift_joint": 0.334339907571117,
        "distance_shoulder_pan_joint": 0.2557659902962328,
        "distance_wrist_1_joint": 0.7173346763023734,
        "distance_wrist_2_joint": 1.3127062432845664,
        "distance_wrist_3_joint": 0.07710591309227732,
        "smoothness": 4.844609574787718e-16,
        "time": 0.5303367800000001,
        "traj_len": 1.928140175696623,
        "weighted_distance": 2.4293985434479253
    },
    "planner": "STRIDE",
    "start": {
        "state": {
            "elbow_joint": 1.7527959577737207,
            "shoulder_lift_joint": -0.9740617694225068,
            "shoulder_pan_joint": -2.967991417825858,
            "wrist_1_joint": -0.759517768980727,
            "wrist_2_joint": 1.7443932448377408,
            "wrist_3_joint": -3.0840537646736568
        }
    },
    "waypoints": [
        {
            "positions": [
                -2.967991417825858,
                -0.9740617694225068,
                1.7527959577737207,
                -0.759517768980727,
                1.7443932448377408,
                -3.0840537646736568
            ]
        },
        {
            "positions": [
                -2.9424148187962347,
                -0.940627778665395,
                1.6507487771148368,
                -0.6877843013504896,
                1.6131226205092841,
                -3.0917643559828845
            ]
        },
        {
            "positions": [
                -2.9168382197666114,
                -0.9071937879082834,
                1.548701596455953,
                -0.6160508337202523,
                1.4818519961808274,
                -3.099474947292112
            ]
        },
        {
            "positions": [
                -2.891261620736988,
                -0.8737597971511717,
                1.4466544157970693,
                -0.544317366090015,
                1.350581371852371,
                -3.10718553860134
            ]
        },
        {
            "positions": [
                -2.865685021707365,
                -0.84032580639406,
                1.3446072351381855,
                -0.4725838984597776,
                1.2193107475239142,
                -3.1148961299105675
            ]
        },
        {
            "positions": [
                -2.8401084226777416,
                -0.8068918156369482,
                1.2425600544793016,
                -0.4008504308295403,
                1.0880401231954577,
                -3.122606721219795
            ]
        },
        {
            "positions": [
                -2.8145318236481183,
                -0.7734578248798366,
                1.140512873820418,
                -0.329116963199303,
                0.956769498867001,
                -3.1303173125290233
            ]
        },
        {
            "positions": [
                -2.788955224618495,
                -0.7400238341227249,
                1.038465693161534,
                -0.2573834955690657,
                0.8254988745385444,
                -3.138027903838251
            ]
        },
        {
            "positions": [
                -2.7633786255888717,
                -0.7065898433656133,
                0.9364185125026502,
                -0.18565002793882823,
                0.6942282502100876,
                -3.1457384951474787
            ]
        },
        {
            "positions": [
                -2.7378020265592484,
                -0.6731558526085015,
                0.8343713318437663,
                -0.11391656030859099,
                0.5629576258816311,
                -3.1534490864567064
            ]
        },
        {
            "positions": [
                -2.712225427529625,
                -0.6397218618513898,
                0.7323241511848825,
                -0.04218309267835364,
                0.43168700155317435,
                -3.161159677765934
            ]
        }
    ]
}