{
    "goal": {
        "global_pose": {
            "orientation": {
                "w": 0.7031023480610252,
                "x": -0.7110244013736278,
                "y": 0.0077485991402295624,
                "z": 0.005598929693374583
            },
            "position": {
                "x": -0.8841497679147869,
                "y": 0.44412534475326537,
                "z": 0.3711530566215515
            }
        },
        "name": "move_to_auspresseinheit_D"
    },
    "id": "STRIDE_move_to_auspresseinheit_D_60",
    "joint_names": [
        "shoulder_pan_joint",
        "shoulder_lift_joint",
        "elbow_joint",
        "wrist_1_joint",
        "wrist_2_joint",
        "wrist_3_joint"
    ],
    "metrics": {
        "cart_traj_len": 0.34286258360197464,
        "distance_elbow_joint": 0.6419977285070488,
        "distance_shoulder_lift_joint": 0.12400534728617574,
        "distance_shoulder_pan_joint": 0.13428987130760073,
        "distance_wrist_1_joint": 0.5512684315495897,
        "distance_wrist_2_joint": 1.4302242710534745,
        "distance_wrist_3_joint": 0.018288104972978392,
        "smoothness": 1.1842378960592196e-15,
        "time": 0.097626517,
        "traj_len": 1.7029602915737254,
        "weighted_distance": 2.217688586620288
    },
    "planner": "STRIDE",
    "start": {
        "state": {
            "elbow_joint": -1.8275523626775212,
            "shoulder_lift_joint": -2.126789852344167,
            "shoulder_pan_joint": -0.03513704404078235,
            "wrist_1_joint": -2.347782403156801,
            "wrist_2_joint": -1.6058999987535132,
            "wrist_3_joint": -3.0880379163319196
        }
    },
    "waypoints": [
        {
            "positions": [
                -0.03513704404078235,
                -2.126789852344167,
                -1.8275523626775212,
                -2.347782403156801,
                -1.6058999987535132,
                -3.0880379163319196
            ]
        },
        {
            "positions": [
                -0.05192327795423244,
                -2.1422905207549388,
                -1.7473026466141401,
                -2.4166909571004997,
                -1.427121964871829,
                -3.0857519032102974
            ]
        },
        {
            "positions": [
                -0.06870951186768254,
                -2.1577911891657107,
                -1.667052930550759,
                -2.485599511044198,
                -1.2483439309901445,
                -3.083465890088675
            ]
        },
        {
            "positions": [
                -0.08549574578113261,
                -2.1732918575764826,
                -1.5868032144873778,
                -2.554508064987897,
                -1.0695658971084603,
                -3.081179876967053
            ]
        },
        {
            "positions": [
                -0.10228197969458272,
                -2.188792525987255,
                -1.5065534984239968,
                -2.6234166189315955,
                -0.8907878632267759,
                -3.0788938638454306
            ]
        },
        {
            "positions": [
                -0.1190682136080328,
                -2.204293194398027,
                -1.4263037823606157,
                -2.6923251728752944,
                -0.7120098293450916,
                -3.076607850723808
            ]
        },
        {
            "positions": [
                -0.1358544475214829,
                -2.2197938628087988,
                -1.3460540662972345,
                -2.7612337268189933,
                -0.5332317954634074,
                -3.0743218376021857
            ]
        },
        {
            "positions": [
                -0.15264068143493298,
                -2.2352945312195707,
                -1.2658043502338534,
                -2.8301422807626917,
                -0.3544537615817229,
                -3.0720358244805634
            ]
        },
        {
            "positions": [
                -0.16942691534838308,
                -2.2507951996303426,
                -1.1855546341704724,
                -2.8990508347063906,
                -0.17567572770003864,
                -3.069749811358941
            ]
        }
    ]
}