{
    "goal": {
        "global_pose": {
            "orientation": {
                "w": -0.4816463035849501,
                "x": 0.5182115481033762,
                "y": 0.4908360881923453,
                "z": -0.5084816262002911
            },
            "position": {
                "x": -0.8240239810943604,
                "y": -0.300875300988555,
                "z": 0.16403168439865112
            }
        },
        "name": "move_to_storage_C"
    },
    "id": "STRIDE_move_to_storage_C_122",
    "joint_names": [
        "shoulder_pan_joint",
        "shoulder_lift_joint",
        "elbow_joint",
        "wrist_1_joint",
        "wrist_2_joint",
        "wrist_3_joint"
    ],
    "metrics": {
        "cart_traj_len": 0.5758359065637325,
        "distance_elbow_joint": 0.2535625330838538,
        "distance_shoulder_lift_joint": 0.1878580613033788,
        "distance_shoulder_pan_joint": 0.4947729243521688,
        "distance_wrist_1_joint": 0.06442490821237967,
        "distance_wrist_2_joint": 1.0636671272268763,
        "distance_wrist_3_joint": 0.07307377333860154,
        "smoothness": 2.5376526478085547e-16,
        "time": 0.018861998,
        "traj_len": 1.4619710419557765,
        "weighted_distance": 1.84705140958061
    },
    "planner": "STRIDE",
    "start": {
        "state": {
            "elbow_joint": 2.010868314990456,
            "shoulder_lift_joint": -1.1634956873337592,
            "shoulder_pan_joint": -2.4736205022346125,
            "wrist_1_joint": -0.8367026794202681,
            "wrist_2_joint": 0.6746043897044499,
            "wrist_3_joint": -3.1496632123970403
        }
    },
    "waypoints": [
        {
            "positions": [
                -2.4736205022346125,
                -1.1634956873337592,
                2.010868314990456,
                -0.8367026794202681,
                0.6746043897044499,
                -3.1496632123970403
            ]
        },
        {
            "positions": [
                -2.556082656293307,
                -1.1321860104498627,
                1.9686078928098136,
                -0.8259651947182048,
                0.8518822442422627,
                -3.13748425017394
            ]
        },
        {
            "positions": [
                -2.638544810352002,
                -1.1008763335659664,
                1.9263474706291712,
                -0.8152277100161416,
                1.0291600987800753,
                -3.1253052879508396
            ]
        },
        {
            "positions": [
                -2.721006964410697,
                -1.0695666566820698,
                1.8840870484485288,
                -0.8044902253140782,
                1.206437953317888,
                -3.1131263257277393
            ]
        },
        {
            "positions": [
                -2.803469118469392,
                -1.0382569797981733,
                1.8418266262678866,
                -0.793752740612015,
                1.3837158078557006,
                -3.1009473635046394
            ]
        },
        {
            "positions": [
                -2.8859312725280866,
                -1.0069473029142768,
                1.7995662040872444,
                -0.7830152559099517,
                1.5609936623935137,
                -3.088768401281539
            ]
        },
        {
            "positions": [
                -2.9683934265867813,
                -0.9756376260303804,
                1.757305781906602,
                -0.7722777712078884,
                1.7382715169313263,
                -3.0765894390584387
            ]
        }
    ]
}