{
    "goal": {
        "global_pose": {
            "orientation": {
                "w": 0.5084816217422485,
                "x": -0.49083608388900757,
                "y": 0.5182115435600281,
                "z": -0.4816462993621826
            },
            "position": {
                "x": 0.5540239810943604,
                "y": 0.030875300988554955,
                "z": 0.16403168439865112
            }
        },
        "name": "move_to_storage_A"
    },
    "id": "STRIDE_move_to_storage_A_43",
    "joint_names": [
        "shoulder_pan_joint",
        "shoulder_lift_joint",
        "elbow_joint",
        "wrist_1_joint",
        "wrist_2_joint",
        "wrist_3_joint"
    ],
    "metrics": {
        "cart_traj_len": 0.3525721560489052,
        "distance_elbow_joint": 0.4469200078330011,
        "distance_shoulder_lift_joint": 0.2353204922158243,
        "distance_shoulder_pan_joint": 0.459430740211457,
        "distance_wrist_1_joint": 0.23260728924161744,
        "distance_wrist_2_joint": 1.1045609132995295,
        "distance_wrist_3_joint": 0.09512436711088901,
        "smoothness": 2.2204460668324854e-16,
        "time": 0.089073911,
        "traj_len": 1.604357756210353,
        "weighted_distance": 2.025186595520335
    },
    "planner": "STRIDE",
    "start": {
        "state": {
            "elbow_joint": 1.971548259319323,
            "shoulder_lift_joint": -1.1394851275133948,
            "shoulder_pan_joint": 0.1228115487234821,
            "wrist_1_joint": -0.7804723859257726,
            "wrist_2_joint": 0.12958671773740124,
            "wrist_3_joint": -3.192489227718131
        }
    },
    "waypoints": [
        {
            "positions": [
                0.1228115487234821,
                -1.1394851275133948,
                1.971548259319323,
                -0.7804723859257726,
                0.12958671773740124,
                -3.192489227718131
            ]
        },
        {
            "positions": [
                0.0571785858361311,
                -1.173102340687084,
                2.0353939747240375,
                -0.8137019986745752,
                0.2873811339230483,
                -3.1789000324165757
            ]
        },
        {
            "positions": [
                -0.008454377051219902,
                -1.2067195538607731,
                2.099239690128752,
                -0.8469316114233776,
                0.44517555010869536,
                -3.16531083711502
            ]
        },
        {
            "positions": [
                -0.07408733993857089,
                -1.2403367670344623,
                2.1630854055334665,
                -0.8801612241721801,
                0.6029699662943424,
                -3.1517216418134644
            ]
        },
        {
            "positions": [
                -0.1397203028259219,
                -1.2739539802081516,
                2.226931120938181,
                -0.9133908369209826,
                0.7607643824799896,
                -3.138132446511909
            ]
        },
        {
            "positions": [
                -0.20535326571327295,
                -1.3075711933818408,
                2.290776836342895,
                -0.9466204496697851,
                0.9185587986656367,
                -3.1245432512103535
            ]
        },
        {
            "positions": [
                -0.2709862286006239,
                -1.34118840655553,
                2.35462255174761,
                -0.9798500624185875,
                1.0763532148512835,
                -3.1109540559087976
            ]
        },
        {
            "positions": [
                -0.3366191914879749,
                -1.374805619729219,
                2.418468267152324,
                -1.01307967516739,
                1.2341476310369308,
                -3.097364860607242
            ]
        }
    ]
}{
    "goal": {
        "global_pose": {
            "orientation": {
                "w": 0.5084816217422485,
                "x": -0.49083608388900757,
                "y": 0.5182115435600281,
                "z": -0.4816462993621826
            },
            "position": {
                "x": 0.5540239810943604,
                "y": 0.030875300988554955,
                "z": 0.16403168439865112
            }
        },
        "name": "move_to_storage_A"
    },
    "id": "STRIDE_move_to_storage_A_43",
    "joint_names": [
        "shoulder_pan_joint",
        "shoulder_lift_joint",
        "elbow_joint",
        "wrist_1_joint",
        "wrist_2_joint",
        "wrist_3_joint"
    ],
    "metrics": {
        "cart_traj_len": 0.35379297122851544,
        "distance_elbow_joint": 0.45141237084475927,
        "distance_shoulder_lift_joint": 0.2348422183615586,
        "distance_shoulder_pan_joint": 0.46490314710764497,
        "distance_wrist_1_joint": 0.24550931007817045,
        "distance_wrist_2_joint": 1.090996749824158,
        "distance_wrist_3_joint": 0.09735582193054038,
        "smoothness": 6.661338165333112e-16,
        "time": 0.030251293999999998,
        "traj_len": 1.6077996200232265,
        "weighted_distance": 2.028851232079435
    },
    "planner": "STRIDE",
    "start": {
        "state": {
            "elbow_joint": 1.97154746011099,
            "shoulder_lift_joint": -1.13948474672311,
            "shoulder_pan_joint": 0.12281154466712228,
            "wrist_1_joint": -0.7804688027058302,
            "wrist_2_joint": 0.12958655903071145,
            "wrist_3_joint": 3.0906928834467795
        }
    },
    "waypoints": [
        {
            "positions": [
                0.12281154466712228,
                -1.13948474672311,
                1.97154746011099,
                -0.7804688027058302,
                0.12958655903071145,
                3.0906928834467795
            ]
        },
        {
            "positions": [
                0.05639680936603014,
                -1.1730336350604755,
                2.0360349416602412,
                -0.8155415612884259,
                0.2854432375770197,
                3.1046008580082853
            ]
        },
        {
            "positions": [
                -0.010017925935061997,
                -1.206582523397841,
                2.1005224232094926,
                -0.8506143198710218,
                0.441299916123328,
                3.118508832569791
            ]
        },
        {
            "positions": [
                -0.07643266123615412,
                -1.2401314117352065,
                2.165009904758744,
                -0.8856870784536175,
                0.5971565946696362,
                3.132416807131297
            ]
        },
        {
            "positions": [
                -0.14284739653724626,
                -1.273680300072572,
                2.229497386307995,
                -0.9207598370362133,
                0.7530132732159446,
                3.1463247816928024
            ]
        },
        {
            "positions": [
                -0.20926213183833842,
                -1.3072291884099376,
                2.2939848678572465,
                -0.9558325956188091,
                0.9088699517622529,
                3.160232756254308
            ]
        },
        {
            "positions": [
                -0.2756768671394305,
                -1.340778076747303,
                2.358472349406498,
                -0.9909053542014048,
                1.064726630308561,
                3.174140730815814
            ]
        },
        {
            "positions": [
                -0.34209160244052267,
                -1.3743269650846686,
                2.422959830955749,
                -1.0259781127840006,
                1.2205833088548694,
                3.18804870537732
            ]
        }
    ]
}{
    "goal": {
        "global_pose": {
            "orientation": {
                "w": 0.5084816217422485,
                "x": -0.49083608388900757,
                "y": 0.5182115435600281,
                "z": -0.4816462993621826
            },
            "position": {
                "x": 0.5540239810943604,
                "y": 0.030875300988554955,
                "z": 0.16403168439865112
            }
        },
        "name": "move_to_storage_A"
    },
    "id": "STRIDE_move_to_storage_A_43",
    "joint_names": [
        "shoulder_pan_joint",
        "shoulder_lift_joint",
        "elbow_joint",
        "wrist_1_joint",
        "wrist_2_joint",
        "wrist_3_joint"
    ],
    "metrics": {
        "cart_traj_len": 0.35357875240374387,
        "distance_elbow_joint": 0.45006673136273,
        "distance_shoulder_lift_joint": 0.2334902108618344,
        "distance_shoulder_pan_joint": 0.4631592154554514,
        "distance_wrist_1_joint": 0.2420970257680075,
        "distance_wrist_2_joint": 1.0960927721686844,
        "distance_wrist_3_joint": 0.09898602710082427,
        "smoothness": 0.0,
        "time": 0.045483234,
        "traj_len": 1.6074489051654275,
        "weighted_distance": 2.0297915742400434
    },
    "planner": "STRIDE",
    "start": {
        "state": {
            "elbow_joint": 1.9715472970024885,
            "shoulder_lift_joint": -1.1394870060712896,
            "shoulder_pan_joint": 0.12281152778156021,
            "wrist_1_joint": -0.780463741449964,
            "wrist_2_joint": 0.12958659822042276,
            "wrist_3_joint": 3.090690232415272
        }
    },
    "waypoints": [
        {
            "positions": [
                0.12281152778156021,
                -1.1394870060712896,
                1.9715472970024885,
                -0.780463741449964,
                0.12958659822042276,
                3.090690232415272
            ]
        },
        {
            "positions": [
                0.056645925573638595,
                -1.172842750480123,
                2.035842544340021,
                -0.8150490308453936,
                0.2861712799588062,
                3.1048310934296754
            ]
        },
        {
            "positions": [
                -0.00951967663428302,
                -1.2061984948889566,
                2.1001377916775543,
                -0.8496343202408233,
                0.44275596169718967,
                3.1189719544440786
            ]
        },
        {
            "positions": [
                -0.07568527884220463,
                -1.23955423929779,
                2.164433039015087,
                -0.8842196096362529,
                0.5993406434355731,
                3.133112815458482
            ]
        },
        {
            "positions": [
                -0.14185088105012625,
                -1.2729099837066236,
                2.22872828635262,
                -0.9188048990316826,
                0.7559253251739566,
                3.147253676472886
            ]
        },
        {
            "positions": [
                -0.20801648325804792,
                -1.306265728115457,
                2.2930235336901528,
                -0.9533901884271122,
                0.9125100069123402,
                3.1613945374872894
            ]
        },
        {
            "positions": [
                -0.27418208546596945,
                -1.3396214725242905,
                2.3573187810276854,
                -0.9879754778225418,
                1.0690946886507235,
                3.1755353985016925
            ]
        },
        {
            "positions": [
                -0.3403476876738912,
                -1.372977216933124,
                2.4216140283652186,
                -1.0225607672179715,
                1.2256793703891071,
                3.189676259516096
            ]
        }
    ]
}