{
    "goal": {
        "global_pose": {
            "orientation": {
                "w": -0.00223480608172531,
                "x": 0.0024358444001904467,
                "y": 0.7094548369677653,
                "z": -0.704743149386269
            },
            "position": {
                "x": -0.37947507619857795,
                "y": -0.6371506643295288,
                "z": 0.19426114857196808
            }
        },
        "name": "move_to_magneteinheit_C"
    },
    "id": "STRIDE_move_to_magneteinheit_C_125",
    "joint_names": [
        "shoulder_pan_joint",
        "shoulder_lift_joint",
        "elbow_joint",
        "wrist_1_joint",
        "wrist_2_joint",
        "wrist_3_joint"
    ],
    "metrics": {
        "cart_traj_len": 1.5188748650611517,
        "distance_elbow_joint": 0.2831148871946585,
        "distance_shoulder_lift_joint": 1.2070801840353451,
        "distance_shoulder_pan_joint": 1.3607870463902276,
        "distance_wrist_1_joint": 0.5283971377901551,
        "distance_wrist_2_joint": 1.4915318169266785,
        "distance_wrist_3_joint": 3.8564864359699658,
        "smoothness": 1.0227045762018068,
        "time": 2.308168684,
        "traj_len": 2.9542169027183887,
        "weighted_distance": 4.296545046309162
    },
    "planner": "STRIDE",
    "start": {
        "state": {
            "elbow_joint": 1.9565354010623817,
            "shoulder_lift_joint": -1.4165861575791021,
            "shoulder_pan_joint": -1.6717766225146293,
            "wrist_1_joint": -0.5286633292919765,
            "wrist_2_joint": 1.472756589071564,
            "wrist_3_joint": -3.1238370188695823
        }
    },
    "waypoints": [
        {
            "positions": [
                -1.6717766225146293,
                -1.4165861575791021,
                1.9565354010623817,
                -0.5286633292919765,
                1.472756589071564,
                -3.1238370188695823
            ]
        },
        {
            "positions": [
                -1.62514768867169,
                -1.446801270915758,
                1.963828516924738,
                -0.5383128466150635,
                1.4348575195400946,
                -2.9896394426361788
            ]
        },
        {
            "positions": [
                -1.5810147700876218,
                -1.4795218071832918,
                1.9689694937354278,
                -0.5498095897786424,
                1.388047304797435,
                -2.8428223300777975
            ]
        },
        {
            "positions": [
                -1.5368818515035536,
                -1.5122423434508254,
                1.9741104705461177,
                -0.5613063329422211,
                1.3412370900547756,
                -2.6960052175194162
            ]
        },
        {
            "positions": [
                -1.5532712955996903,
                -1.5546924782259395,
                1.9616460327421952,
                -0.5900779339781952,
                1.2410287409256897,
                -2.5297611540749942
            ]
        },
        {
            "positions": [
                -1.569660739695827,
                -1.5971426130010538,
                1.9491815949382727,
                -0.6188495350141693,
                1.140820391796604,
                -2.3635170906305727
            ]
        },
        {
            "positions": [
                -1.5860501837919638,
                -1.6395927477761678,
                1.9367171571343502,
                -0.6476211360501434,
                1.0406120426675183,
                -2.197273027186151
            ]
        },
        {
            "positions": [
                -1.6024396278881006,
                -1.6820428825512819,
                1.9242527193304277,
                -0.6763927370861175,
                0.9404036935384323,
                -2.031028963741729
            ]
        },
        {
            "positions": [
                -1.6188290719842375,
                -1.7244930173263961,
                1.9117882815265053,
                -0.7051643381220916,
                0.8401953444093464,
                -1.8647849002973074
            ]
        },
        {
            "positions": [
                -1.6352185160803743,
                -1.7669431521015102,
                1.8993238437225828,
                -0.7339359391580658,
                0.7399869952802607,
                -1.6985408368528856
            ]
        },
        {
            "positions": [
                -1.651607960176511,
                -1.8093932868766243,
                1.8868594059186603,
                -0.7627075401940399,
                0.6397786461511747,
                -1.5322967734084638
            ]
        },
        {
            "positions": [
                -1.6679974042726478,
                -1.8518434216517385,
                1.8743949681147378,
                -0.791479141230014,
                0.539570297022089,
                -1.366052709964042
            ]
        },
        {
            "positions": [
                -1.6843868483687845,
                -1.8942935564268526,
                1.8619305303108153,
                -0.820250742265988,
                0.4393619478930031,
                -1.1998086465196203
            ]
        },
        {
            "positions": [
                -1.8010001731143772,
                -1.8560392143060045,
                1.8695312488318483,
                -0.8371743229774141,
                0.4257738931680482,
                -1.3555938421436
            ]
        },
        {
            "positions": [
                -1.91761349785997,
                -1.8177848721851564,
                1.8771319673528815,
                -0.8540979036888402,
                0.4121858384430933,
                -1.5113790377675798
            ]
        },
        {
            "positions": [
                -2.0342268226055626,
                -1.7795305300643083,
                1.8847326858739146,
                -0.8710214844002663,
                0.3985977837181385,
                -1.6671642333915595
            ]
        },
        {
            "positions": [
                -2.1508401473511554,
                -1.74127618794346,
                1.8923334043949476,
                -0.8879450651116925,
                0.3850097289931836,
                -1.822949429015539
            ]
        },
        {
            "positions": [
                -2.267453472096748,
                -1.7030218458226118,
                1.8999341229159805,
                -0.9048686458231185,
                0.3714216742682287,
                -1.978734624639519
            ]
        },
        {
            "positions": [
                -2.384066796842341,
                -1.6647675037017637,
                1.9075348414370137,
                -0.9217922265345446,
                0.35783361954327386,
                -2.1345198202634985
            ]
        },
        {
            "positions": [
                -2.5006801215879335,
                -1.6265131615809156,
                1.9151355599580469,
                -0.9387158072459707,
                0.34424556481831897,
                -2.290305015887478
            ]
        },
        {
            "positions": [
                -2.6172934463335262,
                -1.5882588194600675,
                1.9227362784790798,
                -0.9556393879573968,
                0.3306575100933641,
                -2.446090211511458
            ]
        },
        {
            "positions": [
                -2.5991083612648787,
                -1.5353415634324663,
                1.9343055446424993,
                -0.942961753066805,
                0.3743366023369239,
                -2.5318622738399785
            ]
        },
        {
            "positions": [
                -2.5809232761962315,
                -1.482424307404865,
                1.9458748108059187,
                -0.9302841181762131,
                0.41801569458048377,
                -2.6176343361684995
            ]
        },
        {
            "positions": [
                -2.5536456485932604,
                -1.4030484233634632,
                1.963228710051048,
                -0.9112676658403254,
                0.48353433294582354,
                -2.7462924296612807
            ]
        },
        {
            "positions": [
                -2.5263680209902892,
                -1.3236725393220614,
                1.9805826092961771,
                -0.8922512135044376,
                0.5490529713111633,
                -2.8749505231540615
            ]
        },
        {
            "positions": [
                -2.499090393387318,
                -1.2442966552806598,
                1.9979365085413063,
                -0.8732347611685498,
                0.614571609676503,
                -3.0036086166468428
            ]
        },
        {
            "positions": [
                -2.471812765784347,
                -1.164920771239258,
                2.0152904077864355,
                -0.854218308832662,
                0.6800902480418428,
                -3.132266710139624
            ]
        }
    ]
}