{
    "goal": {
        "global_pose": {
            "orientation": {
                "w": 0.5084816217422485,
                "x": -0.49083608388900757,
                "y": 0.5182115435600281,
                "z": -0.4816462993621826
            },
            "position": {
                "x": 0.5540239810943604,
                "y": 0.030875300988554955,
                "z": 0.16403168439865112
            }
        },
        "name": "move_to_storage_A"
    },
    "id": "STRIDE_move_to_storage_A_31",
    "joint_names": [
        "shoulder_pan_joint",
        "shoulder_lift_joint",
        "elbow_joint",
        "wrist_1_joint",
        "wrist_2_joint",
        "wrist_3_joint"
    ],
    "metrics": {
        "cart_traj_len": 0.3537122020675829,
        "distance_elbow_joint": 0.45025369243699465,
        "distance_shoulder_lift_joint": 0.23448103891343708,
        "distance_shoulder_pan_joint": 0.4639940764776271,
        "distance_wrist_1_joint": 0.24726455302923867,
        "distance_wrist_2_joint": 1.0933932714839543,
        "distance_wrist_3_joint": 0.09618711580100392,
        "smoothness": 4.440892133664971e-16,
        "time": 0.100560446,
        "traj_len": 1.6079719363665075,
        "weighted_distance": 2.0294348484879863
    },
    "planner": "STRIDE",
    "start": {
        "state": {
            "elbow_joint": 1.971548259319323,
            "shoulder_lift_joint": -1.1394851275133948,
            "shoulder_pan_joint": 0.1228115487234821,
            "wrist_1_joint": -0.7804723859257726,
            "wrist_2_joint": 0.12958671773740124,
            "wrist_3_joint": -3.192489227718131
        }
    },
    "waypoints": [
        {
            "positions": [
                0.1228115487234821,
                -1.1394851275133948,
                1.971548259319323,
                -0.7804723859257726,
                0.12958671773740124,
                -3.192489227718131
            ]
        },
        {
            "positions": [
                0.05652668065524967,
                -1.172982418786743,
                2.0358702153817507,
                -0.8157958935013782,
                0.2857857565208233,
                -3.1787482111751304
            ]
        },
        {
            "positions": [
                -0.00975818741298276,
                -1.206479710060091,
                2.1001921714441787,
                -0.8511194010769837,
                0.4419847953042453,
                -3.16500719463213
            ]
        },
        {
            "positions": [
                -0.0760430554812152,
                -1.2399770013334392,
                2.164514127506606,
                -0.8864429086525891,
                0.5981838340876673,
                -3.1512661780891293
            ]
        },
        {
            "positions": [
                -0.14232792354944762,
                -1.2734742926067875,
                2.228836083569034,
                -0.9217664162281947,
                0.7543828728710894,
                -3.137525161546129
            ]
        },
        {
            "positions": [
                -0.2086127916176801,
                -1.3069715838801357,
                2.293158039631462,
                -0.9570899238038002,
                0.9105819116545115,
                -3.1237841450031283
            ]
        },
        {
            "positions": [
                -0.2748976596859125,
                -1.3404688751534837,
                2.3574799956938897,
                -0.9924134313794057,
                1.0667809504379333,
                -3.110043128460128
            ]
        },
        {
            "positions": [
                -0.341182527754145,
                -1.373966166426832,
                2.4218019517563176,
                -1.0277369389550113,
                1.2229799892213555,
                -3.0963021119171272
            ]
        }
    ]
}{
    "goal": {
        "global_pose": {
            "orientation": {
                "w": 0.5084816217422485,
                "x": -0.49083608388900757,
                "y": 0.5182115435600281,
                "z": -0.4816462993621826
            },
            "position": {
                "x": 0.5540239810943604,
                "y": 0.030875300988554955,
                "z": 0.16403168439865112
            }
        },
        "name": "move_to_storage_A"
    },
    "id": "STRIDE_move_to_storage_A_31",
    "joint_names": [
        "shoulder_pan_joint",
        "shoulder_lift_joint",
        "elbow_joint",
        "wrist_1_joint",
        "wrist_2_joint",
        "wrist_3_joint"
    ],
    "metrics": {
        "cart_traj_len": 0.3539899822552271,
        "distance_elbow_joint": 0.45002212475775316,
        "distance_shoulder_lift_joint": 0.23558814332522293,
        "distance_shoulder_pan_joint": 0.46095789663629816,
        "distance_wrist_1_joint": 0.23958137348676511,
        "distance_wrist_2_joint": 1.1096318115505832,
        "distance_wrist_3_joint": 0.09979141496892074,
        "smoothness": 1.3322676295501878e-15,
        "time": 0.052808056000000006,
        "traj_len": 1.611078137374331,
        "weighted_distance": 2.0357722809048986
    },
    "planner": "STRIDE",
    "start": {
        "state": {
            "elbow_joint": 1.97154746011099,
            "shoulder_lift_joint": -1.13948474672311,
            "shoulder_pan_joint": 0.12281154466712228,
            "wrist_1_joint": -0.7804688027058302,
            "wrist_2_joint": 0.12958655903071145,
            "wrist_3_joint": 3.0906928834467795
        }
    },
    "waypoints": [
        {
            "positions": [
                0.12281154466712228,
                -1.13948474672311,
                1.97154746011099,
                -0.7804688027058302,
                0.12958655903071145,
                3.0906928834467795
            ]
        },
        {
            "positions": [
                0.056960416576222556,
                -1.1731401957695704,
                2.0358363350763833,
                -0.8146947132039395,
                0.28810538925222334,
                3.104948799870911
            ]
        },
        {
            "positions": [
                -0.008890711514677171,
                -1.2067956448160309,
                2.1001252100417767,
                -0.8489206237020488,
                0.4466242194737352,
                3.1192047162950427
            ]
        },
        {
            "positions": [
                -0.07474183960557691,
                -1.2404510938624913,
                2.16441408500717,
                -0.8831465342001581,
                0.6051430496952471,
                3.1334606327191743
            ]
        },
        {
            "positions": [
                -0.1405929676964766,
                -1.2741065429089515,
                2.228702959972563,
                -0.9173724446982674,
                0.763661879916759,
                3.1477165491433055
            ]
        },
        {
            "positions": [
                -0.20644409578737638,
                -1.307761991955412,
                2.2929918349379563,
                -0.9515983551963767,
                0.922180710138271,
                3.161972465567437
            ]
        },
        {
            "positions": [
                -0.2722952238782761,
                -1.3414174410018724,
                2.3572807099033497,
                -0.985824265694486,
                1.0806995403597828,
                3.1762283819915687
            ]
        },
        {
            "positions": [
                -0.33814635196917586,
                -1.3750728900483329,
                2.421569584868743,
                -1.0200501761925953,
                1.2392183705812947,
                3.1904842984157002
            ]
        }
    ]
}{
    "goal": {
        "global_pose": {
            "orientation": {
                "w": 0.5084816217422485,
                "x": -0.49083608388900757,
                "y": 0.5182115435600281,
                "z": -0.4816462993621826
            },
            "position": {
                "x": 0.5540239810943604,
                "y": 0.030875300988554955,
                "z": 0.16403168439865112
            }
        },
        "name": "move_to_storage_A"
    },
    "id": "STRIDE_move_to_storage_A_31",
    "joint_names": [
        "shoulder_pan_joint",
        "shoulder_lift_joint",
        "elbow_joint",
        "wrist_1_joint",
        "wrist_2_joint",
        "wrist_3_joint"
    ],
    "metrics": {
        "cart_traj_len": 0.35366586039605147,
        "distance_elbow_joint": 0.45043507689629303,
        "distance_shoulder_lift_joint": 0.2346244048645354,
        "distance_shoulder_pan_joint": 0.4627644654066941,
        "distance_wrist_1_joint": 0.2486997416408674,
        "distance_wrist_2_joint": 1.0983658921134967,
        "distance_wrist_3_joint": 0.09351307335623149,
        "smoothness": 8.881784232165597e-16,
        "time": 0.031195046,
        "traj_len": 1.6088513462337402,
        "weighted_distance": 2.030392679937786
    },
    "planner": "STRIDE",
    "start": {
        "state": {
            "elbow_joint": 1.9715472970024885,
            "shoulder_lift_joint": -1.1394870060712896,
            "shoulder_pan_joint": 0.12281152778156021,
            "wrist_1_joint": -0.780463741449964,
            "wrist_2_joint": 0.12958659822042276,
            "wrist_3_joint": 3.090690232415272
        }
    },
    "waypoints": [
        {
            "positions": [
                0.12281152778156021,
                -1.1394870060712896,
                1.9715472970024885,
                -0.780463741449964,
                0.12958659822042276,
                3.090690232415272
            ]
        },
        {
            "positions": [
                0.056702318437746785,
                -1.1730047781947948,
                2.0358951651305306,
                -0.8159922759700879,
                0.2864960113794937,
                3.1040492428947335
            ]
        },
        {
            "positions": [
                -0.00940689090606664,
                -1.2065225503182997,
                2.100243033258572,
                -0.8515208104902118,
                0.4434054245385647,
                3.117408253374195
            ]
        },
        {
            "positions": [
                -0.07551610024988006,
                -1.2400403224418048,
                2.1645909013866143,
                -0.8870493450103357,
                0.6003148376976356,
                3.130767263853657
            ]
        },
        {
            "positions": [
                -0.1416253095936935,
                -1.2735580945653098,
                2.228938769514656,
                -0.9225778795304597,
                0.7572242508567065,
                3.1441262743331184
            ]
        },
        {
            "positions": [
                -0.20773451893750697,
                -1.307075866688815,
                2.293286637642698,
                -0.9581064140505835,
                0.9141336640157776,
                3.15748528481258
            ]
        },
        {
            "positions": [
                -0.2738437282813203,
                -1.3405936388123199,
                2.3576345057707395,
                -0.9936349485707074,
                1.0710430771748485,
                3.1708442952920417
            ]
        },
        {
            "positions": [
                -0.33995293762513384,
                -1.374111410935825,
                2.4219823738987816,
                -1.0291634830908314,
                1.2279524903339194,
                3.1842033057715033
            ]
        }
    ]
}