{
    "goal": {
        "global_pose": {
            "orientation": {
                "w": 0.005598929693374612,
                "x": 0.007748599140229565,
                "y": 0.7110244013736278,
                "z": -0.7031023480610252
            },
            "position": {
                "x": -0.8858502320852131,
                "y": -0.7141253447532654,
                "z": 0.3711530566215515
            }
        },
        "name": "move_to_auspresseinheit_C"
    },
    "id": "STRIDE_move_to_auspresseinheit_C_36",
    "joint_names": [
        "shoulder_pan_joint",
        "shoulder_lift_joint",
        "elbow_joint",
        "wrist_1_joint",
        "wrist_2_joint",
        "wrist_3_joint"
    ],
    "metrics": {
        "cart_traj_len": 0.4943219910841238,
        "distance_elbow_joint": 1.0210252756650133,
        "distance_shoulder_lift_joint": 0.33577192279263135,
        "distance_shoulder_pan_joint": 0.25610476742381616,
        "distance_wrist_1_joint": 0.7151685539019896,
        "distance_wrist_2_joint": 1.3191444251549087,
        "distance_wrist_3_joint": 0.08911164711426256,
        "smoothness": 6.45947944157498e-16,
        "time": 0.42250043699999995,
        "traj_len": 1.9329579902451637,
        "weighted_distance": 2.439029082511737
    },
    "planner": "STRIDE",
    "start": {
        "state": {
            "elbow_joint": 1.7527959577737207,
            "shoulder_lift_joint": -0.9740617694225068,
            "shoulder_pan_joint": -2.967991417825858,
            "wrist_1_joint": -0.759517768980727,
            "wrist_2_joint": 1.7443932448377408,
            "wrist_3_joint": -3.0840537646736568
        }
    },
    "waypoints": [
        {
            "positions": [
                -2.967991417825858,
                -0.9740617694225068,
                1.7527959577737207,
                -0.759517768980727,
                1.7443932448377408,
                -3.0840537646736568
            ]
        },
        {
            "positions": [
                -2.9423809410834765,
                -0.9404845771432436,
                1.6506934302072194,
                -0.6880009135905281,
                1.61247880232225,
                -3.092964929385083
            ]
        },
        {
            "positions": [
                -2.9167704643410945,
                -0.9069073848639805,
                1.548590902640718,
                -0.616484058200329,
                1.480564359806759,
                -3.101876094096509
            ]
        },
        {
            "positions": [
                -2.891159987598713,
                -0.8733301925847173,
                1.4464883750742166,
                -0.5449672028101301,
                1.3486499172912683,
                -3.1107872588079357
            ]
        },
        {
            "positions": [
                -2.8655495108563316,
                -0.8397530003054542,
                1.3443858475077153,
                -0.47345034741993114,
                1.2167354747757773,
                -3.119698423519362
            ]
        },
        {
            "positions": [
                -2.83993903411395,
                -0.8061758080261912,
                1.242283319941214,
                -0.40193349202973216,
                1.0848210322602865,
                -3.128609588230788
            ]
        },
        {
            "positions": [
                -2.814328557371568,
                -0.772598615746928,
                1.1401807923747127,
                -0.3304166366395332,
                0.9529065897447956,
                -3.137520752942214
            ]
        },
        {
            "positions": [
                -2.7887180806291867,
                -0.7390214234676649,
                1.0380782648082114,
                -0.2588997812493342,
                0.8209921472293048,
                -3.1464319176536404
            ]
        },
        {
            "positions": [
                -2.763107603886805,
                -0.7054442311884017,
                0.9359757372417099,
                -0.1873829258591353,
                0.6890777047138139,
                -3.155343082365067
            ]
        },
        {
            "positions": [
                -2.7374971271444233,
                -0.6718670389091386,
                0.8338732096752086,
                -0.11586607046893627,
                0.5571632621983229,
                -3.164254247076493
            ]
        },
        {
            "positions": [
                -2.711886650402042,
                -0.6382898466298754,
                0.7317706821087072,
                -0.04434921507873733,
                0.425248819682832,
                -3.1731654117879193
            ]
        }
    ]
}