{
    "goal": {
        "global_pose": {
            "orientation": {
                "w": 0.7031023502349854,
                "x": -0.7110244035720825,
                "y": 0.007748599164187908,
                "z": 0.005598929710686207
            },
            "position": {
                "x": 0.11585023208521307,
                "y": 0.44412534475326537,
                "z": 0.3711530566215515
            }
        },
        "name": "move_to_auspresseinheit_A"
    },
    "id": "STRIDE_move_to_auspresseinheit_A_45",
    "joint_names": [
        "shoulder_pan_joint",
        "shoulder_lift_joint",
        "elbow_joint",
        "wrist_1_joint",
        "wrist_2_joint",
        "wrist_3_joint"
    ],
    "metrics": {
        "cart_traj_len": 0.6533949734394873,
        "distance_elbow_joint": 0.24624119730585203,
        "distance_shoulder_lift_joint": 0.5345992288562347,
        "distance_shoulder_pan_joint": 1.0409768995603854,
        "distance_wrist_1_joint": 0.5493266350974032,
        "distance_wrist_2_joint": 0.5354696286344703,
        "distance_wrist_3_joint": 0.16146286242888097,
        "smoothness": 0.26675911562430626,
        "time": 0.129591812,
        "traj_len": 1.7515925473360596,
        "weighted_distance": 2.1156082908877205
    },
    "planner": "STRIDE",
    "start": {
        "state": {
            "elbow_joint": 2.4225746658250005,
            "shoulder_lift_joint": -1.3736534386056498,
            "shoulder_pan_joint": -0.3378633547517467,
            "wrist_1_joint": -1.0288598680537169,
            "wrist_2_joint": 1.233022673432363,
            "wrist_3_joint": -3.0940220416140027
        }
    },
    "waypoints": [
        {
            "positions": [
                -0.3378633547517467,
                -1.3736534386056498,
                2.4225746658250005,
                -1.0288598680537169,
                1.233022673432363,
                -3.0940220416140027
            ]
        },
        {
            "positions": [
                -0.23728122107507402,
                -1.461074906149257,
                2.4409069236813594,
                -0.9429773762962791,
                1.2002777530343458,
                -3.084102090427723
            ]
        },
        {
            "positions": [
                -0.1366990873984013,
                -1.5484963736928643,
                2.459239181537718,
                -0.8570948845388414,
                1.1675328326363286,
                -3.0741821392414437
            ]
        },
        {
            "positions": [
                -0.03611695372172857,
                -1.6359178412364714,
                2.477571439394077,
                -0.7712123927814036,
                1.1347879122383113,
                -3.0642621880551646
            ]
        },
        {
            "positions": [
                0.06446517995494411,
                -1.7233393087800786,
                2.495903697250436,
                -0.685329901023966,
                1.102042991840294,
                -3.054342236868885
            ]
        },
        {
            "positions": [
                0.1650473136316169,
                -1.810760776323686,
                2.5142359551067943,
                -0.5994474092665281,
                1.0692980714422768,
                -3.0444222856826055
            ]
        },
        {
            "positions": [
                0.2656294473082896,
                -1.898182243867293,
                2.5325682129631533,
                -0.5135649175090904,
                1.0365531510442596,
                -3.034502334496326
            ]
        },
        {
            "positions": [
                0.4114574798084059,
                -1.9015390517321569,
                2.48715232957392,
                -0.5022210226581648,
                0.9235531156288039,
                -3.0684833862667276
            ]
        },
        {
            "positions": [
                0.5572855123085223,
                -1.9048958595970207,
                2.441736446184687,
                -0.4908771278072393,
                0.8105530802133484,
                -3.1024644380371287
            ]
        },
        {
            "positions": [
                0.7031135448086386,
                -1.9082526674618845,
                2.396320562795454,
                -0.4795332329563137,
                0.6975530447978927,
                -3.1364454898075302
            ]
        }
    ]
}