{
    "goal": {
        "global_pose": {
            "orientation": {
                "w": 0.7047431493862688,
                "x": -0.7094548369677653,
                "y": 0.0024358444001904,
                "z": -0.0022348060817251984
            },
            "position": {
                "x": -0.39052492380142206,
                "y": 0.3671506643295288,
                "z": 0.19426114857196808
            }
        },
        "name": "move_to_magneteinheit_D"
    },
    "id": "STRIDE_move_to_magneteinheit_D_127",
    "joint_names": [
        "shoulder_pan_joint",
        "shoulder_lift_joint",
        "elbow_joint",
        "wrist_1_joint",
        "wrist_2_joint",
        "wrist_3_joint"
    ],
    "metrics": {
        "cart_traj_len": 4.981202275731657,
        "distance_elbow_joint": 3.467994498523408,
        "distance_shoulder_lift_joint": 2.2597924479106877,
        "distance_shoulder_pan_joint": 3.0907212025187327,
        "distance_wrist_1_joint": 3.770492897782773,
        "distance_wrist_2_joint": 2.5759402977912336,
        "distance_wrist_3_joint": 3.685510983279358,
        "smoothness": 0.8276688812620964,
        "time": 0.263960615,
        "traj_len": 4.341710760495936,
        "weighted_distance": 5.706829898458418
    },
    "planner": "STRIDE",
    "start": {
        "state": {
            "elbow_joint": 0.749534889911806,
            "shoulder_lift_joint": -0.6476975780787326,
            "shoulder_pan_joint": -2.711696901376241,
            "wrist_1_joint": -0.07506478083263063,
            "wrist_2_joint": 0.43296659715538205,
            "wrist_3_joint": -3.14703540197715
        }
    },
    "waypoints": [
        {
            "positions": [
                -2.711696901376241,
                -0.6476975780787326,
                0.749534889911806,
                -0.07506478083263063,
                0.43296659715538205,
                -3.14703540197715
            ]
        },
        {
            "positions": [
                -2.7256375020994605,
                -0.6350435128653968,
                0.7218032028923502,
                -0.1786978686373169,
                0.5638537856375279,
                -3.075738799506747
            ]
        },
        {
            "positions": [
                -2.7395781028226804,
                -0.622389447652061,
                0.6940715158728946,
                -0.2823309564420032,
                0.6947409741196737,
                -3.0044421970363433
            ]
        },
        {
            "positions": [
                -2.7535187035459,
                -0.6097353824387252,
                0.6663398288534389,
                -0.38596404424668945,
                0.8256281626018196,
                -2.93314559456594
            ]
        },
        {
            "positions": [
                -2.7674593042691193,
                -0.5970813172253894,
                0.6386081418339832,
                -0.4895971320513757,
                0.9565153510839655,
                -2.861848992095537
            ]
        },
        {
            "positions": [
                -2.7813999049923392,
                -0.5844272520120535,
                0.6108764548145276,
                -0.593230219856062,
                1.0874025395661113,
                -2.7905523896251334
            ]
        },
        {
            "positions": [
                -2.7953405057155587,
                -0.5717731867987177,
                0.5831447677950719,
                -0.6968633076607482,
                1.2182897280482572,
                -2.7192557871547303
            ]
        },
        {
            "positions": [
                -2.6634669821373236,
                -0.6917149858847859,
                0.6002432379489596,
                -0.6380204970883037,
                1.2188881345241627,
                -2.681322145446166
            ]
        },
        {
            "positions": [
                -2.5315934585590885,
                -0.811656784970854,
                0.6173417081028474,
                -0.5791776865158591,
                1.2194865410000681,
                -2.643388503737602
            ]
        },
        {
            "positions": [
                -2.4177603019604694,
                -0.8915592806718283,
                0.6324228652678691,
                -0.4959217718131923,
                1.1400050963977788,
                -2.637319922583721
            ]
        },
        {
            "positions": [
                -2.30392714536185,
                -0.9714617763728025,
                0.6475040224328907,
                -0.41266585711052545,
                1.0605236517954897,
                -2.63125134142984
            ]
        },
        {
            "positions": [
                -2.190093988763231,
                -1.0513642720737768,
                0.6625851795979124,
                -0.3294099424078586,
                0.9810422071932003,
                -2.6251827602759588
            ]
        },
        {
            "positions": [
                -2.076260832164612,
                -1.131266767774751,
                0.6776663367629341,
                -0.2461540277051918,
                0.9015607625909111,
                -2.619114179122078
            ]
        },
        {
            "positions": [
                -1.9624276755659924,
                -1.2111692634757254,
                0.6927474939279558,
                -0.16289811300252488,
                0.8220793179886218,
                -2.613045597968197
            ]
        },
        {
            "positions": [
                -1.8485945189673734,
                -1.2910717591766996,
                0.7078286510929774,
                -0.07964219829985808,
                0.7425978733863325,
                -2.606977016814316
            ]
        },
        {
            "positions": [
                -1.7347613623687543,
                -1.370974254877674,
                0.7229098082579991,
                0.00361371640280872,
                0.6631164287840433,
                -2.6009084356604344
            ]
        },
        {
            "positions": [
                -1.620928205770135,
                -1.4508767505786482,
                0.7379909654230208,
                0.08686963110547552,
                0.5836349841817541,
                -2.5948398545065534
            ]
        },
        {
            "positions": [
                -1.5070950491715158,
                -1.5307792462796224,
                0.7530721225880425,
                0.1701255458081424,
                0.5041535395794647,
                -2.5887712733526724
            ]
        },
        {
            "positions": [
                -1.4409989432032697,
                -1.561767880826476,
                0.6308751300919432,
                0.21817836264146112,
                0.4900488207825114,
                -2.4787751290259035
            ]
        },
        {
            "positions": [
                -1.3749028372350236,
                -1.59275651537333,
                0.5086781375958439,
                0.26623117947477987,
                0.47594410198555803,
                -2.368778984699135
            ]
        },
        {
            "positions": [
                -1.3088067312667775,
                -1.6237451499201838,
                0.3864811450997446,
                0.3142839963080986,
                0.4618393831886047,
                -2.258782840372366
            ]
        },
        {
            "positions": [
                -1.2427106252985314,
                -1.6547337844670376,
                0.26428415260364535,
                0.3623368131414173,
                0.4477346643916513,
                -2.148786696045597
            ]
        },
        {
            "positions": [
                -1.1766145193302853,
                -1.6857224190138913,
                0.14208716010754607,
                0.41038962997473605,
                0.433629945594698,
                -2.0387905517188285
            ]
        },
        {
            "positions": [
                -1.1105184133620392,
                -1.7167110535607453,
                0.019890167611446796,
                0.4584424468080548,
                0.4195252267977446,
                -1.9287944073920595
            ]
        },
        {
            "positions": [
                -1.044422307393793,
                -1.747699688107599,
                -0.10230682488465248,
                0.5064952636413735,
                0.40542050800079127,
                -1.8187982630652906
            ]
        },
        {
            "positions": [
                -0.9783262014255468,
                -1.7786883226544528,
                -0.22450381738075176,
                0.5545480804746923,
                0.3913157892038379,
                -1.7088021187385218
            ]
        },
        {
            "positions": [
                -0.9122300954573007,
                -1.8096769572013067,
                -0.34670080987685103,
                0.602600897308011,
                0.37721107040688456,
                -1.598805974411753
            ]
        },
        {
            "positions": [
                -0.8461339894890546,
                -1.8406655917481605,
                -0.4688978023729503,
                0.6506537141413298,
                0.3631063516099312,
                -1.4888098300849841
            ]
        },
        {
            "positions": [
                -0.7800378835208085,
                -1.8716542262950142,
                -0.5910947948690496,
                0.6987065309746485,
                0.34900163281297786,
                -1.3788136857582154
            ]
        },
        {
            "positions": [
                -0.7139417775525624,
                -1.9026428608418682,
                -0.7132917873651489,
                0.7467593478079673,
                0.3348969140160245,
                -1.2688175414314464
            ]
        },
        {
            "positions": [
                -0.6478456715843163,
                -1.933631495388722,
                -0.8354887798612479,
                0.7948121646412859,
                0.3207921952190712,
                -1.1588213971046777
            ]
        },
        {
            "positions": [
                -0.58174956561607,
                -1.9646201299355757,
                -0.9576857723573474,
                0.8428649814746048,
                0.3066874764221178,
                -1.0488252527779087
            ]
        },
        {
            "positions": [
                -0.515653459647824,
                -1.9956087644824296,
                -1.0798827648534468,
                0.8909177983079235,
                0.29258275762516445,
                -0.93882910845114
            ]
        },
        {
            "positions": [
                -0.44955735367957783,
                -2.026597399029283,
                -1.202079757349546,
                0.9389706151412421,
                0.2784780388282111,
                -0.8288329641243712
            ]
        },
        {
            "positions": [
                -0.38346124771133194,
                -2.057586033576137,
                -1.3242767498456454,
                0.9870234319745609,
                0.2643733200312578,
                -0.7188368197976025
            ]
        },
        {
            "positions": [
                -0.3173651417430856,
                -2.088574668122991,
                -1.4464737423417446,
                1.0350762488078797,
                0.2502686012343044,
                -0.6088406754708335
            ]
        },
        {
            "positions": [
                -0.2512690357748395,
                -2.119563302669845,
                -1.568670734837844,
                1.0831290656411983,
                0.23616388243735104,
                -0.4988445311440648
            ]
        },
        {
            "positions": [
                -0.1851729298065934,
                -2.1505519372166986,
                -1.6908677273339432,
                1.131181882474517,
                0.22205916364039768,
                -0.38884838681729583
            ]
        },
        {
            "positions": [
                -0.11907682383834728,
                -2.181540571763552,
                -1.8130647198300425,
                1.1792346993078358,
                0.20795444484344433,
                -0.2788522424905273
            ]
        },
        {
            "positions": [
                -0.05298071787010117,
                -2.212529206310406,
                -1.9352617123261417,
                1.2272875161411545,
                0.19384972604649098,
                -0.16885609816375835
            ]
        },
        {
            "positions": [
                0.013115388098144942,
                -2.24351784085726,
                -2.057458704822241,
                1.2753403329744732,
                0.17974500724953762,
                -0.05885995383698957
            ]
        },
        {
            "positions": [
                0.009655722227858043,
                -2.196045279396111,
                -2.0691081842137544,
                1.4164861069185366,
                0.10502721546288392,
                0.0066302667528623516
            ]
        },
        {
            "positions": [
                0.006196056357571145,
                -2.148572717934962,
                -2.0807576636052683,
                1.5576318808626002,
                0.030309423676230213,
                0.07212048734271427
            ]
        },
        {
            "positions": [
                0.002736390487284246,
                -2.101100156473813,
                -2.0924071429967817,
                1.6987776548066635,
                -0.04440836811042345,
                0.13761070793256613
            ]
        },
        {
            "positions": [
                -0.0007232753830026528,
                -2.053627595012664,
                -2.1040566223882955,
                1.8399234287507271,
                -0.1191261598970772,
                0.20310092852241812
            ]
        },
        {
            "positions": [
                -0.004182941253289552,
                -2.006155033551515,
                -2.115706101779809,
                1.9810692026947905,
                -0.1938439516837309,
                0.26859114911227
            ]
        },
        {
            "positions": [
                -0.040447616256145125,
                -2.061107152604792,
                -2.1682858612289793,
                1.8869168305749668,
                -0.11862597943118139,
                0.21461426267428257
            ]
        },
        {
            "positions": [
                -0.0767122912590007,
                -2.1160592716580693,
                -2.2208656206781496,
                1.7927644584551432,
                -0.043408007178631886,
                0.16063737623629515
            ]
        },
        {
            "positions": [
                -0.11297696626185627,
                -2.171011390711346,
                -2.27344538012732,
                1.6986120863353196,
                0.03180996507391756,
                0.10666048979830775
            ]
        },
        {
            "positions": [
                -0.14924164126471184,
                -2.225963509764623,
                -2.3260251395764904,
                1.6044597142154957,
                0.10702793732646712,
                0.052683603360320325
            ]
        },
        {
            "positions": [
                -0.18550631626756742,
                -2.2809156288179,
                -2.3786048990256607,
                1.510307342095672,
                0.1822459095790166,
                -0.0012932830776670662
            ]
        }
    ]
}