{
    "goal": {
        "global_pose": {
            "orientation": {
                "w": 0.005598929693374612,
                "x": 0.007748599140229565,
                "y": 0.7110244013736278,
                "z": -0.7031023480610252
            },
            "position": {
                "x": -0.8858502320852131,
                "y": -0.7141253447532654,
                "z": 0.3711530566215515
            }
        },
        "name": "move_to_auspresseinheit_C"
    },
    "id": "STRIDE_move_to_auspresseinheit_C_70",
    "joint_names": [
        "shoulder_pan_joint",
        "shoulder_lift_joint",
        "elbow_joint",
        "wrist_1_joint",
        "wrist_2_joint",
        "wrist_3_joint"
    ],
    "metrics": {
        "cart_traj_len": 0.4939052974665544,
        "distance_elbow_joint": 1.006174019960731,
        "distance_shoulder_lift_joint": 0.3282564220658243,
        "distance_shoulder_pan_joint": 0.2566576524756008,
        "distance_wrist_1_joint": 0.6858332815773752,
        "distance_wrist_2_joint": 1.311574040153887,
        "distance_wrist_3_joint": 0.06445714930630464,
        "smoothness": 8.074349308362242e-16,
        "time": 0.093684795,
        "traj_len": 1.9112698829677937,
        "weighted_distance": 2.404012101858806
    },
    "planner": "STRIDE",
    "start": {
        "state": {
            "elbow_joint": 1.7527959577737207,
            "shoulder_lift_joint": -0.9740617694225068,
            "shoulder_pan_joint": -2.967991417825858,
            "wrist_1_joint": -0.759517768980727,
            "wrist_2_joint": 1.7443932448377408,
            "wrist_3_joint": -3.0840537646736568
        }
    },
    "waypoints": [
        {
            "positions": [
                -2.967991417825858,
                -0.9740617694225068,
                1.7527959577737207,
                -0.759517768980727,
                1.7443932448377408,
                -3.0840537646736568
            ]
        },
        {
            "positions": [
                -2.942325652578298,
                -0.9412361272159243,
                1.6521785557776476,
                -0.6909344408229895,
                1.6132358408223522,
                -3.0904994796042873
            ]
        },
        {
            "positions": [
                -2.916659887330738,
                -0.908410485009342,
                1.5515611537815746,
                -0.6223511126652519,
                1.4820784368069635,
                -3.096945194534918
            ]
        },
        {
            "positions": [
                -2.890994122083178,
                -0.8755848428027595,
                1.4509437517855015,
                -0.5537677845075144,
                1.3509210327915748,
                -3.1033909094655483
            ]
        },
        {
            "positions": [
                -2.865328356835618,
                -0.842759200596177,
                1.3503263497894282,
                -0.48518445634977686,
                1.2197636287761862,
                -3.109836624396179
            ]
        },
        {
            "positions": [
                -2.8396625915880573,
                -0.8099335583895946,
                1.2497089477933552,
                -0.41660112819203937,
                1.0886062247607975,
                -3.1162823393268093
            ]
        },
        {
            "positions": [
                -2.8139968263404973,
                -0.7771079161830122,
                1.1490915457972821,
                -0.3480178000343019,
                0.9574488207454087,
                -3.1227280542574394
            ]
        },
        {
            "positions": [
                -2.7883310610929373,
                -0.7442822739764298,
                1.048474143801209,
                -0.27943447187656434,
                0.82629141673002,
                -3.12917376918807
            ]
        },
        {
            "positions": [
                -2.7626652958453772,
                -0.7114566317698474,
                0.9478567418051358,
                -0.21085114371882674,
                0.6951340127146313,
                -3.1356194841187004
            ]
        },
        {
            "positions": [
                -2.736999530597817,
                -0.678630989563265,
                0.8472393398090627,
                -0.14226781556108925,
                0.5639766086992426,
                -3.142065199049331
            ]
        },
        {
            "positions": [
                -2.711333765350257,
                -0.6458053473566825,
                0.7466219378129896,
                -0.0736844874033518,
                0.43281920468385393,
                -3.1485109139799614
            ]
        }
    ]
}