{
    "goal": {
        "global_pose": {
            "orientation": {
                "w": 0.5084816262002911,
                "x": -0.4908360881923452,
                "y": 0.5182115481033761,
                "z": -0.48164630358495003
            },
            "position": {
                "x": 0.5540239810943604,
                "y": -0.46912469901144505,
                "z": 0.16403168439865112
            }
        },
        "name": "move_to_storage_B"
    },
    "id": "STRIDE_move_to_storage_B_63",
    "joint_names": [
        "shoulder_pan_joint",
        "shoulder_lift_joint",
        "elbow_joint",
        "wrist_1_joint",
        "wrist_2_joint",
        "wrist_3_joint"
    ],
    "metrics": {
        "cart_traj_len": 1.605151607326832,
        "distance_elbow_joint": 1.9463056298098027,
        "distance_shoulder_lift_joint": 0.5218502958452889,
        "distance_shoulder_pan_joint": 1.6868039919077107,
        "distance_wrist_1_joint": 2.9828539166612296,
        "distance_wrist_2_joint": 2.712030834426915,
        "distance_wrist_3_joint": 3.144162152378085,
        "smoothness": 0.10982147921923029,
        "time": 0.09464931900000001,
        "traj_len": 3.60472007526646,
        "weighted_distance": 4.997721068334381
    },
    "planner": "STRIDE",
    "start": {
        "state": {
            "elbow_joint": 1.664937868594044,
            "shoulder_lift_joint": -0.661644460510453,
            "shoulder_pan_joint": -0.9139846352900073,
            "wrist_1_joint": 2.146753192139373,
            "wrist_2_joint": -2.2341966793290973,
            "wrist_3_joint": 0.005466555786416001
        }
    },
    "waypoints": [
        {
            "positions": [
                -0.9139846352900073,
                -0.661644460510453,
                1.664937868594044,
                2.146753192139373,
                -2.2341966793290973,
                0.005466555786416001
            ]
        },
        {
            "positions": [
                -0.8892345113914263,
                -0.6596665237449273,
                1.638358231499043,
                2.126524377987663,
                -2.2183187767552504,
                0.0037306712381363193
            ]
        },
        {
            "positions": [
                -0.7982155622924939,
                -0.6559794237082051,
                1.541860551988862,
                2.02686577515434,
                -2.1371031674189904,
                0.022591219206326743
            ]
        },
        {
            "positions": [
                -0.7071966131935616,
                -0.6522923236714828,
                1.445362872478681,
                1.9272071723210176,
                -2.055887558082731,
                0.041451767174517165
            ]
        },
        {
            "positions": [
                -0.6161776640946293,
                -0.6486052236347605,
                1.3488651929684998,
                1.827548569487695,
                -1.974671948746471,
                0.06031231514270759
            ]
        },
        {
            "positions": [
                -0.5251587149956969,
                -0.6449181235980382,
                1.2523675134583185,
                1.7278899666543723,
                -1.8934563394102113,
                0.07917286311089801
            ]
        },
        {
            "positions": [
                -0.4341397658967646,
                -0.641231023561316,
                1.1558698339481377,
                1.6282313638210497,
                -1.8122407300739516,
                0.09803341107908843
            ]
        },
        {
            "positions": [
                -0.34312081679783224,
                -0.6375439235245937,
                1.0593721544379564,
                1.5285727609877269,
                -1.7310251207376917,
                0.11689395904727885
            ]
        },
        {
            "positions": [
                -0.2521018676989,
                -0.6338568234878714,
                0.9628744749277753,
                1.4289141581544043,
                -1.649809511401432,
                0.13575450701546926
            ]
        },
        {
            "positions": [
                -0.16108291859996762,
                -0.6301697234511492,
                0.8663767954175943,
                1.3292555553210816,
                -1.5685939020651722,
                0.15461505498365968
            ]
        },
        {
            "positions": [
                -0.17645951406983273,
                -0.6488551571050429,
                0.8889704036730084,
                1.2188517504734753,
                -1.4673741829430282,
                0.27855520346450574
            ]
        },
        {
            "positions": [
                -0.19183610953969782,
                -0.6675405907589366,
                0.9115640119284226,
                1.1084479456258691,
                -1.366154463820884,
                0.4024953519453518
            ]
        },
        {
            "positions": [
                -0.2311034610300431,
                -0.6872364469101625,
                0.9595012875859237,
                1.02390235127162,
                -1.2859810456070275,
                0.5217849861680731
            ]
        },
        {
            "positions": [
                -0.27037081252038836,
                -0.7069323030613885,
                1.0074385632434248,
                0.9393567569173712,
                -1.2058076273931708,
                0.6410746203907944
            ]
        },
        {
            "positions": [
                -0.30963816401073363,
                -0.7266281592126145,
                1.0553758389009258,
                0.8548111625631223,
                -1.1256342091793143,
                0.7603642546135156
            ]
        },
        {
            "positions": [
                -0.34890551550107884,
                -0.7463240153638405,
                1.103313114558427,
                0.7702655682088733,
                -1.0454607909654579,
                0.8796538888362371
            ]
        },
        {
            "positions": [
                -0.3881728669914241,
                -0.7660198715150665,
                1.1512503902159281,
                0.6857199738546244,
                -0.9652873727516011,
                0.9989435230589583
            ]
        },
        {
            "positions": [
                -0.4274402184817694,
                -0.7857157276662925,
                1.199187665873429,
                0.6011743795003754,
                -0.8851139545377447,
                1.1182331572816797
            ]
        },
        {
            "positions": [
                -0.46670756997211466,
                -0.8054115838175184,
                1.2471249415309302,
                0.5166287851461264,
                -0.804940536323888,
                1.237522791504401
            ]
        },
        {
            "positions": [
                -0.5059749214624599,
                -0.8251074399687445,
                1.2950622171884312,
                0.4320831907918775,
                -0.7247671181100315,
                1.3568124257271221
            ]
        },
        {
            "positions": [
                -0.5452422729528053,
                -0.8448032961199704,
                1.3429994928459323,
                0.3475375964376285,
                -0.6445936998961749,
                1.4761020599498436
            ]
        },
        {
            "positions": [
                -0.5845096244431505,
                -0.8644991522711964,
                1.3909367685034333,
                0.2629920020833796,
                -0.5644202816823183,
                1.5953916941725648
            ]
        },
        {
            "positions": [
                -0.6237769759334957,
                -0.8841950084224224,
                1.4388740441609347,
                0.17844640772913056,
                -0.4842468634684617,
                1.7146813283952862
            ]
        },
        {
            "positions": [
                -0.6630443274238409,
                -0.9038908645736484,
                1.4868113198184356,
                0.09390081337488176,
                -0.4040734452546052,
                1.8339709626180074
            ]
        },
        {
            "positions": [
                -0.7023116789141861,
                -0.9235867207248744,
                1.5347485954759366,
                0.009355219020632743,
                -0.3239000270407486,
                1.9532605968407286
            ]
        },
        {
            "positions": [
                -0.7415790304045315,
                -0.9432825768761004,
                1.5826858711334377,
                -0.07519037533361628,
                -0.2437266088268919,
                2.0725502310634503
            ]
        },
        {
            "positions": [
                -0.7808463818948768,
                -0.9629784330273263,
                1.630623146790939,
                -0.1597359696878653,
                -0.16355319061303542,
                2.1918398652861715
            ]
        },
        {
            "positions": [
                -0.820113733385222,
                -0.9826742891785523,
                1.6785604224484398,
                -0.2442815640421141,
                -0.08337977239917893,
                2.3111294995088927
            ]
        },
        {
            "positions": [
                -0.8593810848755672,
                -1.0023701453297784,
                1.7264976981059408,
                -0.3288271583963629,
                -0.0032063541853224464,
                2.430419133731614
            ]
        },
        {
            "positions": [
                -0.8986484363659126,
                -1.0220660014810043,
                1.7744349737634422,
                -0.41337275275061214,
                0.07696706402853426,
                2.5497087679543355
            ]
        },
        {
            "positions": [
                -0.9379157878562578,
                -1.0417618576322303,
                1.8223722494209431,
                -0.49791834710486094,
                0.15714048224239074,
                2.6689984021770563
            ]
        },
        {
            "positions": [
                -0.9771831393466031,
                -1.0614577137834562,
                1.870309525078444,
                -0.58246394145911,
                0.23731390045624745,
                2.788288036399778
            ]
        },
        {
            "positions": [
                -1.0164504908369483,
                -1.0811535699346821,
                1.9182468007359454,
                -0.6670095358133588,
                0.31748731867010394,
                2.9075776706224987
            ]
        },
        {
            "positions": [
                -1.0557178423272937,
                -1.1008494260859083,
                1.9661840763934464,
                -0.751555130167608,
                0.39766073688396064,
                3.0268673048452204
            ]
        },
        {
            "positions": [
                -1.094985193817639,
                -1.1205452822371342,
                2.0141213520509473,
                -0.8361007245218568,
                0.477834155097817,
                3.1461569390679416
            ]
        }
    ]
}