{
    "goal": {
        "global_pose": {
            "orientation": {
                "w": 0.5084816217422485,
                "x": -0.49083608388900757,
                "y": 0.5182115435600281,
                "z": -0.4816462993621826
            },
            "position": {
                "x": 0.5540239810943604,
                "y": 0.030875300988554955,
                "z": 0.16403168439865112
            }
        },
        "name": "move_to_storage_A"
    },
    "id": "STRIDE_move_to_storage_A_55",
    "joint_names": [
        "shoulder_pan_joint",
        "shoulder_lift_joint",
        "elbow_joint",
        "wrist_1_joint",
        "wrist_2_joint",
        "wrist_3_joint"
    ],
    "metrics": {
        "cart_traj_len": 0.35286667916332226,
        "distance_elbow_joint": 0.4530243474173534,
        "distance_shoulder_lift_joint": 0.23164840822105548,
        "distance_shoulder_pan_joint": 0.45860775280551835,
        "distance_wrist_1_joint": 0.26320334792728983,
        "distance_wrist_2_joint": 1.109199586596261,
        "distance_wrist_3_joint": 0.10686113272964537,
        "smoothness": 1.3322676365830568e-15,
        "time": 0.015402518,
        "traj_len": 1.6194272369257976,
        "weighted_distance": 2.051504271426205
    },
    "planner": "STRIDE",
    "start": {
        "state": {
            "elbow_joint": 1.971548259319323,
            "shoulder_lift_joint": -1.1394851275133948,
            "shoulder_pan_joint": 0.1228115487234821,
            "wrist_1_joint": -0.7804723859257726,
            "wrist_2_joint": 0.12958671773740124,
            "wrist_3_joint": -3.192489227718131
        }
    },
    "waypoints": [
        {
            "positions": [
                0.1228115487234821,
                -1.1394851275133948,
                1.971548259319323,
                -0.7804723859257726,
                0.12958671773740124,
                -3.192489227718131
            ]
        },
        {
            "positions": [
                0.057296155465550905,
                -1.17257775725926,
                2.0362660232360876,
                -0.8180728642010997,
                0.2880438015368671,
                -3.177223351613896
            ]
        },
        {
            "positions": [
                -0.00821923779238029,
                -1.2056703870051249,
                2.1009837871528525,
                -0.8556733424764269,
                0.4465008853363329,
                -3.161957475509661
            ]
        },
        {
            "positions": [
                -0.07373463105031147,
                -1.23876301675099,
                2.1657015510696174,
                -0.893273820751754,
                0.6049579691357988,
                -3.146691599405426
            ]
        },
        {
            "positions": [
                -0.13925002430824268,
                -1.2718556464968551,
                2.2304193149863822,
                -0.9308742990270811,
                0.7634150529352647,
                -3.131425723301191
            ]
        },
        {
            "positions": [
                -0.2047654175661739,
                -1.3049482762427203,
                2.2951370789031467,
                -0.9684747773024083,
                0.9218721367347306,
                -3.116159847196956
            ]
        },
        {
            "positions": [
                -0.27028081082410504,
                -1.3380409059885852,
                2.3598548428199115,
                -1.0060752555777353,
                1.0803292205341963,
                -3.100893971092721
            ]
        },
        {
            "positions": [
                -0.33579620408203625,
                -1.3711335357344503,
                2.4245726067366764,
                -1.0436757338530624,
                1.2387863043336622,
                -3.085628094988486
            ]
        }
    ]
}{
    "goal": {
        "global_pose": {
            "orientation": {
                "w": 0.5084816217422485,
                "x": -0.49083608388900757,
                "y": 0.5182115435600281,
                "z": -0.4816462993621826
            },
            "position": {
                "x": 0.5540239810943604,
                "y": 0.030875300988554955,
                "z": 0.16403168439865112
            }
        },
        "name": "move_to_storage_A"
    },
    "id": "STRIDE_move_to_storage_A_55",
    "joint_names": [
        "shoulder_pan_joint",
        "shoulder_lift_joint",
        "elbow_joint",
        "wrist_1_joint",
        "wrist_2_joint",
        "wrist_3_joint"
    ],
    "metrics": {
        "cart_traj_len": 0.35217998645094345,
        "distance_elbow_joint": 0.45164239991311117,
        "distance_shoulder_lift_joint": 0.23340641048598676,
        "distance_shoulder_pan_joint": 0.45907740130885943,
        "distance_wrist_1_joint": 0.25329121362379015,
        "distance_wrist_2_joint": 1.102880777301,
        "distance_wrist_3_joint": 0.09973821125028381,
        "smoothness": 4.440892098500626e-16,
        "time": 0.070178585,
        "traj_len": 1.612462841085968,
        "weighted_distance": 2.0385496872307014
    },
    "planner": "STRIDE",
    "start": {
        "state": {
            "elbow_joint": 1.97154746011099,
            "shoulder_lift_joint": -1.13948474672311,
            "shoulder_pan_joint": 0.12281154466712228,
            "wrist_1_joint": -0.7804688027058302,
            "wrist_2_joint": 0.12958655903071145,
            "wrist_3_joint": 3.0906928834467795
        }
    },
    "waypoints": [
        {
            "positions": [
                0.12281154466712228,
                -1.13948474672311,
                1.97154746011099,
                -0.7804688027058302,
                0.12958655903071145,
                3.0906928834467795
            ]
        },
        {
            "positions": [
                0.057229058765856655,
                -1.1728285196496795,
                2.03606780295572,
                -0.816653261794943,
                0.28714095578799714,
                3.1049411993396774
            ]
        },
        {
            "positions": [
                -0.008353427135408972,
                -1.206172292576249,
                2.10058814580045,
                -0.852837720884056,
                0.4446953525452829,
                3.119189515232575
            ]
        },
        {
            "positions": [
                -0.07393591303667461,
                -1.2395160655028186,
                2.1651084886451804,
                -0.8890221799731688,
                0.6022497493025686,
                3.1334378311254727
            ]
        },
        {
            "positions": [
                -0.1395183989379402,
                -1.272859838429388,
                2.2296288314899106,
                -0.9252066390622817,
                0.7598041460598544,
                3.14768614701837
            ]
        },
        {
            "positions": [
                -0.20510088483920585,
                -1.3062036113559576,
                2.294149174334641,
                -0.9613910981513946,
                0.9173585428171401,
                3.161934462911268
            ]
        },
        {
            "positions": [
                -0.2706833707404715,
                -1.3395473842825272,
                2.358669517179371,
                -0.9975755572405074,
                1.0749129395744257,
                3.1761827788041654
            ]
        },
        {
            "positions": [
                -0.33626585664173714,
                -1.3728911572090967,
                2.423189860024101,
                -1.0337600163296203,
                1.2324673363317116,
                3.1904310946970633
            ]
        }
    ]
}{
    "goal": {
        "global_pose": {
            "orientation": {
                "w": 0.5084816217422485,
                "x": -0.49083608388900757,
                "y": 0.5182115435600281,
                "z": -0.4816462993621826
            },
            "position": {
                "x": 0.5540239810943604,
                "y": 0.030875300988554955,
                "z": 0.16403168439865112
            }
        },
        "name": "move_to_storage_A"
    },
    "id": "STRIDE_move_to_storage_A_55",
    "joint_names": [
        "shoulder_pan_joint",
        "shoulder_lift_joint",
        "elbow_joint",
        "wrist_1_joint",
        "wrist_2_joint",
        "wrist_3_joint"
    ],
    "metrics": {
        "cart_traj_len": 0.3526534241173037,
        "distance_elbow_joint": 0.44993096686753953,
        "distance_shoulder_lift_joint": 0.2327896929506581,
        "distance_shoulder_pan_joint": 0.4580233281499678,
        "distance_wrist_1_joint": 0.2508330673810757,
        "distance_wrist_2_joint": 1.1101394952206487,
        "distance_wrist_3_joint": 0.09712111358886277,
        "smoothness": 4.440892098500626e-16,
        "time": 0.107720206,
        "traj_len": 1.6120910843245653,
        "weighted_distance": 2.0381492717507723
    },
    "planner": "STRIDE",
    "start": {
        "state": {
            "elbow_joint": 1.9715472970024885,
            "shoulder_lift_joint": -1.1394870060712896,
            "shoulder_pan_joint": 0.12281152778156021,
            "wrist_1_joint": -0.780463741449964,
            "wrist_2_joint": 0.12958659822042276,
            "wrist_3_joint": 3.090690232415272
        }
    },
    "waypoints": [
        {
            "positions": [
                0.12281152778156021,
                -1.1394870060712896,
                1.9715472970024885,
                -0.780463741449964,
                0.12958659822042276,
                3.090690232415272
            ]
        },
        {
            "positions": [
                0.057379623760136236,
                -1.1727426764928122,
                2.035823149412137,
                -0.8162970367901177,
                0.28817795468051544,
                3.104564677213681
            ]
        },
        {
            "positions": [
                -0.008052280261287736,
                -1.2059983469143347,
                2.1000990018217855,
                -0.8521303321302713,
                0.44676931114060814,
                3.1184391220120897
            ]
        },
        {
            "positions": [
                -0.0734841842827117,
                -1.2392540173358573,
                2.164374854231434,
                -0.887963627470425,
                0.6053606676007007,
                3.132313566810499
            ]
        },
        {
            "positions": [
                -0.13891608830413568,
                -1.2725096877573798,
                2.2286507066410826,
                -0.9237969228105787,
                0.7639520240607934,
                3.1461880116089076
            ]
        },
        {
            "positions": [
                -0.2043479923255597,
                -1.3057653581789026,
                2.292926559050731,
                -0.9596302181507324,
                0.9225433805208861,
                3.1600624564073168
            ]
        },
        {
            "positions": [
                -0.2697798963469836,
                -1.3390210286004252,
                2.3572024114603796,
                -0.995463513490886,
                1.0811347369809787,
                3.1739369012057255
            ]
        },
        {
            "positions": [
                -0.3352118003684076,
                -1.3722766990219477,
                2.421478263870028,
                -1.0312968088310397,
                1.2397260934410714,
                3.1878113460041346
            ]
        }
    ]
}