{
    "goal": {
        "global_pose": {
            "orientation": {
                "w": -0.00223480608172531,
                "x": 0.0024358444001904467,
                "y": 0.7094548369677653,
                "z": -0.704743149386269
            },
            "position": {
                "x": -0.37947507619857795,
                "y": -0.6371506643295288,
                "z": 0.19426114857196808
            }
        },
        "name": "move_to_magneteinheit_C"
    },
    "id": "STRIDE_move_to_magneteinheit_C_7",
    "joint_names": [
        "shoulder_pan_joint",
        "shoulder_lift_joint",
        "elbow_joint",
        "wrist_1_joint",
        "wrist_2_joint",
        "wrist_3_joint"
    ],
    "metrics": {
        "cart_traj_len": 1.0265449479210609,
        "distance_elbow_joint": 0.09195231246120583,
        "distance_shoulder_lift_joint": 0.45031338510385455,
        "distance_shoulder_pan_joint": 1.0602722998334622,
        "distance_wrist_1_joint": 0.9687256678630398,
        "distance_wrist_2_joint": 1.6660936893230587,
        "distance_wrist_3_joint": 0.796723937576937,
        "smoothness": 1.166249749821302,
        "time": 2.260664535,
        "traj_len": 2.2436758438244944,
        "weighted_distance": 3.0434106729952712
    },
    "planner": "STRIDE",
    "start": {
        "state": {
            "elbow_joint": 1.9565354010623817,
            "shoulder_lift_joint": -1.4165861575791021,
            "shoulder_pan_joint": -1.6717766225146293,
            "wrist_1_joint": -0.5286633292919765,
            "wrist_2_joint": 1.472756589071564,
            "wrist_3_joint": -3.1238370188695823
        }
    },
    "waypoints": [
        {
            "positions": [
                -1.6717766225146293,
                -1.4165861575791021,
                1.9565354010623817,
                -0.5286633292919765,
                1.472756589071564,
                -3.1238370188695823
            ]
        },
        {
            "positions": [
                -1.6178386544994459,
                -1.4222839963024945,
                1.952469648832865,
                -0.5157253986203642,
                1.452323083452763,
                -3.0720929811896713
            ]
        },
        {
            "positions": [
                -1.607136052699818,
                -1.4354603057992117,
                1.9504315223959336,
                -0.6074089770109505,
                1.278657172602391,
                -3.0234885691139257
            ]
        },
        {
            "positions": [
                -1.59643345090019,
                -1.448636615295929,
                1.9483933959590025,
                -0.699092555401537,
                1.104991261752019,
                -2.97488415703818
            ]
        },
        {
            "positions": [
                -1.5857308491005622,
                -1.4618129247926461,
                1.9463552695220712,
                -0.7907761337921235,
                0.9313253509016469,
                -2.9262797449624345
            ]
        },
        {
            "positions": [
                -1.5750282473009343,
                -1.4749892342893631,
                1.9443171430851398,
                -0.8824597121827099,
                0.757659440051275,
                -2.8776753328866893
            ]
        },
        {
            "positions": [
                -1.5643256455013064,
                -1.4881655437860803,
                1.9422790166482085,
                -0.9741432905732964,
                0.5839935292009029,
                -2.8290709208109437
            ]
        },
        {
            "positions": [
                -1.5536230437016785,
                -1.5013418532827976,
                1.9402408902112773,
                -1.0658268689638828,
                0.4103276183505309,
                -2.780466508735198
            ]
        },
        {
            "positions": [
                -1.5429204419020506,
                -1.5145181627795148,
                1.938202763774346,
                -1.1575104473544693,
                0.2366617075001588,
                -2.7318620966594525
            ]
        },
        {
            "positions": [
                -1.6370139508160193,
                -1.4713515636934036,
                1.954332632770551,
                -1.1274527507300112,
                0.29037083496483274,
                -2.8201408467367637
            ]
        },
        {
            "positions": [
                -1.7311074597299883,
                -1.4281849646072924,
                1.9704625017667563,
                -1.0973950541055533,
                0.34407996242950667,
                -2.908419596814075
            ]
        },
        {
            "positions": [
                -1.825200968643957,
                -1.3850183655211812,
                1.9865923707629614,
                -1.0673373574810952,
                0.3977890898941806,
                -2.996698346891386
            ]
        },
        {
            "positions": [
                -1.9874848667637013,
                -1.3292979698599041,
                1.9928998878091,
                -1.0113799578351081,
                0.4650069462335885,
                -3.0316765381751045
            ]
        },
        {
            "positions": [
                -2.1497687648834454,
                -1.273577574198627,
                1.9992074048552388,
                -0.955422558189121,
                0.5322248025729964,
                -3.066654729458823
            ]
        },
        {
            "positions": [
                -2.3120526630031897,
                -1.21785717853735,
                2.0055149219013773,
                -0.8994651585431339,
                0.5994426589124043,
                -3.1016329207425413
            ]
        },
        {
            "positions": [
                -2.474336561122934,
                -1.162136782876073,
                2.011822438947516,
                -0.8435077588971469,
                0.6666605152518122,
                -3.1366111120262596
            ]
        }
    ]
}