{
    "goal": {
        "global_pose": {
            "orientation": {
                "w": 0.5084816217422485,
                "x": -0.49083608388900757,
                "y": 0.5182115435600281,
                "z": -0.4816462993621826
            },
            "position": {
                "x": 0.5540239810943604,
                "y": 0.030875300988554955,
                "z": 0.16403168439865112
            }
        },
        "name": "move_to_storage_A"
    },
    "id": "STRIDE_move_to_storage_A_134",
    "joint_names": [
        "shoulder_pan_joint",
        "shoulder_lift_joint",
        "elbow_joint",
        "wrist_1_joint",
        "wrist_2_joint",
        "wrist_3_joint"
    ],
    "metrics": {
        "cart_traj_len": 0.3525042924111821,
        "distance_elbow_joint": 0.45127341808532795,
        "distance_shoulder_lift_joint": 0.23464962513711995,
        "distance_shoulder_pan_joint": 0.46149489811836963,
        "distance_wrist_1_joint": 0.2453018317722343,
        "distance_wrist_2_joint": 1.095899740931602,
        "distance_wrist_3_joint": 0.09964118772734176,
        "smoothness": 2.2204460668324854e-16,
        "time": 0.041595876000000004,
        "traj_len": 1.6088072295250277,
        "weighted_distance": 2.031931261123396
    },
    "planner": "STRIDE",
    "start": {
        "state": {
            "elbow_joint": 1.971548259319323,
            "shoulder_lift_joint": -1.1394851275133948,
            "shoulder_pan_joint": 0.1228115487234821,
            "wrist_1_joint": -0.7804723859257726,
            "wrist_2_joint": 0.12958671773740124,
            "wrist_3_joint": -3.192489227718131
        }
    },
    "waypoints": [
        {
            "positions": [
                0.1228115487234821,
                -1.1394851275133948,
                1.971548259319323,
                -0.7804723859257726,
                0.12958671773740124,
                -3.192489227718131
            ]
        },
        {
            "positions": [
                0.05688370613514358,
                -1.1730065025329834,
                2.0360158904743697,
                -0.8155155047503775,
                0.28614382358477297,
                -3.178254772328511
            ]
        },
        {
            "positions": [
                -0.009044136453194934,
                -1.2065278775525718,
                2.1004835216294167,
                -0.8505586235749825,
                0.4427009294321447,
                -3.1640203169388905
            ]
        },
        {
            "positions": [
                -0.07497197904153344,
                -1.2400492525721605,
                2.1649511527844636,
                -0.8856017423995873,
                0.5992580352795164,
                -3.14978586154927
            ]
        },
        {
            "positions": [
                -0.14089982162987197,
                -1.273570627591749,
                2.2294187839395105,
                -0.9206448612241922,
                0.7558151411268881,
                -3.1355514061596503
            ]
        },
        {
            "positions": [
                -0.20682766421821053,
                -1.3070920026113377,
                2.2938864150945575,
                -0.9556879800487972,
                0.9123722469742599,
                -3.12131695077003
            ]
        },
        {
            "positions": [
                -0.272755506806549,
                -1.3406133776309261,
                2.358354046249604,
                -0.9907310988734019,
                1.0689293528216315,
                -3.1070824953804097
            ]
        },
        {
            "positions": [
                -0.33868334939488753,
                -1.3741347526505148,
                2.422821677404651,
                -1.025774217698007,
                1.2254864586690033,
                -3.0928480399907894
            ]
        }
    ]
}{
    "goal": {
        "global_pose": {
            "orientation": {
                "w": 0.5084816217422485,
                "x": -0.49083608388900757,
                "y": 0.5182115435600281,
                "z": -0.4816462993621826
            },
            "position": {
                "x": 0.5540239810943604,
                "y": 0.030875300988554955,
                "z": 0.16403168439865112
            }
        },
        "name": "move_to_storage_A"
    },
    "id": "STRIDE_move_to_storage_A_134",
    "joint_names": [
        "shoulder_pan_joint",
        "shoulder_lift_joint",
        "elbow_joint",
        "wrist_1_joint",
        "wrist_2_joint",
        "wrist_3_joint"
    ],
    "metrics": {
        "cart_traj_len": 0.35291993562258916,
        "distance_elbow_joint": 0.4491039332399951,
        "distance_shoulder_lift_joint": 0.23590647210725701,
        "distance_shoulder_pan_joint": 0.46029037488377345,
        "distance_wrist_1_joint": 0.24072328328778902,
        "distance_wrist_2_joint": 1.1039860840070892,
        "distance_wrist_3_joint": 0.09898077175954967,
        "smoothness": 8.881784232165597e-16,
        "time": 0.04600894,
        "traj_len": 1.609034157277419,
        "weighted_distance": 2.032648968734993
    },
    "planner": "STRIDE",
    "start": {
        "state": {
            "elbow_joint": 1.97154746011099,
            "shoulder_lift_joint": -1.13948474672311,
            "shoulder_pan_joint": 0.12281154466712228,
            "wrist_1_joint": -0.7804688027058302,
            "wrist_2_joint": 0.12958655903071145,
            "wrist_3_joint": 3.0906928834467795
        }
    },
    "waypoints": [
        {
            "positions": [
                0.12281154466712228,
                -1.13948474672311,
                1.97154746011099,
                -0.7804688027058302,
                0.12958655903071145,
                3.0906928834467795
            ]
        },
        {
            "positions": [
                0.05705577682658322,
                -1.173185671309861,
                2.0357051648595608,
                -0.8148578431755144,
                0.2872988567460099,
                3.104832993698144
            ]
        },
        {
            "positions": [
                -0.00869999101395584,
                -1.206886595896612,
                2.099862869608131,
                -0.8492468836451985,
                0.44501115446130834,
                3.118973103949508
            ]
        },
        {
            "positions": [
                -0.07445575885449489,
                -1.240587520483363,
                2.164020574356702,
                -0.8836359241148826,
                0.6027234521766068,
                3.1331132142008724
            ]
        },
        {
            "positions": [
                -0.14021152669503395,
                -1.274288445070114,
                2.228178279105273,
                -0.9180249645845667,
                0.7604357498919053,
                3.1472533244522363
            ]
        },
        {
            "positions": [
                -0.20596729453557305,
                -1.307989369656865,
                2.2923359838538437,
                -0.9524140050542509,
                0.9181480476072038,
                3.1613934347036006
            ]
        },
        {
            "positions": [
                -0.27172306237611205,
                -1.341690294243616,
                2.356493688602414,
                -0.986803045523935,
                1.0758603453225022,
                3.175533544954965
            ]
        },
        {
            "positions": [
                -0.33747883021665115,
                -1.375391218830367,
                2.420651393350985,
                -1.0211920859936192,
                1.2335726430378007,
                3.189673655206329
            ]
        }
    ]
}{
    "goal": {
        "global_pose": {
            "orientation": {
                "w": 0.5084816217422485,
                "x": -0.49083608388900757,
                "y": 0.5182115435600281,
                "z": -0.4816462993621826
            },
            "position": {
                "x": 0.5540239810943604,
                "y": 0.030875300988554955,
                "z": 0.16403168439865112
            }
        },
        "name": "move_to_storage_A"
    },
    "id": "STRIDE_move_to_storage_A_134",
    "joint_names": [
        "shoulder_pan_joint",
        "shoulder_lift_joint",
        "elbow_joint",
        "wrist_1_joint",
        "wrist_2_joint",
        "wrist_3_joint"
    ],
    "metrics": {
        "cart_traj_len": 0.35309402367832093,
        "distance_elbow_joint": 0.4541925717617685,
        "distance_shoulder_lift_joint": 0.23583697242407586,
        "distance_shoulder_pan_joint": 0.4638256836568822,
        "distance_wrist_1_joint": 0.2590311487753785,
        "distance_wrist_2_joint": 1.090824971326274,
        "distance_wrist_3_joint": 0.09305927300285166,
        "smoothness": 1.3322676330666223e-15,
        "time": 0.081391573,
        "traj_len": 1.611449850584011,
        "weighted_distance": 2.0329154648077687
    },
    "planner": "STRIDE",
    "start": {
        "state": {
            "elbow_joint": 1.9715472970024885,
            "shoulder_lift_joint": -1.1394870060712896,
            "shoulder_pan_joint": 0.12281152778156021,
            "wrist_1_joint": -0.780463741449964,
            "wrist_2_joint": 0.12958659822042276,
            "wrist_3_joint": 3.090690232415272
        }
    },
    "waypoints": [
        {
            "positions": [
                0.12281152778156021,
                -1.1394870060712896,
                1.9715472970024885,
                -0.780463741449964,
                0.12958659822042276,
                3.090690232415272
            ]
        },
        {
            "positions": [
                0.05655071583057705,
                -1.1731780021318718,
                2.0364319501113126,
                -0.817468191275018,
                0.28541873698131903,
                3.103984414272822
            ]
        },
        {
            "positions": [
                -0.009710096120406103,
                -1.206868998192454,
                2.1013166032201367,
                -0.8544726411000721,
                0.44125087574221533,
                3.1172785961303724
            ]
        },
        {
            "positions": [
                -0.07597090807138926,
                -1.2405599942530363,
                2.1662012563289608,
                -0.8914770909251262,
                0.5970830145031116,
                3.1305727779879224
            ]
        },
        {
            "positions": [
                -0.14223172002237242,
                -1.2742509903136185,
                2.231085909437785,
                -0.9284815407501803,
                0.7529151532640079,
                3.143866959845473
            ]
        },
        {
            "positions": [
                -0.20849253197335563,
                -1.307941986374201,
                2.295970562546609,
                -0.9654859905752343,
                0.9087472920249042,
                3.157161141703023
            ]
        },
        {
            "positions": [
                -0.2747533439243387,
                -1.3416329824347832,
                2.360855215655433,
                -1.0024904404002883,
                1.0645794307858005,
                3.1704553235605735
            ]
        },
        {
            "positions": [
                -0.34101415587532197,
                -1.3753239784953655,
                2.425739868764257,
                -1.0394948902253425,
                1.2204115695466968,
                3.1837495054181235
            ]
        }
    ]
}