{
    "goal": {
        "global_pose": {
            "orientation": {
                "w": -0.00223480608172531,
                "x": 0.0024358444001904467,
                "y": 0.7094548369677653,
                "z": -0.704743149386269
            },
            "position": {
                "x": -0.37947507619857795,
                "y": -0.6371506643295288,
                "z": 0.19426114857196808
            }
        },
        "name": "move_to_magneteinheit_C"
    },
    "id": "STRIDE_move_to_magneteinheit_C_29",
    "joint_names": [
        "shoulder_pan_joint",
        "shoulder_lift_joint",
        "elbow_joint",
        "wrist_1_joint",
        "wrist_2_joint",
        "wrist_3_joint"
    ],
    "metrics": {
        "cart_traj_len": 2.137819933299682,
        "distance_elbow_joint": 1.117949702311821,
        "distance_shoulder_lift_joint": 0.4906471482227326,
        "distance_shoulder_pan_joint": 2.4354876913256405,
        "distance_wrist_1_joint": 3.6100193165007948,
        "distance_wrist_2_joint": 2.7572894464287687,
        "distance_wrist_3_joint": 5.573715774991616,
        "smoothness": 1.2079504844877413,
        "time": 1.1430502100000002,
        "traj_len": 3.998138201686052,
        "weighted_distance": 5.787905440890873
    },
    "planner": "STRIDE",
    "start": {
        "state": {
            "elbow_joint": 1.9565354010623817,
            "shoulder_lift_joint": -1.4165861575791021,
            "shoulder_pan_joint": -1.6717766225146293,
            "wrist_1_joint": -0.5286633292919765,
            "wrist_2_joint": 1.472756589071564,
            "wrist_3_joint": -3.1238370188695823
        }
    },
    "waypoints": [
        {
            "positions": [
                -1.6717766225146293,
                -1.4165861575791021,
                1.9565354010623817,
                -0.5286633292919765,
                1.472756589071564,
                -3.1238370188695823
            ]
        },
        {
            "positions": [
                -1.6103607302290277,
                -1.4402581803944077,
                1.935820475942089,
                -0.49069836763624564,
                1.4148928867335844,
                -2.9311400073500935
            ]
        },
        {
            "positions": [
                -1.548944837943426,
                -1.4639302032097132,
                1.915105550821796,
                -0.4527334059805148,
                1.3570291843956046,
                -2.738442995830605
            ]
        },
        {
            "positions": [
                -1.4875289456578242,
                -1.4876022260250186,
                1.8943906257015033,
                -0.414768444324784,
                1.299165482057625,
                -2.5457459843111163
            ]
        },
        {
            "positions": [
                -1.4261130533722226,
                -1.5112742488403241,
                1.8736757005812104,
                -0.37680348266905317,
                1.2413017797196453,
                -2.353048972791628
            ]
        },
        {
            "positions": [
                -1.364697161086621,
                -1.5349462716556297,
                1.8529607754609176,
                -0.33883852101332235,
                1.1834380773816657,
                -2.160351961272139
            ]
        },
        {
            "positions": [
                -1.434164114537708,
                -1.520613763531344,
                1.8198953001144698,
                -0.2868065665663737,
                1.0746086303687492,
                -2.065340485519624
            ]
        },
        {
            "positions": [
                -1.5036310679887952,
                -1.5062812554070582,
                1.7868298247680219,
                -0.23477461211942502,
                0.9657791833558329,
                -1.9703290097671087
            ]
        },
        {
            "positions": [
                -1.5730980214398822,
                -1.4919487472827724,
                1.753764349421574,
                -0.18274265767247636,
                0.8569497363429165,
                -1.8753175340145933
            ]
        },
        {
            "positions": [
                -1.6425649748909694,
                -1.4776162391584864,
                1.7206988740751263,
                -0.1307107032255277,
                0.7481202893300001,
                -1.7803060582620782
            ]
        },
        {
            "positions": [
                -1.7120319283420564,
                -1.4632837310342006,
                1.6876333987286785,
                -0.078678748778579,
                0.6392908423170837,
                -1.6852945825095629
            ]
        },
        {
            "positions": [
                -1.7814988817931434,
                -1.4489512229099148,
                1.6545679233822306,
                -0.026646794331630363,
                0.5304613953041672,
                -1.5902831067570475
            ]
        },
        {
            "positions": [
                -1.8509658352442306,
                -1.434618714785629,
                1.6215024480357827,
                0.025385160115318273,
                0.42163194829125095,
                -1.4952716310045324
            ]
        },
        {
            "positions": [
                -1.9204327886953176,
                -1.4202862066613433,
                1.5884369726893348,
                0.07741711456226696,
                0.3128025012783344,
                -1.4002601552520173
            ]
        },
        {
            "positions": [
                -1.9898997421464046,
                -1.4059536985370575,
                1.555371497342887,
                0.1294490690092156,
                0.20397305426541812,
                -1.305248679499502
            ]
        },
        {
            "positions": [
                -2.059366695597492,
                -1.3916211904127715,
                1.5223060219964393,
                0.18148102345616435,
                0.0951436072525016,
                -1.2102372037469866
            ]
        },
        {
            "positions": [
                -2.1288336490485786,
                -1.3772886822884858,
                1.4892405466499914,
                0.23351297790311287,
                -0.013685839760414709,
                -1.1152257279944715
            ]
        },
        {
            "positions": [
                -2.198300602499666,
                -1.3629561741642,
                1.4561750713035435,
                0.2855449323500616,
                -0.12251528677333123,
                -1.0202142522419562
            ]
        },
        {
            "positions": [
                -2.267767555950753,
                -1.3486236660399142,
                1.4231095959570956,
                0.33757688679701026,
                -0.23134473378624754,
                -0.925202776489441
            ]
        },
        {
            "positions": [
                -2.4096615509847923,
                -1.3042925089847808,
                1.4261126997001397,
                0.31544857336173326,
                -0.2838330886297678,
                -1.0520879273927184
            ]
        },
        {
            "positions": [
                -2.4575132597214755,
                -1.2974198270906359,
                1.4335159481269033,
                0.17387488113234145,
                -0.2856820997711645,
                -1.2424682944671686
            ]
        },
        {
            "positions": [
                -2.5053649684581587,
                -1.290547145196491,
                1.4409191965536672,
                0.03230118890294964,
                -0.28753111091256117,
                -1.4328486615416187
            ]
        },
        {
            "positions": [
                -2.553216677194842,
                -1.2836744633023458,
                1.4483224449804308,
                -0.10927250332644223,
                -0.28938012205395786,
                -1.6232290286160689
            ]
        },
        {
            "positions": [
                -2.601068385931525,
                -1.2768017814082009,
                1.4557256934071947,
                -0.250846195555834,
                -0.29122913319535454,
                -1.813609395690519
            ]
        },
        {
            "positions": [
                -2.6489200946682083,
                -1.269929099514056,
                1.4631289418339584,
                -0.39241988778522596,
                -0.2930781443367512,
                -2.003989762764969
            ]
        },
        {
            "positions": [
                -2.6967718034048915,
                -1.263056417619911,
                1.4705321902607222,
                -0.5339935800146177,
                -0.29492715547814796,
                -2.1943701298394194
            ]
        },
        {
            "positions": [
                -2.7446235121415747,
                -1.2561837357257661,
                1.477935438687486,
                -0.6755672722440096,
                -0.29677616661954465,
                -2.38475049691387
            ]
        },
        {
            "positions": [
                -2.792475220878258,
                -1.2493110538316212,
                1.4853386871142495,
                -0.8171409644734012,
                -0.29862517776094133,
                -2.5751308639883197
            ]
        },
        {
            "positions": [
                -2.840326929614941,
                -1.2424383719374763,
                1.4927419355410134,
                -0.9587146567027932,
                -0.300474188902338,
                -2.7655112310627703
            ]
        },
        {
            "positions": [
                -2.8881786383516244,
                -1.2355656900433312,
                1.500145183967777,
                -1.1002883489321853,
                -0.3023232000437347,
                -2.9558915981372205
            ]
        },
        {
            "positions": [
                -2.9360303470883076,
                -1.2286930081491862,
                1.507548432394541,
                -1.2418620411615766,
                -0.3041722111851314,
                -3.1462719652116706
            ]
        },
        {
            "positions": [
                -2.9838820558249908,
                -1.2218203262550413,
                1.5149516808213046,
                -1.3834357333909688,
                -0.30602122232652806,
                -3.336652332286121
            ]
        },
        {
            "positions": [
                -2.9300100450323794,
                -1.2148726548351867,
                1.5605910357598907,
                -1.2845050706864483,
                -0.2145942265963397,
                -3.2647550466709507
            ]
        },
        {
            "positions": [
                -2.876138034239768,
                -1.207924983415332,
                1.6062303906984765,
                -1.1855744079819277,
                -0.12316723086615133,
                -3.192857761055781
            ]
        },
        {
            "positions": [
                -2.8222660234471566,
                -1.2009773119954776,
                1.6518697456370623,
                -1.0866437452774074,
                -0.03174023513596297,
                -3.120960475440611
            ]
        },
        {
            "positions": [
                -2.768394012654545,
                -1.194029640575623,
                1.6975091005756484,
                -0.9877130825728868,
                0.059686760594225396,
                -3.049063189825441
            ]
        },
        {
            "positions": [
                -2.714522001861934,
                -1.1870819691557684,
                1.7431484555142345,
                -0.8887824198683663,
                0.15111375632441376,
                -2.977165904210271
            ]
        },
        {
            "positions": [
                -2.6606499910693224,
                -1.180134297735914,
                1.7887878104528203,
                -0.7898517571638457,
                0.24254075205460213,
                -2.905268618595101
            ]
        },
        {
            "positions": [
                -2.606777980276711,
                -1.1731866263160593,
                1.8344271653914062,
                -0.6909210944593253,
                0.33396774778479055,
                -2.8333713329799313
            ]
        },
        {
            "positions": [
                -2.5529059694840996,
                -1.1662389548962047,
                1.8800665203299922,
                -0.5919904317548047,
                0.42539474351497886,
                -2.761474047364761
            ]
        },
        {
            "positions": [
                -2.526823553211309,
                -1.165045715767278,
                1.9225888446078716,
                -0.6690974912840261,
                0.5077599665780357,
                -2.8909586113292396
            ]
        },
        {
            "positions": [
                -2.500741136938519,
                -1.1638524766383513,
                1.9651111688857512,
                -0.7462045508132473,
                0.5901251896410924,
                -3.0204431752937184
            ]
        },
        {
            "positions": [
                -2.4746587206657282,
                -1.1626592375094247,
                2.0076334931636306,
                -0.8233116103424687,
                0.6724904127041492,
                -3.149927739258197
            ]
        }
    ]
}