{
    "goal": {
        "global_pose": {
            "orientation": {
                "w": 0.005598929693374612,
                "x": 0.007748599140229565,
                "y": 0.7110244013736278,
                "z": -0.7031023480610252
            },
            "position": {
                "x": 0.1141497679147869,
                "y": -0.7141253447532654,
                "z": 0.3711530566215515
            }
        },
        "name": "move_to_auspresseinheit_B"
    },
    "id": "STRIDE_move_to_auspresseinheit_B_98",
    "joint_names": [
        "shoulder_pan_joint",
        "shoulder_lift_joint",
        "elbow_joint",
        "wrist_1_joint",
        "wrist_2_joint",
        "wrist_3_joint"
    ],
    "metrics": {
        "cart_traj_len": 0.5646758293888132,
        "distance_elbow_joint": 0.05944284263174682,
        "distance_shoulder_lift_joint": 0.29650027797563494,
        "distance_shoulder_pan_joint": 0.5791890061879141,
        "distance_wrist_1_joint": 0.31989246557757034,
        "distance_wrist_2_joint": 0.9848834639601984,
        "distance_wrist_3_joint": 0.0057800061828170435,
        "smoothness": 0.0,
        "time": 0.168483551,
        "traj_len": 1.4985619982222562,
        "weighted_distance": 1.8873325102957572
    },
    "planner": "STRIDE",
    "start": {
        "state": {
            "elbow_joint": 2.0193083361928714,
            "shoulder_lift_joint": -1.1220246554650708,
            "shoulder_pan_joint": -1.0952077554168747,
            "wrist_1_joint": -0.8559753972642168,
            "wrist_2_joint": 0.4759566250798843,
            "wrist_3_joint": -3.1240929996934557
        }
    },
    "waypoints": [
        {
            "positions": [
                -1.0952077554168747,
                -1.1220246554650708,
                2.0193083361928714,
                -0.8559753972642168,
                0.4759566250798843,
                -3.1240929996934557
            ]
        },
        {
            "positions": [
                -1.1917392564481937,
                -1.1714413684610099,
                2.009401195754247,
                -0.8026599863346218,
                0.6401038690732507,
                -3.1250563340572586
            ]
        },
        {
            "positions": [
                -1.2882707574795127,
                -1.2208580814569492,
                1.9994940553156224,
                -0.7493445754050266,
                0.804251113066617,
                -3.1260196684210615
            ]
        },
        {
            "positions": [
                -1.3848022585108317,
                -1.2702747944528883,
                1.989586914876998,
                -0.6960291644754316,
                0.9683983570599835,
                -3.126983002784864
            ]
        },
        {
            "positions": [
                -1.4813337595421507,
                -1.3196915074488274,
                1.9796797744383736,
                -0.6427137535458366,
                1.13254560105335,
                -3.127946337148667
            ]
        },
        {
            "positions": [
                -1.5778652605734698,
                -1.3691082204447667,
                1.969772633999749,
                -0.5893983426162415,
                1.2966928450467163,
                -3.12890967151247
            ]
        },
        {
            "positions": [
                -1.6743967616047888,
                -1.4185249334407057,
                1.9598654935611246,
                -0.5360829316866464,
                1.4608400890400828,
                -3.1298730058762727
            ]
        }
    ]
}