{
    "goal": {
        "global_pose": {
            "orientation": {
                "w": 0.7047431468963623,
                "x": -0.7094548344612122,
                "y": 0.0024358443915843964,
                "z": -0.0022348060738295317
            },
            "position": {
                "x": 0.6094750761985779,
                "y": 0.3671506643295288,
                "z": 0.19426114857196808
            }
        },
        "name": "move_to_magneteinheit_A"
    },
    "id": "STRIDE_move_to_magneteinheit_A_24",
    "joint_names": [
        "shoulder_pan_joint",
        "shoulder_lift_joint",
        "elbow_joint",
        "wrist_1_joint",
        "wrist_2_joint",
        "wrist_3_joint"
    ],
    "metrics": {
        "cart_traj_len": 3.306485657279879,
        "distance_elbow_joint": 3.910851514549859,
        "distance_shoulder_lift_joint": 0.4689965472494886,
        "distance_shoulder_pan_joint": 2.845843848987712,
        "distance_wrist_1_joint": 3.4724423994253035,
        "distance_wrist_2_joint": 1.4475680320664868,
        "distance_wrist_3_joint": 0.5810876725805563,
        "smoothness": 0.03276580913317659,
        "time": 0.13697378999999998,
        "traj_len": 3.567462685839812,
        "weighted_distance": 4.336931610195427
    },
    "planner": "STRIDE",
    "start": {
        "state": {
            "elbow_joint": -1.9196185241190666,
            "shoulder_lift_joint": -1.2443396400964142,
            "shoulder_pan_joint": 2.6996025414629847,
            "wrist_1_joint": -1.5485510000780065,
            "wrist_2_joint": -1.5709468930060704,
            "wrist_3_joint": 0.4420197071253992
        }
    },
    "waypoints": [
        {
            "positions": [
                2.6996025414629847,
                -1.2443396400964142,
                -1.9196185241190666,
                -1.5485510000780065,
                -1.5709468930060704,
                0.4420197071253992
            ]
        },
        {
            "positions": [
                2.599187462207097,
                -1.2294473998668465,
                -1.8218971719603272,
                -1.4399283526929383,
                -1.5254644861795559,
                0.42320930480557817
            ]
        },
        {
            "positions": [
                2.49877238295121,
                -1.214555159637279,
                -1.724175819801588,
                -1.33130570530787,
                -1.4799820793530414,
                0.4043989024857572
            ]
        },
        {
            "positions": [
                2.3983573036953225,
                -1.1996629194077113,
                -1.6264544676428485,
                -1.2226830579228019,
                -1.4344996725265269,
                0.3855885001659362
            ]
        },
        {
            "positions": [
                2.297942224439435,
                -1.1847706791781438,
                -1.5287331154841093,
                -1.1140604105377336,
                -1.3890172657000124,
                0.3667780978461152
            ]
        },
        {
            "positions": [
                2.197527145183548,
                -1.1698784389485761,
                -1.4310117633253698,
                -1.0054377631526654,
                -1.3435348588734979,
                0.34796769552629425
            ]
        },
        {
            "positions": [
                2.0971120659276603,
                -1.1549861987190084,
                -1.3332904111666304,
                -0.8968151157675971,
                -1.2980524520469834,
                0.32915729320647324
            ]
        },
        {
            "positions": [
                1.9966969866717732,
                -1.140093958489441,
                -1.2355690590078912,
                -0.7881924683825289,
                -1.2525700452204689,
                0.31034689088665224
            ]
        },
        {
            "positions": [
                1.8962819074158856,
                -1.1252017182598733,
                -1.1378477068491517,
                -0.6795698209974607,
                -1.2070876383939544,
                0.29153648856683123
            ]
        },
        {
            "positions": [
                1.7958668281599983,
                -1.1103094780303058,
                -1.0401263546904125,
                -0.5709471736123924,
                -1.1616052315674399,
                0.2727260862470103
            ]
        },
        {
            "positions": [
                1.695451748904111,
                -1.095417237800738,
                -0.942405002531673,
                -0.46232452622732434,
                -1.1161228247409254,
                0.2539156839271893
            ]
        },
        {
            "positions": [
                1.5950366696482234,
                -1.0805249975711706,
                -0.8446836503729336,
                -0.3537018788422559,
                -1.0706404179144107,
                0.2351052816073683
            ]
        },
        {
            "positions": [
                1.494621590392336,
                -1.065632757341603,
                -0.7469622982141944,
                -0.24507923145718769,
                -1.0251580110878962,
                0.21629487928754731
            ]
        },
        {
            "positions": [
                1.3942065111364488,
                -1.0507405171120352,
                -0.6492409460554549,
                -0.13645658407211947,
                -0.9796756042613818,
                0.1974844769677263
            ]
        },
        {
            "positions": [
                1.2937914318805614,
                -1.0358482768824677,
                -0.5515195938967157,
                -0.027833936687051253,
                -0.9341931974348673,
                0.1786740746479053
            ]
        },
        {
            "positions": [
                1.193376352624674,
                -1.0209560366529,
                -0.453798241737976,
                0.08078871069801696,
                -0.8887107906083528,
                0.1598636723280843
            ]
        },
        {
            "positions": [
                1.0929612733687866,
                -1.0060637964233325,
                -0.3560768895792368,
                0.18941135808308518,
                -0.8432283837818383,
                0.14105327000826334
            ]
        },
        {
            "positions": [
                0.992546194112899,
                -0.9911715561937648,
                -0.2583555374204973,
                0.2980340054681536,
                -0.7977459769553238,
                0.12224286768844234
            ]
        },
        {
            "positions": [
                0.8921311148570119,
                -0.9762793159641973,
                -0.1606341852617581,
                0.4066566528532216,
                -0.7522635701288093,
                0.10343246536862138
            ]
        },
        {
            "positions": [
                0.7917160356011244,
                -0.9613870757346297,
                -0.06291283310301865,
                0.51527930023829,
                -0.7067811633022947,
                0.08462206304880032
            ]
        },
        {
            "positions": [
                0.6913009563452372,
                -0.946494835505062,
                0.03480851905572058,
                0.6239019476233578,
                -0.6612987564757803,
                0.06581166072897937
            ]
        },
        {
            "positions": [
                0.5908858770893497,
                -0.9316025952754944,
                0.13252987121446003,
                0.7325245950084265,
                -0.6158163496492657,
                0.047001258409158364
            ]
        },
        {
            "positions": [
                0.49047079783346215,
                -0.9167103550459268,
                0.23025122337319948,
                0.8411472423934947,
                -0.5703339428227512,
                0.028190856089337413
            ]
        },
        {
            "positions": [
                0.3900557185775746,
                -0.9018181148163591,
                0.3279725755319389,
                0.9497698897785629,
                -0.5248515359962367,
                0.009380453769516406
            ]
        },
        {
            "positions": [
                0.2896406393216875,
                -0.8869258745867916,
                0.42569392769067793,
                1.0583925371636311,
                -0.4793691291697222,
                -0.009429948550304545
            ]
        },
        {
            "positions": [
                0.18922556006579994,
                -0.8720336343572239,
                0.5234152798494174,
                1.1670151845486993,
                -0.4338867223432077,
                -0.028240350870125608
            ]
        },
        {
            "positions": [
                0.08881048080991283,
                -0.8571413941276564,
                0.6211366320081568,
                1.2756378319337676,
                -0.3884043155166932,
                -0.04705075318994656
            ]
        },
        {
            "positions": [
                -0.011604598445974522,
                -0.8422491538980887,
                0.7188579841668962,
                1.3842604793188358,
                -0.34292190869017863,
                -0.06586115550976754
            ]
        },
        {
            "positions": [
                -0.007212369028123011,
                -0.8259514861366402,
                0.9143231118241553,
                1.4933713320145485,
                -0.30456861289314574,
                -0.05713466392680993
            ]
        },
        {
            "positions": [
                -0.0028201396102714993,
                -0.8096538183751915,
                1.1097882394814143,
                1.602482184710261,
                -0.2662153170961129,
                -0.04840817234385232
            ]
        },
        {
            "positions": [
                0.028642922950491027,
                -0.801076136993125,
                1.3301494272187586,
                1.68283448836952,
                -0.23050620305698058,
                -0.03446971564898376
            ]
        },
        {
            "positions": [
                0.060105985511253554,
                -0.7924984556110586,
                1.5505106149561032,
                1.7631867920287791,
                -0.19479708901784826,
                -0.020531258954115197
            ]
        },
        {
            "positions": [
                0.09156904807201607,
                -0.7839207742289921,
                1.7708718026934478,
                1.8435390956880382,
                -0.15908797497871593,
                -0.006592802259246633
            ]
        },
        {
            "positions": [
                0.12303211063277861,
                -0.7753430928469256,
                1.9912329904307922,
                1.9238913993472972,
                -0.12337886093958363,
                0.007345654435621928
            ]
        }
    ]
}