{
    "goal": {
        "global_pose": {
            "orientation": {
                "w": 0.7031023502349854,
                "x": -0.7110244035720825,
                "y": 0.007748599164187908,
                "z": 0.005598929710686207
            },
            "position": {
                "x": 0.11585023208521307,
                "y": 0.44412534475326537,
                "z": 0.3711530566215515
            }
        },
        "name": "move_to_auspresseinheit_A"
    },
    "id": "STRIDE_move_to_auspresseinheit_A_1",
    "joint_names": [
        "shoulder_pan_joint",
        "shoulder_lift_joint",
        "elbow_joint",
        "wrist_1_joint",
        "wrist_2_joint",
        "wrist_3_joint"
    ],
    "metrics": {
        "cart_traj_len": 1.3812313968004948,
        "distance_elbow_joint": 1.3310078149015911,
        "distance_shoulder_lift_joint": 0.9673067694939208,
        "distance_shoulder_pan_joint": 1.0400663776211905,
        "distance_wrist_1_joint": 1.450378624619239,
        "distance_wrist_2_joint": 1.664499367723088,
        "distance_wrist_3_joint": 2.4065603995977827,
        "smoothness": 0.826151494166637,
        "time": 0.909227888,
        "traj_len": 2.9765448684602105,
        "weighted_distance": 4.097294002813895
    },
    "planner": "STRIDE",
    "start": {
        "state": {
            "elbow_joint": 2.4225746658250005,
            "shoulder_lift_joint": -1.3736534386056498,
            "shoulder_pan_joint": -0.3378633547517467,
            "wrist_1_joint": -1.0288598680537169,
            "wrist_2_joint": 1.233022673432363,
            "wrist_3_joint": -3.0940220416140027
        }
    },
    "waypoints": [
        {
            "positions": [
                -0.3378633547517467,
                -1.3736534386056498,
                2.4225746658250005,
                -1.0288598680537169,
                1.233022673432363,
                -3.0940220416140027
            ]
        },
        {
            "positions": [
                -0.28961624808530023,
                -1.4273027449450524,
                2.3739822176324905,
                -0.9569355167104002,
                1.1543765454402268,
                -3.009901912757116
            ]
        },
        {
            "positions": [
                -0.2413691414188538,
                -1.4809520512844547,
                2.3253897694399805,
                -0.8850111653670835,
                1.0757304174480906,
                -2.9257817839002285
            ]
        },
        {
            "positions": [
                -0.1931220347524073,
                -1.534601357623857,
                2.276797321247471,
                -0.8130868140237668,
                0.9970842894559545,
                -2.8416616550433416
            ]
        },
        {
            "positions": [
                -0.14487492808596084,
                -1.5882506639632596,
                2.228204873054961,
                -0.74116246268045,
                0.9184381614638184,
                -2.757541526186454
            ]
        },
        {
            "positions": [
                -0.09662782141951434,
                -1.6418999703026622,
                2.179612424862451,
                -0.6692381113371334,
                0.8397920334716822,
                -2.6734213973295673
            ]
        },
        {
            "positions": [
                -0.04838071475306788,
                -1.6955492766420646,
                2.131019976669941,
                -0.5973137599938168,
                0.761145905479546,
                -2.5893012684726804
            ]
        },
        {
            "positions": [
                -0.00013360808662138401,
                -1.749198582981467,
                2.0824275284774316,
                -0.5253894086505,
                0.6824997774874098,
                -2.505181139615793
            ]
        },
        {
            "positions": [
                0.048113498579825054,
                -1.8028478893208695,
                2.0338350802849217,
                -0.45346505730718334,
                0.6038536494952736,
                -2.421061010758906
            ]
        },
        {
            "positions": [
                0.0963606052462716,
                -1.856497195660272,
                1.9852426320924117,
                -0.3815407059638666,
                0.5252075215031373,
                -2.3369408819020188
            ]
        },
        {
            "positions": [
                0.14460771191271804,
                -1.9101465019996744,
                1.9366501838999017,
                -0.3096163546205499,
                0.4465613935110012,
                -2.252820753045132
            ]
        },
        {
            "positions": [
                0.19285481857916448,
                -1.9637958083390767,
                1.888057735707392,
                -0.23769200327723317,
                0.367915265518865,
                -2.1687006241882445
            ]
        },
        {
            "positions": [
                0.24110192524561097,
                -2.0174451146784795,
                1.8394652875148823,
                -0.16576765193391652,
                0.2892691375267289,
                -2.0845804953313576
            ]
        },
        {
            "positions": [
                0.28934903191205746,
                -2.071094421017882,
                1.7908728393223723,
                -0.09384330059059975,
                0.21062300953459268,
                -2.0004603664744707
            ]
        },
        {
            "positions": [
                0.3375961385785039,
                -2.1247437273572842,
                1.7422803911298623,
                -0.021918949247283024,
                0.1319768815424564,
                -1.9163402376175833
            ]
        },
        {
            "positions": [
                0.37169261468000303,
                -2.109545745303067,
                1.830339966553923,
                -0.037105963649429766,
                0.18382313024062835,
                -2.0708996624913065
            ]
        },
        {
            "positions": [
                0.4057890907815021,
                -2.09434776324885,
                1.918399541977984,
                -0.05229297805157651,
                0.2356693789388003,
                -2.2254590873650297
            ]
        },
        {
            "positions": [
                0.4398855668830012,
                -2.0791497811946322,
                2.006459117402045,
                -0.06747999245372324,
                0.28751562763697225,
                -2.380018512238753
            ]
        },
        {
            "positions": [
                0.4739820429845003,
                -2.063951799140415,
                2.0945186928261057,
                -0.08266700685586999,
                0.3393618763351442,
                -2.534577937112476
            ]
        },
        {
            "positions": [
                0.5088612777314245,
                -2.0413239420190776,
                2.1600617269669473,
                -0.12682535389290503,
                0.3961901579672493,
                -2.659160857372247
            ]
        },
        {
            "positions": [
                0.5437405124783489,
                -2.01869608489774,
                2.225604761107789,
                -0.17098370092994009,
                0.4530184395993544,
                -2.783743777632018
            ]
        },
        {
            "positions": [
                0.5759211710366394,
                -1.9970546216927028,
                2.272358068357681,
                -0.22132242353176756,
                0.503790529592139,
                -2.877169916552695
            ]
        },
        {
            "positions": [
                0.6180151216475742,
                -1.9675454966668011,
                2.3125700226838926,
                -0.30266716737454125,
                0.567670505519972,
                -2.9665195554414456
            ]
        },
        {
            "positions": [
                0.6601090722585089,
                -1.9380363716408995,
                2.3527819770101037,
                -0.384011911217315,
                0.6315504814478049,
                -3.055869194330196
            ]
        },
        {
            "positions": [
                0.7022030228694437,
                -1.9085272466149978,
                2.3929939313363153,
                -0.4653566550600887,
                0.6954304573756379,
                -3.1452188332189466
            ]
        }
    ]
}