{
    "goal": {
        "global_pose": {
            "orientation": {
                "w": 0.7031023480610252,
                "x": -0.7110244013736278,
                "y": 0.0077485991402295624,
                "z": 0.005598929693374583
            },
            "position": {
                "x": -0.8841497679147869,
                "y": 0.44412534475326537,
                "z": 0.3711530566215515
            }
        },
        "name": "move_to_auspresseinheit_D"
    },
    "id": "STRIDE_move_to_auspresseinheit_D_103",
    "joint_names": [
        "shoulder_pan_joint",
        "shoulder_lift_joint",
        "elbow_joint",
        "wrist_1_joint",
        "wrist_2_joint",
        "wrist_3_joint"
    ],
    "metrics": {
        "cart_traj_len": 0.34349032053421846,
        "distance_elbow_joint": 0.6533542318452921,
        "distance_shoulder_lift_joint": 0.13046688251726435,
        "distance_shoulder_pan_joint": 0.13382469982495093,
        "distance_wrist_1_joint": 0.5756388133432568,
        "distance_wrist_2_joint": 1.4446509202694158,
        "distance_wrist_3_joint": 0.03616233478479414,
        "smoothness": 0.0,
        "time": 0.399056811,
        "traj_len": 1.7245573004643755,
        "weighted_distance": 2.2509358688703762
    },
    "planner": "STRIDE",
    "start": {
        "state": {
            "elbow_joint": -1.8275523626775212,
            "shoulder_lift_joint": -2.126789852344167,
            "shoulder_pan_joint": -0.03513704404078235,
            "wrist_1_joint": -2.347782403156801,
            "wrist_2_joint": -1.6058999987535132,
            "wrist_3_joint": -3.0880379163319196
        }
    },
    "waypoints": [
        {
            "positions": [
                -0.03513704404078235,
                -2.126789852344167,
                -1.8275523626775212,
                -2.347782403156801,
                -1.6058999987535132,
                -3.0880379163319196
            ]
        },
        {
            "positions": [
                -0.051865131518901215,
                -2.143098212658825,
                -1.7458830836968597,
                -2.419737254824708,
                -1.4253186337198362,
                -3.0835176244838203
            ]
        },
        {
            "positions": [
                -0.06859321899702009,
                -2.159406572973483,
                -1.6642138047161983,
                -2.491692106492615,
                -1.2447372686861593,
                -3.078997332635721
            ]
        },
        {
            "positions": [
                -0.08532130647513894,
                -2.175714933288141,
                -1.5825445257355366,
                -2.5636469581605223,
                -1.0641559036524821,
                -3.0744770407876216
            ]
        },
        {
            "positions": [
                -0.10204939395325782,
                -2.192023293602799,
                -1.5008752467548752,
                -2.6356018098284295,
                -0.8835745386188053,
                -3.0699567489395223
            ]
        },
        {
            "positions": [
                -0.11877748143137667,
                -2.208331653917457,
                -1.4192059677742137,
                -2.7075566614963362,
                -0.7029931735851284,
                -3.0654364570914234
            ]
        },
        {
            "positions": [
                -0.13550556890949556,
                -2.224640014232115,
                -1.337536688793552,
                -2.7795115131642434,
                -0.5224118085514513,
                -3.060916165243324
            ]
        },
        {
            "positions": [
                -0.1522336563876144,
                -2.240948374546773,
                -1.2558674098128906,
                -2.8514663648321505,
                -0.34183044351777436,
                -3.056395873395225
            ]
        },
        {
            "positions": [
                -0.1689617438657333,
                -2.257256734861431,
                -1.1741981308322291,
                -2.9234212165000577,
                -0.16124907848409734,
                -3.0518755815471255
            ]
        }
    ]
}