{
    "goal": {
        "global_pose": {
            "orientation": {
                "w": -0.4816463035849501,
                "x": 0.5182115481033762,
                "y": 0.4908360881923453,
                "z": -0.5084816262002911
            },
            "position": {
                "x": -0.8240239810943604,
                "y": -0.300875300988555,
                "z": 0.16403168439865112
            }
        },
        "name": "move_to_storage_C"
    },
    "id": "STRIDE_move_to_storage_C_101",
    "joint_names": [
        "shoulder_pan_joint",
        "shoulder_lift_joint",
        "elbow_joint",
        "wrist_1_joint",
        "wrist_2_joint",
        "wrist_3_joint"
    ],
    "metrics": {
        "cart_traj_len": 0.5764328427000167,
        "distance_elbow_joint": 0.25956405287535134,
        "distance_shoulder_lift_joint": 0.1884916290556765,
        "distance_shoulder_pan_joint": 0.4949503516317848,
        "distance_wrist_1_joint": 0.08502356997884286,
        "distance_wrist_2_joint": 1.0637426806759853,
        "distance_wrist_3_joint": 0.07212597425324319,
        "smoothness": 0.0,
        "time": 0.129932806,
        "traj_len": 1.4710194623018702,
        "weighted_distance": 1.8592784776983244
    },
    "planner": "STRIDE",
    "start": {
        "state": {
            "elbow_joint": 2.010868314990456,
            "shoulder_lift_joint": -1.1634956873337592,
            "shoulder_pan_joint": -2.4736205022346125,
            "wrist_1_joint": -0.8367026794202681,
            "wrist_2_joint": 0.6746043897044499,
            "wrist_3_joint": -3.1496632123970403
        }
    },
    "waypoints": [
        {
            "positions": [
                -2.4736205022346125,
                -1.1634956873337592,
                2.010868314990456,
                -0.8367026794202681,
                0.6746043897044499,
                -3.1496632123970403
            ]
        },
        {
            "positions": [
                -2.556112227506577,
                -1.1320804158244797,
                1.9676076395112305,
                -0.8225320844237943,
                0.8518948364837808,
                -3.1376422166881666
            ]
        },
        {
            "positions": [
                -2.6386039527785408,
                -1.1006651443152005,
                1.9243469640320054,
                -0.8083614894273204,
                1.0291852832631116,
                -3.1256212209792924
            ]
        },
        {
            "positions": [
                -2.7210956780505047,
                -1.069249872805921,
                1.8810862885527802,
                -0.7941908944308467,
                1.2064757300424427,
                -3.1136002252704187
            ]
        },
        {
            "positions": [
                -2.803587403322469,
                -1.0378346012966415,
                1.8378256130735549,
                -0.7800202994343729,
                1.3837661768217733,
                -3.101579229561545
            ]
        },
        {
            "positions": [
                -2.8860791285944334,
                -1.006419329787362,
                1.7945649375943298,
                -0.765849704437899,
                1.5610566236011043,
                -3.089558233852671
            ]
        },
        {
            "positions": [
                -2.9685708538663973,
                -0.9750040582780827,
                1.7513042621151045,
                -0.7516791094414252,
                1.7383470703804351,
                -3.077537238143797
            ]
        }
    ]
}