{
    "goal": {
        "global_pose": {
            "orientation": {
                "w": -0.00223480608172531,
                "x": 0.0024358444001904467,
                "y": 0.7094548369677653,
                "z": -0.704743149386269
            },
            "position": {
                "x": 0.6205249238014221,
                "y": -0.6371506643295288,
                "z": 0.19426114857196808
            }
        },
        "name": "move_to_magneteinheit_B"
    },
    "id": "STRIDE_move_to_magneteinheit_B_45",
    "joint_names": [
        "shoulder_pan_joint",
        "shoulder_lift_joint",
        "elbow_joint",
        "wrist_1_joint",
        "wrist_2_joint",
        "wrist_3_joint"
    ],
    "metrics": {
        "cart_traj_len": 1.488034067142339,
        "distance_elbow_joint": 1.0914302538565233,
        "distance_shoulder_lift_joint": 1.0243033022302341,
        "distance_shoulder_pan_joint": 1.619631349226381,
        "distance_wrist_1_joint": 0.3045310432610937,
        "distance_wrist_2_joint": 2.150614811411073,
        "distance_wrist_3_joint": 0.7843867838512186,
        "smoothness": 1.021450304258749,
        "time": 0.189208704,
        "traj_len": 2.641003132114107,
        "weighted_distance": 3.3164464365056654
    },
    "planner": "STRIDE",
    "start": {
        "state": {
            "elbow_joint": 2.6216224122426386,
            "shoulder_lift_joint": -1.4174107377796124,
            "shoulder_pan_joint": 0.7066234856936794,
            "wrist_1_joint": 1.9546482284002225,
            "wrist_2_joint": -0.7096286983471962,
            "wrist_3_joint": 0.005740856962016249
        }
    },
    "waypoints": [
        {
            "positions": [
                0.7066234856936794,
                -1.4174107377796124,
                2.6216224122426386,
                1.9546482284002225,
                -0.7096286983471962,
                0.005740856962016249
            ]
        },
        {
            "positions": [
                0.659349225299815,
                -1.431929178546909,
                2.6103027073927283,
                1.9239299722642582,
                -0.6428662398360643,
                0.10540822097253856
            ]
        },
        {
            "positions": [
                0.6120749649059506,
                -1.446447619314206,
                2.5989830025428184,
                1.8932117161282942,
                -0.5761037813249323,
                0.2050755849830609
            ]
        },
        {
            "positions": [
                0.5101293686510248,
                -1.4984383346821915,
                2.6316542842704473,
                1.8980849159869342,
                -0.4879836505141629,
                0.2973881991998818
            ]
        },
        {
            "positions": [
                0.408183772396099,
                -1.5504290500501767,
                2.6643255659980767,
                1.9029581158455744,
                -0.3998635197033935,
                0.38970081341670265
            ]
        },
        {
            "positions": [
                0.3201043300008456,
                -1.491010050719532,
                2.597429013951314,
                1.9185146579303667,
                -0.5225868285545449,
                0.3630056915902672
            ]
        },
        {
            "positions": [
                0.23202488760559223,
                -1.4315910513888874,
                2.5305324619045506,
                1.9340712000151592,
                -0.6453101374056962,
                0.3363105697638317
            ]
        },
        {
            "positions": [
                0.1439454452103388,
                -1.3721720520582428,
                2.463635909857788,
                1.9496277420999515,
                -0.7680334462568476,
                0.30961544793739626
            ]
        },
        {
            "positions": [
                0.05586600281508547,
                -1.3127530527275981,
                2.3967393578110245,
                1.9651842841847438,
                -0.8907567551079989,
                0.2829203261109608
            ]
        },
        {
            "positions": [
                -0.032213439580167924,
                -1.2533340533969535,
                2.3298428057642617,
                1.980740826269536,
                -1.0134800639591501,
                0.25622520428452533
            ]
        },
        {
            "positions": [
                -0.12029288197542137,
                -1.1939150540663088,
                2.262946253717499,
                1.9962973683543286,
                -1.1362033728103016,
                0.22953008245808984
            ]
        },
        {
            "positions": [
                -0.2083723243706747,
                -1.1344960547356642,
                2.1960497016707357,
                2.011853910439121,
                -1.2589266816614528,
                0.20283496063165438
            ]
        },
        {
            "positions": [
                -0.29645176676592805,
                -1.0750770554050195,
                2.129153149623973,
                2.027410452523913,
                -1.3816499905126043,
                0.1761398388052189
            ]
        },
        {
            "positions": [
                -0.3845312091611814,
                -1.0156580560743749,
                2.0622565975772096,
                2.0429669946087055,
                -1.5043732993637555,
                0.14944471697878345
            ]
        },
        {
            "positions": [
                -0.47261065155643484,
                -0.9562390567437302,
                1.9953600455304468,
                2.0585235366934977,
                -1.6270966082149068,
                0.12274959515234801
            ]
        },
        {
            "positions": [
                -0.5606900939516881,
                -0.8968200574130856,
                1.928463493483684,
                2.07408007877829,
                -1.7498199170660582,
                0.09605447332591255
            ]
        },
        {
            "positions": [
                -0.6487695363469417,
                -0.8374010580824409,
                1.8615669414369207,
                2.0896366208630828,
                -1.8725432259172097,
                0.06935935149947703
            ]
        },
        {
            "positions": [
                -0.736848978742195,
                -0.7779820587517963,
                1.7946703893901579,
                2.105193162947875,
                -1.995266534768361,
                0.042664229673041565
            ]
        },
        {
            "positions": [
                -0.8249284211374484,
                -0.7185630594211516,
                1.7277738373433946,
                2.1207497050326674,
                -2.1179898436195126,
                0.0159691078466061
            ]
        },
        {
            "positions": [
                -0.9130078635327017,
                -0.659144060090507,
                1.6608772852966318,
                2.1363062471174596,
                -2.2407131524706636,
                -0.010726013979829372
            ]
        }
    ]
}