{
    "goal": {
        "global_pose": {
            "orientation": {
                "w": 0.5084816262002911,
                "x": -0.4908360881923452,
                "y": 0.5182115481033761,
                "z": -0.48164630358495003
            },
            "position": {
                "x": 0.5540239810943604,
                "y": -0.46912469901144505,
                "z": 0.16403168439865112
            }
        },
        "name": "move_to_storage_B"
    },
    "id": "STRIDE_move_to_storage_B_16",
    "joint_names": [
        "shoulder_pan_joint",
        "shoulder_lift_joint",
        "elbow_joint",
        "wrist_1_joint",
        "wrist_2_joint",
        "wrist_3_joint"
    ],
    "metrics": {
        "cart_traj_len": 0.6727643114201189,
        "distance_elbow_joint": 0.40989691601831346,
        "distance_shoulder_lift_joint": 0.4661908067626841,
        "distance_shoulder_pan_joint": 0.35186707158566055,
        "distance_wrist_1_joint": 2.9831666151907696,
        "distance_wrist_2_joint": 2.6999034404584332,
        "distance_wrist_3_joint": 3.176691769373098,
        "smoothness": 0.22704919156534029,
        "time": 0.09161786499999999,
        "traj_len": 3.1761165941112677,
        "weighted_distance": 4.703633724450104
    },
    "planner": "STRIDE",
    "start": {
        "state": {
            "elbow_joint": 1.664937868594044,
            "shoulder_lift_joint": -0.661644460510453,
            "shoulder_pan_joint": -0.9139846352900073,
            "wrist_1_joint": 2.146753192139373,
            "wrist_2_joint": -2.2341966793290973,
            "wrist_3_joint": 0.005466555786416001
        }
    },
    "waypoints": [
        {
            "positions": [
                -0.9139846352900073,
                -0.661644460510453,
                1.664937868594044,
                2.146753192139373,
                -2.2341966793290973,
                0.005466555786416001
            ]
        },
        {
            "positions": [
                -0.8855971986420239,
                -0.6568490377953338,
                1.6495516348299446,
                2.1270422871406893,
                -2.2004709533140403,
                -0.002425305603641137
            ]
        },
        {
            "positions": [
                -0.8291301127032549,
                -0.7145335532361783,
                1.6337478500062455,
                2.0297592428206177,
                -2.096846967392,
                0.015081154950002992
            ]
        },
        {
            "positions": [
                -0.8398106146632112,
                -0.7306819879804471,
                1.648896125903466,
                1.9151123361857372,
                -1.9943448182511467,
                -0.11097058294717287
            ]
        },
        {
            "positions": [
                -0.8504911166231676,
                -0.7468304227247159,
                1.6640444018006866,
                1.8004654295508566,
                -1.8918426691102932,
                -0.2370223208443487
            ]
        },
        {
            "positions": [
                -0.8611716185831239,
                -0.7629788574689848,
                1.6791926776979071,
                1.6858185229159761,
                -1.7893405199694397,
                -0.36307405874152454
            ]
        },
        {
            "positions": [
                -0.8718521205430801,
                -0.7791272922132535,
                1.694340953595128,
                1.5711716162810954,
                -1.6868383708285863,
                -0.4891257966387004
            ]
        },
        {
            "positions": [
                -0.8825326225030365,
                -0.7952757269575224,
                1.7094892294923485,
                1.4565247096462148,
                -1.584336221687733,
                -0.6151775345358764
            ]
        },
        {
            "positions": [
                -0.8932131244629928,
                -0.8114241617017912,
                1.724637505389569,
                1.3418778030113343,
                -1.4818340725468795,
                -0.7412292724330521
            ]
        },
        {
            "positions": [
                -0.9038936264229491,
                -0.82757259644606,
                1.7397857812867896,
                1.2272308963764536,
                -1.379331923406026,
                -0.8672810103302282
            ]
        },
        {
            "positions": [
                -0.9145741283829055,
                -0.8437210311903288,
                1.7549340571840102,
                1.112583989741573,
                -1.2768297742651726,
                -0.9933327482274039
            ]
        },
        {
            "positions": [
                -0.9252546303428618,
                -0.8598694659345976,
                1.7700823330812308,
                0.9979370831066927,
                -1.1743276251243193,
                -1.1193844861245799
            ]
        },
        {
            "positions": [
                -0.9359351323028181,
                -0.8760179006788664,
                1.7852306089784515,
                0.883290176471812,
                -1.0718254759834658,
                -1.2454362240217558
            ]
        },
        {
            "positions": [
                -0.9466156342627745,
                -0.8921663354231353,
                1.800378884875672,
                0.7686432698369314,
                -0.9693233268426125,
                -1.3714879619189315
            ]
        },
        {
            "positions": [
                -0.9572961362227308,
                -0.908314770167404,
                1.8155271607728927,
                0.6539963632020509,
                -0.8668211777017589,
                -1.4975396998161072
            ]
        },
        {
            "positions": [
                -0.9679766381826871,
                -0.9244632049116729,
                1.8306754366701132,
                0.5393494565671704,
                -0.7643190285609056,
                -1.6235914377132834
            ]
        },
        {
            "positions": [
                -0.9786571401426434,
                -0.9406116396559416,
                1.8458237125673338,
                0.4247025499322896,
                -0.6618168794200521,
                -1.7496431756104593
            ]
        },
        {
            "positions": [
                -0.9893376421025998,
                -0.9567600744002105,
                1.8609719884645544,
                0.3100556432974093,
                -0.5593147302791988,
                -1.8756949135076348
            ]
        },
        {
            "positions": [
                -1.0000181440625562,
                -0.9729085091444793,
                1.8761202643617751,
                0.19540873666252856,
                -0.4568125811383452,
                -2.001746651404811
            ]
        },
        {
            "positions": [
                -1.0106986460225125,
                -0.9890569438887482,
                1.8912685402589957,
                0.08076183002764803,
                -0.3543104319974917,
                -2.127798389301987
            ]
        },
        {
            "positions": [
                -1.0213791479824688,
                -1.0052053786330168,
                1.9064168161562163,
                -0.03388507660723228,
                -0.2518082828566386,
                -2.2538501271991627
            ]
        },
        {
            "positions": [
                -1.032059649942425,
                -1.0213538133772857,
                1.9215650920534368,
                -0.14853198324211325,
                -0.14930613371578505,
                -2.3799018650963384
            ]
        },
        {
            "positions": [
                -1.0427401519023813,
                -1.0375022481215546,
                1.9367133679506574,
                -0.2631788898769938,
                -0.04680398457493151,
                -2.5059536029935146
            ]
        },
        {
            "positions": [
                -1.0534206538623376,
                -1.0536506828658234,
                1.951861643847878,
                -0.37782579651187387,
                0.055698164565921804,
                -2.63200534089069
            ]
        },
        {
            "positions": [
                -1.0641011558222941,
                -1.069799117610092,
                1.9670099197450988,
                -0.49247270314675484,
                0.15820031370677512,
                -2.758057078787866
            ]
        },
        {
            "positions": [
                -1.0747816577822504,
                -1.085947552354361,
                1.9821581956423193,
                -0.6071196097816354,
                0.2607024628476289,
                -2.884108816685042
            ]
        },
        {
            "positions": [
                -1.0854621597422067,
                -1.1020959870986298,
                1.9973064715395399,
                -0.7217665164165159,
                0.3632046119884822,
                -3.0101605545822174
            ]
        },
        {
            "positions": [
                -1.096142661702163,
                -1.1182444218428986,
                2.0124547474367604,
                -0.8364134230513963,
                0.46570676112933557,
                -3.1362122924793936
            ]
        }
    ]
}