{
    "goal": {
        "global_pose": {
            "orientation": {
                "w": 0.7031023502349854,
                "x": -0.7110244035720825,
                "y": 0.007748599164187908,
                "z": 0.005598929710686207
            },
            "position": {
                "x": 0.11585023208521307,
                "y": 0.44412534475326537,
                "z": 0.3711530566215515
            }
        },
        "name": "move_to_auspresseinheit_A"
    },
    "id": "STRIDE_move_to_auspresseinheit_A_148",
    "joint_names": [
        "shoulder_pan_joint",
        "shoulder_lift_joint",
        "elbow_joint",
        "wrist_1_joint",
        "wrist_2_joint",
        "wrist_3_joint"
    ],
    "metrics": {
        "cart_traj_len": 0.7875546231943111,
        "distance_elbow_joint": 0.2165659909261155,
        "distance_shoulder_lift_joint": 0.6007959338856617,
        "distance_shoulder_pan_joint": 1.0436989862975916,
        "distance_wrist_1_joint": 0.5473367946771889,
        "distance_wrist_2_joint": 0.5253666811855228,
        "distance_wrist_3_joint": 1.0657738572558468,
        "smoothness": 0.7275282407204161,
        "time": 0.866147126,
        "traj_len": 1.999884557725252,
        "weighted_distance": 2.6839875995619527
    },
    "planner": "STRIDE",
    "start": {
        "state": {
            "elbow_joint": 2.4225746658250005,
            "shoulder_lift_joint": -1.3736534386056498,
            "shoulder_pan_joint": -0.3378633547517467,
            "wrist_1_joint": -1.0288598680537169,
            "wrist_2_joint": 1.233022673432363,
            "wrist_3_joint": -3.0940220416140027
        }
    },
    "waypoints": [
        {
            "positions": [
                -0.3378633547517467,
                -1.3736534386056498,
                2.4225746658250005,
                -1.0288598680537169,
                1.233022673432363,
                -3.0940220416140027
            ]
        },
        {
            "positions": [
                -0.2526762058733402,
                -1.452915851616348,
                2.4051905925721293,
                -0.9872555331578594,
                1.1811151008458616,
                -3.0200305902331617
            ]
        },
        {
            "positions": [
                -0.1674890569949337,
                -1.532178264627046,
                2.3878065193192577,
                -0.945651198262002,
                1.12920752825936,
                -2.94603913885232
            ]
        },
        {
            "positions": [
                -0.08230190811652716,
                -1.6114406776377443,
                2.3704224460663865,
                -0.9040468633661445,
                1.0772999556728586,
                -2.872047687471479
            ]
        },
        {
            "positions": [
                0.0028852407618793485,
                -1.6907030906484424,
                2.353038372813515,
                -0.862442528470287,
                1.0253923830863572,
                -2.7980562360906376
            ]
        },
        {
            "positions": [
                0.08807238964028591,
                -1.7699655036591406,
                2.3356542995606437,
                -0.8208381935744294,
                0.9734848104998557,
                -2.7240647847097965
            ]
        },
        {
            "positions": [
                0.1732595385186924,
                -1.8492279166698387,
                2.318270226307772,
                -0.779233858678572,
                0.9215772379133542,
                -2.6500733333289554
            ]
        },
        {
            "positions": [
                0.25844668739709886,
                -1.928490329680537,
                2.300886153054901,
                -0.7376295237827145,
                0.8696696653268527,
                -2.576081881948114
            ]
        },
        {
            "positions": [
                0.3118946628671505,
                -1.9415606015070415,
                2.362889703140302,
                -0.6731504577594669,
                0.8312723165179756,
                -2.703071942644828
            ]
        },
        {
            "positions": [
                0.41037990503682403,
                -1.933338408760974,
                2.3711081851579556,
                -0.6252436116637322,
                0.8003682354501918,
                -2.808282851868139
            ]
        },
        {
            "positions": [
                0.5088651472064976,
                -1.9251162160149065,
                2.3793266671756097,
                -0.5773367655679975,
                0.7694641543824079,
                -2.91349376109145
            ]
        },
        {
            "positions": [
                0.6073503893761711,
                -1.916894023268839,
                2.3875451491932633,
                -0.5294299194722627,
                0.7385600733146241,
                -3.018704670314761
            ]
        },
        {
            "positions": [
                0.7058356315458446,
                -1.9086718305227715,
                2.395763631210917,
                -0.481523073376528,
                0.7076559922468403,
                -3.123915579538072
            ]
        }
    ]
}