{
    "goal": {
        "global_pose": {
            "orientation": {
                "w": 0.7031023480610252,
                "x": -0.7110244013736278,
                "y": 0.0077485991402295624,
                "z": 0.005598929693374583
            },
            "position": {
                "x": -0.8841497679147869,
                "y": 0.44412534475326537,
                "z": 0.3711530566215515
            }
        },
        "name": "move_to_auspresseinheit_D"
    },
    "id": "STRIDE_move_to_auspresseinheit_D_93",
    "joint_names": [
        "shoulder_pan_joint",
        "shoulder_lift_joint",
        "elbow_joint",
        "wrist_1_joint",
        "wrist_2_joint",
        "wrist_3_joint"
    ],
    "metrics": {
        "cart_traj_len": 0.3436987560689825,
        "distance_elbow_joint": 0.6391353422527273,
        "distance_shoulder_lift_joint": 0.1214405844487425,
        "distance_shoulder_pan_joint": 0.13393680277632602,
        "distance_wrist_1_joint": 0.5232634466229356,
        "distance_wrist_2_joint": 1.448188593944759,
        "distance_wrist_3_joint": 0.00320607703694753,
        "smoothness": 0.0,
        "time": 0.03423993400000001,
        "traj_len": 1.6938627001863042,
        "weighted_distance": 2.20159829254204
    },
    "planner": "STRIDE",
    "start": {
        "state": {
            "elbow_joint": -1.8275523626775212,
            "shoulder_lift_joint": -2.126789852344167,
            "shoulder_pan_joint": -0.03513704404078235,
            "wrist_1_joint": -2.347782403156801,
            "wrist_2_joint": -1.6058999987535132,
            "wrist_3_joint": -3.0880379163319196
        }
    },
    "waypoints": [
        {
            "positions": [
                -0.03513704404078235,
                -2.126789852344167,
                -1.8275523626775212,
                -2.347782403156801,
                -1.6058999987535132,
                -3.0880379163319196
            ]
        },
        {
            "positions": [
                -0.0518791443878231,
                -2.1419699254002595,
                -1.7476604448959303,
                -2.4131903339846676,
                -1.4248764245104184,
                -3.088438675961538
            ]
        },
        {
            "positions": [
                -0.06862124473486386,
                -2.1571499984563527,
                -1.6677685271143394,
                -2.478598264812535,
                -1.2438528502673234,
                -3.0888394355911566
            ]
        },
        {
            "positions": [
                -0.0853633450819046,
                -2.1723300715124454,
                -1.5878766093327485,
                -2.5440061956404016,
                -1.0628292760242286,
                -3.089240195220775
            ]
        },
        {
            "positions": [
                -0.10210544542894537,
                -2.187510144568538,
                -1.5079846915511577,
                -2.609414126468269,
                -0.8818057017811337,
                -3.0896409548503936
            ]
        },
        {
            "positions": [
                -0.11884754577598611,
                -2.202690217624631,
                -1.4280927737695666,
                -2.6748220572961356,
                -0.7007821275380388,
                -3.090041714480012
            ]
        },
        {
            "positions": [
                -0.13558964612302687,
                -2.2178702906807235,
                -1.3482008559879757,
                -2.7402299881240024,
                -0.519758553294944,
                -3.09044247410963
            ]
        },
        {
            "positions": [
                -0.1523317464700676,
                -2.2330503637368166,
                -1.2683089382063848,
                -2.8056379189518696,
                -0.338734979051849,
                -3.090843233739249
            ]
        },
        {
            "positions": [
                -0.16907384681710838,
                -2.2482304367929093,
                -1.188417020424794,
                -2.8710458497797364,
                -0.15771140480875415,
                -3.091243993368867
            ]
        }
    ]
}