{
    "goal": {
        "global_pose": {
            "orientation": {
                "w": -0.4816463035849501,
                "x": 0.5182115481033762,
                "y": 0.4908360881923453,
                "z": -0.5084816262002911
            },
            "position": {
                "x": -0.8240239810943604,
                "y": -0.300875300988555,
                "z": 0.16403168439865112
            }
        },
        "name": "move_to_storage_C"
    },
    "id": "STRIDE_move_to_storage_C_5",
    "joint_names": [
        "shoulder_pan_joint",
        "shoulder_lift_joint",
        "elbow_joint",
        "wrist_1_joint",
        "wrist_2_joint",
        "wrist_3_joint"
    ],
    "metrics": {
        "cart_traj_len": 0.5759136379028729,
        "distance_elbow_joint": 0.2531507863681779,
        "distance_shoulder_lift_joint": 0.18866822557198104,
        "distance_shoulder_pan_joint": 0.4950456636416747,
        "distance_wrist_1_joint": 0.06357393738514339,
        "distance_wrist_2_joint": 1.0626161593486096,
        "distance_wrist_3_joint": 0.060686500597674886,
        "smoothness": 0.0,
        "time": 0.07049717,
        "traj_len": 1.4573061699290446,
        "weighted_distance": 1.8361112087350167
    },
    "planner": "STRIDE",
    "start": {
        "state": {
            "elbow_joint": 2.010868314990456,
            "shoulder_lift_joint": -1.1634956873337592,
            "shoulder_pan_joint": -2.4736205022346125,
            "wrist_1_joint": -0.8367026794202681,
            "wrist_2_joint": 0.6746043897044499,
            "wrist_3_joint": -3.1496632123970403
        }
    },
    "waypoints": [
        {
            "positions": [
                -2.4736205022346125,
                -1.1634956873337592,
                2.010868314990456,
                -0.8367026794202681,
                0.6746043897044499,
                -3.1496632123970403
            ]
        },
        {
            "positions": [
                -2.5561281128415585,
                -1.1320509830717624,
                1.968676517262426,
                -0.8261070231894109,
                0.8517070829292182,
                -3.1395487956307613
            ]
        },
        {
            "positions": [
                -2.638635723448504,
                -1.1006062788097655,
                1.9264847195343966,
                -0.8155113669585536,
                1.0288097761539865,
                -3.129434378864482
            ]
        },
        {
            "positions": [
                -2.7211433340554496,
                -1.0691615745477687,
                1.8842929218063669,
                -0.8049157107276964,
                1.2059124693787546,
                -3.119319962098203
            ]
        },
        {
            "positions": [
                -2.8036509446623956,
                -1.0377168702857718,
                1.8421011240783371,
                -0.7943200544968392,
                1.383015162603523,
                -3.109205545331924
            ]
        },
        {
            "positions": [
                -2.8861585552693416,
                -1.006272166023775,
                1.7999093263503076,
                -0.783724398265982,
                1.5601178558282913,
                -3.0990911285656444
            ]
        },
        {
            "positions": [
                -2.968666165876287,
                -0.9748274617617781,
                1.757717528622278,
                -0.7731287420351247,
                1.7372205490530594,
                -3.0889767117993654
            ]
        }
    ]
}