{
    "goal": {
        "global_pose": {
            "orientation": {
                "w": -0.4816463035849501,
                "x": 0.5182115481033762,
                "y": 0.4908360881923453,
                "z": -0.5084816262002911
            },
            "position": {
                "x": -0.8240239810943604,
                "y": -0.300875300988555,
                "z": 0.16403168439865112
            }
        },
        "name": "move_to_storage_C"
    },
    "id": "STRIDE_move_to_storage_C_89",
    "joint_names": [
        "shoulder_pan_joint",
        "shoulder_lift_joint",
        "elbow_joint",
        "wrist_1_joint",
        "wrist_2_joint",
        "wrist_3_joint"
    ],
    "metrics": {
        "cart_traj_len": 0.5767655540806822,
        "distance_elbow_joint": 0.2611463211604912,
        "distance_shoulder_lift_joint": 0.18988018756824365,
        "distance_shoulder_pan_joint": 0.49260098652338824,
        "distance_wrist_1_joint": 0.08388226528205467,
        "distance_wrist_2_joint": 1.080558627775953,
        "distance_wrist_3_joint": 0.06826465435988194,
        "smoothness": 2.5376526478085547e-16,
        "time": 0.018278697,
        "traj_len": 1.4752399949398107,
        "weighted_distance": 1.86475286417471
    },
    "planner": "STRIDE",
    "start": {
        "state": {
            "elbow_joint": 2.010868314990456,
            "shoulder_lift_joint": -1.1634956873337592,
            "shoulder_pan_joint": -2.4736205022346125,
            "wrist_1_joint": -0.8367026794202681,
            "wrist_2_joint": 0.6746043897044499,
            "wrist_3_joint": -3.1496632123970403
        }
    },
    "waypoints": [
        {
            "positions": [
                -2.4736205022346125,
                -1.1634956873337592,
                2.010868314990456,
                -0.8367026794202681,
                0.6746043897044499,
                -3.1496632123970403
            ]
        },
        {
            "positions": [
                -2.5557206666551773,
                -1.1318489894057187,
                1.967343928130374,
                -0.822722301873259,
                0.8546974943337754,
                -3.1382857700037268
            ]
        },
        {
            "positions": [
                -2.637820831075742,
                -1.100202291477678,
                1.923819541270292,
                -0.8087419243262499,
                1.034790598963101,
                -3.126908327610413
            ]
        },
        {
            "positions": [
                -2.719920995496307,
                -1.0685555935496374,
                1.8802951544102102,
                -0.7947615467792408,
                1.2148837035924265,
                -3.1155308852170993
            ]
        },
        {
            "positions": [
                -2.802021159916871,
                -1.0369088956215968,
                1.8367707675501284,
                -0.7807811692322316,
                1.394976808221752,
                -3.104153442823786
            ]
        },
        {
            "positions": [
                -2.884121324337436,
                -1.005262197693556,
                1.7932463806900465,
                -0.7668007916852225,
                1.5750699128510774,
                -3.092776000430472
            ]
        },
        {
            "positions": [
                -2.9662214887580007,
                -0.9736154997655155,
                1.7497219938299646,
                -0.7528204141382134,
                1.755163017480403,
                -3.0813985580371583
            ]
        }
    ]
}