{
    "goal": {
        "global_pose": {
            "orientation": {
                "w": 0.005598929693374612,
                "x": 0.007748599140229565,
                "y": 0.7110244013736278,
                "z": -0.7031023480610252
            },
            "position": {
                "x": 0.1141497679147869,
                "y": -0.7141253447532654,
                "z": 0.3711530566215515
            }
        },
        "name": "move_to_auspresseinheit_B"
    },
    "id": "STRIDE_move_to_auspresseinheit_B_58",
    "joint_names": [
        "shoulder_pan_joint",
        "shoulder_lift_joint",
        "elbow_joint",
        "wrist_1_joint",
        "wrist_2_joint",
        "wrist_3_joint"
    ],
    "metrics": {
        "cart_traj_len": 0.5654898856678099,
        "distance_elbow_joint": 0.06540679364426838,
        "distance_shoulder_lift_joint": 0.29483590425380934,
        "distance_shoulder_pan_joint": 0.5793628180857917,
        "distance_wrist_1_joint": 0.33743792926440375,
        "distance_wrist_2_joint": 0.9855575546155828,
        "distance_wrist_3_joint": 0.008912039572770425,
        "smoothness": 2.5376526478085547e-16,
        "time": 0.066924897,
        "traj_len": 1.5071539534621625,
        "weighted_distance": 1.9006137436265564
    },
    "planner": "STRIDE",
    "start": {
        "state": {
            "elbow_joint": 2.0193083361928714,
            "shoulder_lift_joint": -1.1220246554650708,
            "shoulder_pan_joint": -1.0952077554168747,
            "wrist_1_joint": -0.8559753972642168,
            "wrist_2_joint": 0.4759566250798843,
            "wrist_3_joint": -3.1240929996934557
        }
    },
    "waypoints": [
        {
            "positions": [
                -1.0952077554168747,
                -1.1220246554650708,
                2.0193083361928714,
                -0.8559753972642168,
                0.4759566250798843,
                -3.1240929996934557
            ]
        },
        {
            "positions": [
                -1.1917682250978399,
                -1.1711639728407057,
                2.0084072039188268,
                -0.7997357423868161,
                0.6402162175158148,
                -3.1226076597646606
            ]
        },
        {
            "positions": [
                -1.2883286947788053,
                -1.2203032902163407,
                1.9975060716447819,
                -0.7434960875094155,
                0.8044758099517453,
                -3.1211223198358655
            ]
        },
        {
            "positions": [
                -1.3848891644597705,
                -1.2694426075919756,
                1.9866049393707372,
                -0.687256432632015,
                0.9687354023876757,
                -3.1196369799070705
            ]
        },
        {
            "positions": [
                -1.4814496341407357,
                -1.3185819249676103,
                1.9757038070966926,
                -0.6310167777546143,
                1.1329949948236062,
                -3.1181516399782754
            ]
        },
        {
            "positions": [
                -1.5780101038217011,
                -1.3677212423432452,
                1.9648026748226477,
                -0.5747771228772136,
                1.2972545872595367,
                -3.1166663000494803
            ]
        },
        {
            "positions": [
                -1.6745705735026664,
                -1.4168605597188801,
                1.953901542548603,
                -0.518537467999813,
                1.4615141796954672,
                -3.1151809601206852
            ]
        }
    ]
}