{
    "goal": {
        "global_pose": {
            "orientation": {
                "w": 0.7031023502349854,
                "x": -0.7110244035720825,
                "y": 0.007748599164187908,
                "z": 0.005598929710686207
            },
            "position": {
                "x": 0.11585023208521307,
                "y": 0.44412534475326537,
                "z": 0.3711530566215515
            }
        },
        "name": "move_to_auspresseinheit_A"
    },
    "id": "STRIDE_move_to_auspresseinheit_A_132",
    "joint_names": [
        "shoulder_pan_joint",
        "shoulder_lift_joint",
        "elbow_joint",
        "wrist_1_joint",
        "wrist_2_joint",
        "wrist_3_joint"
    ],
    "metrics": {
        "cart_traj_len": 3.482129490228847,
        "distance_elbow_joint": 4.253910870282675,
        "distance_shoulder_lift_joint": 0.5347897264833148,
        "distance_shoulder_pan_joint": 5.715735189172889,
        "distance_wrist_1_joint": 7.664240694796818,
        "distance_wrist_2_joint": 4.867060212945295,
        "distance_wrist_3_joint": 0.5768728454516765,
        "smoothness": 0.5552076004296992,
        "time": 1.09273596,
        "traj_len": 4.859280763562922,
        "weighted_distance": 6.107180702892137
    },
    "planner": "STRIDE",
    "start": {
        "state": {
            "elbow_joint": 2.4225746658250005,
            "shoulder_lift_joint": -1.3736534386056498,
            "shoulder_pan_joint": -0.3378633547517467,
            "wrist_1_joint": -1.0288598680537169,
            "wrist_2_joint": 1.233022673432363,
            "wrist_3_joint": -3.0940220416140027
        }
    },
    "waypoints": [
        {
            "positions": [
                -0.3378633547517467,
                -1.3736534386056498,
                2.4225746658250005,
                -1.0288598680537169,
                1.233022673432363,
                -3.0940220416140027
            ]
        },
        {
            "positions": [
                -0.4156903355620913,
                -1.3796357829642092,
                2.351155743469038,
                -0.8916485209587884,
                1.1433215283540714,
                -3.0850542859477548
            ]
        },
        {
            "positions": [
                -0.49351731637243584,
                -1.3856181273227688,
                2.2797368211130755,
                -0.75443717386386,
                1.0536203832757798,
                -3.076086530281507
            ]
        },
        {
            "positions": [
                -0.5713442971827805,
                -1.3916004716813282,
                2.2083178987571133,
                -0.6172258267689316,
                0.9639192381974879,
                -3.0671187746152584
            ]
        },
        {
            "positions": [
                -0.6491712779931249,
                -1.3975828160398878,
                2.1368989764011506,
                -0.4800144796740031,
                0.8742180931191963,
                -3.0581510189490104
            ]
        },
        {
            "positions": [
                -0.7269982588034696,
                -1.4035651603984471,
                2.0654800540451883,
                -0.3428031325790748,
                0.7845169480409047,
                -3.0491832632827625
            ]
        },
        {
            "positions": [
                -0.8048252396138141,
                -1.4095475047570065,
                1.994061131689226,
                -0.20559178548414625,
                0.6948158029626129,
                -3.0402155076165145
            ]
        },
        {
            "positions": [
                -0.8826522204241587,
                -1.4155298491155661,
                1.9226422093332636,
                -0.06838043838921781,
                0.6051146578843213,
                -3.0312477519502665
            ]
        },
        {
            "positions": [
                -0.9604792012345031,
                -1.4215121934741255,
                1.851223286977301,
                0.06883090870571063,
                0.5154135128060297,
                -3.022279996284018
            ]
        },
        {
            "positions": [
                -1.0383061820448478,
                -1.427494537832685,
                1.7798043646213388,
                0.20604225580063895,
                0.425712367727738,
                -3.01331224061777
            ]
        },
        {
            "positions": [
                -1.1161331628551923,
                -1.4334768821912445,
                1.7083854422653764,
                0.3432536028955673,
                0.3360112226494463,
                -3.004344484951522
            ]
        },
        {
            "positions": [
                -1.193960143665537,
                -1.4394592265498038,
                1.6369665199094139,
                0.4804649499904958,
                0.24631007757115464,
                -2.995376729285274
            ]
        },
        {
            "positions": [
                -1.2717871244758816,
                -1.4454415709083634,
                1.5655475975534514,
                0.6176762970854244,
                0.15660893249286278,
                -2.9864089736190262
            ]
        },
        {
            "positions": [
                -1.349614105286226,
                -1.4514239152669228,
                1.494128675197489,
                0.7548876441803527,
                0.06690778741457115,
                -2.977441217952778
            ]
        },
        {
            "positions": [
                -1.4274410860965707,
                -1.4574062596254824,
                1.4227097528415267,
                0.8920989912752813,
                -0.02279335766372048,
                -2.96847346228653
            ]
        },
        {
            "positions": [
                -1.5052680669069152,
                -1.4633886039840418,
                1.3512908304855642,
                1.0293103383702096,
                -0.11249450274201211,
                -2.959505706620282
            ]
        },
        {
            "positions": [
                -1.5830950477172596,
                -1.4693709483426012,
                1.2798719081296017,
                1.1665216854651381,
                -0.20219564782030375,
                -2.950537950954034
            ]
        },
        {
            "positions": [
                -1.6609220285276043,
                -1.4753532927011608,
                1.2084529857736395,
                1.3037330325600662,
                -0.2918967928985954,
                -2.941570195287786
            ]
        },
        {
            "positions": [
                -1.7387490093379487,
                -1.4813356370597202,
                1.137034063417677,
                1.4409443796549948,
                -0.381597937976887,
                -2.9326024396215375
            ]
        },
        {
            "positions": [
                -1.8165759901482934,
                -1.4873179814182798,
                1.0656151410617145,
                1.5781557267499233,
                -0.47129908305517865,
                -2.9236346839552896
            ]
        },
        {
            "positions": [
                -1.8944029709586379,
                -1.4933003257768391,
                0.9941962187057523,
                1.7153670738448514,
                -0.5610002281334705,
                -2.9146669282890416
            ]
        },
        {
            "positions": [
                -1.9722299517689825,
                -1.4992826701353985,
                0.9227772963497898,
                1.85257842093978,
                -0.6507013732117621,
                -2.9056991726227936
            ]
        },
        {
            "positions": [
                -2.050056932579327,
                -1.505265014493958,
                0.8513583739938273,
                1.9897897680347085,
                -0.7404025182900538,
                -2.8967314169565457
            ]
        },
        {
            "positions": [
                -2.127883913389672,
                -1.5112473588525175,
                0.7799394516378648,
                2.1270011151296373,
                -0.8301036633683456,
                -2.8877636612902973
            ]
        },
        {
            "positions": [
                -2.2057108942000165,
                -1.517229703211077,
                0.7085205292819023,
                2.264212462224566,
                -0.9198048084466375,
                -2.8787959056240493
            ]
        },
        {
            "positions": [
                -2.283537875010361,
                -1.5232120475696365,
                0.6371016069259399,
                2.4014238093194944,
                -1.009505953524929,
                -2.8698281499578013
            ]
        },
        {
            "positions": [
                -2.3613648558207054,
                -1.5291943919281958,
                0.5656826845699776,
                2.538635156414422,
                -1.0992070986032207,
                -2.8608603942915534
            ]
        },
        {
            "positions": [
                -2.43919183663105,
                -1.5351767362867554,
                0.49426376221401513,
                2.6758465035093506,
                -1.1889082436815122,
                -2.8518926386253054
            ]
        },
        {
            "positions": [
                -2.5170188174413948,
                -1.5411590806453148,
                0.42284483985805266,
                2.813057850604279,
                -1.278609388759804,
                -2.842924882959057
            ]
        },
        {
            "positions": [
                -2.5948457982517392,
                -1.5471414250038744,
                0.3514259175020902,
                2.9502691976992077,
                -1.3683105338380954,
                -2.833957127292809
            ]
        },
        {
            "positions": [
                -2.6726727790620837,
                -1.5531237693624338,
                0.2800069951461279,
                3.087480544794136,
                -1.4580116789163875,
                -2.824989371626561
            ]
        },
        {
            "positions": [
                -2.5599752535666656,
                -1.5649677492199847,
                0.3503851017995879,
                2.969217202062504,
                -1.3854774835631694,
                -2.8352507108087024
            ]
        },
        {
            "positions": [
                -2.4472777280712474,
                -1.5768117290775359,
                0.4207632084530478,
                2.8509538593308723,
                -1.3129432882099514,
                -2.8455120499908433
            ]
        },
        {
            "positions": [
                -2.334580202575829,
                -1.5886557089350868,
                0.4911413151065077,
                2.7326905165992406,
                -1.2404090928567333,
                -2.8557733891729846
            ]
        },
        {
            "positions": [
                -2.2218826770804108,
                -1.600499688792638,
                0.5615194217599677,
                2.614427173867609,
                -1.1678748975035154,
                -2.8660347283551255
            ]
        },
        {
            "positions": [
                -2.1091851515849926,
                -1.6123436686501889,
                0.6318975284134276,
                2.496163831135977,
                -1.0953407021502972,
                -2.876296067537267
            ]
        },
        {
            "positions": [
                -1.996487626089574,
                -1.62418764850774,
                0.7022756350668875,
                2.377900488404345,
                -1.0228065067970793,
                -2.886557406719408
            ]
        },
        {
            "positions": [
                -1.883790100594156,
                -1.636031628365291,
                0.7726537417203475,
                2.259637145672713,
                -0.9502723114438612,
                -2.896818745901549
            ]
        },
        {
            "positions": [
                -1.7710925750987379,
                -1.647875608222842,
                0.8430318483738074,
                2.1413738029410814,
                -0.8777381160906432,
                -2.9070800850836904
            ]
        },
        {
            "positions": [
                -1.6583950496033195,
                -1.659719588080393,
                0.9134099550272673,
                2.0231104602094496,
                -0.8052039207374252,
                -2.9173414242658313
            ]
        },
        {
            "positions": [
                -1.5456975241079014,
                -1.6715635679379441,
                0.9837880616807273,
                1.9048471174778179,
                -0.7326697253842072,
                -2.9276027634479727
            ]
        },
        {
            "positions": [
                -1.4329999986124833,
                -1.683407547795495,
                1.0541661683341872,
                1.7865837747461861,
                -0.6601355300309891,
                -2.937864102630114
            ]
        },
        {
            "positions": [
                -1.3203024731170647,
                -1.6952515276530462,
                1.124544274987647,
                1.6683204320145542,
                -0.587601334677771,
                -2.948125441812255
            ]
        },
        {
            "positions": [
                -1.2076049476216466,
                -1.7070955075105971,
                1.1949223816411072,
                1.5500570892829224,
                -0.515067139324553,
                -2.9583867809943962
            ]
        },
        {
            "positions": [
                -1.0949074221262283,
                -1.7189394873681483,
                1.265300488294567,
                1.4317937465512907,
                -0.4425329439713348,
                -2.968648120176537
            ]
        },
        {
            "positions": [
                -0.9822098966308102,
                -1.7307834672256992,
                1.335678594948027,
                1.313530403819659,
                -0.3699987486181169,
                -2.9789094593586785
            ]
        },
        {
            "positions": [
                -0.869512371135392,
                -1.7426274470832501,
                1.4060567016014869,
                1.1952670610880272,
                -0.29746455326489896,
                -2.98917079854082
            ]
        },
        {
            "positions": [
                -0.7568148456399737,
                -1.7544714269408013,
                1.4764348082549468,
                1.0770037183563952,
                -0.2249303579116808,
                -2.9994321377229607
            ]
        },
        {
            "positions": [
                -0.6441173201445554,
                -1.7663154067983522,
                1.5468129149084067,
                0.9587403756247634,
                -0.1523961625584629,
                -3.009693476905102
            ]
        },
        {
            "positions": [
                -0.5314197946491372,
                -1.7781593866559033,
                1.6171910215618668,
                0.8404770328931317,
                -0.07986196720524474,
                -3.019954816087243
            ]
        },
        {
            "positions": [
                -0.41872226915371913,
                -1.7900033665134543,
                1.6875691282153267,
                0.7222136901614999,
                -0.007327771852026821,
                -3.0302161552693843
            ]
        },
        {
            "positions": [
                -0.306024743658301,
                -1.8018473463710054,
                1.7579472348687866,
                0.6039503474298682,
                0.06520642350119132,
                -3.0404774944515256
            ]
        },
        {
            "positions": [
                -0.1933272181628829,
                -1.8136913262285563,
                1.8283253415222465,
                0.48568700469823645,
                0.13774061885440925,
                -3.0507388336336665
            ]
        },
        {
            "positions": [
                -0.08062969266746389,
                -1.8255353060861075,
                1.8987034481757066,
                0.36742366196660425,
                0.21027481420762761,
                -3.061000172815808
            ]
        },
        {
            "positions": [
                0.032067832827954224,
                -1.8373792859436584,
                1.9690815548291665,
                0.2491603192349725,
                0.28280900956084554,
                -3.0712615119979487
            ]
        },
        {
            "positions": [
                0.14476535832337234,
                -1.8492232658012095,
                2.0394596614826264,
                0.13089697650334076,
                0.3553432049140637,
                -3.08152285118009
            ]
        },
        {
            "positions": [
                0.25746288381879046,
                -1.8610672456587605,
                2.109837768136086,
                0.012633633771709007,
                0.4278774002672816,
                -3.0917841903622314
            ]
        },
        {
            "positions": [
                0.37016040931420857,
                -1.8729112255163116,
                2.180215874789546,
                -0.10562970895992274,
                0.5004115956204997,
                -3.1020455295443723
            ]
        },
        {
            "positions": [
                0.48285793480962713,
                -1.8847552053738625,
                2.2505939814430063,
                -0.2238930516915545,
                0.5729457909737179,
                -3.1123068687265136
            ]
        },
        {
            "positions": [
                0.5955554603050452,
                -1.8965991852314135,
                2.320972088096466,
                -0.34215639442318624,
                0.6454799863269356,
                -3.1225682079086545
            ]
        },
        {
            "positions": [
                0.7082529858004636,
                -1.9084431650889646,
                2.391350194749926,
                -0.46041973715481793,
                0.7180141816801537,
                -3.132829547090796
            ]
        }
    ]
}