{
    "goal": {
        "global_pose": {
            "orientation": {
                "w": 0.7031023480610252,
                "x": -0.7110244013736278,
                "y": 0.0077485991402295624,
                "z": 0.005598929693374583
            },
            "position": {
                "x": -0.8841497679147869,
                "y": 0.44412534475326537,
                "z": 0.3711530566215515
            }
        },
        "name": "move_to_auspresseinheit_D"
    },
    "id": "STRIDE_move_to_auspresseinheit_D_91",
    "joint_names": [
        "shoulder_pan_joint",
        "shoulder_lift_joint",
        "elbow_joint",
        "wrist_1_joint",
        "wrist_2_joint",
        "wrist_3_joint"
    ],
    "metrics": {
        "cart_traj_len": 0.34314734995669127,
        "distance_elbow_joint": 0.6360025291566864,
        "distance_shoulder_lift_joint": 0.1204436718726658,
        "distance_shoulder_pan_joint": 0.13488752946801788,
        "distance_wrist_1_joint": 0.5298948047440604,
        "distance_wrist_2_joint": 1.4299697902794688,
        "distance_wrist_3_joint": 0.00475926748849087,
        "smoothness": 0.0,
        "time": 0.396577297,
        "traj_len": 1.6899578672290592,
        "weighted_distance": 2.196665819602495
    },
    "planner": "STRIDE",
    "start": {
        "state": {
            "elbow_joint": -1.8275523626775212,
            "shoulder_lift_joint": -2.126789852344167,
            "shoulder_pan_joint": -0.03513704404078235,
            "wrist_1_joint": -2.347782403156801,
            "wrist_2_joint": -1.6058999987535132,
            "wrist_3_joint": -3.0880379163319196
        }
    },
    "waypoints": [
        {
            "positions": [
                -0.03513704404078235,
                -2.126789852344167,
                -1.8275523626775212,
                -2.347782403156801,
                -1.6058999987535132,
                -3.0880379163319196
            ]
        },
        {
            "positions": [
                -0.05199798522428459,
                -2.1418453113282503,
                -1.7480520465329354,
                -2.4140192537498084,
                -1.4271537749685796,
                -3.087443007895858
            ]
        },
        {
            "positions": [
                -0.06885892640778682,
                -2.1569007703123333,
                -1.6685517303883497,
                -2.480256104342816,
                -1.248407551183646,
                -3.0868480994597967
            ]
        },
        {
            "positions": [
                -0.08571986759128905,
                -2.1719562292964163,
                -1.5890514142437637,
                -2.5464929549358235,
                -1.0696613273987123,
                -3.0862531910237356
            ]
        },
        {
            "positions": [
                -0.10258080877479128,
                -2.1870116882804997,
                -1.509551098099178,
                -2.612729805528831,
                -0.8909151036137788,
                -3.085658282587674
            ]
        },
        {
            "positions": [
                -0.11944174995829351,
                -2.202067147264583,
                -1.4300507819545922,
                -2.6789666561218386,
                -0.7121688798288452,
                -3.0850633741516127
            ]
        },
        {
            "positions": [
                -0.13630269114179577,
                -2.217122606248666,
                -1.3505504658100063,
                -2.745203506714846,
                -0.5334226560439115,
                -3.0844684657155517
            ]
        },
        {
            "positions": [
                -0.153163632325298,
                -2.232178065232749,
                -1.2710501496654205,
                -2.8114403573078537,
                -0.35467643225897794,
                -3.08387355727949
            ]
        },
        {
            "positions": [
                -0.17002457350880024,
                -2.2472335242168326,
                -1.1915498335208348,
                -2.8776772079008612,
                -0.17593020847404436,
                -3.0832786488434287
            ]
        }
    ]
}