{
    "goal": {
        "global_pose": {
            "orientation": {
                "w": 0.7031023502349854,
                "x": -0.7110244035720825,
                "y": 0.007748599164187908,
                "z": 0.005598929710686207
            },
            "position": {
                "x": 0.11585023208521307,
                "y": 0.44412534475326537,
                "z": 0.3711530566215515
            }
        },
        "name": "move_to_auspresseinheit_A"
    },
    "id": "STRIDE_move_to_auspresseinheit_A_134",
    "joint_names": [
        "shoulder_pan_joint",
        "shoulder_lift_joint",
        "elbow_joint",
        "wrist_1_joint",
        "wrist_2_joint",
        "wrist_3_joint"
    ],
    "metrics": {
        "cart_traj_len": 0.7242975751193916,
        "distance_elbow_joint": 0.18613305016897863,
        "distance_shoulder_lift_joint": 0.5380620640200906,
        "distance_shoulder_pan_joint": 1.0426716670785652,
        "distance_wrist_1_joint": 0.5500857830045474,
        "distance_wrist_2_joint": 0.5337988793858944,
        "distance_wrist_3_joint": 0.6999229995392398,
        "smoothness": 0.5943624225648055,
        "time": 0.156541117,
        "traj_len": 1.8843233382828213,
        "weighted_distance": 2.4565026164582515
    },
    "planner": "STRIDE",
    "start": {
        "state": {
            "elbow_joint": 2.4225746658250005,
            "shoulder_lift_joint": -1.3736534386056498,
            "shoulder_pan_joint": -0.3378633547517467,
            "wrist_1_joint": -1.0288598680537169,
            "wrist_2_joint": 1.233022673432363,
            "wrist_3_joint": -3.0940220416140027
        }
    },
    "waypoints": [
        {
            "positions": [
                -0.3378633547517467,
                -1.3736534386056498,
                2.4225746658250005,
                -1.0288598680537169,
                1.233022673432363,
                -3.0940220416140027
            ]
        },
        {
            "positions": [
                -0.23838122862281774,
                -1.449106280341109,
                2.4073839665939647,
                -0.9515783176207071,
                1.1569460421558393,
                -3.0466169775141356
            ]
        },
        {
            "positions": [
                -0.13889910249388876,
                -1.5245591220765684,
                2.3921932673629285,
                -0.8742967671876974,
                1.0808694108793158,
                -2.999211913414269
            ]
        },
        {
            "positions": [
                -0.03941697636495978,
                -1.6000119638120276,
                2.3770025681318927,
                -0.7970152167546878,
                1.004792779602792,
                -2.951806849314402
            ]
        },
        {
            "positions": [
                0.060065149763969206,
                -1.6754648055474868,
                2.3618118689008565,
                -0.719733666321678,
                0.9287161483262685,
                -2.9044017852145347
            ]
        },
        {
            "positions": [
                0.15954727589289824,
                -1.7509176472829462,
                2.3466211696698207,
                -0.6424521158886682,
                0.8526395170497447,
                -2.8569967211146676
            ]
        },
        {
            "positions": [
                0.25902940202182717,
                -1.8263704890184052,
                2.3314304704387845,
                -0.5651705654556586,
                0.7765628857732212,
                -2.809591657014801
            ]
        },
        {
            "positions": [
                0.35851152815075626,
                -1.9018233307538646,
                2.3162397712077487,
                -0.4878890150226488,
                0.7004862544966974,
                -2.762186592914934
            ]
        },
        {
            "positions": [
                0.47394378954277694,
                -1.9051207213778232,
                2.3428391563916575,
                -0.4848507050314891,
                0.7009070746467737,
                -2.8848824431949907
            ]
        },
        {
            "positions": [
                0.5893760509347976,
                -1.9084181120017818,
                2.3694385415755668,
                -0.4818123950403293,
                0.70132789479685,
                -3.007578293475048
            ]
        },
        {
            "positions": [
                0.7048083123268184,
                -1.9117155026257404,
                2.3960379267594756,
                -0.4787740850491696,
                0.7017487149469263,
                -3.1302741437551047
            ]
        }
    ]
}