{
    "goal": {
        "global_pose": {
            "orientation": {
                "w": 0.7031023502349854,
                "x": -0.7110244035720825,
                "y": 0.007748599164187908,
                "z": 0.005598929710686207
            },
            "position": {
                "x": 0.11585023208521307,
                "y": 0.44412534475326537,
                "z": 0.3711530566215515
            }
        },
        "name": "move_to_auspresseinheit_A"
    },
    "id": "STRIDE_move_to_auspresseinheit_A_67",
    "joint_names": [
        "shoulder_pan_joint",
        "shoulder_lift_joint",
        "elbow_joint",
        "wrist_1_joint",
        "wrist_2_joint",
        "wrist_3_joint"
    ],
    "metrics": {
        "cart_traj_len": 0.6881495553897541,
        "distance_elbow_joint": 0.029860103159440765,
        "distance_shoulder_lift_joint": 0.5665964006820612,
        "distance_shoulder_pan_joint": 1.0458279476951653,
        "distance_wrist_1_joint": 0.9354819961162711,
        "distance_wrist_2_joint": 0.8484348528452861,
        "distance_wrist_3_joint": 0.40336086156056883,
        "smoothness": 1.7292212225914694,
        "time": 0.19369162499999998,
        "traj_len": 1.9569267135124895,
        "weighted_distance": 2.53381150327752
    },
    "planner": "STRIDE",
    "start": {
        "state": {
            "elbow_joint": 2.4225746658250005,
            "shoulder_lift_joint": -1.3736534386056498,
            "shoulder_pan_joint": -0.3378633547517467,
            "wrist_1_joint": -1.0288598680537169,
            "wrist_2_joint": 1.233022673432363,
            "wrist_3_joint": -3.0940220416140027
        }
    },
    "waypoints": [
        {
            "positions": [
                -0.3378633547517467,
                -1.3736534386056498,
                2.4225746658250005,
                -1.0288598680537169,
                1.233022673432363,
                -3.0940220416140027
            ]
        },
        {
            "positions": [
                -0.22406692899189173,
                -1.4424770356977512,
                2.42184638638233,
                -0.9345462733618143,
                1.1477561211466345,
                -3.0716618066434744
            ]
        },
        {
            "positions": [
                -0.11027050323203674,
                -1.5113006327898528,
                2.42111810693966,
                -0.8402326786699116,
                1.062489568860906,
                -3.0493015716729466
            ]
        },
        {
            "positions": [
                0.0035259225278182482,
                -1.5801242298819542,
                2.42038982749699,
                -0.745919083978009,
                0.9772230165751775,
                -3.0269413367024183
            ]
        },
        {
            "positions": [
                0.11732234828767324,
                -1.6489478269740556,
                2.4196615480543198,
                -0.6516054892861063,
                0.891956464289449,
                -3.0045811017318904
            ]
        },
        {
            "positions": [
                0.23111877404752817,
                -1.7177714240661572,
                2.4189332686116494,
                -0.5572918945942037,
                0.8066899120037204,
                -2.982220866761362
            ]
        },
        {
            "positions": [
                0.3449151998073832,
                -1.7865950211582586,
                2.4182049891689794,
                -0.4629782999023011,
                0.721423359717992,
                -2.959860631790834
            ]
        },
        {
            "positions": [
                0.45871162556723827,
                -1.85541861825036,
                2.4174767097263095,
                -0.3686647052103984,
                0.6361568074322634,
                -2.937500396820306
            ]
        },
        {
            "positions": [
                0.5725080513270933,
                -1.9242422153424616,
                2.416748430283639,
                -0.2743511105184958,
                0.5508902551465349,
                -2.9151401618497776
            ]
        },
        {
            "positions": [
                0.6402363221352559,
                -1.916238403369837,
                2.404731496474599,
                -0.36483772980902085,
                0.6340414724262639,
                -3.0273796527479497
            ]
        },
        {
            "positions": [
                0.7079645929434186,
                -1.9082345913972123,
                2.3927145626655597,
                -0.4553243490995459,
                0.7171926897059928,
                -3.1396191436461214
            ]
        }
    ]
}