{
    "goal": {
        "global_pose": {
            "orientation": {
                "w": -0.4816463035849501,
                "x": 0.5182115481033762,
                "y": 0.4908360881923453,
                "z": -0.5084816262002911
            },
            "position": {
                "x": -0.8240239810943604,
                "y": -0.300875300988555,
                "z": 0.16403168439865112
            }
        },
        "name": "move_to_storage_C"
    },
    "id": "STRIDE_move_to_storage_C_127",
    "joint_names": [
        "shoulder_pan_joint",
        "shoulder_lift_joint",
        "elbow_joint",
        "wrist_1_joint",
        "wrist_2_joint",
        "wrist_3_joint"
    ],
    "metrics": {
        "cart_traj_len": 0.5760513714143067,
        "distance_elbow_joint": 0.2601307691467256,
        "distance_shoulder_lift_joint": 0.18911412615315526,
        "distance_shoulder_pan_joint": 0.4943665334783063,
        "distance_wrist_1_joint": 0.08542017022790838,
        "distance_wrist_2_joint": 1.0625660779711597,
        "distance_wrist_3_joint": 0.07558630795259269,
        "smoothness": 2.5376526478085547e-16,
        "time": 0.015916786,
        "traj_len": 1.4721358581767676,
        "weighted_distance": 1.8618117114880606
    },
    "planner": "STRIDE",
    "start": {
        "state": {
            "elbow_joint": 2.010868314990456,
            "shoulder_lift_joint": -1.1634956873337592,
            "shoulder_pan_joint": -2.4736205022346125,
            "wrist_1_joint": -0.8367026794202681,
            "wrist_2_joint": 0.6746043897044499,
            "wrist_3_joint": -3.1496632123970403
        }
    },
    "waypoints": [
        {
            "positions": [
                -2.4736205022346125,
                -1.1634956873337592,
                2.010868314990456,
                -0.8367026794202681,
                0.6746043897044499,
                -3.1496632123970403
            ]
        },
        {
            "positions": [
                -2.556014924480997,
                -1.1319766663082333,
                1.967513186799335,
                -0.8224659843822834,
                0.8516987360329765,
                -3.1370654944049416
            ]
        },
        {
            "positions": [
                -2.6384093467273813,
                -1.1004576452827075,
                1.9241580586082139,
                -0.8082292893442986,
                1.0287930823615032,
                -3.1244677764128426
            ]
        },
        {
            "positions": [
                -2.7208037689737656,
                -1.0689386242571817,
                1.880802930417093,
                -0.793992594306314,
                1.2058874286900299,
                -3.111870058420744
            ]
        },
        {
            "positions": [
                -2.80319819122015,
                -1.0374196032316556,
                1.8374478022259721,
                -0.7797558992683292,
                1.3829817750185565,
                -3.0992723404286453
            ]
        },
        {
            "positions": [
                -2.8855926134665344,
                -1.0059005822061298,
                1.794092674034851,
                -0.7655192042303445,
                1.560076121347083,
                -3.0866746224365462
            ]
        },
        {
            "positions": [
                -2.9679870357129188,
                -0.9743815611806039,
                1.7507375458437302,
                -0.7512825091923597,
                1.7371704676756097,
                -3.0740769044444476
            ]
        }
    ]
}