{
    "goal": {
        "global_pose": {
            "orientation": {
                "w": 0.5084816262002911,
                "x": -0.4908360881923452,
                "y": 0.5182115481033761,
                "z": -0.48164630358495003
            },
            "position": {
                "x": 0.5540239810943604,
                "y": -0.46912469901144505,
                "z": 0.16403168439865112
            }
        },
        "name": "move_to_storage_B"
    },
    "id": "STRIDE_move_to_storage_B_78",
    "joint_names": [
        "shoulder_pan_joint",
        "shoulder_lift_joint",
        "elbow_joint",
        "wrist_1_joint",
        "wrist_2_joint",
        "wrist_3_joint"
    ],
    "metrics": {
        "cart_traj_len": 0.9110858754160291,
        "distance_elbow_joint": 0.8103093637714345,
        "distance_shoulder_lift_joint": 0.45935148401919057,
        "distance_shoulder_pan_joint": 0.7617481964612433,
        "distance_wrist_1_joint": 2.989925176932038,
        "distance_wrist_2_joint": 2.7057909597234096,
        "distance_wrist_3_joint": 3.1308680977791616,
        "smoothness": 0.13760373555552288,
        "time": 0.110764026,
        "traj_len": 3.2951469282395403,
        "weighted_distance": 4.776551644324622
    },
    "planner": "STRIDE",
    "start": {
        "state": {
            "elbow_joint": 1.664937868594044,
            "shoulder_lift_joint": -0.661644460510453,
            "shoulder_pan_joint": -0.9139846352900073,
            "wrist_1_joint": 2.146753192139373,
            "wrist_2_joint": -2.2341966793290973,
            "wrist_3_joint": 0.005466555786416001
        }
    },
    "waypoints": [
        {
            "positions": [
                -0.9139846352900073,
                -0.661644460510453,
                1.664937868594044,
                2.146753192139373,
                -2.2341966793290973,
                0.005466555786416001
            ]
        },
        {
            "positions": [
                -0.8560786584499988,
                -0.6809179566715523,
                1.6189841712131514,
                2.0490140680853677,
                -2.1084720863515125,
                -0.005009294096079169
            ]
        },
        {
            "positions": [
                -0.7981726816099903,
                -0.7001914528326515,
                1.5730304738322587,
                1.951274944031362,
                -1.9827474933739277,
                -0.01548514397857434
            ]
        },
        {
            "positions": [
                -0.7402667047699818,
                -0.7194649489937508,
                1.5270767764513662,
                1.8535358199773564,
                -1.8570229003963432,
                -0.025960993861069502
            ]
        },
        {
            "positions": [
                -0.6823607279299733,
                -0.73873844515485,
                1.4811230790704735,
                1.7557966959233506,
                -1.7312983074187582,
                -0.03643684374356468
            ]
        },
        {
            "positions": [
                -0.6244547510899648,
                -0.7580119413159493,
                1.435169381689581,
                1.658057571869345,
                -1.6055737144411737,
                -0.04691269362605984
            ]
        },
        {
            "positions": [
                -0.6449859820578432,
                -0.7737938544991534,
                1.4604102893794493,
                1.5493084607101273,
                -1.5152620624918047,
                -0.18076003485939401
            ]
        },
        {
            "positions": [
                -0.6655172130257214,
                -0.7895757676823575,
                1.4856511970693176,
                1.4405593495509095,
                -1.4249504105424358,
                -0.31460737609272815
            ]
        },
        {
            "positions": [
                -0.6860484439935998,
                -0.8053576808655616,
                1.510892104759186,
                1.3318102383916917,
                -1.334638758593067,
                -0.4484547173260623
            ]
        },
        {
            "positions": [
                -0.706579674961478,
                -0.8211395940487657,
                1.5361330124490542,
                1.2230611272324738,
                -1.244327106643698,
                -0.5823020585593965
            ]
        },
        {
            "positions": [
                -0.7271109059293563,
                -0.8369215072319698,
                1.5613739201389225,
                1.114312016073256,
                -1.154015454694329,
                -0.7161493997927307
            ]
        },
        {
            "positions": [
                -0.7476421368972346,
                -0.8527034204151739,
                1.5866148278287908,
                1.0055629049140382,
                -1.0637038027449601,
                -0.8499967410260648
            ]
        },
        {
            "positions": [
                -0.7681733678651129,
                -0.868485333598378,
                1.6118557355186593,
                0.8968137937548202,
                -0.9733921507955912,
                -0.9838440822593991
            ]
        },
        {
            "positions": [
                -0.7887045988329913,
                -0.8842672467815821,
                1.6370966432085277,
                0.7880646825956025,
                -0.8830804988462223,
                -1.117691423492733
            ]
        },
        {
            "positions": [
                -0.8092358298008695,
                -0.9000491599647862,
                1.662337550898396,
                0.6793155714363845,
                -0.7927688468968533,
                -1.2515387647260674
            ]
        },
        {
            "positions": [
                -0.8297670607687477,
                -0.9158310731479903,
                1.6875784585882643,
                0.5705664602771667,
                -0.7024571949474845,
                -1.3853861059594015
            ]
        },
        {
            "positions": [
                -0.8502982917366261,
                -0.9316129863311944,
                1.7128193662781326,
                0.4618173491179489,
                -0.6121455429981155,
                -1.5192334471927358
            ]
        },
        {
            "positions": [
                -0.8708295227045044,
                -0.9473948995143985,
                1.738060273968001,
                0.3530682379587311,
                -0.5218338910487466,
                -1.6530807884260696
            ]
        },
        {
            "positions": [
                -0.8913607536723827,
                -0.9631768126976026,
                1.7633011816578692,
                0.2443191267995133,
                -0.4315222390993778,
                -1.7869281296594037
            ]
        },
        {
            "positions": [
                -0.911891984640261,
                -0.9789587258808067,
                1.7885420893477375,
                0.13557001564029525,
                -0.3412105871500086,
                -1.9207754708927383
            ]
        },
        {
            "positions": [
                -0.9324232156081393,
                -0.9947406390640108,
                1.8137829970376058,
                0.026820904481077656,
                -0.2508989352006399,
                -2.054622812126073
            ]
        },
        {
            "positions": [
                -0.9529544465760176,
                -1.010522552247215,
                1.8390239047274741,
                -0.08192820667814016,
                -0.16058728325127092,
                -2.1884701533594066
            ]
        },
        {
            "positions": [
                -0.9734856775438958,
                -1.026304465430419,
                1.8642648124173424,
                -0.19067731783735797,
                -0.07027563130190195,
                -2.3223174945927405
            ]
        },
        {
            "positions": [
                -0.9940169085117743,
                -1.042086378613623,
                1.889505720107211,
                -0.299426428996576,
                0.020036020647467012,
                -2.4561648358260753
            ]
        },
        {
            "positions": [
                -1.0145481394796525,
                -1.0578682917968272,
                1.9147466277970793,
                -0.4081755401557938,
                0.11034767259683598,
                -2.590012177059409
            ]
        },
        {
            "positions": [
                -1.0350793704475307,
                -1.0736502049800314,
                1.9399875354869476,
                -0.5169246513150116,
                0.20065932454620472,
                -2.7238595182927434
            ]
        },
        {
            "positions": [
                -1.055610601415409,
                -1.0894321181632354,
                1.9652284431768159,
                -0.6256737624742295,
                0.2909709764955737,
                -2.8577068595260773
            ]
        },
        {
            "positions": [
                -1.0761418323832874,
                -1.1052140313464394,
                1.9904693508666842,
                -0.7344228736334473,
                0.38128262844494265,
                -2.991554200759412
            ]
        },
        {
            "positions": [
                -1.0966730633511657,
                -1.1209959445296436,
                2.0157102585565525,
                -0.843171984792665,
                0.47159428039431184,
                -3.125401541992746
            ]
        }
    ]
}