{
    "goal": {
        "global_pose": {
            "orientation": {
                "w": 0.5084816262002911,
                "x": -0.4908360881923452,
                "y": 0.5182115481033761,
                "z": -0.48164630358495003
            },
            "position": {
                "x": 0.5540239810943604,
                "y": -0.46912469901144505,
                "z": 0.16403168439865112
            }
        },
        "name": "move_to_storage_B"
    },
    "id": "STRIDE_move_to_storage_B_23",
    "joint_names": [
        "shoulder_pan_joint",
        "shoulder_lift_joint",
        "elbow_joint",
        "wrist_1_joint",
        "wrist_2_joint",
        "wrist_3_joint"
    ],
    "metrics": {
        "cart_traj_len": 1.1709755755203204,
        "distance_elbow_joint": 0.35737770337652375,
        "distance_shoulder_lift_joint": 0.7490448176237416,
        "distance_shoulder_pan_joint": 0.7143191756731847,
        "distance_wrist_1_joint": 3.731523328446726,
        "distance_wrist_2_joint": 3.011086136623939,
        "distance_wrist_3_joint": 4.238995985723343,
        "smoothness": 0.5589701502653694,
        "time": 0.08844503100000001,
        "traj_len": 3.5780367727941895,
        "weighted_distance": 5.293670615365562
    },
    "planner": "STRIDE",
    "start": {
        "state": {
            "elbow_joint": 1.664937868594044,
            "shoulder_lift_joint": -0.661644460510453,
            "shoulder_pan_joint": -0.9139846352900073,
            "wrist_1_joint": 2.146753192139373,
            "wrist_2_joint": -2.2341966793290973,
            "wrist_3_joint": 0.005466555786416001
        }
    },
    "waypoints": [
        {
            "positions": [
                -0.9139846352900073,
                -0.661644460510453,
                1.664937868594044,
                2.146753192139373,
                -2.2341966793290973,
                0.005466555786416001
            ]
        },
        {
            "positions": [
                -0.869719676881062,
                -0.7624338767779946,
                1.6851286778105576,
                2.206040560131074,
                -2.2600428535119512,
                0.09873714581110768
            ]
        },
        {
            "positions": [
                -0.8254547184721167,
                -0.8632232930455361,
                1.7053194870270716,
                2.2653279281227747,
                -2.285889027694805,
                0.19200773583579936
            ]
        },
        {
            "positions": [
                -0.7811897600631714,
                -0.9640127093130778,
                1.7255102962435853,
                2.3246152961144757,
                -2.311735201877659,
                0.28527832586049107
            ]
        },
        {
            "positions": [
                -0.7369248016542261,
                -1.0648021255806195,
                1.745701105460099,
                2.3839026641061767,
                -2.3375813760605126,
                0.37854891588518275
            ]
        },
        {
            "positions": [
                -0.6926598432452808,
                -1.165591541848161,
                1.765891914676613,
                2.443190032097877,
                -2.3634275502433666,
                0.4718195059098744
            ]
        },
        {
            "positions": [
                -0.6483948848363356,
                -1.2663809581157026,
                1.7860827238931267,
                2.502477400089578,
                -2.3892737244262205,
                0.565090095934566
            ]
        },
        {
            "positions": [
                -0.6644209357370324,
                -1.2612270895436135,
                1.794519611324464,
                2.381913145786131,
                -2.2872733997288344,
                0.4336839371640235
            ]
        },
        {
            "positions": [
                -0.6804469866377294,
                -1.2560732209715246,
                1.802956498755801,
                2.261348891482684,
                -2.185273075031448,
                0.3022777783934809
            ]
        },
        {
            "positions": [
                -0.6964730375384263,
                -1.2509193523994355,
                1.8113933861871383,
                2.1407846371792365,
                -2.0832727503340616,
                0.17087161962293834
            ]
        },
        {
            "positions": [
                -0.7124990884391231,
                -1.2457654838273466,
                1.8198302736184755,
                2.0202203828757894,
                -1.9812724256366756,
                0.03946546085239577
            ]
        },
        {
            "positions": [
                -0.72852513933982,
                -1.2406116152552575,
                1.8282671610498127,
                1.8996561285723423,
                -1.8792721009392892,
                -0.09194069791814685
            ]
        },
        {
            "positions": [
                -0.7445511902405169,
                -1.2354577466831687,
                1.8367040484811499,
                1.7790918742688953,
                -1.777271776241903,
                -0.22334685668868937
            ]
        },
        {
            "positions": [
                -0.7605772411412138,
                -1.2303038781110796,
                1.8451409359124868,
                1.658527619965448,
                -1.6752714515445168,
                -0.354753015459232
            ]
        },
        {
            "positions": [
                -0.7766032920419107,
                -1.2251500095389907,
                1.853577823343824,
                1.5379633656620009,
                -1.5732711268471307,
                -0.4861591742297745
            ]
        },
        {
            "positions": [
                -0.7926293429426076,
                -1.2199961409669016,
                1.8620147107751612,
                1.4173991113585536,
                -1.471270802149744,
                -0.6175653330003171
            ]
        },
        {
            "positions": [
                -0.8086553938433045,
                -1.2148422723948127,
                1.8704515982064984,
                1.2968348570551065,
                -1.3692704774523579,
                -0.7489714917708598
            ]
        },
        {
            "positions": [
                -0.8246814447440014,
                -1.2096884038227236,
                1.8788884856378356,
                1.1762706027516592,
                -1.2672701527549717,
                -0.8803776505414024
            ]
        },
        {
            "positions": [
                -0.8407074956446983,
                -1.2045345352506347,
                1.8873253730691728,
                1.055706348448212,
                -1.1652698280575855,
                -1.011783809311945
            ]
        },
        {
            "positions": [
                -0.8567335465453951,
                -1.1993806666785456,
                1.89576226050051,
                0.9351420941447648,
                -1.063269503360199,
                -1.1431899680824875
            ]
        },
        {
            "positions": [
                -0.872759597446092,
                -1.1942267981064565,
                1.9041991479318472,
                0.8145778398413177,
                -0.9612691786628129,
                -1.2745961268530301
            ]
        },
        {
            "positions": [
                -0.888785648346789,
                -1.1890729295343676,
                1.9126360353631844,
                0.6940135855378706,
                -0.8592688539654267,
                -1.4060022856235728
            ]
        },
        {
            "positions": [
                -0.9048116992474858,
                -1.1839190609622785,
                1.9210729227945216,
                0.5734493312344235,
                -0.7572685292680406,
                -1.537408444394115
            ]
        },
        {
            "positions": [
                -0.9208377501481827,
                -1.1787651923901896,
                1.9295098102258588,
                0.45288507693097646,
                -0.6552682045706544,
                -1.6688146031646576
            ]
        },
        {
            "positions": [
                -0.9368638010488797,
                -1.1736113238181005,
                1.937946697657196,
                0.33232082262752893,
                -0.5532678798732678,
                -1.8002207619352002
            ]
        },
        {
            "positions": [
                -0.9528898519495765,
                -1.1684574552460116,
                1.9463835850885332,
                0.21175656832408185,
                -0.4512675551758816,
                -1.9316269207057428
            ]
        },
        {
            "positions": [
                -0.9689159028502734,
                -1.1633035866739225,
                1.9548204725198703,
                0.09119231402063477,
                -0.34926723047849517,
                -2.0630330794762854
            ]
        },
        {
            "positions": [
                -0.9849419537509703,
                -1.1581497181018336,
                1.9632573599512075,
                -0.02937194028281276,
                -0.247266905781109,
                -2.194439238246828
            ]
        },
        {
            "positions": [
                -1.0009680046516671,
                -1.1529958495297445,
                1.9716942473825445,
                -0.14993619458625984,
                -0.1452665810837228,
                -2.3258453970173707
            ]
        },
        {
            "positions": [
                -1.016994055552364,
                -1.1478419809576557,
                1.9801311348138817,
                -0.2705004488897069,
                -0.04326625638633663,
                -2.457251555787913
            ]
        },
        {
            "positions": [
                -1.033020106453061,
                -1.1426881123855666,
                1.988568022245219,
                -0.391064703193154,
                0.05873406831104955,
                -2.5886577145584555
            ]
        },
        {
            "positions": [
                -1.049046157353758,
                -1.1375342438134777,
                1.997004909676556,
                -0.5116289574966015,
                0.16073439300843617,
                -2.7200638733289986
            ]
        },
        {
            "positions": [
                -1.0650722082544548,
                -1.1323803752413886,
                2.0054417971078933,
                -0.6321932118000486,
                0.26273471770582235,
                -2.8514700320995408
            ]
        },
        {
            "positions": [
                -1.0810982591551517,
                -1.1272265066692997,
                2.0138786845392307,
                -0.7527574661034957,
                0.36473504240320853,
                -2.9828761908700834
            ]
        },
        {
            "positions": [
                -1.0971243100558485,
                -1.1220726380972106,
                2.0223155719705677,
                -0.8733217204069429,
                0.4667353671005946,
                -3.114282349640626
            ]
        }
    ]
}