{
    "goal": {
        "global_pose": {
            "orientation": {
                "w": -0.00223480608172531,
                "x": 0.0024358444001904467,
                "y": 0.7094548369677653,
                "z": -0.704743149386269
            },
            "position": {
                "x": 0.6205249238014221,
                "y": -0.6371506643295288,
                "z": 0.19426114857196808
            }
        },
        "name": "move_to_magneteinheit_B"
    },
    "id": "STRIDE_move_to_magneteinheit_B_78",
    "joint_names": [
        "shoulder_pan_joint",
        "shoulder_lift_joint",
        "elbow_joint",
        "wrist_1_joint",
        "wrist_2_joint",
        "wrist_3_joint"
    ],
    "metrics": {
        "cart_traj_len": 3.551299767473258,
        "distance_elbow_joint": 3.244134698488185,
        "distance_shoulder_lift_joint": 1.3607878935662265,
        "distance_shoulder_pan_joint": 4.623144629649942,
        "distance_wrist_1_joint": 3.2289505086185257,
        "distance_wrist_2_joint": 2.26103083515994,
        "distance_wrist_3_joint": 2.7961794248247367,
        "smoothness": 0.9462743123271546,
        "time": 0.9221404120000001,
        "traj_len": 4.185000357264927,
        "weighted_distance": 5.347575916593939
    },
    "planner": "STRIDE",
    "start": {
        "state": {
            "elbow_joint": 2.6216224122426386,
            "shoulder_lift_joint": -1.4174107377796124,
            "shoulder_pan_joint": 0.7066234856936794,
            "wrist_1_joint": 1.9546482284002225,
            "wrist_2_joint": -0.7096286983471962,
            "wrist_3_joint": 0.005740856962016249
        }
    },
    "waypoints": [
        {
            "positions": [
                0.7066234856936794,
                -1.4174107377796124,
                2.6216224122426386,
                1.9546482284002225,
                -0.7096286983471962,
                0.005740856962016249
            ]
        },
        {
            "positions": [
                0.6285592945623488,
                -1.4388253248141432,
                2.6018482100824976,
                1.8706912865187095,
                -0.7204446153035091,
                -0.10205723357497928
            ]
        },
        {
            "positions": [
                0.5293273026627999,
                -1.4372174163798486,
                2.5041674591296434,
                1.7810571202923042,
                -0.6972417962087641,
                -0.18246848820567083
            ]
        },
        {
            "positions": [
                0.43009531076325097,
                -1.435609507945554,
                2.4064867081767893,
                1.6914229540658992,
                -0.6740389771140192,
                -0.2628797428363624
            ]
        },
        {
            "positions": [
                0.330863318863702,
                -1.4340015995112592,
                2.3088059572239357,
                1.6017887878394939,
                -0.6508361580192743,
                -0.34329099746705394
            ]
        },
        {
            "positions": [
                0.23163132696415312,
                -1.4323936910769646,
                2.2111252062710816,
                1.5121546216130888,
                -0.6276333389245293,
                -0.4237022520977455
            ]
        },
        {
            "positions": [
                0.13239933506460422,
                -1.43078578264267,
                2.1134444553182274,
                1.4225204553866835,
                -0.6044305198297844,
                -0.504113506728437
            ]
        },
        {
            "positions": [
                0.03316734316505521,
                -1.4291778742083752,
                2.0157637043653738,
                1.3328862891602782,
                -0.5812277007350394,
                -0.5845247613591286
            ]
        },
        {
            "positions": [
                -0.06606464873449369,
                -1.4275699657740806,
                1.9180829534125197,
                1.2432521229338729,
                -0.5580248816402944,
                -0.6649360159898201
            ]
        },
        {
            "positions": [
                -0.1652966406340426,
                -1.425962057339786,
                1.8204022024596656,
                1.1536179567074678,
                -0.5348220625455495,
                -0.7453472706205116
            ]
        },
        {
            "positions": [
                -0.2645286325335915,
                -1.4243541489054914,
                1.7227214515068114,
                1.0639837904810627,
                -0.5116192434508046,
                -0.8257585252512032
            ]
        },
        {
            "positions": [
                -0.3637606244331404,
                -1.4227462404711968,
                1.6250407005539576,
                0.9743496242546574,
                -0.4884164243560596,
                -0.9061697798818947
            ]
        },
        {
            "positions": [
                -0.4629926163326894,
                -1.421138332036902,
                1.5273599496011037,
                0.8847154580282521,
                -0.46521360526131467,
                -0.9865810345125863
            ]
        },
        {
            "positions": [
                -0.5622246082322384,
                -1.4195304236026074,
                1.4296791986482495,
                0.7950812918018468,
                -0.4420107861665697,
                -1.0669922891432777
            ]
        },
        {
            "positions": [
                -0.6614566001317872,
                -1.4179225151683128,
                1.3319984476953954,
                0.7054471255754418,
                -0.41880796707182477,
                -1.1474035437739691
            ]
        },
        {
            "positions": [
                -0.7606885920313362,
                -1.416314606734018,
                1.2343176967425415,
                0.6158129593490365,
                -0.3956051479770798,
                -1.2278147984046608
            ]
        },
        {
            "positions": [
                -0.859920583930885,
                -1.4147066982997234,
                1.1366369457896877,
                0.5261787931226314,
                -0.3724023288823349,
                -1.3082260530353524
            ]
        },
        {
            "positions": [
                -0.9591525758304341,
                -1.4130987898654288,
                1.0389561948368335,
                0.436544626896226,
                -0.3491995097875899,
                -1.3886373076660439
            ]
        },
        {
            "positions": [
                -0.8437032322946296,
                -1.4347503942146373,
                1.1270356494928158,
                0.48906777575459986,
                -0.40043666016669477,
                -1.3492342725321096
            ]
        },
        {
            "positions": [
                -0.7282538887588251,
                -1.4564019985638461,
                1.2151151041487978,
                0.5415909246129738,
                -0.4516738105457996,
                -1.3098312373981753
            ]
        },
        {
            "positions": [
                -0.6128045452230206,
                -1.4780536029130547,
                1.30319455880478,
                0.5941140734713476,
                -0.5029109609249044,
                -1.2704282022642412
            ]
        },
        {
            "positions": [
                -0.4973552016872162,
                -1.4997052072622634,
                1.391274013460762,
                0.6466372223297214,
                -0.5541481113040092,
                -1.231025167130307
            ]
        },
        {
            "positions": [
                -0.38190585815141176,
                -1.521356811611472,
                1.4793534681167442,
                0.6991603711880954,
                -0.6053852616831141,
                -1.1916221319963727
            ]
        },
        {
            "positions": [
                -0.26645651461560727,
                -1.5430084159606805,
                1.5674329227727264,
                0.7516835200464692,
                -0.6566224120622189,
                -1.1522190968624386
            ]
        },
        {
            "positions": [
                -0.15100717107980288,
                -1.5646600203098893,
                1.6555123774287082,
                0.804206668904843,
                -0.7078595624413238,
                -1.1128160617285043
            ]
        },
        {
            "positions": [
                -0.03555782754399828,
                -1.5863116246590978,
                1.7435918320846904,
                0.856729817763217,
                -0.7590967128204287,
                -1.07341302659457
            ]
        },
        {
            "positions": [
                0.079891515991806,
                -1.6079632290083063,
                1.8316712867406726,
                0.9092529666215907,
                -0.8103338631995334,
                -1.034009991460636
            ]
        },
        {
            "positions": [
                0.1953408595276106,
                -1.6296148333575151,
                1.9197507413966548,
                0.9617761154799647,
                -0.8615710135786383,
                -0.9946069563267016
            ]
        },
        {
            "positions": [
                0.310790203063415,
                -1.6512664377067237,
                2.0078301960526366,
                1.0142992643383386,
                -0.912808163957743,
                -0.9552039211927674
            ]
        },
        {
            "positions": [
                0.4262395465992196,
                -1.6729180420559324,
                2.0959096507086192,
                1.0668224131967126,
                -0.9640453143368479,
                -0.9158008860588331
            ]
        },
        {
            "positions": [
                0.5416888901350241,
                -1.694569646405141,
                2.183989105364601,
                1.1193455620550863,
                -1.0152824647159528,
                -0.876397850924899
            ]
        },
        {
            "positions": [
                0.45065594625000094,
                -1.6300586517149367,
                2.1517118822049377,
                1.1835984353023157,
                -1.0910878933259118,
                -0.8208002382089282
            ]
        },
        {
            "positions": [
                0.35962300236497785,
                -1.5655476570247324,
                2.1194346590452744,
                1.247851308549545,
                -1.166893321935871,
                -0.7652026254929576
            ]
        },
        {
            "positions": [
                0.26859005847995476,
                -1.501036662334528,
                2.0871574358856115,
                1.3121041817967742,
                -1.24269875054583,
                -0.7096050127769868
            ]
        },
        {
            "positions": [
                0.17755711459493162,
                -1.4365256676443237,
                2.0548802127259482,
                1.3763570550440036,
                -1.3185041791557892,
                -0.6540074000610161
            ]
        },
        {
            "positions": [
                0.08652417070990848,
                -1.3720146729541194,
                2.022602989566285,
                1.440609928291233,
                -1.3943096077657482,
                -0.5984097873450454
            ]
        },
        {
            "positions": [
                -0.0045087731751145554,
                -1.307503678263915,
                1.9903257664066216,
                1.5048628015384624,
                -1.4701150363757072,
                -0.5428121746290747
            ]
        },
        {
            "positions": [
                -0.0955417170601377,
                -1.2429926835737106,
                1.9580485432469585,
                1.5691156747856918,
                -1.5459204649856662,
                -0.48721456191310397
            ]
        },
        {
            "positions": [
                -0.18657466094516084,
                -1.1784816888835064,
                1.9257713200872952,
                1.6333685480329212,
                -1.6217258935956254,
                -0.4316169491971333
            ]
        },
        {
            "positions": [
                -0.277607604830184,
                -1.113970694193302,
                1.8934940969276322,
                1.6976214212801506,
                -1.6975313222055846,
                -0.3760193364811626
            ]
        },
        {
            "positions": [
                -0.36864054871520713,
                -1.0494596995030978,
                1.8612168737679688,
                1.7618742945273798,
                -1.7733367508155435,
                -0.32042172376519185
            ]
        },
        {
            "positions": [
                -0.45967349260023016,
                -0.9849487048128933,
                1.8289396506083055,
                1.8261271677746092,
                -1.8491421794255025,
                -0.2648241110492211
            ]
        },
        {
            "positions": [
                -0.5507064364852532,
                -0.920437710122689,
                1.7966624274486422,
                1.8903800410218385,
                -1.9249476080354615,
                -0.20922649833325047
            ]
        },
        {
            "positions": [
                -0.6417393803702764,
                -0.8559267154324848,
                1.7643852042889792,
                1.9546329142690677,
                -2.0007530366454205,
                -0.15362888561727972
            ]
        },
        {
            "positions": [
                -0.7327723242552995,
                -0.7914157207422804,
                1.7321079811293159,
                2.018885787516297,
                -2.0765584652553795,
                -0.09803127290130897
            ]
        },
        {
            "positions": [
                -0.8238052681403227,
                -0.726904726052076,
                1.6998307579696528,
                2.0831386607635265,
                -2.152363893865339,
                -0.04243366018533834
            ]
        },
        {
            "positions": [
                -0.9148382120253459,
                -0.6623937313618719,
                1.6675535348099895,
                2.147391534010756,
                -2.228169322475298,
                0.013163952530632355
            ]
        }
    ]
}