{
    "goal": {
        "global_pose": {
            "orientation": {
                "w": 0.005598929693374612,
                "x": 0.007748599140229565,
                "y": 0.7110244013736278,
                "z": -0.7031023480610252
            },
            "position": {
                "x": 0.1141497679147869,
                "y": -0.7141253447532654,
                "z": 0.3711530566215515
            }
        },
        "name": "move_to_auspresseinheit_B"
    },
    "id": "STRIDE_move_to_auspresseinheit_B_79",
    "joint_names": [
        "shoulder_pan_joint",
        "shoulder_lift_joint",
        "elbow_joint",
        "wrist_1_joint",
        "wrist_2_joint",
        "wrist_3_joint"
    ],
    "metrics": {
        "cart_traj_len": 0.5647525581128646,
        "distance_elbow_joint": 0.0677686375705453,
        "distance_shoulder_lift_joint": 0.2930157588985931,
        "distance_shoulder_pan_joint": 0.5762799241034247,
        "distance_wrist_1_joint": 0.34063496819345374,
        "distance_wrist_2_joint": 0.9934083580640649,
        "distance_wrist_3_joint": 0.007779535635198176,
        "smoothness": 0.0,
        "time": 0.31271413200000003,
        "traj_len": 1.5095983513720728,
        "weighted_distance": 1.90485946463071
    },
    "planner": "STRIDE",
    "start": {
        "state": {
            "elbow_joint": 2.0193083361928714,
            "shoulder_lift_joint": -1.1220246554650708,
            "shoulder_pan_joint": -1.0952077554168747,
            "wrist_1_joint": -0.8559753972642168,
            "wrist_2_joint": 0.4759566250798843,
            "wrist_3_joint": -3.1240929996934557
        }
    },
    "waypoints": [
        {
            "positions": [
                -1.0952077554168747,
                -1.1220246554650708,
                2.0193083361928714,
                -0.8559753972642168,
                0.4759566250798843,
                -3.1240929996934557
            ]
        },
        {
            "positions": [
                -1.1912544094341122,
                -1.1708606152815029,
                2.008013563264447,
                -0.7992029025653078,
                0.6415246847572285,
                -3.1227964104209227
            ]
        },
        {
            "positions": [
                -1.2873010634513495,
                -1.2196965750979352,
                1.996718790336023,
                -0.7424304078663989,
                0.8070927444345726,
                -3.1214998211483898
            ]
        },
        {
            "positions": [
                -1.3833477174685869,
                -1.2685325349143675,
                1.9854240174075988,
                -0.6856579131674899,
                0.9726608041119167,
                -3.1202032318758564
            ]
        },
        {
            "positions": [
                -1.4793943714858244,
                -1.3173684947307995,
                1.9741292444791745,
                -0.628885418468581,
                1.1382288637892608,
                -3.1189066426033234
            ]
        },
        {
            "positions": [
                -1.575441025503062,
                -1.3662044545472316,
                1.9628344715507504,
                -0.572112923769672,
                1.3037969234666051,
                -3.1176100533307904
            ]
        },
        {
            "positions": [
                -1.6714876795202993,
                -1.415040414363664,
                1.9515396986223261,
                -0.515340429070763,
                1.4693649831439493,
                -3.1163134640582575
            ]
        }
    ]
}