{
    "goal": {
        "global_pose": {
            "orientation": {
                "w": 0.5084816217422485,
                "x": -0.49083608388900757,
                "y": 0.5182115435600281,
                "z": -0.4816462993621826
            },
            "position": {
                "x": 0.5540239810943604,
                "y": 0.030875300988554955,
                "z": 0.16403168439865112
            }
        },
        "name": "move_to_storage_A"
    },
    "id": "STRIDE_move_to_storage_A_30",
    "joint_names": [
        "shoulder_pan_joint",
        "shoulder_lift_joint",
        "elbow_joint",
        "wrist_1_joint",
        "wrist_2_joint",
        "wrist_3_joint"
    ],
    "metrics": {
        "cart_traj_len": 0.3527208019282451,
        "distance_elbow_joint": 0.45292343381777944,
        "distance_shoulder_lift_joint": 0.23400960888563693,
        "distance_shoulder_pan_joint": 0.4611869822257103,
        "distance_wrist_1_joint": 0.2542650483797305,
        "distance_wrist_2_joint": 1.098610934639998,
        "distance_wrist_3_joint": 0.10762650420859243,
        "smoothness": 8.881784232165597e-16,
        "time": 0.024718302,
        "traj_len": 1.615123064090612,
        "weighted_distance": 2.0437102298502006
    },
    "planner": "STRIDE",
    "start": {
        "state": {
            "elbow_joint": 1.971548259319323,
            "shoulder_lift_joint": -1.1394851275133948,
            "shoulder_pan_joint": 0.1228115487234821,
            "wrist_1_joint": -0.7804723859257726,
            "wrist_2_joint": 0.12958671773740124,
            "wrist_3_joint": -3.192489227718131
        }
    },
    "waypoints": [
        {
            "positions": [
                0.1228115487234821,
                -1.1394851275133948,
                1.971548259319323,
                -0.7804723859257726,
                0.12958671773740124,
                -3.192489227718131
            ]
        },
        {
            "positions": [
                0.056927694119809205,
                -1.1729150716399144,
                2.036251607007577,
                -0.8167959642657341,
                0.28653113697168664,
                -3.1771140128311894
            ]
        },
        {
            "positions": [
                -0.00895616048386369,
                -1.206345015766434,
                2.1009549546958315,
                -0.8531195426056957,
                0.443475556205972,
                -3.1617387979442477
            ]
        },
        {
            "positions": [
                -0.0748400150875366,
                -1.2397749598929535,
                2.1656583023840854,
                -0.8894431209456571,
                0.6004199754402575,
                -3.146363583057306
            ]
        },
        {
            "positions": [
                -0.14072386969120948,
                -1.273204904019473,
                2.2303616500723398,
                -0.9257666992856186,
                0.7573643946745429,
                -3.130988368170364
            ]
        },
        {
            "positions": [
                -0.2066077242948824,
                -1.3066348481459926,
                2.295064997760594,
                -0.9620902776255802,
                0.9143088139088283,
                -3.115613153283422
            ]
        },
        {
            "positions": [
                -0.2724915788985553,
                -1.3400647922725122,
                2.359768345448848,
                -0.9984138559655416,
                1.0712532331431137,
                -3.1002379383964804
            ]
        },
        {
            "positions": [
                -0.3383754335022282,
                -1.3734947363990317,
                2.4244716931371024,
                -1.0347374343055031,
                1.2281976523773992,
                -3.0848627235095387
            ]
        }
    ]
}{
    "goal": {
        "global_pose": {
            "orientation": {
                "w": 0.5084816217422485,
                "x": -0.49083608388900757,
                "y": 0.5182115435600281,
                "z": -0.4816462993621826
            },
            "position": {
                "x": 0.5540239810943604,
                "y": 0.030875300988554955,
                "z": 0.16403168439865112
            }
        },
        "name": "move_to_storage_A"
    },
    "id": "STRIDE_move_to_storage_A_30",
    "joint_names": [
        "shoulder_pan_joint",
        "shoulder_lift_joint",
        "elbow_joint",
        "wrist_1_joint",
        "wrist_2_joint",
        "wrist_3_joint"
    ],
    "metrics": {
        "cart_traj_len": 0.3527207191937243,
        "distance_elbow_joint": 0.44772440348151,
        "distance_shoulder_lift_joint": 0.23257619380068073,
        "distance_shoulder_pan_joint": 0.46241087131501757,
        "distance_wrist_1_joint": 0.23744518082251043,
        "distance_wrist_2_joint": 1.0917736361477839,
        "distance_wrist_3_joint": 0.09080126521582876,
        "smoothness": 1.1102230263833737e-15,
        "time": 0.083313149,
        "traj_len": 1.6008533820382587,
        "weighted_distance": 2.0183044612211716
    },
    "planner": "STRIDE",
    "start": {
        "state": {
            "elbow_joint": 1.97154746011099,
            "shoulder_lift_joint": -1.13948474672311,
            "shoulder_pan_joint": 0.12281154466712228,
            "wrist_1_joint": -0.7804688027058302,
            "wrist_2_joint": 0.12958655903071145,
            "wrist_3_joint": 3.0906928834467795
        }
    },
    "waypoints": [
        {
            "positions": [
                0.12281154466712228,
                -1.13948474672311,
                1.97154746011099,
                -0.7804688027058302,
                0.12958655903071145,
                3.0906928834467795
            ]
        },
        {
            "positions": [
                0.056752848764976924,
                -1.1727099172660644,
                2.035508089179777,
                -0.8143895428233316,
                0.2855542213375377,
                3.1036644927633263
            ]
        },
        {
            "positions": [
                -0.009305847137168435,
                -1.2059350878090187,
                2.099468718248564,
                -0.8483102829408331,
                0.44152188364436395,
                3.1166361020798736
            ]
        },
        {
            "positions": [
                -0.0753645430393138,
                -1.2391602583519732,
                2.163429347317351,
                -0.8822310230583347,
                0.5974895459511902,
                3.1296077113964205
            ]
        },
        {
            "positions": [
                -0.14142323894145914,
                -1.2723854288949275,
                2.2273899763861387,
                -0.9161517631758361,
                0.7534572082580165,
                3.1425793207129673
            ]
        },
        {
            "positions": [
                -0.20748193484360455,
                -1.305610599437882,
                2.2913506054549257,
                -0.9500725032933377,
                0.9094248705648429,
                3.155550930029514
            ]
        },
        {
            "positions": [
                -0.27354063074574986,
                -1.3388357699808362,
                2.355311234523713,
                -0.9839932434108392,
                1.065392532871669,
                3.1685225393460614
            ]
        },
        {
            "positions": [
                -0.33959932664789527,
                -1.3720609405237907,
                2.4192718635925,
                -1.0179139835283406,
                1.2213601951784954,
                3.1814941486626083
            ]
        }
    ]
}{
    "goal": {
        "global_pose": {
            "orientation": {
                "w": 0.5084816217422485,
                "x": -0.49083608388900757,
                "y": 0.5182115435600281,
                "z": -0.4816462993621826
            },
            "position": {
                "x": 0.5540239810943604,
                "y": 0.030875300988554955,
                "z": 0.16403168439865112
            }
        },
        "name": "move_to_storage_A"
    },
    "id": "STRIDE_move_to_storage_A_30",
    "joint_names": [
        "shoulder_pan_joint",
        "shoulder_lift_joint",
        "elbow_joint",
        "wrist_1_joint",
        "wrist_2_joint",
        "wrist_3_joint"
    ],
    "metrics": {
        "cart_traj_len": 0.35256774275049796,
        "distance_elbow_joint": 0.45331111829748005,
        "distance_shoulder_lift_joint": 0.2349705861347393,
        "distance_shoulder_pan_joint": 0.45903696880580613,
        "distance_wrist_1_joint": 0.25828611499778065,
        "distance_wrist_2_joint": 1.1068731151998805,
        "distance_wrist_3_joint": 0.09973217009047364,
        "smoothness": 5.551115138160447e-16,
        "time": 0.091270499,
        "traj_len": 1.6162332979883072,
        "weighted_distance": 2.0437303256312385
    },
    "planner": "STRIDE",
    "start": {
        "state": {
            "elbow_joint": 1.9715472970024885,
            "shoulder_lift_joint": -1.1394870060712896,
            "shoulder_pan_joint": 0.12281152778156021,
            "wrist_1_joint": -0.780463741449964,
            "wrist_2_joint": 0.12958659822042276,
            "wrist_3_joint": 3.090690232415272
        }
    },
    "waypoints": [
        {
            "positions": [
                0.12281152778156021,
                -1.1394870060712896,
                1.9715472970024885,
                -0.780463741449964,
                0.12958659822042276,
                3.090690232415272
            ]
        },
        {
            "positions": [
                0.05723481795215933,
                -1.1730542326619666,
                2.036306028187843,
                -0.8173617578782184,
                0.2877113289632628,
                3.1049376852853396
            ]
        },
        {
            "positions": [
                -0.008341891877241547,
                -1.2066214592526436,
                2.1010647593731973,
                -0.8542597743064727,
                0.44583605970610285,
                3.119185138155407
            ]
        },
        {
            "positions": [
                -0.07391860170664241,
                -1.2401886858433206,
                2.1658234905585516,
                -0.8911577907347271,
                0.6039607904489429,
                3.1334325910254748
            ]
        },
        {
            "positions": [
                -0.1394953115360433,
                -1.2737559124339977,
                2.2305822217439055,
                -0.9280558071629815,
                0.762085521191783,
                3.1476800438955426
            ]
        },
        {
            "positions": [
                -0.2050720213654442,
                -1.307323139024675,
                2.29534095292926,
                -0.9649538235912358,
                0.9202102519346231,
                3.1619274967656104
            ]
        },
        {
            "positions": [
                -0.270648731194845,
                -1.340890365615352,
                2.3600996841146142,
                -1.0018518400194902,
                1.078334982677463,
                3.1761749496356777
            ]
        },
        {
            "positions": [
                -0.3362254410242459,
                -1.374457592206029,
                2.4248584152999686,
                -1.0387498564477446,
                1.2364597134203033,
                3.1904224025057455
            ]
        }
    ]
}