{
    "goal": {
        "global_pose": {
            "orientation": {
                "w": 0.005598929693374612,
                "x": 0.007748599140229565,
                "y": 0.7110244013736278,
                "z": -0.7031023480610252
            },
            "position": {
                "x": -0.8858502320852131,
                "y": -0.7141253447532654,
                "z": 0.3711530566215515
            }
        },
        "name": "move_to_auspresseinheit_C"
    },
    "id": "STRIDE_move_to_auspresseinheit_C_2",
    "joint_names": [
        "shoulder_pan_joint",
        "shoulder_lift_joint",
        "elbow_joint",
        "wrist_1_joint",
        "wrist_2_joint",
        "wrist_3_joint"
    ],
    "metrics": {
        "cart_traj_len": 0.4933485420220136,
        "distance_elbow_joint": 0.9988540679211426,
        "distance_shoulder_lift_joint": 0.3251212701563202,
        "distance_shoulder_pan_joint": 0.2566791534849995,
        "distance_wrist_1_joint": 0.6706078593009321,
        "distance_wrist_2_joint": 1.3136275950449454,
        "distance_wrist_3_joint": 0.0477671007342666,
        "smoothness": 4.844609574787718e-16,
        "time": 0.132534926,
        "traj_len": 1.900699094186822,
        "weighted_distance": 2.3858806974484326
    },
    "planner": "STRIDE",
    "start": {
        "state": {
            "elbow_joint": 1.7527959577737207,
            "shoulder_lift_joint": -0.9740617694225068,
            "shoulder_pan_joint": -2.967991417825858,
            "wrist_1_joint": -0.759517768980727,
            "wrist_2_joint": 1.7443932448377408,
            "wrist_3_joint": -3.0840537646736568
        }
    },
    "waypoints": [
        {
            "positions": [
                -2.967991417825858,
                -0.9740617694225068,
                1.7527959577737207,
                -0.759517768980727,
                1.7443932448377408,
                -3.0840537646736568
            ]
        },
        {
            "positions": [
                -2.942323502477358,
                -0.9415496424068748,
                1.6529105509816064,
                -0.6924569830506337,
                1.6130304853332462,
                -3.0888304747470836
            ]
        },
        {
            "positions": [
                -2.916655587128858,
                -0.9090375153912428,
                1.5530251441894922,
                -0.6253961971205405,
                1.4816677258287516,
                -3.09360718482051
            ]
        },
        {
            "positions": [
                -2.890987671780358,
                -0.8765253883756107,
                1.453139737397378,
                -0.5583354111904474,
                1.3503049663242572,
                -3.098383894893937
            ]
        },
        {
            "positions": [
                -2.865319756431858,
                -0.8440132613599787,
                1.3532543306052636,
                -0.4912746252603541,
                1.2189422068197626,
                -3.1031606049673632
            ]
        },
        {
            "positions": [
                -2.8396518410833584,
                -0.8115011343443467,
                1.2533689238131493,
                -0.4242138393302609,
                1.0875794473152682,
                -3.10793731504079
            ]
        },
        {
            "positions": [
                -2.8139839257348584,
                -0.7789890073287147,
                1.1534835170210351,
                -0.35715305340016773,
                0.9562166878107736,
                -3.112714025114217
            ]
        },
        {
            "positions": [
                -2.7883160103863585,
                -0.7464768803130827,
                1.053598110228921,
                -0.2900922674700745,
                0.8248539283062791,
                -3.1174907351876433
            ]
        },
        {
            "positions": [
                -2.7626480950378585,
                -0.7139647532974507,
                0.9537127034368065,
                -0.2230314815399812,
                0.6934911688017844,
                -3.12226744526107
            ]
        },
        {
            "positions": [
                -2.7369801796893585,
                -0.6814526262818186,
                0.8538272966446923,
                -0.15597069560988808,
                0.56212840929729,
                -3.1270441553344965
            ]
        },
        {
            "positions": [
                -2.7113122643408585,
                -0.6489404992661866,
                0.753941889852578,
                -0.08890990967979479,
                0.43076564979279547,
                -3.1318208654079234
            ]
        }
    ]
}