{
    "goal": {
        "global_pose": {
            "orientation": {
                "w": -0.00223480608172531,
                "x": 0.0024358444001904467,
                "y": 0.7094548369677653,
                "z": -0.704743149386269
            },
            "position": {
                "x": -0.37947507619857795,
                "y": -0.6371506643295288,
                "z": 0.19426114857196808
            }
        },
        "name": "move_to_magneteinheit_C"
    },
    "id": "STRIDE_move_to_magneteinheit_C_50",
    "joint_names": [
        "shoulder_pan_joint",
        "shoulder_lift_joint",
        "elbow_joint",
        "wrist_1_joint",
        "wrist_2_joint",
        "wrist_3_joint"
    ],
    "metrics": {
        "cart_traj_len": 0.9147471518867432,
        "distance_elbow_joint": 0.8520024114358078,
        "distance_shoulder_lift_joint": 0.5084774887752888,
        "distance_shoulder_pan_joint": 1.0197362175111182,
        "distance_wrist_1_joint": 1.3987383464189203,
        "distance_wrist_2_joint": 1.8004427003450791,
        "distance_wrist_3_joint": 0.6986873811609557,
        "smoothness": 1.8421043892233055,
        "time": 0.274353749,
        "traj_len": 2.5056106133330394,
        "weighted_distance": 3.2976719598427433
    },
    "planner": "STRIDE",
    "start": {
        "state": {
            "elbow_joint": 1.9565354010623817,
            "shoulder_lift_joint": -1.4165861575791021,
            "shoulder_pan_joint": -1.6717766225146293,
            "wrist_1_joint": -0.5286633292919765,
            "wrist_2_joint": 1.472756589071564,
            "wrist_3_joint": -3.1238370188695823
        }
    },
    "waypoints": [
        {
            "positions": [
                -1.6717766225146293,
                -1.4165861575791021,
                1.9565354010623817,
                -0.5286633292919765,
                1.472756589071564,
                -3.1238370188695823
            ]
        },
        {
            "positions": [
                -1.6721877208950993,
                -1.44852628089656,
                1.9054394502417735,
                -0.3907904507642479,
                1.4555459057717255,
                -3.0649104160457297
            ]
        },
        {
            "positions": [
                -1.6725988192755694,
                -1.480466404214018,
                1.8543434994211656,
                -0.25291757223651934,
                1.4383352224718868,
                -3.005983813221877
            ]
        },
        {
            "positions": [
                -1.6730099176560393,
                -1.512406527531476,
                1.8032475486005577,
                -0.11504469370879078,
                1.4211245391720482,
                -2.947057210398024
            ]
        },
        {
            "positions": [
                -1.6734210160365093,
                -1.5443466508489339,
                1.7521515977799496,
                0.022828184818937725,
                1.4039138558722097,
                -2.8881306075741713
            ]
        },
        {
            "positions": [
                -1.7518584865161868,
                -1.5246967199783348,
                1.8002122692623852,
                -0.015423891886658277,
                1.266672075753593,
                -2.9198155659737783
            ]
        },
        {
            "positions": [
                -1.8302959569958641,
                -1.5050467891077357,
                1.848272940744821,
                -0.05367596859225428,
                1.1294302956349764,
                -2.951500524373385
            ]
        },
        {
            "positions": [
                -1.9087334274755416,
                -1.4853968582371366,
                1.8963336122272567,
                -0.09192804529785029,
                0.9921885155163598,
                -2.983185482772992
            ]
        },
        {
            "positions": [
                -1.987170897955219,
                -1.4657469273665376,
                1.9443942837096924,
                -0.13018012200344628,
                0.8549467353977431,
                -3.0148704411725986
            ]
        },
        {
            "positions": [
                -2.0656083684348965,
                -1.4460969964959385,
                1.9924549551921282,
                -0.16843219870904233,
                0.7177049552791264,
                -3.0465553995722057
            ]
        },
        {
            "positions": [
                -2.144045838914574,
                -1.4264470656253394,
                2.040515626674564,
                -0.2066842754146383,
                0.5804631751605098,
                -3.0782403579718123
            ]
        },
        {
            "positions": [
                -2.222483309394251,
                -1.4067971347547403,
                2.0885762981569997,
                -0.24493635212023435,
                0.44322139504189306,
                -3.1099253163714193
            ]
        },
        {
            "positions": [
                -2.3009207798739286,
                -1.3871472038841413,
                2.136636969639435,
                -0.2831884288258303,
                0.3059796149232765,
                -3.141610274771026
            ]
        },
        {
            "positions": [
                -2.379358250353606,
                -1.3674972730135422,
                2.184697641121871,
                -0.32144050553142633,
                0.16873783480465981,
                -3.173295233170633
            ]
        },
        {
            "positions": [
                -2.4474315614122,
                -1.3504150247791586,
                2.1911755850044075,
                -0.3780988672394235,
                0.2716669752248285,
                -3.1399005281459673
            ]
        },
        {
            "positions": [
                -2.5155048724707942,
                -1.333332776544775,
                2.1976535288869443,
                -0.43475722894742064,
                0.3745961156449973,
                -3.106505823121301
            ]
        },
        {
            "positions": [
                -2.5835781835293883,
                -1.3162505283103914,
                2.2041314727694807,
                -0.4914155906554178,
                0.477525256065166,
                -3.0731111180966355
            ]
        },
        {
            "positions": [
                -2.5475999646972687,
                -1.2653769039880864,
                2.138918561714866,
                -0.6024166095999679,
                0.5400707643377223,
                -3.0989885278283307
            ]
        },
        {
            "positions": [
                -2.5116217458651486,
                -1.2145032796657818,
                2.073705650660251,
                -0.713417628544518,
                0.6026162726102786,
                -3.124865937560026
            ]
        },
        {
            "positions": [
                -2.475643527033029,
                -1.1636296553434768,
                2.0084927396056362,
                -0.824418647489068,
                0.665161780882835,
                -3.150743347291721
            ]
        }
    ]
}