{
    "goal": {
        "global_pose": {
            "orientation": {
                "w": 0.7031023480610252,
                "x": -0.7110244013736278,
                "y": 0.0077485991402295624,
                "z": 0.005598929693374583
            },
            "position": {
                "x": -0.8841497679147869,
                "y": 0.44412534475326537,
                "z": 0.3711530566215515
            }
        },
        "name": "move_to_auspresseinheit_D"
    },
    "id": "STRIDE_move_to_auspresseinheit_D_73",
    "joint_names": [
        "shoulder_pan_joint",
        "shoulder_lift_joint",
        "elbow_joint",
        "wrist_1_joint",
        "wrist_2_joint",
        "wrist_3_joint"
    ],
    "metrics": {
        "cart_traj_len": 0.3443459589760636,
        "distance_elbow_joint": 0.6551807004102022,
        "distance_shoulder_lift_joint": 0.13089821521669087,
        "distance_shoulder_pan_joint": 0.13382830466909687,
        "distance_wrist_1_joint": 0.5670756255331009,
        "distance_wrist_2_joint": 1.4493879537860357,
        "distance_wrist_3_joint": 0.022855559170474216,
        "smoothness": 3.947459674368863e-16,
        "time": 0.057274177999999995,
        "traj_len": 1.7202402038045737,
        "weighted_distance": 2.2408482894755917
    },
    "planner": "STRIDE",
    "start": {
        "state": {
            "elbow_joint": -1.8275523626775212,
            "shoulder_lift_joint": -2.126789852344167,
            "shoulder_pan_joint": -0.03513704404078235,
            "wrist_1_joint": -2.347782403156801,
            "wrist_2_joint": -1.6058999987535132,
            "wrist_3_joint": -3.0880379163319196
        }
    },
    "waypoints": [
        {
            "positions": [
                -0.03513704404078235,
                -2.126789852344167,
                -1.8275523626775212,
                -2.347782403156801,
                -1.6058999987535132,
                -3.0880379163319196
            ]
        },
        {
            "positions": [
                -0.051865582124419454,
                -2.1431521292462534,
                -1.745654775126246,
                -2.4186668563484384,
                -1.4247265045302586,
                -3.0851809714356104
            ]
        },
        {
            "positions": [
                -0.06859412020805657,
                -2.1595144061483396,
                -1.6637571875749706,
                -2.489551309540076,
                -1.2435530103070043,
                -3.0823240265393013
            ]
        },
        {
            "positions": [
                -0.08532265829169366,
                -2.1758766830504257,
                -1.5818596000236953,
                -2.560435762731714,
                -1.06237951608375,
                -3.0794670816429917
            ]
        },
        {
            "positions": [
                -0.10205119637533078,
                -2.1922389599525123,
                -1.49996201247242,
                -2.6313202159233513,
                -0.8812060218604953,
                -3.0766101367466825
            ]
        },
        {
            "positions": [
                -0.11877973445896789,
                -2.208601236854599,
                -1.4180644249211447,
                -2.702204669114989,
                -0.7000325276372409,
                -3.0737531918503733
            ]
        },
        {
            "positions": [
                -0.135508272542605,
                -2.224963513756685,
                -1.3361668373698696,
                -2.7730891223066267,
                -0.5188590334139864,
                -3.0708962469540637
            ]
        },
        {
            "positions": [
                -0.15223681062624211,
                -2.241325790658771,
                -1.2542692498185943,
                -2.8439735754982642,
                -0.3376855391907321,
                -3.0680393020577545
            ]
        },
        {
            "positions": [
                -0.16896534870987923,
                -2.2576880675608577,
                -1.172371662267319,
                -2.9148580286899017,
                -0.15651204496747742,
                -3.0651823571614454
            ]
        }
    ]
}