{
    "goal": {
        "global_pose": {
            "orientation": {
                "w": -0.00223480608172531,
                "x": 0.0024358444001904467,
                "y": 0.7094548369677653,
                "z": -0.704743149386269
            },
            "position": {
                "x": 0.6205249238014221,
                "y": -0.6371506643295288,
                "z": 0.19426114857196808
            }
        },
        "name": "move_to_magneteinheit_B"
    },
    "id": "STRIDE_move_to_magneteinheit_B_4",
    "joint_names": [
        "shoulder_pan_joint",
        "shoulder_lift_joint",
        "elbow_joint",
        "wrist_1_joint",
        "wrist_2_joint",
        "wrist_3_joint"
    ],
    "metrics": {
        "cart_traj_len": 3.8734587953224113,
        "distance_elbow_joint": 4.518616495510968,
        "distance_shoulder_lift_joint": 2.083814196619083,
        "distance_shoulder_pan_joint": 2.4615090044747285,
        "distance_wrist_1_joint": 4.1797544207475115,
        "distance_wrist_2_joint": 2.2387061994206054,
        "distance_wrist_3_joint": 1.9746136063901636,
        "smoothness": 0.6884303996359221,
        "time": 2.4649147620000003,
        "traj_len": 4.178159154838775,
        "weighted_distance": 5.2749124880050395
    },
    "planner": "STRIDE",
    "start": {
        "state": {
            "elbow_joint": 2.6216224122426386,
            "shoulder_lift_joint": -1.4174107377796124,
            "shoulder_pan_joint": 0.7066234856936794,
            "wrist_1_joint": 1.9546482284002225,
            "wrist_2_joint": -0.7096286983471962,
            "wrist_3_joint": 0.005740856962016249
        }
    },
    "waypoints": [
        {
            "positions": [
                0.7066234856936794,
                -1.4174107377796124,
                2.6216224122426386,
                1.9546482284002225,
                -0.7096286983471962,
                0.005740856962016249
            ]
        },
        {
            "positions": [
                0.6085376042872518,
                -1.423664876781619,
                2.6188708569410766,
                1.822970971916502,
                -0.7096447153353452,
                -0.0631775542199736
            ]
        },
        {
            "positions": [
                0.6012440532824973,
                -1.3506209661818414,
                2.6254053796183783,
                1.691870268588512,
                -0.7851341361704218,
                -0.12223870641026478
            ]
        },
        {
            "positions": [
                0.5939505022777429,
                -1.2775770555820638,
                2.63193990229568,
                1.560769565260522,
                -0.8606235570054985,
                -0.18129985860055597
            ]
        },
        {
            "positions": [
                0.5866569512729884,
                -1.2045331449822863,
                2.6384744249729817,
                1.4296688619325322,
                -0.9361129778405752,
                -0.24036101079084715
            ]
        },
        {
            "positions": [
                0.5793634002682341,
                -1.1314892343825087,
                2.6450089476502834,
                1.2985681586045423,
                -1.011602398675652,
                -0.29942216298113833
            ]
        },
        {
            "positions": [
                0.5720698492634796,
                -1.0584453237827312,
                2.651543470327585,
                1.1674674552765523,
                -1.0870918195107286,
                -0.3584833151714295
            ]
        },
        {
            "positions": [
                0.5647762982587252,
                -0.9854014131829536,
                2.658077993004887,
                1.0363667519485622,
                -1.1625812403458051,
                -0.4175444673617207
            ]
        },
        {
            "positions": [
                0.5574827472539707,
                -0.912357502583176,
                2.6646125156821885,
                0.9052660486205724,
                -1.2380706611808818,
                -0.47660561955201186
            ]
        },
        {
            "positions": [
                0.5634711431876535,
                -0.9909344954536013,
                2.523578006124553,
                0.8090227181501916,
                -1.1944261772707885,
                -0.48091884574192184
            ]
        },
        {
            "positions": [
                0.5694595391213363,
                -1.0695114883240266,
                2.3825434965669174,
                0.7127793876798107,
                -1.1507816933606954,
                -0.4852320719318318
            ]
        },
        {
            "positions": [
                0.575447935055019,
                -1.148088481194452,
                2.241508987009282,
                0.6165360572094299,
                -1.107137209450602,
                -0.48954529812174175
            ]
        },
        {
            "positions": [
                0.5814363309887017,
                -1.2266654740648772,
                2.1004744774516464,
                0.5202927267390491,
                -1.0634927255405087,
                -0.4938585243116517
            ]
        },
        {
            "positions": [
                0.5874247269223846,
                -1.3052424669353027,
                1.9594399678940106,
                0.42404939626866833,
                -1.0198482416304155,
                -0.4981717505015617
            ]
        },
        {
            "positions": [
                0.5934131228560673,
                -1.3838194598057278,
                1.8184054583363751,
                0.3278060657982875,
                -0.9762037577203222,
                -0.5024849766914716
            ]
        },
        {
            "positions": [
                0.59940151878975,
                -1.462396452676153,
                1.6773709487787396,
                0.23156273532790683,
                -0.9325592738102291,
                -0.5067982028813817
            ]
        },
        {
            "positions": [
                0.6053899147234327,
                -1.5409734455465784,
                1.5363364392211039,
                0.13531940485752592,
                -0.8889147899001357,
                -0.5111114290712916
            ]
        },
        {
            "positions": [
                0.6113783106571156,
                -1.6195504384170039,
                1.3953019296634686,
                0.03907607438714522,
                -0.8452703059900425,
                -0.5154246552612015
            ]
        },
        {
            "positions": [
                0.6173667065907983,
                -1.6981274312874293,
                1.2542674201058328,
                -0.057167256083235696,
                -0.8016258220799493,
                -0.5197378814511115
            ]
        },
        {
            "positions": [
                0.623355102524481,
                -1.7767044241578545,
                1.1132329105481973,
                -0.1534105865536164,
                -0.7579813381698559,
                -0.5240511076410215
            ]
        },
        {
            "positions": [
                0.6293434984581638,
                -1.8552814170282796,
                0.9721984009905618,
                -0.2496539170239973,
                -0.7143368542597627,
                -0.5283643338309315
            ]
        },
        {
            "positions": [
                0.6353318943918466,
                -1.933858409898705,
                0.8311638914329261,
                -0.345897247494378,
                -0.6706923703496694,
                -0.5326775600208414
            ]
        },
        {
            "positions": [
                0.765005278530478,
                -1.9516768317117585,
                0.6930913957131268,
                -0.29401138678851935,
                -0.6614452792909405,
                -0.5017711116751333
            ]
        },
        {
            "positions": [
                0.8946786626691094,
                -1.969495253524812,
                0.5550188999933277,
                -0.24212552608266066,
                -0.6521981882322117,
                -0.4708646633294252
            ]
        },
        {
            "positions": [
                1.0243520468077407,
                -1.9873136753378655,
                0.4169464042735284,
                -0.190239665376802,
                -0.6429510971734828,
                -0.4399582149837171
            ]
        },
        {
            "positions": [
                1.1540254309463722,
                -2.005132097150919,
                0.2788739085537292,
                -0.13835380467094333,
                -0.6337040061147539,
                -0.409051766638009
            ]
        },
        {
            "positions": [
                1.2836988150850037,
                -2.0229505189639725,
                0.14080141283392988,
                -0.08646794396508461,
                -0.624456915056025,
                -0.3781453182923009
            ]
        },
        {
            "positions": [
                1.4133721992236352,
                -2.040768940777026,
                0.0027289171141307023,
                -0.034582083259226015,
                -0.6152098239972961,
                -0.3472388699465928
            ]
        },
        {
            "positions": [
                1.5430455833622667,
                -2.05858736259008,
                -0.1353435786056686,
                0.017303777446632695,
                -0.6059627329385672,
                -0.3163324216008847
            ]
        },
        {
            "positions": [
                1.6727189675008978,
                -2.0764057844031334,
                -0.2734160743254678,
                0.06918963815249135,
                -0.5967156418798383,
                -0.2854259732551766
            ]
        },
        {
            "positions": [
                1.8023923516395297,
                -2.094224206216187,
                -0.4114885700452672,
                0.12107549885835006,
                -0.5874685508211094,
                -0.2545195249094685
            ]
        },
        {
            "positions": [
                1.9320657357781608,
                -2.1120426280292404,
                -0.5495610657650664,
                0.17296135956420877,
                -0.5782214597623805,
                -0.2236130765637604
            ]
        },
        {
            "positions": [
                2.0617391199167923,
                -2.129861049842294,
                -0.6876335614848655,
                0.22484722027006732,
                -0.5689743687036516,
                -0.1927066282180523
            ]
        },
        {
            "positions": [
                2.1914125040554238,
                -2.1476794716553473,
                -0.8257060572046647,
                0.27673308097592597,
                -0.5597272776449227,
                -0.16180017987234419
            ]
        },
        {
            "positions": [
                2.3210858881940553,
                -2.165497893468401,
                -0.9637785529244641,
                0.32861894168178474,
                -0.5504801865861938,
                -0.13089373152663608
            ]
        },
        {
            "positions": [
                2.4507592723326868,
                -2.1833163152814543,
                -1.1018510486442634,
                0.3805048023876434,
                -0.5412330955274649,
                -0.09998728318092795
            ]
        },
        {
            "positions": [
                2.490066357867396,
                -2.19123296462664,
                -1.1812998746156687,
                0.49030667611908624,
                -0.4949240360185988,
                -0.029961485700079643
            ]
        },
        {
            "positions": [
                2.5293734434021053,
                -2.199149613971826,
                -1.2607487005870741,
                0.6001085498505291,
                -0.4486149765097327,
                0.04006431178076866
            ]
        },
        {
            "positions": [
                2.568680528936815,
                -2.207066263317012,
                -1.3401975265584793,
                0.709910423581972,
                -0.4023059170008666,
                0.11009010926161697
            ]
        },
        {
            "positions": [
                2.607987614471524,
                -2.2149829126621974,
                -1.4196463525298846,
                0.8197122973134148,
                -0.3559968574920005,
                0.18011590674246528
            ]
        },
        {
            "positions": [
                2.647294700006233,
                -2.2228995620073833,
                -1.49909517850129,
                0.9295141710448576,
                -0.3096877979831344,
                0.2501417042233136
            ]
        },
        {
            "positions": [
                2.6866017855409425,
                -2.230816211352569,
                -1.5785440044726953,
                1.0393160447763004,
                -0.26337873847426835,
                0.32016750170416186
            ]
        },
        {
            "positions": [
                2.725908871075652,
                -2.238732860697755,
                -1.6579928304441007,
                1.1491179185077434,
                -0.21706967896540225,
                0.3901932991850102
            ]
        },
        {
            "positions": [
                2.765215956610361,
                -2.246649510042941,
                -1.737441656415506,
                1.2589197922391862,
                -0.17076061945653614,
                0.46021909666585853
            ]
        },
        {
            "positions": [
                2.744288945274635,
                -2.2930416452347147,
                -1.7238278345413858,
                1.2040414112153166,
                -0.04216978048402106,
                0.3715593901217374
            ]
        },
        {
            "positions": [
                2.7233619339389095,
                -2.3394337804264884,
                -1.7102140126672656,
                1.149163030191447,
                0.08642105848849402,
                0.28289968357761625
            ]
        },
        {
            "positions": [
                2.7024349226031834,
                -2.385825915618262,
                -1.6966001907931452,
                1.0942846491675775,
                0.21501189746100913,
                0.1942399770334951
            ]
        },
        {
            "positions": [
                2.681507911267458,
                -2.432218050810036,
                -1.682986368919025,
                1.0394062681437077,
                0.3436027364335242,
                0.10558027048937396
            ]
        },
        {
            "positions": [
                2.6605808999317317,
                -2.4786101860018097,
                -1.6693725470449048,
                0.9845278871198383,
                0.47219357540603935,
                0.016920563945252817
            ]
        }
    ]
}