{
    "goal": {
        "global_pose": {
            "orientation": {
                "w": -0.4816463035849501,
                "x": 0.5182115481033762,
                "y": 0.4908360881923453,
                "z": -0.5084816262002911
            },
            "position": {
                "x": -0.8240239810943604,
                "y": 0.19912469901144506,
                "z": 0.16403168439865112
            }
        },
        "name": "move_to_storage_D"
    },
    "id": "STRIDE_move_to_storage_D_147",
    "joint_names": [
        "shoulder_pan_joint",
        "shoulder_lift_joint",
        "elbow_joint",
        "wrist_1_joint",
        "wrist_2_joint",
        "wrist_3_joint"
    ],
    "metrics": {
        "cart_traj_len": 3.490219971959876,
        "distance_elbow_joint": 4.2070466929042984,
        "distance_shoulder_lift_joint": 1.6450305612834377,
        "distance_shoulder_pan_joint": 2.812698225725209,
        "distance_wrist_1_joint": 2.2624823747255496,
        "distance_wrist_2_joint": 0.8730319198168897,
        "distance_wrist_3_joint": 3.133427379565843,
        "smoothness": 0.030675962157399164,
        "time": 0.083641791,
        "traj_len": 3.8644167935176488,
        "weighted_distance": 4.933161887440483
    },
    "planner": "STRIDE",
    "start": {
        "state": {
            "elbow_joint": -2.384821988534728,
            "shoulder_lift_joint": -2.2788054721415256,
            "shoulder_pan_joint": -0.1854694642142757,
            "wrist_1_joint": 1.4845938289331202,
            "wrist_2_joint": 0.17898776772866878,
            "wrist_3_joint": 0.037105688729662994
        }
    },
    "waypoints": [
        {
            "positions": [
                -0.1854694642142757,
                -2.2788054721415256,
                -2.384821988534728,
                1.4845938289331202,
                0.17898776772866878,
                0.037105688729662994
            ]
        },
        {
            "positions": [
                -0.07826766662534387,
                -2.2205960426188143,
                -2.2618811867604047,
                1.4389919931529351,
                0.17980060189043096,
                -0.02121482402178084
            ]
        },
        {
            "positions": [
                0.028934130963587962,
                -2.162386613096103,
                -2.1389403849860815,
                1.3933901573727498,
                0.1806134360521931,
                -0.07953533677322468
            ]
        },
        {
            "positions": [
                0.13613592855251974,
                -2.1041771835733916,
                -2.0159995832117588,
                1.3477883215925648,
                0.18142627021395527,
                -0.1378558495246685
            ]
        },
        {
            "positions": [
                0.24333772614145163,
                -2.0459677540506798,
                -1.8930587814374356,
                1.3021864858123797,
                0.18223910437571744,
                -0.19617636227611235
            ]
        },
        {
            "positions": [
                0.35053952373038344,
                -1.9877583245279686,
                -1.7701179796631124,
                1.2565846500321944,
                0.18305193853747959,
                -0.25449687502755625
            ]
        },
        {
            "positions": [
                0.4577413213193152,
                -1.929548895005257,
                -1.6471771778887891,
                1.2109828142520094,
                0.18386477269924176,
                -0.31281738777900003
            ]
        },
        {
            "positions": [
                0.5649431189082472,
                -1.8713394654825457,
                -1.524236376114466,
                1.1653809784718243,
                0.18467760686100393,
                -0.37113790053044393
            ]
        },
        {
            "positions": [
                0.672144916497179,
                -1.8131300359598344,
                -1.401295574340143,
                1.1197791426916393,
                0.18549044102276607,
                -0.4294584132818877
            ]
        },
        {
            "positions": [
                0.7793467140861108,
                -1.754920606437123,
                -1.27835477256582,
                1.074177306911454,
                0.18630327518452824,
                -0.4877789260333315
            ]
        },
        {
            "positions": [
                0.8865485116750426,
                -1.6967111769144116,
                -1.1554139707914968,
                1.028575471131269,
                0.18711610934629042,
                -0.5460994387847754
            ]
        },
        {
            "positions": [
                0.9937503092639745,
                -1.6385017473917003,
                -1.0324731690171736,
                0.9829736353510837,
                0.18792894350805256,
                -0.6044199515362192
            ]
        },
        {
            "positions": [
                1.100952106852906,
                -1.5802923178689887,
                -0.9095323672428506,
                0.9373717995708987,
                0.18874177766981473,
                -0.662740464287663
            ]
        },
        {
            "positions": [
                1.2081539044418381,
                -1.5220828883462774,
                -0.7865915654685274,
                0.8917699637907134,
                0.1895546118315769,
                -0.7210609770391069
            ]
        },
        {
            "positions": [
                1.31535570203077,
                -1.4638734588235658,
                -0.6636507636942042,
                0.8461681280105282,
                0.19036744599333907,
                -0.7793814897905508
            ]
        },
        {
            "positions": [
                1.4225574996197017,
                -1.4056640293008544,
                -0.5407099619198812,
                0.8005662922303433,
                0.19118028015510122,
                -0.8377020025419945
            ]
        },
        {
            "positions": [
                1.5297592972086336,
                -1.347454599778143,
                -0.417769160145558,
                0.7549644564501581,
                0.1919931143168634,
                -0.8960225152934383
            ]
        },
        {
            "positions": [
                1.6369610947975655,
                -1.2892451702554317,
                -0.2948283583712348,
                0.7093626206699729,
                0.19280594847862556,
                -0.9543430280448822
            ]
        },
        {
            "positions": [
                1.7441628923864971,
                -1.2310357407327204,
                -0.17188755659691202,
                0.6637607848897878,
                0.1936187826403877,
                -1.012663540796326
            ]
        },
        {
            "positions": [
                1.851364689975429,
                -1.1728263112100088,
                -0.04894675482258881,
                0.6181589491096027,
                0.19443161680214988,
                -1.07098405354777
            ]
        },
        {
            "positions": [
                1.9585664875643607,
                -1.1146168816872974,
                0.0739940469517344,
                0.5725571133294175,
                0.19524445096391205,
                -1.1293045662992138
            ]
        },
        {
            "positions": [
                2.0657682851532924,
                -1.056407452164586,
                0.1969348487260576,
                0.5269552775492324,
                0.1960572851256742,
                -1.1876250790506575
            ]
        },
        {
            "positions": [
                2.1729700827422245,
                -0.9981980226418747,
                0.3198756505003808,
                0.48135344176904726,
                0.19687011928743636,
                -1.2459455918021014
            ]
        },
        {
            "positions": [
                2.2801718803311566,
                -0.9399885931191632,
                0.442816452274704,
                0.435751605988862,
                0.19768295344919853,
                -1.3042661045535453
            ]
        },
        {
            "positions": [
                2.387373677920088,
                -0.8817791635964518,
                0.5657572540490268,
                0.39014977020867714,
                0.19849578761096068,
                -1.362586617304989
            ]
        },
        {
            "positions": [
                2.49457547550902,
                -0.8235697340737406,
                0.6886980558233499,
                0.3445479344284919,
                0.19930862177272285,
                -1.4209071300564329
            ]
        },
        {
            "positions": [
                2.504779574432244,
                -0.8381693358595601,
                0.7758924134038283,
                0.25820666671919035,
                0.2649017806783256,
                -1.5497851731933365
            ]
        },
        {
            "positions": [
                2.5149836733554682,
                -0.8527689376453795,
                0.8630867709843068,
                0.17186539900988873,
                0.33049493958392834,
                -1.6786632163302402
            ]
        },
        {
            "positions": [
                2.5251877722786924,
                -0.8673685394311991,
                0.9502811285647852,
                0.08552413130058717,
                0.3960880984895311,
                -1.8075412594671438
            ]
        },
        {
            "positions": [
                2.535391871201916,
                -0.8819681412170185,
                1.0374754861452637,
                -0.0008171364087144473,
                0.4616812573951338,
                -1.9364193026040475
            ]
        },
        {
            "positions": [
                2.5455959701251403,
                -0.896567743002838,
                1.124669843725742,
                -0.08715840411801601,
                0.5272744163007366,
                -2.065297345740951
            ]
        },
        {
            "positions": [
                2.5558000690483644,
                -0.9111673447886575,
                1.2118642013062204,
                -0.17349967182731757,
                0.5928675752063393,
                -2.194175388877855
            ]
        },
        {
            "positions": [
                2.5660041679715886,
                -0.925766946574477,
                1.2990585588866987,
                -0.2598409395366192,
                0.658460734111942,
                -2.323053432014758
            ]
        },
        {
            "positions": [
                2.5762082668948127,
                -0.9403665483602964,
                1.3862529164671775,
                -0.3461822072459208,
                0.7240538930175449,
                -2.451931475151662
            ]
        },
        {
            "positions": [
                2.586412365818037,
                -0.954966150146116,
                1.4734472740476559,
                -0.4325234749552223,
                0.7896470519231475,
                -2.5808095182885653
            ]
        },
        {
            "positions": [
                2.5966164647412606,
                -0.9695657519319354,
                1.5606416316281342,
                -0.5188647426645239,
                0.8552402108287502,
                -2.7096875614254694
            ]
        },
        {
            "positions": [
                2.606820563664485,
                -0.9841653537177549,
                1.6478359892086125,
                -0.6052060103738255,
                0.9208333697343529,
                -2.8385656045623726
            ]
        },
        {
            "positions": [
                2.617024662587709,
                -0.9987649555035745,
                1.7350303467890913,
                -0.6915472780831271,
                0.9864265286399558,
                -2.9674436476992767
            ]
        },
        {
            "positions": [
                2.627228761510933,
                -1.013364557289394,
                1.8222247043695694,
                -0.7778885457924287,
                1.0520196875455585,
                -3.09632169083618
            ]
        }
    ]
}