{
    "goal": {
        "global_pose": {
            "orientation": {
                "w": 0.5084816262002911,
                "x": -0.4908360881923452,
                "y": 0.5182115481033761,
                "z": -0.48164630358495003
            },
            "position": {
                "x": 0.5540239810943604,
                "y": -0.46912469901144505,
                "z": 0.16403168439865112
            }
        },
        "name": "move_to_storage_B"
    },
    "id": "STRIDE_move_to_storage_B_96",
    "joint_names": [
        "shoulder_pan_joint",
        "shoulder_lift_joint",
        "elbow_joint",
        "wrist_1_joint",
        "wrist_2_joint",
        "wrist_3_joint"
    ],
    "metrics": {
        "cart_traj_len": 0.662362465066388,
        "distance_elbow_joint": 0.34974665569220287,
        "distance_shoulder_lift_joint": 0.45957464139197035,
        "distance_shoulder_pan_joint": 0.33923238405847356,
        "distance_wrist_1_joint": 2.9855049580981423,
        "distance_wrist_2_joint": 2.702131005879784,
        "distance_wrist_3_joint": 3.3121750132085186,
        "smoothness": 0.35718559830921204,
        "time": 0.20768609899999999,
        "traj_len": 3.1856498015835153,
        "weighted_distance": 4.739235238804258
    },
    "planner": "STRIDE",
    "start": {
        "state": {
            "elbow_joint": 1.664937868594044,
            "shoulder_lift_joint": -0.661644460510453,
            "shoulder_pan_joint": -0.9139846352900073,
            "wrist_1_joint": 2.146753192139373,
            "wrist_2_joint": -2.2341966793290973,
            "wrist_3_joint": 0.005466555786416001
        }
    },
    "waypoints": [
        {
            "positions": [
                -0.9139846352900073,
                -0.661644460510453,
                1.664937868594044,
                2.146753192139373,
                -2.2341966793290973,
                0.005466555786416001
            ]
        },
        {
            "positions": [
                -0.8351673950732672,
                -0.6910802892329178,
                1.6658916034645572,
                2.1451497729203153,
                -2.120143593448475,
                0.09492500129773118
            ]
        },
        {
            "positions": [
                -0.8455840008269365,
                -0.708285841739698,
                1.6798433202974248,
                2.025793711365152,
                -2.0166204766485083,
                -0.033983661410156935
            ]
        },
        {
            "positions": [
                -0.8560006065806058,
                -0.7254913942464782,
                1.6937950371302923,
                1.9064376498099884,
                -1.913097359848542,
                -0.16289232411804505
            ]
        },
        {
            "positions": [
                -0.8664172123342753,
                -0.7426969467532585,
                1.70774675396316,
                1.7870815882548252,
                -1.8095742430485755,
                -0.2918009868259332
            ]
        },
        {
            "positions": [
                -0.8768338180879446,
                -0.7599024992600386,
                1.7216984707960274,
                1.6677255266996618,
                -1.706051126248609,
                -0.4207096495338213
            ]
        },
        {
            "positions": [
                -0.8872504238416139,
                -0.7771080517668189,
                1.7356501876288952,
                1.5483694651444984,
                -1.6025280094486427,
                -0.5496183122417095
            ]
        },
        {
            "positions": [
                -0.8976670295952832,
                -0.7943136042735991,
                1.7496019044617628,
                1.4290134035893352,
                -1.499004892648676,
                -0.6785269749495976
            ]
        },
        {
            "positions": [
                -0.9080836353489525,
                -0.8115191567803793,
                1.7635536212946303,
                1.3096573420341717,
                -1.3954817758487095,
                -0.8074356376574858
            ]
        },
        {
            "positions": [
                -0.918500241102622,
                -0.8287247092871596,
                1.777505338127498,
                1.1903012804790083,
                -1.2919586590487433,
                -0.9363443003653737
            ]
        },
        {
            "positions": [
                -0.9289168468562913,
                -0.8459302617939397,
                1.7914570549603654,
                1.0709452189238449,
                -1.1884355422487767,
                -1.065252963073262
            ]
        },
        {
            "positions": [
                -0.9393334526099606,
                -0.86313581430072,
                1.805408771793233,
                0.9515891573686814,
                -1.0849124254488103,
                -1.1941616257811503
            ]
        },
        {
            "positions": [
                -0.9497500583636299,
                -0.8803413668075002,
                1.8193604886261006,
                0.8322330958135182,
                -0.9813893086488439,
                -1.3230702884890382
            ]
        },
        {
            "positions": [
                -0.9601666641172992,
                -0.8975469193142804,
                1.8333122054589681,
                0.7128770342583548,
                -0.8778661918488775,
                -1.4519789511969263
            ]
        },
        {
            "positions": [
                -0.9705832698709687,
                -0.9147524718210607,
                1.847263922291836,
                0.5935209727031914,
                -0.7743430750489109,
                -1.5808876139048145
            ]
        },
        {
            "positions": [
                -0.980999875624638,
                -0.9319580243278409,
                1.8612156391247034,
                0.47416491114802795,
                -0.6708199582489442,
                -1.7097962766127028
            ]
        },
        {
            "positions": [
                -0.9914164813783073,
                -0.9491635768346212,
                1.875167355957571,
                0.35480884959286474,
                -0.5672968414489781,
                -1.8387049393205905
            ]
        },
        {
            "positions": [
                -1.0018330871319767,
                -0.9663691293414014,
                1.8891190727904386,
                0.2354527880377013,
                -0.46377372464901145,
                -1.9676136020284787
            ]
        },
        {
            "positions": [
                -1.012249692885646,
                -0.9835746818481816,
                1.9030707896233061,
                0.11609672648253788,
                -0.36025060784904506,
                -2.0965222647363673
            ]
        },
        {
            "positions": [
                -1.0226662986393154,
                -1.0007802343549619,
                1.9170225064561737,
                -0.0032593350726255466,
                -0.25672749104907866,
                -2.225430927444255
            ]
        },
        {
            "positions": [
                -1.0330829043929846,
                -1.017985786861742,
                1.9309742232890412,
                -0.12261539662778898,
                -0.15320437424911226,
                -2.354339590152143
            ]
        },
        {
            "positions": [
                -1.043499510146654,
                -1.0351913393685224,
                1.9449259401219088,
                -0.2419714581829524,
                -0.049681257449145644,
                -2.4832482528600317
            ]
        },
        {
            "positions": [
                -1.0539161159003234,
                -1.0523968918753024,
                1.9588776569547766,
                -0.3613275197381154,
                0.05384185935082053,
                -2.6121569155679194
            ]
        },
        {
            "positions": [
                -1.0643327216539926,
                -1.0696024443820826,
                1.9728293737876441,
                -0.4806835812932788,
                0.15736497615078715,
                -2.7410655782758075
            ]
        },
        {
            "positions": [
                -1.074749327407662,
                -1.0868079968888629,
                1.9867810906205117,
                -0.6000396428484427,
                0.26088809295075377,
                -2.8699742409836957
            ]
        },
        {
            "positions": [
                -1.0851659331613313,
                -1.1040135493956431,
                2.000732807453379,
                -0.7193957044036057,
                0.36441120975071994,
                -2.998882903691584
            ]
        },
        {
            "positions": [
                -1.0955825389150007,
                -1.1212191019024234,
                2.014684524286247,
                -0.838751765958769,
                0.4679343265506864,
                -3.127791566399472
            ]
        }
    ]
}