{
    "goal": {
        "global_pose": {
            "orientation": {
                "w": -0.4816463035849501,
                "x": 0.5182115481033762,
                "y": 0.4908360881923453,
                "z": -0.5084816262002911
            },
            "position": {
                "x": -0.8240239810943604,
                "y": -0.300875300988555,
                "z": 0.16403168439865112
            }
        },
        "name": "move_to_storage_C"
    },
    "id": "STRIDE_move_to_storage_C_9",
    "joint_names": [
        "shoulder_pan_joint",
        "shoulder_lift_joint",
        "elbow_joint",
        "wrist_1_joint",
        "wrist_2_joint",
        "wrist_3_joint"
    ],
    "metrics": {
        "cart_traj_len": 0.577154298050551,
        "distance_elbow_joint": 0.2621636496896429,
        "distance_shoulder_lift_joint": 0.18996389757686383,
        "distance_shoulder_pan_joint": 0.49433647250395607,
        "distance_wrist_1_joint": 0.0879029678812312,
        "distance_wrist_2_joint": 1.0691746455954103,
        "distance_wrist_3_joint": 0.06233993457973197,
        "smoothness": 2.5376526478085547e-16,
        "time": 0.015334495,
        "traj_len": 1.471693435409303,
        "weighted_distance": 1.8567819070808886
    },
    "planner": "STRIDE",
    "start": {
        "state": {
            "elbow_joint": 2.010868314990456,
            "shoulder_lift_joint": -1.1634956873337592,
            "shoulder_pan_joint": -2.4736205022346125,
            "wrist_1_joint": -0.8367026794202681,
            "wrist_2_joint": 0.6746043897044499,
            "wrist_3_joint": -3.1496632123970403
        }
    },
    "waypoints": [
        {
            "positions": [
                -2.4736205022346125,
                -1.1634956873337592,
                2.010868314990456,
                -0.8367026794202681,
                0.6746043897044499,
                -3.1496632123970403
            ]
        },
        {
            "positions": [
                -2.5560099143186052,
                -1.1318350377376152,
                1.9671743733755154,
                -0.8220521847733963,
                0.8528001639703516,
                -3.1392732233004184
            ]
        },
        {
            "positions": [
                -2.638399326402598,
                -1.1001743881414712,
                1.923480431760575,
                -0.8074016901265244,
                1.0309959382362535,
                -3.1288832342037964
            ]
        },
        {
            "positions": [
                -2.7207887384865908,
                -1.0685137385453274,
                1.8797864901456345,
                -0.7927511954796524,
                1.2091917125021552,
                -3.1184932451071745
            ]
        },
        {
            "positions": [
                -2.803178150570583,
                -1.0368530889491834,
                1.8360925485306938,
                -0.7781007008327806,
                1.387387486768057,
                -3.108103256010552
            ]
        },
        {
            "positions": [
                -2.885567562654576,
                -1.0051924393530394,
                1.7923986069157534,
                -0.7634502061859088,
                1.5655832610339586,
                -3.0977132669139302
            ]
        },
        {
            "positions": [
                -2.9679569747385686,
                -0.9735317897568954,
                1.748704665300813,
                -0.7487997115390369,
                1.7437790352998603,
                -3.0873232778173083
            ]
        }
    ]
}