{
    "goal": {
        "global_pose": {
            "orientation": {
                "w": 0.5084816217422485,
                "x": -0.49083608388900757,
                "y": 0.5182115435600281,
                "z": -0.4816462993621826
            },
            "position": {
                "x": 0.5540239810943604,
                "y": 0.030875300988554955,
                "z": 0.16403168439865112
            }
        },
        "name": "move_to_storage_A"
    },
    "id": "STRIDE_move_to_storage_A_34",
    "joint_names": [
        "shoulder_pan_joint",
        "shoulder_lift_joint",
        "elbow_joint",
        "wrist_1_joint",
        "wrist_2_joint",
        "wrist_3_joint"
    ],
    "metrics": {
        "cart_traj_len": 0.35351133096169984,
        "distance_elbow_joint": 0.44994121745902826,
        "distance_shoulder_lift_joint": 0.2352675852057442,
        "distance_shoulder_pan_joint": 0.4620488182016197,
        "distance_wrist_1_joint": 0.2419161000814848,
        "distance_wrist_2_joint": 1.1009450279822595,
        "distance_wrist_3_joint": 0.09048302651269591,
        "smoothness": 1.5543122362334363e-15,
        "time": 0.123084477,
        "traj_len": 1.6064251540121104,
        "weighted_distance": 2.0259390308032392
    },
    "planner": "STRIDE",
    "start": {
        "state": {
            "elbow_joint": 1.971548259319323,
            "shoulder_lift_joint": -1.1394851275133948,
            "shoulder_pan_joint": 0.1228115487234821,
            "wrist_1_joint": -0.7804723859257726,
            "wrist_2_joint": 0.12958671773740124,
            "wrist_3_joint": -3.192489227718131
        }
    },
    "waypoints": [
        {
            "positions": [
                0.1228115487234821,
                -1.1394851275133948,
                1.971548259319323,
                -0.7804723859257726,
                0.12958671773740124,
                -3.192489227718131
            ]
        },
        {
            "positions": [
                0.0568045746946793,
                -1.1730947825427869,
                2.0358255760991844,
                -0.8150318287945562,
                0.286864578877724,
                -3.1795630810734603
            ]
        },
        {
            "positions": [
                -0.009202399334123507,
                -1.206704437572179,
                2.1001028928790455,
                -0.8495912716633397,
                0.4441424400180468,
                -3.1666369344287895
            ]
        },
        {
            "positions": [
                -0.07520937336292632,
                -1.240314092601571,
                2.1643802096589067,
                -0.8841507145321232,
                0.6014203011583695,
                -3.1537107877841186
            ]
        },
        {
            "positions": [
                -0.1412163473917291,
                -1.2739237476309628,
                2.228657526438768,
                -0.9187101574009068,
                0.7586981622986924,
                -3.1407846411394478
            ]
        },
        {
            "positions": [
                -0.20722332142053196,
                -1.307533402660355,
                2.292934843218629,
                -0.9532696002696903,
                0.9159760234390152,
                -3.127858494494777
            ]
        },
        {
            "positions": [
                -0.27323029544933475,
                -1.341143057689747,
                2.35721215999849,
                -0.9878290431384739,
                1.0732538845793378,
                -3.114932347850106
            ]
        },
        {
            "positions": [
                -0.3392372694781376,
                -1.374752712719139,
                2.4214894767783512,
                -1.0223884860072574,
                1.2305317457196607,
                -3.1020062012054352
            ]
        }
    ]
}{
    "goal": {
        "global_pose": {
            "orientation": {
                "w": 0.5084816217422485,
                "x": -0.49083608388900757,
                "y": 0.5182115435600281,
                "z": -0.4816462993621826
            },
            "position": {
                "x": 0.5540239810943604,
                "y": 0.030875300988554955,
                "z": 0.16403168439865112
            }
        },
        "name": "move_to_storage_A"
    },
    "id": "STRIDE_move_to_storage_A_34",
    "joint_names": [
        "shoulder_pan_joint",
        "shoulder_lift_joint",
        "elbow_joint",
        "wrist_1_joint",
        "wrist_2_joint",
        "wrist_3_joint"
    ],
    "metrics": {
        "cart_traj_len": 0.3524624960282803,
        "distance_elbow_joint": 0.44872910742969463,
        "distance_shoulder_lift_joint": 0.23381358024233,
        "distance_shoulder_pan_joint": 0.4575919938848957,
        "distance_wrist_1_joint": 0.2395995536910025,
        "distance_wrist_2_joint": 1.1114020575066024,
        "distance_wrist_3_joint": 0.09325263250600635,
        "smoothness": 1.5543122343307022e-15,
        "time": 0.025107401,
        "traj_len": 1.6076034726450834,
        "weighted_distance": 2.0302452564826123
    },
    "planner": "STRIDE",
    "start": {
        "state": {
            "elbow_joint": 1.97154746011099,
            "shoulder_lift_joint": -1.13948474672311,
            "shoulder_pan_joint": 0.12281154466712228,
            "wrist_1_joint": -0.7804688027058302,
            "wrist_2_joint": 0.12958655903071145,
            "wrist_3_joint": 3.0906928834467795
        }
    },
    "waypoints": [
        {
            "positions": [
                0.12281154466712228,
                -1.13948474672311,
                1.97154746011099,
                -0.7804688027058302,
                0.12958655903071145,
                3.0906928834467795
            ]
        },
        {
            "positions": [
                0.0574412598264229,
                -1.1728866867577286,
                2.035651618315232,
                -0.8146973103759734,
                0.28835828153165466,
                3.1040146880904946
            ]
        },
        {
            "positions": [
                -0.007929025014276489,
                -1.2062886267923472,
                2.099755776519474,
                -0.8489258180461166,
                0.44713000403259784,
                3.1173364927342098
            ]
        },
        {
            "positions": [
                -0.07329930985497586,
                -1.2396905668269658,
                2.163859934723716,
                -0.8831543257162598,
                0.605901726533541,
                3.130658297377925
            ]
        },
        {
            "positions": [
                -0.13866959469567525,
                -1.2730925068615842,
                2.2279640929279583,
                -0.917382833386403,
                0.7646734490344842,
                3.1439801020216405
            ]
        },
        {
            "positions": [
                -0.20403987953637465,
                -1.3064944468962028,
                2.2920682511322004,
                -0.9516113410565463,
                0.9234451715354275,
                3.1573019066653556
            ]
        },
        {
            "positions": [
                -0.269410164377074,
                -1.3398963869308214,
                2.3561724093364425,
                -0.9858398487266895,
                1.0822168940363706,
                3.1706237113090707
            ]
        },
        {
            "positions": [
                -0.3347804492177734,
                -1.37329832696544,
                2.4202765675406845,
                -1.0200683563968327,
                1.2409886165373138,
                3.183945515952786
            ]
        }
    ]
}{
    "goal": {
        "global_pose": {
            "orientation": {
                "w": 0.5084816217422485,
                "x": -0.49083608388900757,
                "y": 0.5182115435600281,
                "z": -0.4816462993621826
            },
            "position": {
                "x": 0.5540239810943604,
                "y": 0.030875300988554955,
                "z": 0.16403168439865112
            }
        },
        "name": "move_to_storage_A"
    },
    "id": "STRIDE_move_to_storage_A_34",
    "joint_names": [
        "shoulder_pan_joint",
        "shoulder_lift_joint",
        "elbow_joint",
        "wrist_1_joint",
        "wrist_2_joint",
        "wrist_3_joint"
    ],
    "metrics": {
        "cart_traj_len": 0.3538592113631755,
        "distance_elbow_joint": 0.44908067236244964,
        "distance_shoulder_lift_joint": 0.23405673541862781,
        "distance_shoulder_pan_joint": 0.46223882449529874,
        "distance_wrist_1_joint": 0.24184121368110234,
        "distance_wrist_2_joint": 1.1018803460182438,
        "distance_wrist_3_joint": 0.08884741642222149,
        "smoothness": 0.0,
        "time": 0.22660983,
        "traj_len": 1.6055980843280624,
        "weighted_distance": 2.024688025583629
    },
    "planner": "STRIDE",
    "start": {
        "state": {
            "elbow_joint": 1.9715472970024885,
            "shoulder_lift_joint": -1.1394870060712896,
            "shoulder_pan_joint": 0.12281152778156021,
            "wrist_1_joint": -0.780463741449964,
            "wrist_2_joint": 0.12958659822042276,
            "wrist_3_joint": 3.090690232415272
        }
    },
    "waypoints": [
        {
            "positions": [
                0.12281152778156021,
                -1.1394870060712896,
                1.9715472970024885,
                -0.780463741449964,
                0.12958659822042276,
                3.090690232415272
            ]
        },
        {
            "positions": [
                0.056777409996517536,
                -1.172923682559665,
                2.035701678768553,
                -0.8150124862615501,
                0.286998076223029,
                3.1033827204755893
            ]
        },
        {
            "positions": [
                -0.009256707788525137,
                -1.2063603590480405,
                2.099856060534617,
                -0.8495612310731361,
                0.4444095542256352,
                3.1160752085359067
            ]
        },
        {
            "positions": [
                -0.07529082557356781,
                -1.2397970355364158,
                2.164010442300681,
                -0.8841099758847222,
                0.6018210322282415,
                3.128767696596224
            ]
        },
        {
            "positions": [
                -0.14132494335861048,
                -1.2732337120247912,
                2.2281648240667455,
                -0.9186587206963082,
                0.7592325102308477,
                3.141460184656541
            ]
        },
        {
            "positions": [
                -0.20735906114365318,
                -1.3066703885131665,
                2.29231920583281,
                -0.9532074655078943,
                0.916643988233454,
                3.1541526727168585
            ]
        },
        {
            "positions": [
                -0.27339317892869586,
                -1.340107065001542,
                2.356473587598874,
                -0.9877562103194802,
                1.0740554662360602,
                3.166845160777176
            ]
        },
        {
            "positions": [
                -0.3394272967137385,
                -1.3735437414899174,
                2.420627969364938,
                -1.0223049551310663,
                1.2314669442386665,
                3.1795376488374933
            ]
        }
    ]
}