{
    "goal": {
        "global_pose": {
            "orientation": {
                "w": 0.7031023480610252,
                "x": -0.7110244013736278,
                "y": 0.0077485991402295624,
                "z": 0.005598929693374583
            },
            "position": {
                "x": -0.8841497679147869,
                "y": 0.44412534475326537,
                "z": 0.3711530566215515
            }
        },
        "name": "move_to_auspresseinheit_D"
    },
    "id": "STRIDE_move_to_auspresseinheit_D_10",
    "joint_names": [
        "shoulder_pan_joint",
        "shoulder_lift_joint",
        "elbow_joint",
        "wrist_1_joint",
        "wrist_2_joint",
        "wrist_3_joint"
    ],
    "metrics": {
        "cart_traj_len": 0.3429725221865515,
        "distance_elbow_joint": 0.6361266416281066,
        "distance_shoulder_lift_joint": 0.11955996510749989,
        "distance_shoulder_pan_joint": 0.13355985114812408,
        "distance_wrist_1_joint": 0.528550836226557,
        "distance_wrist_2_joint": 1.4343422043942606,
        "distance_wrist_3_joint": 0.0002442460478571107,
        "smoothness": 1.9737298246815533e-15,
        "time": 0.048285144,
        "traj_len": 1.6889001582545977,
        "weighted_distance": 2.1944851964114354
    },
    "planner": "STRIDE",
    "start": {
        "state": {
            "elbow_joint": -1.8275523626775212,
            "shoulder_lift_joint": -2.126789852344167,
            "shoulder_pan_joint": -0.03513704404078235,
            "wrist_1_joint": -2.347782403156801,
            "wrist_2_joint": -1.6058999987535132,
            "wrist_3_joint": -3.0880379163319196
        }
    },
    "waypoints": [
        {
            "positions": [
                -0.03513704404078235,
                -2.126789852344167,
                -1.8275523626775212,
                -2.347782403156801,
                -1.6058999987535132,
                -3.0880379163319196
            ]
        },
        {
            "positions": [
                -0.05183202543429786,
                -2.141734847982604,
                -1.748036532474008,
                -2.4138512576851205,
                -1.4266072232042306,
                -3.0880684470879016
            ]
        },
        {
            "positions": [
                -0.06852700682781337,
                -2.156679843621042,
                -1.6685207022704946,
                -2.47992011221344,
                -1.247314447654948,
                -3.0880989778438837
            ]
        },
        {
            "positions": [
                -0.08522198822132887,
                -2.1716248392594792,
                -1.5890048720669812,
                -2.54598896674176,
                -1.0680216721056655,
                -3.088129508599866
            ]
        },
        {
            "positions": [
                -0.1019169696148444,
                -2.1865698348979166,
                -1.5094890418634679,
                -2.6120578212700796,
                -0.8887288965563829,
                -3.088160039355848
            ]
        },
        {
            "positions": [
                -0.11861195100835989,
                -2.2015148305363543,
                -1.4299732116599546,
                -2.678126675798399,
                -0.7094361210071003,
                -3.08819057011183
            ]
        },
        {
            "positions": [
                -0.1353069324018754,
                -2.2164598261747916,
                -1.3504573814564411,
                -2.7441955303267185,
                -0.5301433454578177,
                -3.0882211008678127
            ]
        },
        {
            "positions": [
                -0.1520019137953909,
                -2.2314048218132294,
                -1.2709415512529278,
                -2.810264384855038,
                -0.35085056990853514,
                -3.0882516316237947
            ]
        },
        {
            "positions": [
                -0.16869689518890643,
                -2.2463498174516667,
                -1.1914257210494146,
                -2.876333239383358,
                -0.17155779435925267,
                -3.0882821623797767
            ]
        }
    ]
}