{
    "goal": {
        "global_pose": {
            "orientation": {
                "w": -0.4816463035849501,
                "x": 0.5182115481033762,
                "y": 0.4908360881923453,
                "z": -0.5084816262002911
            },
            "position": {
                "x": -0.8240239810943604,
                "y": 0.19912469901144506,
                "z": 0.16403168439865112
            }
        },
        "name": "move_to_storage_D"
    },
    "id": "STRIDE_move_to_storage_D_98",
    "joint_names": [
        "shoulder_pan_joint",
        "shoulder_lift_joint",
        "elbow_joint",
        "wrist_1_joint",
        "wrist_2_joint",
        "wrist_3_joint"
    ],
    "metrics": {
        "cart_traj_len": 3.631822090907658,
        "distance_elbow_joint": 5.535176436632406,
        "distance_shoulder_lift_joint": 0.23537582025729398,
        "distance_shoulder_pan_joint": 0.4659590574557759,
        "distance_wrist_1_joint": 4.428913503794821,
        "distance_wrist_2_joint": 5.820058744427564,
        "distance_wrist_3_joint": 3.485575630156289,
        "smoothness": 0.5677076941014226,
        "time": 0.055062735,
        "traj_len": 4.468899102992162,
        "weighted_distance": 6.0984574034143355
    },
    "planner": "STRIDE",
    "start": {
        "state": {
            "elbow_joint": -2.384821988534728,
            "shoulder_lift_joint": -2.2788054721415256,
            "shoulder_pan_joint": -0.1854694642142757,
            "wrist_1_joint": 1.4845938289331202,
            "wrist_2_joint": 0.17898776772866878,
            "wrist_3_joint": 0.037105688729662994
        }
    },
    "waypoints": [
        {
            "positions": [
                -0.1854694642142757,
                -2.2788054721415256,
                -2.384821988534728,
                1.4845938289331202,
                0.17898776772866878,
                0.037105688729662994
            ]
        },
        {
            "positions": [
                -0.16410898055418482,
                -2.2924646251122027,
                -2.451499115395984,
                1.5826220767976782,
                0.30369559724950385,
                0.09712230876255898
            ]
        },
        {
            "positions": [
                -0.14274849689409394,
                -2.3061237780828803,
                -2.5181762422572396,
                1.680650324662236,
                0.42840342677033894,
                0.157138928795455
            ]
        },
        {
            "positions": [
                -0.12138801323400306,
                -2.3197829310535574,
                -2.5848533691184956,
                1.778678572526794,
                0.553111256291174,
                0.21715554882835097
            ]
        },
        {
            "positions": [
                -0.10699947394542245,
                -2.3092202337221193,
                -2.4056524019972585,
                1.7292003928051238,
                0.6498792916054119,
                0.18329225508356883
            ]
        },
        {
            "positions": [
                -0.09261093465684185,
                -2.2986575363906807,
                -2.226451434876021,
                1.6797222130834535,
                0.7466473269196499,
                0.1494289613387867
            ]
        },
        {
            "positions": [
                -0.07822239536826124,
                -2.2880948390592426,
                -2.047250467754784,
                1.6302440333617834,
                0.8434153622338878,
                0.11556566759400456
            ]
        },
        {
            "positions": [
                -0.06383385607968065,
                -2.277532141727804,
                -1.8680495006335465,
                1.5807658536401132,
                0.9401833975481257,
                0.08170237384922244
            ]
        },
        {
            "positions": [
                -0.049445316791100036,
                -2.266969444396366,
                -1.6888485335123091,
                1.5312876739184431,
                1.0369514328623637,
                0.047839080104440296
            ]
        },
        {
            "positions": [
                -0.035056777502519426,
                -2.2564067470649274,
                -1.5096475663910718,
                1.4818094941967728,
                1.1337194681766016,
                0.013975786359658154
            ]
        },
        {
            "positions": [
                -0.02066823821393883,
                -2.2458440497334893,
                -1.3304465992698347,
                1.4323313144751026,
                1.2304875034908398,
                -0.01988750738512396
            ]
        },
        {
            "positions": [
                -0.006279698925358221,
                -2.2352813524020507,
                -1.1512456321485973,
                1.3828531347534325,
                1.3272555388050775,
                -0.0537508011299061
            ]
        },
        {
            "positions": [
                0.008108840363222375,
                -2.2247186550706126,
                -0.9720446650273598,
                1.3333749550317622,
                1.4240235741193157,
                -0.08761409487468824
            ]
        },
        {
            "positions": [
                0.022497379651802984,
                -2.214155957739174,
                -0.7928436979061224,
                1.283896775310092,
                1.5207916094335534,
                -0.12147738861947038
            ]
        },
        {
            "positions": [
                0.036885918940383594,
                -2.203593260407736,
                -0.6136427307848851,
                1.234418595588422,
                1.6175596447477916,
                -0.15534068236425252
            ]
        },
        {
            "positions": [
                0.051274458228964204,
                -2.1930305630762974,
                -0.43444176366364795,
                1.1849404158667518,
                1.7143276800620295,
                -0.18920397610903467
            ]
        },
        {
            "positions": [
                0.06566299751754479,
                -2.1824678657448593,
                -0.25524079654241083,
                1.1354622361450817,
                1.8110957153762672,
                -0.22306726985381675
            ]
        },
        {
            "positions": [
                0.0800515368061254,
                -2.1719051684134207,
                -0.07603982942117371,
                1.0859840564234113,
                1.9078637506905054,
                -0.2569305635985989
            ]
        },
        {
            "positions": [
                0.094440076094706,
                -2.1613424710819826,
                0.10316113770006385,
                1.036505876701741,
                2.0046317860047433,
                -0.29079385734338103
            ]
        },
        {
            "positions": [
                0.10882861538328661,
                -2.1507797737505445,
                0.282362104821301,
                0.987027696980071,
                2.1013998213189815,
                -0.3246571510881632
            ]
        },
        {
            "positions": [
                0.12321715467186722,
                -2.140217076419106,
                0.46156307194253854,
                0.9375495172584007,
                2.1981678566332192,
                -0.3585204448329453
            ]
        },
        {
            "positions": [
                0.1183023909665662,
                -2.139753560584393,
                0.3900403027241761,
                0.8346214014792521,
                2.079390398648125,
                -0.4438282503453298
            ]
        },
        {
            "positions": [
                0.11338762726126518,
                -2.1392900447496803,
                0.31851753350581363,
                0.7316932857001035,
                1.9606129406630308,
                -0.5291360558577143
            ]
        },
        {
            "positions": [
                0.10847286355596415,
                -2.1388265289149673,
                0.24699476428745118,
                0.6287651699209549,
                1.8418354826779364,
                -0.6144438613700989
            ]
        },
        {
            "positions": [
                0.10355809985066314,
                -2.1383630130802547,
                0.17547199506908873,
                0.5258370541418063,
                1.7230580246928422,
                -0.6997516668824834
            ]
        },
        {
            "positions": [
                0.09864333614536211,
                -2.1378994972455416,
                0.1039492258507263,
                0.4229089383626575,
                1.604280566707748,
                -0.7850594723948678
            ]
        },
        {
            "positions": [
                0.09372857244006108,
                -2.137435981410829,
                0.03242645663236382,
                0.3199808225835089,
                1.4855031087226536,
                -0.8703672779072524
            ]
        },
        {
            "positions": [
                0.08881380873476005,
                -2.136972465576116,
                -0.03909631258599866,
                0.21705270680436028,
                1.3667256507375594,
                -0.9556750834196369
            ]
        },
        {
            "positions": [
                0.08389904502945904,
                -2.1365089497414034,
                -0.11061908180436109,
                0.11412459102521166,
                1.2479481927524652,
                -1.0409828889320214
            ]
        },
        {
            "positions": [
                0.07898428132415802,
                -2.1360454339066903,
                -0.1821418510227235,
                0.011196475246063042,
                1.129170734767371,
                -1.126290694444406
            ]
        },
        {
            "positions": [
                0.074069517618857,
                -2.1355819180719777,
                -0.25366462024108594,
                -0.09173164053308569,
                1.0103932767822768,
                -1.2115984999567904
            ]
        },
        {
            "positions": [
                0.06915475391355597,
                -2.1351184022372647,
                -0.3251873894594485,
                -0.1946597563122343,
                0.8916158187971823,
                -1.296906305469175
            ]
        },
        {
            "positions": [
                0.06423999020825494,
                -2.134654886402552,
                -0.3967101586778109,
                -0.29758787209138293,
                0.7728383608120881,
                -1.3822141109815596
            ]
        },
        {
            "positions": [
                0.05932522650295392,
                -2.134191370567839,
                -0.4682329278961733,
                -0.40051598787053155,
                0.6540609028269939,
                -1.467521916493944
            ]
        },
        {
            "positions": [
                0.054410462797652895,
                -2.1337278547331264,
                -0.5397556971145359,
                -0.5034441036496802,
                0.5352834448418995,
                -1.5528297220063285
            ]
        },
        {
            "positions": [
                0.04949569909235188,
                -2.1332643388984134,
                -0.6112784663328983,
                -0.6063722194288288,
                0.4165059868568053,
                -1.6381375275187129
            ]
        },
        {
            "positions": [
                0.04458093538705085,
                -2.1328008230637003,
                -0.6828012355512607,
                -0.7093003352079774,
                0.2977285288717111,
                -1.7234453330310975
            ]
        },
        {
            "positions": [
                0.03966617168174982,
                -2.1323373072289877,
                -0.7543240047696231,
                -0.812228450987126,
                0.17895107088661666,
                -1.808753138543482
            ]
        },
        {
            "positions": [
                0.03475140797644881,
                -2.1318737913942747,
                -0.8258467739879856,
                -0.9151565667662747,
                0.06017361290152268,
                -1.8940609440558664
            ]
        },
        {
            "positions": [
                0.02983664427114778,
                -2.131410275559562,
                -0.897369543206348,
                -1.0180846825454233,
                -0.05860384508357175,
                -1.979368749568251
            ]
        },
        {
            "positions": [
                0.024921880565846766,
                -2.130946759724849,
                -0.9688923124247104,
                -1.1210127983245721,
                -0.17738130306866573,
                -2.064676555080635
            ]
        },
        {
            "positions": [
                0.020007116860545737,
                -2.1304832438901364,
                -1.040415081643073,
                -1.2239409141037205,
                -0.29615876105376016,
                -2.1499843605930202
            ]
        },
        {
            "positions": [
                0.015092353155244709,
                -2.1300197280554234,
                -1.1119378508614355,
                -1.3268690298828694,
                -0.4149362190388546,
                -2.2352921661054044
            ]
        },
        {
            "positions": [
                0.010177589449943694,
                -2.129556212220711,
                -1.183460620079798,
                -1.4297971456620178,
                -0.5337136770239486,
                -2.320599971617789
            ]
        },
        {
            "positions": [
                0.005262825744642666,
                -2.1290926963859977,
                -1.2549833892981603,
                -1.5327252614411666,
                -0.652491135009043,
                -2.4059077771301736
            ]
        },
        {
            "positions": [
                0.00034806203934163726,
                -2.128629180551285,
                -1.3265061585165228,
                -1.635653377220315,
                -0.7712685929941374,
                -2.4912155826425577
            ]
        },
        {
            "positions": [
                -0.004566701665959377,
                -2.128165664716572,
                -1.3980289277348852,
                -1.7385814929994639,
                -0.8900460509792314,
                -2.5765233881549428
            ]
        },
        {
            "positions": [
                -0.009481465371260406,
                -2.1277021488818595,
                -1.4695516969532476,
                -1.8415096087786123,
                -1.0088235089643258,
                -2.661831193667327
            ]
        },
        {
            "positions": [
                -0.014396229076561434,
                -2.1272386330471464,
                -1.5410744661716103,
                -1.944437724557761,
                -1.1276009669494202,
                -2.747138999179712
            ]
        },
        {
            "positions": [
                -0.019310992781862463,
                -2.126775117212434,
                -1.6125972353899725,
                -2.0473658403369095,
                -1.2463784249345142,
                -2.832446804692096
            ]
        },
        {
            "positions": [
                -0.024225756487163463,
                -2.126311601377721,
                -1.684120004608335,
                -2.1502939561160583,
                -1.3651558829196087,
                -2.9177546102044802
            ]
        },
        {
            "positions": [
                -0.029140520192464492,
                -2.125848085543008,
                -1.7556427738266973,
                -2.2532220718952067,
                -1.4839333409047026,
                -3.0030624157168653
            ]
        },
        {
            "positions": [
                -0.034055283897765506,
                -2.125384569708295,
                -1.82716554304506,
                -2.3561501876743556,
                -1.6027107988897968,
                -3.08837022122925
            ]
        }
    ]
}