{
    "goal": {
        "global_pose": {
            "orientation": {
                "w": 0.7047431468963623,
                "x": -0.7094548344612122,
                "y": 0.0024358443915843964,
                "z": -0.0022348060738295317
            },
            "position": {
                "x": 0.6094750761985779,
                "y": 0.3671506643295288,
                "z": 0.19426114857196808
            }
        },
        "name": "move_to_magneteinheit_A"
    },
    "id": "STRIDE_move_to_magneteinheit_A_65",
    "joint_names": [
        "shoulder_pan_joint",
        "shoulder_lift_joint",
        "elbow_joint",
        "wrist_1_joint",
        "wrist_2_joint",
        "wrist_3_joint"
    ],
    "metrics": {
        "cart_traj_len": 3.573931205184179,
        "distance_elbow_joint": 3.8732570539038234,
        "distance_shoulder_lift_joint": 0.11476871814354861,
        "distance_shoulder_pan_joint": 2.952512457083571,
        "distance_wrist_1_joint": 1.2173257507318196,
        "distance_wrist_2_joint": 2.0292991034074186,
        "distance_wrist_3_joint": 2.570278420452442,
        "smoothness": 0.3176747468671314,
        "time": 0.06505540800000001,
        "traj_len": 3.57175608121868,
        "weighted_distance": 4.598328304804557
    },
    "planner": "STRIDE",
    "start": {
        "state": {
            "elbow_joint": -1.9196185241190666,
            "shoulder_lift_joint": -1.2443396400964142,
            "shoulder_pan_joint": 2.6996025414629847,
            "wrist_1_joint": -1.5485510000780065,
            "wrist_2_joint": -1.5709468930060704,
            "wrist_3_joint": 0.4420197071253992
        }
    },
    "waypoints": [
        {
            "positions": [
                2.6996025414629847,
                -1.2443396400964142,
                -1.9196185241190666,
                -1.5485510000780065,
                -1.5709468930060704,
                0.4420197071253992
            ]
        },
        {
            "positions": [
                2.6042558355889285,
                -1.2430999154741595,
                -1.8053284581570763,
                -1.5128619700044545,
                -1.5067078375591807,
                0.5169518184158568
            ]
        },
        {
            "positions": [
                2.508909129714872,
                -1.241860190851905,
                -1.6910383921950858,
                -1.4771729399309026,
                -1.4424687821122908,
                0.5918839297063143
            ]
        },
        {
            "positions": [
                2.4135624238408155,
                -1.2406204662296505,
                -1.5767483262330955,
                -1.4414839098573506,
                -1.378229726665401,
                0.6668160409967719
            ]
        },
        {
            "positions": [
                2.318215717966759,
                -1.2393807416073959,
                -1.4624582602711051,
                -1.4057948797837987,
                -1.3139906712185112,
                0.7417481522872296
            ]
        },
        {
            "positions": [
                2.2228690120927026,
                -1.2381410169851412,
                -1.3481681943091148,
                -1.3701058497102467,
                -1.2497516157716213,
                0.8166802635776871
            ]
        },
        {
            "positions": [
                2.127522306218646,
                -1.2369012923628866,
                -1.2338781283471243,
                -1.3344168196366948,
                -1.1855125603247316,
                0.8916123748681446
            ]
        },
        {
            "positions": [
                2.0321756003445897,
                -1.235661567740632,
                -1.1195880623851338,
                -1.2987277895631428,
                -1.1212735048778417,
                0.9665444861586023
            ]
        },
        {
            "positions": [
                1.9368288944705332,
                -1.2344218431183775,
                -1.0052979964231437,
                -1.2630387594895909,
                -1.057034449430952,
                1.0414765974490598
            ]
        },
        {
            "positions": [
                1.8414821885964767,
                -1.233182118496123,
                -0.8910079304611531,
                -1.227349729416039,
                -0.9927953939840622,
                1.1164087087395176
            ]
        },
        {
            "positions": [
                1.74613548272242,
                -1.2319423938738683,
                -0.7767178644991628,
                -1.191660699342487,
                -0.9285563385371723,
                1.191340820029975
            ]
        },
        {
            "positions": [
                1.6507887768483638,
                -1.2307026692516136,
                -0.6624277985371725,
                -1.155971669268935,
                -0.8643172830902827,
                1.2662729313204326
            ]
        },
        {
            "positions": [
                1.5554420709743073,
                -1.229462944629359,
                -0.548137732575182,
                -1.120282639195383,
                -0.8000782276433929,
                1.3412050426108901
            ]
        },
        {
            "positions": [
                1.4600953651002508,
                -1.2282232200071046,
                -0.43384766661319163,
                -1.0845936091218311,
                -0.735839172196503,
                1.4161371539013476
            ]
        },
        {
            "positions": [
                1.3647486592261944,
                -1.22698349538485,
                -0.3195576006512011,
                -1.0489045790482792,
                -0.6716001167496132,
                1.4910692651918054
            ]
        },
        {
            "positions": [
                1.269401953352138,
                -1.2257437707625953,
                -0.20526753468921077,
                -1.0132155489747272,
                -0.6073610613027234,
                1.5660013764822631
            ]
        },
        {
            "positions": [
                1.1740552474780817,
                -1.2245040461403407,
                -0.09097746872722046,
                -0.9775265189011753,
                -0.5431220058558337,
                1.6409334877727204
            ]
        },
        {
            "positions": [
                1.0787085416040252,
                -1.2232643215180863,
                0.02331259723476986,
                -0.9418374888276233,
                -0.478882950408944,
                1.7158655990631781
            ]
        },
        {
            "positions": [
                0.9833618357299687,
                -1.2220245968958316,
                0.1376026631967604,
                -0.9061484587540714,
                -0.4146438949620541,
                1.7907977103536359
            ]
        },
        {
            "positions": [
                0.8880151298559122,
                -1.220784872273577,
                0.2518927291587505,
                -0.8704594286805194,
                -0.3504048395151642,
                1.8657298216440932
            ]
        },
        {
            "positions": [
                0.7926684239818556,
                -1.2195451476513224,
                0.36618279512074103,
                -0.8347703986069674,
                -0.2861657840682743,
                1.940661932934551
            ]
        },
        {
            "positions": [
                0.6973217181077995,
                -1.2183054230290677,
                0.4804728610827316,
                -0.7990813685334155,
                -0.22192672862138463,
                2.0155940442250087
            ]
        },
        {
            "positions": [
                0.6019750122337428,
                -1.2170656984068133,
                0.5947629270447217,
                -0.7633923384598635,
                -0.15768767317449495,
                2.090526155515466
            ]
        },
        {
            "positions": [
                0.5066283063596861,
                -1.2158259737845587,
                0.7090529930067122,
                -0.7277033083863116,
                -0.09344861772760504,
                2.1654582668059237
            ]
        },
        {
            "positions": [
                0.4112816004856299,
                -1.214586249162304,
                0.8233430589687027,
                -0.6920142783127596,
                -0.029209562280715362,
                2.240390378096381
            ]
        },
        {
            "positions": [
                0.31593489461157365,
                -1.2133465245400494,
                0.9376331249306928,
                -0.6563252482392077,
                0.03502949316617432,
                2.3153224893868387
            ]
        },
        {
            "positions": [
                0.22058818873751695,
                -1.2121067999177948,
                1.0519231908926834,
                -0.6206362181656557,
                0.09926854861306444,
                2.3902546006772964
            ]
        },
        {
            "positions": [
                0.1252414828634607,
                -1.2108670752955404,
                1.1662132568546735,
                -0.5849471880921038,
                0.16350760405995413,
                2.465186711967754
            ]
        },
        {
            "positions": [
                0.029894776989404015,
                -1.2096273506732858,
                1.2805033228166645,
                -0.5492581580185518,
                0.22774665950684403,
                2.540118823258212
            ]
        },
        {
            "positions": [
                -0.06545192888465229,
                -1.2083876260510311,
                1.3947933887786546,
                -0.5135691279449999,
                0.29198571495373377,
                2.615050934548669
            ]
        },
        {
            "positions": [
                -0.018587432200668733,
                -1.1886834500264898,
                1.5345046740301802,
                -0.5591550975947032,
                0.2503940910918302,
                2.714362732805962
            ]
        },
        {
            "positions": [
                0.028277064483314823,
                -1.1689792740019485,
                1.6742159592817056,
                -0.6047410672444065,
                0.20880246722992662,
                2.8136745310632554
            ]
        },
        {
            "positions": [
                0.07514156116729837,
                -1.149275097977407,
                1.813927244533231,
                -0.6503270368941098,
                0.16721084336802303,
                2.9129863293205482
            ]
        },
        {
            "positions": [
                0.12200605785128192,
                -1.1295709219528656,
                1.9536385297847567,
                -0.695913006543813,
                0.12561921950611946,
                3.012298127577841
            ]
        }
    ]
}