{
    "goal": {
        "global_pose": {
            "orientation": {
                "w": 0.005598929693374612,
                "x": 0.007748599140229565,
                "y": 0.7110244013736278,
                "z": -0.7031023480610252
            },
            "position": {
                "x": -0.8858502320852131,
                "y": -0.7141253447532654,
                "z": 0.3711530566215515
            }
        },
        "name": "move_to_auspresseinheit_C"
    },
    "id": "STRIDE_move_to_auspresseinheit_C_127",
    "joint_names": [
        "shoulder_pan_joint",
        "shoulder_lift_joint",
        "elbow_joint",
        "wrist_1_joint",
        "wrist_2_joint",
        "wrist_3_joint"
    ],
    "metrics": {
        "cart_traj_len": 0.4938693756860774,
        "distance_elbow_joint": 1.0154949787984482,
        "distance_shoulder_lift_joint": 0.33151064619463244,
        "distance_shoulder_pan_joint": 0.2557724665872536,
        "distance_wrist_1_joint": 0.711983365513818,
        "distance_wrist_2_joint": 1.3165635498580661,
        "distance_wrist_3_joint": 0.0898826813443585,
        "smoothness": 3.2297397335745243e-16,
        "time": 0.679540507,
        "traj_len": 1.9290432053991369,
        "weighted_distance": 2.4350605672872243
    },
    "planner": "STRIDE",
    "start": {
        "state": {
            "elbow_joint": 1.7527959577737207,
            "shoulder_lift_joint": -0.9740617694225068,
            "shoulder_pan_joint": -2.967991417825858,
            "wrist_1_joint": -0.759517768980727,
            "wrist_2_joint": 1.7443932448377408,
            "wrist_3_joint": -3.0840537646736568
        }
    },
    "waypoints": [
        {
            "positions": [
                -2.967991417825858,
                -0.9740617694225068,
                1.7527959577737207,
                -0.759517768980727,
                1.7443932448377408,
                -3.0840537646736568
            ]
        },
        {
            "positions": [
                -2.9424141711671328,
                -0.9409107048030435,
                1.6512464598938759,
                -0.6883194324293451,
                1.6127368898519343,
                -3.0930420328080928
            ]
        },
        {
            "positions": [
                -2.916836924508407,
                -0.9077596401835802,
                1.549696962014031,
                -0.6171210958779634,
                1.4810805348661276,
                -3.1020303009425283
            ]
        },
        {
            "positions": [
                -2.891259677849682,
                -0.8746085755641171,
                1.4481474641341863,
                -0.5459227593265816,
                1.349424179880321,
                -3.1110185690769643
            ]
        },
        {
            "positions": [
                -2.8656824311909563,
                -0.8414575109446538,
                1.3465979662543415,
                -0.4747244227751998,
                1.2177678248945143,
                -3.1200068372114003
            ]
        },
        {
            "positions": [
                -2.840105184532231,
                -0.8083064463251906,
                1.2450484683744967,
                -0.40352608622381797,
                1.0861114699087078,
                -3.128995105345836
            ]
        },
        {
            "positions": [
                -2.814527937873506,
                -0.7751553817057273,
                1.1434989704946519,
                -0.33232774967243617,
                0.9544551149229011,
                -3.137983373480272
            ]
        },
        {
            "positions": [
                -2.7889506912147803,
                -0.742004317086264,
                1.041949472614807,
                -0.2611294131210544,
                0.8227987599370946,
                -3.1469716416147078
            ]
        },
        {
            "positions": [
                -2.763373444556055,
                -0.7088532524668008,
                0.9403999747349621,
                -0.18993107656967256,
                0.691142404951288,
                -3.1559599097491438
            ]
        },
        {
            "positions": [
                -2.7377961978973295,
                -0.6757021878473375,
                0.8388504768551173,
                -0.1187327400182907,
                0.5594860499654812,
                -3.1649481778835793
            ]
        },
        {
            "positions": [
                -2.7122189512386043,
                -0.6425511232278743,
                0.7373009789752725,
                -0.04753440346690898,
                0.42782969497967466,
                -3.1739364460180153
            ]
        }
    ]
}