{
    "goal": {
        "global_pose": {
            "orientation": {
                "w": 0.5084816217422485,
                "x": -0.49083608388900757,
                "y": 0.5182115435600281,
                "z": -0.4816462993621826
            },
            "position": {
                "x": 0.5540239810943604,
                "y": 0.030875300988554955,
                "z": 0.16403168439865112
            }
        },
        "name": "move_to_storage_A"
    },
    "id": "STRIDE_move_to_storage_A_22",
    "joint_names": [
        "shoulder_pan_joint",
        "shoulder_lift_joint",
        "elbow_joint",
        "wrist_1_joint",
        "wrist_2_joint",
        "wrist_3_joint"
    ],
    "metrics": {
        "cart_traj_len": 0.3525096178102776,
        "distance_elbow_joint": 0.44990020347290627,
        "distance_shoulder_lift_joint": 0.2335887572398101,
        "distance_shoulder_pan_joint": 0.4619531967324597,
        "distance_wrist_1_joint": 0.24050187424310432,
        "distance_wrist_2_joint": 1.0933526089881576,
        "distance_wrist_3_joint": 0.10302627735537007,
        "smoothness": 0.0,
        "time": 0.043572264,
        "traj_len": 1.6069607705329363,
        "weighted_distance": 2.030327548937316
    },
    "planner": "STRIDE",
    "start": {
        "state": {
            "elbow_joint": 1.971548259319323,
            "shoulder_lift_joint": -1.1394851275133948,
            "shoulder_pan_joint": 0.1228115487234821,
            "wrist_1_joint": -0.7804723859257726,
            "wrist_2_joint": 0.12958671773740124,
            "wrist_3_joint": -3.192489227718131
        }
    },
    "waypoints": [
        {
            "positions": [
                0.1228115487234821,
                -1.1394851275133948,
                1.971548259319323,
                -0.7804723859257726,
                0.12958671773740124,
                -3.192489227718131
            ]
        },
        {
            "positions": [
                0.056818234904559284,
                -1.1728549499762249,
                2.0358197169583097,
                -0.8148297965319303,
                0.2857799475928523,
                -3.1777711880959356
            ]
        },
        {
            "positions": [
                -0.009175078914363533,
                -1.206224772439055,
                2.100091174597296,
                -0.8491872071380882,
                0.44197317744830333,
                -3.1630531484737396
            ]
        },
        {
            "positions": [
                -0.07516839273328635,
                -1.239594594901885,
                2.164362632236283,
                -0.8835446177442459,
                0.5981664073037545,
                -3.148335108851544
            ]
        },
        {
            "positions": [
                -0.14116170655220917,
                -1.2729644173647148,
                2.2286340898752695,
                -0.9179020283504037,
                0.7543596371592055,
                -3.133617069229348
            ]
        },
        {
            "positions": [
                -0.20715502037113198,
                -1.3063342398275448,
                2.292905547514256,
                -0.9522594389565614,
                0.9105528670146567,
                -3.1188990296071526
            ]
        },
        {
            "positions": [
                -0.2731483341900548,
                -1.3397040622903749,
                2.357177005153243,
                -0.9866168495627192,
                1.0667460968701077,
                -3.1041809899849566
            ]
        },
        {
            "positions": [
                -0.3391416480089776,
                -1.373073884753205,
                2.4214484627922293,
                -1.020974260168877,
                1.2229393267255588,
                -3.089462950362761
            ]
        }
    ]
}{
    "goal": {
        "global_pose": {
            "orientation": {
                "w": 0.5084816217422485,
                "x": -0.49083608388900757,
                "y": 0.5182115435600281,
                "z": -0.4816462993621826
            },
            "position": {
                "x": 0.5540239810943604,
                "y": 0.030875300988554955,
                "z": 0.16403168439865112
            }
        },
        "name": "move_to_storage_A"
    },
    "id": "STRIDE_move_to_storage_A_22",
    "joint_names": [
        "shoulder_pan_joint",
        "shoulder_lift_joint",
        "elbow_joint",
        "wrist_1_joint",
        "wrist_2_joint",
        "wrist_3_joint"
    ],
    "metrics": {
        "cart_traj_len": 0.35368699020144123,
        "distance_elbow_joint": 0.45219268322072237,
        "distance_shoulder_lift_joint": 0.23484225141514847,
        "distance_shoulder_pan_joint": 0.46373222134167036,
        "distance_wrist_1_joint": 0.24699501842875038,
        "distance_wrist_2_joint": 1.0955238500457687,
        "distance_wrist_3_joint": 0.0888716261596314,
        "smoothness": 2.2204460668324854e-16,
        "time": 0.044177513,
        "traj_len": 1.6069093473533882,
        "weighted_distance": 2.0254431049539443
    },
    "planner": "STRIDE",
    "start": {
        "state": {
            "elbow_joint": 1.97154746011099,
            "shoulder_lift_joint": -1.13948474672311,
            "shoulder_pan_joint": 0.12281154466712228,
            "wrist_1_joint": -0.7804688027058302,
            "wrist_2_joint": 0.12958655903071145,
            "wrist_3_joint": 3.0906928834467795
        }
    },
    "waypoints": [
        {
            "positions": [
                0.12281154466712228,
                -1.13948474672311,
                1.97154746011099,
                -0.7804688027058302,
                0.12958655903071145,
                3.0906928834467795
            ]
        },
        {
            "positions": [
                0.05656408447545509,
                -1.1730336397824168,
                2.0361464148568076,
                -0.8157538053385088,
                0.28608996618010696,
                3.1033888300410126
            ]
        },
        {
            "positions": [
                -0.009683375716212098,
                -1.206582532841724,
                2.100745369602625,
                -0.8510388079711875,
                0.44259337332950244,
                3.1160847766352457
            ]
        },
        {
            "positions": [
                -0.07593083590787929,
                -1.2401314259010308,
                2.1653443243484425,
                -0.886323810603866,
                0.599096780478898,
                3.128780723229479
            ]
        },
        {
            "positions": [
                -0.14217829609954646,
                -1.2736803189603376,
                2.2299432790942597,
                -0.9216088132365446,
                0.7556001876282935,
                3.1414766698237115
            ]
        },
        {
            "positions": [
                -0.20842575629121368,
                -1.3072292120196445,
                2.2945422338400774,
                -0.9568938158692233,
                0.9121035947776891,
                3.1541726164179447
            ]
        },
        {
            "positions": [
                -0.27467321648288084,
                -1.3407781050789516,
                2.3591411885858946,
                -0.9921788185019019,
                1.0686070019270846,
                3.166868563012178
            ]
        },
        {
            "positions": [
                -0.34092067667454806,
                -1.3743269981382584,
                2.4237401433317123,
                -1.0274638211345806,
                1.2251104090764802,
                3.179564509606411
            ]
        }
    ]
}{
    "goal": {
        "global_pose": {
            "orientation": {
                "w": 0.5084816217422485,
                "x": -0.49083608388900757,
                "y": 0.5182115435600281,
                "z": -0.4816462993621826
            },
            "position": {
                "x": 0.5540239810943604,
                "y": 0.030875300988554955,
                "z": 0.16403168439865112
            }
        },
        "name": "move_to_storage_A"
    },
    "id": "STRIDE_move_to_storage_A_22",
    "joint_names": [
        "shoulder_pan_joint",
        "shoulder_lift_joint",
        "elbow_joint",
        "wrist_1_joint",
        "wrist_2_joint",
        "wrist_3_joint"
    ],
    "metrics": {
        "cart_traj_len": 0.35357120109762463,
        "distance_elbow_joint": 0.4486661912890195,
        "distance_shoulder_lift_joint": 0.23387457324679528,
        "distance_shoulder_pan_joint": 0.4640421428817489,
        "distance_wrist_1_joint": 0.23917419911844728,
        "distance_wrist_2_joint": 1.0918973086699082,
        "distance_wrist_3_joint": 0.0870276539007313,
        "smoothness": 6.661338165333112e-16,
        "time": 0.07210570399999999,
        "traj_len": 1.6014624782075446,
        "weighted_distance": 2.017376733457702
    },
    "planner": "STRIDE",
    "start": {
        "state": {
            "elbow_joint": 1.9715472970024885,
            "shoulder_lift_joint": -1.1394870060712896,
            "shoulder_pan_joint": 0.12281152778156021,
            "wrist_1_joint": -0.780463741449964,
            "wrist_2_joint": 0.12958659822042276,
            "wrist_3_joint": 3.090690232415272
        }
    },
    "waypoints": [
        {
            "positions": [
                0.12281152778156021,
                -1.1394870060712896,
                1.9715472970024885,
                -0.780463741449964,
                0.12958659822042276,
                3.090690232415272
            ]
        },
        {
            "positions": [
                0.05651979308416752,
                -1.1728976593922604,
                2.035642467186634,
                -0.8146314841811707,
                0.28557192803040965,
                3.1031227544010904
            ]
        },
        {
            "positions": [
                -0.009771941613225171,
                -1.206308312713231,
                2.09973763737078,
                -0.8487992269123775,
                0.44155725784039657,
                3.1155552763869094
            ]
        },
        {
            "positions": [
                -0.07606367631061786,
                -1.2397189660342018,
                2.1638328075549254,
                -0.8829669696435842,
                0.5975425876503834,
                3.127987798372728
            ]
        },
        {
            "positions": [
                -0.14235541100801055,
                -1.2731296193551727,
                2.2279279777390713,
                -0.917134712374791,
                0.7535279174603703,
                3.140420320358547
            ]
        },
        {
            "positions": [
                -0.20864714570540324,
                -1.3065402726761435,
                2.2920231479232167,
                -0.9513024551059978,
                0.9095132472703572,
                3.1528528423443656
            ]
        },
        {
            "positions": [
                -0.2749388804027959,
                -1.339950925997114,
                2.356118318107362,
                -0.9854701978372045,
                1.065498577080344,
                3.1652853643301846
            ]
        },
        {
            "positions": [
                -0.34123061510018865,
                -1.373361579318085,
                2.420213488291508,
                -1.0196379405684113,
                1.221483906890331,
                3.177717886316003
            ]
        }
    ]
}