{
    "goal": {
        "global_pose": {
            "orientation": {
                "w": 0.005598929693374612,
                "x": 0.007748599140229565,
                "y": 0.7110244013736278,
                "z": -0.7031023480610252
            },
            "position": {
                "x": 0.1141497679147869,
                "y": -0.7141253447532654,
                "z": 0.3711530566215515
            }
        },
        "name": "move_to_auspresseinheit_B"
    },
    "id": "STRIDE_move_to_auspresseinheit_B_5",
    "joint_names": [
        "shoulder_pan_joint",
        "shoulder_lift_joint",
        "elbow_joint",
        "wrist_1_joint",
        "wrist_2_joint",
        "wrist_3_joint"
    ],
    "metrics": {
        "cart_traj_len": 0.5653859180096578,
        "distance_elbow_joint": 0.06509928583288427,
        "distance_shoulder_lift_joint": 0.2946597602234915,
        "distance_shoulder_pan_joint": 0.5766871037111745,
        "distance_wrist_1_joint": 0.33662798532123517,
        "distance_wrist_2_joint": 1.0009406706076975,
        "distance_wrist_3_joint": 0.00813472343001953,
        "smoothness": 3.806478935924272e-16,
        "time": 0.111696613,
        "traj_len": 1.5106784995909959,
        "weighted_distance": 1.906826586744446
    },
    "planner": "STRIDE",
    "start": {
        "state": {
            "elbow_joint": 2.0193083361928714,
            "shoulder_lift_joint": -1.1220246554650708,
            "shoulder_pan_joint": -1.0952077554168747,
            "wrist_1_joint": -0.8559753972642168,
            "wrist_2_joint": 0.4759566250798843,
            "wrist_3_joint": -3.1240929996934557
        }
    },
    "waypoints": [
        {
            "positions": [
                -1.0952077554168747,
                -1.1220246554650708,
                2.0193083361928714,
                -0.8559753972642168,
                0.4759566250798843,
                -3.1240929996934557
            ]
        },
        {
            "positions": [
                -1.1913222727020705,
                -1.1711346155023195,
                2.008458455220724,
                -0.7998707330440109,
                0.6427800701811672,
                -3.122737212455119
            ]
        },
        {
            "positions": [
                -1.287436789987266,
                -1.2202445755395679,
                1.9976085742485767,
                -0.743766068823805,
                0.8096035152824501,
                -3.1213814252167826
            ]
        },
        {
            "positions": [
                -1.383551307272462,
                -1.2693545355768165,
                1.9867586932764292,
                -0.6876614046035991,
                0.976426960383733,
                -3.120025637978446
            ]
        },
        {
            "positions": [
                -1.4796658245576575,
                -1.3184644956140652,
                1.9759088123042818,
                -0.6315567403833934,
                1.1432504054850159,
                -3.118669850740109
            ]
        },
        {
            "positions": [
                -1.5757803418428535,
                -1.3675744556513136,
                1.9650589313321345,
                -0.5754520761631874,
                1.310073850586299,
                -3.1173140635017726
            ]
        },
        {
            "positions": [
                -1.6718948591280491,
                -1.4166844156885623,
                1.9542090503599872,
                -0.5193474119429816,
                1.4768972956875819,
                -3.115958276263436
            ]
        }
    ]
}