{
    "goal": {
        "global_pose": {
            "orientation": {
                "w": -0.4816463035849501,
                "x": 0.5182115481033762,
                "y": 0.4908360881923453,
                "z": -0.5084816262002911
            },
            "position": {
                "x": -0.8240239810943604,
                "y": -0.300875300988555,
                "z": 0.16403168439865112
            }
        },
        "name": "move_to_storage_C"
    },
    "id": "STRIDE_move_to_storage_C_17",
    "joint_names": [
        "shoulder_pan_joint",
        "shoulder_lift_joint",
        "elbow_joint",
        "wrist_1_joint",
        "wrist_2_joint",
        "wrist_3_joint"
    ],
    "metrics": {
        "cart_traj_len": 0.5760108319468488,
        "distance_elbow_joint": 0.2586378947142054,
        "distance_shoulder_lift_joint": 0.18946505434033967,
        "distance_shoulder_pan_joint": 0.49470350319233614,
        "distance_wrist_1_joint": 0.08316610501048816,
        "distance_wrist_2_joint": 1.0627004135013678,
        "distance_wrist_3_joint": 0.07557524837118201,
        "smoothness": 0.0,
        "time": 0.129298771,
        "traj_len": 1.4711384092361668,
        "weighted_distance": 1.8604475897977184
    },
    "planner": "STRIDE",
    "start": {
        "state": {
            "elbow_joint": 2.010868314990456,
            "shoulder_lift_joint": -1.1634956873337592,
            "shoulder_pan_joint": -2.4736205022346125,
            "wrist_1_joint": -0.8367026794202681,
            "wrist_2_joint": 0.6746043897044499,
            "wrist_3_joint": -3.1496632123970403
        }
    },
    "waypoints": [
        {
            "positions": [
                -2.4736205022346125,
                -1.1634956873337592,
                2.010868314990456,
                -0.8367026794202681,
                0.6746043897044499,
                -3.1496632123970403
            ]
        },
        {
            "positions": [
                -2.556071086100002,
                -1.131918178277036,
                1.9677619992047548,
                -0.82284166191852,
                0.8517211252880112,
                -3.13706733766851
            ]
        },
        {
            "positions": [
                -2.638521669965391,
                -1.1003406692203126,
                1.924655683419054,
                -0.8089806444167721,
                1.0288378608715725,
                -3.1244714629399795
            ]
        },
        {
            "positions": [
                -2.7209722538307806,
                -1.0687631601635894,
                1.8815493676333532,
                -0.795119626915024,
                1.205954596455134,
                -3.1118755882114493
            ]
        },
        {
            "positions": [
                -2.80342283769617,
                -1.037185651106866,
                1.8384430518476522,
                -0.781258609413276,
                1.383071332038695,
                -3.099279713482919
            ]
        },
        {
            "positions": [
                -2.885873421561559,
                -1.0056081420501428,
                1.7953367360619512,
                -0.767397591911528,
                1.5601880676222564,
                -3.0866838387543885
            ]
        },
        {
            "positions": [
                -2.9683240054269486,
                -0.9740306329934195,
                1.7522304202762504,
                -0.75353657440978,
                1.7373048032058176,
                -3.0740879640258583
            ]
        }
    ]
}