{
    "goal": {
        "global_pose": {
            "orientation": {
                "w": 0.7031023480610252,
                "x": -0.7110244013736278,
                "y": 0.0077485991402295624,
                "z": 0.005598929693374583
            },
            "position": {
                "x": -0.8841497679147869,
                "y": 0.44412534475326537,
                "z": 0.3711530566215515
            }
        },
        "name": "move_to_auspresseinheit_D"
    },
    "id": "STRIDE_move_to_auspresseinheit_D_46",
    "joint_names": [
        "shoulder_pan_joint",
        "shoulder_lift_joint",
        "elbow_joint",
        "wrist_1_joint",
        "wrist_2_joint",
        "wrist_3_joint"
    ],
    "metrics": {
        "cart_traj_len": 0.34450444810562786,
        "distance_elbow_joint": 0.6562226839710406,
        "distance_shoulder_lift_joint": 0.13120159994058023,
        "distance_shoulder_pan_joint": 0.13420214911066897,
        "distance_wrist_1_joint": 0.5800954714105111,
        "distance_wrist_2_joint": 1.4469942413314643,
        "distance_wrist_3_joint": 0.0469447762561912,
        "smoothness": 1.9737298371844314e-16,
        "time": 0.09510245,
        "traj_len": 1.7307977703996664,
        "weighted_distance": 2.2619991572223923
    },
    "planner": "STRIDE",
    "start": {
        "state": {
            "elbow_joint": -1.8275523626775212,
            "shoulder_lift_joint": -2.126789852344167,
            "shoulder_pan_joint": -0.03513704404078235,
            "wrist_1_joint": -2.347782403156801,
            "wrist_2_joint": -1.6058999987535132,
            "wrist_3_joint": -3.0880379163319196
        }
    },
    "waypoints": [
        {
            "positions": [
                -0.03513704404078235,
                -2.126789852344167,
                -1.8275523626775212,
                -2.347782403156801,
                -1.6058999987535132,
                -3.0880379163319196
            ]
        },
        {
            "positions": [
                -0.05191231267961597,
                -2.1431900523367395,
                -1.745524527181141,
                -2.420294337083115,
                -1.4250257185870803,
                -3.082169819299896
            ]
        },
        {
            "positions": [
                -0.0686875813184496,
                -2.159590252329312,
                -1.663496691684761,
                -2.4928062710094285,
                -1.2441514384206471,
                -3.0763017222678717
            ]
        },
        {
            "positions": [
                -0.0854628499572832,
                -2.1759904523218845,
                -1.581468856188381,
                -2.5653182049357426,
                -1.063277158254214,
                -3.070433625235848
            ]
        },
        {
            "positions": [
                -0.10223811859611684,
                -2.192390652314457,
                -1.499441020692001,
                -2.637830138862056,
                -0.8824028780877811,
                -3.0645655282038238
            ]
        },
        {
            "positions": [
                -0.11901338723495045,
                -2.2087908523070294,
                -1.4174131851956209,
                -2.7103420727883702,
                -0.701528597921348,
                -3.0586974311718
            ]
        },
        {
            "positions": [
                -0.13578865587378408,
                -2.225191052299602,
                -1.3353853496992407,
                -2.7828540067146843,
                -0.520654317754915,
                -3.0528293341397763
            ]
        },
        {
            "positions": [
                -0.1525639245126177,
                -2.2415912522921744,
                -1.2533575142028606,
                -2.855365940640998,
                -0.33978003758848185,
                -3.046961237107752
            ]
        },
        {
            "positions": [
                -0.16933919315145132,
                -2.257991452284747,
                -1.1713296787064806,
                -2.927877874567312,
                -0.15890575742204902,
                -3.0410931400757284
            ]
        }
    ]
}