{
    "goal": {
        "global_pose": {
            "orientation": {
                "w": 0.7031023502349854,
                "x": -0.7110244035720825,
                "y": 0.007748599164187908,
                "z": 0.005598929710686207
            },
            "position": {
                "x": 0.11585023208521307,
                "y": 0.44412534475326537,
                "z": 0.3711530566215515
            }
        },
        "name": "move_to_auspresseinheit_A"
    },
    "id": "STRIDE_move_to_auspresseinheit_A_69",
    "joint_names": [
        "shoulder_pan_joint",
        "shoulder_lift_joint",
        "elbow_joint",
        "wrist_1_joint",
        "wrist_2_joint",
        "wrist_3_joint"
    ],
    "metrics": {
        "cart_traj_len": 0.7016588006153873,
        "distance_elbow_joint": 0.06836481148269158,
        "distance_shoulder_lift_joint": 0.5350005358506085,
        "distance_shoulder_pan_joint": 1.041814753460639,
        "distance_wrist_1_joint": 0.5556877064068917,
        "distance_wrist_2_joint": 0.5883695431198812,
        "distance_wrist_3_joint": 0.11183350318269802,
        "smoothness": 0.3952531198390893,
        "time": 0.058832631999999996,
        "traj_len": 1.7032530209876071,
        "weighted_distance": 2.0661062676918576
    },
    "planner": "STRIDE",
    "start": {
        "state": {
            "elbow_joint": 2.4225746658250005,
            "shoulder_lift_joint": -1.3736534386056498,
            "shoulder_pan_joint": -0.3378633547517467,
            "wrist_1_joint": -1.0288598680537169,
            "wrist_2_joint": 1.233022673432363,
            "wrist_3_joint": -3.0940220416140027
        }
    },
    "waypoints": [
        {
            "positions": [
                -0.3378633547517467,
                -1.3736534386056498,
                2.4225746658250005,
                -1.0288598680537169,
                1.233022673432363,
                -3.0940220416140027
            ]
        },
        {
            "positions": [
                -0.21334019701854834,
                -1.4499536070571,
                2.4157161439137576,
                -0.9628891852071546,
                1.1529344552282703,
                -3.0881255652070845
            ]
        },
        {
            "positions": [
                -0.08881703928534992,
                -1.5262537755085501,
                2.408857622002514,
                -0.8969185023605923,
                1.0728462370241778,
                -3.0822290888001667
            ]
        },
        {
            "positions": [
                0.03570611844784849,
                -1.6025539439600003,
                2.4019991000912713,
                -0.8309478195140301,
                0.9927580188200851,
                -3.0763326123932484
            ]
        },
        {
            "positions": [
                0.16022927618104688,
                -1.6788541124114502,
                2.3951405781800283,
                -0.7649771366674678,
                0.9126698006159923,
                -3.07043613598633
            ]
        },
        {
            "positions": [
                0.2847524339142454,
                -1.7551542808629004,
                2.3882820562687854,
                -0.6990064538209054,
                0.8325815824118997,
                -3.064539659579412
            ]
        },
        {
            "positions": [
                0.4092755916474437,
                -1.8314544493143505,
                2.381423534357542,
                -0.6330357709743433,
                0.7524933642078071,
                -3.058643183172494
            ]
        },
        {
            "positions": [
                0.5337987493806422,
                -1.9077546177658007,
                2.374565012446299,
                -0.5670650881277809,
                0.6724051460037144,
                -3.052746706765576
            ]
        },
        {
            "positions": [
                0.7039513987088923,
                -1.9086539744562583,
                2.3949201705502894,
                -0.47317216164682524,
                0.7001571616949469,
                -3.123304875099847
            ]
        }
    ]
}