{
    "goal": {
        "global_pose": {
            "orientation": {
                "w": 0.7031023480610252,
                "x": -0.7110244013736278,
                "y": 0.0077485991402295624,
                "z": 0.005598929693374583
            },
            "position": {
                "x": -0.8841497679147869,
                "y": 0.44412534475326537,
                "z": 0.3711530566215515
            }
        },
        "name": "move_to_auspresseinheit_D"
    },
    "id": "STRIDE_move_to_auspresseinheit_D_119",
    "joint_names": [
        "shoulder_pan_joint",
        "shoulder_lift_joint",
        "elbow_joint",
        "wrist_1_joint",
        "wrist_2_joint",
        "wrist_3_joint"
    ],
    "metrics": {
        "cart_traj_len": 0.3436571827945359,
        "distance_elbow_joint": 0.657526277975103,
        "distance_shoulder_lift_joint": 0.1320875665856125,
        "distance_shoulder_pan_joint": 0.13387925379436333,
        "distance_wrist_1_joint": 0.6044204643239302,
        "distance_wrist_2_joint": 1.4328772808987487,
        "distance_wrist_3_joint": 0.05670204586246408,
        "smoothness": 1.1842378929335002e-15,
        "time": 0.349566314,
        "traj_len": 1.7370932299218202,
        "weighted_distance": 2.273366386306402
    },
    "planner": "STRIDE",
    "start": {
        "state": {
            "elbow_joint": -1.8275523626775212,
            "shoulder_lift_joint": -2.126789852344167,
            "shoulder_pan_joint": -0.03513704404078235,
            "wrist_1_joint": -2.347782403156801,
            "wrist_2_joint": -1.6058999987535132,
            "wrist_3_joint": -3.0880379163319196
        }
    },
    "waypoints": [
        {
            "positions": [
                -0.03513704404078235,
                -2.126789852344167,
                -1.8275523626775212,
                -2.347782403156801,
                -1.6058999987535132,
                -3.0880379163319196
            ]
        },
        {
            "positions": [
                -0.051871950765077765,
                -2.1433007981673686,
                -1.7453615779306333,
                -2.423334961197292,
                -1.4267903386411696,
                -3.0809501605991114
            ]
        },
        {
            "positions": [
                -0.06860685748937317,
                -2.15981174399057,
                -1.6631707931837454,
                -2.4988875192377833,
                -1.247680678528826,
                -3.0738624048663037
            ]
        },
        {
            "positions": [
                -0.0853417642136686,
                -2.1763226898137713,
                -1.5809800084368575,
                -2.5744400772782745,
                -1.0685710184164825,
                -3.0667746491334955
            ]
        },
        {
            "positions": [
                -0.10207667093796402,
                -2.192833635636973,
                -1.4987892236899696,
                -2.6499926353187657,
                -0.8894613583041389,
                -3.059686893400688
            ]
        },
        {
            "positions": [
                -0.11881157766225944,
                -2.209344581460175,
                -1.416598438943082,
                -2.7255451933592574,
                -0.7103516981917952,
                -3.0525991376678796
            ]
        },
        {
            "positions": [
                -0.13554648438655484,
                -2.225855527283376,
                -1.334407654196194,
                -2.8010977513997486,
                -0.5312420380794518,
                -3.0455113819350714
            ]
        },
        {
            "positions": [
                -0.15228139111085026,
                -2.2423664731065776,
                -1.252216869449306,
                -2.87665030944024,
                -0.35213237796710817,
                -3.0384236262022637
            ]
        },
        {
            "positions": [
                -0.16901629783514568,
                -2.2588774189297793,
                -1.1700260847024182,
                -2.952202867480731,
                -0.1730227178547645,
                -3.0313358704694555
            ]
        }
    ]
}