{
    "goal": {
        "global_pose": {
            "orientation": {
                "w": 0.005598929693374612,
                "x": 0.007748599140229565,
                "y": 0.7110244013736278,
                "z": -0.7031023480610252
            },
            "position": {
                "x": -0.8858502320852131,
                "y": -0.7141253447532654,
                "z": 0.3711530566215515
            }
        },
        "name": "move_to_auspresseinheit_C"
    },
    "id": "TRRT_move_to_auspresseinheit_C_117",
    "joint_names": [
        "shoulder_pan_joint",
        "shoulder_lift_joint",
        "elbow_joint",
        "wrist_1_joint",
        "wrist_2_joint",
        "wrist_3_joint"
    ],
    "metrics": {
        "cart_traj_len": 0.49345444220655443,
        "distance_elbow_joint": 0.9961244594021227,
        "distance_shoulder_lift_joint": 0.32283709074882994,
        "distance_shoulder_pan_joint": 0.25607217876614907,
        "distance_wrist_1_joint": 0.6608069068231606,
        "distance_wrist_2_joint": 1.3150922615262175,
        "distance_wrist_3_joint": 0.05321345671520872,
        "smoothness": 0.0,
        "time": 0.061751944999999996,
        "traj_len": 1.8984589418740898,
        "weighted_distance": 2.384632557808746
    },
    "planner": "TRRT",
    "start": {
        "state": {
            "elbow_joint": 1.7527959577737207,
            "shoulder_lift_joint": -0.9740617694225068,
            "shoulder_pan_joint": -2.967991417825858,
            "wrist_1_joint": -0.759517768980727,
            "wrist_2_joint": 1.7443932448377408,
            "wrist_3_joint": -3.0840537646736568
        }
    },
    "waypoints": [
        {
            "positions": [
                -2.967991417825858,
                -0.9740617694225068,
                1.7527959577737207,
                -0.759517768980727,
                1.7443932448377408,
                -3.0840537646736568
            ]
        },
        {
            "positions": [
                -2.942384199949243,
                -0.9417780603476238,
                1.6531835118335083,
                -0.693437078298411,
                1.612884018685119,
                -3.089375110345178
            ]
        },
        {
            "positions": [
                -2.916776982072628,
                -0.9094943512727408,
                1.5535710658932962,
                -0.6273563876160948,
                1.4813747925324974,
                -3.0946964560166985
            ]
        },
        {
            "positions": [
                -2.8911697641960132,
                -0.8772106421978578,
                1.4539586199530838,
                -0.5612756969337789,
                1.3498655663798755,
                -3.100017801688219
            ]
        },
        {
            "positions": [
                -2.8655625463193983,
                -0.8449269331229747,
                1.3543461740128715,
                -0.49519500625146273,
                1.218356340227254,
                -3.1053391473597403
            ]
        },
        {
            "positions": [
                -2.8399553284427834,
                -0.8126432240480919,
                1.2547337280726594,
                -0.4291143155691467,
                1.086847114074632,
                -3.1106604930312614
            ]
        },
        {
            "positions": [
                -2.8143481105661685,
                -0.7803595149732088,
                1.155121282132447,
                -0.36303362488683066,
                0.9553378879220104,
                -3.115981838702782
            ]
        },
        {
            "positions": [
                -2.7887408926895536,
                -0.7480758058983259,
                1.0555088361922347,
                -0.29695293420451463,
                0.8238286617693886,
                -3.1213031843743027
            ]
        },
        {
            "positions": [
                -2.7631336748129387,
                -0.7157920968234428,
                0.9558963902520224,
                -0.23087224352219848,
                0.6923194356167668,
                -3.1266245300458237
            ]
        },
        {
            "positions": [
                -2.737526456936324,
                -0.6835083877485598,
                0.8562839443118102,
                -0.16479155283988245,
                0.560810209464145,
                -3.131945875717345
            ]
        },
        {
            "positions": [
                -2.711919239059709,
                -0.6512246786736768,
                0.756671498371598,
                -0.09871086215756639,
                0.42930098331152333,
                -3.1372672213888655
            ]
        }
    ]
}