{
    "goal": {
        "global_pose": {
            "orientation": {
                "w": 0.5084816262002911,
                "x": -0.4908360881923452,
                "y": 0.5182115481033761,
                "z": -0.48164630358495003
            },
            "position": {
                "x": 0.5540239810943604,
                "y": -0.46912469901144505,
                "z": 0.16403168439865112
            }
        },
        "name": "move_to_storage_B"
    },
    "id": "TRRT_move_to_storage_B_146",
    "joint_names": [
        "shoulder_pan_joint",
        "shoulder_lift_joint",
        "elbow_joint",
        "wrist_1_joint",
        "wrist_2_joint",
        "wrist_3_joint"
    ],
    "metrics": {
        "cart_traj_len": 0.6614637765333198,
        "distance_elbow_joint": 0.3496369784862239,
        "distance_shoulder_lift_joint": 0.4593131842938638,
        "distance_shoulder_pan_joint": 0.3559227885109745,
        "distance_wrist_1_joint": 2.9830624406346256,
        "distance_wrist_2_joint": 2.7062742183682267,
        "distance_wrist_3_joint": 3.1764598703519393,
        "smoothness": 0.09494928544599592,
        "time": 0.106425171,
        "traj_len": 3.167123218418547,
        "weighted_distance": 4.6981832531684615
    },
    "planner": "TRRT",
    "start": {
        "state": {
            "elbow_joint": 1.664937868594044,
            "shoulder_lift_joint": -0.661644460510453,
            "shoulder_pan_joint": -0.9139846352900073,
            "wrist_1_joint": 2.146753192139373,
            "wrist_2_joint": -2.2341966793290973,
            "wrist_3_joint": 0.005466555786416001
        }
    },
    "waypoints": [
        {
            "positions": [
                -0.9139846352900073,
                -0.661644460510453,
                1.664937868594044,
                2.146753192139373,
                -2.2341966793290973,
                0.005466555786416001
            ]
        },
        {
            "positions": [
                -0.8268122000885909,
                -0.710913289073776,
                1.678956998425969,
                2.0760113930388098,
                -2.158829700541344,
                0.02212566919336136
            ]
        },
        {
            "positions": [
                -0.8375622142209732,
                -0.7273150633029977,
                1.692381712372141,
                1.9595185673774473,
                -2.053593410958125,
                -0.10426636108443842
            ]
        },
        {
            "positions": [
                -0.8483122283533555,
                -0.7437168375322193,
                1.7058064263183128,
                1.843025741716085,
                -1.948357121374906,
                -0.23065839136223817
            ]
        },
        {
            "positions": [
                -0.8590622424857379,
                -0.7601186117614409,
                1.7192311402644849,
                1.7265329160547225,
                -1.8431208317916872,
                -0.357050421640038
            ]
        },
        {
            "positions": [
                -0.8698122566181202,
                -0.7765203859906625,
                1.7326558542106567,
                1.6100400903933598,
                -1.737884542208468,
                -0.48344245191783775
            ]
        },
        {
            "positions": [
                -0.8805622707505025,
                -0.7929221602198842,
                1.7460805681568288,
                1.4935472647319974,
                -1.6326482526252493,
                -0.6098344821956376
            ]
        },
        {
            "positions": [
                -0.8913122848828848,
                -0.8093239344491059,
                1.7595052821030006,
                1.377054439070635,
                -1.5274119630420304,
                -0.7362265124734373
            ]
        },
        {
            "positions": [
                -0.9020622990152671,
                -0.8257257086783275,
                1.7729299960491727,
                1.2605616134092723,
                -1.4221756734588114,
                -0.8626185427512372
            ]
        },
        {
            "positions": [
                -0.9128123131476495,
                -0.8421274829075491,
                1.7863547099953445,
                1.1440687877479099,
                -1.3169393838755923,
                -0.9890105730290368
            ]
        },
        {
            "positions": [
                -0.9235623272800318,
                -0.8585292571367708,
                1.7997794239415166,
                1.0275759620865477,
                -1.2117030942923734,
                -1.1154026033068365
            ]
        },
        {
            "positions": [
                -0.9343123414124141,
                -0.8749310313659924,
                1.8132041378876884,
                0.911083136425185,
                -1.1064668047091546,
                -1.2417946335846366
            ]
        },
        {
            "positions": [
                -0.9450623555447965,
                -0.891332805595214,
                1.8266288518338605,
                0.7945903107638226,
                -1.0012305151259357,
                -1.3681866638624363
            ]
        },
        {
            "positions": [
                -0.9558123696771788,
                -0.9077345798244356,
                1.8400535657800323,
                0.6780974851024602,
                -0.8959942255427167,
                -1.494578694140236
            ]
        },
        {
            "positions": [
                -0.9665623838095612,
                -0.9241363540536572,
                1.8534782797262044,
                0.5616046594410977,
                -0.7907579359594978,
                -1.6209707244180358
            ]
        },
        {
            "positions": [
                -0.9773123979419435,
                -0.9405381282828789,
                1.8669029936723762,
                0.44511183377973507,
                -0.6855216463762788,
                -1.7473627546958357
            ]
        },
        {
            "positions": [
                -0.9880624120743258,
                -0.9569399025121005,
                1.8803277076185483,
                0.32861900811837286,
                -0.5802853567930599,
                -1.8737547849736351
            ]
        },
        {
            "positions": [
                -0.9988124262067081,
                -0.9733416767413221,
                1.8937524215647201,
                0.2121261824570102,
                -0.47504906720984086,
                -2.000146815251435
            ]
        },
        {
            "positions": [
                -1.0095624403390904,
                -0.9897434509705438,
                1.9071771355108922,
                0.09563335679564777,
                -0.369812777626622,
                -2.1265388455292347
            ]
        },
        {
            "positions": [
                -1.0203124544714728,
                -1.0061452251997653,
                1.920601849457064,
                -0.020859468865714437,
                -0.26457648804340317,
                -2.252930875807034
            ]
        },
        {
            "positions": [
                -1.031062468603855,
                -1.022546999428987,
                1.934026563403236,
                -0.1373522945270773,
                -0.1593401984601841,
                -2.3793229060848344
            ]
        },
        {
            "positions": [
                -1.0418124827362374,
                -1.0389487736582086,
                1.947451277349408,
                -0.25384512018843974,
                -0.054103908876965257,
                -2.5057149363626343
            ]
        },
        {
            "positions": [
                -1.0525624968686196,
                -1.0553505478874303,
                1.96087599129558,
                -0.37033794584980173,
                0.05113238070625359,
                -2.6321069666404338
            ]
        },
        {
            "positions": [
                -1.063312511001002,
                -1.071752322116652,
                1.974300705241752,
                -0.4868307715111646,
                0.15636867028947243,
                -2.7584989969182336
            ]
        },
        {
            "positions": [
                -1.0740625251333844,
                -1.0881540963458736,
                1.987725419187924,
                -0.603323597172527,
                0.2616049598726917,
                -2.8848910271960335
            ]
        },
        {
            "positions": [
                -1.0848125392657666,
                -1.104555870575095,
                2.0011501331340957,
                -0.7198164228338895,
                0.36684124945591057,
                -3.011283057473833
            ]
        },
        {
            "positions": [
                -1.095562553398149,
                -1.1209576448043168,
                2.014574847080268,
                -0.8363092484952519,
                0.47207753903912936,
                -3.137675087751633
            ]
        }
    ]
}