{
    "goal": {
        "global_pose": {
            "orientation": {
                "w": 0.5084816262002911,
                "x": -0.4908360881923452,
                "y": 0.5182115481033761,
                "z": -0.48164630358495003
            },
            "position": {
                "x": 0.5540239810943604,
                "y": -0.46912469901144505,
                "z": 0.16403168439865112
            }
        },
        "name": "move_to_storage_B"
    },
    "id": "TRRT_move_to_storage_B_43",
    "joint_names": [
        "shoulder_pan_joint",
        "shoulder_lift_joint",
        "elbow_joint",
        "wrist_1_joint",
        "wrist_2_joint",
        "wrist_3_joint"
    ],
    "metrics": {
        "cart_traj_len": 1.9345915775228526,
        "distance_elbow_joint": 2.1867647207334255,
        "distance_shoulder_lift_joint": 0.6239538409599636,
        "distance_shoulder_pan_joint": 1.6152506031102436,
        "distance_wrist_1_joint": 2.978863301278348,
        "distance_wrist_2_joint": 2.7202832009736553,
        "distance_wrist_3_joint": 3.143020586263316,
        "smoothness": 0.2938516492300272,
        "time": 0.513738476,
        "traj_len": 3.642545298732599,
        "weighted_distance": 5.025268542883812
    },
    "planner": "TRRT",
    "start": {
        "state": {
            "elbow_joint": 1.664937868594044,
            "shoulder_lift_joint": -0.661644460510453,
            "shoulder_pan_joint": -0.9139846352900073,
            "wrist_1_joint": 2.146753192139373,
            "wrist_2_joint": -2.2341966793290973,
            "wrist_3_joint": 0.005466555786416001
        }
    },
    "waypoints": [
        {
            "positions": [
                -0.9139846352900073,
                -0.661644460510453,
                1.664937868594044,
                2.146753192139373,
                -2.2341966793290973,
                0.005466555786416001
            ]
        },
        {
            "positions": [
                -0.8920092817255223,
                -0.6706995022381629,
                1.641367453054396,
                2.1328969244551725,
                -2.220098094913767,
                0.0045953207133465354
            ]
        },
        {
            "positions": [
                -0.8222490959101655,
                -0.7131501847997413,
                1.5524805932071435,
                2.045326732305646,
                -2.1471968153920504,
                0.021842289806178635
            ]
        },
        {
            "positions": [
                -0.7524889100948087,
                -0.7556008673613198,
                1.463593733359891,
                1.9577565401561192,
                -2.0742955358703337,
                0.039089258899010736
            ]
        },
        {
            "positions": [
                -0.682728724279452,
                -0.7980515499228984,
                1.3747068735126384,
                1.8701863480065928,
                -2.001394256348617,
                0.05633622799184283
            ]
        },
        {
            "positions": [
                -0.612968538464095,
                -0.8405022324844769,
                1.2858200136653857,
                1.7826161558570661,
                -1.9284929768269004,
                0.07358319708467494
            ]
        },
        {
            "positions": [
                -0.5432083526487383,
                -0.8829529150460553,
                1.1969331538181331,
                1.6950459637075395,
                -1.8555916973051836,
                0.09083016617750704
            ]
        },
        {
            "positions": [
                -0.47344816683338153,
                -0.9254035976076338,
                1.1080462939708806,
                1.607475771558013,
                -1.782690417783467,
                0.10807713527033913
            ]
        },
        {
            "positions": [
                -0.4036879810180247,
                -0.9678542801692123,
                1.0191594341236279,
                1.5199055794084864,
                -1.7097891382617503,
                0.12532410436317123
            ]
        },
        {
            "positions": [
                -0.3339277952026679,
                -1.0103049627307907,
                0.9302725742763754,
                1.4323353872589597,
                -1.6368878587400335,
                0.14257107345600334
            ]
        },
        {
            "positions": [
                -0.2995983715041679,
                -0.9896741963071165,
                0.8844138809886423,
                1.3494447074215634,
                -1.5680179265685348,
                0.1954751017590653
            ]
        },
        {
            "positions": [
                -0.26526894780566795,
                -0.9690434298834422,
                0.8385551877009091,
                1.2665540275841671,
                -1.499147994397036,
                0.24837913006212725
            ]
        },
        {
            "positions": [
                -0.23093952410716798,
                -0.9484126634597678,
                0.7926964944131759,
                1.1836633477467708,
                -1.4302780622255373,
                0.3012831583651892
            ]
        },
        {
            "positions": [
                -0.196610100408668,
                -0.9277818970360936,
                0.7468378011254427,
                1.1007726679093746,
                -1.3614081300540386,
                0.35418718666825116
            ]
        },
        {
            "positions": [
                -0.2356481903316638,
                -0.9361632132554383,
                0.8019971338760873,
                1.0167342862985769,
                -1.2810822756323605,
                0.4756027295045704
            ]
        },
        {
            "positions": [
                -0.2746862802546596,
                -0.9445445294747831,
                0.8571564666267318,
                0.932695904687779,
                -1.2007564212106825,
                0.5970182723408897
            ]
        },
        {
            "positions": [
                -0.3137243701776554,
                -0.9529258456941277,
                0.9123157993773763,
                0.8486575230769812,
                -1.1204305667890042,
                0.7184338151772088
            ]
        },
        {
            "positions": [
                -0.3527624601006512,
                -0.9613071619134725,
                0.9674751321280208,
                0.7646191414661834,
                -1.0401047123673262,
                0.839849358013528
            ]
        },
        {
            "positions": [
                -0.391800550023647,
                -0.9696884781328172,
                1.0226344648786654,
                0.6805807598553856,
                -0.9597788579456481,
                0.9612649008498473
            ]
        },
        {
            "positions": [
                -0.43083863994664284,
                -0.978069794352162,
                1.07779379762931,
                0.5965423782445878,
                -0.8794530035239699,
                1.0826804436861666
            ]
        },
        {
            "positions": [
                -0.46987672986963863,
                -0.9864511105715067,
                1.1329531303799545,
                0.5125039966337899,
                -0.7991271491022918,
                1.2040959865224858
            ]
        },
        {
            "positions": [
                -0.5089148197926344,
                -0.9948324267908515,
                1.188112463130599,
                0.4284656150229922,
                -0.7188012946806137,
                1.325511529358805
            ]
        },
        {
            "positions": [
                -0.5479529097156303,
                -1.0032137430101962,
                1.2432717958812436,
                0.3444272334121943,
                -0.6384754402589355,
                1.4469270721951242
            ]
        },
        {
            "positions": [
                -0.586990999638626,
                -1.0115950592295408,
                1.2984311286318881,
                0.2603888518013966,
                -0.5581495858372575,
                1.5683426150314432
            ]
        },
        {
            "positions": [
                -0.6260290895616218,
                -1.0199763754488855,
                1.3535904613825327,
                0.17635047019059868,
                -0.4778237314155793,
                1.6897581578677625
            ]
        },
        {
            "positions": [
                -0.6650671794846177,
                -1.0283576916682304,
                1.4087497941331772,
                0.092312088579801,
                -0.39749787699390127,
                1.8111737007040818
            ]
        },
        {
            "positions": [
                -0.7041052694076134,
                -1.0367390078875751,
                1.4639091268838216,
                0.008273706969003314,
                -0.3171720225722232,
                1.9325892435404008
            ]
        },
        {
            "positions": [
                -0.7431433593306093,
                -1.0451203241069198,
                1.5190684596344664,
                -0.07576467464179482,
                -0.23684616815054493,
                2.0540047863767206
            ]
        },
        {
            "positions": [
                -0.7821814492536051,
                -1.0535016403262645,
                1.574227792385111,
                -0.1598030562525925,
                -0.15652031372886688,
                2.1754203292130394
            ]
        },
        {
            "positions": [
                -0.8212195391766008,
                -1.0618829565456092,
                1.6293871251357552,
                -0.2438414378633902,
                -0.07619445930718882,
                2.2968358720493587
            ]
        },
        {
            "positions": [
                -0.8602576290995967,
                -1.070264272764954,
                1.6845464578863996,
                -0.3278798194741879,
                0.004131395114489234,
                2.4182514148856775
            ]
        },
        {
            "positions": [
                -0.8992957190225925,
                -1.0786455889842987,
                1.7397057906370443,
                -0.411918201084986,
                0.08445724953616751,
                2.5396669577219972
            ]
        },
        {
            "positions": [
                -0.9383338089455883,
                -1.0870269052036434,
                1.7948651233876887,
                -0.4959565826957837,
                0.16478310395784557,
                2.6610825005583165
            ]
        },
        {
            "positions": [
                -0.9773718988685841,
                -1.095408221422988,
                1.8500244561383332,
                -0.5799949643065814,
                0.24510895837952362,
                2.7824980433946354
            ]
        },
        {
            "positions": [
                -1.0164099887915798,
                -1.1037895376423328,
                1.9051837888889778,
                -0.6640333459173791,
                0.3254348128012017,
                2.9039135862309546
            ]
        },
        {
            "positions": [
                -1.055448078714576,
                -1.1121708538616777,
                1.9603431216396223,
                -0.7480717275281772,
                0.40576066722287996,
                3.025329129067274
            ]
        },
        {
            "positions": [
                -1.0944861686375715,
                -1.1205521700810224,
                2.015502454390267,
                -0.8321101091389748,
                0.48608652164455796,
                3.146744671903593
            ]
        }
    ]
}