{
    "goal": {
        "global_pose": {
            "orientation": {
                "w": 0.7047431468963623,
                "x": -0.7094548344612122,
                "y": 0.0024358443915843964,
                "z": -0.0022348060738295317
            },
            "position": {
                "x": 0.6094750761985779,
                "y": 0.3671506643295288,
                "z": 0.19426114857196808
            }
        },
        "name": "move_to_magneteinheit_A"
    },
    "id": "TRRT_move_to_magneteinheit_A_14",
    "joint_names": [
        "shoulder_pan_joint",
        "shoulder_lift_joint",
        "elbow_joint",
        "wrist_1_joint",
        "wrist_2_joint",
        "wrist_3_joint"
    ],
    "metrics": {
        "cart_traj_len": 3.2083547975811424,
        "distance_elbow_joint": 3.9101257153062727,
        "distance_shoulder_lift_joint": 1.0276353138603969,
        "distance_shoulder_pan_joint": 2.9102683089158465,
        "distance_wrist_1_joint": 3.457922529045745,
        "distance_wrist_2_joint": 1.4394420085794615,
        "distance_wrist_3_joint": 0.7998152370217381,
        "smoothness": 0.21364221410800063,
        "time": 0.106550896,
        "traj_len": 3.6803816531345572,
        "weighted_distance": 4.47685203289076
    },
    "planner": "TRRT",
    "start": {
        "state": {
            "elbow_joint": -1.9196185241190666,
            "shoulder_lift_joint": -1.2443396400964142,
            "shoulder_pan_joint": 2.6996025414629847,
            "wrist_1_joint": -1.5485510000780065,
            "wrist_2_joint": -1.5709468930060704,
            "wrist_3_joint": 0.4420197071253992
        }
    },
    "waypoints": [
        {
            "positions": [
                2.6996025414629847,
                -1.2443396400964142,
                -1.9196185241190666,
                -1.5485510000780065,
                -1.5709468930060704,
                0.4420197071253992
            ]
        },
        {
            "positions": [
                2.590782824591777,
                -1.2137449218780911,
                -1.8350082382044204,
                -1.4271460548085217,
                -1.5370908512221249,
                0.45057441192500813
            ]
        },
        {
            "positions": [
                2.4819631077205697,
                -1.183150203659768,
                -1.7503979522897744,
                -1.3057411095390372,
                -1.503234809438179,
                0.4591291167246171
            ]
        },
        {
            "positions": [
                2.373143390849362,
                -1.1525554854414453,
                -1.6657876663751283,
                -1.1843361642695527,
                -1.4693787676542336,
                0.467683821524226
            ]
        },
        {
            "positions": [
                2.2643236739781547,
                -1.1219607672231222,
                -1.581177380460482,
                -1.062931219000068,
                -1.4355227258702878,
                0.47623852632383495
            ]
        },
        {
            "positions": [
                2.155503957106947,
                -1.0913660490047992,
                -1.4965670945458358,
                -0.9415262737305833,
                -1.4016666840863423,
                0.4847932311234439
            ]
        },
        {
            "positions": [
                2.0466842402357397,
                -1.0607713307864761,
                -1.4119568086311898,
                -0.8201213284610986,
                -1.3678106423023966,
                0.49334793592305287
            ]
        },
        {
            "positions": [
                1.937864523364532,
                -1.0301766125681533,
                -1.3273465227165435,
                -0.6987163831916139,
                -1.333954600518451,
                0.5019026407226618
            ]
        },
        {
            "positions": [
                1.8290448064933242,
                -0.9995818943498302,
                -1.2427362368018975,
                -0.5773114379221292,
                -1.3000985587345053,
                0.5104573455222707
            ]
        },
        {
            "positions": [
                1.7202250896221167,
                -0.9689871761315072,
                -1.1581259508872512,
                -0.4559064926526446,
                -1.2662425169505598,
                0.5190120503218797
            ]
        },
        {
            "positions": [
                1.6114053727509092,
                -0.9383924579131842,
                -1.073515664972605,
                -0.33450154738316007,
                -1.232386475166614,
                0.5275667551214887
            ]
        },
        {
            "positions": [
                1.5025856558797017,
                -0.9077977396948612,
                -0.9889053790579589,
                -0.21309660211367532,
                -1.1985304333826685,
                0.5361214599210976
            ]
        },
        {
            "positions": [
                1.3937659390084942,
                -0.8772030214765383,
                -0.9042950931433129,
                -0.09169165684419078,
                -1.164674391598723,
                0.5446761647207066
            ]
        },
        {
            "positions": [
                1.2849462221372865,
                -0.8466083032582152,
                -0.8196848072286667,
                0.02971328842529397,
                -1.1308183498147772,
                0.5532308695203155
            ]
        },
        {
            "positions": [
                1.1761265052660792,
                -0.8160135850398922,
                -0.7350745213140204,
                0.15111823369477873,
                -1.0969623080308315,
                0.5617855743199245
            ]
        },
        {
            "positions": [
                1.0673067883948717,
                -0.7854188668215693,
                -0.6504642353993744,
                0.27252317896426326,
                -1.063106266246886,
                0.5703402791195333
            ]
        },
        {
            "positions": [
                0.958487071523664,
                -0.7548241486032462,
                -0.5658539494847281,
                0.393928124233748,
                -1.0292502244629405,
                0.5788949839191424
            ]
        },
        {
            "positions": [
                0.8496673546524565,
                -0.7242294303849233,
                -0.4812436635700821,
                0.5153330695032328,
                -0.9953941826789947,
                0.5874496887187513
            ]
        },
        {
            "positions": [
                0.7408476377812487,
                -0.6936347121666002,
                -0.3966333776554358,
                0.6367380147727173,
                -0.961538140895049,
                0.5960043935183603
            ]
        },
        {
            "positions": [
                0.6320279209100415,
                -0.6630399939482773,
                -0.3120230917407898,
                0.7581429600422018,
                -0.9276820991111034,
                0.6045590983179692
            ]
        },
        {
            "positions": [
                0.5232082040388337,
                -0.6324452757299542,
                -0.22741280582614354,
                0.8795479053116864,
                -0.8938260573271578,
                0.6131138031175781
            ]
        },
        {
            "positions": [
                0.414388487167626,
                -0.6018505575116312,
                -0.14280251991149728,
                1.0009528505811713,
                -0.8599700155432122,
                0.6216685079171871
            ]
        },
        {
            "positions": [
                0.30556877029641877,
                -0.5712558392933083,
                -0.05819223399685131,
                1.122357795850656,
                -0.8261139737592665,
                0.630223212716796
            ]
        },
        {
            "positions": [
                0.2737852047654797,
                -0.5967191041702484,
                0.1080698171048591,
                1.1850415679960005,
                -0.7721827660615989,
                0.5863598053195236
            ]
        },
        {
            "positions": [
                0.2420016392345406,
                -0.6221823690471886,
                0.2743318682065695,
                1.247725340141345,
                -0.7182515583639312,
                0.5424963979222511
            ]
        },
        {
            "positions": [
                0.21021807370360152,
                -0.6476456339241288,
                0.4405939193082799,
                1.3104091122866894,
                -0.6643203506662636,
                0.49863299052497867
            ]
        },
        {
            "positions": [
                0.17843450817266243,
                -0.6731088988010689,
                0.6068559704099903,
                1.373092884432034,
                -0.6103891429685959,
                0.4547695831277062
            ]
        },
        {
            "positions": [
                0.14665094264172335,
                -0.6985721636780091,
                0.7731180215117006,
                1.4357766565773784,
                -0.5564579352709282,
                0.41090617573043375
            ]
        },
        {
            "positions": [
                0.11486737711078429,
                -0.7240354285549493,
                0.939380072613411,
                1.4984604287227228,
                -0.5025267275732606,
                0.36704276833316135
            ]
        },
        {
            "positions": [
                0.08308381157984518,
                -0.7494986934318895,
                1.1056421237151215,
                1.5611442008680672,
                -0.44859551987559293,
                0.3231793609358889
            ]
        },
        {
            "positions": [
                0.051300246048906095,
                -0.7749619583088297,
                1.271904174816832,
                1.6238279730134118,
                -0.39466431217792525,
                0.27931595353861643
            ]
        },
        {
            "positions": [
                0.01951668051796701,
                -0.8004252231857699,
                1.4381662259185426,
                1.6865117451587563,
                -0.34073310448025756,
                0.23545254614134392
            ]
        },
        {
            "positions": [
                -0.012266885012972073,
                -0.8258884880627101,
                1.6044282770202527,
                1.7491955173041007,
                -0.28680189678258994,
                0.19158913874407152
            ]
        },
        {
            "positions": [
                -0.044050450543911136,
                -0.8513517529396503,
                1.7706903281219633,
                1.811879289449445,
                -0.2328706890849223,
                0.14772573134679906
            ]
        },
        {
            "positions": [
                0.039257207910563995,
                -0.8141239532341759,
                1.8805987596545841,
                1.860625409208592,
                -0.18218778675576575,
                0.08316860631662701
            ]
        },
        {
            "positions": [
                0.12256486636503912,
                -0.7768961535287014,
                1.9905071911872052,
                1.9093715289677393,
                -0.13150488442660915,
                0.01861148128645496
            ]
        }
    ]
}