{
    "goal": {
        "global_pose": {
            "orientation": {
                "w": -0.00223480608172531,
                "x": 0.0024358444001904467,
                "y": 0.7094548369677653,
                "z": -0.704743149386269
            },
            "position": {
                "x": -0.37947507619857795,
                "y": -0.6371506643295288,
                "z": 0.19426114857196808
            }
        },
        "name": "move_to_magneteinheit_C"
    },
    "id": "TRRT_move_to_magneteinheit_C_39",
    "joint_names": [
        "shoulder_pan_joint",
        "shoulder_lift_joint",
        "elbow_joint",
        "wrist_1_joint",
        "wrist_2_joint",
        "wrist_3_joint"
    ],
    "metrics": {
        "cart_traj_len": 0.8298171124498626,
        "distance_elbow_joint": 0.48853419303653967,
        "distance_shoulder_lift_joint": 0.3421829720711844,
        "distance_shoulder_pan_joint": 1.199053858138856,
        "distance_wrist_1_joint": 0.5298798738151398,
        "distance_wrist_2_joint": 1.666548863518993,
        "distance_wrist_3_joint": 0.3410024883500302,
        "smoothness": 1.600381026119892,
        "time": 0.5988024270000001,
        "traj_len": 2.137101366086958,
        "weighted_distance": 2.728669265954549
    },
    "planner": "TRRT",
    "start": {
        "state": {
            "elbow_joint": 1.9565354010623817,
            "shoulder_lift_joint": -1.4165861575791021,
            "shoulder_pan_joint": -1.6717766225146293,
            "wrist_1_joint": -0.5286633292919765,
            "wrist_2_joint": 1.472756589071564,
            "wrist_3_joint": -3.1238370188695823
        }
    },
    "waypoints": [
        {
            "positions": [
                -1.6717766225146293,
                -1.4165861575791021,
                1.9565354010623817,
                -0.5286633292919765,
                1.472756589071564,
                -3.1238370188695823
            ]
        },
        {
            "positions": [
                -1.767912492311636,
                -1.424051635720835,
                1.9880242523199971,
                -0.5899202684011434,
                1.2954380824161786,
                -3.137606322134193
            ]
        },
        {
            "positions": [
                -1.8640483621086428,
                -1.4315171138625682,
                2.0195131035776126,
                -0.6511772075103103,
                1.1181195757607933,
                -3.1513756253988032
            ]
        },
        {
            "positions": [
                -1.9601842319056497,
                -1.4389825920043013,
                2.051001954835228,
                -0.7124341466194772,
                0.9408010691054078,
                -3.165144928663414
            ]
        },
        {
            "positions": [
                -2.0563201017026564,
                -1.4464480701460343,
                2.082490806092843,
                -0.7736910857286441,
                0.7634825624500226,
                -3.1789142319280246
            ]
        },
        {
            "positions": [
                -2.152455971499663,
                -1.4539135482877672,
                2.1139796573504586,
                -0.8349480248378112,
                0.586164055794637,
                -3.192683535192635
            ]
        },
        {
            "positions": [
                -2.24859184129667,
                -1.4613790264295003,
                2.145468508608074,
                -0.896204963946978,
                0.40884554913925164,
                -3.2064528384572455
            ]
        },
        {
            "positions": [
                -2.3576531225954587,
                -1.445942980105309,
                2.1547453409585473,
                -0.9140763764764033,
                0.3227366681769368,
                -3.2206081984441073
            ]
        },
        {
            "positions": [
                -2.4667144038942475,
                -1.4305069337811176,
                2.1640221733090206,
                -0.9319477890058285,
                0.2366277872146219,
                -3.234763558430969
            ]
        },
        {
            "positions": [
                -2.5353215812695518,
                -1.3985736849728738,
                2.0918266036285726,
                -0.8953154261190911,
                0.2817799406934869,
                -3.259627666891324
            ]
        },
        {
            "positions": [
                -2.6039287586448565,
                -1.3666404361646303,
                2.0196310339481247,
                -0.8586830632323535,
                0.32693209417235186,
                -3.284491775351679
            ]
        },
        {
            "positions": [
                -2.672535936020161,
                -1.3347071873563865,
                1.9474354642676766,
                -0.8220507003456161,
                0.37208424765121684,
                -3.309355883812034
            ]
        },
        {
            "positions": [
                -2.6064377544757193,
                -1.2778010993071625,
                1.9689223681838621,
                -0.8276168088259745,
                0.4704054480597022,
                -3.257528009342841
            ]
        },
        {
            "positions": [
                -2.540339572931278,
                -1.2208950112579382,
                1.9904092721000477,
                -0.833182917306333,
                0.5687266484681875,
                -3.205700134873648
            ]
        },
        {
            "positions": [
                -2.4742413913868364,
                -1.1639889232087142,
                2.0118961760162333,
                -0.8387490257866914,
                0.6670478488766729,
                -3.153872260404455
            ]
        }
    ]
}