{
    "goal": {
        "global_pose": {
            "orientation": {
                "w": 0.005598929693374612,
                "x": 0.007748599140229565,
                "y": 0.7110244013736278,
                "z": -0.7031023480610252
            },
            "position": {
                "x": 0.1141497679147869,
                "y": -0.7141253447532654,
                "z": 0.3711530566215515
            }
        },
        "name": "move_to_auspresseinheit_B"
    },
    "id": "TRRT_move_to_auspresseinheit_B_71",
    "joint_names": [
        "shoulder_pan_joint",
        "shoulder_lift_joint",
        "elbow_joint",
        "wrist_1_joint",
        "wrist_2_joint",
        "wrist_3_joint"
    ],
    "metrics": {
        "cart_traj_len": 0.5641123449844037,
        "distance_elbow_joint": 0.06125582819120301,
        "distance_shoulder_lift_joint": 0.2938029608187267,
        "distance_shoulder_pan_joint": 0.5768183984736419,
        "distance_wrist_1_joint": 0.32122538755583774,
        "distance_wrist_2_joint": 0.9919037945736808,
        "distance_wrist_3_joint": 0.004240151155539884,
        "smoothness": 2.5376526478085547e-16,
        "time": 0.028162535,
        "traj_len": 1.4997488192256163,
        "weighted_distance": 1.8896708721915647
    },
    "planner": "TRRT",
    "start": {
        "state": {
            "elbow_joint": 2.0193083361928714,
            "shoulder_lift_joint": -1.1220246554650708,
            "shoulder_pan_joint": -1.0952077554168747,
            "wrist_1_joint": -0.8559753972642168,
            "wrist_2_joint": 0.4759566250798843,
            "wrist_3_joint": -3.1240929996934557
        }
    },
    "waypoints": [
        {
            "positions": [
                -1.0952077554168747,
                -1.1220246554650708,
                2.0193083361928714,
                -0.8559753972642168,
                0.4759566250798843,
                -3.1240929996934557
            ]
        },
        {
            "positions": [
                -1.1913441551624817,
                -1.1709918156015253,
                2.0090990314943378,
                -0.8024378326715772,
                0.6412739241754978,
                -3.1247996915527123
            ]
        },
        {
            "positions": [
                -1.2874805549080885,
                -1.2199589757379796,
                1.9988897267958037,
                -0.7489002680789375,
                0.8065912232711112,
                -3.125506383411969
            ]
        },
        {
            "positions": [
                -1.3836169546536956,
                -1.2689261358744341,
                1.98868042209727,
                -0.6953627034862979,
                0.9719085223667248,
                -3.1262130752712256
            ]
        },
        {
            "positions": [
                -1.4797533543993024,
                -1.3178932960108887,
                1.9784711173987362,
                -0.6418251388936583,
                1.137225821462338,
                -3.1269197671304823
            ]
        },
        {
            "positions": [
                -1.5758897541449097,
                -1.366860456147343,
                1.9682618127002023,
                -0.5882875743010186,
                1.3025431205579516,
                -3.127626458989739
            ]
        },
        {
            "positions": [
                -1.6720261538905166,
                -1.4158276162837975,
                1.9580525080016684,
                -0.534750009708379,
                1.4678604196535652,
                -3.1283331508489955
            ]
        }
    ]
}