{
    "goal": {
        "global_pose": {
            "orientation": {
                "w": 0.5084816217422485,
                "x": -0.49083608388900757,
                "y": 0.5182115435600281,
                "z": -0.4816462993621826
            },
            "position": {
                "x": 0.5540239810943604,
                "y": 0.030875300988554955,
                "z": 0.16403168439865112
            }
        },
        "name": "move_to_storage_A"
    },
    "id": "TRRT_move_to_storage_A_141",
    "joint_names": [
        "shoulder_pan_joint",
        "shoulder_lift_joint",
        "elbow_joint",
        "wrist_1_joint",
        "wrist_2_joint",
        "wrist_3_joint"
    ],
    "metrics": {
        "cart_traj_len": 0.352987988957109,
        "distance_elbow_joint": 0.44808204835393206,
        "distance_shoulder_lift_joint": 0.23416863624609818,
        "distance_shoulder_pan_joint": 0.46210152048233016,
        "distance_wrist_1_joint": 0.24079509346970018,
        "distance_wrist_2_joint": 1.0955252934349977,
        "distance_wrist_3_joint": 0.08748618915740192,
        "smoothness": 4.440892133664971e-16,
        "time": 0.021065610000000002,
        "traj_len": 1.602547590914061,
        "weighted_distance": 2.0197652206046035
    },
    "planner": "TRRT",
    "start": {
        "state": {
            "elbow_joint": 1.971548259319323,
            "shoulder_lift_joint": -1.1394851275133948,
            "shoulder_pan_joint": 0.1228115487234821,
            "wrist_1_joint": -0.7804723859257726,
            "wrist_2_joint": 0.12958671773740124,
            "wrist_3_joint": -3.192489227718131
        }
    },
    "waypoints": [
        {
            "positions": [
                0.1228115487234821,
                -1.1394851275133948,
                1.971548259319323,
                -0.7804723859257726,
                0.12958671773740124,
                -3.192489227718131
            ]
        },
        {
            "positions": [
                0.05679704579743494,
                -1.1729377898342659,
                2.035559980512742,
                -0.8148716849928727,
                0.28609033108525805,
                -3.1799912006956452
            ]
        },
        {
            "positions": [
                -0.009217457128612216,
                -1.2063904521551372,
                2.099571701706161,
                -0.8492709840599727,
                0.44259394443311484,
                -3.1674931736731593
            ]
        },
        {
            "positions": [
                -0.07523196005465937,
                -1.2398431144760083,
                2.1635834228995794,
                -0.8836702831270726,
                0.5990975577809716,
                -3.1549951466506734
            ]
        },
        {
            "positions": [
                -0.14124646298070653,
                -1.2732957767968796,
                2.2275951440929984,
                -0.9180695821941727,
                0.7556011711288285,
                -3.142497119628187
            ]
        },
        {
            "positions": [
                -0.20726096590675375,
                -1.3067484391177506,
                2.2916068652864174,
                -0.9524688812612727,
                0.9121047844766854,
                -3.129999092605701
            ]
        },
        {
            "positions": [
                -0.27327546883280085,
                -1.340201101438622,
                2.355618586479836,
                -0.9868681803283728,
                1.068608397824542,
                -3.117501065583215
            ]
        },
        {
            "positions": [
                -0.33928997175884806,
                -1.373653763759493,
                2.419630307673255,
                -1.0212674793954728,
                1.225112011172399,
                -3.1050030385607292
            ]
        }
    ]
}{
    "goal": {
        "global_pose": {
            "orientation": {
                "w": 0.5084816217422485,
                "x": -0.49083608388900757,
                "y": 0.5182115435600281,
                "z": -0.4816462993621826
            },
            "position": {
                "x": 0.5540239810943604,
                "y": 0.030875300988554955,
                "z": 0.16403168439865112
            }
        },
        "name": "move_to_storage_A"
    },
    "id": "TRRT_move_to_storage_A_141",
    "joint_names": [
        "shoulder_pan_joint",
        "shoulder_lift_joint",
        "elbow_joint",
        "wrist_1_joint",
        "wrist_2_joint",
        "wrist_3_joint"
    ],
    "metrics": {
        "cart_traj_len": 0.3528520024683867,
        "distance_elbow_joint": 0.4512767970170115,
        "distance_shoulder_lift_joint": 0.23196695054427185,
        "distance_shoulder_pan_joint": 0.46205481618408606,
        "distance_wrist_1_joint": 0.2532387632623643,
        "distance_wrist_2_joint": 1.0943783953098756,
        "distance_wrist_3_joint": 0.10732172155296871,
        "smoothness": 0.0,
        "time": 0.027926827,
        "traj_len": 1.6125251761974377,
        "weighted_distance": 2.0402200973298825
    },
    "planner": "TRRT",
    "start": {
        "state": {
            "elbow_joint": 1.97154746011099,
            "shoulder_lift_joint": -1.13948474672311,
            "shoulder_pan_joint": 0.12281154466712228,
            "wrist_1_joint": -0.7804688027058302,
            "wrist_2_joint": 0.12958655903071145,
            "wrist_3_joint": 3.0906928834467795
        }
    },
    "waypoints": [
        {
            "positions": [
                0.12281154466712228,
                -1.13948474672311,
                1.97154746011099,
                -0.7804688027058302,
                0.12958655903071145,
                3.0906928834467795
            ]
        },
        {
            "positions": [
                0.05680371378368142,
                -1.1726228825151488,
                2.036015573970563,
                -0.8166457688861679,
                0.28592632978926513,
                3.1060245579543464
            ]
        },
        {
            "positions": [
                -0.009204117099759448,
                -1.2057610183071876,
                2.100483687830136,
                -0.8528227350665056,
                0.4422661005478188,
                3.1213562324619133
            ]
        },
        {
            "positions": [
                -0.07521194798320031,
                -1.2388991540992265,
                2.164951801689709,
                -0.8889997012468435,
                0.5986058713063724,
                3.13668790696948
            ]
        },
        {
            "positions": [
                -0.14121977886664117,
                -1.2720372898912653,
                2.229419915549282,
                -0.9251766674271812,
                0.7549456420649261,
                3.1520195814770475
            ]
        },
        {
            "positions": [
                -0.20722760975008203,
                -1.3051754256833041,
                2.2938880294088553,
                -0.961353633607519,
                0.9112854128234797,
                3.1673512559846144
            ]
        },
        {
            "positions": [
                -0.2732354406335229,
                -1.338313561475343,
                2.3583561432684284,
                -0.9975305997878567,
                1.0676251835820334,
                3.1826829304921813
            ]
        },
        {
            "positions": [
                -0.33924327151696376,
                -1.3714516972673818,
                2.4228242571280014,
                -1.0337075659681945,
                1.223964954340587,
                3.198014604999748
            ]
        }
    ]
}{
    "goal": {
        "global_pose": {
            "orientation": {
                "w": 0.5084816217422485,
                "x": -0.49083608388900757,
                "y": 0.5182115435600281,
                "z": -0.4816462993621826
            },
            "position": {
                "x": 0.5540239810943604,
                "y": 0.030875300988554955,
                "z": 0.16403168439865112
            }
        },
        "name": "move_to_storage_A"
    },
    "id": "TRRT_move_to_storage_A_141",
    "joint_names": [
        "shoulder_pan_joint",
        "shoulder_lift_joint",
        "elbow_joint",
        "wrist_1_joint",
        "wrist_2_joint",
        "wrist_3_joint"
    ],
    "metrics": {
        "cart_traj_len": 0.3536033609146015,
        "distance_elbow_joint": 0.452124958933251,
        "distance_shoulder_lift_joint": 0.2329060085212833,
        "distance_shoulder_pan_joint": 0.4640055464836693,
        "distance_wrist_1_joint": 0.2537035517876398,
        "distance_wrist_2_joint": 1.092329394163371,
        "distance_wrist_3_joint": 0.0902741071658344,
        "smoothness": 0.0,
        "time": 0.015911486,
        "traj_len": 1.607900359803134,
        "weighted_distance": 2.0277881366991295
    },
    "planner": "TRRT",
    "start": {
        "state": {
            "elbow_joint": 1.9715472970024885,
            "shoulder_lift_joint": -1.1394870060712896,
            "shoulder_pan_joint": 0.12281152778156021,
            "wrist_1_joint": -0.780463741449964,
            "wrist_2_joint": 0.12958659822042276,
            "wrist_3_joint": 3.090690232415272
        }
    },
    "waypoints": [
        {
            "positions": [
                0.12281152778156021,
                -1.1394870060712896,
                1.9715472970024885,
                -0.780463741449964,
                0.12958659822042276,
                3.090690232415272
            ]
        },
        {
            "positions": [
                0.056525021141036025,
                -1.1727592930029016,
                2.0361365768500956,
                -0.8167071059910554,
                0.28563365452947576,
                3.1035865334389623
            ]
        },
        {
            "positions": [
                -0.00976148549948816,
                -1.2060315799345134,
                2.100725856697703,
                -0.8529504705321468,
                0.4416807108385288,
                3.116482834462653
            ]
        },
        {
            "positions": [
                -0.07604799214001234,
                -1.2393038668661254,
                2.1653151365453103,
                -0.8891938350732382,
                0.5977277671475817,
                3.1293791354863436
            ]
        },
        {
            "positions": [
                -0.14233449878053653,
                -1.2725761537977371,
                2.229904416392918,
                -0.9254371996143296,
                0.7537748234566347,
                3.1422754365100345
            ]
        },
        {
            "positions": [
                -0.20862100542106074,
                -1.3058484407293491,
                2.294493696240525,
                -0.961680564155421,
                0.9098218797656877,
                3.155171737533725
            ]
        },
        {
            "positions": [
                -0.2749075120615849,
                -1.339120727660961,
                2.359082976088132,
                -0.9979239286965124,
                1.0658689360747406,
                3.168068038557416
            ]
        },
        {
            "positions": [
                -0.3411940187021091,
                -1.372393014592573,
                2.4236722559357395,
                -1.0341672932376038,
                1.2219159923837937,
                3.1809643395811062
            ]
        }
    ]
}