{
    "goal": {
        "global_pose": {
            "orientation": {
                "w": 0.5084816217422485,
                "x": -0.49083608388900757,
                "y": 0.5182115435600281,
                "z": -0.4816462993621826
            },
            "position": {
                "x": 0.5540239810943604,
                "y": 0.030875300988554955,
                "z": 0.16403168439865112
            }
        },
        "name": "move_to_storage_A"
    },
    "id": "TRRT_move_to_storage_A_23",
    "joint_names": [
        "shoulder_pan_joint",
        "shoulder_lift_joint",
        "elbow_joint",
        "wrist_1_joint",
        "wrist_2_joint",
        "wrist_3_joint"
    ],
    "metrics": {
        "cart_traj_len": 0.3527699566936411,
        "distance_elbow_joint": 0.44948115893349816,
        "distance_shoulder_lift_joint": 0.23388107992501972,
        "distance_shoulder_pan_joint": 0.45796180408567483,
        "distance_wrist_1_joint": 0.24294341329056957,
        "distance_wrist_2_joint": 1.1121962460192345,
        "distance_wrist_3_joint": 0.08884467680075403,
        "smoothness": 1.1102230263833737e-15,
        "time": 0.021912774,
        "traj_len": 1.6078894175454828,
        "weighted_distance": 2.029319440592354
    },
    "planner": "TRRT",
    "start": {
        "state": {
            "elbow_joint": 1.971548259319323,
            "shoulder_lift_joint": -1.1394851275133948,
            "shoulder_pan_joint": 0.1228115487234821,
            "wrist_1_joint": -0.7804723859257726,
            "wrist_2_joint": 0.12958671773740124,
            "wrist_3_joint": -3.192489227718131
        }
    },
    "waypoints": [
        {
            "positions": [
                0.1228115487234821,
                -1.1394851275133948,
                1.971548259319323,
                -0.7804723859257726,
                0.12958671773740124,
                -3.192489227718131
            ]
        },
        {
            "positions": [
                0.05738843385409999,
                -1.1728967103598262,
                2.0357598534526797,
                -0.8151785878244254,
                0.28847189574014903,
                -3.179797131032309
            ]
        },
        {
            "positions": [
                -0.008034681015282125,
                -1.2063082932062577,
                2.0999714475860367,
                -0.8498847897230782,
                0.4473570737428968,
                -3.1671050343464873
            ]
        },
        {
            "positions": [
                -0.07345779588466425,
                -1.239719876052689,
                2.1641830417193937,
                -0.8845909916217309,
                0.6062422517456446,
                -3.1544129376606653
            ]
        },
        {
            "positions": [
                -0.13888091075404635,
                -1.2731314588991203,
                2.2283946358527507,
                -0.9192971935203837,
                0.7651274297483924,
                -3.141720840974843
            ]
        },
        {
            "positions": [
                -0.20430402562342848,
                -1.3065430417455517,
                2.2926062299861076,
                -0.9540033954190366,
                0.9240126077511402,
                -3.129028744289021
            ]
        },
        {
            "positions": [
                -0.2697271404928106,
                -1.3399546245919831,
                2.356817824119464,
                -0.9887095973176894,
                1.082897785753888,
                -3.116336647603199
            ]
        },
        {
            "positions": [
                -0.33515025536219273,
                -1.3733662074384145,
                2.421029418252821,
                -1.0234157992163422,
                1.2417829637566358,
                -3.103644550917377
            ]
        }
    ]
}{
    "goal": {
        "global_pose": {
            "orientation": {
                "w": 0.5084816217422485,
                "x": -0.49083608388900757,
                "y": 0.5182115435600281,
                "z": -0.4816462993621826
            },
            "position": {
                "x": 0.5540239810943604,
                "y": 0.030875300988554955,
                "z": 0.16403168439865112
            }
        },
        "name": "move_to_storage_A"
    },
    "id": "TRRT_move_to_storage_A_23",
    "joint_names": [
        "shoulder_pan_joint",
        "shoulder_lift_joint",
        "elbow_joint",
        "wrist_1_joint",
        "wrist_2_joint",
        "wrist_3_joint"
    ],
    "metrics": {
        "cart_traj_len": 0.352579316858624,
        "distance_elbow_joint": 0.44926329778071983,
        "distance_shoulder_lift_joint": 0.23558201176442095,
        "distance_shoulder_pan_joint": 0.4599763029381597,
        "distance_wrist_1_joint": 0.23486466828092323,
        "distance_wrist_2_joint": 1.1033348964258356,
        "distance_wrist_3_joint": 0.09512395378936933,
        "smoothness": 6.661338165333112e-16,
        "time": 0.030050139,
        "traj_len": 1.605660341099396,
        "weighted_distance": 2.02647294659093
    },
    "planner": "TRRT",
    "start": {
        "state": {
            "elbow_joint": 1.97154746011099,
            "shoulder_lift_joint": -1.13948474672311,
            "shoulder_pan_joint": 0.12281154466712228,
            "wrist_1_joint": -0.7804688027058302,
            "wrist_2_joint": 0.12958655903071145,
            "wrist_3_joint": 3.0906928834467795
        }
    },
    "waypoints": [
        {
            "positions": [
                0.12281154466712228,
                -1.13948474672311,
                1.97154746011099,
                -0.7804688027058302,
                0.12958655903071145,
                3.0906928834467795
            ]
        },
        {
            "positions": [
                0.05710064424738519,
                -1.173139319832313,
                2.0357279312225214,
                -0.8140208981745335,
                0.28720582994868793,
                3.1042820197024037
            ]
        },
        {
            "positions": [
                -0.008610256172351907,
                -1.2067938929415158,
                2.099908402334053,
                -0.8475729936432368,
                0.4448251008666645,
                3.117871155958028
            ]
        },
        {
            "positions": [
                -0.074321156592089,
                -1.240448466050719,
                2.1640888734455843,
                -0.8811250891119401,
                0.6024443717846409,
                3.131460292213652
            ]
        },
        {
            "positions": [
                -0.14003205701182608,
                -1.274103039159922,
                2.2282693445571153,
                -0.9146771845806434,
                0.7600636427026175,
                3.1450494284692763
            ]
        },
        {
            "positions": [
                -0.20574295743156323,
                -1.307757612269125,
                2.292449815668647,
                -0.9482292800493468,
                0.9176829136205941,
                3.1586385647249005
            ]
        },
        {
            "positions": [
                -0.2714538578513003,
                -1.3414121853783278,
                2.3566302867801783,
                -0.9817813755180501,
                1.0753021845385704,
                3.1722277009805246
            ]
        },
        {
            "positions": [
                -0.3371647582710374,
                -1.375066758487531,
                2.4208107578917097,
                -1.0153334709867534,
                1.232921455456547,
                3.185816837236149
            ]
        }
    ]
}{
    "goal": {
        "global_pose": {
            "orientation": {
                "w": 0.5084816217422485,
                "x": -0.49083608388900757,
                "y": 0.5182115435600281,
                "z": -0.4816462993621826
            },
            "position": {
                "x": 0.5540239810943604,
                "y": 0.030875300988554955,
                "z": 0.16403168439865112
            }
        },
        "name": "move_to_storage_A"
    },
    "id": "TRRT_move_to_storage_A_23",
    "joint_names": [
        "shoulder_pan_joint",
        "shoulder_lift_joint",
        "elbow_joint",
        "wrist_1_joint",
        "wrist_2_joint",
        "wrist_3_joint"
    ],
    "metrics": {
        "cart_traj_len": 0.35282447673869044,
        "distance_elbow_joint": 0.447644374628692,
        "distance_shoulder_lift_joint": 0.23260746377660757,
        "distance_shoulder_pan_joint": 0.4587719320145198,
        "distance_wrist_1_joint": 0.23590787223087406,
        "distance_wrist_2_joint": 1.108418976115081,
        "distance_wrist_3_joint": 0.09884648095635651,
        "smoothness": 4.440892098500626e-16,
        "time": 0.046725736999999996,
        "traj_len": 1.6069216221465596,
        "weighted_distance": 2.0308168085725504
    },
    "planner": "TRRT",
    "start": {
        "state": {
            "elbow_joint": 1.9715472970024885,
            "shoulder_lift_joint": -1.1394870060712896,
            "shoulder_pan_joint": 0.12281152778156021,
            "wrist_1_joint": -0.780463741449964,
            "wrist_2_joint": 0.12958659822042276,
            "wrist_3_joint": 3.090690232415272
        }
    },
    "waypoints": [
        {
            "positions": [
                0.12281152778156021,
                -1.1394870060712896,
                1.9715472970024885,
                -0.780463741449964,
                0.12958659822042276,
                3.090690232415272
            ]
        },
        {
            "positions": [
                0.057272680350914526,
                -1.172716643753662,
                2.035496493378016,
                -0.8141648660543745,
                0.2879321662368629,
                3.10481115826618
            ]
        },
        {
            "positions": [
                -0.008266167079731157,
                -1.2059462814360347,
                2.0994456897535434,
                -0.8478659906587851,
                0.44627773425330297,
                3.118932084117088
            ]
        },
        {
            "positions": [
                -0.07380501451037685,
                -1.239175919118407,
                2.163394886129071,
                -0.8815671152631958,
                0.6046233022697431,
                3.133053009967996
            ]
        },
        {
            "positions": [
                -0.13934386194102252,
                -1.2724055568007797,
                2.2273440825045983,
                -0.9152682398676063,
                0.7629688702861832,
                3.147173935818904
            ]
        },
        {
            "positions": [
                -0.20488270937166822,
                -1.3056351944831521,
                2.2912932788801257,
                -0.948969364472017,
                0.9213144383026234,
                3.161294861669812
            ]
        },
        {
            "positions": [
                -0.27042155680231394,
                -1.3388648321655245,
                2.355242475255653,
                -0.9826704890764275,
                1.0796600063190636,
                3.1754157875207203
            ]
        },
        {
            "positions": [
                -0.3359604042329596,
                -1.3720944698478972,
                2.4191916716311805,
                -1.016371613680838,
                1.2380055743355036,
                3.1895367133716284
            ]
        }
    ]
}