{
    "goal": {
        "global_pose": {
            "orientation": {
                "w": 0.7031023480610252,
                "x": -0.7110244013736278,
                "y": 0.0077485991402295624,
                "z": 0.005598929693374583
            },
            "position": {
                "x": -0.8841497679147869,
                "y": 0.44412534475326537,
                "z": 0.3711530566215515
            }
        },
        "name": "move_to_auspresseinheit_D"
    },
    "id": "TRRT_move_to_auspresseinheit_D_19",
    "joint_names": [
        "shoulder_pan_joint",
        "shoulder_lift_joint",
        "elbow_joint",
        "wrist_1_joint",
        "wrist_2_joint",
        "wrist_3_joint"
    ],
    "metrics": {
        "cart_traj_len": 0.3426052008359614,
        "distance_elbow_joint": 0.6322633349410178,
        "distance_shoulder_lift_joint": 0.11751155483079812,
        "distance_shoulder_pan_joint": 0.13293859685611495,
        "distance_wrist_1_joint": 0.509403623262028,
        "distance_wrist_2_joint": 1.4429602718955878,
        "distance_wrist_3_joint": 0.01754966798321167,
        "smoothness": 0.0,
        "time": 0.037945562,
        "traj_len": 1.6889721873875716,
        "weighted_distance": 2.200020518289045
    },
    "planner": "TRRT",
    "start": {
        "state": {
            "elbow_joint": -1.8275523626775212,
            "shoulder_lift_joint": -2.126789852344167,
            "shoulder_pan_joint": -0.03513704404078235,
            "wrist_1_joint": -2.347782403156801,
            "wrist_2_joint": -1.6058999987535132,
            "wrist_3_joint": -3.0880379163319196
        }
    },
    "waypoints": [
        {
            "positions": [
                -0.03513704404078235,
                -2.126789852344167,
                -1.8275523626775212,
                -2.347782403156801,
                -1.6058999987535132,
                -3.0880379163319196
            ]
        },
        {
            "positions": [
                -0.051754368647796714,
                -2.1414787966980167,
                -1.748519445809894,
                -2.4114578560645543,
                -1.4255299647665647,
                -3.090231624829821
            ]
        },
        {
            "positions": [
                -0.06837169325481109,
                -2.1561677410518665,
                -1.6694865289422667,
                -2.4751333089723078,
                -1.2451599307796162,
                -3.0924253333277223
            ]
        },
        {
            "positions": [
                -0.08498901786182544,
                -2.1708566854057163,
                -1.5904536120746395,
                -2.538808761880061,
                -1.064789896792668,
                -3.094619041825624
            ]
        },
        {
            "positions": [
                -0.10160634246883982,
                -2.1855456297595657,
                -1.5114206952070122,
                -2.6024842147878147,
                -0.8844198628057193,
                -3.0968127503235254
            ]
        },
        {
            "positions": [
                -0.11822366707585419,
                -2.2002345741134155,
                -1.432387778339385,
                -2.6661596676955686,
                -0.7040498288187708,
                -3.099006458821427
            ]
        },
        {
            "positions": [
                -0.13484099168286856,
                -2.2149235184672653,
                -1.3533548614717579,
                -2.729835120603322,
                -0.5236797948318224,
                -3.1012001673193286
            ]
        },
        {
            "positions": [
                -0.15145831628988293,
                -2.229612462821115,
                -1.2743219446041305,
                -2.7935105735110755,
                -0.34330976084487386,
                -3.10339387581723
            ]
        },
        {
            "positions": [
                -0.1680756408968973,
                -2.244301407174965,
                -1.1952890277365034,
                -2.857186026418829,
                -0.16293972685792543,
                -3.1055875843151313
            ]
        }
    ]
}