{
    "goal": {
        "global_pose": {
            "orientation": {
                "w": 0.005598929693374612,
                "x": 0.007748599140229565,
                "y": 0.7110244013736278,
                "z": -0.7031023480610252
            },
            "position": {
                "x": -0.8858502320852131,
                "y": -0.7141253447532654,
                "z": 0.3711530566215515
            }
        },
        "name": "move_to_auspresseinheit_C"
    },
    "id": "TRRT_move_to_auspresseinheit_C_55",
    "joint_names": [
        "shoulder_pan_joint",
        "shoulder_lift_joint",
        "elbow_joint",
        "wrist_1_joint",
        "wrist_2_joint",
        "wrist_3_joint"
    ],
    "metrics": {
        "cart_traj_len": 0.4933997811534574,
        "distance_elbow_joint": 0.9957658485277113,
        "distance_shoulder_lift_joint": 0.3233155636586854,
        "distance_shoulder_pan_joint": 0.2564124499813989,
        "distance_wrist_1_joint": 0.6602993881516435,
        "distance_wrist_2_joint": 1.3198151034764498,
        "distance_wrist_3_joint": 0.04546319369959084,
        "smoothness": 3.2297397080004555e-16,
        "time": 1.098171097,
        "traj_len": 1.8976489526504843,
        "weighted_distance": 2.38161970652805
    },
    "planner": "TRRT",
    "start": {
        "state": {
            "elbow_joint": 1.7527959577737207,
            "shoulder_lift_joint": -0.9740617694225068,
            "shoulder_pan_joint": -2.967991417825858,
            "wrist_1_joint": -0.759517768980727,
            "wrist_2_joint": 1.7443932448377408,
            "wrist_3_joint": -3.0840537646736568
        }
    },
    "waypoints": [
        {
            "positions": [
                -2.967991417825858,
                -0.9740617694225068,
                1.7527959577737207,
                -0.759517768980727,
                1.7443932448377408,
                -3.0840537646736568
            ]
        },
        {
            "positions": [
                -2.942350172827718,
                -0.9417302130566383,
                1.6532193729209494,
                -0.6934878301655626,
                1.612411734490096,
                -3.088600084043616
            ]
        },
        {
            "positions": [
                -2.9167089278295784,
                -0.9093986566907697,
                1.5536427880681785,
                -0.6274578913503983,
                1.480430224142451,
                -3.093146403413575
            ]
        },
        {
            "positions": [
                -2.891067682831438,
                -0.8770671003249011,
                1.4540662032154072,
                -0.5614279525352339,
                1.3484487137948058,
                -3.097692722783534
            ]
        },
        {
            "positions": [
                -2.8654264378332983,
                -0.8447355439590326,
                1.354489618362636,
                -0.4953980137200696,
                1.2164672034471609,
                -3.102239042153493
            ]
        },
        {
            "positions": [
                -2.8397851928351585,
                -0.8124039875931641,
                1.254913033509865,
                -0.42936807490490525,
                1.084485693099516,
                -3.1067853615234524
            ]
        },
        {
            "positions": [
                -2.8141439478370187,
                -0.7800724312272955,
                1.1553364486570938,
                -0.3633381360897409,
                0.952504182751871,
                -3.1113316808934113
            ]
        },
        {
            "positions": [
                -2.788502702838879,
                -0.747740874861427,
                1.0557598638043229,
                -0.2973081972745766,
                0.820522672404226,
                -3.11587800026337
            ]
        },
        {
            "positions": [
                -2.7628614578407387,
                -0.7154093184955584,
                0.9561832789515515,
                -0.2312782584594122,
                0.6885411620565809,
                -3.1204243196333294
            ]
        },
        {
            "positions": [
                -2.737220212842599,
                -0.68307776212969,
                0.8566066940987804,
                -0.1652483196442478,
                0.556559651708936,
                -3.1249706390032888
            ]
        },
        {
            "positions": [
                -2.711578967844459,
                -0.6507462057638214,
                0.7570301092460093,
                -0.0992183808290835,
                0.42457814136129096,
                -3.1295169583732476
            ]
        }
    ]
}