{
    "goal": {
        "global_pose": {
            "orientation": {
                "w": 0.7031023480610252,
                "x": -0.7110244013736278,
                "y": 0.0077485991402295624,
                "z": 0.005598929693374583
            },
            "position": {
                "x": -0.8841497679147869,
                "y": 0.44412534475326537,
                "z": 0.3711530566215515
            }
        },
        "name": "move_to_auspresseinheit_D"
    },
    "id": "TRRT_move_to_auspresseinheit_D_21",
    "joint_names": [
        "shoulder_pan_joint",
        "shoulder_lift_joint",
        "elbow_joint",
        "wrist_1_joint",
        "wrist_2_joint",
        "wrist_3_joint"
    ],
    "metrics": {
        "cart_traj_len": 0.3431785698728898,
        "distance_elbow_joint": 0.6359274620086706,
        "distance_shoulder_lift_joint": 0.12045217795899177,
        "distance_shoulder_pan_joint": 0.13446739053381007,
        "distance_wrist_1_joint": 0.5203803755829859,
        "distance_wrist_2_joint": 1.4403164174702323,
        "distance_wrist_3_joint": 0.014525617959545656,
        "smoothness": 0.0,
        "time": 0.023699557,
        "traj_len": 1.6929469694926171,
        "weighted_distance": 2.2035919473637913
    },
    "planner": "TRRT",
    "start": {
        "state": {
            "elbow_joint": -1.8275523626775212,
            "shoulder_lift_joint": -2.126789852344167,
            "shoulder_pan_joint": -0.03513704404078235,
            "wrist_1_joint": -2.347782403156801,
            "wrist_2_joint": -1.6058999987535132,
            "wrist_3_joint": -3.0880379163319196
        }
    },
    "waypoints": [
        {
            "positions": [
                -0.03513704404078235,
                -2.126789852344167,
                -1.8275523626775212,
                -2.347782403156801,
                -1.6058999987535132,
                -3.0880379163319196
            ]
        },
        {
            "positions": [
                -0.05194546785750861,
                -2.141846374589041,
                -1.7480614299264374,
                -2.412829950104674,
                -1.4258604465697342,
                -3.089853618576863
            ]
        },
        {
            "positions": [
                -0.06875389167423487,
                -2.156902896833915,
                -1.6685704971753537,
                -2.4778774970525475,
                -1.2458208943859552,
                -3.091669320821806
            ]
        },
        {
            "positions": [
                -0.08556231549096113,
                -2.1719594190787888,
                -1.5890795644242697,
                -2.5429250440004205,
                -1.065781342202176,
                -3.093485023066749
            ]
        },
        {
            "positions": [
                -0.10237073930768739,
                -2.1870159413236627,
                -1.509588631673186,
                -2.607972590948294,
                -0.885741790018397,
                -3.0953007253116924
            ]
        },
        {
            "positions": [
                -0.11917916312441365,
                -2.2020724635685367,
                -1.4300976989221021,
                -2.673020137896167,
                -0.705702237834618,
                -3.0971164275566356
            ]
        },
        {
            "positions": [
                -0.1359875869411399,
                -2.2171289858134107,
                -1.3506067661710182,
                -2.73806768484404,
                -0.5256626856508388,
                -3.098932129801579
            ]
        },
        {
            "positions": [
                -0.15279601075786617,
                -2.2321855080582846,
                -1.2711158334199344,
                -2.8031152317919137,
                -0.34562313346705986,
                -3.100747832046522
            ]
        },
        {
            "positions": [
                -0.16960443457459243,
                -2.2472420303031586,
                -1.1916249006688506,
                -2.8681627787397868,
                -0.1655835812832809,
                -3.1025635342914653
            ]
        }
    ]
}