{
    "goal": {
        "global_pose": {
            "orientation": {
                "w": -0.4816463035849501,
                "x": 0.5182115481033762,
                "y": 0.4908360881923453,
                "z": -0.5084816262002911
            },
            "position": {
                "x": -0.8240239810943604,
                "y": 0.19912469901144506,
                "z": 0.16403168439865112
            }
        },
        "name": "move_to_storage_D"
    },
    "id": "TRRT_move_to_storage_D_46",
    "joint_names": [
        "shoulder_pan_joint",
        "shoulder_lift_joint",
        "elbow_joint",
        "wrist_1_joint",
        "wrist_2_joint",
        "wrist_3_joint"
    ],
    "metrics": {
        "cart_traj_len": 0.7470679833171947,
        "distance_elbow_joint": 0.5545656441221862,
        "distance_shoulder_lift_joint": 0.5637353478724139,
        "distance_shoulder_pan_joint": 0.15110083600406854,
        "distance_wrist_1_joint": 3.8576945693607754,
        "distance_wrist_2_joint": 1.7891705016598494,
        "distance_wrist_3_joint": 3.597920853355662,
        "smoothness": 0.2012577591783801,
        "time": 0.086047186,
        "traj_len": 3.2425588278973376,
        "weighted_distance": 4.832897115613667
    },
    "planner": "TRRT",
    "start": {
        "state": {
            "elbow_joint": -2.384821988534728,
            "shoulder_lift_joint": -2.2788054721415256,
            "shoulder_pan_joint": -0.1854694642142757,
            "wrist_1_joint": 1.4845938289331202,
            "wrist_2_joint": 0.17898776772866878,
            "wrist_3_joint": 0.037105688729662994
        }
    },
    "waypoints": [
        {
            "positions": [
                -0.1854694642142757,
                -2.2788054721415256,
                -2.384821988534728,
                1.4845938289331202,
                0.17898776772866878,
                0.037105688729662994
            ]
        },
        {
            "positions": [
                -0.1385370925105927,
                -2.173740699231922,
                -2.3627750074240055,
                1.492704796602185,
                0.1326782871090898,
                -0.04361378675464159
            ]
        },
        {
            "positions": [
                -0.09160472080690968,
                -2.0686759263223187,
                -2.3407280263132835,
                1.5008157642712496,
                0.08636880648951081,
                -0.12433326223894618
            ]
        },
        {
            "positions": [
                -0.06332897658378843,
                -1.9944529668502458,
                -2.311777909647349,
                1.4744264784724106,
                0.06455462661000086,
                -0.15562964877609392
            ]
        },
        {
            "positions": [
                -0.03505323236066719,
                -1.9202300073781728,
                -2.282827792981415,
                1.4480371926735716,
                0.0427404467304909,
                -0.18692603531324165
            ]
        },
        {
            "positions": [
                -0.03508175753360303,
                -1.9287783358410504,
                -2.2639706492910454,
                1.2901749400725313,
                -0.026131352463745407,
                -0.04634732159187677
            ]
        },
        {
            "positions": [
                -0.035110282706538876,
                -1.937326664303928,
                -2.2451135056006755,
                1.1323126874714908,
                -0.0950031516579817,
                0.09423139212948811
            ]
        },
        {
            "positions": [
                -0.035138807879474716,
                -1.9458749927668055,
                -2.226256361910306,
                0.9744504348704506,
                -0.16387495085221804,
                0.234810105850853
            ]
        },
        {
            "positions": [
                -0.03516733305241056,
                -1.954423321229683,
                -2.207399218219936,
                0.8165881822694102,
                -0.23274675004645431,
                0.37538881957221787
            ]
        },
        {
            "positions": [
                -0.035195858225346405,
                -1.9629716496925607,
                -2.1885420745295665,
                0.6587259296683698,
                -0.3016185492406907,
                0.5159675332935827
            ]
        },
        {
            "positions": [
                -0.035224383398282245,
                -1.9715199781554382,
                -2.1696849308391966,
                0.5008636770673295,
                -0.370490348434927,
                0.6565462470149477
            ]
        },
        {
            "positions": [
                -0.035252908571218086,
                -1.9800683066183156,
                -2.150827787148827,
                0.3430014244662891,
                -0.43936214762916337,
                0.7971249607363127
            ]
        },
        {
            "positions": [
                -0.035281433744153934,
                -1.9886166350811931,
                -2.131970643458457,
                0.18513917186524886,
                -0.5082339468233995,
                0.9377036744576774
            ]
        },
        {
            "positions": [
                -0.035309958917089775,
                -1.9971649635440707,
                -2.1131134997680876,
                0.027276919264208388,
                -0.5771057460176359,
                1.0782823881790422
            ]
        },
        {
            "positions": [
                -0.035338484090025615,
                -2.0057132920069485,
                -2.0942563560777177,
                -0.13058533333683187,
                -0.6459775452118722,
                1.2188611019004072
            ]
        },
        {
            "positions": [
                -0.03536700926296146,
                -2.014261620469826,
                -2.075399212387348,
                -0.2884475859378721,
                -0.7148493444061085,
                1.359439815621772
            ]
        },
        {
            "positions": [
                -0.035395534435897304,
                -2.0228099489327036,
                -2.056542068696978,
                -0.4463098385389126,
                -0.7837211436003448,
                1.500018529343137
            ]
        },
        {
            "positions": [
                -0.035424059608833144,
                -2.0313582773955807,
                -2.0376849250066087,
                -0.6041720911399526,
                -0.8525929427945811,
                1.6405972430645017
            ]
        },
        {
            "positions": [
                -0.03545258478176899,
                -2.0399066058584583,
                -2.0188277813162387,
                -0.7620343437409933,
                -0.9214647419888176,
                1.781175956785867
            ]
        },
        {
            "positions": [
                -0.03548110995470483,
                -2.048454934321336,
                -1.9999706376258692,
                -0.9198965963420336,
                -0.9903365411830537,
                1.9217546705072317
            ]
        },
        {
            "positions": [
                -0.035509635127640674,
                -2.0570032627842134,
                -1.9811134939354995,
                -1.0777588489430738,
                -1.05920834037729,
                2.0623333842285962
            ]
        },
        {
            "positions": [
                -0.03553816030057652,
                -2.065551591247091,
                -1.9622563502451298,
                -1.2356211015441145,
                -1.1280801395715265,
                2.2029120979499615
            ]
        },
        {
            "positions": [
                -0.03556668547351236,
                -2.0740999197099685,
                -1.94339920655476,
                -1.3934833541451548,
                -1.1969519387657628,
                2.343490811671326
            ]
        },
        {
            "positions": [
                -0.0355952106464482,
                -2.082648248172846,
                -1.9245420628643903,
                -1.551345606746195,
                -1.265823737959999,
                2.4840695253926905
            ]
        },
        {
            "positions": [
                -0.03562373581938405,
                -2.0911965766357237,
                -1.9056849191740206,
                -1.7092078593472353,
                -1.3346955371542355,
                2.6246482391140558
            ]
        },
        {
            "positions": [
                -0.03565226099231989,
                -2.0997449050986012,
                -1.8868277754836509,
                -1.8670701119482755,
                -1.4035673363484718,
                2.7652269528354205
            ]
        },
        {
            "positions": [
                -0.03568078616525573,
                -2.108293233561479,
                -1.8679706317932812,
                -2.024932364549316,
                -1.472439135542708,
                2.9058056665567853
            ]
        },
        {
            "positions": [
                -0.03570931133819158,
                -2.1168415620243564,
                -1.8491134881029114,
                -2.1827946171503565,
                -1.5413109347369445,
                3.0463843802781505
            ]
        },
        {
            "positions": [
                -0.03573783651112742,
                -2.125389890487234,
                -1.8302563444125417,
                -2.3406568697513968,
                -1.6101827339311807,
                3.1869630939995153
            ]
        }
    ]
}