{
    "goal": {
        "global_pose": {
            "orientation": {
                "w": 0.005598929693374612,
                "x": 0.007748599140229565,
                "y": 0.7110244013736278,
                "z": -0.7031023480610252
            },
            "position": {
                "x": -0.8858502320852131,
                "y": -0.7141253447532654,
                "z": 0.3711530566215515
            }
        },
        "name": "move_to_auspresseinheit_C"
    },
    "id": "TRRT_move_to_auspresseinheit_C_28",
    "joint_names": [
        "shoulder_pan_joint",
        "shoulder_lift_joint",
        "elbow_joint",
        "wrist_1_joint",
        "wrist_2_joint",
        "wrist_3_joint"
    ],
    "metrics": {
        "cart_traj_len": 0.49331563265580863,
        "distance_elbow_joint": 1.0020882564107452,
        "distance_shoulder_lift_joint": 0.32563132017086205,
        "distance_shoulder_pan_joint": 0.2557936735515618,
        "distance_wrist_1_joint": 0.6777264054790442,
        "distance_wrist_2_joint": 1.319647858146978,
        "distance_wrist_3_joint": 0.054931246529726696,
        "smoothness": 1.4533828710525085e-15,
        "time": 0.042118853,
        "traj_len": 1.9067823054268458,
        "weighted_distance": 2.3964672993751432
    },
    "planner": "TRRT",
    "start": {
        "state": {
            "elbow_joint": 1.7527959577737207,
            "shoulder_lift_joint": -0.9740617694225068,
            "shoulder_pan_joint": -2.967991417825858,
            "wrist_1_joint": -0.759517768980727,
            "wrist_2_joint": 1.7443932448377408,
            "wrist_3_joint": -3.0840537646736568
        }
    },
    "waypoints": [
        {
            "positions": [
                -2.967991417825858,
                -0.9740617694225068,
                1.7527959577737207,
                -0.759517768980727,
                1.7443932448377408,
                -3.0840537646736568
            ]
        },
        {
            "positions": [
                -2.942412050470702,
                -0.9414986374054206,
                1.6525871321326462,
                -0.6917451284328225,
                1.612428459023043,
                -3.0895468893266296
            ]
        },
        {
            "positions": [
                -2.9168326831155458,
                -0.9089355053883343,
                1.5523783064915717,
                -0.6239724878849181,
                1.4804636732083452,
                -3.095040013979602
            ]
        },
        {
            "positions": [
                -2.8912533157603892,
                -0.8763723733712482,
                1.4521694808504972,
                -0.5561998473370138,
                1.3484988873936474,
                -3.1005331386325747
            ]
        },
        {
            "positions": [
                -2.865673948405233,
                -0.8438092413541619,
                1.3519606552094225,
                -0.4884272067891093,
                1.2165341015789495,
                -3.1060262632855475
            ]
        },
        {
            "positions": [
                -2.840094581050077,
                -0.8112461093370757,
                1.251751829568348,
                -0.4206545662412049,
                1.0845693157642518,
                -3.11151938793852
            ]
        },
        {
            "positions": [
                -2.814515213694921,
                -0.7786829773199896,
                1.1515430039272736,
                -0.3528819256933005,
                0.9526045299495541,
                -3.1170125125914927
            ]
        },
        {
            "positions": [
                -2.788935846339765,
                -0.7461198453029033,
                1.0513341782861991,
                -0.2851092851453961,
                0.8206397441348563,
                -3.1225056372444655
            ]
        },
        {
            "positions": [
                -2.7633564789846083,
                -0.7135567132858172,
                0.9511253526451244,
                -0.21733664459749158,
                0.6886749583201583,
                -3.1279987618974383
            ]
        },
        {
            "positions": [
                -2.7377771116294523,
                -0.6809935812687309,
                0.85091652700405,
                -0.14956400404958725,
                0.5567101725054606,
                -3.1334918865504107
            ]
        },
        {
            "positions": [
                -2.712197744274296,
                -0.6484304492516447,
                0.7507077013629755,
                -0.08179136350168276,
                0.42474538669076295,
                -3.1389850112033835
            ]
        }
    ]
}