{
    "goal": {
        "global_pose": {
            "orientation": {
                "w": 0.5084816262002911,
                "x": -0.4908360881923452,
                "y": 0.5182115481033761,
                "z": -0.48164630358495003
            },
            "position": {
                "x": 0.5540239810943604,
                "y": -0.46912469901144505,
                "z": 0.16403168439865112
            }
        },
        "name": "move_to_storage_B"
    },
    "id": "TRRT_move_to_storage_B_26",
    "joint_names": [
        "shoulder_pan_joint",
        "shoulder_lift_joint",
        "elbow_joint",
        "wrist_1_joint",
        "wrist_2_joint",
        "wrist_3_joint"
    ],
    "metrics": {
        "cart_traj_len": 0.7872865149335094,
        "distance_elbow_joint": 0.5746482366865231,
        "distance_shoulder_lift_joint": 0.457177869431056,
        "distance_shoulder_pan_joint": 0.5194330729039492,
        "distance_wrist_1_joint": 2.9827378481369724,
        "distance_wrist_2_joint": 2.7041104272346708,
        "distance_wrist_3_joint": 3.1492129109202502,
        "smoothness": 0.1032425273598478,
        "time": 0.085356055,
        "traj_len": 3.222936605847751,
        "weighted_distance": 4.729967702059452
    },
    "planner": "TRRT",
    "start": {
        "state": {
            "elbow_joint": 1.664937868594044,
            "shoulder_lift_joint": -0.661644460510453,
            "shoulder_pan_joint": -0.9139846352900073,
            "wrist_1_joint": 2.146753192139373,
            "wrist_2_joint": -2.2341966793290973,
            "wrist_3_joint": 0.005466555786416001
        }
    },
    "waypoints": [
        {
            "positions": [
                -0.9139846352900073,
                -0.661644460510453,
                1.664937868594044,
                2.146753192139373,
                -2.2341966793290973,
                0.005466555786416001
            ]
        },
        {
            "positions": [
                -0.8576641639744391,
                -0.6940213835479057,
                1.6272466496880287,
                2.07564601959661,
                -2.104272616975887,
                -0.041787848715709425
            ]
        },
        {
            "positions": [
                -0.8013436926588708,
                -0.7263983065853583,
                1.5895554307820134,
                2.004538847053847,
                -1.974348554622677,
                -0.08904225321783485
            ]
        },
        {
            "positions": [
                -0.7450232213433027,
                -0.758775229622811,
                1.5518642118759982,
                1.933431674511084,
                -1.844424492269467,
                -0.13629665771996027
            ]
        },
        {
            "positions": [
                -0.7596262071331878,
                -0.7737771921360901,
                1.5710964860413514,
                1.8180393274065556,
                -1.7479937322621737,
                -0.26160706177887166
            ]
        },
        {
            "positions": [
                -0.774229192923073,
                -0.7887791546493691,
                1.5903287602067047,
                1.702646980302027,
                -1.6515629722548804,
                -0.3869174658377831
            ]
        },
        {
            "positions": [
                -0.7888321787129583,
                -0.8037811171626482,
                1.6095610343720579,
                1.5872546331974986,
                -1.5551322122475868,
                -0.5122278698966944
            ]
        },
        {
            "positions": [
                -0.8034351645028435,
                -0.8187830796759273,
                1.6287933085374111,
                1.4718622860929702,
                -1.4587014522402935,
                -0.6375382739556058
            ]
        },
        {
            "positions": [
                -0.8180381502927286,
                -0.8337850421892063,
                1.6480255827027643,
                1.3564699389884416,
                -1.3622706922330001,
                -0.7628486780145173
            ]
        },
        {
            "positions": [
                -0.8326411360826138,
                -0.8487870047024855,
                1.6672578568681176,
                1.2410775918839132,
                -1.2658399322257066,
                -0.8881590820734286
            ]
        },
        {
            "positions": [
                -0.8472441218724991,
                -0.8637889672157646,
                1.6864901310334708,
                1.1256852447793846,
                -1.1694091722184132,
                -1.0134694861323401
            ]
        },
        {
            "positions": [
                -0.8618471076623843,
                -0.8787909297290436,
                1.705722405198824,
                1.0102928976748564,
                -1.07297841221112,
                -1.1387798901912514
            ]
        },
        {
            "positions": [
                -0.8764500934522694,
                -0.8937928922423227,
                1.7249546793641772,
                0.8949005505703278,
                -0.9765476522038266,
                -1.2640902942501628
            ]
        },
        {
            "positions": [
                -0.8910530792421546,
                -0.9087948547556018,
                1.7441869535295305,
                0.7795082034657992,
                -0.8801168921965331,
                -1.3894006983090743
            ]
        },
        {
            "positions": [
                -0.9056560650320398,
                -0.9237968172688809,
                1.7634192276948837,
                0.664115856361271,
                -0.7836861321892397,
                -1.5147111023679856
            ]
        },
        {
            "positions": [
                -0.920259050821925,
                -0.93879877978216,
                1.782651501860237,
                0.5487235092567424,
                -0.6872553721819463,
                -1.640021506426897
            ]
        },
        {
            "positions": [
                -0.9348620366118101,
                -0.9538007422954391,
                1.8018837760255901,
                0.433331162152214,
                -0.590824612174653,
                -1.7653319104858083
            ]
        },
        {
            "positions": [
                -0.9494650224016954,
                -0.9688027048087182,
                1.8211160501909434,
                0.3179388150476854,
                -0.4943938521673594,
                -1.89064231454472
            ]
        },
        {
            "positions": [
                -0.9640680081915806,
                -0.9838046673219972,
                1.8403483243562966,
                0.202546467943157,
                -0.3979630921600661,
                -2.0159527186036312
            ]
        },
        {
            "positions": [
                -0.9786709939814657,
                -0.9988066298352762,
                1.8595805985216498,
                0.08715412083862861,
                -0.30153233215277275,
                -2.1412631226625427
            ]
        },
        {
            "positions": [
                -0.993273979771351,
                -1.0138085923485554,
                1.878812872687003,
                -0.0282382262659,
                -0.2051015721454792,
                -2.266573526721454
            ]
        },
        {
            "positions": [
                -1.0078769655612363,
                -1.0288105548618345,
                1.8980451468523563,
                -0.1436305733704284,
                -0.10867081213818608,
                -2.3918839307803657
            ]
        },
        {
            "positions": [
                -1.0224799513511214,
                -1.0438125173751136,
                1.9172774210177095,
                -0.25902292047495656,
                -0.012240052130892742,
                -2.517194334839277
            ]
        },
        {
            "positions": [
                -1.0370829371410066,
                -1.0588144798883927,
                1.9365096951830627,
                -0.3744152675794856,
                0.08419070787640082,
                -2.6425047388981886
            ]
        },
        {
            "positions": [
                -1.0516859229308917,
                -1.0738164424016716,
                1.955741969348416,
                -0.4898076146840138,
                0.18062146788369438,
                -2.7678151429570996
            ]
        },
        {
            "positions": [
                -1.066288908720777,
                -1.0888184049149507,
                1.9749742435137692,
                -0.605199961788542,
                0.2770522278909877,
                -2.893125547016011
            ]
        },
        {
            "positions": [
                -1.0808918945106623,
                -1.1038203674282299,
                1.9942065176791224,
                -0.720592308893071,
                0.37348298789828105,
                -3.0184359510749226
            ]
        },
        {
            "positions": [
                -1.0954948803005473,
                -1.118822329941509,
                2.0134387918444756,
                -0.8359846559975993,
                0.4699137479055743,
                -3.143746355133834
            ]
        }
    ]
}