{
    "goal": {
        "global_pose": {
            "orientation": {
                "w": 0.005598929693374612,
                "x": 0.007748599140229565,
                "y": 0.7110244013736278,
                "z": -0.7031023480610252
            },
            "position": {
                "x": -0.8858502320852131,
                "y": -0.7141253447532654,
                "z": 0.3711530566215515
            }
        },
        "name": "move_to_auspresseinheit_C"
    },
    "id": "TRRT_move_to_auspresseinheit_C_43",
    "joint_names": [
        "shoulder_pan_joint",
        "shoulder_lift_joint",
        "elbow_joint",
        "wrist_1_joint",
        "wrist_2_joint",
        "wrist_3_joint"
    ],
    "metrics": {
        "cart_traj_len": 0.49335195581700286,
        "distance_elbow_joint": 0.9923177787849632,
        "distance_shoulder_lift_joint": 0.32098130662790314,
        "distance_shoulder_pan_joint": 0.2571473871788452,
        "distance_wrist_1_joint": 0.6623853571943651,
        "distance_wrist_2_joint": 1.3047533699921139,
        "distance_wrist_3_joint": 0.045470816409765025,
        "smoothness": 3.2297397335745243e-16,
        "time": 0.297017169,
        "traj_len": 1.8928961979432353,
        "weighted_distance": 2.37510765570615
    },
    "planner": "TRRT",
    "start": {
        "state": {
            "elbow_joint": 1.7527959577737207,
            "shoulder_lift_joint": -0.9740617694225068,
            "shoulder_pan_joint": -2.967991417825858,
            "wrist_1_joint": -0.759517768980727,
            "wrist_2_joint": 1.7443932448377408,
            "wrist_3_joint": -3.0840537646736568
        }
    },
    "waypoints": [
        {
            "positions": [
                -2.967991417825858,
                -0.9740617694225068,
                1.7527959577737207,
                -0.759517768980727,
                1.7443932448377408,
                -3.0840537646736568
            ]
        },
        {
            "positions": [
                -2.9422766791079735,
                -0.9419636387597164,
                1.6535641798952243,
                -0.6932792332612905,
                1.6139179078385295,
                -3.088600846314633
            ]
        },
        {
            "positions": [
                -2.916561940390089,
                -0.9098655080969261,
                1.554332402016728,
                -0.627040697541854,
                1.483442570839318,
                -3.0931479279556098
            ]
        },
        {
            "positions": [
                -2.890847201672204,
                -0.8777673774341358,
                1.4551006241382316,
                -0.5608021618224175,
                1.3529672338401066,
                -3.0976950095965865
            ]
        },
        {
            "positions": [
                -2.86513246295432,
                -0.8456692467713455,
                1.3558688462597352,
                -0.49456362610298094,
                1.222491896840895,
                -3.102242091237563
            ]
        },
        {
            "positions": [
                -2.8394177242364353,
                -0.8135711161085553,
                1.2566370683812391,
                -0.42832509038354444,
                1.0920165598416838,
                -3.106789172878539
            ]
        },
        {
            "positions": [
                -2.813702985518551,
                -0.7814729854457649,
                1.1574052905027428,
                -0.36208655466410794,
                0.9615412228424726,
                -3.111336254519516
            ]
        },
        {
            "positions": [
                -2.7879882468006665,
                -0.7493748547829746,
                1.0581735126242464,
                -0.29584801894467144,
                0.8310658858432611,
                -3.1158833361604925
            ]
        },
        {
            "positions": [
                -2.7622735080827816,
                -0.7172767241201843,
                0.9589417347457501,
                -0.2296094832252349,
                0.7005905488440496,
                -3.120430417801469
            ]
        },
        {
            "positions": [
                -2.736558769364897,
                -0.685178593457394,
                0.8597099568672538,
                -0.1633709475057984,
                0.5701152118448383,
                -3.124977499442445
            ]
        },
        {
            "positions": [
                -2.7108440306470127,
                -0.6530804627946036,
                0.7604781789887575,
                -0.0971324117863619,
                0.43963987484562694,
                -3.129524581083422
            ]
        }
    ]
}