{
    "goal": {
        "global_pose": {
            "orientation": {
                "w": 0.005598929693374612,
                "x": 0.007748599140229565,
                "y": 0.7110244013736278,
                "z": -0.7031023480610252
            },
            "position": {
                "x": -0.8858502320852131,
                "y": -0.7141253447532654,
                "z": 0.3711530566215515
            }
        },
        "name": "move_to_auspresseinheit_C"
    },
    "id": "TRRT_move_to_auspresseinheit_C_86",
    "joint_names": [
        "shoulder_pan_joint",
        "shoulder_lift_joint",
        "elbow_joint",
        "wrist_1_joint",
        "wrist_2_joint",
        "wrist_3_joint"
    ],
    "metrics": {
        "cart_traj_len": 0.4921622644422557,
        "distance_elbow_joint": 0.9910178322170755,
        "distance_shoulder_lift_joint": 0.3206701546364118,
        "distance_shoulder_pan_joint": 0.25560282588880723,
        "distance_wrist_1_joint": 0.6577494967424753,
        "distance_wrist_2_joint": 1.315522346485528,
        "distance_wrist_3_joint": 0.051235292566469415,
        "smoothness": 0.0,
        "time": 2.088272266,
        "traj_len": 1.8952039332316633,
        "weighted_distance": 2.3806596516297134
    },
    "planner": "TRRT",
    "start": {
        "state": {
            "elbow_joint": 1.7527959577737207,
            "shoulder_lift_joint": -0.9740617694225068,
            "shoulder_pan_joint": -2.967991417825858,
            "wrist_1_joint": -0.759517768980727,
            "wrist_2_joint": 1.7443932448377408,
            "wrist_3_joint": -3.0840537646736568
        }
    },
    "waypoints": [
        {
            "positions": [
                -2.967991417825858,
                -0.9740617694225068,
                1.7527959577737207,
                -0.759517768980727,
                1.7443932448377408,
                -3.0840537646736568
            ]
        },
        {
            "positions": [
                -2.942431135236977,
                -0.9419947539588656,
                1.653694174552013,
                -0.6937428193064794,
                1.6128410101891881,
                -3.0891772939303035
            ]
        },
        {
            "positions": [
                -2.9168708526480964,
                -0.9099277384952245,
                1.5545923913303055,
                -0.627967869632232,
                1.4812887755406352,
                -3.0943008231869507
            ]
        },
        {
            "positions": [
                -2.8913105700592157,
                -0.8778607230315832,
                1.455490608108598,
                -0.5621929199579844,
                1.3497365408920825,
                -3.099424352443598
            ]
        },
        {
            "positions": [
                -2.865750287470335,
                -0.845793707567942,
                1.3563888248868905,
                -0.49641797028373685,
                1.2181843062435296,
                -3.1045478817002445
            ]
        },
        {
            "positions": [
                -2.840190004881454,
                -0.8137266921043009,
                1.257287041665183,
                -0.43064302060948934,
                1.0866320715949769,
                -3.1096714109568913
            ]
        },
        {
            "positions": [
                -2.814629722292574,
                -0.7816596766406597,
                1.1581852584434755,
                -0.3648680709352418,
                0.9550798369464241,
                -3.1147949402135384
            ]
        },
        {
            "positions": [
                -2.789069439703693,
                -0.7495926611770185,
                1.059083475221768,
                -0.2990931212609943,
                0.8235276022978714,
                -3.1199184694701856
            ]
        },
        {
            "positions": [
                -2.7635091571148123,
                -0.7175256457133774,
                0.9599816920000602,
                -0.23331817158674673,
                0.6919753676493186,
                -3.1250419987268323
            ]
        },
        {
            "positions": [
                -2.7379488745259315,
                -0.6854586302497361,
                0.8608799087783526,
                -0.16754322191249915,
                0.5604231330007656,
                -3.130165527983479
            ]
        },
        {
            "positions": [
                -2.7123885919370507,
                -0.653391614786095,
                0.7617781255566451,
                -0.10176827223825173,
                0.428870898352213,
                -3.135289057240126
            ]
        }
    ]
}