{
    "goal": {
        "global_pose": {
            "orientation": {
                "w": 0.5084816262002911,
                "x": -0.4908360881923452,
                "y": 0.5182115481033761,
                "z": -0.48164630358495003
            },
            "position": {
                "x": 0.5540239810943604,
                "y": -0.46912469901144505,
                "z": 0.16403168439865112
            }
        },
        "name": "move_to_storage_B"
    },
    "id": "TRRT_move_to_storage_B_48",
    "joint_names": [
        "shoulder_pan_joint",
        "shoulder_lift_joint",
        "elbow_joint",
        "wrist_1_joint",
        "wrist_2_joint",
        "wrist_3_joint"
    ],
    "metrics": {
        "cart_traj_len": 0.8197198138843167,
        "distance_elbow_joint": 1.364546701145572,
        "distance_shoulder_lift_joint": 0.5314588850067055,
        "distance_shoulder_pan_joint": 0.6991975485900644,
        "distance_wrist_1_joint": 2.9835423298449575,
        "distance_wrist_2_joint": 2.7067172168092033,
        "distance_wrist_3_joint": 3.155661102699906,
        "smoothness": 0.18188222856553896,
        "time": 0.064602622,
        "traj_len": 3.3824730278446284,
        "weighted_distance": 4.841766778372372
    },
    "planner": "TRRT",
    "start": {
        "state": {
            "elbow_joint": 1.664937868594044,
            "shoulder_lift_joint": -0.661644460510453,
            "shoulder_pan_joint": -0.9139846352900073,
            "wrist_1_joint": 2.146753192139373,
            "wrist_2_joint": -2.2341966793290973,
            "wrist_3_joint": 0.005466555786416001
        }
    },
    "waypoints": [
        {
            "positions": [
                -0.9139846352900073,
                -0.661644460510453,
                1.664937868594044,
                2.146753192139373,
                -2.2341966793290973,
                0.005466555786416001
            ]
        },
        {
            "positions": [
                -0.8914350874932058,
                -0.6640930515802411,
                1.6485709996247253,
                2.121940254434353,
                -2.200160920644225,
                -0.0008531137937255878
            ]
        },
        {
            "positions": [
                -0.8486565421038984,
                -0.6638227833403039,
                1.6002554900400237,
                2.0547642876733843,
                -2.1150345607176586,
                -0.0023497304096262665
            ]
        },
        {
            "positions": [
                -0.805877996714591,
                -0.6635525151003666,
                1.551939980455322,
                1.9875883209124157,
                -2.0299082007910925,
                -0.003846347025526945
            ]
        },
        {
            "positions": [
                -0.7870570548414548,
                -0.6590986202837061,
                1.5027228871040255,
                1.8842175250624036,
                -1.9111106326194307,
                0.052341188636125094
            ]
        },
        {
            "positions": [
                -0.7682361129683185,
                -0.6546447254670458,
                1.4535057937527287,
                1.7808467292123915,
                -1.792313064447769,
                0.10852872429777713
            ]
        },
        {
            "positions": [
                -0.7494151710951822,
                -0.6501908306503853,
                1.4042887004014322,
                1.6774759333623797,
                -1.6735154962761072,
                0.16471625995942918
            ]
        },
        {
            "positions": [
                -0.730594229222046,
                -0.6457369358337248,
                1.3550716070501356,
                1.5741051375123676,
                -1.5547179281044454,
                0.2209037956210812
            ]
        },
        {
            "positions": [
                -0.7117732873489098,
                -0.6412830410170643,
                1.3058545136988389,
                1.4707343416623555,
                -1.4359203599327837,
                0.2770913312827332
            ]
        },
        {
            "positions": [
                -0.6929523454757734,
                -0.6368291462004039,
                1.2566374203475423,
                1.3673635458123434,
                -1.317122791761122,
                0.3332788669443853
            ]
        },
        {
            "positions": [
                -0.6741314036026371,
                -0.6323752513837435,
                1.2074203269962456,
                1.2639927499623314,
                -1.1983252235894601,
                0.3894664026060373
            ]
        },
        {
            "positions": [
                -0.6553104617295009,
                -0.627921356567083,
                1.158203233644949,
                1.1606219541123193,
                -1.0795276554177984,
                0.44565393826768934
            ]
        },
        {
            "positions": [
                -0.676287765302337,
                -0.6513898612777382,
                1.1990514272733528,
                1.0655071402162286,
                -1.0056205986131364,
                0.5740752675341059
            ]
        },
        {
            "positions": [
                -0.6972650688751731,
                -0.6748583659883934,
                1.2398996209017563,
                0.9703923263201382,
                -0.9317135418084741,
                0.7024965968005223
            ]
        },
        {
            "positions": [
                -0.7182423724480091,
                -0.6983268706990486,
                1.28074781453016,
                0.8752775124240475,
                -0.857806485003812,
                0.8309179260669388
            ]
        },
        {
            "positions": [
                -0.7392196760208453,
                -0.7217953754097038,
                1.3215960081585638,
                0.7801626985279569,
                -0.7838994281991498,
                0.9593392553333553
            ]
        },
        {
            "positions": [
                -0.7601969795936814,
                -0.745263880120359,
                1.3624442017869673,
                0.6850478846318664,
                -0.7099923713944877,
                1.0877605845997718
            ]
        },
        {
            "positions": [
                -0.7811742831665175,
                -0.7687323848310142,
                1.403292395415371,
                0.5899330707357758,
                -0.6360853145898255,
                1.2161819138661882
            ]
        },
        {
            "positions": [
                -0.8021515867393536,
                -0.7922008895416695,
                1.4441405890437746,
                0.4948182568396853,
                -0.5621782577851634,
                1.344603243132605
            ]
        },
        {
            "positions": [
                -0.8231288903121897,
                -0.8156693942523247,
                1.4849887826721784,
                0.3997034429435946,
                -0.48827120098050125,
                1.4730245723990214
            ]
        },
        {
            "positions": [
                -0.8441061938850258,
                -0.8391378989629799,
                1.5258369763005821,
                0.30458862904750406,
                -0.4143641441758391,
                1.6014459016654379
            ]
        },
        {
            "positions": [
                -0.8650834974578618,
                -0.8626064036736351,
                1.5666851699289857,
                0.2094738151514135,
                -0.34045708737117697,
                1.7298672309318543
            ]
        },
        {
            "positions": [
                -0.8860608010306981,
                -0.8860749083842903,
                1.6075333635573896,
                0.11435900125532283,
                -0.2665500305665147,
                1.858288560198271
            ]
        },
        {
            "positions": [
                -0.9070381046035341,
                -0.9095434130949455,
                1.6483815571857932,
                0.01924418735923239,
                -0.1926429737618527,
                1.9867098894646873
            ]
        },
        {
            "positions": [
                -0.9280154081763702,
                -0.9330119178056007,
                1.6892297508141967,
                -0.07587062653685828,
                -0.11873591695719043,
                2.1151312187311038
            ]
        },
        {
            "positions": [
                -0.9489927117492063,
                -0.9564804225162559,
                1.7300779444426004,
                -0.17098544043294872,
                -0.044828860152528405,
                2.2435525479975205
            ]
        },
        {
            "positions": [
                -0.9699700153220424,
                -0.9799489272269111,
                1.7709261380710042,
                -0.2661002543290394,
                0.029078196652133848,
                2.3719738772639367
            ]
        },
        {
            "positions": [
                -0.9909473188948785,
                -1.0034174319375664,
                1.8117743316994077,
                -0.36121506822513005,
                0.10298525345679588,
                2.5003952065303534
            ]
        },
        {
            "positions": [
                -1.0119246224677145,
                -1.0268859366482215,
                1.8526225253278117,
                -0.4563298821212207,
                0.17689231026145813,
                2.62881653579677
            ]
        },
        {
            "positions": [
                -1.0329019260405508,
                -1.0503544413588766,
                1.8934707189562152,
                -0.5514446960173112,
                0.25079936706612016,
                2.7572378650631864
            ]
        },
        {
            "positions": [
                -1.0538792296133868,
                -1.0738229460695319,
                1.9343189125846187,
                -0.6465595099134018,
                0.3247064238707824,
                2.885659194329603
            ]
        },
        {
            "positions": [
                -1.0748565331862228,
                -1.0972914507801872,
                1.9751671062130225,
                -0.7416743238094923,
                0.39861348067544444,
                3.0140805235960193
            ]
        },
        {
            "positions": [
                -1.095833836759059,
                -1.1207599554908423,
                2.0160152998414262,
                -0.8367891377055829,
                0.47252053748010675,
                3.142501852862436
            ]
        }
    ]
}