{
    "goal": {
        "global_pose": {
            "orientation": {
                "w": 0.7031023480610252,
                "x": -0.7110244013736278,
                "y": 0.0077485991402295624,
                "z": 0.005598929693374583
            },
            "position": {
                "x": -0.8841497679147869,
                "y": 0.44412534475326537,
                "z": 0.3711530566215515
            }
        },
        "name": "move_to_auspresseinheit_D"
    },
    "id": "TRRT_move_to_auspresseinheit_D_3",
    "joint_names": [
        "shoulder_pan_joint",
        "shoulder_lift_joint",
        "elbow_joint",
        "wrist_1_joint",
        "wrist_2_joint",
        "wrist_3_joint"
    ],
    "metrics": {
        "cart_traj_len": 0.34264551818284983,
        "distance_elbow_joint": 0.6333751235292309,
        "distance_shoulder_lift_joint": 0.11824414970762653,
        "distance_shoulder_pan_joint": 0.13326765534372542,
        "distance_wrist_1_joint": 0.5169866815547013,
        "distance_wrist_2_joint": 1.4324847071437756,
        "distance_wrist_3_joint": 0.010102890789081442,
        "smoothness": 0.0,
        "time": 0.030340788,
        "traj_len": 1.6865530552188808,
        "weighted_distance": 2.194114486152621
    },
    "planner": "TRRT",
    "start": {
        "state": {
            "elbow_joint": -1.8275523626775212,
            "shoulder_lift_joint": -2.126789852344167,
            "shoulder_pan_joint": -0.03513704404078235,
            "wrist_1_joint": -2.347782403156801,
            "wrist_2_joint": -1.6058999987535132,
            "wrist_3_joint": -3.0880379163319196
        }
    },
    "waypoints": [
        {
            "positions": [
                -0.03513704404078235,
                -2.126789852344167,
                -1.8275523626775212,
                -2.347782403156801,
                -1.6058999987535132,
                -3.0880379163319196
            ]
        },
        {
            "positions": [
                -0.05179550095874803,
                -2.14157037105762,
                -1.7483804722363674,
                -2.4124057383511386,
                -1.4268394103605413,
                -3.0893007776805548
            ]
        },
        {
            "positions": [
                -0.06845395787671371,
                -2.1563508897710735,
                -1.6692085817952136,
                -2.4770290735454763,
                -1.2477788219675694,
                -3.09056363902919
            ]
        },
        {
            "positions": [
                -0.08511241479467938,
                -2.171131408484527,
                -1.5900366913540596,
                -2.541652408739814,
                -1.0687182335745973,
                -3.091826500377825
            ]
        },
        {
            "positions": [
                -0.10177087171264507,
                -2.18591192719798,
                -1.5108648009129058,
                -2.6062757439341517,
                -0.8896576451816254,
                -3.0930893617264603
            ]
        },
        {
            "positions": [
                -0.11842932863061073,
                -2.200692445911433,
                -1.431692910471752,
                -2.670899079128489,
                -0.7105970567886535,
                -3.0943522230750955
            ]
        },
        {
            "positions": [
                -0.13508778554857642,
                -2.2154729646248867,
                -1.352521020030598,
                -2.7355224143228267,
                -0.5315364683956814,
                -3.0956150844237307
            ]
        },
        {
            "positions": [
                -0.1517462424665421,
                -2.2302534833383403,
                -1.2733491295894441,
                -2.8001457495171644,
                -0.35247588000270946,
                -3.096877945772366
            ]
        },
        {
            "positions": [
                -0.16840469938450778,
                -2.2450340020517934,
                -1.1941772391482903,
                -2.864769084711502,
                -0.17341529160973745,
                -3.098140807121001
            ]
        }
    ]
}