{
    "goal": {
        "global_pose": {
            "orientation": {
                "w": 0.7031023480610252,
                "x": -0.7110244013736278,
                "y": 0.0077485991402295624,
                "z": 0.005598929693374583
            },
            "position": {
                "x": -0.8841497679147869,
                "y": 0.44412534475326537,
                "z": 0.3711530566215515
            }
        },
        "name": "move_to_auspresseinheit_D"
    },
    "id": "TRRT_move_to_auspresseinheit_D_126",
    "joint_names": [
        "shoulder_pan_joint",
        "shoulder_lift_joint",
        "elbow_joint",
        "wrist_1_joint",
        "wrist_2_joint",
        "wrist_3_joint"
    ],
    "metrics": {
        "cart_traj_len": 0.3428052855571566,
        "distance_elbow_joint": 0.6436122128428361,
        "distance_shoulder_lift_joint": 0.12435447434155611,
        "distance_shoulder_pan_joint": 0.13374498009395117,
        "distance_wrist_1_joint": 0.5606178287230783,
        "distance_wrist_2_joint": 1.430817563900649,
        "distance_wrist_3_joint": 0.025943840001608542,
        "smoothness": 1.9737298371844314e-16,
        "time": 0.716039715,
        "traj_len": 1.708534723060576,
        "weighted_distance": 2.2276476320393725
    },
    "planner": "TRRT",
    "start": {
        "state": {
            "elbow_joint": -1.8275523626775212,
            "shoulder_lift_joint": -2.126789852344167,
            "shoulder_pan_joint": -0.03513704404078235,
            "wrist_1_joint": -2.347782403156801,
            "wrist_2_joint": -1.6058999987535132,
            "wrist_3_joint": -3.0880379163319196
        }
    },
    "waypoints": [
        {
            "positions": [
                -0.03513704404078235,
                -2.126789852344167,
                -1.8275523626775212,
                -2.347782403156801,
                -1.6058999987535132,
                -3.0880379163319196
            ]
        },
        {
            "positions": [
                -0.05185516655252624,
                -2.142334161636861,
                -1.7471008360721667,
                -2.4178596317471857,
                -1.427047803265932,
                -3.0847949363317184
            ]
        },
        {
            "positions": [
                -0.06857328906427014,
                -2.157878470929556,
                -1.6666493094668122,
                -2.4879368603375704,
                -1.248195607778351,
                -3.0815519563315172
            ]
        },
        {
            "positions": [
                -0.08529141157601403,
                -2.1734227802222503,
                -1.5861977828614577,
                -2.5580140889279552,
                -1.06934341229077,
                -3.0783089763313165
            ]
        },
        {
            "positions": [
                -0.10200953408775792,
                -2.1889670895149447,
                -1.5057462562561033,
                -2.62809131751834,
                -0.8904912168031887,
                -3.0750659963311153
            ]
        },
        {
            "positions": [
                -0.11872765659950182,
                -2.2045113988076395,
                -1.4252947296507488,
                -2.698168546108725,
                -0.7116390213156075,
                -3.071823016330914
            ]
        },
        {
            "positions": [
                -0.13544577911124572,
                -2.220055708100334,
                -1.344843203045394,
                -2.7682457746991096,
                -0.5327868258280264,
                -3.0685800363307134
            ]
        },
        {
            "positions": [
                -0.15216390162298962,
                -2.2356000173930286,
                -1.2643916764400396,
                -2.8383230032894944,
                -0.35393463034044537,
                -3.0653370563305122
            ]
        },
        {
            "positions": [
                -0.16888202413473352,
                -2.251144326685723,
                -1.183940149834685,
                -2.908400231879879,
                -0.17508243485286404,
                -3.062094076330311
            ]
        }
    ]
}