{
    "goal": {
        "global_pose": {
            "orientation": {
                "w": -0.4816463035849501,
                "x": 0.5182115481033762,
                "y": 0.4908360881923453,
                "z": -0.5084816262002911
            },
            "position": {
                "x": -0.8240239810943604,
                "y": -0.300875300988555,
                "z": 0.16403168439865112
            }
        },
        "name": "move_to_storage_C"
    },
    "id": "TRRT_move_to_storage_C_129",
    "joint_names": [
        "shoulder_pan_joint",
        "shoulder_lift_joint",
        "elbow_joint",
        "wrist_1_joint",
        "wrist_2_joint",
        "wrist_3_joint"
    ],
    "metrics": {
        "cart_traj_len": 0.5770185443982505,
        "distance_elbow_joint": 0.25341111016760354,
        "distance_shoulder_lift_joint": 0.18856940465303373,
        "distance_shoulder_pan_joint": 0.496774308257002,
        "distance_wrist_1_joint": 0.0629262350283255,
        "distance_wrist_2_joint": 1.0581866763831451,
        "distance_wrist_3_joint": 0.06757977120887215,
        "smoothness": 0.0,
        "time": 0.036933169,
        "traj_len": 1.4585772196555045,
        "weighted_distance": 1.8394890484934114
    },
    "planner": "TRRT",
    "start": {
        "state": {
            "elbow_joint": 2.010868314990456,
            "shoulder_lift_joint": -1.1634956873337592,
            "shoulder_pan_joint": -2.4736205022346125,
            "wrist_1_joint": -0.8367026794202681,
            "wrist_2_joint": 0.6746043897044499,
            "wrist_3_joint": -3.1496632123970403
        }
    },
    "waypoints": [
        {
            "positions": [
                -2.4736205022346125,
                -1.1634956873337592,
                2.010868314990456,
                -0.8367026794202681,
                0.6746043897044499,
                -3.1496632123970403
            ]
        },
        {
            "positions": [
                -2.556416220277446,
                -1.1320674532249202,
                1.968633129962522,
                -0.8262149735822139,
                0.8509688357683074,
                -3.1383999171955614
            ]
        },
        {
            "positions": [
                -2.6392119383202797,
                -1.1006392191160812,
                1.926397944934588,
                -0.8157272677441596,
                1.027333281832165,
                -3.127136621994083
            ]
        },
        {
            "positions": [
                -2.7220076563631137,
                -1.0692109850072424,
                1.884162759906654,
                -0.8052395619061053,
                1.2036977278960226,
                -3.115873326792604
            ]
        },
        {
            "positions": [
                -2.8048033744059473,
                -1.0377827508984034,
                1.84192757487872,
                -0.7947518560680511,
                1.38006217395988,
                -3.1046100315911254
            ]
        },
        {
            "positions": [
                -2.887599092448781,
                -1.0063545167895644,
                1.7996923898507862,
                -0.7842641502299968,
                1.5564266200237376,
                -3.093346736389647
            ]
        },
        {
            "positions": [
                -2.9703948104916145,
                -0.9749262826807255,
                1.7574572048228523,
                -0.7737764443919426,
                1.732791066087595,
                -3.082083441188168
            ]
        }
    ]
}