{
    "goal": {
        "global_pose": {
            "orientation": {
                "w": -0.00223480608172531,
                "x": 0.0024358444001904467,
                "y": 0.7094548369677653,
                "z": -0.704743149386269
            },
            "position": {
                "x": -0.37947507619857795,
                "y": -0.6371506643295288,
                "z": 0.19426114857196808
            }
        },
        "name": "move_to_magneteinheit_C"
    },
    "id": "TRRT_move_to_magneteinheit_C_113",
    "joint_names": [
        "shoulder_pan_joint",
        "shoulder_lift_joint",
        "elbow_joint",
        "wrist_1_joint",
        "wrist_2_joint",
        "wrist_3_joint"
    ],
    "metrics": {
        "cart_traj_len": 7.027703842673971,
        "distance_elbow_joint": 0.8849582988855165,
        "distance_shoulder_lift_joint": 3.1183206044476806,
        "distance_shoulder_pan_joint": 10.001938196699614,
        "distance_wrist_1_joint": 6.818568534853781,
        "distance_wrist_2_joint": 4.218883718302197,
        "distance_wrist_3_joint": 0.5120914918393136,
        "smoothness": 0.5392844286163663,
        "time": 4.2978439129999995,
        "traj_len": 5.055171692932705,
        "weighted_distance": 6.133220694045071
    },
    "planner": "TRRT",
    "start": {
        "state": {
            "elbow_joint": 1.9565354010623817,
            "shoulder_lift_joint": -1.4165861575791021,
            "shoulder_pan_joint": -1.6717766225146293,
            "wrist_1_joint": -0.5286633292919765,
            "wrist_2_joint": 1.472756589071564,
            "wrist_3_joint": -3.1238370188695823
        }
    },
    "waypoints": [
        {
            "positions": [
                -1.6717766225146293,
                -1.4165861575791021,
                1.9565354010623817,
                -0.5286633292919765,
                1.472756589071564,
                -3.1238370188695823
            ]
        },
        {
            "positions": [
                -1.528038740983508,
                -1.4613292946377308,
                1.9435857057532402,
                -0.4271823889506454,
                1.3942524177638722,
                -3.116057364093545
            ]
        },
        {
            "positions": [
                -1.3843008594523862,
                -1.5060724316963594,
                1.9306360104440985,
                -0.3257014486093143,
                1.3157482464561807,
                -3.1082777093175085
            ]
        },
        {
            "positions": [
                -1.2405629779212646,
                -1.5508155687549878,
                1.917686315134957,
                -0.22422050826798323,
                1.237244075148489,
                -3.1004980545414713
            ]
        },
        {
            "positions": [
                -1.0968250963901431,
                -1.5955587058136165,
                1.9047366198258155,
                -0.1227395679266522,
                1.1587399038407975,
                -3.092718399765434
            ]
        },
        {
            "positions": [
                -0.9530872148590216,
                -1.6403018428722451,
                1.8917869245166739,
                -0.021258627585321155,
                1.0802357325331058,
                -3.0849387449893975
            ]
        },
        {
            "positions": [
                -0.8093493333279,
                -1.6850449799308738,
                1.8788372292075324,
                0.08022231275601,
                1.001731561225414,
                -3.0771590902133603
            ]
        },
        {
            "positions": [
                -0.6656114517967786,
                -1.7297881169895022,
                1.865887533898391,
                0.18170325309734103,
                0.9232273899177226,
                -3.069379435437323
            ]
        },
        {
            "positions": [
                -0.521873570265657,
                -1.7745312540481308,
                1.8529378385892494,
                0.28318419343867207,
                0.844723218610031,
                -3.0615997806612865
            ]
        },
        {
            "positions": [
                -0.3781356887345353,
                -1.8192743911067595,
                1.8399881432801077,
                0.3846651337800031,
                0.7662190473023394,
                -3.0538201258852493
            ]
        },
        {
            "positions": [
                -0.23439780720341385,
                -1.8640175281653881,
                1.8270384479709663,
                0.48614607412133415,
                0.6877148759946478,
                -3.046040471109212
            ]
        },
        {
            "positions": [
                -0.09065992567229242,
                -1.9087606652240168,
                1.8140887526618248,
                0.5876270144626652,
                0.6092107046869562,
                -3.0382608163331755
            ]
        },
        {
            "positions": [
                0.05307795585882924,
                -1.9535038022826452,
                1.801139057352683,
                0.6891079548039964,
                0.5307065333792644,
                -3.0304811615571383
            ]
        },
        {
            "positions": [
                0.1968158373899509,
                -1.9982469393412738,
                1.7881893620435416,
                0.7905888951453275,
                0.45220236207157294,
                -3.022701506781101
            ]
        },
        {
            "positions": [
                0.3405537189210721,
                -2.0429900763999025,
                1.7752396667344001,
                0.8920698354866585,
                0.3736981907638812,
                -3.0149218520050645
            ]
        },
        {
            "positions": [
                0.48429160045219377,
                -2.087733213458531,
                1.7622899714252585,
                0.9935507758279896,
                0.2951940194561897,
                -3.0071421972290273
            ]
        },
        {
            "positions": [
                0.6280294819833154,
                -2.13247635051716,
                1.749340276116117,
                1.0950317161693206,
                0.216689848148498,
                -2.9993625424529906
            ]
        },
        {
            "positions": [
                0.7717673635144371,
                -2.177219487575788,
                1.7363905808069755,
                1.1965126565106516,
                0.1381856768408063,
                -2.9915828876769535
            ]
        },
        {
            "positions": [
                0.9155052450455587,
                -2.2219626246344166,
                1.7234408854978338,
                1.2979935968519827,
                0.0596815055331148,
                -2.9838032329009163
            ]
        },
        {
            "positions": [
                1.05924312657668,
                -2.2667057616930455,
                1.7104911901886923,
                1.3994745371933137,
                -0.01882266577457692,
                -2.976023578124879
            ]
        },
        {
            "positions": [
                1.2029810081078016,
                -2.311448898751674,
                1.6975414948795509,
                1.5009554775346448,
                -0.09732683708226841,
                -2.9682439233488425
            ]
        },
        {
            "positions": [
                1.3467188896389233,
                -2.356192035810303,
                1.6845917995704092,
                1.6024364178759758,
                -0.17583100838996013,
                -2.9604642685728053
            ]
        },
        {
            "positions": [
                1.4904567711700445,
                -2.400935172868931,
                1.6716421042612677,
                1.7039173582173068,
                -0.2543351796976516,
                -2.9526846137967686
            ]
        },
        {
            "positions": [
                1.6341946527011662,
                -2.44567830992756,
                1.6586924089521262,
                1.8053982985586379,
                -0.33283935100534334,
                -2.9449049590207315
            ]
        },
        {
            "positions": [
                1.7779325342322878,
                -2.4904214469861885,
                1.6457427136429845,
                1.9068792388999694,
                -0.41134352231303506,
                -2.9371253042446943
            ]
        },
        {
            "positions": [
                1.9216704157634095,
                -2.535164584044817,
                1.632793018333843,
                2.0083601792413006,
                -0.48984769362072655,
                -2.9293456494686576
            ]
        },
        {
            "positions": [
                2.065408297294531,
                -2.579907721103446,
                1.6198433230247016,
                2.109841119582631,
                -0.568351864928418,
                -2.9215659946926205
            ]
        },
        {
            "positions": [
                2.2091461788256526,
                -2.624650858162074,
                1.6068936277155599,
                2.2113220599239627,
                -0.6468560362361098,
                -2.9137863399165833
            ]
        },
        {
            "positions": [
                2.3528840603567733,
                -2.6693939952207026,
                1.5939439324064184,
                2.3128030002652933,
                -0.7253602075438015,
                -2.9060066851405466
            ]
        },
        {
            "positions": [
                2.496621941887895,
                -2.7141371322793315,
                1.580994237097277,
                2.4142839406066248,
                -0.8038643788514932,
                -2.8982270303645095
            ]
        },
        {
            "positions": [
                2.6403598234190166,
                -2.75888026933796,
                1.5680445417881352,
                2.5157648809479554,
                -0.8823685501591845,
                -2.8904473755884723
            ]
        },
        {
            "positions": [
                2.7840977049501383,
                -2.8036234063965884,
                1.5550948464789938,
                2.617245821289287,
                -0.9608727214668762,
                -2.8826677208124356
            ]
        },
        {
            "positions": [
                2.92783558648126,
                -2.8483665434552172,
                1.5421451511698523,
                2.718726761630618,
                -1.039376892774568,
                -2.8748880660363985
            ]
        },
        {
            "positions": [
                2.7689436456664445,
                -2.798762419379583,
                1.5559853879049401,
                2.613692101514995,
                -0.9891783564082129,
                -2.8826275524777554
            ]
        },
        {
            "positions": [
                2.610051704851629,
                -2.749158295303949,
                1.569825624640028,
                2.5086574413993716,
                -0.9389798200418579,
                -2.890367038919112
            ]
        },
        {
            "positions": [
                2.451159764036813,
                -2.699554171228314,
                1.5836658613751158,
                2.4036227812837487,
                -0.8887812836755029,
                -2.8981065253604688
            ]
        },
        {
            "positions": [
                2.2922678232219975,
                -2.64995004715268,
                1.5975060981102036,
                2.2985881211681254,
                -0.8385827473091478,
                -2.9058460118018257
            ]
        },
        {
            "positions": [
                2.133375882407182,
                -2.600345923077046,
                1.6113463348452917,
                2.1935534610525025,
                -0.7883842109427929,
                -2.913585498243182
            ]
        },
        {
            "positions": [
                1.9744839415923665,
                -2.5507417990014116,
                1.6251865715803795,
                2.088518800936879,
                -0.7381856745764379,
                -2.921324984684539
            ]
        },
        {
            "positions": [
                1.815592000777551,
                -2.5011376749257774,
                1.6390268083154673,
                1.9834841408212562,
                -0.6879871382100828,
                -2.929064471125896
            ]
        },
        {
            "positions": [
                1.6567000599627353,
                -2.451533550850143,
                1.6528670450505552,
                1.8784494807056333,
                -0.6377886018437279,
                -2.9368039575672524
            ]
        },
        {
            "positions": [
                1.4978081191479198,
                -2.4019294267745086,
                1.666707281785643,
                1.77341482059001,
                -0.5875900654773728,
                -2.9445434440086093
            ]
        },
        {
            "positions": [
                1.338916178333104,
                -2.3523253026988744,
                1.6805475185207308,
                1.668380160474387,
                -0.5373915291110178,
                -2.952282930449966
            ]
        },
        {
            "positions": [
                1.1800242375182886,
                -2.30272117862324,
                1.6943877552558186,
                1.563345500358764,
                -0.48719299274466277,
                -2.9600224168913227
            ]
        },
        {
            "positions": [
                1.0211322967034728,
                -2.253117054547606,
                1.7082279919909067,
                1.4583108402431408,
                -0.4369944563783078,
                -2.9677619033326796
            ]
        },
        {
            "positions": [
                0.8622403558886576,
                -2.2035129304719714,
                1.7220682287259943,
                1.353276180127518,
                -0.38679592001195284,
                -2.975501389774036
            ]
        },
        {
            "positions": [
                0.703348415073842,
                -2.1539088063963376,
                1.7359084654610824,
                1.2482415200118948,
                -0.3365973836455979,
                -2.983240876215393
            ]
        },
        {
            "positions": [
                0.5444564742590265,
                -2.104304682320703,
                1.7497487021961702,
                1.1432068598962717,
                -0.2863988472792428,
                -2.99098036265675
            ]
        },
        {
            "positions": [
                0.3855645334442106,
                -2.054700558245069,
                1.763588938931258,
                1.0381721997806486,
                -0.23620031091288785,
                -2.9987198490981064
            ]
        },
        {
            "positions": [
                0.2266725926293951,
                -2.0050964341694346,
                1.7774291756663458,
                0.9331375396650254,
                -0.18600177454653277,
                -3.0064593355394633
            ]
        },
        {
            "positions": [
                0.0677806518145796,
                -1.9554923100938002,
                1.7912694124014337,
                0.8281028795494023,
                -0.1358032381801777,
                -3.0141988219808202
            ]
        },
        {
            "positions": [
                -0.09111128900023635,
                -1.9058881860181658,
                1.8051096491365215,
                0.7230682194337792,
                -0.08560470181382274,
                -3.0219383084221767
            ]
        },
        {
            "positions": [
                -0.25000322981505185,
                -1.8562840619425316,
                1.8189498858716093,
                0.6180335593181563,
                -0.035406165447467774,
                -3.0296777948635336
            ]
        },
        {
            "positions": [
                -0.40889517062986735,
                -1.8066799378668974,
                1.8327901226066974,
                0.5129988992025329,
                0.014792370918887299,
                -3.0374172813048905
            ]
        },
        {
            "positions": [
                -0.5677871114446829,
                -1.757075813791263,
                1.8466303593417852,
                0.40796423908691004,
                0.06499090728524237,
                -3.045156767746247
            ]
        },
        {
            "positions": [
                -0.7266790522594988,
                -1.7074716897156288,
                1.860470596076873,
                0.3029295789712867,
                0.11518944365159745,
                -3.052896254187604
            ]
        },
        {
            "positions": [
                -0.8855709930743143,
                -1.6578675656399944,
                1.8743108328119609,
                0.1978949188556638,
                0.1653879800179523,
                -3.060635740628961
            ]
        },
        {
            "positions": [
                -1.0444629338891298,
                -1.6082634415643602,
                1.8881510695470487,
                0.09286025874004045,
                0.21558651638430737,
                -3.0683752270703173
            ]
        },
        {
            "positions": [
                -1.2033548747039449,
                -1.558659317488726,
                1.9019913062821365,
                -0.012174401375582011,
                0.2657850527506622,
                -3.076114713511674
            ]
        },
        {
            "positions": [
                -1.3622468155187608,
                -1.5090551934130918,
                1.9158315430172244,
                -0.11720906149120536,
                0.3159835891170173,
                -3.0838541999530307
            ]
        },
        {
            "positions": [
                -1.5211387563335759,
                -1.4594510693374576,
                1.9296717797523122,
                -0.22224372160682826,
                0.36618212548337215,
                -3.0915936863943876
            ]
        },
        {
            "positions": [
                -1.6800306971483918,
                -1.4098469452618232,
                1.9435120164874,
                -0.3272783817224516,
                0.4163806618497272,
                -3.0993331728357445
            ]
        },
        {
            "positions": [
                -1.8389226379632069,
                -1.360242821186189,
                1.957352253222488,
                -0.4323130418380745,
                0.4665791982160823,
                -3.107072659277101
            ]
        },
        {
            "positions": [
                -1.9978145787780228,
                -1.3106386971105546,
                1.9711924899575757,
                -0.5373477019536979,
                0.5167777345824374,
                -3.114812145718458
            ]
        },
        {
            "positions": [
                -2.1567065195928388,
                -1.2610345730349204,
                1.9850327266926637,
                -0.6423823620693208,
                0.5669762709487922,
                -3.122551632159815
            ]
        },
        {
            "positions": [
                -2.315598460407654,
                -1.211430448959286,
                1.9988729634277516,
                -0.7474170221849441,
                0.6171748073151473,
                -3.1302911186011713
            ]
        },
        {
            "positions": [
                -2.47449040122247,
                -1.1618263248836518,
                2.0127132001628394,
                -0.8524516823005669,
                0.6673733436815025,
                -3.138030605042528
            ]
        }
    ]
}