{
    "goal": {
        "global_pose": {
            "orientation": {
                "w": 0.5084816217422485,
                "x": -0.49083608388900757,
                "y": 0.5182115435600281,
                "z": -0.4816462993621826
            },
            "position": {
                "x": 0.5540239810943604,
                "y": 0.030875300988554955,
                "z": 0.16403168439865112
            }
        },
        "name": "move_to_storage_A"
    },
    "id": "TRRT_move_to_storage_A_43",
    "joint_names": [
        "shoulder_pan_joint",
        "shoulder_lift_joint",
        "elbow_joint",
        "wrist_1_joint",
        "wrist_2_joint",
        "wrist_3_joint"
    ],
    "metrics": {
        "cart_traj_len": 0.35288699431984216,
        "distance_elbow_joint": 0.4501329104463172,
        "distance_shoulder_lift_joint": 0.23366692280914525,
        "distance_shoulder_pan_joint": 0.4624491067728234,
        "distance_wrist_1_joint": 0.2423898421298446,
        "distance_wrist_2_joint": 1.0940151958441657,
        "distance_wrist_3_joint": 0.09531170402340194,
        "smoothness": 4.440892098500626e-16,
        "time": 0.020104687,
        "traj_len": 1.6056044600167558,
        "weighted_distance": 2.026078509842724
    },
    "planner": "TRRT",
    "start": {
        "state": {
            "elbow_joint": 1.971548259319323,
            "shoulder_lift_joint": -1.1394851275133948,
            "shoulder_pan_joint": 0.1228115487234821,
            "wrist_1_joint": -0.7804723859257726,
            "wrist_2_joint": 0.12958671773740124,
            "wrist_3_joint": -3.192489227718131
        }
    },
    "waypoints": [
        {
            "positions": [
                0.1228115487234821,
                -1.1394851275133948,
                1.971548259319323,
                -0.7804723859257726,
                0.12958671773740124,
                -3.192489227718131
            ]
        },
        {
            "positions": [
                0.05674739061307876,
                -1.1728661164861298,
                2.035852960811654,
                -0.8150995062300361,
                0.2858746028579964,
                -3.1788732700005022
            ]
        },
        {
            "positions": [
                -0.009316767497324574,
                -1.2062471054588648,
                2.1001576623039853,
                -0.8497266265342996,
                0.4421624879785915,
                -3.1652573122828733
            ]
        },
        {
            "positions": [
                -0.07538092560772791,
                -1.2396280944315998,
                2.164462363796316,
                -0.8843537468385632,
                0.5984503730991866,
                -3.1516413545652444
            ]
        },
        {
            "positions": [
                -0.14144508371813125,
                -1.273009083404335,
                2.228767065288647,
                -0.9189808671428267,
                0.7547382582197817,
                -3.138025396847616
            ]
        },
        {
            "positions": [
                -0.20750924182853464,
                -1.30639007237707,
                2.293071766780978,
                -0.9536079874470902,
                0.9110261433403768,
                -3.124409439129987
            ]
        },
        {
            "positions": [
                -0.2735733999389379,
                -1.339771061349805,
                2.3573764682733094,
                -0.9882351077513537,
                1.067314028460972,
                -3.110793481412358
            ]
        },
        {
            "positions": [
                -0.3396375580493413,
                -1.37315205032254,
                2.42168116976564,
                -1.0228622280556172,
                1.223601913581567,
                -3.097177523694729
            ]
        }
    ]
}{
    "goal": {
        "global_pose": {
            "orientation": {
                "w": 0.5084816217422485,
                "x": -0.49083608388900757,
                "y": 0.5182115435600281,
                "z": -0.4816462993621826
            },
            "position": {
                "x": 0.5540239810943604,
                "y": 0.030875300988554955,
                "z": 0.16403168439865112
            }
        },
        "name": "move_to_storage_A"
    },
    "id": "TRRT_move_to_storage_A_43",
    "joint_names": [
        "shoulder_pan_joint",
        "shoulder_lift_joint",
        "elbow_joint",
        "wrist_1_joint",
        "wrist_2_joint",
        "wrist_3_joint"
    ],
    "metrics": {
        "cart_traj_len": 0.3532616128464061,
        "distance_elbow_joint": 0.4509710939014271,
        "distance_shoulder_lift_joint": 0.23699098710789657,
        "distance_shoulder_pan_joint": 0.46258196712278754,
        "distance_wrist_1_joint": 0.24115545846699016,
        "distance_wrist_2_joint": 1.097960694669025,
        "distance_wrist_3_joint": 0.08911612800912305,
        "smoothness": 0.0,
        "time": 0.026197268000000003,
        "traj_len": 1.6058568831864344,
        "weighted_distance": 2.023888519269654
    },
    "planner": "TRRT",
    "start": {
        "state": {
            "elbow_joint": 1.97154746011099,
            "shoulder_lift_joint": -1.13948474672311,
            "shoulder_pan_joint": 0.12281154466712228,
            "wrist_1_joint": -0.7804688027058302,
            "wrist_2_joint": 0.12958655903071145,
            "wrist_3_joint": 3.0906928834467795
        }
    },
    "waypoints": [
        {
            "positions": [
                0.12281154466712228,
                -1.13948474672311,
                1.97154746011099,
                -0.7804688027058302,
                0.12958655903071145,
                3.0906928834467795
            ]
        },
        {
            "positions": [
                0.05672840650672406,
                -1.173340602024238,
                2.0359719020969083,
                -0.8149195824868288,
                0.28643808684057215,
                3.1034237588766542
            ]
        },
        {
            "positions": [
                -0.009354731653674161,
                -1.2071964573253662,
                2.100396344082826,
                -0.8493703622678274,
                0.4432896146504328,
                3.116154634306529
            ]
        },
        {
            "positions": [
                -0.07543786981407237,
                -1.2410523126264943,
                2.1648207860687445,
                -0.883821142048826,
                0.6001411424602936,
                3.1288855097364037
            ]
        },
        {
            "positions": [
                -0.1415210079744706,
                -1.2749081679276222,
                2.2292452280546624,
                -0.9182719218298245,
                0.7569926702701543,
                3.1416163851662784
            ]
        },
        {
            "positions": [
                -0.20760414613486883,
                -1.3087640232287503,
                2.2936696700405808,
                -0.9527227016108232,
                0.913844198080015,
                3.154347260596153
            ]
        },
        {
            "positions": [
                -0.273687284295267,
                -1.3426198785298784,
                2.3580941120264987,
                -0.9871734813918217,
                1.0706957258898757,
                3.167078136026028
            ]
        },
        {
            "positions": [
                -0.33977042245566524,
                -1.3764757338310065,
                2.422518554012417,
                -1.0216242611728203,
                1.2275472536997365,
                3.1798090114559026
            ]
        }
    ]
}{
    "goal": {
        "global_pose": {
            "orientation": {
                "w": 0.5084816217422485,
                "x": -0.49083608388900757,
                "y": 0.5182115435600281,
                "z": -0.4816462993621826
            },
            "position": {
                "x": 0.5540239810943604,
                "y": 0.030875300988554955,
                "z": 0.16403168439865112
            }
        },
        "name": "move_to_storage_A"
    },
    "id": "TRRT_move_to_storage_A_43",
    "joint_names": [
        "shoulder_pan_joint",
        "shoulder_lift_joint",
        "elbow_joint",
        "wrist_1_joint",
        "wrist_2_joint",
        "wrist_3_joint"
    ],
    "metrics": {
        "cart_traj_len": 0.3532899116369755,
        "distance_elbow_joint": 0.44865878451180485,
        "distance_shoulder_lift_joint": 0.23476829369819385,
        "distance_shoulder_pan_joint": 0.46307129868495706,
        "distance_wrist_1_joint": 0.24059216457365706,
        "distance_wrist_2_joint": 1.0941358121471316,
        "distance_wrist_3_joint": 0.09615053817371999,
        "smoothness": 2.2204460668324854e-16,
        "time": 0.040400691,
        "traj_len": 1.6054210948500287,
        "weighted_distance": 2.0259333515339772
    },
    "planner": "TRRT",
    "start": {
        "state": {
            "elbow_joint": 1.9715472970024885,
            "shoulder_lift_joint": -1.1394870060712896,
            "shoulder_pan_joint": 0.12281152778156021,
            "wrist_1_joint": -0.780463741449964,
            "wrist_2_joint": 0.12958659822042276,
            "wrist_3_joint": 3.090690232415272
        }
    },
    "waypoints": [
        {
            "positions": [
                0.12281152778156021,
                -1.1394870060712896,
                1.9715472970024885,
                -0.780463741449964,
                0.12958659822042276,
                3.090690232415272
            ]
        },
        {
            "positions": [
                0.05665848511228064,
                -1.17302533374246,
                2.0356414090756036,
                -0.8148340506747721,
                0.28589171424144155,
                3.104426023582946
            ]
        },
        {
            "positions": [
                -0.009494557556998934,
                -1.2065636614136308,
                2.0997355211487183,
                -0.8492043598995803,
                0.44219683026246037,
                3.1181618147506205
            ]
        },
        {
            "positions": [
                -0.0756476002262785,
                -1.2401019890848013,
                2.1638296332218334,
                -0.8835746691243884,
                0.5985019462834792,
                3.1318976059182946
            ]
        },
        {
            "positions": [
                -0.14180064289555808,
                -1.2736403167559718,
                2.2279237452949485,
                -0.9179449783491966,
                0.7548070623044979,
                3.145633397085969
            ]
        },
        {
            "positions": [
                -0.20795368556483765,
                -1.3071786444271423,
                2.2920178573680636,
                -0.9523152875740047,
                0.9111121783255167,
                3.159369188253643
            ]
        },
        {
            "positions": [
                -0.2741067282341172,
                -1.340716972098313,
                2.3561119694411783,
                -0.9866855967988128,
                1.0674172943465357,
                3.1731049794213178
            ]
        },
        {
            "positions": [
                -0.3402597709033968,
                -1.3742552997694835,
                2.4202060815142934,
                -1.021055906023621,
                1.2237224103675544,
                3.186840770588992
            ]
        }
    ]
}