{
    "goal": {
        "global_pose": {
            "orientation": {
                "w": 0.7047431468963623,
                "x": -0.7094548344612122,
                "y": 0.0024358443915843964,
                "z": -0.0022348060738295317
            },
            "position": {
                "x": 0.6094750761985779,
                "y": 0.3671506643295288,
                "z": 0.19426114857196808
            }
        },
        "name": "move_to_magneteinheit_A"
    },
    "id": "TRRT_move_to_magneteinheit_A_67",
    "joint_names": [
        "shoulder_pan_joint",
        "shoulder_lift_joint",
        "elbow_joint",
        "wrist_1_joint",
        "wrist_2_joint",
        "wrist_3_joint"
    ],
    "metrics": {
        "cart_traj_len": 3.500908525754,
        "distance_elbow_joint": 3.873881891139419,
        "distance_shoulder_lift_joint": 0.13003346910625124,
        "distance_shoulder_pan_joint": 2.623384623196668,
        "distance_wrist_1_joint": 0.8542108145026753,
        "distance_wrist_2_joint": 2.032757261442708,
        "distance_wrist_3_joint": 2.580345218808474,
        "smoothness": 0.09428915048673801,
        "time": 0.627952702,
        "traj_len": 3.477731053171909,
        "weighted_distance": 4.488014237027165
    },
    "planner": "TRRT",
    "start": {
        "state": {
            "elbow_joint": -1.9196185241190666,
            "shoulder_lift_joint": -1.2443396400964142,
            "shoulder_pan_joint": 2.6996025414629847,
            "wrist_1_joint": -1.5485510000780065,
            "wrist_2_joint": -1.5709468930060704,
            "wrist_3_joint": 0.4420197071253992
        }
    },
    "waypoints": [
        {
            "positions": [
                2.6996025414629847,
                -1.2443396400964142,
                -1.9196185241190666,
                -1.5485510000780065,
                -1.5709468930060704,
                0.4420197071253992
            ]
        },
        {
            "positions": [
                2.6024638027850173,
                -1.239026924702093,
                -1.8012546203702096,
                -1.5116179220390809,
                -1.4958924671881526,
                0.4937564476413778
            ]
        },
        {
            "positions": [
                2.50532506410705,
                -1.2337142093077718,
                -1.6828907166213523,
                -1.4746848440001552,
                -1.4208380413702348,
                0.5454931881573564
            ]
        },
        {
            "positions": [
                2.4081863254290825,
                -1.2284014939134507,
                -1.5645268128724952,
                -1.4377517659612298,
                -1.345783615552317,
                0.597229928673335
            ]
        },
        {
            "positions": [
                2.311047586751115,
                -1.2230887785191296,
                -1.4461629091236379,
                -1.4008186879223041,
                -1.2707291897343993,
                0.6489666691893137
            ]
        },
        {
            "positions": [
                2.2139088480731477,
                -1.2177760631248085,
                -1.3277990053747808,
                -1.3638856098833785,
                -1.1956747639164815,
                0.7007034097052923
            ]
        },
        {
            "positions": [
                2.11677010939518,
                -1.2124633477304871,
                -1.2094351016259237,
                -1.3269525318444528,
                -1.1206203380985638,
                0.752440150221271
            ]
        },
        {
            "positions": [
                2.0196313707172124,
                -1.207150632336166,
                -1.0910711978770662,
                -1.2900194538055272,
                -1.045565912280646,
                0.8041768907372495
            ]
        },
        {
            "positions": [
                1.922492632039245,
                -1.201837916941845,
                -0.9727072941282092,
                -1.2530863757666015,
                -0.9705114864627283,
                0.8559136312532282
            ]
        },
        {
            "positions": [
                1.8253538933612776,
                -1.1965252015475238,
                -0.854343390379352,
                -1.216153297727676,
                -0.8954570606448106,
                0.9076503717692068
            ]
        },
        {
            "positions": [
                1.7282151546833102,
                -1.1912124861532025,
                -0.735979486630495,
                -1.1792202196887505,
                -0.8204026348268928,
                0.9593871122851855
            ]
        },
        {
            "positions": [
                1.6310764160053428,
                -1.1858997707588814,
                -0.6176155828816376,
                -1.1422871416498248,
                -0.745348209008975,
                1.0111238528011641
            ]
        },
        {
            "positions": [
                1.5339376773273754,
                -1.1805870553645603,
                -0.49925167913278057,
                -1.1053540636108992,
                -0.6702937831910573,
                1.0628605933171427
            ]
        },
        {
            "positions": [
                1.436798938649408,
                -1.1752743399702392,
                -0.3808877753839235,
                -1.0684209855719735,
                -0.5952393573731396,
                1.1145973338331214
            ]
        },
        {
            "positions": [
                1.3396601999714404,
                -1.169961624575918,
                -0.26252387163506596,
                -1.031487907533048,
                -0.5201849315552216,
                1.1663340743491
            ]
        },
        {
            "positions": [
                1.242521461293473,
                -1.1646489091815968,
                -0.14415996788620888,
                -0.9945548294941223,
                -0.44513050573730406,
                1.2180708148650785
            ]
        },
        {
            "positions": [
                1.1453827226155056,
                -1.1593361937872757,
                -0.025796064137351804,
                -0.9576217514551968,
                -0.3700760799193863,
                1.2698075553810573
            ]
        },
        {
            "positions": [
                1.0482439839375384,
                -1.1540234783929546,
                0.09256783961150505,
                -0.9206886734162711,
                -0.2950216541014685,
                1.3215442958970358
            ]
        },
        {
            "positions": [
                0.9511052452595707,
                -1.1487107629986333,
                0.21093174336036258,
                -0.8837555953773455,
                -0.21996722828355075,
                1.3732810364130144
            ]
        },
        {
            "positions": [
                0.8539665065816033,
                -1.1433980476043122,
                0.32929564710921966,
                -0.84682251733842,
                -0.14491280246563298,
                1.4250177769289931
            ]
        },
        {
            "positions": [
                0.7568277679036359,
                -1.138085332209991,
                0.44765955085807674,
                -0.8098894392994943,
                -0.06985837664771521,
                1.4767545174449719
            ]
        },
        {
            "positions": [
                0.6596890292256683,
                -1.13277261681567,
                0.5660234546069338,
                -0.7729563612605688,
                0.005196049170202555,
                1.5284912579609502
            ]
        },
        {
            "positions": [
                0.5625502905477009,
                -1.1274599014213487,
                0.6843873583557913,
                -0.736023283221643,
                0.08025047498812032,
                1.580227998476929
            ]
        },
        {
            "positions": [
                0.4654115518697335,
                -1.1221471860270276,
                0.8027512621046483,
                -0.6990902051827175,
                0.15530490080603815,
                1.6319647389929077
            ]
        },
        {
            "positions": [
                0.4036838280706809,
                -1.1221765265515458,
                0.9311724206583682,
                -0.6994754835189023,
                0.18311696173947795,
                1.7688415214798492
            ]
        },
        {
            "positions": [
                0.34195610427162826,
                -1.122205867076064,
                1.059593579212088,
                -0.6998607618550872,
                0.21092902267291774,
                1.9057183039667906
            ]
        },
        {
            "positions": [
                0.2890648810891507,
                -1.122397621215773,
                1.177519748515837,
                -0.7005344254845497,
                0.2315080625596846,
                2.0342208723035835
            ]
        },
        {
            "positions": [
                0.2361736579066731,
                -1.1225893753554819,
                1.2954459178195858,
                -0.7012080891140122,
                0.2520871024464515,
                2.162723440640376
            ]
        },
        {
            "positions": [
                0.18328243472419553,
                -1.1227811294951908,
                1.4133720871233346,
                -0.7018817527434749,
                0.27266614233321834,
                2.2912260089771683
            ]
        },
        {
            "positions": [
                0.13039121154171796,
                -1.1229728836348998,
                1.5312982564270836,
                -0.7025554163729374,
                0.2932451822199852,
                2.419728577313961
            ]
        },
        {
            "positions": [
                0.12005183755150858,
                -1.1245007418406983,
                1.6395476197074255,
                -0.702548244457203,
                0.26129706456196616,
                2.5675064695148815
            ]
        },
        {
            "positions": [
                0.10971246356129923,
                -1.1260286000464965,
                1.747796982987767,
                -0.7025410725414687,
                0.2293489469039472,
                2.7152843617158022
            ]
        },
        {
            "positions": [
                0.09937308957108985,
                -1.127556458252295,
                1.856046346268109,
                -0.7025339006257343,
                0.19740082924592817,
                2.8630622539167225
            ]
        },
        {
            "positions": [
                0.1225282608758624,
                -1.1299882010638922,
                1.9542633670203526,
                -0.701270607955771,
                0.12467999600333264,
                3.022364925933873
            ]
        }
    ]
}