{
    "goal": {
        "global_pose": {
            "orientation": {
                "w": 0.7047431468963623,
                "x": -0.7094548344612122,
                "y": 0.0024358443915843964,
                "z": -0.0022348060738295317
            },
            "position": {
                "x": 0.6094750761985779,
                "y": 0.3671506643295288,
                "z": 0.19426114857196808
            }
        },
        "name": "move_to_magneteinheit_A"
    },
    "id": "TRRT_move_to_magneteinheit_A_142",
    "joint_names": [
        "shoulder_pan_joint",
        "shoulder_lift_joint",
        "elbow_joint",
        "wrist_1_joint",
        "wrist_2_joint",
        "wrist_3_joint"
    ],
    "metrics": {
        "cart_traj_len": 3.81833375403543,
        "distance_elbow_joint": 3.9025915730638108,
        "distance_shoulder_lift_joint": 0.570956633945884,
        "distance_shoulder_pan_joint": 3.1422435994177453,
        "distance_wrist_1_joint": 0.9837443130943165,
        "distance_wrist_2_joint": 2.4249472126374387,
        "distance_wrist_3_joint": 3.5883217393685034,
        "smoothness": 0.541733763488295,
        "time": 0.100682874,
        "traj_len": 3.822669887856876,
        "weighted_distance": 5.019774902921092
    },
    "planner": "TRRT",
    "start": {
        "state": {
            "elbow_joint": -1.9196185241190666,
            "shoulder_lift_joint": -1.2443396400964142,
            "shoulder_pan_joint": 2.6996025414629847,
            "wrist_1_joint": -1.5485510000780065,
            "wrist_2_joint": -1.5709468930060704,
            "wrist_3_joint": 0.4420197071253992
        }
    },
    "waypoints": [
        {
            "positions": [
                2.6996025414629847,
                -1.2443396400964142,
                -1.9196185241190666,
                -1.5485510000780065,
                -1.5709468930060704,
                0.4420197071253992
            ]
        },
        {
            "positions": [
                2.6062180402432658,
                -1.238407451389159,
                -1.804218795101244,
                -1.5321600355415006,
                -1.5098041705081253,
                0.3477766881568679
            ]
        },
        {
            "positions": [
                2.512833539023547,
                -1.2324752626819038,
                -1.6888190660834217,
                -1.5157690710049945,
                -1.44866144801018,
                0.25353366918833664
            ]
        },
        {
            "positions": [
                2.419449037803828,
                -1.2265430739746486,
                -1.573419337065599,
                -1.4993781064684886,
                -1.387518725512235,
                0.15929065021980537
            ]
        },
        {
            "positions": [
                2.3260645365841084,
                -1.2206108852673934,
                -1.4580196080477767,
                -1.4829871419319827,
                -1.32637600301429,
                0.06504763125127411
            ]
        },
        {
            "positions": [
                2.2326800353643894,
                -1.2146786965601382,
                -1.3426198790299542,
                -1.4665961773954765,
                -1.2652332805163446,
                -0.02919538771725716
            ]
        },
        {
            "positions": [
                2.1392955341446704,
                -1.208746507852883,
                -1.2272201500121316,
                -1.4502052128589706,
                -1.2040905580183996,
                -0.12343840668578843
            ]
        },
        {
            "positions": [
                2.0459110329249515,
                -1.2028143191456278,
                -1.1118204209943092,
                -1.4338142483224647,
                -1.1429478355204545,
                -0.2176814256543197
            ]
        },
        {
            "positions": [
                1.9525265317052325,
                -1.1968821304383725,
                -0.9964206919764867,
                -1.4174232837859586,
                -1.0818051130225093,
                -0.31192444462285096
            ]
        },
        {
            "positions": [
                1.859142030485513,
                -1.1909499417311173,
                -0.8810209629586643,
                -1.4010323192494527,
                -1.0206623905245642,
                -0.40616746359138234
            ]
        },
        {
            "positions": [
                1.765757529265794,
                -1.1850177530238621,
                -0.7656212339408417,
                -1.3846413547129468,
                -0.959519668026619,
                -0.5004104825599135
            ]
        },
        {
            "positions": [
                1.6723730280460751,
                -1.179085564316607,
                -0.6502215049230193,
                -1.3682503901764407,
                -0.898376945528674,
                -0.5946535015284448
            ]
        },
        {
            "positions": [
                1.5789885268263562,
                -1.1731533756093517,
                -0.5348217759051968,
                -1.3518594256399348,
                -0.8372342230307289,
                -0.688896520496976
            ]
        },
        {
            "positions": [
                1.485604025606637,
                -1.1672211869020965,
                -0.41942204688737417,
                -1.3354684611034289,
                -0.7760915005327836,
                -0.7831395394655073
            ]
        },
        {
            "positions": [
                1.392219524386918,
                -1.1612889981948413,
                -0.3040223178695518,
                -1.3190774965669227,
                -0.7149487780348386,
                -0.8773825584340386
            ]
        },
        {
            "positions": [
                1.298835023167199,
                -1.1553568094875861,
                -0.18862258885172944,
                -1.3026865320304168,
                -0.6538060555368935,
                -0.9716255774025698
            ]
        },
        {
            "positions": [
                1.20545052194748,
                -1.149424620780331,
                -0.07322285983390686,
                -1.286295567493911,
                -0.5926633330389484,
                -1.065868596371101
            ]
        },
        {
            "positions": [
                1.1120660207277608,
                -1.1434924320730757,
                0.0421768691839155,
                -1.269904602957405,
                -0.5315206105410033,
                -1.1601116153396323
            ]
        },
        {
            "positions": [
                1.0186815195080416,
                -1.1375602433658205,
                0.15757659820173808,
                -1.253513638420899,
                -0.470377888043058,
                -1.254354634308164
            ]
        },
        {
            "positions": [
                0.9252970182883227,
                -1.1316280546585653,
                0.27297632721956067,
                -1.237122673884393,
                -0.40923516554511297,
                -1.3485976532766948
            ]
        },
        {
            "positions": [
                0.8319125170686037,
                -1.12569586595131,
                0.38837605623738325,
                -1.2207317093478869,
                -0.3480924430471677,
                -1.442840672245226
            ]
        },
        {
            "positions": [
                0.7385280158488845,
                -1.119763677244055,
                0.5037757852552054,
                -1.204340744811381,
                -0.28694972054922263,
                -1.5370836912137573
            ]
        },
        {
            "positions": [
                0.6451435146291655,
                -1.1138314885367997,
                0.619175514273028,
                -1.187949780274875,
                -0.22580699805127757,
                -1.6313267101822886
            ]
        },
        {
            "positions": [
                0.5517590134094466,
                -1.1078992998295445,
                0.7345752432908506,
                -1.1715588157383692,
                -0.16466427555333252,
                -1.7255697291508199
            ]
        },
        {
            "positions": [
                0.4583745121897276,
                -1.1019671111222893,
                0.8499749723086731,
                -1.1551678512018633,
                -0.10352155305538746,
                -1.8198127481193511
            ]
        },
        {
            "positions": [
                0.36499001097000816,
                -1.096034922415034,
                0.9653747013264957,
                -1.1387768866653571,
                -0.04237883055744218,
                -1.9140557670878824
            ]
        },
        {
            "positions": [
                0.2716055097502892,
                -1.0901027337077789,
                1.0807744303443183,
                -1.122385922128851,
                0.018763891940503097,
                -2.0082987860564137
            ]
        },
        {
            "positions": [
                0.1782210085305702,
                -1.0841705450005237,
                1.1961741593621404,
                -1.1059949575923451,
                0.07990661443844815,
                -2.102541805024945
            ]
        },
        {
            "positions": [
                0.08483650731085104,
                -1.0782383562932685,
                1.3115738883799628,
                -1.0896039930558392,
                0.1410493369363933,
                -2.196784823993476
            ]
        },
        {
            "positions": [
                0.035908437705450075,
                -1.1254067065048794,
                1.3809221637955653,
                -1.0111957183059928,
                0.06818602453911791,
                -2.232466806902121
            ]
        },
        {
            "positions": [
                -0.013019631899950895,
                -1.1725750567164903,
                1.4502704392111676,
                -0.9327874435561465,
                -0.004677287858157464,
                -2.268148789810766
            ]
        },
        {
            "positions": [
                -0.06194770150535184,
                -1.219743406928101,
                1.5196187146267701,
                -0.8543791688063002,
                -0.07754060025543286,
                -2.3038307727194116
            ]
        },
        {
            "positions": [
                -0.11087577111075284,
                -1.266911757139712,
                1.5889669900423726,
                -0.7759708940564538,
                -0.15040391265270822,
                -2.3395127556280566
            ]
        },
        {
            "positions": [
                -0.15980384071615378,
                -1.3140801073513229,
                1.658315265457975,
                -0.6975626193066075,
                -0.22326722504998361,
                -2.3751947385367016
            ]
        },
        {
            "positions": [
                -0.11266430450971936,
                -1.2859111741705422,
                1.712424896039103,
                -0.7196886080270937,
                -0.1651614882652171,
                -2.5037126208211022
            ]
        },
        {
            "positions": [
                -0.06552476830328494,
                -1.2577422409897616,
                1.7665345266202312,
                -0.74181459674758,
                -0.10705575148045056,
                -2.6322305031055024
            ]
        },
        {
            "positions": [
                -0.0183852320968505,
                -1.2295733078089808,
                1.8206441572013592,
                -0.7639405854680662,
                -0.048950014695684024,
                -2.7607483853899026
            ]
        },
        {
            "positions": [
                0.028754304109583906,
                -1.2014043746282002,
                1.8747537877824874,
                -0.7860665741885524,
                0.009155722089082496,
                -2.8892662676743033
            ]
        },
        {
            "positions": [
                0.07589384031601837,
                -1.1732354414474195,
                1.9288634183636155,
                -0.8081925629090387,
                0.06726145887384907,
                -3.017784149958704
            ]
        },
        {
            "positions": [
                0.12303337652245276,
                -1.145066508266639,
                1.9829730489447437,
                -0.830318551629525,
                0.1253671956586156,
                -3.146302032243104
            ]
        }
    ]
}