{
    "goal": {
        "global_pose": {
            "orientation": {
                "w": -0.4816463035849501,
                "x": 0.5182115481033762,
                "y": 0.4908360881923453,
                "z": -0.5084816262002911
            },
            "position": {
                "x": -0.8240239810943604,
                "y": 0.19912469901144506,
                "z": 0.16403168439865112
            }
        },
        "name": "move_to_storage_D"
    },
    "id": "TRRT_move_to_storage_D_143",
    "joint_names": [
        "shoulder_pan_joint",
        "shoulder_lift_joint",
        "elbow_joint",
        "wrist_1_joint",
        "wrist_2_joint",
        "wrist_3_joint"
    ],
    "metrics": {
        "cart_traj_len": 0.5298196533185885,
        "distance_elbow_joint": 0.7154048735567586,
        "distance_shoulder_lift_joint": 0.2164206722514379,
        "distance_shoulder_pan_joint": 0.15286988866991194,
        "distance_wrist_1_joint": 3.834537088217663,
        "distance_wrist_2_joint": 1.7744835622330704,
        "distance_wrist_3_joint": 3.1446062563718424,
        "smoothness": 0.1885157086494015,
        "time": 0.09556271599999999,
        "traj_len": 3.1366100078429713,
        "weighted_distance": 4.662247902513883
    },
    "planner": "TRRT",
    "start": {
        "state": {
            "elbow_joint": -2.384821988534728,
            "shoulder_lift_joint": -2.2788054721415256,
            "shoulder_pan_joint": -0.1854694642142757,
            "wrist_1_joint": 1.4845938289331202,
            "wrist_2_joint": 0.17898776772866878,
            "wrist_3_joint": 0.037105688729662994
        }
    },
    "waypoints": [
        {
            "positions": [
                -0.1854694642142757,
                -2.2788054721415256,
                -2.384821988534728,
                1.4845938289331202,
                0.17898776772866878,
                0.037105688729662994
            ]
        },
        {
            "positions": [
                -0.13309754195440865,
                -2.294822315422525,
                -2.4244324465843126,
                1.421563982466287,
                0.15716228140497313,
                0.043487651766770455
            ]
        },
        {
            "positions": [
                -0.08072561969454156,
                -2.310839158703524,
                -2.464042904633897,
                1.3585341359994534,
                0.1353367950812775,
                0.049869614803877915
            ]
        },
        {
            "positions": [
                -0.07872036785495082,
                -2.303156367633131,
                -2.437535239739831,
                1.204014244529287,
                0.06321877051520755,
                -0.08062381562518989
            ]
        },
        {
            "positions": [
                -0.07671511601536009,
                -2.2954735765627374,
                -2.4110275748457646,
                1.0494943530591203,
                -0.008899254050862393,
                -0.2111172460542577
            ]
        },
        {
            "positions": [
                -0.07470986417576934,
                -2.2877907854923443,
                -2.3845199099516985,
                0.8949744615889538,
                -0.08101727861693236,
                -0.3416106764833255
            ]
        },
        {
            "positions": [
                -0.0727046123361786,
                -2.280107994421951,
                -2.3580122450576324,
                0.7404545701187872,
                -0.15313530318300228,
                -0.4721041069123933
            ]
        },
        {
            "positions": [
                -0.07069936049658786,
                -2.2724252033515575,
                -2.331504580163566,
                0.5859346786486207,
                -0.2252533277490723,
                -0.6025975373414612
            ]
        },
        {
            "positions": [
                -0.06869410865699713,
                -2.2647424122811644,
                -2.3049969152695,
                0.43141478717845416,
                -0.2973713523151422,
                -0.7330909677705288
            ]
        },
        {
            "positions": [
                -0.06668885681740638,
                -2.257059621210771,
                -2.2784892503754337,
                0.2768948957082875,
                -0.3694893768812122,
                -0.8635843981995968
            ]
        },
        {
            "positions": [
                -0.06468360497781564,
                -2.2493768301403776,
                -2.251981585481367,
                0.12237500423812109,
                -0.44160740144728206,
                -0.9940778286286645
            ]
        },
        {
            "positions": [
                -0.0626783531382249,
                -2.2416940390699844,
                -2.225473920587301,
                -0.03214488723204556,
                -0.513725426013352,
                -1.1245712590577324
            ]
        },
        {
            "positions": [
                -0.060673101298634166,
                -2.2340112479995913,
                -2.198966255693235,
                -0.186664778702212,
                -0.5858434505794221,
                -1.2550646894868
            ]
        },
        {
            "positions": [
                -0.05866784945904342,
                -2.2263284569291977,
                -2.172458590799169,
                -0.3411846701723784,
                -0.657961475145492,
                -1.3855581199158677
            ]
        },
        {
            "positions": [
                -0.056662597619452686,
                -2.2186456658588045,
                -2.1459509259051024,
                -0.49570456164254506,
                -0.7300794997115619,
                -1.5160515503449357
            ]
        },
        {
            "positions": [
                -0.05465734577986195,
                -2.2109628747884114,
                -2.1194432610110363,
                -0.6502244531127113,
                -0.8021975242776318,
                -1.6465449807740034
            ]
        },
        {
            "positions": [
                -0.052652093940271205,
                -2.2032800837180178,
                -2.09293559611697,
                -0.8047443445828784,
                -0.8743155488437019,
                -1.7770384112030715
            ]
        },
        {
            "positions": [
                -0.05064684210068047,
                -2.1955972926476246,
                -2.0664279312229037,
                -0.9592642360530446,
                -0.9464335734097719,
                -1.907531841632139
            ]
        },
        {
            "positions": [
                -0.04864159026108973,
                -2.1879145015772314,
                -2.0399202663288376,
                -1.1137841275232112,
                -1.0185515979758417,
                -2.038025272061207
            ]
        },
        {
            "positions": [
                -0.04663633842149899,
                -2.180231710506838,
                -2.0134126014347715,
                -1.2683040189933779,
                -1.090669622541912,
                -2.168518702490275
            ]
        },
        {
            "positions": [
                -0.044631086581908244,
                -2.1725489194364447,
                -1.9869049365407052,
                -1.4228239104635445,
                -1.1627876471079817,
                -2.299012132919343
            ]
        },
        {
            "positions": [
                -0.04262583474231751,
                -2.1648661283660515,
                -1.960397271646639,
                -1.5773438019337107,
                -1.2349056716740514,
                -2.4295055633484104
            ]
        },
        {
            "positions": [
                -0.040620582902726764,
                -2.157183337295658,
                -1.9338896067525728,
                -1.7318636934038774,
                -1.3070236962401216,
                -2.5599989937774783
            ]
        },
        {
            "positions": [
                -0.03861533106313603,
                -2.1495005462252648,
                -1.9073819418585065,
                -1.886383584874044,
                -1.3791417208061914,
                -2.690492424206546
            ]
        },
        {
            "positions": [
                -0.03661007922354529,
                -2.1418177551548716,
                -1.8808742769644402,
                -2.0409034763442104,
                -1.4512597453722615,
                -2.8209858546356137
            ]
        },
        {
            "positions": [
                -0.034604827383954546,
                -2.134134964084478,
                -1.8543666120703741,
                -2.195423367814377,
                -1.5233777699383313,
                -2.951479285064682
            ]
        },
        {
            "positions": [
                -0.03259957554436381,
                -2.126452173014085,
                -1.8278589471763078,
                -2.3499432592845433,
                -1.5954957945044015,
                -3.0819727154937495
            ]
        }
    ]
}