{
    "goal": {
        "global_pose": {
            "orientation": {
                "w": 0.005598929693374612,
                "x": 0.007748599140229565,
                "y": 0.7110244013736278,
                "z": -0.7031023480610252
            },
            "position": {
                "x": 0.1141497679147869,
                "y": -0.7141253447532654,
                "z": 0.3711530566215515
            }
        },
        "name": "move_to_auspresseinheit_B"
    },
    "id": "TRRT_move_to_auspresseinheit_B_146",
    "joint_names": [
        "shoulder_pan_joint",
        "shoulder_lift_joint",
        "elbow_joint",
        "wrist_1_joint",
        "wrist_2_joint",
        "wrist_3_joint"
    ],
    "metrics": {
        "cart_traj_len": 0.5642082690821548,
        "distance_elbow_joint": 0.05756078135535003,
        "distance_shoulder_lift_joint": 0.2964804740621305,
        "distance_shoulder_pan_joint": 0.5781519734193026,
        "distance_wrist_1_joint": 0.31461783579097014,
        "distance_wrist_2_joint": 0.9896437539980667,
        "distance_wrist_3_joint": 0.002628776888656592,
        "smoothness": 5.075305255429287e-16,
        "time": 0.026089705999999997,
        "traj_len": 1.4963567741399364,
        "weighted_distance": 1.8837735371006852
    },
    "planner": "TRRT",
    "start": {
        "state": {
            "elbow_joint": 2.0193083361928714,
            "shoulder_lift_joint": -1.1220246554650708,
            "shoulder_pan_joint": -1.0952077554168747,
            "wrist_1_joint": -0.8559753972642168,
            "wrist_2_joint": 0.4759566250798843,
            "wrist_3_joint": -3.1240929996934557
        }
    },
    "waypoints": [
        {
            "positions": [
                -1.0952077554168747,
                -1.1220246554650708,
                2.0193083361928714,
                -0.8559753972642168,
                0.4759566250798843,
                -3.1240929996934557
            ]
        },
        {
            "positions": [
                -1.191566417653425,
                -1.1714380678087593,
                2.0097148726336465,
                -0.8035390912990551,
                0.6408972507462287,
                -3.1245311291748985
            ]
        },
        {
            "positions": [
                -1.2879250798899755,
                -1.2208514801524477,
                2.0001214090744215,
                -0.7511027853338934,
                0.8058378764125731,
                -3.1249692586563413
            ]
        },
        {
            "positions": [
                -1.384283742126526,
                -1.2702648924961362,
                1.9905279455151965,
                -0.6986664793687317,
                0.9707785020789177,
                -3.125407388137784
            ]
        },
        {
            "positions": [
                -1.4806424043630764,
                -1.3196783048398244,
                1.9809344819559713,
                -0.64623017340357,
                1.135719127745262,
                -3.1258455176192266
            ]
        },
        {
            "positions": [
                -1.5770010665996268,
                -1.3690917171835129,
                1.9713410183967464,
                -0.5937938674384083,
                1.3006597534116067,
                -3.1262836471006694
            ]
        },
        {
            "positions": [
                -1.6733597288361772,
                -1.4185051295272013,
                1.9617475548375214,
                -0.5413575614732467,
                1.465600379077951,
                -3.1267217765821123
            ]
        }
    ]
}