{
    "goal": {
        "global_pose": {
            "orientation": {
                "w": 0.7047431468963623,
                "x": -0.7094548344612122,
                "y": 0.0024358443915843964,
                "z": -0.0022348060738295317
            },
            "position": {
                "x": 0.6094750761985779,
                "y": 0.3671506643295288,
                "z": 0.19426114857196808
            }
        },
        "name": "move_to_magneteinheit_A"
    },
    "id": "TRRT_move_to_magneteinheit_A_88",
    "joint_names": [
        "shoulder_pan_joint",
        "shoulder_lift_joint",
        "elbow_joint",
        "wrist_1_joint",
        "wrist_2_joint",
        "wrist_3_joint"
    ],
    "metrics": {
        "cart_traj_len": 3.7010451859521383,
        "distance_elbow_joint": 3.9109835468596366,
        "distance_shoulder_lift_joint": 0.5176858702632876,
        "distance_shoulder_pan_joint": 2.7720948401576186,
        "distance_wrist_1_joint": 0.8090779497682692,
        "distance_wrist_2_joint": 1.6991717629125638,
        "distance_wrist_3_joint": 3.5558660304175205,
        "smoothness": 0.1881122475188789,
        "time": 0.107947894,
        "traj_len": 3.642098296364185,
        "weighted_distance": 4.783812472693173
    },
    "planner": "TRRT",
    "start": {
        "state": {
            "elbow_joint": -1.9196185241190666,
            "shoulder_lift_joint": -1.2443396400964142,
            "shoulder_pan_joint": 2.6996025414629847,
            "wrist_1_joint": -1.5485510000780065,
            "wrist_2_joint": -1.5709468930060704,
            "wrist_3_joint": 0.4420197071253992
        }
    },
    "waypoints": [
        {
            "positions": [
                2.6996025414629847,
                -1.2443396400964142,
                -1.9196185241190666,
                -1.5485510000780065,
                -1.5709468930060704,
                0.4420197071253992
            ]
        },
        {
            "positions": [
                2.6074026669717294,
                -1.2329997839004525,
                -1.8124711557671578,
                -1.5231361514453459,
                -1.516847296273019,
                0.33623714285429673
            ]
        },
        {
            "positions": [
                2.5152027924804745,
                -1.2216599277044908,
                -1.705323787415249,
                -1.4977213028126855,
                -1.4627476995399677,
                0.23045457858319435
            ]
        },
        {
            "positions": [
                2.423002917989219,
                -1.2103200715085292,
                -1.5981764190633398,
                -1.4723064541800248,
                -1.4086481028069164,
                0.12467201431209196
            ]
        },
        {
            "positions": [
                2.330803043497964,
                -1.1989802153125675,
                -1.491029050711431,
                -1.4468916055473644,
                -1.354548506073865,
                0.01888945004098952
            ]
        },
        {
            "positions": [
                2.2386031690067085,
                -1.1876403591166058,
                -1.383881682359522,
                -1.4214767569147038,
                -1.3004489093408136,
                -0.08689311423011281
            ]
        },
        {
            "positions": [
                2.146403294515453,
                -1.1763005029206441,
                -1.276734314007613,
                -1.3960619082820434,
                -1.2463493126077623,
                -0.19267567850121525
            ]
        },
        {
            "positions": [
                2.0542034200241983,
                -1.1649606467246827,
                -1.1695869456557042,
                -1.3706470596493827,
                -1.192249715874711,
                -0.2984582427723177
            ]
        },
        {
            "positions": [
                1.962003545532943,
                -1.153620790528721,
                -1.0624395773037953,
                -1.345232211016722,
                -1.1381501191416596,
                -0.40424080704342014
            ]
        },
        {
            "positions": [
                1.8698036710416879,
                -1.1422809343327593,
                -0.9552922089518864,
                -1.3198173623840617,
                -1.0840505224086083,
                -0.5100233713145225
            ]
        },
        {
            "positions": [
                1.7776037965504328,
                -1.1309410781367977,
                -0.8481448405999774,
                -1.294402513751401,
                -1.029950925675557,
                -0.6158059355856248
            ]
        },
        {
            "positions": [
                1.6854039220591774,
                -1.119601221940836,
                -0.7409974722480686,
                -1.2689876651187406,
                -0.9758513289425056,
                -0.7215884998567274
            ]
        },
        {
            "positions": [
                1.593204047567922,
                -1.1082613657448743,
                -0.6338501038961597,
                -1.24357281648608,
                -0.9217517322094543,
                -0.8273710641278297
            ]
        },
        {
            "positions": [
                1.501004173076667,
                -1.0969215095489127,
                -0.5267027355442506,
                -1.2181579678534193,
                -0.8676521354764029,
                -0.933153628398932
            ]
        },
        {
            "positions": [
                1.408804298585412,
                -1.085581653352951,
                -0.41955536719234177,
                -1.192743119220759,
                -0.8135525387433515,
                -1.0389361926700347
            ]
        },
        {
            "positions": [
                1.3166044240941566,
                -1.0742417971569893,
                -0.3124079988404327,
                -1.1673282705880983,
                -0.7594529420103001,
                -1.144718756941137
            ]
        },
        {
            "positions": [
                1.2244045496029015,
                -1.0629019409610276,
                -0.20526063048852405,
                -1.1419134219554379,
                -0.7053533452772489,
                -1.2505013212122393
            ]
        },
        {
            "positions": [
                1.1322046751116461,
                -1.051562084765066,
                -0.09811326213661498,
                -1.1164985733227772,
                -0.6512537485441975,
                -1.3562838854833421
            ]
        },
        {
            "positions": [
                1.040004800620391,
                -1.0402222285691043,
                0.00903410621529388,
                -1.0910837246901166,
                -0.5971541518111462,
                -1.462066449754444
            ]
        },
        {
            "positions": [
                0.9478049261291357,
                -1.0288823723731426,
                0.11618147456720296,
                -1.0656688760574562,
                -0.5430545550780947,
                -1.5678490140255468
            ]
        },
        {
            "positions": [
                0.8556050516378806,
                -1.0175425161771812,
                0.22332884291911181,
                -1.0402540274247958,
                -0.48895495834504343,
                -1.6736315782966487
            ]
        },
        {
            "positions": [
                0.7634051771466253,
                -1.0062026599812195,
                0.33047621127102067,
                -1.0148391787921351,
                -0.4348553616119921,
                -1.7794141425677514
            ]
        },
        {
            "positions": [
                0.6712053026553702,
                -0.9948628037852578,
                0.4376235796229295,
                -0.9894243301594745,
                -0.3807557648789408,
                -1.8851967068388538
            ]
        },
        {
            "positions": [
                0.5790054281641148,
                -0.9835229475892961,
                0.5447709479748384,
                -0.964009481526814,
                -0.3266561681458895,
                -1.990979271109956
            ]
        },
        {
            "positions": [
                0.4868055536728595,
                -0.9721830913933345,
                0.6519183163267472,
                -0.9385946328941535,
                -0.2725565714128382,
                -2.0967618353810584
            ]
        },
        {
            "positions": [
                0.39460567918160416,
                -0.9608432351973728,
                0.7590656846786565,
                -0.9131797842614928,
                -0.21845697467978664,
                -2.202544399652161
            ]
        },
        {
            "positions": [
                0.3024058046903493,
                -0.9495033790014111,
                0.8662130530305654,
                -0.8877649356288324,
                -0.16435737794673533,
                -2.308326963923263
            ]
        },
        {
            "positions": [
                0.21020593019909375,
                -0.9381635228054495,
                0.9733604213824744,
                -0.8623500869961718,
                -0.1102577812136839,
                -2.414109528194366
            ]
        },
        {
            "positions": [
                0.17313678671121743,
                -0.952231193862453,
                1.1137847314069544,
                -0.8749252208647849,
                -0.07951376100914424,
                -2.5030483555559955
            ]
        },
        {
            "positions": [
                0.13606764322334108,
                -0.9662988649194565,
                1.2542090414314344,
                -0.887500354733398,
                -0.04876974080460458,
                -2.591987182917625
            ]
        },
        {
            "positions": [
                0.09899849973546478,
                -0.9803665359764601,
                1.3946333514559144,
                -0.9000754886020109,
                -0.018025720600064937,
                -2.680926010279255
            ]
        },
        {
            "positions": [
                0.06192935624758844,
                -0.9944342070334635,
                1.5350576614803946,
                -0.912650622470624,
                0.012718299604474737,
                -2.7698648376408848
            ]
        },
        {
            "positions": [
                0.02486021275971212,
                -1.008501878090467,
                1.6754819715048745,
                -0.9252257563392371,
                0.04346231980901438,
                -2.8588036650025144
            ]
        },
        {
            "positions": [
                0.0573110499111606,
                -1.0555590106529023,
                1.7807763219167732,
                -0.905225300558114,
                0.07171650317484067,
                -2.9438178844323835
            ]
        },
        {
            "positions": [
                0.08976188706260908,
                -1.1026161432153372,
                1.8860706723286718,
                -0.885224844776991,
                0.09997068654066696,
                -3.028832103862252
            ]
        },
        {
            "positions": [
                0.12221272421405757,
                -1.1496732757777723,
                1.9913650227405704,
                -0.865224388995868,
                0.12822486990649326,
                -3.113846323292121
            ]
        }
    ]
}