{
    "goal": {
        "global_pose": {
            "orientation": {
                "w": -0.4816463035849501,
                "x": 0.5182115481033762,
                "y": 0.4908360881923453,
                "z": -0.5084816262002911
            },
            "position": {
                "x": -0.8240239810943604,
                "y": 0.19912469901144506,
                "z": 0.16403168439865112
            }
        },
        "name": "move_to_storage_D"
    },
    "id": "TRRT_move_to_storage_D_65",
    "joint_names": [
        "shoulder_pan_joint",
        "shoulder_lift_joint",
        "elbow_joint",
        "wrist_1_joint",
        "wrist_2_joint",
        "wrist_3_joint"
    ],
    "metrics": {
        "cart_traj_len": 0.8802126955545576,
        "distance_elbow_joint": 0.5728789087070576,
        "distance_shoulder_lift_joint": 0.8628184540559509,
        "distance_shoulder_pan_joint": 0.17580557815434028,
        "distance_wrist_1_joint": 3.877586939380183,
        "distance_wrist_2_joint": 1.7752412420782306,
        "distance_wrist_3_joint": 3.1516937352105487,
        "smoothness": 0.09565633989913122,
        "time": 0.063210791,
        "traj_len": 3.227386691672739,
        "weighted_distance": 4.72993028589913
    },
    "planner": "TRRT",
    "start": {
        "state": {
            "elbow_joint": -2.384821988534728,
            "shoulder_lift_joint": -2.2788054721415256,
            "shoulder_pan_joint": -0.1854694642142757,
            "wrist_1_joint": 1.4845938289331202,
            "wrist_2_joint": 0.17898776772866878,
            "wrist_3_joint": 0.037105688729662994
        }
    },
    "waypoints": [
        {
            "positions": [
                -0.1854694642142757,
                -2.2788054721415256,
                -2.384821988534728,
                1.4845938289331202,
                0.17898776772866878,
                0.037105688729662994
            ]
        },
        {
            "positions": [
                -0.148488836852991,
                -2.2002090322273222,
                -2.3944536065756976,
                1.5102359968576442,
                0.1724353892311546,
                0.08248674700960504
            ]
        },
        {
            "positions": [
                -0.10623110140042753,
                -2.057070355795989,
                -2.3510292865732154,
                1.5111831949251815,
                0.13804822131327146,
                0.13180864747608034
            ]
        },
        {
            "positions": [
                -0.06397336594786407,
                -1.9139316793646557,
                -2.3076049665707337,
                1.512130392992719,
                0.10366105339538835,
                0.18113054794255565
            ]
        },
        {
            "positions": [
                -0.021715630495300606,
                -1.7707930029333223,
                -2.2641806465682515,
                1.5130775910602563,
                0.06927388547750522,
                0.23045244840903095
            ]
        },
        {
            "positions": [
                -0.02221778651344082,
                -1.7855765856353119,
                -2.2461400494574746,
                1.352698292008046,
                -0.00012308784862256894,
                0.35371690572283015
            ]
        },
        {
            "positions": [
                -0.02271994253158104,
                -1.8003601683373014,
                -2.228099452346698,
                1.1923189929558358,
                -0.06952006117475036,
                0.47698136303662936
            ]
        },
        {
            "positions": [
                -0.023222098549721255,
                -1.8151437510392907,
                -2.2100588552359213,
                1.0319396939036254,
                -0.13891703450087817,
                0.6002458203504286
            ]
        },
        {
            "positions": [
                -0.023724254567861473,
                -1.8299273337412802,
                -2.1920182581251444,
                0.8715603948514152,
                -0.20831400782700593,
                0.7235102776642277
            ]
        },
        {
            "positions": [
                -0.02422641058600169,
                -1.8447109164432698,
                -2.173977661014368,
                0.7111810957992049,
                -0.2777109811531338,
                0.846774734978027
            ]
        },
        {
            "positions": [
                -0.024728566604141904,
                -1.859494499145259,
                -2.155937063903591,
                0.5508017967469946,
                -0.34710795447926157,
                0.9700391922918261
            ]
        },
        {
            "positions": [
                -0.025230722622282122,
                -1.8742780818472486,
                -2.137896466792814,
                0.3904224976947843,
                -0.4165049278053894,
                1.0933036496056254
            ]
        },
        {
            "positions": [
                -0.025732878640422337,
                -1.8890616645492382,
                -2.1198558696820378,
                0.23004319864257416,
                -0.4859019011315171,
                1.2165681069194245
            ]
        },
        {
            "positions": [
                -0.026235034658562556,
                -1.9038452472512277,
                -2.101815272571261,
                0.06966389959036379,
                -0.555298874457645,
                1.3398325642332236
            ]
        },
        {
            "positions": [
                -0.02673719067670277,
                -1.9186288299532173,
                -2.083774675460484,
                -0.09071539946184659,
                -0.6246958477837729,
                1.463097021547023
            ]
        },
        {
            "positions": [
                -0.027239346694842986,
                -1.9334124126552066,
                -2.065734078349707,
                -0.25109469851405675,
                -0.6940928211099006,
                1.586361478860822
            ]
        },
        {
            "positions": [
                -0.027741502712983205,
                -1.9481959953571961,
                -2.0476934812389307,
                -0.4114739975662671,
                -0.7634897944360284,
                1.7096259361746213
            ]
        },
        {
            "positions": [
                -0.02824365873112342,
                -1.9629795780591857,
                -2.029652884128154,
                -0.5718532966184773,
                -0.8328867677621561,
                1.8328903934884204
            ]
        },
        {
            "positions": [
                -0.02874581474926364,
                -1.977763160761175,
                -2.011612287017377,
                -0.7322325956706877,
                -0.902283741088284,
                1.9561548508022197
            ]
        },
        {
            "positions": [
                -0.029247970767403854,
                -1.9925467434631645,
                -1.9935716899066005,
                -0.892611894722898,
                -0.9716807144144117,
                2.079419308116019
            ]
        },
        {
            "positions": [
                -0.02975012678554407,
                -2.007330326165154,
                -1.9755310927958236,
                -1.052991193775108,
                -1.0410776877405394,
                2.202683765429818
            ]
        },
        {
            "positions": [
                -0.030252282803684288,
                -2.0221139088671434,
                -1.9574904956850467,
                -1.2133704928273188,
                -1.1104746610666674,
                2.3259482227436172
            ]
        },
        {
            "positions": [
                -0.030754438821824506,
                -2.036897491569133,
                -1.93944989857427,
                -1.3737497918795287,
                -1.1798716343927953,
                2.4492126800574163
            ]
        },
        {
            "positions": [
                -0.03125659483996472,
                -2.0516810742711225,
                -1.9214093014634934,
                -1.534129090931739,
                -1.249268607718923,
                2.572477137371216
            ]
        },
        {
            "positions": [
                -0.03175875085810494,
                -2.066464656973112,
                -1.9033687043527165,
                -1.6945083899839495,
                -1.318665581045051,
                2.695741594685015
            ]
        },
        {
            "positions": [
                -0.03226090687624515,
                -2.0812482396751015,
                -1.8853281072419399,
                -1.8548876890361599,
                -1.3880625543711786,
                2.819006051998814
            ]
        },
        {
            "positions": [
                -0.03276306289438537,
                -2.096031822377091,
                -1.8672875101311632,
                -2.01526698808837,
                -1.4574595276973064,
                2.942270509312613
            ]
        },
        {
            "positions": [
                -0.03326521891252559,
                -2.1108154050790806,
                -1.8492469130203864,
                -2.1756462871405806,
                -1.5268565010234343,
                3.0655349666264127
            ]
        },
        {
            "positions": [
                -0.033767374930665804,
                -2.12559898778107,
                -1.8312063159096097,
                -2.3360255861927905,
                -1.596253474349562,
                3.1887994239402118
            ]
        }
    ]
}