{
    "goal": {
        "global_pose": {
            "orientation": {
                "w": 0.7047431468963623,
                "x": -0.7094548344612122,
                "y": 0.0024358443915843964,
                "z": -0.0022348060738295317
            },
            "position": {
                "x": 0.6094750761985779,
                "y": 0.3671506643295288,
                "z": 0.19426114857196808
            }
        },
        "name": "move_to_magneteinheit_A"
    },
    "id": "TRRT_move_to_magneteinheit_A_2",
    "joint_names": [
        "shoulder_pan_joint",
        "shoulder_lift_joint",
        "elbow_joint",
        "wrist_1_joint",
        "wrist_2_joint",
        "wrist_3_joint"
    ],
    "metrics": {
        "cart_traj_len": 3.0093674606324807,
        "distance_elbow_joint": 3.945661280738749,
        "distance_shoulder_lift_joint": 0.5944564355675401,
        "distance_shoulder_pan_joint": 2.8527013466029314,
        "distance_wrist_1_joint": 3.7385641549529307,
        "distance_wrist_2_joint": 2.164782282237046,
        "distance_wrist_3_joint": 1.3193899790834536,
        "smoothness": 0.6295721504559197,
        "time": 0.16028778300000002,
        "traj_len": 3.823029620495066,
        "weighted_distance": 4.812242915163315
    },
    "planner": "TRRT",
    "start": {
        "state": {
            "elbow_joint": -1.9196185241190666,
            "shoulder_lift_joint": -1.2443396400964142,
            "shoulder_pan_joint": 2.6996025414629847,
            "wrist_1_joint": -1.5485510000780065,
            "wrist_2_joint": -1.5709468930060704,
            "wrist_3_joint": 0.4420197071253992
        }
    },
    "waypoints": [
        {
            "positions": [
                2.6996025414629847,
                -1.2443396400964142,
                -1.9196185241190666,
                -1.5485510000780065,
                -1.5709468930060704,
                0.4420197071253992
            ]
        },
        {
            "positions": [
                2.605566508772224,
                -1.2473042928690008,
                -1.8157986484088935,
                -1.4383318081991223,
                -1.5185029097203804,
                0.42110207533342303
            ]
        },
        {
            "positions": [
                2.5115304760814627,
                -1.2502689456415872,
                -1.7119787726987206,
                -1.3281126163202384,
                -1.4660589264346902,
                0.40018444354144694
            ]
        },
        {
            "positions": [
                2.417494443390702,
                -1.2532335984141738,
                -1.6081588969885474,
                -1.2178934244413542,
                -1.4136149431490002,
                0.3792668117494708
            ]
        },
        {
            "positions": [
                2.323458410699941,
                -1.2561982511867604,
                -1.5043390212783745,
                -1.10767423256247,
                -1.3611709598633102,
                0.3583491799574947
            ]
        },
        {
            "positions": [
                2.22942237800918,
                -1.2591629039593468,
                -1.4005191455682013,
                -0.9974550406835859,
                -1.3087269765776202,
                0.33743154816551857
            ]
        },
        {
            "positions": [
                2.135386345318419,
                -1.2621275567319334,
                -1.2966992698580282,
                -0.8872358488047019,
                -1.2562829932919302,
                0.3165139163735424
            ]
        },
        {
            "positions": [
                2.0413503126276584,
                -1.26509220950452,
                -1.1928793941478553,
                -0.7770166569258177,
                -1.20383901000624,
                0.2955962845815663
            ]
        },
        {
            "positions": [
                1.9473142799368977,
                -1.2680568622771065,
                -1.0890595184376823,
                -0.6667974650469337,
                -1.15139502672055,
                0.2746786527895902
            ]
        },
        {
            "positions": [
                1.8532782472461367,
                -1.271021515049693,
                -0.9852396427275092,
                -0.5565782731680495,
                -1.09895104343486,
                0.25376102099761405
            ]
        },
        {
            "positions": [
                1.7592422145553757,
                -1.2739861678222797,
                -0.881419767017336,
                -0.44635908128916535,
                -1.0465070601491697,
                0.2328433892056379
            ]
        },
        {
            "positions": [
                1.6652061818646149,
                -1.276950820594866,
                -0.7775998913071631,
                -0.3361398894102814,
                -0.9940630768634798,
                0.21192575741366182
            ]
        },
        {
            "positions": [
                1.571170149173854,
                -1.2799154733674527,
                -0.67378001559699,
                -0.2259206975313972,
                -0.9416190935777897,
                0.19100812562168568
            ]
        },
        {
            "positions": [
                1.4771341164830931,
                -1.2828801261400393,
                -0.569960139886817,
                -0.11570150565251325,
                -0.8891751102920997,
                0.1700904938297096
            ]
        },
        {
            "positions": [
                1.383098083792332,
                -1.2858447789126257,
                -0.46614026417664367,
                -0.005482313773628844,
                -0.8367311270064096,
                0.1491728620377334
            ]
        },
        {
            "positions": [
                1.2890620511015711,
                -1.2888094316852123,
                -0.36232038846647074,
                0.10473687810525512,
                -0.7842871437207195,
                0.1282552302457573
            ]
        },
        {
            "positions": [
                1.1950260184108104,
                -1.291774084457799,
                -0.2585005127562978,
                0.21495606998413908,
                -0.7318431604350295,
                0.10733759845378121
            ]
        },
        {
            "positions": [
                1.1009899857200494,
                -1.2947387372303854,
                -0.15468063704612467,
                0.3251752618630235,
                -0.6793991771493394,
                0.08641996666180501
            ]
        },
        {
            "positions": [
                1.0069539530292886,
                -1.297703390002972,
                -0.05086076133595174,
                0.43539445374190744,
                -0.6269551938636494,
                0.06550233486982893
            ]
        },
        {
            "positions": [
                0.9129179203385276,
                -1.3006680427755586,
                0.052959114374221405,
                0.5456136456207916,
                -0.5745112105779594,
                0.04458470307785284
            ]
        },
        {
            "positions": [
                0.8188818876477666,
                -1.303632695548145,
                0.15677899008439455,
                0.6558328374996758,
                -0.5220672272922693,
                0.02366707128587664
            ]
        },
        {
            "positions": [
                0.7248458549570058,
                -1.3065973483207316,
                0.2605988657945675,
                0.7660520293785595,
                -0.4696232440065793,
                0.0027494394939005518
            ]
        },
        {
            "positions": [
                0.630809822266245,
                -1.3095620010933182,
                0.3644187415047404,
                0.8762712212574437,
                -0.4171792607208893,
                -0.018168192298075536
            ]
        },
        {
            "positions": [
                0.5367737895754838,
                -1.3125266538659046,
                0.4682386172149138,
                0.9864904131363279,
                -0.36473527743519907,
                -0.039085824090051735
            ]
        },
        {
            "positions": [
                0.44273775688472317,
                -1.3154913066384912,
                0.5720584929250867,
                1.0967096050152123,
                -0.3122912941495091,
                -0.060003455882027795
            ]
        },
        {
            "positions": [
                0.3836266563372755,
                -1.2971731884978173,
                0.6760389383728337,
                1.199826057417838,
                -0.2716953508162444,
                -0.09138439600373224
            ]
        },
        {
            "positions": [
                0.3245155557898278,
                -1.2788550703571433,
                0.7800193838205807,
                1.302942509820464,
                -0.2310994074829797,
                -0.1227653361254367
            ]
        },
        {
            "positions": [
                0.26540445524238016,
                -1.2605369522164693,
                0.8839998292683275,
                1.4060589622230895,
                -0.19050346414971497,
                -0.15414627624714117
            ]
        },
        {
            "positions": [
                0.20629335469493248,
                -1.2422188340757954,
                0.9879802747160745,
                1.5091754146257153,
                -0.14990752081645023,
                -0.18552721636884562
            ]
        },
        {
            "positions": [
                0.14718225414748481,
                -1.2239007159351214,
                1.0919607201638215,
                1.612291867028341,
                -0.10931157748318548,
                -0.2169081564905501
            ]
        },
        {
            "positions": [
                0.08807115360003714,
                -1.2055825977944474,
                1.1959411656115684,
                1.7154083194309668,
                -0.0687156341499208,
                -0.24828909661225454
            ]
        },
        {
            "positions": [
                0.028960053052589474,
                -1.1872644796537735,
                1.2999216110593155,
                1.8185247718335926,
                -0.028119690816656072,
                -0.279670036733959
            ]
        },
        {
            "positions": [
                0.020113404798040933,
                -1.1267608617430886,
                1.4436761205279676,
                1.8025769031480616,
                -0.10063359688006382,
                -0.20485827930301542
            ]
        },
        {
            "positions": [
                0.011266756543492396,
                -1.0662572438324038,
                1.5874306299966194,
                1.7866290344625306,
                -0.1731475029434716,
                -0.1300465218720718
            ]
        },
        {
            "positions": [
                0.0024201082889438556,
                -1.0057536259217188,
                1.7311851394652715,
                1.7706811657769996,
                -0.24566140900687933,
                -0.05523476444112821
            ]
        },
        {
            "positions": [
                -0.0064265399656046815,
                -0.945250008011034,
                1.8749396489339234,
                1.7547332970914686,
                -0.31817531507028707,
                0.01957699298981541
            ]
        },
        {
            "positions": [
                -0.015273188220153222,
                -0.8847463901003492,
                2.0186941584025755,
                1.7387854284059376,
                -0.3906892211336948,
                0.094388750420759
            ]
        },
        {
            "positions": [
                0.030668684086444582,
                -0.8538931059379088,
                2.021143691141611,
                1.8360351082771633,
                -0.3042273712234972,
                0.01984160106429987
            ]
        },
        {
            "positions": [
                0.07661055639304239,
                -0.8230398217754685,
                2.023593223880646,
                1.9332847881483892,
                -0.21776552131329963,
                -0.05470554829215926
            ]
        },
        {
            "positions": [
                0.1225524286996402,
                -0.7921865376130282,
                2.0260427566196815,
                2.030534468019615,
                -0.13130367140310198,
                -0.1292526976486184
            ]
        }
    ]
}