{
    "goal": {
        "global_pose": {
            "orientation": {
                "w": 0.7031023480610252,
                "x": -0.7110244013736278,
                "y": 0.0077485991402295624,
                "z": 0.005598929693374583
            },
            "position": {
                "x": -0.8841497679147869,
                "y": 0.44412534475326537,
                "z": 0.3711530566215515
            }
        },
        "name": "move_to_auspresseinheit_D"
    },
    "id": "TRRT_move_to_auspresseinheit_D_94",
    "joint_names": [
        "shoulder_pan_joint",
        "shoulder_lift_joint",
        "elbow_joint",
        "wrist_1_joint",
        "wrist_2_joint",
        "wrist_3_joint"
    ],
    "metrics": {
        "cart_traj_len": 0.3426539787110382,
        "distance_elbow_joint": 0.6310290158997633,
        "distance_shoulder_lift_joint": 0.11733116716441394,
        "distance_shoulder_pan_joint": 0.13344078590804356,
        "distance_wrist_1_joint": 0.5027456430303938,
        "distance_wrist_2_joint": 1.4370036555690076,
        "distance_wrist_3_joint": 0.0217245136758617,
        "smoothness": 1.184237882547641e-15,
        "time": 0.043672869,
        "traj_len": 1.6862012872867473,
        "weighted_distance": 2.196923555155848
    },
    "planner": "TRRT",
    "start": {
        "state": {
            "elbow_joint": -1.8275523626775212,
            "shoulder_lift_joint": -2.126789852344167,
            "shoulder_pan_joint": -0.03513704404078235,
            "wrist_1_joint": -2.347782403156801,
            "wrist_2_joint": -1.6058999987535132,
            "wrist_3_joint": -3.0880379163319196
        }
    },
    "waypoints": [
        {
            "positions": [
                -0.03513704404078235,
                -2.126789852344167,
                -1.8275523626775212,
                -2.347782403156801,
                -1.6058999987535132,
                -3.0880379163319196
            ]
        },
        {
            "positions": [
                -0.0518171422792878,
                -2.1414562482397184,
                -1.7486737356900508,
                -2.4106256085356,
                -1.4262745418073872,
                -3.0907534805414025
            ]
        },
        {
            "positions": [
                -0.06849724051779324,
                -2.1561226441352703,
                -1.6697951087025804,
                -2.4734688139143994,
                -1.2466490848612612,
                -3.093469044750885
            ]
        },
        {
            "positions": [
                -0.08517733875629868,
                -2.1707890400308223,
                -1.59091648171511,
                -2.5363120192931987,
                -1.0670236279151353,
                -3.0961846089603675
            ]
        },
        {
            "positions": [
                -0.10185743699480412,
                -2.185455435926374,
                -1.5120378547276396,
                -2.599155224671998,
                -0.8873981709690094,
                -3.0989001731698504
            ]
        },
        {
            "positions": [
                -0.11853753523330957,
                -2.2001218318219253,
                -1.4331592277401692,
                -2.661998430050797,
                -0.7077727140228834,
                -3.1016157373793334
            ]
        },
        {
            "positions": [
                -0.13521763347181504,
                -2.2147882277174773,
                -1.3542806007526986,
                -2.724841635429596,
                -0.5281472570767576,
                -3.104331301588816
            ]
        },
        {
            "positions": [
                -0.15189773171032048,
                -2.2294546236130293,
                -1.2754019737652282,
                -2.7876848408083954,
                -0.3485218001306316,
                -3.1070468657982984
            ]
        },
        {
            "positions": [
                -0.16857782994882592,
                -2.244121019508581,
                -1.1965233467777578,
                -2.8505280461871947,
                -0.1688963431845057,
                -3.1097624300077813
            ]
        }
    ]
}