{
    "goal": {
        "global_pose": {
            "orientation": {
                "w": -0.4816463035849501,
                "x": 0.5182115481033762,
                "y": 0.4908360881923453,
                "z": -0.5084816262002911
            },
            "position": {
                "x": -0.8240239810943604,
                "y": 0.19912469901144506,
                "z": 0.16403168439865112
            }
        },
        "name": "move_to_storage_D"
    },
    "id": "TRRT_move_to_storage_D_127",
    "joint_names": [
        "shoulder_pan_joint",
        "shoulder_lift_joint",
        "elbow_joint",
        "wrist_1_joint",
        "wrist_2_joint",
        "wrist_3_joint"
    ],
    "metrics": {
        "cart_traj_len": 0.5352594647874067,
        "distance_elbow_joint": 0.556207636899783,
        "distance_shoulder_lift_joint": 0.15147761274992755,
        "distance_shoulder_pan_joint": 0.151413534475136,
        "distance_wrist_1_joint": 3.82262127252114,
        "distance_wrist_2_joint": 1.7761091906865991,
        "distance_wrist_3_joint": 3.1314564581228503,
        "smoothness": 1.0589819553580065e-15,
        "time": 0.081924832,
        "traj_len": 3.096657182423563,
        "weighted_distance": 4.631514772178631
    },
    "planner": "TRRT",
    "start": {
        "state": {
            "elbow_joint": -2.384821988534728,
            "shoulder_lift_joint": -2.2788054721415256,
            "shoulder_pan_joint": -0.1854694642142757,
            "wrist_1_joint": 1.4845938289331202,
            "wrist_2_joint": 0.17898776772866878,
            "wrist_3_joint": 0.037105688729662994
        }
    },
    "waypoints": [
        {
            "positions": [
                -0.1854694642142757,
                -2.2788054721415256,
                -2.384821988534728,
                1.4845938289331202,
                0.17898776772866878,
                0.037105688729662994
            ]
        },
        {
            "positions": [
                -0.1395213984262691,
                -2.251085848869894,
                -2.3633833797382593,
                1.3715252498804393,
                0.0718555692359774,
                -0.00467592272449921
            ]
        },
        {
            "positions": [
                -0.09357333263826245,
                -2.2233662255982622,
                -2.34194477094179,
                1.2584566708277585,
                -0.03527662925671398,
                -0.04645753417866142
            ]
        },
        {
            "positions": [
                -0.09098561946873537,
                -2.219190644458842,
                -2.319626057058884,
                1.102087796287942,
                -0.10318292463502773,
                -0.17897463136190167
            ]
        },
        {
            "positions": [
                -0.08839790629920831,
                -2.215015063319422,
                -2.2973073431759774,
                0.9457189217481256,
                -0.17108922001334148,
                -0.31149172854514195
            ]
        },
        {
            "positions": [
                -0.08581019312968123,
                -2.2108394821800017,
                -2.2749886292930714,
                0.789350047208309,
                -0.23899551539165523,
                -0.4440088257283822
            ]
        },
        {
            "positions": [
                -0.08322247996015415,
                -2.2066639010405815,
                -2.252669915410165,
                0.6329811726684926,
                -0.306901810769969,
                -0.5765259229116224
            ]
        },
        {
            "positions": [
                -0.08063476679062709,
                -2.2024883199011613,
                -2.2303512015272586,
                0.4766122981286761,
                -0.37480810614828275,
                -0.7090430200948626
            ]
        },
        {
            "positions": [
                -0.07804705362110001,
                -2.198312738761741,
                -2.2080324876443522,
                0.3202434235888597,
                -0.44271440152659647,
                -0.8415601172781029
            ]
        },
        {
            "positions": [
                -0.07545934045157293,
                -2.194137157622321,
                -2.185713773761446,
                0.1638745490490432,
                -0.5106206969049103,
                -0.9740772144613432
            ]
        },
        {
            "positions": [
                -0.07287162728204585,
                -2.189961576482901,
                -2.16339505987854,
                0.00750567450922679,
                -0.5785269922832239,
                -1.1065943116445836
            ]
        },
        {
            "positions": [
                -0.07028391411251879,
                -2.1857859953434806,
                -2.1410763459956335,
                -0.14886320003058984,
                -0.6464332876615377,
                -1.239111408827824
            ]
        },
        {
            "positions": [
                -0.06769620094299171,
                -2.1816104142040604,
                -2.118757632112727,
                -0.30523207457040624,
                -0.7143395830398515,
                -1.371628506011064
            ]
        },
        {
            "positions": [
                -0.06510848777346463,
                -2.1774348330646403,
                -2.0964389182298206,
                -0.46160094911022287,
                -0.7822458784181653,
                -1.5041456031943043
            ]
        },
        {
            "positions": [
                -0.06252077460393757,
                -2.17325925192522,
                -2.0741202043469142,
                -0.617969823650039,
                -0.8501521737964789,
                -1.6366627003775445
            ]
        },
        {
            "positions": [
                -0.05993306143441049,
                -2.1690836707858,
                -2.0518014904640083,
                -0.7743386981898555,
                -0.9180584691747926,
                -1.7691797975607846
            ]
        },
        {
            "positions": [
                -0.05734534826488341,
                -2.1649080896463797,
                -2.029482776581102,
                -0.9307075727296721,
                -0.9859647645531066,
                -1.9016968947440251
            ]
        },
        {
            "positions": [
                -0.05475763509535634,
                -2.1607325085069595,
                -2.0071640626981955,
                -1.0870764472694887,
                -1.0538710599314203,
                -2.034213991927265
            ]
        },
        {
            "positions": [
                -0.05216992192582927,
                -2.1565569273675393,
                -1.984845348815289,
                -1.243445321809305,
                -1.1217773553097339,
                -2.1667310891105056
            ]
        },
        {
            "positions": [
                -0.0495822087563022,
                -2.152381346228119,
                -1.9625266349323829,
                -1.3998141963491215,
                -1.1896836506880477,
                -2.2992481862937457
            ]
        },
        {
            "positions": [
                -0.04699449558677512,
                -2.148205765088699,
                -1.9402079210494765,
                -1.5561830708889381,
                -1.2575899460663615,
                -2.4317652834769863
            ]
        },
        {
            "positions": [
                -0.04440678241724805,
                -2.144030183949279,
                -1.9178892071665703,
                -1.7125519454287543,
                -1.3254962414446751,
                -2.5642823806602264
            ]
        },
        {
            "positions": [
                -0.04181906924772097,
                -2.1398546028098586,
                -1.895570493283664,
                -1.868920819968571,
                -1.393402536822989,
                -2.6967994778434665
            ]
        },
        {
            "positions": [
                -0.0392313560781939,
                -2.1356790216704384,
                -1.8732517794007575,
                -2.025289694508387,
                -1.4613088322013026,
                -2.8293165750267066
            ]
        },
        {
            "positions": [
                -0.03664364290866682,
                -2.1315034405310183,
                -1.850933065517851,
                -2.181658569048204,
                -1.5292151275796166,
                -2.961833672209947
            ]
        },
        {
            "positions": [
                -0.03405592973913975,
                -2.127327859391598,
                -1.828614351634945,
                -2.3380274435880204,
                -1.5971214229579302,
                -3.0943507693931873
            ]
        }
    ]
}