{
    "goal": {
        "global_pose": {
            "orientation": {
                "w": 0.7031023502349854,
                "x": -0.7110244035720825,
                "y": 0.007748599164187908,
                "z": 0.005598929710686207
            },
            "position": {
                "x": 0.11585023208521307,
                "y": 0.44412534475326537,
                "z": 0.3711530566215515
            }
        },
        "name": "move_to_auspresseinheit_A"
    },
    "id": "TRRT_move_to_auspresseinheit_A_54",
    "joint_names": [
        "shoulder_pan_joint",
        "shoulder_lift_joint",
        "elbow_joint",
        "wrist_1_joint",
        "wrist_2_joint",
        "wrist_3_joint"
    ],
    "metrics": {
        "cart_traj_len": 0.6877244803840921,
        "distance_elbow_joint": 0.06840919977576432,
        "distance_shoulder_lift_joint": 0.5390517950105056,
        "distance_shoulder_pan_joint": 1.0459108845678773,
        "distance_wrist_1_joint": 0.5457298702264728,
        "distance_wrist_2_joint": 0.5897600216785419,
        "distance_wrist_3_joint": 0.1538867656193892,
        "smoothness": 0.3609420059212636,
        "time": 0.049979776000000004,
        "traj_len": 1.7154441223422436,
        "weighted_distance": 2.094280773922719
    },
    "planner": "TRRT",
    "start": {
        "state": {
            "elbow_joint": 2.4225746658250005,
            "shoulder_lift_joint": -1.3736534386056498,
            "shoulder_pan_joint": -0.3378633547517467,
            "wrist_1_joint": -1.0288598680537169,
            "wrist_2_joint": 1.233022673432363,
            "wrist_3_joint": -3.0940220416140027
        }
    },
    "waypoints": [
        {
            "positions": [
                -0.3378633547517467,
                -1.3736534386056498,
                2.4225746658250005,
                -1.0288598680537169,
                1.233022673432363,
                -3.0940220416140027
            ]
        },
        {
            "positions": [
                -0.21292221720197163,
                -1.4271334122510002,
                2.4263073941501467,
                -0.9581472484114281,
                1.1410449189882552,
                -3.1088013852654144
            ]
        },
        {
            "positions": [
                -0.08798107965219654,
                -1.4806133858963508,
                2.4300401224752926,
                -0.8874346287691394,
                1.0490671645441476,
                -3.123580728916826
            ]
        },
        {
            "positions": [
                0.03696005789757856,
                -1.5340933595417012,
                2.433772850800439,
                -0.8167220091268506,
                0.9570894101000398,
                -3.1383600725682377
            ]
        },
        {
            "positions": [
                0.16190119544735365,
                -1.5875733331870516,
                2.437505579125585,
                -0.7460093894845619,
                0.8651116556559321,
                -3.1531394162196493
            ]
        },
        {
            "positions": [
                0.28684233299712875,
                -1.6410533068324022,
                2.441238307450731,
                -0.6752967698422729,
                0.7731339012118242,
                -3.167918759871061
            ]
        },
        {
            "positions": [
                0.41178347054690384,
                -1.6945332804777526,
                2.444971035775877,
                -0.6045841501999842,
                0.6811561467677165,
                -3.1826981035224726
            ]
        },
        {
            "positions": [
                0.5599155001815171,
                -1.803619257046954,
                2.4219646208634336,
                -0.5438570740136142,
                0.7001028942746642,
                -3.150092751667013
            ]
        },
        {
            "positions": [
                0.7080475298161305,
                -1.9127052336161554,
                2.3989582059509895,
                -0.48312999782724414,
                0.7190496417816119,
                -3.1174873998115533
            ]
        }
    ]
}