{
    "goal": {
        "global_pose": {
            "orientation": {
                "w": 0.5084816217422485,
                "x": -0.49083608388900757,
                "y": 0.5182115435600281,
                "z": -0.4816462993621826
            },
            "position": {
                "x": 0.5540239810943604,
                "y": 0.030875300988554955,
                "z": 0.16403168439865112
            }
        },
        "name": "move_to_storage_A"
    },
    "id": "TRRT_move_to_storage_A_13",
    "joint_names": [
        "shoulder_pan_joint",
        "shoulder_lift_joint",
        "elbow_joint",
        "wrist_1_joint",
        "wrist_2_joint",
        "wrist_3_joint"
    ],
    "metrics": {
        "cart_traj_len": 0.353755063790691,
        "distance_elbow_joint": 0.4494625457209158,
        "distance_shoulder_lift_joint": 0.23480409917040324,
        "distance_shoulder_pan_joint": 0.46136685296621127,
        "distance_wrist_1_joint": 0.2406214230918836,
        "distance_wrist_2_joint": 1.1054430766857677,
        "distance_wrist_3_joint": 0.09798050718430629,
        "smoothness": 0.0,
        "time": 0.025439010999999997,
        "traj_len": 1.609247807150747,
        "weighted_distance": 2.032659346512778
    },
    "planner": "TRRT",
    "start": {
        "state": {
            "elbow_joint": 1.971548259319323,
            "shoulder_lift_joint": -1.1394851275133948,
            "shoulder_pan_joint": 0.1228115487234821,
            "wrist_1_joint": -0.7804723859257726,
            "wrist_2_joint": 0.12958671773740124,
            "wrist_3_joint": -3.192489227718131
        }
    },
    "waypoints": [
        {
            "positions": [
                0.1228115487234821,
                -1.1394851275133948,
                1.971548259319323,
                -0.7804723859257726,
                0.12958671773740124,
                -3.192489227718131
            ]
        },
        {
            "positions": [
                0.05690199829973763,
                -1.1730285702520238,
                2.035757194422311,
                -0.8148468749388988,
                0.2875071572639395,
                -3.1784920124060876
            ]
        },
        {
            "positions": [
                -0.009007552124006835,
                -1.206572012990653,
                2.099966129525299,
                -0.8492213639520251,
                0.4454275967904777,
                -3.1644947970940436
            ]
        },
        {
            "positions": [
                -0.0749171025477513,
                -1.240115455729282,
                2.164175064628287,
                -0.8835958529651513,
                0.603348036317016,
                -3.150497581782
            ]
        },
        {
            "positions": [
                -0.14082665297149577,
                -1.273658898467911,
                2.2283839997312747,
                -0.9179703419782775,
                0.7612684758435542,
                -3.136500366469956
            ]
        },
        {
            "positions": [
                -0.20673620339524024,
                -1.30720234120654,
                2.292592934834263,
                -0.9523448309914038,
                0.9191889153700925,
                -3.1225031511579124
            ]
        },
        {
            "positions": [
                -0.2726457538189847,
                -1.340745783945169,
                2.356801869937251,
                -0.98671932000453,
                1.0771093548966306,
                -3.1085059358458684
            ]
        },
        {
            "positions": [
                -0.33855530424272917,
                -1.374289226683798,
                2.421010805040239,
                -1.0210938090176562,
                1.235029794423169,
                -3.094508720533825
            ]
        }
    ]
}{
    "goal": {
        "global_pose": {
            "orientation": {
                "w": 0.5084816217422485,
                "x": -0.49083608388900757,
                "y": 0.5182115435600281,
                "z": -0.4816462993621826
            },
            "position": {
                "x": 0.5540239810943604,
                "y": 0.030875300988554955,
                "z": 0.16403168439865112
            }
        },
        "name": "move_to_storage_A"
    },
    "id": "TRRT_move_to_storage_A_13",
    "joint_names": [
        "shoulder_pan_joint",
        "shoulder_lift_joint",
        "elbow_joint",
        "wrist_1_joint",
        "wrist_2_joint",
        "wrist_3_joint"
    ],
    "metrics": {
        "cart_traj_len": 0.3529336451046341,
        "distance_elbow_joint": 0.44789219241205336,
        "distance_shoulder_lift_joint": 0.2334425095638697,
        "distance_shoulder_pan_joint": 0.4629822786568069,
        "distance_wrist_1_joint": 0.2388829413034932,
        "distance_wrist_2_joint": 1.0911449809484133,
        "distance_wrist_3_joint": 0.08905982368772403,
        "smoothness": 8.881784197001252e-16,
        "time": 0.023375906999999998,
        "traj_len": 1.6010636235241749,
        "weighted_distance": 2.0178087858366847
    },
    "planner": "TRRT",
    "start": {
        "state": {
            "elbow_joint": 1.97154746011099,
            "shoulder_lift_joint": -1.13948474672311,
            "shoulder_pan_joint": 0.12281154466712228,
            "wrist_1_joint": -0.7804688027058302,
            "wrist_2_joint": 0.12958655903071145,
            "wrist_3_joint": 3.0906928834467795
        }
    },
    "waypoints": [
        {
            "positions": [
                0.12281154466712228,
                -1.13948474672311,
                1.97154746011099,
                -0.7804688027058302,
                0.12958655903071145,
                3.0906928834467795
            ]
        },
        {
            "positions": [
                0.0566712191447213,
                -1.1728336766608056,
                2.0355320590269974,
                -0.8145949371777578,
                0.2854644134519133,
                3.1034157154021687
            ]
        },
        {
            "positions": [
                -0.009469106377679684,
                -1.2061826065985013,
                2.0995166579430053,
                -0.8487210716496854,
                0.44134226787311526,
                3.116138547357558
            ]
        },
        {
            "positions": [
                -0.07560943190008067,
                -1.239531536536197,
                2.163501256859013,
                -0.8828472061216129,
                0.5972201222943171,
                3.128861379312947
            ]
        },
        {
            "positions": [
                -0.14174975742248164,
                -1.2728804664738926,
                2.2274858557750203,
                -0.9169733405935405,
                0.753097976715519,
                3.141584211268336
            ]
        },
        {
            "positions": [
                -0.20789008294488265,
                -1.3062293964115883,
                2.2914704546910283,
                -0.9510994750654682,
                0.908975831136721,
                3.1543070432237252
            ]
        },
        {
            "positions": [
                -0.2740304084672836,
                -1.339578326349284,
                2.3554550536070358,
                -0.9852256095373958,
                1.0648536855579227,
                3.1670298751791144
            ]
        },
        {
            "positions": [
                -0.3401707339896846,
                -1.3729272562869796,
                2.4194396525230433,
                -1.0193517440093234,
                1.2207315399791248,
                3.1797527071345035
            ]
        }
    ]
}{
    "goal": {
        "global_pose": {
            "orientation": {
                "w": 0.5084816217422485,
                "x": -0.49083608388900757,
                "y": 0.5182115435600281,
                "z": -0.4816462993621826
            },
            "position": {
                "x": 0.5540239810943604,
                "y": 0.030875300988554955,
                "z": 0.16403168439865112
            }
        },
        "name": "move_to_storage_A"
    },
    "id": "TRRT_move_to_storage_A_13",
    "joint_names": [
        "shoulder_pan_joint",
        "shoulder_lift_joint",
        "elbow_joint",
        "wrist_1_joint",
        "wrist_2_joint",
        "wrist_3_joint"
    ],
    "metrics": {
        "cart_traj_len": 0.3528115179989444,
        "distance_elbow_joint": 0.44787288016717364,
        "distance_shoulder_lift_joint": 0.23563929969849484,
        "distance_shoulder_pan_joint": 0.4594582392155435,
        "distance_wrist_1_joint": 0.23340943129994773,
        "distance_wrist_2_joint": 1.1067662232981281,
        "distance_wrist_3_joint": 0.10471798858744474,
        "smoothness": 0.0,
        "time": 0.031940965,
        "traj_len": 1.6086839535057011,
        "weighted_distance": 2.034078586003918
    },
    "planner": "TRRT",
    "start": {
        "state": {
            "elbow_joint": 1.9715472970024885,
            "shoulder_lift_joint": -1.1394870060712896,
            "shoulder_pan_joint": 0.12281152778156021,
            "wrist_1_joint": -0.780463741449964,
            "wrist_2_joint": 0.12958659822042276,
            "wrist_3_joint": 3.090690232415272
        }
    },
    "waypoints": [
        {
            "positions": [
                0.12281152778156021,
                -1.1394870060712896,
                1.9715472970024885,
                -0.780463741449964,
                0.12958659822042276,
                3.090690232415272
            ]
        },
        {
            "positions": [
                0.057174636465053996,
                -1.1731497631710746,
                2.0355291370263706,
                -0.8138079459213851,
                0.2876960586915839,
                3.105649945070621
            ]
        },
        {
            "positions": [
                -0.008462254851452217,
                -1.2068125202708595,
                2.0995109770502522,
                -0.8471521503928062,
                0.445805519162745,
                3.1206096577259705
            ]
        },
        {
            "positions": [
                -0.07409914616795843,
                -1.2404752773706444,
                2.1634928170741343,
                -0.8804963548642273,
                0.6039149796339062,
                3.1355693703813197
            ]
        },
        {
            "positions": [
                -0.13973603748446464,
                -1.2741380344704294,
                2.2274746570980164,
                -0.9138405593356485,
                0.7620244401050673,
                3.150529083036669
            ]
        },
        {
            "positions": [
                -0.20537292880097088,
                -1.3078007915702146,
                2.2914564971218985,
                -0.9471847638070695,
                0.9201339005762286,
                3.165488795692018
            ]
        },
        {
            "positions": [
                -0.2710098201174771,
                -1.3414635486699995,
                2.35543833714578,
                -0.9805289682784906,
                1.0782433610473896,
                3.1804485083473675
            ]
        },
        {
            "positions": [
                -0.3366467114339833,
                -1.3751263057697845,
                2.419420177169662,
                -1.0138731727499117,
                1.2363528215185509,
                3.1954082210027166
            ]
        }
    ]
}