{
    "goal": {
        "global_pose": {
            "orientation": {
                "w": 0.5084816262002911,
                "x": -0.4908360881923452,
                "y": 0.5182115481033761,
                "z": -0.48164630358495003
            },
            "position": {
                "x": 0.5540239810943604,
                "y": -0.46912469901144505,
                "z": 0.16403168439865112
            }
        },
        "name": "move_to_storage_B"
    },
    "id": "TRRT_move_to_storage_B_59",
    "joint_names": [
        "shoulder_pan_joint",
        "shoulder_lift_joint",
        "elbow_joint",
        "wrist_1_joint",
        "wrist_2_joint",
        "wrist_3_joint"
    ],
    "metrics": {
        "cart_traj_len": 2.5576537394233942,
        "distance_elbow_joint": 2.712301591731876,
        "distance_shoulder_lift_joint": 1.3714733436390674,
        "distance_shoulder_pan_joint": 1.3922313065867093,
        "distance_wrist_1_joint": 2.981120968600709,
        "distance_wrist_2_joint": 2.719524323958693,
        "distance_wrist_3_joint": 4.150007265759191,
        "smoothness": 0.5638370551170692,
        "time": 0.072070383,
        "traj_len": 3.9149276877454895,
        "weighted_distance": 5.415470305001591
    },
    "planner": "TRRT",
    "start": {
        "state": {
            "elbow_joint": 1.664937868594044,
            "shoulder_lift_joint": -0.661644460510453,
            "shoulder_pan_joint": -0.9139846352900073,
            "wrist_1_joint": 2.146753192139373,
            "wrist_2_joint": -2.2341966793290973,
            "wrist_3_joint": 0.005466555786416001
        }
    },
    "waypoints": [
        {
            "positions": [
                -0.9139846352900073,
                -0.661644460510453,
                1.664937868594044,
                2.146753192139373,
                -2.2341966793290973,
                0.005466555786416001
            ]
        },
        {
            "positions": [
                -0.8908346646416867,
                -0.7618381833349592,
                1.7187125109343229,
                2.0788259996286067,
                -2.2257633674160826,
                0.09197523956548022
            ]
        },
        {
            "positions": [
                -0.8676846939933662,
                -0.8620319061594655,
                1.7724871532746018,
                2.0108988071178406,
                -2.2173300555030675,
                0.17848392334454444
            ]
        },
        {
            "positions": [
                -0.8445347233450456,
                -0.9622256289839717,
                1.8262617956148808,
                1.9429716146070743,
                -2.208896743590053,
                0.26499260712360867
            ]
        },
        {
            "positions": [
                -0.8213847526967251,
                -1.062419351808478,
                1.8800364379551597,
                1.875044422096308,
                -2.200463431677038,
                0.3515012909026729
            ]
        },
        {
            "positions": [
                -0.8869373504700063,
                -1.1053190383085787,
                1.7816644707452582,
                1.8588043495041116,
                -2.0998408386504486,
                0.30923965756286376
            ]
        },
        {
            "positions": [
                -0.9524899482432875,
                -1.1482187248086797,
                1.6832925035353565,
                1.842564276911915,
                -1.999218245623859,
                0.2669780242230546
            ]
        },
        {
            "positions": [
                -1.0180425460165687,
                -1.1911184113087805,
                1.584920536325455,
                1.8263242043197188,
                -1.8985956525972694,
                0.22471639088324544
            ]
        },
        {
            "positions": [
                -1.08359514378985,
                -1.2340180978088813,
                1.4865485691155533,
                1.8100841317275222,
                -1.79797305957068,
                0.1824547575434363
            ]
        },
        {
            "positions": [
                -1.1491477415631313,
                -1.276917784308982,
                1.3881766019056518,
                1.7938440591353257,
                -1.6973504665440902,
                0.14019312420362712
            ]
        },
        {
            "positions": [
                -1.2147003393364124,
                -1.3198174708090828,
                1.2898046346957504,
                1.7776039865431295,
                -1.5967278735175008,
                0.09793149086381797
            ]
        },
        {
            "positions": [
                -1.2802529371096938,
                -1.3627171573091839,
                1.1914326674858486,
                1.761363913950933,
                -1.4961052804909112,
                0.05566985752400877
            ]
        },
        {
            "positions": [
                -1.3458055348829747,
                -1.4056168438092846,
                1.0930607002759472,
                1.7451238413587364,
                -1.3954826874643218,
                0.01340822418419968
            ]
        },
        {
            "positions": [
                -1.411358132656256,
                -1.4485165303093854,
                0.9946887330660454,
                1.72888376876654,
                -1.2948600944377322,
                -0.028853409155609522
            ]
        },
        {
            "positions": [
                -1.4769107304295375,
                -1.4914162168094864,
                0.8963167658561438,
                1.7126436961743434,
                -1.1942375014111424,
                -0.07111504249541867
            ]
        },
        {
            "positions": [
                -1.5424633282028184,
                -1.5343159033095872,
                0.7979447986462425,
                1.6964036235821471,
                -1.093614908384553,
                -0.11337667583522776
            ]
        },
        {
            "positions": [
                -1.6080159259760998,
                -1.577215589809688,
                0.6995728314363407,
                1.6801635509899506,
                -0.9929923153579634,
                -0.15563830917503696
            ]
        },
        {
            "positions": [
                -1.5874959159475377,
                -1.5589795012360947,
                0.7522424080704184,
                1.5795822978918992,
                -0.933859516958461,
                -0.023764991952427983
            ]
        },
        {
            "positions": [
                -1.5669759059189756,
                -1.5407434126625015,
                0.8049119847044961,
                1.4790010447938478,
                -0.8747267185589587,
                0.108108325270181
            ]
        },
        {
            "positions": [
                -1.5464558958904135,
                -1.5225073240889082,
                0.8575815613385738,
                1.378419791695796,
                -0.8155939201594564,
                0.23998164249278997
            ]
        },
        {
            "positions": [
                -1.5259358858618515,
                -1.504271235515315,
                0.9102511379726514,
                1.2778385385977447,
                -0.7564611217599541,
                0.37185495971539895
            ]
        },
        {
            "positions": [
                -1.5054158758332894,
                -1.4860351469417215,
                0.9629207146067291,
                1.1772572854996932,
                -0.6973283233604517,
                0.503728276938008
            ]
        },
        {
            "positions": [
                -1.4848958658047273,
                -1.4677990583681282,
                1.0155902912408068,
                1.0766760324016418,
                -0.6381955249609494,
                0.6356015941606169
            ]
        },
        {
            "positions": [
                -1.464375855776165,
                -1.449562969794535,
                1.0682598678748845,
                0.9760947793035902,
                -0.579062726561447,
                0.767474911383226
            ]
        },
        {
            "positions": [
                -1.443855845747603,
                -1.4313268812209416,
                1.1209294445089621,
                0.8755135262055388,
                -0.5199299281619447,
                0.8993482286058349
            ]
        },
        {
            "positions": [
                -1.4233358357190409,
                -1.4130907926473484,
                1.1735990211430396,
                0.7749322731074874,
                -0.46079712976244247,
                1.0312215458284437
            ]
        },
        {
            "positions": [
                -1.4028158256904788,
                -1.3948547040737551,
                1.2262685977771173,
                0.6743510200094358,
                -0.4016643313629401,
                1.163094863051053
            ]
        },
        {
            "positions": [
                -1.3822958156619167,
                -1.3766186155001618,
                1.278938174411195,
                0.5737697669113844,
                -0.34253153296343775,
                1.2949681802736617
            ]
        },
        {
            "positions": [
                -1.3617758056333547,
                -1.3583825269265686,
                1.3316077510452726,
                0.47318851381333293,
                -0.2833987345639355,
                1.4268414974962709
            ]
        },
        {
            "positions": [
                -1.3412557956047926,
                -1.340146438352975,
                1.3842773276793503,
                0.3726072607152815,
                -0.22426593616443302,
                1.55871481471888
            ]
        },
        {
            "positions": [
                -1.3207357855762305,
                -1.3219103497793818,
                1.4369469043134282,
                0.27202600761722984,
                -0.16513313776493066,
                1.6905881319414888
            ]
        },
        {
            "positions": [
                -1.3002157755476684,
                -1.3036742612057886,
                1.4896164809475057,
                0.17144475451917862,
                -0.10600033936542841,
                1.8224614491640976
            ]
        },
        {
            "positions": [
                -1.2796957655191064,
                -1.2854381726321953,
                1.5422860575815833,
                0.07086350142112696,
                -0.04686754096592605,
                1.9543347663867068
            ]
        },
        {
            "positions": [
                -1.2591757554905443,
                -1.267202084058602,
                1.594955634215661,
                -0.029717751676924475,
                0.012265257433576204,
                2.086208083609316
            ]
        },
        {
            "positions": [
                -1.238655745461982,
                -1.2489659954850088,
                1.6476252108497387,
                -0.1302990047749759,
                0.07139805583307846,
                2.2180814008319247
            ]
        },
        {
            "positions": [
                -1.2181357354334201,
                -1.2307299069114155,
                1.7002947874838164,
                -0.23088025787302735,
                0.13053085423258093,
                2.349954718054534
            ]
        },
        {
            "positions": [
                -1.1976157254048578,
                -1.2124938183378222,
                1.752964364117894,
                -0.331461510971079,
                0.18966365263208318,
                2.481828035277143
            ]
        },
        {
            "positions": [
                -1.177095715376296,
                -1.194257729764229,
                1.8056339407519717,
                -0.43204276406913045,
                0.24879645103158543,
                2.613701352499752
            ]
        },
        {
            "positions": [
                -1.1565757053477337,
                -1.1760216411906355,
                1.8583035173860494,
                -0.5326240171671819,
                0.3079292494310879,
                2.7455746697223606
            ]
        },
        {
            "positions": [
                -1.1360556953191716,
                -1.1577855526170422,
                1.910973094020127,
                -0.6332052702652333,
                0.3670620478305904,
                2.87744798694497
            ]
        },
        {
            "positions": [
                -1.1155356852906095,
                -1.139549464043449,
                1.9636426706542047,
                -0.7337865233632848,
                0.4261948462300924,
                3.0093213041675786
            ]
        },
        {
            "positions": [
                -1.0950156752620475,
                -1.1213133754698557,
                2.0163122472882824,
                -0.8343677764613363,
                0.4853276446295949,
                3.141194621390188
            ]
        }
    ]
}