{
    "goal": {
        "global_pose": {
            "orientation": {
                "w": 0.5084816262002911,
                "x": -0.4908360881923452,
                "y": 0.5182115481033761,
                "z": -0.48164630358495003
            },
            "position": {
                "x": 0.5540239810943604,
                "y": -0.46912469901144505,
                "z": 0.16403168439865112
            }
        },
        "name": "move_to_storage_B"
    },
    "id": "TRRT_move_to_storage_B_12",
    "joint_names": [
        "shoulder_pan_joint",
        "shoulder_lift_joint",
        "elbow_joint",
        "wrist_1_joint",
        "wrist_2_joint",
        "wrist_3_joint"
    ],
    "metrics": {
        "cart_traj_len": 0.8410786483387551,
        "distance_elbow_joint": 0.7353722809070127,
        "distance_shoulder_lift_joint": 0.45834341251521904,
        "distance_shoulder_pan_joint": 0.6265973824181462,
        "distance_wrist_1_joint": 2.9833586226172515,
        "distance_wrist_2_joint": 2.711515061023169,
        "distance_wrist_3_joint": 3.134531294335934,
        "smoothness": 0.10882307879123963,
        "time": 0.098080869,
        "traj_len": 3.2633905763510334,
        "weighted_distance": 4.755381617297294
    },
    "planner": "TRRT",
    "start": {
        "state": {
            "elbow_joint": 1.664937868594044,
            "shoulder_lift_joint": -0.661644460510453,
            "shoulder_pan_joint": -0.9139846352900073,
            "wrist_1_joint": 2.146753192139373,
            "wrist_2_joint": -2.2341966793290973,
            "wrist_3_joint": 0.005466555786416001
        }
    },
    "waypoints": [
        {
            "positions": [
                -0.9139846352900073,
                -0.661644460510453,
                1.664937868594044,
                2.146753192139373,
                -2.2341966793290973,
                0.005466555786416001
            ]
        },
        {
            "positions": [
                -0.8026371687528011,
                -0.709771256606585,
                1.5684577167972154,
                2.0929844142317684,
                -2.2255553524835183,
                -0.04553990272643016
            ]
        },
        {
            "positions": [
                -0.6912897022155948,
                -0.7578980527027172,
                1.4719775650003868,
                2.039215636324164,
                -2.2169140256379394,
                -0.09654636123927632
            ]
        },
        {
            "positions": [
                -0.7068244118057384,
                -0.7718245842536,
                1.4928395641278236,
                1.9286071337548547,
                -2.113289702279016,
                -0.21318168344351637
            ]
        },
        {
            "positions": [
                -0.722359121395882,
                -0.7857511158044829,
                1.5137015632552604,
                1.8179986311855454,
                -2.0096653789200922,
                -0.3298170056477564
            ]
        },
        {
            "positions": [
                -0.7378938309860257,
                -0.7996776473553658,
                1.534563562382697,
                1.707390128616236,
                -1.9060410555611689,
                -0.4464523278519965
            ]
        },
        {
            "positions": [
                -0.7534285405761693,
                -0.8136041789062487,
                1.5554255615101338,
                1.5967816260469267,
                -1.8024167322022453,
                -0.5630876500562365
            ]
        },
        {
            "positions": [
                -0.7689632501663128,
                -0.8275307104571316,
                1.5762875606375706,
                1.4861731234776174,
                -1.698792408843322,
                -0.6797229722604766
            ]
        },
        {
            "positions": [
                -0.7844979597564564,
                -0.8414572420080144,
                1.5971495597650074,
                1.3755646209083081,
                -1.5951680854843984,
                -0.7963582944647166
            ]
        },
        {
            "positions": [
                -0.8000326693466001,
                -0.8553837735588973,
                1.618011558892444,
                1.2649561183389988,
                -1.4915437621254748,
                -0.9129936166689566
            ]
        },
        {
            "positions": [
                -0.8155673789367437,
                -0.8693103051097802,
                1.6388735580198808,
                1.1543476157696895,
                -1.3879194387665512,
                -1.0296289388731967
            ]
        },
        {
            "positions": [
                -0.8311020885268873,
                -0.8832368366606631,
                1.6597355571473176,
                1.0437391132003802,
                -1.2842951154076279,
                -1.1462642610774367
            ]
        },
        {
            "positions": [
                -0.8466367981170309,
                -0.897163368211546,
                1.6805975562747544,
                0.9331306106310708,
                -1.1806707920487043,
                -1.262899583281677
            ]
        },
        {
            "positions": [
                -0.8621715077071745,
                -0.9110898997624288,
                1.7014595554021912,
                0.8225221080617615,
                -1.0770464686897807,
                -1.3795349054859167
            ]
        },
        {
            "positions": [
                -0.8777062172973181,
                -0.9250164313133118,
                1.7223215545296278,
                0.7119136054924522,
                -0.9734221453308571,
                -1.496170227690157
            ]
        },
        {
            "positions": [
                -0.8932409268874617,
                -0.9389429628641945,
                1.7431835536570646,
                0.6013051029231429,
                -0.8697978219719338,
                -1.612805549894397
            ]
        },
        {
            "positions": [
                -0.9087756364776053,
                -0.9528694944150775,
                1.7640455527845014,
                0.49069660035383356,
                -0.7661734986130104,
                -1.729440872098637
            ]
        },
        {
            "positions": [
                -0.9243103460677489,
                -0.9667960259659604,
                1.784907551911938,
                0.38008809778452446,
                -0.6625491752540869,
                -1.846076194302877
            ]
        },
        {
            "positions": [
                -0.9398450556578926,
                -0.9807225575168432,
                1.8057695510393748,
                0.2694795952152149,
                -0.5589248518951633,
                -1.9627115165071172
            ]
        },
        {
            "positions": [
                -0.9553797652480361,
                -0.9946490890677261,
                1.8266315501668116,
                0.1588710926459056,
                -0.4553005285362397,
                -2.0793468387113574
            ]
        },
        {
            "positions": [
                -0.9709144748381797,
                -1.008575620618609,
                1.8474935492942484,
                0.04826259007659628,
                -0.35167620517731635,
                -2.195982160915597
            ]
        },
        {
            "positions": [
                -0.9864491844283233,
                -1.022502152169492,
                1.8683555484216852,
                -0.06234591249271304,
                -0.24805188181839277,
                -2.312617483119837
            ]
        },
        {
            "positions": [
                -1.0019838940184669,
                -1.0364286837203749,
                1.889217547549122,
                -0.17295441506202236,
                -0.1444275584594692,
                -2.4292528053240776
            ]
        },
        {
            "positions": [
                -1.0175186036086106,
                -1.0503552152712576,
                1.9100795466765585,
                -0.2835629176313317,
                -0.04080323510054562,
                -2.5458881275283174
            ]
        },
        {
            "positions": [
                -1.0330533131987543,
                -1.0642817468221404,
                1.9309415458039954,
                -0.394171420200641,
                0.06282108825837796,
                -2.662523449732557
            ]
        },
        {
            "positions": [
                -1.0485880227888977,
                -1.0782082783730234,
                1.951803544931432,
                -0.5047799227699503,
                0.1664454116173011,
                -2.7791587719367974
            ]
        },
        {
            "positions": [
                -1.0641227323790414,
                -1.0921348099239063,
                1.9726655440588687,
                -0.6153884253392596,
                0.2700697349762251,
                -2.8957940941410376
            ]
        },
        {
            "positions": [
                -1.079657441969185,
                -1.1060613414747893,
                1.9935275431863055,
                -0.725996927908569,
                0.37369405833514824,
                -3.012429416345278
            ]
        },
        {
            "positions": [
                -1.0951921515593286,
                -1.119987873025672,
                2.0143895423137423,
                -0.8366054304778783,
                0.4773183816940717,
                -3.1290647385495176
            ]
        }
    ]
}