{
    "goal": {
        "global_pose": {
            "orientation": {
                "w": 0.7031023480610252,
                "x": -0.7110244013736278,
                "y": 0.0077485991402295624,
                "z": 0.005598929693374583
            },
            "position": {
                "x": -0.8841497679147869,
                "y": 0.44412534475326537,
                "z": 0.3711530566215515
            }
        },
        "name": "move_to_auspresseinheit_D"
    },
    "id": "TRRT_move_to_auspresseinheit_D_138",
    "joint_names": [
        "shoulder_pan_joint",
        "shoulder_lift_joint",
        "elbow_joint",
        "wrist_1_joint",
        "wrist_2_joint",
        "wrist_3_joint"
    ],
    "metrics": {
        "cart_traj_len": 0.34280028081088804,
        "distance_elbow_joint": 0.6311435998653958,
        "distance_shoulder_lift_joint": 0.1175187088575198,
        "distance_shoulder_pan_joint": 0.13387796461798795,
        "distance_wrist_1_joint": 0.5044539139973336,
        "distance_wrist_2_joint": 1.4421917826468138,
        "distance_wrist_3_joint": 0.016067200100844836,
        "smoothness": 3.9474596431116675e-16,
        "time": 0.029449087,
        "traj_len": 1.6867878260427114,
        "weighted_distance": 2.196368199308061
    },
    "planner": "TRRT",
    "start": {
        "state": {
            "elbow_joint": -1.8275523626775212,
            "shoulder_lift_joint": -2.126789852344167,
            "shoulder_pan_joint": -0.03513704404078235,
            "wrist_1_joint": -2.347782403156801,
            "wrist_2_joint": -1.6058999987535132,
            "wrist_3_joint": -3.0880379163319196
        }
    },
    "waypoints": [
        {
            "positions": [
                -0.03513704404078235,
                -2.126789852344167,
                -1.8275523626775212,
                -2.347782403156801,
                -1.6058999987535132,
                -3.0880379163319196
            ]
        },
        {
            "positions": [
                -0.05187178961803084,
                -2.141479690951357,
                -1.7486594126943467,
                -2.4108391424064677,
                -1.4256260259226614,
                -3.0900463163445253
            ]
        },
        {
            "positions": [
                -0.06860653519527934,
                -2.1561695295585466,
                -1.6697664627111721,
                -2.4738958816561345,
                -1.2453520530918096,
                -3.092054716357131
            ]
        },
        {
            "positions": [
                -0.08534128077252784,
                -2.1708593681657367,
                -1.5908735127279978,
                -2.536952620905801,
                -1.065078080260958,
                -3.0940631163697363
            ]
        },
        {
            "positions": [
                -0.10207602634977633,
                -2.1855492067729267,
                -1.5119805627448233,
                -2.6000093601554677,
                -0.8848041074301063,
                -3.096071516382342
            ]
        },
        {
            "positions": [
                -0.11881077192702483,
                -2.200239045380117,
                -1.4330876127616488,
                -2.6630660994051345,
                -0.7045301345992545,
                -3.0980799163949477
            ]
        },
        {
            "positions": [
                -0.13554551750427332,
                -2.214928883987307,
                -1.3541946627784744,
                -2.726122838654801,
                -0.524256161768403,
                -3.100088316407553
            ]
        },
        {
            "positions": [
                -0.15228026308152182,
                -2.2296187225944966,
                -1.2753017127953,
                -2.7891795779044677,
                -0.34398218893755117,
                -3.1020967164201587
            ]
        },
        {
            "positions": [
                -0.1690150086587703,
                -2.2443085612016866,
                -1.1964087628121254,
                -2.8522363171541345,
                -0.16370821610669928,
                -3.1041051164327644
            ]
        }
    ]
}