{
    "goal": {
        "global_pose": {
            "orientation": {
                "w": 0.7031023480610252,
                "x": -0.7110244013736278,
                "y": 0.0077485991402295624,
                "z": 0.005598929693374583
            },
            "position": {
                "x": -0.8841497679147869,
                "y": 0.44412534475326537,
                "z": 0.3711530566215515
            }
        },
        "name": "move_to_auspresseinheit_D"
    },
    "id": "TRRT_move_to_auspresseinheit_D_150",
    "joint_names": [
        "shoulder_pan_joint",
        "shoulder_lift_joint",
        "elbow_joint",
        "wrist_1_joint",
        "wrist_2_joint",
        "wrist_3_joint"
    ],
    "metrics": {
        "cart_traj_len": 0.34244551387733374,
        "distance_elbow_joint": 0.6385424019484407,
        "distance_shoulder_lift_joint": 0.12154298144632447,
        "distance_shoulder_pan_joint": 0.13317247233021035,
        "distance_wrist_1_joint": 0.5377418508486884,
        "distance_wrist_2_joint": 1.4372268429037578,
        "distance_wrist_3_joint": 0.013198450812590856,
        "smoothness": 3.947459674368863e-16,
        "time": 0.027696322,
        "traj_len": 1.6974760676634038,
        "weighted_distance": 2.209703734817779
    },
    "planner": "TRRT",
    "start": {
        "state": {
            "elbow_joint": -1.8275523626775212,
            "shoulder_lift_joint": -2.126789852344167,
            "shoulder_pan_joint": -0.03513704404078235,
            "wrist_1_joint": -2.347782403156801,
            "wrist_2_joint": -1.6058999987535132,
            "wrist_3_joint": -3.0880379163319196
        }
    },
    "waypoints": [
        {
            "positions": [
                -0.03513704404078235,
                -2.126789852344167,
                -1.8275523626775212,
                -2.347782403156801,
                -1.6058999987535132,
                -3.0880379163319196
            ]
        },
        {
            "positions": [
                -0.05178360308205864,
                -2.1419827250249575,
                -1.7477345624339662,
                -2.415000134512887,
                -1.4262466433905434,
                -3.0863881099803456
            ]
        },
        {
            "positions": [
                -0.06843016212333494,
                -2.157175597705748,
                -1.667916762190411,
                -2.482217865868973,
                -1.2465932880275736,
                -3.0847383036287717
            ]
        },
        {
            "positions": [
                -0.08507672116461124,
                -2.1723684703865387,
                -1.588098961946856,
                -2.549435597225059,
                -1.066939932664604,
                -3.083088497277198
            ]
        },
        {
            "positions": [
                -0.10172328020588753,
                -2.187561343067329,
                -1.5082811617033007,
                -2.616653328581145,
                -0.8872865773016343,
                -3.081438690925624
            ]
        },
        {
            "positions": [
                -0.11836983924716382,
                -2.2027542157481195,
                -1.4284633614597457,
                -2.683871059937231,
                -0.7076332219386645,
                -3.07978888457405
            ]
        },
        {
            "positions": [
                -0.13501639828844011,
                -2.21794708842891,
                -1.3486455612161907,
                -2.7510887912933173,
                -0.527979866575695,
                -3.0781390782224767
            ]
        },
        {
            "positions": [
                -0.1516629573297164,
                -2.2331399611097007,
                -1.2688277609726355,
                -2.818306522649403,
                -0.3483265112127252,
                -3.0764892718709027
            ]
        },
        {
            "positions": [
                -0.1683095163709927,
                -2.2483328337904913,
                -1.1890099607290805,
                -2.8855242540054893,
                -0.16867315584975545,
                -3.0748394655193287
            ]
        }
    ]
}