{
    "goal": {
        "global_pose": {
            "orientation": {
                "w": -0.4816463035849501,
                "x": 0.5182115481033762,
                "y": 0.4908360881923453,
                "z": -0.5084816262002911
            },
            "position": {
                "x": -0.8240239810943604,
                "y": 0.19912469901144506,
                "z": 0.16403168439865112
            }
        },
        "name": "move_to_storage_D"
    },
    "id": "TRRT_move_to_storage_D_54",
    "joint_names": [
        "shoulder_pan_joint",
        "shoulder_lift_joint",
        "elbow_joint",
        "wrist_1_joint",
        "wrist_2_joint",
        "wrist_3_joint"
    ],
    "metrics": {
        "cart_traj_len": 0.5661858528138167,
        "distance_elbow_joint": 0.5971175305396288,
        "distance_shoulder_lift_joint": 0.15307071868904076,
        "distance_shoulder_pan_joint": 0.1961270377318312,
        "distance_wrist_1_joint": 3.925027811399051,
        "distance_wrist_2_joint": 1.9091160273214365,
        "distance_wrist_3_joint": 3.532318228214683,
        "smoothness": 0.6093611809310379,
        "time": 0.06493726999999999,
        "traj_len": 3.2113513283189166,
        "weighted_distance": 4.817837445269976
    },
    "planner": "TRRT",
    "start": {
        "state": {
            "elbow_joint": -2.384821988534728,
            "shoulder_lift_joint": -2.2788054721415256,
            "shoulder_pan_joint": -0.1854694642142757,
            "wrist_1_joint": 1.4845938289331202,
            "wrist_2_joint": 0.17898776772866878,
            "wrist_3_joint": 0.037105688729662994
        }
    },
    "waypoints": [
        {
            "positions": [
                -0.1854694642142757,
                -2.2788054721415256,
                -2.384821988534728,
                1.4845938289331202,
                0.17898776772866878,
                0.037105688729662994
            ]
        },
        {
            "positions": [
                -0.09024243294121721,
                -2.265779436151202,
                -2.4043032552713193,
                1.5281177574546136,
                0.24193805637921806,
                0.13180149789637643
            ]
        },
        {
            "positions": [
                -0.011968448292133841,
                -2.192322279624902,
                -2.3372265581445975,
                1.4920896357011495,
                0.21905734501520435,
                0.24256147488757182
            ]
        },
        {
            "positions": [
                -0.012873489164521407,
                -2.1896587785780053,
                -2.316804175477545,
                1.3382706052561857,
                0.1461259439229294,
                0.10948697720530084
            ]
        },
        {
            "positions": [
                -0.013778530036908973,
                -2.1869952775311083,
                -2.296381792810492,
                1.184451574811222,
                0.07319454283065446,
                -0.02358752047697013
            ]
        },
        {
            "positions": [
                -0.014683570909296537,
                -2.184331776484212,
                -2.2759594101434395,
                1.0306325443662583,
                0.00026314173837954646,
                -0.15666201815924105
            ]
        },
        {
            "positions": [
                -0.015588611781684103,
                -2.181668275437315,
                -2.255537027476387,
                0.8768135139212946,
                -0.07266825935389543,
                -0.28973651584151205
            ]
        },
        {
            "positions": [
                -0.01649365265407167,
                -2.1790047743904184,
                -2.235114644809334,
                0.7229944834763309,
                -0.14559966044617034,
                -0.42281101352378303
            ]
        },
        {
            "positions": [
                -0.017398693526459234,
                -2.176341273343522,
                -2.2146922621422815,
                0.5691754530313672,
                -0.21853106153844526,
                -0.5558855112060539
            ]
        },
        {
            "positions": [
                -0.0183037343988468,
                -2.173677772296625,
                -2.194269879475229,
                0.41535642258640326,
                -0.2914624626307203,
                -0.688960008888325
            ]
        },
        {
            "positions": [
                -0.019208775271234366,
                -2.1710142712497285,
                -2.1738474968081762,
                0.2615373921414397,
                -0.3643938637229952,
                -0.822034506570596
            ]
        },
        {
            "positions": [
                -0.020113816143621933,
                -2.1683507702028315,
                -2.153425114141124,
                0.10771836169647608,
                -0.4373252648152701,
                -0.9551090042528668
            ]
        },
        {
            "positions": [
                -0.021018857016009498,
                -2.165687269155935,
                -2.1330027314740714,
                -0.04610066874848773,
                -0.510256665907545,
                -1.088183501935138
            ]
        },
        {
            "positions": [
                -0.021923897888397062,
                -2.1630237681090385,
                -2.1125803488070187,
                -0.19991969919345154,
                -0.58318806699982,
                -1.2212579996174089
            ]
        },
        {
            "positions": [
                -0.02282893876078463,
                -2.1603602670621416,
                -2.092157966139966,
                -0.35373872963841513,
                -0.6561194680920949,
                -1.3543324972996797
            ]
        },
        {
            "positions": [
                -0.023733979633172197,
                -2.157696766015245,
                -2.0717355834729134,
                -0.5075577600833789,
                -0.7290508691843699,
                -1.4874069949819508
            ]
        },
        {
            "positions": [
                -0.024639020505559762,
                -2.155033264968348,
                -2.0513132008058608,
                -0.661376790528343,
                -0.8019822702766449,
                -1.620481492664222
            ]
        },
        {
            "positions": [
                -0.025544061377947326,
                -2.1523697639214516,
                -2.030890818138808,
                -0.8151958209733063,
                -0.8749136713689197,
                -1.7535559903464926
            ]
        },
        {
            "positions": [
                -0.026449102250334894,
                -2.149706262874555,
                -2.0104684354717555,
                -0.9690148514182702,
                -0.9478450724611948,
                -1.8866304880287639
            ]
        },
        {
            "positions": [
                -0.027354143122722458,
                -2.147042761827658,
                -1.9900460528047028,
                -1.122833881863234,
                -1.02077647355347,
                -2.019704985711035
            ]
        },
        {
            "positions": [
                -0.028259183995110022,
                -2.1443792607807617,
                -1.9696236701376502,
                -1.2766529123081973,
                -1.0937078746457445,
                -2.1527794833933056
            ]
        },
        {
            "positions": [
                -0.02916422486749759,
                -2.1417157597338647,
                -1.9492012874705975,
                -1.4304719427531611,
                -1.1666392757380195,
                -2.2858539810755767
            ]
        },
        {
            "positions": [
                -0.030069265739885154,
                -2.1390522586869682,
                -1.9287789048035449,
                -1.584290973198125,
                -1.2395706768302945,
                -2.4189284787578478
            ]
        },
        {
            "positions": [
                -0.03097430661227272,
                -2.1363887576400717,
                -1.9083565221364922,
                -1.7381100036430888,
                -1.3125020779225691,
                -2.5520029764401184
            ]
        },
        {
            "positions": [
                -0.031879347484660286,
                -2.133725256593175,
                -1.8879341394694398,
                -1.8919290340880526,
                -1.3854334790148441,
                -2.6850774741223895
            ]
        },
        {
            "positions": [
                -0.03278438835704785,
                -2.1310617555462783,
                -1.8675117568023871,
                -2.0457480645330164,
                -1.4583648801071192,
                -2.8181519718046606
            ]
        },
        {
            "positions": [
                -0.033689429229435415,
                -2.1283982544993814,
                -1.8470893741353345,
                -2.1995670949779798,
                -1.5312962811993942,
                -2.9512264694869312
            ]
        },
        {
            "positions": [
                -0.03459447010182298,
                -2.125734753452485,
                -1.8266669914682818,
                -2.3533861254229436,
                -1.604227682291669,
                -3.0843009671692023
            ]
        }
    ]
}