{
    "goal": {
        "global_pose": {
            "orientation": {
                "w": 0.5084816262002911,
                "x": -0.4908360881923452,
                "y": 0.5182115481033761,
                "z": -0.48164630358495003
            },
            "position": {
                "x": 0.5540239810943604,
                "y": -0.46912469901144505,
                "z": 0.16403168439865112
            }
        },
        "name": "move_to_storage_B"
    },
    "id": "TRRT_move_to_storage_B_128",
    "joint_names": [
        "shoulder_pan_joint",
        "shoulder_lift_joint",
        "elbow_joint",
        "wrist_1_joint",
        "wrist_2_joint",
        "wrist_3_joint"
    ],
    "metrics": {
        "cart_traj_len": 0.7587518817356212,
        "distance_elbow_joint": 0.3505165534119872,
        "distance_shoulder_lift_joint": 0.4595474334274616,
        "distance_shoulder_pan_joint": 0.5408172483951891,
        "distance_wrist_1_joint": 3.070101619022834,
        "distance_wrist_2_joint": 2.8486687276929517,
        "distance_wrist_3_joint": 3.1511453126686284,
        "smoothness": 0.29655827859531664,
        "time": 1.067375338,
        "traj_len": 3.228125910589463,
        "weighted_distance": 4.758346127245484
    },
    "planner": "TRRT",
    "start": {
        "state": {
            "elbow_joint": 1.664937868594044,
            "shoulder_lift_joint": -0.661644460510453,
            "shoulder_pan_joint": -0.9139846352900073,
            "wrist_1_joint": 2.146753192139373,
            "wrist_2_joint": -2.2341966793290973,
            "wrist_3_joint": 0.005466555786416001
        }
    },
    "waypoints": [
        {
            "positions": [
                -0.9139846352900073,
                -0.661644460510453,
                1.664937868594044,
                2.146753192139373,
                -2.2341966793290973,
                0.005466555786416001
            ]
        },
        {
            "positions": [
                -0.8243978135106815,
                -0.7126068954359,
                1.6809236383258348,
                2.167832932293244,
                -2.269340806377669,
                0.002125465148294079
            ]
        },
        {
            "positions": [
                -0.7348109917313557,
                -0.763569330361347,
                1.6969094080576257,
                2.1889126724471155,
                -2.3044849334262407,
                -0.001215625489827843
            ]
        },
        {
            "positions": [
                -0.7487203611481456,
                -0.7773240443450611,
                1.7091611393633337,
                2.072453359419612,
                -2.197624145980248,
                -0.12215651515876573
            ]
        },
        {
            "positions": [
                -0.7626297305649354,
                -0.7910787583287753,
                1.7214128706690415,
                1.9559940463921084,
                -2.0907633585342555,
                -0.24309740482770362
            ]
        },
        {
            "positions": [
                -0.7765390999817254,
                -0.8048334723124895,
                1.7336646019747495,
                1.8395347333646048,
                -1.983902571088263,
                -0.3640382944966415
            ]
        },
        {
            "positions": [
                -0.7904484693985153,
                -0.8185881862962036,
                1.7459163332804573,
                1.7230754203371013,
                -1.8770417836422701,
                -0.4849791841655794
            ]
        },
        {
            "positions": [
                -0.8043578388153052,
                -0.8323429002799176,
                1.7581680645861653,
                1.606616107309598,
                -1.7701809961962776,
                -0.6059200738345174
            ]
        },
        {
            "positions": [
                -0.8182672082320951,
                -0.8460976142636318,
                1.770419795891873,
                1.4901567942820941,
                -1.663320208750285,
                -0.7268609635034551
            ]
        },
        {
            "positions": [
                -0.832176577648885,
                -0.859852328247346,
                1.782671527197581,
                1.3736974812545908,
                -1.5564594213042924,
                -0.847801853172393
            ]
        },
        {
            "positions": [
                -0.8460859470656749,
                -0.8736070422310601,
                1.7949232585032888,
                1.2572381682270872,
                -1.4495986338582996,
                -0.9687427428413309
            ]
        },
        {
            "positions": [
                -0.8599953164824647,
                -0.8873617562147742,
                1.8071749898089968,
                1.1407788551995839,
                -1.342737846412307,
                -1.0896836325102688
            ]
        },
        {
            "positions": [
                -0.8739046858992547,
                -0.9011164701984884,
                1.8194267211147046,
                1.02431954217208,
                -1.2358770589663144,
                -1.210624522179207
            ]
        },
        {
            "positions": [
                -0.8878140553160446,
                -0.9148711841822026,
                1.8316784524204126,
                0.9078602291445768,
                -1.1290162715203218,
                -1.3315654118481446
            ]
        },
        {
            "positions": [
                -0.9017234247328345,
                -0.9286258981659167,
                1.8439301837261204,
                0.791400916117073,
                -1.0221554840743292,
                -1.4525063015170825
            ]
        },
        {
            "positions": [
                -0.9156327941496244,
                -0.9423806121496308,
                1.8561819150318284,
                0.6749416030895696,
                -0.9152946966283366,
                -1.5734471911860204
            ]
        },
        {
            "positions": [
                -0.9295421635664143,
                -0.956135326133345,
                1.8684336463375364,
                0.5584822900620663,
                -0.808433909182344,
                -1.6943880808549583
            ]
        },
        {
            "positions": [
                -0.9434515329832042,
                -0.969890040117059,
                1.8806853776432442,
                0.4420229770345627,
                -0.7015731217363514,
                -1.815328970523896
            ]
        },
        {
            "positions": [
                -0.957360902399994,
                -0.9836447541007732,
                1.8929371089489522,
                0.32556366400705894,
                -0.5947123342903586,
                -1.936269860192834
            ]
        },
        {
            "positions": [
                -0.971270271816784,
                -0.9973994680844873,
                1.90518884025466,
                0.20910435097955538,
                -0.48785154684436605,
                -2.0572107498617718
            ]
        },
        {
            "positions": [
                -0.9851796412335738,
                -1.0111541820682015,
                1.917440571560368,
                0.09264503795205226,
                -0.38099075939837346,
                -2.1781516395307094
            ]
        },
        {
            "positions": [
                -0.9990890106503638,
                -1.0249088960519157,
                1.9296923028660757,
                -0.02381427507545153,
                -0.2741299719523811,
                -2.299092529199647
            ]
        },
        {
            "positions": [
                -1.0129983800671538,
                -1.0386636100356297,
                1.9419440341717837,
                -0.14027358810295532,
                -0.16726918450638806,
                -2.4200334188685857
            ]
        },
        {
            "positions": [
                -1.0269077494839436,
                -1.0524183240193439,
                1.9541957654774915,
                -0.25673290113045866,
                -0.06040839706039547,
                -2.5409743085375234
            ]
        },
        {
            "positions": [
                -1.0408171189007336,
                -1.066173038003058,
                1.9664474967831995,
                -0.373192214157962,
                0.04645239038559712,
                -2.661915198206461
            ]
        },
        {
            "positions": [
                -1.0547264883175234,
                -1.0799277519867723,
                1.9786992280889073,
                -0.48965152718546534,
                0.1533131778315897,
                -2.7828560878753987
            ]
        },
        {
            "positions": [
                -1.0686358577343134,
                -1.0936824659704865,
                1.9909509593946153,
                -0.6061108402129696,
                0.2601739652775823,
                -2.903796977544337
            ]
        },
        {
            "positions": [
                -1.0825452271511034,
                -1.1074371799542004,
                2.003202690700323,
                -0.7225701532404729,
                0.3670347527235749,
                -3.024737867213275
            ]
        },
        {
            "positions": [
                -1.0964545965678931,
                -1.1211918939379146,
                2.015454422006031,
                -0.8390294662679761,
                0.4738955401695673,
                -3.1456787568822127
            ]
        }
    ]
}