{
    "goal": {
        "global_pose": {
            "orientation": {
                "w": 0.7031023480610252,
                "x": -0.7110244013736278,
                "y": 0.0077485991402295624,
                "z": 0.005598929693374583
            },
            "position": {
                "x": -0.8841497679147869,
                "y": 0.44412534475326537,
                "z": 0.3711530566215515
            }
        },
        "name": "move_to_auspresseinheit_D"
    },
    "id": "TRRT_move_to_auspresseinheit_D_66",
    "joint_names": [
        "shoulder_pan_joint",
        "shoulder_lift_joint",
        "elbow_joint",
        "wrist_1_joint",
        "wrist_2_joint",
        "wrist_3_joint"
    ],
    "metrics": {
        "cart_traj_len": 0.34330346547787705,
        "distance_elbow_joint": 0.6306632290918022,
        "distance_shoulder_lift_joint": 0.11680294027760096,
        "distance_shoulder_pan_joint": 0.13454525433409667,
        "distance_wrist_1_joint": 0.5069432437891588,
        "distance_wrist_2_joint": 1.4341681980183107,
        "distance_wrist_3_joint": 0.02760362806421579,
        "smoothness": 5.921189480296099e-16,
        "time": 0.052419674,
        "traj_len": 1.688409456729968,
        "weighted_distance": 2.201600597635976
    },
    "planner": "TRRT",
    "start": {
        "state": {
            "elbow_joint": -1.8275523626775212,
            "shoulder_lift_joint": -2.126789852344167,
            "shoulder_pan_joint": -0.03513704404078235,
            "wrist_1_joint": -2.347782403156801,
            "wrist_2_joint": -1.6058999987535132,
            "wrist_3_joint": -3.0880379163319196
        }
    },
    "waypoints": [
        {
            "positions": [
                -0.03513704404078235,
                -2.126789852344167,
                -1.8275523626775212,
                -2.347782403156801,
                -1.6058999987535132,
                -3.0880379163319196
            ]
        },
        {
            "positions": [
                -0.05195520083254443,
                -2.141390219878867,
                -1.748719459041046,
                -2.4111503086304458,
                -1.4266289740012243,
                -3.0914883698399467
            ]
        },
        {
            "positions": [
                -0.06877335762430652,
                -2.155990587413567,
                -1.6698865554045708,
                -2.4745182141040907,
                -1.2473579492489355,
                -3.0949388233479738
            ]
        },
        {
            "positions": [
                -0.0855915144160686,
                -2.1705909549482674,
                -1.5910536517680953,
                -2.5378861195777356,
                -1.0680869244966467,
                -3.0983892768560004
            ]
        },
        {
            "positions": [
                -0.10240967120783068,
                -2.185191322482967,
                -1.51222074813162,
                -2.6012540250513805,
                -0.8888158997443578,
                -3.1018397303640275
            ]
        },
        {
            "positions": [
                -0.11922782799959278,
                -2.1997916900176673,
                -1.433387844495145,
                -2.664621930525025,
                -0.709544874992069,
                -3.1052901838720546
            ]
        },
        {
            "positions": [
                -0.13604598479135485,
                -2.2143920575523675,
                -1.3545549408586695,
                -2.72798983599867,
                -0.5302738502397801,
                -3.108740637380081
            ]
        },
        {
            "positions": [
                -0.15286414158311692,
                -2.2289924250870676,
                -1.2757220372221942,
                -2.7913577414723147,
                -0.3510028254874913,
                -3.1121910908881083
            ]
        },
        {
            "positions": [
                -0.16968229837487903,
                -2.243592792621768,
                -1.196889133585719,
                -2.8547256469459596,
                -0.1717318007352025,
                -3.1156415443961354
            ]
        }
    ]
}