{
    "goal": {
        "global_pose": {
            "orientation": {
                "w": 0.5084816262002911,
                "x": -0.4908360881923452,
                "y": 0.5182115481033761,
                "z": -0.48164630358495003
            },
            "position": {
                "x": 0.5540239810943604,
                "y": -0.46912469901144505,
                "z": 0.16403168439865112
            }
        },
        "name": "move_to_storage_B"
    },
    "id": "TRRT_move_to_storage_B_54",
    "joint_names": [
        "shoulder_pan_joint",
        "shoulder_lift_joint",
        "elbow_joint",
        "wrist_1_joint",
        "wrist_2_joint",
        "wrist_3_joint"
    ],
    "metrics": {
        "cart_traj_len": 6.670138539596265,
        "distance_elbow_joint": 6.124458658202621,
        "distance_shoulder_lift_joint": 0.46021575192927866,
        "distance_shoulder_pan_joint": 5.278632815016249,
        "distance_wrist_1_joint": 4.608619911384881,
        "distance_wrist_2_joint": 4.055365655786918,
        "distance_wrist_3_joint": 3.1511265339637813,
        "smoothness": 0.34596523296340836,
        "time": 0.11602390500000001,
        "traj_len": 4.866047608304271,
        "weighted_distance": 6.216482764504627
    },
    "planner": "TRRT",
    "start": {
        "state": {
            "elbow_joint": 1.664937868594044,
            "shoulder_lift_joint": -0.661644460510453,
            "shoulder_pan_joint": -0.9139846352900073,
            "wrist_1_joint": 2.146753192139373,
            "wrist_2_joint": -2.2341966793290973,
            "wrist_3_joint": 0.005466555786416001
        }
    },
    "waypoints": [
        {
            "positions": [
                -0.9139846352900073,
                -0.661644460510453,
                1.664937868594044,
                2.146753192139373,
                -2.2341966793290973,
                0.005466555786416001
            ]
        },
        {
            "positions": [
                -0.8875254410674132,
                -0.6777412349254348,
                1.6599331092901544,
                2.133287363616062,
                -2.204816290576513,
                0.019352970435523625
            ]
        },
        {
            "positions": [
                -0.8193676138894834,
                -0.6889605758595808,
                1.5820802512993977,
                2.030818922632378,
                -2.1142932593177615,
                -0.01708516282699318
            ]
        },
        {
            "positions": [
                -0.7512097867115536,
                -0.7001799167937268,
                1.504227393308641,
                1.9283504816486947,
                -2.0237702280590097,
                -0.05352329608950998
            ]
        },
        {
            "positions": [
                -0.6830519595336237,
                -0.7113992577278729,
                1.4263745353178843,
                1.8258820406650111,
                -1.933247196800258,
                -0.08996142935202678
            ]
        },
        {
            "positions": [
                -0.614894132355694,
                -0.7226185986620189,
                1.3485216773271274,
                1.7234135996813276,
                -1.8427241655415063,
                -0.1263995626145436
            ]
        },
        {
            "positions": [
                -0.5467363051777643,
                -0.733837939596165,
                1.2706688193363707,
                1.6209451586976438,
                -1.7522011342827546,
                -0.1628376958770604
            ]
        },
        {
            "positions": [
                -0.47857847799983444,
                -0.745057280530311,
                1.192815961345614,
                1.5184767177139604,
                -1.6616781030240029,
                -0.1992758291395772
            ]
        },
        {
            "positions": [
                -0.41042065082190465,
                -0.756276621464457,
                1.114963103354857,
                1.4160082767302766,
                -1.5711550717652512,
                -0.235713962402094
            ]
        },
        {
            "positions": [
                -0.34226282364397487,
                -0.7674959623986031,
                1.0371102453641003,
                1.313539835746593,
                -1.4806320405064994,
                -0.2721520956646108
            ]
        },
        {
            "positions": [
                -0.274104996466045,
                -0.7787153033327491,
                0.9592573873733438,
                1.2110713947629095,
                -1.390109009247748,
                -0.30859022892712756
            ]
        },
        {
            "positions": [
                -0.2059471692881153,
                -0.7899346442668951,
                0.881404529382587,
                1.108602953779226,
                -1.2995859779889962,
                -0.3450283621896444
            ]
        },
        {
            "positions": [
                -0.13778934211018545,
                -0.8011539852010411,
                0.8035516713918303,
                1.0061345127955423,
                -1.2090629467302445,
                -0.38146649545216116
            ]
        },
        {
            "positions": [
                -0.06963151493225572,
                -0.8123733261351871,
                0.7256988134010736,
                0.9036660718118588,
                -1.1185399154714928,
                -0.417904628714678
            ]
        },
        {
            "positions": [
                -0.0014736877543258808,
                -0.8235926670693332,
                0.6478459554103169,
                0.8011976308281752,
                -1.028016884212741,
                -0.4543427619771948
            ]
        },
        {
            "positions": [
                0.06668413942360385,
                -0.8348120080034792,
                0.56999309741956,
                0.6987291898444916,
                -0.9374938529539893,
                -0.4907808952397116
            ]
        },
        {
            "positions": [
                0.1348419666015337,
                -0.8460313489376252,
                0.49214023942880325,
                0.5962607488608078,
                -0.8469708216952376,
                -0.5272190285022283
            ]
        },
        {
            "positions": [
                0.20299979377946342,
                -0.8572506898717712,
                0.41428738143804655,
                0.49379230787712425,
                -0.7564477904364859,
                -0.5636571617647452
            ]
        },
        {
            "positions": [
                0.27115762095739315,
                -0.8684700308059172,
                0.33643452344728986,
                0.3913238668934407,
                -0.6659247591777342,
                -0.600095295027262
            ]
        },
        {
            "positions": [
                0.3393154481353231,
                -0.8796893717400633,
                0.25858166545653316,
                0.2888554259097571,
                -0.5754017279189827,
                -0.6365334282897788
            ]
        },
        {
            "positions": [
                0.4074732753132526,
                -0.8909087126742092,
                0.18072880746577646,
                0.18638698492607375,
                -0.484878696660231,
                -0.6729715615522955
            ]
        },
        {
            "positions": [
                0.47563110249118257,
                -0.9021280536083554,
                0.10287594947501955,
                0.08391854394238996,
                -0.39435566540147926,
                -0.7094096948148124
            ]
        },
        {
            "positions": [
                0.5437889296691123,
                -0.9133473945425014,
                0.02502309148426307,
                -0.018549897041293395,
                -0.30383263414272776,
                -0.7458478280773291
            ]
        },
        {
            "positions": [
                0.6119467568470423,
                -0.9245667354766474,
                -0.05282976650649385,
                -0.12101833802497719,
                -0.21330960288397582,
                -0.782285961339846
            ]
        },
        {
            "positions": [
                0.6801045840249718,
                -0.9357860764107935,
                -0.13068262449725032,
                -0.22348677900866054,
                -0.1227865716252241,
                -0.8187240946023627
            ]
        },
        {
            "positions": [
                0.7482624112029017,
                -0.9470054173449394,
                -0.20853548248800724,
                -0.32595521999234434,
                -0.03226354036647239,
                -0.8551622278648796
            ]
        },
        {
            "positions": [
                0.8164202383808314,
                -0.9582247582790855,
                -0.28638834047876394,
                -0.4284236609760277,
                0.05825949089227933,
                -0.8916003611273964
            ]
        },
        {
            "positions": [
                0.8845780655587614,
                -0.9694440992132315,
                -0.36424119846952063,
                -0.5308921019597115,
                0.14878252215103105,
                -0.9280384943899133
            ]
        },
        {
            "positions": [
                0.9527358927366909,
                -0.9806634401473775,
                -0.44209405646027733,
                -0.6333605429433948,
                0.23930555340978232,
                -0.9644766276524299
            ]
        },
        {
            "positions": [
                1.0208937199146209,
                -0.9918827810815236,
                -0.5199469144510345,
                -0.7358289839270786,
                0.3298285846685345,
                -1.000914760914947
            ]
        },
        {
            "positions": [
                1.0890515470925506,
                -1.0031021220156695,
                -0.5977997724417907,
                -0.8382974249107624,
                0.42035161592728576,
                -1.0373528941774637
            ]
        },
        {
            "positions": [
                1.1572093742704805,
                -1.0143214629498156,
                -0.6756526304325479,
                -0.9407658658944462,
                0.5108746471860379,
                -1.0737910274399804
            ]
        },
        {
            "positions": [
                1.22536720144841,
                -1.0255408038839615,
                -0.7535054884233041,
                -1.0432343068781296,
                0.6013976784447892,
                -1.1102291607024972
            ]
        },
        {
            "positions": [
                1.29352502862634,
                -1.0367601448181076,
                -0.8313583464140613,
                -1.1457027478618134,
                0.6919207097035414,
                -1.1466672939650142
            ]
        },
        {
            "positions": [
                1.3616828558042695,
                -1.0479794857522537,
                -0.909211204404818,
                -1.2481711888454967,
                0.7824437409622926,
                -1.1831054272275308
            ]
        },
        {
            "positions": [
                1.4298406829821995,
                -1.0591988266863996,
                -0.9870640623955746,
                -1.3506396298291805,
                0.8729667722210448,
                -1.2195435604900478
            ]
        },
        {
            "positions": [
                1.4979985101601294,
                -1.0704181676205458,
                -1.0649169203863313,
                -1.4531080708128639,
                0.9634898034797961,
                -1.2559816937525645
            ]
        },
        {
            "positions": [
                1.5661563373380594,
                -1.0816375085546919,
                -1.142769778377088,
                -1.5555765117965477,
                1.0540128347385478,
                -1.2924198270150813
            ]
        },
        {
            "positions": [
                1.634314164515989,
                -1.0928568494888378,
                -1.2206226363678447,
                -1.658044952780231,
                1.1445358659972995,
                -1.328857960277598
            ]
        },
        {
            "positions": [
                1.5205502472155619,
                -1.094065322945125,
                -1.0856685466494809,
                -1.624552379177511,
                1.1163428197281113,
                -1.4034008431359961
            ]
        },
        {
            "positions": [
                1.4067863299151346,
                -1.0952737964014123,
                -0.9507144569311171,
                -1.5910598055747909,
                1.088149773458923,
                -1.4779437259943942
            ]
        },
        {
            "positions": [
                1.2930224126147074,
                -1.0964822698576995,
                -0.8157603672127534,
                -1.557567231972071,
                1.0599567271897348,
                -1.552486608852792
            ]
        },
        {
            "positions": [
                1.1792584953142804,
                -1.0976907433139869,
                -0.6808062774943895,
                -1.524074658369351,
                1.0317636809205464,
                -1.62702949171119
            ]
        },
        {
            "positions": [
                1.065494578013853,
                -1.098899216770274,
                -0.5458521877760256,
                -1.490582084766631,
                1.0035706346513582,
                -1.701572374569588
            ]
        },
        {
            "positions": [
                0.9517306607134259,
                -1.1001076902265612,
                -0.41089809805766186,
                -1.4570895111639108,
                0.9753775883821698,
                -1.776115257427986
            ]
        },
        {
            "positions": [
                0.8379667434129987,
                -1.1013161636828486,
                -0.275944008339298,
                -1.4235969375611908,
                0.9471845421129815,
                -1.850658140286384
            ]
        },
        {
            "positions": [
                0.7242028261125716,
                -1.1025246371391357,
                -0.14098991862093424,
                -1.390104363958471,
                0.9189914958437932,
                -1.925201023144782
            ]
        },
        {
            "positions": [
                0.6104389088121445,
                -1.103733110595423,
                -0.006035828902570373,
                -1.3566117903557506,
                0.8907984495746051,
                -1.99974390600318
            ]
        },
        {
            "positions": [
                0.496674991511717,
                -1.1049415840517103,
                0.1289182608157935,
                -1.3231192167530308,
                0.8626054033054167,
                -2.074286788861578
            ]
        },
        {
            "positions": [
                0.38291107421129,
                -1.1061500575079974,
                0.26387235053415714,
                -1.2896266431503107,
                0.8344123570362285,
                -2.1488296717199757
            ]
        },
        {
            "positions": [
                0.2691471569108628,
                -1.1073585309642846,
                0.398826440252521,
                -1.2561340695475907,
                0.8062193107670401,
                -2.223372554578374
            ]
        },
        {
            "positions": [
                0.15538323961043576,
                -1.108567004420572,
                0.5337805299708847,
                -1.2226414959448706,
                0.778026264497852,
                -2.297915437436772
            ]
        },
        {
            "positions": [
                0.04161932231000831,
                -1.1097754778768592,
                0.6687346196892487,
                -1.1891489223421505,
                0.7498332182286636,
                -2.37245832029517
            ]
        },
        {
            "positions": [
                -0.07214459499041892,
                -1.1109839513331465,
                0.8036887094076124,
                -1.1556563487394307,
                0.7216401719594754,
                -2.447001203153568
            ]
        },
        {
            "positions": [
                -0.18590851229084593,
                -1.1121924247894337,
                0.9386427991259763,
                -1.1221637751367106,
                0.6934471256902871,
                -2.521544086011966
            ]
        },
        {
            "positions": [
                -0.2996724295912734,
                -1.1134008982457209,
                1.0735968888443401,
                -1.0886712015339906,
                0.6652540794210988,
                -2.596086968870364
            ]
        },
        {
            "positions": [
                -0.41343634689170017,
                -1.1146093717020082,
                1.208550978562704,
                -1.0551786279312705,
                0.6370610331519105,
                -2.670629851728762
            ]
        },
        {
            "positions": [
                -0.5272002641921274,
                -1.1158178451582954,
                1.3435050682810674,
                -1.0216860543285504,
                0.6088679868827223,
                -2.74517273458716
            ]
        },
        {
            "positions": [
                -0.6409641814925551,
                -1.1170263186145828,
                1.4784591579994317,
                -0.9881934807258304,
                0.580674940613534,
                -2.819715617445558
            ]
        },
        {
            "positions": [
                -0.7547280987929819,
                -1.11823479207087,
                1.6134132477177952,
                -0.9547009071231104,
                0.5524818943443457,
                -2.8942585003039563
            ]
        },
        {
            "positions": [
                -0.8684920160934091,
                -1.1194432655271571,
                1.748367337436159,
                -0.9212083335203904,
                0.5242888480751574,
                -2.968801383162354
            ]
        },
        {
            "positions": [
                -0.9822559333938363,
                -1.1206517389834445,
                1.8833214271545229,
                -0.8877157599176703,
                0.4960958018059691,
                -3.0433442660207524
            ]
        },
        {
            "positions": [
                -1.0960198506942633,
                -1.1218602124397317,
                2.0182755168728868,
                -0.8542231863149503,
                0.46790275553678085,
                -3.11788714887915
            ]
        }
    ]
}