{
    "goal": {
        "global_pose": {
            "orientation": {
                "w": -0.00223480608172531,
                "x": 0.0024358444001904467,
                "y": 0.7094548369677653,
                "z": -0.704743149386269
            },
            "position": {
                "x": -0.37947507619857795,
                "y": -0.6371506643295288,
                "z": 0.19426114857196808
            }
        },
        "name": "move_to_magneteinheit_C"
    },
    "id": "TRRT_move_to_magneteinheit_C_104",
    "joint_names": [
        "shoulder_pan_joint",
        "shoulder_lift_joint",
        "elbow_joint",
        "wrist_1_joint",
        "wrist_2_joint",
        "wrist_3_joint"
    ],
    "metrics": {
        "cart_traj_len": 0.7413018561315436,
        "distance_elbow_joint": 0.4659067752423609,
        "distance_shoulder_lift_joint": 1.1219415545746114,
        "distance_shoulder_pan_joint": 0.8015235283032329,
        "distance_wrist_1_joint": 0.5221339486406733,
        "distance_wrist_2_joint": 0.792649407516181,
        "distance_wrist_3_joint": 0.33130020214334444,
        "smoothness": 0.9567822426241291,
        "time": 1.061962985,
        "traj_len": 2.008844298700226,
        "weighted_distance": 2.4521091282534604
    },
    "planner": "TRRT",
    "start": {
        "state": {
            "elbow_joint": 1.9565354010623817,
            "shoulder_lift_joint": -1.4165861575791021,
            "shoulder_pan_joint": -1.6717766225146293,
            "wrist_1_joint": -0.5286633292919765,
            "wrist_2_joint": 1.472756589071564,
            "wrist_3_joint": -3.1238370188695823
        }
    },
    "waypoints": [
        {
            "positions": [
                -1.6717766225146293,
                -1.4165861575791021,
                1.9565354010623817,
                -0.5286633292919765,
                1.472756589071564,
                -3.1238370188695823
            ]
        },
        {
            "positions": [
                -1.7215167069971224,
                -1.5472955474078285,
                2.0198948292613093,
                -0.4840278159540171,
                1.4574177724073647,
                -3.0697361973276602
            ]
        },
        {
            "positions": [
                -1.7712567914796153,
                -1.678004937236555,
                2.0832542574602364,
                -0.4393923026160578,
                1.4420789557431657,
                -3.015635375785738
            ]
        },
        {
            "positions": [
                -1.8610516356769724,
                -1.7356084558503764,
                2.12809625165943,
                -0.47330306087249935,
                1.3667130430666423,
                -3.000207005170124
            ]
        },
        {
            "positions": [
                -1.9508464798743297,
                -1.7932119744641979,
                2.172938245858624,
                -0.5072138191289409,
                1.2913471303901187,
                -2.98477863455451
            ]
        },
        {
            "positions": [
                -2.0406413240716867,
                -1.8508154930780192,
                2.2177802400578175,
                -0.5411245773853824,
                1.2159812177135954,
                -2.969350263938896
            ]
        },
        {
            "positions": [
                -2.1230315429459634,
                -1.7805916790770457,
                2.206887970640269,
                -0.6044404762740957,
                1.115866621396098,
                -2.9922976852929266
            ]
        },
        {
            "positions": [
                -2.2054217618202396,
                -1.7103678650760725,
                2.1959957012227207,
                -0.667756375162809,
                1.0157520250786005,
                -3.015245106646957
            ]
        },
        {
            "positions": [
                -2.2878119806945163,
                -1.640144051075099,
                2.1851034318051727,
                -0.7310722740515221,
                0.9156374287611031,
                -3.0381925280009883
            ]
        },
        {
            "positions": [
                -2.3702021995687925,
                -1.5699202370741259,
                2.1742111623876244,
                -0.7943881729402353,
                0.8155228324436056,
                -3.061139949355019
            ]
        },
        {
            "positions": [
                -2.452592418443069,
                -1.4996964230731524,
                2.163318892970076,
                -0.8577040718289486,
                0.7154082361261082,
                -3.0840873707090495
            ]
        },
        {
            "positions": [
                -2.4629462846304655,
                -1.3313998485377385,
                2.088218598390484,
                -0.8504284954530167,
                0.6977577088407456,
                -3.115125540930302
            ]
        },
        {
            "positions": [
                -2.4733001508178623,
                -1.1631032740023248,
                2.0131183038108924,
                -0.8431529190770848,
                0.680107181555383,
                -3.146163711151554
            ]
        }
    ]
}