{
    "goal": {
        "global_pose": {
            "orientation": {
                "w": -0.4816463035849501,
                "x": 0.5182115481033762,
                "y": 0.4908360881923453,
                "z": -0.5084816262002911
            },
            "position": {
                "x": -0.8240239810943604,
                "y": 0.19912469901144506,
                "z": 0.16403168439865112
            }
        },
        "name": "move_to_storage_D"
    },
    "id": "TRRT_move_to_storage_D_51",
    "joint_names": [
        "shoulder_pan_joint",
        "shoulder_lift_joint",
        "elbow_joint",
        "wrist_1_joint",
        "wrist_2_joint",
        "wrist_3_joint"
    ],
    "metrics": {
        "cart_traj_len": 0.5544461079246947,
        "distance_elbow_joint": 0.641353512056779,
        "distance_shoulder_lift_joint": 0.1552344225713993,
        "distance_shoulder_pan_joint": 0.14824309132588848,
        "distance_wrist_1_joint": 3.9989905826331427,
        "distance_wrist_2_joint": 1.792433732052479,
        "distance_wrist_3_joint": 3.1541307924425444,
        "smoothness": 0.24561988255392994,
        "time": 0.069247615,
        "traj_len": 3.144898429692481,
        "weighted_distance": 4.689357315523413
    },
    "planner": "TRRT",
    "start": {
        "state": {
            "elbow_joint": -2.384821988534728,
            "shoulder_lift_joint": -2.2788054721415256,
            "shoulder_pan_joint": -0.1854694642142757,
            "wrist_1_joint": 1.4845938289331202,
            "wrist_2_joint": 0.17898776772866878,
            "wrist_3_joint": 0.037105688729662994
        }
    },
    "waypoints": [
        {
            "positions": [
                -0.1854694642142757,
                -2.2788054721415256,
                -2.384821988534728,
                1.4845938289331202,
                0.17898776772866878,
                0.037105688729662994
            ]
        },
        {
            "positions": [
                -0.11402005325030357,
                -2.279889965842856,
                -2.4060072903070084,
                1.52833507635208,
                0.10737694641294111,
                0.11606160556987032
            ]
        },
        {
            "positions": [
                -0.04257064228633142,
                -2.280974459544187,
                -2.4271925920792885,
                1.5720763237710398,
                0.03576612509721344,
                0.19501752241007764
            ]
        },
        {
            "positions": [
                -0.04234796439475041,
                -2.2745967330788233,
                -2.4022349708912794,
                1.4090968201129055,
                -0.032951045295329204,
                0.3198599790251664
            ]
        },
        {
            "positions": [
                -0.0421252865031694,
                -2.268219006613459,
                -2.37727734970327,
                1.2461173164547712,
                -0.10166821568787185,
                0.44470243564025513
            ]
        },
        {
            "positions": [
                -0.041902608611588385,
                -2.261841280148095,
                -2.352319728515261,
                1.083137812796637,
                -0.1703853860804145,
                0.5695448922553439
            ]
        },
        {
            "positions": [
                -0.04167993072000738,
                -2.255463553682731,
                -2.327362107327252,
                0.9201583091385026,
                -0.23910255647295714,
                0.6943873488704326
            ]
        },
        {
            "positions": [
                -0.04145725282842636,
                -2.249085827217367,
                -2.3024044861392428,
                0.7571788054803682,
                -0.3078197268654998,
                0.8192298054855214
            ]
        },
        {
            "positions": [
                -0.04123457493684535,
                -2.2427081007520027,
                -2.277446864951234,
                0.5941993018222339,
                -0.37653689725804246,
                0.9440722621006101
            ]
        },
        {
            "positions": [
                -0.04101189704526434,
                -2.2363303742866387,
                -2.252489243763225,
                0.4312197981640995,
                -0.4452540676505851,
                1.0689147187156989
            ]
        },
        {
            "positions": [
                -0.040789219153683325,
                -2.229952647821275,
                -2.2275316225752158,
                0.2682402945059654,
                -0.5139712380431277,
                1.1937571753307876
            ]
        },
        {
            "positions": [
                -0.04056654126210232,
                -2.2235749213559104,
                -2.2025740013872066,
                0.10526079084783091,
                -0.5826884084356704,
                1.3185996319458764
            ]
        },
        {
            "positions": [
                -0.0403438633705213,
                -2.2171971948905465,
                -2.1776163801991975,
                -0.057718712810303385,
                -0.651405578828213,
                1.4434420885609651
            ]
        },
        {
            "positions": [
                -0.040121185478940294,
                -2.2108194684251825,
                -2.1526587590111883,
                -0.22069821646843768,
                -0.7201227492207557,
                1.5682845451760539
            ]
        },
        {
            "positions": [
                -0.03989850758735928,
                -2.204441741959818,
                -2.127701137823179,
                -0.383677720126572,
                -0.7888399196132984,
                1.6931270017911426
            ]
        },
        {
            "positions": [
                -0.039675829695778264,
                -2.198064015494454,
                -2.10274351663517,
                -0.546657223784706,
                -0.8575570900058409,
                1.8179694584062314
            ]
        },
        {
            "positions": [
                -0.039453151804197256,
                -2.1916862890290902,
                -2.077785895447161,
                -0.7096367274428408,
                -0.9262742603983837,
                1.9428119150213201
            ]
        },
        {
            "positions": [
                -0.03923047391261624,
                -2.1853085625637263,
                -2.052828274259152,
                -0.8726162311009751,
                -0.9949914307909262,
                2.067654371636409
            ]
        },
        {
            "positions": [
                -0.03900779602103523,
                -2.178930836098362,
                -2.027870653071143,
                -1.035595734759109,
                -1.0637086011834689,
                2.192496828251498
            ]
        },
        {
            "positions": [
                -0.03878511812945422,
                -2.172553109632998,
                -2.002913031883134,
                -1.1985752384172437,
                -1.1324257715760118,
                2.317339284866587
            ]
        },
        {
            "positions": [
                -0.03856244023787321,
                -2.166175383167634,
                -1.9779554106951247,
                -1.361554742075378,
                -1.2011429419685542,
                2.442181741481675
            ]
        },
        {
            "positions": [
                -0.038339762346292196,
                -2.1597976567022696,
                -1.9529977895071156,
                -1.5245342457335118,
                -1.2698601123610969,
                2.567024198096764
            ]
        },
        {
            "positions": [
                -0.03811708445471118,
                -2.1534199302369057,
                -1.9280401683191064,
                -1.6875137493916466,
                -1.3385772827536395,
                2.691866654711853
            ]
        },
        {
            "positions": [
                -0.03789440656313017,
                -2.1470422037715418,
                -1.9030825471310973,
                -1.8504932530497809,
                -1.4072944531461822,
                2.816709111326942
            ]
        },
        {
            "positions": [
                -0.03767172867154916,
                -2.140664477306178,
                -1.878124925943088,
                -2.013472756707915,
                -1.4760116235387248,
                2.94155156794203
            ]
        },
        {
            "positions": [
                -0.03744905077996814,
                -2.1342867508408134,
                -1.853167304755079,
                -2.1764522603660494,
                -1.5447287939312675,
                3.066394024557119
            ]
        },
        {
            "positions": [
                -0.037226372888387135,
                -2.1279090243754495,
                -1.82820968356707,
                -2.3394317640241837,
                -1.6134459643238102,
                3.1912364811722074
            ]
        }
    ]
}