{
    "goal": {
        "global_pose": {
            "orientation": {
                "w": -0.4816463035849501,
                "x": 0.5182115481033762,
                "y": 0.4908360881923453,
                "z": -0.5084816262002911
            },
            "position": {
                "x": -0.8240239810943604,
                "y": 0.19912469901144506,
                "z": 0.16403168439865112
            }
        },
        "name": "move_to_storage_D"
    },
    "id": "TRRT_move_to_storage_D_64",
    "joint_names": [
        "shoulder_pan_joint",
        "shoulder_lift_joint",
        "elbow_joint",
        "wrist_1_joint",
        "wrist_2_joint",
        "wrist_3_joint"
    ],
    "metrics": {
        "cart_traj_len": 3.478604342143965,
        "distance_elbow_joint": 4.212191387829455,
        "distance_shoulder_lift_joint": 1.2634948416604241,
        "distance_shoulder_pan_joint": 2.811931742219556,
        "distance_wrist_1_joint": 2.2612030069937985,
        "distance_wrist_2_joint": 0.8879061554587921,
        "distance_wrist_3_joint": 3.1524328911865918,
        "smoothness": 0.04320611132778389,
        "time": 4.274638519,
        "traj_len": 3.819575896005814,
        "weighted_distance": 4.903379953682398
    },
    "planner": "TRRT",
    "start": {
        "state": {
            "elbow_joint": -2.384821988534728,
            "shoulder_lift_joint": -2.2788054721415256,
            "shoulder_pan_joint": -0.1854694642142757,
            "wrist_1_joint": 1.4845938289331202,
            "wrist_2_joint": 0.17898776772866878,
            "wrist_3_joint": 0.037105688729662994
        }
    },
    "waypoints": [
        {
            "positions": [
                -0.1854694642142757,
                -2.2788054721415256,
                -2.384821988534728,
                1.4845938289331202,
                0.17898776772866878,
                0.037105688729662994
            ]
        },
        {
            "positions": [
                -0.16461810980401337,
                -2.2469442990235455,
                -2.3862489628387666,
                1.4835249947144797,
                0.17047045279623782,
                0.05352865099174793
            ]
        },
        {
            "positions": [
                -0.07213282823849317,
                -2.214165311147809,
                -2.253319518025329,
                1.441007962555924,
                0.17607002529454607,
                0.1354349260492285
            ]
        },
        {
            "positions": [
                0.020352453327027037,
                -2.1813863232720716,
                -2.1203900732118917,
                1.3984909303973683,
                0.1816695977928543,
                0.21734120110670907
            ]
        },
        {
            "positions": [
                0.11283773489254723,
                -2.148607335396335,
                -1.9874606283984542,
                1.3559738982388125,
                0.18726917029116255,
                0.2992474761641896
            ]
        },
        {
            "positions": [
                0.20532301645806744,
                -2.1158283475205977,
                -1.854531183585017,
                1.3134568660802568,
                0.19286874278947078,
                0.38115375122167017
            ]
        },
        {
            "positions": [
                0.2978082980235876,
                -2.083049359644861,
                -1.7216017387715794,
                1.2709398339217008,
                0.19846831528777903,
                0.4630600262791507
            ]
        },
        {
            "positions": [
                0.3902935795891078,
                -2.050270371769124,
                -1.588672293958142,
                1.2284228017631451,
                0.20406788778608725,
                0.5449663013366314
            ]
        },
        {
            "positions": [
                0.4827788611546281,
                -2.017491383893387,
                -1.4557428491447044,
                1.1859057696045894,
                0.2096674602843955,
                0.626872576394112
            ]
        },
        {
            "positions": [
                0.5752641427201483,
                -1.9847123960176503,
                -1.3228134043312672,
                1.1433887374460336,
                0.21526703278270376,
                0.7087788514515925
            ]
        },
        {
            "positions": [
                0.6677494242856684,
                -1.9519334081419133,
                -1.1898839595178294,
                1.100871705287478,
                0.22086660528101199,
                0.7906851265090731
            ]
        },
        {
            "positions": [
                0.7602347058511886,
                -1.9191544202661766,
                -1.0569545147043922,
                1.0583546731289222,
                0.2264661777793202,
                0.8725914015665536
            ]
        },
        {
            "positions": [
                0.8527199874167088,
                -1.8863754323904396,
                -0.9240250698909547,
                1.0158376409703664,
                0.23206575027762846,
                0.9544976766240342
            ]
        },
        {
            "positions": [
                0.945205268982229,
                -1.8535964445147026,
                -0.7910956250775172,
                0.9733206088118106,
                0.23766532277593672,
                1.0364039516815147
            ]
        },
        {
            "positions": [
                1.0376905505477492,
                -1.8208174566389657,
                -0.6581661802640799,
                0.9308035766532549,
                0.24326489527424494,
                1.118310226738995
            ]
        },
        {
            "positions": [
                1.1301758321132696,
                -1.788038468763229,
                -0.5252367354506422,
                0.888286544494699,
                0.2488644677725532,
                1.2002165017964759
            ]
        },
        {
            "positions": [
                1.2226611136787897,
                -1.755259480887492,
                -0.3923072906372047,
                0.8457695123361433,
                0.25446404027086145,
                1.2821227768539563
            ]
        },
        {
            "positions": [
                1.3151463952443099,
                -1.722480493011755,
                -0.25937784582376766,
                0.8032524801775875,
                0.26006361276916967,
                1.3640290519114369
            ]
        },
        {
            "positions": [
                1.4076316768098298,
                -1.6897015051360182,
                -0.12644840101033017,
                0.7607354480190318,
                0.2656631852674779,
                1.4459353269689175
            ]
        },
        {
            "positions": [
                1.5001169583753502,
                -1.656922517260281,
                0.006481043803107767,
                0.718218415860476,
                0.2712627577657862,
                1.527841602026398
            ]
        },
        {
            "positions": [
                1.5926022399408704,
                -1.6241435293845443,
                0.13941048861654481,
                0.6757013837019202,
                0.2768623302640944,
                1.6097478770838787
            ]
        },
        {
            "positions": [
                1.6850875215063905,
                -1.5913645415088076,
                0.2723399334299823,
                0.6331843515433645,
                0.28246190276240263,
                1.691654152141359
            ]
        },
        {
            "positions": [
                1.7775728030719107,
                -1.5585855536330704,
                0.4052693782434198,
                0.5906673193848088,
                0.28806147526071085,
                1.7735604271988397
            ]
        },
        {
            "positions": [
                1.870058084637431,
                -1.5258065657573336,
                0.5381988230568573,
                0.5481502872262529,
                0.29366104775901913,
                1.8554667022563203
            ]
        },
        {
            "positions": [
                1.9625433662029514,
                -1.4930275778815967,
                0.6711282678702946,
                0.5056332550676972,
                0.29926062025732736,
                1.9373729773138009
            ]
        },
        {
            "positions": [
                2.0068046269897732,
                -1.4611797813882303,
                0.7480207467247183,
                0.42015042619247217,
                0.34930053179501214,
                2.0208506841539644
            ]
        },
        {
            "positions": [
                2.0510658877765953,
                -1.429331984894864,
                0.824913225579142,
                0.33466759731724716,
                0.3993404433326969,
                2.104328390994128
            ]
        },
        {
            "positions": [
                2.0953271485634173,
                -1.3974841884014977,
                0.9018057044335658,
                0.24918476844202214,
                0.4493803548703817,
                2.1878060978342915
            ]
        },
        {
            "positions": [
                2.1395884093502393,
                -1.3656363919081314,
                0.9786981832879895,
                0.16370193956679718,
                0.49942026640806647,
                2.271283804674455
            ]
        },
        {
            "positions": [
                2.183849670137061,
                -1.333788595414765,
                1.0555906621424134,
                0.07821911069157217,
                0.5494601779457512,
                2.3547615115146185
            ]
        },
        {
            "positions": [
                2.228110930923883,
                -1.3019407989213985,
                1.132483140996837,
                -0.007263718183652901,
                0.599500089483436,
                2.4382392183547825
            ]
        },
        {
            "positions": [
                2.272372191710705,
                -1.2700930024280321,
                1.2093756198512609,
                -0.09274654705887786,
                0.6495400010211207,
                2.521716925194946
            ]
        },
        {
            "positions": [
                2.316633452497527,
                -1.2382452059346658,
                1.2862680987056845,
                -0.17822937593410282,
                0.6995799125588056,
                2.6051946320351096
            ]
        },
        {
            "positions": [
                2.3608947132843485,
                -1.2063974094412995,
                1.3631605775601083,
                -0.2637122048093278,
                0.7496198240964903,
                2.688672338875273
            ]
        },
        {
            "positions": [
                2.4051559740711705,
                -1.1745496129479331,
                1.440053056414532,
                -0.34919503368455285,
                0.799659735634175,
                2.7721500457154367
            ]
        },
        {
            "positions": [
                2.4494172348579926,
                -1.1427018164545668,
                1.5169455352689556,
                -0.4346778625597778,
                0.8496996471718599,
                2.8556277525556
            ]
        },
        {
            "positions": [
                2.4936784956448146,
                -1.1108540199612005,
                1.5938380141233797,
                -0.520160691435003,
                0.8997395587095447,
                2.9391054593957637
            ]
        },
        {
            "positions": [
                2.537939756431636,
                -1.0790062234678341,
                1.6707304929778033,
                -0.605643520310228,
                0.9497794702472294,
                3.0225831662359273
            ]
        },
        {
            "positions": [
                2.582201017218458,
                -1.0471584269744678,
                1.7476229718322271,
                -0.6911263491854529,
                0.9998193817849143,
                3.106060873076091
            ]
        },
        {
            "positions": [
                2.62646227800528,
                -1.0153106304811015,
                1.8245154506866508,
                -0.776609178060678,
                1.049859293322599,
                3.1895385799162543
            ]
        }
    ]
}