{
    "goal": {
        "global_pose": {
            "orientation": {
                "w": -0.00223480608172531,
                "x": 0.0024358444001904467,
                "y": 0.7094548369677653,
                "z": -0.704743149386269
            },
            "position": {
                "x": 0.6205249238014221,
                "y": -0.6371506643295288,
                "z": 0.19426114857196808
            }
        },
        "name": "move_to_magneteinheit_B"
    },
    "id": "TRRT_move_to_magneteinheit_B_103",
    "joint_names": [
        "shoulder_pan_joint",
        "shoulder_lift_joint",
        "elbow_joint",
        "wrist_1_joint",
        "wrist_2_joint",
        "wrist_3_joint"
    ],
    "metrics": {
        "cart_traj_len": 1.4709050257026997,
        "distance_elbow_joint": 0.957673792922427,
        "distance_shoulder_lift_joint": 0.7579029605527157,
        "distance_shoulder_pan_joint": 1.621949087582658,
        "distance_wrist_1_joint": 1.1835092994397214,
        "distance_wrist_2_joint": 1.5139346110049654,
        "distance_wrist_3_joint": 0.02809208011563786,
        "smoothness": 0.29178448450770317,
        "time": 0.056012527,
        "traj_len": 2.4623285385216422,
        "weighted_distance": 2.969291144750559
    },
    "planner": "TRRT",
    "start": {
        "state": {
            "elbow_joint": 2.6216224122426386,
            "shoulder_lift_joint": -1.4174107377796124,
            "shoulder_pan_joint": 0.7066234856936794,
            "wrist_1_joint": 1.9546482284002225,
            "wrist_2_joint": -0.7096286983471962,
            "wrist_3_joint": 0.005740856962016249
        }
    },
    "waypoints": [
        {
            "positions": [
                0.7066234856936794,
                -1.4174107377796124,
                2.6216224122426386,
                1.9546482284002225,
                -0.7096286983471962,
                0.005740856962016249
            ]
        },
        {
            "positions": [
                0.6395873399502914,
                -1.3543448098428372,
                2.5945699520611356,
                1.8291153650980903,
                -0.7342348527691032,
                0.007122506795162711
            ]
        },
        {
            "positions": [
                0.5725511942069034,
                -1.291278881906062,
                2.567517491879632,
                1.703582501795958,
                -0.75884100719101,
                0.008504156628309171
            ]
        },
        {
            "positions": [
                0.5055150484635154,
                -1.228212953969287,
                2.5404650316981288,
                1.578049638493826,
                -0.7834471616129168,
                0.009885806461455633
            ]
        },
        {
            "positions": [
                0.4384789027201274,
                -1.1651470260325119,
                2.513412571516626,
                1.4525167751916939,
                -0.8080533160348238,
                0.011267456294602095
            ]
        },
        {
            "positions": [
                0.3343400946732731,
                -1.1262516992013107,
                2.44806919057844,
                1.5049304556710164,
                -0.9169387001361575,
                0.00953165008052117
            ]
        },
        {
            "positions": [
                0.23020128662641878,
                -1.0873563723701096,
                2.382725809640254,
                1.5573441361503388,
                -1.0258240842374913,
                0.007795843866440246
            ]
        },
        {
            "positions": [
                0.12606247857956443,
                -1.0484610455389083,
                2.317382428702069,
                1.6097578166296613,
                -1.1347094683388248,
                0.006060037652359323
            ]
        },
        {
            "positions": [
                0.02192367053271016,
                -1.0095657187077072,
                2.252039047763883,
                1.662171497108984,
                -1.2435948524401585,
                0.004324231438278398
            ]
        },
        {
            "positions": [
                -0.08221513751414417,
                -0.9706703918765061,
                2.186695666825697,
                1.7145851775883065,
                -1.352480236541492,
                0.002588425224197475
            ]
        },
        {
            "positions": [
                -0.18635394556099855,
                -0.9317750650453048,
                2.1213522858875113,
                1.766998858067629,
                -1.4613656206428258,
                0.0008526190101165506
            ]
        },
        {
            "positions": [
                -0.2904927536078527,
                -0.8928797382141037,
                2.056008904949326,
                1.8194125385469515,
                -1.5702510047441596,
                -0.000883187203964372
            ]
        },
        {
            "positions": [
                -0.3946315616547071,
                -0.8539844113829025,
                1.9906655240111402,
                1.871826219026274,
                -1.6791363888454933,
                -0.002618993418045298
            ]
        },
        {
            "positions": [
                -0.49877036970156136,
                -0.8150890845517014,
                1.9253221430729544,
                1.9242398995055965,
                -1.7880217729468268,
                -0.004354799632126221
            ]
        },
        {
            "positions": [
                -0.6029091777484157,
                -0.7761937577205001,
                1.8599787621347685,
                1.976653579984919,
                -1.8969071570481606,
                -0.006090605846207145
            ]
        },
        {
            "positions": [
                -0.7070479857952701,
                -0.737298430889299,
                1.794635381196583,
                2.0290672604642417,
                -2.0057925411494946,
                -0.007826412060288068
            ]
        },
        {
            "positions": [
                -0.8111867938421244,
                -0.6984031040580978,
                1.7292920002583974,
                2.081480940943564,
                -2.1146779252508283,
                -0.009562218274368994
            ]
        },
        {
            "positions": [
                -0.9153256018889786,
                -0.6595077772268967,
                1.6639486193202115,
                2.1338946214228867,
                -2.2235633093521616,
                -0.011298024488449916
            ]
        }
    ]
}