{
    "goal": {
        "global_pose": {
            "orientation": {
                "w": 0.005598929693374612,
                "x": 0.007748599140229565,
                "y": 0.7110244013736278,
                "z": -0.7031023480610252
            },
            "position": {
                "x": -0.8858502320852131,
                "y": -0.7141253447532654,
                "z": 0.3711530566215515
            }
        },
        "name": "move_to_auspresseinheit_C"
    },
    "id": "TRRT_move_to_auspresseinheit_C_60",
    "joint_names": [
        "shoulder_pan_joint",
        "shoulder_lift_joint",
        "elbow_joint",
        "wrist_1_joint",
        "wrist_2_joint",
        "wrist_3_joint"
    ],
    "metrics": {
        "cart_traj_len": 0.4924392473230559,
        "distance_elbow_joint": 0.9907618372866748,
        "distance_shoulder_lift_joint": 0.3204588735096765,
        "distance_shoulder_pan_joint": 0.2565350230226695,
        "distance_wrist_1_joint": 0.6631666053766065,
        "distance_wrist_2_joint": 1.307900014742723,
        "distance_wrist_3_joint": 0.05127133089259095,
        "smoothness": 6.45947944157498e-16,
        "time": 0.312676501,
        "traj_len": 1.894754254469677,
        "weighted_distance": 2.3798535599350337
    },
    "planner": "TRRT",
    "start": {
        "state": {
            "elbow_joint": 1.7527959577737207,
            "shoulder_lift_joint": -0.9740617694225068,
            "shoulder_pan_joint": -2.967991417825858,
            "wrist_1_joint": -0.759517768980727,
            "wrist_2_joint": 1.7443932448377408,
            "wrist_3_joint": -3.0840537646736568
        }
    },
    "waypoints": [
        {
            "positions": [
                -2.967991417825858,
                -0.9740617694225068,
                1.7527959577737207,
                -0.759517768980727,
                1.7443932448377408,
                -3.0840537646736568
            ]
        },
        {
            "positions": [
                -2.942337915523591,
                -0.9420158820715391,
                1.653719774045053,
                -0.6932011084430664,
                1.6136032433634686,
                -3.089180897762916
            ]
        },
        {
            "positions": [
                -2.916684413221324,
                -0.9099699947205715,
                1.5546435903163858,
                -0.6268844479054057,
                1.4828132418891962,
                -3.094308030852175
            ]
        },
        {
            "positions": [
                -2.8910309109190573,
                -0.8779241073696038,
                1.4555674065877182,
                -0.560567787367745,
                1.352023240414924,
                -3.099435163941434
            ]
        },
        {
            "positions": [
                -2.8653774086167902,
                -0.8458782200186361,
                1.3564912228590507,
                -0.4942511268300844,
                1.2212332389406515,
                -3.104562297030693
            ]
        },
        {
            "positions": [
                -2.839723906314523,
                -0.8138323326676685,
                1.2574150391303833,
                -0.4279344662924237,
                1.0904432374663793,
                -3.1096894301199525
            ]
        },
        {
            "positions": [
                -2.814070404012256,
                -0.7817864453167009,
                1.1583388554017158,
                -0.36161780575476304,
                0.959653235992107,
                -3.1148165632092115
            ]
        },
        {
            "positions": [
                -2.788416901709989,
                -0.7497405579657332,
                1.0592626716730482,
                -0.29530114521710243,
                0.8288632345178347,
                -3.1199436962984706
            ]
        },
        {
            "positions": [
                -2.7627633994077225,
                -0.7176946706147656,
                0.9601864879443808,
                -0.22898448467944177,
                0.6980732330435624,
                -3.1250708293877296
            ]
        },
        {
            "positions": [
                -2.7371098971054555,
                -0.6856487832637979,
                0.8611103042157133,
                -0.16266782414178105,
                0.56728323156929,
                -3.1301979624769887
            ]
        },
        {
            "positions": [
                -2.7114563948031885,
                -0.6536028959128303,
                0.7620341204870459,
                -0.09635116360412041,
                0.43649323009501784,
                -3.1353250955662477
            ]
        }
    ]
}