{
    "goal": {
        "global_pose": {
            "orientation": {
                "w": -0.4816463035849501,
                "x": 0.5182115481033762,
                "y": 0.4908360881923453,
                "z": -0.5084816262002911
            },
            "position": {
                "x": -0.8240239810943604,
                "y": 0.19912469901144506,
                "z": 0.16403168439865112
            }
        },
        "name": "move_to_storage_D"
    },
    "id": "TRRT_move_to_storage_D_62",
    "joint_names": [
        "shoulder_pan_joint",
        "shoulder_lift_joint",
        "elbow_joint",
        "wrist_1_joint",
        "wrist_2_joint",
        "wrist_3_joint"
    ],
    "metrics": {
        "cart_traj_len": 3.876725293730998,
        "distance_elbow_joint": 4.790604297672406,
        "distance_shoulder_lift_joint": 1.2631388507192165,
        "distance_shoulder_pan_joint": 3.510037833659342,
        "distance_wrist_1_joint": 3.9940341900716656,
        "distance_wrist_2_joint": 2.3791962958698036,
        "distance_wrist_3_joint": 5.21885914067869,
        "smoothness": 0.25926796391772444,
        "time": 0.965231704,
        "traj_len": 4.59955113121608,
        "weighted_distance": 6.161722111225883
    },
    "planner": "TRRT",
    "start": {
        "state": {
            "elbow_joint": -2.384821988534728,
            "shoulder_lift_joint": -2.2788054721415256,
            "shoulder_pan_joint": -0.1854694642142757,
            "wrist_1_joint": 1.4845938289331202,
            "wrist_2_joint": 0.17898776772866878,
            "wrist_3_joint": 0.037105688729662994
        }
    },
    "waypoints": [
        {
            "positions": [
                -0.1854694642142757,
                -2.2788054721415256,
                -2.384821988534728,
                1.4845938289331202,
                0.17898776772866878,
                0.037105688729662994
            ]
        },
        {
            "positions": [
                -0.15857793067042342,
                -2.219735090983078,
                -2.3717366496943493,
                1.4511057395730678,
                0.14424061160470839,
                -0.018230749402014752
            ]
        },
        {
            "positions": [
                -0.06357950628924322,
                -2.2046815584681165,
                -2.2356793376399082,
                1.356931219346114,
                0.12269126377102801,
                0.013303759599468612
            ]
        },
        {
            "positions": [
                0.031418918091936976,
                -2.1896280259531546,
                -2.0996220255854667,
                1.2627566991191603,
                0.10114191593734763,
                0.044838268600951976
            ]
        },
        {
            "positions": [
                0.1264173424731172,
                -2.174574493438193,
                -1.9635647135310255,
                1.1685821788922064,
                0.07959256810366726,
                0.07637277760243535
            ]
        },
        {
            "positions": [
                0.22141576685429737,
                -2.1595209609232313,
                -1.8275074014765842,
                1.0744076586652527,
                0.05804322026998687,
                0.10790728660391871
            ]
        },
        {
            "positions": [
                0.3164141912354776,
                -2.14446742840827,
                -1.691450089422143,
                0.980233138438299,
                0.0364938724363065,
                0.13944179560540207
            ]
        },
        {
            "positions": [
                0.4114126156166578,
                -2.129413895893308,
                -1.5553927773677017,
                0.8860586182113451,
                0.01494452460262613,
                0.17097630460688545
            ]
        },
        {
            "positions": [
                0.5064110399978381,
                -2.1143603633783465,
                -1.4193354653132604,
                0.7918840979843913,
                -0.006604823231054269,
                0.2025108136083688
            ]
        },
        {
            "positions": [
                0.6014094643790182,
                -2.0993068308633847,
                -1.283278153258819,
                0.6977095777574376,
                -0.02815417106473464,
                0.23404532260985217
            ]
        },
        {
            "positions": [
                0.6964078887601983,
                -2.084253298348423,
                -1.147220841204378,
                0.6035350575304839,
                -0.04970351889841498,
                0.2655798316113355
            ]
        },
        {
            "positions": [
                0.7914063131413787,
                -2.0691997658334618,
                -1.0111635291499366,
                0.50936053730353,
                -0.07125286673209538,
                0.2971143406128189
            ]
        },
        {
            "positions": [
                0.8864047375225588,
                -2.0541462333185,
                -0.8751062170954955,
                0.41518601707657643,
                -0.09280221456577575,
                0.32864884961430224
            ]
        },
        {
            "positions": [
                0.9814031619037391,
                -2.0390927008035384,
                -0.739048905041054,
                0.3210114968496225,
                -0.11435156239945612,
                0.36018335861578565
            ]
        },
        {
            "positions": [
                1.0764015862849192,
                -2.0240391682885766,
                -0.602991592986613,
                0.22683697662266877,
                -0.13590091023313652,
                0.39171786761726896
            ]
        },
        {
            "positions": [
                1.1714000106660996,
                -2.008985635773615,
                -0.4669342809321715,
                0.13266245639571483,
                -0.15745025806681692,
                0.42325237661875237
            ]
        },
        {
            "positions": [
                1.2663984350472797,
                -1.9939321032586534,
                -0.33087696887773044,
                0.03848793616876134,
                -0.17899960590049727,
                0.4547868856202357
            ]
        },
        {
            "positions": [
                1.3613968594284598,
                -1.9788785707436918,
                -0.19481965682328894,
                -0.0556865840581926,
                -0.20054895373417767,
                0.4863213946217191
            ]
        },
        {
            "positions": [
                1.4563952838096401,
                -1.9638250382287301,
                -0.058762344768847896,
                -0.14986110428514632,
                -0.222098301567858,
                0.5178559036232024
            ]
        },
        {
            "positions": [
                1.5513937081908202,
                -1.9487715057137684,
                0.07729496728559315,
                -0.24403562451210004,
                -0.24364764940153835,
                0.5493904126246858
            ]
        },
        {
            "positions": [
                1.6463921325720006,
                -1.9337179731988068,
                0.2133522793400351,
                -0.338210144739054,
                -0.26519699723521883,
                0.5809249216261693
            ]
        },
        {
            "positions": [
                1.7413905569531807,
                -1.9186644406838451,
                0.34940959139447614,
                -0.4323846649660077,
                -0.2867463450688992,
                0.6124594306276525
            ]
        },
        {
            "positions": [
                1.8363889813343608,
                -1.9036109081688837,
                0.4854669034489172,
                -0.5265591851929614,
                -0.3082956929025795,
                0.6439939396291359
            ]
        },
        {
            "positions": [
                1.931387405715541,
                -1.888557375653922,
                0.6215242155033582,
                -0.6207337054199149,
                -0.32984504073625986,
                0.6755284486306192
            ]
        },
        {
            "positions": [
                2.026385830096721,
                -1.8735038431389603,
                0.7575815275578002,
                -0.7149082256468691,
                -0.3513943885699403,
                0.7070629576321027
            ]
        },
        {
            "positions": [
                2.1213842544779014,
                -1.8584503106239987,
                0.8936388396122412,
                -0.8090827458738228,
                -0.37294373640362066,
                0.738597466633586
            ]
        },
        {
            "positions": [
                2.2163826788590812,
                -1.843396778109037,
                1.0296961516666823,
                -0.9032572661007765,
                -0.3944930842373011,
                0.7701319756350693
            ]
        },
        {
            "positions": [
                2.3113811032402616,
                -1.8283432455940754,
                1.1657534637211233,
                -0.9974317863277302,
                -0.41604243207098146,
                0.8016664846365527
            ]
        },
        {
            "positions": [
                2.406379527621442,
                -1.8132897130791137,
                1.3018107757755653,
                -1.0916063065546844,
                -0.4375917799046619,
                0.8332009936380361
            ]
        },
        {
            "positions": [
                2.5013779520026223,
                -1.798236180564152,
                1.4378680878300063,
                -1.185780826781638,
                -0.45914112773834226,
                0.8647355026395195
            ]
        },
        {
            "positions": [
                2.596376376383802,
                -1.7831826480491904,
                1.5739253998844474,
                -1.2799553470085914,
                -0.4806904755720226,
                0.8962700116410028
            ]
        },
        {
            "positions": [
                2.6913748007649825,
                -1.768129115534229,
                1.7099827119388884,
                -1.374129867235545,
                -0.502239823405703,
                0.9278045206424862
            ]
        },
        {
            "positions": [
                2.786373225146163,
                -1.7530755830192672,
                1.8460400239933303,
                -1.4683043874624992,
                -0.5237891712393834,
                0.9593390296439696
            ]
        },
        {
            "positions": [
                2.8813716495273427,
                -1.7380220505043056,
                1.9820973360477714,
                -1.562478907689453,
                -0.5453385190730637,
                0.9908735386454529
            ]
        },
        {
            "positions": [
                2.976370073908523,
                -1.722968517989344,
                2.1181546481022124,
                -1.656653427916407,
                -0.5668878669067441,
                1.0224080476469362
            ]
        },
        {
            "positions": [
                2.9597892026924972,
                -1.6892874752956757,
                2.1044580928148098,
                -1.6160445263344003,
                -0.4891106925622493,
                0.8260802426232189
            ]
        },
        {
            "positions": [
                2.9432083314764714,
                -1.6556064326020072,
                2.090761537527407,
                -1.5754356247523937,
                -0.41133351821775455,
                0.6297524375995016
            ]
        },
        {
            "positions": [
                2.9266274602604456,
                -1.621925389908339,
                2.0770649822400045,
                -1.5348267231703872,
                -0.3335563438732598,
                0.43342463257578445
            ]
        },
        {
            "positions": [
                2.9100465890444194,
                -1.5882443472146706,
                2.063368426952602,
                -1.4942178215883808,
                -0.255779169528765,
                0.23709682755206718
            ]
        },
        {
            "positions": [
                2.8934657178283936,
                -1.5545633045210023,
                2.0496718716651987,
                -1.4536089200063742,
                -0.17800199518427023,
                0.04076902252835002
            ]
        },
        {
            "positions": [
                2.8768848466123678,
                -1.5208822618273339,
                2.035975316377796,
                -1.4130000184243676,
                -0.10022482083977546,
                -0.15555878249536725
            ]
        },
        {
            "positions": [
                2.860303975396342,
                -1.4872012191336657,
                2.0222787610903934,
                -1.372391116842361,
                -0.02244764649528075,
                -0.3518865875190844
            ]
        },
        {
            "positions": [
                2.843723104180316,
                -1.4535201764399974,
                2.0085822058029907,
                -1.3317822152603545,
                0.05532952784921408,
                -0.5482143925428018
            ]
        },
        {
            "positions": [
                2.8271422329642903,
                -1.419839133746329,
                1.994885650515588,
                -1.2911733136783479,
                0.1331067021937088,
                -0.744542197566519
            ]
        },
        {
            "positions": [
                2.8105613617482645,
                -1.3861580910526607,
                1.9811890952281854,
                -1.2505644120963413,
                0.21088387653820362,
                -0.9408700025902361
            ]
        },
        {
            "positions": [
                2.7939804905322383,
                -1.3524770483589923,
                1.9674925399407825,
                -1.2099555105143347,
                0.28866105088269844,
                -1.1371978076139535
            ]
        },
        {
            "positions": [
                2.7773996193162125,
                -1.318796005665324,
                1.95379598465338,
                -1.1693466089323281,
                0.36643822522719316,
                -1.3335256126376707
            ]
        },
        {
            "positions": [
                2.7608187481001867,
                -1.2851149629716556,
                1.9400994293659772,
                -1.1287377073503215,
                0.444215399571688,
                -1.5298534176613883
            ]
        },
        {
            "positions": [
                2.744237876884161,
                -1.2514339202779874,
                1.9264028740785746,
                -1.0881288057683152,
                0.5219925739161826,
                -1.726181222685105
            ]
        },
        {
            "positions": [
                2.727657005668135,
                -1.217752877584319,
                1.9127063187911717,
                -1.0475199041863084,
                0.5997697482606776,
                -1.9225090277088226
            ]
        },
        {
            "positions": [
                2.7110761344521093,
                -1.1840718348906507,
                1.899009763503769,
                -1.006911002604302,
                0.6775469226051722,
                -2.1188368327325398
            ]
        },
        {
            "positions": [
                2.6944952632360835,
                -1.1503907921969825,
                1.8853132082163664,
                -0.9663021010222954,
                0.7553240969496671,
                -2.315164637756257
            ]
        },
        {
            "positions": [
                2.6779143920200577,
                -1.1167097495033143,
                1.8716166529289637,
                -0.9256931994402889,
                0.8331012712941617,
                -2.511492442779974
            ]
        },
        {
            "positions": [
                2.6613335208040314,
                -1.0830287068096458,
                1.857920097641561,
                -0.8850842978582822,
                0.9108784456386567,
                -2.7078202478036917
            ]
        },
        {
            "positions": [
                2.6447526495880056,
                -1.0493476641159774,
                1.8442235423541582,
                -0.8444753962762758,
                0.9886556199831513,
                -2.9041480528274084
            ]
        },
        {
            "positions": [
                2.62817177837198,
                -1.0156666214223091,
                1.8305269870667555,
                -0.8038664946942692,
                1.0664327943276461,
                -3.100475857851126
            ]
        }
    ]
}