{
    "goal": {
        "global_pose": {
            "orientation": {
                "w": 0.7031023502349854,
                "x": -0.7110244035720825,
                "y": 0.007748599164187908,
                "z": 0.005598929710686207
            },
            "position": {
                "x": 0.11585023208521307,
                "y": 0.44412534475326537,
                "z": 0.3711530566215515
            }
        },
        "name": "move_to_auspresseinheit_A"
    },
    "id": "TRRT_move_to_auspresseinheit_A_16",
    "joint_names": [
        "shoulder_pan_joint",
        "shoulder_lift_joint",
        "elbow_joint",
        "wrist_1_joint",
        "wrist_2_joint",
        "wrist_3_joint"
    ],
    "metrics": {
        "cart_traj_len": 0.7394255367006786,
        "distance_elbow_joint": 0.11733677369055462,
        "distance_shoulder_lift_joint": 0.7362820717020657,
        "distance_shoulder_pan_joint": 1.0404531486432431,
        "distance_wrist_1_joint": 0.5847239650045455,
        "distance_wrist_2_joint": 0.5372857723873159,
        "distance_wrist_3_joint": 0.7393612500446332,
        "smoothness": 0.9260505747226445,
        "time": 0.14213379,
        "traj_len": 1.9378965352857096,
        "weighted_distance": 2.521145616372344
    },
    "planner": "TRRT",
    "start": {
        "state": {
            "elbow_joint": 2.4225746658250005,
            "shoulder_lift_joint": -1.3736534386056498,
            "shoulder_pan_joint": -0.3378633547517467,
            "wrist_1_joint": -1.0288598680537169,
            "wrist_2_joint": 1.233022673432363,
            "wrist_3_joint": -3.0940220416140027
        }
    },
    "waypoints": [
        {
            "positions": [
                -0.3378633547517467,
                -1.3736534386056498,
                2.4225746658250005,
                -1.0288598680537169,
                1.233022673432363,
                -3.0940220416140027
            ]
        },
        {
            "positions": [
                -0.2352084037143221,
                -1.4638609277500512,
                2.412142107138922,
                -0.9560368991811019,
                1.2096258722063844,
                -3.043408824718678
            ]
        },
        {
            "positions": [
                -0.13255345267689747,
                -1.5540684168944523,
                2.4017095484528435,
                -0.8832139303084869,
                1.1862290709804055,
                -2.992795607823354
            ]
        },
        {
            "positions": [
                -0.02989850163947283,
                -1.6442759060388537,
                2.391276989766765,
                -0.810390961435872,
                1.1628322697544269,
                -2.9421823909280294
            ]
        },
        {
            "positions": [
                0.07275644939795178,
                -1.7344833951832548,
                2.380844431080687,
                -0.737567992563257,
                1.139435468528448,
                -2.891569174032705
            ]
        },
        {
            "positions": [
                0.17541140043537645,
                -1.8246908843276561,
                2.3704118723946084,
                -0.6647450236906419,
                1.1160386673024694,
                -2.8409559571373806
            ]
        },
        {
            "positions": [
                0.27806635147280107,
                -1.9148983734720573,
                2.35997931370853,
                -0.5919220548180271,
                1.0926418660764905,
                -2.7903427402420564
            ]
        },
        {
            "positions": [
                0.3807213025102257,
                -2.0051058626164586,
                2.3495467550224514,
                -0.519099085945412,
                1.0692450648505119,
                -2.739729523346732
            ]
        },
        {
            "positions": [
                0.4663601587733893,
                -1.971347438559809,
                2.3638235430394636,
                -0.4990480444716812,
                0.9662266432793042,
                -2.8440338043206235
            ]
        },
        {
            "positions": [
                0.551999015036553,
                -1.9375890145031598,
                2.3781003310564754,
                -0.4789970029979504,
                0.8632082217080966,
                -2.9483380852945147
            ]
        },
        {
            "positions": [
                0.6376378712997166,
                -1.9038305904465103,
                2.3923771190734877,
                -0.4589459615242196,
                0.760189800136889,
                -3.0526423662684063
            ]
        },
        {
            "positions": [
                0.7025897938914963,
                -1.9073849659678188,
                2.393855617910457,
                -0.47375601999926775,
                0.6957369010450472,
                -3.124798255124094
            ]
        }
    ]
}