{
    "goal": {
        "global_pose": {
            "orientation": {
                "w": 0.5084816262002911,
                "x": -0.4908360881923452,
                "y": 0.5182115481033761,
                "z": -0.48164630358495003
            },
            "position": {
                "x": 0.5540239810943604,
                "y": -0.46912469901144505,
                "z": 0.16403168439865112
            }
        },
        "name": "move_to_storage_B"
    },
    "id": "TRRT_move_to_storage_B_40",
    "joint_names": [
        "shoulder_pan_joint",
        "shoulder_lift_joint",
        "elbow_joint",
        "wrist_1_joint",
        "wrist_2_joint",
        "wrist_3_joint"
    ],
    "metrics": {
        "cart_traj_len": 0.7029114626101387,
        "distance_elbow_joint": 0.5098811256562406,
        "distance_shoulder_lift_joint": 0.4586700386516338,
        "distance_shoulder_pan_joint": 0.36138111025718256,
        "distance_wrist_1_joint": 2.9777752280796053,
        "distance_wrist_2_joint": 2.7129677011185005,
        "distance_wrist_3_joint": 3.2529034073350633,
        "smoothness": 0.24623994572200517,
        "time": 0.086903641,
        "traj_len": 3.2052423638623995,
        "weighted_distance": 4.740266696607529
    },
    "planner": "TRRT",
    "start": {
        "state": {
            "elbow_joint": 1.664937868594044,
            "shoulder_lift_joint": -0.661644460510453,
            "shoulder_pan_joint": -0.9139846352900073,
            "wrist_1_joint": 2.146753192139373,
            "wrist_2_joint": -2.2341966793290973,
            "wrist_3_joint": 0.005466555786416001
        }
    },
    "waypoints": [
        {
            "positions": [
                -0.9139846352900073,
                -0.661644460510453,
                1.664937868594044,
                2.146753192139373,
                -2.2341966793290973,
                0.005466555786416001
            ]
        },
        {
            "positions": [
                -0.8240132761159533,
                -0.7230763516566885,
                1.5844155694180675,
                2.137885780314223,
                -2.167432418794321,
                0.055181162037758864
            ]
        },
        {
            "positions": [
                -0.8344521126960737,
                -0.7383547419453577,
                1.6009293704365393,
                2.0236970181505898,
                -2.0656553633872545,
                -0.06801840723469194
            ]
        },
        {
            "positions": [
                -0.844890949276194,
                -0.7536331322340268,
                1.6174431714550108,
                1.9095082559869572,
                -1.9638783079801883,
                -0.19121797650714273
            ]
        },
        {
            "positions": [
                -0.8553297858563144,
                -0.768911522522696,
                1.6339569724734826,
                1.7953194938233241,
                -1.862101252573122,
                -0.3144175457795935
            ]
        },
        {
            "positions": [
                -0.8657686224364346,
                -0.7841899128113652,
                1.6504707734919544,
                1.6811307316596913,
                -1.7603241971660555,
                -0.4376171150520443
            ]
        },
        {
            "positions": [
                -0.876207459016555,
                -0.7994683031000344,
                1.666984574510426,
                1.5669419694960585,
                -1.6585471417589892,
                -0.560816684324495
            ]
        },
        {
            "positions": [
                -0.8866462955966753,
                -0.8147466933887035,
                1.6834983755288977,
                1.4527532073324254,
                -1.556770086351923,
                -0.6840162535969458
            ]
        },
        {
            "positions": [
                -0.8970851321767956,
                -0.8300250836773726,
                1.7000121765473695,
                1.3385644451687928,
                -1.4549930309448567,
                -0.8072158228693966
            ]
        },
        {
            "positions": [
                -0.907523968756916,
                -0.8453034739660419,
                1.716525977565841,
                1.2243756830051598,
                -1.3532159755377902,
                -0.9304153921418474
            ]
        },
        {
            "positions": [
                -0.9179628053370363,
                -0.860581864254711,
                1.7330397785843128,
                1.110186920841527,
                -1.2514389201307239,
                -1.0536149614142982
            ]
        },
        {
            "positions": [
                -0.9284016419171566,
                -0.8758602545433801,
                1.7495535796027846,
                0.9959981586778939,
                -1.1496618647236576,
                -1.176814530686749
            ]
        },
        {
            "positions": [
                -0.9388404784972769,
                -0.8911386448320493,
                1.7660673806212561,
                0.8818093965142613,
                -1.0478848093165913,
                -1.3000140999591998
            ]
        },
        {
            "positions": [
                -0.9492793150773973,
                -0.9064170351207185,
                1.782581181639728,
                0.7676206343506282,
                -0.9461077539095251,
                -1.4232136692316506
            ]
        },
        {
            "positions": [
                -0.9597181516575176,
                -0.9216954254093876,
                1.7990949826581994,
                0.6534318721869954,
                -0.8443306985024588,
                -1.5464132385041014
            ]
        },
        {
            "positions": [
                -0.970156988237638,
                -0.9369738156980568,
                1.8156087836766712,
                0.5392431100233626,
                -0.7425536430953925,
                -1.6696128077765522
            ]
        },
        {
            "positions": [
                -0.9805958248177582,
                -0.952252205986726,
                1.832122584695143,
                0.42505434785972973,
                -0.6407765876883262,
                -1.7928123770490028
            ]
        },
        {
            "positions": [
                -0.9910346613978787,
                -0.9675305962753952,
                1.8486363857136148,
                0.3108655856960967,
                -0.5389995322812597,
                -1.9160119463214538
            ]
        },
        {
            "positions": [
                -1.001473497977999,
                -0.9828089865640643,
                1.8651501867320863,
                0.19667682353246385,
                -0.43722247687419347,
                -2.039211515593905
            ]
        },
        {
            "positions": [
                -1.0119123345581194,
                -0.9980873768527334,
                1.881663987750558,
                0.08248806136883102,
                -0.3354454214671272,
                -2.1624110848663554
            ]
        },
        {
            "positions": [
                -1.0223511711382396,
                -1.0133657671414027,
                1.8981777887690297,
                -0.031700700794801584,
                -0.23366836606006114,
                -2.285610654138806
            ]
        },
        {
            "positions": [
                -1.03279000771836,
                -1.0286441574300718,
                1.9146915897875014,
                -0.14588946295843508,
                -0.13189131065299442,
                -2.408810223411257
            ]
        },
        {
            "positions": [
                -1.0432288442984803,
                -1.043922547718741,
                1.9312053908059732,
                -0.2600782251220677,
                -0.030114255245928145,
                -2.532009792683708
            ]
        },
        {
            "positions": [
                -1.0536676808786005,
                -1.05920093800741,
                1.9477191918244448,
                -0.3742669872857003,
                0.07166280016113813,
                -2.6552093619561585
            ]
        },
        {
            "positions": [
                -1.064106517458721,
                -1.0744793282960794,
                1.9642329928429165,
                -0.48845574944933334,
                0.1734398555682044,
                -2.778408931228609
            ]
        },
        {
            "positions": [
                -1.0745453540388412,
                -1.0897577185847485,
                1.9807467938613883,
                -0.6026445116129664,
                0.2752169109752707,
                -2.90160850050106
            ]
        },
        {
            "positions": [
                -1.0849841906189615,
                -1.1050361088734175,
                1.9972605948798599,
                -0.7168332737765994,
                0.37699396638233695,
                -3.024808069773511
            ]
        },
        {
            "positions": [
                -1.095423027199082,
                -1.1203144991620868,
                2.0137743958983316,
                -0.8310220359402323,
                0.47877102178940334,
                -3.1480076390459617
            ]
        }
    ]
}