{
    "goal": {
        "global_pose": {
            "orientation": {
                "w": 0.7047431493862688,
                "x": -0.7094548369677653,
                "y": 0.0024358444001904,
                "z": -0.0022348060817251984
            },
            "position": {
                "x": -0.39052492380142206,
                "y": 0.3671506643295288,
                "z": 0.19426114857196808
            }
        },
        "name": "move_to_magneteinheit_D"
    },
    "id": "TRRT_move_to_magneteinheit_D_5",
    "joint_names": [
        "shoulder_pan_joint",
        "shoulder_lift_joint",
        "elbow_joint",
        "wrist_1_joint",
        "wrist_2_joint",
        "wrist_3_joint"
    ],
    "metrics": {
        "cart_traj_len": 5.070180801606558,
        "distance_elbow_joint": 3.349664509470439,
        "distance_shoulder_lift_joint": 1.3526314807226443,
        "distance_shoulder_pan_joint": 4.248791124585193,
        "distance_wrist_1_joint": 3.798800276253698,
        "distance_wrist_2_joint": 1.7090906186760977,
        "distance_wrist_3_joint": 6.277542902054716,
        "smoothness": 0.48814330194122385,
        "time": 0.424880774,
        "traj_len": 4.553737027075981,
        "weighted_distance": 6.22892427396593
    },
    "planner": "TRRT",
    "start": {
        "state": {
            "elbow_joint": 0.749534889911806,
            "shoulder_lift_joint": -0.6476975780787326,
            "shoulder_pan_joint": -2.711696901376241,
            "wrist_1_joint": -0.07506478083263063,
            "wrist_2_joint": 0.43296659715538205,
            "wrist_3_joint": -3.14703540197715
        }
    },
    "waypoints": [
        {
            "positions": [
                -2.711696901376241,
                -0.6476975780787326,
                0.749534889911806,
                -0.07506478083263063,
                0.43296659715538205,
                -3.14703540197715
            ]
        },
        {
            "positions": [
                -2.7068187560068315,
                -0.7371316925706171,
                0.7787432869330779,
                -0.03325906210120021,
                0.5108567616595951,
                -3.014749108884676
            ]
        },
        {
            "positions": [
                -2.7019406106374215,
                -0.8265658070625016,
                0.8079516839543499,
                0.008546656630230215,
                0.5887469261638083,
                -2.882462815792202
            ]
        },
        {
            "positions": [
                -2.6970624652680115,
                -0.9159999215543861,
                0.8371600809756218,
                0.05035237536166065,
                0.6666370906680215,
                -2.750176522699728
            ]
        },
        {
            "positions": [
                -2.692184319898602,
                -1.0054340360462706,
                0.8663684779968938,
                0.09215809409309104,
                0.7445272551722346,
                -2.617890229607254
            ]
        },
        {
            "positions": [
                -2.6120165731525726,
                -1.0260432372825254,
                0.7928129818793669,
                0.022067282116445708,
                0.7167617857519211,
                -2.5015575882174708
            ]
        },
        {
            "positions": [
                -2.5318488264065433,
                -1.0466524385187803,
                0.71925748576184,
                -0.04802352986019963,
                0.6889963163316075,
                -2.385224946827687
            ]
        },
        {
            "positions": [
                -2.451681079660514,
                -1.0672616397550352,
                0.6457019896443131,
                -0.11811434183684498,
                0.661230846911294,
                -2.2688923054379035
            ]
        },
        {
            "positions": [
                -2.3715133329144846,
                -1.0878708409912898,
                0.5721464935267863,
                -0.1882051538134903,
                0.6334653774909804,
                -2.15255966404812
            ]
        },
        {
            "positions": [
                -2.2913455861684553,
                -1.1084800422275447,
                0.49859099740925933,
                -0.25829596579013564,
                0.6056999080706669,
                -2.0362270226583368
            ]
        },
        {
            "positions": [
                -2.211177839422426,
                -1.1290892434637996,
                0.42503550129173245,
                -0.328386777766781,
                0.5779344386503533,
                -1.919894381268553
            ]
        },
        {
            "positions": [
                -2.1310100926763966,
                -1.1496984447000544,
                0.35148000517420563,
                -0.39847758974342634,
                0.5501689692300398,
                -1.8035617398787696
            ]
        },
        {
            "positions": [
                -2.0508423459303673,
                -1.1703076459363093,
                0.27792450905667876,
                -0.46856840172007164,
                0.5224034998097261,
                -1.6872290984889862
            ]
        },
        {
            "positions": [
                -1.970674599184338,
                -1.1909168471725642,
                0.20436901293915177,
                -0.538659213696717,
                0.49463803038941256,
                -1.5708964570992026
            ]
        },
        {
            "positions": [
                -1.8905068524383086,
                -1.2115260484088188,
                0.1308135168216249,
                -0.6087500256733623,
                0.466872560969099,
                -1.4545638157094192
            ]
        },
        {
            "positions": [
                -1.8103391056922793,
                -1.232135249645074,
                0.05725802070409802,
                -0.6788408376500078,
                0.43910709154878547,
                -1.3382311743196353
            ]
        },
        {
            "positions": [
                -1.73017135894625,
                -1.2527444508813286,
                -0.016297475413428852,
                -0.748931649626653,
                0.4113416221284719,
                -1.221898532929852
            ]
        },
        {
            "positions": [
                -1.6500036122002206,
                -1.2733536521175834,
                -0.08985297153095584,
                -0.8190224616032985,
                0.3835761527081583,
                -1.1055658915400683
            ]
        },
        {
            "positions": [
                -1.5698358654541913,
                -1.2939628533538383,
                -0.1634084676484825,
                -0.8891132735799437,
                0.3558106832878448,
                -0.989233250150285
            ]
        },
        {
            "positions": [
                -1.489668118708162,
                -1.3145720545900932,
                -0.2369639637660096,
                -0.9592040855565891,
                0.3280452138675312,
                -0.8729006087605014
            ]
        },
        {
            "positions": [
                -1.4095003719621326,
                -1.335181255826348,
                -0.31051945988353624,
                -1.0292948975332343,
                0.30027974444721767,
                -0.756567967370718
            ]
        },
        {
            "positions": [
                -1.3293326252161033,
                -1.3557904570626027,
                -0.38407495600106334,
                -1.0993857095098798,
                0.2725142750269041,
                -0.6402353259809344
            ]
        },
        {
            "positions": [
                -1.249164878470074,
                -1.3763996582988576,
                -0.4576304521185902,
                -1.169476521486525,
                0.24474880560659057,
                -0.523902684591151
            ]
        },
        {
            "positions": [
                -1.1689971317240446,
                -1.3970088595351124,
                -0.5311859482361171,
                -1.2395673334631705,
                0.21698333618627696,
                -0.4075700432013676
            ]
        },
        {
            "positions": [
                -1.0888293849780153,
                -1.4176180607713673,
                -0.604741444353644,
                -1.3096581454398157,
                0.18921786676596342,
                -0.2912374018115842
            ]
        },
        {
            "positions": [
                -1.008661638231986,
                -1.4382272620076222,
                -0.6782969404711708,
                -1.3797489574164612,
                0.16145239734564987,
                -0.17490476042180036
            ]
        },
        {
            "positions": [
                -0.9284938914859566,
                -1.458836463243877,
                -0.7518524365886977,
                -1.4498397693931067,
                0.13368692792533632,
                -0.058572119032016534
            ]
        },
        {
            "positions": [
                -0.8483261447399271,
                -1.479445664480132,
                -0.8254079327062248,
                -1.5199305813697521,
                0.10592145850502266,
                0.05776052235776685
            ]
        },
        {
            "positions": [
                -0.768158397993898,
                -1.5000548657163866,
                -0.8989634288237515,
                -1.5900213933463971,
                0.07815598908470922,
                0.17409316374755024
            ]
        },
        {
            "positions": [
                -0.6879906512478686,
                -1.5206640669526417,
                -0.9725189249412783,
                -1.6601122053230426,
                0.05039051966439567,
                0.2904258051373336
            ]
        },
        {
            "positions": [
                -0.6078229045018393,
                -1.5412732681888963,
                -1.0460744210588055,
                -1.730203017299688,
                0.022625050244082012,
                0.40675844652711746
            ]
        },
        {
            "positions": [
                -0.52765515775581,
                -1.5618824694251514,
                -1.1196299171763324,
                -1.8002938292763333,
                -0.0051404191762315365,
                0.5230910879169008
            ]
        },
        {
            "positions": [
                -0.4474874110097806,
                -1.582491670661406,
                -1.1931854132938589,
                -1.8703846412529785,
                -0.032905888596544974,
                0.6394237293066842
            ]
        },
        {
            "positions": [
                -0.3673196642637513,
                -1.603100871897661,
                -1.2667409094113862,
                -1.9404754532296238,
                -0.060671358016858634,
                0.7557563706964676
            ]
        },
        {
            "positions": [
                -0.28715191751772196,
                -1.6237100731339158,
                -1.340296405528913,
                -2.0105662652062692,
                -0.08843682743717218,
                0.8720890120862514
            ]
        },
        {
            "positions": [
                -0.20698417077169262,
                -1.6443192743701704,
                -1.41385190164644,
                -2.0806570771829147,
                -0.11620229685748573,
                0.9884216534760348
            ]
        },
        {
            "positions": [
                -0.1268164240256633,
                -1.6649284756064255,
                -1.4874073977639664,
                -2.1507478891595597,
                -0.14396776627779928,
                1.1047542948658182
            ]
        },
        {
            "positions": [
                -0.046648677279633954,
                -1.6855376768426802,
                -1.5609628938814937,
                -2.220838701136205,
                -0.17173323569811283,
                1.2210869362556016
            ]
        },
        {
            "positions": [
                0.03351906946639538,
                -1.706146878078935,
                -1.6345183899990205,
                -2.2909295131128506,
                -0.19949870511842638,
                1.3374195776453854
            ]
        },
        {
            "positions": [
                0.11368681621242471,
                -1.72675607931519,
                -1.7080738861165474,
                -2.361020325089496,
                -0.22726417453874004,
                1.4537522190351693
            ]
        },
        {
            "positions": [
                0.19385456295845405,
                -1.7473652805514446,
                -1.7816293822340743,
                -2.431111137066141,
                -0.2550296439590535,
                1.5700848604249522
            ]
        },
        {
            "positions": [
                0.2740223097044834,
                -1.7679744817876997,
                -1.8551848783516012,
                -2.5012019490427866,
                -0.28279511337936714,
                1.686417501814736
            ]
        },
        {
            "positions": [
                0.3541900564505127,
                -1.7885836830239543,
                -1.928740374469128,
                -2.571292761019432,
                -0.3105605827996807,
                1.802750143204519
            ]
        },
        {
            "positions": [
                0.43435780319654205,
                -1.8091928842602094,
                -2.002295870586655,
                -2.6413835729960775,
                -0.33832605221999423,
                1.9190827845943028
            ]
        },
        {
            "positions": [
                0.5145255499425714,
                -1.829802085496464,
                -2.075851366704182,
                -2.7114743849727225,
                -0.3660915216403078,
                2.0354154259840858
            ]
        },
        {
            "positions": [
                0.5946932966886007,
                -1.850411286732719,
                -2.1494068628217087,
                -2.781565196949368,
                -0.39385699106062133,
                2.1517480673738696
            ]
        },
        {
            "positions": [
                0.6748610434346298,
                -1.8710204879689738,
                -2.2229623589392355,
                -2.8516560089260135,
                -0.42162246048093477,
                2.2680807087636534
            ]
        },
        {
            "positions": [
                0.5670818959628396,
                -1.8548569166149234,
                -2.2408998694953883,
                -2.7656855966374043,
                -0.3926999298551754,
                2.3758840576778923
            ]
        },
        {
            "positions": [
                0.45930274849104935,
                -1.838693345260873,
                -2.258837380051541,
                -2.6797151843487956,
                -0.36377739922941604,
                2.4836874065921313
            ]
        },
        {
            "positions": [
                0.3515236010192591,
                -1.8225297739068227,
                -2.276774890607694,
                -2.5937447720601865,
                -0.33485486860365665,
                2.59149075550637
            ]
        },
        {
            "positions": [
                0.24374445354746888,
                -1.8063662025527722,
                -2.2947124011638467,
                -2.5077743597715774,
                -0.30593233797789726,
                2.699294104420609
            ]
        },
        {
            "positions": [
                0.1359653060756787,
                -1.7902026311987218,
                -2.312649911719999,
                -2.4218039474829687,
                -0.27700980735213787,
                2.8070974533348485
            ]
        },
        {
            "positions": [
                0.0281861586038884,
                -1.7740390598446716,
                -2.330587422276152,
                -2.3358335351943595,
                -0.24808727672637854,
                2.9149008022490874
            ]
        },
        {
            "positions": [
                -0.07959298886790189,
                -1.7578754884906211,
                -2.3485249328323046,
                -2.249863122905751,
                -0.21916474610061915,
                3.0227041511633264
            ]
        },
        {
            "positions": [
                -0.1873721363396921,
                -1.7417119171365707,
                -2.3664624433884573,
                -2.1638927106171417,
                -0.19024221547485978,
                3.1305075000775653
            ]
        }
    ]
}