{
    "goal": {
        "global_pose": {
            "orientation": {
                "w": 0.7047431468963623,
                "x": -0.7094548344612122,
                "y": 0.0024358443915843964,
                "z": -0.0022348060738295317
            },
            "position": {
                "x": 0.6094750761985779,
                "y": 0.3671506643295288,
                "z": 0.19426114857196808
            }
        },
        "name": "move_to_magneteinheit_A"
    },
    "id": "TRRT_move_to_magneteinheit_A_47",
    "joint_names": [
        "shoulder_pan_joint",
        "shoulder_lift_joint",
        "elbow_joint",
        "wrist_1_joint",
        "wrist_2_joint",
        "wrist_3_joint"
    ],
    "metrics": {
        "cart_traj_len": 3.470181821320296,
        "distance_elbow_joint": 3.909827560738594,
        "distance_shoulder_lift_joint": 1.1991447408688676,
        "distance_shoulder_pan_joint": 2.577101328784493,
        "distance_wrist_1_joint": 3.45804192017866,
        "distance_wrist_2_joint": 1.5105028628847759,
        "distance_wrist_3_joint": 0.7621468955885098,
        "smoothness": 0.0597132457337234,
        "time": 0.107899002,
        "traj_len": 3.662890294431967,
        "weighted_distance": 4.462017916064923
    },
    "planner": "TRRT",
    "start": {
        "state": {
            "elbow_joint": -1.9196185241190666,
            "shoulder_lift_joint": -1.2443396400964142,
            "shoulder_pan_joint": 2.6996025414629847,
            "wrist_1_joint": -1.5485510000780065,
            "wrist_2_joint": -1.5709468930060704,
            "wrist_3_joint": 0.4420197071253992
        }
    },
    "waypoints": [
        {
            "positions": [
                2.6996025414629847,
                -1.2443396400964142,
                -1.9196185241190666,
                -1.5485510000780065,
                -1.5709468930060704,
                0.4420197071253992
            ]
        },
        {
            "positions": [
                2.5722849247558743,
                -1.2163889845474336,
                -1.8572011703015892,
                -1.490836368031418,
                -1.4936934767375671,
                0.39992705311429566
            ]
        },
        {
            "positions": [
                2.4449673080487644,
                -1.188438328998453,
                -1.7947838164841117,
                -1.4331217359848298,
                -1.416440060469064,
                0.35783439910319215
            ]
        },
        {
            "positions": [
                2.3176496913416544,
                -1.1604876734494725,
                -1.7323664626666342,
                -1.3754071039382414,
                -1.3391866442005607,
                0.31574174509208863
            ]
        },
        {
            "positions": [
                2.190332074634544,
                -1.1325370179004919,
                -1.6699491088491565,
                -1.317692471891653,
                -1.2619332279320572,
                0.2736490910809851
            ]
        },
        {
            "positions": [
                2.0630144579274337,
                -1.1045863623515113,
                -1.607531755031679,
                -1.2599778398450647,
                -1.184679811663554,
                0.2315564370698816
            ]
        },
        {
            "positions": [
                1.9356968412203237,
                -1.0766357068025307,
                -1.5451144012142015,
                -1.2022632077984763,
                -1.1074263953950507,
                0.18946378305877806
            ]
        },
        {
            "positions": [
                1.8414765886910875,
                -1.0350309939943476,
                -1.4574893427073379,
                -1.1203996613808735,
                -1.0489564921832653,
                0.1679450638029743
            ]
        },
        {
            "positions": [
                1.7472563361618514,
                -0.9934262811861647,
                -1.3698642842004742,
                -1.038536114963271,
                -0.9904865889714797,
                0.14642634454717052
            ]
        },
        {
            "positions": [
                1.6530360836326152,
                -0.9518215683779816,
                -1.2822392256936106,
                -0.9566725685456684,
                -0.9320166857596942,
                0.12490762529136674
            ]
        },
        {
            "positions": [
                1.558815831103379,
                -0.9102168555697986,
                -1.1946141671867467,
                -0.8748090221280658,
                -0.8735467825479087,
                0.10338890603556297
            ]
        },
        {
            "positions": [
                1.464595578574143,
                -0.8686121427616156,
                -1.1069891086798833,
                -0.7929454757104631,
                -0.8150768793361232,
                0.0818701867797592
            ]
        },
        {
            "positions": [
                1.3703753260449065,
                -0.8270074299534325,
                -1.0193640501730195,
                -0.7110819292928605,
                -0.7566069761243377,
                0.06035146752395543
            ]
        },
        {
            "positions": [
                1.2761550735156704,
                -0.7854027171452495,
                -0.9317389916661558,
                -0.6292183828752579,
                -0.6981370729125522,
                0.03883274826815167
            ]
        },
        {
            "positions": [
                1.1819348209864342,
                -0.7437980043370664,
                -0.8441139331592922,
                -0.5473548364576553,
                -0.6396671697007668,
                0.01731402901234788
            ]
        },
        {
            "positions": [
                1.087714568457198,
                -0.7021932915288834,
                -0.7564888746524285,
                -0.46549129004005263,
                -0.5811972664889812,
                -0.004204690243455905
            ]
        },
        {
            "positions": [
                0.9934943159279619,
                -0.6605885787207004,
                -0.6688638161455649,
                -0.38362774362245,
                -0.5227273632771957,
                -0.025723409499259664
            ]
        },
        {
            "positions": [
                0.8992740633987257,
                -0.6189838659125173,
                -0.5812387576387011,
                -0.3017641972048474,
                -0.46425746006541024,
                -0.04724212875506342
            ]
        },
        {
            "positions": [
                0.8050538108694894,
                -0.5773791531043343,
                -0.4936136991318374,
                -0.21990065078724474,
                -0.40578755685362466,
                -0.06876084801086721
            ]
        },
        {
            "positions": [
                0.7108335583402532,
                -0.5357744402961513,
                -0.40598864062497375,
                -0.13803710436964223,
                -0.3473176536418392,
                -0.090279567266671
            ]
        },
        {
            "positions": [
                0.616613305811017,
                -0.49416972748796817,
                -0.3183635821181101,
                -0.05617355795203949,
                -0.28884775043005373,
                -0.11179828652247473
            ]
        },
        {
            "positions": [
                0.5223930532817809,
                -0.45256501467978516,
                -0.23073852361124647,
                0.02568998846556325,
                -0.23037784721826815,
                -0.1333170057782785
            ]
        },
        {
            "positions": [
                0.4281728007525447,
                -0.4109603018716022,
                -0.14311346510438291,
                0.10755353488316569,
                -0.17190794400648268,
                -0.15483572503408227
            ]
        },
        {
            "positions": [
                0.39558967536708267,
                -0.4225976692242813,
                -0.02043311682901819,
                0.22122994592088238,
                -0.15223479911615995,
                -0.14637814553386042
            ]
        },
        {
            "positions": [
                0.36300654998162063,
                -0.43423503657696044,
                0.10224723144634654,
                0.33490635695859905,
                -0.13256165422583724,
                -0.13792056603363856
            ]
        },
        {
            "positions": [
                0.33042342459615853,
                -0.44587240392963956,
                0.22492757972171126,
                0.4485827679963158,
                -0.1128885093355145,
                -0.12946298653341673
            ]
        },
        {
            "positions": [
                0.2978402992106965,
                -0.4575097712823187,
                0.34760792799707596,
                0.5622591790340324,
                -0.09321536444519178,
                -0.12100540703319487
            ]
        },
        {
            "positions": [
                0.2803063905574761,
                -0.4894313646056526,
                0.5118680388593211,
                0.6969823531406946,
                -0.09649249787758163,
                -0.1078592924903808
            ]
        },
        {
            "positions": [
                0.2627724819042556,
                -0.5213529579289865,
                0.6761281497215662,
                0.8317055272473567,
                -0.09976963130997148,
                -0.09471317794756673
            ]
        },
        {
            "positions": [
                0.24523857325103518,
                -0.5532745512523205,
                0.8403882605838112,
                0.9664287013540188,
                -0.10304676474236132,
                -0.08156706340475264
            ]
        },
        {
            "positions": [
                0.22770466459781474,
                -0.5851961445756544,
                1.0046483714460566,
                1.101151875460681,
                -0.10632389817475119,
                -0.06842094886193857
            ]
        },
        {
            "positions": [
                0.21017075594459433,
                -0.6171177378989883,
                1.1689084823083014,
                1.2358750495673432,
                -0.10960103160714102,
                -0.0552748343191245
            ]
        },
        {
            "positions": [
                0.19263684729137387,
                -0.6490393312223222,
                1.3331685931705466,
                1.3705982236740053,
                -0.11287816503953088,
                -0.04212871977631043
            ]
        },
        {
            "positions": [
                0.17510293863815346,
                -0.6809609245456562,
                1.4974287040327914,
                1.5053213977806672,
                -0.11615529847192071,
                -0.028982605233496356
            ]
        },
        {
            "positions": [
                0.15756902998493302,
                -0.7128825178689902,
                1.661688814895037,
                1.6400445718873295,
                -0.11943243190431058,
                -0.01583649069068227
            ]
        },
        {
            "positions": [
                0.1400351213317126,
                -0.744804111192324,
                1.8259489257572818,
                1.7747677459939917,
                -0.12270956533670042,
                -0.002690376147868198
            ]
        },
        {
            "positions": [
                0.12250121267849215,
                -0.7767257045156579,
                1.9902090366195269,
                1.9094909201006536,
                -0.12598669876909027,
                0.010455738394945888
            ]
        }
    ]
}