{
    "goal": {
        "global_pose": {
            "orientation": {
                "w": 0.005598929693374612,
                "x": 0.007748599140229565,
                "y": 0.7110244013736278,
                "z": -0.7031023480610252
            },
            "position": {
                "x": -0.8858502320852131,
                "y": -0.7141253447532654,
                "z": 0.3711530566215515
            }
        },
        "name": "move_to_auspresseinheit_C"
    },
    "id": "TRRT_move_to_auspresseinheit_C_34",
    "joint_names": [
        "shoulder_pan_joint",
        "shoulder_lift_joint",
        "elbow_joint",
        "wrist_1_joint",
        "wrist_2_joint",
        "wrist_3_joint"
    ],
    "metrics": {
        "cart_traj_len": 0.4932325919982181,
        "distance_elbow_joint": 0.9924864833199815,
        "distance_shoulder_lift_joint": 0.320890394535139,
        "distance_shoulder_pan_joint": 0.257178481766017,
        "distance_wrist_1_joint": 0.6657481003378383,
        "distance_wrist_2_joint": 1.3013359974214975,
        "distance_wrist_3_joint": 0.04876828365347308,
        "smoothness": 4.844609574787718e-16,
        "time": 0.032769,
        "traj_len": 1.893781334007162,
        "weighted_distance": 2.377189181806999
    },
    "planner": "TRRT",
    "start": {
        "state": {
            "elbow_joint": 1.7527959577737207,
            "shoulder_lift_joint": -0.9740617694225068,
            "shoulder_pan_joint": -2.967991417825858,
            "wrist_1_joint": -0.759517768980727,
            "wrist_2_joint": 1.7443932448377408,
            "wrist_3_joint": -3.0840537646736568
        }
    },
    "waypoints": [
        {
            "positions": [
                -2.967991417825858,
                -0.9740617694225068,
                1.7527959577737207,
                -0.759517768980727,
                1.7443932448377408,
                -3.0840537646736568
            ]
        },
        {
            "positions": [
                -2.9422735696492563,
                -0.9419727299689928,
                1.6535473094417226,
                -0.6929429589469431,
                1.614259645095591,
                -3.088930593039004
            ]
        },
        {
            "positions": [
                -2.9165557214726547,
                -0.909883690515479,
                1.5542986611097245,
                -0.6263681489131593,
                1.4841260453534413,
                -3.0938074214043514
            ]
        },
        {
            "positions": [
                -2.8908378732960527,
                -0.8777946510619651,
                1.4550500127777262,
                -0.5597933388793755,
                1.3539924456112915,
                -3.0986842497696987
            ]
        },
        {
            "positions": [
                -2.865120025119451,
                -0.8457056116084511,
                1.355801364445728,
                -0.49321852884559164,
                1.2238588458691417,
                -3.103561078135046
            ]
        },
        {
            "positions": [
                -2.8394021769428495,
                -0.8136165721549373,
                1.25655271611373,
                -0.42664371881180785,
                1.0937252461269922,
                -3.1084379065003933
            ]
        },
        {
            "positions": [
                -2.813684328766248,
                -0.7815275327014234,
                1.1573040677817317,
                -0.36006890877802405,
                0.9635916463848423,
                -3.1133147348657406
            ]
        },
        {
            "positions": [
                -2.7879664805896462,
                -0.7494384932479095,
                1.0580554194497336,
                -0.2934940987442402,
                0.8334580466426926,
                -3.118191563231088
            ]
        },
        {
            "positions": [
                -2.762248632413044,
                -0.7173494537943956,
                0.9588067711177355,
                -0.2269192887104563,
                0.7033244469005429,
                -3.1230683915964352
            ]
        },
        {
            "positions": [
                -2.7365307842364426,
                -0.6852604143408816,
                0.8595581227857373,
                -0.16034447867667256,
                0.5731908471583931,
                -3.1279452199617825
            ]
        },
        {
            "positions": [
                -2.710812936059841,
                -0.6531713748873678,
                0.7603094744537392,
                -0.09376966864288877,
                0.4430572474162433,
                -3.13282204832713
            ]
        }
    ]
}