{
    "goal": {
        "global_pose": {
            "orientation": {
                "w": 0.7031023480610252,
                "x": -0.7110244013736278,
                "y": 0.0077485991402295624,
                "z": 0.005598929693374583
            },
            "position": {
                "x": -0.8841497679147869,
                "y": 0.44412534475326537,
                "z": 0.3711530566215515
            }
        },
        "name": "move_to_auspresseinheit_D"
    },
    "id": "TRRT_move_to_auspresseinheit_D_145",
    "joint_names": [
        "shoulder_pan_joint",
        "shoulder_lift_joint",
        "elbow_joint",
        "wrist_1_joint",
        "wrist_2_joint",
        "wrist_3_joint"
    ],
    "metrics": {
        "cart_traj_len": 0.3435605118958711,
        "distance_elbow_joint": 0.6318271889918654,
        "distance_shoulder_lift_joint": 0.11681431371072248,
        "distance_shoulder_pan_joint": 0.13436133900922445,
        "distance_wrist_1_joint": 0.5119449590464074,
        "distance_wrist_2_joint": 1.4305109108285208,
        "distance_wrist_3_joint": 0.018104453383457564,
        "smoothness": 0.0,
        "time": 0.034028441,
        "traj_len": 1.6862867979588163,
        "weighted_distance": 2.195957181188204
    },
    "planner": "TRRT",
    "start": {
        "state": {
            "elbow_joint": -1.8275523626775212,
            "shoulder_lift_joint": -2.126789852344167,
            "shoulder_pan_joint": -0.03513704404078235,
            "wrist_1_joint": -2.347782403156801,
            "wrist_2_joint": -1.6058999987535132,
            "wrist_3_joint": -3.0880379163319196
        }
    },
    "waypoints": [
        {
            "positions": [
                -0.03513704404078235,
                -2.126789852344167,
                -1.8275523626775212,
                -2.347782403156801,
                -1.6058999987535132,
                -3.0880379163319196
            ]
        },
        {
            "positions": [
                -0.05193221141693541,
                -2.141391641558007,
                -1.748573964053538,
                -2.4117755230376017,
                -1.4270861348999482,
                -3.090300973004852
            ]
        },
        {
            "positions": [
                -0.06872737879308846,
                -2.1559934307718476,
                -1.669595565429555,
                -2.4757686429184025,
                -1.248272271046383,
                -3.092564029677784
            ]
        },
        {
            "positions": [
                -0.08552254616924151,
                -2.170595219985688,
                -1.5906171668055717,
                -2.5397617627992037,
                -1.069458407192818,
                -3.0948270863507163
            ]
        },
        {
            "positions": [
                -0.10231771354539457,
                -2.185197009199528,
                -1.5116387681815886,
                -2.6037548826800045,
                -0.8906445433392528,
                -3.0970901430236486
            ]
        },
        {
            "positions": [
                -0.11911288092154762,
                -2.1997987984133682,
                -1.4326603695576052,
                -2.6677480025608054,
                -0.7118306794856877,
                -3.0993531996965804
            ]
        },
        {
            "positions": [
                -0.1359080482977007,
                -2.2144005876272086,
                -1.353681970933622,
                -2.7317411224416066,
                -0.5330168156321227,
                -3.1016162563695127
            ]
        },
        {
            "positions": [
                -0.15270321567385375,
                -2.229002376841049,
                -1.274703572309639,
                -2.7957342423224074,
                -0.35420295177855743,
                -3.103879313042445
            ]
        },
        {
            "positions": [
                -0.1694983830500068,
                -2.2436041660548893,
                -1.1957251736856558,
                -2.8597273622032082,
                -0.17538908792499233,
                -3.106142369715377
            ]
        }
    ]
}