{
    "goal": {
        "global_pose": {
            "orientation": {
                "w": 0.5084816262002911,
                "x": -0.4908360881923452,
                "y": 0.5182115481033761,
                "z": -0.48164630358495003
            },
            "position": {
                "x": 0.5540239810943604,
                "y": -0.46912469901144505,
                "z": 0.16403168439865112
            }
        },
        "name": "move_to_storage_B"
    },
    "id": "TRRT_move_to_storage_B_96",
    "joint_names": [
        "shoulder_pan_joint",
        "shoulder_lift_joint",
        "elbow_joint",
        "wrist_1_joint",
        "wrist_2_joint",
        "wrist_3_joint"
    ],
    "metrics": {
        "cart_traj_len": 0.8273003083639027,
        "distance_elbow_joint": 0.7691830734562819,
        "distance_shoulder_lift_joint": 0.4594447420911911,
        "distance_shoulder_pan_joint": 0.6810619774548031,
        "distance_wrist_1_joint": 2.9918384835931047,
        "distance_wrist_2_joint": 2.701125084680446,
        "distance_wrist_3_joint": 3.1531373735345465,
        "smoothness": 0.18574906744660638,
        "time": 0.056637173,
        "traj_len": 3.2796022220401015,
        "weighted_distance": 4.770223165655147
    },
    "planner": "TRRT",
    "start": {
        "state": {
            "elbow_joint": 1.664937868594044,
            "shoulder_lift_joint": -0.661644460510453,
            "shoulder_pan_joint": -0.9139846352900073,
            "wrist_1_joint": 2.146753192139373,
            "wrist_2_joint": -2.2341966793290973,
            "wrist_3_joint": 0.005466555786416001
        }
    },
    "waypoints": [
        {
            "positions": [
                -0.9139846352900073,
                -0.661644460510453,
                1.664937868594044,
                2.146753192139373,
                -2.2341966793290973,
                0.005466555786416001
            ]
        },
        {
            "positions": [
                -0.8881090525952705,
                -0.6783653542261892,
                1.6719429607051959,
                2.13923983556086,
                -2.188988054422551,
                0.01555090327873981
            ]
        },
        {
            "positions": [
                -0.8561423160157834,
                -0.6897665935547173,
                1.6420807025496655,
                2.018585412317831,
                -2.052262697122837,
                0.07770116153455604
            ]
        },
        {
            "positions": [
                -0.8241755794362964,
                -0.7011678328832454,
                1.612218444394135,
                1.8979309890748017,
                -1.9155373398231232,
                0.13985141979037227
            ]
        },
        {
            "positions": [
                -0.7922088428568093,
                -0.7125690722117735,
                1.5823561862386046,
                1.7772765658317726,
                -1.7788119825234094,
                0.2020016780461885
            ]
        },
        {
            "positions": [
                -0.7602421062773222,
                -0.7239703115403016,
                1.552493928083074,
                1.6566221425887437,
                -1.6420866252236954,
                0.26415193630200473
            ]
        },
        {
            "positions": [
                -0.7282753696978351,
                -0.7353715508688297,
                1.5226316699275437,
                1.5359677193457144,
                -1.5053612679239816,
                0.326302194557821
            ]
        },
        {
            "positions": [
                -0.6963086331183481,
                -0.7467727901973578,
                1.4927694117720134,
                1.4153132961026855,
                -1.3686359106242678,
                0.38845245281363716
            ]
        },
        {
            "positions": [
                -0.664341896538861,
                -0.7581740295258859,
                1.4629071536164828,
                1.2946588728596564,
                -1.2319105533245538,
                0.45060271106945343
            ]
        },
        {
            "positions": [
                -0.6859128584740438,
                -0.7763197881796737,
                1.4905642623293036,
                1.1876716646439869,
                -1.1469686053907586,
                0.5860027719820289
            ]
        },
        {
            "positions": [
                -0.7074838204092266,
                -0.7944655468334617,
                1.5182213710421246,
                1.0806844564283176,
                -1.0620266574569635,
                0.7214028328946044
            ]
        },
        {
            "positions": [
                -0.7290547823444096,
                -0.8126113054872496,
                1.5458784797549454,
                0.973697248212648,
                -0.9770847095231685,
                0.8568028938071798
            ]
        },
        {
            "positions": [
                -0.7506257442795924,
                -0.8307570641410376,
                1.5735355884677662,
                0.8667100399969785,
                -0.8921427615893733,
                0.9922029547197553
            ]
        },
        {
            "positions": [
                -0.7721967062147752,
                -0.8489028227948254,
                1.601192697180587,
                0.7597228317813091,
                -0.8072008136555783,
                1.1276030156323307
            ]
        },
        {
            "positions": [
                -0.793767668149958,
                -0.8670485814486133,
                1.6288498058934078,
                0.6527356235656396,
                -0.7222588657217832,
                1.263003076544906
            ]
        },
        {
            "positions": [
                -0.8153386300851408,
                -0.8851943401024013,
                1.6565069146062288,
                0.5457484153499702,
                -0.6373169177879882,
                1.3984031374574817
            ]
        },
        {
            "positions": [
                -0.8369095920203238,
                -0.9033400987561891,
                1.6841640233190496,
                0.43876120713430056,
                -0.5523749698541929,
                1.5338031983700573
            ]
        },
        {
            "positions": [
                -0.8584805539555066,
                -0.9214858574099771,
                1.7118211320318704,
                0.33177399891863113,
                -0.4674330219203978,
                1.6692032592826327
            ]
        },
        {
            "positions": [
                -0.8800515158906894,
                -0.939631616063765,
                1.7394782407446914,
                0.2247867907029617,
                -0.38249107398660276,
                1.804603320195208
            ]
        },
        {
            "positions": [
                -0.9016224778258722,
                -0.9577773747175529,
                1.7671353494575122,
                0.11779958248729216,
                -0.2975491260528076,
                1.9400033811077837
            ]
        },
        {
            "positions": [
                -0.9231934397610551,
                -0.9759231333713408,
                1.794792458170333,
                0.010812374271622849,
                -0.21260717811901264,
                2.0754034420203586
            ]
        },
        {
            "positions": [
                -0.944764401696238,
                -0.9940688920251287,
                1.8224495668831537,
                -0.09617483394404669,
                -0.12766523018521747,
                2.2108035029329343
            ]
        },
        {
            "positions": [
                -0.9663353636314207,
                -1.0122146506789167,
                1.8501066755959745,
                -0.203162042159716,
                -0.04272328225142252,
                2.34620356384551
            ]
        },
        {
            "positions": [
                -0.9879063255666036,
                -1.0303604093327046,
                1.8777637843087955,
                -0.31014925037538554,
                0.04221866568237287,
                2.4816036247580855
            ]
        },
        {
            "positions": [
                -1.0094772875017866,
                -1.0485061679864924,
                1.9054208930216163,
                -0.4171364585910553,
                0.12716061361616804,
                2.617003685670661
            ]
        },
        {
            "positions": [
                -1.0310482494369693,
                -1.0666519266402803,
                1.9330780017344371,
                -0.5241236668067246,
                0.212102561549963,
                2.7524037465832363
            ]
        },
        {
            "positions": [
                -1.0526192113721522,
                -1.0847976852940684,
                1.9607351104472581,
                -0.6311108750223942,
                0.29704450948375816,
                2.887803807495812
            ]
        },
        {
            "positions": [
                -1.074190173307335,
                -1.1029434439478563,
                1.9883922191600787,
                -0.7380980832380633,
                0.3819864574175531,
                3.023203868408387
            ]
        },
        {
            "positions": [
                -1.0957611352425178,
                -1.1210892026016441,
                2.0160493278728997,
                -0.8450852914537329,
                0.46692840535134816,
                3.1586039293209627
            ]
        }
    ]
}