{
    "goal": {
        "global_pose": {
            "orientation": {
                "w": 0.5084816217422485,
                "x": -0.49083608388900757,
                "y": 0.5182115435600281,
                "z": -0.4816462993621826
            },
            "position": {
                "x": 0.5540239810943604,
                "y": 0.030875300988554955,
                "z": 0.16403168439865112
            }
        },
        "name": "move_to_storage_A"
    },
    "id": "TRRT_move_to_storage_A_93",
    "joint_names": [
        "shoulder_pan_joint",
        "shoulder_lift_joint",
        "elbow_joint",
        "wrist_1_joint",
        "wrist_2_joint",
        "wrist_3_joint"
    ],
    "metrics": {
        "cart_traj_len": 0.35341260766397364,
        "distance_elbow_joint": 0.45076472229773734,
        "distance_shoulder_lift_joint": 0.23546988218556897,
        "distance_shoulder_pan_joint": 0.4631803023821134,
        "distance_wrist_1_joint": 0.24129187486240944,
        "distance_wrist_2_joint": 1.0958784474321346,
        "distance_wrist_3_joint": 0.1009093051238179,
        "smoothness": 6.661338165333112e-16,
        "time": 0.030059326999999997,
        "traj_len": 1.6085690952780927,
        "weighted_distance": 2.0313747726172937
    },
    "planner": "TRRT",
    "start": {
        "state": {
            "elbow_joint": 1.971548259319323,
            "shoulder_lift_joint": -1.1394851275133948,
            "shoulder_pan_joint": 0.1228115487234821,
            "wrist_1_joint": -0.7804723859257726,
            "wrist_2_joint": 0.12958671773740124,
            "wrist_3_joint": -3.192489227718131
        }
    },
    "waypoints": [
        {
            "positions": [
                0.1228115487234821,
                -1.1394851275133948,
                1.971548259319323,
                -0.7804723859257726,
                0.12958671773740124,
                -3.192489227718131
            ]
        },
        {
            "positions": [
                0.0566429340974659,
                -1.1731236821113333,
                2.0359432196475713,
                -0.8149426537632597,
                0.2861407816562776,
                -3.1780736127004428
            ]
        },
        {
            "positions": [
                -0.009525680528550295,
                -1.2067622367092716,
                2.1003381799758194,
                -0.8494129216007468,
                0.44269484557515393,
                -3.163657997682755
            ]
        },
        {
            "positions": [
                -0.0756942951545665,
                -1.2404007913072101,
                2.1647331403040675,
                -0.8838831894382337,
                0.5992489094940303,
                -3.1492423826650664
            ]
        },
        {
            "positions": [
                -0.1418629097805827,
                -1.2740393459051484,
                2.2291281006323156,
                -0.9183534572757208,
                0.7558029734129067,
                -3.134826767647378
            ]
        },
        {
            "positions": [
                -0.2080315244065989,
                -1.307677900503087,
                2.293523060960564,
                -0.9528237251132079,
                0.9123570373317831,
                -3.1204111526296896
            ]
        },
        {
            "positions": [
                -0.2742001390326151,
                -1.3413164551010253,
                2.3579180212888122,
                -0.987293992950695,
                1.0689111012506594,
                -3.1059955376120016
            ]
        },
        {
            "positions": [
                -0.3403687536586313,
                -1.3749550096989638,
                2.4223129816170603,
                -1.021764260788182,
                1.2254651651695359,
                -3.0915799225943132
            ]
        }
    ]
}{
    "goal": {
        "global_pose": {
            "orientation": {
                "w": 0.5084816217422485,
                "x": -0.49083608388900757,
                "y": 0.5182115435600281,
                "z": -0.4816462993621826
            },
            "position": {
                "x": 0.5540239810943604,
                "y": 0.030875300988554955,
                "z": 0.16403168439865112
            }
        },
        "name": "move_to_storage_A"
    },
    "id": "TRRT_move_to_storage_A_93",
    "joint_names": [
        "shoulder_pan_joint",
        "shoulder_lift_joint",
        "elbow_joint",
        "wrist_1_joint",
        "wrist_2_joint",
        "wrist_3_joint"
    ],
    "metrics": {
        "cart_traj_len": 0.35387288890287716,
        "distance_elbow_joint": 0.44865415120241936,
        "distance_shoulder_lift_joint": 0.2358388557531348,
        "distance_shoulder_pan_joint": 0.46532420692671367,
        "distance_wrist_1_joint": 0.23434945855405154,
        "distance_wrist_2_joint": 1.0897810255103832,
        "distance_wrist_3_joint": 0.08732933360933615,
        "smoothness": 6.661338165333112e-16,
        "time": 0.031785479,
        "traj_len": 1.6003990226053124,
        "weighted_distance": 2.014960590889843
    },
    "planner": "TRRT",
    "start": {
        "state": {
            "elbow_joint": 1.97154746011099,
            "shoulder_lift_joint": -1.13948474672311,
            "shoulder_pan_joint": 0.12281154466712228,
            "wrist_1_joint": -0.7804688027058302,
            "wrist_2_joint": 0.12958655903071145,
            "wrist_3_joint": 3.0906928834467795
        }
    },
    "waypoints": [
        {
            "positions": [
                0.12281154466712228,
                -1.13948474672311,
                1.97154746011099,
                -0.7804688027058302,
                0.12958655903071145,
                3.0906928834467795
            ]
        },
        {
            "positions": [
                0.056336657963306044,
                -1.1731760118307006,
                2.035640910282764,
                -0.8139472967849805,
                0.2852695626750519,
                3.1031685025338276
            ]
        },
        {
            "positions": [
                -0.010138228740510194,
                -1.2068672769382913,
                2.0997343604545384,
                -0.8474257908641306,
                0.4409525663193924,
                3.1156441216208757
            ]
        },
        {
            "positions": [
                -0.07661311544432643,
                -1.240558542045882,
                2.1638278106263127,
                -0.8809042849432809,
                0.5966355699637328,
                3.1281197407079238
            ]
        },
        {
            "positions": [
                -0.14308800214814266,
                -1.2742498071534727,
                2.2279212607980865,
                -0.914382779022431,
                0.7523185736080733,
                3.1405953597949714
            ]
        },
        {
            "positions": [
                -0.2095628888519589,
                -1.3079410722610634,
                2.2920147109698608,
                -0.9478612731015813,
                0.9080015772524138,
                3.1530709788820195
            ]
        },
        {
            "positions": [
                -0.27603777555577513,
                -1.341632337368654,
                2.356108161141635,
                -0.9813397671807315,
                1.063684580896754,
                3.1655465979690676
            ]
        },
        {
            "positions": [
                -0.34251266225959137,
                -1.3753236024762447,
                2.4202016113134093,
                -1.0148182612598817,
                1.2193675845410947,
                3.1780222170561157
            ]
        }
    ]
}{
    "goal": {
        "global_pose": {
            "orientation": {
                "w": 0.5084816217422485,
                "x": -0.49083608388900757,
                "y": 0.5182115435600281,
                "z": -0.4816462993621826
            },
            "position": {
                "x": 0.5540239810943604,
                "y": 0.030875300988554955,
                "z": 0.16403168439865112
            }
        },
        "name": "move_to_storage_A"
    },
    "id": "TRRT_move_to_storage_A_93",
    "joint_names": [
        "shoulder_pan_joint",
        "shoulder_lift_joint",
        "elbow_joint",
        "wrist_1_joint",
        "wrist_2_joint",
        "wrist_3_joint"
    ],
    "metrics": {
        "cart_traj_len": 0.3524261231278951,
        "distance_elbow_joint": 0.44880331424218545,
        "distance_shoulder_lift_joint": 0.23338217825377106,
        "distance_shoulder_pan_joint": 0.4596265235126354,
        "distance_wrist_1_joint": 0.24234856806474614,
        "distance_wrist_2_joint": 1.1019657912714491,
        "distance_wrist_3_joint": 0.0933978798944115,
        "smoothness": 8.881784232165597e-16,
        "time": 0.020022855,
        "traj_len": 1.6060897407178711,
        "weighted_distance": 2.0274699441333817
    },
    "planner": "TRRT",
    "start": {
        "state": {
            "elbow_joint": 1.9715472970024885,
            "shoulder_lift_joint": -1.1394870060712896,
            "shoulder_pan_joint": 0.12281152778156021,
            "wrist_1_joint": -0.780463741449964,
            "wrist_2_joint": 0.12958659822042276,
            "wrist_3_joint": 3.090690232415272
        }
    },
    "waypoints": [
        {
            "positions": [
                0.12281152778156021,
                -1.1394870060712896,
                1.9715472970024885,
                -0.780463741449964,
                0.12958659822042276,
                3.090690232415272
            ]
        },
        {
            "positions": [
                0.05715059585118373,
                -1.1728273172503998,
                2.0356620561799437,
                -0.8150849654592135,
                0.2870102826877726,
                3.104032786685902
            ]
        },
        {
            "positions": [
                -0.008510336079192743,
                -1.20616762842951,
                2.099776815357399,
                -0.8497061894684629,
                0.4444339671551225,
                3.1173753409565323
            ]
        },
        {
            "positions": [
                -0.07417126800956922,
                -1.2395079396086202,
                2.163891574534854,
                -0.8843274134777124,
                0.6018576516224724,
                3.1307178952271624
            ]
        },
        {
            "positions": [
                -0.1398321999399457,
                -1.2728482507877301,
                2.2280063337123086,
                -0.9189486374869618,
                0.7592813360898222,
                3.144060449497793
            ]
        },
        {
            "positions": [
                -0.20549313187032217,
                -1.3061885619668403,
                2.2921210928897637,
                -0.9535698614962113,
                0.9167050205571721,
                3.157403003768423
            ]
        },
        {
            "positions": [
                -0.2711540638006986,
                -1.3395288731459505,
                2.356235852067219,
                -0.9881910855054606,
                1.074128705024522,
                3.1707455580390533
            ]
        },
        {
            "positions": [
                -0.33681499573107515,
                -1.3728691843250607,
                2.420350611244674,
                -1.0228123095147101,
                1.2315523894918718,
                3.1840881123096834
            ]
        }
    ]
}