{
    "goal": {
        "global_pose": {
            "orientation": {
                "w": 0.5084816262002911,
                "x": -0.4908360881923452,
                "y": 0.5182115481033761,
                "z": -0.48164630358495003
            },
            "position": {
                "x": 0.5540239810943604,
                "y": -0.46912469901144505,
                "z": 0.16403168439865112
            }
        },
        "name": "move_to_storage_B"
    },
    "id": "TRRT_move_to_storage_B_37",
    "joint_names": [
        "shoulder_pan_joint",
        "shoulder_lift_joint",
        "elbow_joint",
        "wrist_1_joint",
        "wrist_2_joint",
        "wrist_3_joint"
    ],
    "metrics": {
        "cart_traj_len": 0.639846510204929,
        "distance_elbow_joint": 0.350966035687045,
        "distance_shoulder_lift_joint": 0.4593698876462009,
        "distance_shoulder_pan_joint": 0.30938280009135954,
        "distance_wrist_1_joint": 2.9914727193471777,
        "distance_wrist_2_joint": 2.7087990402069066,
        "distance_wrist_3_joint": 3.134710878487661,
        "smoothness": 0.03464889033007921,
        "time": 0.078032311,
        "traj_len": 3.155107187001157,
        "weighted_distance": 4.682349290473294
    },
    "planner": "TRRT",
    "start": {
        "state": {
            "elbow_joint": 1.664937868594044,
            "shoulder_lift_joint": -0.661644460510453,
            "shoulder_pan_joint": -0.9139846352900073,
            "wrist_1_joint": 2.146753192139373,
            "wrist_2_joint": -2.2341966793290973,
            "wrist_3_joint": 0.005466555786416001
        }
    },
    "waypoints": [
        {
            "positions": [
                -0.9139846352900073,
                -0.661644460510453,
                1.664937868594044,
                2.146753192139373,
                -2.2341966793290973,
                0.005466555786416001
            ]
        },
        {
            "positions": [
                -0.8499092327306799,
                -0.6869082899035119,
                1.6846022867078232,
                2.0952452314940913,
                -2.1393221037807684,
                -0.03862195061978747
            ]
        },
        {
            "positions": [
                -0.8597215286319612,
                -0.7042725322336376,
                1.6978543514107538,
                1.9776466411460154,
                -2.034765125194425,
                -0.1622468455030458
            ]
        },
        {
            "positions": [
                -0.8695338245332425,
                -0.7216367745637633,
                1.7111064161136844,
                1.8600480507979396,
                -1.930208146608082,
                -0.2858717403863041
            ]
        },
        {
            "positions": [
                -0.8793461204345238,
                -0.739001016893889,
                1.724358480816615,
                1.7424494604498637,
                -1.8256511680217389,
                -0.40949663526956237
            ]
        },
        {
            "positions": [
                -0.8891584163358051,
                -0.7563652592240147,
                1.7376105455195456,
                1.6248508701017879,
                -1.7210941894353957,
                -0.5331215301528207
            ]
        },
        {
            "positions": [
                -0.8989707122370862,
                -0.7737295015541403,
                1.7508626102224762,
                1.507252279753712,
                -1.6165372108490526,
                -0.656746425036079
            ]
        },
        {
            "positions": [
                -0.9087830081383675,
                -0.791093743884266,
                1.7641146749254069,
                1.3896536894056362,
                -1.5119802322627096,
                -0.7803713199193373
            ]
        },
        {
            "positions": [
                -0.9185953040396488,
                -0.8084579862143917,
                1.7773667396283377,
                1.2720550990575603,
                -1.4074232536763664,
                -0.9039962148025957
            ]
        },
        {
            "positions": [
                -0.9284075999409301,
                -0.8258222285445174,
                1.7906188043312683,
                1.1544565087094845,
                -1.3028662750900233,
                -1.027621109685854
            ]
        },
        {
            "positions": [
                -0.9382198958422114,
                -0.843186470874643,
                1.803870869034199,
                1.0368579183614086,
                -1.1983092965036803,
                -1.1512460045691124
            ]
        },
        {
            "positions": [
                -0.9480321917434927,
                -0.8605507132047687,
                1.8171229337371295,
                0.9192593280133328,
                -1.093752317917337,
                -1.2748708994523708
            ]
        },
        {
            "positions": [
                -0.957844487644774,
                -0.8779149555348944,
                1.8303749984400601,
                0.8016607376652569,
                -0.989195339330994,
                -1.398495794335629
            ]
        },
        {
            "positions": [
                -0.9676567835460552,
                -0.8952791978650201,
                1.8436270631429907,
                0.6840621473171811,
                -0.8846383607446509,
                -1.5221206892188872
            ]
        },
        {
            "positions": [
                -0.9774690794473366,
                -0.9126434401951458,
                1.8568791278459214,
                0.5664635569691052,
                -0.7800813821583077,
                -1.6457455841021458
            ]
        },
        {
            "positions": [
                -0.9872813753486178,
                -0.9300076825252714,
                1.870131192548852,
                0.44886496662102915,
                -0.6755244035719645,
                -1.7693704789854041
            ]
        },
        {
            "positions": [
                -0.9970936712498991,
                -0.9473719248553971,
                1.8833832572517826,
                0.3312663762729535,
                -0.5709674249856216,
                -1.8929953738686622
            ]
        },
        {
            "positions": [
                -1.0069059671511804,
                -0.9647361671855228,
                1.8966353219547132,
                0.21366778592487767,
                -0.4664104463992782,
                -2.0166202687519204
            ]
        },
        {
            "positions": [
                -1.0167182630524616,
                -0.9821004095156485,
                1.9098873866576438,
                0.0960691955768016,
                -0.36185346781293504,
                -2.140245163635179
            ]
        },
        {
            "positions": [
                -1.026530558953743,
                -0.9994646518457742,
                1.9231394513605744,
                -0.021529394771274024,
                -0.2572964892265921,
                -2.263870058518437
            ]
        },
        {
            "positions": [
                -1.0363428548550242,
                -1.0168288941758998,
                1.9363915160635052,
                -0.13912798511934987,
                -0.15273951064024893,
                -2.387494953401695
            ]
        },
        {
            "positions": [
                -1.0461551507563056,
                -1.0341931365060255,
                1.9496435807664358,
                -0.2567265754674257,
                -0.04818253205390555,
                -2.5111198482849537
            ]
        },
        {
            "positions": [
                -1.0559674466575868,
                -1.0515573788361512,
                1.9628956454693665,
                -0.37432516581550157,
                0.05637444653243717,
                -2.634744743168212
            ]
        },
        {
            "positions": [
                -1.0657797425588682,
                -1.0689216211662769,
                1.976147710172297,
                -0.4919237561635774,
                0.16093142511878034,
                -2.7583696380514704
            ]
        },
        {
            "positions": [
                -1.0755920384601494,
                -1.0862858634964025,
                1.9893997748752277,
                -0.6095223465116533,
                0.2654884037051235,
                -2.8819945329347285
            ]
        },
        {
            "positions": [
                -1.0854043343614306,
                -1.1036501058265282,
                2.0026518395781583,
                -0.7271209368597291,
                0.37004538229146666,
                -3.0056194278179866
            ]
        },
        {
            "positions": [
                -1.095216630262712,
                -1.121014348156654,
                2.015903904281089,
                -0.844719527207805,
                0.47460236087780966,
                -3.129244322701245
            ]
        }
    ]
}