{
    "goal": {
        "global_pose": {
            "orientation": {
                "w": 0.005598929693374612,
                "x": 0.007748599140229565,
                "y": 0.7110244013736278,
                "z": -0.7031023480610252
            },
            "position": {
                "x": -0.8858502320852131,
                "y": -0.7141253447532654,
                "z": 0.3711530566215515
            }
        },
        "name": "move_to_auspresseinheit_C"
    },
    "id": "TRRT_move_to_auspresseinheit_C_90",
    "joint_names": [
        "shoulder_pan_joint",
        "shoulder_lift_joint",
        "elbow_joint",
        "wrist_1_joint",
        "wrist_2_joint",
        "wrist_3_joint"
    ],
    "metrics": {
        "cart_traj_len": 0.4929643444804351,
        "distance_elbow_joint": 0.995349056211946,
        "distance_shoulder_lift_joint": 0.32307329985243205,
        "distance_shoulder_pan_joint": 0.25625610945239696,
        "distance_wrist_1_joint": 0.6639402824263743,
        "distance_wrist_2_joint": 1.320125193055321,
        "distance_wrist_3_joint": 0.04180706009258328,
        "smoothness": 0.0,
        "time": 1.409672968,
        "traj_len": 1.8975117920822138,
        "weighted_distance": 2.3808046112098142
    },
    "planner": "TRRT",
    "start": {
        "state": {
            "elbow_joint": 1.7527959577737207,
            "shoulder_lift_joint": -0.9740617694225068,
            "shoulder_pan_joint": -2.967991417825858,
            "wrist_1_joint": -0.759517768980727,
            "wrist_2_joint": 1.7443932448377408,
            "wrist_3_joint": -3.0840537646736568
        }
    },
    "waypoints": [
        {
            "positions": [
                -2.967991417825858,
                -0.9740617694225068,
                1.7527959577737207,
                -0.759517768980727,
                1.7443932448377408,
                -3.0840537646736568
            ]
        },
        {
            "positions": [
                -2.9423658068806184,
                -0.9417544394372636,
                1.653261052152526,
                -0.6931237407380896,
                1.6123807255322087,
                -3.0882344706829152
            ]
        },
        {
            "positions": [
                -2.9167401959353785,
                -0.9094471094520203,
                1.5537261465313315,
                -0.6267297124954521,
                1.4803682062266765,
                -3.0924151766921733
            ]
        },
        {
            "positions": [
                -2.891114584990139,
                -0.8771397794667771,
                1.454191240910137,
                -0.5603356842528147,
                1.3483556869211446,
                -3.0965958827014317
            ]
        },
        {
            "positions": [
                -2.865488974044899,
                -0.8448324494815339,
                1.3546563352889422,
                -0.49394165601017725,
                1.2163431676156122,
                -3.10077658871069
            ]
        },
        {
            "positions": [
                -2.8398633630996595,
                -0.8125251194962908,
                1.2551214296677475,
                -0.42754762776753985,
                1.0843306483100803,
                -3.1049572947199486
            ]
        },
        {
            "positions": [
                -2.81423775215442,
                -0.7802177895110476,
                1.155586524046553,
                -0.36115359952490245,
                0.9523181290045483,
                -3.1091380007292067
            ]
        },
        {
            "positions": [
                -2.78861214120918,
                -0.7479104595258044,
                1.0560516184253586,
                -0.29475957128226504,
                0.8203056096990161,
                -3.113318706738465
            ]
        },
        {
            "positions": [
                -2.7629865302639405,
                -0.7156031295405612,
                0.9565167128041638,
                -0.22836554303962753,
                0.6882930903934839,
                -3.1174994127477236
            ]
        },
        {
            "positions": [
                -2.7373609193187005,
                -0.6832957995553179,
                0.8569818071829692,
                -0.16197151479699012,
                0.5562805710879519,
                -3.1216801187569816
            ]
        },
        {
            "positions": [
                -2.711735308373461,
                -0.6509884695700747,
                0.7574469015617746,
                -0.09557748655435269,
                0.42426805178241983,
                -3.12586082476624
            ]
        }
    ]
}