{
    "goal": {
        "global_pose": {
            "orientation": {
                "w": 0.5084816262002911,
                "x": -0.4908360881923452,
                "y": 0.5182115481033761,
                "z": -0.48164630358495003
            },
            "position": {
                "x": 0.5540239810943604,
                "y": -0.46912469901144505,
                "z": 0.16403168439865112
            }
        },
        "name": "move_to_storage_B"
    },
    "id": "TRRT_move_to_storage_B_81",
    "joint_names": [
        "shoulder_pan_joint",
        "shoulder_lift_joint",
        "elbow_joint",
        "wrist_1_joint",
        "wrist_2_joint",
        "wrist_3_joint"
    ],
    "metrics": {
        "cart_traj_len": 0.8470290733897947,
        "distance_elbow_joint": 0.5422428180478778,
        "distance_shoulder_lift_joint": 0.4588208494292736,
        "distance_shoulder_pan_joint": 0.7023875659357938,
        "distance_wrist_1_joint": 3.0044193738834375,
        "distance_wrist_2_joint": 2.7017308077475004,
        "distance_wrist_3_joint": 3.12101292603991,
        "smoothness": 0.09491256639935881,
        "time": 0.110047254,
        "traj_len": 3.2450908062924517,
        "weighted_distance": 4.741180272336684
    },
    "planner": "TRRT",
    "start": {
        "state": {
            "elbow_joint": 1.664937868594044,
            "shoulder_lift_joint": -0.661644460510453,
            "shoulder_pan_joint": -0.9139846352900073,
            "wrist_1_joint": 2.146753192139373,
            "wrist_2_joint": -2.2341966793290973,
            "wrist_3_joint": 0.005466555786416001
        }
    },
    "waypoints": [
        {
            "positions": [
                -0.9139846352900073,
                -0.661644460510453,
                1.664937868594044,
                2.146753192139373,
                -2.2341966793290973,
                0.005466555786416001
            ]
        },
        {
            "positions": [
                -0.9011685833227068,
                -0.6654366756024522,
                1.654325916055953,
                2.130130336562492,
                -2.217930446198901,
                -0.0007531813410270125
            ]
        },
        {
            "positions": [
                -0.8701694599950571,
                -0.6875112471311908,
                1.6438553065381853,
                2.0003416257277684,
                -2.108829026580554,
                -0.06417587570747156
            ]
        },
        {
            "positions": [
                -0.8391703366674075,
                -0.7095858186599294,
                1.6333846970204178,
                1.8705529148930446,
                -1.999727606962207,
                -0.1275985700739161
            ]
        },
        {
            "positions": [
                -0.8081712133397577,
                -0.731660390188668,
                1.62291408750265,
                1.7407642040583209,
                -1.89062618734386,
                -0.19102126444036063
            ]
        },
        {
            "positions": [
                -0.7771720900121081,
                -0.7537349617174067,
                1.6124434779848824,
                1.6109754932235973,
                -1.781524767725513,
                -0.2544439588068052
            ]
        },
        {
            "positions": [
                -0.7461729666844584,
                -0.7758095332461453,
                1.6019728684671148,
                1.4811867823888738,
                -1.672423348107166,
                -0.31786665317324975
            ]
        },
        {
            "positions": [
                -0.7151738433568087,
                -0.7978841047748839,
                1.591502258949347,
                1.35139807155415,
                -1.563321928488819,
                -0.3812893475396943
            ]
        },
        {
            "positions": [
                -0.684174720029159,
                -0.8199586763036225,
                1.5810316494315795,
                1.2216093607194263,
                -1.4542205088704718,
                -0.44471204190613883
            ]
        },
        {
            "positions": [
                -0.6531755967015094,
                -0.8420332478323611,
                1.570561039913812,
                1.0918206498847027,
                -1.345119089252125,
                -0.5081347362725833
            ]
        },
        {
            "positions": [
                -0.6752545230688741,
                -0.8559548509377294,
                1.592954339382194,
                0.9943463083032644,
                -1.2544864283685986,
                -0.6385053179716289
            ]
        },
        {
            "positions": [
                -0.697333449436239,
                -0.8698764540430977,
                1.6153476388505765,
                0.896871966721826,
                -1.1638537674850722,
                -0.7688758996706744
            ]
        },
        {
            "positions": [
                -0.7194123758036037,
                -0.8837980571484659,
                1.6377409383189587,
                0.7993976251403877,
                -1.0732211066015458,
                -0.8992464813697199
            ]
        },
        {
            "positions": [
                -0.7414913021709686,
                -0.8977196602538342,
                1.6601342377873411,
                0.7019232835589493,
                -0.9825884457180194,
                -1.0296170630687655
            ]
        },
        {
            "positions": [
                -0.7635702285383333,
                -0.9116412633592025,
                1.6825275372557233,
                0.604448941977511,
                -0.891955784834493,
                -1.159987644767811
            ]
        },
        {
            "positions": [
                -0.7856491549056981,
                -0.9255628664645708,
                1.7049208367241055,
                0.5069746003960727,
                -0.8013231239509666,
                -1.2903582264668565
            ]
        },
        {
            "positions": [
                -0.807728081273063,
                -0.939484469569939,
                1.727314136192488,
                0.40950025881463437,
                -0.7106904630674402,
                -1.4207288081659022
            ]
        },
        {
            "positions": [
                -0.8298070076404277,
                -0.9534060726753073,
                1.7497074356608702,
                0.31202591723319584,
                -0.6200578021839138,
                -1.5510993898649477
            ]
        },
        {
            "positions": [
                -0.8518859340077926,
                -0.9673276757806756,
                1.7721007351292526,
                0.21455157565175753,
                -0.5294251413003874,
                -1.6814699715639931
            ]
        },
        {
            "positions": [
                -0.8739648603751573,
                -0.9812492788860439,
                1.7944940345976348,
                0.11707723407031922,
                -0.43879248041686103,
                -1.8118405532630386
            ]
        },
        {
            "positions": [
                -0.8960437867425222,
                -0.9951708819914121,
                1.816887334066017,
                0.019602892488880697,
                -0.3481598195333345,
                -1.9422111349620845
            ]
        },
        {
            "positions": [
                -0.9181227131098868,
                -1.0090924850967804,
                1.8392806335343994,
                -0.07787144909255739,
                -0.25752715864980824,
                -2.0725817166611296
            ]
        },
        {
            "positions": [
                -0.9402016394772517,
                -1.0230140882021486,
                1.8616739330027816,
                -0.17534579067399592,
                -0.16689449776628185,
                -2.2029522983601755
            ]
        },
        {
            "positions": [
                -0.9622805658446165,
                -1.036935691307517,
                1.884067232471164,
                -0.272820132255434,
                -0.07626183688275545,
                -2.333322880059221
            ]
        },
        {
            "positions": [
                -0.9843594922119813,
                -1.0508572944128853,
                1.9064605319395462,
                -0.37029447383687253,
                0.014370824000770943,
                -2.4636934617582664
            ]
        },
        {
            "positions": [
                -1.006438418579346,
                -1.0647788975182535,
                1.9288538314079284,
                -0.46776881541831106,
                0.10500348488429734,
                -2.5940640434573123
            ]
        },
        {
            "positions": [
                -1.0285173449467109,
                -1.0787005006236217,
                1.9512471308763109,
                -0.5652431569997491,
                0.19563614576782373,
                -2.7244346251563574
            ]
        },
        {
            "positions": [
                -1.0505962713140757,
                -1.09262210372899,
                1.973640430344693,
                -0.6627174985811877,
                0.2862688066513501,
                -2.8548052068554033
            ]
        },
        {
            "positions": [
                -1.0726751976814404,
                -1.1065437068343584,
                1.9960337298130755,
                -0.7601918401626258,
                0.3769014675348765,
                -2.9851757885544488
            ]
        },
        {
            "positions": [
                -1.0947541240488052,
                -1.1204653099397266,
                2.0184270292814577,
                -0.8576661817440643,
                0.46753412841840286,
                -3.1155463702534942
            ]
        }
    ]
}