{
    "goal": {
        "global_pose": {
            "orientation": {
                "w": -0.00223480608172531,
                "x": 0.0024358444001904467,
                "y": 0.7094548369677653,
                "z": -0.704743149386269
            },
            "position": {
                "x": -0.37947507619857795,
                "y": -0.6371506643295288,
                "z": 0.19426114857196808
            }
        },
        "name": "move_to_magneteinheit_C"
    },
    "id": "TRRT_move_to_magneteinheit_C_144",
    "joint_names": [
        "shoulder_pan_joint",
        "shoulder_lift_joint",
        "elbow_joint",
        "wrist_1_joint",
        "wrist_2_joint",
        "wrist_3_joint"
    ],
    "metrics": {
        "cart_traj_len": 0.7791319023734592,
        "distance_elbow_joint": 0.7679385163679151,
        "distance_shoulder_lift_joint": 0.5738117951614778,
        "distance_shoulder_pan_joint": 1.0075373509676637,
        "distance_wrist_1_joint": 1.0054549218716233,
        "distance_wrist_2_joint": 0.9471926492334819,
        "distance_wrist_3_joint": 0.6365445807521417,
        "smoothness": 2.1645724409268268,
        "time": 1.9959928370000002,
        "traj_len": 2.222269068847043,
        "weighted_distance": 2.857309319440878
    },
    "planner": "TRRT",
    "start": {
        "state": {
            "elbow_joint": 1.9565354010623817,
            "shoulder_lift_joint": -1.4165861575791021,
            "shoulder_pan_joint": -1.6717766225146293,
            "wrist_1_joint": -0.5286633292919765,
            "wrist_2_joint": 1.472756589071564,
            "wrist_3_joint": -3.1238370188695823
        }
    },
    "waypoints": [
        {
            "positions": [
                -1.6717766225146293,
                -1.4165861575791021,
                1.9565354010623817,
                -0.5286633292919765,
                1.472756589071564,
                -3.1238370188695823
            ]
        },
        {
            "positions": [
                -1.6679784243335933,
                -1.5767035278966977,
                1.9927497305560635,
                -0.5486346800368308,
                1.5480058361279982,
                -3.159472477475072
            ]
        },
        {
            "positions": [
                -1.7595317738996104,
                -1.5701428004771847,
                2.0465866498626193,
                -0.6410091979791802,
                1.4565550223650237,
                -3.1165028804060584
            ]
        },
        {
            "positions": [
                -1.8510851234656276,
                -1.5635820730576717,
                2.1004235691691755,
                -0.7333837159215297,
                1.365104208602049,
                -3.0735332833370452
            ]
        },
        {
            "positions": [
                -1.9426384730316446,
                -1.5570213456381587,
                2.1542604884757313,
                -0.8257582338638791,
                1.2736533948390742,
                -3.0305636862680316
            ]
        },
        {
            "positions": [
                -2.034191822597662,
                -1.5504606182186458,
                2.2080974077822875,
                -0.9181327518062286,
                1.1822025810760997,
                -2.9875940891990185
            ]
        },
        {
            "positions": [
                -2.125745172163679,
                -1.5438998907991328,
                2.2619343270888432,
                -1.0105072697485782,
                1.090751767313125,
                -2.944624492130005
            ]
        },
        {
            "positions": [
                -2.217298521729696,
                -1.5373391633796198,
                2.315771246395399,
                -1.1028817876909276,
                0.9993009535501505,
                -2.9016548950609917
            ]
        },
        {
            "positions": [
                -2.308851871295713,
                -1.5307784359601069,
                2.369608165701955,
                -1.195256305633277,
                0.9078501397871758,
                -2.858685297991978
            ]
        },
        {
            "positions": [
                -2.374715647056965,
                -1.4982740410288033,
                2.327710503537407,
                -1.1312201279343026,
                0.8782196133696208,
                -2.9309466344592887
            ]
        },
        {
            "positions": [
                -2.4405794228182174,
                -1.4657696460974996,
                2.2858128413728593,
                -1.0671839502353282,
                0.8485890869520658,
                -3.0032079709265993
            ]
        },
        {
            "positions": [
                -2.5064431985794693,
                -1.4332652511661959,
                2.2439151792083116,
                -1.0031477725363538,
                0.8189585605345109,
                -3.0754693073939094
            ]
        },
        {
            "positions": [
                -2.572306974340721,
                -1.4007608562348923,
                2.2020175170437635,
                -0.9391115948373794,
                0.789328034116956,
                -3.14773064386122
            ]
        },
        {
            "positions": [
                -2.5226016729509713,
                -1.2818849796438538,
                2.1083799655086883,
                -0.8977529774701667,
                0.7326952340339533,
                -3.142192345464062
            ]
        },
        {
            "positions": [
                -2.4728963715612213,
                -1.1630091030528154,
                2.0147424139736136,
                -0.8563943601029541,
                0.6760624339509507,
                -3.1366540470669038
            ]
        }
    ]
}