{
    "goal": {
        "global_pose": {
            "orientation": {
                "w": 0.5084816262002911,
                "x": -0.4908360881923452,
                "y": 0.5182115481033761,
                "z": -0.48164630358495003
            },
            "position": {
                "x": 0.5540239810943604,
                "y": -0.46912469901144505,
                "z": 0.16403168439865112
            }
        },
        "name": "move_to_storage_B"
    },
    "id": "TRRT_move_to_storage_B_135",
    "joint_names": [
        "shoulder_pan_joint",
        "shoulder_lift_joint",
        "elbow_joint",
        "wrist_1_joint",
        "wrist_2_joint",
        "wrist_3_joint"
    ],
    "metrics": {
        "cart_traj_len": 0.9386401040563408,
        "distance_elbow_joint": 1.1274627149780754,
        "distance_shoulder_lift_joint": 0.4738448548646792,
        "distance_shoulder_pan_joint": 0.6901793962849782,
        "distance_wrist_1_joint": 2.9874271007589623,
        "distance_wrist_2_joint": 2.7153220535602056,
        "distance_wrist_3_joint": 3.2315396922838833,
        "smoothness": 0.24034187936814513,
        "time": 0.08163356299999999,
        "traj_len": 3.3504888915993707,
        "weighted_distance": 4.836486777777617
    },
    "planner": "TRRT",
    "start": {
        "state": {
            "elbow_joint": 1.664937868594044,
            "shoulder_lift_joint": -0.661644460510453,
            "shoulder_pan_joint": -0.9139846352900073,
            "wrist_1_joint": 2.146753192139373,
            "wrist_2_joint": -2.2341966793290973,
            "wrist_3_joint": 0.005466555786416001
        }
    },
    "waypoints": [
        {
            "positions": [
                -0.9139846352900073,
                -0.661644460510453,
                1.664937868594044,
                2.146753192139373,
                -2.2341966793290973,
                0.005466555786416001
            ]
        },
        {
            "positions": [
                -0.8503704744244592,
                -0.7101835977006385,
                1.6525385429610542,
                2.0640159294383396,
                -2.144637590783898,
                -0.005036377859795666
            ]
        },
        {
            "positions": [
                -0.7867563135589111,
                -0.7587227348908242,
                1.6401392173280642,
                1.9812786667373055,
                -2.055078502238699,
                -0.015539311506007333
            ]
        },
        {
            "positions": [
                -0.723142152693363,
                -0.8072618720810099,
                1.6277398916950743,
                1.8985414040362718,
                -1.9655194136935,
                -0.026042245152219
            ]
        },
        {
            "positions": [
                -0.659527991827815,
                -0.8558010092711954,
                1.6153405660620845,
                1.815804141335238,
                -1.8759603251483008,
                -0.036545178798430666
            ]
        },
        {
            "positions": [
                -0.690982567827128,
                -0.8546350778682946,
                1.5589753673077744,
                1.716462195523856,
                -1.7921963486663162,
                0.030299281648021925
            ]
        },
        {
            "positions": [
                -0.7224371438264409,
                -0.8534691464653937,
                1.502610168553464,
                1.617120249712474,
                -1.7084323721843313,
                0.09714374209447452
            ]
        },
        {
            "positions": [
                -0.7538917198257539,
                -0.852303215062493,
                1.446244969799154,
                1.5177783039010917,
                -1.6246683957023467,
                0.16398820254092714
            ]
        },
        {
            "positions": [
                -0.7853462958250668,
                -0.8511372836595922,
                1.3898797710448438,
                1.4184363580897097,
                -1.540904419220362,
                0.2308326629873797
            ]
        },
        {
            "positions": [
                -0.8168008718243798,
                -0.8499713522566913,
                1.3335145722905335,
                1.3190944122783277,
                -1.4571404427383772,
                0.29767712343383235
            ]
        },
        {
            "positions": [
                -0.8482554478236928,
                -0.8488054208537905,
                1.2771493735362234,
                1.2197524664669457,
                -1.3733764662563925,
                0.36452158388028494
            ]
        },
        {
            "positions": [
                -0.8600171286249741,
                -0.861790788362673,
                1.312371955437188,
                1.1216369247961582,
                -1.285066854804607,
                0.49730545030982404
            ]
        },
        {
            "positions": [
                -0.8717788094262554,
                -0.8747761558715554,
                1.3475945373381524,
                1.0235213831253709,
                -1.196757243352821,
                0.6300893167393631
            ]
        },
        {
            "positions": [
                -0.8835404902275368,
                -0.8877615233804379,
                1.382817119239117,
                0.9254058414545834,
                -1.1084476319010355,
                0.7628731831689022
            ]
        },
        {
            "positions": [
                -0.8953021710288182,
                -0.9007468908893204,
                1.4180397011400814,
                0.827290299783796,
                -1.0201380204492496,
                0.8956570495984413
            ]
        },
        {
            "positions": [
                -0.9070638518300994,
                -0.9137322583982028,
                1.453262283041046,
                0.7291747581130086,
                -0.931828408997464,
                1.0284409160279804
            ]
        },
        {
            "positions": [
                -0.9188255326313808,
                -0.9267176259070853,
                1.4884848649420104,
                0.6310592164422211,
                -0.8435187975456783,
                1.1612247824575195
            ]
        },
        {
            "positions": [
                -0.9305872134326622,
                -0.9397029934159679,
                1.523707446842975,
                0.5329436747714337,
                -0.7552091860938925,
                1.2940086488870586
            ]
        },
        {
            "positions": [
                -0.9423488942339434,
                -0.9526883609248503,
                1.5589300287439394,
                0.4348281331006463,
                -0.6668995746421068,
                1.4267925153165977
            ]
        },
        {
            "positions": [
                -0.9541105750352248,
                -0.9656737284337328,
                1.594152610644904,
                0.33671259142985877,
                -0.5785899631903212,
                1.5595763817461368
            ]
        },
        {
            "positions": [
                -0.9658722558365062,
                -0.9786590959426152,
                1.6293751925458686,
                0.23859704975907137,
                -0.49028035173853546,
                1.6923602481756759
            ]
        },
        {
            "positions": [
                -0.9776339366377875,
                -0.9916444634514977,
                1.664597774446833,
                0.14048150808828375,
                -0.4019707402867496,
                1.825144114605215
            ]
        },
        {
            "positions": [
                -0.9893956174390688,
                -1.00462983096038,
                1.6998203563477976,
                0.04236596641749646,
                -0.313661128834964,
                1.957927981034754
            ]
        },
        {
            "positions": [
                -1.00115729824035,
                -1.0176151984692627,
                1.7350429382487622,
                -0.05574957525329105,
                -0.22535151738317816,
                2.090711847464293
            ]
        },
        {
            "positions": [
                -1.0129189790416315,
                -1.0306005659781452,
                1.7702655201497266,
                -0.15386511692407834,
                -0.13704190593139254,
                2.2234957138938323
            ]
        },
        {
            "positions": [
                -1.0246806598429128,
                -1.0435859334870277,
                1.805488102050691,
                -0.25198065859486585,
                -0.0487322944796067,
                2.3562795803233714
            ]
        },
        {
            "positions": [
                -1.036442340644194,
                -1.0565713009959101,
                1.8407106839516556,
                -0.35009620026565313,
                0.03957731697217892,
                2.4890634467529105
            ]
        },
        {
            "positions": [
                -1.0482040214454755,
                -1.0695566685047926,
                1.8759332658526202,
                -0.44821174193644064,
                0.12788692842396454,
                2.6218473131824496
            ]
        },
        {
            "positions": [
                -1.0599657022467568,
                -1.082542036013675,
                1.9111558477535846,
                -0.5463272836072282,
                0.21619653987575016,
                2.7546311796119887
            ]
        },
        {
            "positions": [
                -1.071727383048038,
                -1.0955274035225575,
                1.9463784296545492,
                -0.6444428252780157,
                0.304506151327536,
                2.8874150460415278
            ]
        },
        {
            "positions": [
                -1.0834890638493195,
                -1.10851277103144,
                1.9816010115555138,
                -0.742558366948803,
                0.3928157627793216,
                3.020198912471067
            ]
        },
        {
            "positions": [
                -1.0952507446506008,
                -1.1214981385403224,
                2.016823593456478,
                -0.8406739086195905,
                0.4811253742311075,
                3.152982778900606
            ]
        }
    ]
}