{
    "goal": {
        "global_pose": {
            "orientation": {
                "w": -0.00223480608172531,
                "x": 0.0024358444001904467,
                "y": 0.7094548369677653,
                "z": -0.704743149386269
            },
            "position": {
                "x": 0.6205249238014221,
                "y": -0.6371506643295288,
                "z": 0.19426114857196808
            }
        },
        "name": "move_to_magneteinheit_B"
    },
    "id": "TRRT_move_to_magneteinheit_B_2",
    "joint_names": [
        "shoulder_pan_joint",
        "shoulder_lift_joint",
        "elbow_joint",
        "wrist_1_joint",
        "wrist_2_joint",
        "wrist_3_joint"
    ],
    "metrics": {
        "cart_traj_len": 1.461587070582951,
        "distance_elbow_joint": 0.957519088582423,
        "distance_shoulder_lift_joint": 0.7557312683289189,
        "distance_shoulder_pan_joint": 1.6218676358971038,
        "distance_wrist_1_joint": 1.061728749104088,
        "distance_wrist_2_joint": 1.5157395661436415,
        "distance_wrist_3_joint": 0.44933389126039036,
        "smoothness": 0.33198467419977923,
        "time": 0.0480097,
        "traj_len": 2.5222847181308787,
        "weighted_distance": 3.136567598041699
    },
    "planner": "TRRT",
    "start": {
        "state": {
            "elbow_joint": 2.6216224122426386,
            "shoulder_lift_joint": -1.4174107377796124,
            "shoulder_pan_joint": 0.7066234856936794,
            "wrist_1_joint": 1.9546482284002225,
            "wrist_2_joint": -0.7096286983471962,
            "wrist_3_joint": 0.005740856962016249
        }
    },
    "waypoints": [
        {
            "positions": [
                0.7066234856936794,
                -1.4174107377796124,
                2.6216224122426386,
                1.9546482284002225,
                -0.7096286983471962,
                0.005740856962016249
            ]
        },
        {
            "positions": [
                0.6369064624725755,
                -1.399807842576106,
                2.5885442585552867,
                1.8672521233863495,
                -0.7773332694184099,
                0.051086890680989774
            ]
        },
        {
            "positions": [
                0.5671894392514716,
                -1.3822049473725997,
                2.5554661048679352,
                1.7798560183724768,
                -0.8450378404896235,
                0.0964329243999633
            ]
        },
        {
            "positions": [
                0.4974724160303678,
                -1.3646020521690931,
                2.5223879511805833,
                1.6924599133586038,
                -0.9127424115608371,
                0.14177895811893684
            ]
        },
        {
            "positions": [
                0.4277553928092639,
                -1.3469991569655868,
                2.489309797493232,
                1.605063808344731,
                -0.9804469826320508,
                0.18712499183791037
            ]
        },
        {
            "positions": [
                0.35803836958816004,
                -1.3293962617620805,
                2.45623164380588,
                1.517667703330858,
                -1.0481515537032644,
                0.2324710255568839
            ]
        },
        {
            "positions": [
                0.2600935603734228,
                -1.2780334315842814,
                2.3952986961023672,
                1.5657252590258368,
                -1.1387066853023085,
                0.2153476622749206
            ]
        },
        {
            "positions": [
                0.1621487511586855,
                -1.2266706014064825,
                2.334365748398855,
                1.6137828147208155,
                -1.2292618169013525,
                0.19822429899295735
            ]
        },
        {
            "positions": [
                0.06420394194394824,
                -1.1753077712286835,
                2.273432800695342,
                1.6618403704157942,
                -1.3198169485003968,
                0.18110093571099406
            ]
        },
        {
            "positions": [
                -0.033740867270789066,
                -1.1239449410508844,
                2.2124998529918294,
                1.7098979261107732,
                -1.4103720800994408,
                0.16397757242903077
            ]
        },
        {
            "positions": [
                -0.13168567648552632,
                -1.0725821108730855,
                2.1515669052883166,
                1.757955481805752,
                -1.5009272116984849,
                0.1468542091470675
            ]
        },
        {
            "positions": [
                -0.22963048570026356,
                -1.0212192806952864,
                2.0906339575848043,
                1.8060130375007306,
                -1.5914823432975291,
                0.12973084586510425
            ]
        },
        {
            "positions": [
                -0.3275752949150008,
                -0.9698564505174875,
                2.0297010098812915,
                1.8540705931957093,
                -1.682037474896573,
                0.11260748258314097
            ]
        },
        {
            "positions": [
                -0.4255201041297382,
                -0.9184936203396885,
                1.9687680621777788,
                1.902128148890688,
                -1.7725926064956172,
                0.09548411930117767
            ]
        },
        {
            "positions": [
                -0.5234649133444753,
                -0.8671307901618894,
                1.9078351144742662,
                1.9501857045856668,
                -1.8631477380946613,
                0.07836075601921441
            ]
        },
        {
            "positions": [
                -0.6214097225592127,
                -0.8157679599840905,
                1.8469021667707535,
                1.9982432602806457,
                -1.9537028696937053,
                0.06123739273725112
            ]
        },
        {
            "positions": [
                -0.7193545317739499,
                -0.7644051298062915,
                1.785969219067241,
                2.0463008159756244,
                -2.0442580012927496,
                0.04411402945528786
            ]
        },
        {
            "positions": [
                -0.8172993409886872,
                -0.7130422996284924,
                1.7250362713637282,
                2.0943583716706033,
                -2.134813132891794,
                0.026990666173324573
            ]
        },
        {
            "positions": [
                -0.9152441502034245,
                -0.6616794694506934,
                1.6641033236602156,
                2.142415927365582,
                -2.2253682644908377,
                0.009867302891361309
            ]
        }
    ]
}