{
    "goal": {
        "global_pose": {
            "orientation": {
                "w": -0.4816463035849501,
                "x": 0.5182115481033762,
                "y": 0.4908360881923453,
                "z": -0.5084816262002911
            },
            "position": {
                "x": -0.8240239810943604,
                "y": 0.19912469901144506,
                "z": 0.16403168439865112
            }
        },
        "name": "move_to_storage_D"
    },
    "id": "TRRT_move_to_storage_D_137",
    "joint_names": [
        "shoulder_pan_joint",
        "shoulder_lift_joint",
        "elbow_joint",
        "wrist_1_joint",
        "wrist_2_joint",
        "wrist_3_joint"
    ],
    "metrics": {
        "cart_traj_len": 3.533310587150276,
        "distance_elbow_joint": 4.21116580164666,
        "distance_shoulder_lift_joint": 1.263439450179669,
        "distance_shoulder_pan_joint": 2.812009266148674,
        "distance_wrist_1_joint": 2.7780380245394833,
        "distance_wrist_2_joint": 0.9574503107105184,
        "distance_wrist_3_joint": 3.136859376684541,
        "smoothness": 0.24809418019008103,
        "time": 0.681214694,
        "traj_len": 3.8934511978332984,
        "weighted_distance": 5.0167887456547975
    },
    "planner": "TRRT",
    "start": {
        "state": {
            "elbow_joint": -2.384821988534728,
            "shoulder_lift_joint": -2.2788054721415256,
            "shoulder_pan_joint": -0.1854694642142757,
            "wrist_1_joint": 1.4845938289331202,
            "wrist_2_joint": 0.17898776772866878,
            "wrist_3_joint": 0.037105688729662994
        }
    },
    "waypoints": [
        {
            "positions": [
                -0.1854694642142757,
                -2.2788054721415256,
                -2.384821988534728,
                1.4845938289331202,
                0.17898776772866878,
                0.037105688729662994
            ]
        },
        {
            "positions": [
                -0.13922548676073915,
                -2.176137626723447,
                -2.36094777667454,
                1.59605102404495,
                0.15820509793713303,
                0.0798551104332302
            ]
        },
        {
            "positions": [
                -0.09298150930720261,
                -2.073469781305368,
                -2.337073564814353,
                1.7075082191567796,
                0.13742242814559727,
                0.1226045321367974
            ]
        },
        {
            "positions": [
                -0.02289173498948166,
                -2.0680140441632715,
                -2.200492692319198,
                1.6233774170462916,
                0.15948003611796666,
                0.19906153339937555
            ]
        },
        {
            "positions": [
                0.047198039328239294,
                -2.0625583070211753,
                -2.063911819824043,
                1.5392466149358033,
                0.18153764409033607,
                0.2755185346619537
            ]
        },
        {
            "positions": [
                0.11728781364596028,
                -2.0571025698790786,
                -1.9273309473288882,
                1.4551158128253152,
                0.20359525206270546,
                0.3519755359245319
            ]
        },
        {
            "positions": [
                0.1873775879636812,
                -2.0516468327369823,
                -1.7907500748337333,
                1.370985010714827,
                0.22565286003507484,
                0.42843253718711
            ]
        },
        {
            "positions": [
                0.25746736228140216,
                -2.0461910955948857,
                -1.6541692023385783,
                1.2868542086043389,
                0.24771046800744423,
                0.5048895384496881
            ]
        },
        {
            "positions": [
                0.32755713659912317,
                -2.0407353584527894,
                -1.5175883298434234,
                1.2027234064938506,
                0.26976807597981367,
                0.5813465397122664
            ]
        },
        {
            "positions": [
                0.3976469109168441,
                -2.0352796213106927,
                -1.3810074573482685,
                1.1185926043833625,
                0.291825683952183,
                0.6578035409748446
            ]
        },
        {
            "positions": [
                0.467736685234565,
                -2.029823884168596,
                -1.2444265848531137,
                1.0344618022728742,
                0.31388329192455244,
                0.7342605422374227
            ]
        },
        {
            "positions": [
                0.537826459552286,
                -2.0243681470265,
                -1.1078457123579588,
                0.9503310001623861,
                0.3359408998969218,
                0.8107175435000007
            ]
        },
        {
            "positions": [
                0.6079162338700069,
                -2.018912409884403,
                -0.9712648398628039,
                0.866200198051898,
                0.3579985078692912,
                0.887174544762579
            ]
        },
        {
            "positions": [
                0.6780060081877278,
                -2.013456672742307,
                -0.8346839673676492,
                0.7820693959414098,
                0.38005611584166055,
                0.963631546025157
            ]
        },
        {
            "positions": [
                0.748095782505449,
                -2.00800093560021,
                -0.698103094872494,
                0.6979385938309215,
                0.40211372381403,
                1.0400885472877353
            ]
        },
        {
            "positions": [
                0.8181855568231698,
                -2.002545198458114,
                -0.5615222223773391,
                0.6138077917204334,
                0.42417133178639943,
                1.1165455485503135
            ]
        },
        {
            "positions": [
                0.8882753311408909,
                -1.9970894613160173,
                -0.42494134988218435,
                0.5296769896099451,
                0.44622893975876876,
                1.1930025498128918
            ]
        },
        {
            "positions": [
                0.9583651054586118,
                -1.9916337241739208,
                -0.2883604773870294,
                0.44554618749945707,
                0.4682865477311382,
                1.2694595510754698
            ]
        },
        {
            "positions": [
                1.0284548797763327,
                -1.9861779870318244,
                -0.1517796048918747,
                0.361415385388969,
                0.49034415570350753,
                1.3459165523380479
            ]
        },
        {
            "positions": [
                1.0985446540940536,
                -1.980722249889728,
                -0.015198732396719539,
                0.2772845832784807,
                0.512401763675877,
                1.4223735536006261
            ]
        },
        {
            "positions": [
                1.1686344284117747,
                -1.9752665127476314,
                0.12138214009843518,
                0.19315378116799264,
                0.5344593716482463,
                1.4988305548632042
            ]
        },
        {
            "positions": [
                1.2387242027294956,
                -1.9698107756055347,
                0.2579630125935899,
                0.10902297905750435,
                0.5565169796206157,
                1.5752875561257824
            ]
        },
        {
            "positions": [
                1.3088139770472165,
                -1.9643550384634383,
                0.39454388508874505,
                0.024892176947016287,
                0.5785745875929851,
                1.6517445573883605
            ]
        },
        {
            "positions": [
                1.3789037513649374,
                -1.9588993013213418,
                0.5311247575838998,
                -0.05923862516347178,
                0.6006321955653545,
                1.7282015586509387
            ]
        },
        {
            "positions": [
                1.4489935256826583,
                -1.9534435641792454,
                0.6677056300790545,
                -0.14336942727396007,
                0.6226898035377239,
                1.8046585599135168
            ]
        },
        {
            "positions": [
                1.5190833000003796,
                -1.947987827037149,
                0.8042865025742101,
                -0.22750022938444836,
                0.6447474115100933,
                1.8811155611760952
            ]
        },
        {
            "positions": [
                1.5891730743181005,
                -1.9425320898950524,
                0.9408673750693648,
                -0.31163103149493665,
                0.6668050194824627,
                1.9575725624386733
            ]
        },
        {
            "positions": [
                1.6592628486358214,
                -1.937076352752956,
                1.0774482475645195,
                -0.39576183360542494,
                0.6888626274548321,
                2.0340295637012513
            ]
        },
        {
            "positions": [
                1.7293526229535423,
                -1.9316206156108593,
                1.2140291200596747,
                -0.4798926357159128,
                0.7109202354272015,
                2.1104865649638294
            ]
        },
        {
            "positions": [
                1.7994423972712632,
                -1.9261648784687628,
                1.3506099925548294,
                -0.5640234378264011,
                0.7329778433995708,
                2.1869435662264074
            ]
        },
        {
            "positions": [
                1.8695321715889843,
                -1.9207091413266664,
                1.487190865049984,
                -0.6481542399368894,
                0.7550354513719403,
                2.263400567488986
            ]
        },
        {
            "positions": [
                1.9396219459067052,
                -1.91525340418457,
                1.6237717375451393,
                -0.7322850420473772,
                0.7770930593443096,
                2.339857568751564
            ]
        },
        {
            "positions": [
                2.009711720224426,
                -1.9097976670424734,
                1.7603526100402935,
                -0.8164158441578655,
                0.799150667316679,
                2.416314570014142
            ]
        },
        {
            "positions": [
                2.097830017611565,
                -1.7820217177452424,
                1.7697799247648134,
                -0.8119587625862685,
                0.8354587718818741,
                2.5245503550712938
            ]
        },
        {
            "positions": [
                2.185948314998704,
                -1.6542457684480114,
                1.7792072394893335,
                -0.8075016810146716,
                0.8717668764470691,
                2.6327861401284456
            ]
        },
        {
            "positions": [
                2.274066612385843,
                -1.5264698191507806,
                1.7886345542138533,
                -0.8030445994430746,
                0.9080749810122641,
                2.7410219251855974
            ]
        },
        {
            "positions": [
                2.362184909772982,
                -1.3986938698535494,
                1.7980618689383732,
                -0.7985875178714776,
                0.9443830855774591,
                2.8492577102427488
            ]
        },
        {
            "positions": [
                2.450303207160121,
                -1.2709179205563186,
                1.807489183662893,
                -0.7941304362998807,
                0.9806911901426542,
                2.9574934952999006
            ]
        },
        {
            "positions": [
                2.5384215045472596,
                -1.1431419712590876,
                1.816916498387413,
                -0.7896733547282837,
                1.0169992947078492,
                3.0657292803570524
            ]
        },
        {
            "positions": [
                2.6265398019343986,
                -1.0153660219618565,
                1.826343813111933,
                -0.7852162731566867,
                1.0533073992730442,
                3.173965065414204
            ]
        }
    ]
}