{
    "goal": {
        "global_pose": {
            "orientation": {
                "w": -0.4816463035849501,
                "x": 0.5182115481033762,
                "y": 0.4908360881923453,
                "z": -0.5084816262002911
            },
            "position": {
                "x": -0.8240239810943604,
                "y": -0.300875300988555,
                "z": 0.16403168439865112
            }
        },
        "name": "move_to_storage_C"
    },
    "id": "TRRT_move_to_storage_C_85",
    "joint_names": [
        "shoulder_pan_joint",
        "shoulder_lift_joint",
        "elbow_joint",
        "wrist_1_joint",
        "wrist_2_joint",
        "wrist_3_joint"
    ],
    "metrics": {
        "cart_traj_len": 0.5761687888840056,
        "distance_elbow_joint": 0.25506857021465446,
        "distance_shoulder_lift_joint": 0.18918463471552105,
        "distance_shoulder_pan_joint": 0.4955896463650773,
        "distance_wrist_1_joint": 0.07123583332580752,
        "distance_wrist_2_joint": 1.0598648891018398,
        "distance_wrist_3_joint": 0.06270600831544515,
        "smoothness": 0.0,
        "time": 0.022835508999999997,
        "traj_len": 1.4607017430120173,
        "weighted_distance": 1.8412393437836598
    },
    "planner": "TRRT",
    "start": {
        "state": {
            "elbow_joint": 2.010868314990456,
            "shoulder_lift_joint": -1.1634956873337592,
            "shoulder_pan_joint": -2.4736205022346125,
            "wrist_1_joint": -0.8367026794202681,
            "wrist_2_joint": 0.6746043897044499,
            "wrist_3_joint": -3.1496632123970403
        }
    },
    "waypoints": [
        {
            "positions": [
                -2.4736205022346125,
                -1.1634956873337592,
                2.010868314990456,
                -0.8367026794202681,
                0.6746043897044499,
                -3.1496632123970403
            ]
        },
        {
            "positions": [
                -2.556218776628792,
                -1.1319649148811723,
                1.9683568866213468,
                -0.8248300405326335,
                0.8512485378880899,
                -3.1392122110111327
            ]
        },
        {
            "positions": [
                -2.6388170510229716,
                -1.1004341424285855,
                1.9258454582522377,
                -0.812957401644999,
                1.02789268607173,
                -3.128761209625225
            ]
        },
        {
            "positions": [
                -2.7214153254171514,
                -1.0689033699759987,
                1.8833340298831285,
                -0.8010847627573643,
                1.2045368342553697,
                -3.1183102082393175
            ]
        },
        {
            "positions": [
                -2.8040135998113307,
                -1.0373725975234118,
                1.8408226015140194,
                -0.7892121238697297,
                1.3811809824390098,
                -3.1078592068534103
            ]
        },
        {
            "positions": [
                -2.88661187420551,
                -1.005841825070825,
                1.7983111731449104,
                -0.7773394849820952,
                1.5578251306226498,
                -3.0974082054675027
            ]
        },
        {
            "positions": [
                -2.96921014859969,
                -0.9743110526182381,
                1.7557997447758014,
                -0.7654668460944606,
                1.7344692788062896,
                -3.086957204081595
            ]
        }
    ]
}