{
    "goal": {
        "global_pose": {
            "orientation": {
                "w": 0.005598929693374612,
                "x": 0.007748599140229565,
                "y": 0.7110244013736278,
                "z": -0.7031023480610252
            },
            "position": {
                "x": 0.1141497679147869,
                "y": -0.7141253447532654,
                "z": 0.3711530566215515
            }
        },
        "name": "move_to_auspresseinheit_B"
    },
    "id": "TRRT_move_to_auspresseinheit_B_49",
    "joint_names": [
        "shoulder_pan_joint",
        "shoulder_lift_joint",
        "elbow_joint",
        "wrist_1_joint",
        "wrist_2_joint",
        "wrist_3_joint"
    ],
    "metrics": {
        "cart_traj_len": 0.5642405630734366,
        "distance_elbow_joint": 0.0600778555484458,
        "distance_shoulder_lift_joint": 0.2961802906811697,
        "distance_shoulder_pan_joint": 0.5773462954920052,
        "distance_wrist_1_joint": 0.317540134165227,
        "distance_wrist_2_joint": 0.9876043549885614,
        "distance_wrist_3_joint": 0.006934461379866086,
        "smoothness": 7.612957903237841e-16,
        "time": 0.017634998,
        "traj_len": 1.4985604399740688,
        "weighted_distance": 1.8880404667720434
    },
    "planner": "TRRT",
    "start": {
        "state": {
            "elbow_joint": 2.0193083361928714,
            "shoulder_lift_joint": -1.1220246554650708,
            "shoulder_pan_joint": -1.0952077554168747,
            "wrist_1_joint": -0.8559753972642168,
            "wrist_2_joint": 0.4759566250798843,
            "wrist_3_joint": -3.1240929996934557
        }
    },
    "waypoints": [
        {
            "positions": [
                -1.0952077554168747,
                -1.1220246554650708,
                2.0193083361928714,
                -0.8559753972642168,
                0.4759566250798843,
                -3.1240929996934557
            ]
        },
        {
            "positions": [
                -1.1914321379988755,
                -1.1713880372452659,
                2.0092953602681303,
                -0.8030520415700123,
                0.6405573509113112,
                -3.1229372561301445
            ]
        },
        {
            "positions": [
                -1.2876565205808763,
                -1.2207514190254607,
                1.9992823843433896,
                -0.7501286858758078,
                0.805158076742738,
                -3.121781512566834
            ]
        },
        {
            "positions": [
                -1.3838809031628774,
                -1.2701148008056555,
                1.9892694084186484,
                -0.6972053301816032,
                0.969758802574165,
                -3.1206257690035226
            ]
        },
        {
            "positions": [
                -1.480105285744878,
                -1.3194781825858506,
                1.9792564324939075,
                -0.6442819744873989,
                1.1343595284055918,
                -3.1194700254402115
            ]
        },
        {
            "positions": [
                -1.576329668326879,
                -1.3688415643660456,
                1.9692434565691666,
                -0.5913586187931943,
                1.2989602542370189,
                -3.1183142818769007
            ]
        },
        {
            "positions": [
                -1.6725540509088799,
                -1.4182049461462405,
                1.9592304806444256,
                -0.5384352630989898,
                1.4635609800684457,
                -3.1171585383135896
            ]
        }
    ]
}