{
    "goal": {
        "global_pose": {
            "orientation": {
                "w": 0.005598929693374612,
                "x": 0.007748599140229565,
                "y": 0.7110244013736278,
                "z": -0.7031023480610252
            },
            "position": {
                "x": 0.1141497679147869,
                "y": -0.7141253447532654,
                "z": 0.3711530566215515
            }
        },
        "name": "move_to_auspresseinheit_B"
    },
    "id": "TRRT_move_to_auspresseinheit_B_115",
    "joint_names": [
        "shoulder_pan_joint",
        "shoulder_lift_joint",
        "elbow_joint",
        "wrist_1_joint",
        "wrist_2_joint",
        "wrist_3_joint"
    ],
    "metrics": {
        "cart_traj_len": 0.5640063520463754,
        "distance_elbow_joint": 0.059740578186076476,
        "distance_shoulder_lift_joint": 0.29483094860957704,
        "distance_shoulder_pan_joint": 0.5777235488422143,
        "distance_wrist_1_joint": 0.3202017907793032,
        "distance_wrist_2_joint": 0.989334323289772,
        "distance_wrist_3_joint": 0.0014477380790935968,
        "smoothness": 0.0,
        "time": 0.017352086,
        "traj_len": 1.497757967024725,
        "weighted_distance": 1.8856591733431838
    },
    "planner": "TRRT",
    "start": {
        "state": {
            "elbow_joint": 2.0193083361928714,
            "shoulder_lift_joint": -1.1220246554650708,
            "shoulder_pan_joint": -1.0952077554168747,
            "wrist_1_joint": -0.8559753972642168,
            "wrist_2_joint": 0.4759566250798843,
            "wrist_3_joint": -3.1240929996934557
        }
    },
    "waypoints": [
        {
            "positions": [
                -1.0952077554168747,
                -1.1220246554650708,
                2.0193083361928714,
                -0.8559753972642168,
                0.4759566250798843,
                -3.1240929996934557
            ]
        },
        {
            "positions": [
                -1.1914950135572437,
                -1.1711631469000003,
                2.0093515731618585,
                -0.802608432134333,
                0.6408456789615129,
                -3.1238517100136067
            ]
        },
        {
            "positions": [
                -1.2877822716976128,
                -1.2203016383349299,
                1.9993948101308459,
                -0.749241467004449,
                0.8057347328431417,
                -3.123610420333758
            ]
        },
        {
            "positions": [
                -1.3840695298379817,
                -1.2694401297698592,
                1.9894380470998332,
                -0.6958745018745651,
                0.9706237867247702,
                -3.123369130653909
            ]
        },
        {
            "positions": [
                -1.4803567879783508,
                -1.3185786212047887,
                1.9794812840688205,
                -0.6425075367446813,
                1.135512840606399,
                -3.12312784097406
            ]
        },
        {
            "positions": [
                -1.5766440461187199,
                -1.3677171126397183,
                1.9695245210378076,
                -0.5891405716147975,
                1.3004018944880276,
                -3.122886551294211
            ]
        },
        {
            "positions": [
                -1.672931304259089,
                -1.4168556040746478,
                1.959567758006795,
                -0.5357736064849136,
                1.4652909483696563,
                -3.122645261614362
            ]
        }
    ]
}