{
    "goal": {
        "global_pose": {
            "orientation": {
                "w": 0.5084816262002911,
                "x": -0.4908360881923452,
                "y": 0.5182115481033761,
                "z": -0.48164630358495003
            },
            "position": {
                "x": 0.5540239810943604,
                "y": -0.46912469901144505,
                "z": 0.16403168439865112
            }
        },
        "name": "move_to_storage_B"
    },
    "id": "TRRT_move_to_storage_B_90",
    "joint_names": [
        "shoulder_pan_joint",
        "shoulder_lift_joint",
        "elbow_joint",
        "wrist_1_joint",
        "wrist_2_joint",
        "wrist_3_joint"
    ],
    "metrics": {
        "cart_traj_len": 0.6772638998047186,
        "distance_elbow_joint": 0.4302313344762929,
        "distance_shoulder_lift_joint": 0.45939328246879363,
        "distance_shoulder_pan_joint": 0.3408391760150956,
        "distance_wrist_1_joint": 3.001328997678978,
        "distance_wrist_2_joint": 2.700105897173293,
        "distance_wrist_3_joint": 3.135107559128735,
        "smoothness": 0.124773750483816,
        "time": 0.102822755,
        "traj_len": 3.172854589630793,
        "weighted_distance": 4.6945347224246765
    },
    "planner": "TRRT",
    "start": {
        "state": {
            "elbow_joint": 1.664937868594044,
            "shoulder_lift_joint": -0.661644460510453,
            "shoulder_pan_joint": -0.9139846352900073,
            "wrist_1_joint": 2.146753192139373,
            "wrist_2_joint": -2.2341966793290973,
            "wrist_3_joint": 0.005466555786416001
        }
    },
    "waypoints": [
        {
            "positions": [
                -0.9139846352900073,
                -0.661644460510453,
                1.664937868594044,
                2.146753192139373,
                -2.2341966793290973,
                0.005466555786416001
            ]
        },
        {
            "positions": [
                -0.9005579312662342,
                -0.6658915668671321,
                1.6614786744642833,
                2.1501091014507328,
                -2.2153457152887794,
                0.00020422227085502634
            ]
        },
        {
            "positions": [
                -0.8344483130558008,
                -0.7002982809574478,
                1.624963822177773,
                2.1280322744549,
                -2.0622260132567973,
                -0.061451799020922675
            ]
        },
        {
            "positions": [
                -0.8449004272070364,
                -0.7171278594383198,
                1.6405741137001737,
                2.008996424000028,
                -1.9611006040127577,
                -0.18417936719377853
            ]
        },
        {
            "positions": [
                -0.855352541358272,
                -0.7339574379191918,
                1.6561844052225747,
                1.889960573545157,
                -1.859975194768718,
                -0.3069069353666344
            ]
        },
        {
            "positions": [
                -0.8658046555095075,
                -0.7507870164000637,
                1.6717946967449755,
                1.7709247230902856,
                -1.7588497855246783,
                -0.42963450353949023
            ]
        },
        {
            "positions": [
                -0.8762567696607431,
                -0.7676165948809357,
                1.6874049882673765,
                1.6518888726354142,
                -1.6577243762806384,
                -0.5523620717123461
            ]
        },
        {
            "positions": [
                -0.8867088838119787,
                -0.7844461733618076,
                1.7030152797897773,
                1.5328530221805425,
                -1.5565989670365987,
                -0.675089639885202
            ]
        },
        {
            "positions": [
                -0.8971609979632142,
                -0.8012757518426795,
                1.718625571312178,
                1.4138171717256713,
                -1.455473557792559,
                -0.7978172080580578
            ]
        },
        {
            "positions": [
                -0.9076131121144497,
                -0.8181053303235515,
                1.734235862834579,
                1.2947813212707997,
                -1.3543481485485191,
                -0.9205447762309138
            ]
        },
        {
            "positions": [
                -0.9180652262656853,
                -0.8349349088044234,
                1.7498461543569799,
                1.1757454708159285,
                -1.2532227393044795,
                -1.0432723444037695
            ]
        },
        {
            "positions": [
                -0.9285173404169209,
                -0.8517644872852954,
                1.7654564458793809,
                1.056709620361057,
                -1.1520973300604398,
                -1.1659999125766254
            ]
        },
        {
            "positions": [
                -0.9389694545681565,
                -0.8685940657661674,
                1.7810667374017817,
                0.9376737699061855,
                -1.0509719208164001,
                -1.2887274807494813
            ]
        },
        {
            "positions": [
                -0.949421568719392,
                -0.8854236442470393,
                1.7966770289241825,
                0.8186379194513143,
                -0.9498465115723604,
                -1.4114550489223372
            ]
        },
        {
            "positions": [
                -0.9598736828706276,
                -0.9022532227279112,
                1.8122873204465835,
                0.6996020689964428,
                -0.8487211023283208,
                -1.5341826170951929
            ]
        },
        {
            "positions": [
                -0.9703257970218632,
                -0.9190828012087833,
                1.8278976119689843,
                0.5805662185415712,
                -0.7475956930842811,
                -1.656910185268049
            ]
        },
        {
            "positions": [
                -0.9807779111730988,
                -0.9359123796896551,
                1.8435079034913853,
                0.4615303680866998,
                -0.6464702838402412,
                -1.779637753440905
            ]
        },
        {
            "positions": [
                -0.9912300253243342,
                -0.9527419581705271,
                1.859118195013786,
                0.3424945176318286,
                -0.5453448745962017,
                -1.9023653216137606
            ]
        },
        {
            "positions": [
                -1.00168213947557,
                -0.9695715366513991,
                1.8747284865361868,
                0.22345866717695695,
                -0.44421946535216184,
                -2.0250928897866163
            ]
        },
        {
            "positions": [
                -1.0121342536268054,
                -0.986401115132271,
                1.8903387780585879,
                0.10442281672208553,
                -0.34309405610812216,
                -2.1478204579594724
            ]
        },
        {
            "positions": [
                -1.022586367778041,
                -1.003230693613143,
                1.9059490695809886,
                -0.014613033732785663,
                -0.24196864686408248,
                -2.270548026132328
            ]
        },
        {
            "positions": [
                -1.0330384819292766,
                -1.0200602720940148,
                1.9215593611033897,
                -0.1336488841876573,
                -0.1408432376200428,
                -2.393275594305184
            ]
        },
        {
            "positions": [
                -1.043490596080512,
                -1.036889850574887,
                1.9371696526257904,
                -0.25268473464252894,
                -0.039717828376002906,
                -2.51600316247804
            ]
        },
        {
            "positions": [
                -1.0539427102317478,
                -1.0537194290557588,
                1.9527799441481912,
                -0.37172058509740014,
                0.06140758086803677,
                -2.6387307306508956
            ]
        },
        {
            "positions": [
                -1.0643948243829833,
                -1.0705490075366308,
                1.9683902356705922,
                -0.49075643555227133,
                0.16253299011207645,
                -2.7614582988237517
            ]
        },
        {
            "positions": [
                -1.0748469385342188,
                -1.0873785860175027,
                1.984000527192993,
                -0.609792286007143,
                0.2636583993561161,
                -2.8841858669966074
            ]
        },
        {
            "positions": [
                -1.0852990526854542,
                -1.1042081644983748,
                1.9996108187153938,
                -0.7288281364620142,
                0.3647838086001558,
                -3.006913435169463
            ]
        },
        {
            "positions": [
                -1.09575116683669,
                -1.1210377429792466,
                2.015221110237795,
                -0.8478639869168858,
                0.46590921784419553,
                -3.129641003342319
            ]
        }
    ]
}