{
    "goal": {
        "global_pose": {
            "orientation": {
                "w": 0.5084816262002911,
                "x": -0.4908360881923452,
                "y": 0.5182115481033761,
                "z": -0.48164630358495003
            },
            "position": {
                "x": 0.5540239810943604,
                "y": -0.46912469901144505,
                "z": 0.16403168439865112
            }
        },
        "name": "move_to_storage_B"
    },
    "id": "TRRT_move_to_storage_B_84",
    "joint_names": [
        "shoulder_pan_joint",
        "shoulder_lift_joint",
        "elbow_joint",
        "wrist_1_joint",
        "wrist_2_joint",
        "wrist_3_joint"
    ],
    "metrics": {
        "cart_traj_len": 0.7321710540046212,
        "distance_elbow_joint": 0.5289743994299845,
        "distance_shoulder_lift_joint": 0.45943652550593184,
        "distance_shoulder_pan_joint": 0.572015660140169,
        "distance_wrist_1_joint": 2.977940512897956,
        "distance_wrist_2_joint": 2.7014401319080252,
        "distance_wrist_3_joint": 3.205722759317995,
        "smoothness": 0.25503328248347795,
        "time": 0.081516181,
        "traj_len": 3.231954515335892,
        "weighted_distance": 4.747247218403738
    },
    "planner": "TRRT",
    "start": {
        "state": {
            "elbow_joint": 1.664937868594044,
            "shoulder_lift_joint": -0.661644460510453,
            "shoulder_pan_joint": -0.9139846352900073,
            "wrist_1_joint": 2.146753192139373,
            "wrist_2_joint": -2.2341966793290973,
            "wrist_3_joint": 0.005466555786416001
        }
    },
    "waypoints": [
        {
            "positions": [
                -0.9139846352900073,
                -0.661644460510453,
                1.664937868594044,
                2.146753192139373,
                -2.2341966793290973,
                0.005466555786416001
            ]
        },
        {
            "positions": [
                -0.888427547164254,
                -0.6817201110924549,
                1.6636403423558244,
                2.105642430297672,
                -2.2015618709148645,
                0.031333161663416674
            ]
        },
        {
            "positions": [
                -0.8545568827937621,
                -0.6887119662298389,
                1.645822967958662,
                1.9952548271747936,
                -2.0832367828519898,
                -0.009983047591277737
            ]
        },
        {
            "positions": [
                -0.82068621842327,
                -0.695703821367223,
                1.6280055935614999,
                1.884867224051915,
                -1.9649116947891154,
                -0.05129925684597215
            ]
        },
        {
            "positions": [
                -0.7868155540527781,
                -0.702695676504607,
                1.6101882191643375,
                1.7744796209290365,
                -1.8465866067262406,
                -0.09261546610066654
            ]
        },
        {
            "positions": [
                -0.7529448896822861,
                -0.709687531641991,
                1.5923708447671754,
                1.664092017806158,
                -1.728261518663366,
                -0.13393167535536096
            ]
        },
        {
            "positions": [
                -0.7190742253117942,
                -0.716679386779375,
                1.574553470370013,
                1.5537044146832795,
                -1.6099364306004915,
                -0.17524788461005536
            ]
        },
        {
            "positions": [
                -0.7362153730464286,
                -0.7350612776537846,
                1.5944893795157382,
                1.4453002448904675,
                -1.5155191631832452,
                -0.31039675311767
            ]
        },
        {
            "positions": [
                -0.753356520781063,
                -0.7534431685281942,
                1.6144252886614634,
                1.3368960750976555,
                -1.4211018957659989,
                -0.44554562162528466
            ]
        },
        {
            "positions": [
                -0.7704976685156973,
                -0.7718250594026036,
                1.6343611978071886,
                1.2284919053048438,
                -1.3266846283487526,
                -0.5806944901328992
            ]
        },
        {
            "positions": [
                -0.7876388162503316,
                -0.7902069502770132,
                1.6542971069529138,
                1.1200877355120318,
                -1.2322673609315062,
                -0.715843358640514
            ]
        },
        {
            "positions": [
                -0.804779963984966,
                -0.8085888411514227,
                1.674233016098639,
                1.01168356571922,
                -1.1378500935142597,
                -0.8509922271481285
            ]
        },
        {
            "positions": [
                -0.8219211117196004,
                -0.8269707320258323,
                1.694168925244364,
                0.903279395926408,
                -1.0434328260970136,
                -0.9861410956557431
            ]
        },
        {
            "positions": [
                -0.8390622594542347,
                -0.8453526229002418,
                1.714104834390089,
                0.7948752261335961,
                -0.9490155586797672,
                -1.1212899641633578
            ]
        },
        {
            "positions": [
                -0.8562034071888691,
                -0.8637345137746513,
                1.7340407435358143,
                0.6864710563407841,
                -0.8545982912625207,
                -1.2564388326709726
            ]
        },
        {
            "positions": [
                -0.8733445549235035,
                -0.8821164046490608,
                1.7539766526815395,
                0.5780668865479721,
                -0.7601810238452744,
                -1.391587701178587
            ]
        },
        {
            "positions": [
                -0.8904857026581379,
                -0.9004982955234704,
                1.7739125618272646,
                0.46966271675516036,
                -0.6657637564280281,
                -1.5267365696862016
            ]
        },
        {
            "positions": [
                -0.9076268503927722,
                -0.9188801863978799,
                1.7938484709729898,
                0.3612585469623484,
                -0.5713464890107818,
                -1.6618854381938164
            ]
        },
        {
            "positions": [
                -0.9247679981274065,
                -0.9372620772722895,
                1.813784380118715,
                0.2528543771695366,
                -0.47692922159353546,
                -1.797034306701431
            ]
        },
        {
            "positions": [
                -0.9419091458620409,
                -0.955643968146699,
                1.8337202892644402,
                0.14445020737672443,
                -0.38251195417628914,
                -1.9321831752090457
            ]
        },
        {
            "positions": [
                -0.9590502935966753,
                -0.9740258590211086,
                1.8536561984101654,
                0.03604603758391267,
                -0.2880946867590428,
                -2.06733204371666
            ]
        },
        {
            "positions": [
                -0.9761914413313096,
                -0.992407749895518,
                1.8735921075558903,
                -0.07235813220889908,
                -0.1936774193417965,
                -2.2024809122242752
            ]
        },
        {
            "positions": [
                -0.993332589065944,
                -1.0107896407699277,
                1.8935280167016155,
                -0.18076230200171128,
                -0.09926015192454996,
                -2.3376297807318895
            ]
        },
        {
            "positions": [
                -1.0104737368005783,
                -1.0291715316443373,
                1.9134639258473407,
                -0.28916647179452304,
                -0.004842884507303857,
                -2.472778649239504
            ]
        },
        {
            "positions": [
                -1.0276148845352127,
                -1.0475534225187468,
                1.933399834993066,
                -0.39757064158733524,
                0.08957438290994268,
                -2.607927517747119
            ]
        },
        {
            "positions": [
                -1.044756032269847,
                -1.0659353133931562,
                1.953335744138791,
                -0.5059748113801468,
                0.183991650327189,
                -2.7430763862547334
            ]
        },
        {
            "positions": [
                -1.0618971800044814,
                -1.0843172042675657,
                1.9732716532845163,
                -0.6143789811729587,
                0.2784089177444353,
                -2.8782252547623477
            ]
        },
        {
            "positions": [
                -1.0790383277391158,
                -1.1026990951419753,
                1.9932075624302414,
                -0.7227831509657707,
                0.37282618516168164,
                -3.013374123269963
            ]
        },
        {
            "positions": [
                -1.0961794754737502,
                -1.1210809860163848,
                2.0131434715759666,
                -0.8311873207585826,
                0.46724345257892785,
                -3.148522991777577
            ]
        }
    ]
}