{
    "goal": {
        "global_pose": {
            "orientation": {
                "w": 0.005598929693374612,
                "x": 0.007748599140229565,
                "y": 0.7110244013736278,
                "z": -0.7031023480610252
            },
            "position": {
                "x": -0.8858502320852131,
                "y": -0.7141253447532654,
                "z": 0.3711530566215515
            }
        },
        "name": "move_to_auspresseinheit_C"
    },
    "id": "TRRT_move_to_auspresseinheit_C_41",
    "joint_names": [
        "shoulder_pan_joint",
        "shoulder_lift_joint",
        "elbow_joint",
        "wrist_1_joint",
        "wrist_2_joint",
        "wrist_3_joint"
    ],
    "metrics": {
        "cart_traj_len": 0.4929258230647187,
        "distance_elbow_joint": 0.9890576522617779,
        "distance_shoulder_lift_joint": 0.3501245870289872,
        "distance_shoulder_pan_joint": 0.25700521522232345,
        "distance_wrist_1_joint": 0.6545813572070516,
        "distance_wrist_2_joint": 1.3093498556272793,
        "distance_wrist_3_joint": 0.03529863629260399,
        "smoothness": 0.40991539204037886,
        "time": 0.034911705,
        "traj_len": 1.896158565004526,
        "weighted_distance": 2.372750679919734
    },
    "planner": "TRRT",
    "start": {
        "state": {
            "elbow_joint": 1.7527959577737207,
            "shoulder_lift_joint": -0.9740617694225068,
            "shoulder_pan_joint": -2.967991417825858,
            "wrist_1_joint": -0.759517768980727,
            "wrist_2_joint": 1.7443932448377408,
            "wrist_3_joint": -3.0840537646736568
        }
    },
    "waypoints": [
        {
            "positions": [
                -2.967991417825858,
                -0.9740617694225068,
                1.7527959577737207,
                -0.759517768980727,
                1.7443932448377408,
                -3.0840537646736568
            ]
        },
        {
            "positions": [
                -2.9563788825919244,
                -0.9894603258131847,
                1.7477636469243398,
                -0.7587350628067788,
                1.709989750367452,
                -3.0849884038352906
            ]
        },
        {
            "positions": [
                -2.9291130292598813,
                -0.9522685446311503,
                1.638427497878518,
                -0.6860907682475451,
                1.5683290435722308,
                -3.088806625738732
            ]
        },
        {
            "positions": [
                -2.9018471759278377,
                -0.9150767634491159,
                1.529091348832696,
                -0.6134464736883114,
                1.4266683367770097,
                -3.0926248476421727
            ]
        },
        {
            "positions": [
                -2.8745813225957946,
                -0.8778849822670816,
                1.419755199786874,
                -0.5408021791290777,
                1.2850076299817885,
                -3.096443069545614
            ]
        },
        {
            "positions": [
                -2.847315469263751,
                -0.8406932010850472,
                1.3104190507410522,
                -0.468157884569844,
                1.1433469231865674,
                -3.1002612914490553
            ]
        },
        {
            "positions": [
                -2.820049615931708,
                -0.8035014199030128,
                1.2010829016952305,
                -0.39551359001061026,
                1.001686216391346,
                -3.104079513352496
            ]
        },
        {
            "positions": [
                -2.7927837625996643,
                -0.7663096387209785,
                1.0917467526494085,
                -0.32286929545137655,
                0.860025509596125,
                -3.1078977352559374
            ]
        },
        {
            "positions": [
                -2.765517909267621,
                -0.7291178575389441,
                0.9824106036035866,
                -0.25022500089214283,
                0.7183648028009038,
                -3.1117159571593787
            ]
        },
        {
            "positions": [
                -2.738252055935578,
                -0.6919260763569097,
                0.8730744545577647,
                -0.17758070633290912,
                0.5767040960056826,
                -3.1155341790628195
            ]
        },
        {
            "positions": [
                -2.7109862026035345,
                -0.6547342951748754,
                0.7637383055119428,
                -0.10493641177367545,
                0.4350433892104616,
                -3.1193524009662608
            ]
        }
    ]
}