{
    "goal": {
        "global_pose": {
            "orientation": {
                "w": 0.5084816217422485,
                "x": -0.49083608388900757,
                "y": 0.5182115435600281,
                "z": -0.4816462993621826
            },
            "position": {
                "x": 0.5540239810943604,
                "y": 0.030875300988554955,
                "z": 0.16403168439865112
            }
        },
        "name": "move_to_storage_A"
    },
    "id": "TRRT_move_to_storage_A_1",
    "joint_names": [
        "shoulder_pan_joint",
        "shoulder_lift_joint",
        "elbow_joint",
        "wrist_1_joint",
        "wrist_2_joint",
        "wrist_3_joint"
    ],
    "metrics": {
        "cart_traj_len": 0.35275045799768917,
        "distance_elbow_joint": 0.44964375878359975,
        "distance_shoulder_lift_joint": 0.23489630569474462,
        "distance_shoulder_pan_joint": 0.46095438631776076,
        "distance_wrist_1_joint": 0.24440263781305183,
        "distance_wrist_2_joint": 1.09941434210228,
        "distance_wrist_3_joint": 0.09577595217138546,
        "smoothness": 8.881784197001252e-16,
        "time": 0.020185751000000002,
        "traj_len": 1.6078206936355877,
        "weighted_distance": 2.029890703250036
    },
    "planner": "TRRT",
    "start": {
        "state": {
            "elbow_joint": 1.971548259319323,
            "shoulder_lift_joint": -1.1394851275133948,
            "shoulder_pan_joint": 0.1228115487234821,
            "wrist_1_joint": -0.7804723859257726,
            "wrist_2_joint": 0.12958671773740124,
            "wrist_3_joint": -3.192489227718131
        }
    },
    "waypoints": [
        {
            "positions": [
                0.1228115487234821,
                -1.1394851275133948,
                1.971548259319323,
                -0.7804723859257726,
                0.12958671773740124,
                -3.192489227718131
            ]
        },
        {
            "positions": [
                0.05696092210665914,
                -1.173041742612644,
                2.0357830820026943,
                -0.8153870484704943,
                0.28664590946629837,
                -3.1788069488365047
            ]
        },
        {
            "positions": [
                -0.008889704510163826,
                -1.2065983577118933,
                2.100017904686066,
                -0.850301711015216,
                0.44370510119519546,
                -3.1651246699548783
            ]
        },
        {
            "positions": [
                -0.07474033112698678,
                -1.2401549728111425,
                2.164252727369437,
                -0.8852163735599377,
                0.6007642929240926,
                -3.151442391073252
            ]
        },
        {
            "positions": [
                -0.14059095774380975,
                -1.2737115879103917,
                2.2284875500528085,
                -0.9201310361046594,
                0.7578234846529898,
                -3.137760112191625
            ]
        },
        {
            "positions": [
                -0.20644158436063276,
                -1.307268203009641,
                2.29272237273618,
                -0.955045698649381,
                0.9148826763818869,
                -3.1240778333099986
            ]
        },
        {
            "positions": [
                -0.27229221097745565,
                -1.3408248181088902,
                2.356957195419551,
                -0.9899603611941028,
                1.071941868110784,
                -3.110395554428372
            ]
        },
        {
            "positions": [
                -0.33814283759427866,
                -1.3743814332081394,
                2.4211920181029227,
                -1.0248750237388244,
                1.2290010598396812,
                -3.0967132755467457
            ]
        }
    ]
}{
    "goal": {
        "global_pose": {
            "orientation": {
                "w": 0.5084816217422485,
                "x": -0.49083608388900757,
                "y": 0.5182115435600281,
                "z": -0.4816462993621826
            },
            "position": {
                "x": 0.5540239810943604,
                "y": 0.030875300988554955,
                "z": 0.16403168439865112
            }
        },
        "name": "move_to_storage_A"
    },
    "id": "TRRT_move_to_storage_A_1",
    "joint_names": [
        "shoulder_pan_joint",
        "shoulder_lift_joint",
        "elbow_joint",
        "wrist_1_joint",
        "wrist_2_joint",
        "wrist_3_joint"
    ],
    "metrics": {
        "cart_traj_len": 0.35346244844490804,
        "distance_elbow_joint": 0.44986321862971046,
        "distance_shoulder_lift_joint": 0.23304175071653432,
        "distance_shoulder_pan_joint": 0.46347522947646375,
        "distance_wrist_1_joint": 0.2441150405483794,
        "distance_wrist_2_joint": 1.0933791529481487,
        "distance_wrist_3_joint": 0.09967861148680557,
        "smoothness": 8.881784197001252e-16,
        "time": 0.014189552,
        "traj_len": 1.6073434616801856,
        "weighted_distance": 2.02987793235854
    },
    "planner": "TRRT",
    "start": {
        "state": {
            "elbow_joint": 1.97154746011099,
            "shoulder_lift_joint": -1.13948474672311,
            "shoulder_pan_joint": 0.12281154466712228,
            "wrist_1_joint": -0.7804688027058302,
            "wrist_2_joint": 0.12958655903071145,
            "wrist_3_joint": 3.0906928834467795
        }
    },
    "waypoints": [
        {
            "positions": [
                0.12281154466712228,
                -1.13948474672311,
                1.97154746011099,
                -0.7804688027058302,
                0.12958655903071145,
                3.0906928834467795
            ]
        },
        {
            "positions": [
                0.056600797599056035,
                -1.1727764253969006,
                2.0358136342009487,
                -0.8153423799270273,
                0.285783580880447,
                3.1049326850877517
            ]
        },
        {
            "positions": [
                -0.009609949469010212,
                -1.206068104070691,
                2.100079808290907,
                -0.8502159571482243,
                0.44198060273018247,
                3.119172486728724
            ]
        },
        {
            "positions": [
                -0.07582069653707645,
                -1.2393597827444818,
                2.164345982380866,
                -0.8850895343694214,
                0.598177624579918,
                3.133412288369696
            ]
        },
        {
            "positions": [
                -0.1420314436051427,
                -1.2726514614182725,
                2.2286121564708243,
                -0.9199631115906184,
                0.7543746464296536,
                3.1476520900106686
            ]
        },
        {
            "positions": [
                -0.20824219067320898,
                -1.3059431400920631,
                2.292878330560783,
                -0.9548366888118155,
                0.9105716682793892,
                3.1618918916516408
            ]
        },
        {
            "positions": [
                -0.27445293774127516,
                -1.3392348187658536,
                2.3571445046507415,
                -0.9897102660330125,
                1.0667686901291245,
                3.176131693292613
            ]
        },
        {
            "positions": [
                -0.34066368480934145,
                -1.3725264974396443,
                2.4214106787407004,
                -1.0245838432542096,
                1.2229657119788602,
                3.190371494933585
            ]
        }
    ]
}{
    "goal": {
        "global_pose": {
            "orientation": {
                "w": 0.5084816217422485,
                "x": -0.49083608388900757,
                "y": 0.5182115435600281,
                "z": -0.4816462993621826
            },
            "position": {
                "x": 0.5540239810943604,
                "y": 0.030875300988554955,
                "z": 0.16403168439865112
            }
        },
        "name": "move_to_storage_A"
    },
    "id": "TRRT_move_to_storage_A_1",
    "joint_names": [
        "shoulder_pan_joint",
        "shoulder_lift_joint",
        "elbow_joint",
        "wrist_1_joint",
        "wrist_2_joint",
        "wrist_3_joint"
    ],
    "metrics": {
        "cart_traj_len": 0.3533326331868843,
        "distance_elbow_joint": 0.4546093273796483,
        "distance_shoulder_lift_joint": 0.23312742261847008,
        "distance_shoulder_pan_joint": 0.46083519619522373,
        "distance_wrist_1_joint": 0.2619879413282329,
        "distance_wrist_2_joint": 1.1045399815349035,
        "distance_wrist_3_joint": 0.09300031176547119,
        "smoothness": 2.2204460668324854e-16,
        "time": 0.018753079,
        "traj_len": 1.614961355829281,
        "weighted_distance": 2.0397619290534936
    },
    "planner": "TRRT",
    "start": {
        "state": {
            "elbow_joint": 1.9715472970024885,
            "shoulder_lift_joint": -1.1394870060712896,
            "shoulder_pan_joint": 0.12281152778156021,
            "wrist_1_joint": -0.780463741449964,
            "wrist_2_joint": 0.12958659822042276,
            "wrist_3_joint": 3.090690232415272
        }
    },
    "waypoints": [
        {
            "positions": [
                0.12281152778156021,
                -1.1394870060712896,
                1.9715472970024885,
                -0.780463741449964,
                0.12958659822042276,
                3.090690232415272
            ]
        },
        {
            "positions": [
                0.05697792832509968,
                -1.172790923588214,
                2.0364914866281527,
                -0.8178905902111401,
                0.2873780241539804,
                3.1039759912389107
            ]
        },
        {
            "positions": [
                -0.008855671131360848,
                -1.2060948411051382,
                2.1014356762538164,
                -0.8553174389723163,
                0.44516945008753805,
                3.1172617500625495
            ]
        },
        {
            "positions": [
                -0.07468927058782138,
                -1.2393987586220625,
                2.1663798658794806,
                -0.8927442877334923,
                0.6029608760210957,
                3.1305475088861883
            ]
        },
        {
            "positions": [
                -0.1405228700442819,
                -1.2727026761389868,
                2.231324055505145,
                -0.9301711364946685,
                0.7607523019546533,
                3.1438332677098266
            ]
        },
        {
            "positions": [
                -0.20635646950074246,
                -1.306006593655911,
                2.296268245130809,
                -0.9675979852558446,
                0.9185437278882109,
                3.1571190265334654
            ]
        },
        {
            "positions": [
                -0.272190068957203,
                -1.3393105111728354,
                2.3612124347564727,
                -1.0050248340170207,
                1.0763351538217687,
                3.1704047853571042
            ]
        },
        {
            "positions": [
                -0.3380236684136635,
                -1.3726144286897597,
                2.426156624382137,
                -1.0424516827781969,
                1.2341265797553262,
                3.183690544180743
            ]
        }
    ]
}