{
    "goal": {
        "global_pose": {
            "orientation": {
                "w": 0.7047431468963623,
                "x": -0.7094548344612122,
                "y": 0.0024358443915843964,
                "z": -0.0022348060738295317
            },
            "position": {
                "x": 0.6094750761985779,
                "y": 0.3671506643295288,
                "z": 0.19426114857196808
            }
        },
        "name": "move_to_magneteinheit_A"
    },
    "id": "TRRT_move_to_magneteinheit_A_27",
    "joint_names": [
        "shoulder_pan_joint",
        "shoulder_lift_joint",
        "elbow_joint",
        "wrist_1_joint",
        "wrist_2_joint",
        "wrist_3_joint"
    ],
    "metrics": {
        "cart_traj_len": 3.451160566394405,
        "distance_elbow_joint": 3.8725293079654817,
        "distance_shoulder_lift_joint": 0.25949353078042225,
        "distance_shoulder_pan_joint": 2.6250850195128956,
        "distance_wrist_1_joint": 1.1908086957216244,
        "distance_wrist_2_joint": 1.6919661899636114,
        "distance_wrist_3_joint": 3.7139614654558577,
        "smoothness": 0.0710132911938519,
        "time": 0.098715851,
        "traj_len": 3.6542912047892266,
        "weighted_distance": 4.864621467904451
    },
    "planner": "TRRT",
    "start": {
        "state": {
            "elbow_joint": -1.9196185241190666,
            "shoulder_lift_joint": -1.2443396400964142,
            "shoulder_pan_joint": 2.6996025414629847,
            "wrist_1_joint": -1.5485510000780065,
            "wrist_2_joint": -1.5709468930060704,
            "wrist_3_joint": 0.4420197071253992
        }
    },
    "waypoints": [
        {
            "positions": [
                2.6996025414629847,
                -1.2443396400964142,
                -1.9196185241190666,
                -1.5485510000780065,
                -1.5709468930060704,
                0.4420197071253992
            ]
        },
        {
            "positions": [
                2.607050515472956,
                -1.2371126455171588,
                -1.8202463004307896,
                -1.509350794339453,
                -1.5148946498714457,
                0.3458184379651056
            ]
        },
        {
            "positions": [
                2.5144984894829268,
                -1.2298856509379037,
                -1.7208740767425126,
                -1.4701505886008994,
                -1.4588424067368213,
                0.24961716880481194
            ]
        },
        {
            "positions": [
                2.4219464634928975,
                -1.2226586563586483,
                -1.6215018530542356,
                -1.430950382862346,
                -1.4027901636021967,
                0.15341589964451835
            ]
        },
        {
            "positions": [
                2.329394437502869,
                -1.2154316617793932,
                -1.5221296293659583,
                -1.3917501771237923,
                -1.346737920467572,
                0.057214630484224704
            ]
        },
        {
            "positions": [
                2.23684241151284,
                -1.2082046672001379,
                -1.4227574056776813,
                -1.352549971385239,
                -1.2906856773329476,
                -0.038986638676068885
            ]
        },
        {
            "positions": [
                2.144290385522811,
                -1.2009776726208827,
                -1.3233851819894042,
                -1.3133497656466855,
                -1.234633434198323,
                -0.13518790783636248
            ]
        },
        {
            "positions": [
                2.0517383595327816,
                -1.1937506780416274,
                -1.2240129583011272,
                -1.2741495599081318,
                -1.1785811910636985,
                -0.23138917699665607
            ]
        },
        {
            "positions": [
                1.9591863335427528,
                -1.1865236834623722,
                -1.12464073461285,
                -1.2349493541695784,
                -1.1225289479290739,
                -0.32759044615694977
            ]
        },
        {
            "positions": [
                1.8666343075527239,
                -1.179296688883117,
                -1.025268510924573,
                -1.195749148431025,
                -1.0664767047944492,
                -0.42379171531724324
            ]
        },
        {
            "positions": [
                1.7740822815626949,
                -1.1720696943038618,
                -0.9258962872362959,
                -1.1565489426924713,
                -1.0104244616598246,
                -0.519992984477537
            ]
        },
        {
            "positions": [
                1.6815302555726659,
                -1.1648426997246064,
                -0.8265240635480189,
                -1.117348736953918,
                -0.9543722185252003,
                -0.6161942536378305
            ]
        },
        {
            "positions": [
                1.588978229582637,
                -1.1576157051453513,
                -0.7271518398597419,
                -1.0781485312153642,
                -0.8983199753905756,
                -0.7123955227981241
            ]
        },
        {
            "positions": [
                1.496426203592608,
                -1.150388710566096,
                -0.6277796161714648,
                -1.0389483254768108,
                -0.8422677322559511,
                -0.8085967919584177
            ]
        },
        {
            "positions": [
                1.403874177602579,
                -1.1431617159868406,
                -0.5284073924831878,
                -0.9997481197382573,
                -0.7862154891213265,
                -0.9047980611187113
            ]
        },
        {
            "positions": [
                1.3113221516125502,
                -1.1359347214075854,
                -0.42903516879491077,
                -0.9605479139997039,
                -0.730163245986702,
                -1.0009993302790048
            ]
        },
        {
            "positions": [
                1.218770125622521,
                -1.12870772682833,
                -0.3296629451066335,
                -0.9213477082611502,
                -0.6741110028520774,
                -1.0972005994392986
            ]
        },
        {
            "positions": [
                1.126218099632492,
                -1.121480732249075,
                -0.2302907214183565,
                -0.8821475025225968,
                -0.6180587597174528,
                -1.193401868599592
            ]
        },
        {
            "positions": [
                1.033666073642463,
                -1.1142537376698196,
                -0.13091849773007946,
                -0.8429472967840432,
                -0.5620065165828283,
                -1.2896031377598858
            ]
        },
        {
            "positions": [
                0.941114047652434,
                -1.1070267430905645,
                -0.03154627404180266,
                -0.8037470910454898,
                -0.5059542734482039,
                -1.3858044069201791
            ]
        },
        {
            "positions": [
                0.848562021662405,
                -1.0997997485113091,
                0.06782594964647481,
                -0.7645468853069362,
                -0.449902030313579,
                -1.482005676080473
            ]
        },
        {
            "positions": [
                0.756009995672376,
                -1.092572753932054,
                0.16719817333475184,
                -0.7253466795683827,
                -0.3938497871789546,
                -1.5782069452407663
            ]
        },
        {
            "positions": [
                0.663457969682347,
                -1.0853457593527986,
                0.26657039702302887,
                -0.6861464738298292,
                -0.33779754404433016,
                -1.6744082144010601
            ]
        },
        {
            "positions": [
                0.5709059436923183,
                -1.0781187647735435,
                0.3659426207113059,
                -0.6469462680912758,
                -0.2817453009097055,
                -1.7706094835613535
            ]
        },
        {
            "positions": [
                0.4783539177022891,
                -1.0708917701942882,
                0.4653148443995829,
                -0.6077460623527221,
                -0.22569305777508086,
                -1.8668107527216473
            ]
        },
        {
            "positions": [
                0.38580189171225987,
                -1.0636647756150328,
                0.56468706808786,
                -0.5685458566141687,
                -0.16964081464045622,
                -1.9630120218819411
            ]
        },
        {
            "positions": [
                0.2932498657222311,
                -1.0564377810357777,
                0.6640592917761368,
                -0.5293456508756151,
                -0.11358857150583174,
                -2.0592132910422345
            ]
        },
        {
            "positions": [
                0.2585397439869308,
                -1.0644145222565726,
                0.8043557360337239,
                -0.5481855871326452,
                -0.08892218959137518,
                -2.1962109428619008
            ]
        },
        {
            "positions": [
                0.22382962225163044,
                -1.0723912634773676,
                0.944652180291311,
                -0.5670255233896754,
                -0.06425580767691863,
                -2.333208594681567
            ]
        },
        {
            "positions": [
                0.18911950051633014,
                -1.0803680046981627,
                1.0849486245488982,
                -0.5858654596467054,
                -0.03958942576246209,
                -2.4702062465012338
            ]
        },
        {
            "positions": [
                0.1544093787810298,
                -1.0883447459189577,
                1.2252450688064853,
                -0.6047053959037356,
                -0.014923043848005538,
                -2.6072038983209
            ]
        },
        {
            "positions": [
                0.11969925704572948,
                -1.0963214871397526,
                1.3655415130640725,
                -0.6235453321607657,
                0.009743338066451002,
                -2.7442015501405663
            ]
        },
        {
            "positions": [
                0.09861467909994165,
                -1.1036330017748444,
                1.4903140411043938,
                -0.6431621945670477,
                0.030227480385123864,
                -2.860506682557057
            ]
        },
        {
            "positions": [
                0.10198311999029447,
                -1.1133331380902054,
                1.6577968316817306,
                -0.6695258045968386,
                0.065125678993899,
                -3.0022078103672722
            ]
        },
        {
            "positions": [
                0.10535156088064729,
                -1.1230332744055662,
                1.8252796222590675,
                -0.6958894146266295,
                0.10002387760267413,
                -3.143908938177488
            ]
        },
        {
            "positions": [
                0.12271183624979401,
                -1.1280294527555634,
                1.9529107838464135,
                -0.7009489973948481,
                0.12101929695754107,
                -3.2719417583304584
            ]
        }
    ]
}