{
    "goal": {
        "global_pose": {
            "orientation": {
                "w": -0.4816463035849501,
                "x": 0.5182115481033762,
                "y": 0.4908360881923453,
                "z": -0.5084816262002911
            },
            "position": {
                "x": -0.8240239810943604,
                "y": 0.19912469901144506,
                "z": 0.16403168439865112
            }
        },
        "name": "move_to_storage_D"
    },
    "id": "TRRT_move_to_storage_D_40",
    "joint_names": [
        "shoulder_pan_joint",
        "shoulder_lift_joint",
        "elbow_joint",
        "wrist_1_joint",
        "wrist_2_joint",
        "wrist_3_joint"
    ],
    "metrics": {
        "cart_traj_len": 3.6419362760037135,
        "distance_elbow_joint": 4.2122122444776124,
        "distance_shoulder_lift_joint": 1.2637693212786834,
        "distance_shoulder_pan_joint": 2.812850722226304,
        "distance_wrist_1_joint": 2.273975563081681,
        "distance_wrist_2_joint": 0.8697680333402225,
        "distance_wrist_3_joint": 3.1351429829435764,
        "smoothness": 1.821904452246146e-16,
        "time": 0.37186906799999997,
        "traj_len": 3.816768118100454,
        "weighted_distance": 4.897116338178739
    },
    "planner": "TRRT",
    "start": {
        "state": {
            "elbow_joint": -2.384821988534728,
            "shoulder_lift_joint": -2.2788054721415256,
            "shoulder_pan_joint": -0.1854694642142757,
            "wrist_1_joint": 1.4845938289331202,
            "wrist_2_joint": 0.17898776772866878,
            "wrist_3_joint": 0.037105688729662994
        }
    },
    "waypoints": [
        {
            "positions": [
                -0.1854694642142757,
                -2.2788054721415256,
                -2.384821988534728,
                1.4845938289331202,
                0.17898776772866878,
                0.037105688729662994
            ]
        },
        {
            "positions": [
                -0.10053073727044184,
                -2.243178628550456,
                -2.284316215684197,
                1.4421548661358834,
                0.25340408246308865,
                -0.006965406536321814
            ]
        },
        {
            "positions": [
                -0.015592010326607966,
                -2.2075517849593864,
                -2.183810442833666,
                1.3997159033386466,
                0.32782039719750855,
                -0.05103650180230663
            ]
        },
        {
            "positions": [
                0.05716573345269081,
                -2.183811990548802,
                -2.0538745330765735,
                1.337440784649865,
                0.3337411925189068,
                -0.1404625721664469
            ]
        },
        {
            "positions": [
                0.1299234772319896,
                -2.160072196138217,
                -1.9239386233194806,
                1.2751656659610835,
                0.33966198784030516,
                -0.22988864253058713
            ]
        },
        {
            "positions": [
                0.20268122101128838,
                -2.136332401727633,
                -1.7940027135623882,
                1.212890547272302,
                0.34558278316170343,
                -0.3193147128947274
            ]
        },
        {
            "positions": [
                0.27543896479058716,
                -2.112592607317048,
                -1.6640668038052955,
                1.1506154285835204,
                0.35150357848310176,
                -0.40874078325886765
            ]
        },
        {
            "positions": [
                0.34819670856988594,
                -2.0888528129064636,
                -1.5341308940482028,
                1.0883403098947388,
                0.35742437380450004,
                -0.4981668536230079
            ]
        },
        {
            "positions": [
                0.4209544523491847,
                -2.0651130184958792,
                -1.4041949842911103,
                1.0260651912059573,
                0.3633451691258983,
                -0.5875929239871482
            ]
        },
        {
            "positions": [
                0.4937121961284835,
                -2.0413732240852944,
                -1.2742590745340177,
                0.9637900725171759,
                0.36926596444729665,
                -0.6770189943512884
            ]
        },
        {
            "positions": [
                0.5664699399077823,
                -2.01763342967471,
                -1.144323164776925,
                0.9015149538283943,
                0.3751867597686949,
                -0.7664450647154287
            ]
        },
        {
            "positions": [
                0.639227683687081,
                -1.9938936352641254,
                -1.0143872550198325,
                0.8392398351396128,
                0.38110755509009325,
                -0.8558711350795689
            ]
        },
        {
            "positions": [
                0.7119854274663798,
                -1.9701538408535408,
                -0.8844513452627398,
                0.7769647164508313,
                0.38702835041149153,
                -0.9452972054437092
            ]
        },
        {
            "positions": [
                0.7847431712456785,
                -1.9464140464429562,
                -0.7545154355056471,
                0.7146895977620498,
                0.3929491457328898,
                -1.0347232758078493
            ]
        },
        {
            "positions": [
                0.8575009150249774,
                -1.9226742520323716,
                -0.6245795257485545,
                0.6524144790732681,
                0.39886994105428814,
                -1.1241493461719898
            ]
        },
        {
            "positions": [
                0.9302586588042762,
                -1.8989344576217873,
                -0.4946436159914618,
                0.5901393603844866,
                0.4047907363756864,
                -1.21357541653613
            ]
        },
        {
            "positions": [
                1.0030164025835748,
                -1.8751946632112027,
                -0.3647077062343693,
                0.5278642416957051,
                0.41071153169708474,
                -1.3030014869002702
            ]
        },
        {
            "positions": [
                1.0757741463628736,
                -1.851454868800618,
                -0.23477179647727664,
                0.46558912300692357,
                0.416632327018483,
                -1.3924275572644105
            ]
        },
        {
            "positions": [
                1.1485318901421724,
                -1.8277150743900334,
                -0.10483588672018396,
                0.403314004318142,
                0.4225531223398813,
                -1.4818536276285508
            ]
        },
        {
            "positions": [
                1.2212896339214712,
                -1.8039752799794488,
                0.025100023036908503,
                0.34103888562936047,
                0.4284739176612796,
                -1.5712796979926908
            ]
        },
        {
            "positions": [
                1.29404737770077,
                -1.7802354855688645,
                0.15503593279400096,
                0.2787637669405789,
                0.4343947129826779,
                -1.6607057683568311
            ]
        },
        {
            "positions": [
                1.3668051214800687,
                -1.7564956911582799,
                0.28497184255109387,
                0.2164886482517976,
                0.4403155083040762,
                -1.7501318387209714
            ]
        },
        {
            "positions": [
                1.4395628652593675,
                -1.7327558967476953,
                0.41490775230818633,
                0.15421352956301604,
                0.4462363036254745,
                -1.8395579090851117
            ]
        },
        {
            "positions": [
                1.5123206090386663,
                -1.7090161023371107,
                0.5448436620652788,
                0.09193841087423449,
                0.4521570989468728,
                -1.9289839794492518
            ]
        },
        {
            "positions": [
                1.5850783528179648,
                -1.685276307926526,
                0.6747795718223717,
                0.02966329218545294,
                0.45807789426827106,
                -2.018410049813392
            ]
        },
        {
            "positions": [
                1.657836096597264,
                -1.6615365135159417,
                0.8047154815794646,
                -0.032611826503328833,
                0.4639986895896694,
                -2.1078361201775326
            ]
        },
        {
            "positions": [
                1.7305938403765626,
                -1.6377967191053568,
                0.9346513913365571,
                -0.09488694519211038,
                0.4699194849110677,
                -2.197262190541673
            ]
        },
        {
            "positions": [
                1.8033515841558614,
                -1.6140569246947725,
                1.0645873010936495,
                -0.15716206388089193,
                0.475840280232466,
                -2.2866882609058132
            ]
        },
        {
            "positions": [
                1.8761093279351602,
                -1.5903171302841879,
                1.1945232108507424,
                -0.21943718256967348,
                0.48176107555386427,
                -2.3761143312699535
            ]
        },
        {
            "positions": [
                1.948867071714459,
                -1.5665773358736033,
                1.3244591206078349,
                -0.2817123012584548,
                0.4876818708752626,
                -2.4655404016340934
            ]
        },
        {
            "positions": [
                2.021624815493758,
                -1.5428375414630189,
                1.4543950303649273,
                -0.34398741994723636,
                0.4936026661966609,
                -2.5549664719982337
            ]
        },
        {
            "positions": [
                2.0943825592730567,
                -1.5190977470524343,
                1.5843309401220202,
                -0.4062625386360179,
                0.49952346151805915,
                -2.644392542362374
            ]
        },
        {
            "positions": [
                2.1671403030523555,
                -1.4953579526418497,
                1.7142668498791127,
                -0.46853765732479946,
                0.5054442568394575,
                -2.7338186127265143
            ]
        },
        {
            "positions": [
                2.2438471288789676,
                -1.4153043190120151,
                1.7331207508897417,
                -0.5220116701287598,
                0.5959961808776965,
                -2.7945217263077473
            ]
        },
        {
            "positions": [
                2.32055395470558,
                -1.3352506853821806,
                1.7519746519003707,
                -0.5754856829327202,
                0.6865481049159354,
                -2.855224839888981
            ]
        },
        {
            "positions": [
                2.397260780532192,
                -1.2551970517523459,
                1.7708285529109997,
                -0.6289596957366805,
                0.7771000289541744,
                -2.915927953470214
            ]
        },
        {
            "positions": [
                2.4739676063588045,
                -1.1751434181225116,
                1.7896824539216287,
                -0.6824337085406409,
                0.8676519529924134,
                -2.976631067051447
            ]
        },
        {
            "positions": [
                2.5506744321854167,
                -1.0950897844926768,
                1.8085363549322577,
                -0.7359077213446013,
                0.9582038770306524,
                -3.0373341806326803
            ]
        },
        {
            "positions": [
                2.627381258012029,
                -1.0150361508628423,
                1.8273902559428867,
                -0.7893817341485616,
                1.0487558010688913,
                -3.0980372942139134
            ]
        }
    ]
}