{
    "goal": {
        "global_pose": {
            "orientation": {
                "w": 0.7031023502349854,
                "x": -0.7110244035720825,
                "y": 0.007748599164187908,
                "z": 0.005598929710686207
            },
            "position": {
                "x": 0.11585023208521307,
                "y": 0.44412534475326537,
                "z": 0.3711530566215515
            }
        },
        "name": "move_to_auspresseinheit_A"
    },
    "id": "TRRT_move_to_auspresseinheit_A_132",
    "joint_names": [
        "shoulder_pan_joint",
        "shoulder_lift_joint",
        "elbow_joint",
        "wrist_1_joint",
        "wrist_2_joint",
        "wrist_3_joint"
    ],
    "metrics": {
        "cart_traj_len": 0.6875653075713816,
        "distance_elbow_joint": 0.043589548475037265,
        "distance_shoulder_lift_joint": 0.539001992614345,
        "distance_shoulder_pan_joint": 1.0434771278360677,
        "distance_wrist_1_joint": 0.5519941839562033,
        "distance_wrist_2_joint": 0.5452363925187294,
        "distance_wrist_3_joint": 0.038629758415224646,
        "smoothness": 0.16488256561574227,
        "time": 0.071415695,
        "traj_len": 1.6619052331031416,
        "weighted_distance": 1.9840411026793243
    },
    "planner": "TRRT",
    "start": {
        "state": {
            "elbow_joint": 2.4225746658250005,
            "shoulder_lift_joint": -1.3736534386056498,
            "shoulder_pan_joint": -0.3378633547517467,
            "wrist_1_joint": -1.0288598680537169,
            "wrist_2_joint": 1.233022673432363,
            "wrist_3_joint": -3.0940220416140027
        }
    },
    "waypoints": [
        {
            "positions": [
                -0.3378633547517467,
                -1.3736534386056498,
                2.4225746658250005,
                -1.0288598680537169,
                1.233022673432363,
                -3.0940220416140027
            ]
        },
        {
            "positions": [
                -0.24552013342676965,
                -1.396445570465441,
                2.431440368299041,
                -0.973638206203078,
                1.1090815015993067,
                -3.0893272982151667
            ]
        },
        {
            "positions": [
                -0.114797832915841,
                -1.4626746077068091,
                2.4286567123744884,
                -0.9044318322990619,
                1.04087359060659,
                -3.092851285899595
            ]
        },
        {
            "positions": [
                0.015924467595087644,
                -1.5289036449481774,
                2.425873056449936,
                -0.8352254583950457,
                0.9726656796138734,
                -3.096375273584024
            ]
        },
        {
            "positions": [
                0.14664676810601635,
                -1.5951326821895455,
                2.4230894005253836,
                -0.7660190844910295,
                0.9044577686211567,
                -3.0998992612684524
            ]
        },
        {
            "positions": [
                0.27736906861694494,
                -1.6613617194309136,
                2.4203057446008307,
                -0.6968127105870134,
                0.8362498576284401,
                -3.103423248952881
            ]
        },
        {
            "positions": [
                0.40809136912787375,
                -1.727590756672282,
                2.4175220886762783,
                -0.6276063366829974,
                0.7680419466357233,
                -3.1069472366373097
            ]
        },
        {
            "positions": [
                0.5388136696388024,
                -1.79381979391365,
                2.414738432751726,
                -0.5583999627789812,
                0.6998340356430066,
                -3.110471224321738
            ]
        },
        {
            "positions": [
                0.686922298858298,
                -1.8988844688222533,
                2.3986360571249286,
                -0.4861103410913601,
                0.7110255515302317,
                -3.1219375592220673
            ]
        },
        {
            "positions": [
                0.7056137730843209,
                -1.9126554312199948,
                2.396716522298044,
                -0.4768656840975136,
                0.7118817903723795,
                -3.1232623132315553
            ]
        }
    ]
}