{
    "goal": {
        "global_pose": {
            "orientation": {
                "w": 0.7031023502349854,
                "x": -0.7110244035720825,
                "y": 0.007748599164187908,
                "z": 0.005598929710686207
            },
            "position": {
                "x": 0.11585023208521307,
                "y": 0.44412534475326537,
                "z": 0.3711530566215515
            }
        },
        "name": "move_to_auspresseinheit_A"
    },
    "id": "TRRT_move_to_auspresseinheit_A_106",
    "joint_names": [
        "shoulder_pan_joint",
        "shoulder_lift_joint",
        "elbow_joint",
        "wrist_1_joint",
        "wrist_2_joint",
        "wrist_3_joint"
    ],
    "metrics": {
        "cart_traj_len": 1.851924307052905,
        "distance_elbow_joint": 0.08451467090851272,
        "distance_shoulder_lift_joint": 0.6195294326946039,
        "distance_shoulder_pan_joint": 3.5149925939732056,
        "distance_wrist_1_joint": 1.1903279096331147,
        "distance_wrist_2_joint": 0.5546807375005419,
        "distance_wrist_3_joint": 0.5855677717133898,
        "smoothness": 1.2197021962514116,
        "time": 0.049478126,
        "traj_len": 2.5592211933366307,
        "weighted_distance": 3.0766470884688424
    },
    "planner": "TRRT",
    "start": {
        "state": {
            "elbow_joint": 2.4225746658250005,
            "shoulder_lift_joint": -1.3736534386056498,
            "shoulder_pan_joint": -0.3378633547517467,
            "wrist_1_joint": -1.0288598680537169,
            "wrist_2_joint": 1.233022673432363,
            "wrist_3_joint": -3.0940220416140027
        }
    },
    "waypoints": [
        {
            "positions": [
                -0.3378633547517467,
                -1.3736534386056498,
                2.4225746658250005,
                -1.0288598680537169,
                1.233022673432363,
                -3.0940220416140027
            ]
        },
        {
            "positions": [
                -0.4921685250997808,
                -1.446099357758248,
                2.4157080878075674,
                -1.0689423893118608,
                1.1663424917765775,
                -3.1327147196661778
            ]
        },
        {
            "positions": [
                -0.646473695447815,
                -1.5185452769108463,
                2.4088415097901343,
                -1.109024910570005,
                1.099662310120792,
                -3.1714073977183532
            ]
        },
        {
            "positions": [
                -0.800778865795849,
                -1.5909911960634444,
                2.4019749317727013,
                -1.149107431828149,
                1.0329821284650065,
                -3.2101000757705282
            ]
        },
        {
            "positions": [
                -0.955084036143883,
                -1.6634371152160425,
                2.395108353755268,
                -1.1891899530862928,
                0.966301946809221,
                -3.2487927538227037
            ]
        },
        {
            "positions": [
                -1.109389206491917,
                -1.7358830343686407,
                2.388241775737835,
                -1.2292724743444368,
                0.8996217651534355,
                -3.2874854318748787
            ]
        },
        {
            "positions": [
                -1.2636943768399513,
                -1.8083289535212388,
                2.381375197720402,
                -1.2693549956025807,
                0.8329415834976499,
                -3.3261781099270538
            ]
        },
        {
            "positions": [
                -1.4179995471879854,
                -1.8807748726738371,
                2.374508619702969,
                -1.3094375168607248,
                0.7662614018418644,
                -3.3648707879792292
            ]
        },
        {
            "positions": [
                -1.5723047175360194,
                -1.9532207918264353,
                2.367642041685536,
                -1.3495200381188688,
                0.6995812201860789,
                -3.4035634660314042
            ]
        },
        {
            "positions": [
                -1.3189101362928046,
                -1.9487805607737887,
                2.3709289357709857,
                -1.252890289277984,
                0.7019411406587742,
                -3.3728938718874057
            ]
        },
        {
            "positions": [
                -1.0655155550495898,
                -1.9443403297211423,
                2.3742158298564355,
                -1.1562605404370994,
                0.7043010611314695,
                -3.342224277743407
            ]
        },
        {
            "positions": [
                -0.8121209738063752,
                -1.9399000986684958,
                2.3775027239418853,
                -1.0596307915962146,
                0.7066609816041649,
                -3.3115546835994083
            ]
        },
        {
            "positions": [
                -0.5587263925631605,
                -1.9354598676158492,
                2.380789618027335,
                -0.9630010427553297,
                0.7090209020768602,
                -3.2808850894554094
            ]
        },
        {
            "positions": [
                -0.30533181131994547,
                -1.9310196365632029,
                2.384076512112785,
                -0.866371293914445,
                0.7113808225495555,
                -3.250215495311411
            ]
        },
        {
            "positions": [
                -0.0519372300767309,
                -1.9265794055105563,
                2.3873634061982347,
                -0.7697415450735603,
                0.7137407430222508,
                -3.219545901167412
            ]
        },
        {
            "positions": [
                0.2014573511664839,
                -1.9221391744579097,
                2.3906503002836845,
                -0.6731117962326755,
                0.7161006634949462,
                -3.1888763070234134
            ]
        },
        {
            "positions": [
                0.45485193240969846,
                -1.9176989434052634,
                2.3939371943691343,
                -0.5764820473917908,
                0.7184605839676415,
                -3.158206712879415
            ]
        },
        {
            "positions": [
                0.7082465136529135,
                -1.9132587123526168,
                2.397224088454584,
                -0.479852298550906,
                0.7208205044403367,
                -3.127537118735416
            ]
        }
    ]
}