{
    "goal": {
        "global_pose": {
            "orientation": {
                "w": 0.005598929693374612,
                "x": 0.007748599140229565,
                "y": 0.7110244013736278,
                "z": -0.7031023480610252
            },
            "position": {
                "x": -0.8858502320852131,
                "y": -0.7141253447532654,
                "z": 0.3711530566215515
            }
        },
        "name": "move_to_auspresseinheit_C"
    },
    "id": "TRRT_move_to_auspresseinheit_C_87",
    "joint_names": [
        "shoulder_pan_joint",
        "shoulder_lift_joint",
        "elbow_joint",
        "wrist_1_joint",
        "wrist_2_joint",
        "wrist_3_joint"
    ],
    "metrics": {
        "cart_traj_len": 0.49442998170598934,
        "distance_elbow_joint": 1.0102848567693632,
        "distance_shoulder_lift_joint": 0.3292121241872865,
        "distance_shoulder_pan_joint": 0.2571004644124111,
        "distance_wrist_1_joint": 0.7008356264545468,
        "distance_wrist_2_joint": 1.3051313776454103,
        "distance_wrist_3_joint": 0.08356763939170708,
        "smoothness": 3.2297397080004555e-16,
        "time": 1.958024668,
        "traj_len": 1.9199302302064845,
        "weighted_distance": 2.4205855431577077
    },
    "planner": "TRRT",
    "start": {
        "state": {
            "elbow_joint": 1.7527959577737207,
            "shoulder_lift_joint": -0.9740617694225068,
            "shoulder_pan_joint": -2.967991417825858,
            "wrist_1_joint": -0.759517768980727,
            "wrist_2_joint": 1.7443932448377408,
            "wrist_3_joint": -3.0840537646736568
        }
    },
    "waypoints": [
        {
            "positions": [
                -2.967991417825858,
                -0.9740617694225068,
                1.7527959577737207,
                -0.759517768980727,
                1.7443932448377408,
                -3.0840537646736568
            ]
        },
        {
            "positions": [
                -2.9422813713846168,
                -0.9411405570037781,
                1.6517674720967843,
                -0.6894342063352723,
                1.6138801070731998,
                -3.0924105286128274
            ]
        },
        {
            "positions": [
                -2.9165713249433756,
                -0.9082193445850495,
                1.550738986419848,
                -0.6193506436898176,
                1.4833669693086589,
                -3.100767292551998
            ]
        },
        {
            "positions": [
                -2.890861278502135,
                -0.8752981321663208,
                1.4497105007429116,
                -0.549267081044363,
                1.3528538315441176,
                -3.109124056491169
            ]
        },
        {
            "positions": [
                -2.8651512320608936,
                -0.8423769197475921,
                1.3486820150659753,
                -0.47918351839890827,
                1.2223406937795767,
                -3.1174808204303397
            ]
        },
        {
            "positions": [
                -2.8394411856196524,
                -0.8094557073288635,
                1.247653529389039,
                -0.4090999557534536,
                1.0918275560150357,
                -3.1258375843695103
            ]
        },
        {
            "positions": [
                -2.8137311391784112,
                -0.7765344949101349,
                1.1466250437121026,
                -0.3390163931079989,
                0.9613144182504947,
                -3.134194348308681
            ]
        },
        {
            "positions": [
                -2.78802109273717,
                -0.7436132824914062,
                1.0455965580351665,
                -0.2689328304625443,
                0.8308012804859537,
                -3.1425511122478516
            ]
        },
        {
            "positions": [
                -2.7623110462959293,
                -0.7106920700726775,
                0.94456807235823,
                -0.19884926781708956,
                0.7002881427214125,
                -3.1509078761870226
            ]
        },
        {
            "positions": [
                -2.736600999854688,
                -0.677770857653949,
                0.8435395866812938,
                -0.12876570517163488,
                0.5697750049568715,
                -3.1592646401261932
            ]
        },
        {
            "positions": [
                -2.710890953413447,
                -0.6448496452352203,
                0.7425111010043575,
                -0.05868214252618021,
                0.4392618671923305,
                -3.167621404065364
            ]
        }
    ]
}