{
    "goal": {
        "global_pose": {
            "orientation": {
                "w": 0.005598929693374612,
                "x": 0.007748599140229565,
                "y": 0.7110244013736278,
                "z": -0.7031023480610252
            },
            "position": {
                "x": 0.1141497679147869,
                "y": -0.7141253447532654,
                "z": 0.3711530566215515
            }
        },
        "name": "move_to_auspresseinheit_B"
    },
    "id": "TRRT_move_to_auspresseinheit_B_8",
    "joint_names": [
        "shoulder_pan_joint",
        "shoulder_lift_joint",
        "elbow_joint",
        "wrist_1_joint",
        "wrist_2_joint",
        "wrist_3_joint"
    ],
    "metrics": {
        "cart_traj_len": 0.5639860877411035,
        "distance_elbow_joint": 0.06161217436180699,
        "distance_shoulder_lift_joint": 0.2942141762277113,
        "distance_shoulder_pan_joint": 0.57509617292219,
        "distance_wrist_1_joint": 0.32061567780833633,
        "distance_wrist_2_joint": 0.9981844248816414,
        "distance_wrist_3_joint": 0.01014052204473126,
        "smoothness": 7.612957903237841e-16,
        "time": 0.020582536,
        "traj_len": 1.5032841209320402,
        "weighted_distance": 1.897088373014251
    },
    "planner": "TRRT",
    "start": {
        "state": {
            "elbow_joint": 2.0193083361928714,
            "shoulder_lift_joint": -1.1220246554650708,
            "shoulder_pan_joint": -1.0952077554168747,
            "wrist_1_joint": -0.8559753972642168,
            "wrist_2_joint": 0.4759566250798843,
            "wrist_3_joint": -3.1240929996934557
        }
    },
    "waypoints": [
        {
            "positions": [
                -1.0952077554168747,
                -1.1220246554650708,
                2.0193083361928714,
                -0.8559753972642168,
                0.4759566250798843,
                -3.1240929996934557
            ]
        },
        {
            "positions": [
                -1.191057117570573,
                -1.1710603515030227,
                2.0090396404659034,
                -0.8025394509628274,
                0.6423206958934912,
                -3.1224029126860007
            ]
        },
        {
            "positions": [
                -1.2869064797242713,
                -1.2200960475409746,
                1.9987709447389357,
                -0.749103504661438,
                0.808684766707098,
                -3.1207128256785452
            ]
        },
        {
            "positions": [
                -1.3827558418779695,
                -1.2691317435789264,
                1.988502249011968,
                -0.6956675583600487,
                0.9750488375207049,
                -3.11902273867109
            ]
        },
        {
            "positions": [
                -1.478605204031668,
                -1.3181674396168783,
                1.9782335532850002,
                -0.6422316120586593,
                1.1414129083343119,
                -3.117332651663635
            ]
        },
        {
            "positions": [
                -1.5744545661853664,
                -1.3672031356548302,
                1.9679648575580322,
                -0.5887956657572698,
                1.3077769791479188,
                -3.11564256465618
            ]
        },
        {
            "positions": [
                -1.6703039283390646,
                -1.416238831692782,
                1.9576961618310644,
                -0.5353597194558805,
                1.4741410499615257,
                -3.1139524776487244
            ]
        }
    ]
}