{
    "goal": {
        "global_pose": {
            "orientation": {
                "w": 0.5084816262002911,
                "x": -0.4908360881923452,
                "y": 0.5182115481033761,
                "z": -0.48164630358495003
            },
            "position": {
                "x": 0.5540239810943604,
                "y": -0.46912469901144505,
                "z": 0.16403168439865112
            }
        },
        "name": "move_to_storage_B"
    },
    "id": "TRRT_move_to_storage_B_122",
    "joint_names": [
        "shoulder_pan_joint",
        "shoulder_lift_joint",
        "elbow_joint",
        "wrist_1_joint",
        "wrist_2_joint",
        "wrist_3_joint"
    ],
    "metrics": {
        "cart_traj_len": 1.006681336173869,
        "distance_elbow_joint": 0.6260959062827491,
        "distance_shoulder_lift_joint": 0.46151144730471705,
        "distance_shoulder_pan_joint": 0.7377604630004387,
        "distance_wrist_1_joint": 2.992217076661248,
        "distance_wrist_2_joint": 2.719854122108542,
        "distance_wrist_3_joint": 3.135472299259766,
        "smoothness": 0.12063519317721765,
        "time": 0.08845818899999999,
        "traj_len": 3.266942196399787,
        "weighted_distance": 4.7598242732171085
    },
    "planner": "TRRT",
    "start": {
        "state": {
            "elbow_joint": 1.664937868594044,
            "shoulder_lift_joint": -0.661644460510453,
            "shoulder_pan_joint": -0.9139846352900073,
            "wrist_1_joint": 2.146753192139373,
            "wrist_2_joint": -2.2341966793290973,
            "wrist_3_joint": 0.005466555786416001
        }
    },
    "waypoints": [
        {
            "positions": [
                -0.9139846352900073,
                -0.661644460510453,
                1.664937868594044,
                2.146753192139373,
                -2.2341966793290973,
                0.005466555786416001
            ]
        },
        {
            "positions": [
                -0.8896242002509861,
                -0.6618312045699198,
                1.6620085285969266,
                2.1180665690581155,
                -2.2186644527108426,
                0.005911405880770471
            ]
        },
        {
            "positions": [
                -0.8577757290676536,
                -0.6952127610283663,
                1.645322495732847,
                2.0366923618840516,
                -2.1188871279171084,
                -0.0810868918805307
            ]
        },
        {
            "positions": [
                -0.8259272578843211,
                -0.7285943174868127,
                1.6286364628687675,
                1.9553181547099874,
                -2.0191098031233747,
                -0.16808518964183186
            ]
        },
        {
            "positions": [
                -0.7940787867009886,
                -0.7619758739452591,
                1.611950430004688,
                1.8739439475359232,
                -1.9193324783296406,
                -0.25508348740313297
            ]
        },
        {
            "positions": [
                -0.7622303155176562,
                -0.7953574304037055,
                1.5952643971406084,
                1.7925697403618592,
                -1.8195551535359067,
                -0.34208178516443416
            ]
        },
        {
            "positions": [
                -0.7303818443343237,
                -0.828738986862152,
                1.5785783642765288,
                1.711195533187795,
                -1.7197778287421728,
                -0.42908008292573535
            ]
        },
        {
            "positions": [
                -0.6985333731509913,
                -0.8621205433205984,
                1.5618923314124493,
                1.6298213260137309,
                -1.6200005039484386,
                -0.5160783806870365
            ]
        },
        {
            "positions": [
                -0.6666849019676587,
                -0.8955020997790448,
                1.5452062985483699,
                1.548447118839667,
                -1.5202231791547047,
                -0.6030766784483377
            ]
        },
        {
            "positions": [
                -0.6348364307843263,
                -0.9288836562374913,
                1.5285202656842902,
                1.4670729116656027,
                -1.4204458543609708,
                -0.6900749762096389
            ]
        },
        {
            "positions": [
                -0.6577670437090641,
                -0.9385972688163752,
                1.55300418085294,
                1.351446071856229,
                -1.32514068950395,
                -0.812027029563389
            ]
        },
        {
            "positions": [
                -0.6806976566338021,
                -0.9483108813952591,
                1.5774880960215898,
                1.2358192320468548,
                -1.2298355246469292,
                -0.933979082917139
            ]
        },
        {
            "positions": [
                -0.70362826955854,
                -0.958024493974143,
                1.6019720111902396,
                1.120192392237481,
                -1.1345303597899083,
                -1.0559311362708892
            ]
        },
        {
            "positions": [
                -0.7265588824832778,
                -0.967738106553027,
                1.6264559263588894,
                1.004565552428107,
                -1.0392251949328877,
                -1.1778831896246393
            ]
        },
        {
            "positions": [
                -0.7494894954080157,
                -0.977451719131911,
                1.6509398415275391,
                0.8889387126187331,
                -0.9439200300758668,
                -1.2998352429783893
            ]
        },
        {
            "positions": [
                -0.7724201083327535,
                -0.9871653317107949,
                1.675423756696189,
                0.7733118728093592,
                -0.8486148652188461,
                -1.4217872963321394
            ]
        },
        {
            "positions": [
                -0.7953507212574915,
                -0.9968789442896788,
                1.6999076718648387,
                0.6576850329999854,
                -0.7533097003618253,
                -1.5437393496858896
            ]
        },
        {
            "positions": [
                -0.8182813341822294,
                -1.0065925568685627,
                1.7243915870334885,
                0.5420581931906113,
                -0.6580045355048044,
                -1.6656914030396397
            ]
        },
        {
            "positions": [
                -0.8412119471069672,
                -1.0163061694474467,
                1.7488755022021383,
                0.4264313533812374,
                -0.5626993706477836,
                -1.7876434563933898
            ]
        },
        {
            "positions": [
                -0.8641425600317052,
                -1.0260197820263306,
                1.7733594173707878,
                0.31080451357186356,
                -0.46739420579076285,
                -1.90959550974714
            ]
        },
        {
            "positions": [
                -0.8870731729564431,
                -1.0357333946052145,
                1.7978433325394376,
                0.1951776737624895,
                -0.37208904093374207,
                -2.03154756310089
            ]
        },
        {
            "positions": [
                -0.9100037858811809,
                -1.0454470071840984,
                1.8223272477080874,
                0.07955083395311568,
                -0.2767838760767214,
                -2.15349961645464
            ]
        },
        {
            "positions": [
                -0.9329343988059189,
                -1.0551606197629826,
                1.8468111628767372,
                -0.03607600585625814,
                -0.1814787112197005,
                -2.2754516698083904
            ]
        },
        {
            "positions": [
                -0.9558650117306566,
                -1.0648742323418663,
                1.871295078045387,
                -0.15170284566563197,
                -0.08617354636267982,
                -2.39740372316214
            ]
        },
        {
            "positions": [
                -0.9787956246553946,
                -1.0745878449207504,
                1.8957789932140368,
                -0.267329685475006,
                0.009131618494341076,
                -2.5193557765158903
            ]
        },
        {
            "positions": [
                -1.0017262375801326,
                -1.0843014574996344,
                1.9202629083826865,
                -0.38295652528438007,
                0.10443678335136197,
                -2.6413078298696404
            ]
        },
        {
            "positions": [
                -1.0246568505048703,
                -1.0940150700785183,
                1.9447468235513363,
                -0.4985833650937539,
                0.19974194820838265,
                -2.7632598832233906
            ]
        },
        {
            "positions": [
                -1.0475874634296083,
                -1.1037286826574022,
                1.969230738719986,
                -0.6142102049031279,
                0.29504711306540354,
                -2.8852119365771407
            ]
        },
        {
            "positions": [
                -1.070518076354346,
                -1.1134422952362861,
                1.993714653888636,
                -0.7298370447125018,
                0.3903522779224242,
                -3.007163989930891
            ]
        },
        {
            "positions": [
                -1.093448689279084,
                -1.12315590781517,
                2.0181985690572857,
                -0.8454638845218758,
                0.48565744277944517,
                -3.129116043284641
            ]
        }
    ]
}