{
    "goal": {
        "global_pose": {
            "orientation": {
                "w": -0.4816463035849501,
                "x": 0.5182115481033762,
                "y": 0.4908360881923453,
                "z": -0.5084816262002911
            },
            "position": {
                "x": -0.8240239810943604,
                "y": -0.300875300988555,
                "z": 0.16403168439865112
            }
        },
        "name": "move_to_storage_C"
    },
    "id": "TRRT_move_to_storage_C_28",
    "joint_names": [
        "shoulder_pan_joint",
        "shoulder_lift_joint",
        "elbow_joint",
        "wrist_1_joint",
        "wrist_2_joint",
        "wrist_3_joint"
    ],
    "metrics": {
        "cart_traj_len": 0.5767390253540405,
        "distance_elbow_joint": 0.25874208004916266,
        "distance_shoulder_lift_joint": 0.1892842235675527,
        "distance_shoulder_pan_joint": 0.49639083038549403,
        "distance_wrist_1_joint": 0.08520458841632494,
        "distance_wrist_2_joint": 1.0574646516192767,
        "distance_wrist_3_joint": 0.07205154434761862,
        "smoothness": 2.5376526478085547e-16,
        "time": 0.020972335,
        "traj_len": 1.4694005302794162,
        "weighted_distance": 1.856316311170127
    },
    "planner": "TRRT",
    "start": {
        "state": {
            "elbow_joint": 2.010868314990456,
            "shoulder_lift_joint": -1.1634956873337592,
            "shoulder_pan_joint": -2.4736205022346125,
            "wrist_1_joint": -0.8367026794202681,
            "wrist_2_joint": 0.6746043897044499,
            "wrist_3_joint": -3.1496632123970403
        }
    },
    "waypoints": [
        {
            "positions": [
                -2.4736205022346125,
                -1.1634956873337592,
                2.010868314990456,
                -0.8367026794202681,
                0.6746043897044499,
                -3.1496632123970403
            ]
        },
        {
            "positions": [
                -2.5563523072988614,
                -1.131948316739167,
                1.967744634982262,
                -0.822501914684214,
                0.8508484983076627,
                -3.137654621672437
            ]
        },
        {
            "positions": [
                -2.6390841123631104,
                -1.100400946144575,
                1.9246209549740683,
                -0.8083011499481598,
                1.0270926069108754,
                -3.125646030947834
            ]
        },
        {
            "positions": [
                -2.7218159174273593,
                -1.0688535755499828,
                1.8814972749658745,
                -0.7941003852121056,
                1.2033367155140882,
                -3.113637440223231
            ]
        },
        {
            "positions": [
                -2.8045477224916087,
                -1.0373062049553907,
                1.8383735949576807,
                -0.7798996204760514,
                1.3795808241173009,
                -3.1016288494986277
            ]
        },
        {
            "positions": [
                -2.8872795275558576,
                -1.0057588343607986,
                1.795249914949487,
                -0.7656988557399973,
                1.555824932720514,
                -3.089620258774025
            ]
        },
        {
            "positions": [
                -2.9700113326201065,
                -0.9742114637662065,
                1.7521262349412932,
                -0.7514980910039432,
                1.7320690413237265,
                -3.0776116680494217
            ]
        }
    ]
}