{
    "goal": {
        "global_pose": {
            "orientation": {
                "w": -0.00223480608172531,
                "x": 0.0024358444001904467,
                "y": 0.7094548369677653,
                "z": -0.704743149386269
            },
            "position": {
                "x": 0.6205249238014221,
                "y": -0.6371506643295288,
                "z": 0.19426114857196808
            }
        },
        "name": "move_to_magneteinheit_B"
    },
    "id": "TRRT_move_to_magneteinheit_B_6",
    "joint_names": [
        "shoulder_pan_joint",
        "shoulder_lift_joint",
        "elbow_joint",
        "wrist_1_joint",
        "wrist_2_joint",
        "wrist_3_joint"
    ],
    "metrics": {
        "cart_traj_len": 1.4833088967671921,
        "distance_elbow_joint": 0.9548688508530678,
        "distance_shoulder_lift_joint": 0.7557686953627496,
        "distance_shoulder_pan_joint": 1.6218265835431827,
        "distance_wrist_1_joint": 1.7267190195458535,
        "distance_wrist_2_joint": 1.7237277201909131,
        "distance_wrist_3_joint": 0.2282155083542042,
        "smoothness": 0.29386377674391045,
        "time": 0.063203511,
        "traj_len": 2.6478531639518783,
        "weighted_distance": 3.304240326352662
    },
    "planner": "TRRT",
    "start": {
        "state": {
            "elbow_joint": 2.6216224122426386,
            "shoulder_lift_joint": -1.4174107377796124,
            "shoulder_pan_joint": 0.7066234856936794,
            "wrist_1_joint": 1.9546482284002225,
            "wrist_2_joint": -0.7096286983471962,
            "wrist_3_joint": 0.005740856962016249
        }
    },
    "waypoints": [
        {
            "positions": [
                0.7066234856936794,
                -1.4174107377796124,
                2.6216224122426386,
                1.9546482284002225,
                -0.7096286983471962,
                0.005740856962016249
            ]
        },
        {
            "positions": [
                0.6388534899558096,
                -1.3732431876718407,
                2.5682774340924595,
                1.838117860190317,
                -0.6794224878487766,
                0.026447974483197613
            ]
        },
        {
            "positions": [
                0.5710834942179398,
                -1.3290756375640693,
                2.5149324559422808,
                1.7215874919804113,
                -0.649216277350357,
                0.04715509200437898
            ]
        },
        {
            "positions": [
                0.50331349848007,
                -1.2849080874562977,
                2.4615874777921016,
                1.6050571237705058,
                -0.6190100668519374,
                0.06786220952556035
            ]
        },
        {
            "positions": [
                0.4193349183238635,
                -1.2557011743724713,
                2.396814513686369,
                1.4743251723265396,
                -0.6144912336895739,
                0.08452851846530995
            ]
        },
        {
            "positions": [
                0.335356338167657,
                -1.2264942612886447,
                2.3320415495806364,
                1.3435932208825734,
                -0.6099724005272104,
                0.10119482740505956
            ]
        },
        {
            "positions": [
                0.25137775801145046,
                -1.1972873482048183,
                2.2672685854749037,
                1.2128612694386072,
                -0.6054535673648469,
                0.11786113634480917
            ]
        },
        {
            "positions": [
                0.2103551651334909,
                -1.1927967196163287,
                2.238058581295393,
                1.183663281082576,
                -0.6359109907768807,
                0.12119013657924968
            ]
        },
        {
            "positions": [
                0.12377376028864519,
                -1.1519386675240622,
                2.1941120413026374,
                1.2571812866385919,
                -0.7581490804535369,
                0.11251581129179039
            ]
        },
        {
            "positions": [
                0.03719235544379948,
                -1.1110806154317956,
                2.150165501309882,
                1.330699292194608,
                -0.8803871701301931,
                0.1038414860043311
            ]
        },
        {
            "positions": [
                -0.049389049401046214,
                -1.0702225633395288,
                2.106218961317126,
                1.4042172977506238,
                -1.0026252598068492,
                0.09516716071687181
            ]
        },
        {
            "positions": [
                -0.13597045424589194,
                -1.0293645112472622,
                2.0622724213243706,
                1.4777353033066398,
                -1.1248633494835054,
                0.08649283542941252
            ]
        },
        {
            "positions": [
                -0.22255185909073766,
                -0.9885064591549957,
                2.018325881331615,
                1.5512533088626557,
                -1.2471014391601616,
                0.07781851014195323
            ]
        },
        {
            "positions": [
                -0.3091332639355833,
                -0.947648407062729,
                1.9743793413388595,
                1.6247713144186715,
                -1.3693395288368175,
                0.06914418485449395
            ]
        },
        {
            "positions": [
                -0.395714668780429,
                -0.9067903549704625,
                1.930432801346104,
                1.6982893199746876,
                -1.4915776185134737,
                0.06046985956703465
            ]
        },
        {
            "positions": [
                -0.48229607362527477,
                -0.8659323028781958,
                1.8864862613533484,
                1.7718073255307034,
                -1.6138157081901299,
                0.05179553427957535
            ]
        },
        {
            "positions": [
                -0.5688774784701205,
                -0.8250742507859292,
                1.842539721360593,
                1.8453253310867193,
                -1.736053797866786,
                0.043121208992116064
            ]
        },
        {
            "positions": [
                -0.6554588833149662,
                -0.7842161986936625,
                1.7985931813678373,
                1.9188433366427353,
                -1.8582918875434424,
                0.034446883704656775
            ]
        },
        {
            "positions": [
                -0.7420402881598118,
                -0.743358146601396,
                1.7546466413750819,
                1.9923613421987512,
                -1.9805299772200984,
                0.025772558417197486
            ]
        },
        {
            "positions": [
                -0.8286216930046575,
                -0.7025000945091293,
                1.7107001013823262,
                2.065879347754767,
                -2.1027680668967546,
                0.017098233129738197
            ]
        },
        {
            "positions": [
                -0.9152030978495033,
                -0.6616420424168628,
                1.6667535613895708,
                2.139397353310783,
                -2.2250061565734107,
                0.008423907842278904
            ]
        }
    ]
}