{
    "goal": {
        "global_pose": {
            "orientation": {
                "w": -0.4816463035849501,
                "x": 0.5182115481033762,
                "y": 0.4908360881923453,
                "z": -0.5084816262002911
            },
            "position": {
                "x": -0.8240239810943604,
                "y": 0.19912469901144506,
                "z": 0.16403168439865112
            }
        },
        "name": "move_to_storage_D"
    },
    "id": "TRRT_move_to_storage_D_130",
    "joint_names": [
        "shoulder_pan_joint",
        "shoulder_lift_joint",
        "elbow_joint",
        "wrist_1_joint",
        "wrist_2_joint",
        "wrist_3_joint"
    ],
    "metrics": {
        "cart_traj_len": 3.9851372568409467,
        "distance_elbow_joint": 4.512445730725648,
        "distance_shoulder_lift_joint": 1.2629318062066706,
        "distance_shoulder_pan_joint": 2.813979523000006,
        "distance_wrist_1_joint": 2.262748450345371,
        "distance_wrist_2_joint": 0.8876701301181767,
        "distance_wrist_3_joint": 3.449987043634865,
        "smoothness": 0.2187123829820485,
        "time": 0.401535339,
        "traj_len": 3.897404608714719,
        "weighted_distance": 5.023958135948589
    },
    "planner": "TRRT",
    "start": {
        "state": {
            "elbow_joint": -2.384821988534728,
            "shoulder_lift_joint": -2.2788054721415256,
            "shoulder_pan_joint": -0.1854694642142757,
            "wrist_1_joint": 1.4845938289331202,
            "wrist_2_joint": 0.17898776772866878,
            "wrist_3_joint": 0.037105688729662994
        }
    },
    "waypoints": [
        {
            "positions": [
                -0.1854694642142757,
                -2.2788054721415256,
                -2.384821988534728,
                1.4845938289331202,
                0.17898776772866878,
                0.037105688729662994
            ]
        },
        {
            "positions": [
                -0.08691986212803327,
                -2.2488763794781588,
                -2.43520321727801,
                1.4406844435819681,
                0.27955255633382414,
                -0.013800094396642489
            ]
        },
        {
            "positions": [
                0.011629739958209179,
                -2.2189472868147915,
                -2.4855844460212912,
                1.3967750582308163,
                0.3801173449389795,
                -0.06470587752294797
            ]
        },
        {
            "positions": [
                0.11017934204445168,
                -2.1890181941514246,
                -2.535965674764573,
                1.3528656728796642,
                0.4806821335441348,
                -0.11561166064925346
            ]
        },
        {
            "positions": [
                0.1794085352826566,
                -2.159512669108433,
                -2.410272255452173,
                1.2937539379284317,
                0.4978716945177309,
                -0.028740344824545502
            ]
        },
        {
            "positions": [
                0.24863772852086152,
                -2.1300071440654413,
                -2.2845788361397736,
                1.2346422029771993,
                0.515061255491327,
                0.05813097100016246
            ]
        },
        {
            "positions": [
                0.3178669217590665,
                -2.1005016190224493,
                -2.1588854168273737,
                1.1755304680259668,
                0.5322508164649231,
                0.14500228682487046
            ]
        },
        {
            "positions": [
                0.38709611499727137,
                -2.0709960939794576,
                -2.033191997514974,
                1.1164187330747342,
                0.5494403774385193,
                0.23187360264957838
            ]
        },
        {
            "positions": [
                0.45632530823547635,
                -2.041490568936466,
                -1.9074985782025742,
                1.0573069981235017,
                0.5666299384121154,
                0.31874491847428643
            ]
        },
        {
            "positions": [
                0.5255545014736813,
                -2.0119850438934743,
                -1.7818051588901742,
                0.9981952631722693,
                0.5838194993857115,
                0.4056162342989944
            ]
        },
        {
            "positions": [
                0.5947836947118861,
                -1.9824795188504825,
                -1.6561117395777745,
                0.9390835282210368,
                0.6010090603593076,
                0.49248755012370227
            ]
        },
        {
            "positions": [
                0.6640128879500911,
                -1.9529739938074906,
                -1.5304183202653747,
                0.8799717932698043,
                0.6181986213329037,
                0.5793588659484102
            ]
        },
        {
            "positions": [
                0.733242081188296,
                -1.923468468764499,
                -1.4047249009529748,
                0.8208600583185719,
                0.6353881823064998,
                0.6662301817731183
            ]
        },
        {
            "positions": [
                0.802471274426501,
                -1.893962943721507,
                -1.279031481640575,
                0.7617483233673393,
                0.6525777432800959,
                0.7531014975978263
            ]
        },
        {
            "positions": [
                0.8717004676647059,
                -1.8644574186785154,
                -1.153338062328175,
                0.7026365884161069,
                0.669767304253692,
                0.8399728134225343
            ]
        },
        {
            "positions": [
                0.9409296609029109,
                -1.8349518936355236,
                -1.0276446430157753,
                0.6435248534648744,
                0.6869568652272882,
                0.9268441292472422
            ]
        },
        {
            "positions": [
                1.0101588541411157,
                -1.805446368592532,
                -0.9019512237033758,
                0.584413118513642,
                0.7041464262008843,
                1.01371544507195
            ]
        },
        {
            "positions": [
                1.0793880473793207,
                -1.7759408435495403,
                -0.7762578043909758,
                0.5253013835624095,
                0.7213359871744803,
                1.100586760896658
            ]
        },
        {
            "positions": [
                1.1486172406175255,
                -1.7464353185065484,
                -0.6505643850785761,
                0.46618964861117707,
                0.7385255481480765,
                1.187458076721366
            ]
        },
        {
            "positions": [
                1.2178464338557304,
                -1.7169297934635566,
                -0.5248709657661763,
                0.4070779136599445,
                0.7557151091216725,
                1.274329392546074
            ]
        },
        {
            "positions": [
                1.2870756270939354,
                -1.687424268420565,
                -0.39917754645377634,
                0.34796617870871205,
                0.7729046700952686,
                1.361200708370782
            ]
        },
        {
            "positions": [
                1.3563048203321404,
                -1.6579187433775733,
                -0.2734841271413764,
                0.2888544437574796,
                0.7900942310688648,
                1.44807202419549
            ]
        },
        {
            "positions": [
                1.4255340135703454,
                -1.6284132183345814,
                -0.14779070782897685,
                0.22974270880624714,
                0.8072837920424609,
                1.534943340020198
            ]
        },
        {
            "positions": [
                1.4947632068085503,
                -1.5989076932915895,
                -0.022097288516576885,
                0.17063097385501447,
                0.8244733530160571,
                1.621814655844906
            ]
        },
        {
            "positions": [
                1.563992400046755,
                -1.569402168248598,
                0.10359613079582308,
                0.11151923890378201,
                0.8416629139896532,
                1.708685971669614
            ]
        },
        {
            "positions": [
                1.63322159328496,
                -1.5398966432056063,
                0.22928955010822305,
                0.05240750395254956,
                0.8588524749632493,
                1.795557287494322
            ]
        },
        {
            "positions": [
                1.702450786523165,
                -1.5103911181626144,
                0.3549829694206226,
                -0.006704230998682892,
                0.8760420359368454,
                1.8824286033190298
            ]
        },
        {
            "positions": [
                1.77167997976137,
                -1.4808855931196225,
                0.48067638873302254,
                -0.06581596594991534,
                0.8932315969104415,
                1.969299919143738
            ]
        },
        {
            "positions": [
                1.840909172999575,
                -1.451380068076631,
                0.6063698080454225,
                -0.1249277009011478,
                0.9104211578840375,
                2.056171234968446
            ]
        },
        {
            "positions": [
                1.9101383662377796,
                -1.4218745430336392,
                0.7320632273578216,
                -0.18403943585238025,
                0.9276107188576337,
                2.1430425507931536
            ]
        },
        {
            "positions": [
                1.9793675594759845,
                -1.3923690179906476,
                0.8577566466702216,
                -0.2431511708036127,
                0.9448002798312298,
                2.2299138666178617
            ]
        },
        {
            "positions": [
                2.0485967527141895,
                -1.3628634929476557,
                0.9834500659826215,
                -0.30226290575484516,
                0.961989840804826,
                2.3167851824425694
            ]
        },
        {
            "positions": [
                2.1178259459523945,
                -1.3333579679046639,
                1.109143485295021,
                -0.3613746407060776,
                0.979179401778422,
                2.4036564982672775
            ]
        },
        {
            "positions": [
                2.1870551391905995,
                -1.3038524428616722,
                1.234836904607421,
                -0.42048637565731006,
                0.9963689627520181,
                2.4905278140919855
            ]
        },
        {
            "positions": [
                2.2562843324288044,
                -1.2743469178186806,
                1.360530323919821,
                -0.4795981106085425,
                1.0135585237256142,
                2.5773991299166936
            ]
        },
        {
            "positions": [
                2.3255135256670094,
                -1.2448413927756887,
                1.4862237432322205,
                -0.5387098455597752,
                1.0307480846992103,
                2.6642704457414013
            ]
        },
        {
            "positions": [
                2.3947427189052144,
                -1.2153358677326969,
                1.6119171625446205,
                -0.5978215805110076,
                1.0479376456728065,
                2.7511417615661093
            ]
        },
        {
            "positions": [
                2.4639719121434194,
                -1.1858303426897052,
                1.7376105818570207,
                -0.6569333154622403,
                1.0651272066464026,
                2.8380130773908174
            ]
        },
        {
            "positions": [
                2.51881796102419,
                -1.1291781171047552,
                1.7668525111484232,
                -0.6973404174455771,
                1.064616976246255,
                2.9525613961294432
            ]
        },
        {
            "positions": [
                2.57366400990496,
                -1.072525891519805,
                1.7960944404398256,
                -0.7377475194289139,
                1.0641067458461073,
                3.067109714868069
            ]
        },
        {
            "positions": [
                2.6285100587857304,
                -1.015873665934855,
                1.8253363697312281,
                -0.7781546214122507,
                1.0635965154459597,
                3.181658033606695
            ]
        }
    ]
}