{
    "goal": {
        "global_pose": {
            "orientation": {
                "w": -0.4816463035849501,
                "x": 0.5182115481033762,
                "y": 0.4908360881923453,
                "z": -0.5084816262002911
            },
            "position": {
                "x": -0.8240239810943604,
                "y": -0.300875300988555,
                "z": 0.16403168439865112
            }
        },
        "name": "move_to_storage_C"
    },
    "id": "TRRT_move_to_storage_C_56",
    "joint_names": [
        "shoulder_pan_joint",
        "shoulder_lift_joint",
        "elbow_joint",
        "wrist_1_joint",
        "wrist_2_joint",
        "wrist_3_joint"
    ],
    "metrics": {
        "cart_traj_len": 0.576345749940456,
        "distance_elbow_joint": 0.25591140252240585,
        "distance_shoulder_lift_joint": 0.19018428688819122,
        "distance_shoulder_pan_joint": 0.49408647033896846,
        "distance_wrist_1_joint": 0.06941980548393001,
        "distance_wrist_2_joint": 1.0697956687898396,
        "distance_wrist_3_joint": 0.05752914828870903,
        "smoothness": 0.0,
        "time": 0.020057222,
        "traj_len": 1.4618231022637604,
        "weighted_distance": 1.841521260578664
    },
    "planner": "TRRT",
    "start": {
        "state": {
            "elbow_joint": 2.010868314990456,
            "shoulder_lift_joint": -1.1634956873337592,
            "shoulder_pan_joint": -2.4736205022346125,
            "wrist_1_joint": -0.8367026794202681,
            "wrist_2_joint": 0.6746043897044499,
            "wrist_3_joint": -3.1496632123970403
        }
    },
    "waypoints": [
        {
            "positions": [
                -2.4736205022346125,
                -1.1634956873337592,
                2.010868314990456,
                -0.8367026794202681,
                0.6746043897044499,
                -3.1496632123970403
            ]
        },
        {
            "positions": [
                -2.555968247291107,
                -1.1317983061857273,
                1.968216414570055,
                -0.8251327118396131,
                0.8529036678360898,
                -3.1400750210155888
            ]
        },
        {
            "positions": [
                -2.638315992347602,
                -1.1001009250376954,
                1.9255645141496538,
                -0.8135627442589581,
                1.0312029459677299,
                -3.1304868296341373
            ]
        },
        {
            "positions": [
                -2.720663737404097,
                -1.0684035438896635,
                1.882912613729253,
                -0.801992776678303,
                1.2095022240993698,
                -3.1208986382526858
            ]
        },
        {
            "positions": [
                -2.8030114824605916,
                -1.0367061627416316,
                1.840260713308852,
                -0.7904228090976481,
                1.3878015022310097,
                -3.1113104468712343
            ]
        },
        {
            "positions": [
                -2.8853592275170863,
                -1.0050087815935997,
                1.7976088128884509,
                -0.7788528415169931,
                1.5661007803626497,
                -3.1017222554897828
            ]
        },
        {
            "positions": [
                -2.967706972573581,
                -0.973311400445568,
                1.75495691246805,
                -0.7672828739363381,
                1.7444000584942896,
                -3.0921340641083312
            ]
        }
    ]
}