{
    "goal": {
        "global_pose": {
            "orientation": {
                "w": -0.00223480608172531,
                "x": 0.0024358444001904467,
                "y": 0.7094548369677653,
                "z": -0.704743149386269
            },
            "position": {
                "x": -0.37947507619857795,
                "y": -0.6371506643295288,
                "z": 0.19426114857196808
            }
        },
        "name": "move_to_magneteinheit_C"
    },
    "id": "TRRT_move_to_magneteinheit_C_28",
    "joint_names": [
        "shoulder_pan_joint",
        "shoulder_lift_joint",
        "elbow_joint",
        "wrist_1_joint",
        "wrist_2_joint",
        "wrist_3_joint"
    ],
    "metrics": {
        "cart_traj_len": 1.5730904867454185,
        "distance_elbow_joint": 0.8965959362637776,
        "distance_shoulder_lift_joint": 1.0909790795283552,
        "distance_shoulder_pan_joint": 2.023723676265633,
        "distance_wrist_1_joint": 5.320097980425997,
        "distance_wrist_2_joint": 3.6577581029295096,
        "distance_wrist_3_joint": 3.7836022306808346,
        "smoothness": 0.960785938015895,
        "time": 1.439348672,
        "traj_len": 4.095455653049378,
        "weighted_distance": 5.77215882931259
    },
    "planner": "TRRT",
    "start": {
        "state": {
            "elbow_joint": 1.9565354010623817,
            "shoulder_lift_joint": -1.4165861575791021,
            "shoulder_pan_joint": -1.6717766225146293,
            "wrist_1_joint": -0.5286633292919765,
            "wrist_2_joint": 1.472756589071564,
            "wrist_3_joint": -3.1238370188695823
        }
    },
    "waypoints": [
        {
            "positions": [
                -1.6717766225146293,
                -1.4165861575791021,
                1.9565354010623817,
                -0.5286633292919765,
                1.472756589071564,
                -3.1238370188695823
            ]
        },
        {
            "positions": [
                -1.7340121358215974,
                -1.4518665656149319,
                1.9787570049092418,
                -0.5836299198236873,
                1.3162284200817125,
                -3.071228346731343
            ]
        },
        {
            "positions": [
                -1.7962476491285653,
                -1.4871469736507616,
                2.000978608756102,
                -0.638596510355398,
                1.159700251091861,
                -3.0186196745931038
            ]
        },
        {
            "positions": [
                -1.8584831624355334,
                -1.5224273816865914,
                2.023200212602962,
                -0.6935631008871088,
                1.0031720821020098,
                -2.9660110024548643
            ]
        },
        {
            "positions": [
                -1.9207186757425014,
                -1.557707789722421,
                2.0454218164498226,
                -0.7485296914188196,
                0.8466439131121583,
                -2.9134023303166248
            ]
        },
        {
            "positions": [
                -1.9829541890494693,
                -1.5929881977582507,
                2.0676434202966827,
                -0.8034962819505305,
                0.6901157441223068,
                -2.8607936581783853
            ]
        },
        {
            "positions": [
                -2.0451897023564376,
                -1.6282686057940805,
                2.089865024143543,
                -0.8584628724822412,
                0.5335875751324555,
                -2.808184986040146
            ]
        },
        {
            "positions": [
                -2.1074252156634055,
                -1.6635490138299103,
                2.112086627990403,
                -0.913429463013952,
                0.3770594061426039,
                -2.7555763139019067
            ]
        },
        {
            "positions": [
                -2.1588180960658208,
                -1.6282325077661066,
                2.090026599403227,
                -0.7819706660798726,
                0.31761598325566076,
                -2.675749800630373
            ]
        },
        {
            "positions": [
                -2.2102109764682365,
                -1.5929160017023027,
                2.0679665708160506,
                -0.6505118691457934,
                0.25817256036871766,
                -2.5959232873588385
            ]
        },
        {
            "positions": [
                -2.261603856870652,
                -1.557599495638499,
                2.0459065422288747,
                -0.5190530722117142,
                0.19872913748177454,
                -2.5160967740873046
            ]
        },
        {
            "positions": [
                -2.3129967372730675,
                -1.5222829895746952,
                2.0238465136416983,
                -0.3875942752776348,
                0.1392857145948314,
                -2.4362702608157707
            ]
        },
        {
            "positions": [
                -2.364389617675483,
                -1.4869664835108916,
                2.0017864850545224,
                -0.25613547834355554,
                0.07984229170788826,
                -2.3564437475442364
            ]
        },
        {
            "positions": [
                -2.415782498077898,
                -1.451649977447088,
                1.979726456467346,
                -0.12467668140947619,
                0.02039886882094516,
                -2.2766172342727025
            ]
        },
        {
            "positions": [
                -2.467175378480314,
                -1.416333471383284,
                1.9576664278801699,
                0.006782115524603061,
                -0.039044554065997994,
                -2.196790721001168
            ]
        },
        {
            "positions": [
                -2.518568258882729,
                -1.3810169653194804,
                1.9356063992929937,
                0.13824091245868242,
                -0.09848797695294109,
                -2.1169642077296342
            ]
        },
        {
            "positions": [
                -2.569961139285145,
                -1.3457004592556765,
                1.9135463707058178,
                0.26969970939276167,
                -0.15793139983988425,
                -2.0371376944581003
            ]
        },
        {
            "positions": [
                -2.62135401968756,
                -1.3103839531918728,
                1.8914863421186416,
                0.4011585063268409,
                -0.2173748227268274,
                -1.9573111811865662
            ]
        },
        {
            "positions": [
                -2.672746900089976,
                -1.275067447128069,
                1.8694263135314655,
                0.5326173032609204,
                -0.27681824561377055,
                -1.877484667915032
            ]
        },
        {
            "positions": [
                -2.7241397804923912,
                -1.2397509410642653,
                1.8473662849442893,
                0.6640761001949996,
                -0.3362616685007136,
                -1.7976581546434982
            ]
        },
        {
            "positions": [
                -2.7755326608948065,
                -1.2044344350004614,
                1.8253062563571132,
                0.7955348971290791,
                -0.39570509138765675,
                -1.7178316413719639
            ]
        },
        {
            "positions": [
                -2.8269255412972223,
                -1.1691179289366578,
                1.803246227769937,
                0.9269936940631581,
                -0.4551485142745999,
                -1.63800512810043
            ]
        },
        {
            "positions": [
                -2.8783184216996376,
                -1.1338014228728541,
                1.7811861991827609,
                1.0584524909972375,
                -0.5145919371615431,
                -1.5581786148288959
            ]
        },
        {
            "positions": [
                -2.9297113021020533,
                -1.0984849168090505,
                1.7591261705955847,
                1.189911287931317,
                -0.5740353600484861,
                -1.478352101557362
            ]
        },
        {
            "positions": [
                -2.9811041825044686,
                -1.0631684107452466,
                1.7370661420084086,
                1.3213700848653964,
                -0.6334787829354293,
                -1.3985255882858276
            ]
        },
        {
            "positions": [
                -3.0324970629068844,
                -1.0278519046814427,
                1.7150061134212324,
                1.4528288817994754,
                -0.6929222058223724,
                -1.3186990750142937
            ]
        },
        {
            "positions": [
                -3.0838899433092997,
                -0.9925353986176391,
                1.6929460848340563,
                1.584287678733555,
                -0.7523656287093154,
                -1.2388725617427596
            ]
        },
        {
            "positions": [
                -3.0499115902275795,
                -1.0021466546212654,
                1.7108296496218012,
                1.4488646395693041,
                -0.6727747462010581,
                -1.3443524380513159
            ]
        },
        {
            "positions": [
                -3.0159332371458594,
                -1.011757910624892,
                1.7287132144095463,
                1.3134416004050533,
                -0.5931838636928009,
                -1.449832314359872
            ]
        },
        {
            "positions": [
                -2.9819548840641392,
                -1.0213691666285183,
                1.7465967791972912,
                1.1780185612408025,
                -0.5135929811845437,
                -1.555312190668428
            ]
        },
        {
            "positions": [
                -2.947976530982419,
                -1.0309804226321448,
                1.7644803439850363,
                1.0425955220765515,
                -0.43400209867628636,
                -1.6607920669769842
            ]
        },
        {
            "positions": [
                -2.913998177900699,
                -1.0405916786357712,
                1.7823639087727812,
                0.9071724829123007,
                -0.35441121616802906,
                -1.7662719432855405
            ]
        },
        {
            "positions": [
                -2.880019824818979,
                -1.0502029346393977,
                1.8002474735605263,
                0.7717494437480499,
                -0.2748203336597718,
                -1.8717518195940965
            ]
        },
        {
            "positions": [
                -2.8460414717372586,
                -1.059814190643024,
                1.8181310383482712,
                0.636326404583799,
                -0.19522945115151447,
                -1.9772316959026528
            ]
        },
        {
            "positions": [
                -2.8120631186555385,
                -1.0694254466466506,
                1.8360146031360163,
                0.500903365419548,
                -0.11563856864325728,
                -2.082711572211209
            ]
        },
        {
            "positions": [
                -2.7780847655738183,
                -1.079036702650277,
                1.8538981679237612,
                0.36548032625529725,
                -0.03604768613499998,
                -2.188191448519765
            ]
        },
        {
            "positions": [
                -2.744106412492098,
                -1.0886479586539033,
                1.871781732711506,
                0.23005728709104645,
                0.04354319637325732,
                -2.2936713248283214
            ]
        },
        {
            "positions": [
                -2.710128059410378,
                -1.0982592146575298,
                1.8896652974992512,
                0.09463424792679542,
                0.12313407888151462,
                -2.3991512011368776
            ]
        },
        {
            "positions": [
                -2.676149706328658,
                -1.1078704706611562,
                1.907548862286996,
                -0.04078879123745516,
                0.2027249613897718,
                -2.5046310774454335
            ]
        },
        {
            "positions": [
                -2.6421713532469377,
                -1.1174817266647827,
                1.9254324270747412,
                -0.17621183040170618,
                0.2823158438980291,
                -2.6101109537539897
            ]
        },
        {
            "positions": [
                -2.6081930001652176,
                -1.127092982668409,
                1.943315991862486,
                -0.311634869565957,
                0.3619067264062865,
                -2.715590830062546
            ]
        },
        {
            "positions": [
                -2.5742146470834975,
                -1.1367042386720356,
                1.9611995566502312,
                -0.447057908730208,
                0.4414976089145437,
                -2.8210707063711022
            ]
        },
        {
            "positions": [
                -2.5402362940017773,
                -1.146315494675662,
                1.979083121437976,
                -0.5824809478944588,
                0.5210884914228009,
                -2.926550582679658
            ]
        },
        {
            "positions": [
                -2.506257940920057,
                -1.1559267506792885,
                1.9969666862257212,
                -0.7179039870587096,
                0.6006793739310581,
                -3.0320304589882143
            ]
        },
        {
            "positions": [
                -2.472279587838337,
                -1.1655380066829149,
                2.014850251013466,
                -0.8533270262229603,
                0.6802702564393155,
                -3.1375103352967706
            ]
        }
    ]
}