{
    "goal": {
        "global_pose": {
            "orientation": {
                "w": 0.5084816217422485,
                "x": -0.49083608388900757,
                "y": 0.5182115435600281,
                "z": -0.4816462993621826
            },
            "position": {
                "x": 0.5540239810943604,
                "y": 0.030875300988554955,
                "z": 0.16403168439865112
            }
        },
        "name": "move_to_storage_A"
    },
    "id": "TRRT_move_to_storage_A_54",
    "joint_names": [
        "shoulder_pan_joint",
        "shoulder_lift_joint",
        "elbow_joint",
        "wrist_1_joint",
        "wrist_2_joint",
        "wrist_3_joint"
    ],
    "metrics": {
        "cart_traj_len": 0.3538712872430318,
        "distance_elbow_joint": 0.4495897444070176,
        "distance_shoulder_lift_joint": 0.23465272260705627,
        "distance_shoulder_pan_joint": 0.46247711319046386,
        "distance_wrist_1_joint": 0.2400561927051631,
        "distance_wrist_2_joint": 1.1015963185001252,
        "distance_wrist_3_joint": 0.09402613776437319,
        "smoothness": 6.661338200497456e-16,
        "time": 0.019963974,
        "traj_len": 1.6069842031501738,
        "weighted_distance": 2.0278320975633646
    },
    "planner": "TRRT",
    "start": {
        "state": {
            "elbow_joint": 1.971548259319323,
            "shoulder_lift_joint": -1.1394851275133948,
            "shoulder_pan_joint": 0.1228115487234821,
            "wrist_1_joint": -0.7804723859257726,
            "wrist_2_joint": 0.12958671773740124,
            "wrist_3_joint": -3.192489227718131
        }
    },
    "waypoints": [
        {
            "positions": [
                0.1228115487234821,
                -1.1394851275133948,
                1.971548259319323,
                -0.7804723859257726,
                0.12958671773740124,
                -3.192489227718131
            ]
        },
        {
            "positions": [
                0.056743389696272975,
                -1.1730069450286886,
                2.0357753656631825,
                -0.8147661277407959,
                0.2869576203802763,
                -3.1790569223232206
            ]
        },
        {
            "positions": [
                -0.00932476933093615,
                -1.2065287625439822,
                2.1000024720070423,
                -0.8490598695558192,
                0.4443285230231513,
                -3.1656246169283104
            ]
        },
        {
            "positions": [
                -0.07539292835814526,
                -1.240050580059276,
                2.164229578350902,
                -0.8833536113708425,
                0.6016994256660263,
                -3.1521923115334
            ]
        },
        {
            "positions": [
                -0.1414610873853544,
                -1.2735723975745699,
                2.2284566846947618,
                -0.9176473531858658,
                0.7590703283089013,
                -3.1387600061384893
            ]
        },
        {
            "positions": [
                -0.20752924641256354,
                -1.3070942150898637,
                2.2926837910386215,
                -0.9519410950008891,
                0.9164412309517764,
                -3.1253277007435787
            ]
        },
        {
            "positions": [
                -0.2735974054397726,
                -1.3406160326051573,
                2.356910897382481,
                -0.9862348368159124,
                1.0738121335946513,
                -3.1118953953486685
            ]
        },
        {
            "positions": [
                -0.33966556446698176,
                -1.374137850120451,
                2.4211380037263406,
                -1.0205285786309357,
                1.2311830362375265,
                -3.098463089953758
            ]
        }
    ]
}{
    "goal": {
        "global_pose": {
            "orientation": {
                "w": 0.5084816217422485,
                "x": -0.49083608388900757,
                "y": 0.5182115435600281,
                "z": -0.4816462993621826
            },
            "position": {
                "x": 0.5540239810943604,
                "y": 0.030875300988554955,
                "z": 0.16403168439865112
            }
        },
        "name": "move_to_storage_A"
    },
    "id": "TRRT_move_to_storage_A_54",
    "joint_names": [
        "shoulder_pan_joint",
        "shoulder_lift_joint",
        "elbow_joint",
        "wrist_1_joint",
        "wrist_2_joint",
        "wrist_3_joint"
    ],
    "metrics": {
        "cart_traj_len": 0.3535577286429221,
        "distance_elbow_joint": 0.4503278735296439,
        "distance_shoulder_lift_joint": 0.23502542514851243,
        "distance_shoulder_pan_joint": 0.4623166631973952,
        "distance_wrist_1_joint": 0.2407001303113503,
        "distance_wrist_2_joint": 1.1003806872781035,
        "distance_wrist_3_joint": 0.10272939412138538,
        "smoothness": 8.881784197001252e-16,
        "time": 0.035210561,
        "traj_len": 1.6098074958163135,
        "weighted_distance": 2.0342123240750003
    },
    "planner": "TRRT",
    "start": {
        "state": {
            "elbow_joint": 1.97154746011099,
            "shoulder_lift_joint": -1.13948474672311,
            "shoulder_pan_joint": 0.12281154466712228,
            "wrist_1_joint": -0.7804688027058302,
            "wrist_2_joint": 0.12958655903071145,
            "wrist_3_joint": 3.0906928834467795
        }
    },
    "waypoints": [
        {
            "positions": [
                0.12281154466712228,
                -1.13948474672311,
                1.97154746011099,
                -0.7804688027058302,
                0.12958655903071145,
                3.0906928834467795
            ]
        },
        {
            "positions": [
                0.0567663070674944,
                -1.1730598074586118,
                2.035880013472368,
                -0.8148545356074517,
                0.2867838000704405,
                3.105368511178406
            ]
        },
        {
            "positions": [
                -0.00927893053213348,
                -1.2066348681941135,
                2.1002125668337452,
                -0.8492402685090731,
                0.44398104111016956,
                3.1200441389100324
            ]
        },
        {
            "positions": [
                -0.07532416813176136,
                -1.2402099289296153,
                2.164545120195123,
                -0.8836260014106946,
                0.6011782821498987,
                3.134719766641659
            ]
        },
        {
            "positions": [
                -0.14136940573138923,
                -1.273784989665117,
                2.2288776735565006,
                -0.9180117343123161,
                0.7583755231896278,
                3.1493953943732853
            ]
        },
        {
            "positions": [
                -0.2074146433310171,
                -1.3073600504006189,
                2.2932102269178785,
                -0.9523974672139375,
                0.9155727642293569,
                3.164071022104912
            ]
        },
        {
            "positions": [
                -0.273459880930645,
                -1.3409351111361205,
                2.357542780279256,
                -0.986783200115559,
                1.0727700052690858,
                3.178746649836538
            ]
        },
        {
            "positions": [
                -0.3395051185302729,
                -1.3745101718716224,
                2.421875333640634,
                -1.0211689330171805,
                1.229967246308815,
                3.193422277568165
            ]
        }
    ]
}{
    "goal": {
        "global_pose": {
            "orientation": {
                "w": 0.5084816217422485,
                "x": -0.49083608388900757,
                "y": 0.5182115435600281,
                "z": -0.4816462993621826
            },
            "position": {
                "x": 0.5540239810943604,
                "y": 0.030875300988554955,
                "z": 0.16403168439865112
            }
        },
        "name": "move_to_storage_A"
    },
    "id": "TRRT_move_to_storage_A_54",
    "joint_names": [
        "shoulder_pan_joint",
        "shoulder_lift_joint",
        "elbow_joint",
        "wrist_1_joint",
        "wrist_2_joint",
        "wrist_3_joint"
    ],
    "metrics": {
        "cart_traj_len": 0.3540768593903997,
        "distance_elbow_joint": 0.4486437699545176,
        "distance_shoulder_lift_joint": 0.2344495580529924,
        "distance_shoulder_pan_joint": 0.4622000067355253,
        "distance_wrist_1_joint": 0.2376165260708274,
        "distance_wrist_2_joint": 1.1040162347916451,
        "distance_wrist_3_joint": 0.09877147265691644,
        "smoothness": 0.0,
        "time": 0.021960308,
        "traj_len": 1.6080104378586677,
        "weighted_distance": 2.030978403242814
    },
    "planner": "TRRT",
    "start": {
        "state": {
            "elbow_joint": 1.9715472970024885,
            "shoulder_lift_joint": -1.1394870060712896,
            "shoulder_pan_joint": 0.12281152778156021,
            "wrist_1_joint": -0.780463741449964,
            "wrist_2_joint": 0.12958659822042276,
            "wrist_3_joint": 3.090690232415272
        }
    },
    "waypoints": [
        {
            "positions": [
                0.12281152778156021,
                -1.1394870060712896,
                1.9715472970024885,
                -0.780463741449964,
                0.12958659822042276,
                3.090690232415272
            ]
        },
        {
            "positions": [
                0.056782955390770884,
                -1.17297980007886,
                2.0356392641388483,
                -0.8144089594600822,
                0.2873032031906578,
                3.1048004427948315
            ]
        },
        {
            "positions": [
                -0.009245617000018441,
                -1.2064725940864303,
                2.0997312312752077,
                -0.8483541774702004,
                0.4450198081608928,
                3.1189106531743906
            ]
        },
        {
            "positions": [
                -0.07527418939080777,
                -1.2399653880940007,
                2.1638231984115674,
                -0.8822993954803185,
                0.6027364131311278,
                3.1330208635539503
            ]
        },
        {
            "positions": [
                -0.1413027617815971,
                -1.273458182101571,
                2.2279151655479272,
                -0.9162446134904367,
                0.7604530181013628,
                3.14713107393351
            ]
        },
        {
            "positions": [
                -0.20733133417238644,
                -1.3069509761091413,
                2.292007132684287,
                -0.950189831500555,
                0.9181696230715979,
                3.1612412843130695
            ]
        },
        {
            "positions": [
                -0.27335990656317577,
                -1.3404437701167116,
                2.3560990998206464,
                -0.9841350495106732,
                1.0758862280418329,
                3.1753514946926287
            ]
        },
        {
            "positions": [
                -0.33938847895396507,
                -1.373936564124282,
                2.420191066957006,
                -1.0180802675207914,
                1.2336028330120679,
                3.1894617050721883
            ]
        }
    ]
}