{
    "goal": {
        "global_pose": {
            "orientation": {
                "w": 0.5084816262002911,
                "x": -0.4908360881923452,
                "y": 0.5182115481033761,
                "z": -0.48164630358495003
            },
            "position": {
                "x": 0.5540239810943604,
                "y": -0.46912469901144505,
                "z": 0.16403168439865112
            }
        },
        "name": "move_to_storage_B"
    },
    "id": "TRRT_move_to_storage_B_11",
    "joint_names": [
        "shoulder_pan_joint",
        "shoulder_lift_joint",
        "elbow_joint",
        "wrist_1_joint",
        "wrist_2_joint",
        "wrist_3_joint"
    ],
    "metrics": {
        "cart_traj_len": 0.7534846446903285,
        "distance_elbow_joint": 0.4261083485626598,
        "distance_shoulder_lift_joint": 0.512570678503528,
        "distance_shoulder_pan_joint": 0.39847839185794565,
        "distance_wrist_1_joint": 2.9888536368086918,
        "distance_wrist_2_joint": 2.7163083229689837,
        "distance_wrist_3_joint": 3.13634056602453,
        "smoothness": 0.09166811789011794,
        "time": 0.084769537,
        "traj_len": 3.1904012200233276,
        "weighted_distance": 4.7070694743707655
    },
    "planner": "TRRT",
    "start": {
        "state": {
            "elbow_joint": 1.664937868594044,
            "shoulder_lift_joint": -0.661644460510453,
            "shoulder_pan_joint": -0.9139846352900073,
            "wrist_1_joint": 2.146753192139373,
            "wrist_2_joint": -2.2341966793290973,
            "wrist_3_joint": 0.005466555786416001
        }
    },
    "waypoints": [
        {
            "positions": [
                -0.9139846352900073,
                -0.661644460510453,
                1.664937868594044,
                2.146753192139373,
                -2.2341966793290973,
                0.005466555786416001
            ]
        },
        {
            "positions": [
                -0.8992037395817345,
                -0.6705292867643157,
                1.657946327937224,
                2.1360025647634817,
                -2.2229115214305697,
                0.016712239641485105
            ]
        },
        {
            "positions": [
                -0.8523611756120881,
                -0.701296662776318,
                1.6429968179651342,
                2.056259575630259,
                -2.111808319396285,
                0.07764646003808984
            ]
        },
        {
            "positions": [
                -0.8055186116424417,
                -0.7320640387883202,
                1.6280473079930444,
                1.9765165864970364,
                -2.000705117362,
                0.13858068043469457
            ]
        },
        {
            "positions": [
                -0.8167319768158643,
                -0.7551545869747138,
                1.6466199407975135,
                1.870310149339408,
                -1.886820114978085,
                0.25113031749162806
            ]
        },
        {
            "positions": [
                -0.8279453419892868,
                -0.7782451351611075,
                1.6651925736019828,
                1.76410371218178,
                -1.7729351125941701,
                0.3636799545485616
            ]
        },
        {
            "positions": [
                -0.8391587071627093,
                -0.801335683347501,
                1.6837652064064519,
                1.6578972750241516,
                -1.6590501102102553,
                0.4762295916054951
            ]
        },
        {
            "positions": [
                -0.850372072336132,
                -0.8244262315338947,
                1.702337839210921,
                1.5516908378665235,
                -1.5451651078263402,
                0.5887792286624286
            ]
        },
        {
            "positions": [
                -0.8615854375095546,
                -0.8475167797202884,
                1.72091047201539,
                1.445484400708895,
                -1.4312801054424251,
                0.7013288657193621
            ]
        },
        {
            "positions": [
                -0.8727988026829772,
                -0.8706073279066819,
                1.7394831048198593,
                1.3392779635512668,
                -1.3173951030585103,
                0.8138785027762956
            ]
        },
        {
            "positions": [
                -0.8840121678563997,
                -0.8936978760930756,
                1.7580557376243284,
                1.2330715263936387,
                -1.2035101006745952,
                0.9264281398332292
            ]
        },
        {
            "positions": [
                -0.8952255330298223,
                -0.9167884242794693,
                1.7766283704287975,
                1.1268650892360104,
                -1.0896250982906803,
                1.0389777768901627
            ]
        },
        {
            "positions": [
                -0.906438898203245,
                -0.9398789724658629,
                1.7952010032332666,
                1.020658652078382,
                -0.9757400959067652,
                1.1515274139470961
            ]
        },
        {
            "positions": [
                -0.9176522633766675,
                -0.9629695206522566,
                1.813773636037736,
                0.9144522149207537,
                -0.8618550935228502,
                1.2640770510040298
            ]
        },
        {
            "positions": [
                -0.9288656285500901,
                -0.9860600688386503,
                1.832346268842205,
                0.8082457777631253,
                -0.7479700911389351,
                1.3766266880609632
            ]
        },
        {
            "positions": [
                -0.9400789937235127,
                -1.009150617025044,
                1.850918901646674,
                0.7020393406054972,
                -0.6340850887550205,
                1.4891763251178967
            ]
        },
        {
            "positions": [
                -0.9512923588969353,
                -1.0322411652114374,
                1.8694915344511434,
                0.5958329034478689,
                -0.5202000863711054,
                1.60172596217483
            ]
        },
        {
            "positions": [
                -0.9625057240703578,
                -1.0553317133978313,
                1.8880641672556124,
                0.48962646629024076,
                -0.4063150839871903,
                1.7142755992317638
            ]
        },
        {
            "positions": [
                -0.9737190892437804,
                -1.0784222615842247,
                1.9066368000600815,
                0.3834200291326124,
                -0.2924300816032752,
                1.8268252362886972
            ]
        },
        {
            "positions": [
                -0.984932454417203,
                -1.1015128097706184,
                1.9252094328645506,
                0.2772135919749843,
                -0.17854507921936058,
                1.9393748733456306
            ]
        },
        {
            "positions": [
                -0.9961458195906256,
                -1.124603357957012,
                1.94378206566902,
                0.17100715481735596,
                -0.0646600768354455,
                2.0519245104025643
            ]
        },
        {
            "positions": [
                -1.0073591847640482,
                -1.1476939061434057,
                1.962354698473489,
                0.06480071765972767,
                0.04922492554846978,
                2.1644741474594977
            ]
        },
        {
            "positions": [
                -1.0199551554910158,
                -1.1439051585904665,
                1.9701990409708054,
                -0.06475659124442187,
                0.1110658852758149,
                2.304093143795419
            ]
        },
        {
            "positions": [
                -1.0325511262179834,
                -1.140116411037527,
                1.9780433834681221,
                -0.19431390014857142,
                0.17290684500316003,
                2.44371214013134
            ]
        },
        {
            "positions": [
                -1.045147096944951,
                -1.1363276634845878,
                1.9858877259654386,
                -0.32387120905272093,
                0.23474780473050516,
                2.5833311364672613
            ]
        },
        {
            "positions": [
                -1.0577430676719188,
                -1.1325389159316483,
                1.993732068462755,
                -0.4534285179568705,
                0.2965887644578503,
                2.7229501328031827
            ]
        },
        {
            "positions": [
                -1.0703390383988864,
                -1.1287501683787091,
                2.0015764109600718,
                -0.5829858268610202,
                0.3584297241851955,
                2.8625691291391036
            ]
        },
        {
            "positions": [
                -1.082935009125854,
                -1.1249614208257697,
                2.009420753457388,
                -0.7125431357651695,
                0.4202706839125406,
                3.002188125475025
            ]
        },
        {
            "positions": [
                -1.0955309798528217,
                -1.1211726732728304,
                2.0172650959547047,
                -0.8421004446693192,
                0.48211164363988573,
                3.1418071218109462
            ]
        }
    ]
}