{
    "goal": {
        "global_pose": {
            "orientation": {
                "w": 0.005598929693374612,
                "x": 0.007748599140229565,
                "y": 0.7110244013736278,
                "z": -0.7031023480610252
            },
            "position": {
                "x": 0.1141497679147869,
                "y": -0.7141253447532654,
                "z": 0.3711530566215515
            }
        },
        "name": "move_to_auspresseinheit_B"
    },
    "id": "TRRT_move_to_auspresseinheit_B_78",
    "joint_names": [
        "shoulder_pan_joint",
        "shoulder_lift_joint",
        "elbow_joint",
        "wrist_1_joint",
        "wrist_2_joint",
        "wrist_3_joint"
    ],
    "metrics": {
        "cart_traj_len": 0.5641363438497098,
        "distance_elbow_joint": 0.060158938523159344,
        "distance_shoulder_lift_joint": 0.2950087830942467,
        "distance_shoulder_pan_joint": 0.5765664258654775,
        "distance_wrist_1_joint": 0.3201224718526282,
        "distance_wrist_2_joint": 0.9951083327331267,
        "distance_wrist_3_joint": 0.008795628668693212,
        "smoothness": 5.075305295617109e-16,
        "time": 0.079913476,
        "traj_len": 1.5019189661021435,
        "weighted_distance": 1.8943554689288051
    },
    "planner": "TRRT",
    "start": {
        "state": {
            "elbow_joint": 2.0193083361928714,
            "shoulder_lift_joint": -1.1220246554650708,
            "shoulder_pan_joint": -1.0952077554168747,
            "wrist_1_joint": -0.8559753972642168,
            "wrist_2_joint": 0.4759566250798843,
            "wrist_3_joint": -3.1240929996934557
        }
    },
    "waypoints": [
        {
            "positions": [
                -1.0952077554168747,
                -1.1220246554650708,
                2.0193083361928714,
                -0.8559753972642168,
                0.4759566250798843,
                -3.1240929996934557
            ]
        },
        {
            "positions": [
                -1.1913021597277875,
                -1.1711927859807787,
                2.0092818464390114,
                -0.8026216519554454,
                0.6418080138687388,
                -3.1226270615820066
            ]
        },
        {
            "positions": [
                -1.2873965640387004,
                -1.2203609164964864,
                1.9992553566851516,
                -0.7492679066466741,
                0.8076594026575932,
                -3.121161123470558
            ]
        },
        {
            "positions": [
                -1.3834909683496135,
                -1.269529047012194,
                1.9892288669312919,
                -0.6959141613379027,
                0.9735107914464476,
                -3.119695185359109
            ]
        },
        {
            "positions": [
                -1.4795853726605261,
                -1.318697177527902,
                1.9792023771774319,
                -0.6425604160291314,
                1.139362180235302,
                -3.11822924724766
            ]
        },
        {
            "positions": [
                -1.5756797769714392,
                -1.3678653080436098,
                1.9691758874235719,
                -0.5892066707203599,
                1.3052135690241566,
                -3.1167633091362115
            ]
        },
        {
            "positions": [
                -1.6717741812823521,
                -1.4170334385593175,
                1.959149397669712,
                -0.5358529254115886,
                1.471064957813011,
                -3.1152973710247625
            ]
        }
    ]
}