{
    "goal": {
        "global_pose": {
            "orientation": {
                "w": -0.00223480608172531,
                "x": 0.0024358444001904467,
                "y": 0.7094548369677653,
                "z": -0.704743149386269
            },
            "position": {
                "x": 0.6205249238014221,
                "y": -0.6371506643295288,
                "z": 0.19426114857196808
            }
        },
        "name": "move_to_magneteinheit_B"
    },
    "id": "TRRT_move_to_magneteinheit_B_60",
    "joint_names": [
        "shoulder_pan_joint",
        "shoulder_lift_joint",
        "elbow_joint",
        "wrist_1_joint",
        "wrist_2_joint",
        "wrist_3_joint"
    ],
    "metrics": {
        "cart_traj_len": 1.4576806550156998,
        "distance_elbow_joint": 0.9983224173449909,
        "distance_shoulder_lift_joint": 0.756147824556446,
        "distance_shoulder_pan_joint": 1.6218034998225317,
        "distance_wrist_1_joint": 0.49511317819935385,
        "distance_wrist_2_joint": 1.5168325121096042,
        "distance_wrist_3_joint": 1.6363742874297937,
        "smoothness": 0.3418269312448238,
        "time": 0.086322676,
        "traj_len": 2.650395011967597,
        "weighted_distance": 3.5084594888114737
    },
    "planner": "TRRT",
    "start": {
        "state": {
            "elbow_joint": 2.6216224122426386,
            "shoulder_lift_joint": -1.4174107377796124,
            "shoulder_pan_joint": 0.7066234856936794,
            "wrist_1_joint": 1.9546482284002225,
            "wrist_2_joint": -0.7096286983471962,
            "wrist_3_joint": 0.005740856962016249
        }
    },
    "waypoints": [
        {
            "positions": [
                0.7066234856936794,
                -1.4174107377796124,
                2.6216224122426386,
                1.9546482284002225,
                -0.7096286983471962,
                0.005740856962016249
            ]
        },
        {
            "positions": [
                0.7045613793761236,
                -1.3872501560553752,
                2.6318122999627103,
                1.883779509840859,
                -0.7545234147082106,
                0.16274244551129438
            ]
        },
        {
            "positions": [
                0.7024992730585677,
                -1.357089574331138,
                2.642002187682782,
                1.8129107912814955,
                -0.799418131069225,
                0.3197440340605725
            ]
        },
        {
            "positions": [
                0.6185285468608024,
                -1.3400743739335383,
                2.6182725842463763,
                1.809430323174888,
                -0.9168681332526487,
                0.44506216706747403
            ]
        },
        {
            "positions": [
                0.534557820663037,
                -1.3230591735359385,
                2.5945429808099707,
                1.8059498550682807,
                -1.0343181354360724,
                0.5703803000743755
            ]
        },
        {
            "positions": [
                0.4505870944652717,
                -1.3060439731383386,
                2.570813377373565,
                1.8024693869616732,
                -1.1517681376194961,
                0.695698433081277
            ]
        },
        {
            "positions": [
                0.3666163682675063,
                -1.289028772740739,
                2.5470837739371595,
                1.7989889188550658,
                -1.2692181398029199,
                0.8210165660881785
            ]
        },
        {
            "positions": [
                0.2680166465447095,
                -1.2407390912393872,
                2.4791588333095267,
                1.8251007549053888,
                -1.3428522221609107,
                0.7578551369878992
            ]
        },
        {
            "positions": [
                0.1694169248219127,
                -1.1924494097380356,
                2.411233892681894,
                1.8512125909557116,
                -1.4164863045189016,
                0.6946937078876197
            ]
        },
        {
            "positions": [
                0.07081720309911588,
                -1.1441597282366838,
                2.343308952054261,
                1.8773244270060345,
                -1.4901203868768924,
                0.6315322787873404
            ]
        },
        {
            "positions": [
                -0.02778251862368092,
                -1.095870046735332,
                2.275384011426629,
                1.9034362630563573,
                -1.5637544692348833,
                0.568370849687061
            ]
        },
        {
            "positions": [
                -0.12638224034647777,
                -1.0475803652339803,
                2.207459070798996,
                1.9295480991066802,
                -1.6373885515928739,
                0.5052094205867816
            ]
        },
        {
            "positions": [
                -0.22498196206927457,
                -0.9992906837326285,
                2.1395341301713633,
                1.955659935157003,
                -1.7110226339508647,
                0.44204799148650226
            ]
        },
        {
            "positions": [
                -0.3235816837920713,
                -0.9510010022312768,
                2.0716091895437305,
                1.981771771207326,
                -1.7846567163088556,
                0.3788865623862229
            ]
        },
        {
            "positions": [
                -0.42218140551486816,
                -0.9027113207299251,
                2.0036842489160978,
                2.0078836072576487,
                -1.8582907986668464,
                0.31572513328594354
            ]
        },
        {
            "positions": [
                -0.5207811272376649,
                -0.8544216392285733,
                1.9357593082884652,
                2.0339954433079717,
                -1.931924881024837,
                0.2525637041856642
            ]
        },
        {
            "positions": [
                -0.6193808489604619,
                -0.8061319577272215,
                1.8678343676608324,
                2.0601072793582946,
                -2.005558963382828,
                0.18940227508538476
            ]
        },
        {
            "positions": [
                -0.7179805706832585,
                -0.7578422762258699,
                1.7999094270332,
                2.0862191154086176,
                -2.0791930457408188,
                0.12624084598510543
            ]
        },
        {
            "positions": [
                -0.8165802924060555,
                -0.709552594724518,
                1.7319844864055671,
                2.11233095145894,
                -2.1528271280988096,
                0.06307941688482599
            ]
        },
        {
            "positions": [
                -0.9151800141288523,
                -0.6612629132231663,
                1.6640595457779344,
                2.138442787509263,
                -2.2264612104568005,
                -8.201221545333406e-05
            ]
        }
    ]
}