{
    "goal": {
        "global_pose": {
            "orientation": {
                "w": 0.7047431468963623,
                "x": -0.7094548344612122,
                "y": 0.0024358443915843964,
                "z": -0.0022348060738295317
            },
            "position": {
                "x": 0.6094750761985779,
                "y": 0.3671506643295288,
                "z": 0.19426114857196808
            }
        },
        "name": "move_to_magneteinheit_A"
    },
    "id": "TRRT_move_to_magneteinheit_A_39",
    "joint_names": [
        "shoulder_pan_joint",
        "shoulder_lift_joint",
        "elbow_joint",
        "wrist_1_joint",
        "wrist_2_joint",
        "wrist_3_joint"
    ],
    "metrics": {
        "cart_traj_len": 3.87803959398043,
        "distance_elbow_joint": 3.9163216214647125,
        "distance_shoulder_lift_joint": 0.45524924101744646,
        "distance_shoulder_pan_joint": 3.0083849014089967,
        "distance_wrist_1_joint": 2.1365580847242587,
        "distance_wrist_2_joint": 2.1366713646643105,
        "distance_wrist_3_joint": 3.791247391591761,
        "smoothness": 0.4334583421217679,
        "time": 0.139744741,
        "traj_len": 3.929940534521035,
        "weighted_distance": 5.224955199563301
    },
    "planner": "TRRT",
    "start": {
        "state": {
            "elbow_joint": -1.9196185241190666,
            "shoulder_lift_joint": -1.2443396400964142,
            "shoulder_pan_joint": 2.6996025414629847,
            "wrist_1_joint": -1.5485510000780065,
            "wrist_2_joint": -1.5709468930060704,
            "wrist_3_joint": 0.4420197071253992
        }
    },
    "waypoints": [
        {
            "positions": [
                2.6996025414629847,
                -1.2443396400964142,
                -1.9196185241190666,
                -1.5485510000780065,
                -1.5709468930060704,
                0.4420197071253992
            ]
        },
        {
            "positions": [
                2.6140818952865064,
                -1.237090445237783,
                -1.8165679867243723,
                -1.5108132306815498,
                -1.5046892827666996,
                0.35749220350586364
            ]
        },
        {
            "positions": [
                2.528561249110028,
                -1.229841250379152,
                -1.713517449329678,
                -1.4730754612850934,
                -1.4384316725273287,
                0.27296469988632804
            ]
        },
        {
            "positions": [
                2.44304060293355,
                -1.222592055520521,
                -1.6104669119349837,
                -1.4353376918886367,
                -1.372174062287958,
                0.1884371962667925
            ]
        },
        {
            "positions": [
                2.3575199567570717,
                -1.21534286066189,
                -1.5074163745402895,
                -1.3975999224921802,
                -1.305916452048587,
                0.10390969264725691
            ]
        },
        {
            "positions": [
                2.2719993105805933,
                -1.2080936658032586,
                -1.404365837145595,
                -1.3598621530957236,
                -1.2396588418092163,
                0.01938218902772132
            ]
        },
        {
            "positions": [
                2.186478664404115,
                -1.2008444709446275,
                -1.3013152997509008,
                -1.322124383699267,
                -1.1734012315698454,
                -0.06514531459181416
            ]
        },
        {
            "positions": [
                2.1009580182276366,
                -1.1935952760859965,
                -1.1982647623562066,
                -1.2843866143028104,
                -1.1071436213304746,
                -0.1496728182113498
            ]
        },
        {
            "positions": [
                2.0154373720511582,
                -1.1863460812273654,
                -1.0952142249615122,
                -1.2466488449063537,
                -1.040886011091104,
                -0.23420032183088535
            ]
        },
        {
            "positions": [
                1.92991672587468,
                -1.1790968863687343,
                -0.9921636875668179,
                -1.2089110755098973,
                -0.974628400851733,
                -0.3187278254504209
            ]
        },
        {
            "positions": [
                1.8443960796982017,
                -1.1718476915101033,
                -0.8891131501721234,
                -1.1711733061134406,
                -0.9083707906123621,
                -0.40325532906995654
            ]
        },
        {
            "positions": [
                1.7588754335217236,
                -1.1645984966514722,
                -0.7860626127774293,
                -1.1334355367169842,
                -0.8421131803729914,
                -0.48778283268949196
            ]
        },
        {
            "positions": [
                1.6733547873452452,
                -1.1573493017928411,
                -0.6830120753827351,
                -1.0956977673205275,
                -0.7758555701336206,
                -0.5723103363090275
            ]
        },
        {
            "positions": [
                1.5878341411687669,
                -1.15010010693421,
                -0.5799615379880407,
                -1.0579599979240708,
                -0.7095979598942498,
                -0.6568378399285631
            ]
        },
        {
            "positions": [
                1.5023134949922887,
                -1.142850912075579,
                -0.47691100059334635,
                -1.0202222285276141,
                -0.643340349654879,
                -0.7413653435480988
            ]
        },
        {
            "positions": [
                1.4167928488158104,
                -1.1356017172169477,
                -0.37386046319865196,
                -0.9824844591311577,
                -0.577082739415508,
                -0.8258928471676344
            ]
        },
        {
            "positions": [
                1.3312722026393322,
                -1.1283525223583166,
                -0.2708099258039578,
                -0.9447466897347011,
                -0.5108251291761374,
                -0.9104203507871699
            ]
        },
        {
            "positions": [
                1.2457515564628538,
                -1.1211033274996856,
                -0.16775938840926363,
                -0.9070089203382447,
                -0.4445675189367666,
                -0.9949478544067053
            ]
        },
        {
            "positions": [
                1.1602309102863755,
                -1.1138541326410545,
                -0.06470885101456925,
                -0.869271150941788,
                -0.37830990869739556,
                -1.079475358026241
            ]
        },
        {
            "positions": [
                1.0747102641098973,
                -1.1066049377824234,
                0.03834168638012492,
                -0.8315333815453314,
                -0.31205229845802496,
                -1.1640028616457765
            ]
        },
        {
            "positions": [
                0.9891896179334188,
                -1.0993557429237923,
                0.14139222377481975,
                -0.7937956121488747,
                -0.2457946882186539,
                -1.2485303652653124
            ]
        },
        {
            "positions": [
                0.9036689717569406,
                -1.0921065480651613,
                0.2444427611695139,
                -0.7560578427524182,
                -0.1795370779792833,
                -1.3330578688848478
            ]
        },
        {
            "positions": [
                0.8181483255804625,
                -1.0848573532065302,
                0.3474932985642081,
                -0.7183200733559617,
                -0.11327946773991249,
                -1.4175853725043832
            ]
        },
        {
            "positions": [
                0.7326276794039841,
                -1.0776081583478991,
                0.45054383595890224,
                -0.680582303959505,
                -0.047021857500541664,
                -1.502112876123919
            ]
        },
        {
            "positions": [
                0.6471070332275057,
                -1.070358963489268,
                0.5535943733535964,
                -0.6428445345630485,
                0.01923575273882916,
                -1.586640379743454
            ]
        },
        {
            "positions": [
                0.5615863870510278,
                -1.0631097686306368,
                0.6566449107482906,
                -0.6051067651665919,
                0.08549336297819998,
                -1.6711678833629895
            ]
        },
        {
            "positions": [
                0.476065740874549,
                -1.0558605737720057,
                0.7596954481429852,
                -0.5673689957701352,
                0.1517509732175708,
                -1.7556953869825254
            ]
        },
        {
            "positions": [
                0.3905450946980711,
                -1.0486113789133746,
                0.8627459855376793,
                -0.5296312263736787,
                0.21800858345694163,
                -1.8402228906020608
            ]
        },
        {
            "positions": [
                0.3050244485215927,
                -1.0413621840547436,
                0.965796522932374,
                -0.491893456977222,
                0.28426619369631245,
                -1.9247503942215967
            ]
        },
        {
            "positions": [
                0.21950380234511416,
                -1.0341129891961125,
                1.0688470603270679,
                -0.4541556875807656,
                0.3505238039356833,
                -2.009277897841132
            ]
        },
        {
            "positions": [
                0.18483560607073934,
                -1.025979176553625,
                1.1699651298702962,
                -0.5275199214665076,
                0.3407918485140991,
                -2.1518728179915723
            ]
        },
        {
            "positions": [
                0.15016740979636456,
                -1.0178453639111378,
                1.2710831994135243,
                -0.6008841553522497,
                0.33105989309251493,
                -2.2944677381420124
            ]
        },
        {
            "positions": [
                0.11549921352198977,
                -1.0097115512686503,
                1.3722012689567524,
                -0.6742483892379918,
                0.3213279376709307,
                -2.4370626582924526
            ]
        },
        {
            "positions": [
                0.08083101724761496,
                -1.0015777386261628,
                1.4733193384999808,
                -0.7476126231237339,
                0.31159598224934654,
                -2.579657578442893
            ]
        },
        {
            "positions": [
                0.046162820973240176,
                -0.9934439259836755,
                1.574437408043209,
                -0.820976857009476,
                0.30186402682776237,
                -2.7222524985933334
            ]
        },
        {
            "positions": [
                0.011494624698865391,
                -0.985310113341188,
                1.6755554775864372,
                -0.894341090895218,
                0.2921320714061782,
                -2.864847418743773
            ]
        },
        {
            "positions": [
                -0.023173571575509422,
                -0.9771763006987007,
                1.7766735471296655,
                -0.9677053247809602,
                0.282400115984594,
                -3.0074423388942138
            ]
        },
        {
            "positions": [
                -0.057841767849884235,
                -0.9690424880562132,
                1.8777916166728936,
                -1.041069558666702,
                0.2726681605630098,
                -3.1500372590446535
            ]
        },
        {
            "positions": [
                -0.09250996412425899,
                -0.9609086754137258,
                1.978909686216122,
                -1.1144337925524441,
                0.2629362051414256,
                -3.292632179195094
            ]
        },
        {
            "positions": [
                -0.02041916551700841,
                -1.0181814341919786,
                1.9729785491729477,
                -0.9871389034673311,
                0.2203985154986592,
                -3.2737670107713384
            ]
        },
        {
            "positions": [
                0.05167163309024217,
                -1.0754541929702313,
                1.9670474121297732,
                -0.8598440143822181,
                0.17786082585589272,
                -3.254901842347582
            ]
        },
        {
            "positions": [
                0.12376243169749276,
                -1.132726951748484,
                1.961116275086599,
                -0.732549125297105,
                0.13532313621312625,
                -3.2360366739238264
            ]
        }
    ]
}