{
    "goal": {
        "global_pose": {
            "orientation": {
                "w": 0.7047431493862688,
                "x": -0.7094548369677653,
                "y": 0.0024358444001904,
                "z": -0.0022348060817251984
            },
            "position": {
                "x": -0.39052492380142206,
                "y": 0.3671506643295288,
                "z": 0.19426114857196808
            }
        },
        "name": "move_to_magneteinheit_D"
    },
    "id": "TRRT_move_to_magneteinheit_D_52",
    "joint_names": [
        "shoulder_pan_joint",
        "shoulder_lift_joint",
        "elbow_joint",
        "wrist_1_joint",
        "wrist_2_joint",
        "wrist_3_joint"
    ],
    "metrics": {
        "cart_traj_len": 3.9948480061505283,
        "distance_elbow_joint": 3.7214089030551682,
        "distance_shoulder_lift_joint": 1.6291015216518276,
        "distance_shoulder_pan_joint": 2.877389287587154,
        "distance_wrist_1_joint": 1.5769124857765062,
        "distance_wrist_2_joint": 0.48971395852167465,
        "distance_wrist_3_joint": 5.062879291771625,
        "smoothness": 0.3674044378701679,
        "time": 0.573238133,
        "traj_len": 3.9188525678269595,
        "weighted_distance": 5.248789429592825
    },
    "planner": "TRRT",
    "start": {
        "state": {
            "elbow_joint": 0.749534889911806,
            "shoulder_lift_joint": -0.6476975780787326,
            "shoulder_pan_joint": -2.711696901376241,
            "wrist_1_joint": -0.07506478083263063,
            "wrist_2_joint": 0.43296659715538205,
            "wrist_3_joint": -3.14703540197715
        }
    },
    "waypoints": [
        {
            "positions": [
                -2.711696901376241,
                -0.6476975780787326,
                0.749534889911806,
                -0.07506478083263063,
                0.43296659715538205,
                -3.14703540197715
            ]
        },
        {
            "positions": [
                -2.722260903061865,
                -0.7135485753938554,
                0.8311123079087341,
                -0.07363687254692963,
                0.4249960697185449,
                -3.03338182890786
            ]
        },
        {
            "positions": [
                -2.7328249047474897,
                -0.7793995727089782,
                0.9126897259056623,
                -0.07220896426122862,
                0.4170255422817078,
                -2.9197282558385704
            ]
        },
        {
            "positions": [
                -2.743388906433114,
                -0.845250570024101,
                0.9942671439025905,
                -0.07078105597552763,
                0.40905501484487067,
                -2.8060746827692804
            ]
        },
        {
            "positions": [
                -2.6530226379843787,
                -0.8679122889719764,
                0.8984646988487767,
                -0.04112066970914818,
                0.399527073833022,
                -2.6706485681173286
            ]
        },
        {
            "positions": [
                -2.562656369535644,
                -0.8905740079198516,
                0.8026622537949628,
                -0.011460283442768747,
                0.3899991328211733,
                -2.535222453465377
            ]
        },
        {
            "positions": [
                -2.4722901010869087,
                -0.9132357268677269,
                0.7068598087411488,
                0.01820010282361069,
                0.38047119180932465,
                -2.3997963388134247
            ]
        },
        {
            "positions": [
                -2.381923832638174,
                -0.9358974458156023,
                0.6110573636873351,
                0.04786048908999013,
                0.370943250797476,
                -2.264370224161473
            ]
        },
        {
            "positions": [
                -2.291557564189439,
                -0.9585591647634777,
                0.5152549186335211,
                0.07752087535636958,
                0.3614153097856273,
                -2.128944109509521
            ]
        },
        {
            "positions": [
                -2.201191295740704,
                -0.981220883711353,
                0.4194524735797073,
                0.107181261622749,
                0.35188736877377863,
                -1.9935179948575694
            ]
        },
        {
            "positions": [
                -2.110825027291969,
                -1.0038826026592282,
                0.3236500285258934,
                0.13684164788912845,
                0.34235942776192996,
                -1.8580918802056174
            ]
        },
        {
            "positions": [
                -2.020458758843234,
                -1.0265443216071037,
                0.22784758347207956,
                0.1665020341555079,
                0.3328314867500813,
                -1.7226657655536657
            ]
        },
        {
            "positions": [
                -1.9300924903944991,
                -1.049206040554979,
                0.1320451384182657,
                0.1961624204218873,
                0.3233035457382326,
                -1.587239650901714
            ]
        },
        {
            "positions": [
                -1.8397262219457642,
                -1.0718677595028543,
                0.03624269336445174,
                0.22582280668826676,
                0.31377560472638394,
                -1.451813536249762
            ]
        },
        {
            "positions": [
                -1.749359953497029,
                -1.0945294784507296,
                -0.059559751689362006,
                0.2554831929546462,
                0.30424766371453527,
                -1.3163874215978102
            ]
        },
        {
            "positions": [
                -1.6589936850482943,
                -1.117191197398605,
                -0.15536219674317597,
                0.2851435792210256,
                0.2947197227026866,
                -1.1809613069458582
            ]
        },
        {
            "positions": [
                -1.568627416599559,
                -1.1398529163464803,
                -0.2511646417969897,
                0.3148039654874051,
                0.2851917816908379,
                -1.0455351922939065
            ]
        },
        {
            "positions": [
                -1.478261148150824,
                -1.1625146352943556,
                -0.3469670868508037,
                0.34446435175378454,
                0.2756638406789892,
                -0.9101090776419545
            ]
        },
        {
            "positions": [
                -1.3878948797020894,
                -1.185176354242231,
                -0.44276953190461743,
                0.37412473802016394,
                0.2661358996671406,
                -0.7746829629900027
            ]
        },
        {
            "positions": [
                -1.2975286112533542,
                -1.2078380731901064,
                -0.5385719769584314,
                0.4037851242865434,
                0.25660795865529185,
                -0.639256848338051
            ]
        },
        {
            "positions": [
                -1.2071623428046192,
                -1.2304997921379817,
                -0.6343744220122454,
                0.4334455105529229,
                0.2470800176434432,
                -0.5038307336860988
            ]
        },
        {
            "positions": [
                -1.1167960743558845,
                -1.253161511085857,
                -0.7301768670660591,
                0.46310589681930225,
                0.23755207663159456,
                -0.36840461903414745
            ]
        },
        {
            "positions": [
                -1.0264298059071493,
                -1.2758232300337324,
                -0.8259793121198731,
                0.4927662830856817,
                0.22802413561974585,
                -0.23297850438219525
            ]
        },
        {
            "positions": [
                -0.9360635374584143,
                -1.2984849489816077,
                -0.921781757173687,
                0.5224266693520612,
                0.21849619460789718,
                -0.0975523897302435
            ]
        },
        {
            "positions": [
                -0.8456972690096793,
                -1.321146667929483,
                -1.0175842022275008,
                0.5520870556184405,
                0.2089682535960485,
                0.03787372492170826
            ]
        },
        {
            "positions": [
                -0.7553310005609444,
                -1.3438083868773583,
                -1.1133866472813145,
                0.5817474418848201,
                0.19944031258419984,
                0.17329983957366002
            ]
        },
        {
            "positions": [
                -0.6649647321122094,
                -1.3664701058252335,
                -1.2091890923351287,
                0.6114078281511995,
                0.18991237157235116,
                0.3087259542256122
            ]
        },
        {
            "positions": [
                -0.5745984636634747,
                -1.3891318247731088,
                -1.3049915373889425,
                0.6410682144175789,
                0.1803844305605025,
                0.444152068877564
            ]
        },
        {
            "positions": [
                -0.48423219521473937,
                -1.4117935437209843,
                -1.4007939824427562,
                0.6707286006839583,
                0.17085648954865382,
                0.5795781835295157
            ]
        },
        {
            "positions": [
                -0.40675708094633833,
                -1.4570156883491323,
                -1.512901872172508,
                0.7230013623736722,
                0.17975764802673616,
                0.652150835510546
            ]
        },
        {
            "positions": [
                -0.3292819666779373,
                -1.5022378329772805,
                -1.6250097619022599,
                0.775274124063386,
                0.18865880650481848,
                0.7247234874915762
            ]
        },
        {
            "positions": [
                -0.2518068524095364,
                -1.5474599776054285,
                -1.737117651632012,
                0.8275468857530999,
                0.19755996498290082,
                0.7972961394726066
            ]
        },
        {
            "positions": [
                -0.17433173814113528,
                -1.5926821222335767,
                -1.8492255413617638,
                0.8798196474428137,
                0.20646112346098316,
                0.8698687914536368
            ]
        },
        {
            "positions": [
                -0.0968566238727343,
                -1.6379042668617247,
                -1.9613334310915156,
                0.9320924091325276,
                0.21536228193906548,
                0.9424414434346671
            ]
        },
        {
            "positions": [
                -0.07814518439767193,
                -1.7078898937709526,
                -2.0538737562456304,
                1.0196596566434366,
                0.2397769525941433,
                0.9591372235239288
            ]
        },
        {
            "positions": [
                -0.05943374492260954,
                -1.7778755206801804,
                -2.1464140813997448,
                1.1072269041543457,
                0.26419162324922113,
                0.9758330036131905
            ]
        },
        {
            "positions": [
                -0.04072230544754715,
                -1.8478611475894082,
                -2.2389544065538596,
                1.1947941516652547,
                0.2886062939042989,
                0.9925287837024522
            ]
        },
        {
            "positions": [
                -0.06468815711032254,
                -1.9439824476608143,
                -2.304927171859307,
                1.2903871429334204,
                0.28797180034438596,
                0.8978740250513784
            ]
        },
        {
            "positions": [
                -0.08865400877309793,
                -2.0401037477322204,
                -2.3708999371647543,
                1.3859801342015858,
                0.28733730678447295,
                0.8032192664003045
            ]
        },
        {
            "positions": [
                -0.11261986043587333,
                -2.1362250478036264,
                -2.4368727024702017,
                1.4815731254697515,
                0.28670281322456,
                0.7085645077492306
            ]
        },
        {
            "positions": [
                -0.13633090262133582,
                -2.1830830651126045,
                -2.4216937682396718,
                1.4748149323117101,
                0.2507192912647058,
                0.49544756436963044
            ]
        },
        {
            "positions": [
                -0.16004194480679831,
                -2.229941082421582,
                -2.4065148340091413,
                1.4680567391536687,
                0.21473576930485172,
                0.2823306209900302
            ]
        },
        {
            "positions": [
                -0.1837529869922608,
                -2.2767990997305603,
                -2.3913358997786114,
                1.4612985459956274,
                0.1787522473449976,
                0.06921367761042994
            ]
        }
    ]
}