{
    "goal": {
        "global_pose": {
            "orientation": {
                "w": -0.4816463035849501,
                "x": 0.5182115481033762,
                "y": 0.4908360881923453,
                "z": -0.5084816262002911
            },
            "position": {
                "x": -0.8240239810943604,
                "y": -0.300875300988555,
                "z": 0.16403168439865112
            }
        },
        "name": "move_to_storage_C"
    },
    "id": "TRRT_move_to_storage_C_119",
    "joint_names": [
        "shoulder_pan_joint",
        "shoulder_lift_joint",
        "elbow_joint",
        "wrist_1_joint",
        "wrist_2_joint",
        "wrist_3_joint"
    ],
    "metrics": {
        "cart_traj_len": 0.5768380627387347,
        "distance_elbow_joint": 0.260746046719482,
        "distance_shoulder_lift_joint": 0.1900194941535963,
        "distance_shoulder_pan_joint": 0.4947665622495898,
        "distance_wrist_1_joint": 0.0845318345196473,
        "distance_wrist_2_joint": 1.0642571124309592,
        "distance_wrist_3_joint": 0.07398893359916592,
        "smoothness": 0.0,
        "time": 0.039771837000000004,
        "traj_len": 1.472518245616142,
        "weighted_distance": 1.8614716752670126
    },
    "planner": "TRRT",
    "start": {
        "state": {
            "elbow_joint": 2.010868314990456,
            "shoulder_lift_joint": -1.1634956873337592,
            "shoulder_pan_joint": -2.4736205022346125,
            "wrist_1_joint": -0.8367026794202681,
            "wrist_2_joint": 0.6746043897044499,
            "wrist_3_joint": -3.1496632123970403
        }
    },
    "waypoints": [
        {
            "positions": [
                -2.4736205022346125,
                -1.1634956873337592,
                2.010868314990456,
                -0.8367026794202681,
                0.6746043897044499,
                -3.1496632123970403
            ]
        },
        {
            "positions": [
                -2.5560815959428775,
                -1.1318257716414932,
                1.9674106405372087,
                -0.8226140403336603,
                0.8519805751096098,
                -3.137331723463846
            ]
        },
        {
            "positions": [
                -2.6385426896511426,
                -1.100155855949227,
                1.9239529660839618,
                -0.8085254012470523,
                1.0293567605147698,
                -3.125000234530652
            ]
        },
        {
            "positions": [
                -2.721003783359407,
                -1.068485940256961,
                1.880495291630715,
                -0.7944367621604445,
                1.2067329459199296,
                -3.1126687455974573
            ]
        },
        {
            "positions": [
                -2.8034648770676722,
                -1.036816024564695,
                1.8370376171774678,
                -0.7803481230738366,
                1.3841091313250895,
                -3.100337256664263
            ]
        },
        {
            "positions": [
                -2.8859259707759373,
                -1.005146108872429,
                1.7935799427242207,
                -0.7662594839872287,
                1.5614853167302494,
                -3.088005767731069
            ]
        },
        {
            "positions": [
                -2.9683870644842023,
                -0.9734761931801629,
                1.7501222682709738,
                -0.7521708449006208,
                1.738861502135409,
                -3.0756742787978744
            ]
        }
    ]
}