{
    "goal": {
        "global_pose": {
            "orientation": {
                "w": 0.005598929693374612,
                "x": 0.007748599140229565,
                "y": 0.7110244013736278,
                "z": -0.7031023480610252
            },
            "position": {
                "x": 0.1141497679147869,
                "y": -0.7141253447532654,
                "z": 0.3711530566215515
            }
        },
        "name": "move_to_auspresseinheit_B"
    },
    "id": "TRRT_move_to_auspresseinheit_B_4",
    "joint_names": [
        "shoulder_pan_joint",
        "shoulder_lift_joint",
        "elbow_joint",
        "wrist_1_joint",
        "wrist_2_joint",
        "wrist_3_joint"
    ],
    "metrics": {
        "cart_traj_len": 0.5641168754312009,
        "distance_elbow_joint": 0.058964788096594445,
        "distance_shoulder_lift_joint": 0.29673941482530775,
        "distance_shoulder_pan_joint": 0.5762888546491496,
        "distance_wrist_1_joint": 0.31796981938582425,
        "distance_wrist_2_joint": 0.9966967340561967,
        "distance_wrist_3_joint": 0.006427117472658228,
        "smoothness": 2.5376526478085547e-16,
        "time": 0.028221859999999998,
        "traj_len": 1.5010285568521775,
        "weighted_distance": 1.8922493273543708
    },
    "planner": "TRRT",
    "start": {
        "state": {
            "elbow_joint": 2.0193083361928714,
            "shoulder_lift_joint": -1.1220246554650708,
            "shoulder_pan_joint": -1.0952077554168747,
            "wrist_1_joint": -0.8559753972642168,
            "wrist_2_joint": 0.4759566250798843,
            "wrist_3_joint": -3.1240929996934557
        }
    },
    "waypoints": [
        {
            "positions": [
                -1.0952077554168747,
                -1.1220246554650708,
                2.0193083361928714,
                -0.8559753972642168,
                0.4759566250798843,
                -3.1240929996934557
            ]
        },
        {
            "positions": [
                -1.1912558978583996,
                -1.171481224602622,
                2.009480871510106,
                -0.8029804273665794,
                0.6420727474225838,
                -3.1230218134480126
            ]
        },
        {
            "positions": [
                -1.2873040402999245,
                -1.2209377937401733,
                1.99965340682734,
                -0.7499854574689421,
                0.8081888697652833,
                -3.1219506272025694
            ]
        },
        {
            "positions": [
                -1.3833521827414494,
                -1.2703943628777248,
                1.989825942144574,
                -0.6969904875713047,
                0.9743049921079827,
                -3.1208794409571263
            ]
        },
        {
            "positions": [
                -1.4794003251829744,
                -1.319850932015276,
                1.9799984774618085,
                -0.6439955176736674,
                1.1404211144506822,
                -3.1198082547116837
            ]
        },
        {
            "positions": [
                -1.5754484676244993,
                -1.3693075011528273,
                1.9701710127790428,
                -0.5910005477760298,
                1.3065372367933816,
                -3.1187370684662405
            ]
        },
        {
            "positions": [
                -1.6714966100660242,
                -1.4187640702903785,
                1.960343548096277,
                -0.5380055778783925,
                1.472653359136081,
                -3.1176658822207974
            ]
        }
    ]
}