{
    "goal": {
        "global_pose": {
            "orientation": {
                "w": -0.4816463035849501,
                "x": 0.5182115481033762,
                "y": 0.4908360881923453,
                "z": -0.5084816262002911
            },
            "position": {
                "x": -0.8240239810943604,
                "y": -0.300875300988555,
                "z": 0.16403168439865112
            }
        },
        "name": "move_to_storage_C"
    },
    "id": "TRRT_move_to_storage_C_83",
    "joint_names": [
        "shoulder_pan_joint",
        "shoulder_lift_joint",
        "elbow_joint",
        "wrist_1_joint",
        "wrist_2_joint",
        "wrist_3_joint"
    ],
    "metrics": {
        "cart_traj_len": 0.5767652619210216,
        "distance_elbow_joint": 0.25510722568884425,
        "distance_shoulder_lift_joint": 0.18876981969642614,
        "distance_shoulder_pan_joint": 0.4956531226067513,
        "distance_wrist_1_joint": 0.06827815313721441,
        "distance_wrist_2_joint": 1.0633468030482294,
        "distance_wrist_3_joint": 0.07198501862615858,
        "smoothness": 0.0,
        "time": 0.026103722,
        "traj_len": 1.4639467691154702,
        "weighted_distance": 1.8489821892710012
    },
    "planner": "TRRT",
    "start": {
        "state": {
            "elbow_joint": 2.010868314990456,
            "shoulder_lift_joint": -1.1634956873337592,
            "shoulder_pan_joint": -2.4736205022346125,
            "wrist_1_joint": -0.8367026794202681,
            "wrist_2_joint": 0.6746043897044499,
            "wrist_3_joint": -3.1496632123970403
        }
    },
    "waypoints": [
        {
            "positions": [
                -2.4736205022346125,
                -1.1634956873337592,
                2.010868314990456,
                -0.8367026794202681,
                0.6746043897044499,
                -3.1496632123970403
            ]
        },
        {
            "positions": [
                -2.5562293560024045,
                -1.1320340507176883,
                1.9683504440423152,
                -0.8253229872307324,
                0.8518288568791548,
                -3.1376657092926807
            ]
        },
        {
            "positions": [
                -2.638838209770196,
                -1.100572414101617,
                1.9258325730941743,
                -0.8139432950411967,
                1.0290533240538597,
                -3.1256682061883208
            ]
        },
        {
            "positions": [
                -2.721447063537988,
                -1.0691107774855462,
                1.8833147021460337,
                -0.802563602851661,
                1.2062777912285645,
                -3.1136707030839608
            ]
        },
        {
            "positions": [
                -2.80405591730578,
                -1.037649140869475,
                1.840796831197893,
                -0.7911839106621251,
                1.3835022584032695,
                -3.1016731999796012
            ]
        },
        {
            "positions": [
                -2.8866647710735718,
                -1.006187504253404,
                1.7982789602497522,
                -0.7798042184725894,
                1.5607267255779744,
                -3.0896756968752417
            ]
        },
        {
            "positions": [
                -2.969273624841364,
                -0.974725867637333,
                1.7557610893016116,
                -0.7684245262830537,
                1.7379511927526792,
                -3.0776781937708817
            ]
        }
    ]
}