{
    "goal": {
        "global_pose": {
            "orientation": {
                "w": 0.7047431468963623,
                "x": -0.7094548344612122,
                "y": 0.0024358443915843964,
                "z": -0.0022348060738295317
            },
            "position": {
                "x": 0.6094750761985779,
                "y": 0.3671506643295288,
                "z": 0.19426114857196808
            }
        },
        "name": "move_to_magneteinheit_A"
    },
    "id": "TRRT_move_to_magneteinheit_A_148",
    "joint_names": [
        "shoulder_pan_joint",
        "shoulder_lift_joint",
        "elbow_joint",
        "wrist_1_joint",
        "wrist_2_joint",
        "wrist_3_joint"
    ],
    "metrics": {
        "cart_traj_len": 3.58208013984167,
        "distance_elbow_joint": 3.909139151486839,
        "distance_shoulder_lift_joint": 0.4679803721442085,
        "distance_shoulder_pan_joint": 3.6792116282486513,
        "distance_wrist_1_joint": 3.4608236830009336,
        "distance_wrist_2_joint": 2.5749952955371915,
        "distance_wrist_3_joint": 1.348546358100769,
        "smoothness": 0.3718363229961775,
        "time": 0.119384955,
        "traj_len": 3.929465165708763,
        "weighted_distance": 4.916666368918911
    },
    "planner": "TRRT",
    "start": {
        "state": {
            "elbow_joint": -1.9196185241190666,
            "shoulder_lift_joint": -1.2443396400964142,
            "shoulder_pan_joint": 2.6996025414629847,
            "wrist_1_joint": -1.5485510000780065,
            "wrist_2_joint": -1.5709468930060704,
            "wrist_3_joint": 0.4420197071253992
        }
    },
    "waypoints": [
        {
            "positions": [
                2.6996025414629847,
                -1.2443396400964142,
                -1.9196185241190666,
                -1.5485510000780065,
                -1.5709468930060704,
                0.4420197071253992
            ]
        },
        {
            "positions": [
                2.604829579936353,
                -1.2391108248215885,
                -1.8126548662039466,
                -1.4535064874047459,
                -1.5101073630511404,
                0.41513427079187837
            ]
        },
        {
            "positions": [
                2.5100566184097213,
                -1.2338820095467629,
                -1.7056912082888265,
                -1.358461974731485,
                -1.44926783309621,
                0.38824883445835756
            ]
        },
        {
            "positions": [
                2.4152836568830893,
                -1.2286531942719372,
                -1.5987275503737064,
                -1.2634174620582241,
                -1.38842830314128,
                0.36136339812483675
            ]
        },
        {
            "positions": [
                2.3205106953564574,
                -1.2234243789971115,
                -1.4917638924585863,
                -1.1683729493849635,
                -1.32758877318635,
                0.3344779617913159
            ]
        },
        {
            "positions": [
                2.2257377338298254,
                -1.2181955637222859,
                -1.3848002345434662,
                -1.0733284367117029,
                -1.2667492432314198,
                0.3075925254577951
            ]
        },
        {
            "positions": [
                2.1309647723031935,
                -1.2129667484474602,
                -1.277836576628346,
                -0.978283924038442,
                -1.2059097132764898,
                0.2807070891242743
            ]
        },
        {
            "positions": [
                2.036191810776562,
                -1.2077379331726346,
                -1.1708729187132259,
                -0.8832394113651812,
                -1.1450701833215597,
                0.2538216527907534
            ]
        },
        {
            "positions": [
                1.94141884924993,
                -1.202509117897809,
                -1.0639092607981058,
                -0.7881948986919206,
                -1.0842306533666297,
                0.22693621645723264
            ]
        },
        {
            "positions": [
                1.846645887723298,
                -1.1972803026229832,
                -0.9569456028829857,
                -0.6931503860186599,
                -1.0233911234116997,
                0.20005078012371183
            ]
        },
        {
            "positions": [
                1.7518729261966661,
                -1.1920514873481576,
                -0.8499819449678656,
                -0.5981058733453991,
                -0.9625515934567694,
                0.173165343790191
            ]
        },
        {
            "positions": [
                1.6570999646700346,
                -1.186822672073332,
                -0.7430182870527455,
                -0.5030613606721384,
                -0.9017120635018394,
                0.1462799074566702
            ]
        },
        {
            "positions": [
                1.5623270031434027,
                -1.1815938567985063,
                -0.6360546291376252,
                -0.4080168479988775,
                -0.8408725335469093,
                0.11939447112314938
            ]
        },
        {
            "positions": [
                1.467554041616771,
                -1.1763650415236806,
                -0.5290909712225054,
                -0.31297233532561686,
                -0.7800330035919792,
                0.09250903478962857
            ]
        },
        {
            "positions": [
                1.372781080090139,
                -1.171136226248855,
                -0.42212731330738507,
                -0.217927822652356,
                -0.7191934736370491,
                0.06562359845610771
            ]
        },
        {
            "positions": [
                1.278008118563507,
                -1.1659074109740293,
                -0.315163655392265,
                -0.12288330997909536,
                -0.6583539436821191,
                0.03873816212258696
            ]
        },
        {
            "positions": [
                1.1832351570368753,
                -1.1606785956992036,
                -0.2081999974771449,
                -0.027838797305834717,
                -0.5975144137271889,
                0.011852725789066099
            ]
        },
        {
            "positions": [
                1.0884621955102434,
                -1.155449780424378,
                -0.10123633956202482,
                0.06720571536742614,
                -0.5366748837722588,
                -0.015032710544454708
            ]
        },
        {
            "positions": [
                0.9936892339836116,
                -1.1502209651495523,
                0.0057273183530952565,
                0.16225022804068678,
                -0.4758353538173288,
                -0.041918146877975515
            ]
        },
        {
            "positions": [
                0.8989162724569797,
                -1.1449921498747266,
                0.11269097626821534,
                0.25729474071394765,
                -0.4149958238623985,
                -0.06880358321149638
            ]
        },
        {
            "positions": [
                0.8041433109303477,
                -1.139763334599901,
                0.21965463418333542,
                0.3523392533872083,
                -0.3541562939074685,
                -0.09568901954501718
            ]
        },
        {
            "positions": [
                0.709370349403716,
                -1.1345345193250753,
                0.3266182920984555,
                0.4473837660604689,
                -0.2933167639525385,
                -0.12257445587853799
            ]
        },
        {
            "positions": [
                0.6145973878770845,
                -1.1293057040502497,
                0.4335819500135756,
                0.5424282787337298,
                -0.23247723399760845,
                -0.1494598922120588
            ]
        },
        {
            "positions": [
                0.5198244263504521,
                -1.124076888775424,
                0.5405456079286961,
                0.6374727914069906,
                -0.1716377040426782,
                -0.1763453285455796
            ]
        },
        {
            "positions": [
                0.4250514648238206,
                -1.1188480735005983,
                0.6475092658438162,
                0.7325173040802515,
                -0.11079817408774817,
                -0.2032307648791004
            ]
        },
        {
            "positions": [
                0.33027850329718866,
                -1.1136192582257727,
                0.7544729237589358,
                0.8275618167535119,
                -0.04995864413281814,
                -0.23011620121262122
            ]
        },
        {
            "positions": [
                0.23550554177055716,
                -1.108390442950947,
                0.8614365816740559,
                0.9226063294267728,
                0.010880885822111885,
                -0.257001637546142
            ]
        },
        {
            "positions": [
                0.14073258024392477,
                -1.1031616276761214,
                0.9684002395891764,
                1.0176508421000336,
                0.07172041577704213,
                -0.28388707387966294
            ]
        },
        {
            "positions": [
                0.04595961871729326,
                -1.0979328124012957,
                1.0753638975042965,
                1.1126953547732945,
                0.13255994573197216,
                -0.31077251021318375
            ]
        },
        {
            "positions": [
                -0.04881334280933869,
                -1.09270399712647,
                1.1823275554194166,
                1.207739867446555,
                0.1933994756869022,
                -0.33765794654670456
            ]
        },
        {
            "positions": [
                -0.14358630433597064,
                -1.0874751818516444,
                1.2892912133345367,
                1.3027843801198158,
                0.2542390056418322,
                -0.36454338288022525
            ]
        },
        {
            "positions": [
                -0.2383592658626026,
                -1.0822463665768187,
                1.3962548712496567,
                1.3978288927930766,
                0.31507853559676247,
                -0.39142881921374617
            ]
        },
        {
            "positions": [
                -0.3331322273892341,
                -1.077017551301993,
                1.5032185291647768,
                1.492873405466337,
                0.3759180655516925,
                -0.418314255547267
            ]
        },
        {
            "positions": [
                -0.42790518891586615,
                -1.0717887360271674,
                1.6101821870798967,
                1.587917918139598,
                0.4367575955066225,
                -0.4451996918807878
            ]
        },
        {
            "positions": [
                -0.3490903463630376,
                -1.0295845263021728,
                1.6643733928353075,
                1.634254313108645,
                0.35571605164597986,
                -0.37929584058156185
            ]
        },
        {
            "positions": [
                -0.27027550381020904,
                -0.9873803165771784,
                1.7185645985907183,
                1.680590708077692,
                0.2746745077853372,
                -0.31339198928233586
            ]
        },
        {
            "positions": [
                -0.19146066125738048,
                -0.9451761068521838,
                1.7727558043461291,
                1.7269271030467392,
                0.19363296392469453,
                -0.2474881379831099
            ]
        },
        {
            "positions": [
                -0.11264581870455193,
                -0.9029718971271893,
                1.8269470101015401,
                1.7732634980157864,
                0.11259142006405187,
                -0.18158428668388393
            ]
        },
        {
            "positions": [
                -0.03383097615172337,
                -0.8607676874021948,
                1.881138215856951,
                1.8195998929848336,
                0.03154987620340921,
                -0.11568043538465794
            ]
        },
        {
            "positions": [
                0.04498386640110519,
                -0.8185634776772002,
                1.9353294216123618,
                1.8659362879538806,
                -0.04949166765723345,
                -0.04977658408543201
            ]
        },
        {
            "positions": [
                0.12379870895393369,
                -0.7763592679522057,
                1.9895206273677726,
                1.9122726829229277,
                -0.13053321151787609,
                0.016127267213793997
            ]
        }
    ]
}