{
    "goal": {
        "global_pose": {
            "orientation": {
                "w": 0.7047431493862688,
                "x": -0.7094548369677653,
                "y": 0.0024358444001904,
                "z": -0.0022348060817251984
            },
            "position": {
                "x": -0.39052492380142206,
                "y": 0.3671506643295288,
                "z": 0.19426114857196808
            }
        },
        "name": "move_to_magneteinheit_D"
    },
    "id": "TRRT_move_to_magneteinheit_D_63",
    "joint_names": [
        "shoulder_pan_joint",
        "shoulder_lift_joint",
        "elbow_joint",
        "wrist_1_joint",
        "wrist_2_joint",
        "wrist_3_joint"
    ],
    "metrics": {
        "cart_traj_len": 4.825403775566978,
        "distance_elbow_joint": 3.42024639812655,
        "distance_shoulder_lift_joint": 2.2480709443300575,
        "distance_shoulder_pan_joint": 3.7824758153233895,
        "distance_wrist_1_joint": 3.841163073849976,
        "distance_wrist_2_joint": 4.730132305270867,
        "distance_wrist_3_joint": 1.1679293271270308,
        "smoothness": 0.9913571483050728,
        "time": 2.587222845,
        "traj_len": 4.380641261736445,
        "weighted_distance": 5.4860889436284905
    },
    "planner": "TRRT",
    "start": {
        "state": {
            "elbow_joint": 0.749534889911806,
            "shoulder_lift_joint": -0.6476975780787326,
            "shoulder_pan_joint": -2.711696901376241,
            "wrist_1_joint": -0.07506478083263063,
            "wrist_2_joint": 0.43296659715538205,
            "wrist_3_joint": -3.14703540197715
        }
    },
    "waypoints": [
        {
            "positions": [
                -2.711696901376241,
                -0.6476975780787326,
                0.749534889911806,
                -0.07506478083263063,
                0.43296659715538205,
                -3.14703540197715
            ]
        },
        {
            "positions": [
                -2.7753816936367106,
                -0.7664330374243233,
                0.829300800277609,
                -0.014470033403478938,
                0.4045382667537948,
                -3.1158058243369755
            ]
        },
        {
            "positions": [
                -2.83906648589718,
                -0.8851684967699142,
                0.909066710643412,
                0.04612471402567275,
                0.3761099363522076,
                -3.084576246696801
            ]
        },
        {
            "positions": [
                -2.736968539093527,
                -0.9448074538381335,
                0.8766470596291791,
                0.09477885924876725,
                0.4559978030725662,
                -3.0231727879362635
            ]
        },
        {
            "positions": [
                -2.6348705922898743,
                -1.004446410906353,
                0.844227408614946,
                0.14343300447186175,
                0.5358856697929248,
                -2.9617693291757266
            ]
        },
        {
            "positions": [
                -2.5327726454862214,
                -1.064085367974572,
                0.8118077576007131,
                0.19208714969495624,
                0.6157735365132835,
                -2.900365870415189
            ]
        },
        {
            "positions": [
                -2.430674698682568,
                -1.1237243250427915,
                0.7793881065864801,
                0.24074129491805074,
                0.6956614032336421,
                -2.8389624116546517
            ]
        },
        {
            "positions": [
                -2.328576751878915,
                -1.183363282111011,
                0.7469684555722471,
                0.28939544014114527,
                0.775549269954001,
                -2.7775589528941147
            ]
        },
        {
            "positions": [
                -2.226478805075262,
                -1.2430022391792301,
                0.7145488045580142,
                0.33804958536423974,
                0.8554371366743595,
                -2.7161554941335773
            ]
        },
        {
            "positions": [
                -2.1243808582716093,
                -1.3026411962474496,
                0.6821291535437811,
                0.38670373058733426,
                0.9353250033947182,
                -2.65475203537304
            ]
        },
        {
            "positions": [
                -2.0222829114679564,
                -1.3622801533156688,
                0.6497095025295481,
                0.43535787581042873,
                1.0152128701150769,
                -2.593348576612503
            ]
        },
        {
            "positions": [
                -1.9201849646643032,
                -1.4219191103838882,
                0.6172898515153151,
                0.48401202103352325,
                1.0951007368354355,
                -2.5319451178519654
            ]
        },
        {
            "positions": [
                -1.8270302324680345,
                -1.3980339712711465,
                0.5616665797367318,
                0.35916786444730153,
                1.013349731520199,
                -2.546689484806602
            ]
        },
        {
            "positions": [
                -1.7338755002717658,
                -1.3741488321584048,
                0.5060433079581487,
                0.23432370786107987,
                0.9315987262049621,
                -2.561433851761239
            ]
        },
        {
            "positions": [
                -1.640720768075497,
                -1.350263693045663,
                0.4504200361795654,
                0.10947955127485814,
                0.8498477208897255,
                -2.5761782187158757
            ]
        },
        {
            "positions": [
                -1.5475660358792283,
                -1.3263785539329211,
                0.3947967644009822,
                -0.015364605311363522,
                0.7680967155744888,
                -2.5909225856705125
            ]
        },
        {
            "positions": [
                -1.4544113036829596,
                -1.3024934148201794,
                0.33917349262239893,
                -0.14020876189758524,
                0.6863457102592521,
                -2.6056669526251492
            ]
        },
        {
            "positions": [
                -1.3612565714866909,
                -1.2786082757074377,
                0.2835502208438157,
                -0.26505291848380697,
                0.6045947049440155,
                -2.620411319579786
            ]
        },
        {
            "positions": [
                -1.2681018392904222,
                -1.254723136594696,
                0.22792694906523242,
                -0.3898970750700287,
                0.5228436996287786,
                -2.635155686534423
            ]
        },
        {
            "positions": [
                -1.1749471070941535,
                -1.2308379974819543,
                0.17230367728664925,
                -0.5147412316562503,
                0.44109269431354203,
                -2.6499000534890595
            ]
        },
        {
            "positions": [
                -1.0817923748978848,
                -1.2069528583692124,
                0.11668040550806602,
                -0.639585388242472,
                0.3593416889983053,
                -2.6646444204436963
            ]
        },
        {
            "positions": [
                -0.9886376427016159,
                -1.1830677192564707,
                0.06105713372948274,
                -0.7644295448286937,
                0.2775906836830686,
                -2.679388787398333
            ]
        },
        {
            "positions": [
                -0.8954829105053472,
                -1.159182580143729,
                0.005433861950899566,
                -0.8892737014149155,
                0.195839678367832,
                -2.69413315435297
            ]
        },
        {
            "positions": [
                -0.8023281783090785,
                -1.1352974410309873,
                -0.05018940982768372,
                -1.0141178580011372,
                0.11408867305259529,
                -2.7088775213076066
            ]
        },
        {
            "positions": [
                -0.7091734461128099,
                -1.1114123019182456,
                -0.10581268160626689,
                -1.1389620145873587,
                0.03233766773735858,
                -2.7236218882622434
            ]
        },
        {
            "positions": [
                -0.616018713916541,
                -1.0875271628055039,
                -0.16143595338485028,
                -1.2638061711735806,
                -0.04941333757787825,
                -2.73836625521688
            ]
        },
        {
            "positions": [
                -0.5228639817202725,
                -1.0636420236927622,
                -0.21705922516343346,
                -1.3886503277598023,
                -0.13116434289311485,
                -2.753110622171517
            ]
        },
        {
            "positions": [
                -0.4297092495240038,
                -1.0397568845800205,
                -0.27268249694201663,
                -1.5134944843460238,
                -0.21291534820835145,
                -2.7678549891261537
            ]
        },
        {
            "positions": [
                -0.3365545173277349,
                -1.0158717454672785,
                -0.3283057687205999,
                -1.638338640932246,
                -0.2946663535235883,
                -2.7825993560807905
            ]
        },
        {
            "positions": [
                -0.2433997851314662,
                -0.9919866063545368,
                -0.3839290404991831,
                -1.7631827975184673,
                -0.3764173588388249,
                -2.797343723035427
            ]
        },
        {
            "positions": [
                -0.15024505293519752,
                -0.9681014672417951,
                -0.43955231227776626,
                -1.888026954104689,
                -0.4581683641540615,
                -2.812088089990064
            ]
        },
        {
            "positions": [
                -0.05709032073892861,
                -0.9442163281290533,
                -0.49517558405634965,
                -2.0128711106909107,
                -0.5399193694692983,
                -2.8268324569447008
            ]
        },
        {
            "positions": [
                0.03606441145734007,
                -0.9203311890163116,
                -0.5507988558349328,
                -2.1377152672771325,
                -0.6216703747845349,
                -2.8415768238993375
            ]
        },
        {
            "positions": [
                0.12921914365360876,
                -0.8964460499035699,
                -0.606422127613516,
                -2.262559423863354,
                -0.7034213800997715,
                -2.8563211908539743
            ]
        },
        {
            "positions": [
                0.22237387584987744,
                -0.8725609107908281,
                -0.6620453993920994,
                -2.387403580449576,
                -0.7851723854150083,
                -2.871065557808611
            ]
        },
        {
            "positions": [
                0.3155286080461459,
                -0.8486757716780864,
                -0.7176686711706826,
                -2.5122477370357976,
                -0.8669233907302449,
                -2.885809924763248
            ]
        },
        {
            "positions": [
                0.2997386164285611,
                -0.9239646731308061,
                -0.8374777823959283,
                -2.4865638514079205,
                -0.7450263670422741,
                -2.899948007068298
            ]
        },
        {
            "positions": [
                0.2839486248109763,
                -0.9992535745835258,
                -0.957286893621174,
                -2.4608799657800438,
                -0.6231293433543034,
                -2.9140860893733485
            ]
        },
        {
            "positions": [
                0.2681586331933915,
                -1.0745424760362454,
                -1.0770960048464198,
                -2.4351960801521666,
                -0.5012323196663326,
                -2.9282241716783988
            ]
        },
        {
            "positions": [
                0.25236864157580674,
                -1.1498313774889652,
                -1.1969051160716655,
                -2.4095121945242894,
                -0.37933529597836174,
                -2.942362253983449
            ]
        },
        {
            "positions": [
                0.23657864995822192,
                -1.2251202789416848,
                -1.3167142272969112,
                -2.3838283088964123,
                -0.25743827229039096,
                -2.9565003362884994
            ]
        },
        {
            "positions": [
                0.2207886583406371,
                -1.3004091803944045,
                -1.436523338522157,
                -2.3581444232685356,
                -0.13554124860242023,
                -2.9706384185935493
            ]
        },
        {
            "positions": [
                0.2049986667230523,
                -1.375698081847124,
                -1.5563324497474027,
                -2.3324605376406584,
                -0.013644224914449388,
                -2.9847765008985996
            ]
        },
        {
            "positions": [
                0.18920867510546752,
                -1.4509869832998439,
                -1.6761415609726484,
                -2.3067766520127813,
                0.10825279877352145,
                -2.99891458320365
            ]
        },
        {
            "positions": [
                0.1734186834878827,
                -1.5262758847525637,
                -1.7959506721978942,
                -2.281092766384904,
                0.2301498224614924,
                -3.0130526655087
            ]
        },
        {
            "positions": [
                0.1576286918702979,
                -1.6015647862052833,
                -1.91575978342314,
                -2.2554088807570274,
                0.352046846149463,
                -3.0271907478137505
            ]
        },
        {
            "positions": [
                0.1418387002527131,
                -1.676853687658003,
                -2.0355688946483856,
                -2.2297249951291502,
                0.47394386983743375,
                -3.041328830118801
            ]
        },
        {
            "positions": [
                0.06013339298629014,
                -1.6949607269927989,
                -2.1145886376741716,
                -2.2305509381311137,
                0.3110955058746583,
                -3.0521926628025535
            ]
        },
        {
            "positions": [
                -0.02157191428013283,
                -1.7130677663275948,
                -2.193608380699958,
                -2.231376881133077,
                0.14824714191188282,
                -3.063056495486306
            ]
        },
        {
            "positions": [
                -0.1032772215465558,
                -1.731174805662391,
                -2.2726281237257444,
                -2.2322028241350407,
                -0.014601222050892648,
                -3.073920328170059
            ]
        },
        {
            "positions": [
                -0.1849825288129788,
                -1.749281844997187,
                -2.3516478667515304,
                -2.233028767137004,
                -0.17744958601366806,
                -3.0847841608538116
            ]
        }
    ]
}