{
    "goal": {
        "global_pose": {
            "orientation": {
                "w": -0.00223480608172531,
                "x": 0.0024358444001904467,
                "y": 0.7094548369677653,
                "z": -0.704743149386269
            },
            "position": {
                "x": 0.6205249238014221,
                "y": -0.6371506643295288,
                "z": 0.19426114857196808
            }
        },
        "name": "move_to_magneteinheit_B"
    },
    "id": "TRRT_move_to_magneteinheit_B_13",
    "joint_names": [
        "shoulder_pan_joint",
        "shoulder_lift_joint",
        "elbow_joint",
        "wrist_1_joint",
        "wrist_2_joint",
        "wrist_3_joint"
    ],
    "metrics": {
        "cart_traj_len": 1.59072603530979,
        "distance_elbow_joint": 0.9584738262841759,
        "distance_shoulder_lift_joint": 1.107579507283282,
        "distance_shoulder_pan_joint": 1.6219328245685525,
        "distance_wrist_1_joint": 1.079450939687021,
        "distance_wrist_2_joint": 1.9065917512664792,
        "distance_wrist_3_joint": 0.4678989615318679,
        "smoothness": 0.6818924973901584,
        "time": 0.062448215,
        "traj_len": 2.6724385513274913,
        "weighted_distance": 3.326224349715247
    },
    "planner": "TRRT",
    "start": {
        "state": {
            "elbow_joint": 2.6216224122426386,
            "shoulder_lift_joint": -1.4174107377796124,
            "shoulder_pan_joint": 0.7066234856936794,
            "wrist_1_joint": 1.9546482284002225,
            "wrist_2_joint": -0.7096286983471962,
            "wrist_3_joint": 0.005740856962016249
        }
    },
    "waypoints": [
        {
            "positions": [
                0.7066234856936794,
                -1.4174107377796124,
                2.6216224122426386,
                1.9546482284002225,
                -0.7096286983471962,
                0.005740856962016249
            ]
        },
        {
            "positions": [
                0.6637952577321582,
                -1.469134650147694,
                2.610927646912142,
                1.8423926133260338,
                -0.6661263839091744,
                0.08279795087708566
            ]
        },
        {
            "positions": [
                0.6061055923146804,
                -1.5103175332837548,
                2.54913946335806,
                1.7300022430071975,
                -0.6151237634001937,
                0.1353009304655067
            ]
        },
        {
            "positions": [
                0.5484159268972025,
                -1.5515004164198156,
                2.487351279803978,
                1.617611872688361,
                -0.5641211428912131,
                0.18780391005392777
            ]
        },
        {
            "positions": [
                0.49072626147972476,
                -1.5926832995558764,
                2.4255630962498964,
                1.5052215023695248,
                -0.5131185223822323,
                0.2403068896423488
            ]
        },
        {
            "positions": [
                0.3969905547894182,
                -1.5305295031887418,
                2.3747354622304675,
                1.5472231166132797,
                -0.6271239607356667,
                0.22475136105224644
            ]
        },
        {
            "positions": [
                0.30325484809911163,
                -1.4683757068216075,
                2.3239078282110386,
                1.5892247308570346,
                -0.741129399089101,
                0.2091958324621441
            ]
        },
        {
            "positions": [
                0.20951914140880512,
                -1.4062219104544729,
                2.2730801941916097,
                1.6312263451007896,
                -0.8551348374425354,
                0.19364030387204173
            ]
        },
        {
            "positions": [
                0.11578343471849856,
                -1.3440681140873383,
                2.2222525601721808,
                1.6732279593445445,
                -0.9691402757959697,
                0.17808477528193936
            ]
        },
        {
            "positions": [
                0.02204772802819205,
                -1.281914317720204,
                2.171424926152752,
                1.7152295735882992,
                -1.083145714149404,
                0.16252924669183702
            ]
        },
        {
            "positions": [
                -0.07168797866211452,
                -1.2197605213530693,
                2.120597292133323,
                1.7572311878320541,
                -1.1971511525028384,
                0.14697371810173465
            ]
        },
        {
            "positions": [
                -0.16542368535242102,
                -1.1576067249859348,
                2.069769658113894,
                1.799232802075809,
                -1.3111565908562728,
                0.1314181895116323
            ]
        },
        {
            "positions": [
                -0.25915939204272764,
                -1.0954529286188004,
                2.018942024094465,
                1.841234416319564,
                -1.4251620292097071,
                0.11586266092152993
            ]
        },
        {
            "positions": [
                -0.35289509873303415,
                -1.0332991322516658,
                1.9681143900750362,
                1.883236030563319,
                -1.5391674675631415,
                0.10030713233142757
            ]
        },
        {
            "positions": [
                -0.44663080542334066,
                -0.9711453358845312,
                1.9172867560556073,
                1.9252376448070736,
                -1.6531729059165758,
                0.08475160374132523
            ]
        },
        {
            "positions": [
                -0.5403665121136472,
                -0.9089915395173968,
                1.8664591220361784,
                1.9672392590508285,
                -1.7671783442700102,
                0.06919607515122286
            ]
        },
        {
            "positions": [
                -0.6341022188039538,
                -0.8468377431502622,
                1.8156314880167495,
                2.0092408732945835,
                -1.8811837826234445,
                0.053640546561120495
            ]
        },
        {
            "positions": [
                -0.7278379254942604,
                -0.7846839467831277,
                1.7648038539973205,
                2.0512424875383384,
                -1.995189220976879,
                0.038085017971018126
            ]
        },
        {
            "positions": [
                -0.8215736321845668,
                -0.7225301504159931,
                1.7139762199778916,
                2.0932441017820933,
                -2.1091946593303135,
                0.022529489380915785
            ]
        },
        {
            "positions": [
                -0.9153093388748734,
                -0.6603763540488586,
                1.6631485859584627,
                2.1352457160258482,
                -2.2232000976837476,
                0.006973960790813409
            ]
        }
    ]
}