{
    "goal": {
        "global_pose": {
            "orientation": {
                "w": 0.005598929693374612,
                "x": 0.007748599140229565,
                "y": 0.7110244013736278,
                "z": -0.7031023480610252
            },
            "position": {
                "x": 0.1141497679147869,
                "y": -0.7141253447532654,
                "z": 0.3711530566215515
            }
        },
        "name": "move_to_auspresseinheit_B"
    },
    "id": "TRRT_move_to_auspresseinheit_B_46",
    "joint_names": [
        "shoulder_pan_joint",
        "shoulder_lift_joint",
        "elbow_joint",
        "wrist_1_joint",
        "wrist_2_joint",
        "wrist_3_joint"
    ],
    "metrics": {
        "cart_traj_len": 0.5637783818238224,
        "distance_elbow_joint": 0.059705074428269445,
        "distance_shoulder_lift_joint": 0.29487530829419106,
        "distance_shoulder_pan_joint": 0.5753096653775676,
        "distance_wrist_1_joint": 0.3187720712306017,
        "distance_wrist_2_joint": 1.0001383429354982,
        "distance_wrist_3_joint": 0.0012145092367203958,
        "smoothness": 5.075305255429287e-16,
        "time": 0.02504747,
        "traj_len": 1.5000049904926478,
        "weighted_distance": 1.8898027421247936
    },
    "planner": "TRRT",
    "start": {
        "state": {
            "elbow_joint": 2.0193083361928714,
            "shoulder_lift_joint": -1.1220246554650708,
            "shoulder_pan_joint": -1.0952077554168747,
            "wrist_1_joint": -0.8559753972642168,
            "wrist_2_joint": 0.4759566250798843,
            "wrist_3_joint": -3.1240929996934557
        }
    },
    "waypoints": [
        {
            "positions": [
                -1.0952077554168747,
                -1.1220246554650708,
                2.0193083361928714,
                -0.8559753972642168,
                0.4759566250798843,
                -3.1240929996934557
            ]
        },
        {
            "positions": [
                -1.1910926996464692,
                -1.1711705401807693,
                2.0093574904548266,
                -0.8028467187257832,
                0.6426463489024673,
                -3.124295417899576
            ]
        },
        {
            "positions": [
                -1.2869776438760638,
                -1.2203164248964677,
                1.9994066447167815,
                -0.7497180401873496,
                0.8093360727250503,
                -3.1244978361056956
            ]
        },
        {
            "positions": [
                -1.3828625881056584,
                -1.2694623096121664,
                1.9894557989787367,
                -0.6965893616489159,
                0.9760257965476333,
                -3.124700254311816
            ]
        },
        {
            "positions": [
                -1.478747532335253,
                -1.318608194327865,
                1.9795049532406919,
                -0.6434606831104823,
                1.1427155203702164,
                -3.124902672517936
            ]
        },
        {
            "positions": [
                -1.5746324765648476,
                -1.3677540790435634,
                1.9695541075026468,
                -0.5903320045720487,
                1.3094052441927995,
                -3.125105090724056
            ]
        },
        {
            "positions": [
                -1.6705174207944422,
                -1.4168999637592619,
                1.959603261764602,
                -0.5372033260336151,
                1.4760949680153825,
                -3.125307508930176
            ]
        }
    ]
}