{
    "goal": {
        "global_pose": {
            "orientation": {
                "w": -0.4816463035849501,
                "x": 0.5182115481033762,
                "y": 0.4908360881923453,
                "z": -0.5084816262002911
            },
            "position": {
                "x": -0.8240239810943604,
                "y": 0.19912469901144506,
                "z": 0.16403168439865112
            }
        },
        "name": "move_to_storage_D"
    },
    "id": "TRRT_move_to_storage_D_100",
    "joint_names": [
        "shoulder_pan_joint",
        "shoulder_lift_joint",
        "elbow_joint",
        "wrist_1_joint",
        "wrist_2_joint",
        "wrist_3_joint"
    ],
    "metrics": {
        "cart_traj_len": 0.7113212972449637,
        "distance_elbow_joint": 0.6957973733233263,
        "distance_shoulder_lift_joint": 0.7368865065565933,
        "distance_shoulder_pan_joint": 0.2508749191460152,
        "distance_wrist_1_joint": 3.8270054230706485,
        "distance_wrist_2_joint": 1.8023306677312436,
        "distance_wrist_3_joint": 3.1197923743528784,
        "smoothness": 0.1274825207512176,
        "time": 0.100758037,
        "traj_len": 3.229967068590747,
        "weighted_distance": 4.722457845623224
    },
    "planner": "TRRT",
    "start": {
        "state": {
            "elbow_joint": -2.384821988534728,
            "shoulder_lift_joint": -2.2788054721415256,
            "shoulder_pan_joint": -0.1854694642142757,
            "wrist_1_joint": 1.4845938289331202,
            "wrist_2_joint": 0.17898776772866878,
            "wrist_3_joint": 0.037105688729662994
        }
    },
    "waypoints": [
        {
            "positions": [
                -0.1854694642142757,
                -2.2788054721415256,
                -2.384821988534728,
                1.4845938289331202,
                0.17898776772866878,
                0.037105688729662994
            ]
        },
        {
            "positions": [
                -0.13843138333174498,
                -2.2517248950841027,
                -2.419652243108338,
                1.3053418151042346,
                0.18128543591383825,
                -0.019061746619668155
            ]
        },
        {
            "positions": [
                -0.09139330244921426,
                -2.2246443180266797,
                -2.454482497681948,
                1.126089801275349,
                0.18358310409900772,
                -0.0752291819689993
            ]
        },
        {
            "positions": [
                -0.06502619281625158,
                -2.1271405200046143,
                -2.4324745622725916,
                1.0063405561892993,
                0.1534610028573943,
                -0.11929716556395767
            ]
        },
        {
            "positions": [
                -0.038659083183288895,
                -2.0296367219825484,
                -2.4104666268632355,
                0.8865913111032493,
                0.1233389016157809,
                -0.16336514915891603
            ]
        },
        {
            "positions": [
                -0.012291973550326213,
                -1.932132923960483,
                -2.388458691453879,
                0.7668420660171994,
                0.09321680037416748,
                -0.2074331327538744
            ]
        },
        {
            "positions": [
                0.014075136082636466,
                -1.8346291259384175,
                -2.3664507560445225,
                0.6470928209311495,
                0.06309469913255407,
                -0.25150111634883277
            ]
        },
        {
            "positions": [
                0.01174193977131361,
                -1.8479341332272123,
                -2.3419914322927644,
                0.511206256609846,
                -0.01314379752173915,
                -0.38019136949766835
            ]
        },
        {
            "positions": [
                0.009408743459990756,
                -1.8612391405160071,
                -2.317532108541006,
                0.37531969228854245,
                -0.08938229417603237,
                -0.5088816226465039
            ]
        },
        {
            "positions": [
                0.007075547148667902,
                -1.874544147804802,
                -2.293072784789248,
                0.23943312796723898,
                -0.16562079083032555,
                -0.6375718757953395
            ]
        },
        {
            "positions": [
                0.004742350837345047,
                -1.8878491550935967,
                -2.2686134610374897,
                0.1035465636459354,
                -0.24185928748461882,
                -0.7662621289441751
            ]
        },
        {
            "positions": [
                0.002409154526022193,
                -1.9011541623823915,
                -2.2441541372857317,
                -0.03234000067536802,
                -0.318097784138912,
                -0.8949523820930106
            ]
        },
        {
            "positions": [
                7.595821469933914e-05,
                -1.9144591696711861,
                -2.219694813533973,
                -0.16822656499667155,
                -0.3943362807932052,
                -1.0236426352418462
            ]
        },
        {
            "positions": [
                -0.0022572380966235164,
                -1.927764176959981,
                -2.195235489782215,
                -0.3041131293179751,
                -0.4705747774474984,
                -1.1523328883906818
            ]
        },
        {
            "positions": [
                -0.004590434407946372,
                -1.9410691842487757,
                -2.170776166030457,
                -0.4399996936392787,
                -0.5468132741017917,
                -1.2810231415395175
            ]
        },
        {
            "positions": [
                -0.006923630719269228,
                -1.9543741915375705,
                -2.146316842278699,
                -0.5758862579605821,
                -0.6230517707560849,
                -1.409713394688353
            ]
        },
        {
            "positions": [
                -0.00925682703059208,
                -1.9676791988263653,
                -2.1218575185269404,
                -0.7117728222818855,
                -0.699290267410378,
                -1.5384036478371885
            ]
        },
        {
            "positions": [
                -0.011590023341914935,
                -1.9809842061151601,
                -2.0973981947751823,
                -0.8476593866031892,
                -0.7755287640646713,
                -1.6670939009860242
            ]
        },
        {
            "positions": [
                -0.013923219653237787,
                -1.994289213403955,
                -2.0729388710234242,
                -0.9835459509244926,
                -0.8517672607189645,
                -1.7957841541348596
            ]
        },
        {
            "positions": [
                -0.016256415964560646,
                -2.0075942206927495,
                -2.0484795472716657,
                -1.1194325152457962,
                -0.9280057573732577,
                -1.9244744072836955
            ]
        },
        {
            "positions": [
                -0.0185896122758835,
                -2.0208992279815443,
                -2.0240202235199076,
                -1.2553190795670996,
                -1.004244254027551,
                -2.0531646604325307
            ]
        },
        {
            "positions": [
                -0.02092280858720635,
                -2.034204235270339,
                -1.9995608997681495,
                -1.3912056438884033,
                -1.0804827506818442,
                -2.1818549135813665
            ]
        },
        {
            "positions": [
                -0.02325600489852921,
                -2.047509242559134,
                -1.9751015760163912,
                -1.527092208209707,
                -1.1567212473361375,
                -2.3105451667302024
            ]
        },
        {
            "positions": [
                -0.02558920120985206,
                -2.0608142498479287,
                -1.9506422522646332,
                -1.6629787725310101,
                -1.2329597439904305,
                -2.4392354198790374
            ]
        },
        {
            "positions": [
                -0.02792239752117492,
                -2.0741192571367235,
                -1.9261829285128749,
                -1.7988653368523138,
                -1.3091982406447238,
                -2.5679256730278732
            ]
        },
        {
            "positions": [
                -0.030255593832497773,
                -2.0874242644255183,
                -1.9017236047611168,
                -1.9347519011736174,
                -1.385436737299017,
                -2.696615926176709
            ]
        },
        {
            "positions": [
                -0.03258879014382063,
                -2.100729271714313,
                -1.8772642810093585,
                -2.0706384654949206,
                -1.4616752339533101,
                -2.825306179325544
            ]
        },
        {
            "positions": [
                -0.03492198645514348,
                -2.114034279003108,
                -1.8528049572576002,
                -2.2065250298162247,
                -1.5379137306076036,
                -2.95399643247438
            ]
        },
        {
            "positions": [
                -0.03725518276646633,
                -2.1273392862919027,
                -1.8283456335058421,
                -2.342411594137528,
                -1.6141522272618967,
                -3.0826866856232154
            ]
        }
    ]
}