{
    "goal": {
        "global_pose": {
            "orientation": {
                "w": 0.5084816262002911,
                "x": -0.4908360881923452,
                "y": 0.5182115481033761,
                "z": -0.48164630358495003
            },
            "position": {
                "x": 0.5540239810943604,
                "y": -0.46912469901144505,
                "z": 0.16403168439865112
            }
        },
        "name": "move_to_storage_B"
    },
    "id": "TRRT_move_to_storage_B_8",
    "joint_names": [
        "shoulder_pan_joint",
        "shoulder_lift_joint",
        "elbow_joint",
        "wrist_1_joint",
        "wrist_2_joint",
        "wrist_3_joint"
    ],
    "metrics": {
        "cart_traj_len": 1.259487007506288,
        "distance_elbow_joint": 0.35086681889199056,
        "distance_shoulder_lift_joint": 0.46054644255499055,
        "distance_shoulder_pan_joint": 1.2808162645893586,
        "distance_wrist_1_joint": 2.979167888987854,
        "distance_wrist_2_joint": 2.712794672036904,
        "distance_wrist_3_joint": 3.6027898621042542,
        "smoothness": 0.17093136217598043,
        "time": 0.069558963,
        "traj_len": 3.3744602456045247,
        "weighted_distance": 4.927933059041957
    },
    "planner": "TRRT",
    "start": {
        "state": {
            "elbow_joint": 1.664937868594044,
            "shoulder_lift_joint": -0.661644460510453,
            "shoulder_pan_joint": -0.9139846352900073,
            "wrist_1_joint": 2.146753192139373,
            "wrist_2_joint": -2.2341966793290973,
            "wrist_3_joint": 0.005466555786416001
        }
    },
    "waypoints": [
        {
            "positions": [
                -0.9139846352900073,
                -0.661644460510453,
                1.664937868594044,
                2.146753192139373,
                -2.2341966793290973,
                0.005466555786416001
            ]
        },
        {
            "positions": [
                -0.8528873593963798,
                -0.7093151383543097,
                1.692115974529706,
                2.0225052508564834,
                -2.1513907041184694,
                -0.02034059760605325
            ]
        },
        {
            "positions": [
                -0.7917900835027525,
                -0.7569858161981664,
                1.7192940804653682,
                1.8982573095735935,
                -2.0685847289078416,
                -0.0461477509985225
            ]
        },
        {
            "positions": [
                -0.730692807609125,
                -0.804656494042023,
                1.7464721864010304,
                1.7740093682907037,
                -1.9857787536972138,
                -0.07195490439099175
            ]
        },
        {
            "positions": [
                -0.6695955317154976,
                -0.8523271718858797,
                1.7736502923366926,
                1.6497614270078138,
                -1.902972778486586,
                -0.097762057783461
            ]
        },
        {
            "positions": [
                -0.6084982558218701,
                -0.8999978497297364,
                1.8008283982723547,
                1.525513485724924,
                -1.8201668032759581,
                -0.12356921117593028
            ]
        },
        {
            "positions": [
                -0.5474009799282427,
                -0.947668527573593,
                1.828006504208017,
                1.401265544442034,
                -1.7373608280653303,
                -0.1493763645683995
            ]
        },
        {
            "positions": [
                -0.48630370403461526,
                -0.9953392054174497,
                1.855184610143679,
                1.2770176031591443,
                -1.6545548528547025,
                -0.17518351796086878
            ]
        },
        {
            "positions": [
                -0.42520642814098786,
                -1.0430098832613064,
                1.8823627160793412,
                1.1527696618762544,
                -1.5717488776440747,
                -0.200990671353338
            ]
        },
        {
            "positions": [
                -0.3641091522473604,
                -1.090680561105163,
                1.9095408220150034,
                1.0285217205933646,
                -1.4889429024334468,
                -0.22679782474580729
            ]
        },
        {
            "positions": [
                -0.39891585613053715,
                -1.0921810535794623,
                1.9146010060850525,
                0.9399057007151815,
                -1.395250478855292,
                -0.06629661133761536
            ]
        },
        {
            "positions": [
                -0.4337225600137139,
                -1.0936815460537612,
                1.9196611901551015,
                0.8512896808369985,
                -1.301558055277137,
                0.09420460207057657
            ]
        },
        {
            "positions": [
                -0.4685292638968907,
                -1.0951820385280604,
                1.9247213742251508,
                0.7626736609588155,
                -1.207865631698982,
                0.2547058154787685
            ]
        },
        {
            "positions": [
                -0.5033359677800675,
                -1.0966825310023594,
                1.9297815582951998,
                0.6740576410806325,
                -1.114173208120827,
                0.4152070288869604
            ]
        },
        {
            "positions": [
                -0.5381426716632443,
                -1.0981830234766585,
                1.9348417423652489,
                0.5854416212024495,
                -1.0204807845426722,
                0.5757082422951525
            ]
        },
        {
            "positions": [
                -0.572949375546421,
                -1.0996835159509575,
                1.939901926435298,
                0.49682560132426645,
                -0.9267883609645172,
                0.7362094557033443
            ]
        },
        {
            "positions": [
                -0.6077560794295978,
                -1.1011840084252567,
                1.9449621105053472,
                0.40820958144608344,
                -0.8330959373863623,
                0.8967106691115363
            ]
        },
        {
            "positions": [
                -0.6425627833127745,
                -1.1026845008995556,
                1.9500222945753962,
                0.3195935615679004,
                -0.7394035138082075,
                1.057211882519728
            ]
        },
        {
            "positions": [
                -0.6773694871959512,
                -1.1041849933738548,
                1.9550824786454453,
                0.2309775416897174,
                -0.6457110902300525,
                1.21771309592792
            ]
        },
        {
            "positions": [
                -0.712176191079128,
                -1.1056854858481537,
                1.9601426627154943,
                0.14236152181153439,
                -0.5520186666518976,
                1.378214309336112
            ]
        },
        {
            "positions": [
                -0.7469828949623047,
                -1.107185978322453,
                1.9652028467855436,
                0.05374550193335126,
                -0.4583262430737425,
                1.5387155227443041
            ]
        },
        {
            "positions": [
                -0.7817895988454815,
                -1.1086864707967519,
                1.9702630308555926,
                -0.03487051794483165,
                -0.3646338194955876,
                1.699216736152496
            ]
        },
        {
            "positions": [
                -0.8165963027286584,
                -1.110186963271051,
                1.9753232149256417,
                -0.12348653782301477,
                -0.2709413959174327,
                1.859717949560688
            ]
        },
        {
            "positions": [
                -0.8514030066118351,
                -1.11168745574535,
                1.9803833989956907,
                -0.21210255770119768,
                -0.17724897233927783,
                2.02021916296888
            ]
        },
        {
            "positions": [
                -0.8862097104950118,
                -1.1131879482196492,
                1.98544358306574,
                -0.3007185775793808,
                -0.08355654876112273,
                2.180720376377072
            ]
        },
        {
            "positions": [
                -0.9210164143781886,
                -1.1146884406939481,
                1.990503767135789,
                -0.3893345974575637,
                0.010135874817031931,
                2.3412215897852637
            ]
        },
        {
            "positions": [
                -0.9558231182613653,
                -1.1161889331682473,
                1.995563951205838,
                -0.47795061733574684,
                0.10382829839518704,
                2.501722803193456
            ]
        },
        {
            "positions": [
                -0.9906298221445421,
                -1.1176894256425463,
                2.000624135275887,
                -0.5665666372139297,
                0.19752072197334192,
                2.6622240166016478
            ]
        },
        {
            "positions": [
                -1.025436526027719,
                -1.1191899181168454,
                2.0056843193459364,
                -0.6551826570921129,
                0.291213145551497,
                2.8227252300098398
            ]
        },
        {
            "positions": [
                -1.0602432299108957,
                -1.1206904105911444,
                2.010744503415985,
                -0.7437986769702958,
                0.3849055691296517,
                2.983226443418032
            ]
        },
        {
            "positions": [
                -1.0950499337940724,
                -1.1221909030654436,
                2.0158046874860345,
                -0.832414696848479,
                0.47859799270780684,
                3.143727656826224
            ]
        }
    ]
}