{
    "goal": {
        "global_pose": {
            "orientation": {
                "w": 0.7031023480610252,
                "x": -0.7110244013736278,
                "y": 0.0077485991402295624,
                "z": 0.005598929693374583
            },
            "position": {
                "x": -0.8841497679147869,
                "y": 0.44412534475326537,
                "z": 0.3711530566215515
            }
        },
        "name": "move_to_auspresseinheit_D"
    },
    "id": "TRRT_move_to_auspresseinheit_D_14",
    "joint_names": [
        "shoulder_pan_joint",
        "shoulder_lift_joint",
        "elbow_joint",
        "wrist_1_joint",
        "wrist_2_joint",
        "wrist_3_joint"
    ],
    "metrics": {
        "cart_traj_len": 0.3426105748105537,
        "distance_elbow_joint": 0.6345148181902944,
        "distance_shoulder_lift_joint": 0.11997500047724685,
        "distance_shoulder_pan_joint": 0.1341634699459941,
        "distance_wrist_1_joint": 0.5203199571133261,
        "distance_wrist_2_joint": 1.4343981121054616,
        "distance_wrist_3_joint": 0.009330416989182577,
        "smoothness": 0.0,
        "time": 0.050724925,
        "traj_len": 1.6889943087001522,
        "weighted_distance": 2.196834239995967
    },
    "planner": "TRRT",
    "start": {
        "state": {
            "elbow_joint": -1.8275523626775212,
            "shoulder_lift_joint": -2.126789852344167,
            "shoulder_pan_joint": -0.03513704404078235,
            "wrist_1_joint": -2.347782403156801,
            "wrist_2_joint": -1.6058999987535132,
            "wrist_3_joint": -3.0880379163319196
        }
    },
    "waypoints": [
        {
            "positions": [
                -0.03513704404078235,
                -2.126789852344167,
                -1.8275523626775212,
                -2.347782403156801,
                -1.6058999987535132,
                -3.0880379163319196
            ]
        },
        {
            "positions": [
                -0.05190747778403161,
                -2.1417867274038227,
                -1.7482380104037345,
                -2.4128223977959666,
                -1.4266002347403304,
                -3.0892042184555675
            ]
        },
        {
            "positions": [
                -0.06867791152728087,
                -2.1567836024634786,
                -1.6689236581299476,
                -2.4778623924351324,
                -1.2473004707271478,
                -3.0903705205792154
            ]
        },
        {
            "positions": [
                -0.08544834527053013,
                -2.1717804775231344,
                -1.5896093058561607,
                -2.542902387074298,
                -1.0680007067139652,
                -3.0915368227028632
            ]
        },
        {
            "positions": [
                -0.1022187790137794,
                -2.1867773525827903,
                -1.510294953582374,
                -2.607942381713464,
                -0.8887009427007824,
                -3.092703124826511
            ]
        },
        {
            "positions": [
                -0.11898921275702867,
                -2.201774227642446,
                -1.4309806013085873,
                -2.6729823763526297,
                -0.7094011786875997,
                -3.0938694269501585
            ]
        },
        {
            "positions": [
                -0.13575964650027791,
                -2.216771102702102,
                -1.3516662490348004,
                -2.7380223709917955,
                -0.530101414674417,
                -3.0950357290738064
            ]
        },
        {
            "positions": [
                -0.15253008024352718,
                -2.231767977761758,
                -1.2723518967610135,
                -2.8030623656309612,
                -0.35080165066123437,
                -3.0962020311974543
            ]
        },
        {
            "positions": [
                -0.16930051398677645,
                -2.2467648528214137,
                -1.1930375444872268,
                -2.868102360270127,
                -0.17150188664805158,
                -3.097368333321102
            ]
        }
    ]
}