{
    "goal": {
        "global_pose": {
            "orientation": {
                "w": 0.005598929693374612,
                "x": 0.007748599140229565,
                "y": 0.7110244013736278,
                "z": -0.7031023480610252
            },
            "position": {
                "x": 0.1141497679147869,
                "y": -0.7141253447532654,
                "z": 0.3711530566215515
            }
        },
        "name": "move_to_auspresseinheit_B"
    },
    "id": "TRRT_move_to_auspresseinheit_B_50",
    "joint_names": [
        "shoulder_pan_joint",
        "shoulder_lift_joint",
        "elbow_joint",
        "wrist_1_joint",
        "wrist_2_joint",
        "wrist_3_joint"
    ],
    "metrics": {
        "cart_traj_len": 0.5651747262827238,
        "distance_elbow_joint": 0.059238366751694915,
        "distance_shoulder_lift_joint": 0.2956141890128501,
        "distance_shoulder_pan_joint": 0.5793628864782754,
        "distance_wrist_1_joint": 0.31699779974921705,
        "distance_wrist_2_joint": 0.9876118833648742,
        "distance_wrist_3_joint": 0.00830166601772131,
        "smoothness": 5.075305295617109e-16,
        "time": 0.019539203999999998,
        "traj_len": 1.4990419578432863,
        "weighted_distance": 1.8890049778981968
    },
    "planner": "TRRT",
    "start": {
        "state": {
            "elbow_joint": 2.0193083361928714,
            "shoulder_lift_joint": -1.1220246554650708,
            "shoulder_pan_joint": -1.0952077554168747,
            "wrist_1_joint": -0.8559753972642168,
            "wrist_2_joint": 0.4759566250798843,
            "wrist_3_joint": -3.1240929996934557
        }
    },
    "waypoints": [
        {
            "positions": [
                -1.0952077554168747,
                -1.1220246554650708,
                2.0193083361928714,
                -0.8559753972642168,
                0.4759566250798843,
                -3.1240929996934557
            ]
        },
        {
            "positions": [
                -1.1917682364965871,
                -1.1712936869672124,
                2.009435275067589,
                -0.8031424306393473,
                0.6405586056406967,
                -3.122709388690502
            ]
        },
        {
            "positions": [
                -1.2883287175762999,
                -1.2205627184693542,
                1.9995622139423064,
                -0.7503094640144777,
                0.805160586201509,
                -3.1213257776875487
            ]
        },
        {
            "positions": [
                -1.3848891986560123,
                -1.269831749971496,
                1.989689152817024,
                -0.6974764973896083,
                0.9697625667623213,
                -3.119942166684595
            ]
        },
        {
            "positions": [
                -1.4814496797357248,
                -1.3191007814736375,
                1.9798160916917416,
                -0.6446435307647388,
                1.1343645473231336,
                -3.1185585556816413
            ]
        },
        {
            "positions": [
                -1.5780101608154375,
                -1.368369812975779,
                1.969943030566459,
                -0.5918105641398692,
                1.2989665278839462,
                -3.117174944678688
            ]
        },
        {
            "positions": [
                -1.67457064189515,
                -1.4176388444779209,
                1.9600699694411765,
                -0.5389775975149997,
                1.4635685084447585,
                -3.1157913336757344
            ]
        }
    ]
}