{
    "goal": {
        "global_pose": {
            "orientation": {
                "w": -0.00223480608172531,
                "x": 0.0024358444001904467,
                "y": 0.7094548369677653,
                "z": -0.704743149386269
            },
            "position": {
                "x": 0.6205249238014221,
                "y": -0.6371506643295288,
                "z": 0.19426114857196808
            }
        },
        "name": "move_to_magneteinheit_B"
    },
    "id": "TRRT_move_to_magneteinheit_B_39",
    "joint_names": [
        "shoulder_pan_joint",
        "shoulder_lift_joint",
        "elbow_joint",
        "wrist_1_joint",
        "wrist_2_joint",
        "wrist_3_joint"
    ],
    "metrics": {
        "cart_traj_len": 1.6861259517971425,
        "distance_elbow_joint": 0.9569122828277576,
        "distance_shoulder_lift_joint": 0.9378144771926913,
        "distance_shoulder_pan_joint": 1.6966386043127566,
        "distance_wrist_1_joint": 1.6158883511209128,
        "distance_wrist_2_joint": 1.582659118944606,
        "distance_wrist_3_joint": 1.3168194267446476,
        "smoothness": 0.8200925753871335,
        "time": 0.090042811,
        "traj_len": 2.847232386220586,
        "weighted_distance": 3.733486116848191
    },
    "planner": "TRRT",
    "start": {
        "state": {
            "elbow_joint": 2.6216224122426386,
            "shoulder_lift_joint": -1.4174107377796124,
            "shoulder_pan_joint": 0.7066234856936794,
            "wrist_1_joint": 1.9546482284002225,
            "wrist_2_joint": -0.7096286983471962,
            "wrist_3_joint": 0.005740856962016249
        }
    },
    "waypoints": [
        {
            "positions": [
                0.7066234856936794,
                -1.4174107377796124,
                2.6216224122426386,
                1.9546482284002225,
                -0.7096286983471962,
                0.005740856962016249
            ]
        },
        {
            "positions": [
                0.6313068878070052,
                -1.3886466007060783,
                2.548425973178407,
                1.8568092342063147,
                -0.7012256803157477,
                -0.0840536312435341
            ]
        },
        {
            "positions": [
                0.5559902899203308,
                -1.3598824636325444,
                2.475229534114176,
                1.758970240012407,
                -0.6928226622842991,
                -0.17384811944908443
            ]
        },
        {
            "positions": [
                0.4806736920336566,
                -1.3311183265590105,
                2.402033095049945,
                1.6611312458184992,
                -0.6844196442528505,
                -0.26364260765463476
            ]
        },
        {
            "positions": [
                0.40535709414698234,
                -1.3023541894854764,
                2.3288366559857137,
                1.5632922516245915,
                -0.676016626221402,
                -0.3534370958601851
            ]
        },
        {
            "positions": [
                0.4147173695610635,
                -1.3251411928071528,
                2.270483904536258,
                1.4826276324410932,
                -0.7287799561945281,
                -0.4275725341631309
            ]
        },
        {
            "positions": [
                0.42407764497514466,
                -1.347928196128829,
                2.212131153086802,
                1.4019630132575946,
                -0.7815432861676542,
                -0.5017079724660767
            ]
        },
        {
            "positions": [
                0.4334379203892258,
                -1.3707151994505051,
                2.153778401637347,
                1.321298394074096,
                -0.8343066161407804,
                -0.5758434107690226
            ]
        },
        {
            "positions": [
                0.4427981958033069,
                -1.3935022027721815,
                2.095425650187891,
                1.2406337748905978,
                -0.8870699461139064,
                -0.6499788490719683
            ]
        },
        {
            "positions": [
                0.34580311643832584,
                -1.3412443516570494,
                2.0646602558469618,
                1.3050533390056898,
                -0.9826409266086427,
                -0.6027574404497782
            ]
        },
        {
            "positions": [
                0.24880803707334476,
                -1.2889865005419172,
                2.0338948615060324,
                1.3694729031207817,
                -1.0782119071033789,
                -0.5555360318275879
            ]
        },
        {
            "positions": [
                0.15181295770836367,
                -1.236728649426785,
                2.0031294671651034,
                1.4338924672358737,
                -1.173782887598115,
                -0.5083146232053978
            ]
        },
        {
            "positions": [
                0.05481787834338259,
                -1.184470798311653,
                1.972364072824174,
                1.4983120313509657,
                -1.2693538680928513,
                -0.4610932145832076
            ]
        },
        {
            "positions": [
                -0.0421772010215985,
                -1.1322129471965208,
                1.9415986784832446,
                1.5627315954660579,
                -1.3649248485875876,
                -0.41387180596101736
            ]
        },
        {
            "positions": [
                -0.13917228038657958,
                -1.0799550960813886,
                1.9108332841423155,
                1.6271511595811499,
                -1.460495829082324,
                -0.3666503973388272
            ]
        },
        {
            "positions": [
                -0.23616735975156067,
                -1.0276972449662565,
                1.880067889801386,
                1.6915707236962418,
                -1.55606680957706,
                -0.319428988716637
            ]
        },
        {
            "positions": [
                -0.33316243911654175,
                -0.9754393938511242,
                1.8493024954604569,
                1.7559902878113338,
                -1.6516377900717965,
                -0.27220758009444684
            ]
        },
        {
            "positions": [
                -0.43015751848152295,
                -0.923181542735992,
                1.8185371011195275,
                1.820409851926426,
                -1.7472087705665327,
                -0.22498617147225658
            ]
        },
        {
            "positions": [
                -0.5271525978465039,
                -0.8709236916208598,
                1.787771706778598,
                1.884829416041518,
                -1.842779751061269,
                -0.17776476285006643
            ]
        },
        {
            "positions": [
                -0.6241476772114849,
                -0.8186658405057278,
                1.757006312437669,
                1.94924898015661,
                -1.9383507315560051,
                -0.13054335422787622
            ]
        },
        {
            "positions": [
                -0.7211427565764661,
                -0.7664079893905956,
                1.7262409180967395,
                2.013668544271702,
                -2.0339217120507413,
                -0.08332194560568607
            ]
        },
        {
            "positions": [
                -0.8181378359414473,
                -0.7141501382754634,
                1.6954755237558103,
                2.078088108386794,
                -2.129492692545478,
                -0.0361005369834958
            ]
        },
        {
            "positions": [
                -0.9151329153064283,
                -0.6618922871603312,
                1.664710129414881,
                2.142507672501886,
                -2.225063673040214,
                0.011120871638694338
            ]
        }
    ]
}