{
    "goal": {
        "global_pose": {
            "orientation": {
                "w": 0.5084816217422485,
                "x": -0.49083608388900757,
                "y": 0.5182115435600281,
                "z": -0.4816462993621826
            },
            "position": {
                "x": 0.5540239810943604,
                "y": 0.030875300988554955,
                "z": 0.16403168439865112
            }
        },
        "name": "move_to_storage_A"
    },
    "id": "TRRT_move_to_storage_A_34",
    "joint_names": [
        "shoulder_pan_joint",
        "shoulder_lift_joint",
        "elbow_joint",
        "wrist_1_joint",
        "wrist_2_joint",
        "wrist_3_joint"
    ],
    "metrics": {
        "cart_traj_len": 0.3522460588801849,
        "distance_elbow_joint": 0.44885363444997783,
        "distance_shoulder_lift_joint": 0.2350782458063263,
        "distance_shoulder_pan_joint": 0.4607481895470908,
        "distance_wrist_1_joint": 0.23573954372832018,
        "distance_wrist_2_joint": 1.0970224930651635,
        "distance_wrist_3_joint": 0.08751709251749151,
        "smoothness": 0.0,
        "time": 0.023169183,
        "traj_len": 1.6015489999105148,
        "weighted_distance": 2.0181068903660275
    },
    "planner": "TRRT",
    "start": {
        "state": {
            "elbow_joint": 1.971548259319323,
            "shoulder_lift_joint": -1.1394851275133948,
            "shoulder_pan_joint": 0.1228115487234821,
            "wrist_1_joint": -0.7804723859257726,
            "wrist_2_joint": 0.12958671773740124,
            "wrist_3_joint": -3.192489227718131
        }
    },
    "waypoints": [
        {
            "positions": [
                0.1228115487234821,
                -1.1394851275133948,
                1.971548259319323,
                -0.7804723859257726,
                0.12958671773740124,
                -3.192489227718131
            ]
        },
        {
            "positions": [
                0.056990378788183416,
                -1.1730677340571558,
                2.0356702070978914,
                -0.814149463601247,
                0.2863042167467103,
                -3.179986785929918
            ]
        },
        {
            "positions": [
                -0.008830791147115269,
                -1.2066503406009166,
                2.0997921548764595,
                -0.8478265412767212,
                0.44302171575601934,
                -3.167484344141705
            ]
        },
        {
            "positions": [
                -0.07465196108241395,
                -1.2402329471446776,
                2.1639141026550277,
                -0.8815036189521955,
                0.5997392147653284,
                -3.1549819023534917
            ]
        },
        {
            "positions": [
                -0.14047313101771264,
                -1.2738155536884384,
                2.228036050433596,
                -0.9151806966276699,
                0.7564567137746375,
                -3.142479460565279
            ]
        },
        {
            "positions": [
                -0.20629430095301132,
                -1.3073981602321993,
                2.2921579982121645,
                -0.9488577743031441,
                0.9131742127839466,
                -3.129977018777066
            ]
        },
        {
            "positions": [
                -0.27211547088831,
                -1.3409807667759601,
                2.3562799459907326,
                -0.9825348519786185,
                1.0698917117932556,
                -3.1174745769888528
            ]
        },
        {
            "positions": [
                -0.3379366408236087,
                -1.3745633733197211,
                2.420401893769301,
                -1.0162119296540928,
                1.2266092108025648,
                -3.1049721352006396
            ]
        }
    ]
}{
    "goal": {
        "global_pose": {
            "orientation": {
                "w": 0.5084816217422485,
                "x": -0.49083608388900757,
                "y": 0.5182115435600281,
                "z": -0.4816462993621826
            },
            "position": {
                "x": 0.5540239810943604,
                "y": 0.030875300988554955,
                "z": 0.16403168439865112
            }
        },
        "name": "move_to_storage_A"
    },
    "id": "TRRT_move_to_storage_A_34",
    "joint_names": [
        "shoulder_pan_joint",
        "shoulder_lift_joint",
        "elbow_joint",
        "wrist_1_joint",
        "wrist_2_joint",
        "wrist_3_joint"
    ],
    "metrics": {
        "cart_traj_len": 0.3529438196977574,
        "distance_elbow_joint": 0.4510008674606749,
        "distance_shoulder_lift_joint": 0.23599945862850213,
        "distance_shoulder_pan_joint": 0.4629786867768341,
        "distance_wrist_1_joint": 0.24499308348308002,
        "distance_wrist_2_joint": 1.093144455916516,
        "distance_wrist_3_joint": 0.09540400976799601,
        "smoothness": 1.1102230334162426e-15,
        "time": 0.025070696000000003,
        "traj_len": 1.6073333699122916,
        "weighted_distance": 2.027921625943466
    },
    "planner": "TRRT",
    "start": {
        "state": {
            "elbow_joint": 1.97154746011099,
            "shoulder_lift_joint": -1.13948474672311,
            "shoulder_pan_joint": 0.12281154466712228,
            "wrist_1_joint": -0.7804688027058302,
            "wrist_2_joint": 0.12958655903071145,
            "wrist_3_joint": 3.0906928834467795
        }
    },
    "waypoints": [
        {
            "positions": [
                0.12281154466712228,
                -1.13948474672311,
                1.97154746011099,
                -0.7804688027058302,
                0.12958655903071145,
                3.0906928834467795
            ]
        },
        {
            "positions": [
                0.05667173227043169,
                -1.1731989550986102,
                2.035976155462515,
                -0.8154678146319845,
                0.28575005273307086,
                3.10432202769935
            ]
        },
        {
            "positions": [
                -0.009468080126258896,
                -1.2069131634741106,
                2.10040485081404,
                -0.8504668265581388,
                0.44191354643543024,
                3.1179511719519213
            ]
        },
        {
            "positions": [
                -0.07560789252294949,
                -1.2406273718496108,
                2.164833546165565,
                -0.885465838484293,
                0.5980770401377897,
                3.131580316204492
            ]
        },
        {
            "positions": [
                -0.14174770491964006,
                -1.2743415802251112,
                2.2292622415170897,
                -0.9204648504104473,
                0.7542405338401491,
                3.145209460457063
            ]
        },
        {
            "positions": [
                -0.20788751731633065,
                -1.3080557886006114,
                2.293690936868615,
                -0.9554638623366016,
                0.9104040275425086,
                3.1588386047096337
            ]
        },
        {
            "positions": [
                -0.27402732971302124,
                -1.3417699969761117,
                2.3581196322201396,
                -0.9904628742627559,
                1.066567521244868,
                3.172467748962205
            ]
        },
        {
            "positions": [
                -0.34016714210971183,
                -1.375484205351612,
                2.422548327571665,
                -1.0254618861889102,
                1.2227310149472275,
                3.1860968932147755
            ]
        }
    ]
}{
    "goal": {
        "global_pose": {
            "orientation": {
                "w": 0.5084816217422485,
                "x": -0.49083608388900757,
                "y": 0.5182115435600281,
                "z": -0.4816462993621826
            },
            "position": {
                "x": 0.5540239810943604,
                "y": 0.030875300988554955,
                "z": 0.16403168439865112
            }
        },
        "name": "move_to_storage_A"
    },
    "id": "TRRT_move_to_storage_A_34",
    "joint_names": [
        "shoulder_pan_joint",
        "shoulder_lift_joint",
        "elbow_joint",
        "wrist_1_joint",
        "wrist_2_joint",
        "wrist_3_joint"
    ],
    "metrics": {
        "cart_traj_len": 0.3532729138383015,
        "distance_elbow_joint": 0.44796855874491515,
        "distance_shoulder_lift_joint": 0.23392293310174028,
        "distance_shoulder_pan_joint": 0.46368511702238807,
        "distance_wrist_1_joint": 0.23919685561054105,
        "distance_wrist_2_joint": 1.0908301692824813,
        "distance_wrist_3_joint": 0.09194654122037083,
        "smoothness": 1.3322676292611541e-15,
        "time": 0.040388635,
        "traj_len": 1.6023576925837866,
        "weighted_distance": 2.0202649039955625
    },
    "planner": "TRRT",
    "start": {
        "state": {
            "elbow_joint": 1.9715472970024885,
            "shoulder_lift_joint": -1.1394870060712896,
            "shoulder_pan_joint": 0.12281152778156021,
            "wrist_1_joint": -0.780463741449964,
            "wrist_2_joint": 0.12958659822042276,
            "wrist_3_joint": 3.090690232415272
        }
    },
    "waypoints": [
        {
            "positions": [
                0.12281152778156021,
                -1.1394870060712896,
                1.9715472970024885,
                -0.780463741449964,
                0.12958659822042276,
                3.090690232415272
            ]
        },
        {
            "positions": [
                0.05657079677836192,
                -1.1729045679429668,
                2.0355428053946194,
                -0.8146347208228985,
                0.2854194795464915,
                3.1038254525896107
            ]
        },
        {
            "positions": [
                -0.009669934224836363,
                -1.206322129814644,
                2.09953831378675,
                -0.8488057001958329,
                0.44125236087256026,
                3.116960672763949
            ]
        },
        {
            "positions": [
                -0.07591066522803464,
                -1.2397396916863213,
                2.1635338221788807,
                -0.8829766795687672,
                0.597085242198629,
                3.130095892938288
            ]
        },
        {
            "positions": [
                -0.14215139623123293,
                -1.2731572535579982,
                2.2275293305710115,
                -0.9171476589417017,
                0.7529181235246978,
                3.1432311131126265
            ]
        },
        {
            "positions": [
                -0.20839212723443126,
                -1.3065748154296755,
                2.2915248389631424,
                -0.9513186383146361,
                0.9087510048507665,
                3.1563663332869654
            ]
        },
        {
            "positions": [
                -0.2746328582376295,
                -1.3399923773013527,
                2.355520347355273,
                -0.9854896176875706,
                1.0645838861768353,
                3.169501553461304
            ]
        },
        {
            "positions": [
                -0.34087358924082783,
                -1.37340993917303,
                2.4195158557474037,
                -1.019660597060505,
                1.220416767502904,
                3.1826367736356427
            ]
        }
    ]
}