{
    "goal": {
        "global_pose": {
            "orientation": {
                "w": 0.5084816217422485,
                "x": -0.49083608388900757,
                "y": 0.5182115435600281,
                "z": -0.4816462993621826
            },
            "position": {
                "x": 0.5540239810943604,
                "y": 0.030875300988554955,
                "z": 0.16403168439865112
            }
        },
        "name": "move_to_storage_A"
    },
    "id": "TRRT_move_to_storage_A_115",
    "joint_names": [
        "shoulder_pan_joint",
        "shoulder_lift_joint",
        "elbow_joint",
        "wrist_1_joint",
        "wrist_2_joint",
        "wrist_3_joint"
    ],
    "metrics": {
        "cart_traj_len": 0.3535047349068561,
        "distance_elbow_joint": 0.4498121725756421,
        "distance_shoulder_lift_joint": 0.23485082140172886,
        "distance_shoulder_pan_joint": 0.46033457998882177,
        "distance_wrist_1_joint": 0.23946106611899343,
        "distance_wrist_2_joint": 1.108327827152166,
        "distance_wrist_3_joint": 0.08982943009848787,
        "smoothness": 4.440892133664971e-16,
        "time": 0.017074129,
        "traj_len": 1.607051927392466,
        "weighted_distance": 2.0273291915236595
    },
    "planner": "TRRT",
    "start": {
        "state": {
            "elbow_joint": 1.971548259319323,
            "shoulder_lift_joint": -1.1394851275133948,
            "shoulder_pan_joint": 0.1228115487234821,
            "wrist_1_joint": -0.7804723859257726,
            "wrist_2_joint": 0.12958671773740124,
            "wrist_3_joint": -3.192489227718131
        }
    },
    "waypoints": [
        {
            "positions": [
                0.1228115487234821,
                -1.1394851275133948,
                1.971548259319323,
                -0.7804723859257726,
                0.12958671773740124,
                -3.192489227718131
            ]
        },
        {
            "positions": [
                0.05704946586793613,
                -1.173035244856499,
                2.035807141115843,
                -0.8146811096570574,
                0.287919264473425,
                -3.179656451989776
            ]
        },
        {
            "positions": [
                -0.008712616987609834,
                -1.206585362199603,
                2.1000660229123636,
                -0.8488898333883421,
                0.4462518112094487,
                -3.16682367626142
            ]
        },
        {
            "positions": [
                -0.0744746998431558,
                -1.240135479542707,
                2.164324904708884,
                -0.8830985571196269,
                0.6045843579454724,
                -3.153990900533065
            ]
        },
        {
            "positions": [
                -0.14023678269870177,
                -1.2736855968858114,
                2.2285837865054043,
                -0.9173072808509117,
                0.7629169046814961,
                -3.1411581248047096
            ]
        },
        {
            "positions": [
                -0.20599886555424773,
                -1.3072357142289155,
                2.2928426683019243,
                -0.9515160045821964,
                0.9212494514175198,
                -3.1283253490763543
            ]
        },
        {
            "positions": [
                -0.2717609484097937,
                -1.3407858315720196,
                2.3571015500984447,
                -0.9857247283134812,
                1.0795819981535435,
                -3.1154925733479986
            ]
        },
        {
            "positions": [
                -0.33752303126533967,
                -1.3743359489151237,
                2.421360431894965,
                -1.019933452044766,
                1.2379145448895672,
                -3.1026597976196433
            ]
        }
    ]
}{
    "goal": {
        "global_pose": {
            "orientation": {
                "w": 0.5084816217422485,
                "x": -0.49083608388900757,
                "y": 0.5182115435600281,
                "z": -0.4816462993621826
            },
            "position": {
                "x": 0.5540239810943604,
                "y": 0.030875300988554955,
                "z": 0.16403168439865112
            }
        },
        "name": "move_to_storage_A"
    },
    "id": "TRRT_move_to_storage_A_115",
    "joint_names": [
        "shoulder_pan_joint",
        "shoulder_lift_joint",
        "elbow_joint",
        "wrist_1_joint",
        "wrist_2_joint",
        "wrist_3_joint"
    ],
    "metrics": {
        "cart_traj_len": 0.35356286119981983,
        "distance_elbow_joint": 0.4482313724008078,
        "distance_shoulder_lift_joint": 0.2353874240495284,
        "distance_shoulder_pan_joint": 0.46184296802673575,
        "distance_wrist_1_joint": 0.23433939627664535,
        "distance_wrist_2_joint": 1.10212642559627,
        "distance_wrist_3_joint": 0.08555296371121601,
        "smoothness": 4.440892098500626e-16,
        "time": 0.02895126,
        "traj_len": 1.602335966662798,
        "weighted_distance": 2.018675877736827
    },
    "planner": "TRRT",
    "start": {
        "state": {
            "elbow_joint": 1.97154746011099,
            "shoulder_lift_joint": -1.13948474672311,
            "shoulder_pan_joint": 0.12281154466712228,
            "wrist_1_joint": -0.7804688027058302,
            "wrist_2_joint": 0.12958655903071145,
            "wrist_3_joint": 3.0906928834467795
        }
    },
    "waypoints": [
        {
            "positions": [
                0.12281154466712228,
                -1.13948474672311,
                1.97154746011099,
                -0.7804688027058302,
                0.12958655903071145,
                3.0906928834467795
            ]
        },
        {
            "positions": [
                0.056833977806160035,
                -1.1731115215873282,
                2.035580513311105,
                -0.8139458593167795,
                0.28703319125875004,
                3.1029147354055246
            ]
        },
        {
            "positions": [
                -0.009143589054802212,
                -1.2067382964515467,
                2.0996135665112208,
                -0.8474229159277289,
                0.4444798234867886,
                3.11513658736427
            ]
        },
        {
            "positions": [
                -0.07512115591576445,
                -1.240365071315765,
                2.163646619711336,
                -0.8808999725386781,
                0.6019264557148272,
                3.127358439323015
            ]
        },
        {
            "positions": [
                -0.1410987227767267,
                -1.2739918461799833,
                2.2276796729114516,
                -0.9143770291496275,
                0.7593730879428657,
                3.13958029128176
            ]
        },
        {
            "positions": [
                -0.20707628963768898,
                -1.3076186210442016,
                2.291712726111567,
                -0.9478540857605768,
                0.9168197201709043,
                3.1518021432405052
            ]
        },
        {
            "positions": [
                -0.27305385649865116,
                -1.34124539590842,
                2.3557457793116825,
                -0.9813311423715262,
                1.0742663523989429,
                3.1640239951992504
            ]
        },
        {
            "positions": [
                -0.33903142335961345,
                -1.3748721707726383,
                2.4197788325117977,
                -1.0148081989824755,
                1.2317129846269814,
                3.1762458471579955
            ]
        }
    ]
}{
    "goal": {
        "global_pose": {
            "orientation": {
                "w": 0.5084816217422485,
                "x": -0.49083608388900757,
                "y": 0.5182115435600281,
                "z": -0.4816462993621826
            },
            "position": {
                "x": 0.5540239810943604,
                "y": 0.030875300988554955,
                "z": 0.16403168439865112
            }
        },
        "name": "move_to_storage_A"
    },
    "id": "TRRT_move_to_storage_A_115",
    "joint_names": [
        "shoulder_pan_joint",
        "shoulder_lift_joint",
        "elbow_joint",
        "wrist_1_joint",
        "wrist_2_joint",
        "wrist_3_joint"
    ],
    "metrics": {
        "cart_traj_len": 0.3535681852663459,
        "distance_elbow_joint": 0.45017004325091836,
        "distance_shoulder_lift_joint": 0.23386795642827352,
        "distance_shoulder_pan_joint": 0.462908658765306,
        "distance_wrist_1_joint": 0.24363976455592895,
        "distance_wrist_2_joint": 1.097126504015047,
        "distance_wrist_3_joint": 0.10610394684956015,
        "smoothness": 0.0,
        "time": 0.018700712,
        "traj_len": 1.6105331023810203,
        "weighted_distance": 2.0363671172298794
    },
    "planner": "TRRT",
    "start": {
        "state": {
            "elbow_joint": 1.9715472970024885,
            "shoulder_lift_joint": -1.1394870060712896,
            "shoulder_pan_joint": 0.12281152778156021,
            "wrist_1_joint": -0.780463741449964,
            "wrist_2_joint": 0.12958659822042276,
            "wrist_3_joint": 3.090690232415272
        }
    },
    "waypoints": [
        {
            "positions": [
                0.12281152778156021,
                -1.1394870060712896,
                1.9715472970024885,
                -0.780463741449964,
                0.12958659822042276,
                3.090690232415272
            ]
        },
        {
            "positions": [
                0.056681719386516505,
                -1.1728967141324715,
                2.0358573031811913,
                -0.815269422100811,
                0.2863189559368581,
                3.1058479391080662
            ]
        },
        {
            "positions": [
                -0.0094480890085272,
                -1.2063064221936535,
                2.1001673093598936,
                -0.850075102751658,
                0.4430513136532933,
                3.1210056458008606
            ]
        },
        {
            "positions": [
                -0.0755778974035709,
                -1.2397161302548354,
                2.1644773155385963,
                -0.884880783402505,
                0.5997836713697287,
                3.136163352493655
            ]
        },
        {
            "positions": [
                -0.1417077057986146,
                -1.2731258383160173,
                2.228787321717299,
                -0.919686464053352,
                0.7565160290861639,
                3.151321059186449
            ]
        },
        {
            "positions": [
                -0.20783751419365834,
                -1.3065355463771993,
                2.293097327896002,
                -0.954492144704199,
                0.9132483868025992,
                3.1664787658792433
            ]
        },
        {
            "positions": [
                -0.27396732258870204,
                -1.3399452544383812,
                2.357407334074704,
                -0.989297825355046,
                1.0699807445190346,
                3.1816364725720376
            ]
        },
        {
            "positions": [
                -0.3400971309837458,
                -1.3733549624995631,
                2.421717340253407,
                -1.024103506005893,
                1.2267131022354698,
                3.196794179264832
            ]
        }
    ]
}