{
    "goal": {
        "global_pose": {
            "orientation": {
                "w": 0.5084816217422485,
                "x": -0.49083608388900757,
                "y": 0.5182115435600281,
                "z": -0.4816462993621826
            },
            "position": {
                "x": 0.5540239810943604,
                "y": 0.030875300988554955,
                "z": 0.16403168439865112
            }
        },
        "name": "move_to_storage_A"
    },
    "id": "TRRT_move_to_storage_A_10",
    "joint_names": [
        "shoulder_pan_joint",
        "shoulder_lift_joint",
        "elbow_joint",
        "wrist_1_joint",
        "wrist_2_joint",
        "wrist_3_joint"
    ],
    "metrics": {
        "cart_traj_len": 0.35248293607754366,
        "distance_elbow_joint": 0.44772613261090055,
        "distance_shoulder_lift_joint": 0.23518271151397463,
        "distance_shoulder_pan_joint": 0.46065200031522985,
        "distance_wrist_1_joint": 0.23559268953570844,
        "distance_wrist_2_joint": 1.0986846806677735,
        "distance_wrist_3_joint": 0.09896328286096479,
        "smoothness": 8.881784232165597e-16,
        "time": 0.037800832,
        "traj_len": 1.6052418813077833,
        "weighted_distance": 2.0270681866750224
    },
    "planner": "TRRT",
    "start": {
        "state": {
            "elbow_joint": 1.971548259319323,
            "shoulder_lift_joint": -1.1394851275133948,
            "shoulder_pan_joint": 0.1228115487234821,
            "wrist_1_joint": -0.7804723859257726,
            "wrist_2_joint": 0.12958671773740124,
            "wrist_3_joint": -3.192489227718131
        }
    },
    "waypoints": [
        {
            "positions": [
                0.1228115487234821,
                -1.1394851275133948,
                1.971548259319323,
                -0.7804723859257726,
                0.12958671773740124,
                -3.192489227718131
            ]
        },
        {
            "positions": [
                0.0570041201070207,
                -1.173082657729677,
                2.0355091354065946,
                -0.8141284844308738,
                0.2865416721185117,
                -3.1783516158808505
            ]
        },
        {
            "positions": [
                -0.008803308509440694,
                -1.206680187945959,
                2.099470011493866,
                -0.847784582935975,
                0.4434966264996222,
                -3.16421400404357
            ]
        },
        {
            "positions": [
                -0.0746107371259021,
                -1.240277718162241,
                2.1634308875811374,
                -0.8814406814410762,
                0.6004515808807327,
                -3.150076392206289
            ]
        },
        {
            "positions": [
                -0.1404181657423635,
                -1.2738752483785232,
                2.227391763668409,
                -0.9150967799461774,
                0.7574065352618432,
                -3.1359387803690084
            ]
        },
        {
            "positions": [
                -0.20622559435882493,
                -1.3074727785948053,
                2.2913526397556807,
                -0.9487528784512786,
                0.9143614896429537,
                -3.1218011685317277
            ]
        },
        {
            "positions": [
                -0.2720330229752863,
                -1.3410703088110874,
                2.355313515842952,
                -0.9824089769563799,
                1.0713164440240641,
                -3.107663556694447
            ]
        },
        {
            "positions": [
                -0.33784045159174775,
                -1.3746678390273694,
                2.4192743919302235,
                -1.016065075461481,
                1.2282713984051747,
                -3.0935259448571664
            ]
        }
    ]
}{
    "goal": {
        "global_pose": {
            "orientation": {
                "w": 0.5084816217422485,
                "x": -0.49083608388900757,
                "y": 0.5182115435600281,
                "z": -0.4816462993621826
            },
            "position": {
                "x": 0.5540239810943604,
                "y": 0.030875300988554955,
                "z": 0.16403168439865112
            }
        },
        "name": "move_to_storage_A"
    },
    "id": "TRRT_move_to_storage_A_10",
    "joint_names": [
        "shoulder_pan_joint",
        "shoulder_lift_joint",
        "elbow_joint",
        "wrist_1_joint",
        "wrist_2_joint",
        "wrist_3_joint"
    ],
    "metrics": {
        "cart_traj_len": 0.35348853293716664,
        "distance_elbow_joint": 0.45068880278852586,
        "distance_shoulder_lift_joint": 0.23522154624379188,
        "distance_shoulder_pan_joint": 0.4640610837851249,
        "distance_wrist_1_joint": 0.24398060505551067,
        "distance_wrist_2_joint": 1.092243247687256,
        "distance_wrist_3_joint": 0.09448076881733103,
        "smoothness": 4.440892098500626e-16,
        "time": 0.016585692,
        "traj_len": 1.6064482731720746,
        "weighted_distance": 2.026292536815691
    },
    "planner": "TRRT",
    "start": {
        "state": {
            "elbow_joint": 1.97154746011099,
            "shoulder_lift_joint": -1.13948474672311,
            "shoulder_pan_joint": 0.12281154466712228,
            "wrist_1_joint": -0.7804688027058302,
            "wrist_2_joint": 0.12958655903071145,
            "wrist_3_joint": 3.0906928834467795
        }
    },
    "waypoints": [
        {
            "positions": [
                0.12281154466712228,
                -1.13948474672311,
                1.97154746011099,
                -0.7804688027058302,
                0.12958655903071145,
                3.0906928834467795
            ]
        },
        {
            "positions": [
                0.05651710412639016,
                -1.1730878247579373,
                2.035931574795065,
                -0.8153231748566174,
                0.28562130870031943,
                3.1041901361349695
            ]
        },
        {
            "positions": [
                -0.009777336414341961,
                -1.2066909027927648,
                2.10031568947914,
                -0.8501775470074047,
                0.4416560583699274,
                3.11768738882316
            ]
        },
        {
            "positions": [
                -0.0760717769550741,
                -1.2402939808275921,
                2.1646998041632153,
                -0.8850319191581919,
                0.5976908080395353,
                3.13118464151135
            ]
        },
        {
            "positions": [
                -0.1423662174958062,
                -1.2738970588624197,
                2.2290839188472904,
                -0.9198862913089791,
                0.7537255577091434,
                3.14468189419954
            ]
        },
        {
            "positions": [
                -0.20866065803653833,
                -1.307500136897247,
                2.2934680335313655,
                -0.9547406634597664,
                0.9097603073787515,
                3.15817914688773
            ]
        },
        {
            "positions": [
                -0.27495509857727046,
                -1.3411032149320743,
                2.3578521482154406,
                -0.9895950356105536,
                1.0657950570483592,
                3.1716763995759205
            ]
        },
        {
            "positions": [
                -0.3412495391180026,
                -1.3747062929669018,
                2.4222362628995158,
                -1.0244494077613409,
                1.2218298067179674,
                3.1851736522641105
            ]
        }
    ]
}{
    "goal": {
        "global_pose": {
            "orientation": {
                "w": 0.5084816217422485,
                "x": -0.49083608388900757,
                "y": 0.5182115435600281,
                "z": -0.4816462993621826
            },
            "position": {
                "x": 0.5540239810943604,
                "y": 0.030875300988554955,
                "z": 0.16403168439865112
            }
        },
        "name": "move_to_storage_A"
    },
    "id": "TRRT_move_to_storage_A_10",
    "joint_names": [
        "shoulder_pan_joint",
        "shoulder_lift_joint",
        "elbow_joint",
        "wrist_1_joint",
        "wrist_2_joint",
        "wrist_3_joint"
    ],
    "metrics": {
        "cart_traj_len": 0.3529195362929801,
        "distance_elbow_joint": 0.4487247054181154,
        "distance_shoulder_lift_joint": 0.2346564853420423,
        "distance_shoulder_pan_joint": 0.4609886284832325,
        "distance_wrist_1_joint": 0.24020695675018233,
        "distance_wrist_2_joint": 1.1003985626495227,
        "distance_wrist_3_joint": 0.10328688864470603,
        "smoothness": 4.440892098500626e-16,
        "time": 0.017908399,
        "traj_len": 1.6088077036388784,
        "weighted_distance": 2.033578502044344
    },
    "planner": "TRRT",
    "start": {
        "state": {
            "elbow_joint": 1.9715472970024885,
            "shoulder_lift_joint": -1.1394870060712896,
            "shoulder_pan_joint": 0.12281152778156021,
            "wrist_1_joint": -0.780463741449964,
            "wrist_2_joint": 0.12958659822042276,
            "wrist_3_joint": 3.090690232415272
        }
    },
    "waypoints": [
        {
            "positions": [
                0.12281152778156021,
                -1.1394870060712896,
                1.9715472970024885,
                -0.780463741449964,
                0.12958659822042276,
                3.090690232415272
            ]
        },
        {
            "positions": [
                0.05695600942681271,
                -1.1730093611201529,
                2.0356508263479336,
                -0.8147790209857043,
                0.28678639288464025,
                3.1054455022216585
            ]
        },
        {
            "positions": [
                -0.008899508927934785,
                -1.2065317161690159,
                2.0997543556933786,
                -0.8490943005214446,
                0.44398618754885777,
                3.120200772028045
            ]
        },
        {
            "positions": [
                -0.0747550272826823,
                -1.2400540712178791,
                2.1638578850388237,
                -0.883409580057185,
                0.6011859822130753,
                3.1349560418344318
            ]
        },
        {
            "positions": [
                -0.14061054563742978,
                -1.2735764262667424,
                2.2279614143842688,
                -0.9177248595929253,
                0.7583857768772928,
                3.149711311640818
            ]
        },
        {
            "positions": [
                -0.2064660639921773,
                -1.3070987813156056,
                2.292064943729714,
                -0.9520401391286657,
                0.9155855715415104,
                3.1644665814472046
            ]
        },
        {
            "positions": [
                -0.27232158234692483,
                -1.3406211363644687,
                2.356168473075159,
                -0.986355418664406,
                1.0727853662057278,
                3.1792218512535912
            ]
        },
        {
            "positions": [
                -0.3381771007016723,
                -1.374143491413332,
                2.420272002420604,
                -1.0206706982001463,
                1.2299851608699455,
                3.193977121059978
            ]
        }
    ]
}