{
    "goal": {
        "global_pose": {
            "orientation": {
                "w": -0.4816463035849501,
                "x": 0.5182115481033762,
                "y": 0.4908360881923453,
                "z": -0.5084816262002911
            },
            "position": {
                "x": -0.8240239810943604,
                "y": -0.300875300988555,
                "z": 0.16403168439865112
            }
        },
        "name": "move_to_storage_C"
    },
    "id": "TRRT_move_to_storage_C_55",
    "joint_names": [
        "shoulder_pan_joint",
        "shoulder_lift_joint",
        "elbow_joint",
        "wrist_1_joint",
        "wrist_2_joint",
        "wrist_3_joint"
    ],
    "metrics": {
        "cart_traj_len": 0.5756344683601486,
        "distance_elbow_joint": 0.25530207387279247,
        "distance_shoulder_lift_joint": 0.1881763109630773,
        "distance_shoulder_pan_joint": 0.4946113160057197,
        "distance_wrist_1_joint": 0.07258022633517747,
        "distance_wrist_2_joint": 1.063247010227371,
        "distance_wrist_3_joint": 0.05798275723158808,
        "smoothness": 2.5376526478085547e-16,
        "time": 0.015994454,
        "traj_len": 1.4601026315419496,
        "weighted_distance": 1.8394815698074962
    },
    "planner": "TRRT",
    "start": {
        "state": {
            "elbow_joint": 2.010868314990456,
            "shoulder_lift_joint": -1.1634956873337592,
            "shoulder_pan_joint": -2.4736205022346125,
            "wrist_1_joint": -0.8367026794202681,
            "wrist_2_joint": 0.6746043897044499,
            "wrist_3_joint": -3.1496632123970403
        }
    },
    "waypoints": [
        {
            "positions": [
                -2.4736205022346125,
                -1.1634956873337592,
                2.010868314990456,
                -0.8367026794202681,
                0.6746043897044499,
                -3.1496632123970403
            ]
        },
        {
            "positions": [
                -2.556055721568899,
                -1.1321329688399129,
                1.9683179693449904,
                -0.8246059750310719,
                0.8518122247423451,
                -3.139999419525109
            ]
        },
        {
            "positions": [
                -2.6384909409031856,
                -1.1007702503460668,
                1.925767623699525,
                -0.8125092706418756,
                1.0290200597802404,
                -3.1303356266531774
            ]
        },
        {
            "positions": [
                -2.7209261602374726,
                -1.0694075318522205,
                1.8832172780540595,
                -0.8004125662526793,
                1.2062278948181353,
                -3.1206718337812465
            ]
        },
        {
            "positions": [
                -2.803361379571759,
                -1.0380448133583744,
                1.8406669324085942,
                -0.7883158618634831,
                1.3834357298560307,
                -3.111008040909315
            ]
        },
        {
            "positions": [
                -2.8857965989060457,
                -1.006682094864528,
                1.7981165867631288,
                -0.7762191574742869,
                1.5606435648939256,
                -3.1013442480373836
            ]
        },
        {
            "positions": [
                -2.968231818240332,
                -0.9753193763706819,
                1.7555662411176634,
                -0.7641224530850906,
                1.7378513999318208,
                -3.091680455165452
            ]
        }
    ]
}