{
    "goal": {
        "global_pose": {
            "orientation": {
                "w": -0.4816463035849501,
                "x": 0.5182115481033762,
                "y": 0.4908360881923453,
                "z": -0.5084816262002911
            },
            "position": {
                "x": -0.8240239810943604,
                "y": 0.19912469901144506,
                "z": 0.16403168439865112
            }
        },
        "name": "move_to_storage_D"
    },
    "id": "TRRT_move_to_storage_D_126",
    "joint_names": [
        "shoulder_pan_joint",
        "shoulder_lift_joint",
        "elbow_joint",
        "wrist_1_joint",
        "wrist_2_joint",
        "wrist_3_joint"
    ],
    "metrics": {
        "cart_traj_len": 3.8902484406935653,
        "distance_elbow_joint": 4.212834685941189,
        "distance_shoulder_lift_joint": 1.264497634196379,
        "distance_shoulder_pan_joint": 2.811412582007177,
        "distance_wrist_1_joint": 2.3756245668945386,
        "distance_wrist_2_joint": 0.8719439987217844,
        "distance_wrist_3_joint": 3.2544917770805655,
        "smoothness": 0.22632932050005064,
        "time": 0.127135456,
        "traj_len": 3.8458815952706646,
        "weighted_distance": 4.954528975050915
    },
    "planner": "TRRT",
    "start": {
        "state": {
            "elbow_joint": -2.384821988534728,
            "shoulder_lift_joint": -2.2788054721415256,
            "shoulder_pan_joint": -0.1854694642142757,
            "wrist_1_joint": 1.4845938289331202,
            "wrist_2_joint": 0.17898776772866878,
            "wrist_3_joint": 0.037105688729662994
        }
    },
    "waypoints": [
        {
            "positions": [
                -0.1854694642142757,
                -2.2788054721415256,
                -2.384821988534728,
                1.4845938289331202,
                0.17898776772866878,
                0.037105688729662994
            ]
        },
        {
            "positions": [
                -0.11752791563212332,
                -2.206723816733919,
                -2.3794665292328276,
                1.480128856848809,
                0.1763411084725609,
                0.10260327046524119
            ]
        },
        {
            "positions": [
                -0.04552012559154674,
                -2.1774658253638655,
                -2.2716527411469007,
                1.409659066067232,
                0.19767590239264038,
                0.014231685460672647
            ]
        },
        {
            "positions": [
                0.02648766444902985,
                -2.148207833993812,
                -2.163838953060974,
                1.339189275285655,
                0.21901069631271985,
                -0.0741398995438959
            ]
        },
        {
            "positions": [
                0.09849545448960643,
                -2.1189498426237585,
                -2.056025164975047,
                1.268719484504078,
                0.24034549023279933,
                -0.16251148454846442
            ]
        },
        {
            "positions": [
                0.170503244530183,
                -2.089691851253705,
                -1.9482113768891205,
                1.198249693722501,
                0.2616802841528788,
                -0.25088306955303297
            ]
        },
        {
            "positions": [
                0.24251103457075962,
                -2.0604338598836516,
                -1.8403975888031936,
                1.1277799029409241,
                0.2830150780729583,
                -0.3392546545576015
            ]
        },
        {
            "positions": [
                0.3145188246113362,
                -2.031175868513598,
                -1.7325838007172667,
                1.057310112159347,
                0.30434987199303776,
                -0.42762623956217005
            ]
        },
        {
            "positions": [
                0.3865266146519128,
                -2.001917877143545,
                -1.6247700126313398,
                0.98684032137777,
                0.32568466591311723,
                -0.5159978245667386
            ]
        },
        {
            "positions": [
                0.45853440469248935,
                -1.9726598857734914,
                -1.5169562245454131,
                0.916370530596193,
                0.3470194598331967,
                -0.6043694095713071
            ]
        },
        {
            "positions": [
                0.530542194733066,
                -1.9434018944034381,
                -1.4091424364594864,
                0.8459007398146161,
                0.36835425375327613,
                -0.6927409945758756
            ]
        },
        {
            "positions": [
                0.6025499847736426,
                -1.9141439030333847,
                -1.3013286483735595,
                0.7754309490330391,
                0.38968904767335566,
                -0.7811125795804442
            ]
        },
        {
            "positions": [
                0.6745577748142192,
                -1.8848859116633312,
                -1.1935148602876327,
                0.7049611582514621,
                0.4110238415934351,
                -0.8694841645850127
            ]
        },
        {
            "positions": [
                0.7465655648547957,
                -1.8556279202932777,
                -1.0857010722017058,
                0.6344913674698851,
                0.4323586355135146,
                -0.9578557495895813
            ]
        },
        {
            "positions": [
                0.8185733548953723,
                -1.8263699289232243,
                -0.9778872841157791,
                0.5640215766883082,
                0.45369342943359403,
                -1.0462273345941497
            ]
        },
        {
            "positions": [
                0.890581144935949,
                -1.7971119375531708,
                -0.8700734960298522,
                0.4935517859067311,
                0.47502822335367356,
                -1.1345989195987185
            ]
        },
        {
            "positions": [
                0.9625889349765254,
                -1.7678539461831173,
                -0.7622597079439255,
                0.4230819951251543,
                0.496363017273753,
                -1.2229705046032868
            ]
        },
        {
            "positions": [
                1.034596725017102,
                -1.7385959548130638,
                -0.6544459198579986,
                0.3526122043435771,
                0.5176978111938325,
                -1.3113420896078556
            ]
        },
        {
            "positions": [
                1.1066045150576787,
                -1.7093379634430106,
                -0.5466321317720717,
                0.2821424135620003,
                0.5390326051139119,
                -1.399713674612424
            ]
        },
        {
            "positions": [
                1.178612305098255,
                -1.6800799720729571,
                -0.43881834368614503,
                0.21167262278042331,
                0.5603673990339915,
                -1.4880852596169925
            ]
        },
        {
            "positions": [
                1.250620095138832,
                -1.6508219807029034,
                -0.3310045556002179,
                0.1412028319988461,
                0.5817021929540709,
                -1.5764568446215612
            ]
        },
        {
            "positions": [
                1.3226278851794084,
                -1.6215639893328502,
                -0.22319076751429145,
                0.07073304121726931,
                0.6030369868741504,
                -1.6648284296261298
            ]
        },
        {
            "positions": [
                1.3946356752199849,
                -1.5923059979627967,
                -0.11537697942836456,
                0.0002632504356923082,
                0.6243717807942298,
                -1.753200014630698
            ]
        },
        {
            "positions": [
                1.4666434652605616,
                -1.5630480065927435,
                -0.0075631913424376584,
                -0.0702065403458847,
                0.6457065747143094,
                -1.8415715996352666
            ]
        },
        {
            "positions": [
                1.5386512553011382,
                -1.53379001522269,
                0.10025059674348924,
                -0.1406763311274617,
                0.6670413686343888,
                -1.9299431846398352
            ]
        },
        {
            "positions": [
                1.6106590453417147,
                -1.5045320238526365,
                0.20806438482941614,
                -0.2111461219090387,
                0.6883761625544683,
                -2.018314769644404
            ]
        },
        {
            "positions": [
                1.6826668353822913,
                -1.475274032482583,
                0.3158781729153426,
                -0.2816159126906157,
                0.7097109564745477,
                -2.1066863546489722
            ]
        },
        {
            "positions": [
                1.7546746254228678,
                -1.4460160411125296,
                0.4236919610012695,
                -0.3520857034721925,
                0.7310457503946272,
                -2.1950579396535406
            ]
        },
        {
            "positions": [
                1.8266824154634447,
                -1.416758049742476,
                0.5315057490871964,
                -0.4225554942537697,
                0.7523805443147067,
                -2.2834295246581093
            ]
        },
        {
            "positions": [
                1.8986902055040211,
                -1.3875000583724226,
                0.6393195371731233,
                -0.4930252850353467,
                0.7737153382347862,
                -2.371801109662678
            ]
        },
        {
            "positions": [
                1.9706979955445978,
                -1.3582420670023692,
                0.7471333252590502,
                -0.5634950758169235,
                0.7950501321548656,
                -2.4601726946672464
            ]
        },
        {
            "positions": [
                2.042705785585174,
                -1.3289840756323157,
                0.8549471133449766,
                -0.6339648665985003,
                0.8163849260749451,
                -2.5485442796718147
            ]
        },
        {
            "positions": [
                2.114713575625751,
                -1.2997260842622622,
                0.962760901430904,
                -0.7044346573800775,
                0.8377197199950246,
                -2.6369158646763835
            ]
        },
        {
            "positions": [
                2.1867213656663274,
                -1.2704680928922087,
                1.0705746895168304,
                -0.7749044481616547,
                0.8590545139151041,
                -2.7252874496809523
            ]
        },
        {
            "positions": [
                2.258729155706904,
                -1.2412101015221555,
                1.1783884776027573,
                -0.8453742389432315,
                0.8803893078351835,
                -2.8136590346855206
            ]
        },
        {
            "positions": [
                2.3321719481241034,
                -1.1958296488067537,
                1.308313321563498,
                -0.8362429391395942,
                0.9134391358557943,
                -2.8682054127243655
            ]
        },
        {
            "positions": [
                2.405614740541303,
                -1.1504491960913519,
                1.438238165524239,
                -0.8271116393359569,
                0.9464889638764051,
                -2.922751790763211
            ]
        },
        {
            "positions": [
                2.4790575329585027,
                -1.1050687433759503,
                1.5681630094849799,
                -0.8179803395323196,
                0.9795387918970159,
                -2.9772981688020557
            ]
        },
        {
            "positions": [
                2.552500325375702,
                -1.0596882906605485,
                1.6980878534457209,
                -0.8088490397286823,
                1.0125886199176266,
                -3.031844546840901
            ]
        },
        {
            "positions": [
                2.6259431177929016,
                -1.0143078379451467,
                1.8280126974064617,
                -0.799717739925045,
                1.0456384479382375,
                -3.086390924879746
            ]
        }
    ]
}