{
    "goal": {
        "global_pose": {
            "orientation": {
                "w": 0.5084816262002911,
                "x": -0.4908360881923452,
                "y": 0.5182115481033761,
                "z": -0.48164630358495003
            },
            "position": {
                "x": 0.5540239810943604,
                "y": -0.46912469901144505,
                "z": 0.16403168439865112
            }
        },
        "name": "move_to_storage_B"
    },
    "id": "TRRT_move_to_storage_B_117",
    "joint_names": [
        "shoulder_pan_joint",
        "shoulder_lift_joint",
        "elbow_joint",
        "wrist_1_joint",
        "wrist_2_joint",
        "wrist_3_joint"
    ],
    "metrics": {
        "cart_traj_len": 1.3668291788671745,
        "distance_elbow_joint": 1.605389707665362,
        "distance_shoulder_lift_joint": 0.4573664553362531,
        "distance_shoulder_pan_joint": 0.6837899995749149,
        "distance_wrist_1_joint": 3.1800988601181817,
        "distance_wrist_2_joint": 2.7192408608594256,
        "distance_wrist_3_joint": 3.1670615299350815,
        "smoothness": 0.41616861643001746,
        "time": 0.073761799,
        "traj_len": 3.4369968596856784,
        "weighted_distance": 4.903713918484335
    },
    "planner": "TRRT",
    "start": {
        "state": {
            "elbow_joint": 1.664937868594044,
            "shoulder_lift_joint": -0.661644460510453,
            "shoulder_pan_joint": -0.9139846352900073,
            "wrist_1_joint": 2.146753192139373,
            "wrist_2_joint": -2.2341966793290973,
            "wrist_3_joint": 0.005466555786416001
        }
    },
    "waypoints": [
        {
            "positions": [
                -0.9139846352900073,
                -0.661644460510453,
                1.664937868594044,
                2.146753192139373,
                -2.2341966793290973,
                0.005466555786416001
            ]
        },
        {
            "positions": [
                -0.8213250103763299,
                -0.7873776159917747,
                1.6875813967784596,
                2.1977047124440907,
                -2.239121270038853,
                -0.003558711823294868
            ]
        },
        {
            "positions": [
                -0.7286653854626526,
                -0.9131107714730963,
                1.7102249249628751,
                2.248656232748808,
                -2.2440458607486087,
                -0.012583979433005738
            ]
        },
        {
            "positions": [
                -0.7204686814172724,
                -0.9264596451305193,
                1.631531344257905,
                2.1449024629342386,
                -2.1214535365057294,
                0.02890270772112062
            ]
        },
        {
            "positions": [
                -0.7122719773718922,
                -0.9398085187879422,
                1.5528377635529345,
                2.0411486931196694,
                -1.9988612122628502,
                0.07038939487524698
            ]
        },
        {
            "positions": [
                -0.704075273326512,
                -0.9531573924453652,
                1.4741441828479642,
                1.9373949233050998,
                -1.8762688880199712,
                0.11187608202937334
            ]
        },
        {
            "positions": [
                -0.6958785692811318,
                -0.9665062661027881,
                1.395450602142994,
                1.8336411534905301,
                -1.753676563777092,
                0.1533627691834997
            ]
        },
        {
            "positions": [
                -0.6876818652357516,
                -0.9798551397602111,
                1.3167570214380235,
                1.7298873836759607,
                -1.6310842395342127,
                0.19484945633762604
            ]
        },
        {
            "positions": [
                -0.6794851611903714,
                -0.9932040134176341,
                1.2380634407330533,
                1.6261336138613913,
                -1.5084919152913336,
                0.23633614349175242
            ]
        },
        {
            "positions": [
                -0.6712884571449912,
                -1.006552887075057,
                1.1593698600280828,
                1.5223798440468217,
                -1.3858995910484544,
                0.27782283064587876
            ]
        },
        {
            "positions": [
                -0.663091753099611,
                -1.01990176073248,
                1.0806762793231126,
                1.4186260742322523,
                -1.2633072668055751,
                0.31930951780000516
            ]
        },
        {
            "positions": [
                -0.6837059015464928,
                -1.0246212443093479,
                1.1249883748305778,
                1.3115705665659574,
                -1.1809904532104856,
                0.4534579700610837
            ]
        },
        {
            "positions": [
                -0.7043200499933747,
                -1.029340727886216,
                1.169300470338043,
                1.2045150588996627,
                -1.0986736396153962,
                0.5876064223221622
            ]
        },
        {
            "positions": [
                -0.7249341984402565,
                -1.0340602114630837,
                1.2136125658455081,
                1.0974595512333678,
                -1.0163568260203066,
                0.7217548745832407
            ]
        },
        {
            "positions": [
                -0.7455483468871383,
                -1.0387796950399517,
                1.2579246613529733,
                0.990404043567073,
                -0.9340400124252172,
                0.8559033268443192
            ]
        },
        {
            "positions": [
                -0.7661624953340201,
                -1.0434991786168195,
                1.3022367568604385,
                0.8833485359007782,
                -0.8517231988301277,
                0.9900517791053978
            ]
        },
        {
            "positions": [
                -0.7867766437809021,
                -1.0482186621936875,
                1.3465488523679034,
                0.7762930282344833,
                -0.7694063852350381,
                1.1242002313664763
            ]
        },
        {
            "positions": [
                -0.8073907922277839,
                -1.0529381457705553,
                1.3908609478753686,
                0.6692375205681885,
                -0.6870895716399487,
                1.2583486836275548
            ]
        },
        {
            "positions": [
                -0.8280049406746657,
                -1.0576576293474234,
                1.4351730433828338,
                0.5621820129018937,
                -0.6047727580448592,
                1.3924971358886333
            ]
        },
        {
            "positions": [
                -0.8486190891215475,
                -1.0623771129242912,
                1.479485138890299,
                0.45512650523559883,
                -0.5224559444497696,
                1.5266455881497119
            ]
        },
        {
            "positions": [
                -0.8692332375684294,
                -1.0670965965011592,
                1.5237972343977642,
                0.34807099756930415,
                -0.44013913085468015,
                1.6607940404107904
            ]
        },
        {
            "positions": [
                -0.8898473860153112,
                -1.071816080078027,
                1.5681093299052293,
                0.24101548990300903,
                -0.35782231725959057,
                1.794942492671869
            ]
        },
        {
            "positions": [
                -0.910461534462193,
                -1.076535563654895,
                1.6124214254126943,
                0.13395998223671435,
                -0.2755055036645011,
                1.9290909449329474
            ]
        },
        {
            "positions": [
                -0.9310756829090749,
                -1.0812550472317628,
                1.6567335209201597,
                0.026904474570419445,
                -0.19318869006941153,
                2.063239397194026
            ]
        },
        {
            "positions": [
                -0.9516898313559568,
                -1.0859745308086308,
                1.7010456164276246,
                -0.08015103309587523,
                -0.11087187647432217,
                2.1973878494551045
            ]
        },
        {
            "positions": [
                -0.9723039798028386,
                -1.0906940143854986,
                1.7453577119350898,
                -0.18720654076217014,
                -0.028555062879232596,
                2.331536301716183
            ]
        },
        {
            "positions": [
                -0.9929181282497204,
                -1.0954134979623666,
                1.789669807442555,
                -0.2942620484284648,
                0.05376175071585676,
                2.4656847539772615
            ]
        },
        {
            "positions": [
                -1.0135322766966022,
                -1.1001329815392344,
                1.8339819029500202,
                -0.4013175560947597,
                0.13607856431094634,
                2.59983320623834
            ]
        },
        {
            "positions": [
                -1.0341464251434842,
                -1.1048524651161025,
                1.8782939984574853,
                -0.5083730637610546,
                0.21839537790603591,
                2.7339816584994185
            ]
        },
        {
            "positions": [
                -1.054760573590366,
                -1.1095719486929703,
                1.9226060939649505,
                -0.6154285714273493,
                0.3007121915011255,
                2.868130110760497
            ]
        },
        {
            "positions": [
                -1.0753747220372478,
                -1.1142914322698383,
                1.9669181894724157,
                -0.722484079093644,
                0.38302900509621485,
                3.0022785630215756
            ]
        },
        {
            "positions": [
                -1.0959888704841296,
                -1.119010915846706,
                2.011230284979881,
                -0.8295395867599391,
                0.46534581869130437,
                3.136427015282654
            ]
        }
    ]
}