{
    "goal": {
        "global_pose": {
            "orientation": {
                "w": -0.4816463035849501,
                "x": 0.5182115481033762,
                "y": 0.4908360881923453,
                "z": -0.5084816262002911
            },
            "position": {
                "x": -0.8240239810943604,
                "y": 0.19912469901144506,
                "z": 0.16403168439865112
            }
        },
        "name": "move_to_storage_D"
    },
    "id": "TRRT_move_to_storage_D_73",
    "joint_names": [
        "shoulder_pan_joint",
        "shoulder_lift_joint",
        "elbow_joint",
        "wrist_1_joint",
        "wrist_2_joint",
        "wrist_3_joint"
    ],
    "metrics": {
        "cart_traj_len": 3.790236462180007,
        "distance_elbow_joint": 4.255232209546014,
        "distance_shoulder_lift_joint": 1.2649481208522018,
        "distance_shoulder_pan_joint": 2.8142832535557636,
        "distance_wrist_1_joint": 2.392077843644808,
        "distance_wrist_2_joint": 1.3447168765052686,
        "distance_wrist_3_joint": 3.150337562042325,
        "smoothness": 0.149620975237473,
        "time": 0.195639818,
        "traj_len": 3.9014863662643227,
        "weighted_distance": 5.025839801503934
    },
    "planner": "TRRT",
    "start": {
        "state": {
            "elbow_joint": -2.384821988534728,
            "shoulder_lift_joint": -2.2788054721415256,
            "shoulder_pan_joint": -0.1854694642142757,
            "wrist_1_joint": 1.4845938289331202,
            "wrist_2_joint": 0.17898776772866878,
            "wrist_3_joint": 0.037105688729662994
        }
    },
    "waypoints": [
        {
            "positions": [
                -0.1854694642142757,
                -2.2788054721415256,
                -2.384821988534728,
                1.4845938289331202,
                0.17898776772866878,
                0.037105688729662994
            ]
        },
        {
            "positions": [
                -0.13389460055049746,
                -2.188358921548912,
                -2.3953791342137025,
                1.393345824428502,
                0.10200872173118838,
                0.09696958183865857
            ]
        },
        {
            "positions": [
                -0.08231973688671922,
                -2.0979123709562986,
                -2.4059362798926776,
                1.302097819923884,
                0.02502967573370797,
                0.15683347494765415
            ]
        },
        {
            "positions": [
                -0.016588178566210837,
                -2.082082273612248,
                -2.2812027337343963,
                1.2367773858262454,
                0.05870778714321576,
                0.2371599297798258
            ]
        },
        {
            "positions": [
                0.04914337975429754,
                -2.0662521762681973,
                -2.156469187576115,
                1.171456951728607,
                0.09238589855272356,
                0.3174863846119975
            ]
        },
        {
            "positions": [
                0.11487493807480594,
                -2.050422078924147,
                -2.031735641417834,
                1.1061365176309685,
                0.12606400996223133,
                0.3978128394441692
            ]
        },
        {
            "positions": [
                0.1806064963953143,
                -2.034591981580096,
                -1.907002095259553,
                1.04081608353333,
                0.15974212137173915,
                0.47813929427634083
            ]
        },
        {
            "positions": [
                0.2463380547158227,
                -2.0187618842360457,
                -1.7822685491012717,
                0.9754956494356917,
                0.19342023278124693,
                0.5584657491085125
            ]
        },
        {
            "positions": [
                0.3120696130363311,
                -2.002931786891995,
                -1.6575350029429905,
                0.9101752153380531,
                0.2270983441907547,
                0.6387922039406841
            ]
        },
        {
            "positions": [
                0.37780117135683944,
                -1.9871016895479445,
                -1.5328014567847092,
                0.8448547812404147,
                0.2607764556002625,
                0.719118658772856
            ]
        },
        {
            "positions": [
                0.4435327296773478,
                -1.971271592203894,
                -1.4080679106264282,
                0.7795343471427763,
                0.2944545670097703,
                0.7994451136050276
            ]
        },
        {
            "positions": [
                0.5092642879978562,
                -1.9554414948598433,
                -1.2833343644681472,
                0.7142139130451378,
                0.32813267841927807,
                0.8797715684371992
            ]
        },
        {
            "positions": [
                0.5749958463183646,
                -1.939611397515793,
                -1.1586008183098657,
                0.6488934789474993,
                0.3618107898287859,
                0.960098023269371
            ]
        },
        {
            "positions": [
                0.6407274046388729,
                -1.9237813001717423,
                -1.0338672721515847,
                0.5835730448498608,
                0.3954889012382936,
                1.0404244781015426
            ]
        },
        {
            "positions": [
                0.7064589629593814,
                -1.9079512028276917,
                -0.9091337259933034,
                0.5182526107522224,
                0.42916701264780144,
                1.1207509329337142
            ]
        },
        {
            "positions": [
                0.7721905212798897,
                -1.892121105483641,
                -0.7844001798350224,
                0.45293217665458396,
                0.4628451240573092,
                1.2010773877658858
            ]
        },
        {
            "positions": [
                0.8379220796003981,
                -1.8762910081395905,
                -0.6596666336767412,
                0.3876117425569454,
                0.49652323546681704,
                1.2814038425980576
            ]
        },
        {
            "positions": [
                0.9036536379209065,
                -1.8604609107955399,
                -0.5349330875184601,
                0.322291308459307,
                0.5302013468763248,
                1.3617302974302292
            ]
        },
        {
            "positions": [
                0.9693851962414148,
                -1.8446308134514893,
                -0.4101995413601789,
                0.25697087436166854,
                0.5638794582858326,
                1.4420567522624008
            ]
        },
        {
            "positions": [
                1.0351167545619233,
                -1.8288007161074389,
                -0.28546599520189764,
                0.19165044026403,
                0.5975575696953404,
                1.5223832070945726
            ]
        },
        {
            "positions": [
                1.1008483128824316,
                -1.8129706187633883,
                -0.16073244904361683,
                0.12633000616639167,
                0.6312356811048482,
                1.6027096619267442
            ]
        },
        {
            "positions": [
                1.16657987120294,
                -1.7971405214193377,
                -0.03599890288533514,
                0.061009572068752904,
                0.664913792514356,
                1.683036116758916
            ]
        },
        {
            "positions": [
                1.2323114295234485,
                -1.781310424075287,
                0.08873464327294611,
                -0.0043108620288854205,
                0.6985919039238638,
                1.7633625715910877
            ]
        },
        {
            "positions": [
                1.2980429878439568,
                -1.7654803267312364,
                0.21346818943122692,
                -0.06963129612652375,
                0.7322700153333715,
                1.8436890264232593
            ]
        },
        {
            "positions": [
                1.363774546164465,
                -1.749650229387186,
                0.33820173558950817,
                -0.1349517302241623,
                0.7659481267428793,
                1.9240154812554309
            ]
        },
        {
            "positions": [
                1.4295061044849737,
                -1.7338201320431352,
                0.4629352817477894,
                -0.20027216432180084,
                0.7996262381523872,
                2.0043419360876027
            ]
        },
        {
            "positions": [
                1.495237662805482,
                -1.7179900346990848,
                0.5876688279060707,
                -0.26559259841943916,
                0.8333043495618949,
                2.0846683909197745
            ]
        },
        {
            "positions": [
                1.5609692211259902,
                -1.7021599373550342,
                0.7124023740643515,
                -0.3309130325170777,
                0.8669824609714027,
                2.1649948457519463
            ]
        },
        {
            "positions": [
                1.6267007794464987,
                -1.6863298400109836,
                0.8371359202226327,
                -0.39623346661471603,
                0.9006605723809105,
                2.2453213005841177
            ]
        },
        {
            "positions": [
                1.6924323377670072,
                -1.670499742666933,
                0.9618694663809144,
                -0.4615539007123548,
                0.9343386837904184,
                2.3256477554162895
            ]
        },
        {
            "positions": [
                1.7581638960875154,
                -1.6546696453228824,
                1.0866030125391952,
                -0.5268743348099931,
                0.9680167951999261,
                2.4059742102484614
            ]
        },
        {
            "positions": [
                1.823895454408024,
                -1.638839547978832,
                1.2113365586974765,
                -0.5921947689076315,
                1.0016949066094338,
                2.4863006650806327
            ]
        },
        {
            "positions": [
                1.8896270127285322,
                -1.6230094506347812,
                1.3360701048557573,
                -0.65751520300527,
                1.0353730180189418,
                2.5666271199128046
            ]
        },
        {
            "positions": [
                1.9553585710490409,
                -1.6071793532907308,
                1.460803651014039,
                -0.7228356371029088,
                1.0690511294284497,
                2.6469535747449764
            ]
        },
        {
            "positions": [
                2.021090129369549,
                -1.5913492559466802,
                1.5855371971723198,
                -0.7881560712005469,
                1.1027292408379574,
                2.7272800295771478
            ]
        },
        {
            "positions": [
                2.0868216876900574,
                -1.5755191586026296,
                1.7102707433306006,
                -0.8534765052981852,
                1.1364073522474651,
                2.8076064844093196
            ]
        },
        {
            "positions": [
                2.1952201080203433,
                -1.4631867971399684,
                1.733852922323558,
                -0.8426750034154847,
                1.120531130648155,
                2.8835738376818534
            ]
        },
        {
            "positions": [
                2.3036185283506296,
                -1.3508544356773073,
                1.7574351013165153,
                -0.8318735015327843,
                1.104654909048845,
                2.959541190954387
            ]
        },
        {
            "positions": [
                2.4120169486809155,
                -1.238522074214646,
                1.7810172803094724,
                -0.8210719996500839,
                1.0887786874495347,
                3.0355085442269205
            ]
        },
        {
            "positions": [
                2.520415369011202,
                -1.126189712751985,
                1.8045994593024297,
                -0.8102704977673835,
                1.0729024658502246,
                3.1114758974994543
            ]
        },
        {
            "positions": [
                2.628813789341488,
                -1.0138573512893239,
                1.828181638295387,
                -0.799468995884683,
                1.0570262442509144,
                3.187443250771988
            ]
        }
    ]
}