{
    "goal": {
        "global_pose": {
            "orientation": {
                "w": -0.4816463035849501,
                "x": 0.5182115481033762,
                "y": 0.4908360881923453,
                "z": -0.5084816262002911
            },
            "position": {
                "x": -0.8240239810943604,
                "y": 0.19912469901144506,
                "z": 0.16403168439865112
            }
        },
        "name": "move_to_storage_D"
    },
    "id": "TRRT_move_to_storage_D_148",
    "joint_names": [
        "shoulder_pan_joint",
        "shoulder_lift_joint",
        "elbow_joint",
        "wrist_1_joint",
        "wrist_2_joint",
        "wrist_3_joint"
    ],
    "metrics": {
        "cart_traj_len": 3.8826252468035527,
        "distance_elbow_joint": 4.2096443327907,
        "distance_shoulder_lift_joint": 1.2645298953791821,
        "distance_shoulder_pan_joint": 2.8143421926512096,
        "distance_wrist_1_joint": 2.946272248899234,
        "distance_wrist_2_joint": 0.8865750537553384,
        "distance_wrist_3_joint": 3.1324121698854333,
        "smoothness": 0.010831082045439672,
        "time": 0.12717912,
        "traj_len": 3.9056082616362207,
        "weighted_distance": 5.035022098837952
    },
    "planner": "TRRT",
    "start": {
        "state": {
            "elbow_joint": -2.384821988534728,
            "shoulder_lift_joint": -2.2788054721415256,
            "shoulder_pan_joint": -0.1854694642142757,
            "wrist_1_joint": 1.4845938289331202,
            "wrist_2_joint": 0.17898776772866878,
            "wrist_3_joint": 0.037105688729662994
        }
    },
    "waypoints": [
        {
            "positions": [
                -0.1854694642142757,
                -2.2788054721415256,
                -2.384821988534728,
                1.4845938289331202,
                0.17898776772866878,
                0.037105688729662994
            ]
        },
        {
            "positions": [
                -0.10038708561809627,
                -2.242290354673149,
                -2.257571750093826,
                1.3919602157925173,
                0.18849425211234547,
                0.0718601954274001
            ]
        },
        {
            "positions": [
                -0.01530470702191683,
                -2.2057752372047728,
                -2.130321511652924,
                1.2993266026519144,
                0.19800073649602215,
                0.1066147021251372
            ]
        },
        {
            "positions": [
                0.0697776715742626,
                -2.1692601197363963,
                -2.003071273212022,
                1.2066929895113112,
                0.20750722087969883,
                0.1413692088228743
            ]
        },
        {
            "positions": [
                0.15486005017044205,
                -2.13274500226802,
                -1.8758210347711204,
                1.1140593763707083,
                0.21701370526337552,
                0.1761237155206114
            ]
        },
        {
            "positions": [
                0.2399424287666215,
                -2.0962298847996435,
                -1.7485707963302184,
                1.0214257632301051,
                0.2265201896470522,
                0.2108782222183485
            ]
        },
        {
            "positions": [
                0.3250248073628009,
                -2.0597147673312675,
                -1.6213205578893166,
                0.9287921500895023,
                0.23602667403072888,
                0.2456327289160856
            ]
        },
        {
            "positions": [
                0.41010718595898044,
                -2.023199649862891,
                -1.4940703194484146,
                0.8361585369488993,
                0.24553315841440557,
                0.2803872356138227
            ]
        },
        {
            "positions": [
                0.49518956455515983,
                -1.9866845323945146,
                -1.3668200810075128,
                0.7435249238082964,
                0.2550396427980822,
                0.3151417423115598
            ]
        },
        {
            "positions": [
                0.5802719431513393,
                -1.9501694149261382,
                -1.2395698425666106,
                0.6508913106676932,
                0.26454612718175896,
                0.34989624900929694
            ]
        },
        {
            "positions": [
                0.6653543217475187,
                -1.9136542974577617,
                -1.1123196041257088,
                0.5582576975270903,
                0.2740526115654356,
                0.384650755707034
            ]
        },
        {
            "positions": [
                0.7504367003436982,
                -1.8771391799893853,
                -0.9850693656848071,
                0.4656240843864874,
                0.2835590959491123,
                0.41940526240477105
            ]
        },
        {
            "positions": [
                0.8355190789398775,
                -1.8406240625210089,
                -0.8578191272439053,
                0.37299047124588447,
                0.29306558033278896,
                0.4541597691025082
            ]
        },
        {
            "positions": [
                0.9206014575360572,
                -1.8041089450526324,
                -0.7305688888030031,
                0.2803568581052813,
                0.3025720647164657,
                0.48891427580024527
            ]
        },
        {
            "positions": [
                1.0056838361322364,
                -1.767593827584256,
                -0.6033186503621013,
                0.1877232449646784,
                0.3120785491001423,
                0.5236687824979824
            ]
        },
        {
            "positions": [
                1.0907662147284158,
                -1.7310787101158798,
                -0.47606841192119953,
                0.09508963182407548,
                0.32158503348381906,
                0.5584232891957195
            ]
        },
        {
            "positions": [
                1.1758485933245952,
                -1.6945635926475033,
                -0.34881817348029776,
                0.0024560186834725606,
                0.3310915178674957,
                0.5931777958934566
            ]
        },
        {
            "positions": [
                1.2609309719207746,
                -1.6580484751791271,
                -0.22156793503939598,
                -0.09017759445713036,
                0.3405980022511724,
                0.6279323025911937
            ]
        },
        {
            "positions": [
                1.3460133505169543,
                -1.6215333577107505,
                -0.09431769659849332,
                -0.18281120759773373,
                0.35010448663484905,
                0.6626868092889309
            ]
        },
        {
            "positions": [
                1.4310957291131337,
                -1.585018240242374,
                0.03293254184240846,
                -0.27544482073833665,
                0.3596109710185258,
                0.6974413159866679
            ]
        },
        {
            "positions": [
                1.516178107709313,
                -1.5485031227739978,
                0.16018278028331023,
                -0.36807843387893957,
                0.3691174554022024,
                0.7321958226844051
            ]
        },
        {
            "positions": [
                1.6012604863054927,
                -1.5119880053056214,
                0.287433018724212,
                -0.4607120470195425,
                0.37862393978587916,
                0.7669503293821421
            ]
        },
        {
            "positions": [
                1.686342864901672,
                -1.475472887837245,
                0.4146832571651138,
                -0.5533456601601454,
                0.3881304241695558,
                0.8017048360798792
            ]
        },
        {
            "positions": [
                1.7714252434978515,
                -1.4389577703688685,
                0.5419334956060156,
                -0.6459792733007483,
                0.3976369085532325,
                0.8364593427776164
            ]
        },
        {
            "positions": [
                1.8565076220940306,
                -1.402442652900492,
                0.6691837340469173,
                -0.7386128864413513,
                0.40714339293690915,
                0.8712138494753534
            ]
        },
        {
            "positions": [
                1.9415900006902103,
                -1.3659275354321156,
                0.79643397248782,
                -0.8312464995819546,
                0.4166498773205859,
                0.9059683561730906
            ]
        },
        {
            "positions": [
                2.02667237928639,
                -1.3294124179637392,
                0.9236842109287218,
                -0.9238801127225575,
                0.4261563617042625,
                0.9407228628708276
            ]
        },
        {
            "positions": [
                2.111754757882569,
                -1.2928973004953628,
                1.0509344493696235,
                -1.0165137258631605,
                0.43566284608793926,
                0.9754773695685648
            ]
        },
        {
            "positions": [
                2.1968371364787487,
                -1.2563821830269866,
                1.178184687810525,
                -1.1091473390037636,
                0.4451693304716159,
                1.0102318762663018
            ]
        },
        {
            "positions": [
                2.257234301567274,
                -1.2272705875825713,
                1.2616950740908286,
                -1.114296853837346,
                0.5029560444619647,
                1.147497591920661
            ]
        },
        {
            "positions": [
                2.317631466655799,
                -1.198158992138156,
                1.3452054603711323,
                -1.1194463686709282,
                0.5607427584523135,
                1.28476330757502
            ]
        },
        {
            "positions": [
                2.3487555928339123,
                -1.1797706506005747,
                1.3931671487596164,
                -1.0852231635414094,
                0.6112247647554828,
                1.4732387626790278
            ]
        },
        {
            "positions": [
                2.3798797190120258,
                -1.1613823090629933,
                1.4411288371481004,
                -1.0509999584118908,
                0.6617067710586522,
                1.6617142177830353
            ]
        },
        {
            "positions": [
                2.411003845190139,
                -1.1429939675254122,
                1.4890905255365845,
                -1.016776753282372,
                0.7121887773618216,
                1.8501896728870428
            ]
        },
        {
            "positions": [
                2.4421279713682527,
                -1.124605625987831,
                1.5370522139250686,
                -0.9825535481528532,
                0.762670783664991,
                2.0386651279910506
            ]
        },
        {
            "positions": [
                2.473252097546366,
                -1.1062172844502496,
                1.5850139023135528,
                -0.9483303430233345,
                0.8131527899681603,
                2.227140583095058
            ]
        },
        {
            "positions": [
                2.50437622372448,
                -1.0878289429126684,
                1.6329755907020367,
                -0.9141071378938157,
                0.8636347962713297,
                2.4156160381990657
            ]
        },
        {
            "positions": [
                2.5355003499025934,
                -1.0694406013750872,
                1.6809372790905208,
                -0.879883932764297,
                0.914116802574499,
                2.6040914933030734
            ]
        },
        {
            "positions": [
                2.566624476080707,
                -1.051052259837506,
                1.728898967479005,
                -0.8456607276347783,
                0.9645988088776685,
                2.792566948407081
            ]
        },
        {
            "positions": [
                2.5977486022588203,
                -1.0326639182999247,
                1.7768606558674889,
                -0.8114375225052595,
                1.0150808151808377,
                2.981042403511089
            ]
        },
        {
            "positions": [
                2.6288727284369338,
                -1.0142755767623435,
                1.824822344255973,
                -0.7772143173757408,
                1.0655628214840072,
                3.1695178586150963
            ]
        }
    ]
}