{
    "goal": {
        "global_pose": {
            "orientation": {
                "w": -0.4816463035849501,
                "x": 0.5182115481033762,
                "y": 0.4908360881923453,
                "z": -0.5084816262002911
            },
            "position": {
                "x": -0.8240239810943604,
                "y": -0.300875300988555,
                "z": 0.16403168439865112
            }
        },
        "name": "move_to_storage_C"
    },
    "id": "TRRT_move_to_storage_C_51",
    "joint_names": [
        "shoulder_pan_joint",
        "shoulder_lift_joint",
        "elbow_joint",
        "wrist_1_joint",
        "wrist_2_joint",
        "wrist_3_joint"
    ],
    "metrics": {
        "cart_traj_len": 0.5768946131419554,
        "distance_elbow_joint": 0.2558450366949676,
        "distance_shoulder_lift_joint": 0.18866647941486436,
        "distance_shoulder_pan_joint": 0.4959746424263889,
        "distance_wrist_1_joint": 0.07031089895182085,
        "distance_wrist_2_joint": 1.0609756569682012,
        "distance_wrist_3_joint": 0.057893617814241516,
        "smoothness": 2.5376526478085547e-16,
        "time": 0.024681213,
        "traj_len": 1.4593376347749292,
        "weighted_distance": 1.8375908477729719
    },
    "planner": "TRRT",
    "start": {
        "state": {
            "elbow_joint": 2.010868314990456,
            "shoulder_lift_joint": -1.1634956873337592,
            "shoulder_pan_joint": -2.4736205022346125,
            "wrist_1_joint": -0.8367026794202681,
            "wrist_2_joint": 0.6746043897044499,
            "wrist_3_joint": -3.1496632123970403
        }
    },
    "waypoints": [
        {
            "positions": [
                -2.4736205022346125,
                -1.1634956873337592,
                2.010868314990456,
                -0.8367026794202681,
                0.6746043897044499,
                -3.1496632123970403
            ]
        },
        {
            "positions": [
                -2.556282942639011,
                -1.1320512740979485,
                1.9682274755412945,
                -0.8249841962616313,
                0.8514336658658168,
                -3.1400142760946665
            ]
        },
        {
            "positions": [
                -2.6389453830434086,
                -1.1006068608621378,
                1.9255866360921332,
                -0.8132657131029944,
                1.0282629420271836,
                -3.1303653397922933
            ]
        },
        {
            "positions": [
                -2.721607823447807,
                -1.069162447626327,
                1.882945796642972,
                -0.8015472299443577,
                1.2050922181885504,
                -3.1207164034899195
            ]
        },
        {
            "positions": [
                -2.8042702638522052,
                -1.0377180343905164,
                1.8403049571938108,
                -0.7898287467857209,
                1.3819214943499172,
                -3.111067467187546
            ]
        },
        {
            "positions": [
                -2.886932704256603,
                -1.0062736211547056,
                1.7976641177446495,
                -0.778110263627084,
                1.5587507705112844,
                -3.1014185308851725
            ]
        },
        {
            "positions": [
                -2.9695951446610014,
                -0.9748292079188948,
                1.7550232782954882,
                -0.7663917804684472,
                1.7355800466726512,
                -3.0917695945827988
            ]
        }
    ]
}