{
    "goal": {
        "global_pose": {
            "orientation": {
                "w": 0.7031023502349854,
                "x": -0.7110244035720825,
                "y": 0.007748599164187908,
                "z": 0.005598929710686207
            },
            "position": {
                "x": 0.11585023208521307,
                "y": 0.44412534475326537,
                "z": 0.3711530566215515
            }
        },
        "name": "move_to_auspresseinheit_A"
    },
    "id": "TRRT_move_to_auspresseinheit_A_94",
    "joint_names": [
        "shoulder_pan_joint",
        "shoulder_lift_joint",
        "elbow_joint",
        "wrist_1_joint",
        "wrist_2_joint",
        "wrist_3_joint"
    ],
    "metrics": {
        "cart_traj_len": 0.687902347395451,
        "distance_elbow_joint": 0.02577110941837235,
        "distance_shoulder_lift_joint": 0.5358456745396027,
        "distance_shoulder_pan_joint": 1.0477106775277896,
        "distance_wrist_1_joint": 0.5499355108075186,
        "distance_wrist_2_joint": 0.5117041037395759,
        "distance_wrist_3_joint": 0.031226179066021764,
        "smoothness": 6.908054391074016e-16,
        "time": 0.027157507,
        "traj_len": 1.6438349233116083,
        "weighted_distance": 1.9560892688673537
    },
    "planner": "TRRT",
    "start": {
        "state": {
            "elbow_joint": 2.4225746658250005,
            "shoulder_lift_joint": -1.3736534386056498,
            "shoulder_pan_joint": -0.3378633547517467,
            "wrist_1_joint": -1.0288598680537169,
            "wrist_2_joint": 1.233022673432363,
            "wrist_3_joint": -3.0940220416140027
        }
    },
    "waypoints": [
        {
            "positions": [
                -0.3378633547517467,
                -1.3736534386056498,
                2.4225746658250005,
                -1.0288598680537169,
                1.233022673432363,
                -3.0940220416140027
            ]
        },
        {
            "positions": [
                -0.2051528972809803,
                -1.4420687219025528,
                2.4190656601071057,
                -0.9577325611323008,
                1.1658922754178245,
                -3.0977956200694337
            ]
        },
        {
            "positions": [
                -0.07244243981021387,
                -1.5104840051994555,
                2.4155566543892104,
                -0.8866052542108847,
                1.0987618774032857,
                -3.1015691985248646
            ]
        },
        {
            "positions": [
                0.057939187287495586,
                -1.5769865231904217,
                2.41243113805878,
                -0.8186584380501036,
                1.0358546594515359,
                -3.1055157022173914
            ]
        },
        {
            "positions": [
                0.18832081438520504,
                -1.6434890411813878,
                2.4093056217283495,
                -0.7507116218893226,
                0.9729474414997862,
                -3.1094622059099177
            ]
        },
        {
            "positions": [
                0.31870244148291454,
                -1.709991559172354,
                2.4061801053979193,
                -0.6827648057285415,
                0.9100402235480365,
                -3.1134087096024445
            ]
        },
        {
            "positions": [
                0.44908406858062394,
                -1.7764940771633202,
                2.403054589067489,
                -0.6148179895677605,
                0.8471330055962867,
                -3.1173552132949713
            ]
        },
        {
            "positions": [
                0.5794656956783335,
                -1.8429965951542864,
                2.3999290727370584,
                -0.5468711734069793,
                0.7842257876445369,
                -3.1213017169874977
            ]
        },
        {
            "positions": [
                0.7098473227760429,
                -1.9094991131452526,
                2.396803556406628,
                -0.47892435724619836,
                0.7213185696927872,
                -3.1252482206800245
            ]
        }
    ]
}