{
    "goal": {
        "global_pose": {
            "orientation": {
                "w": 0.7031023502349854,
                "x": -0.7110244035720825,
                "y": 0.007748599164187908,
                "z": 0.005598929710686207
            },
            "position": {
                "x": 0.11585023208521307,
                "y": 0.44412534475326537,
                "z": 0.3711530566215515
            }
        },
        "name": "move_to_auspresseinheit_A"
    },
    "id": "TRRT_move_to_auspresseinheit_A_46",
    "joint_names": [
        "shoulder_pan_joint",
        "shoulder_lift_joint",
        "elbow_joint",
        "wrist_1_joint",
        "wrist_2_joint",
        "wrist_3_joint"
    ],
    "metrics": {
        "cart_traj_len": 2.4881844156360233,
        "distance_elbow_joint": 3.644776262832286,
        "distance_shoulder_lift_joint": 0.5352499890447049,
        "distance_shoulder_pan_joint": 1.0435441385854487,
        "distance_wrist_1_joint": 3.973903749420727,
        "distance_wrist_2_joint": 2.014013904064005,
        "distance_wrist_3_joint": 10.213686778508526,
        "smoothness": 0.7470155172643088,
        "time": 0.030404569,
        "traj_len": 4.628733608931895,
        "weighted_distance": 6.916680275461451
    },
    "planner": "TRRT",
    "start": {
        "state": {
            "elbow_joint": 2.4225746658250005,
            "shoulder_lift_joint": -1.3736534386056498,
            "shoulder_pan_joint": -0.3378633547517467,
            "wrist_1_joint": -1.0288598680537169,
            "wrist_2_joint": 1.233022673432363,
            "wrist_3_joint": -3.0940220416140027
        }
    },
    "waypoints": [
        {
            "positions": [
                -0.3378633547517467,
                -1.3736534386056498,
                2.4225746658250005,
                -1.0288598680537169,
                1.233022673432363,
                -3.0940220416140027
            ]
        },
        {
            "positions": [
                -0.313850022444354,
                -1.3848119884101746,
                2.3593750461474063,
                -0.9533708376509471,
                1.1917683616116381,
                -2.918372396122417
            ]
        },
        {
            "positions": [
                -0.28983669013696134,
                -1.3959705382146994,
                2.296175426469812,
                -0.8778818072481773,
                1.1505140497909132,
                -2.7427227506308314
            ]
        },
        {
            "positions": [
                -0.2658233578295686,
                -1.4071290880192244,
                2.2329758067922176,
                -0.8023927768454076,
                1.1092597379701883,
                -2.5670731051392455
            ]
        },
        {
            "positions": [
                -0.24181002552217593,
                -1.4182876378237492,
                2.1697761871146235,
                -0.7269037464426378,
                1.0680054261494634,
                -2.39142345964766
            ]
        },
        {
            "positions": [
                -0.21779669321478323,
                -1.429446187628274,
                2.1065765674370294,
                -0.651414716039868,
                1.0267511143287384,
                -2.215773814156074
            ]
        },
        {
            "positions": [
                -0.19378336090739054,
                -1.4406047374327988,
                2.0433769477594352,
                -0.5759256856370983,
                0.9854968025080134,
                -2.040124168664488
            ]
        },
        {
            "positions": [
                -0.16977002859999782,
                -1.4517632872373236,
                1.980177328081841,
                -0.5004366552343286,
                0.9442424906872885,
                -1.8644745231729027
            ]
        },
        {
            "positions": [
                -0.14575669629260513,
                -1.4629218370418486,
                1.916977708404247,
                -0.4249476248315588,
                0.9029881788665636,
                -1.688824877681317
            ]
        },
        {
            "positions": [
                -0.12174336398521243,
                -1.4740803868463734,
                1.8537780887266526,
                -0.349458594428789,
                0.8617338670458385,
                -1.5131752321897314
            ]
        },
        {
            "positions": [
                -0.09773003167781971,
                -1.4852389366508982,
                1.7905784690490583,
                -0.27396956402601924,
                0.8204795552251136,
                -1.3375255866981455
            ]
        },
        {
            "positions": [
                -0.07371669937042702,
                -1.496397486455423,
                1.7273788493714641,
                -0.19848053362324958,
                0.7792252434043887,
                -1.16187594120656
            ]
        },
        {
            "positions": [
                -0.049703367063034354,
                -1.507556036259948,
                1.66417922969387,
                -0.1229915032204798,
                0.7379709315836638,
                -0.9862262957149741
            ]
        },
        {
            "positions": [
                -0.025690034755641633,
                -1.5187145860644728,
                1.6009796100162759,
                -0.04750247281771003,
                0.6967166197629389,
                -0.8105766502233887
            ]
        },
        {
            "positions": [
                -0.0016767024482489123,
                -1.5298731358689976,
                1.5377799903386815,
                0.027986557585059746,
                0.6554623079422139,
                -0.6349270047318027
            ]
        },
        {
            "positions": [
                0.02233662985914381,
                -1.5410316856735224,
                1.4745803706610872,
                0.10347558798782952,
                0.614207996121489,
                -0.45927735924021684
            ]
        },
        {
            "positions": [
                0.046349962166536474,
                -1.5521902354780472,
                1.4113807509834932,
                0.1789646183905993,
                0.5729536843007641,
                -0.2836277137486314
            ]
        },
        {
            "positions": [
                0.07036329447392914,
                -1.5633487852825723,
                1.3481811313058991,
                0.25445364879336885,
                0.5316993724800392,
                -0.10797806825704592
            ]
        },
        {
            "positions": [
                0.09437662678132186,
                -1.574507335087097,
                1.2849815116283048,
                0.32994267919613884,
                0.49044506065931415,
                0.06767157723453998
            ]
        },
        {
            "positions": [
                0.11838995908871458,
                -1.5856658848916219,
                1.2217818919507106,
                0.4054317095989084,
                0.44919074883858934,
                0.24332122272612544
            ]
        },
        {
            "positions": [
                0.1424032913961073,
                -1.5968244346961467,
                1.1585822722731163,
                0.4809207400016784,
                0.4079364370178643,
                0.4189708682177118
            ]
        },
        {
            "positions": [
                0.16641662370350002,
                -1.6079829845006715,
                1.0953826525955221,
                0.5564097704044482,
                0.3666821251971394,
                0.5946205137092972
            ]
        },
        {
            "positions": [
                0.1904299560108927,
                -1.6191415343051965,
                1.032183032917928,
                0.6318988008072177,
                0.32542781337641447,
                0.7702701592008827
            ]
        },
        {
            "positions": [
                0.21444328831828535,
                -1.6303000841097213,
                0.9689834132403337,
                0.7073878312099877,
                0.28417350155568943,
                0.9459198046924691
            ]
        },
        {
            "positions": [
                0.23845662062567802,
                -1.641458633914246,
                0.9057837935627395,
                0.7828768616127573,
                0.24291918973496462,
                1.1215694501840545
            ]
        },
        {
            "positions": [
                0.2624699529330707,
                -1.6526171837187709,
                0.8425841738851454,
                0.858365892015527,
                0.20166487791423982,
                1.29721909567564
            ]
        },
        {
            "positions": [
                0.28648328524046346,
                -1.6637757335232957,
                0.779384554207551,
                0.9338549224182968,
                0.16041056609351467,
                1.4728687411672254
            ]
        },
        {
            "positions": [
                0.3104966175478561,
                -1.6749342833278207,
                0.7161849345299569,
                1.0093439528210666,
                0.11915625427278975,
                1.648518386658811
            ]
        },
        {
            "positions": [
                0.3345099498552489,
                -1.6860928331323455,
                0.6529853148523626,
                1.0848329832238364,
                0.07790194245206483,
                1.8241680321503972
            ]
        },
        {
            "positions": [
                0.3585232821626416,
                -1.6972513829368703,
                0.5897856951747684,
                1.160322013626606,
                0.03664763063133991,
                1.9998176776419823
            ]
        },
        {
            "positions": [
                0.36660417326248124,
                -1.7027412233830488,
                0.6621770646172342,
                1.0917162018225737,
                0.06625088717469292,
                1.7950369670921482
            ]
        },
        {
            "positions": [
                0.3746850643623208,
                -1.7082310638292273,
                0.7345684340597001,
                1.0231103900185412,
                0.09585414371804593,
                1.5902562565423142
            ]
        },
        {
            "positions": [
                0.3827659554621604,
                -1.7137209042754058,
                0.8069598035021659,
                0.9545045782145088,
                0.12545740026139893,
                1.3854755459924801
            ]
        },
        {
            "positions": [
                0.390846846562,
                -1.7192107447215843,
                0.8793511729446317,
                0.8858987664104765,
                0.15506065680475195,
                1.180694835442646
            ]
        },
        {
            "positions": [
                0.39892773766183964,
                -1.7247005851677628,
                0.9517425423870975,
                0.817292954606444,
                0.18466391334810495,
                0.975914124892812
            ]
        },
        {
            "positions": [
                0.4070086287616792,
                -1.7301904256139413,
                1.0241339118295634,
                0.7486871428024118,
                0.21426716989145794,
                0.7711334143429782
            ]
        },
        {
            "positions": [
                0.4150895198615188,
                -1.7356802660601198,
                1.0965252812720292,
                0.6800813309983793,
                0.243870426434811,
                0.566352703793144
            ]
        },
        {
            "positions": [
                0.42317041096135843,
                -1.7411701065062983,
                1.168916650714495,
                0.6114755191943471,
                0.273473682978164,
                0.3615719932433099
            ]
        },
        {
            "positions": [
                0.431251302061198,
                -1.7466599469524768,
                1.2413080201569606,
                0.5428697073903147,
                0.303076939521517,
                0.1567912826934761
            ]
        },
        {
            "positions": [
                0.4393321931610376,
                -1.7521497873986553,
                1.3136993895994267,
                0.47426389558628224,
                0.33268019606487,
                -0.04798942785635818
            ]
        },
        {
            "positions": [
                0.4474130842608772,
                -1.7576396278448339,
                1.3860907590418923,
                0.40565808378225,
                0.362283452608223,
                -0.2527701384061922
            ]
        },
        {
            "positions": [
                0.4554939753607168,
                -1.7631294682910124,
                1.4584821284843583,
                0.33705227197821763,
                0.391886709151576,
                -0.4575508489560258
            ]
        },
        {
            "positions": [
                0.46357486646055646,
                -1.7686193087371906,
                1.530873497926824,
                0.26844646017418516,
                0.421489965694929,
                -0.6623315595058603
            ]
        },
        {
            "positions": [
                0.471655757560396,
                -1.7741091491833694,
                1.60326486736929,
                0.1998406483701528,
                0.4510932222382821,
                -0.8671122700556944
            ]
        },
        {
            "positions": [
                0.47973664866023563,
                -1.7795989896295477,
                1.6756562368117556,
                0.13123483656612045,
                0.480696478781635,
                -1.071892980605528
            ]
        },
        {
            "positions": [
                0.48781753976007525,
                -1.7850888300757262,
                1.7480476062542214,
                0.0626290247620882,
                0.5102997353249881,
                -1.2766736911553624
            ]
        },
        {
            "positions": [
                0.4958984308599148,
                -1.7905786705219047,
                1.8204389756966874,
                -0.005976787041944265,
                0.5399029918683411,
                -1.4814544017051965
            ]
        },
        {
            "positions": [
                0.5039793219597544,
                -1.7960685109680832,
                1.892830345139153,
                -0.07458259884597651,
                0.5695062484116941,
                -1.68623511225503
            ]
        },
        {
            "positions": [
                0.512060213059594,
                -1.8015583514142617,
                1.9652217145816189,
                -0.14318841065000898,
                0.599109504955047,
                -1.8910158228048641
            ]
        },
        {
            "positions": [
                0.5201411041594336,
                -1.8070481918604402,
                2.037613084024085,
                -0.21179422245404145,
                0.6287127614984,
                -2.0957965333546986
            ]
        },
        {
            "positions": [
                0.5282219952592733,
                -1.8125380323066187,
                2.1100044534665505,
                -0.2804000342580737,
                0.658316018041753,
                -2.300577243904532
            ]
        },
        {
            "positions": [
                0.5363028863591128,
                -1.8180278727527972,
                2.182395822909016,
                -0.34900584606210594,
                0.687919274585106,
                -2.5053579544543667
            ]
        },
        {
            "positions": [
                0.5443837774589524,
                -1.8235177131989757,
                2.254787192351482,
                -0.4176116578661384,
                0.7175225311284591,
                -2.7101386650042003
            ]
        },
        {
            "positions": [
                0.552464668558792,
                -1.8290075536451542,
                2.327178561793948,
                -0.48621746967017065,
                0.747125787671812,
                -2.914919375554034
            ]
        },
        {
            "positions": [
                0.5605455596586316,
                -1.8344973940913327,
                2.399569931236414,
                -0.5548232814742031,
                0.7767290442151651,
                -3.119700086103869
            ]
        },
        {
            "positions": [
                0.7056807838337025,
                -1.9089034276503547,
                2.397366875116005,
                -0.4852467088346073,
                0.6991715965360096,
                -3.120029381610561
            ]
        }
    ]
}