{
    "goal": {
        "global_pose": {
            "orientation": {
                "w": 0.5084816262002911,
                "x": -0.4908360881923452,
                "y": 0.5182115481033761,
                "z": -0.48164630358495003
            },
            "position": {
                "x": 0.5540239810943604,
                "y": -0.46912469901144505,
                "z": 0.16403168439865112
            }
        },
        "name": "move_to_storage_B"
    },
    "id": "TRRT_move_to_storage_B_55",
    "joint_names": [
        "shoulder_pan_joint",
        "shoulder_lift_joint",
        "elbow_joint",
        "wrist_1_joint",
        "wrist_2_joint",
        "wrist_3_joint"
    ],
    "metrics": {
        "cart_traj_len": 0.8026002662830716,
        "distance_elbow_joint": 0.9796514854931195,
        "distance_shoulder_lift_joint": 0.483267588162261,
        "distance_shoulder_pan_joint": 0.5654962720497906,
        "distance_wrist_1_joint": 3.1471569011932834,
        "distance_wrist_2_joint": 2.850622767351591,
        "distance_wrist_3_joint": 3.1368637999827533,
        "smoothness": 0.9845679162299565,
        "time": 0.06936231000000001,
        "traj_len": 3.341116402377026,
        "weighted_distance": 4.840926159604501
    },
    "planner": "TRRT",
    "start": {
        "state": {
            "elbow_joint": 1.664937868594044,
            "shoulder_lift_joint": -0.661644460510453,
            "shoulder_pan_joint": -0.9139846352900073,
            "wrist_1_joint": 2.146753192139373,
            "wrist_2_joint": -2.2341966793290973,
            "wrist_3_joint": 0.005466555786416001
        }
    },
    "waypoints": [
        {
            "positions": [
                -0.9139846352900073,
                -0.661644460510453,
                1.664937868594044,
                2.146753192139373,
                -2.2341966793290973,
                0.005466555786416001
            ]
        },
        {
            "positions": [
                -0.9665717139923591,
                -0.6673758840428503,
                1.6889375920602014,
                2.078348962328812,
                -2.2718135228430265,
                0.018200635704169202
            ]
        },
        {
            "positions": [
                -1.0191587926947108,
                -0.6731073075752477,
                1.712937315526359,
                2.0099447325182505,
                -2.3094303663569553,
                0.030934715621922404
            ]
        },
        {
            "positions": [
                -0.9232030036319756,
                -0.682382650092609,
                1.6558152020136594,
                2.0510686917125445,
                -2.212894517924776,
                0.04962552613479257
            ]
        },
        {
            "positions": [
                -0.8272472145692403,
                -0.6916579926099703,
                1.5986930885009598,
                2.0921926509068385,
                -2.1163586694925964,
                0.06831633664766273
            ]
        },
        {
            "positions": [
                -0.8332778175980524,
                -0.6895642751532682,
                1.5650376116756681,
                1.9735627842549404,
                -1.9822876915739802,
                0.12730226712131468
            ]
        },
        {
            "positions": [
                -0.8393084206268645,
                -0.6874705576965662,
                1.5313821348503764,
                1.854932917603042,
                -1.8482167136553642,
                0.18628819759496662
            ]
        },
        {
            "positions": [
                -0.8453390236556766,
                -0.6853768402398641,
                1.4977266580250848,
                1.736303050951144,
                -1.714145735736748,
                0.2452741280686186
            ]
        },
        {
            "positions": [
                -0.8513696266844886,
                -0.6832831227831622,
                1.4640711811997928,
                1.6176731842992458,
                -1.580074757818132,
                0.30426005854227056
            ]
        },
        {
            "positions": [
                -0.8574002297133007,
                -0.6811894053264601,
                1.4304157043745012,
                1.4990433176473474,
                -1.4460037798995158,
                0.36324598901592253
            ]
        },
        {
            "positions": [
                -0.8634308327421127,
                -0.679095687869758,
                1.3967602275492095,
                1.3804134509954493,
                -1.3119328019808996,
                0.42223191948957445
            ]
        },
        {
            "positions": [
                -0.874489257425291,
                -0.7000810093613071,
                1.4260685585293835,
                1.2748743403634406,
                -1.2272713012214862,
                0.5517604164552694
            ]
        },
        {
            "positions": [
                -0.8855476821084693,
                -0.7210663308528563,
                1.4553768895095576,
                1.169335229731432,
                -1.142609800462073,
                0.6812889134209644
            ]
        },
        {
            "positions": [
                -0.8966061067916477,
                -0.7420516523444054,
                1.4846852204897316,
                1.0637961190994232,
                -1.0579482997026597,
                0.8108174103866594
            ]
        },
        {
            "positions": [
                -0.907664531474826,
                -0.7630369738359545,
                1.5139935514699057,
                0.9582570084674142,
                -0.9732867989432465,
                0.9403459073523543
            ]
        },
        {
            "positions": [
                -0.9187229561580043,
                -0.7840222953275037,
                1.5433018824500797,
                0.8527178978354055,
                -0.8886252981838332,
                1.0698744043180493
            ]
        },
        {
            "positions": [
                -0.9297813808411826,
                -0.8050076168190528,
                1.5726102134302538,
                0.7471787872033968,
                -0.8039637974244199,
                1.1994029012837444
            ]
        },
        {
            "positions": [
                -0.9408398055243609,
                -0.8259929383106018,
                1.6019185444104278,
                0.6416396765713881,
                -0.7193022966650067,
                1.3289313982494393
            ]
        },
        {
            "positions": [
                -0.9518982302075392,
                -0.8469782598021509,
                1.6312268753906018,
                0.5361005659393793,
                -0.6346407959055934,
                1.4584598952151344
            ]
        },
        {
            "positions": [
                -0.9629566548907174,
                -0.8679635812937001,
                1.660535206370776,
                0.43056145530737056,
                -0.5499792951461802,
                1.5879883921808293
            ]
        },
        {
            "positions": [
                -0.9740150795738958,
                -0.8889489027852492,
                1.68984353735095,
                0.32502234467536173,
                -0.4653177943867669,
                1.7175168891465242
            ]
        },
        {
            "positions": [
                -0.985073504257074,
                -0.9099342242767984,
                1.719151868331124,
                0.21948323404335301,
                -0.38065629362735354,
                1.8470453861122196
            ]
        },
        {
            "positions": [
                -0.9961319289402523,
                -0.9309195457683475,
                1.748460199311298,
                0.1139441234113443,
                -0.2959947928679403,
                1.9765738830779143
            ]
        },
        {
            "positions": [
                -1.0071903536234306,
                -0.9519048672598966,
                1.777768530291472,
                0.008405012779335364,
                -0.21133329210852692,
                2.1061023800436094
            ]
        },
        {
            "positions": [
                -1.018248778306609,
                -0.9728901887514456,
                1.8070768612716461,
                -0.09713409785267313,
                -0.12667179134911377,
                2.2356308770093043
            ]
        },
        {
            "positions": [
                -1.0293072029897872,
                -0.9938755102429948,
                1.8363851922518202,
                -0.20267320848468207,
                -0.042010290589700405,
                2.365159373974999
            ]
        },
        {
            "positions": [
                -1.0403656276729656,
                -1.014860831734544,
                1.8656935232319942,
                -0.3082123191166908,
                0.04265121016971274,
                2.494687870940694
            ]
        },
        {
            "positions": [
                -1.0514240523561438,
                -1.035846153226093,
                1.8950018542121683,
                -0.4137514297486995,
                0.1273127109291261,
                2.624216367906389
            ]
        },
        {
            "positions": [
                -1.062482477039322,
                -1.0568314747176422,
                1.9243101851923423,
                -0.5192905403807082,
                0.21197421168853925,
                2.753744864872084
            ]
        },
        {
            "positions": [
                -1.0735409017225004,
                -1.0778167962091914,
                1.9536185161725164,
                -0.6248296510127171,
                0.2966357124479526,
                2.8832733618377793
            ]
        },
        {
            "positions": [
                -1.0845993264056788,
                -1.0988021177007403,
                1.9829268471526904,
                -0.7303687616447259,
                0.38129721320736576,
                3.0128018588034737
            ]
        },
        {
            "positions": [
                -1.095657751088857,
                -1.1197874391922895,
                2.0122351781328645,
                -0.8359078722767348,
                0.4659587139667792,
                3.142330355769169
            ]
        }
    ]
}