{
    "goal": {
        "global_pose": {
            "orientation": {
                "w": -0.00223480608172531,
                "x": 0.0024358444001904467,
                "y": 0.7094548369677653,
                "z": -0.704743149386269
            },
            "position": {
                "x": -0.37947507619857795,
                "y": -0.6371506643295288,
                "z": 0.19426114857196808
            }
        },
        "name": "move_to_magneteinheit_C"
    },
    "id": "TRRT_move_to_magneteinheit_C_75",
    "joint_names": [
        "shoulder_pan_joint",
        "shoulder_lift_joint",
        "elbow_joint",
        "wrist_1_joint",
        "wrist_2_joint",
        "wrist_3_joint"
    ],
    "metrics": {
        "cart_traj_len": 0.6020772487858224,
        "distance_elbow_joint": 0.643258485014365,
        "distance_shoulder_lift_joint": 0.6512262991266526,
        "distance_shoulder_pan_joint": 0.8001594093395135,
        "distance_wrist_1_joint": 0.6762488147288548,
        "distance_wrist_2_joint": 1.0368778240221017,
        "distance_wrist_3_joint": 1.6168903094656675,
        "smoothness": 0.8609602313281706,
        "time": 1.2209907889999998,
        "traj_len": 2.329090196127483,
        "weighted_distance": 3.2204919499013576
    },
    "planner": "TRRT",
    "start": {
        "state": {
            "elbow_joint": 1.9565354010623817,
            "shoulder_lift_joint": -1.4165861575791021,
            "shoulder_pan_joint": -1.6717766225146293,
            "wrist_1_joint": -0.5286633292919765,
            "wrist_2_joint": 1.472756589071564,
            "wrist_3_joint": -3.1238370188695823
        }
    },
    "waypoints": [
        {
            "positions": [
                -1.6717766225146293,
                -1.4165861575791021,
                1.9565354010623817,
                -0.5286633292919765,
                1.472756589071564,
                -3.1238370188695823
            ]
        },
        {
            "positions": [
                -1.7165169690175874,
                -1.4498597952287922,
                2.0150415471159033,
                -0.5863317218662746,
                1.493557546582863,
                -2.9909347654489444
            ]
        },
        {
            "positions": [
                -1.7612573155205455,
                -1.4831334328784822,
                2.073547693169425,
                -0.6440001144405727,
                1.5143585040941623,
                -2.858032512028307
            ]
        },
        {
            "positions": [
                -1.8059976620235036,
                -1.5164070705281723,
                2.1320538392229467,
                -0.7016685070148709,
                1.5351594616054614,
                -2.725130258607669
            ]
        },
        {
            "positions": [
                -1.8507380085264615,
                -1.5496807081778625,
                2.1905599852764683,
                -0.759336899589169,
                1.5559604191167604,
                -2.5922280051870317
            ]
        },
        {
            "positions": [
                -1.8954783550294196,
                -1.5829543458275526,
                2.24906613132999,
                -0.8170052921634672,
                1.5767613766280597,
                -2.459325751766394
            ]
        },
        {
            "positions": [
                -1.9402187015323777,
                -1.6162279834772426,
                2.3075722773835117,
                -0.8746736847377653,
                1.5975623341393588,
                -2.326423498345756
            ]
        },
        {
            "positions": [
                -2.039642910115389,
                -1.5666277418871553,
                2.306449516787553,
                -0.9128508401903989,
                1.5133888296951505,
                -2.3891875681195884
            ]
        },
        {
            "positions": [
                -2.1390671186984003,
                -1.5170275002970681,
                2.305326756191594,
                -0.9510279956430323,
                1.4292153252509423,
                -2.4519516378934214
            ]
        },
        {
            "positions": [
                -2.2384913272814115,
                -1.467427258706981,
                2.3042039955956355,
                -0.9892051510956659,
                1.345041820806734,
                -2.5147157076672544
            ]
        },
        {
            "positions": [
                -2.337915535864423,
                -1.4178270171168936,
                2.3030812349996768,
                -1.0273823065482994,
                1.2608683163625258,
                -2.577479777441087
            ]
        },
        {
            "positions": [
                -2.360252285196043,
                -1.3756297659721999,
                2.255126140614777,
                -0.9977940003028775,
                1.1649719728329468,
                -2.672216529082172
            ]
        },
        {
            "positions": [
                -2.382589034527663,
                -1.333432514827506,
                2.2071710462298766,
                -0.9682056940574555,
                1.0690756293033679,
                -2.766953280723257
            ]
        },
        {
            "positions": [
                -2.404925783859283,
                -1.291235263682812,
                2.1592159518449767,
                -0.9386173878120335,
                0.9731792857737889,
                -2.8616900323643417
            ]
        },
        {
            "positions": [
                -2.427262533190903,
                -1.2490380125381182,
                2.111260857460077,
                -0.9090290815666116,
                0.87728294224421,
                -2.956426784005427
            ]
        },
        {
            "positions": [
                -2.449599282522523,
                -1.2068407613934244,
                2.0633057630751765,
                -0.8794407753211896,
                0.7813865987146309,
                -3.051163535646512
            ]
        },
        {
            "positions": [
                -2.471936031854143,
                -1.1646435102487305,
                2.0153506686902767,
                -0.8498524690757676,
                0.685490255185052,
                -3.145900287287597
            ]
        }
    ]
}