{
    "goal": {
        "global_pose": {
            "orientation": {
                "w": 0.7031023480610252,
                "x": -0.7110244013736278,
                "y": 0.0077485991402295624,
                "z": 0.005598929693374583
            },
            "position": {
                "x": -0.8841497679147869,
                "y": 0.44412534475326537,
                "z": 0.3711530566215515
            }
        },
        "name": "move_to_auspresseinheit_D"
    },
    "id": "TRRT_move_to_auspresseinheit_D_43",
    "joint_names": [
        "shoulder_pan_joint",
        "shoulder_lift_joint",
        "elbow_joint",
        "wrist_1_joint",
        "wrist_2_joint",
        "wrist_3_joint"
    ],
    "metrics": {
        "cart_traj_len": 0.3448116242250147,
        "distance_elbow_joint": 0.6602133890962916,
        "distance_shoulder_lift_joint": 0.13344725228315246,
        "distance_shoulder_pan_joint": 0.13463036932130804,
        "distance_wrist_1_joint": 0.5970323809772573,
        "distance_wrist_2_joint": 1.4399051023263139,
        "distance_wrist_3_joint": 0.04452320571767965,
        "smoothness": 1.1842378960592196e-15,
        "time": 0.930407585,
        "traj_len": 1.7348635968634545,
        "weighted_distance": 2.2662161402789747
    },
    "planner": "TRRT",
    "start": {
        "state": {
            "elbow_joint": -1.8275523626775212,
            "shoulder_lift_joint": -2.126789852344167,
            "shoulder_pan_joint": -0.03513704404078235,
            "wrist_1_joint": -2.347782403156801,
            "wrist_2_joint": -1.6058999987535132,
            "wrist_3_joint": -3.0880379163319196
        }
    },
    "waypoints": [
        {
            "positions": [
                -0.03513704404078235,
                -2.126789852344167,
                -1.8275523626775212,
                -2.347782403156801,
                -1.6058999987535132,
                -3.0880379163319196
            ]
        },
        {
            "positions": [
                -0.05196584020594586,
                -2.1434707588795607,
                -1.7450256890404847,
                -2.422411450778958,
                -1.425911860962724,
                -3.0824725156172095
            ]
        },
        {
            "positions": [
                -0.06879463637110936,
                -2.160151665414955,
                -1.6624990154034482,
                -2.497040498401115,
                -1.2459237231719347,
                -3.0769071149025
            ]
        },
        {
            "positions": [
                -0.08562343253627286,
                -2.176832571950349,
                -1.5799723417664118,
                -2.5716695460232724,
                -1.0659355853811454,
                -3.0713417141877897
            ]
        },
        {
            "positions": [
                -0.10245222870143636,
                -2.193513478485743,
                -1.4974456681293753,
                -2.6462985936454295,
                -0.8859474475903563,
                -3.06577631347308
            ]
        },
        {
            "positions": [
                -0.11928102486659986,
                -2.210194385021137,
                -1.4149189944923388,
                -2.7209276412675867,
                -0.705959309799567,
                -3.06021091275837
            ]
        },
        {
            "positions": [
                -0.1361098210317634,
                -2.226875291556531,
                -1.3323923208553026,
                -2.795556688889744,
                -0.5259711720087779,
                -3.0546455120436597
            ]
        },
        {
            "positions": [
                -0.1529386171969269,
                -2.2435561980919254,
                -1.249865647218266,
                -2.870185736511901,
                -0.3459830342179886,
                -3.04908011132895
            ]
        },
        {
            "positions": [
                -0.1697674133620904,
                -2.2602371046273193,
                -1.1673389735812296,
                -2.944814784134058,
                -0.16599489642719928,
                -3.04351471061424
            ]
        }
    ]
}