{
    "goal": {
        "global_pose": {
            "orientation": {
                "w": 0.005598929693374612,
                "x": 0.007748599140229565,
                "y": 0.7110244013736278,
                "z": -0.7031023480610252
            },
            "position": {
                "x": -0.8858502320852131,
                "y": -0.7141253447532654,
                "z": 0.3711530566215515
            }
        },
        "name": "move_to_auspresseinheit_C"
    },
    "id": "TRRT_move_to_auspresseinheit_C_26",
    "joint_names": [
        "shoulder_pan_joint",
        "shoulder_lift_joint",
        "elbow_joint",
        "wrist_1_joint",
        "wrist_2_joint",
        "wrist_3_joint"
    ],
    "metrics": {
        "cart_traj_len": 0.4932379911974423,
        "distance_elbow_joint": 0.9954388985464089,
        "distance_shoulder_lift_joint": 0.32338752899864043,
        "distance_shoulder_pan_joint": 0.2566711967943167,
        "distance_wrist_1_joint": 0.6628789516720325,
        "distance_wrist_2_joint": 1.3156277160794634,
        "distance_wrist_3_joint": 0.0537790977071948,
        "smoothness": 8.074349308362242e-16,
        "time": 0.120412147,
        "traj_len": 1.899416591956082,
        "weighted_distance": 2.3861785878185944
    },
    "planner": "TRRT",
    "start": {
        "state": {
            "elbow_joint": 1.7527959577737207,
            "shoulder_lift_joint": -0.9740617694225068,
            "shoulder_pan_joint": -2.967991417825858,
            "wrist_1_joint": -0.759517768980727,
            "wrist_2_joint": 1.7443932448377408,
            "wrist_3_joint": -3.0840537646736568
        }
    },
    "waypoints": [
        {
            "positions": [
                -2.967991417825858,
                -0.9740617694225068,
                1.7527959577737207,
                -0.759517768980727,
                1.7443932448377408,
                -3.0840537646736568
            ]
        },
        {
            "positions": [
                -2.9423242981464264,
                -0.9417230165226427,
                1.6532520679190799,
                -0.6932298738135237,
                1.6128304732297944,
                -3.089431674444376
            ]
        },
        {
            "positions": [
                -2.916657178466995,
                -0.9093842636227787,
                1.5537081780644388,
                -0.6269419786463205,
                1.481267701621848,
                -3.0948095842150956
            ]
        },
        {
            "positions": [
                -2.8909900587875628,
                -0.8770455107229147,
                1.454164288209798,
                -0.5606540834791173,
                1.349704930013902,
                -3.1001874939858154
            ]
        },
        {
            "positions": [
                -2.865322939108131,
                -0.8447067578230506,
                1.354620398355157,
                -0.494366188311914,
                1.2181421584059553,
                -3.105565403756535
            ]
        },
        {
            "positions": [
                -2.8396558194286996,
                -0.8123680049231865,
                1.2550765085005162,
                -0.42807829314471074,
                1.0865793867980091,
                -3.110943313527254
            ]
        },
        {
            "positions": [
                -2.813988699749268,
                -0.7800292520233225,
                1.1555326186458754,
                -0.3617903979775075,
                0.9550166151900629,
                -3.1163212232979736
            ]
        },
        {
            "positions": [
                -2.7883215800698364,
                -0.7476904991234585,
                1.0559887287912346,
                -0.29550250281030427,
                0.8234538435821165,
                -3.121699133068693
            ]
        },
        {
            "positions": [
                -2.7626544603904044,
                -0.7153517462235944,
                0.9564448389365935,
                -0.22921460764310098,
                0.69189107197417,
                -3.127077042839413
            ]
        },
        {
            "positions": [
                -2.736987340710973,
                -0.6830129933237303,
                0.8569009490819527,
                -0.16292671247589774,
                0.5603283003662238,
                -3.132454952610132
            ]
        },
        {
            "positions": [
                -2.7113202210315412,
                -0.6506742404238663,
                0.7573570592273118,
                -0.09663881730869446,
                0.42876552875827734,
                -3.1378328623808516
            ]
        }
    ]
}