{
    "goal": {
        "global_pose": {
            "orientation": {
                "w": -0.4816463035849501,
                "x": 0.5182115481033762,
                "y": 0.4908360881923453,
                "z": -0.5084816262002911
            },
            "position": {
                "x": -0.8240239810943604,
                "y": -0.300875300988555,
                "z": 0.16403168439865112
            }
        },
        "name": "move_to_storage_C"
    },
    "id": "TRRT_move_to_storage_C_45",
    "joint_names": [
        "shoulder_pan_joint",
        "shoulder_lift_joint",
        "elbow_joint",
        "wrist_1_joint",
        "wrist_2_joint",
        "wrist_3_joint"
    ],
    "metrics": {
        "cart_traj_len": 0.5766941669435446,
        "distance_elbow_joint": 0.2545266685444938,
        "distance_shoulder_lift_joint": 0.18953966924761678,
        "distance_shoulder_pan_joint": 0.49480216733927174,
        "distance_wrist_1_joint": 0.06470830242186343,
        "distance_wrist_2_joint": 1.0687938519501516,
        "distance_wrist_3_joint": 0.05490942523102582,
        "smoothness": 2.5376526478085547e-16,
        "time": 0.021072372,
        "traj_len": 1.4585198266511235,
        "weighted_distance": 1.8359196849449841
    },
    "planner": "TRRT",
    "start": {
        "state": {
            "elbow_joint": 2.010868314990456,
            "shoulder_lift_joint": -1.1634956873337592,
            "shoulder_pan_joint": -2.4736205022346125,
            "wrist_1_joint": -0.8367026794202681,
            "wrist_2_joint": 0.6746043897044499,
            "wrist_3_joint": -3.1496632123970403
        }
    },
    "waypoints": [
        {
            "positions": [
                -2.4736205022346125,
                -1.1634956873337592,
                2.010868314990456,
                -0.8367026794202681,
                0.6746043897044499,
                -3.1496632123970403
            ]
        },
        {
            "positions": [
                -2.556087530124491,
                -1.1319057424591563,
                1.9684472035663736,
                -0.8259179623499575,
                0.8527366983628085,
                -3.140511641525203
            ]
        },
        {
            "positions": [
                -2.63855455801437,
                -1.1003157975845537,
                1.9260260921422911,
                -0.8151332452796469,
                1.0308690070211672,
                -3.131360070653365
            ]
        },
        {
            "positions": [
                -2.721021585904248,
                -1.0687258527099508,
                1.883604980718209,
                -0.8043485282093363,
                1.2090013156795258,
                -3.1222084997815274
            ]
        },
        {
            "positions": [
                -2.803488613794127,
                -1.037135907835348,
                1.8411838692941267,
                -0.7935638111390259,
                1.3871336243378845,
                -3.11305692890969
            ]
        },
        {
            "positions": [
                -2.8859556416840055,
                -1.0055459629607453,
                1.7987627578700442,
                -0.7827790940687153,
                1.565265932996243,
                -3.103905358037852
            ]
        },
        {
            "positions": [
                -2.9684226695738842,
                -0.9739560180861424,
                1.756341646445962,
                -0.7719943769984047,
                1.7433982416546017,
                -3.0947537871660145
            ]
        }
    ]
}