{
    "goal": {
        "global_pose": {
            "orientation": {
                "w": -0.4816463035849501,
                "x": 0.5182115481033762,
                "y": 0.4908360881923453,
                "z": -0.5084816262002911
            },
            "position": {
                "x": -0.8240239810943604,
                "y": -0.300875300988555,
                "z": 0.16403168439865112
            }
        },
        "name": "move_to_storage_C"
    },
    "id": "TRRT_move_to_storage_C_126",
    "joint_names": [
        "shoulder_pan_joint",
        "shoulder_lift_joint",
        "elbow_joint",
        "wrist_1_joint",
        "wrist_2_joint",
        "wrist_3_joint"
    ],
    "metrics": {
        "cart_traj_len": 0.5756030215113492,
        "distance_elbow_joint": 0.25724123271872834,
        "distance_shoulder_lift_joint": 0.188051497448965,
        "distance_shoulder_pan_joint": 0.49495884249146904,
        "distance_wrist_1_joint": 0.08054111705317102,
        "distance_wrist_2_joint": 1.0595436170085217,
        "distance_wrist_3_joint": 0.067650909915415,
        "smoothness": 0.0,
        "time": 0.036380452,
        "traj_len": 1.4656013157186611,
        "weighted_distance": 1.850236139126245
    },
    "planner": "TRRT",
    "start": {
        "state": {
            "elbow_joint": 2.010868314990456,
            "shoulder_lift_joint": -1.1634956873337592,
            "shoulder_pan_joint": -2.4736205022346125,
            "wrist_1_joint": -0.8367026794202681,
            "wrist_2_joint": 0.6746043897044499,
            "wrist_3_joint": -3.1496632123970403
        }
    },
    "waypoints": [
        {
            "positions": [
                -2.4736205022346125,
                -1.1634956873337592,
                2.010868314990456,
                -0.8367026794202681,
                0.6746043897044499,
                -3.1496632123970403
            ]
        },
        {
            "positions": [
                -2.556113642649857,
                -1.1321537710922651,
                1.967994776204001,
                -0.8232791599114062,
                0.8511949925392035,
                -3.138388060744471
            ]
        },
        {
            "positions": [
                -2.6386067830651023,
                -1.1008118548507708,
                1.9251212374175464,
                -0.8098556404025444,
                1.0277855953739572,
                -3.127112909091902
            ]
        },
        {
            "positions": [
                -2.721099923480347,
                -1.0694699386092767,
                1.8822476986310916,
                -0.7964321208936826,
                1.2043761982087107,
                -3.1158377574393326
            ]
        },
        {
            "positions": [
                -2.8035930638955917,
                -1.0381280223677825,
                1.839374159844637,
                -0.7830086013848208,
                1.3809668010434644,
                -3.1045626057867635
            ]
        },
        {
            "positions": [
                -2.886086204310837,
                -1.0067861061262884,
                1.7965006210581822,
                -0.7695850818759589,
                1.557557403878218,
                -3.0932874541341944
            ]
        },
        {
            "positions": [
                -2.9685793447260815,
                -0.9754441898847942,
                1.7536270822717275,
                -0.7561615623670971,
                1.7341480067129718,
                -3.0820123024816253
            ]
        }
    ]
}