{
    "goal": {
        "global_pose": {
            "orientation": {
                "w": 0.5084816217422485,
                "x": -0.49083608388900757,
                "y": 0.5182115435600281,
                "z": -0.4816462993621826
            },
            "position": {
                "x": 0.5540239810943604,
                "y": 0.030875300988554955,
                "z": 0.16403168439865112
            }
        },
        "name": "move_to_storage_A"
    },
    "id": "TRRT_move_to_storage_A_139",
    "joint_names": [
        "shoulder_pan_joint",
        "shoulder_lift_joint",
        "elbow_joint",
        "wrist_1_joint",
        "wrist_2_joint",
        "wrist_3_joint"
    ],
    "metrics": {
        "cart_traj_len": 0.353804940498665,
        "distance_elbow_joint": 0.44922853876406044,
        "distance_shoulder_lift_joint": 0.233911302184155,
        "distance_shoulder_pan_joint": 0.4633531937909661,
        "distance_wrist_1_joint": 0.2381000658572271,
        "distance_wrist_2_joint": 1.0970634549933118,
        "distance_wrist_3_joint": 0.09264436108619334,
        "smoothness": 4.440892133664971e-16,
        "time": 0.024466484,
        "traj_len": 1.6044628124939244,
        "weighted_distance": 2.023549643497495
    },
    "planner": "TRRT",
    "start": {
        "state": {
            "elbow_joint": 1.971548259319323,
            "shoulder_lift_joint": -1.1394851275133948,
            "shoulder_pan_joint": 0.1228115487234821,
            "wrist_1_joint": -0.7804723859257726,
            "wrist_2_joint": 0.12958671773740124,
            "wrist_3_joint": -3.192489227718131
        }
    },
    "waypoints": [
        {
            "positions": [
                0.1228115487234821,
                -1.1394851275133948,
                1.971548259319323,
                -0.7804723859257726,
                0.12958671773740124,
                -3.192489227718131
            ]
        },
        {
            "positions": [
                0.056618235324772656,
                -1.172901027825417,
                2.035723764857046,
                -0.8144866810482336,
                0.2863100684507315,
                -3.179254318991532
            ]
        },
        {
            "positions": [
                -0.009575078073936788,
                -1.206316928137439,
                2.099899270394769,
                -0.8485009761706946,
                0.4430334191640617,
                -3.166019410264933
            ]
        },
        {
            "positions": [
                -0.07576839147264622,
                -1.2397328284494613,
                2.164074775932492,
                -0.8825152712931557,
                0.599756769877392,
                -3.152784501538334
            ]
        },
        {
            "positions": [
                -0.14196170487135568,
                -1.2731487287614833,
                2.2282502814702148,
                -0.9165295664156167,
                0.7564801205907222,
                -3.139549592811735
            ]
        },
        {
            "positions": [
                -0.20815501827006516,
                -1.3065646290735056,
                2.2924257870079376,
                -0.9505438615380777,
                0.9132034713040525,
                -3.126314684085136
            ]
        },
        {
            "positions": [
                -0.27434833166877454,
                -1.3399805293855276,
                2.3566012925456605,
                -0.9845581566605387,
                1.0699268220173828,
                -3.113079775358537
            ]
        },
        {
            "positions": [
                -0.340541645067484,
                -1.3733964296975498,
                2.4207767980833834,
                -1.0185724517829997,
                1.226650172730713,
                -3.099844866631938
            ]
        }
    ]
}{
    "goal": {
        "global_pose": {
            "orientation": {
                "w": 0.5084816217422485,
                "x": -0.49083608388900757,
                "y": 0.5182115435600281,
                "z": -0.4816462993621826
            },
            "position": {
                "x": 0.5540239810943604,
                "y": 0.030875300988554955,
                "z": 0.16403168439865112
            }
        },
        "name": "move_to_storage_A"
    },
    "id": "TRRT_move_to_storage_A_139",
    "joint_names": [
        "shoulder_pan_joint",
        "shoulder_lift_joint",
        "elbow_joint",
        "wrist_1_joint",
        "wrist_2_joint",
        "wrist_3_joint"
    ],
    "metrics": {
        "cart_traj_len": 0.35303659688638367,
        "distance_elbow_joint": 0.4500109959283005,
        "distance_shoulder_lift_joint": 0.2340621054036165,
        "distance_shoulder_pan_joint": 0.4598589121419973,
        "distance_wrist_1_joint": 0.2504283132719367,
        "distance_wrist_2_joint": 1.1056025528333762,
        "distance_wrist_3_joint": 0.09207201951532884,
        "smoothness": 1.5543122362334363e-15,
        "time": 0.057576195999999996,
        "traj_len": 1.609979782200558,
        "weighted_distance": 2.032783757370795
    },
    "planner": "TRRT",
    "start": {
        "state": {
            "elbow_joint": 1.97154746011099,
            "shoulder_lift_joint": -1.13948474672311,
            "shoulder_pan_joint": 0.12281154466712228,
            "wrist_1_joint": -0.7804688027058302,
            "wrist_2_joint": 0.12958655903071145,
            "wrist_3_joint": 3.0906928834467795
        }
    },
    "waypoints": [
        {
            "positions": [
                0.12281154466712228,
                -1.13948474672311,
                1.97154746011099,
                -0.7804688027058302,
                0.12958655903071145,
                3.0906928834467795
            ]
        },
        {
            "positions": [
                0.057117414361122665,
                -1.172922190352198,
                2.035834745243604,
                -0.8162442760303926,
                0.2875297808640509,
                3.1038460290918266
            ]
        },
        {
            "positions": [
                -0.008576715944876953,
                -1.206359633981286,
                2.1001220303762187,
                -0.852019749354955,
                0.4454730026973903,
                3.1169991747368733
            ]
        },
        {
            "positions": [
                -0.07427084625087656,
                -1.2397970776103742,
                2.164409315508833,
                -0.8877952226795174,
                0.6034162245307297,
                3.1301523203819204
            ]
        },
        {
            "positions": [
                -0.13996497655687618,
                -1.2732345212394622,
                2.2286966006414475,
                -0.9235706960040797,
                0.7613594463640693,
                3.1433054660269675
            ]
        },
        {
            "positions": [
                -0.2056591068628758,
                -1.3066719648685503,
                2.2929838857740616,
                -0.9593461693286421,
                0.9193026681974088,
                3.1564586116720146
            ]
        },
        {
            "positions": [
                -0.2713532371688754,
                -1.3401094084976384,
                2.3572711709066763,
                -0.9951216426532045,
                1.077245890030748,
                3.1696117573170612
            ]
        },
        {
            "positions": [
                -0.337047367474875,
                -1.3735468521267264,
                2.4215584560392904,
                -1.030897115977767,
                1.2351891118640876,
                3.1827649029621083
            ]
        }
    ]
}{
    "goal": {
        "global_pose": {
            "orientation": {
                "w": 0.5084816217422485,
                "x": -0.49083608388900757,
                "y": 0.5182115435600281,
                "z": -0.4816462993621826
            },
            "position": {
                "x": 0.5540239810943604,
                "y": 0.030875300988554955,
                "z": 0.16403168439865112
            }
        },
        "name": "move_to_storage_A"
    },
    "id": "TRRT_move_to_storage_A_139",
    "joint_names": [
        "shoulder_pan_joint",
        "shoulder_lift_joint",
        "elbow_joint",
        "wrist_1_joint",
        "wrist_2_joint",
        "wrist_3_joint"
    ],
    "metrics": {
        "cart_traj_len": 0.3532569499111635,
        "distance_elbow_joint": 0.45069710536874696,
        "distance_shoulder_lift_joint": 0.2369956118924199,
        "distance_shoulder_pan_joint": 0.4610604211529816,
        "distance_wrist_1_joint": 0.2404845847975572,
        "distance_wrist_2_joint": 1.1044185282440004,
        "distance_wrist_3_joint": 0.08878081761621326,
        "smoothness": 6.661338165333112e-16,
        "time": 0.018712308,
        "traj_len": 1.6069962878214499,
        "weighted_distance": 2.0260557290819774
    },
    "planner": "TRRT",
    "start": {
        "state": {
            "elbow_joint": 1.9715472970024885,
            "shoulder_lift_joint": -1.1394870060712896,
            "shoulder_pan_joint": 0.12281152778156021,
            "wrist_1_joint": -0.780463741449964,
            "wrist_2_joint": 0.12958659822042276,
            "wrist_3_joint": 3.090690232415272
        }
    },
    "waypoints": [
        {
            "positions": [
                0.12281152778156021,
                -1.1394870060712896,
                1.9715472970024885,
                -0.780463741449964,
                0.12958659822042276,
                3.090690232415272
            ]
        },
        {
            "positions": [
                0.05694575333113426,
                -1.173343522055921,
                2.0359325977694525,
                -0.8148186821353293,
                0.2873606736838514,
                3.103373206360445
            ]
        },
        {
            "positions": [
                -0.008920021119291688,
                -1.2072000380405525,
                2.1003178985364164,
                -0.8491736228206946,
                0.44513474914728,
                3.1160561803056184
            ]
        },
        {
            "positions": [
                -0.07478579556971762,
                -1.2410565540251839,
                2.1647031993033803,
                -0.8835285635060599,
                0.6029088246107086,
                3.1287391542507916
            ]
        },
        {
            "positions": [
                -0.14065157002014358,
                -1.2749130700098152,
                2.2290885000703438,
                -0.9178835041914253,
                0.7606829000741372,
                3.1414221281959653
            ]
        },
        {
            "positions": [
                -0.20651734447056955,
                -1.3087695859944466,
                2.2934738008373077,
                -0.9522384448767905,
                0.9184569755375659,
                3.1541051021411386
            ]
        },
        {
            "positions": [
                -0.2723831189209954,
                -1.3426261019790782,
                2.3578591016042716,
                -0.9865933855621558,
                1.0762310510009945,
                3.166788076086312
            ]
        },
        {
            "positions": [
                -0.3382488933714214,
                -1.3764826179637095,
                2.4222444023712355,
                -1.0209483262475212,
                1.2340051264644232,
                3.179471050031485
            ]
        }
    ]
}