{
    "goal": {
        "global_pose": {
            "orientation": {
                "w": 0.7031023480610252,
                "x": -0.7110244013736278,
                "y": 0.0077485991402295624,
                "z": 0.005598929693374583
            },
            "position": {
                "x": -0.8841497679147869,
                "y": 0.44412534475326537,
                "z": 0.3711530566215515
            }
        },
        "name": "move_to_auspresseinheit_D"
    },
    "id": "TRRT_move_to_auspresseinheit_D_122",
    "joint_names": [
        "shoulder_pan_joint",
        "shoulder_lift_joint",
        "elbow_joint",
        "wrist_1_joint",
        "wrist_2_joint",
        "wrist_3_joint"
    ],
    "metrics": {
        "cart_traj_len": 0.3420861406582956,
        "distance_elbow_joint": 0.6337729834708754,
        "distance_shoulder_lift_joint": 0.11964700510918069,
        "distance_shoulder_pan_joint": 0.133125280254608,
        "distance_wrist_1_joint": 0.5127204314627001,
        "distance_wrist_2_joint": 1.442123247844917,
        "distance_wrist_3_joint": 0.009770912507257812,
        "smoothness": 1.9737298371844314e-16,
        "time": 0.060807717,
        "traj_len": 1.6885377877470018,
        "weighted_distance": 2.196712399239298
    },
    "planner": "TRRT",
    "start": {
        "state": {
            "elbow_joint": -1.8275523626775212,
            "shoulder_lift_joint": -2.126789852344167,
            "shoulder_pan_joint": -0.03513704404078235,
            "wrist_1_joint": -2.347782403156801,
            "wrist_2_joint": -1.6058999987535132,
            "wrist_3_joint": -3.0880379163319196
        }
    },
    "waypoints": [
        {
            "positions": [
                -0.03513704404078235,
                -2.126789852344167,
                -1.8275523626775212,
                -2.347782403156801,
                -1.6058999987535132,
                -3.0880379163319196
            ]
        },
        {
            "positions": [
                -0.05177770407260835,
                -2.1417457279828143,
                -1.7483307397436618,
                -2.4118724570896384,
                -1.4256345927728986,
                -3.0892592803953267
            ]
        },
        {
            "positions": [
                -0.06841836410443436,
                -2.156701603621462,
                -1.6691091168098025,
                -2.475962511022476,
                -1.245369186792284,
                -3.090480644458734
            ]
        },
        {
            "positions": [
                -0.08505902413626035,
                -2.1716574792601095,
                -1.5898874938759429,
                -2.5400525649553134,
                -1.0651037808116692,
                -3.0917020085221414
            ]
        },
        {
            "positions": [
                -0.10169968416808636,
                -2.186613354898757,
                -1.5106658709420835,
                -2.604142618888151,
                -0.8848383748310547,
                -3.0929233725855485
            ]
        },
        {
            "positions": [
                -0.11834034419991235,
                -2.201569230537405,
                -1.4314442480082241,
                -2.6682326728209884,
                -0.7045729688504401,
                -3.0941447366489556
            ]
        },
        {
            "positions": [
                -0.13498100423173837,
                -2.2165251061760523,
                -1.3522226250743645,
                -2.732322726753826,
                -0.5243075628698253,
                -3.095366100712363
            ]
        },
        {
            "positions": [
                -0.15162166426356435,
                -2.2314809818147,
                -1.2730010021405052,
                -2.7964127806866634,
                -0.3440421568892107,
                -3.0965874647757703
            ]
        },
        {
            "positions": [
                -0.16826232429539037,
                -2.2464368574533475,
                -1.1937793792066458,
                -2.860502834619501,
                -0.16377675090859617,
                -3.0978088288391774
            ]
        }
    ]
}