{
    "goal": {
        "global_pose": {
            "orientation": {
                "w": 0.7031023480610252,
                "x": -0.7110244013736278,
                "y": 0.0077485991402295624,
                "z": 0.005598929693374583
            },
            "position": {
                "x": -0.8841497679147869,
                "y": 0.44412534475326537,
                "z": 0.3711530566215515
            }
        },
        "name": "move_to_auspresseinheit_D"
    },
    "id": "TRRT_move_to_auspresseinheit_D_4",
    "joint_names": [
        "shoulder_pan_joint",
        "shoulder_lift_joint",
        "elbow_joint",
        "wrist_1_joint",
        "wrist_2_joint",
        "wrist_3_joint"
    ],
    "metrics": {
        "cart_traj_len": 0.3418846249561687,
        "distance_elbow_joint": 0.6264809348636646,
        "distance_shoulder_lift_joint": 0.11487395102404419,
        "distance_shoulder_pan_joint": 0.13316306592863403,
        "distance_wrist_1_joint": 0.49957734577495216,
        "distance_wrist_2_joint": 1.4350366164593464,
        "distance_wrist_3_joint": 0.02104631335009044,
        "smoothness": 3.947459674368863e-16,
        "time": 0.028541468,
        "traj_len": 1.6823133558884718,
        "weighted_distance": 2.1924609041748524
    },
    "planner": "TRRT",
    "start": {
        "state": {
            "elbow_joint": -1.8275523626775212,
            "shoulder_lift_joint": -2.126789852344167,
            "shoulder_pan_joint": -0.03513704404078235,
            "wrist_1_joint": -2.347782403156801,
            "wrist_2_joint": -1.6058999987535132,
            "wrist_3_joint": -3.0880379163319196
        }
    },
    "waypoints": [
        {
            "positions": [
                -0.03513704404078235,
                -2.126789852344167,
                -1.8275523626775212,
                -2.347782403156801,
                -1.6058999987535132,
                -3.0880379163319196
            ]
        },
        {
            "positions": [
                -0.0517824272818616,
                -2.1411490962221724,
                -1.7492422458195631,
                -2.41022957137867,
                -1.426520421696095,
                -3.090668705500681
            ]
        },
        {
            "positions": [
                -0.06842781052294086,
                -2.155508340100178,
                -1.670932128961605,
                -2.472676739600539,
                -1.2471408446386767,
                -3.0932994946694423
            ]
        },
        {
            "positions": [
                -0.08507319376402012,
                -2.1698675839781836,
                -1.592622012103647,
                -2.535123907822408,
                -1.0677612675812582,
                -3.0959302838382037
            ]
        },
        {
            "positions": [
                -0.10171857700509937,
                -2.1842268278561887,
                -1.5143118952456889,
                -2.597571076044277,
                -0.88838169052384,
                -3.098561073006965
            ]
        },
        {
            "positions": [
                -0.11836396024617862,
                -2.1985860717341943,
                -1.4360017783877308,
                -2.660018244266146,
                -0.7090021134664217,
                -3.101191862175726
            ]
        },
        {
            "positions": [
                -0.13500934348725788,
                -2.2129453156122,
                -1.3576916615297727,
                -2.722465412488015,
                -0.5296225364090033,
                -3.1038226513444873
            ]
        },
        {
            "positions": [
                -0.15165472672833713,
                -2.2273045594902054,
                -1.2793815446718146,
                -2.784912580709884,
                -0.350242959351585,
                -3.1064534405132487
            ]
        },
        {
            "positions": [
                -0.16830010996941638,
                -2.241663803368211,
                -1.2010714278138566,
                -2.847359748931753,
                -0.17086338229416664,
                -3.10908422968201
            ]
        }
    ]
}