{
    "goal": {
        "global_pose": {
            "orientation": {
                "w": 0.7031023502349854,
                "x": -0.7110244035720825,
                "y": 0.007748599164187908,
                "z": 0.005598929710686207
            },
            "position": {
                "x": 0.11585023208521307,
                "y": 0.44412534475326537,
                "z": 0.3711530566215515
            }
        },
        "name": "move_to_auspresseinheit_A"
    },
    "id": "TRRT_move_to_auspresseinheit_A_19",
    "joint_names": [
        "shoulder_pan_joint",
        "shoulder_lift_joint",
        "elbow_joint",
        "wrist_1_joint",
        "wrist_2_joint",
        "wrist_3_joint"
    ],
    "metrics": {
        "cart_traj_len": 2.1184195381734097,
        "distance_elbow_joint": 0.4250967665993066,
        "distance_shoulder_lift_joint": 0.5342071168589106,
        "distance_shoulder_pan_joint": 4.542960154052185,
        "distance_wrist_1_joint": 3.2704026829371937,
        "distance_wrist_2_joint": 5.359340731563161,
        "distance_wrist_3_joint": 4.774413008772017,
        "smoothness": 0.652727298718784,
        "time": 0.07918344799999999,
        "traj_len": 4.348151384299169,
        "weighted_distance": 6.089744649230141
    },
    "planner": "TRRT",
    "start": {
        "state": {
            "elbow_joint": 2.4225746658250005,
            "shoulder_lift_joint": -1.3736534386056498,
            "shoulder_pan_joint": -0.3378633547517467,
            "wrist_1_joint": -1.0288598680537169,
            "wrist_2_joint": 1.233022673432363,
            "wrist_3_joint": -3.0940220416140027
        }
    },
    "waypoints": [
        {
            "positions": [
                -0.3378633547517467,
                -1.3736534386056498,
                2.4225746658250005,
                -1.0288598680537169,
                1.233022673432363,
                -3.0940220416140027
            ]
        },
        {
            "positions": [
                -0.41066762508868415,
                -1.3957088728084202,
                2.430846214506795,
                -1.085399246221037,
                1.110643775028799,
                -2.995297932984757
            ]
        },
        {
            "positions": [
                -0.48347189542562163,
                -1.4177643070111905,
                2.439117763188589,
                -1.141938624388357,
                0.9882648766252347,
                -2.8965738243555115
            ]
        },
        {
            "positions": [
                -0.556276165762559,
                -1.4398197412139606,
                2.447389311870384,
                -1.198478002555677,
                0.8658859782216705,
                -2.797849715726266
            ]
        },
        {
            "positions": [
                -0.6290804360994965,
                -1.461875175416731,
                2.4556608605521784,
                -1.255017380722997,
                0.7435070798181063,
                -2.69912560709702
            ]
        },
        {
            "positions": [
                -0.701884706436434,
                -1.4839306096195013,
                2.4639324092339727,
                -1.311556758890317,
                0.6211281814145421,
                -2.6004014984677744
            ]
        },
        {
            "positions": [
                -0.7746889767733713,
                -1.5059860438222716,
                2.472203957915767,
                -1.368096137057637,
                0.4987492830109779,
                -2.501677389838529
            ]
        },
        {
            "positions": [
                -0.8474932471103089,
                -1.528041478025042,
                2.4804755065975614,
                -1.4246355152249572,
                0.3763703846074137,
                -2.4029532812092835
            ]
        },
        {
            "positions": [
                -0.9202975174472463,
                -1.550096912227812,
                2.488747055279356,
                -1.481174893392277,
                0.2539914862038495,
                -2.3042291725800377
            ]
        },
        {
            "positions": [
                -0.9931017877841837,
                -1.5721523464305824,
                2.49701860396115,
                -1.5377142715595973,
                0.13161258780028517,
                -2.205505063950792
            ]
        },
        {
            "positions": [
                -1.0659060581211213,
                -1.5942077806333528,
                2.505290152642945,
                -1.5942536497269173,
                0.00923368939672109,
                -2.1067809553215464
            ]
        },
        {
            "positions": [
                -1.1387103284580586,
                -1.6162632148361231,
                2.5135617013247393,
                -1.6507930278942373,
                -0.113145209006843,
                -2.008056846692301
            ]
        },
        {
            "positions": [
                -1.211514598794996,
                -1.6383186490388932,
                2.5218332500065337,
                -1.7073324060615573,
                -0.2355241074104073,
                -1.9093327380630551
            ]
        },
        {
            "positions": [
                -1.2843188691319334,
                -1.6603740832416636,
                2.530104798688328,
                -1.7638717842288774,
                -0.3579030058139714,
                -1.8106086294338095
            ]
        },
        {
            "positions": [
                -1.357123139468871,
                -1.682429517444434,
                2.5383763473701224,
                -1.8204111623961974,
                -0.4802819042175357,
                -1.7118845208045639
            ]
        },
        {
            "positions": [
                -1.4299274098058083,
                -1.7044849516472043,
                2.546647896051917,
                -1.8769505405635174,
                -0.6026608026210998,
                -1.6131604121753182
            ]
        },
        {
            "positions": [
                -1.5027316801427457,
                -1.7265403858499746,
                2.5549194447337116,
                -1.9334899187308374,
                -0.7250397010246641,
                -1.5144363035460726
            ]
        },
        {
            "positions": [
                -1.5755359504796833,
                -1.7485958200527447,
                2.563190993415506,
                -1.9900292968981574,
                -0.8474185994282284,
                -1.415712194916827
            ]
        },
        {
            "positions": [
                -1.6483402208166207,
                -1.770651254255515,
                2.5714625420973003,
                -2.0465686750654775,
                -0.9697974978317927,
                -1.3169880862875813
            ]
        },
        {
            "positions": [
                -1.721144491153558,
                -1.7927066884582854,
                2.5797340907790947,
                -2.1031080532327975,
                -1.0921763962353566,
                -1.2182639776583357
            ]
        },
        {
            "positions": [
                -1.7939487614904956,
                -1.8147621226610557,
                2.588005639460889,
                -2.1596474314001175,
                -1.2145552946389209,
                -1.11953986902909
            ]
        },
        {
            "positions": [
                -1.866753031827433,
                -1.836817556863826,
                2.5962771881426834,
                -2.2161868095674375,
                -1.3369341930424852,
                -1.0208157603998442
            ]
        },
        {
            "positions": [
                -1.9395573021643704,
                -1.8588729910665962,
                2.604548736824478,
                -2.2727261877347575,
                -1.459313091446049,
                -0.9220916517705988
            ]
        },
        {
            "positions": [
                -2.012361572501308,
                -1.8809284252693668,
                2.6128202855062725,
                -2.3292655659020776,
                -1.5816919898496133,
                -0.823367543141353
            ]
        },
        {
            "positions": [
                -2.0851658428382454,
                -1.9029838594721369,
                2.621091834188067,
                -2.3858049440693976,
                -1.7040708882531774,
                -0.7246434345121076
            ]
        },
        {
            "positions": [
                -1.9733395361996178,
                -1.9031789273118338,
                2.612028650258617,
                -2.309266639792537,
                -1.6071810014580727,
                -0.8208448105789123
            ]
        },
        {
            "positions": [
                -1.8615132295609904,
                -1.9033739951515307,
                2.6029654663291675,
                -2.2327283355156764,
                -1.510291114662968,
                -0.9170461866457171
            ]
        },
        {
            "positions": [
                -1.7496869229223628,
                -1.9035690629912276,
                2.593902282399718,
                -2.156190031238816,
                -1.4134012278678632,
                -1.0132475627125217
            ]
        },
        {
            "positions": [
                -1.6378606162837355,
                -1.9037641308309246,
                2.5848390984702685,
                -2.0796517269619557,
                -1.3165113410727585,
                -1.1094489387793267
            ]
        },
        {
            "positions": [
                -1.526034309645108,
                -1.9039591986706217,
                2.575775914540819,
                -2.0031134226850953,
                -1.2196214542776538,
                -1.2056503148461313
            ]
        },
        {
            "positions": [
                -1.4142080030064803,
                -1.9041542665103186,
                2.566712730611369,
                -1.9265751184082347,
                -1.122731567482549,
                -1.301851690912936
            ]
        },
        {
            "positions": [
                -1.3023816963678527,
                -1.9043493343500155,
                2.55764954668192,
                -1.850036814131374,
                -1.0258416806874444,
                -1.3980530669797409
            ]
        },
        {
            "positions": [
                -1.1905553897292254,
                -1.9045444021897124,
                2.54858636275247,
                -1.7734985098545137,
                -0.9289517938923396,
                -1.4942544430465456
            ]
        },
        {
            "positions": [
                -1.078729083090598,
                -1.9047394700294094,
                2.5395231788230204,
                -1.6969602055776534,
                -0.8320619070972349,
                -1.5904558191133504
            ]
        },
        {
            "positions": [
                -0.9669027764519704,
                -1.9049345378691063,
                2.5304599948935707,
                -1.6204219013007928,
                -0.7351720203021301,
                -1.6866571951801552
            ]
        },
        {
            "positions": [
                -0.8550764698133428,
                -1.9051296057088032,
                2.5213968109641214,
                -1.5438835970239322,
                -0.6382821335070255,
                -1.78285857124696
            ]
        },
        {
            "positions": [
                -0.7432501631747155,
                -1.9053246735485,
                2.5123336270346717,
                -1.4673452927470718,
                -0.5413922467119208,
                -1.8790599473137646
            ]
        },
        {
            "positions": [
                -0.6314238565360879,
                -1.9055197413881972,
                2.503270443105222,
                -1.3908069884702114,
                -0.44450235991681586,
                -1.9752613233805696
            ]
        },
        {
            "positions": [
                -0.5195975498974603,
                -1.9057148092278942,
                2.4942072591757722,
                -1.3142686841933509,
                -0.3476124731217112,
                -2.071462699447374
            ]
        },
        {
            "positions": [
                -0.40777124325883296,
                -1.905909877067591,
                2.485144075246323,
                -1.2377303799164905,
                -0.2507225863266065,
                -2.167664075514179
            ]
        },
        {
            "positions": [
                -0.2959449366202054,
                -1.906104944907288,
                2.4760808913168733,
                -1.16119207563963,
                -0.1538326995315018,
                -2.2638654515809837
            ]
        },
        {
            "positions": [
                -0.1841186299815778,
                -1.906300012746985,
                2.4670177073874235,
                -1.0846537713627693,
                -0.0569428127363969,
                -2.3600668276477883
            ]
        },
        {
            "positions": [
                -0.07229232334295066,
                -1.9064950805866818,
                2.457954523457974,
                -1.0081154670859092,
                0.039947074058707566,
                -2.4562682037145933
            ]
        },
        {
            "positions": [
                0.03953398329567692,
                -1.9066901484263787,
                2.4488913395285246,
                -0.9315771628090486,
                0.13683696085381247,
                -2.5524695797813983
            ]
        },
        {
            "positions": [
                0.1513602899343045,
                -1.9068852162660757,
                2.439828155599075,
                -0.855038858532188,
                0.23372684764891716,
                -2.648670955848203
            ]
        },
        {
            "positions": [
                0.2631865965729321,
                -1.9070802841057728,
                2.430764971669625,
                -0.7785005542553276,
                0.3306167344440216,
                -2.7448723319150075
            ]
        },
        {
            "positions": [
                0.37501290321155967,
                -1.9072753519454697,
                2.4217017877401754,
                -0.701962249978467,
                0.4275066212391265,
                -2.8410737079818125
            ]
        },
        {
            "positions": [
                0.48683920985018725,
                -1.9074704197851666,
                2.412638603810726,
                -0.6254239457016066,
                0.5243965080342314,
                -2.937275084048617
            ]
        },
        {
            "positions": [
                0.5986655164888144,
                -1.9076654876248635,
                2.4035754198812764,
                -0.5488856414247463,
                0.6212863948293359,
                -3.0334764601154216
            ]
        },
        {
            "positions": [
                0.7104918231274419,
                -1.9078605554645605,
                2.3945122359518267,
                -0.4723473371478857,
                0.7181762816244409,
                -3.1296778361822266
            ]
        }
    ]
}