{
    "goal": {
        "global_pose": {
            "orientation": {
                "w": 0.7031023502349854,
                "x": -0.7110244035720825,
                "y": 0.007748599164187908,
                "z": 0.005598929710686207
            },
            "position": {
                "x": 0.11585023208521307,
                "y": 0.44412534475326537,
                "z": 0.3711530566215515
            }
        },
        "name": "move_to_auspresseinheit_A"
    },
    "id": "TRRT_move_to_auspresseinheit_A_102",
    "joint_names": [
        "shoulder_pan_joint",
        "shoulder_lift_joint",
        "elbow_joint",
        "wrist_1_joint",
        "wrist_2_joint",
        "wrist_3_joint"
    ],
    "metrics": {
        "cart_traj_len": 1.0754183833729343,
        "distance_elbow_joint": 0.30956314101268667,
        "distance_shoulder_lift_joint": 0.7264525257235985,
        "distance_shoulder_pan_joint": 1.5968601331988337,
        "distance_wrist_1_joint": 0.5436131464663282,
        "distance_wrist_2_joint": 0.5263529117241428,
        "distance_wrist_3_joint": 0.0919153322638695,
        "smoothness": 0.8698003440022021,
        "time": 0.298842864,
        "traj_len": 1.9480136525161877,
        "weighted_distance": 2.2468987322769287
    },
    "planner": "TRRT",
    "start": {
        "state": {
            "elbow_joint": 2.4225746658250005,
            "shoulder_lift_joint": -1.3736534386056498,
            "shoulder_pan_joint": -0.3378633547517467,
            "wrist_1_joint": -1.0288598680537169,
            "wrist_2_joint": 1.233022673432363,
            "wrist_3_joint": -3.0940220416140027
        }
    },
    "waypoints": [
        {
            "positions": [
                -0.3378633547517467,
                -1.3736534386056498,
                2.4225746658250005,
                -1.0288598680537169,
                1.233022673432363,
                -3.0940220416140027
            ]
        },
        {
            "positions": [
                -0.39293808167087685,
                -1.4998588106441308,
                2.3890274782444423,
                -0.969963907425018,
                1.1503301383537985,
                -3.1071014783803577
            ]
        },
        {
            "positions": [
                -0.4480128085900069,
                -1.6260641826826119,
                2.355480290663884,
                -0.9110679467963191,
                1.0676376032752342,
                -3.1201809151467126
            ]
        },
        {
            "positions": [
                -0.503087535509137,
                -1.7522695547210927,
                2.3219331030833255,
                -0.8521719861676202,
                0.9849450681966696,
                -3.133260351913067
            ]
        },
        {
            "positions": [
                -0.5581622624282672,
                -1.8784749267595737,
                2.2883859155027673,
                -0.7932760255389213,
                0.9022525331181052,
                -3.146339788679422
            ]
        },
        {
            "positions": [
                -0.6132369893473972,
                -2.0046802987980548,
                2.254838727922209,
                -0.7343800649102225,
                0.8195599980395407,
                -3.159419225445777
            ]
        },
        {
            "positions": [
                -0.34893968962676064,
                -1.985595165691816,
                2.283204168544188,
                -0.6845533962456557,
                0.7969819507732766,
                -3.154115595759358
            ]
        },
        {
            "positions": [
                -0.08464238990612405,
                -1.9665100325855773,
                2.3115696091661673,
                -0.634726727581089,
                0.7744039035070125,
                -3.148811966072939
            ]
        },
        {
            "positions": [
                0.1796549098145125,
                -1.9474248994793386,
                2.339935049788146,
                -0.5849000589165222,
                0.7518258562407485,
                -3.1435083363865197
            ]
        },
        {
            "positions": [
                0.44395220953514913,
                -1.9283397663731,
                2.3683004904101255,
                -0.5350733902519554,
                0.7292478089744844,
                -3.1382047067001007
            ]
        },
        {
            "positions": [
                0.7082495092557858,
                -1.9092546332668612,
                2.3966659310321043,
                -0.4852467215873887,
                0.7066697617082203,
                -3.1329010770136816
            ]
        }
    ]
}