{
    "goal": {
        "global_pose": {
            "orientation": {
                "w": 0.7031023502349854,
                "x": -0.7110244035720825,
                "y": 0.007748599164187908,
                "z": 0.005598929710686207
            },
            "position": {
                "x": 0.11585023208521307,
                "y": 0.44412534475326537,
                "z": 0.3711530566215515
            }
        },
        "name": "move_to_auspresseinheit_A"
    },
    "id": "TRRT_move_to_auspresseinheit_A_136",
    "joint_names": [
        "shoulder_pan_joint",
        "shoulder_lift_joint",
        "elbow_joint",
        "wrist_1_joint",
        "wrist_2_joint",
        "wrist_3_joint"
    ],
    "metrics": {
        "cart_traj_len": 1.4801756386574811,
        "distance_elbow_joint": 0.43750993037397823,
        "distance_shoulder_lift_joint": 1.5576436747072813,
        "distance_shoulder_pan_joint": 2.8042343436634805,
        "distance_wrist_1_joint": 8.020229994644776,
        "distance_wrist_2_joint": 2.2392124769406494,
        "distance_wrist_3_joint": 10.060212689870896,
        "smoothness": 0.5264386285261026,
        "time": 0.080222161,
        "traj_len": 5.011890173397761,
        "weighted_distance": 7.449759121040641
    },
    "planner": "TRRT",
    "start": {
        "state": {
            "elbow_joint": 2.4225746658250005,
            "shoulder_lift_joint": -1.3736534386056498,
            "shoulder_pan_joint": -0.3378633547517467,
            "wrist_1_joint": -1.0288598680537169,
            "wrist_2_joint": 1.233022673432363,
            "wrist_3_joint": -3.0940220416140027
        }
    },
    "waypoints": [
        {
            "positions": [
                -0.3378633547517467,
                -1.3736534386056498,
                2.4225746658250005,
                -1.0288598680537169,
                1.233022673432363,
                -3.0940220416140027
            ]
        },
        {
            "positions": [
                -0.3645881593717741,
                -1.4053868412748796,
                2.415576287315313,
                -0.8991030348236413,
                1.1909958054182233,
                -2.941963145555263
            ]
        },
        {
            "positions": [
                -0.3913129639918014,
                -1.4371202439441093,
                2.408577908805625,
                -0.7693462015935656,
                1.1489689374040835,
                -2.789904249496523
            ]
        },
        {
            "positions": [
                -0.41803776861182873,
                -1.468853646613339,
                2.4015795302959377,
                -0.6395893683634899,
                1.1069420693899437,
                -2.6378453534377826
            ]
        },
        {
            "positions": [
                -0.4447625732318561,
                -1.5005870492825688,
                2.39458115178625,
                -0.5098325351334143,
                1.0649152013758039,
                -2.4857864573790427
            ]
        },
        {
            "positions": [
                -0.47148737785188344,
                -1.5323204519517986,
                2.3875827732765624,
                -0.3800757019033386,
                1.022888333361664,
                -2.333727561320303
            ]
        },
        {
            "positions": [
                -0.4982121824719108,
                -1.5640538546210283,
                2.3805843947668746,
                -0.25031886867326303,
                0.9808614653475243,
                -2.181668665261563
            ]
        },
        {
            "positions": [
                -0.524936987091938,
                -1.595787257290258,
                2.373586016257187,
                -0.12056203544318733,
                0.9388345973333845,
                -2.029609769202823
            ]
        },
        {
            "positions": [
                -0.5516617917119654,
                -1.627520659959488,
                2.3665876377474993,
                0.009194797786888254,
                0.8968077293192447,
                -1.8775508731440829
            ]
        },
        {
            "positions": [
                -0.5783865963319927,
                -1.6592540626287176,
                2.359589259237812,
                0.13895163101696384,
                0.8547808613051049,
                -1.7254919770853432
            ]
        },
        {
            "positions": [
                -0.6051114009520201,
                -1.6909874652979475,
                2.352590880728124,
                0.26870846424703965,
                0.8127539932909651,
                -1.573433081026603
            ]
        },
        {
            "positions": [
                -0.6318362055720474,
                -1.722720867967177,
                2.3455925022184365,
                0.398465297477115,
                0.7707271252768253,
                -1.4213741849678632
            ]
        },
        {
            "positions": [
                -0.6585610101920748,
                -1.754454270636407,
                2.338594123708749,
                0.5282221307071908,
                0.7287002572626855,
                -1.269315288909123
            ]
        },
        {
            "positions": [
                -0.6852858148121022,
                -1.7861876733056368,
                2.331595745199061,
                0.6579789639372664,
                0.6866733892485457,
                -1.1172563928503831
            ]
        },
        {
            "positions": [
                -0.7120106194321294,
                -1.8179210759748665,
                2.324597366689374,
                0.7877357971673422,
                0.6446465212344059,
                -0.9651974967916432
            ]
        },
        {
            "positions": [
                -0.7387354240521568,
                -1.8496544786440963,
                2.317598988179686,
                0.9174926303974176,
                0.6026196532202661,
                -0.8131386007329033
            ]
        },
        {
            "positions": [
                -0.7654602286721841,
                -1.881387881313326,
                2.3106006096699985,
                1.0472494636274934,
                0.5605927852061263,
                -0.661079704674163
            ]
        },
        {
            "positions": [
                -0.7921850332922115,
                -1.9131212839825558,
                2.3036022311603106,
                1.177006296857569,
                0.5185659171919865,
                -0.5090208086154235
            ]
        },
        {
            "positions": [
                -0.8189098379122388,
                -1.9448546866517855,
                2.296603852650623,
                1.3067631300876446,
                0.47653904917784684,
                -0.35696191255668364
            ]
        },
        {
            "positions": [
                -0.8456346425322661,
                -1.9765880893210155,
                2.2896054741409353,
                1.4365199633177206,
                0.4345121811637068,
                -0.2049030164979433
            ]
        },
        {
            "positions": [
                -0.8723594471522935,
                -2.008321491990245,
                2.282607095631248,
                1.5662767965477962,
                0.39248531314956714,
                -0.05284412043920339
            ]
        },
        {
            "positions": [
                -0.8990842517723208,
                -2.040054894659475,
                2.27560871712156,
                1.6960336297778713,
                0.35045844513542734,
                0.09921477561953651
            ]
        },
        {
            "positions": [
                -0.925809056392348,
                -2.0717882973287045,
                2.2686103386118726,
                1.825790463007947,
                0.30843157712128755,
                0.2512736716782764
            ]
        },
        {
            "positions": [
                -0.9525338610123755,
                -2.1035216999979345,
                2.2616119601021847,
                1.955547296238023,
                0.26640470910714764,
                0.40333256773701676
            ]
        },
        {
            "positions": [
                -0.9792586656324029,
                -2.135255102667164,
                2.2546135815924973,
                2.0853041294680983,
                0.22437784109300796,
                0.5553914637957567
            ]
        },
        {
            "positions": [
                -1.0059834702524302,
                -2.166988505336394,
                2.24761520308281,
                2.215060962698174,
                0.18235097307886816,
                0.7074503598544966
            ]
        },
        {
            "positions": [
                -1.0327082748724574,
                -2.1987219080056235,
                2.240616824573122,
                2.3448177959282495,
                0.14032410506472837,
                0.8595092559132365
            ]
        },
        {
            "positions": [
                -1.0594330794924849,
                -2.2304553106748535,
                2.2336184460634345,
                2.474574629158326,
                0.09829723705058857,
                1.0115681519719768
            ]
        },
        {
            "positions": [
                -1.0861578841125121,
                -2.2621887133440834,
                2.2266200675537466,
                2.6043314623884015,
                0.056270369036448775,
                1.1636270480307163
            ]
        },
        {
            "positions": [
                -1.1128826887325396,
                -2.293922116013313,
                2.219621689044059,
                2.734088295618476,
                0.01424350102230898,
                1.3156859440894566
            ]
        },
        {
            "positions": [
                -1.1396074933525668,
                -2.3256555186825425,
                2.2126233105343713,
                2.863845128848552,
                -0.027783366991830816,
                1.467744840148196
            ]
        },
        {
            "positions": [
                -1.1663322979725943,
                -2.3573889213517725,
                2.205624932024684,
                2.9936019620786283,
                -0.06981023500597061,
                1.6198037362069364
            ]
        },
        {
            "positions": [
                -1.1930571025926215,
                -2.3891223240210024,
                2.198626553514996,
                3.123358795308704,
                -0.1118371030201104,
                1.7718626322656768
            ]
        },
        {
            "positions": [
                -1.2197819072126488,
                -2.420855726690232,
                2.1916281750053086,
                3.253115628538779,
                -0.1538639710342502,
                1.9239215283244158
            ]
        },
        {
            "positions": [
                -1.1577717203996623,
                -2.4043898755088544,
                2.1982915117651243,
                3.1325267737628995,
                -0.12636958934153936,
                1.7612676857459486
            ]
        },
        {
            "positions": [
                -1.095761533586676,
                -2.3879240243274773,
                2.20495484852494,
                3.0119379189870195,
                -0.09887520764882854,
                1.5986138431674817
            ]
        },
        {
            "positions": [
                -1.0337513467736894,
                -2.3714581731460997,
                2.2116181852847556,
                2.89134906421114,
                -0.07138082595611771,
                1.4359600005890145
            ]
        },
        {
            "positions": [
                -0.9717411599607031,
                -2.3549923219647226,
                2.2182815220445713,
                2.7707602094352604,
                -0.043886444263406876,
                1.2733061580105476
            ]
        },
        {
            "positions": [
                -0.9097309731477166,
                -2.338526470783345,
                2.224944858804387,
                2.650171354659381,
                -0.01639206257069603,
                1.1106523154320804
            ]
        },
        {
            "positions": [
                -0.8477207863347301,
                -2.3220606196019675,
                2.2316081955642026,
                2.5295824998835013,
                0.011102319122014787,
                0.9479984728536134
            ]
        },
        {
            "positions": [
                -0.7857105995217437,
                -2.3055947684205904,
                2.2382715323240183,
                2.4089936451076213,
                0.03859670081472563,
                0.7853446302751463
            ]
        },
        {
            "positions": [
                -0.7237004127087573,
                -2.289128917239213,
                2.244934869083834,
                2.2884047903317417,
                0.06609108250743645,
                0.6226907876966792
            ]
        },
        {
            "positions": [
                -0.6616902258957708,
                -2.2726630660578353,
                2.2515982058436497,
                2.167815935555862,
                0.09358546420014732,
                0.460036945118212
            ]
        },
        {
            "positions": [
                -0.5996800390827844,
                -2.256197214876458,
                2.2582615426034653,
                2.047227080779982,
                0.12107984589285814,
                0.2973831025397451
            ]
        },
        {
            "positions": [
                -0.5376698522697979,
                -2.2397313636950806,
                2.264924879363281,
                1.9266382260041026,
                0.14857422758556899,
                0.13472925996127794
            ]
        },
        {
            "positions": [
                -0.4756596654568115,
                -2.223265512513703,
                2.2715882161230967,
                1.806049371228223,
                0.17606860927827978,
                -0.027924582617188998
            ]
        },
        {
            "positions": [
                -0.41364947864382506,
                -2.206799661332326,
                2.2782515528829124,
                1.6854605164523433,
                0.20356299097099062,
                -0.19057842519565638
            ]
        },
        {
            "positions": [
                -0.35163929183083864,
                -2.1903338101509484,
                2.284914889642728,
                1.5648716616764637,
                0.23105737266370147,
                -0.3532322677741231
            ]
        },
        {
            "positions": [
                -0.2896291050178521,
                -2.1738679589695713,
                2.291578226402544,
                1.444282806900584,
                0.2585517543564123,
                -0.5158861103525902
            ]
        },
        {
            "positions": [
                -0.2276189182048658,
                -2.1574021077881937,
                2.2982415631623594,
                1.3236939521247044,
                0.2860461360491231,
                -0.6785399529310574
            ]
        },
        {
            "positions": [
                -0.16560873139187948,
                -2.140936256606816,
                2.3049048999221755,
                1.2031050973488249,
                0.31354051774183395,
                -0.8411937955095241
            ]
        },
        {
            "positions": [
                -0.10359854457889273,
                -2.124470405425439,
                2.311568236681991,
                1.0825162425729449,
                0.34103489943454485,
                -1.0038476380879917
            ]
        },
        {
            "positions": [
                -0.041588357765906414,
                -2.1080045542440615,
                2.318231573441807,
                0.9619273877970653,
                0.3685292811272556,
                -1.1665014806664584
            ]
        },
        {
            "positions": [
                0.020421829047079898,
                -2.0915387030626844,
                2.3248949102016225,
                0.8413385330211858,
                0.3960236628199665,
                -1.3291553232449256
            ]
        },
        {
            "positions": [
                0.08243201586006643,
                -2.075072851881307,
                2.331558246961438,
                0.7207496782453062,
                0.42351804451267727,
                -1.4918091658233923
            ]
        },
        {
            "positions": [
                0.14444220267305297,
                -2.0586070006999293,
                2.338221583721254,
                0.6001608234694262,
                0.4510124262053882,
                -1.65446300840186
            ]
        },
        {
            "positions": [
                0.20645238948603928,
                -2.042141149518552,
                2.3448849204810696,
                0.4795719686935467,
                0.47850680789809896,
                -1.817116850980327
            ]
        },
        {
            "positions": [
                0.2684625762990258,
                -2.0256752983371746,
                2.3515482572408852,
                0.35898311391766713,
                0.5060011895908098,
                -1.9797706935587938
            ]
        },
        {
            "positions": [
                0.3304727631120121,
                -2.009209447155797,
                2.358211594000701,
                0.23839425914178758,
                0.5334955712835205,
                -2.1424245361372605
            ]
        },
        {
            "positions": [
                0.39248294992499866,
                -1.9927435959744197,
                2.3648749307605166,
                0.11780540436590758,
                0.5609899529762314,
                -2.3050783787157285
            ]
        },
        {
            "positions": [
                0.4544931367379852,
                -1.9762777447930424,
                2.3715382675203323,
                -0.002783450409971966,
                0.5884843346689422,
                -2.467732221294195
            ]
        },
        {
            "positions": [
                0.5165033235509715,
                -1.959811893611665,
                2.378201604280148,
                -0.12337230518585152,
                0.6159787163616531,
                -2.630386063872662
            ]
        },
        {
            "positions": [
                0.5785135103639578,
                -1.9433460424302877,
                2.3848649410399636,
                -0.24396115996173107,
                0.6434730980543639,
                -2.793039906451129
            ]
        },
        {
            "positions": [
                0.6405236971769446,
                -1.9268801912489102,
                2.3915282777997793,
                -0.36455001473761106,
                0.6709674797470748,
                -2.9556937490295963
            ]
        },
        {
            "positions": [
                0.7025338839899309,
                -1.9104143400675329,
                2.398191614559595,
                -0.4851388695134905,
                0.6984618614397856,
                -3.118347591608063
            ]
        }
    ]
}