{
    "goal": {
        "global_pose": {
            "orientation": {
                "w": 0.7031023502349854,
                "x": -0.7110244035720825,
                "y": 0.007748599164187908,
                "z": 0.005598929710686207
            },
            "position": {
                "x": 0.11585023208521307,
                "y": 0.44412534475326537,
                "z": 0.3711530566215515
            }
        },
        "name": "move_to_auspresseinheit_A"
    },
    "id": "TRRT_move_to_auspresseinheit_A_32",
    "joint_names": [
        "shoulder_pan_joint",
        "shoulder_lift_joint",
        "elbow_joint",
        "wrist_1_joint",
        "wrist_2_joint",
        "wrist_3_joint"
    ],
    "metrics": {
        "cart_traj_len": 3.54855725126406,
        "distance_elbow_joint": 1.5019227125885313,
        "distance_shoulder_lift_joint": 0.8453320433261897,
        "distance_shoulder_pan_joint": 6.034310640579177,
        "distance_wrist_1_joint": 1.615455681367861,
        "distance_wrist_2_joint": 2.059501549678476,
        "distance_wrist_3_joint": 0.3931937154381897,
        "smoothness": 0.8742393504736594,
        "time": 0.059687134,
        "traj_len": 3.528415557014001,
        "weighted_distance": 4.112306044654403
    },
    "planner": "TRRT",
    "start": {
        "state": {
            "elbow_joint": 2.4225746658250005,
            "shoulder_lift_joint": -1.3736534386056498,
            "shoulder_pan_joint": -0.3378633547517467,
            "wrist_1_joint": -1.0288598680537169,
            "wrist_2_joint": 1.233022673432363,
            "wrist_3_joint": -3.0940220416140027
        }
    },
    "waypoints": [
        {
            "positions": [
                -0.3378633547517467,
                -1.3736534386056498,
                2.4225746658250005,
                -1.0288598680537169,
                1.233022673432363,
                -3.0940220416140027
            ]
        },
        {
            "positions": [
                -0.49380480130115567,
                -1.416877848413296,
                2.3748467213101785,
                -0.9613097571133042,
                1.2810099153630035,
                -3.0825871990532345
            ]
        },
        {
            "positions": [
                -0.6497462478505647,
                -1.4601022582209422,
                2.3271187767953565,
                -0.8937596461728916,
                1.328997157293644,
                -3.0711523564924663
            ]
        },
        {
            "positions": [
                -0.8056876943999736,
                -1.5033266680285884,
                2.279390832280534,
                -0.826209535232479,
                1.3769843992242845,
                -3.059717513931698
            ]
        },
        {
            "positions": [
                -0.9616291409493827,
                -1.5465510778362346,
                2.231662887765712,
                -0.7586594242920663,
                1.4249716411549251,
                -3.04828267137093
            ]
        },
        {
            "positions": [
                -1.1175705874987916,
                -1.5897754876438808,
                2.18393494325089,
                -0.6911093133516537,
                1.4729588830855656,
                -3.036847828810162
            ]
        },
        {
            "positions": [
                -1.2735120340482005,
                -1.6329998974515267,
                2.1362069987360677,
                -0.6235592024112412,
                1.5209461250162062,
                -3.025412986249394
            ]
        },
        {
            "positions": [
                -1.4294534805976096,
                -1.6762243072591732,
                2.0884790542212457,
                -0.5560090914708286,
                1.5689333669468466,
                -3.0139781436886257
            ]
        },
        {
            "positions": [
                -1.5853949271470185,
                -1.7194487170668191,
                2.0407511097064237,
                -0.4884589805304159,
                1.616920608877487,
                -3.0025433011278575
            ]
        },
        {
            "positions": [
                -1.7413363736964274,
                -1.7626731268744655,
                1.9930231651916017,
                -0.4209088695900033,
                1.6649078508081276,
                -2.9911084585670893
            ]
        },
        {
            "positions": [
                -1.8972778202458365,
                -1.8058975366821115,
                1.9452952206767795,
                -0.35335875864959065,
                1.7128950927387683,
                -2.979673616006321
            ]
        },
        {
            "positions": [
                -2.0532192667952454,
                -1.8491219464897577,
                1.8975672761619573,
                -0.285808647709178,
                1.7608823346694087,
                -2.968238773445553
            ]
        },
        {
            "positions": [
                -2.2091607133446542,
                -1.8923463562974039,
                1.8498393316471353,
                -0.2182585367687655,
                1.808869576600049,
                -2.956803930884785
            ]
        },
        {
            "positions": [
                -2.365102159894063,
                -1.93557076610505,
                1.8021113871323133,
                -0.15070842582835287,
                1.8568568185306895,
                -2.945369088324017
            ]
        },
        {
            "positions": [
                -2.5210436064434725,
                -1.9787951759126963,
                1.7543834426174911,
                -0.08315831488794023,
                1.9048440604613301,
                -2.9339342457632487
            ]
        },
        {
            "positions": [
                -2.6769850529928814,
                -2.0220195857203427,
                1.706655498102669,
                -0.015608203947527599,
                1.9528313023919708,
                -2.9224994032024805
            ]
        },
        {
            "positions": [
                -2.8329264995422903,
                -2.0652439955279887,
                1.658927553587847,
                0.051941906992885034,
                2.000818544322611,
                -2.9110645606417123
            ]
        },
        {
            "positions": [
                -2.624735470378253,
                -2.0562003786807033,
                1.7023555300791045,
                0.02049167720928151,
                1.9248358573350683,
                -2.9234313979632356
            ]
        },
        {
            "positions": [
                -2.4165444412142163,
                -2.047156761833418,
                1.745783506570362,
                -0.010958552574322017,
                1.8488531703475255,
                -2.9357982352847594
            ]
        },
        {
            "positions": [
                -2.2083534120501787,
                -2.0381131449861325,
                1.7892114830616195,
                -0.042408782357925556,
                1.7728704833599827,
                -2.9481650726062827
            ]
        },
        {
            "positions": [
                -2.000162382886142,
                -2.029069528138847,
                1.832639459552877,
                -0.07385901214152907,
                1.6968877963724398,
                -2.960531909927806
            ]
        },
        {
            "positions": [
                -1.7919713537221047,
                -2.0200259112915617,
                1.8760674360441345,
                -0.10530924192513261,
                1.6209051093848972,
                -2.97289874724933
            ]
        },
        {
            "positions": [
                -1.5837803245580675,
                -2.010982294444277,
                1.919495412535392,
                -0.13675947170873615,
                1.5449224223973541,
                -2.985265584570853
            ]
        },
        {
            "positions": [
                -1.3755892953940307,
                -2.0019386775969914,
                1.9629233890266495,
                -0.16820970149233966,
                1.4689397354098115,
                -2.9976324218923764
            ]
        },
        {
            "positions": [
                -1.1673982662299935,
                -1.9928950607497058,
                2.006351365517907,
                -0.19965993127594317,
                1.3929570484222686,
                -3.0099992592139
            ]
        },
        {
            "positions": [
                -0.9592072370659563,
                -1.9838514439024206,
                2.0497793420091646,
                -0.23111016105954674,
                1.3169743614347258,
                -3.0223660965354235
            ]
        },
        {
            "positions": [
                -0.7510162079019191,
                -1.9748078270551352,
                2.093207318500422,
                -0.26256039084315025,
                1.240991674447183,
                -3.0347329338569473
            ]
        },
        {
            "positions": [
                -0.5428251787378819,
                -1.9657642102078499,
                2.1366352949916796,
                -0.2940106206267538,
                1.16500898745964,
                -3.0470997711784706
            ]
        },
        {
            "positions": [
                -0.33463414957384474,
                -1.9567205933605645,
                2.180063271482937,
                -0.3254608504103573,
                1.0890263004720973,
                -3.059466608499994
            ]
        },
        {
            "positions": [
                -0.12644312040980799,
                -1.947676976513279,
                2.2234912479741946,
                -0.3569110801939608,
                1.0130436134845546,
                -3.0718334458215177
            ]
        },
        {
            "positions": [
                0.08174790875422877,
                -1.9386333596659937,
                2.266919224465452,
                -0.38836130997756435,
                0.9370609264970118,
                -3.084200283143041
            ]
        },
        {
            "positions": [
                0.28993893791826597,
                -1.9295897428187085,
                2.3103472009567096,
                -0.41981153976116786,
                0.8610782395094689,
                -3.0965671204645644
            ]
        },
        {
            "positions": [
                0.49812996708230317,
                -1.9205461259714232,
                2.353775177447967,
                -0.4512617695447714,
                0.7850955525219261,
                -3.108933957786088
            ]
        },
        {
            "positions": [
                0.7063209962463404,
                -1.9115025091241378,
                2.3972031539392247,
                -0.48271199932837494,
                0.7091128655343832,
                -3.1213007951076115
            ]
        }
    ]
}