{
    "goal": {
        "global_pose": {
            "orientation": {
                "w": -0.4816463035849501,
                "x": 0.5182115481033762,
                "y": 0.4908360881923453,
                "z": -0.5084816262002911
            },
            "position": {
                "x": -0.8240239810943604,
                "y": -0.300875300988555,
                "z": 0.16403168439865112
            }
        },
        "name": "move_to_storage_C"
    },
    "id": "TRRT_move_to_storage_C_86",
    "joint_names": [
        "shoulder_pan_joint",
        "shoulder_lift_joint",
        "elbow_joint",
        "wrist_1_joint",
        "wrist_2_joint",
        "wrist_3_joint"
    ],
    "metrics": {
        "cart_traj_len": 0.5770373496620438,
        "distance_elbow_joint": 0.25444239155885673,
        "distance_shoulder_lift_joint": 0.18871589467960448,
        "distance_shoulder_pan_joint": 0.4962621354811061,
        "distance_wrist_1_joint": 0.06748863366001856,
        "distance_wrist_2_joint": 1.0628828480509074,
        "distance_wrist_3_joint": 0.056202654696723364,
        "smoothness": 2.5376526478085547e-16,
        "time": 0.020894705,
        "traj_len": 1.4580790644293664,
        "weighted_distance": 1.8354213002010162
    },
    "planner": "TRRT",
    "start": {
        "state": {
            "elbow_joint": 2.010868314990456,
            "shoulder_lift_joint": -1.1634956873337592,
            "shoulder_pan_joint": -2.4736205022346125,
            "wrist_1_joint": -0.8367026794202681,
            "wrist_2_joint": 0.6746043897044499,
            "wrist_3_joint": -3.1496632123970403
        }
    },
    "waypoints": [
        {
            "positions": [
                -2.4736205022346125,
                -1.1634956873337592,
                2.010868314990456,
                -0.8367026794202681,
                0.6746043897044499,
                -3.1496632123970403
            ]
        },
        {
            "positions": [
                -2.5563308581481303,
                -1.1320430382204918,
                1.9684612497306464,
                -0.825454573810265,
                0.8517515310462678,
                -3.1402961032809196
            ]
        },
        {
            "positions": [
                -2.6390412140616477,
                -1.1005903891072244,
                1.926054184470837,
                -0.8142064682002619,
                1.0288986723880857,
                -3.1309289941647993
            ]
        },
        {
            "positions": [
                -2.7217515699751655,
                -1.069137739993957,
                1.8836471192110276,
                -0.8029583625902588,
                1.2060458137299035,
                -3.1215618850486786
            ]
        },
        {
            "positions": [
                -2.8044619258886834,
                -1.0376850908806896,
                1.841240053951218,
                -0.7917102569802558,
                1.3831929550717215,
                -3.112194775932558
            ]
        },
        {
            "positions": [
                -2.8871722818022008,
                -1.006232441767422,
                1.7988329886914085,
                -0.7804621513702527,
                1.5603400964135394,
                -3.1028276668164376
            ]
        },
        {
            "positions": [
                -2.9698826377157186,
                -0.9747797926541547,
                1.756425923431599,
                -0.7692140457602495,
                1.7374872377553574,
                -3.093460557700317
            ]
        }
    ]
}