{
    "goal": {
        "global_pose": {
            "orientation": {
                "w": -0.4816463035849501,
                "x": 0.5182115481033762,
                "y": 0.4908360881923453,
                "z": -0.5084816262002911
            },
            "position": {
                "x": -0.8240239810943604,
                "y": 0.19912469901144506,
                "z": 0.16403168439865112
            }
        },
        "name": "move_to_storage_D"
    },
    "id": "TRRT_move_to_storage_D_121",
    "joint_names": [
        "shoulder_pan_joint",
        "shoulder_lift_joint",
        "elbow_joint",
        "wrist_1_joint",
        "wrist_2_joint",
        "wrist_3_joint"
    ],
    "metrics": {
        "cart_traj_len": 1.7673541506367423,
        "distance_elbow_joint": 1.0814179482029818,
        "distance_shoulder_lift_joint": 1.226110066531263,
        "distance_shoulder_pan_joint": 0.7990658811040885,
        "distance_wrist_1_joint": 3.8228151486255753,
        "distance_wrist_2_joint": 1.7881186453960383,
        "distance_wrist_3_joint": 3.1185018864257246,
        "smoothness": 0.15554429382067075,
        "time": 0.078011418,
        "traj_len": 3.440353117964153,
        "weighted_distance": 4.86661762861628
    },
    "planner": "TRRT",
    "start": {
        "state": {
            "elbow_joint": -2.384821988534728,
            "shoulder_lift_joint": -2.2788054721415256,
            "shoulder_pan_joint": -0.1854694642142757,
            "wrist_1_joint": 1.4845938289331202,
            "wrist_2_joint": 0.17898776772866878,
            "wrist_3_joint": 0.037105688729662994
        }
    },
    "waypoints": [
        {
            "positions": [
                -0.1854694642142757,
                -2.2788054721415256,
                -2.384821988534728,
                1.4845938289331202,
                0.17898776772866878,
                0.037105688729662994
            ]
        },
        {
            "positions": [
                -0.2203504895177294,
                -2.264980107781114,
                -2.3850633115380955,
                1.385477584502648,
                0.08146386045134657,
                0.01540766268637634
            ]
        },
        {
            "positions": [
                -0.2552315148211831,
                -2.251154743420702,
                -2.3853046345414635,
                1.2863613400721758,
                -0.016060046825975643,
                -0.006290363356910314
            ]
        },
        {
            "positions": [
                -0.29011254012463683,
                -2.23732937906029,
                -2.385545957544831,
                1.1872450956417036,
                -0.11358395410329791,
                -0.02798838940019698
            ]
        },
        {
            "positions": [
                -0.34415506950215513,
                -2.166670834266364,
                -2.3783883068146907,
                1.1504330112365353,
                -0.20033907426580808,
                -0.06263643264163164
            ]
        },
        {
            "positions": [
                -0.39819759887967343,
                -2.096012289472437,
                -2.37123065608455,
                1.113620926831367,
                -0.28709419442831824,
                -0.09728447588306631
            ]
        },
        {
            "positions": [
                -0.45224012825719173,
                -2.025353744678511,
                -2.3640730053544097,
                1.0768088424261988,
                -0.37384931459082843,
                -0.131932519124501
            ]
        },
        {
            "positions": [
                -0.47139037382466403,
                -1.9242524991969712,
                -2.280416458310503,
                1.0580470808180054,
                -0.4107942711533129,
                -0.22412006949013277
            ]
        },
        {
            "positions": [
                -0.4905406193921363,
                -1.8231512537154317,
                -2.1967599112665965,
                1.039285319209812,
                -0.44773922771579744,
                -0.31630761985576455
            ]
        },
        {
            "positions": [
                -0.5096908649596086,
                -1.722050008233892,
                -2.11310336422269,
                1.0205235576016185,
                -0.4846841842782819,
                -0.40849517022139636
            ]
        },
        {
            "positions": [
                -0.4741019532159983,
                -1.695659724564269,
                -2.0038491970065597,
                0.9366430384306726,
                -0.4912855089799107,
                -0.5065158940476631
            ]
        },
        {
            "positions": [
                -0.438513041472388,
                -1.669269440894646,
                -1.8945950297904293,
                0.8527625192597269,
                -0.49788683368153946,
                -0.6045366178739298
            ]
        },
        {
            "positions": [
                -0.4029241297287778,
                -1.642879157225023,
                -1.785340862574299,
                0.768882000088781,
                -0.5044881583831682,
                -0.7025573417001965
            ]
        },
        {
            "positions": [
                -0.36733521798516744,
                -1.6164888735554,
                -1.6760866953581686,
                0.6850014809178353,
                -0.511089483084797,
                -0.8005780655264632
            ]
        },
        {
            "positions": [
                -0.3317463062415572,
                -1.590098589885777,
                -1.5668325281420383,
                0.6011209617468894,
                -0.5176908077864257,
                -0.8985987893527299
            ]
        },
        {
            "positions": [
                -0.316119994576257,
                -1.6183829680055408,
                -1.5806209781309901,
                0.4464187364079766,
                -0.5751350219906859,
                -1.013482863476063
            ]
        },
        {
            "positions": [
                -0.3004936829109568,
                -1.6466673461253047,
                -1.5944094281199421,
                0.29171651106906366,
                -0.6325792361949462,
                -1.1283669375993963
            ]
        },
        {
            "positions": [
                -0.28486737124565653,
                -1.6749517242450687,
                -1.608197878108894,
                0.1370142857301508,
                -0.6900234503992063,
                -1.2432510117227296
            ]
        },
        {
            "positions": [
                -0.2692410595803563,
                -1.7032361023648326,
                -1.621986328097846,
                -0.017687939608762138,
                -0.7474676646034665,
                -1.3581350858460628
            ]
        },
        {
            "positions": [
                -0.2536147479150561,
                -1.7315204804845965,
                -1.6357747780867977,
                -0.172390164947675,
                -0.8049118788077267,
                -1.473019159969396
            ]
        },
        {
            "positions": [
                -0.23798843624975588,
                -1.7598048586043604,
                -1.6495632280757497,
                -0.3270923902865879,
                -0.8623560930119869,
                -1.5879032340927293
            ]
        },
        {
            "positions": [
                -0.22236212458445564,
                -1.7880892367241243,
                -1.6633516780647015,
                -0.48179461562550074,
                -0.9198003072162471,
                -1.7027873082160625
            ]
        },
        {
            "positions": [
                -0.20673581291915544,
                -1.8163736148438883,
                -1.6771401280536535,
                -0.6364968409644137,
                -0.9772445214205072,
                -1.8176713823393957
            ]
        },
        {
            "positions": [
                -0.19110950125385523,
                -1.844657992963652,
                -1.6909285780426053,
                -0.7911990663033265,
                -1.0346887356247674,
                -1.932555456462729
            ]
        },
        {
            "positions": [
                -0.175483189588555,
                -1.872942371083416,
                -1.7047170280315573,
                -0.9459012916422395,
                -1.0921329498290278,
                -2.047439530586062
            ]
        },
        {
            "positions": [
                -0.15985687792325476,
                -1.9012267492031798,
                -1.7185054780205091,
                -1.1006035169811526,
                -1.149577164033288,
                -2.162323604709395
            ]
        },
        {
            "positions": [
                -0.14423056625795455,
                -1.9295111273229437,
                -1.7322939280094611,
                -1.2553057423200653,
                -1.207021378237548,
                -2.2772076788327285
            ]
        },
        {
            "positions": [
                -0.12860425459265432,
                -1.9577955054427076,
                -1.746082377998413,
                -1.410007967658978,
                -1.2644655924418082,
                -2.3920917529560617
            ]
        },
        {
            "positions": [
                -0.11297794292735411,
                -1.9860798835624716,
                -1.759870827987365,
                -1.5647101929978908,
                -1.3219098066460684,
                -2.506975827079395
            ]
        },
        {
            "positions": [
                -0.09735163126205387,
                -2.0143642616822355,
                -1.7736592779763167,
                -1.719412418336804,
                -1.3793540208503288,
                -2.621859901202728
            ]
        },
        {
            "positions": [
                -0.08172531959675366,
                -2.0426486398019996,
                -1.7874477279652687,
                -1.8741146436757168,
                -1.4367982350545887,
                -2.7367439753260614
            ]
        },
        {
            "positions": [
                -0.0660990079314534,
                -2.0709330179217633,
                -1.8012361779542205,
                -2.0288168690146295,
                -1.494242449258849,
                -2.8516280494493946
            ]
        },
        {
            "positions": [
                -0.05047269626615325,
                -2.099217396041527,
                -1.8150246279431723,
                -2.1835190943535423,
                -1.5516866634631092,
                -2.966512123572728
            ]
        },
        {
            "positions": [
                -0.034846384600852966,
                -2.127501774161291,
                -1.8288130779321243,
                -2.3382213196924555,
                -1.6091308776673694,
                -3.0813961976960615
            ]
        }
    ]
}