{
    "goal": {
        "global_pose": {
            "orientation": {
                "w": 0.5084816217422485,
                "x": -0.49083608388900757,
                "y": 0.5182115435600281,
                "z": -0.4816462993621826
            },
            "position": {
                "x": 0.5540239810943604,
                "y": 0.030875300988554955,
                "z": 0.16403168439865112
            }
        },
        "name": "move_to_storage_A"
    },
    "id": "TRRT_move_to_storage_A_148",
    "joint_names": [
        "shoulder_pan_joint",
        "shoulder_lift_joint",
        "elbow_joint",
        "wrist_1_joint",
        "wrist_2_joint",
        "wrist_3_joint"
    ],
    "metrics": {
        "cart_traj_len": 0.35341706996440214,
        "distance_elbow_joint": 0.4473741692664557,
        "distance_shoulder_lift_joint": 0.2334203463878497,
        "distance_shoulder_pan_joint": 0.4639960695090015,
        "distance_wrist_1_joint": 0.23571665169587186,
        "distance_wrist_2_joint": 1.090435655160446,
        "distance_wrist_3_joint": 0.0908904193080513,
        "smoothness": 2.2204460668324854e-16,
        "time": 0.028412437,
        "traj_len": 1.600572807256101,
        "weighted_distance": 2.0173662178196836
    },
    "planner": "TRRT",
    "start": {
        "state": {
            "elbow_joint": 1.971548259319323,
            "shoulder_lift_joint": -1.1394851275133948,
            "shoulder_pan_joint": 0.1228115487234821,
            "wrist_1_joint": -0.7804723859257726,
            "wrist_2_joint": 0.12958671773740124,
            "wrist_3_joint": -3.192489227718131
        }
    },
    "waypoints": [
        {
            "positions": [
                0.1228115487234821,
                -1.1394851275133948,
                1.971548259319323,
                -0.7804723859257726,
                0.12958671773740124,
                -3.192489227718131
            ]
        },
        {
            "positions": [
                0.056526395936481885,
                -1.1728308912830876,
                2.035458854928817,
                -0.8141461933108972,
                0.28536323990317924,
                -3.1795048821026954
            ]
        },
        {
            "positions": [
                -0.00975875685051833,
                -1.2061766550527804,
                2.0993694505383105,
                -0.8478200006960217,
                0.4411397620689572,
                -3.1665205364872593
            ]
        },
        {
            "positions": [
                -0.07604390963751853,
                -1.2395224188224732,
                2.163280046147804,
                -0.8814938080811463,
                0.5969162842347352,
                -3.1535361908718236
            ]
        },
        {
            "positions": [
                -0.14232906242451876,
                -1.2728681825921662,
                2.2271906417572978,
                -0.9151676154662708,
                0.7526928064005132,
                -3.1405518452563874
            ]
        },
        {
            "positions": [
                -0.20861421521151902,
                -1.306213946361859,
                2.2911012373667914,
                -0.9488414228513954,
                0.9084693285662913,
                -3.1275674996409517
            ]
        },
        {
            "positions": [
                -0.27489936799851916,
                -1.3395597101315517,
                2.355011832976285,
                -0.9825152302365199,
                1.0642458507320691,
                -3.1145831540255156
            ]
        },
        {
            "positions": [
                -0.3411845207855194,
                -1.3729054739012445,
                2.4189224285857787,
                -1.0161890376216445,
                1.2200223728978472,
                -3.10159880841008
            ]
        }
    ]
}{
    "goal": {
        "global_pose": {
            "orientation": {
                "w": 0.5084816217422485,
                "x": -0.49083608388900757,
                "y": 0.5182115435600281,
                "z": -0.4816462993621826
            },
            "position": {
                "x": 0.5540239810943604,
                "y": 0.030875300988554955,
                "z": 0.16403168439865112
            }
        },
        "name": "move_to_storage_A"
    },
    "id": "TRRT_move_to_storage_A_148",
    "joint_names": [
        "shoulder_pan_joint",
        "shoulder_lift_joint",
        "elbow_joint",
        "wrist_1_joint",
        "wrist_2_joint",
        "wrist_3_joint"
    ],
    "metrics": {
        "cart_traj_len": 0.3536203011078366,
        "distance_elbow_joint": 0.4492528405539593,
        "distance_shoulder_lift_joint": 0.23495995143987636,
        "distance_shoulder_pan_joint": 0.46346737761586565,
        "distance_wrist_1_joint": 0.2354775617348599,
        "distance_wrist_2_joint": 1.0958181235637485,
        "distance_wrist_3_joint": 0.08839207808985039,
        "smoothness": 1.7763568394002505e-15,
        "time": 0.027836734,
        "traj_len": 1.6023008247511328,
        "weighted_distance": 2.018773829451053
    },
    "planner": "TRRT",
    "start": {
        "state": {
            "elbow_joint": 1.97154746011099,
            "shoulder_lift_joint": -1.13948474672311,
            "shoulder_pan_joint": 0.12281154466712228,
            "wrist_1_joint": -0.7804688027058302,
            "wrist_2_joint": 0.12958655903071145,
            "wrist_3_joint": 3.0906928834467795
        }
    },
    "waypoints": [
        {
            "positions": [
                0.12281154466712228,
                -1.13948474672311,
                1.97154746011099,
                -0.7804688027058302,
                0.12958655903071145,
                3.0906928834467795
            ]
        },
        {
            "positions": [
                0.0566019192934272,
                -1.1730504540716638,
                2.035726437332984,
                -0.8141084543822388,
                0.2861320052541041,
                3.103320323173901
            ]
        },
        {
            "positions": [
                -0.009607706080267883,
                -1.2066161614202175,
                2.0999054145549785,
                -0.8477481060586473,
                0.4426774514774967,
                3.1159477629010226
            ]
        },
        {
            "positions": [
                -0.07581733145396298,
                -1.2401818687687713,
                2.1640843917769725,
                -0.8813877577350558,
                0.5992228977008893,
                3.128575202628144
            ]
        },
        {
            "positions": [
                -0.14202695682765804,
                -1.273747576117325,
                2.2282633689989666,
                -0.9150274094114644,
                0.755768343924282,
                3.1412026423552653
            ]
        },
        {
            "positions": [
                -0.20823658220135316,
                -1.3073132834658787,
                2.2924423462209607,
                -0.9486670610878729,
                0.9123137901476748,
                3.153830082082387
            ]
        },
        {
            "positions": [
                -0.27444620757504823,
                -1.3408789908144325,
                2.356621323442955,
                -0.9823067127642815,
                1.0688592363710672,
                3.1664575218095083
            ]
        },
        {
            "positions": [
                -0.34065583294874335,
                -1.3744446981629863,
                2.4208003006649492,
                -1.01594636444069,
                1.22540468259446,
                3.17908496153663
            ]
        }
    ]
}{
    "goal": {
        "global_pose": {
            "orientation": {
                "w": 0.5084816217422485,
                "x": -0.49083608388900757,
                "y": 0.5182115435600281,
                "z": -0.4816462993621826
            },
            "position": {
                "x": 0.5540239810943604,
                "y": 0.030875300988554955,
                "z": 0.16403168439865112
            }
        },
        "name": "move_to_storage_A"
    },
    "id": "TRRT_move_to_storage_A_148",
    "joint_names": [
        "shoulder_pan_joint",
        "shoulder_lift_joint",
        "elbow_joint",
        "wrist_1_joint",
        "wrist_2_joint",
        "wrist_3_joint"
    ],
    "metrics": {
        "cart_traj_len": 0.35219011298501357,
        "distance_elbow_joint": 0.4489698014469523,
        "distance_shoulder_lift_joint": 0.2344778119504094,
        "distance_shoulder_pan_joint": 0.45750932987354287,
        "distance_wrist_1_joint": 0.23792197492050038,
        "distance_wrist_2_joint": 1.1102258319975704,
        "distance_wrist_3_joint": 0.10133571812591047,
        "smoothness": 4.440892098500626e-16,
        "time": 0.021699568,
        "traj_len": 1.6094845349722642,
        "weighted_distance": 2.0350085286024666
    },
    "planner": "TRRT",
    "start": {
        "state": {
            "elbow_joint": 1.9715472970024885,
            "shoulder_lift_joint": -1.1394870060712896,
            "shoulder_pan_joint": 0.12281152778156021,
            "wrist_1_joint": -0.780463741449964,
            "wrist_2_joint": 0.12958659822042276,
            "wrist_3_joint": 3.090690232415272
        }
    },
    "waypoints": [
        {
            "positions": [
                0.12281152778156021,
                -1.1394870060712896,
                1.9715472970024885,
                -0.780463741449964,
                0.12958659822042276,
                3.090690232415272
            ]
        },
        {
            "positions": [
                0.05745305208533981,
                -1.1729838363499194,
                2.0356858400663387,
                -0.8144525950100355,
                0.28819028850579,
                3.105166763576116
            ]
        },
        {
            "positions": [
                -0.007905423610880591,
                -1.2064806666285495,
                2.0998243831301893,
                -0.848441448570107,
                0.4467939787911571,
                3.1196432947369606
            ]
        },
        {
            "positions": [
                -0.073263899307101,
                -1.2399774969071793,
                2.1639629261940394,
                -0.8824303021301785,
                0.6053976690765244,
                3.134119825897805
            ]
        },
        {
            "positions": [
                -0.1386223750033214,
                -1.2734743271858093,
                2.22810146925789,
                -0.9164191556902499,
                0.7640013593618915,
                3.1485963570586493
            ]
        },
        {
            "positions": [
                -0.20398085069954183,
                -1.3069711574644391,
                2.29224001232174,
                -0.9504080092503214,
                0.9226050496472588,
                3.1630728882194936
            ]
        },
        {
            "positions": [
                -0.2693393263957622,
                -1.340467987743069,
                2.3563785553855903,
                -0.9843968628103928,
                1.081208739932626,
                3.177549419380338
            ]
        },
        {
            "positions": [
                -0.33469780209198263,
                -1.373964818021699,
                2.420517098449441,
                -1.0183857163704644,
                1.2398124302179931,
                3.1920259505411823
            ]
        }
    ]
}