{
    "goal": {
        "global_pose": {
            "orientation": {
                "w": 0.7031023480610252,
                "x": -0.7110244013736278,
                "y": 0.0077485991402295624,
                "z": 0.005598929693374583
            },
            "position": {
                "x": -0.8841497679147869,
                "y": 0.44412534475326537,
                "z": 0.3711530566215515
            }
        },
        "name": "move_to_auspresseinheit_D"
    },
    "id": "TRRT_move_to_auspresseinheit_D_96",
    "joint_names": [
        "shoulder_pan_joint",
        "shoulder_lift_joint",
        "elbow_joint",
        "wrist_1_joint",
        "wrist_2_joint",
        "wrist_3_joint"
    ],
    "metrics": {
        "cart_traj_len": 0.34279641018188745,
        "distance_elbow_joint": 0.6321140431264753,
        "distance_shoulder_lift_joint": 0.11727887866639186,
        "distance_shoulder_pan_joint": 0.13376982457519684,
        "distance_wrist_1_joint": 0.5205378679038013,
        "distance_wrist_2_joint": 1.4338198032863583,
        "distance_wrist_3_joint": 0.006146783667063005,
        "smoothness": 0.0,
        "time": 0.031609469,
        "traj_len": 1.6863176454112334,
        "weighted_distance": 2.193243816758541
    },
    "planner": "TRRT",
    "start": {
        "state": {
            "elbow_joint": -1.8275523626775212,
            "shoulder_lift_joint": -2.126789852344167,
            "shoulder_pan_joint": -0.03513704404078235,
            "wrist_1_joint": -2.347782403156801,
            "wrist_2_joint": -1.6058999987535132,
            "wrist_3_joint": -3.0880379163319196
        }
    },
    "waypoints": [
        {
            "positions": [
                -0.03513704404078235,
                -2.126789852344167,
                -1.8275523626775212,
                -2.347782403156801,
                -1.6058999987535132,
                -3.0880379163319196
            ]
        },
        {
            "positions": [
                -0.05185827211268196,
                -2.141449712177466,
                -1.7485381072867119,
                -2.412849636644776,
                -1.4266725233427184,
                -3.0888062642903025
            ]
        },
        {
            "positions": [
                -0.06857950018458156,
                -2.156109572010765,
                -1.6695238518959024,
                -2.477916870132751,
                -1.2474450479319237,
                -3.0895746122486853
            ]
        },
        {
            "positions": [
                -0.08530072825648116,
                -2.1707694318440636,
                -1.5905095965050928,
                -2.5429841036207264,
                -1.068217572521129,
                -3.0903429602070682
            ]
        },
        {
            "positions": [
                -0.10202195632838076,
                -2.1854292916773628,
                -1.5114953411142835,
                -2.6080513371087015,
                -0.888990097110334,
                -3.091111308165451
            ]
        },
        {
            "positions": [
                -0.11874318440028037,
                -2.200089151510662,
                -1.4324810857234742,
                -2.6731185705966767,
                -0.7097626216995393,
                -3.091879656123834
            ]
        },
        {
            "positions": [
                -0.13546441247218,
                -2.2147490113439607,
                -1.3534668303326647,
                -2.738185804084652,
                -0.5305351462887444,
                -3.092648004082217
            ]
        },
        {
            "positions": [
                -0.1521856405440796,
                -2.2294088711772595,
                -1.2744525749418552,
                -2.803253037572627,
                -0.3513076708779497,
                -3.0934163520405997
            ]
        },
        {
            "positions": [
                -0.1689068686159792,
                -2.2440687310105587,
                -1.1954383195510458,
                -2.868320271060602,
                -0.1720801954671549,
                -3.0941846999989826
            ]
        }
    ]
}