{
    "goal": {
        "global_pose": {
            "orientation": {
                "w": 0.5084816217422485,
                "x": -0.49083608388900757,
                "y": 0.5182115435600281,
                "z": -0.4816462993621826
            },
            "position": {
                "x": 0.5540239810943604,
                "y": 0.030875300988554955,
                "z": 0.16403168439865112
            }
        },
        "name": "move_to_storage_A"
    },
    "id": "TRRT_move_to_storage_A_113",
    "joint_names": [
        "shoulder_pan_joint",
        "shoulder_lift_joint",
        "elbow_joint",
        "wrist_1_joint",
        "wrist_2_joint",
        "wrist_3_joint"
    ],
    "metrics": {
        "cart_traj_len": 0.3535659203569856,
        "distance_elbow_joint": 0.4496111359254449,
        "distance_shoulder_lift_joint": 0.23398706955450965,
        "distance_shoulder_pan_joint": 0.46015360080533085,
        "distance_wrist_1_joint": 0.24231547046597102,
        "distance_wrist_2_joint": 1.1088857351764516,
        "distance_wrist_3_joint": 0.09159867879568395,
        "smoothness": 6.661338165333112e-16,
        "time": 0.015182329,
        "traj_len": 1.608275999548396,
        "weighted_distance": 2.03001237778423
    },
    "planner": "TRRT",
    "start": {
        "state": {
            "elbow_joint": 1.971548259319323,
            "shoulder_lift_joint": -1.1394851275133948,
            "shoulder_pan_joint": 0.1228115487234821,
            "wrist_1_joint": -0.7804723859257726,
            "wrist_2_joint": 0.12958671773740124,
            "wrist_3_joint": -3.192489227718131
        }
    },
    "waypoints": [
        {
            "positions": [
                0.1228115487234821,
                -1.1394851275133948,
                1.971548259319323,
                -0.7804723859257726,
                0.12958671773740124,
                -3.192489227718131
            ]
        },
        {
            "positions": [
                0.05707532003700627,
                -1.1729118517354675,
                2.0357784215943866,
                -0.8150888817066256,
                0.28799896561975147,
                -3.1794037021758905
            ]
        },
        {
            "positions": [
                -0.008660908649469556,
                -1.2063385759575405,
                2.10000858386945,
                -0.8497053774874787,
                0.44641121350210167,
                -3.16631817663365
            ]
        },
        {
            "positions": [
                -0.07439713733594538,
                -1.2397653001796132,
                2.164238746144514,
                -0.8843218732683316,
                0.6048234613844519,
                -3.1532326510914093
            ]
        },
        {
            "positions": [
                -0.1401333660224212,
                -1.273192024401686,
                2.2284689084195772,
                -0.9189383690491846,
                0.7632357092668022,
                -3.140147125549169
            ]
        },
        {
            "positions": [
                -0.2058695947088971,
                -1.3066187486237588,
                2.2926990706946406,
                -0.9535548648300376,
                0.9216479571491525,
                -3.1270616000069285
            ]
        },
        {
            "positions": [
                -0.27160582339537287,
                -1.3400454728458318,
                2.3569292329697045,
                -0.9881713606108906,
                1.0800602050315025,
                -3.113976074464688
            ]
        },
        {
            "positions": [
                -0.33734205208184875,
                -1.3734721970679045,
                2.421159395244768,
                -1.0227878563917436,
                1.2384724529138529,
                -3.100890548922447
            ]
        }
    ]
}{
    "goal": {
        "global_pose": {
            "orientation": {
                "w": 0.5084816217422485,
                "x": -0.49083608388900757,
                "y": 0.5182115435600281,
                "z": -0.4816462993621826
            },
            "position": {
                "x": 0.5540239810943604,
                "y": 0.030875300988554955,
                "z": 0.16403168439865112
            }
        },
        "name": "move_to_storage_A"
    },
    "id": "TRRT_move_to_storage_A_113",
    "joint_names": [
        "shoulder_pan_joint",
        "shoulder_lift_joint",
        "elbow_joint",
        "wrist_1_joint",
        "wrist_2_joint",
        "wrist_3_joint"
    ],
    "metrics": {
        "cart_traj_len": 0.3523582562845258,
        "distance_elbow_joint": 0.44818680971266556,
        "distance_shoulder_lift_joint": 0.2340801731910931,
        "distance_shoulder_pan_joint": 0.46166295289784626,
        "distance_wrist_1_joint": 0.23765167088309735,
        "distance_wrist_2_joint": 1.093026299036274,
        "distance_wrist_3_joint": 0.08756299970387449,
        "smoothness": 1.7763568394002505e-15,
        "time": 0.044027595999999995,
        "traj_len": 1.600678264182047,
        "weighted_distance": 2.016922129074886
    },
    "planner": "TRRT",
    "start": {
        "state": {
            "elbow_joint": 1.97154746011099,
            "shoulder_lift_joint": -1.13948474672311,
            "shoulder_pan_joint": 0.12281154466712228,
            "wrist_1_joint": -0.7804688027058302,
            "wrist_2_joint": 0.12958655903071145,
            "wrist_3_joint": 3.0906928834467795
        }
    },
    "waypoints": [
        {
            "positions": [
                0.12281154466712228,
                -1.13948474672311,
                1.97154746011099,
                -0.7804688027058302,
                0.12958655903071145,
                3.0906928834467795
            ]
        },
        {
            "positions": [
                0.056859694253144244,
                -1.1729247714646946,
                2.0355741472127993,
                -0.8144190414034155,
                0.2857331731787506,
                3.1032018834044757
            ]
        },
        {
            "positions": [
                -0.009092156160833795,
                -1.2063647962062793,
                2.0996008343146086,
                -0.8483692801010009,
                0.4418797873267897,
                3.1157108833621723
            ]
        },
        {
            "positions": [
                -0.07504400657481182,
                -1.239804820947864,
                2.163627521416418,
                -0.8823195187985862,
                0.5980264014748289,
                3.1282198833198684
            ]
        },
        {
            "positions": [
                -0.14099585698878986,
                -1.2732448456894487,
                2.2276542085182274,
                -0.9162697574961716,
                0.754173015622868,
                3.140728883277565
            ]
        },
        {
            "positions": [
                -0.2069477074027679,
                -1.3066848704310337,
                2.2916808956200367,
                -0.9502199961937569,
                0.9103196297709072,
                3.153237883235261
            ]
        },
        {
            "positions": [
                -0.2728995578167459,
                -1.3401248951726183,
                2.355707582721846,
                -0.9841702348913421,
                1.0664662439189463,
                3.165746883192958
            ]
        },
        {
            "positions": [
                -0.33885140823072396,
                -1.373564919914203,
                2.4197342698236555,
                -1.0181204735889275,
                1.2226128580669855,
                3.178255883150654
            ]
        }
    ]
}{
    "goal": {
        "global_pose": {
            "orientation": {
                "w": 0.5084816217422485,
                "x": -0.49083608388900757,
                "y": 0.5182115435600281,
                "z": -0.4816462993621826
            },
            "position": {
                "x": 0.5540239810943604,
                "y": 0.030875300988554955,
                "z": 0.16403168439865112
            }
        },
        "name": "move_to_storage_A"
    },
    "id": "TRRT_move_to_storage_A_113",
    "joint_names": [
        "shoulder_pan_joint",
        "shoulder_lift_joint",
        "elbow_joint",
        "wrist_1_joint",
        "wrist_2_joint",
        "wrist_3_joint"
    ],
    "metrics": {
        "cart_traj_len": 0.3527688795556577,
        "distance_elbow_joint": 0.45083407571128964,
        "distance_shoulder_lift_joint": 0.23459862753571925,
        "distance_shoulder_pan_joint": 0.46219217453443845,
        "distance_wrist_1_joint": 0.2445995074100451,
        "distance_wrist_2_joint": 1.094705195716247,
        "distance_wrist_3_joint": 0.10409888704363457,
        "smoothness": 4.440892098500626e-16,
        "time": 0.023230129000000002,
        "traj_len": 1.6096671916739107,
        "weighted_distance": 2.034337962376197
    },
    "planner": "TRRT",
    "start": {
        "state": {
            "elbow_joint": 1.9715472970024885,
            "shoulder_lift_joint": -1.1394870060712896,
            "shoulder_pan_joint": 0.12281152778156021,
            "wrist_1_joint": -0.780463741449964,
            "wrist_2_joint": 0.12958659822042276,
            "wrist_3_joint": 3.090690232415272
        }
    },
    "waypoints": [
        {
            "positions": [
                0.12281152778156021,
                -1.1394870060712896,
                1.9715472970024885,
                -0.780463741449964,
                0.12958659822042276,
                3.090690232415272
            ]
        },
        {
            "positions": [
                0.05678407427664044,
                -1.1730010957192496,
                2.035952164961244,
                -0.8154065282228276,
                0.2859730547513152,
                3.105561501992934
            ]
        },
        {
            "positions": [
                -0.009243379228279336,
                -1.2065151853672094,
                2.10035703292,
                -0.8503493149956911,
                0.44235951128220763,
                3.120432771570596
            ]
        },
        {
            "positions": [
                -0.0752708327331991,
                -1.2400292750151694,
                2.1647619008787555,
                -0.8852921017685548,
                0.5987459678131001,
                3.1353040411482582
            ]
        },
        {
            "positions": [
                -0.14129828623811888,
                -1.2735433646631291,
                2.229166768837511,
                -0.9202348885414183,
                0.7551324243439924,
                3.15017531072592
            ]
        },
        {
            "positions": [
                -0.20732573974303867,
                -1.307057454311089,
                2.293571636796267,
                -0.955177675314282,
                0.9115188808748849,
                3.1650465803035823
            ]
        },
        {
            "positions": [
                -0.27335319324795837,
                -1.3405715439590489,
                2.3579765047550225,
                -0.9901204620871455,
                1.0679053374057774,
                3.179917849881244
            ]
        },
        {
            "positions": [
                -0.3393806467528782,
                -1.3740856336070089,
                2.422381372713778,
                -1.025063248860009,
                1.2242917939366698,
                3.1947891194589064
            ]
        }
    ]
}