{
    "goal": {
        "global_pose": {
            "orientation": {
                "w": 0.5084816217422485,
                "x": -0.49083608388900757,
                "y": 0.5182115435600281,
                "z": -0.4816462993621826
            },
            "position": {
                "x": 0.5540239810943604,
                "y": 0.030875300988554955,
                "z": 0.16403168439865112
            }
        },
        "name": "move_to_storage_A"
    },
    "id": "TRRT_move_to_storage_A_88",
    "joint_names": [
        "shoulder_pan_joint",
        "shoulder_lift_joint",
        "elbow_joint",
        "wrist_1_joint",
        "wrist_2_joint",
        "wrist_3_joint"
    ],
    "metrics": {
        "cart_traj_len": 0.35282642790075397,
        "distance_elbow_joint": 0.44945081592313163,
        "distance_shoulder_lift_joint": 0.23587232912452305,
        "distance_shoulder_pan_joint": 0.46235527476478516,
        "distance_wrist_1_joint": 0.23912308786327985,
        "distance_wrist_2_joint": 1.0946893019229467,
        "distance_wrist_3_joint": 0.08764492400819579,
        "smoothness": 8.881784197001252e-16,
        "time": 0.033816320999999996,
        "traj_len": 1.602852374240018,
        "weighted_distance": 2.0194647735005136
    },
    "planner": "TRRT",
    "start": {
        "state": {
            "elbow_joint": 1.971548259319323,
            "shoulder_lift_joint": -1.1394851275133948,
            "shoulder_pan_joint": 0.1228115487234821,
            "wrist_1_joint": -0.7804723859257726,
            "wrist_2_joint": 0.12958671773740124,
            "wrist_3_joint": -3.192489227718131
        }
    },
    "waypoints": [
        {
            "positions": [
                0.1228115487234821,
                -1.1394851275133948,
                1.971548259319323,
                -0.7804723859257726,
                0.12958671773740124,
                -3.192489227718131
            ]
        },
        {
            "positions": [
                0.056760795185655646,
                -1.1731811745311838,
                2.0357555187369134,
                -0.8146328270490983,
                0.2859709037263936,
                -3.179968524288389
            ]
        },
        {
            "positions": [
                -0.009289958352170807,
                -1.206877221548973,
                2.0999627781545036,
                -0.848793268172424,
                0.44235508971538595,
                -3.1674478208586465
            ]
        },
        {
            "positions": [
                -0.07534071188999725,
                -1.2405732685667619,
                2.164170037572094,
                -0.8829537092957497,
                0.5987392757043783,
                -3.154927117428904
            ]
        },
        {
            "positions": [
                -0.14139146542782371,
                -1.2742693155845508,
                2.228377296989684,
                -0.9171141504190754,
                0.7551234616933707,
                -3.1424064139991623
            ]
        },
        {
            "positions": [
                -0.20744221896565018,
                -1.30796536260234,
                2.292584556407274,
                -0.951274591542401,
                0.9115076476823631,
                -3.12988571056942
            ]
        },
        {
            "positions": [
                -0.2734929725034766,
                -1.341661409620129,
                2.3567918158248644,
                -0.9854350326657267,
                1.0678918336713554,
                -3.1173650071396777
            ]
        },
        {
            "positions": [
                -0.33954372604130306,
                -1.3753574566379179,
                2.4209990752424546,
                -1.0195954737890525,
                1.224276019660348,
                -3.1048443037099354
            ]
        }
    ]
}{
    "goal": {
        "global_pose": {
            "orientation": {
                "w": 0.5084816217422485,
                "x": -0.49083608388900757,
                "y": 0.5182115435600281,
                "z": -0.4816462993621826
            },
            "position": {
                "x": 0.5540239810943604,
                "y": 0.030875300988554955,
                "z": 0.16403168439865112
            }
        },
        "name": "move_to_storage_A"
    },
    "id": "TRRT_move_to_storage_A_88",
    "joint_names": [
        "shoulder_pan_joint",
        "shoulder_lift_joint",
        "elbow_joint",
        "wrist_1_joint",
        "wrist_2_joint",
        "wrist_3_joint"
    ],
    "metrics": {
        "cart_traj_len": 0.3537189668145484,
        "distance_elbow_joint": 0.45011555036342976,
        "distance_shoulder_lift_joint": 0.23385952826923861,
        "distance_shoulder_pan_joint": 0.46505463433014954,
        "distance_wrist_1_joint": 0.24068584454472153,
        "distance_wrist_2_joint": 1.0892431001355025,
        "distance_wrist_3_joint": 0.09691829734712476,
        "smoothness": 1.7763568429166847e-15,
        "time": 0.015386539000000001,
        "traj_len": 1.6049538793965907,
        "weighted_distance": 2.024757391482901
    },
    "planner": "TRRT",
    "start": {
        "state": {
            "elbow_joint": 1.97154746011099,
            "shoulder_lift_joint": -1.13948474672311,
            "shoulder_pan_joint": 0.12281154466712228,
            "wrist_1_joint": -0.7804688027058302,
            "wrist_2_joint": 0.12958655903071145,
            "wrist_3_joint": 3.0906928834467795
        }
    },
    "waypoints": [
        {
            "positions": [
                0.12281154466712228,
                -1.13948474672311,
                1.97154746011099,
                -0.7804688027058302,
                0.12958655903071145,
                3.0906928834467795
            ]
        },
        {
            "positions": [
                0.056375168334243775,
                -1.1728932507615726,
                2.03584968159148,
                -0.8148524947836475,
                0.2851927161929261,
                3.104538354496369
            ]
        },
        {
            "positions": [
                -0.010061207998634733,
                -1.2063017548000352,
                2.10015190307197,
                -0.8492361868614648,
                0.4407988733551407,
                3.118383825545958
            ]
        },
        {
            "positions": [
                -0.07649758433151323,
                -1.2397102588384978,
                2.16445412455246,
                -0.8836198789392823,
                0.5964050305173554,
                3.1322292965955474
            ]
        },
        {
            "positions": [
                -0.14293396066439173,
                -1.2731187628769605,
                2.2287563460329496,
                -0.9180035710170996,
                0.75201118767957,
                3.1460747676451364
            ]
        },
        {
            "positions": [
                -0.20937033699727026,
                -1.3065272669154233,
                2.2930585675134396,
                -0.9523872630949171,
                0.9076173448417847,
                3.159920238694726
            ]
        },
        {
            "positions": [
                -0.2758067133301487,
                -1.339935770953886,
                2.3573607889939296,
                -0.9867709551727344,
                1.0632235020039993,
                3.173765709744315
            ]
        },
        {
            "positions": [
                -0.34224308966302724,
                -1.3733442749923486,
                2.4216630104744197,
                -1.0211546472505517,
                1.218829659166214,
                3.1876111807939043
            ]
        }
    ]
}{
    "goal": {
        "global_pose": {
            "orientation": {
                "w": 0.5084816217422485,
                "x": -0.49083608388900757,
                "y": 0.5182115435600281,
                "z": -0.4816462993621826
            },
            "position": {
                "x": 0.5540239810943604,
                "y": 0.030875300988554955,
                "z": 0.16403168439865112
            }
        },
        "name": "move_to_storage_A"
    },
    "id": "TRRT_move_to_storage_A_88",
    "joint_names": [
        "shoulder_pan_joint",
        "shoulder_lift_joint",
        "elbow_joint",
        "wrist_1_joint",
        "wrist_2_joint",
        "wrist_3_joint"
    ],
    "metrics": {
        "cart_traj_len": 0.3530829483454349,
        "distance_elbow_joint": 0.4502060808925008,
        "distance_shoulder_lift_joint": 0.23498809867203496,
        "distance_shoulder_pan_joint": 0.46075430092228126,
        "distance_wrist_1_joint": 0.24444460004204083,
        "distance_wrist_2_joint": 1.1031051593981391,
        "distance_wrist_3_joint": 0.09352276019536054,
        "smoothness": 8.881784197001252e-16,
        "time": 0.021886056,
        "traj_len": 1.6084218974269024,
        "weighted_distance": 2.030176415968144
    },
    "planner": "TRRT",
    "start": {
        "state": {
            "elbow_joint": 1.9715472970024885,
            "shoulder_lift_joint": -1.1394870060712896,
            "shoulder_pan_joint": 0.12281152778156021,
            "wrist_1_joint": -0.780463741449964,
            "wrist_2_joint": 0.12958659822042276,
            "wrist_3_joint": 3.090690232415272
        }
    },
    "waypoints": [
        {
            "positions": [
                0.12281152778156021,
                -1.1394870060712896,
                1.9715472970024885,
                -0.780463741449964,
                0.12958659822042276,
                3.090690232415272
            ]
        },
        {
            "positions": [
                0.0569894847926629,
                -1.173056734453009,
                2.035862451415703,
                -0.8153843985988269,
                0.28717304956301404,
                3.104050626728895
            ]
        },
        {
            "positions": [
                -0.008832558196234408,
                -1.206626462834728,
                2.100177605828917,
                -0.8503050557476899,
                0.44475950090560534,
                3.1174110210425177
            ]
        },
        {
            "positions": [
                -0.07465460118513173,
                -1.2401961912164474,
                2.1644927602421316,
                -0.8852257128965529,
                0.6023459522481966,
                3.130771415356141
            ]
        },
        {
            "positions": [
                -0.14047664417402903,
                -1.2737659195981668,
                2.228807914655346,
                -0.9201463700454159,
                0.759932403590788,
                3.1441318096697635
            ]
        },
        {
            "positions": [
                -0.20629868716292635,
                -1.307335647979886,
                2.2931230690685607,
                -0.9550670271942789,
                0.9175188549333793,
                3.1574922039833866
            ]
        },
        {
            "positions": [
                -0.2721207301518237,
                -1.3409053763616052,
                2.357438223481775,
                -0.9899876843431419,
                1.0751053062759706,
                3.1708525982970093
            ]
        },
        {
            "positions": [
                -0.337942773140721,
                -1.3744751047433246,
                2.4217533778949893,
                -1.0249083414920048,
                1.2326917576185619,
                3.1842129926106324
            ]
        }
    ]
}