{
    "goal": {
        "global_pose": {
            "orientation": {
                "w": 0.7047431468963623,
                "x": -0.7094548344612122,
                "y": 0.0024358443915843964,
                "z": -0.0022348060738295317
            },
            "position": {
                "x": 0.6094750761985779,
                "y": 0.3671506643295288,
                "z": 0.19426114857196808
            }
        },
        "name": "move_to_magneteinheit_A"
    },
    "id": "TRRT_move_to_magneteinheit_A_107",
    "joint_names": [
        "shoulder_pan_joint",
        "shoulder_lift_joint",
        "elbow_joint",
        "wrist_1_joint",
        "wrist_2_joint",
        "wrist_3_joint"
    ],
    "metrics": {
        "cart_traj_len": 3.532998656515996,
        "distance_elbow_joint": 3.917835249931092,
        "distance_shoulder_lift_joint": 1.0522384330474996,
        "distance_shoulder_pan_joint": 2.577015565688519,
        "distance_wrist_1_joint": 3.485453266207278,
        "distance_wrist_2_joint": 1.8978853487405463,
        "distance_wrist_3_joint": 0.6319218583962635,
        "smoothness": 0.1819173472628637,
        "time": 0.10588549,
        "traj_len": 3.682709562538323,
        "weighted_distance": 4.495501312840599
    },
    "planner": "TRRT",
    "start": {
        "state": {
            "elbow_joint": -1.9196185241190666,
            "shoulder_lift_joint": -1.2443396400964142,
            "shoulder_pan_joint": 2.6996025414629847,
            "wrist_1_joint": -1.5485510000780065,
            "wrist_2_joint": -1.5709468930060704,
            "wrist_3_joint": 0.4420197071253992
        }
    },
    "waypoints": [
        {
            "positions": [
                2.6996025414629847,
                -1.2443396400964142,
                -1.9196185241190666,
                -1.5485510000780065,
                -1.5709468930060704,
                0.4420197071253992
            ]
        },
        {
            "positions": [
                2.6946577478809175,
                -1.2352041621273602,
                -1.9171935304981456,
                -1.5471757557036763,
                -1.5622628605856361,
                0.4499179415770585
            ]
        },
        {
            "positions": [
                2.594151980315308,
                -1.2027155774726985,
                -1.8319151962579652,
                -1.464423370730842,
                -1.4915908352940472,
                0.428548591303872
            ]
        },
        {
            "positions": [
                2.4936462127496983,
                -1.1702269928180369,
                -1.7466368620177848,
                -1.381670985758008,
                -1.4209188100024586,
                0.4071792410306856
            ]
        },
        {
            "positions": [
                2.3931404451840885,
                -1.1377384081633752,
                -1.6613585277776044,
                -1.2989186007851738,
                -1.35024678471087,
                0.3858098907574991
            ]
        },
        {
            "positions": [
                2.292634677618479,
                -1.1052498235087136,
                -1.576080193537424,
                -1.2161662158123399,
                -1.279574759419281,
                0.3644405404843126
            ]
        },
        {
            "positions": [
                2.19212891005287,
                -1.072761238854052,
                -1.4908018592972434,
                -1.1334138308395056,
                -1.2089027341276923,
                0.34307119021112614
            ]
        },
        {
            "positions": [
                2.09162314248726,
                -1.0402726541993903,
                -1.4055235250570632,
                -1.0506614458666717,
                -1.1382307088361034,
                0.32170183993793966
            ]
        },
        {
            "positions": [
                1.9911173749216502,
                -1.0077840695447287,
                -1.3202451908168826,
                -0.9679090608938374,
                -1.0675586835445148,
                0.30033248966475323
            ]
        },
        {
            "positions": [
                1.8906116073560408,
                -0.975295484890067,
                -1.2349668565767025,
                -0.8851566759210033,
                -0.9968866582529259,
                0.27896313939156675
            ]
        },
        {
            "positions": [
                1.790105839790431,
                -0.9428069002354054,
                -1.1496885223365219,
                -0.8024042909481692,
                -0.9262146329613371,
                0.25759378911838027
            ]
        },
        {
            "positions": [
                1.6896000722248217,
                -0.9103183155807437,
                -1.0644101880963415,
                -0.7196519059753351,
                -0.8555426076697484,
                0.2362244388451938
            ]
        },
        {
            "positions": [
                1.5890943046592119,
                -0.8778297309260821,
                -0.9791318538561611,
                -0.6368995210025009,
                -0.7848705823781595,
                0.21485508857200733
            ]
        },
        {
            "positions": [
                1.4885885370936025,
                -0.8453411462714204,
                -0.8938535196159807,
                -0.5541471360296669,
                -0.7141985570865709,
                0.19348573829882088
            ]
        },
        {
            "positions": [
                1.388082769527993,
                -0.8128525616167589,
                -0.8085751853758003,
                -0.4713947510568328,
                -0.6435265317949821,
                0.1721163880256344
            ]
        },
        {
            "positions": [
                1.2875770019623831,
                -0.7803639769620971,
                -0.7232968511356197,
                -0.3886423660839986,
                -0.5728545065033932,
                0.1507470377524479
            ]
        },
        {
            "positions": [
                1.1870712343967735,
                -0.7478753923074355,
                -0.6380185168954395,
                -0.3058899811111644,
                -0.5021824812118045,
                0.12937768747926143
            ]
        },
        {
            "positions": [
                1.0865654668311642,
                -0.715386807652774,
                -0.5527401826552591,
                -0.2231375961383304,
                -0.43151045592021564,
                0.108008337206075
            ]
        },
        {
            "positions": [
                0.9860596992655546,
                -0.6828982229981123,
                -0.46746184841507876,
                -0.1403852111654964,
                -0.36083843062862697,
                0.08663898693288852
            ]
        },
        {
            "positions": [
                0.8855539316999448,
                -0.6504096383434507,
                -0.38218351417489815,
                -0.05763282619266219,
                -0.2901664053370381,
                0.06526963665970203
            ]
        },
        {
            "positions": [
                0.7850481641343352,
                -0.617921053688789,
                -0.29690517993471777,
                0.025119558780172024,
                -0.2194943800454494,
                0.04390028638651555
            ]
        },
        {
            "positions": [
                0.6845423965687258,
                -0.5854324690341274,
                -0.21162684569453738,
                0.10787194375300602,
                -0.14882235475386074,
                0.022530936113329125
            ]
        },
        {
            "positions": [
                0.584036629003116,
                -0.5529438843794657,
                -0.12634851145435722,
                0.19062432872584,
                -0.07815032946227185,
                0.0011615858401426427
            ]
        },
        {
            "positions": [
                0.48353086143750623,
                -0.5204552997248041,
                -0.041070177214176606,
                0.27337671369867445,
                -0.007478304170682959,
                -0.02020776443304384
            ]
        },
        {
            "positions": [
                0.38302509387189676,
                -0.48796671507014244,
                0.04420815702600381,
                0.3561290986715083,
                0.06319372112090581,
                -0.04157711470623035
            ]
        },
        {
            "positions": [
                0.3265928588962732,
                -0.48684386943586166,
                0.15965849901575535,
                0.44999680610466125,
                0.08055012890518554,
                -0.06986088406346219
            ]
        },
        {
            "positions": [
                0.27016062392064966,
                -0.4857210238015809,
                0.27510884100550687,
                0.5438645135378142,
                0.09790653668946525,
                -0.09814465342069405
            ]
        },
        {
            "positions": [
                0.2554032591060314,
                -0.5150830054768475,
                0.4474196294861589,
                0.6831682887969599,
                0.07500334478496416,
                -0.09054855052600891
            ]
        },
        {
            "positions": [
                0.2406458942914131,
                -0.5444449871521142,
                0.6197304179668108,
                0.8224720640561056,
                0.052100152880463074,
                -0.08295244763132376
            ]
        },
        {
            "positions": [
                0.22588852947679483,
                -0.5738069688273808,
                0.7920412064474627,
                0.9617758393152513,
                0.029196960975962,
                -0.07535634473663862
            ]
        },
        {
            "positions": [
                0.21113116466217655,
                -0.6031689505026475,
                0.9643519949281147,
                1.101079614574397,
                0.006293769071460897,
                -0.06776024184195346
            ]
        },
        {
            "positions": [
                0.19637379984755826,
                -0.6325309321779141,
                1.1366627834087668,
                1.2403833898335428,
                -0.016609422833040177,
                -0.060164138947268325
            ]
        },
        {
            "positions": [
                0.18161643503294,
                -0.6618929138531807,
                1.3089735718894187,
                1.3796871650926885,
                -0.03951261473754125,
                -0.05256803605258318
            ]
        },
        {
            "positions": [
                0.16685907021832175,
                -0.6912548955284474,
                1.4812843603700707,
                1.5189909403518342,
                -0.062415806642042326,
                -0.04497193315789804
            ]
        },
        {
            "positions": [
                0.15210170540370344,
                -0.720616877203714,
                1.6535951488507228,
                1.6582947156109802,
                -0.08531899854654346,
                -0.03737583026321289
            ]
        },
        {
            "positions": [
                0.13734434058908518,
                -0.7499788588789806,
                1.8259059373313749,
                1.797598490870126,
                -0.10822219045104453,
                -0.029779727368527742
            ]
        },
        {
            "positions": [
                0.1225869757744669,
                -0.7793408405542473,
                1.9982167258120267,
                1.9369022661292716,
                -0.1311253823555456,
                -0.022183624473842603
            ]
        }
    ]
}