{
    "goal": {
        "global_pose": {
            "orientation": {
                "w": 0.7031023480610252,
                "x": -0.7110244013736278,
                "y": 0.0077485991402295624,
                "z": 0.005598929693374583
            },
            "position": {
                "x": -0.8841497679147869,
                "y": 0.44412534475326537,
                "z": 0.3711530566215515
            }
        },
        "name": "move_to_auspresseinheit_D"
    },
    "id": "TRRT_move_to_auspresseinheit_D_102",
    "joint_names": [
        "shoulder_pan_joint",
        "shoulder_lift_joint",
        "elbow_joint",
        "wrist_1_joint",
        "wrist_2_joint",
        "wrist_3_joint"
    ],
    "metrics": {
        "cart_traj_len": 0.3422114060018263,
        "distance_elbow_joint": 0.6274814733937903,
        "distance_shoulder_lift_joint": 0.11563830728243163,
        "distance_shoulder_pan_joint": 0.13375437290068243,
        "distance_wrist_1_joint": 0.5011626540432204,
        "distance_wrist_2_joint": 1.4353521990267166,
        "distance_wrist_3_joint": 0.02155749619029823,
        "smoothness": 3.947459674368863e-16,
        "time": 0.036566364,
        "traj_len": 1.6837299376197894,
        "weighted_distance": 2.1942142895094983
    },
    "planner": "TRRT",
    "start": {
        "state": {
            "elbow_joint": -1.8275523626775212,
            "shoulder_lift_joint": -2.126789852344167,
            "shoulder_pan_joint": -0.03513704404078235,
            "wrist_1_joint": -2.347782403156801,
            "wrist_2_joint": -1.6058999987535132,
            "wrist_3_joint": -3.0880379163319196
        }
    },
    "waypoints": [
        {
            "positions": [
                -0.03513704404078235,
                -2.126789852344167,
                -1.8275523626775212,
                -2.347782403156801,
                -1.6058999987535132,
                -3.0880379163319196
            ]
        },
        {
            "positions": [
                -0.05185634065336765,
                -2.1412446407544707,
                -1.7491171785032975,
                -2.4104277349122034,
                -1.4264809738751736,
                -3.0907326033557068
            ]
        },
        {
            "positions": [
                -0.06857563726595295,
                -2.1556994291647746,
                -1.6706819943290736,
                -2.473073066667606,
                -1.247061948996834,
                -3.093427290379494
            ]
        },
        {
            "positions": [
                -0.08529493387853826,
                -2.1701542175750785,
                -1.5922468101548497,
                -2.5357183984230085,
                -1.0676429241184944,
                -3.0961219774032815
            ]
        },
        {
            "positions": [
                -0.10201423049112357,
                -2.184609005985383,
                -1.513811625980626,
                -2.598363730178411,
                -0.8882238992401549,
                -3.0988166644270687
            ]
        },
        {
            "positions": [
                -0.11873352710370888,
                -2.1990637943956868,
                -1.4353764418064023,
                -2.6610090619338136,
                -0.7088048743618153,
                -3.101511351450856
            ]
        },
        {
            "positions": [
                -0.13545282371629416,
                -2.2135185828059907,
                -1.3569412576321784,
                -2.723654393689216,
                -0.5293858494834758,
                -3.1042060384746435
            ]
        },
        {
            "positions": [
                -0.15217212032887947,
                -2.2279733712162946,
                -1.2785060734579545,
                -2.7862997254446187,
                -0.3499668246051362,
                -3.1069007254984307
            ]
        },
        {
            "positions": [
                -0.16889141694146478,
                -2.2424281596265985,
                -1.2000708892837308,
                -2.8489450572000212,
                -0.17054779972679665,
                -3.109595412522218
            ]
        }
    ]
}