{
    "goal": {
        "global_pose": {
            "orientation": {
                "w": 0.5084816262002911,
                "x": -0.4908360881923452,
                "y": 0.5182115481033761,
                "z": -0.48164630358495003
            },
            "position": {
                "x": 0.5540239810943604,
                "y": -0.46912469901144505,
                "z": 0.16403168439865112
            }
        },
        "name": "move_to_storage_B"
    },
    "id": "TRRT_move_to_storage_B_113",
    "joint_names": [
        "shoulder_pan_joint",
        "shoulder_lift_joint",
        "elbow_joint",
        "wrist_1_joint",
        "wrist_2_joint",
        "wrist_3_joint"
    ],
    "metrics": {
        "cart_traj_len": 0.7746623647215246,
        "distance_elbow_joint": 0.3648882933597619,
        "distance_shoulder_lift_joint": 0.4981170853913113,
        "distance_shoulder_pan_joint": 0.3840175096298385,
        "distance_wrist_1_joint": 2.987087879514905,
        "distance_wrist_2_joint": 2.708580085739767,
        "distance_wrist_3_joint": 3.2327457473452124,
        "smoothness": 0.23646921597758186,
        "time": 0.073357279,
        "traj_len": 3.1898960172677726,
        "weighted_distance": 4.726160816236145
    },
    "planner": "TRRT",
    "start": {
        "state": {
            "elbow_joint": 1.664937868594044,
            "shoulder_lift_joint": -0.661644460510453,
            "shoulder_pan_joint": -0.9139846352900073,
            "wrist_1_joint": 2.146753192139373,
            "wrist_2_joint": -2.2341966793290973,
            "wrist_3_joint": 0.005466555786416001
        }
    },
    "waypoints": [
        {
            "positions": [
                -0.9139846352900073,
                -0.661644460510453,
                1.664937868594044,
                2.146753192139373,
                -2.2341966793290973,
                0.005466555786416001
            ]
        },
        {
            "positions": [
                -0.8130923383552906,
                -0.6750226085218365,
                1.6862587348799134,
                2.1271963421127245,
                -2.0564109334379204,
                -0.04079671994776459
            ]
        },
        {
            "positions": [
                -0.8304369249358724,
                -0.700429055093611,
                1.6826191505200823,
                2.0319419011257898,
                -1.949385890108183,
                0.055715810981323936
            ]
        },
        {
            "positions": [
                -0.8477815115164542,
                -0.7258355016653854,
                1.6789795661602511,
                1.9366874601388546,
                -1.8423608467784458,
                0.15222834191041246
            ]
        },
        {
            "positions": [
                -0.8624055457911793,
                -0.7577244037665994,
                1.6845244850220586,
                1.8254952687765624,
                -1.7423411415399945,
                0.270529558232454
            ]
        },
        {
            "positions": [
                -0.8770295800659045,
                -0.7896133058678135,
                1.6900694038838662,
                1.7143030774142702,
                -1.6423214363015435,
                0.38883077455449555
            ]
        },
        {
            "positions": [
                -0.8916536143406297,
                -0.8215022079690276,
                1.6956143227456735,
                1.603110886051978,
                -1.5423017310630922,
                0.5071319908765372
            ]
        },
        {
            "positions": [
                -0.9062776486153549,
                -0.8533911100702417,
                1.701159241607481,
                1.4919186946896856,
                -1.4422820258246412,
                0.6254332071985786
            ]
        },
        {
            "positions": [
                -0.92090168289008,
                -0.8852800121714558,
                1.7067041604692885,
                1.3807265033273934,
                -1.3422623205861899,
                0.7437344235206202
            ]
        },
        {
            "positions": [
                -0.9355257171648051,
                -0.9171689142726699,
                1.712249079331096,
                1.2695343119651012,
                -1.2422426153477386,
                0.8620356398426618
            ]
        },
        {
            "positions": [
                -0.9501497514395304,
                -0.9490578163738839,
                1.7177939981929033,
                1.158342120602809,
                -1.1422229101092878,
                0.9803368561647032
            ]
        },
        {
            "positions": [
                -0.9647737857142555,
                -0.980946718475098,
                1.7233389170547109,
                1.0471499292405166,
                -1.0422032048708365,
                1.0986380724867448
            ]
        },
        {
            "positions": [
                -0.9793978199889807,
                -1.012835620576312,
                1.7288838359165184,
                0.9359577378782247,
                -0.9421834996323853,
                1.2169392888087864
            ]
        },
        {
            "positions": [
                -0.9940218542637058,
                -1.0447245226775261,
                1.734428754778326,
                0.8247655465159323,
                -0.842163794393934,
                1.335240505130828
            ]
        },
        {
            "positions": [
                -1.008645888538431,
                -1.0766134247787402,
                1.7399736736401332,
                0.7135733551536401,
                -0.7421440891554829,
                1.4535417214528694
            ]
        },
        {
            "positions": [
                -1.023269922813156,
                -1.1085023268799543,
                1.7455185925019407,
                0.6023811637913479,
                -0.6421243839170316,
                1.5718429377749112
            ]
        },
        {
            "positions": [
                -1.0378939570878813,
                -1.1403912289811684,
                1.7510635113637483,
                0.49118897242905557,
                -0.5421046786785806,
                1.6901441540969526
            ]
        },
        {
            "positions": [
                -1.043196101993566,
                -1.138630291079296,
                1.775082085286542,
                0.37014136699227473,
                -0.4496966709431941,
                1.8224661175120722
            ]
        },
        {
            "positions": [
                -1.0484982468992505,
                -1.1368693531774237,
                1.7991006592093362,
                0.2490937615554939,
                -0.3572886632078076,
                1.9547880809271918
            ]
        },
        {
            "positions": [
                -1.0538003918049352,
                -1.1351084152755513,
                1.82311923313213,
                0.12804615611871306,
                -0.2648806554724211,
                2.087110044342311
            ]
        },
        {
            "positions": [
                -1.05910253671062,
                -1.133347477373679,
                1.8471378070549238,
                0.006998550681932225,
                -0.17247264773703458,
                2.2194320077574305
            ]
        },
        {
            "positions": [
                -1.0644046816163046,
                -1.1315865394718065,
                1.8711563809777179,
                -0.11404905475484861,
                -0.08006464000164809,
                2.3517539711725504
            ]
        },
        {
            "positions": [
                -1.0697068265219891,
                -1.1298256015699344,
                1.8951749549005117,
                -0.23509666019162945,
                0.012343367733738342,
                2.4840759345876697
            ]
        },
        {
            "positions": [
                -1.0750089714276738,
                -1.128064663668062,
                1.9191935288233055,
                -0.3561442656284103,
                0.10475137546912494,
                2.6163978980027895
            ]
        },
        {
            "positions": [
                -1.0803111163333585,
                -1.1263037257661896,
                1.9432121027460996,
                -0.4771918710651911,
                0.19715938320451143,
                2.748719861417909
            ]
        },
        {
            "positions": [
                -1.0856132612390432,
                -1.1245427878643173,
                1.9672306766688934,
                -0.598239476501972,
                0.2895673909398979,
                2.8810418248330283
            ]
        },
        {
            "positions": [
                -1.0909154061447277,
                -1.122781849962445,
                1.9912492505916874,
                -0.7192870819387528,
                0.3819753986752844,
                3.0133637882481477
            ]
        },
        {
            "positions": [
                -1.0962175510504124,
                -1.1210209120605725,
                2.0152678245144813,
                -0.8403346873755336,
                0.47438340641067084,
                3.1456857516632675
            ]
        }
    ]
}