{
    "goal": {
        "global_pose": {
            "orientation": {
                "w": 0.005598929693374612,
                "x": 0.007748599140229565,
                "y": 0.7110244013736278,
                "z": -0.7031023480610252
            },
            "position": {
                "x": 0.1141497679147869,
                "y": -0.7141253447532654,
                "z": 0.3711530566215515
            }
        },
        "name": "move_to_auspresseinheit_B"
    },
    "id": "TRRT_move_to_auspresseinheit_B_68",
    "joint_names": [
        "shoulder_pan_joint",
        "shoulder_lift_joint",
        "elbow_joint",
        "wrist_1_joint",
        "wrist_2_joint",
        "wrist_3_joint"
    ],
    "metrics": {
        "cart_traj_len": 0.5641092830263461,
        "distance_elbow_joint": 0.06056877488055612,
        "distance_shoulder_lift_joint": 0.29462072493573355,
        "distance_shoulder_pan_joint": 0.5767164246174064,
        "distance_wrist_1_joint": 0.31654226230355487,
        "distance_wrist_2_joint": 0.9896405231035998,
        "distance_wrist_3_joint": 0.004844014452335177,
        "smoothness": 5.075305295617109e-16,
        "time": 0.028386658000000002,
        "traj_len": 1.4976423886539758,
        "weighted_distance": 1.8864791381314057
    },
    "planner": "TRRT",
    "start": {
        "state": {
            "elbow_joint": 2.0193083361928714,
            "shoulder_lift_joint": -1.1220246554650708,
            "shoulder_pan_joint": -1.0952077554168747,
            "wrist_1_joint": -0.8559753972642168,
            "wrist_2_joint": 0.4759566250798843,
            "wrist_3_joint": -3.1240929996934557
        }
    },
    "waypoints": [
        {
            "positions": [
                -1.0952077554168747,
                -1.1220246554650708,
                2.0193083361928714,
                -0.8559753972642168,
                0.4759566250798843,
                -3.1240929996934557
            ]
        },
        {
            "positions": [
                -1.1913271595197756,
                -1.1711281096210264,
                2.0092135403794456,
                -0.8032183535469577,
                0.6408967122638176,
                -3.1232856639513997
            ]
        },
        {
            "positions": [
                -1.2874465636226768,
                -1.220231563776982,
                1.9991187445660195,
                -0.7504613098296985,
                0.8058367994477509,
                -3.122478328209344
            ]
        },
        {
            "positions": [
                -1.3835659677255778,
                -1.2693350179329377,
                1.9890239487525934,
                -0.6977042661124393,
                0.9707768866316842,
                -3.121670992467288
            ]
        },
        {
            "positions": [
                -1.4796853718284788,
                -1.318438472088893,
                1.9789291529391673,
                -0.6449472223951802,
                1.1357169738156174,
                -3.1208636567252324
            ]
        },
        {
            "positions": [
                -1.57580477593138,
                -1.3675419262448487,
                1.9688343571257414,
                -0.5921901786779211,
                1.300657060999551,
                -3.1200563209831764
            ]
        },
        {
            "positions": [
                -1.671924180034281,
                -1.4166453804008043,
                1.9587395613123153,
                -0.5394331349606619,
                1.4655971481834842,
                -3.1192489852411205
            ]
        }
    ]
}