{
    "goal": {
        "global_pose": {
            "orientation": {
                "w": 0.7047431468963623,
                "x": -0.7094548344612122,
                "y": 0.0024358443915843964,
                "z": -0.0022348060738295317
            },
            "position": {
                "x": 0.6094750761985779,
                "y": 0.3671506643295288,
                "z": 0.19426114857196808
            }
        },
        "name": "move_to_magneteinheit_A"
    },
    "id": "TRRT_move_to_magneteinheit_A_138",
    "joint_names": [
        "shoulder_pan_joint",
        "shoulder_lift_joint",
        "elbow_joint",
        "wrist_1_joint",
        "wrist_2_joint",
        "wrist_3_joint"
    ],
    "metrics": {
        "cart_traj_len": 3.0784261093332685,
        "distance_elbow_joint": 3.910652572978822,
        "distance_shoulder_lift_joint": 0.46719722198943026,
        "distance_shoulder_pan_joint": 2.7217176574945623,
        "distance_wrist_1_joint": 3.456441050416516,
        "distance_wrist_2_joint": 1.4309666335769533,
        "distance_wrist_3_joint": 1.1969806507662937,
        "smoothness": 0.05664819818753935,
        "time": 0.090680806,
        "traj_len": 3.6309717414519467,
        "weighted_distance": 4.523861710170707
    },
    "planner": "TRRT",
    "start": {
        "state": {
            "elbow_joint": -1.9196185241190666,
            "shoulder_lift_joint": -1.2443396400964142,
            "shoulder_pan_joint": 2.6996025414629847,
            "wrist_1_joint": -1.5485510000780065,
            "wrist_2_joint": -1.5709468930060704,
            "wrist_3_joint": 0.4420197071253992
        }
    },
    "waypoints": [
        {
            "positions": [
                2.6996025414629847,
                -1.2443396400964142,
                -1.9196185241190666,
                -1.5485510000780065,
                -1.5709468930060704,
                0.4420197071253992
            ]
        },
        {
            "positions": [
                2.5793137718073575,
                -1.2406753965677775,
                -1.809573984517015,
                -1.4573066165795534,
                -1.5330238575783373,
                0.4592011309734117
            ]
        },
        {
            "positions": [
                2.45902500215173,
                -1.237011153039141,
                -1.6995294449149632,
                -1.3660622330811003,
                -1.495100822150604,
                0.4763825548214242
            ]
        },
        {
            "positions": [
                2.3387362324961027,
                -1.2333469095105043,
                -1.5894849053129116,
                -1.274817849582647,
                -1.4571777867228708,
                0.4935639786694367
            ]
        },
        {
            "positions": [
                2.2184474628404756,
                -1.2296826659818678,
                -1.47944036571086,
                -1.183573466084194,
                -1.4192547512951377,
                0.5107454025174493
            ]
        },
        {
            "positions": [
                2.098158693184848,
                -1.2260184224532311,
                -1.3693958261088082,
                -1.0923290825857408,
                -1.3813317158674046,
                0.5279268263654617
            ]
        },
        {
            "positions": [
                1.9778699235292208,
                -1.2223541789245946,
                -1.2593512865067567,
                -1.0010846990872877,
                -1.3434086804396714,
                0.5451082502134742
            ]
        },
        {
            "positions": [
                1.8575811538735933,
                -1.218689935395958,
                -1.149306746904705,
                -0.9098403155888346,
                -1.305485645011938,
                0.5622896740614868
            ]
        },
        {
            "positions": [
                1.737292384217966,
                -1.2150256918673215,
                -1.0392622073026532,
                -0.8185959320903814,
                -1.267562609584205,
                0.5794710979094992
            ]
        },
        {
            "positions": [
                1.6170036145623385,
                -1.2113614483386848,
                -0.9292176677006013,
                -0.7273515485919282,
                -1.2296395741564718,
                0.5966525217575118
            ]
        },
        {
            "positions": [
                1.4967148449067114,
                -1.2076972048100483,
                -0.8191731280985497,
                -0.6361071650934752,
                -1.1917165387287385,
                0.6138339456055243
            ]
        },
        {
            "positions": [
                1.376426075251084,
                -1.2040329612814116,
                -0.709128588496498,
                -0.544862781595022,
                -1.1537935033010054,
                0.6310153694535368
            ]
        },
        {
            "positions": [
                1.2561373055954568,
                -1.2003687177527749,
                -0.5990840488944464,
                -0.4536183980965689,
                -1.1158704678732723,
                0.6481967933015493
            ]
        },
        {
            "positions": [
                1.1358485359398292,
                -1.1967044742241384,
                -0.4890395092923945,
                -0.3623740145981156,
                -1.077947432445539,
                0.6653782171495619
            ]
        },
        {
            "positions": [
                1.015559766284202,
                -1.1930402306955017,
                -0.37899496969034296,
                -0.2711296310996627,
                -1.0400243970178058,
                0.6825596409975744
            ]
        },
        {
            "positions": [
                0.8952709966285748,
                -1.1893759871668652,
                -0.2689504300882912,
                -0.1798852476012096,
                -1.0021013615900727,
                0.6997410648455868
            ]
        },
        {
            "positions": [
                0.7749822269729472,
                -1.1857117436382285,
                -0.1589058904862395,
                -0.08864086410275629,
                -0.9641783261623394,
                0.7169224886935994
            ]
        },
        {
            "positions": [
                0.65469345731732,
                -1.182047500109592,
                -0.04886135088418775,
                0.0026035193956968072,
                -0.9262552907346063,
                0.7341039125416119
            ]
        },
        {
            "positions": [
                0.5344046876616924,
                -1.1783832565809553,
                0.06118318871786399,
                0.09384790289415013,
                -0.8883322553068731,
                0.7512853363896244
            ]
        },
        {
            "positions": [
                0.4141159180060652,
                -1.1747190130523189,
                0.1712277283199155,
                0.18509228639260322,
                -0.85040921987914,
                0.7684667602376369
            ]
        },
        {
            "positions": [
                0.293827148350438,
                -1.1710547695236821,
                0.28127226792196725,
                0.2763366698910561,
                -0.8124861844514067,
                0.7856481840856494
            ]
        },
        {
            "positions": [
                0.17353837869481037,
                -1.1673905259950454,
                0.391316807524019,
                0.3675810533895094,
                -0.7745631490236735,
                0.8028296079336619
            ]
        },
        {
            "positions": [
                0.053249609039183216,
                -1.163726282466409,
                0.5013613471260709,
                0.4588254368879627,
                -0.7366401135959404,
                0.8200110317816744
            ]
        },
        {
            "positions": [
                0.05303700444124139,
                -1.135048557025939,
                0.6197444620507924,
                0.5757941757660346,
                -0.688015494595647,
                0.7521991564953439
            ]
        },
        {
            "positions": [
                0.05282439984329957,
                -1.106370831585469,
                0.7381275769755137,
                0.6927629146441066,
                -0.6393908755953538,
                0.6843872812090134
            ]
        },
        {
            "positions": [
                0.052611795245357744,
                -1.077693106144999,
                0.856510691900235,
                0.8097316535221786,
                -0.5907662565950604,
                0.6165754059226828
            ]
        },
        {
            "positions": [
                0.052399190647415925,
                -1.0490153807045293,
                0.9748938068249564,
                0.9267003924002506,
                -0.5421416375947672,
                0.5487635306363523
            ]
        },
        {
            "positions": [
                0.0521865860494741,
                -1.0203376552640593,
                1.0932769217496778,
                1.0436691312783226,
                -0.4935170185944738,
                0.48095165535002166
            ]
        },
        {
            "positions": [
                0.05197398145153227,
                -0.9916599298235893,
                1.2116600366743993,
                1.1606378701563944,
                -0.4448923995941805,
                0.4131397800636911
            ]
        },
        {
            "positions": [
                0.05176137685359045,
                -0.9629822043831193,
                1.3300431515991207,
                1.2776066090344664,
                -0.3962677805938871,
                0.34532790477736053
            ]
        },
        {
            "positions": [
                0.05154877225564863,
                -0.9343044789426495,
                1.4484262665238419,
                1.3945753479125385,
                -0.3476431615935939,
                0.27751602949103005
            ]
        },
        {
            "positions": [
                0.05133616765770681,
                -0.9056267535021795,
                1.5668093814485633,
                1.5115440867906105,
                -0.2990185425933005,
                0.20970415420469946
            ]
        },
        {
            "positions": [
                0.05112356305976498,
                -0.8769490280617095,
                1.6851924963732847,
                1.6285128256686825,
                -0.25039392359300716,
                0.14189227891836886
            ]
        },
        {
            "positions": [
                0.05091095846182316,
                -0.8482713026212396,
                1.803575611298006,
                1.7454815645467543,
                -0.20176930459271392,
                0.07408040363203838
            ]
        },
        {
            "positions": [
                0.050698353863881336,
                -0.8195935771807696,
                1.9219587262227273,
                1.8624503034248263,
                -0.15314468559242053,
                0.006268528345707748
            ]
        },
        {
            "positions": [
                0.12351182375934022,
                -0.7771424181069839,
                1.9910340488597553,
                1.9078900503385097,
                -0.13998025942911732,
                0.0115153510197596
            ]
        }
    ]
}