{
    "goal": {
        "global_pose": {
            "orientation": {
                "w": 0.7047431493862688,
                "x": -0.7094548369677653,
                "y": 0.0024358444001904,
                "z": -0.0022348060817251984
            },
            "position": {
                "x": -0.39052492380142206,
                "y": 0.3671506643295288,
                "z": 0.19426114857196808
            }
        },
        "name": "move_to_magneteinheit_D"
    },
    "id": "TRRT_move_to_magneteinheit_D_68",
    "joint_names": [
        "shoulder_pan_joint",
        "shoulder_lift_joint",
        "elbow_joint",
        "wrist_1_joint",
        "wrist_2_joint",
        "wrist_3_joint"
    ],
    "metrics": {
        "cart_traj_len": 4.376876661112297,
        "distance_elbow_joint": 3.461402243212243,
        "distance_shoulder_lift_joint": 1.11122499443041,
        "distance_shoulder_pan_joint": 3.2258855519186955,
        "distance_wrist_1_joint": 2.593767426924571,
        "distance_wrist_2_joint": 0.7734632197774298,
        "distance_wrist_3_joint": 6.3829010758879345,
        "smoothness": 0.46366784538800593,
        "time": 0.214469523,
        "traj_len": 4.189110229171737,
        "weighted_distance": 5.8035917594735364
    },
    "planner": "TRRT",
    "start": {
        "state": {
            "elbow_joint": 0.749534889911806,
            "shoulder_lift_joint": -0.6476975780787326,
            "shoulder_pan_joint": -2.711696901376241,
            "wrist_1_joint": -0.07506478083263063,
            "wrist_2_joint": 0.43296659715538205,
            "wrist_3_joint": -3.14703540197715
        }
    },
    "waypoints": [
        {
            "positions": [
                -2.711696901376241,
                -0.6476975780787326,
                0.749534889911806,
                -0.07506478083263063,
                0.43296659715538205,
                -3.14703540197715
            ]
        },
        {
            "positions": [
                -2.775914645187085,
                -0.7345627388308623,
                0.8115214430881897,
                -0.0422961681523655,
                0.4270367214589555,
                -3.0723094851902055
            ]
        },
        {
            "positions": [
                -2.840132388997928,
                -0.821427899582992,
                0.8735079962645734,
                -0.009527555472100366,
                0.4211068457625289,
                -2.9975835684032615
            ]
        },
        {
            "positions": [
                -2.904350132808772,
                -0.9082930603351218,
                0.9354945494409572,
                0.023241057208164773,
                0.4151769700661023,
                -2.922857651616317
            ]
        },
        {
            "positions": [
                -2.825300371357747,
                -0.9218105226803955,
                0.8575392223575506,
                -0.025268157075249063,
                0.40140010861665104,
                -2.7663645989226864
            ]
        },
        {
            "positions": [
                -2.7462506099067223,
                -0.9353279850256693,
                0.7795838952741441,
                -0.0737773713586629,
                0.3876232471671997,
                -2.6098715462290563
            ]
        },
        {
            "positions": [
                -2.667200848455698,
                -0.948845447370943,
                0.7016285681907375,
                -0.12228658564207673,
                0.3738463857177484,
                -2.4533784935354257
            ]
        },
        {
            "positions": [
                -2.588151087004673,
                -0.9623629097162167,
                0.623673241107331,
                -0.17079579992549057,
                0.3600695242682971,
                -2.296885440841795
            ]
        },
        {
            "positions": [
                -2.5091013255536483,
                -0.9758803720614905,
                0.5457179140239244,
                -0.21930501420890441,
                0.3462926628188458,
                -2.1403923881481646
            ]
        },
        {
            "positions": [
                -2.4300515641026235,
                -0.9893978344067642,
                0.46776258694051787,
                -0.26781422849231823,
                0.3325158013693945,
                -1.9838993354545345
            ]
        },
        {
            "positions": [
                -2.351001802651599,
                -1.002915296752038,
                0.3898072598571114,
                -0.31632344277573204,
                0.3187389399199432,
                -1.8274062827609039
            ]
        },
        {
            "positions": [
                -2.2719520412005743,
                -1.0164327590973117,
                0.3118519327737048,
                -0.3648326570591459,
                0.3049620784704919,
                -1.6709132300672735
            ]
        },
        {
            "positions": [
                -2.1929022797495494,
                -1.0299502214425855,
                0.23389660569029824,
                -0.41334187134255973,
                0.29118521702104055,
                -1.514420177373643
            ]
        },
        {
            "positions": [
                -2.1138525182985246,
                -1.0434676837878591,
                0.15594127860689166,
                -0.4618510856259736,
                0.27740835557158927,
                -1.3579271246800126
            ]
        },
        {
            "positions": [
                -2.0348027568475002,
                -1.056985146133133,
                0.07798595152348509,
                -0.5103602999093875,
                0.26363149412213793,
                -1.201434071986382
            ]
        },
        {
            "positions": [
                -1.9557529953964754,
                -1.0705026084784066,
                3.0624440078508286e-05,
                -0.5588695141928013,
                0.24985463267268665,
                -1.0449410192927517
            ]
        },
        {
            "positions": [
                -1.8767032339454506,
                -1.0840200708236805,
                -0.07792470264332785,
                -0.6073787284762151,
                0.23607777122323537,
                -0.8884479665991214
            ]
        },
        {
            "positions": [
                -1.797653472494426,
                -1.097537533168954,
                -0.15588002972673443,
                -0.6558879427596289,
                0.22230090977378406,
                -0.7319549139054908
            ]
        },
        {
            "positions": [
                -1.7186037110434011,
                -1.111054995514228,
                -0.233835356810141,
                -0.7043971570430427,
                0.20852404832433274,
                -0.5754618612118607
            ]
        },
        {
            "positions": [
                -1.6395539495923765,
                -1.1245724578595016,
                -0.3117906838935476,
                -0.7529063713264565,
                0.19474718687488143,
                -0.41896880851823015
            ]
        },
        {
            "positions": [
                -1.5605041881413517,
                -1.1380899202047754,
                -0.38974601097695416,
                -0.8014155856098704,
                0.18097032542543012,
                -0.2624757558245996
            ]
        },
        {
            "positions": [
                -1.481454426690327,
                -1.1516073825500492,
                -0.46770133806036074,
                -0.8499247998932842,
                0.1671934639759788,
                -0.10598270313096902
            ]
        },
        {
            "positions": [
                -1.4024046652393023,
                -1.1651248448953229,
                -0.5456566651437673,
                -0.8984340141766982,
                0.1534166025265275,
                0.05051034956266154
            ]
        },
        {
            "positions": [
                -1.3233549037882775,
                -1.1786423072405967,
                -0.6236119922271739,
                -0.946943228460112,
                0.13963974107707622,
                0.20700340225629166
            ]
        },
        {
            "positions": [
                -1.2443051423372529,
                -1.1921597695858703,
                -0.7015673193105805,
                -0.9954524427435258,
                0.12586287962762488,
                0.3634964549499222
            ]
        },
        {
            "positions": [
                -1.165255380886228,
                -1.2056772319311442,
                -0.779522646393987,
                -1.0439616570269397,
                0.1120860181781736,
                0.5199895076435528
            ]
        },
        {
            "positions": [
                -1.0862056194352032,
                -1.2191946942764178,
                -0.8574779734773936,
                -1.0924708713103535,
                0.09830915672872226,
                0.6764825603371833
            ]
        },
        {
            "positions": [
                -1.0071558579841786,
                -1.2327121566216916,
                -0.9354333005608002,
                -1.1409800855937673,
                0.08453229527927097,
                0.8329756130308135
            ]
        },
        {
            "positions": [
                -0.9281060965331538,
                -1.2462296189669653,
                -1.0133886276442068,
                -1.1894892998771813,
                0.07075543382981964,
                0.989468665724444
            ]
        },
        {
            "positions": [
                -0.8490563350821292,
                -1.2597470813122391,
                -1.091343954727613,
                -1.237998514160595,
                0.05697857238036841,
                1.1459617184180741
            ]
        },
        {
            "positions": [
                -0.7700065736311048,
                -1.2732645436575127,
                -1.1692992818110197,
                -1.2865077284440087,
                0.04320171093091707,
                1.3024547711117043
            ]
        },
        {
            "positions": [
                -0.69095681218008,
                -1.2867820060027866,
                -1.247254608894426,
                -1.3350169427274226,
                0.029424849481465787,
                1.4589478238053353
            ]
        },
        {
            "positions": [
                -0.6119070507290552,
                -1.3002994683480602,
                -1.3252099359778329,
                -1.3835261570108364,
                0.015647988032014448,
                1.6154408764989654
            ]
        },
        {
            "positions": [
                -0.5328572892780303,
                -1.313816930693334,
                -1.4031652630612392,
                -1.4320353712942502,
                0.0018711265825631651,
                1.7719339291925955
            ]
        },
        {
            "positions": [
                -0.4538075278270055,
                -1.3273343930386077,
                -1.481120590144646,
                -1.4805445855776642,
                -0.011905734866888174,
                1.9284269818862265
            ]
        },
        {
            "positions": [
                -0.3747577663759811,
                -1.3408518553838815,
                -1.5590759172280524,
                -1.529053799861078,
                -0.025682596316339457,
                2.0849200345798566
            ]
        },
        {
            "positions": [
                -0.2957080049249563,
                -1.3543693177291551,
                -1.6370312443114592,
                -1.5775630141444918,
                -0.039459457765790795,
                2.2414130872734876
            ]
        },
        {
            "positions": [
                -0.21665824347393142,
                -1.367886780074429,
                -1.7149865713948655,
                -1.6260722284279057,
                -0.053236319215242064,
                2.397906139967118
            ]
        },
        {
            "positions": [
                -0.16856702505026855,
                -1.3940220196372548,
                -1.797221304893036,
                -1.7289765889565327,
                -0.04127448606753543,
                2.513845909917582
            ]
        },
        {
            "positions": [
                -0.1204758066266057,
                -1.4201572592000806,
                -1.879456038391207,
                -1.8318809494851598,
                -0.02931265291982879,
                2.6297856798680455
            ]
        },
        {
            "positions": [
                -0.0923535128723531,
                -1.4521613105339448,
                -1.9505980779771726,
                -1.935064951966162,
                -0.013999045336364483,
                2.7245285150898035
            ]
        },
        {
            "positions": [
                -0.0642312191181005,
                -1.4841653618678088,
                -2.021740117563138,
                -2.0382489544471643,
                0.001314562247099825,
                2.819271350311561
            ]
        },
        {
            "positions": [
                -0.03610892536384789,
                -1.516169413201673,
                -2.092882157149104,
                -2.1414329569281665,
                0.016628169830564136,
                2.9140141855333193
            ]
        },
        {
            "positions": [
                -0.0319219994563285,
                -1.5706682512923935,
                -2.177529852959774,
                -2.258371151302926,
                0.024271982945736455,
                3.014808780036826
            ]
        },
        {
            "positions": [
                -0.02773507354880911,
                -1.6251670893831143,
                -2.2621775487704445,
                -2.375309345677686,
                0.031915796060908774,
                3.115603374540333
            ]
        },
        {
            "positions": [
                -0.10604370416190972,
                -1.6920448309461285,
                -2.30106279150629,
                -2.3268537526787236,
                -0.06913829800441856,
                3.175734524225559
            ]
        },
        {
            "positions": [
                -0.18435233477501034,
                -1.7589225725091426,
                -2.3399480342421346,
                -2.2783981596797616,
                -0.1701923920697459,
                3.2358656739107845
            ]
        }
    ]
}