{
    "goal": {
        "global_pose": {
            "orientation": {
                "w": -0.4816463035849501,
                "x": 0.5182115481033762,
                "y": 0.4908360881923453,
                "z": -0.5084816262002911
            },
            "position": {
                "x": -0.8240239810943604,
                "y": 0.19912469901144506,
                "z": 0.16403168439865112
            }
        },
        "name": "move_to_storage_D"
    },
    "id": "TRRT_move_to_storage_D_94",
    "joint_names": [
        "shoulder_pan_joint",
        "shoulder_lift_joint",
        "elbow_joint",
        "wrist_1_joint",
        "wrist_2_joint",
        "wrist_3_joint"
    ],
    "metrics": {
        "cart_traj_len": 3.654768739788206,
        "distance_elbow_joint": 4.210327247563072,
        "distance_shoulder_lift_joint": 1.2636070410151143,
        "distance_shoulder_pan_joint": 2.8121173333899763,
        "distance_wrist_1_joint": 2.508905159074547,
        "distance_wrist_2_joint": 1.3920933711724013,
        "distance_wrist_3_joint": 3.282797041940938,
        "smoothness": 0.26590121168413433,
        "time": 0.131998064,
        "traj_len": 3.933172662642215,
        "weighted_distance": 5.092783110273288
    },
    "planner": "TRRT",
    "start": {
        "state": {
            "elbow_joint": -2.384821988534728,
            "shoulder_lift_joint": -2.2788054721415256,
            "shoulder_pan_joint": -0.1854694642142757,
            "wrist_1_joint": 1.4845938289331202,
            "wrist_2_joint": 0.17898776772866878,
            "wrist_3_joint": 0.037105688729662994
        }
    },
    "waypoints": [
        {
            "positions": [
                -0.1854694642142757,
                -2.2788054721415256,
                -2.384821988534728,
                1.4845938289331202,
                0.17898776772866878,
                0.037105688729662994
            ]
        },
        {
            "positions": [
                -0.14328051118012425,
                -2.256935896260053,
                -2.3697564670736426,
                1.5449378206352757,
                0.04895217020527043,
                0.0008742887139068373
            ]
        },
        {
            "positions": [
                -0.10109155814597277,
                -2.235066320378581,
                -2.3546909456125578,
                1.6052818123374313,
                -0.08108342731812793,
                -0.03535711130184932
            ]
        },
        {
            "positions": [
                -0.023124078939398662,
                -2.2015472230084088,
                -2.2356709906359464,
                1.531092445464511,
                -0.06773701046674377,
                0.036681697601551946
            ]
        },
        {
            "positions": [
                0.05484340026717545,
                -2.1680281256382363,
                -2.116651035659335,
                1.4569030785915906,
                -0.05439059361535961,
                0.10872050650495321
            ]
        },
        {
            "positions": [
                0.1328108794737496,
                -2.134509028268064,
                -1.9976310806827235,
                1.3827137117186705,
                -0.041044176763975454,
                0.1807593154083545
            ]
        },
        {
            "positions": [
                0.21077835868032369,
                -2.1009899308978914,
                -1.8786111257061122,
                1.3085243448457502,
                -0.027697759912591297,
                0.25279812431175575
            ]
        },
        {
            "positions": [
                0.2887458378868978,
                -2.067470833527719,
                -1.7595911707295009,
                1.2343349779728299,
                -0.014351343061207139,
                0.324836933215157
            ]
        },
        {
            "positions": [
                0.36671331709347194,
                -2.0339517361575465,
                -1.6405712157528893,
                1.1601456110999095,
                -0.0010049262098229816,
                0.3968757421185583
            ]
        },
        {
            "positions": [
                0.44468079630004603,
                -2.0004326387873737,
                -1.521551260776278,
                1.0859562442269892,
                0.012341490641561176,
                0.4689145510219596
            ]
        },
        {
            "positions": [
                0.5226482755066201,
                -1.9669135414172014,
                -1.4025313057996667,
                1.0117668773540691,
                0.025687907492945333,
                0.5409533599253609
            ]
        },
        {
            "positions": [
                0.6006157547131942,
                -1.9333944440470288,
                -1.2835113508230553,
                0.9375775104811488,
                0.03903432434432949,
                0.6129921688287621
            ]
        },
        {
            "positions": [
                0.6785832339197683,
                -1.8998753466768563,
                -1.164491395846444,
                0.8633881436082285,
                0.05238074119571365,
                0.6850309777321633
            ]
        },
        {
            "positions": [
                0.7565507131263424,
                -1.8663562493066839,
                -1.0454714408698325,
                0.7891987767353082,
                0.0657271580470978,
                0.7570697866355647
            ]
        },
        {
            "positions": [
                0.8345181923329166,
                -1.8328371519365114,
                -0.9264514858932209,
                0.7150094098623878,
                0.07907357489848196,
                0.8291085955389659
            ]
        },
        {
            "positions": [
                0.9124856715394907,
                -1.799318054566339,
                -0.8074315309166096,
                0.6408200429894676,
                0.09241999174986612,
                0.9011474044423673
            ]
        },
        {
            "positions": [
                0.9904531507460648,
                -1.7657989571961665,
                -0.6884115759399982,
                0.5666306761165474,
                0.10576640860125028,
                0.9731862133457685
            ]
        },
        {
            "positions": [
                1.0684206299526389,
                -1.732279859825994,
                -0.5693916209633869,
                0.49244130924362706,
                0.11911282545263444,
                1.0452250222491697
            ]
        },
        {
            "positions": [
                1.146388109159213,
                -1.6987607624558216,
                -0.4503716659867756,
                0.41825194237070673,
                0.1324592423040186,
                1.1172638311525709
            ]
        },
        {
            "positions": [
                1.224355588365787,
                -1.665241665085649,
                -0.33135171101016425,
                0.3440625754977866,
                0.14580565915540275,
                1.1893026400559723
            ]
        },
        {
            "positions": [
                1.3023230675723612,
                -1.6317225677154765,
                -0.21233175603355292,
                0.2698732086248663,
                0.1591520760067869,
                1.2613414489593735
            ]
        },
        {
            "positions": [
                1.3802905467789353,
                -1.598203470345304,
                -0.09331180105694159,
                0.19568384175194597,
                0.17249849285817107,
                1.3333802578627747
            ]
        },
        {
            "positions": [
                1.4582580259855094,
                -1.5646843729751316,
                0.02570815391966974,
                0.12149447487902565,
                0.18584490970955522,
                1.405419066766176
            ]
        },
        {
            "positions": [
                1.5362255051920835,
                -1.531165275604959,
                0.14472810889628107,
                0.047305108006105545,
                0.19919132656093938,
                1.4774578756695773
            ]
        },
        {
            "positions": [
                1.6141929843986575,
                -1.4976461782347865,
                0.26374806387289285,
                -0.02688425886681478,
                0.21253774341232354,
                1.5494966845729785
            ]
        },
        {
            "positions": [
                1.6921604636052319,
                -1.464127080864614,
                0.3827680188495042,
                -0.10107362573973533,
                0.2258841602637077,
                1.62153549347638
            ]
        },
        {
            "positions": [
                1.770127942811806,
                -1.4306079834944416,
                0.501787973826116,
                -0.17526299261265565,
                0.23923057711509185,
                1.6935743023797811
            ]
        },
        {
            "positions": [
                1.84809542201838,
                -1.3970888861242692,
                0.6208079288027273,
                -0.24945235948557576,
                0.25257699396647604,
                1.7656131112831825
            ]
        },
        {
            "positions": [
                1.9260629012249542,
                -1.3635697887540967,
                0.7398278837793386,
                -0.3236417263584961,
                0.2659234108178602,
                1.8376519201865837
            ]
        },
        {
            "positions": [
                2.0040303804315283,
                -1.3300506913839243,
                0.8588478387559499,
                -0.3978310932314164,
                0.27926982766924435,
                1.909690729089985
            ]
        },
        {
            "positions": [
                2.0819978596381024,
                -1.2965315940137518,
                0.9778677937325613,
                -0.4720204601043365,
                0.2926162445206285,
                1.9817295379933864
            ]
        },
        {
            "positions": [
                2.1599653388446765,
                -1.2630124966435792,
                1.0968877487091726,
                -0.5462098269772571,
                0.30596266137201267,
                2.0537683468967876
            ]
        },
        {
            "positions": [
                2.2379328180512505,
                -1.2294933992734067,
                1.215907703685784,
                -0.6203991938501769,
                0.3193090782233968,
                2.1258071558001888
            ]
        },
        {
            "positions": [
                2.286522199441807,
                -1.2027065282550322,
                1.292107398103604,
                -0.6407162150355054,
                0.4107627870464068,
                2.256953402651112
            ]
        },
        {
            "positions": [
                2.335111580832363,
                -1.175919657236658,
                1.3683070925214238,
                -0.6610332362208338,
                0.5022164958694167,
                2.3880996495020357
            ]
        },
        {
            "positions": [
                2.3837009622229193,
                -1.1491327862182834,
                1.4445067869392438,
                -0.6813502574061621,
                0.5936702046924267,
                2.519245896352959
            ]
        },
        {
            "positions": [
                2.4322903436134755,
                -1.122345915199909,
                1.5207064813570637,
                -0.7016672785914905,
                0.6851239135154368,
                2.6503921432038826
            ]
        },
        {
            "positions": [
                2.480879725004032,
                -1.0955590441815346,
                1.5969061757748837,
                -0.7219842997768189,
                0.7765776223384466,
                2.7815383900548056
            ]
        },
        {
            "positions": [
                2.5294691063945884,
                -1.06877217316316,
                1.6731058701927037,
                -0.7423013209621472,
                0.8680313311614567,
                2.912684636905729
            ]
        },
        {
            "positions": [
                2.5780584877851447,
                -1.0419853021447858,
                1.7493055646105238,
                -0.7626183421474756,
                0.9594850399844667,
                3.0438308837566526
            ]
        },
        {
            "positions": [
                2.626647869175701,
                -1.0151984311264113,
                1.8255052590283436,
                -0.782935363332804,
                1.0509387488074766,
                3.174977130607576
            ]
        }
    ]
}