{
    "goal": {
        "global_pose": {
            "orientation": {
                "w": -0.4816463035849501,
                "x": 0.5182115481033762,
                "y": 0.4908360881923453,
                "z": -0.5084816262002911
            },
            "position": {
                "x": -0.8240239810943604,
                "y": -0.300875300988555,
                "z": 0.16403168439865112
            }
        },
        "name": "move_to_storage_C"
    },
    "id": "TRRT_move_to_storage_C_54",
    "joint_names": [
        "shoulder_pan_joint",
        "shoulder_lift_joint",
        "elbow_joint",
        "wrist_1_joint",
        "wrist_2_joint",
        "wrist_3_joint"
    ],
    "metrics": {
        "cart_traj_len": 0.5768012795426637,
        "distance_elbow_joint": 0.25746241018668203,
        "distance_shoulder_lift_joint": 0.1897589362284059,
        "distance_shoulder_pan_joint": 0.4948779175622682,
        "distance_wrist_1_joint": 0.07262355638985685,
        "distance_wrist_2_joint": 1.0649725723979442,
        "distance_wrist_3_joint": 0.0569330121679279,
        "smoothness": 0.0,
        "time": 0.019376433999999998,
        "traj_len": 1.461721042105191,
        "weighted_distance": 1.8406766576606395
    },
    "planner": "TRRT",
    "start": {
        "state": {
            "elbow_joint": 2.010868314990456,
            "shoulder_lift_joint": -1.1634956873337592,
            "shoulder_pan_joint": -2.4736205022346125,
            "wrist_1_joint": -0.8367026794202681,
            "wrist_2_joint": 0.6746043897044499,
            "wrist_3_joint": -3.1496632123970403
        }
    },
    "waypoints": [
        {
            "positions": [
                -2.4736205022346125,
                -1.1634956873337592,
                2.010868314990456,
                -0.8367026794202681,
                0.6746043897044499,
                -3.1496632123970403
            ]
        },
        {
            "positions": [
                -2.556100155161657,
                -1.1318691979623583,
                1.9679579132926754,
                -0.824598753355292,
                0.8520998184374406,
                -3.140174377035719
            ]
        },
        {
            "positions": [
                -2.6385798080887017,
                -1.1002427085909572,
                1.925047511594895,
                -0.8124948272903159,
                1.0295952471704313,
                -3.1306855416743975
            ]
        },
        {
            "positions": [
                -2.721059461015747,
                -1.0686162192195563,
                1.8821371098971147,
                -0.8003909012253396,
                1.2070906759034221,
                -3.1211967063130763
            ]
        },
        {
            "positions": [
                -2.8035391139427914,
                -1.0369897298481552,
                1.8392267081993345,
                -0.7882869751603635,
                1.3845861046364125,
                -3.111707870951755
            ]
        },
        {
            "positions": [
                -2.886018766869836,
                -1.0053632404767543,
                1.7963163065015542,
                -0.7761830490953874,
                1.5620815333694034,
                -3.1022190355904335
            ]
        },
        {
            "positions": [
                -2.9684984197968807,
                -0.9737367511053533,
                1.7534059048037738,
                -0.7640791230304113,
                1.7395769621023942,
                -3.0927302002291124
            ]
        }
    ]
}