{
    "goal": {
        "global_pose": {
            "orientation": {
                "w": 0.7031023502349854,
                "x": -0.7110244035720825,
                "y": 0.007748599164187908,
                "z": 0.005598929710686207
            },
            "position": {
                "x": 0.11585023208521307,
                "y": 0.44412534475326537,
                "z": 0.3711530566215515
            }
        },
        "name": "move_to_auspresseinheit_A"
    },
    "id": "TRRT_move_to_auspresseinheit_A_122",
    "joint_names": [
        "shoulder_pan_joint",
        "shoulder_lift_joint",
        "elbow_joint",
        "wrist_1_joint",
        "wrist_2_joint",
        "wrist_3_joint"
    ],
    "metrics": {
        "cart_traj_len": 1.9230134919425335,
        "distance_elbow_joint": 1.9035347506703144,
        "distance_shoulder_lift_joint": 0.8028211433793981,
        "distance_shoulder_pan_joint": 1.0459878625869,
        "distance_wrist_1_joint": 5.1191893632951055,
        "distance_wrist_2_joint": 3.7730163370008922,
        "distance_wrist_3_joint": 6.970063480505619,
        "smoothness": 0.8825862687512042,
        "time": 0.06029258999999999,
        "traj_len": 4.428838779797503,
        "weighted_distance": 6.515132047682951
    },
    "planner": "TRRT",
    "start": {
        "state": {
            "elbow_joint": 2.4225746658250005,
            "shoulder_lift_joint": -1.3736534386056498,
            "shoulder_pan_joint": -0.3378633547517467,
            "wrist_1_joint": -1.0288598680537169,
            "wrist_2_joint": 1.233022673432363,
            "wrist_3_joint": -3.0940220416140027
        }
    },
    "waypoints": [
        {
            "positions": [
                -0.3378633547517467,
                -1.3736534386056498,
                2.4225746658250005,
                -1.0288598680537169,
                1.233022673432363,
                -3.0940220416140027
            ]
        },
        {
            "positions": [
                -0.3277776062787029,
                -1.3956366336042123,
                2.38561563175684,
                -0.9235452831945532,
                1.1541271335150838,
                -2.9605830636726354
            ]
        },
        {
            "positions": [
                -0.317691857805659,
                -1.417619828602775,
                2.34865659768868,
                -0.8182306983353894,
                1.0752315935978043,
                -2.827144085731268
            ]
        },
        {
            "positions": [
                -0.3076061093326152,
                -1.4396030236013375,
                2.3116975636205197,
                -0.7129161134762257,
                0.996336053680525,
                -2.6937051077899
            ]
        },
        {
            "positions": [
                -0.2975203608595713,
                -1.4615862185999002,
                2.27473852955236,
                -0.607601528617062,
                0.9174405137632458,
                -2.5602661298485327
            ]
        },
        {
            "positions": [
                -0.28743461238652745,
                -1.4835694135984627,
                2.2377794954841996,
                -0.5022869437578983,
                0.8385449738459665,
                -2.4268271519071654
            ]
        },
        {
            "positions": [
                -0.27734886391348357,
                -1.5055526085970254,
                2.2008204614160394,
                -0.3969723588987346,
                0.7596494339286871,
                -2.293388173965798
            ]
        },
        {
            "positions": [
                -0.26726311544043974,
                -1.527535803595588,
                2.163861427347879,
                -0.29165777403957094,
                0.6807538940114078,
                -2.1599491960244306
            ]
        },
        {
            "positions": [
                -0.2571773669673959,
                -1.5495189985941504,
                2.126902393279719,
                -0.18634318918040715,
                0.6018583540941285,
                -2.0265102180830628
            ]
        },
        {
            "positions": [
                -0.24709161849435202,
                -1.5715021935927131,
                2.0899433592115586,
                -0.08102860432124348,
                0.5229628141768492,
                -1.8930712401416956
            ]
        },
        {
            "positions": [
                -0.23700587002130818,
                -1.5934853885912756,
                2.052984325143399,
                0.024285980537920304,
                0.4440672742595698,
                -1.759632262200328
            ]
        },
        {
            "positions": [
                -0.2269201215482643,
                -1.6154685835898384,
                2.0160252910752385,
                0.12960056539708398,
                0.36517173434229055,
                -1.6261932842589606
            ]
        },
        {
            "positions": [
                -0.21683437307522047,
                -1.6374517785884009,
                1.9790662570070783,
                0.23491515025624765,
                0.2862761944250112,
                -1.492754306317593
            ]
        },
        {
            "positions": [
                -0.2067486246021766,
                -1.6594349735869636,
                1.942107222938918,
                0.3402297351154113,
                0.2073806545077319,
                -1.3593153283762256
            ]
        },
        {
            "positions": [
                -0.19666287612913275,
                -1.681418168585526,
                1.9051481888707578,
                0.445544319974575,
                0.12848511459045264,
                -1.2258763504348582
            ]
        },
        {
            "positions": [
                -0.18657712765608891,
                -1.7034013635840886,
                1.8681891548025977,
                0.5508589048337387,
                0.049589574673173376,
                -1.092437372493491
            ]
        },
        {
            "positions": [
                -0.17649137918304503,
                -1.7253845585826513,
                1.8312301207344375,
                0.6561734896929026,
                -0.029305965244106114,
                -0.9589983945521232
            ]
        },
        {
            "positions": [
                -0.1664056307100012,
                -1.7473677535812138,
                1.7942710866662772,
                0.7614880745520662,
                -0.10820150516138538,
                -0.8255594166107558
            ]
        },
        {
            "positions": [
                -0.15631988223695734,
                -1.7693509485797763,
                1.7573120525981172,
                0.8668026594112299,
                -0.18709704507866465,
                -0.6921204386693884
            ]
        },
        {
            "positions": [
                -0.14623413376391348,
                -1.791334143578339,
                1.720353018529957,
                0.9721172442703934,
                -0.2659925849959439,
                -0.558681460728021
            ]
        },
        {
            "positions": [
                -0.13614838529086962,
                -1.8133173385769017,
                1.6833939844617967,
                1.0774318291295575,
                -0.3448881249132234,
                -0.4252424827866532
            ]
        },
        {
            "positions": [
                -0.12606263681782576,
                -1.8353005335754642,
                1.6464349503936364,
                1.1827464139887212,
                -0.42378366483050267,
                -0.29180350484528583
            ]
        },
        {
            "positions": [
                -0.1159768883447819,
                -1.8572837285740267,
                1.6094759163254764,
                1.2880609988478848,
                -0.5026792047477819,
                -0.15836452690391845
            ]
        },
        {
            "positions": [
                -0.10589113987173807,
                -1.8792669235725894,
                1.5725168822573161,
                1.3933755837070485,
                -0.5815747446650612,
                -0.02492554896255106
            ]
        },
        {
            "positions": [
                -0.09580539139869418,
                -1.9012501185711521,
                1.5355578481891559,
                1.4986901685662122,
                -0.6604702845823407,
                0.10851342897881677
            ]
        },
        {
            "positions": [
                -0.08571964292565032,
                -1.9232333135697144,
                1.4985988141209958,
                1.6040047534253759,
                -0.73936582449962,
                0.24195240692018416
            ]
        },
        {
            "positions": [
                -0.07563389445260649,
                -1.945216508568277,
                1.4616397800528356,
                1.7093193382845393,
                -0.818261364416899,
                0.37539138486155155
            ]
        },
        {
            "positions": [
                -0.049899947164948846,
                -1.939450918619033,
                1.5024075055299058,
                1.610188333211902,
                -0.7473829827364986,
                0.22338681838465607
            ]
        },
        {
            "positions": [
                -0.0241659998772912,
                -1.9336853286697888,
                1.543175231006976,
                1.5110573281392647,
                -0.6765046010560981,
                0.0713822519077606
            ]
        },
        {
            "positions": [
                0.0015679474103664492,
                -1.9279197387205447,
                1.5839429564840461,
                1.4119263230666275,
                -0.6056262193756976,
                -0.08062231456913488
            ]
        },
        {
            "positions": [
                0.02730189469802409,
                -1.9221541487713005,
                1.6247106819611163,
                1.31279531799399,
                -0.5347478376952972,
                -0.23262688104603035
            ]
        },
        {
            "positions": [
                0.05303584198568173,
                -1.9163885588220564,
                1.6654784074381865,
                1.2136643129213527,
                -0.46386945601489676,
                -0.3846314475229258
            ]
        },
        {
            "positions": [
                0.07876978927333939,
                -1.9106229688728122,
                1.7062461329152567,
                1.1145333078487154,
                -0.3929910743344963,
                -0.5366360139998213
            ]
        },
        {
            "positions": [
                0.10450373656099704,
                -1.904857378923568,
                1.7470138583923271,
                1.015402302776078,
                -0.3221126926540958,
                -0.6886405804767168
            ]
        },
        {
            "positions": [
                0.13023768384865467,
                -1.899091788974324,
                1.7877815838693973,
                0.9162712977034407,
                -0.2512343109736954,
                -0.8406451469536123
            ]
        },
        {
            "positions": [
                0.15597163113631232,
                -1.8933261990250798,
                1.8285493093464675,
                0.8171402926308035,
                -0.18035592929329491,
                -0.9926497134305079
            ]
        },
        {
            "positions": [
                0.18170557842396995,
                -1.8875606090758357,
                1.8693170348235377,
                0.7180092875581662,
                -0.10947754761289452,
                -1.144654279907403
            ]
        },
        {
            "positions": [
                0.2074395257116276,
                -1.8817950191265918,
                1.910084760300608,
                0.6188782824855288,
                -0.03859916593249402,
                -1.2966588463842987
            ]
        },
        {
            "positions": [
                0.23317347299928526,
                -1.8760294291773474,
                1.9508524857776781,
                0.5197472774128915,
                0.032279215747906376,
                -1.4486634128611942
            ]
        },
        {
            "positions": [
                0.25890742028694286,
                -1.8702638392281035,
                1.9916202112547483,
                0.4206162723402542,
                0.10315759742830677,
                -1.6006679793380896
            ]
        },
        {
            "positions": [
                0.28464136757460057,
                -1.8644982492788593,
                2.0323879367318187,
                0.3214852672676167,
                0.17403597910870738,
                -1.7526725458149852
            ]
        },
        {
            "positions": [
                0.31037531486225817,
                -1.8587326593296152,
                2.073155662208889,
                0.22235426219497945,
                0.24491436078910778,
                -1.9046771122918806
            ]
        },
        {
            "positions": [
                0.3361092621499158,
                -1.852967069380371,
                2.113923387685959,
                0.12322325712234217,
                0.31579274246950817,
                -2.056681678768776
            ]
        },
        {
            "positions": [
                0.3618432094375735,
                -1.847201479431127,
                2.1546911131630293,
                0.02409225204970511,
                0.38667112414990856,
                -2.2086862452456715
            ]
        },
        {
            "positions": [
                0.38757715672523113,
                -1.8414358894818827,
                2.1954588386400995,
                -0.07503875302293239,
                0.4575495058303092,
                -2.3606908117225673
            ]
        },
        {
            "positions": [
                0.4133111040128888,
                -1.8356702995326386,
                2.2362265641171697,
                -0.17416975809556967,
                0.5284278875107096,
                -2.5126953781994628
            ]
        },
        {
            "positions": [
                0.4390450513005464,
                -1.8299047095833945,
                2.27699428959424,
                -0.27330076316820695,
                0.59930626919111,
                -2.6646999446763577
            ]
        },
        {
            "positions": [
                0.46477899858820404,
                -1.8241391196341503,
                2.31776201507131,
                -0.37243176824084445,
                0.6701846508715104,
                -2.816704511153253
            ]
        },
        {
            "positions": [
                0.4905129458758617,
                -1.8183735296849062,
                2.3585297405483803,
                -0.47156277331348173,
                0.741063032551911,
                -2.968709077630149
            ]
        },
        {
            "positions": [
                0.5162468931635193,
                -1.812607939735662,
                2.3992974660254505,
                -0.5706937783861189,
                0.8119414142323114,
                -3.1207136441070444
            ]
        },
        {
            "positions": [
                0.6121857004993361,
                -1.86193269202774,
                2.396826376562683,
                -0.5201952582430234,
                0.7661766539811036,
                -3.1229861566377792
            ]
        },
        {
            "positions": [
                0.7081245078351529,
                -1.9112574443198178,
                2.394355287099916,
                -0.4696967380999278,
                0.7204118937298958,
                -3.1252586691685136
            ]
        }
    ]
}