{
    "goal": {
        "global_pose": {
            "orientation": {
                "w": 0.5084816262002911,
                "x": -0.4908360881923452,
                "y": 0.5182115481033761,
                "z": -0.48164630358495003
            },
            "position": {
                "x": 0.5540239810943604,
                "y": -0.46912469901144505,
                "z": 0.16403168439865112
            }
        },
        "name": "move_to_storage_B"
    },
    "id": "TRRT_move_to_storage_B_62",
    "joint_names": [
        "shoulder_pan_joint",
        "shoulder_lift_joint",
        "elbow_joint",
        "wrist_1_joint",
        "wrist_2_joint",
        "wrist_3_joint"
    ],
    "metrics": {
        "cart_traj_len": 1.2430224484456458,
        "distance_elbow_joint": 2.441995891656915,
        "distance_shoulder_lift_joint": 0.6829582376002359,
        "distance_shoulder_pan_joint": 0.891566192676576,
        "distance_wrist_1_joint": 2.977788020519186,
        "distance_wrist_2_joint": 2.7026750436508404,
        "distance_wrist_3_joint": 3.450609706714417,
        "smoothness": 0.47853923968171436,
        "time": 0.072089074,
        "traj_len": 3.6259609888715247,
        "weighted_distance": 5.07240333278191
    },
    "planner": "TRRT",
    "start": {
        "state": {
            "elbow_joint": 1.664937868594044,
            "shoulder_lift_joint": -0.661644460510453,
            "shoulder_pan_joint": -0.9139846352900073,
            "wrist_1_joint": 2.146753192139373,
            "wrist_2_joint": -2.2341966793290973,
            "wrist_3_joint": 0.005466555786416001
        }
    },
    "waypoints": [
        {
            "positions": [
                -0.9139846352900073,
                -0.661644460510453,
                1.664937868594044,
                2.146753192139373,
                -2.2341966793290973,
                0.005466555786416001
            ]
        },
        {
            "positions": [
                -0.8739177823463673,
                -0.7221945753071487,
                1.7201855365984355,
                2.1099105229621165,
                -2.182607195755912,
                -0.07327605638535165
            ]
        },
        {
            "positions": [
                -0.8338509294027274,
                -0.7827446901038444,
                1.7754332046028272,
                2.0730678537848597,
                -2.1310177121827265,
                -0.1520186685571193
            ]
        },
        {
            "positions": [
                -0.7995176184846519,
                -0.7686632953708511,
                1.6540349032340695,
                2.0027571571081215,
                -2.0481382361362255,
                -0.09196672929532057
            ]
        },
        {
            "positions": [
                -0.7651843075665763,
                -0.7545819006378578,
                1.532636601865312,
                1.9324464604313831,
                -1.9652587600897244,
                -0.03191479003352185
            ]
        },
        {
            "positions": [
                -0.7308509966485006,
                -0.7405005059048645,
                1.411238300496554,
                1.8621357637546447,
                -1.8823792840432236,
                0.02813714922827687
            ]
        },
        {
            "positions": [
                -0.696517685730425,
                -0.7264191111718712,
                1.2898399991277965,
                1.7918250670779066,
                -1.7994998079967226,
                0.08818908849007559
            ]
        },
        {
            "positions": [
                -0.6621843748123495,
                -0.7123377164388778,
                1.1684416977590388,
                1.7215143704011684,
                -1.7166203319502216,
                0.14824102775187434
            ]
        },
        {
            "positions": [
                -0.6278510638942738,
                -0.6982563217058845,
                1.047043396390281,
                1.65120367372443,
                -1.6337408559037208,
                0.20829296701367303
            ]
        },
        {
            "positions": [
                -0.5935177529761982,
                -0.6841749269728912,
                0.9256450950215234,
                1.5808929770476916,
                -1.5508613798572197,
                0.2683449062754717
            ]
        },
        {
            "positions": [
                -0.5591844420581227,
                -0.6700935322398979,
                0.8042467936527657,
                1.5105822803709534,
                -1.4679819038107187,
                0.32839684553727044
            ]
        },
        {
            "positions": [
                -0.5615563967388606,
                -0.6742951563228188,
                0.7661919324496123,
                1.4151447198355867,
                -1.3997207431362004,
                0.3905540664807332
            ]
        },
        {
            "positions": [
                -0.5639283514195985,
                -0.6784967804057396,
                0.7281370712464588,
                1.3197071593002199,
                -1.331459582461682,
                0.452711287424196
            ]
        },
        {
            "positions": [
                -0.5870597466406079,
                -0.697662154404742,
                0.7839720461287094,
                1.2261966380967402,
                -1.2532014108624026,
                0.5695980059628728
            ]
        },
        {
            "positions": [
                -0.6101911418616173,
                -0.7168275284037444,
                0.83980702101096,
                1.1326861168932605,
                -1.1749432392631234,
                0.6864847245015495
            ]
        },
        {
            "positions": [
                -0.6333225370826266,
                -0.735992902402747,
                0.8956419958932107,
                1.039175595689781,
                -1.096685067663844,
                0.8033714430402263
            ]
        },
        {
            "positions": [
                -0.656453932303636,
                -0.7551582764017494,
                0.9514769707754613,
                0.9456650744863013,
                -1.0184268960645646,
                0.9202581615789032
            ]
        },
        {
            "positions": [
                -0.6795853275246454,
                -0.7743236504007518,
                1.007311945657712,
                0.8521545532828216,
                -0.9401687244652852,
                1.03714488011758
            ]
        },
        {
            "positions": [
                -0.7027167227456548,
                -0.7934890243997542,
                1.0631469205399626,
                0.7586440320793421,
                -0.8619105528660059,
                1.1540315986562568
            ]
        },
        {
            "positions": [
                -0.7258481179666642,
                -0.8126543983987566,
                1.1189818954222133,
                0.6651335108758624,
                -0.7836523812667265,
                1.2709183171949336
            ]
        },
        {
            "positions": [
                -0.7489795131876735,
                -0.8318197723977592,
                1.174816870304464,
                0.5716229896723828,
                -0.7053942096674473,
                1.3878050357336105
            ]
        },
        {
            "positions": [
                -0.7721109084086829,
                -0.8509851463967616,
                1.2306518451867143,
                0.4781124684689031,
                -0.6271360380681679,
                1.504691754272287
            ]
        },
        {
            "positions": [
                -0.7952423036296923,
                -0.870150520395764,
                1.2864868200689652,
                0.3846019472654235,
                -0.5488778664688886,
                1.6215784728109641
            ]
        },
        {
            "positions": [
                -0.8183736988507015,
                -0.8893158943947665,
                1.3423217949512156,
                0.29109142606194394,
                -0.4706196948696093,
                1.7384651913496407
            ]
        },
        {
            "positions": [
                -0.841505094071711,
                -0.9084812683937689,
                1.3981567698334665,
                0.19758090485846425,
                -0.3923615232703299,
                1.8553519098883173
            ]
        },
        {
            "positions": [
                -0.8646364892927203,
                -0.9276466423927714,
                1.453991744715717,
                0.10407038365498478,
                -0.31410335167105075,
                1.9722386284269944
            ]
        },
        {
            "positions": [
                -0.8877678845137298,
                -0.9468120163917738,
                1.5098267195979678,
                0.010559862451504864,
                -0.23584518007177113,
                2.0891253469656714
            ]
        },
        {
            "positions": [
                -0.910899279734739,
                -0.9659773903907762,
                1.5656616944802182,
                -0.0829506587519746,
                -0.15758700847249196,
                2.206012065504348
            ]
        },
        {
            "positions": [
                -0.9340306749557484,
                -0.9851427643897788,
                1.6214966693624688,
                -0.1764611799554543,
                -0.07932883687321257,
                2.3228987840430246
            ]
        },
        {
            "positions": [
                -0.9571620701767578,
                -1.004308138388781,
                1.6773316442447195,
                -0.26997170115893376,
                -0.0010706652739334022,
                2.4397855025817012
            ]
        },
        {
            "positions": [
                -0.9802934653977673,
                -1.0234735123877836,
                1.7331666191269701,
                -0.3634822223624137,
                0.07718750632534621,
                2.5566722211203783
            ]
        },
        {
            "positions": [
                -1.0034248606187766,
                -1.042638886386786,
                1.7890015940092208,
                -0.45699274356589314,
                0.15544567792462538,
                2.673558939659055
            ]
        },
        {
            "positions": [
                -1.026556255839786,
                -1.0618042603857885,
                1.8448365688914714,
                -0.5505032647693728,
                0.23370384952390477,
                2.790445658197732
            ]
        },
        {
            "positions": [
                -1.0496876510607953,
                -1.080969634384791,
                1.900671543773722,
                -0.6440137859728523,
                0.31196202112318394,
                2.9073323767364085
            ]
        },
        {
            "positions": [
                -1.0728190462818046,
                -1.1001350083837935,
                1.9565065186559727,
                -0.737524307176332,
                0.39022019272246333,
                3.0242190952750856
            ]
        },
        {
            "positions": [
                -1.095950441502814,
                -1.1193003823827958,
                2.0123414935382233,
                -0.8310348283798116,
                0.4684783643217428,
                3.141105813813762
            ]
        }
    ]
}