{
    "goal": {
        "global_pose": {
            "orientation": {
                "w": 0.7047431493862688,
                "x": -0.7094548369677653,
                "y": 0.0024358444001904,
                "z": -0.0022348060817251984
            },
            "position": {
                "x": -0.39052492380142206,
                "y": 0.3671506643295288,
                "z": 0.19426114857196808
            }
        },
        "name": "move_to_magneteinheit_D"
    },
    "id": "TRRT_move_to_magneteinheit_D_67",
    "joint_names": [
        "shoulder_pan_joint",
        "shoulder_lift_joint",
        "elbow_joint",
        "wrist_1_joint",
        "wrist_2_joint",
        "wrist_3_joint"
    ],
    "metrics": {
        "cart_traj_len": 4.218241053798654,
        "distance_elbow_joint": 3.1406593169322607,
        "distance_shoulder_lift_joint": 1.6286830599648583,
        "distance_shoulder_pan_joint": 3.1430851217946456,
        "distance_wrist_1_joint": 1.5542431731836206,
        "distance_wrist_2_joint": 1.0232090481987146,
        "distance_wrist_3_joint": 3.437333892644344,
        "smoothness": 0.33836898255582964,
        "time": 2.7445959269999998,
        "traj_len": 3.7319182216011173,
        "weighted_distance": 4.83521805293096
    },
    "planner": "TRRT",
    "start": {
        "state": {
            "elbow_joint": 0.749534889911806,
            "shoulder_lift_joint": -0.6476975780787326,
            "shoulder_pan_joint": -2.711696901376241,
            "wrist_1_joint": -0.07506478083263063,
            "wrist_2_joint": 0.43296659715538205,
            "wrist_3_joint": -3.14703540197715
        }
    },
    "waypoints": [
        {
            "positions": [
                -2.711696901376241,
                -0.6476975780787326,
                0.749534889911806,
                -0.07506478083263063,
                0.43296659715538205,
                -3.14703540197715
            ]
        },
        {
            "positions": [
                -2.702986959410626,
                -0.6861686107639944,
                0.726780100649289,
                0.08308225634125971,
                0.5283777342712873,
                -3.1238633103033893
            ]
        },
        {
            "positions": [
                -2.6942770174450112,
                -0.724639643449256,
                0.704025311386772,
                0.24122929351515005,
                0.6237888713871926,
                -3.1006912186296285
            ]
        },
        {
            "positions": [
                -2.685567075479396,
                -0.7631106761345177,
                0.6812705221242551,
                0.3993763306890404,
                0.719200008503098,
                -3.077519126955868
            ]
        },
        {
            "positions": [
                -2.676857133513781,
                -0.8015817088197794,
                0.6585157328617381,
                0.5575233678629308,
                0.8146111456190033,
                -3.0543470352821074
            ]
        },
        {
            "positions": [
                -2.5835715641711796,
                -0.8513221446433095,
                0.5730500861100525,
                0.5920116986157472,
                0.810523654370239,
                -2.9416119771251386
            ]
        },
        {
            "positions": [
                -2.4902859948285787,
                -0.9010625804668395,
                0.4875844393583667,
                0.6265000293685635,
                0.8064361631214747,
                -2.82887691896817
            ]
        },
        {
            "positions": [
                -2.3970004254859774,
                -0.9508030162903695,
                0.40211879260668104,
                0.66098836012138,
                0.8023486718727105,
                -2.7161418608112013
            ]
        },
        {
            "positions": [
                -2.3037148561433765,
                -1.0005434521138996,
                0.31665314585499527,
                0.6954766908741963,
                0.7982611806239462,
                -2.6034068026542325
            ]
        },
        {
            "positions": [
                -2.210429286800775,
                -1.0502838879374297,
                0.2311874991033096,
                0.7299650216270127,
                0.794173689375182,
                -2.4906717444972637
            ]
        },
        {
            "positions": [
                -2.117143717458174,
                -1.1000243237609595,
                0.14572185235162394,
                0.7644533523798291,
                0.7900861981264177,
                -2.3779366863402953
            ]
        },
        {
            "positions": [
                -2.023858148115573,
                -1.1497647595844895,
                0.06025620559993816,
                0.7989416831326455,
                0.7859987068776534,
                -2.2652016281833265
            ]
        },
        {
            "positions": [
                -1.9305725787729717,
                -1.1995051954080196,
                -0.025209441151747614,
                0.8334300138854619,
                0.7819112156288891,
                -2.1524665700263577
            ]
        },
        {
            "positions": [
                -1.8372870094303706,
                -1.2492456312315496,
                -0.11067508790343339,
                0.8679183446382783,
                0.7778237243801249,
                -2.0397315118693893
            ]
        },
        {
            "positions": [
                -1.7440014400877695,
                -1.2989860670550797,
                -0.19614073465511894,
                0.9024066753910946,
                0.7737362331313606,
                -1.9269964537124205
            ]
        },
        {
            "positions": [
                -1.6507158707451683,
                -1.3487265028786097,
                -0.2816063814068047,
                0.9368950061439111,
                0.7696487418825964,
                -1.8142613955554516
            ]
        },
        {
            "positions": [
                -1.5574303014025672,
                -1.3984669387021396,
                -0.36707202815849027,
                0.9713833368967275,
                0.7655612506338321,
                -1.701526337398483
            ]
        },
        {
            "positions": [
                -1.464144732059966,
                -1.4482073745256698,
                -0.45253767491017616,
                1.0058716676495438,
                0.7614737593850678,
                -1.5887912792415142
            ]
        },
        {
            "positions": [
                -1.370859162717365,
                -1.4979478103491997,
                -0.5380033216618618,
                1.0403599984023604,
                0.7573862681363036,
                -1.4760562210845456
            ]
        },
        {
            "positions": [
                -1.2775735933747638,
                -1.5476882461727297,
                -0.6234689684135475,
                1.0748483291551767,
                0.7532987768875393,
                -1.363321162927577
            ]
        },
        {
            "positions": [
                -1.1842880240321625,
                -1.5974286819962598,
                -0.7089346151652334,
                1.109336659907993,
                0.749211285638775,
                -1.2505861047706082
            ]
        },
        {
            "positions": [
                -1.0910024546895616,
                -1.6471691178197898,
                -0.794400261916919,
                1.1438249906608093,
                0.7451237943900108,
                -1.1378510466136393
            ]
        },
        {
            "positions": [
                -0.9977168853469602,
                -1.6969095536433199,
                -0.8798659086686049,
                1.1783133214136259,
                0.7410363031412465,
                -1.0251159884566707
            ]
        },
        {
            "positions": [
                -0.9044313160043591,
                -1.74664998946685,
                -0.9653315554202904,
                1.2128016521664422,
                0.7369488118924823,
                -0.9123809302997019
            ]
        },
        {
            "positions": [
                -0.811145746661758,
                -1.79639042529038,
                -1.050797202171976,
                1.2472899829192587,
                0.732861320643718,
                -0.7996458721427335
            ]
        },
        {
            "positions": [
                -0.7178601773191569,
                -1.84613086111391,
                -1.136262848923662,
                1.281778313672075,
                0.7287738293949537,
                -0.6869108139857647
            ]
        },
        {
            "positions": [
                -0.6245746079765557,
                -1.89587129693744,
                -1.2217284956753476,
                1.3162666444248914,
                0.7246863381461894,
                -0.5741757558287959
            ]
        },
        {
            "positions": [
                -0.5312018250460473,
                -1.9367245507109945,
                -1.3639082539860052,
                1.3143402084410907,
                0.7022958463682062,
                -0.47996991734249367
            ]
        },
        {
            "positions": [
                -0.43782904211553886,
                -1.9775778044845487,
                -1.506088012296663,
                1.3124137724572902,
                0.6799053545902229,
                -0.38576407885619146
            ]
        },
        {
            "positions": [
                -0.3444562591850304,
                -2.018431058258103,
                -1.6482677706073203,
                1.3104873364734895,
                0.6575148628122398,
                -0.29155824036988925
            ]
        },
        {
            "positions": [
                -0.251083476254522,
                -2.0592843120316573,
                -1.790447528917978,
                1.308560900489689,
                0.6351243710342566,
                -0.19735240188358705
            ]
        },
        {
            "positions": [
                -0.15771069332401355,
                -2.1001375658052117,
                -1.9326272872286356,
                1.3066344645058883,
                0.6127338792562733,
                -0.10314656339728484
            ]
        },
        {
            "positions": [
                -0.06433791039350512,
                -2.140990819578766,
                -2.074807045539293,
                1.3047080285220876,
                0.5903433874782902,
                -0.008940724910982634
            ]
        },
        {
            "positions": [
                0.02903487253700332,
                -2.18184407335232,
                -2.2169868038499505,
                1.302781592538287,
                0.5679528957003069,
                0.08526511357531952
            ]
        },
        {
            "positions": [
                0.12240765546751181,
                -2.2226973271258745,
                -2.3591665621606084,
                1.3008551565544864,
                0.5455624039223237,
                0.1794709520616218
            ]
        },
        {
            "positions": [
                0.019414133817214296,
                -2.2405917640984465,
                -2.3698191837805576,
                1.3500219099063842,
                0.4213904845761858,
                0.142528439193098
            ]
        },
        {
            "positions": [
                -0.08357938783308322,
                -2.258486201071019,
                -2.3804718054005063,
                1.3991886632582822,
                0.2972185652300478,
                0.10558592632457417
            ]
        },
        {
            "positions": [
                -0.18657290948338076,
                -2.276380638043591,
                -2.3911244270204555,
                1.44835541661018,
                0.17304664588390983,
                0.06864341345605034
            ]
        }
    ]
}