{
    "goal": {
        "global_pose": {
            "orientation": {
                "w": 0.7047431468963623,
                "x": -0.7094548344612122,
                "y": 0.0024358443915843964,
                "z": -0.0022348060738295317
            },
            "position": {
                "x": 0.6094750761985779,
                "y": 0.3671506643295288,
                "z": 0.19426114857196808
            }
        },
        "name": "move_to_magneteinheit_A"
    },
    "id": "TRRT_move_to_magneteinheit_A_92",
    "joint_names": [
        "shoulder_pan_joint",
        "shoulder_lift_joint",
        "elbow_joint",
        "wrist_1_joint",
        "wrist_2_joint",
        "wrist_3_joint"
    ],
    "metrics": {
        "cart_traj_len": 3.539650393202352,
        "distance_elbow_joint": 3.888666997211872,
        "distance_shoulder_lift_joint": 0.5601250292312798,
        "distance_shoulder_pan_joint": 2.7510906838046614,
        "distance_wrist_1_joint": 0.7837892839545642,
        "distance_wrist_2_joint": 1.6974522043099132,
        "distance_wrist_3_joint": 2.6265645906566113,
        "smoothness": 0.052028738605836705,
        "time": 0.07196042999999999,
        "traj_len": 3.508231575761341,
        "weighted_distance": 4.476835875788456
    },
    "planner": "TRRT",
    "start": {
        "state": {
            "elbow_joint": -1.9196185241190666,
            "shoulder_lift_joint": -1.2443396400964142,
            "shoulder_pan_joint": 2.6996025414629847,
            "wrist_1_joint": -1.5485510000780065,
            "wrist_2_joint": -1.5709468930060704,
            "wrist_3_joint": 0.4420197071253992
        }
    },
    "waypoints": [
        {
            "positions": [
                2.6996025414629847,
                -1.2443396400964142,
                -1.9196185241190666,
                -1.5485510000780065,
                -1.5709468930060704,
                0.4420197071253992
            ]
        },
        {
            "positions": [
                2.562710991145961,
                -1.225850611288553,
                -1.7877898943769732,
                -1.5138159257022183,
                -1.533385551508148,
                0.4601169071604141
            ]
        },
        {
            "positions": [
                2.4258194408289375,
                -1.2073615824806918,
                -1.65596126463488,
                -1.47908085132643,
                -1.4958242100102257,
                0.478214107195429
            ]
        },
        {
            "positions": [
                2.288927890511914,
                -1.1888725536728306,
                -1.5241326348927866,
                -1.4443457769506418,
                -1.4582628685123034,
                0.4963113072304439
            ]
        },
        {
            "positions": [
                2.1520363401948903,
                -1.1703835248649694,
                -1.3923040051506934,
                -1.4096107025748534,
                -1.420701527014381,
                0.5144085072654588
            ]
        },
        {
            "positions": [
                2.0151447898778665,
                -1.1518944960571083,
                -1.2604753754085998,
                -1.3748756281990653,
                -1.3831401855164585,
                0.5325057073004738
            ]
        },
        {
            "positions": [
                1.8782532395608431,
                -1.133405467249247,
                -1.1286467456665066,
                -1.340140553823277,
                -1.3455788440185361,
                0.5506029073354887
            ]
        },
        {
            "positions": [
                1.7413616892438195,
                -1.1149164384413859,
                -0.9968181159244133,
                -1.3054054794474887,
                -1.3080175025206138,
                0.5687001073705036
            ]
        },
        {
            "positions": [
                1.604470138926796,
                -1.0964274096335247,
                -0.86498948618232,
                -1.2706704050717004,
                -1.2704561610226914,
                0.5867973074055185
            ]
        },
        {
            "positions": [
                1.4675785886097723,
                -1.0779383808256635,
                -0.7331608564402265,
                -1.2359353306959122,
                -1.232894819524769,
                0.6048945074405334
            ]
        },
        {
            "positions": [
                1.3306870382927487,
                -1.0594493520178023,
                -0.6013322266981331,
                -1.2012002563201238,
                -1.1953334780268468,
                0.6229917074755484
            ]
        },
        {
            "positions": [
                1.1937954879757249,
                -1.0409603232099411,
                -0.4695035969560397,
                -1.1664651819443357,
                -1.1577721365289244,
                0.6410889075105634
            ]
        },
        {
            "positions": [
                1.0569039376587015,
                -1.02247129440208,
                -0.3376749672139465,
                -1.1317301075685475,
                -1.120210795031002,
                0.6591861075455783
            ]
        },
        {
            "positions": [
                0.9200123873416779,
                -1.0039822655942188,
                -0.2058463374718531,
                -1.0969950331927592,
                -1.0826494535330795,
                0.6772833075805932
            ]
        },
        {
            "positions": [
                0.7831208370246543,
                -0.9854932367863576,
                -0.07401770772975991,
                -1.0622599588169708,
                -1.0450881120351574,
                0.6953805076156081
            ]
        },
        {
            "positions": [
                0.6462292867076305,
                -0.9670042079784964,
                0.05781092201233351,
                -1.0275248844411826,
                -1.0075267705372348,
                0.713477707650623
            ]
        },
        {
            "positions": [
                0.5093377363906071,
                -0.9485151791706352,
                0.1896395517544267,
                -0.9927898100653944,
                -0.9699654290393126,
                0.7315749076856379
            ]
        },
        {
            "positions": [
                0.3724461860735837,
                -0.930026150362774,
                0.32146818149652034,
                -0.9580547356896061,
                -0.9324040875413901,
                0.7496721077206528
            ]
        },
        {
            "positions": [
                0.23555463575655972,
                -0.9115371215549128,
                0.4532968112386134,
                -0.9233196613138178,
                -0.8948427460434678,
                0.7677693077556678
            ]
        },
        {
            "positions": [
                0.21053313471980362,
                -0.9195059456530471,
                0.5623586799758773,
                -0.9082865404728618,
                -0.8264480402553325,
                0.9179048971589477
            ]
        },
        {
            "positions": [
                0.18551163368304752,
                -0.9274747697511814,
                0.6714205487131412,
                -0.893253419631906,
                -0.758053334467197,
                1.0680404865622277
            ]
        },
        {
            "positions": [
                0.16049013264629142,
                -0.9354435938493156,
                0.780482417450405,
                -0.87822029879095,
                -0.6896586286790616,
                1.2181760759655076
            ]
        },
        {
            "positions": [
                0.13546863160953532,
                -0.9434124179474499,
                0.889544286187669,
                -0.863187177949994,
                -0.6212639228909262,
                1.3683116653687875
            ]
        },
        {
            "positions": [
                0.11044713057277919,
                -0.951381242045584,
                0.9986061549249328,
                -0.848154057109038,
                -0.5528692171027909,
                1.5184472547720675
            ]
        },
        {
            "positions": [
                0.08542562953602309,
                -0.9593500661437183,
                1.1076680236621967,
                -0.833120936268082,
                -0.48447451131465546,
                1.6685828441753474
            ]
        },
        {
            "positions": [
                0.06040412849926699,
                -0.9673188902418526,
                1.2167298923994607,
                -0.8180878154271262,
                -0.4160798055265201,
                1.8187184335786275
            ]
        },
        {
            "positions": [
                0.03538262746251089,
                -0.9752877143399868,
                1.3257917611367245,
                -0.8030546945861702,
                -0.3476850997383847,
                1.9688540229819074
            ]
        },
        {
            "positions": [
                0.04779273743453765,
                -0.998655131183516,
                1.4176855771304502,
                -0.7975842690914948,
                -0.27994361244663796,
                2.125958347953351
            ]
        },
        {
            "positions": [
                0.06020284740656441,
                -1.0220225480270453,
                1.5095793931241757,
                -0.7921138435968194,
                -0.21220212515489123,
                2.283062672924794
            ]
        },
        {
            "positions": [
                0.07261295737859116,
                -1.0453899648705745,
                1.6014732091179014,
                -0.786643418102144,
                -0.1444606378631445,
                2.4401669978962373
            ]
        },
        {
            "positions": [
                0.08502306735061793,
                -1.0687573817141036,
                1.693367025111627,
                -0.7811729926074685,
                -0.07671915057139778,
                2.5972713228676807
            ]
        },
        {
            "positions": [
                0.0974331773226447,
                -1.092124798557633,
                1.7852608411053525,
                -0.7757025671127932,
                -0.008977663279650994,
                2.754375647839124
            ]
        },
        {
            "positions": [
                0.10984328729467145,
                -1.1154922154011622,
                1.8771546570990782,
                -0.7702321416181177,
                0.05876382401209568,
                2.911479972810567
            ]
        },
        {
            "positions": [
                0.12225339726669822,
                -1.1388596322446913,
                1.969048473092804,
                -0.7647617161234423,
                0.1265053113038425,
                3.0685842977820106
            ]
        }
    ]
}