{
    "goal": {
        "global_pose": {
            "orientation": {
                "w": 0.5084816262002911,
                "x": -0.4908360881923452,
                "y": 0.5182115481033761,
                "z": -0.48164630358495003
            },
            "position": {
                "x": 0.5540239810943604,
                "y": -0.46912469901144505,
                "z": 0.16403168439865112
            }
        },
        "name": "move_to_storage_B"
    },
    "id": "TRRT_move_to_storage_B_104",
    "joint_names": [
        "shoulder_pan_joint",
        "shoulder_lift_joint",
        "elbow_joint",
        "wrist_1_joint",
        "wrist_2_joint",
        "wrist_3_joint"
    ],
    "metrics": {
        "cart_traj_len": 1.6373052586240369,
        "distance_elbow_joint": 1.1267903237072496,
        "distance_shoulder_lift_joint": 0.6133931015082343,
        "distance_shoulder_pan_joint": 1.3479689309736922,
        "distance_wrist_1_joint": 2.9760864761580637,
        "distance_wrist_2_joint": 2.712903036047763,
        "distance_wrist_3_joint": 3.1447821507946574,
        "smoothness": 0.20281910056357982,
        "time": 0.089369311,
        "traj_len": 3.452813927681256,
        "weighted_distance": 4.888811494932567
    },
    "planner": "TRRT",
    "start": {
        "state": {
            "elbow_joint": 1.664937868594044,
            "shoulder_lift_joint": -0.661644460510453,
            "shoulder_pan_joint": -0.9139846352900073,
            "wrist_1_joint": 2.146753192139373,
            "wrist_2_joint": -2.2341966793290973,
            "wrist_3_joint": 0.005466555786416001
        }
    },
    "waypoints": [
        {
            "positions": [
                -0.9139846352900073,
                -0.661644460510453,
                1.664937868594044,
                2.146753192139373,
                -2.2341966793290973,
                0.005466555786416001
            ]
        },
        {
            "positions": [
                -0.8984615044481736,
                -0.6617543491035723,
                1.6651123333030071,
                2.1382044154249824,
                -2.218444742006481,
                0.006224650844114428
            ]
        },
        {
            "positions": [
                -0.8578792859958715,
                -0.7000751249414546,
                1.637309902842345,
                2.0340669623779135,
                -2.0816238594302807,
                -0.03195149864317985
            ]
        },
        {
            "positions": [
                -0.8172970675435693,
                -0.7383959007793369,
                1.6095074723816827,
                1.9299295093308446,
                -1.9448029768540807,
                -0.07012764813047413
            ]
        },
        {
            "positions": [
                -0.7767148490912672,
                -0.7767166766172193,
                1.5817050419210206,
                1.8257920562837757,
                -1.8079820942778806,
                -0.10830379761776841
            ]
        },
        {
            "positions": [
                -0.7361326306389652,
                -0.8150374524551016,
                1.5539026114603585,
                1.7216546032367068,
                -1.6711612117016803,
                -0.1464799471050627
            ]
        },
        {
            "positions": [
                -0.695550412186663,
                -0.8533582282929839,
                1.5261001809996961,
                1.6175171501896377,
                -1.5343403291254802,
                -0.18465609659235702
            ]
        },
        {
            "positions": [
                -0.6549681937343609,
                -0.8916790041308662,
                1.498297750539034,
                1.513379697142569,
                -1.3975194465492802,
                -0.22283224607965127
            ]
        },
        {
            "positions": [
                -0.6143859752820587,
                -0.9299997799687485,
                1.470495320078372,
                1.4092422440955,
                -1.2606985639730799,
                -0.26100839556694555
            ]
        },
        {
            "positions": [
                -0.5738037568297567,
                -0.9683205558066308,
                1.4426928896177098,
                1.305104791048431,
                -1.1238776813968798,
                -0.2991845450542398
            ]
        },
        {
            "positions": [
                -0.5332215383774545,
                -1.0066413316445133,
                1.4148904591570475,
                1.200967338001362,
                -0.9870567988206795,
                -0.33736069454153417
            ]
        },
        {
            "positions": [
                -0.49263931992515236,
                -1.0449621074823954,
                1.3870880286963854,
                1.096829884954293,
                -0.8502359162444795,
                -0.3755368440288284
            ]
        },
        {
            "positions": [
                -0.4520571014728502,
                -1.083282883320278,
                1.3592855982357233,
                0.9926924319072243,
                -0.7134150336682792,
                -0.4137129935161227
            ]
        },
        {
            "positions": [
                -0.41147488302054813,
                -1.1216036591581602,
                1.3314831677750611,
                0.8885549788601554,
                -0.5765941510920791,
                -0.4518891430034169
            ]
        },
        {
            "positions": [
                -0.370892664568246,
                -1.1599244349960425,
                1.3036807373143988,
                0.7844175258130863,
                -0.43977326851587883,
                -0.4900652924907113
            ]
        },
        {
            "positions": [
                -0.3303104461159439,
                -1.1982452108339248,
                1.2758783068537367,
                0.6802800727660173,
                -0.30295238593967866,
                -0.5282414419780056
            ]
        },
        {
            "positions": [
                -0.37526896033945145,
                -1.1937280137054094,
                1.3192537087683847,
                0.5914792870727991,
                -0.2569724599009525,
                -0.6817448515612314
            ]
        },
        {
            "positions": [
                -0.42022747456295906,
                -1.189210816576894,
                1.3626291106830326,
                0.5026785013795809,
                -0.21099253386222633,
                -0.8352482611444572
            ]
        },
        {
            "positions": [
                -0.46518598878646666,
                -1.1846936194483784,
                1.4060045125976808,
                0.41387771568636267,
                -0.1650126078235002,
                -0.9887516707276831
            ]
        },
        {
            "positions": [
                -0.5101445030099743,
                -1.180176422319863,
                1.4493799145123287,
                0.32507692999314447,
                -0.11903268178477402,
                -1.1422550803109088
            ]
        },
        {
            "positions": [
                -0.5551030172334819,
                -1.1756592251913476,
                1.4927553164269767,
                0.23627614429992622,
                -0.07305275574604786,
                -1.2957584898941348
            ]
        },
        {
            "positions": [
                -0.6000615314569894,
                -1.1711420280628322,
                1.5361307183416248,
                0.14747535860670802,
                -0.02707282970732172,
                -1.4492618994773605
            ]
        },
        {
            "positions": [
                -0.6450200456804969,
                -1.1666248309343166,
                1.5795061202562728,
                0.058674572913489875,
                0.018907096331404416,
                -1.6027653090605862
            ]
        },
        {
            "positions": [
                -0.6899785599040045,
                -1.1621076338058012,
                1.6228815221709207,
                -0.03012621277972838,
                0.06488702237013061,
                -1.756268718643812
            ]
        },
        {
            "positions": [
                -0.7349370741275121,
                -1.1575904366772858,
                1.6662569240855687,
                -0.11892699847294663,
                0.11086694840885675,
                -1.9097721282270377
            ]
        },
        {
            "positions": [
                -0.7798955883510197,
                -1.1530732395487704,
                1.7096323260002166,
                -0.20772778416616489,
                0.15684687444758294,
                -2.063275537810264
            ]
        },
        {
            "positions": [
                -0.8248541025745273,
                -1.1485560424202548,
                1.7530077279148648,
                -0.29652856985938314,
                0.20282680048630908,
                -2.2167789473934896
            ]
        },
        {
            "positions": [
                -0.8698126167980349,
                -1.1440388452917394,
                1.7963831298295128,
                -0.3853293555526013,
                0.24880672652503522,
                -2.3702823569767153
            ]
        },
        {
            "positions": [
                -0.9147711310215425,
                -1.139521648163224,
                1.8397585317441607,
                -0.4741301412458193,
                0.29478665256376135,
                -2.523785766559941
            ]
        },
        {
            "positions": [
                -0.9597296452450499,
                -1.1350044510347086,
                1.8831339336588087,
                -0.5629309269390376,
                0.3407665786024875,
                -2.6772891761431667
            ]
        },
        {
            "positions": [
                -1.0046881594685575,
                -1.130487253906193,
                1.9265093355734568,
                -0.6517317126322558,
                0.38674650464121363,
                -2.8307925857263925
            ]
        },
        {
            "positions": [
                -1.049646673692065,
                -1.1259700567776776,
                1.9698847374881048,
                -0.7405324983254741,
                0.4327264306799399,
                -2.9842959953096186
            ]
        },
        {
            "positions": [
                -1.0946051879155727,
                -1.1214528596491622,
                2.0132601394027527,
                -0.8293332840186923,
                0.478706356718666,
                -3.1377994048928444
            ]
        }
    ]
}