{
    "goal": {
        "global_pose": {
            "orientation": {
                "w": -0.4816463035849501,
                "x": 0.5182115481033762,
                "y": 0.4908360881923453,
                "z": -0.5084816262002911
            },
            "position": {
                "x": -0.8240239810943604,
                "y": -0.300875300988555,
                "z": 0.16403168439865112
            }
        },
        "name": "move_to_storage_C"
    },
    "id": "TRRT_move_to_storage_C_78",
    "joint_names": [
        "shoulder_pan_joint",
        "shoulder_lift_joint",
        "elbow_joint",
        "wrist_1_joint",
        "wrist_2_joint",
        "wrist_3_joint"
    ],
    "metrics": {
        "cart_traj_len": 0.5758225027324061,
        "distance_elbow_joint": 0.2534060472879298,
        "distance_shoulder_lift_joint": 0.1880360727226389,
        "distance_shoulder_pan_joint": 0.4945562777232335,
        "distance_wrist_1_joint": 0.06594274714515602,
        "distance_wrist_2_joint": 1.0672736697402248,
        "distance_wrist_3_joint": 0.06815770858594306,
        "smoothness": 2.5376526478085547e-16,
        "time": 0.020836411,
        "traj_len": 1.4619755549273477,
        "weighted_distance": 1.8457801486803331
    },
    "planner": "TRRT",
    "start": {
        "state": {
            "elbow_joint": 2.010868314990456,
            "shoulder_lift_joint": -1.1634956873337592,
            "shoulder_pan_joint": -2.4736205022346125,
            "wrist_1_joint": -0.8367026794202681,
            "wrist_2_joint": 0.6746043897044499,
            "wrist_3_joint": -3.1496632123970403
        }
    },
    "waypoints": [
        {
            "positions": [
                -2.4736205022346125,
                -1.1634956873337592,
                2.010868314990456,
                -0.8367026794202681,
                0.6746043897044499,
                -3.1496632123970403
            ]
        },
        {
            "positions": [
                -2.556046548521818,
                -1.132156341879986,
                1.968633973775801,
                -0.8257122215627422,
                0.852483334661154,
                -3.138303594299383
            ]
        },
        {
            "positions": [
                -2.6384725948090235,
                -1.100816996426213,
                1.9263996325611459,
                -0.8147217637052161,
                1.0303622796178582,
                -3.126943976201726
            ]
        },
        {
            "positions": [
                -2.7208986410962295,
                -1.0694776509724397,
                1.8841652913464908,
                -0.80373130584769,
                1.2082412245745622,
                -3.1155843581040688
            ]
        },
        {
            "positions": [
                -2.803324687383435,
                -1.0381383055186666,
                1.841930950131836,
                -0.7927408479901641,
                1.3861201695312664,
                -3.1042247400064116
            ]
        },
        {
            "positions": [
                -2.8857507336706405,
                -1.0067989600648934,
                1.799696608917181,
                -0.7817503901326381,
                1.5639991144879706,
                -3.0928651219087544
            ]
        },
        {
            "positions": [
                -2.968176779957846,
                -0.9754596146111203,
                1.757462267702526,
                -0.7707599322751121,
                1.7418780594446746,
                -3.0815055038110972
            ]
        }
    ]
}