{
    "goal": {
        "global_pose": {
            "orientation": {
                "w": 0.7047431468963623,
                "x": -0.7094548344612122,
                "y": 0.0024358443915843964,
                "z": -0.0022348060738295317
            },
            "position": {
                "x": 0.6094750761985779,
                "y": 0.3671506643295288,
                "z": 0.19426114857196808
            }
        },
        "name": "move_to_magneteinheit_A"
    },
    "id": "TRRT_move_to_magneteinheit_A_40",
    "joint_names": [
        "shoulder_pan_joint",
        "shoulder_lift_joint",
        "elbow_joint",
        "wrist_1_joint",
        "wrist_2_joint",
        "wrist_3_joint"
    ],
    "metrics": {
        "cart_traj_len": 3.46411003491757,
        "distance_elbow_joint": 3.9108155883310562,
        "distance_shoulder_lift_joint": 0.4679942972691443,
        "distance_shoulder_pan_joint": 3.1495947768830432,
        "distance_wrist_1_joint": 3.4657208941579762,
        "distance_wrist_2_joint": 1.447514251814795,
        "distance_wrist_3_joint": 1.9882227905423417,
        "smoothness": 0.15593028502725662,
        "time": 0.11783692000000001,
        "traj_len": 3.798665897258979,
        "weighted_distance": 4.829031303072678
    },
    "planner": "TRRT",
    "start": {
        "state": {
            "elbow_joint": -1.9196185241190666,
            "shoulder_lift_joint": -1.2443396400964142,
            "shoulder_pan_joint": 2.6996025414629847,
            "wrist_1_joint": -1.5485510000780065,
            "wrist_2_joint": -1.5709468930060704,
            "wrist_3_joint": 0.4420197071253992
        }
    },
    "waypoints": [
        {
            "positions": [
                2.6996025414629847,
                -1.2443396400964142,
                -1.9196185241190666,
                -1.5485510000780065,
                -1.5709468930060704,
                0.4420197071253992
            ]
        },
        {
            "positions": [
                2.5973248018820003,
                -1.2306904228545845,
                -1.8216425293098164,
                -1.461986017256507,
                -1.5267577933670609,
                0.3986607992518789
            ]
        },
        {
            "positions": [
                2.4950470623010164,
                -1.2170412056127546,
                -1.7236665345005662,
                -1.3754210344350073,
                -1.4825686937280513,
                0.35530189137835866
            ]
        },
        {
            "positions": [
                2.392769322720032,
                -1.203391988370925,
                -1.6256905396913162,
                -1.2888560516135077,
                -1.4383795940890418,
                0.3119429835048384
            ]
        },
        {
            "positions": [
                2.290491583139048,
                -1.1897427711290953,
                -1.527714544882066,
                -1.2022910687920083,
                -1.394190494450032,
                0.2685840756313181
            ]
        },
        {
            "positions": [
                2.1882138435580636,
                -1.1760935538872657,
                -1.4297385500728157,
                -1.1157260859705087,
                -1.3500013948110225,
                0.2252251677577978
            ]
        },
        {
            "positions": [
                2.0859361039770796,
                -1.1624443366454358,
                -1.3317625552635655,
                -1.029161103149009,
                -1.305812295172013,
                0.18186625988427757
            ]
        },
        {
            "positions": [
                1.9836583643960952,
                -1.1487951194036061,
                -1.2337865604543152,
                -0.9425961203275095,
                -1.2616231955330035,
                0.13850735201075726
            ]
        },
        {
            "positions": [
                1.8813806248151108,
                -1.1351459021617765,
                -1.1358105656450652,
                -0.85603113750601,
                -1.217434095893994,
                0.095148444137237
            ]
        },
        {
            "positions": [
                1.7791028852341266,
                -1.1214966849199466,
                -1.0378345708358148,
                -0.7694661546845103,
                -1.1732449962549842,
                0.051789536263716685
            ]
        },
        {
            "positions": [
                1.6768251456531424,
                -1.107847467678117,
                -0.9398585760265646,
                -0.6829011718630108,
                -1.129055896615975,
                0.008430628390196426
            ]
        },
        {
            "positions": [
                1.5745474060721583,
                -1.0941982504362873,
                -0.8418825812173145,
                -0.5963361890415112,
                -1.0848667969769652,
                -0.03492827948332383
            ]
        },
        {
            "positions": [
                1.472269666491174,
                -1.0805490331944576,
                -0.7439065864080643,
                -0.5097712062200117,
                -1.040677697337956,
                -0.07828718735684403
            ]
        },
        {
            "positions": [
                1.3699919269101897,
                -1.0668998159526277,
                -0.645930591598814,
                -0.4232062233985121,
                -0.9964885976989462,
                -0.1216460952303644
            ]
        },
        {
            "positions": [
                1.2677141873292055,
                -1.053250598710798,
                -0.5479545967895638,
                -0.3366412405770125,
                -0.9522994980599366,
                -0.16500500310388466
            ]
        },
        {
            "positions": [
                1.1654364477482213,
                -1.0396013814689684,
                -0.4499786019803136,
                -0.2500762577555129,
                -0.9081103984209271,
                -0.20836391097740492
            ]
        },
        {
            "positions": [
                1.0631587081672371,
                -1.0259521642271388,
                -0.3520026071710636,
                -0.16351127493401352,
                -0.8639212987819176,
                -0.2517228188509252
            ]
        },
        {
            "positions": [
                0.9608809685862529,
                -1.0123029469853089,
                -0.25402661236181334,
                -0.07694629211251391,
                -0.8197321991429081,
                -0.29508172672444544
            ]
        },
        {
            "positions": [
                0.8586032290052685,
                -0.9986537297434792,
                -0.1560506175525629,
                0.00961869070898591,
                -0.7755430995038983,
                -0.3384406345979658
            ]
        },
        {
            "positions": [
                0.7563254894242843,
                -0.9850045125016494,
                -0.058074622743312654,
                0.09618367353048551,
                -0.7313539998648888,
                -0.38179954247148606
            ]
        },
        {
            "positions": [
                0.6540477498433002,
                -0.9713552952598197,
                0.03990137206593736,
                0.1827486563519849,
                -0.6871649002258793,
                -0.4251584503450063
            ]
        },
        {
            "positions": [
                0.5517700102623158,
                -0.95770607801799,
                0.1378773668751876,
                0.2693136391734845,
                -0.6429758005868698,
                -0.4685173582185266
            ]
        },
        {
            "positions": [
                0.4494922706813318,
                -0.9440568607761604,
                0.2358533616844376,
                0.3558786219949841,
                -0.5987867009478602,
                -0.5118762660920468
            ]
        },
        {
            "positions": [
                0.3472145311003474,
                -0.9304076435343306,
                0.33382935649368806,
                0.4424436048164835,
                -0.5545976013088507,
                -0.5552351739655671
            ]
        },
        {
            "positions": [
                0.24493679151936343,
                -0.9167584262925008,
                0.43180535130293807,
                0.5290085876379831,
                -0.5104085016698412,
                -0.5985940818390872
            ]
        },
        {
            "positions": [
                0.14265905193837902,
                -0.9031092090506712,
                0.5297813461121885,
                0.6155735704594829,
                -0.46621940203083145,
                -0.6419529897126078
            ]
        },
        {
            "positions": [
                0.040381312357394616,
                -0.8894599918088414,
                0.6277573409214385,
                0.7021385532809823,
                -0.42203030239182193,
                -0.685311897586128
            ]
        },
        {
            "positions": [
                -0.061896427223589345,
                -0.8758107745670116,
                0.725733335730689,
                0.7887035361024821,
                -0.3778412027528124,
                -0.7286708054596484
            ]
        },
        {
            "positions": [
                -0.16417416680457383,
                -0.862161557325182,
                0.8237093305399392,
                0.8752685189239813,
                -0.33365210311380283,
                -0.7720297133331686
            ]
        },
        {
            "positions": [
                -0.1399059915787992,
                -0.8542908243223872,
                0.9410382114123857,
                0.9821673708537532,
                -0.3105454337287427,
                -0.702527065319666
            ]
        },
        {
            "positions": [
                -0.11563781635302461,
                -0.8464200913195925,
                1.0583670922848323,
                1.089066222783525,
                -0.28743876434368265,
                -0.6330244173061633
            ]
        },
        {
            "positions": [
                -0.09136964112724999,
                -0.8385493583167978,
                1.175695973157279,
                1.195965074713297,
                -0.26433209495862253,
                -0.5635217692926607
            ]
        },
        {
            "positions": [
                -0.06710146590147538,
                -0.8306786253140029,
                1.2930248540297256,
                1.3028639266430688,
                -0.24122542557356244,
                -0.4940191212791581
            ]
        },
        {
            "positions": [
                -0.042833290675700755,
                -0.8228078923112082,
                1.4103537349021722,
                1.4097627785728408,
                -0.21811875618850235,
                -0.42451647326565545
            ]
        },
        {
            "positions": [
                -0.018565115449926145,
                -0.8149371593084135,
                1.5276826157746186,
                1.5166616305026128,
                -0.19501208680344226,
                -0.3550138252521528
            ]
        },
        {
            "positions": [
                0.005703059775848479,
                -0.8070664263056188,
                1.6450114966470653,
                1.6235604824323846,
                -0.17190541741838214,
                -0.28551117723865016
            ]
        },
        {
            "positions": [
                0.044350007120869686,
                -0.7968260651461692,
                1.7604066858353735,
                1.721430286314913,
                -0.15574782534268,
                -0.18962623257556488
            ]
        },
        {
            "positions": [
                0.0829969544658909,
                -0.7865857039867195,
                1.8758018750236818,
                1.8193000901974412,
                -0.1395902332669779,
                -0.0937412879124796
            ]
        },
        {
            "positions": [
                0.1216439018109121,
                -0.7763453428272699,
                1.99119706421199,
                1.9171698940799695,
                -0.12343264119127575,
                0.002143656750605695
            ]
        }
    ]
}