{
    "goal": {
        "global_pose": {
            "orientation": {
                "w": 0.7047431468963623,
                "x": -0.7094548344612122,
                "y": 0.0024358443915843964,
                "z": -0.0022348060738295317
            },
            "position": {
                "x": 0.6094750761985779,
                "y": 0.3671506643295288,
                "z": 0.19426114857196808
            }
        },
        "name": "move_to_magneteinheit_A"
    },
    "id": "TRRT_move_to_magneteinheit_A_89",
    "joint_names": [
        "shoulder_pan_joint",
        "shoulder_lift_joint",
        "elbow_joint",
        "wrist_1_joint",
        "wrist_2_joint",
        "wrist_3_joint"
    ],
    "metrics": {
        "cart_traj_len": 3.601690871438434,
        "distance_elbow_joint": 3.93239577055705,
        "distance_shoulder_lift_joint": 0.4699637244368102,
        "distance_shoulder_pan_joint": 4.641131210609457,
        "distance_wrist_1_joint": 3.629700659761811,
        "distance_wrist_2_joint": 2.3162950245633183,
        "distance_wrist_3_joint": 0.522139159429576,
        "smoothness": 0.3030609371106357,
        "time": 0.143273281,
        "traj_len": 3.9384801065078414,
        "weighted_distance": 4.743616716445617
    },
    "planner": "TRRT",
    "start": {
        "state": {
            "elbow_joint": -1.9196185241190666,
            "shoulder_lift_joint": -1.2443396400964142,
            "shoulder_pan_joint": 2.6996025414629847,
            "wrist_1_joint": -1.5485510000780065,
            "wrist_2_joint": -1.5709468930060704,
            "wrist_3_joint": 0.4420197071253992
        }
    },
    "waypoints": [
        {
            "positions": [
                2.6996025414629847,
                -1.2443396400964142,
                -1.9196185241190666,
                -1.5485510000780065,
                -1.5709468930060704,
                0.4420197071253992
            ]
        },
        {
            "positions": [
                2.5751683249539563,
                -1.2445192009944803,
                -1.836883803428228,
                -1.4249738569939452,
                -1.5063036086764765,
                0.4416145035997853
            ]
        },
        {
            "positions": [
                2.4507341084449283,
                -1.2446987618925465,
                -1.7541490827373893,
                -1.3013967139098839,
                -1.4416603243468826,
                0.4412093000741715
            ]
        },
        {
            "positions": [
                2.3262998919359,
                -1.2448783227906124,
                -1.6714143620465505,
                -1.1778195708258226,
                -1.377017040017289,
                0.44080409654855757
            ]
        },
        {
            "positions": [
                2.2018656754268715,
                -1.2450578836886785,
                -1.5886796413557118,
                -1.0542424277417615,
                -1.312373755687695,
                0.4403988930229437
            ]
        },
        {
            "positions": [
                2.0774314589178435,
                -1.2452374445867447,
                -1.5059449206648732,
                -0.9306652846577,
                -1.2477304713581012,
                0.43999368949732987
            ]
        },
        {
            "positions": [
                1.9529972424088151,
                -1.2454170054848108,
                -1.4232101999740345,
                -0.8070881415736388,
                -1.1830871870285073,
                0.439588485971716
            ]
        },
        {
            "positions": [
                1.8285630258997867,
                -1.2455965663828767,
                -1.3404754792831959,
                -0.6835109984895775,
                -1.1184439026989135,
                0.4391832824461021
            ]
        },
        {
            "positions": [
                1.7041288093907587,
                -1.245776127280943,
                -1.257740758592357,
                -0.5599338554055163,
                -1.0538006183693196,
                0.43877807892048826
            ]
        },
        {
            "positions": [
                1.5796945928817303,
                -1.245955688179009,
                -1.1750060379015186,
                -0.4363567123214549,
                -0.9891573340397258,
                0.4383728753948744
            ]
        },
        {
            "positions": [
                1.4552603763727021,
                -1.2461352490770752,
                -1.0922713172106797,
                -0.3127795692373936,
                -0.924514049710132,
                0.43796767186926056
            ]
        },
        {
            "positions": [
                1.330826159863674,
                -1.246314809975141,
                -1.0095365965198413,
                -0.1892024261533325,
                -0.8598707653805382,
                0.43756246834364665
            ]
        },
        {
            "positions": [
                1.2063919433546455,
                -1.2464943708732072,
                -0.9268018758290024,
                -0.06562528306927118,
                -0.7952274810509443,
                0.4371572648180328
            ]
        },
        {
            "positions": [
                1.0819577268456173,
                -1.2466739317712734,
                -0.8440671551381638,
                0.057951860014790135,
                -0.7305841967213504,
                0.43675206129241895
            ]
        },
        {
            "positions": [
                0.9575235103365889,
                -1.2468534926693395,
                -0.7613324344473249,
                0.18152900309885145,
                -0.6659409123917566,
                0.4363468577668051
            ]
        },
        {
            "positions": [
                0.8330892938275607,
                -1.2470330535674055,
                -0.6785977137564863,
                0.30510614618291276,
                -0.6012976280621628,
                0.4359416542411912
            ]
        },
        {
            "positions": [
                0.7086550773185325,
                -1.2472126144654716,
                -0.5958629930656476,
                0.42868328926697385,
                -0.536654343732569,
                0.43553645071557734
            ]
        },
        {
            "positions": [
                0.5842208608095043,
                -1.2473921753635377,
                -0.5131282723748092,
                0.5522604323510352,
                -0.47201105940297516,
                0.4351312471899635
            ]
        },
        {
            "positions": [
                0.4597866443004759,
                -1.247571736261604,
                -0.4303935516839703,
                0.6758375754350967,
                -0.4073677750733813,
                0.43472604366434964
            ]
        },
        {
            "positions": [
                0.3353524277914479,
                -1.2477512971596698,
                -0.34765883099313166,
                0.7994147185191578,
                -0.3427244907437874,
                0.43432084013873573
            ]
        },
        {
            "positions": [
                0.2109182112824195,
                -1.247930858057736,
                -0.2649241103022928,
                0.9229918616032193,
                -0.27808120641419354,
                0.4339156366131219
            ]
        },
        {
            "positions": [
                0.08648399477339108,
                -1.248110418955802,
                -0.18218938961145414,
                1.0465690046872804,
                -0.21343792208459988,
                0.43351043308750803
            ]
        },
        {
            "positions": [
                -0.03795022173563689,
                -1.2482899798538682,
                -0.09945466892061572,
                1.1701461477713415,
                -0.148794637755006,
                0.4331052295618942
            ]
        },
        {
            "positions": [
                -0.1623844382446653,
                -1.2484695407519342,
                -0.01671994822977685,
                1.293723290855403,
                -0.08415135342541213,
                0.43270002603628027
            ]
        },
        {
            "positions": [
                -0.2868186547536937,
                -1.2486491016500003,
                0.0660147724610618,
                1.4173004339394641,
                -0.01950806909581826,
                0.4322948225106664
            ]
        },
        {
            "positions": [
                -0.4112528712627217,
                -1.2488286625480665,
                0.14874949315190023,
                1.5408775770235252,
                0.045135215233775394,
                0.43188961898505257
            ]
        },
        {
            "positions": [
                -0.5356870877717501,
                -1.2490082234461326,
                0.2314842138427391,
                1.6644547201075868,
                0.10977849956336949,
                0.4314844154594387
            ]
        },
        {
            "positions": [
                -0.6601213042807781,
                -1.2491877843441985,
                0.31421893453357796,
                1.7880318631916479,
                0.17442178389296314,
                0.4310792119338248
            ]
        },
        {
            "positions": [
                -0.784555520789807,
                -1.2493673452422647,
                0.39695365522441683,
                1.9116090062757094,
                0.23906506822255724,
                0.43067400840821096
            ]
        },
        {
            "positions": [
                -0.9089897372988349,
                -1.2495469061403308,
                0.47968837591525504,
                2.0351861493597707,
                0.3037083525521509,
                0.4302688048825971
            ]
        },
        {
            "positions": [
                -0.8151225616763227,
                -1.207296319013704,
                0.6190600914173212,
                2.0310076484212223,
                0.2635592817335057,
                0.3838698724110722
            ]
        },
        {
            "positions": [
                -0.7212553860538105,
                -1.1650457318870775,
                0.7584318069193875,
                2.0268291474826734,
                0.22341021091486046,
                0.3374709399395473
            ]
        },
        {
            "positions": [
                -0.6273882104312982,
                -1.1227951447604507,
                0.8978035224214538,
                2.022650646544125,
                0.18326114009621527,
                0.2910720074680224
            ]
        },
        {
            "positions": [
                -0.533521034808786,
                -1.080544557633824,
                1.03717523792352,
                2.0184721456055765,
                0.14311206927757006,
                0.24467307499649749
            ]
        },
        {
            "positions": [
                -0.43965385918627375,
                -1.0382939705071974,
                1.1765469534255861,
                2.0142936446670276,
                0.10296299845892484,
                0.1982741425249726
            ]
        },
        {
            "positions": [
                -0.3457866835637615,
                -0.9960433833805706,
                1.3159186689276523,
                2.010115143728479,
                0.06281392764027965,
                0.15187521005344773
            ]
        },
        {
            "positions": [
                -0.2519195079412493,
                -0.953792796253944,
                1.4552903844297187,
                2.005936642789931,
                0.022664856821634438,
                0.1054762775819228
            ]
        },
        {
            "positions": [
                -0.15805233231873705,
                -0.9115422091273173,
                1.5946620999317849,
                2.001758141851382,
                -0.017484213997010778,
                0.05907734511039786
            ]
        },
        {
            "positions": [
                -0.06418515669622482,
                -0.8692916220006905,
                1.7340338154338513,
                1.9975796409128335,
                -0.05763328481565605,
                0.012678412638872927
            ]
        },
        {
            "positions": [
                0.029682018926287412,
                -0.827041034874064,
                1.8734055309359174,
                1.993401139974285,
                -0.09778235563430121,
                -0.033720519832651896
            ]
        },
        {
            "positions": [
                0.12354919454879959,
                -0.7847904477474372,
                2.0127772464379836,
                1.9892226390357364,
                -0.1379314264529464,
                -0.08011945230417686
            ]
        }
    ]
}