{
    "goal": {
        "global_pose": {
            "orientation": {
                "w": 0.5084816217422485,
                "x": -0.49083608388900757,
                "y": 0.5182115435600281,
                "z": -0.4816462993621826
            },
            "position": {
                "x": 0.5540239810943604,
                "y": 0.030875300988554955,
                "z": 0.16403168439865112
            }
        },
        "name": "move_to_storage_A"
    },
    "id": "TRRT_move_to_storage_A_126",
    "joint_names": [
        "shoulder_pan_joint",
        "shoulder_lift_joint",
        "elbow_joint",
        "wrist_1_joint",
        "wrist_2_joint",
        "wrist_3_joint"
    ],
    "metrics": {
        "cart_traj_len": 0.35242447824918677,
        "distance_elbow_joint": 0.44976898769297224,
        "distance_shoulder_lift_joint": 0.23596263829027952,
        "distance_shoulder_pan_joint": 0.4620715092069259,
        "distance_wrist_1_joint": 0.2369287743981897,
        "distance_wrist_2_joint": 1.093303258663435,
        "distance_wrist_3_joint": 0.09008330978462453,
        "smoothness": 6.661338165333112e-16,
        "time": 0.025511306999999997,
        "traj_len": 1.6025350161654588,
        "weighted_distance": 2.019533889457491
    },
    "planner": "TRRT",
    "start": {
        "state": {
            "elbow_joint": 1.971548259319323,
            "shoulder_lift_joint": -1.1394851275133948,
            "shoulder_pan_joint": 0.1228115487234821,
            "wrist_1_joint": -0.7804723859257726,
            "wrist_2_joint": 0.12958671773740124,
            "wrist_3_joint": -3.192489227718131
        }
    },
    "waypoints": [
        {
            "positions": [
                0.1228115487234821,
                -1.1394851275133948,
                1.971548259319323,
                -0.7804723859257726,
                0.12958671773740124,
                -3.192489227718131
            ]
        },
        {
            "positions": [
                0.05680133312249269,
                -1.1731940758405777,
                2.0358009718468906,
                -0.8143193536969425,
                0.2857728975464634,
                -3.179620183463185
            ]
        },
        {
            "positions": [
                -0.009208882478496716,
                -1.2069030241677603,
                2.100053684374458,
                -0.8481663214681125,
                0.44195907735552553,
                -3.1667511392082384
            ]
        },
        {
            "positions": [
                -0.07521909807948612,
                -1.2406119724949431,
                2.1643063969020253,
                -0.8820132892392825,
                0.5981452571645877,
                -3.153882094953292
            ]
        },
        {
            "positions": [
                -0.14122931368047553,
                -1.274320920822126,
                2.2285591094295927,
                -0.9158602570104525,
                0.7543314369736498,
                -3.1410130506983456
            ]
        },
        {
            "positions": [
                -0.207239529281465,
                -1.3080298691493089,
                2.2928118219571605,
                -0.9497072247816224,
                0.910517616782712,
                -3.1281440064433994
            ]
        },
        {
            "positions": [
                -0.27324974488245435,
                -1.3417388174764915,
                2.357064534484728,
                -0.9835541925527924,
                1.066703796591774,
                -3.115274962188453
            ]
        },
        {
            "positions": [
                -0.3392599604834438,
                -1.3754477658036743,
                2.4213172470122952,
                -1.0174011603239623,
                1.2228899764008363,
                -3.1024059179335066
            ]
        }
    ]
}{
    "goal": {
        "global_pose": {
            "orientation": {
                "w": 0.5084816217422485,
                "x": -0.49083608388900757,
                "y": 0.5182115435600281,
                "z": -0.4816462993621826
            },
            "position": {
                "x": 0.5540239810943604,
                "y": 0.030875300988554955,
                "z": 0.16403168439865112
            }
        },
        "name": "move_to_storage_A"
    },
    "id": "TRRT_move_to_storage_A_126",
    "joint_names": [
        "shoulder_pan_joint",
        "shoulder_lift_joint",
        "elbow_joint",
        "wrist_1_joint",
        "wrist_2_joint",
        "wrist_3_joint"
    ],
    "metrics": {
        "cart_traj_len": 0.35243316053589535,
        "distance_elbow_joint": 0.4522401099222155,
        "distance_shoulder_lift_joint": 0.2360324897663828,
        "distance_shoulder_pan_joint": 0.4622237257276227,
        "distance_wrist_1_joint": 0.25038098286354993,
        "distance_wrist_2_joint": 1.0926782303921077,
        "distance_wrist_3_joint": 0.09057766236645204,
        "smoothness": 0.0,
        "time": 0.049270522,
        "traj_len": 1.6075239348259578,
        "weighted_distance": 2.0269059521908983
    },
    "planner": "TRRT",
    "start": {
        "state": {
            "elbow_joint": 1.97154746011099,
            "shoulder_lift_joint": -1.13948474672311,
            "shoulder_pan_joint": 0.12281154466712228,
            "wrist_1_joint": -0.7804688027058302,
            "wrist_2_joint": 0.12958655903071145,
            "wrist_3_joint": 3.0906928834467795
        }
    },
    "waypoints": [
        {
            "positions": [
                0.12281154466712228,
                -1.13948474672311,
                1.97154746011099,
                -0.7804688027058302,
                0.12958655903071145,
                3.0906928834467795
            ]
        },
        {
            "positions": [
                0.056779583848890466,
                -1.1732036738325933,
                2.0361531900998777,
                -0.8162375145434801,
                0.2856834490867268,
                3.10363254949913
            ]
        },
        {
            "positions": [
                -0.00925237696934135,
                -1.2069226009420764,
                2.100758920088766,
                -0.8520062263811301,
                0.4417803391427422,
                3.11657221555148
            ]
        },
        {
            "positions": [
                -0.07528433778757317,
                -1.2406415280515597,
                2.1653646500776538,
                -0.8877749382187802,
                0.5978772291987575,
                3.1295118816038303
            ]
        },
        {
            "positions": [
                -0.14131629860580497,
                -1.274360455161043,
                2.2299703800665416,
                -0.9235436500564301,
                0.753974119254773,
                3.1424515476561807
            ]
        },
        {
            "positions": [
                -0.20734825942403678,
                -1.3080793822705263,
                2.29457611005543,
                -0.9593123618940802,
                0.9100710093107884,
                3.155391213708531
            ]
        },
        {
            "positions": [
                -0.2733802202422686,
                -1.3417983093800094,
                2.3591818400443176,
                -0.9950810737317302,
                1.0661678993668036,
                3.168330879760881
            ]
        },
        {
            "positions": [
                -0.3394121810605004,
                -1.3755172364894928,
                2.4237875700332054,
                -1.0308497855693801,
                1.2222647894228191,
                3.1812705458132315
            ]
        }
    ]
}{
    "goal": {
        "global_pose": {
            "orientation": {
                "w": 0.5084816217422485,
                "x": -0.49083608388900757,
                "y": 0.5182115435600281,
                "z": -0.4816462993621826
            },
            "position": {
                "x": 0.5540239810943604,
                "y": 0.030875300988554955,
                "z": 0.16403168439865112
            }
        },
        "name": "move_to_storage_A"
    },
    "id": "TRRT_move_to_storage_A_126",
    "joint_names": [
        "shoulder_pan_joint",
        "shoulder_lift_joint",
        "elbow_joint",
        "wrist_1_joint",
        "wrist_2_joint",
        "wrist_3_joint"
    ],
    "metrics": {
        "cart_traj_len": 0.35294868549169894,
        "distance_elbow_joint": 0.44958900707193505,
        "distance_shoulder_lift_joint": 0.23417233655927316,
        "distance_shoulder_pan_joint": 0.4631904994067887,
        "distance_wrist_1_joint": 0.2394102177445807,
        "distance_wrist_2_joint": 1.0914610856978217,
        "distance_wrist_3_joint": 0.0885509498345769,
        "smoothness": 2.2204460668324854e-16,
        "time": 0.035377296,
        "traj_len": 1.6019906667377861,
        "weighted_distance": 2.0185012507864672
    },
    "planner": "TRRT",
    "start": {
        "state": {
            "elbow_joint": 1.9715472970024885,
            "shoulder_lift_joint": -1.1394870060712896,
            "shoulder_pan_joint": 0.12281152778156021,
            "wrist_1_joint": -0.780463741449964,
            "wrist_2_joint": 0.12958659822042276,
            "wrist_3_joint": 3.090690232415272
        }
    },
    "waypoints": [
        {
            "positions": [
                0.12281152778156021,
                -1.1394870060712896,
                1.9715472970024885,
                -0.780463741449964,
                0.12958659822042276,
                3.090690232415272
            ]
        },
        {
            "positions": [
                0.05664145643773326,
                -1.1729401970083286,
                2.035774298012765,
                -0.8146652011277612,
                0.28550961046296874,
                3.1033403681059255
            ]
        },
        {
            "positions": [
                -0.009528614906093691,
                -1.2063933879453677,
                2.1000012990230412,
                -0.8488666608055585,
                0.44143262270551464,
                3.1159905037965796
            ]
        },
        {
            "positions": [
                -0.07569868624992065,
                -1.2398465788824067,
                2.164228300033318,
                -0.8830681204833557,
                0.5973556349480607,
                3.1286406394872333
            ]
        },
        {
            "positions": [
                -0.1418687575937476,
                -1.2732997698194457,
                2.2284553010435943,
                -0.917269580161153,
                0.7532786471906066,
                3.1412907751778874
            ]
        },
        {
            "positions": [
                -0.20803882893757455,
                -1.3067529607564847,
                2.292682302053871,
                -0.9514710398389502,
                0.9092016594331526,
                3.153940910868541
            ]
        },
        {
            "positions": [
                -0.27420890028140155,
                -1.3402061516935238,
                2.356909303064147,
                -0.9856724995167474,
                1.0651246716756986,
                3.166591046559195
            ]
        },
        {
            "positions": [
                -0.34037897162522845,
                -1.3736593426305628,
                2.4211363040744236,
                -1.0198739591945447,
                1.2210476839182445,
                3.1792411822498488
            ]
        }
    ]
}