{
    "goal": {
        "global_pose": {
            "orientation": {
                "w": 0.7047431493862688,
                "x": -0.7094548369677653,
                "y": 0.0024358444001904,
                "z": -0.0022348060817251984
            },
            "position": {
                "x": -0.39052492380142206,
                "y": 0.3671506643295288,
                "z": 0.19426114857196808
            }
        },
        "name": "move_to_magneteinheit_D"
    },
    "id": "TRRT_move_to_magneteinheit_D_61",
    "joint_names": [
        "shoulder_pan_joint",
        "shoulder_lift_joint",
        "elbow_joint",
        "wrist_1_joint",
        "wrist_2_joint",
        "wrist_3_joint"
    ],
    "metrics": {
        "cart_traj_len": 4.7217819932547025,
        "distance_elbow_joint": 3.113464854187833,
        "distance_shoulder_lift_joint": 1.6679258514429431,
        "distance_shoulder_pan_joint": 3.0282371358153517,
        "distance_wrist_1_joint": 2.093003137247989,
        "distance_wrist_2_joint": 1.365821167231079,
        "distance_wrist_3_joint": 6.272901264484721,
        "smoothness": 0.2234671025714864,
        "time": 0.6509346579999999,
        "traj_len": 4.188239894085571,
        "weighted_distance": 5.7918891774496535
    },
    "planner": "TRRT",
    "start": {
        "state": {
            "elbow_joint": 0.749534889911806,
            "shoulder_lift_joint": -0.6476975780787326,
            "shoulder_pan_joint": -2.711696901376241,
            "wrist_1_joint": -0.07506478083263063,
            "wrist_2_joint": 0.43296659715538205,
            "wrist_3_joint": -3.14703540197715
        }
    },
    "waypoints": [
        {
            "positions": [
                -2.711696901376241,
                -0.6476975780787326,
                0.749534889911806,
                -0.07506478083263063,
                0.43296659715538205,
                -3.14703540197715
            ]
        },
        {
            "positions": [
                -2.740379924756331,
                -0.6987066142261578,
                0.7488922808415589,
                -0.13739792810437446,
                0.32299845983999503,
                -3.053005325285093
            ]
        },
        {
            "positions": [
                -2.769062948136421,
                -0.7497156503735829,
                0.7482496717713119,
                -0.19973107537611826,
                0.21303032252460802,
                -2.9589752485930356
            ]
        },
        {
            "positions": [
                -2.775329558209453,
                -0.7896099082533505,
                0.7388475848060964,
                -0.25015821497718543,
                0.13493904510843663,
                -2.886331095606064
            ]
        },
        {
            "positions": [
                -2.781596168282485,
                -0.8295041661331181,
                0.7294454978408809,
                -0.30058535457825264,
                0.05684776769226524,
                -2.8136869426190927
            ]
        },
        {
            "positions": [
                -2.7028434769613856,
                -0.8646314471001552,
                0.6545497129486956,
                -0.3441593127739168,
                0.05549691603236852,
                -2.6551037992956634
            ]
        },
        {
            "positions": [
                -2.6240907856402864,
                -0.8997587280671923,
                0.5796539280565103,
                -0.38773327096958093,
                0.054146064372471804,
                -2.4965206559722346
            ]
        },
        {
            "positions": [
                -2.5453380943191872,
                -0.9348860090342294,
                0.5047581431643251,
                -0.4313072291652451,
                0.05279521271257508,
                -2.3379375126488053
            ]
        },
        {
            "positions": [
                -2.466585402998088,
                -0.9700132900012665,
                0.4298623582721398,
                -0.47488118736090923,
                0.05144436105267837,
                -2.1793543693253765
            ]
        },
        {
            "positions": [
                -2.387832711676989,
                -1.0051405709683037,
                0.3549665733799545,
                -0.5184551455565733,
                0.05009350939278165,
                -2.0207712260019473
            ]
        },
        {
            "positions": [
                -2.3090800203558897,
                -1.0402678519353405,
                0.2800707884877693,
                -0.5620291037522376,
                0.04874265773288493,
                -1.8621880826785182
            ]
        },
        {
            "positions": [
                -2.2303273290347905,
                -1.0753951329023779,
                0.20517500359558405,
                -0.6056030619479017,
                0.047391806072988214,
                -1.7036049393550892
            ]
        },
        {
            "positions": [
                -2.151574637713691,
                -1.1105224138694147,
                0.13027921870339876,
                -0.6491770201435658,
                0.046040954413091494,
                -1.5450217960316601
            ]
        },
        {
            "positions": [
                -2.072821946392592,
                -1.145649694836452,
                0.05538343381121347,
                -0.69275097833923,
                0.04469010275319478,
                -1.386438652708231
            ]
        },
        {
            "positions": [
                -1.9940692550714927,
                -1.180776975803489,
                -0.019512351080971824,
                -0.7363249365348942,
                0.04333925109329806,
                -1.227855509384802
            ]
        },
        {
            "positions": [
                -1.9153165637503933,
                -1.2159042567705263,
                -0.094408135973157,
                -0.7798988947305583,
                0.04198839943340134,
                -1.069272366061373
            ]
        },
        {
            "positions": [
                -1.836563872429294,
                -1.2510315377375631,
                -0.1693039208653423,
                -0.8234728529262225,
                0.040637547773504624,
                -0.9106892227379437
            ]
        },
        {
            "positions": [
                -1.757811181108195,
                -1.2861588187046005,
                -0.24419970575752759,
                -0.8670468111218866,
                0.03928669611360791,
                -0.7521060794145149
            ]
        },
        {
            "positions": [
                -1.6790584897870957,
                -1.3212860996716373,
                -0.31909549064971277,
                -0.9106207693175508,
                0.03793584445371119,
                -0.5935229360910856
            ]
        },
        {
            "positions": [
                -1.6003057984659965,
                -1.3564133806386747,
                -0.39399127554189817,
                -0.954194727513215,
                0.03658499279381447,
                -0.4349397927676568
            ]
        },
        {
            "positions": [
                -1.5215531071448973,
                -1.3915406616057115,
                -0.46888706043408335,
                -0.9977686857088791,
                0.03523414113391775,
                -0.27635664944422755
            ]
        },
        {
            "positions": [
                -1.4428004158237981,
                -1.4266679425727489,
                -0.5437828453262685,
                -1.0413426439045432,
                0.033883289474021035,
                -0.11777350612079829
            ]
        },
        {
            "positions": [
                -1.364047724502699,
                -1.4617952235397857,
                -0.6186786302184539,
                -1.0849166021002075,
                0.03253243781412432,
                0.04080963720263053
            ]
        },
        {
            "positions": [
                -1.2852950331815998,
                -1.496922504506823,
                -0.6935744151106391,
                -1.1284905602958717,
                0.031181586154227597,
                0.1993927805260598
            ]
        },
        {
            "positions": [
                -1.2065423418605006,
                -1.53204978547386,
                -0.7684702000028245,
                -1.1720645184915357,
                0.02983073449433088,
                0.3579759238494886
            ]
        },
        {
            "positions": [
                -1.1277896505394012,
                -1.5671770664408973,
                -0.8433659848950097,
                -1.2156384766872,
                0.028479882834434162,
                0.5165590671729179
            ]
        },
        {
            "positions": [
                -1.049036959218302,
                -1.6023043474079341,
                -0.9182617697871949,
                -1.2592124348828642,
                0.027129031174537445,
                0.6751422104963467
            ]
        },
        {
            "positions": [
                -0.9702842678972028,
                -1.6374316283749715,
                -0.9931575546793803,
                -1.3027863930785282,
                0.025778179514640728,
                0.833725353819776
            ]
        },
        {
            "positions": [
                -0.8915315765761036,
                -1.6725589093420083,
                -1.0680533395715655,
                -1.3463603512741924,
                0.02442732785474401,
                0.9923084971432052
            ]
        },
        {
            "positions": [
                -0.8127788852550044,
                -1.7076861903090457,
                -1.1429491244637506,
                -1.3899343094698564,
                0.02307647619484729,
                1.150891640466634
            ]
        },
        {
            "positions": [
                -0.734026193933905,
                -1.7428134712760825,
                -1.217844909355936,
                -1.4335082676655206,
                0.021725624534950576,
                1.3094747837900629
            ]
        },
        {
            "positions": [
                -0.6552735026128058,
                -1.7779407522431199,
                -1.2927406942481212,
                -1.4770822258611849,
                0.020374772875053855,
                1.4680579271134926
            ]
        },
        {
            "positions": [
                -0.5765208112917066,
                -1.8130680332101567,
                -1.3676364791403064,
                -1.5206561840568489,
                0.019023921215157134,
                1.6266410704369214
            ]
        },
        {
            "positions": [
                -0.49776811997060744,
                -1.848195314177194,
                -1.4425322640324916,
                -1.5642301422525131,
                0.01767306955526042,
                1.7852242137603502
            ]
        },
        {
            "positions": [
                -0.41901542864950825,
                -1.883322595144231,
                -1.5174280489246772,
                -1.6078041004481773,
                0.0163222178953637,
                1.943807357083779
            ]
        },
        {
            "positions": [
                -0.34026273732840906,
                -1.9184498761112683,
                -1.5923238338168624,
                -1.6513780586438414,
                0.014971366235466986,
                2.1023905004072088
            ]
        },
        {
            "positions": [
                -0.26151004600731,
                -1.9535771570783054,
                -1.6672196187090476,
                -1.6949520168395056,
                0.013620514575570265,
                2.2609736437306376
            ]
        },
        {
            "positions": [
                -0.20423936275873344,
                -1.9319938307014466,
                -1.6792636244364805,
                -1.7339393128528096,
                0.1395668833013309,
                2.2911611189362815
            ]
        },
        {
            "positions": [
                -0.1469686795101569,
                -1.9104105043245876,
                -1.6913076301639134,
                -1.7729266088661138,
                0.2655132520270916,
                2.3213485941419254
            ]
        },
        {
            "positions": [
                -0.08969799626158037,
                -1.8888271779477288,
                -1.7033516358913463,
                -1.8119139048794177,
                0.39145962075285223,
                2.3515360693475693
            ]
        },
        {
            "positions": [
                -0.06842741007865345,
                -1.8402864494494209,
                -1.8176333425451205,
                -1.8655841844912153,
                0.3458460850430848,
                2.4115410933025694
            ]
        },
        {
            "positions": [
                -0.04715682389572654,
                -1.7917457209511132,
                -1.9319150491988948,
                -1.919254464103013,
                0.30023254933331733,
                2.47154611725757
            ]
        },
        {
            "positions": [
                -0.02588623771279963,
                -1.7432049924528052,
                -2.046196755852669,
                -1.9729247437148105,
                0.2546190136235499,
                2.53155114121257
            ]
        },
        {
            "positions": [
                -0.0046156515298727135,
                -1.6946642639544973,
                -2.1604784625064433,
                -2.026595023326608,
                0.20900547791378243,
                2.59155616516757
            ]
        },
        {
            "positions": [
                -0.028123507121165424,
                -1.6811323446501454,
                -2.2354193871787347,
                -2.073800176492443,
                0.11689618889772707,
                2.7195082716142474
            ]
        },
        {
            "positions": [
                -0.051631362712458134,
                -1.6676004253457934,
                -2.310360311851026,
                -2.1210053296582787,
                0.024786899881671695,
                2.8474603780609247
            ]
        },
        {
            "positions": [
                -0.1188021831994126,
                -1.7056351957012228,
                -2.3371451380635264,
                -2.144536623869449,
                -0.07619472891973032,
                2.986663120284248
            ]
        },
        {
            "positions": [
                -0.18597300368636707,
                -1.743669966056652,
                -2.3639299642760268,
                -2.1680679180806197,
                -0.17717635772113233,
                3.1258658625075713
            ]
        }
    ]
}