{
    "goal": {
        "global_pose": {
            "orientation": {
                "w": 0.5084816262002911,
                "x": -0.4908360881923452,
                "y": 0.5182115481033761,
                "z": -0.48164630358495003
            },
            "position": {
                "x": 0.5540239810943604,
                "y": -0.46912469901144505,
                "z": 0.16403168439865112
            }
        },
        "name": "move_to_storage_B"
    },
    "id": "TRRT_move_to_storage_B_67",
    "joint_names": [
        "shoulder_pan_joint",
        "shoulder_lift_joint",
        "elbow_joint",
        "wrist_1_joint",
        "wrist_2_joint",
        "wrist_3_joint"
    ],
    "metrics": {
        "cart_traj_len": 0.7833169414393066,
        "distance_elbow_joint": 0.3499454077481605,
        "distance_shoulder_lift_joint": 0.4600416880110687,
        "distance_shoulder_pan_joint": 0.18132274313607033,
        "distance_wrist_1_joint": 3.1617967076719857,
        "distance_wrist_2_joint": 2.7029866552127313,
        "distance_wrist_3_joint": 3.14971906899824,
        "smoothness": 0.07590305638331918,
        "time": 0.107441462,
        "traj_len": 3.163196527371996,
        "weighted_distance": 4.708506533037779
    },
    "planner": "TRRT",
    "start": {
        "state": {
            "elbow_joint": 1.664937868594044,
            "shoulder_lift_joint": -0.661644460510453,
            "shoulder_pan_joint": -0.9139846352900073,
            "wrist_1_joint": 2.146753192139373,
            "wrist_2_joint": -2.2341966793290973,
            "wrist_3_joint": 0.005466555786416001
        }
    },
    "waypoints": [
        {
            "positions": [
                -0.9139846352900073,
                -0.661644460510453,
                1.664937868594044,
                2.146753192139373,
                -2.2341966793290973,
                0.005466555786416001
            ]
        },
        {
            "positions": [
                -0.9268322068026322,
                -0.7411827372067971,
                1.7247987529286892,
                2.1690807611425313,
                -2.1604232545098663,
                -0.052807049554064435
            ]
        },
        {
            "positions": [
                -0.9396797783152573,
                -0.8207210139031411,
                1.7846596372633345,
                2.1914083301456895,
                -2.0866498296906353,
                -0.11108065489454487
            ]
        },
        {
            "positions": [
                -0.9525273498278822,
                -0.9002592905994851,
                1.84452052159798,
                2.213735899148848,
                -2.0128764048714043,
                -0.1693542602350253
            ]
        },
        {
            "positions": [
                -0.9653749213405072,
                -0.9797975672958291,
                1.9043814059326254,
                2.236063468152006,
                -1.9391029800521733,
                -0.22762786557550574
            ]
        },
        {
            "positions": [
                -0.9710241586050972,
                -0.9859666360447723,
                1.909185835080868,
                2.1024771015581214,
                -1.8344119819680078,
                -0.3544376328640413
            ]
        },
        {
            "positions": [
                -0.9766733958696873,
                -0.9921357047937154,
                1.9139902642291104,
                1.9688907349642364,
                -1.7297209838838423,
                -0.4812474001525769
            ]
        },
        {
            "positions": [
                -0.9823226331342773,
                -0.9983047735426586,
                1.9187946933773532,
                1.8353043683703514,
                -1.6250299857996766,
                -0.6080571674411125
            ]
        },
        {
            "positions": [
                -0.9879718703988672,
                -1.0044738422916017,
                1.9235991225255957,
                1.7017180017764666,
                -1.5203389877155111,
                -0.734866934729648
            ]
        },
        {
            "positions": [
                -0.9936211076634572,
                -1.0106429110405448,
                1.9284035516738383,
                1.5681316351825818,
                -1.4156479896313456,
                -0.8616767020181837
            ]
        },
        {
            "positions": [
                -0.9992703449280473,
                -1.0168119797894881,
                1.9332079808220808,
                1.4345452685886968,
                -1.3109569915471802,
                -0.9884864693067192
            ]
        },
        {
            "positions": [
                -1.0049195821926373,
                -1.0229810485384312,
                1.9380124099703233,
                1.3009589019948118,
                -1.2062659934630147,
                -1.1152962365952548
            ]
        },
        {
            "positions": [
                -1.0105688194572273,
                -1.0291501172873743,
                1.9428168391185658,
                1.167372535400927,
                -1.101574995378849,
                -1.2421060038837903
            ]
        },
        {
            "positions": [
                -1.0162180567218173,
                -1.0353191860363176,
                1.9476212682668086,
                1.033786168807042,
                -0.9968839972946835,
                -1.368915771172326
            ]
        },
        {
            "positions": [
                -1.0218672939864073,
                -1.0414882547852606,
                1.9524256974150511,
                0.9001998022131572,
                -0.892192999210518,
                -1.4957255384608616
            ]
        },
        {
            "positions": [
                -1.0275165312509973,
                -1.047657323534204,
                1.9572301265632936,
                0.7666134356192722,
                -0.7875020011263523,
                -1.6225353057493972
            ]
        },
        {
            "positions": [
                -1.0331657685155875,
                -1.053826392283147,
                1.9620345557115362,
                0.6330270690253874,
                -0.682811003042187,
                -1.7493450730379327
            ]
        },
        {
            "positions": [
                -1.0388150057801775,
                -1.05999546103209,
                1.9668389848597787,
                0.4994407024315026,
                -0.5781200049580215,
                -1.8761548403264683
            ]
        },
        {
            "positions": [
                -1.0444642430447675,
                -1.0661645297810334,
                1.9716434140080212,
                0.3658543358376174,
                -0.4734290068738558,
                -2.002964607615004
            ]
        },
        {
            "positions": [
                -1.0501134803093575,
                -1.0723335985299765,
                1.976447843156264,
                0.2322679692437326,
                -0.3687380087896903,
                -2.1297743749035396
            ]
        },
        {
            "positions": [
                -1.0557627175739475,
                -1.0785026672789195,
                1.9812522723045065,
                0.09868160264984782,
                -0.26404701070552483,
                -2.256584142192075
            ]
        },
        {
            "positions": [
                -1.0614119548385375,
                -1.0846717360278628,
                1.986056701452749,
                -0.034904763944036965,
                -0.15935601262135934,
                -2.3833939094806107
            ]
        },
        {
            "positions": [
                -1.0670611921031274,
                -1.090840804776806,
                1.9908611306009916,
                -0.1684911305379222,
                -0.054665014537193635,
                -2.5102036767691462
            ]
        },
        {
            "positions": [
                -1.0727104293677177,
                -1.097009873525749,
                1.995665559749234,
                -0.302077497131807,
                0.05002598354697185,
                -2.637013444057682
            ]
        },
        {
            "positions": [
                -1.0783596666323076,
                -1.1031789422746923,
                2.0004699888974766,
                -0.43566386372569177,
                0.15471698163113734,
                -2.7638232113462173
            ]
        },
        {
            "positions": [
                -1.0840089038968976,
                -1.1093480110236353,
                2.0052744180457194,
                -0.5692502303195766,
                0.2594079797153026,
                -2.890632978634753
            ]
        },
        {
            "positions": [
                -1.0896581411614876,
                -1.1155170797725786,
                2.0100788471939617,
                -0.7028365969134618,
                0.36409897779946876,
                -3.0174427459232884
            ]
        },
        {
            "positions": [
                -1.0953073784260776,
                -1.1216861485215217,
                2.0148832763422044,
                -0.8364229635073467,
                0.4687899758836341,
                -3.144252513211824
            ]
        }
    ]
}