{
    "goal": {
        "global_pose": {
            "orientation": {
                "w": 0.7031023480610252,
                "x": -0.7110244013736278,
                "y": 0.0077485991402295624,
                "z": 0.005598929693374583
            },
            "position": {
                "x": -0.8841497679147869,
                "y": 0.44412534475326537,
                "z": 0.3711530566215515
            }
        },
        "name": "move_to_auspresseinheit_D"
    },
    "id": "TRRT_move_to_auspresseinheit_D_130",
    "joint_names": [
        "shoulder_pan_joint",
        "shoulder_lift_joint",
        "elbow_joint",
        "wrist_1_joint",
        "wrist_2_joint",
        "wrist_3_joint"
    ],
    "metrics": {
        "cart_traj_len": 0.34371024990586696,
        "distance_elbow_joint": 0.6382435486907576,
        "distance_shoulder_lift_joint": 0.1204352415317147,
        "distance_shoulder_pan_joint": 0.134122238478775,
        "distance_wrist_1_joint": 0.5310470438572068,
        "distance_wrist_2_joint": 1.4347385812394937,
        "distance_wrist_3_joint": 0.0046493548506059135,
        "smoothness": 0.0,
        "time": 0.045566284,
        "traj_len": 1.6921099280627585,
        "weighted_distance": 2.1996182267490116
    },
    "planner": "TRRT",
    "start": {
        "state": {
            "elbow_joint": -1.8275523626775212,
            "shoulder_lift_joint": -2.126789852344167,
            "shoulder_pan_joint": -0.03513704404078235,
            "wrist_1_joint": -2.347782403156801,
            "wrist_2_joint": -1.6058999987535132,
            "wrist_3_joint": -3.0880379163319196
        }
    },
    "waypoints": [
        {
            "positions": [
                -0.03513704404078235,
                -2.126789852344167,
                -1.8275523626775212,
                -2.347782403156801,
                -1.6058999987535132,
                -3.0880379163319196
            ]
        },
        {
            "positions": [
                -0.05190232385062922,
                -2.1418442575356313,
                -1.7477719190911765,
                -2.4141632836389517,
                -1.4265576760985765,
                -3.087456746975594
            ]
        },
        {
            "positions": [
                -0.0686676036604761,
                -2.1568986627270954,
                -1.6679914755048317,
                -2.4805441641211026,
                -1.2472153534436399,
                -3.086875577619268
            ]
        },
        {
            "positions": [
                -0.08543288347032296,
                -2.17195306791856,
                -1.588211031918487,
                -2.5469250446032534,
                -1.067873030788703,
                -3.086294408262942
            ]
        },
        {
            "positions": [
                -0.10219816328016984,
                -2.1870074731100244,
                -1.5084305883321423,
                -2.6133059250854043,
                -0.8885307081337663,
                -3.0857132389066164
            ]
        },
        {
            "positions": [
                -0.11896344309001672,
                -2.2020618783014885,
                -1.4286501447457978,
                -2.679686805567555,
                -0.7091883854788297,
                -3.085132069550291
            ]
        },
        {
            "positions": [
                -0.1357287228998636,
                -2.217116283492953,
                -1.348869701159453,
                -2.746067686049706,
                -0.5298460628238928,
                -3.0845509001939653
            ]
        },
        {
            "positions": [
                -0.15249400270971047,
                -2.232170688684417,
                -1.2690892575731083,
                -2.812448566531857,
                -0.35050374016895613,
                -3.0839697308376395
            ]
        },
        {
            "positions": [
                -0.16925928251955735,
                -2.2472250938758815,
                -1.1893088139867636,
                -2.8788294470140077,
                -0.1711614175140194,
                -3.0833885614813137
            ]
        }
    ]
}