{
    "goal": {
        "global_pose": {
            "orientation": {
                "w": -0.4816463035849501,
                "x": 0.5182115481033762,
                "y": 0.4908360881923453,
                "z": -0.5084816262002911
            },
            "position": {
                "x": -0.8240239810943604,
                "y": 0.19912469901144506,
                "z": 0.16403168439865112
            }
        },
        "name": "move_to_storage_D"
    },
    "id": "TRRT_move_to_storage_D_8",
    "joint_names": [
        "shoulder_pan_joint",
        "shoulder_lift_joint",
        "elbow_joint",
        "wrist_1_joint",
        "wrist_2_joint",
        "wrist_3_joint"
    ],
    "metrics": {
        "cart_traj_len": 4.026266411903265,
        "distance_elbow_joint": 4.223470230726706,
        "distance_shoulder_lift_joint": 1.264427136621577,
        "distance_shoulder_pan_joint": 2.8149839417543325,
        "distance_wrist_1_joint": 2.8578270018173892,
        "distance_wrist_2_joint": 1.7257438113010972,
        "distance_wrist_3_joint": 3.257399759096413,
        "smoothness": 0.3566679696401278,
        "time": 1.012194362,
        "traj_len": 4.0179412491122255,
        "weighted_distance": 5.219408224370731
    },
    "planner": "TRRT",
    "start": {
        "state": {
            "elbow_joint": -2.384821988534728,
            "shoulder_lift_joint": -2.2788054721415256,
            "shoulder_pan_joint": -0.1854694642142757,
            "wrist_1_joint": 1.4845938289331202,
            "wrist_2_joint": 0.17898776772866878,
            "wrist_3_joint": 0.037105688729662994
        }
    },
    "waypoints": [
        {
            "positions": [
                -0.1854694642142757,
                -2.2788054721415256,
                -2.384821988534728,
                1.4845938289331202,
                0.17898776772866878,
                0.037105688729662994
            ]
        },
        {
            "positions": [
                -0.1318848831287482,
                -2.192334779121463,
                -2.3889443335789777,
                1.448675532044612,
                0.16997301235749476,
                0.09691426960543599
            ]
        },
        {
            "positions": [
                -0.06273023110914695,
                -2.1670325087549904,
                -2.2795092083693045,
                1.3761777027424698,
                0.20727845424640096,
                0.015931143691993582
            ]
        },
        {
            "positions": [
                0.0064244209104542815,
                -2.1417302383885177,
                -2.170074083159631,
                1.3036798734403277,
                0.24458389613530718,
                -0.06505198222144883
            ]
        },
        {
            "positions": [
                0.07557907293005553,
                -2.116427968022045,
                -2.0606389579499576,
                1.2311820441381853,
                0.2818893380242134,
                -0.14603510813489123
            ]
        },
        {
            "positions": [
                0.14473372494965675,
                -2.0911256976555723,
                -1.9512038327402843,
                1.158684214836043,
                0.3191947799131196,
                -0.22701823404833366
            ]
        },
        {
            "positions": [
                0.213888376969258,
                -2.0658234272890996,
                -1.841768707530611,
                1.086186385533901,
                0.3565002218020258,
                -0.3080013599617761
            ]
        },
        {
            "positions": [
                0.28304302898885925,
                -2.040521156922627,
                -1.7323335823209374,
                1.0136885562317586,
                0.393805663690932,
                -0.3889844858752185
            ]
        },
        {
            "positions": [
                0.3521976810084605,
                -2.015218886556154,
                -1.6228984571112641,
                0.9411907269296163,
                0.4311111055798382,
                -0.4699676117886609
            ]
        },
        {
            "positions": [
                0.4213523330280617,
                -1.9899166161896815,
                -1.5134633319015909,
                0.868692897627474,
                0.4684165474687444,
                -0.5509507377021032
            ]
        },
        {
            "positions": [
                0.49050698504766294,
                -1.9646143458232088,
                -1.4040282066919176,
                0.7961950683253318,
                0.5057219893576506,
                -0.6319338636155456
            ]
        },
        {
            "positions": [
                0.5596616370672642,
                -1.9393120754567361,
                -1.2945930814822442,
                0.7236972390231895,
                0.5430274312465568,
                -0.7129169895289881
            ]
        },
        {
            "positions": [
                0.6288162890868654,
                -1.9140098050902634,
                -1.1851579562725707,
                0.6511994097210472,
                0.580332873135463,
                -0.7939001154424304
            ]
        },
        {
            "positions": [
                0.6979709411064667,
                -1.8887075347237905,
                -1.0757228310628972,
                0.578701580418905,
                0.6176383150243693,
                -0.8748832413558729
            ]
        },
        {
            "positions": [
                0.7671255931260679,
                -1.8634052643573178,
                -0.9662877058532238,
                0.5062037511167626,
                0.6549437569132754,
                -0.9558663672693154
            ]
        },
        {
            "positions": [
                0.8362802451456692,
                -1.838102993990845,
                -0.8568525806435505,
                0.4337059218146204,
                0.6922491988021816,
                -1.0368494931827579
            ]
        },
        {
            "positions": [
                0.9054348971652704,
                -1.8128007236243724,
                -0.7474174554338773,
                0.3612080925124783,
                0.7295546406910878,
                -1.1178326190962002
            ]
        },
        {
            "positions": [
                0.9745895491848715,
                -1.7874984532578997,
                -0.6379823302242038,
                0.288710263210336,
                0.766860082579994,
                -1.1988157450096426
            ]
        },
        {
            "positions": [
                1.0437442012044729,
                -1.762196182891427,
                -0.5285472050145303,
                0.21621243390819367,
                0.8041655244689002,
                -1.279798870923085
            ]
        },
        {
            "positions": [
                1.112898853224074,
                -1.7368939125249543,
                -0.4191120798048573,
                0.14371460460605157,
                0.8414709663578064,
                -1.3607819968365273
            ]
        },
        {
            "positions": [
                1.1820535052436751,
                -1.7115916421584816,
                -0.30967695459518385,
                0.07121677530390924,
                0.8787764082467127,
                -1.4417651227499697
            ]
        },
        {
            "positions": [
                1.2512081572632765,
                -1.6862893717920089,
                -0.2002418293855106,
                -0.0012810539982330837,
                0.9160818501356188,
                -1.5227482486634123
            ]
        },
        {
            "positions": [
                1.3203628092828776,
                -1.6609871014255362,
                -0.09080670417583692,
                -0.07377888330037541,
                0.9533872920245251,
                -1.6037313745768547
            ]
        },
        {
            "positions": [
                1.389517461302479,
                -1.6356848310590635,
                0.01862842103383633,
                -0.14627671260251773,
                0.9906927339134313,
                -1.684714500490297
            ]
        },
        {
            "positions": [
                1.4586721133220801,
                -1.6103825606925906,
                0.12806354624351002,
                -0.21877454190465984,
                1.0279981758023375,
                -1.7656976264037396
            ]
        },
        {
            "positions": [
                1.5278267653416815,
                -1.5850802903261179,
                0.23749867145318326,
                -0.29127237120680216,
                1.0653036176912438,
                -1.846680752317182
            ]
        },
        {
            "positions": [
                1.5969814173612829,
                -1.5597780199596452,
                0.3469337966628565,
                -0.3637702005089445,
                1.1026090595801499,
                -1.9276638782306244
            ]
        },
        {
            "positions": [
                1.666136069380884,
                -1.5344757495931725,
                0.4563689218725302,
                -0.4362680298110868,
                1.1399145014690562,
                -2.0086470041440667
            ]
        },
        {
            "positions": [
                1.7352907214004853,
                -1.5091734792266998,
                0.5658040470822034,
                -0.5087658591132291,
                1.1772199433579624,
                -2.089630130057509
            ]
        },
        {
            "positions": [
                1.8044453734200865,
                -1.483871208860227,
                0.6752391722918767,
                -0.5812636884153712,
                1.2145253852468685,
                -2.1706132559709514
            ]
        },
        {
            "positions": [
                1.8736000254396878,
                -1.4585689384937544,
                0.7846742975015504,
                -0.6537615177175136,
                1.2518308271357748,
                -2.251596381884394
            ]
        },
        {
            "positions": [
                1.942754677459289,
                -1.4332666681272817,
                0.8941094227112232,
                -0.7262593470196554,
                1.2891362690246808,
                -2.332579507797836
            ]
        },
        {
            "positions": [
                2.01190932947889,
                -1.407964397760809,
                1.0035445479208969,
                -0.7987571763217978,
                1.326441710913587,
                -2.4135626337112783
            ]
        },
        {
            "positions": [
                2.0810639814984913,
                -1.3826621273943362,
                1.1129796731305701,
                -0.8712550056239401,
                1.3637471528024934,
                -2.494545759624721
            ]
        },
        {
            "positions": [
                2.1502186335180924,
                -1.3573598570278635,
                1.2224147983402434,
                -0.9437528349260824,
                1.4010525946913996,
                -2.5755288855381635
            ]
        },
        {
            "positions": [
                2.219373285537694,
                -1.3320575866613908,
                1.331849923549917,
                -1.0162506642282247,
                1.4383580365803057,
                -2.6565120114516056
            ]
        },
        {
            "positions": [
                2.288527937557295,
                -1.3067553162949181,
                1.4412850487595903,
                -1.088748493530367,
                1.475663478469212,
                -2.7374951373650482
            ]
        },
        {
            "positions": [
                2.340562969843715,
                -1.2620956001841335,
                1.5007362968051683,
                -1.0452389296253852,
                1.4123858829459728,
                -2.792603732943056
            ]
        },
        {
            "positions": [
                2.3925980021301347,
                -1.217435884073349,
                1.560187544850746,
                -1.0017293657204036,
                1.3491082874227334,
                -2.847712328521064
            ]
        },
        {
            "positions": [
                2.4446330344165546,
                -1.1727761679625646,
                1.6196387928963238,
                -0.9582198018154218,
                1.2858306918994942,
                -2.902820924099072
            ]
        },
        {
            "positions": [
                2.4966680667029744,
                -1.1281164518517799,
                1.6790900409419018,
                -0.91471023791044,
                1.222553096376255,
                -2.95792951967708
            ]
        },
        {
            "positions": [
                2.5409502036486686,
                -1.0902037464078362,
                1.7295278779957606,
                -0.8778947633324482,
                1.1699103604678387,
                -3.0055119826564547
            ]
        },
        {
            "positions": [
                2.5852323405943625,
                -1.0522910409638924,
                1.7799657150496193,
                -0.8410792887544563,
                1.1172676245594224,
                -3.0530944456358298
            ]
        },
        {
            "positions": [
                2.6295144775400567,
                -1.0143783355199487,
                1.830403552103478,
                -0.8042638141764644,
                1.0646248886510061,
                -3.1006769086152044
            ]
        }
    ]
}