{
    "goal": {
        "global_pose": {
            "orientation": {
                "w": 0.005598929693374612,
                "x": 0.007748599140229565,
                "y": 0.7110244013736278,
                "z": -0.7031023480610252
            },
            "position": {
                "x": 0.1141497679147869,
                "y": -0.7141253447532654,
                "z": 0.3711530566215515
            }
        },
        "name": "move_to_auspresseinheit_B"
    },
    "id": "TRRT_move_to_auspresseinheit_B_60",
    "joint_names": [
        "shoulder_pan_joint",
        "shoulder_lift_joint",
        "elbow_joint",
        "wrist_1_joint",
        "wrist_2_joint",
        "wrist_3_joint"
    ],
    "metrics": {
        "cart_traj_len": 0.5642858177094932,
        "distance_elbow_joint": 0.057489603276181134,
        "distance_shoulder_lift_joint": 0.29668918894764396,
        "distance_shoulder_pan_joint": 0.5789569166141697,
        "distance_wrist_1_joint": 0.3143213936614726,
        "distance_wrist_2_joint": 0.9853402335828889,
        "distance_wrist_3_joint": 0.006204219308743486,
        "smoothness": 0.0,
        "time": 0.024540015,
        "traj_len": 1.496329360599163,
        "weighted_distance": 1.8844287254372207
    },
    "planner": "TRRT",
    "start": {
        "state": {
            "elbow_joint": 2.0193083361928714,
            "shoulder_lift_joint": -1.1220246554650708,
            "shoulder_pan_joint": -1.0952077554168747,
            "wrist_1_joint": -0.8559753972642168,
            "wrist_2_joint": 0.4759566250798843,
            "wrist_3_joint": -3.1240929996934557
        }
    },
    "waypoints": [
        {
            "positions": [
                -1.0952077554168747,
                -1.1220246554650708,
                2.0193083361928714,
                -0.8559753972642168,
                0.4759566250798843,
                -3.1240929996934557
            ]
        },
        {
            "positions": [
                -1.1917005748525695,
                -1.1714728536230115,
                2.0097267356468413,
                -0.8035884983206381,
                0.6401799973436991,
                -3.1230589631419985
            ]
        },
        {
            "positions": [
                -1.2881933942882646,
                -1.2209210517809521,
                2.0001451351008113,
                -0.7512015993770592,
                0.8044033696075139,
                -3.1220249265905413
            ]
        },
        {
            "positions": [
                -1.3846862137239595,
                -1.2703692499388928,
                1.9905635345547807,
                -0.6988147004334805,
                0.9686267418713288,
                -3.120990890039084
            ]
        },
        {
            "positions": [
                -1.4811790331596544,
                -1.3198174480968334,
                1.9809819340087507,
                -0.6464278014899018,
                1.1328501141351435,
                -3.1199568534876265
            ]
        },
        {
            "positions": [
                -1.5776718525953495,
                -1.369265646254774,
                1.9714003334627206,
                -0.5940409025463229,
                1.2970734863989584,
                -3.1189228169361694
            ]
        },
        {
            "positions": [
                -1.6741646720310444,
                -1.4187138444127148,
                1.9618187329166903,
                -0.5416540036027442,
                1.4612968586627733,
                -3.117888780384712
            ]
        }
    ]
}