{
    "goal": {
        "global_pose": {
            "orientation": {
                "w": 0.5084816262002911,
                "x": -0.4908360881923452,
                "y": 0.5182115481033761,
                "z": -0.48164630358495003
            },
            "position": {
                "x": 0.5540239810943604,
                "y": -0.46912469901144505,
                "z": 0.16403168439865112
            }
        },
        "name": "move_to_storage_B"
    },
    "id": "TRRT_move_to_storage_B_140",
    "joint_names": [
        "shoulder_pan_joint",
        "shoulder_lift_joint",
        "elbow_joint",
        "wrist_1_joint",
        "wrist_2_joint",
        "wrist_3_joint"
    ],
    "metrics": {
        "cart_traj_len": 0.8767037519982263,
        "distance_elbow_joint": 0.3497511231619592,
        "distance_shoulder_lift_joint": 0.457961631765893,
        "distance_shoulder_pan_joint": 0.4906394583583279,
        "distance_wrist_1_joint": 2.9842241087949173,
        "distance_wrist_2_joint": 2.7040222745159173,
        "distance_wrist_3_joint": 3.176509223827838,
        "smoothness": 0.16526553050238987,
        "time": 0.074393177,
        "traj_len": 3.187962957818809,
        "weighted_distance": 4.712151594695501
    },
    "planner": "TRRT",
    "start": {
        "state": {
            "elbow_joint": 1.664937868594044,
            "shoulder_lift_joint": -0.661644460510453,
            "shoulder_pan_joint": -0.9139846352900073,
            "wrist_1_joint": 2.146753192139373,
            "wrist_2_joint": -2.2341966793290973,
            "wrist_3_joint": 0.005466555786416001
        }
    },
    "waypoints": [
        {
            "positions": [
                -0.9139846352900073,
                -0.661644460510453,
                1.664937868594044,
                2.146753192139373,
                -2.2341966793290973,
                0.005466555786416001
            ]
        },
        {
            "positions": [
                -0.8977791828394235,
                -0.6684120153067968,
                1.6802347894731668,
                2.1350977340856545,
                -2.201217934333622,
                -0.013199956102324769
            ]
        },
        {
            "positions": [
                -0.8885854939706046,
                -0.6960828459147784,
                1.699456398803592,
                1.9881294027873673,
                -2.032332035212028,
                0.007760162236834567
            ]
        },
        {
            "positions": [
                -0.8793918051017857,
                -0.7237536765227599,
                1.718678008134017,
                1.8411610714890798,
                -1.8634461360904346,
                0.028720280575993903
            ]
        },
        {
            "positions": [
                -0.8701981162329668,
                -0.7514245071307415,
                1.737899617464442,
                1.6941927401907926,
                -1.694560236968841,
                0.04968039891515323
            ]
        },
        {
            "positions": [
                -0.8610044273641481,
                -0.7790953377387231,
                1.7571212267948673,
                1.5472244088925051,
                -1.5256743378472475,
                0.07064051725431257
            ]
        },
        {
            "positions": [
                -0.8518107384953292,
                -0.8067661683467046,
                1.7763428361252922,
                1.4002560775942179,
                -1.356788438725654,
                0.0916006355934719
            ]
        },
        {
            "positions": [
                -0.8426170496265103,
                -0.8344369989546861,
                1.7955644454557174,
                1.2532877462959306,
                -1.1879025396040603,
                0.11256075393263124
            ]
        },
        {
            "positions": [
                -0.8334233607576914,
                -0.8621078295626677,
                1.8147860547861425,
                1.1063194149976432,
                -1.0190166404824668,
                0.13352087227179057
            ]
        },
        {
            "positions": [
                -0.8242296718888725,
                -0.8897786601706492,
                1.8340076641165675,
                0.959351083699356,
                -0.8501307413608732,
                0.15448099061094991
            ]
        },
        {
            "positions": [
                -0.8150359830200536,
                -0.9174494907786308,
                1.8532292734469926,
                0.8123827524010687,
                -0.6812448422392796,
                0.17544110895010925
            ]
        },
        {
            "positions": [
                -0.8058422941512348,
                -0.9451203213866124,
                1.8724508827774178,
                0.6654144211027813,
                -0.512358943117686,
                0.19640122728926857
            ]
        },
        {
            "positions": [
                -0.796648605282416,
                -0.9727911519945939,
                1.8916724921078427,
                0.518446089804494,
                -0.3434730439960927,
                0.2173613456284279
            ]
        },
        {
            "positions": [
                -0.7874549164135971,
                -1.0004619826025754,
                1.9108941014382679,
                0.37147775850620657,
                -0.1745871448744989,
                0.23832146396758724
            ]
        },
        {
            "positions": [
                -0.7782612275447782,
                -1.028132813210557,
                1.930115710768693,
                0.22450942720791933,
                -0.005701245752905315,
                0.2592815823067466
            ]
        },
        {
            "positions": [
                -0.7690675386759593,
                -1.0558036438185385,
                1.949337320099118,
                0.07754109590963187,
                0.16318465336868826,
                0.2802417006459059
            ]
        },
        {
            "positions": [
                -0.7598738498071405,
                -1.0834744744265201,
                1.9685589294295431,
                -0.06942723538865521,
                0.33207055249028206,
                0.30120181898506526
            ]
        },
        {
            "positions": [
                -0.7904673655230915,
                -1.0867591669583225,
                1.9727525714592213,
                -0.13924938823109967,
                0.34459373818996736,
                0.5596964496079477
            ]
        },
        {
            "positions": [
                -0.8210608812390425,
                -1.0900438594901247,
                1.9769462134888995,
                -0.20907154107354414,
                0.3571169238896526,
                0.8181910802308301
            ]
        },
        {
            "positions": [
                -0.8516543969549935,
                -1.0933285520219271,
                1.9811398555185777,
                -0.2788936939159886,
                0.3696401095893379,
                1.0766857108537125
            ]
        },
        {
            "positions": [
                -0.8822479126709445,
                -1.0966132445537295,
                1.985333497548256,
                -0.3487158467584331,
                0.3821632952890232,
                1.3351803414765948
            ]
        },
        {
            "positions": [
                -0.9128414283868955,
                -1.099897937085532,
                1.9895271395779341,
                -0.4185379996008775,
                0.3946864809887085,
                1.5936749720994774
            ]
        },
        {
            "positions": [
                -0.9434349441028465,
                -1.1031826296173342,
                1.9937207816076121,
                -0.488360152443322,
                0.40720966668839376,
                1.8521696027223595
            ]
        },
        {
            "positions": [
                -0.9740284598187975,
                -1.1064673221491366,
                1.9979144236372903,
                -0.5581823052857665,
                0.41973285238807906,
                2.110664233345242
            ]
        },
        {
            "positions": [
                -1.0046219755347485,
                -1.109752014680939,
                2.0021080656669685,
                -0.628004458128211,
                0.43225603808776436,
                2.3691588639681247
            ]
        },
        {
            "positions": [
                -1.0352154912506994,
                -1.1130367072127414,
                2.0063017076966467,
                -0.6978266109706555,
                0.44477922378744966,
                2.6276534945910073
            ]
        },
        {
            "positions": [
                -1.0658090069666506,
                -1.1163213997445436,
                2.010495349726325,
                -0.7676487638130999,
                0.4573024094871349,
                2.8861481252138894
            ]
        },
        {
            "positions": [
                -1.0964025226826015,
                -1.119606092276346,
                2.014688991756003,
                -0.8374709166555444,
                0.4698255951868202,
                3.144642755836772
            ]
        }
    ]
}