{
    "goal": {
        "global_pose": {
            "orientation": {
                "w": -0.4816463035849501,
                "x": 0.5182115481033762,
                "y": 0.4908360881923453,
                "z": -0.5084816262002911
            },
            "position": {
                "x": -0.8240239810943604,
                "y": -0.300875300988555,
                "z": 0.16403168439865112
            }
        },
        "name": "move_to_storage_C"
    },
    "id": "TRRT_move_to_storage_C_110",
    "joint_names": [
        "shoulder_pan_joint",
        "shoulder_lift_joint",
        "elbow_joint",
        "wrist_1_joint",
        "wrist_2_joint",
        "wrist_3_joint"
    ],
    "metrics": {
        "cart_traj_len": 0.5770993418436338,
        "distance_elbow_joint": 0.2549288960915732,
        "distance_shoulder_lift_joint": 0.18880143631952673,
        "distance_shoulder_pan_joint": 0.49641282452034163,
        "distance_wrist_1_joint": 0.06568330125662658,
        "distance_wrist_2_joint": 1.0587761629812271,
        "distance_wrist_3_joint": 0.056926772226736144,
        "smoothness": 0.0,
        "time": 0.022925096,
        "traj_len": 1.456547079018056,
        "weighted_distance": 1.8329872891232382
    },
    "planner": "TRRT",
    "start": {
        "state": {
            "elbow_joint": 2.010868314990456,
            "shoulder_lift_joint": -1.1634956873337592,
            "shoulder_pan_joint": -2.4736205022346125,
            "wrist_1_joint": -0.8367026794202681,
            "wrist_2_joint": 0.6746043897044499,
            "wrist_3_joint": -3.1496632123970403
        }
    },
    "waypoints": [
        {
            "positions": [
                -2.4736205022346125,
                -1.1634956873337592,
                2.010868314990456,
                -0.8367026794202681,
                0.6746043897044499,
                -3.1496632123970403
            ]
        },
        {
            "positions": [
                -2.556355972988003,
                -1.1320287812805048,
                1.9683801656418602,
                -0.8257554625441637,
                0.8510670835346544,
                -3.1401754170259175
            ]
        },
        {
            "positions": [
                -2.639091443741393,
                -1.1005618752272504,
                1.9258920162932647,
                -0.8148082456680592,
                1.027529777364859,
                -3.1306876216547948
            ]
        },
        {
            "positions": [
                -2.721826914494783,
                -1.069094969173996,
                1.8834038669446693,
                -0.8038610287919548,
                1.2039924711950634,
                -3.1211998262836724
            ]
        },
        {
            "positions": [
                -2.8045623852481736,
                -1.0376280631207413,
                1.8409157175960738,
                -0.7929138119158504,
                1.380455165025268,
                -3.1117120309125497
            ]
        },
        {
            "positions": [
                -2.887297856001564,
                -1.0061611570674869,
                1.7984275682474782,
                -0.781966595039746,
                1.5569178588554724,
                -3.102224235541427
            ]
        },
        {
            "positions": [
                -2.970033326754954,
                -0.9746942510142325,
                1.7559394188988826,
                -0.7710193781636415,
                1.733380552685677,
                -3.092736440170304
            ]
        }
    ]
}