{
    "goal": {
        "global_pose": {
            "orientation": {
                "w": 0.5084816262002911,
                "x": -0.4908360881923452,
                "y": 0.5182115481033761,
                "z": -0.48164630358495003
            },
            "position": {
                "x": 0.5540239810943604,
                "y": -0.46912469901144505,
                "z": 0.16403168439865112
            }
        },
        "name": "move_to_storage_B"
    },
    "id": "TRRT_move_to_storage_B_17",
    "joint_names": [
        "shoulder_pan_joint",
        "shoulder_lift_joint",
        "elbow_joint",
        "wrist_1_joint",
        "wrist_2_joint",
        "wrist_3_joint"
    ],
    "metrics": {
        "cart_traj_len": 4.454950312350091,
        "distance_elbow_joint": 1.1291464417268662,
        "distance_shoulder_lift_joint": 4.291168246951338,
        "distance_shoulder_pan_joint": 5.215221290976582,
        "distance_wrist_1_joint": 3.006168036250247,
        "distance_wrist_2_joint": 2.703582521046172,
        "distance_wrist_3_joint": 9.84406551278549,
        "smoothness": 0.336361432226017,
        "time": 0.11346603799999999,
        "traj_len": 5.117553326516167,
        "weighted_distance": 7.182425330806032
    },
    "planner": "TRRT",
    "start": {
        "state": {
            "elbow_joint": 1.664937868594044,
            "shoulder_lift_joint": -0.661644460510453,
            "shoulder_pan_joint": -0.9139846352900073,
            "wrist_1_joint": 2.146753192139373,
            "wrist_2_joint": -2.2341966793290973,
            "wrist_3_joint": 0.005466555786416001
        }
    },
    "waypoints": [
        {
            "positions": [
                -0.9139846352900073,
                -0.661644460510453,
                1.664937868594044,
                2.146753192139373,
                -2.2341966793290973,
                0.005466555786416001
            ]
        },
        {
            "positions": [
                -0.8271875705260414,
                -0.7435455102080772,
                1.6904853248742002,
                2.1282964643976707,
                -2.1779972474256284,
                -0.10995234342971408
            ]
        },
        {
            "positions": [
                -0.7403905057620755,
                -0.8254465599057014,
                1.7160327811543568,
                2.109839736655968,
                -2.1217978155221595,
                -0.22537124264584416
            ]
        },
        {
            "positions": [
                -0.6535934409981097,
                -0.9073476096033256,
                1.741580237434513,
                2.0913830089142653,
                -2.0655983836186906,
                -0.3407901418619742
            ]
        },
        {
            "positions": [
                -0.5667963762341438,
                -0.9892486593009497,
                1.7671276937146694,
                2.072926281172563,
                -2.0093989517152218,
                -0.4562090410781043
            ]
        },
        {
            "positions": [
                -0.4799993114701779,
                -1.071149708998574,
                1.7926751499948257,
                2.05446955343086,
                -1.9531995198117527,
                -0.5716279402942345
            ]
        },
        {
            "positions": [
                -0.39320224670621207,
                -1.1530507586961982,
                1.8182226062749822,
                2.0360128256891574,
                -1.8970000879082838,
                -0.6870468395103645
            ]
        },
        {
            "positions": [
                -0.3064051819422462,
                -1.2349518083938225,
                1.8437700625551385,
                2.017556097947455,
                -1.8408006560048147,
                -0.8024657387264946
            ]
        },
        {
            "positions": [
                -0.21960811717828033,
                -1.3168528580914467,
                1.8693175188352948,
                1.999099370205752,
                -1.7846012241013458,
                -0.9178846379426246
            ]
        },
        {
            "positions": [
                -0.13281105241431435,
                -1.3987539077890707,
                1.8948649751154512,
                1.9806426424640495,
                -1.728401792197877,
                -1.033303537158755
            ]
        },
        {
            "positions": [
                -0.046013987650348476,
                -1.4806549574866952,
                1.9204124313956077,
                1.9621859147223468,
                -1.672202360294408,
                -1.148722436374885
            ]
        },
        {
            "positions": [
                0.04078307711361728,
                -1.5625560071843192,
                1.945959887675764,
                1.9437291869806441,
                -1.6160029283909392,
                -1.264141335591015
            ]
        },
        {
            "positions": [
                0.12758014187758315,
                -1.6444570568819434,
                1.9715073439559203,
                1.9252724592389416,
                -1.5598034964874703,
                -1.379560234807145
            ]
        },
        {
            "positions": [
                0.21437720664154913,
                -1.7263581065795677,
                1.9970548002360768,
                1.906815731497239,
                -1.5036040645840014,
                -1.4949791340232752
            ]
        },
        {
            "positions": [
                0.3011742714055149,
                -1.808259156277192,
                2.022602256516233,
                1.8883590037555362,
                -1.4474046326805323,
                -1.6103980332394052
            ]
        },
        {
            "positions": [
                0.3879713361694809,
                -1.8901602059748162,
                2.0481497127963895,
                1.8699022760138337,
                -1.3912052007770632,
                -1.7258169324555355
            ]
        },
        {
            "positions": [
                0.47476840093344663,
                -1.9720612556724402,
                2.0736971690765458,
                1.851445548272131,
                -1.3350057688735943,
                -1.8412358316716653
            ]
        },
        {
            "positions": [
                0.5615654656974124,
                -2.0539623053700646,
                2.099244625356702,
                1.8329888205304283,
                -1.2788063369701257,
                -1.9566547308877953
            ]
        },
        {
            "positions": [
                0.6483625304613786,
                -2.1358633550676887,
                2.1247920816368584,
                1.8145320927887258,
                -1.2226069050666566,
                -2.0720736301039255
            ]
        },
        {
            "positions": [
                0.7351595952253444,
                -2.2177644047653127,
                2.150339537917015,
                1.7960753650470231,
                -1.1664074731631877,
                -2.187492529320055
            ]
        },
        {
            "positions": [
                0.8219566599893103,
                -2.299665454462937,
                2.1758869941971715,
                1.7776186373053204,
                -1.1102080412597188,
                -2.3029114285361856
            ]
        },
        {
            "positions": [
                0.9087537247532761,
                -2.381566504160561,
                2.2014344504773278,
                1.759161909563618,
                -1.05400860935625,
                -2.4183303277523156
            ]
        },
        {
            "positions": [
                0.9955507895172419,
                -2.4634675538581856,
                2.226981906757484,
                1.7407051818219152,
                -0.9978091774527811,
                -2.5337492269684456
            ]
        },
        {
            "positions": [
                1.082347854281208,
                -2.5453686035558096,
                2.2525293630376404,
                1.7222484540802125,
                -0.941609745549312,
                -2.6491681261845756
            ]
        },
        {
            "positions": [
                1.1691449190451735,
                -2.6272696532534336,
                2.2780768193177967,
                1.70379172633851,
                -0.8854103136458431,
                -2.7645870254007057
            ]
        },
        {
            "positions": [
                1.2559419838091395,
                -2.7091707029510577,
                2.303624275597953,
                1.6853349985968074,
                -0.8292108817423742,
                -2.8800059246168357
            ]
        },
        {
            "positions": [
                1.3427390485731054,
                -2.7910717526486826,
                2.3291717318781098,
                1.6668782708551046,
                -0.7730114498389054,
                -2.995424823832966
            ]
        },
        {
            "positions": [
                1.429536113337071,
                -2.8729728023463066,
                2.354719188158266,
                1.6484215431134022,
                -0.7168120179354365,
                -3.110843723049096
            ]
        },
        {
            "positions": [
                1.516333178101037,
                -2.9548738520439306,
                2.3802666444384224,
                1.6299648153716992,
                -0.6606125860319674,
                -3.226262622265226
            ]
        },
        {
            "positions": [
                1.603130242865003,
                -3.0367749017415546,
                2.4058141007185787,
                1.6115080876299968,
                -0.6044131541284985,
                -3.341681521481356
            ]
        },
        {
            "positions": [
                1.532127442527593,
                -2.9863528542226008,
                2.3955964636237805,
                1.5464837999526055,
                -0.5761552858167729,
                -3.170710010020364
            ]
        },
        {
            "positions": [
                1.4611246421901831,
                -2.9359308067036474,
                2.3853788265289824,
                1.481459512275214,
                -0.5478974175050474,
                -2.999738498559371
            ]
        },
        {
            "positions": [
                1.3901218418527734,
                -2.8855087591846935,
                2.375161189434184,
                1.416435224597823,
                -0.5196395491933218,
                -2.8287669870983785
            ]
        },
        {
            "positions": [
                1.3191190415153635,
                -2.83508671166574,
                2.364943552339386,
                1.3514109369204315,
                -0.49138168088159623,
                -2.6577954756373856
            ]
        },
        {
            "positions": [
                1.2481162411779536,
                -2.7846646641467863,
                2.354725915244588,
                1.2863866492430402,
                -0.4631238125698707,
                -2.486823964176393
            ]
        },
        {
            "positions": [
                1.1771134408405437,
                -2.7342426166278324,
                2.3445082781497897,
                1.221362361565649,
                -0.43486594425814507,
                -2.3158524527154007
            ]
        },
        {
            "positions": [
                1.1061106405031338,
                -2.683820569108879,
                2.3342906410549915,
                1.1563380738882576,
                -0.40660807594641957,
                -2.144880941254408
            ]
        },
        {
            "positions": [
                1.035107840165724,
                -2.633398521589925,
                2.3240730039601933,
                1.0913137862108664,
                -0.37835020763469396,
                -1.9739094297934152
            ]
        },
        {
            "positions": [
                0.9641050398283141,
                -2.5829764740709718,
                2.313855366865395,
                1.0262894985334752,
                -0.3500923393229684,
                -1.8029379183324226
            ]
        },
        {
            "positions": [
                0.8931022394909043,
                -2.532554426552018,
                2.303637729770597,
                0.9612652108560839,
                -0.32183447101124285,
                -1.63196640687143
            ]
        },
        {
            "positions": [
                0.8220994391534943,
                -2.482132379033064,
                2.2934200926757984,
                0.8962409231786925,
                -0.29357660269951724,
                -1.460994895410437
            ]
        },
        {
            "positions": [
                0.7510966388160845,
                -2.4317103315141106,
                2.283202455581,
                0.8312166355013013,
                -0.2653187343877917,
                -1.2900233839494448
            ]
        },
        {
            "positions": [
                0.6800938384786746,
                -2.381288283995157,
                2.272984818486202,
                0.7661923478239099,
                -0.23706086607606608,
                -1.119051872488452
            ]
        },
        {
            "positions": [
                0.6090910381412648,
                -2.3308662364762034,
                2.262767181391404,
                0.7011680601465187,
                -0.20880299776434058,
                -0.9480803610274595
            ]
        },
        {
            "positions": [
                0.5380882378038547,
                -2.2804441889572495,
                2.2525495442966057,
                0.6361437724691273,
                -0.18054512945261497,
                -0.7771088495664666
            ]
        },
        {
            "positions": [
                0.46708543746644504,
                -2.2300221414382957,
                2.2423319072018075,
                0.571119484791736,
                -0.15228726114088942,
                -0.6061373381054742
            ]
        },
        {
            "positions": [
                0.39608263712903513,
                -2.1796000939193423,
                2.2321142701070094,
                0.5060951971143448,
                -0.12402939282916381,
                -0.43516582664448133
            ]
        },
        {
            "positions": [
                0.3250798367916252,
                -2.1291780464003884,
                2.221896633012211,
                0.4410709094369536,
                -0.09577152451743831,
                -0.2641943151834889
            ]
        },
        {
            "positions": [
                0.2540770364542153,
                -2.0787559988814346,
                2.211678995917413,
                0.37604662175956216,
                -0.0675136562057127,
                -0.09322280372249603
            ]
        },
        {
            "positions": [
                0.18307423611680562,
                -2.028333951362481,
                2.201461358822615,
                0.31102233408217095,
                -0.039255787893987204,
                0.0777487077384964
            ]
        },
        {
            "positions": [
                0.11207143577939549,
                -1.9779119038435273,
                2.1912437217278167,
                0.2459980464047795,
                -0.010997919582261484,
                0.24872021919948972
            ]
        },
        {
            "positions": [
                0.04106863544198558,
                -1.9274898563245737,
                2.1810260846330185,
                0.1809737587273883,
                0.017259948729464014,
                0.41969173066048215
            ]
        },
        {
            "positions": [
                -0.02993416489542411,
                -1.87706780880562,
                2.1708084475382203,
                0.11594947104999709,
                0.04551781704118951,
                0.5906632421214746
            ]
        },
        {
            "positions": [
                -0.10093696523283402,
                -1.8266457612866664,
                2.160590810443422,
                0.050925183372605876,
                0.07377568535291512,
                0.7616347535824666
            ]
        },
        {
            "positions": [
                -0.17193976557024415,
                -1.7762237137677126,
                2.150373173348624,
                -0.014099104304785781,
                0.10203355366464073,
                0.9326062650434599
            ]
        },
        {
            "positions": [
                -0.24294256590765384,
                -1.725801666248759,
                2.140155536253826,
                -0.079123391982177,
                0.13029142197636634,
                1.1035777765044523
            ]
        },
        {
            "positions": [
                -0.31394536624506375,
                -1.6753796187298053,
                2.1299378991590276,
                -0.1441476796595682,
                0.15854929028809184,
                1.2745492879654448
            ]
        },
        {
            "positions": [
                -0.38494816658247344,
                -1.6249575712108517,
                2.119720262064229,
                -0.20917196733695942,
                0.18680715859981734,
                1.4455207994264372
            ]
        },
        {
            "positions": [
                -0.45595096691988335,
                -1.574535523691898,
                2.109502624969431,
                -0.27419625501435085,
                0.21506502691154306,
                1.6164923108874305
            ]
        },
        {
            "positions": [
                -0.5269537672572935,
                -1.5241134761729445,
                2.0992849878746327,
                -0.33922054269174207,
                0.24332289522326855,
                1.787463822348423
            ]
        },
        {
            "positions": [
                -0.5979565675947032,
                -1.4736914286539908,
                2.0890673507798345,
                -0.4042448303691333,
                0.27158076353499405,
                1.9584353338094154
            ]
        },
        {
            "positions": [
                -0.6689593679321129,
                -1.4232693811350372,
                2.0788497136850363,
                -0.4692691180465247,
                0.29983863184671966,
                2.129406845270408
            ]
        },
        {
            "positions": [
                -0.739962168269523,
                -1.3728473336160834,
                2.068632076590238,
                -0.5342934057239161,
                0.32809650015844527,
                2.300378356731401
            ]
        },
        {
            "positions": [
                -0.8109649686069327,
                -1.3224252860971297,
                2.05841443949544,
                -0.5993176934013071,
                0.3563543684701709,
                2.4713498681923936
            ]
        },
        {
            "positions": [
                -0.8819677689443428,
                -1.272003238578176,
                2.048196802400642,
                -0.6643419810786986,
                0.3846122367818964,
                2.642321379653386
            ]
        },
        {
            "positions": [
                -0.9529705692817525,
                -1.2215811910592225,
                2.0379791653058437,
                -0.7293662687560896,
                0.4128701050936219,
                2.8132928911143784
            ]
        },
        {
            "positions": [
                -1.0239733696191626,
                -1.1711591435402686,
                2.0277615282110455,
                -0.794390556433481,
                0.4411279734053475,
                2.9842644025753717
            ]
        },
        {
            "positions": [
                -1.094976169956572,
                -1.120737096021315,
                2.0175438911162473,
                -0.8594148441108725,
                0.46938584171707304,
                3.155235914036364
            ]
        }
    ]
}