{
    "goal": {
        "global_pose": {
            "orientation": {
                "w": 0.7031023480610252,
                "x": -0.7110244013736278,
                "y": 0.0077485991402295624,
                "z": 0.005598929693374583
            },
            "position": {
                "x": -0.8841497679147869,
                "y": 0.44412534475326537,
                "z": 0.3711530566215515
            }
        },
        "name": "move_to_auspresseinheit_D"
    },
    "id": "TRRT_move_to_auspresseinheit_D_77",
    "joint_names": [
        "shoulder_pan_joint",
        "shoulder_lift_joint",
        "elbow_joint",
        "wrist_1_joint",
        "wrist_2_joint",
        "wrist_3_joint"
    ],
    "metrics": {
        "cart_traj_len": 0.3441076893154405,
        "distance_elbow_joint": 0.644640216650713,
        "distance_shoulder_lift_joint": 0.12442911533969303,
        "distance_shoulder_pan_joint": 0.1347336293534829,
        "distance_wrist_1_joint": 0.5522075557034007,
        "distance_wrist_2_joint": 1.4378016516251635,
        "distance_wrist_3_joint": 0.016692231715123018,
        "smoothness": 0.0,
        "time": 0.402638714,
        "traj_len": 1.706020046889126,
        "weighted_distance": 2.221237959144942
    },
    "planner": "TRRT",
    "start": {
        "state": {
            "elbow_joint": -1.8275523626775212,
            "shoulder_lift_joint": -2.126789852344167,
            "shoulder_pan_joint": -0.03513704404078235,
            "wrist_1_joint": -2.347782403156801,
            "wrist_2_joint": -1.6058999987535132,
            "wrist_3_joint": -3.0880379163319196
        }
    },
    "waypoints": [
        {
            "positions": [
                -0.03513704404078235,
                -2.126789852344167,
                -1.8275523626775212,
                -2.347782403156801,
                -1.6058999987535132,
                -3.0880379163319196
            ]
        },
        {
            "positions": [
                -0.051978747709967715,
                -2.1423434917616286,
                -1.7469723355961821,
                -2.416808347619726,
                -1.4261747923003678,
                -3.0859513873675293
            ]
        },
        {
            "positions": [
                -0.06882045137915307,
                -2.15789713117909,
                -1.6663923085148429,
                -2.485834292082651,
                -1.2464495858472224,
                -3.083864858403139
            ]
        },
        {
            "positions": [
                -0.08566215504833843,
                -2.173450770596552,
                -1.5858122814335038,
                -2.554860236545576,
                -1.0667243793940768,
                -3.0817783294387486
            ]
        },
        {
            "positions": [
                -0.1025038587175238,
                -2.1890044100140136,
                -1.5052322543521646,
                -2.6238861810085012,
                -0.8869991729409314,
                -3.0796918004743583
            ]
        },
        {
            "positions": [
                -0.11934556238670915,
                -2.204558049431475,
                -1.4246522272708255,
                -2.6929121254714263,
                -0.7072739664877861,
                -3.0776052715099675
            ]
        },
        {
            "positions": [
                -0.13618726605589454,
                -2.2201116888489367,
                -1.3440722001894865,
                -2.7619380699343514,
                -0.5275487600346405,
                -3.0755187425455772
            ]
        },
        {
            "positions": [
                -0.1530289697250799,
                -2.235665328266398,
                -1.2634921731081472,
                -2.8309640143972765,
                -0.3478235535814951,
                -3.073432213581187
            ]
        },
        {
            "positions": [
                -0.16987067339426526,
                -2.25121896768386,
                -1.1829121460268082,
                -2.8999899588602016,
                -0.16809834712834967,
                -3.0713456846167966
            ]
        }
    ]
}