{
    "goal": {
        "global_pose": {
            "orientation": {
                "w": 0.5084816262002911,
                "x": -0.4908360881923452,
                "y": 0.5182115481033761,
                "z": -0.48164630358495003
            },
            "position": {
                "x": 0.5540239810943604,
                "y": -0.46912469901144505,
                "z": 0.16403168439865112
            }
        },
        "name": "move_to_storage_B"
    },
    "id": "TRRT_move_to_storage_B_89",
    "joint_names": [
        "shoulder_pan_joint",
        "shoulder_lift_joint",
        "elbow_joint",
        "wrist_1_joint",
        "wrist_2_joint",
        "wrist_3_joint"
    ],
    "metrics": {
        "cart_traj_len": 1.0439987762719343,
        "distance_elbow_joint": 1.0190510237751793,
        "distance_shoulder_lift_joint": 0.4572577203197017,
        "distance_shoulder_pan_joint": 0.9304016661338034,
        "distance_wrist_1_joint": 2.987392565385147,
        "distance_wrist_2_joint": 2.7017893283342396,
        "distance_wrist_3_joint": 3.133423424301555,
        "smoothness": 0.055749158642690234,
        "time": 0.071733666,
        "traj_len": 3.3510171184656197,
        "weighted_distance": 4.815116246838921
    },
    "planner": "TRRT",
    "start": {
        "state": {
            "elbow_joint": 1.664937868594044,
            "shoulder_lift_joint": -0.661644460510453,
            "shoulder_pan_joint": -0.9139846352900073,
            "wrist_1_joint": 2.146753192139373,
            "wrist_2_joint": -2.2341966793290973,
            "wrist_3_joint": 0.005466555786416001
        }
    },
    "waypoints": [
        {
            "positions": [
                -0.9139846352900073,
                -0.661644460510453,
                1.664937868594044,
                2.146753192139373,
                -2.2341966793290973,
                0.005466555786416001
            ]
        },
        {
            "positions": [
                -0.8440441215302156,
                -0.6677871066212938,
                1.6125931032983876,
                2.0430716255987527,
                -2.1305059595865625,
                0.042174122736975274
            ]
        },
        {
            "positions": [
                -0.774103607770424,
                -0.6739297527321346,
                1.5602483380027312,
                1.9393900590581323,
                -2.0268152398440282,
                0.07888168968753455
            ]
        },
        {
            "positions": [
                -0.7041630940106323,
                -0.6800723988429753,
                1.507903572707075,
                1.835708492517512,
                -1.9231245201014937,
                0.11558925663809382
            ]
        },
        {
            "positions": [
                -0.6342225802508406,
                -0.6862150449538161,
                1.4555588074114187,
                1.7320269259768915,
                -1.8194338003589592,
                0.1522968235886531
            ]
        },
        {
            "positions": [
                -0.564282066491049,
                -0.6923576910646569,
                1.4032140421157624,
                1.6283453594362711,
                -1.7157430806164247,
                0.18900439053921236
            ]
        },
        {
            "positions": [
                -0.5592659518772438,
                -0.713895692177723,
                1.388469153497624,
                1.5044010196694086,
                -1.584063404141798,
                0.2527536458718632
            ]
        },
        {
            "positions": [
                -0.5542498372634386,
                -0.735433693290789,
                1.3737242648794854,
                1.3804566799025464,
                -1.4523837276671714,
                0.3165029012045141
            ]
        },
        {
            "positions": [
                -0.5492337226496334,
                -0.7569716944038551,
                1.3589793762613467,
                1.256512340135684,
                -1.320704051192545,
                0.3802521565371648
            ]
        },
        {
            "positions": [
                -0.5442176080358282,
                -0.7785096955169212,
                1.3442344876432082,
                1.1325680003688214,
                -1.1890243747179183,
                0.44400141186981573
            ]
        },
        {
            "positions": [
                -0.5392014934220231,
                -0.8000476966299872,
                1.3294895990250697,
                1.0086236606019592,
                -1.0573446982432917,
                0.5077506672024665
            ]
        },
        {
            "positions": [
                -0.566982419635314,
                -0.8159904208399956,
                1.36366973673538,
                0.9161605089095725,
                -0.9810978308808699,
                0.6393076328467417
            ]
        },
        {
            "positions": [
                -0.594763345848605,
                -0.8319331450500039,
                1.3978498744456902,
                0.8236973572171858,
                -0.9048509635184481,
                0.770864598491017
            ]
        },
        {
            "positions": [
                -0.6225442720618959,
                -0.8478758692600123,
                1.4320300121560003,
                0.7312342055247991,
                -0.8286040961560264,
                0.9024215641352922
            ]
        },
        {
            "positions": [
                -0.6503251982751869,
                -0.8638185934700207,
                1.4662101498663107,
                0.6387710538324125,
                -0.7523572287936046,
                1.0339785297795674
            ]
        },
        {
            "positions": [
                -0.6781061244884778,
                -0.8797613176800291,
                1.500390287576621,
                0.5463079021400258,
                -0.6761103614311827,
                1.1655354954238426
            ]
        },
        {
            "positions": [
                -0.7058870507017688,
                -0.8957040418900375,
                1.5345704252869312,
                0.45384475044763917,
                -0.599863494068761,
                1.2970924610681178
            ]
        },
        {
            "positions": [
                -0.7336679769150598,
                -0.9116467661000458,
                1.5687505629972414,
                0.36138159875525244,
                -0.5236166267063392,
                1.428649426712393
            ]
        },
        {
            "positions": [
                -0.7614489031283507,
                -0.9275894903100542,
                1.6029307007075517,
                0.2689184470628657,
                -0.44736975934391743,
                1.5602063923566682
            ]
        },
        {
            "positions": [
                -0.7892298293416418,
                -0.9435322145200626,
                1.637110838417862,
                0.176455295370479,
                -0.37112289198149573,
                1.6917633580009435
            ]
        },
        {
            "positions": [
                -0.8170107555549326,
                -0.959474938730071,
                1.6712909761281722,
                0.08399214367809238,
                -0.2948760246190739,
                1.8233203236452187
            ]
        },
        {
            "positions": [
                -0.8447916817682236,
                -0.9754176629400794,
                1.7054711138384826,
                -0.008471008014294457,
                -0.2186291572566521,
                1.9548772892894941
            ]
        },
        {
            "positions": [
                -0.8725726079815146,
                -0.9913603871500877,
                1.7396512515487927,
                -0.10093415970668085,
                -0.1423822898942304,
                2.086434254933769
            ]
        },
        {
            "positions": [
                -0.9003535341948055,
                -1.007303111360096,
                1.773831389259103,
                -0.19339731139906768,
                -0.0661354225318086,
                2.2179912205780443
            ]
        },
        {
            "positions": [
                -0.9281344604080964,
                -1.0232458355701044,
                1.8080115269694133,
                -0.2858604630914543,
                0.010111444830613214,
                2.3495481862223193
            ]
        },
        {
            "positions": [
                -0.9559153866213874,
                -1.0391885597801127,
                1.8421916646797234,
                -0.3783236147838409,
                0.08635831219303491,
                2.4811051518665947
            ]
        },
        {
            "positions": [
                -0.9836963128346784,
                -1.0551312839901212,
                1.8763718023900338,
                -0.47078676647622775,
                0.16260517955545684,
                2.6126621175108697
            ]
        },
        {
            "positions": [
                -1.0114772390479694,
                -1.0710740082001295,
                1.9105519401003441,
                -0.5632499181686144,
                0.23885204691787854,
                2.744219083155145
            ]
        },
        {
            "positions": [
                -1.0392581652612605,
                -1.087016732410138,
                1.9447320778106543,
                -0.6557130698610012,
                0.31509891428030024,
                2.8757760487994206
            ]
        },
        {
            "positions": [
                -1.0670390914745513,
                -1.1029594566201464,
                1.9789122155209644,
                -0.7481762215533876,
                0.39134578164272193,
                3.007333014443695
            ]
        },
        {
            "positions": [
                -1.0948200176878422,
                -1.1189021808301547,
                2.0130923532312748,
                -0.8406393732457743,
                0.46759264900514386,
                3.138889980087971
            ]
        }
    ]
}