{
    "goal": {
        "global_pose": {
            "orientation": {
                "w": 0.005598929693374612,
                "x": 0.007748599140229565,
                "y": 0.7110244013736278,
                "z": -0.7031023480610252
            },
            "position": {
                "x": 0.1141497679147869,
                "y": -0.7141253447532654,
                "z": 0.3711530566215515
            }
        },
        "name": "move_to_auspresseinheit_B"
    },
    "id": "TRRT_move_to_auspresseinheit_B_31",
    "joint_names": [
        "shoulder_pan_joint",
        "shoulder_lift_joint",
        "elbow_joint",
        "wrist_1_joint",
        "wrist_2_joint",
        "wrist_3_joint"
    ],
    "metrics": {
        "cart_traj_len": 0.5649441028519593,
        "distance_elbow_joint": 0.05984283280087199,
        "distance_shoulder_lift_joint": 0.2964751927816467,
        "distance_shoulder_pan_joint": 0.5769511023394007,
        "distance_wrist_1_joint": 0.31764912678740864,
        "distance_wrist_2_joint": 0.9964591198587605,
        "distance_wrist_3_joint": 0.0029870300222256674,
        "smoothness": 0.0,
        "time": 0.026578919,
        "traj_len": 1.5001214632789954,
        "weighted_distance": 1.8895625714119486
    },
    "planner": "TRRT",
    "start": {
        "state": {
            "elbow_joint": 2.0193083361928714,
            "shoulder_lift_joint": -1.1220246554650708,
            "shoulder_pan_joint": -1.0952077554168747,
            "wrist_1_joint": -0.8559753972642168,
            "wrist_2_joint": 0.4759566250798843,
            "wrist_3_joint": -3.1240929996934557
        }
    },
    "waypoints": [
        {
            "positions": [
                -1.0952077554168747,
                -1.1220246554650708,
                2.0193083361928714,
                -0.8559753972642168,
                0.4759566250798843,
                -3.1240929996934557
            ]
        },
        {
            "positions": [
                -1.1913662724734415,
                -1.1714371875953453,
                2.0093345307260595,
                -0.803033876132982,
                0.6420331450563443,
                -3.1245908380304934
            ]
        },
        {
            "positions": [
                -1.2875247895300082,
                -1.2208497197256196,
                1.9993607252592474,
                -0.7500923550017472,
                0.8081096650328043,
                -3.1250886763675307
            ]
        },
        {
            "positions": [
                -1.383683306586575,
                -1.2702622518558941,
                1.9893869197924354,
                -0.6971508338705125,
                0.9741861850092646,
                -3.1255865147045685
            ]
        },
        {
            "positions": [
                -1.4798418236431417,
                -1.3196747839861687,
                1.9794131143256235,
                -0.6442093127392777,
                1.1402627049857246,
                -3.1260843530416063
            ]
        },
        {
            "positions": [
                -1.5760003406997085,
                -1.369087316116443,
                1.9694393088588114,
                -0.5912677916080429,
                1.3063392249621848,
                -3.1265821913786436
            ]
        },
        {
            "positions": [
                -1.6721588577562754,
                -1.4184998482467175,
                1.9594655033919994,
                -0.5383262704768081,
                1.4724157449386448,
                -3.1270800297156813
            ]
        }
    ]
}