{
    "goal": {
        "global_pose": {
            "orientation": {
                "w": 0.005598929693374612,
                "x": 0.007748599140229565,
                "y": 0.7110244013736278,
                "z": -0.7031023480610252
            },
            "position": {
                "x": -0.8858502320852131,
                "y": -0.7141253447532654,
                "z": 0.3711530566215515
            }
        },
        "name": "move_to_auspresseinheit_C"
    },
    "id": "TRRT_move_to_auspresseinheit_C_128",
    "joint_names": [
        "shoulder_pan_joint",
        "shoulder_lift_joint",
        "elbow_joint",
        "wrist_1_joint",
        "wrist_2_joint",
        "wrist_3_joint"
    ],
    "metrics": {
        "cart_traj_len": 0.4935481927908639,
        "distance_elbow_joint": 0.9919143065265317,
        "distance_shoulder_lift_joint": 0.3209366105244925,
        "distance_shoulder_pan_joint": 0.2570012170024625,
        "distance_wrist_1_joint": 0.6563455095136249,
        "distance_wrist_2_joint": 1.3131383767999862,
        "distance_wrist_3_joint": 0.0496198963376715,
        "smoothness": 1.2918958869311894e-15,
        "time": 2.904392809,
        "traj_len": 1.8944539890704049,
        "weighted_distance": 2.3785877313426393
    },
    "planner": "TRRT",
    "start": {
        "state": {
            "elbow_joint": 1.7527959577737207,
            "shoulder_lift_joint": -0.9740617694225068,
            "shoulder_pan_joint": -2.967991417825858,
            "wrist_1_joint": -0.759517768980727,
            "wrist_2_joint": 1.7443932448377408,
            "wrist_3_joint": -3.0840537646736568
        }
    },
    "waypoints": [
        {
            "positions": [
                -2.967991417825858,
                -0.9740617694225068,
                1.7527959577737207,
                -0.759517768980727,
                1.7443932448377408,
                -3.0840537646736568
            ]
        },
        {
            "positions": [
                -2.9422912961256116,
                -0.9419681083700575,
                1.6536045271210675,
                -0.6938832180293645,
                1.6130794071577421,
                -3.089015754307424
            ]
        },
        {
            "positions": [
                -2.9165911744253656,
                -0.9098744473176082,
                1.5544130964684144,
                -0.628248667078002,
                1.4817655694777436,
                -3.093977743941191
            ]
        },
        {
            "positions": [
                -2.8908910527251193,
                -0.877780786265159,
                1.455221665815761,
                -0.5626141161266395,
                1.350451731797745,
                -3.0989397335749582
            ]
        },
        {
            "positions": [
                -2.865190931024873,
                -0.8456871252127097,
                1.356030235163108,
                -0.496979565175277,
                1.2191378941177464,
                -3.1039017232087254
            ]
        },
        {
            "positions": [
                -2.8394908093246265,
                -0.8135934641602605,
                1.2568388045104548,
                -0.4313450142239145,
                1.0878240564377477,
                -3.1088637128424925
            ]
        },
        {
            "positions": [
                -2.8137906876243806,
                -0.7814998031078113,
                1.1576473738578017,
                -0.365710463272552,
                0.9565102187577491,
                -3.1138257024762597
            ]
        },
        {
            "positions": [
                -2.788090565924134,
                -0.749406142055362,
                1.0584559432051486,
                -0.3000759123211896,
                0.8251963810777505,
                -3.118787692110027
            ]
        },
        {
            "positions": [
                -2.762390444223888,
                -0.7173124810029128,
                0.9592645125524952,
                -0.23444136136982707,
                0.6938825433977518,
                -3.123749681743794
            ]
        },
        {
            "positions": [
                -2.736690322523642,
                -0.6852188199504635,
                0.8600730818998421,
                -0.16880681041846457,
                0.5625687057177531,
                -3.128711671377561
            ]
        },
        {
            "positions": [
                -2.7109902008233955,
                -0.6531251588980143,
                0.760881651247189,
                -0.10317225946710204,
                0.43125486803775454,
                -3.1336736610113283
            ]
        }
    ]
}