{
    "goal": {
        "global_pose": {
            "orientation": {
                "w": 0.7031023480610252,
                "x": -0.7110244013736278,
                "y": 0.0077485991402295624,
                "z": 0.005598929693374583
            },
            "position": {
                "x": -0.8841497679147869,
                "y": 0.44412534475326537,
                "z": 0.3711530566215515
            }
        },
        "name": "move_to_auspresseinheit_D"
    },
    "id": "TRRT_move_to_auspresseinheit_D_125",
    "joint_names": [
        "shoulder_pan_joint",
        "shoulder_lift_joint",
        "elbow_joint",
        "wrist_1_joint",
        "wrist_2_joint",
        "wrist_3_joint"
    ],
    "metrics": {
        "cart_traj_len": 0.3420299338012259,
        "distance_elbow_joint": 0.6280108728695402,
        "distance_shoulder_lift_joint": 0.11615654106091089,
        "distance_shoulder_pan_joint": 0.13354746963141167,
        "distance_wrist_1_joint": 0.5014144887963035,
        "distance_wrist_2_joint": 1.4327560400762716,
        "distance_wrist_3_joint": 0.024816978403352508,
        "smoothness": 1.1842378960592198e-15,
        "time": 0.046945544,
        "traj_len": 1.6842512849446756,
        "weighted_distance": 2.195565274938796
    },
    "planner": "TRRT",
    "start": {
        "state": {
            "elbow_joint": -1.8275523626775212,
            "shoulder_lift_joint": -2.126789852344167,
            "shoulder_pan_joint": -0.03513704404078235,
            "wrist_1_joint": -2.347782403156801,
            "wrist_2_joint": -1.6058999987535132,
            "wrist_3_joint": -3.0880379163319196
        }
    },
    "waypoints": [
        {
            "positions": [
                -0.03513704404078235,
                -2.126789852344167,
                -1.8275523626775212,
                -2.347782403156801,
                -1.6058999987535132,
                -3.0880379163319196
            ]
        },
        {
            "positions": [
                -0.05183047774470881,
                -2.1413094199767806,
                -1.7490510035688287,
                -2.410459214256339,
                -1.4268054937439794,
                -3.0911400386323384
            ]
        },
        {
            "positions": [
                -0.06852391144863526,
                -2.155828987609395,
                -1.6705496444601362,
                -2.4731360253558767,
                -1.2477109887344453,
                -3.0942421609327577
            ]
        },
        {
            "positions": [
                -0.08521734515256173,
                -2.1703485552420085,
                -1.5920482853514437,
                -2.5358128364554147,
                -1.0686164837249112,
                -3.097344283233177
            ]
        },
        {
            "positions": [
                -0.1019107788564882,
                -2.1848681228746223,
                -1.5135469262427512,
                -2.5984896475549526,
                -0.8895219787153774,
                -3.100446405533596
            ]
        },
        {
            "positions": [
                -0.11860421256041465,
                -2.199387690507236,
                -1.4350455671340585,
                -2.6611664586544905,
                -0.7104274737058435,
                -3.1035485278340147
            ]
        },
        {
            "positions": [
                -0.1352976462643411,
                -2.21390725813985,
                -1.356544208025366,
                -2.7238432697540285,
                -0.5313329686963095,
                -3.106650650134434
            ]
        },
        {
            "positions": [
                -0.15199107996826758,
                -2.228426825772464,
                -1.2780428489166735,
                -2.7865200808535664,
                -0.35223846368677547,
                -3.1097527724348533
            ]
        },
        {
            "positions": [
                -0.16868451367219403,
                -2.2429463934050777,
                -1.199541489807981,
                -2.8491968919531043,
                -0.1731439586772416,
                -3.112854894735272
            ]
        }
    ]
}