{
    "goal": {
        "global_pose": {
            "orientation": {
                "w": 0.7031023502349854,
                "x": -0.7110244035720825,
                "y": 0.007748599164187908,
                "z": 0.005598929710686207
            },
            "position": {
                "x": 0.11585023208521307,
                "y": 0.44412534475326537,
                "z": 0.3711530566215515
            }
        },
        "name": "move_to_auspresseinheit_A"
    },
    "id": "TRRT_move_to_auspresseinheit_A_1",
    "joint_names": [
        "shoulder_pan_joint",
        "shoulder_lift_joint",
        "elbow_joint",
        "wrist_1_joint",
        "wrist_2_joint",
        "wrist_3_joint"
    ],
    "metrics": {
        "cart_traj_len": 5.598902548994809,
        "distance_elbow_joint": 7.408473055287681,
        "distance_shoulder_lift_joint": 5.634596483050348,
        "distance_shoulder_pan_joint": 5.4568627032388575,
        "distance_wrist_1_joint": 1.108947991987744,
        "distance_wrist_2_joint": 3.0235118814030346,
        "distance_wrist_3_joint": 12.18303057055236,
        "smoothness": 0.4766640458896933,
        "time": 0.23235054600000002,
        "traj_len": 5.900459531724625,
        "weighted_distance": 7.957005950733953
    },
    "planner": "TRRT",
    "start": {
        "state": {
            "elbow_joint": 2.4225746658250005,
            "shoulder_lift_joint": -1.3736534386056498,
            "shoulder_pan_joint": -0.3378633547517467,
            "wrist_1_joint": -1.0288598680537169,
            "wrist_2_joint": 1.233022673432363,
            "wrist_3_joint": -3.0940220416140027
        }
    },
    "waypoints": [
        {
            "positions": [
                -0.3378633547517467,
                -1.3736534386056498,
                2.4225746658250005,
                -1.0288598680537169,
                1.233022673432363,
                -3.0940220416140027
            ]
        },
        {
            "positions": [
                -0.35530966844653067,
                -1.3322351538576278,
                2.313287376595393,
                -1.0026542859503373,
                1.2220919131651498,
                -2.904273846534351
            ]
        },
        {
            "positions": [
                -0.37275598214131456,
                -1.2908168691096058,
                2.2040000873657855,
                -0.9764487038469578,
                1.2111611528979362,
                -2.7145256514546987
            ]
        },
        {
            "positions": [
                -0.3902022958360985,
                -1.2493985843615838,
                2.094712798136178,
                -0.9502431217435783,
                1.200230392630723,
                -2.524777456375047
            ]
        },
        {
            "positions": [
                -0.40764860953088244,
                -1.2079802996135618,
                1.98542550890657,
                -0.9240375396401987,
                1.1892996323635094,
                -2.3350292612953947
            ]
        },
        {
            "positions": [
                -0.4250949232256664,
                -1.1665620148655398,
                1.8761382196769625,
                -0.8978319575368192,
                1.1783688720962961,
                -2.145281066215743
            ]
        },
        {
            "positions": [
                -0.44254123692045033,
                -1.1251437301175178,
                1.766850930447355,
                -0.8716263754334397,
                1.1674381118290829,
                -1.955532871136091
            ]
        },
        {
            "positions": [
                -0.4599875506152342,
                -1.0837254453694958,
                1.6575636412177475,
                -0.8454207933300601,
                1.1565073515618693,
                -1.765784676056439
            ]
        },
        {
            "positions": [
                -0.47743386431001816,
                -1.0423071606214738,
                1.5482763519881397,
                -0.8192152112266806,
                1.145576591294656,
                -1.576036480976787
            ]
        },
        {
            "positions": [
                -0.4948801780048021,
                -1.0008888758734518,
                1.438989062758532,
                -0.7930096291233011,
                1.1346458310274425,
                -1.386288285897135
            ]
        },
        {
            "positions": [
                -0.512326491699586,
                -0.9594705911254298,
                1.3297017735289245,
                -0.7668040470199216,
                1.1237150707602293,
                -1.196540090817483
            ]
        },
        {
            "positions": [
                -0.52977280539437,
                -0.9180523063774078,
                1.220414484299317,
                -0.740598464916542,
                1.1127843104930157,
                -1.0067918957378312
            ]
        },
        {
            "positions": [
                -0.5472191190891539,
                -0.8766340216293859,
                1.1111271950697095,
                -0.7143928828131626,
                1.1018535502258024,
                -0.8170437006581794
            ]
        },
        {
            "positions": [
                -0.5646654327839378,
                -0.8352157368813639,
                1.0018399058401017,
                -0.6881873007097831,
                1.0909227899585892,
                -0.6272955055785272
            ]
        },
        {
            "positions": [
                -0.5821117464787218,
                -0.7937974521333419,
                0.8925526166104942,
                -0.6619817186064035,
                1.0799920296913756,
                -0.4375473104988754
            ]
        },
        {
            "positions": [
                -0.5995580601735057,
                -0.7523791673853198,
                0.7832653273808865,
                -0.635776136503024,
                1.0690612694241624,
                -0.24779911541922317
            ]
        },
        {
            "positions": [
                -0.6170043738682895,
                -0.7109608826372978,
                0.673978038151279,
                -0.6095705543996445,
                1.0581305091569488,
                -0.05805092033957138
            ]
        },
        {
            "positions": [
                -0.6344506875630735,
                -0.6695425978892758,
                0.5646907489216715,
                -0.5833649722962649,
                1.0471997488897355,
                0.13169727474008042
            ]
        },
        {
            "positions": [
                -0.6518970012578575,
                -0.6281243131412538,
                0.45540345969206375,
                -0.5571593901928854,
                1.0362689886225223,
                0.32144546981973265
            ]
        },
        {
            "positions": [
                -0.6693433149526413,
                -0.5867060283932318,
                0.346116170462456,
                -0.5309538080895059,
                1.0253382283553087,
                0.5111936648993844
            ]
        },
        {
            "positions": [
                -0.6867896286474253,
                -0.5452877436452098,
                0.2368288812328485,
                -0.5047482259861263,
                1.0144074680880955,
                0.7009418599790367
            ]
        },
        {
            "positions": [
                -0.7042359423422093,
                -0.5038694588971878,
                0.127541592003241,
                -0.4785426438827468,
                1.003476707820882,
                0.8906900550586885
            ]
        },
        {
            "positions": [
                -0.7216822560369931,
                -0.4624511741491658,
                0.01825430277363349,
                -0.4523370617793673,
                0.9925459475536687,
                1.0804382501383403
            ]
        },
        {
            "positions": [
                -0.7391285697317771,
                -0.4210328894011438,
                -0.09103298645597402,
                -0.42613147967598775,
                0.9816151872864554,
                1.270186445217992
            ]
        },
        {
            "positions": [
                -0.7565748834265611,
                -0.3796146046531219,
                -0.20032027568558153,
                -0.3999258975726083,
                0.9706844270192418,
                1.4599346402976439
            ]
        },
        {
            "positions": [
                -0.774021197121345,
                -0.3381963199050999,
                -0.3096075649151895,
                -0.3737203154692288,
                0.9597536667520286,
                1.6496828353772965
            ]
        },
        {
            "positions": [
                -0.7914675108161289,
                -0.2967780351570779,
                -0.418894854144797,
                -0.34751473336584926,
                0.9488229064848152,
                1.8394310304569483
            ]
        },
        {
            "positions": [
                -0.8089138245109129,
                -0.2553597504090559,
                -0.5281821433744045,
                -0.3213091512624697,
                0.9378921462176018,
                2.0291792255366
            ]
        },
        {
            "positions": [
                -0.8263601382056968,
                -0.2139414656610339,
                -0.637469432604012,
                -0.2951035691590902,
                0.9269613859503884,
                2.218927420616252
            ]
        },
        {
            "positions": [
                -0.8438064519004806,
                -0.1725231809130119,
                -0.7467567218336195,
                -0.26889798705571066,
                0.916030625683175,
                2.4086756156959037
            ]
        },
        {
            "positions": [
                -0.8612527655952646,
                -0.13110489616498988,
                -0.8560440110632275,
                -0.24269240495233113,
                0.9050998654159617,
                2.5984238107755564
            ]
        },
        {
            "positions": [
                -0.8786990792900486,
                -0.08968661141696788,
                -0.965331300292835,
                -0.2164868228489516,
                0.8941691051487483,
                2.788172005855208
            ]
        },
        {
            "positions": [
                -0.8961453929848324,
                -0.04826832666894587,
                -1.0746185895224425,
                -0.19028124074557207,
                0.8832383448815349,
                2.9779202009348595
            ]
        },
        {
            "positions": [
                -0.8222525621594715,
                -0.11839510990332337,
                -0.9907676447756457,
                -0.19135694170038786,
                0.8509999730412012,
                2.8491400227866523
            ]
        },
        {
            "positions": [
                -0.7483597313341106,
                -0.18852189313770087,
                -0.9069167000288489,
                -0.19243264265520368,
                0.8187616012008676,
                2.7203598446384447
            ]
        },
        {
            "positions": [
                -0.6744669005087498,
                -0.25864867637207833,
                -0.8230657552820522,
                -0.19350834361001948,
                0.7865232293605341,
                2.5915796664902375
            ]
        },
        {
            "positions": [
                -0.6005740696833888,
                -0.3287754596064559,
                -0.7392148105352553,
                -0.19458404456483527,
                0.7542848575202005,
                2.4627994883420303
            ]
        },
        {
            "positions": [
                -0.526681238858028,
                -0.39890224284083337,
                -0.6553638657884585,
                -0.1956597455196511,
                0.722046485679867,
                2.334019310193823
            ]
        },
        {
            "positions": [
                -0.4527884080326671,
                -0.46902902607521085,
                -0.5715129210416617,
                -0.1967354464744669,
                0.6898081138395333,
                2.2052391320456155
            ]
        },
        {
            "positions": [
                -0.37889557720730616,
                -0.5391558093095883,
                -0.48766197629486496,
                -0.1978111474292827,
                0.6575697419991997,
                2.0764589538974083
            ]
        },
        {
            "positions": [
                -0.30500274638194524,
                -0.6092825925439659,
                -0.4038110315480681,
                -0.1988868483840985,
                0.6253313701588661,
                1.947678775749201
            ]
        },
        {
            "positions": [
                -0.23110991555658433,
                -0.6794093757783434,
                -0.3199600868012713,
                -0.1999625493389143,
                0.5930929983185325,
                1.8188985976009935
            ]
        },
        {
            "positions": [
                -0.15721708473122353,
                -0.7495361590127209,
                -0.23610914205447453,
                -0.20103825029373013,
                0.560854626478199,
                1.6901184194527863
            ]
        },
        {
            "positions": [
                -0.08332425390586262,
                -0.8196629422470983,
                -0.15225819730767776,
                -0.20211395124854592,
                0.5286162546378653,
                1.5613382413045789
            ]
        },
        {
            "positions": [
                -0.009431423080501822,
                -0.8897897254814758,
                -0.06840725256088098,
                -0.20318965220336171,
                0.49637788279753176,
                1.4325580631563717
            ]
        },
        {
            "positions": [
                0.0644614077448592,
                -0.9599165087158534,
                0.015443692185915792,
                -0.20426535315817754,
                0.46413951095719813,
                1.303777885008164
            ]
        },
        {
            "positions": [
                0.1383542385702201,
                -1.0300432919502307,
                0.09929463693271257,
                -0.20534105411299333,
                0.43190113911686456,
                1.1749977068599569
            ]
        },
        {
            "positions": [
                0.2122470693955809,
                -1.1001700751846082,
                0.18314558167950934,
                -0.20641675506780913,
                0.399662767276531,
                1.0462175287117497
            ]
        },
        {
            "positions": [
                0.28613990022094193,
                -1.170296858418986,
                0.26699652642630634,
                -0.20749245602262495,
                0.3674243954361973,
                0.9174373505635423
            ]
        },
        {
            "positions": [
                0.36003273104630273,
                -1.2404236416533634,
                0.3508474711731029,
                -0.20856815697744074,
                0.3351860235958638,
                0.7886571724153351
            ]
        },
        {
            "positions": [
                0.43392556187166376,
                -1.3105504248877409,
                0.4346984159198999,
                -0.20964385793225657,
                0.3029476517555302,
                0.6598769942671274
            ]
        },
        {
            "positions": [
                0.5078183926970246,
                -1.3806772081221184,
                0.5185493606666967,
                -0.21071955888707236,
                0.27070927991519655,
                0.5310968161189202
            ]
        },
        {
            "positions": [
                0.5817112235223854,
                -1.4508039913564958,
                0.6024003054134934,
                -0.21179525984188816,
                0.23847090807486304,
                0.40231663797071304
            ]
        },
        {
            "positions": [
                0.6556040543477464,
                -1.5209307745908733,
                0.6862512501602902,
                -0.21287096079670398,
                0.2062325362345293,
                0.2735364598225054
            ]
        },
        {
            "positions": [
                0.7294968851731072,
                -1.5910575578252508,
                0.770102194907087,
                -0.21394666175151977,
                0.1739941643941958,
                0.14475628167429822
            ]
        },
        {
            "positions": [
                0.803389715998468,
                -1.6611843410596283,
                0.8539531396538838,
                -0.21502236270633557,
                0.14175579255386228,
                0.015976103526091023
            ]
        },
        {
            "positions": [
                0.8772825468238288,
                -1.7313111242940058,
                0.9378040844006805,
                -0.2160980636611514,
                0.10951742071352866,
                -0.11280407462211617
            ]
        },
        {
            "positions": [
                0.95117537764919,
                -1.8014379075283835,
                1.0216550291474777,
                -0.21717376461596719,
                0.07727904887319492,
                -0.24158425277032425
            ]
        },
        {
            "positions": [
                1.0250682084745508,
                -1.871564690762761,
                1.105505973894274,
                -0.218249465570783,
                0.04504067703286141,
                -0.37036443091853144
            ]
        },
        {
            "positions": [
                1.0989610392999116,
                -1.9416914739971383,
                1.1893569186410708,
                -0.2193251665255988,
                0.012802305192527785,
                -0.49914460906673863
            ]
        },
        {
            "positions": [
                1.1728538701252726,
                -2.011818257231516,
                1.2732078633878676,
                -0.2204008674804146,
                -0.019436066647805728,
                -0.6279247872149458
            ]
        },
        {
            "positions": [
                1.2467467009506334,
                -2.081945040465893,
                1.3570588081346644,
                -0.2214765684352304,
                -0.05167443848813935,
                -0.756704965363153
            ]
        },
        {
            "positions": [
                1.3206395317759942,
                -2.1520718237002705,
                1.4409097528814612,
                -0.22255226939004621,
                -0.08391281032847286,
                -0.8854851435113602
            ]
        },
        {
            "positions": [
                1.3945323626013555,
                -2.2221986069346484,
                1.5247606976282584,
                -0.223627970344862,
                -0.1161511821688066,
                -1.0142653216595678
            ]
        },
        {
            "positions": [
                1.4684251934267163,
                -2.292325390169026,
                1.6086116423750552,
                -0.22470367129967783,
                -0.14838955400914022,
                -1.143045499807775
            ]
        },
        {
            "positions": [
                1.542318024252077,
                -2.3624521734034034,
                1.6924625871218515,
                -0.22577937225449363,
                -0.18062792584947385,
                -1.2718256779559822
            ]
        },
        {
            "positions": [
                1.616210855077438,
                -2.432578956637781,
                1.7763135318686483,
                -0.22685507320930942,
                -0.21286629768980725,
                -1.4006058561041894
            ]
        },
        {
            "positions": [
                1.6901036859027987,
                -2.5027057398721584,
                1.860164476615445,
                -0.22793077416412524,
                -0.24510466953014087,
                -1.5293860342523966
            ]
        },
        {
            "positions": [
                1.76399651672816,
                -2.572832523106536,
                1.9440154213622423,
                -0.22900647511894104,
                -0.2773430413704745,
                -1.6581662124006047
            ]
        },
        {
            "positions": [
                1.8378893475535207,
                -2.6429593063409134,
                2.027866366109039,
                -0.23008217607375686,
                -0.3095814132108081,
                -1.7869463905488119
            ]
        },
        {
            "positions": [
                1.9117821783788815,
                -2.713086089575291,
                2.111717310855836,
                -0.23115787702857266,
                -0.34181978505114174,
                -1.915726568697019
            ]
        },
        {
            "positions": [
                1.9856750092042423,
                -2.7832128728096683,
                2.1955682556026326,
                -0.23223357798338845,
                -0.37405815689147537,
                -2.0445067468452263
            ]
        },
        {
            "positions": [
                2.059567840029603,
                -2.853339656044046,
                2.2794192003494294,
                -0.23330927893820425,
                -0.40629652873180877,
                -2.1732869249934335
            ]
        },
        {
            "positions": [
                2.133460670854964,
                -2.9234664392784233,
                2.3632701450962257,
                -0.23438497989302007,
                -0.4385349005721424,
                -2.3020671031416406
            ]
        },
        {
            "positions": [
                2.207353501680325,
                -2.993593222512801,
                2.447121089843023,
                -0.23546068084783586,
                -0.47077327241247624,
                -2.4308472812898487
            ]
        },
        {
            "positions": [
                2.281246332505686,
                -3.0637200057471783,
                2.5309720345898197,
                -0.23653638180265169,
                -0.5030116442528096,
                -2.559627459438056
            ]
        },
        {
            "positions": [
                2.355139163331047,
                -3.1338467889815558,
                2.6148229793366164,
                -0.23761208275746748,
                -0.5352500160931433,
                -2.688407637586263
            ]
        },
        {
            "positions": [
                2.2284240780472087,
                -3.0397211806122453,
                2.5977585000226795,
                -0.2547688921934447,
                -0.43869315517948715,
                -2.72261998293106
            ]
        },
        {
            "positions": [
                2.1017089927633705,
                -2.945595572242935,
                2.580694020708742,
                -0.27192570162942187,
                -0.34213629426583103,
                -2.756832328275857
            ]
        },
        {
            "positions": [
                1.9749939074795324,
                -2.8514699638736247,
                2.563629541394805,
                -0.2890825110653991,
                -0.24557943335217491,
                -2.7910446736206533
            ]
        },
        {
            "positions": [
                1.8482788221956943,
                -2.7573443555043142,
                2.546565062080868,
                -0.3062393205013763,
                -0.1490225724385188,
                -2.8252570189654502
            ]
        },
        {
            "positions": [
                1.7215637369118562,
                -2.6632187471350037,
                2.529500582766931,
                -0.3233961299373535,
                -0.05246571152486268,
                -2.859469364310247
            ]
        },
        {
            "positions": [
                1.594848651628018,
                -2.5690931387656937,
                2.512436103452994,
                -0.34055293937333075,
                0.04409114938879344,
                -2.893681709655044
            ]
        },
        {
            "positions": [
                1.4681335663441804,
                -2.474967530396383,
                2.495371624139057,
                -0.35770974880930795,
                0.14064801030244944,
                -2.9278940549998405
            ]
        },
        {
            "positions": [
                1.341418481060342,
                -2.3808419220270727,
                2.47830714482512,
                -0.37486655824528514,
                0.23720487121610567,
                -2.9621064003446373
            ]
        },
        {
            "positions": [
                1.214703395776504,
                -2.286716313657762,
                2.4612426655111825,
                -0.39202336768126234,
                0.3337617321297617,
                -2.9963187456894342
            ]
        },
        {
            "positions": [
                1.0879883104926658,
                -2.1925907052884517,
                2.4441781861972456,
                -0.40918017711723953,
                0.4303185930434179,
                -3.030531091034231
            ]
        },
        {
            "positions": [
                0.9612732252088279,
                -2.0984650969191416,
                2.4271137068833086,
                -0.4263369865532167,
                0.5268754539570739,
                -3.064743436379028
            ]
        },
        {
            "positions": [
                0.8345581399249895,
                -2.004339488549831,
                2.4100492275693712,
                -0.443493795989194,
                0.6234323148707301,
                -3.0989557817238245
            ]
        },
        {
            "positions": [
                0.7078430546411516,
                -1.9102138801805209,
                2.3929847482554343,
                -0.46065060542517117,
                0.719989175784386,
                -3.1331681270686214
            ]
        }
    ]
}