{
    "goal": {
        "global_pose": {
            "orientation": {
                "w": 0.7047431468963623,
                "x": -0.7094548344612122,
                "y": 0.0024358443915843964,
                "z": -0.0022348060738295317
            },
            "position": {
                "x": 0.6094750761985779,
                "y": 0.3671506643295288,
                "z": 0.19426114857196808
            }
        },
        "name": "move_to_magneteinheit_A"
    },
    "id": "TRRT_move_to_magneteinheit_A_101",
    "joint_names": [
        "shoulder_pan_joint",
        "shoulder_lift_joint",
        "elbow_joint",
        "wrist_1_joint",
        "wrist_2_joint",
        "wrist_3_joint"
    ],
    "metrics": {
        "cart_traj_len": 3.3951609831601473,
        "distance_elbow_joint": 3.880129213937564,
        "distance_shoulder_lift_joint": 0.2982101875092069,
        "distance_shoulder_pan_joint": 2.5783072423216615,
        "distance_wrist_1_joint": 0.9406500616904684,
        "distance_wrist_2_joint": 1.7001831461005237,
        "distance_wrist_3_joint": 2.602908325475093,
        "smoothness": 0.08461879613817819,
        "time": 0.520482431,
        "traj_len": 3.464157643213501,
        "weighted_distance": 4.455001463049782
    },
    "planner": "TRRT",
    "start": {
        "state": {
            "elbow_joint": -1.9196185241190666,
            "shoulder_lift_joint": -1.2443396400964142,
            "shoulder_pan_joint": 2.6996025414629847,
            "wrist_1_joint": -1.5485510000780065,
            "wrist_2_joint": -1.5709468930060704,
            "wrist_3_joint": 0.4420197071253992
        }
    },
    "waypoints": [
        {
            "positions": [
                2.6996025414629847,
                -1.2443396400964142,
                -1.9196185241190666,
                -1.5485510000780065,
                -1.5709468930060704,
                0.4420197071253992
            ]
        },
        {
            "positions": [
                2.5719651414266655,
                -1.2376874793325379,
                -1.80586584185327,
                -1.505346126012622,
                -1.5013495367702683,
                0.4630572562808428
            ]
        },
        {
            "positions": [
                2.4443277413903464,
                -1.2310353185686616,
                -1.6921131595874732,
                -1.4621412519472372,
                -1.4317521805344662,
                0.4840948054362865
            ]
        },
        {
            "positions": [
                2.3166903413540276,
                -1.2243831578047852,
                -1.5783604773216766,
                -1.4189363778818527,
                -1.3621548242986643,
                0.5051323545917301
            ]
        },
        {
            "positions": [
                2.1890529413177084,
                -1.217730997040909,
                -1.46460779505588,
                -1.375731503816468,
                -1.2925574680628622,
                0.5261699037471739
            ]
        },
        {
            "positions": [
                2.0614155412813893,
                -1.2110788362770326,
                -1.3508551127900832,
                -1.3325266297510834,
                -1.22296011182706,
                0.5472074529026175
            ]
        },
        {
            "positions": [
                1.93377814124507,
                -1.2044266755131563,
                -1.2371024305242866,
                -1.2893217556856986,
                -1.153362755591258,
                0.5682450020580612
            ]
        },
        {
            "positions": [
                1.8061407412087513,
                -1.1977745147492798,
                -1.12334974825849,
                -1.246116881620314,
                -1.083765399355456,
                0.5892825512135048
            ]
        },
        {
            "positions": [
                1.678503341172432,
                -1.1911223539854034,
                -1.0095970659926934,
                -1.2029120075549293,
                -1.0141680431196538,
                0.6103201003689485
            ]
        },
        {
            "positions": [
                1.550865941136113,
                -1.1844701932215271,
                -0.8958443837268966,
                -1.1597071334895448,
                -0.9445706868838519,
                0.6313576495243921
            ]
        },
        {
            "positions": [
                1.4232285410997938,
                -1.1778180324576508,
                -0.7820917014611,
                -1.11650225942416,
                -0.8749733306480497,
                0.6523951986798359
            ]
        },
        {
            "positions": [
                1.2955911410634748,
                -1.1711658716937745,
                -0.6683390191953034,
                -1.0732973853587755,
                -0.8053759744122477,
                0.6734327478352795
            ]
        },
        {
            "positions": [
                1.1679537410271557,
                -1.1645137109298982,
                -0.5545863369295065,
                -1.030092511293391,
                -0.7357786181764456,
                0.6944702969907232
            ]
        },
        {
            "positions": [
                1.0403163409908367,
                -1.1578615501660219,
                -0.44083365466370994,
                -0.9868876372280062,
                -0.6661812619406436,
                0.7155078461461668
            ]
        },
        {
            "positions": [
                0.9710926417607154,
                -1.147653178186706,
                -0.3062315200998047,
                -0.9816943451090749,
                -0.6156979503621067,
                0.8404120492256874
            ]
        },
        {
            "positions": [
                0.901868942530594,
                -1.1374448062073905,
                -0.17162938553589946,
                -0.9765010529901437,
                -0.5652146387835698,
                0.9653162523052079
            ]
        },
        {
            "positions": [
                0.8326452433004727,
                -1.1272364342280747,
                -0.03702725097199422,
                -0.9713077608712123,
                -0.514731327205033,
                1.0902204553847286
            ]
        },
        {
            "positions": [
                0.7634215440703513,
                -1.117028062248759,
                0.09757488359191102,
                -0.966114468752281,
                -0.4642480156264961,
                1.2151246584642492
            ]
        },
        {
            "positions": [
                0.6941978448402301,
                -1.1068196902694432,
                0.23217701815581626,
                -0.9609211766333497,
                -0.4137647040479592,
                1.3400288615437697
            ]
        },
        {
            "positions": [
                0.6249741456101088,
                -1.0966113182901276,
                0.3667791527197215,
                -0.9557278845144185,
                -0.3632813924694223,
                1.46493306462329
            ]
        },
        {
            "positions": [
                0.5557504463799874,
                -1.0864029463108118,
                0.5013812872836266,
                -0.9505345923954872,
                -0.3127980808908854,
                1.5898372677028108
            ]
        },
        {
            "positions": [
                0.4865267471498661,
                -1.076194574331496,
                0.635983421847532,
                -0.9453413002765558,
                -0.2623147693123485,
                1.7147414707823314
            ]
        },
        {
            "positions": [
                0.4173030479197447,
                -1.0659862023521804,
                0.7705855564114372,
                -0.9401480081576246,
                -0.21183145773381157,
                1.839645673861852
            ]
        },
        {
            "positions": [
                0.34807934868962337,
                -1.0557778303728647,
                0.9051876909753426,
                -0.9349547160386933,
                -0.1613481461552747,
                1.9645498769413725
            ]
        },
        {
            "positions": [
                0.31321206978706484,
                -1.050416396446719,
                1.0174184835661901,
                -0.9546530536728375,
                -0.12755507342660014,
                2.0898932308319615
            ]
        },
        {
            "positions": [
                0.27834479088450637,
                -1.0450549625205736,
                1.1296492761570376,
                -0.9743513913069817,
                -0.09376200069792556,
                2.2152365847225504
            ]
        },
        {
            "positions": [
                0.24347751198194784,
                -1.039693528594428,
                1.241880068747885,
                -0.9940497289411259,
                -0.05996892796925099,
                2.340579938613139
            ]
        },
        {
            "positions": [
                0.2151295057884104,
                -1.049378500373026,
                1.3737954436032793,
                -0.9679417599603396,
                -0.02364587806303496,
                2.475627208070529
            ]
        },
        {
            "positions": [
                0.18678149959487295,
                -1.0590634721516239,
                1.5057108184586738,
                -0.9418337909795533,
                0.012677171843181068,
                2.610674477527919
            ]
        },
        {
            "positions": [
                0.1584334934013355,
                -1.0687484439302217,
                1.6376261933140681,
                -0.9157258219987671,
                0.049000221749397097,
                2.745721746985309
            ]
        },
        {
            "positions": [
                0.13008548720779806,
                -1.0784334157088198,
                1.7695415681694624,
                -0.8896178530179808,
                0.08532327165561311,
                2.8807690164426987
            ]
        },
        {
            "positions": [
                0.12569039317456096,
                -1.1058455101552342,
                1.8650261289939798,
                -0.807854408605192,
                0.10727976237503331,
                2.962848524521595
            ]
        },
        {
            "positions": [
                0.12129529914132386,
                -1.1332576046016487,
                1.9605106898184972,
                -0.7260909641924033,
                0.1292362530944535,
                3.044928032600492
            ]
        }
    ]
}