{
    "goal": {
        "global_pose": {
            "orientation": {
                "w": 0.5084816262002911,
                "x": -0.4908360881923452,
                "y": 0.5182115481033761,
                "z": -0.48164630358495003
            },
            "position": {
                "x": 0.5540239810943604,
                "y": -0.46912469901144505,
                "z": 0.16403168439865112
            }
        },
        "name": "move_to_storage_B"
    },
    "id": "TRRT_move_to_storage_B_131",
    "joint_names": [
        "shoulder_pan_joint",
        "shoulder_lift_joint",
        "elbow_joint",
        "wrist_1_joint",
        "wrist_2_joint",
        "wrist_3_joint"
    ],
    "metrics": {
        "cart_traj_len": 0.7056651556135967,
        "distance_elbow_joint": 0.34910426324681554,
        "distance_shoulder_lift_joint": 0.4593422305303798,
        "distance_shoulder_pan_joint": 0.40581682849737477,
        "distance_wrist_1_joint": 3.0623310933714487,
        "distance_wrist_2_joint": 2.6990036029204485,
        "distance_wrist_3_joint": 3.1572825664767694,
        "smoothness": 0.1880241558584517,
        "time": 0.079903609,
        "traj_len": 3.1832185889510067,
        "weighted_distance": 4.712619273216188
    },
    "planner": "TRRT",
    "start": {
        "state": {
            "elbow_joint": 1.664937868594044,
            "shoulder_lift_joint": -0.661644460510453,
            "shoulder_pan_joint": -0.9139846352900073,
            "wrist_1_joint": 2.146753192139373,
            "wrist_2_joint": -2.2341966793290973,
            "wrist_3_joint": 0.005466555786416001
        }
    },
    "waypoints": [
        {
            "positions": [
                -0.9139846352900073,
                -0.661644460510453,
                1.664937868594044,
                2.146753192139373,
                -2.2341966793290973,
                0.005466555786416001
            ]
        },
        {
            "positions": [
                -0.8026766060287912,
                -0.7401563262288856,
                1.6989837591141037,
                2.186934011796496,
                -2.1367706098597816,
                0.012052831355119142
            ]
        },
        {
            "positions": [
                -0.8144569579982376,
                -0.7553895408213634,
                1.711586094023174,
                2.066048000847923,
                -2.032707508521736,
                -0.11397502028120349
            ]
        },
        {
            "positions": [
                -0.8262373099676839,
                -0.7706227554138414,
                1.7241884289322442,
                1.9451619898993502,
                -1.928644407183691,
                -0.24000287191752612
            ]
        },
        {
            "positions": [
                -0.8380176619371302,
                -0.7858559700063192,
                1.7367907638413145,
                1.824275978950777,
                -1.8245813058456457,
                -0.36603072355384875
            ]
        },
        {
            "positions": [
                -0.8497980139065766,
                -0.8010891845987972,
                1.7493930987503847,
                1.703389968002204,
                -1.7205182045076004,
                -0.4920585751901714
            ]
        },
        {
            "positions": [
                -0.861578365876023,
                -0.816322399191275,
                1.7619954336594548,
                1.582503957053631,
                -1.6164551031695549,
                -0.6180864268264941
            ]
        },
        {
            "positions": [
                -0.8733587178454693,
                -0.831555613783753,
                1.774597768568525,
                1.461617946105058,
                -1.5123920018315098,
                -0.7441142784628166
            ]
        },
        {
            "positions": [
                -0.8851390698149156,
                -0.8467888283762308,
                1.7872001034775953,
                1.3407319351564848,
                -1.4083289004934643,
                -0.8701421300991394
            ]
        },
        {
            "positions": [
                -0.896919421784362,
                -0.8620220429687087,
                1.7998024383866655,
                1.2198459242079118,
                -1.3042657991554192,
                -0.9961699817354619
            ]
        },
        {
            "positions": [
                -0.9086997737538083,
                -0.8772552575611866,
                1.8124047732957358,
                1.0989599132593388,
                -1.2002026978173739,
                -1.1221978333717846
            ]
        },
        {
            "positions": [
                -0.9204801257232547,
                -0.8924884721536646,
                1.825007108204806,
                0.9780739023107659,
                -1.0961395964793283,
                -1.2482256850081073
            ]
        },
        {
            "positions": [
                -0.932260477692701,
                -0.9077216867461424,
                1.8376094431138763,
                0.8571878913621929,
                -0.9920764951412833,
                -1.37425353664443
            ]
        },
        {
            "positions": [
                -0.9440408296621474,
                -0.9229549013386202,
                1.8502117780229463,
                0.7363018804136199,
                -0.888013393803238,
                -1.5002813882807524
            ]
        },
        {
            "positions": [
                -0.9558211816315938,
                -0.9381881159310982,
                1.8628141129320168,
                0.6154158694650467,
                -0.7839502924651924,
                -1.6263092399170753
            ]
        },
        {
            "positions": [
                -0.9676015336010401,
                -0.953421330523576,
                1.8754164478410869,
                0.49452985851647346,
                -0.6798871911271471,
                -1.752337091553398
            ]
        },
        {
            "positions": [
                -0.9793818855704864,
                -0.968654545116054,
                1.888018782750157,
                0.3736438475679007,
                -0.575824089789102,
                -1.8783649431897205
            ]
        },
        {
            "positions": [
                -0.9911622375399327,
                -0.9838877597085318,
                1.9006211176592274,
                0.2527578366193277,
                -0.4717609884510565,
                -2.004392794826043
            ]
        },
        {
            "positions": [
                -1.002942589509379,
                -0.9991209743010097,
                1.9132234525682976,
                0.13187182567075428,
                -0.3676978871130112,
                -2.130420646462366
            ]
        },
        {
            "positions": [
                -1.0147229414788255,
                -1.0143541888934875,
                1.9258257874773679,
                0.01098581472218152,
                -0.26363478577496613,
                -2.2564484980986883
            ]
        },
        {
            "positions": [
                -1.0265032934482718,
                -1.0295874034859656,
                1.9384281223864381,
                -0.10990019622639124,
                -0.1595716844369206,
                -2.382476349735011
            ]
        },
        {
            "positions": [
                -1.0382836454177182,
                -1.0448206180784434,
                1.9510304572955084,
                -0.23078620717496445,
                -0.055508583098875075,
                -2.5085042013713337
            ]
        },
        {
            "positions": [
                -1.0500639973871646,
                -1.0600538326709212,
                1.9636327922045784,
                -0.3516722181235372,
                0.04855451823917001,
                -2.634532053007656
            ]
        },
        {
            "positions": [
                -1.061844349356611,
                -1.075287047263399,
                1.9762351271136487,
                -0.4725582290721104,
                0.1526176195772151,
                -2.760559904643979
            ]
        },
        {
            "positions": [
                -1.0736247013260571,
                -1.0905202618558771,
                1.988837462022719,
                -0.5934442400206836,
                0.2566807209152606,
                -2.8865877562803015
            ]
        },
        {
            "positions": [
                -1.0854050532955035,
                -1.105753476448355,
                2.0014397969317894,
                -0.7143302509692564,
                0.3607438222533057,
                -3.012615607916624
            ]
        },
        {
            "positions": [
                -1.09718540526495,
                -1.1209866910408328,
                2.0140421318408595,
                -0.8352162619178294,
                0.4648069235913511,
                -3.138643459552947
            ]
        }
    ]
}