{
    "goal": {
        "global_pose": {
            "orientation": {
                "w": -0.4816463035849501,
                "x": 0.5182115481033762,
                "y": 0.4908360881923453,
                "z": -0.5084816262002911
            },
            "position": {
                "x": -0.8240239810943604,
                "y": 0.19912469901144506,
                "z": 0.16403168439865112
            }
        },
        "name": "move_to_storage_D"
    },
    "id": "TRRT_move_to_storage_D_89",
    "joint_names": [
        "shoulder_pan_joint",
        "shoulder_lift_joint",
        "elbow_joint",
        "wrist_1_joint",
        "wrist_2_joint",
        "wrist_3_joint"
    ],
    "metrics": {
        "cart_traj_len": 3.909149088876006,
        "distance_elbow_joint": 4.213359751908558,
        "distance_shoulder_lift_joint": 1.2651444651111878,
        "distance_shoulder_pan_joint": 2.8138325662115773,
        "distance_wrist_1_joint": 2.6764972733946353,
        "distance_wrist_2_joint": 0.8796717540661846,
        "distance_wrist_3_joint": 3.142257595382937,
        "smoothness": 0.05315404845993728,
        "time": 0.191626136,
        "traj_len": 3.871790723434711,
        "weighted_distance": 4.983116256350215
    },
    "planner": "TRRT",
    "start": {
        "state": {
            "elbow_joint": -2.384821988534728,
            "shoulder_lift_joint": -2.2788054721415256,
            "shoulder_pan_joint": -0.1854694642142757,
            "wrist_1_joint": 1.4845938289331202,
            "wrist_2_joint": 0.17898776772866878,
            "wrist_3_joint": 0.037105688729662994
        }
    },
    "waypoints": [
        {
            "positions": [
                -0.1854694642142757,
                -2.2788054721415256,
                -2.384821988534728,
                1.4845938289331202,
                0.17898776772866878,
                0.037105688729662994
            ]
        },
        {
            "positions": [
                -0.10660249803098822,
                -2.251063385203454,
                -2.259063194704521,
                1.4046047041998306,
                0.2050212809239927,
                -0.015324590792867139
            ]
        },
        {
            "positions": [
                -0.027735531847700723,
                -2.223321298265382,
                -2.1333044008743145,
                1.324615579466541,
                0.2310547941193166,
                -0.06775487031539727
            ]
        },
        {
            "positions": [
                0.051131434335586784,
                -2.1955792113273103,
                -2.007545607044108,
                1.2446264547332517,
                0.2570883073146405,
                -0.12018514983792741
            ]
        },
        {
            "positions": [
                0.12999840051887426,
                -2.1678371243892385,
                -1.881786813213901,
                1.1646373299999622,
                0.2831218205099644,
                -0.17261542936045754
            ]
        },
        {
            "positions": [
                0.2088653667021618,
                -2.1400950374511667,
                -1.7560280193836941,
                1.0846482052666726,
                0.3091553337052883,
                -0.22504570888298767
            ]
        },
        {
            "positions": [
                0.2877323328854493,
                -2.112352950513095,
                -1.6302692255534874,
                1.004659080533383,
                0.33518884690061224,
                -0.2774759884055178
            ]
        },
        {
            "positions": [
                0.3665992990687368,
                -2.084610863575023,
                -1.5045104317232807,
                0.9246699558000935,
                0.3612223600959361,
                -0.329906267928048
            ]
        },
        {
            "positions": [
                0.44546626525202426,
                -2.0568687766369513,
                -1.378751637893074,
                0.844680831066804,
                0.38725587329126,
                -0.3823365474505781
            ]
        },
        {
            "positions": [
                0.5243332314353119,
                -2.0291266896988795,
                -1.252992844062867,
                0.7646917063335144,
                0.413289386486584,
                -0.4347668269731083
            ]
        },
        {
            "positions": [
                0.6032001976185993,
                -2.0013846027608078,
                -1.1272340502326603,
                0.6847025816002249,
                0.43932289968190785,
                -0.4871971064956383
            ]
        },
        {
            "positions": [
                0.6820671638018869,
                -1.9736425158227362,
                -1.0014752564024536,
                0.6047134568669353,
                0.46535641287723173,
                -0.5396273860181685
            ]
        },
        {
            "positions": [
                0.7609341299851743,
                -1.9459004288846644,
                -0.8757164625722469,
                0.5247243321336459,
                0.4913899260725556,
                -0.5920576655406986
            ]
        },
        {
            "positions": [
                0.8398010961684618,
                -1.9181583419465926,
                -0.74995766874204,
                0.4447352074003563,
                0.5174234392678796,
                -0.6444879450632288
            ]
        },
        {
            "positions": [
                0.9186680623517492,
                -1.8904162550085208,
                -0.6241988749118335,
                0.36474608266706676,
                0.5434569524632035,
                -0.6969182245857589
            ]
        },
        {
            "positions": [
                0.997535028535037,
                -1.862674168070449,
                -0.4984400810816265,
                0.2847569579337772,
                0.5694904656585273,
                -0.7493485041082891
            ]
        },
        {
            "positions": [
                1.076401994718324,
                -1.8349320811323773,
                -0.37268128725142,
                0.20476783320048786,
                0.5955239788538512,
                -0.8017787836308191
            ]
        },
        {
            "positions": [
                1.1552689609016116,
                -1.8071899941943055,
                -0.2469224934212133,
                0.1247787084671983,
                0.6215574920491751,
                -0.8542090631533492
            ]
        },
        {
            "positions": [
                1.2341359270848993,
                -1.7794479072562337,
                -0.12116369959100615,
                0.04478958373390851,
                0.6475910052444991,
                -0.9066393426758795
            ]
        },
        {
            "positions": [
                1.3130028932681868,
                -1.751705820318162,
                0.00459509423920057,
                -0.03519954099938083,
                0.673624518439823,
                -0.9590696221984096
            ]
        },
        {
            "positions": [
                1.3918698594514742,
                -1.7239637333800903,
                0.1303538880694073,
                -0.11518866573267039,
                0.6996580316351468,
                -1.0114999017209396
            ]
        },
        {
            "positions": [
                1.4707368256347617,
                -1.6962216464420186,
                0.256112681899614,
                -0.19517779046595973,
                0.7256915448304707,
                -1.0639301812434698
            ]
        },
        {
            "positions": [
                1.5496037918180494,
                -1.6684795595039468,
                0.3818714757298207,
                -0.2751669151992495,
                0.7517250580257947,
                -1.116360460766
            ]
        },
        {
            "positions": [
                1.6284707580013367,
                -1.640737472565875,
                0.5076302695600274,
                -0.35515603993253886,
                0.7777585712211186,
                -1.1687907402885302
            ]
        },
        {
            "positions": [
                1.7073377241846242,
                -1.6129953856278032,
                0.6333890633902342,
                -0.4351451646658284,
                0.8037920844164425,
                -1.2212210198110602
            ]
        },
        {
            "positions": [
                1.7862046903679116,
                -1.5852532986897314,
                0.7591478572204409,
                -0.5151342893991178,
                0.8298255976117663,
                -1.2736512993335904
            ]
        },
        {
            "positions": [
                1.865071656551199,
                -1.5575112117516596,
                0.884906651050648,
                -0.5951234141324075,
                0.8558591108070903,
                -1.3260815788561207
            ]
        },
        {
            "positions": [
                1.9439386227344868,
                -1.5297691248135878,
                1.0106654448808547,
                -0.6751125388656969,
                0.8818926240024142,
                -1.3785118583786506
            ]
        },
        {
            "positions": [
                2.022805588917774,
                -1.502027037875516,
                1.136424238711061,
                -0.7551016635989867,
                0.9079261371977381,
                -1.4309421379011809
            ]
        },
        {
            "positions": [
                2.1016725551010618,
                -1.4742849509374443,
                1.2621830325412677,
                -0.835090788332276,
                0.933959650393062,
                -1.4833724174237108
            ]
        },
        {
            "positions": [
                2.1805395212843495,
                -1.4465428639993725,
                1.387941826371475,
                -0.9150799130655658,
                0.9599931635883859,
                -1.5358026969462413
            ]
        },
        {
            "positions": [
                2.2594064874676367,
                -1.4188007770613007,
                1.5137006202016814,
                -0.9950690377988551,
                0.9860266767837098,
                -1.5882329764687713
            ]
        },
        {
            "positions": [
                2.305526064283845,
                -1.3681583058074303,
                1.5530552630982002,
                -0.9704647369660226,
                0.9951057824101027,
                -1.777847842741834
            ]
        },
        {
            "positions": [
                2.351645641100053,
                -1.31751583455356,
                1.592409905994719,
                -0.9458604361331902,
                1.0041848880364956,
                -1.967462709014897
            ]
        },
        {
            "positions": [
                2.397765217916261,
                -1.2668733632996896,
                1.6317645488912378,
                -0.9212561353003577,
                1.0132639936628887,
                -2.15707757528796
            ]
        },
        {
            "positions": [
                2.443884794732469,
                -1.2162308920458194,
                1.6711191917877566,
                -0.8966518344675252,
                1.0223430992892815,
                -2.346692441561023
            ]
        },
        {
            "positions": [
                2.490004371548677,
                -1.165588420791949,
                1.7104738346842754,
                -0.8720475336346928,
                1.0314222049156745,
                -2.5363073078340856
            ]
        },
        {
            "positions": [
                2.536123948364885,
                -1.1149459495380785,
                1.7498284775807942,
                -0.8474432328018603,
                1.0405013105420675,
                -2.725922174107149
            ]
        },
        {
            "positions": [
                2.5822435251810933,
                -1.064303478284208,
                1.789183120477313,
                -0.8228389319690278,
                1.0495804161684603,
                -2.9155370403802117
            ]
        },
        {
            "positions": [
                2.6283631019973015,
                -1.0136610070303378,
                1.8285377633738318,
                -0.7982346311361953,
                1.0586595217948533,
                -3.1051519066532745
            ]
        }
    ]
}