{
    "goal": {
        "global_pose": {
            "orientation": {
                "w": -0.4816463035849501,
                "x": 0.5182115481033762,
                "y": 0.4908360881923453,
                "z": -0.5084816262002911
            },
            "position": {
                "x": -0.8240239810943604,
                "y": -0.300875300988555,
                "z": 0.16403168439865112
            }
        },
        "name": "move_to_storage_C"
    },
    "id": "TRRT_move_to_storage_C_48",
    "joint_names": [
        "shoulder_pan_joint",
        "shoulder_lift_joint",
        "elbow_joint",
        "wrist_1_joint",
        "wrist_2_joint",
        "wrist_3_joint"
    ],
    "metrics": {
        "cart_traj_len": 0.5770913516652459,
        "distance_elbow_joint": 0.25619040024686135,
        "distance_shoulder_lift_joint": 0.1885178715713558,
        "distance_shoulder_pan_joint": 0.49636923492363794,
        "distance_wrist_1_joint": 0.072854210869718,
        "distance_wrist_2_joint": 1.0606788115903703,
        "distance_wrist_3_joint": 0.05808660857479131,
        "smoothness": 0.0,
        "time": 0.020617558,
        "traj_len": 1.4603756837802848,
        "weighted_distance": 1.8391311474134753
    },
    "planner": "TRRT",
    "start": {
        "state": {
            "elbow_joint": 2.010868314990456,
            "shoulder_lift_joint": -1.1634956873337592,
            "shoulder_pan_joint": -2.4736205022346125,
            "wrist_1_joint": -0.8367026794202681,
            "wrist_2_joint": 0.6746043897044499,
            "wrist_3_joint": -3.1496632123970403
        }
    },
    "waypoints": [
        {
            "positions": [
                -2.4736205022346125,
                -1.1634956873337592,
                2.010868314990456,
                -0.8367026794202681,
                0.6746043897044499,
                -3.1496632123970403
            ]
        },
        {
            "positions": [
                -2.5563487080552187,
                -1.1320760420718665,
                1.9681699149493124,
                -0.8245603109419818,
                0.8513841916361783,
                -3.1399821109679085
            ]
        },
        {
            "positions": [
                -2.639076913875825,
                -1.1006563968099738,
                1.9254715149081687,
                -0.8124179424636955,
                1.0281639935679068,
                -3.1303010095387767
            ]
        },
        {
            "positions": [
                -2.7218051196964312,
                -1.0692367515480812,
                1.882773114867025,
                -0.800275573985409,
                1.2049437954996352,
                -3.120619908109645
            ]
        },
        {
            "positions": [
                -2.804533325517038,
                -1.0378171062861887,
                1.8400747148258816,
                -0.7881332055071227,
                1.3817235974313635,
                -3.1109388066805126
            ]
        },
        {
            "positions": [
                -2.887261531337644,
                -1.006397461024296,
                1.7973763147847381,
                -0.7759908370288364,
                1.558503399363092,
                -3.101257705251381
            ]
        },
        {
            "positions": [
                -2.9699897371582504,
                -0.9749778157624034,
                1.7546779147435945,
                -0.7638484685505501,
                1.7352832012948203,
                -3.091576603822249
            ]
        }
    ]
}