{
    "goal": {
        "global_pose": {
            "orientation": {
                "w": -0.4816463035849501,
                "x": 0.5182115481033762,
                "y": 0.4908360881923453,
                "z": -0.5084816262002911
            },
            "position": {
                "x": -0.8240239810943604,
                "y": -0.300875300988555,
                "z": 0.16403168439865112
            }
        },
        "name": "move_to_storage_C"
    },
    "id": "TRRT_move_to_storage_C_124",
    "joint_names": [
        "shoulder_pan_joint",
        "shoulder_lift_joint",
        "elbow_joint",
        "wrist_1_joint",
        "wrist_2_joint",
        "wrist_3_joint"
    ],
    "metrics": {
        "cart_traj_len": 0.5762949318598289,
        "distance_elbow_joint": 0.2533044344275659,
        "distance_shoulder_lift_joint": 0.18837864190786135,
        "distance_shoulder_pan_joint": 0.4956597201941797,
        "distance_wrist_1_joint": 0.06319485763424926,
        "distance_wrist_2_joint": 1.0606633393581095,
        "distance_wrist_3_joint": 0.06605174098659816,
        "smoothness": 0.0,
        "time": 0.019333454,
        "traj_len": 1.4585104505997082,
        "weighted_distance": 1.8393516285566822
    },
    "planner": "TRRT",
    "start": {
        "state": {
            "elbow_joint": 2.010868314990456,
            "shoulder_lift_joint": -1.1634956873337592,
            "shoulder_pan_joint": -2.4736205022346125,
            "wrist_1_joint": -0.8367026794202681,
            "wrist_2_joint": 0.6746043897044499,
            "wrist_3_joint": -3.1496632123970403
        }
    },
    "waypoints": [
        {
            "positions": [
                -2.4736205022346125,
                -1.1634956873337592,
                2.010868314990456,
                -0.8367026794202681,
                0.6746043897044499,
                -3.1496632123970403
            ]
        },
        {
            "positions": [
                -2.5562304556003093,
                -1.1320992470157822,
                1.9686509092525282,
                -0.8261702031478932,
                0.8513816129308015,
                -3.138654588899274
            ]
        },
        {
            "positions": [
                -2.6388404089660056,
                -1.1007028066978055,
                1.9264335035146005,
                -0.8156377268755184,
                1.0281588361571532,
                -3.1276459654015074
            ]
        },
        {
            "positions": [
                -2.7214503623317023,
                -1.0693063663798286,
                1.8842160977766729,
                -0.8051052506031435,
                1.2049360593835048,
                -3.116637341903741
            ]
        },
        {
            "positions": [
                -2.804060315697399,
                -1.0379099260618516,
                1.8419986920387452,
                -0.7945727743307686,
                1.3817132826098564,
                -3.105628718405975
            ]
        },
        {
            "positions": [
                -2.8866702690630954,
                -1.0065134857438747,
                1.7997812863008176,
                -0.7840402980583937,
                1.558490505836208,
                -3.0946200949082083
            ]
        },
        {
            "positions": [
                -2.969280222428792,
                -0.9751170454258978,
                1.75756388056289,
                -0.7735078217860188,
                1.7352677290625595,
                -3.083611471410442
            ]
        }
    ]
}