{
    "goal": {
        "global_pose": {
            "orientation": {
                "w": -0.4816463035849501,
                "x": 0.5182115481033762,
                "y": 0.4908360881923453,
                "z": -0.5084816262002911
            },
            "position": {
                "x": -0.8240239810943604,
                "y": -0.300875300988555,
                "z": 0.16403168439865112
            }
        },
        "name": "move_to_storage_C"
    },
    "id": "TRRT_move_to_storage_C_34",
    "joint_names": [
        "shoulder_pan_joint",
        "shoulder_lift_joint",
        "elbow_joint",
        "wrist_1_joint",
        "wrist_2_joint",
        "wrist_3_joint"
    ],
    "metrics": {
        "cart_traj_len": 0.5767629482022611,
        "distance_elbow_joint": 0.25549888225922257,
        "distance_shoulder_lift_joint": 0.1896951083141929,
        "distance_shoulder_pan_joint": 0.49524829610643106,
        "distance_wrist_1_joint": 0.06637363262761942,
        "distance_wrist_2_joint": 1.063314901697038,
        "distance_wrist_3_joint": 0.06483542419308552,
        "smoothness": 0.0,
        "time": 0.016032911,
        "traj_len": 1.4611523689189947,
        "weighted_distance": 1.8423695687642092
    },
    "planner": "TRRT",
    "start": {
        "state": {
            "elbow_joint": 2.010868314990456,
            "shoulder_lift_joint": -1.1634956873337592,
            "shoulder_pan_joint": -2.4736205022346125,
            "wrist_1_joint": -0.8367026794202681,
            "wrist_2_joint": 0.6746043897044499,
            "wrist_3_joint": -3.1496632123970403
        }
    },
    "waypoints": [
        {
            "positions": [
                -2.4736205022346125,
                -1.1634956873337592,
                2.010868314990456,
                -0.8367026794202681,
                0.6746043897044499,
                -3.1496632123970403
            ]
        },
        {
            "positions": [
                -2.5561618849190175,
                -1.1318798359480604,
                1.968285167947252,
                -0.8256404073156649,
                0.8518235399872895,
                -3.138857308364859
            ]
        },
        {
            "positions": [
                -2.638703267603423,
                -1.1002639845623616,
                1.9257020209040483,
                -0.8145781352110616,
                1.0290426902701293,
                -3.1280514043326786
            ]
        },
        {
            "positions": [
                -2.721244650287828,
                -1.0686481331766626,
                1.8831188738608446,
                -0.8035158631064584,
                1.206261840552969,
                -3.1172455003004975
            ]
        },
        {
            "positions": [
                -2.803786032972233,
                -1.0370322817909639,
                1.8405357268176408,
                -0.7924535910018552,
                1.3834809908358086,
                -3.1064395962683164
            ]
        },
        {
            "positions": [
                -2.8863274156566385,
                -1.005416430405265,
                1.797952579774437,
                -0.7813913188972519,
                1.5607001411186483,
                -3.095633692236136
            ]
        },
        {
            "positions": [
                -2.9688687983410436,
                -0.9738005790195663,
                1.7553694327312332,
                -0.7703290467926487,
                1.737919291401488,
                -3.0848277882039548
            ]
        }
    ]
}