{
    "goal": {
        "global_pose": {
            "orientation": {
                "w": 0.5084816262002911,
                "x": -0.4908360881923452,
                "y": 0.5182115481033761,
                "z": -0.48164630358495003
            },
            "position": {
                "x": 0.5540239810943604,
                "y": -0.46912469901144505,
                "z": 0.16403168439865112
            }
        },
        "name": "move_to_storage_B"
    },
    "id": "TRRT_move_to_storage_B_94",
    "joint_names": [
        "shoulder_pan_joint",
        "shoulder_lift_joint",
        "elbow_joint",
        "wrist_1_joint",
        "wrist_2_joint",
        "wrist_3_joint"
    ],
    "metrics": {
        "cart_traj_len": 0.9073367264428385,
        "distance_elbow_joint": 1.3880870212699445,
        "distance_shoulder_lift_joint": 0.7037028991075824,
        "distance_shoulder_pan_joint": 0.679480074024896,
        "distance_wrist_1_joint": 2.9987420511376612,
        "distance_wrist_2_joint": 2.715753015079932,
        "distance_wrist_3_joint": 3.179247836069227,
        "smoothness": 0.5085352932740027,
        "time": 0.07525573,
        "traj_len": 3.41540815960395,
        "weighted_distance": 4.872166215867978
    },
    "planner": "TRRT",
    "start": {
        "state": {
            "elbow_joint": 1.664937868594044,
            "shoulder_lift_joint": -0.661644460510453,
            "shoulder_pan_joint": -0.9139846352900073,
            "wrist_1_joint": 2.146753192139373,
            "wrist_2_joint": -2.2341966793290973,
            "wrist_3_joint": 0.005466555786416001
        }
    },
    "waypoints": [
        {
            "positions": [
                -0.9139846352900073,
                -0.661644460510453,
                1.664937868594044,
                2.146753192139373,
                -2.2341966793290973,
                0.005466555786416001
            ]
        },
        {
            "positions": [
                -0.8444047179741825,
                -0.7221667512789391,
                1.7116240270957146,
                2.150916617064463,
                -2.153129036543271,
                -0.007355876619875987
            ]
        },
        {
            "positions": [
                -0.7748248006583576,
                -0.7826890420474254,
                1.7583101855973853,
                2.155080041989553,
                -2.0720613937574446,
                -0.020178309026167976
            ]
        },
        {
            "positions": [
                -0.7527786105452754,
                -0.7582443014128657,
                1.6545433272235701,
                2.07798508337861,
                -1.988236733372596,
                -0.0093510390608967
            ]
        },
        {
            "positions": [
                -0.7307324204321931,
                -0.733799560778306,
                1.550776468849755,
                2.0008901247676674,
                -1.9044120729877474,
                0.0014762309043745772
            ]
        },
        {
            "positions": [
                -0.7086862303191109,
                -0.7093548201437462,
                1.44700961047594,
                1.9237951661567247,
                -1.820587412602899,
                0.01230350086964585
            ]
        },
        {
            "positions": [
                -0.6866400402060286,
                -0.6849100795091865,
                1.3432427521021248,
                1.8467002075457821,
                -1.7367627522180502,
                0.02313077083491713
            ]
        },
        {
            "positions": [
                -0.6645938500929465,
                -0.6604653388746268,
                1.2394758937283097,
                1.7696052489348393,
                -1.6529380918332017,
                0.033958040800188403
            ]
        },
        {
            "positions": [
                -0.6825142371274396,
                -0.6796501144745356,
                1.2718042442448734,
                1.661066065258474,
                -1.5640008240172003,
                0.1631024833597837
            ]
        },
        {
            "positions": [
                -0.7004346241619327,
                -0.6988348900744444,
                1.304132594761437,
                1.5525268815821087,
                -1.4750635562011987,
                0.29224692591937895
            ]
        },
        {
            "positions": [
                -0.7183550111964259,
                -0.7180196656743532,
                1.3364609452780005,
                1.4439876979057433,
                -1.386126288385197,
                0.42139136847897424
            ]
        },
        {
            "positions": [
                -0.736275398230919,
                -0.737204441274262,
                1.3687892957945642,
                1.3354485142293782,
                -1.2971890205691956,
                0.5505358110385695
            ]
        },
        {
            "positions": [
                -0.7541957852654121,
                -0.7563892168741708,
                1.401117646311128,
                1.2269093305530125,
                -1.2082517527531942,
                0.6796802535981649
            ]
        },
        {
            "positions": [
                -0.7721161722999053,
                -0.7755739924740797,
                1.4334459968276916,
                1.1183701468766474,
                -1.1193144849371925,
                0.8088246961577601
            ]
        },
        {
            "positions": [
                -0.7900365593343984,
                -0.7947587680739885,
                1.4657743473442553,
                1.009830963200282,
                -1.030377217121191,
                0.9379691387173554
            ]
        },
        {
            "positions": [
                -0.8079569463688915,
                -0.8139435436738972,
                1.4981026978608187,
                0.9012917795239168,
                -0.9414399493051895,
                1.0671135812769508
            ]
        },
        {
            "positions": [
                -0.8258773334033847,
                -0.833128319273806,
                1.5304310483773826,
                0.7927525958475514,
                -0.852502681489188,
                1.1962580238365461
            ]
        },
        {
            "positions": [
                -0.8437977204378778,
                -0.8523130948737149,
                1.562759398893946,
                0.684213412171186,
                -0.7635654136731864,
                1.3254024663961415
            ]
        },
        {
            "positions": [
                -0.8617181074723709,
                -0.8714978704736237,
                1.5950877494105098,
                0.5756742284948209,
                -0.6746281458571849,
                1.4545469089557366
            ]
        },
        {
            "positions": [
                -0.879638494506864,
                -0.8906826460735324,
                1.6274160999270735,
                0.46713504481845547,
                -0.5856908780411834,
                1.583691351515332
            ]
        },
        {
            "positions": [
                -0.8975588815413571,
                -0.9098674216734413,
                1.6597444504436372,
                0.3585958611420903,
                -0.49675361022518194,
                1.712835794074927
            ]
        },
        {
            "positions": [
                -0.9154792685758504,
                -0.9290521972733501,
                1.6920728009602009,
                0.2500566774657247,
                -0.4078163424091803,
                1.8419802366345226
            ]
        },
        {
            "positions": [
                -0.9333996556103434,
                -0.9482369728732589,
                1.7244011514767643,
                0.14151749378935952,
                -0.31887907459317866,
                1.9711246791941177
            ]
        },
        {
            "positions": [
                -0.9513200426448365,
                -0.9674217484731678,
                1.756729501993328,
                0.03297831011299435,
                -0.22994180677717724,
                2.100269121753713
            ]
        },
        {
            "positions": [
                -0.9692404296793298,
                -0.9866065240730766,
                1.7890578525098917,
                -0.07556087356337127,
                -0.1410045389611756,
                2.229413564313308
            ]
        },
        {
            "positions": [
                -0.9871608167138228,
                -1.0057912996729854,
                1.8213862030264554,
                -0.18410005723973644,
                -0.05206727114517418,
                2.3585580068729035
            ]
        },
        {
            "positions": [
                -1.0050812037483159,
                -1.0249760752728942,
                1.853714553543019,
                -0.2926392409161016,
                0.03686999667082724,
                2.4877024494324984
            ]
        },
        {
            "positions": [
                -1.0230015907828092,
                -1.044160850872803,
                1.8860429040595827,
                -0.4011784245924672,
                0.12580726448682888,
                2.616846891992094
            ]
        },
        {
            "positions": [
                -1.0409219778173022,
                -1.0633456264727117,
                1.9183712545761464,
                -0.5097176082688324,
                0.2147445323028303,
                2.745991334551689
            ]
        },
        {
            "positions": [
                -1.0588423648517953,
                -1.0825304020726205,
                1.95069960509271,
                -0.6182567919451976,
                0.30368180011883195,
                2.8751357771112844
            ]
        },
        {
            "positions": [
                -1.0767627518862886,
                -1.1017151776725294,
                1.9830279556092738,
                -0.7267959756215632,
                0.3926190679348336,
                3.0042802196708798
            ]
        },
        {
            "positions": [
                -1.0946831389207816,
                -1.1208999532724382,
                2.0153563061258373,
                -0.8353351592979281,
                0.48155633575083506,
                3.133424662230475
            ]
        }
    ]
}