{
    "goal": {
        "global_pose": {
            "orientation": {
                "w": 0.7047431468963623,
                "x": -0.7094548344612122,
                "y": 0.0024358443915843964,
                "z": -0.0022348060738295317
            },
            "position": {
                "x": 0.6094750761985779,
                "y": 0.3671506643295288,
                "z": 0.19426114857196808
            }
        },
        "name": "move_to_magneteinheit_A"
    },
    "id": "TRRT_move_to_magneteinheit_A_106",
    "joint_names": [
        "shoulder_pan_joint",
        "shoulder_lift_joint",
        "elbow_joint",
        "wrist_1_joint",
        "wrist_2_joint",
        "wrist_3_joint"
    ],
    "metrics": {
        "cart_traj_len": 3.2727551590714876,
        "distance_elbow_joint": 3.928814284934528,
        "distance_shoulder_lift_joint": 0.459544262122105,
        "distance_shoulder_pan_joint": 2.9831552058768738,
        "distance_wrist_1_joint": 3.528435395213898,
        "distance_wrist_2_joint": 1.819481828333371,
        "distance_wrist_3_joint": 1.3070177007888868,
        "smoothness": 0.11365114152713329,
        "time": 0.166822311,
        "traj_len": 3.745190072248625,
        "weighted_distance": 4.689179171496297
    },
    "planner": "TRRT",
    "start": {
        "state": {
            "elbow_joint": -1.9196185241190666,
            "shoulder_lift_joint": -1.2443396400964142,
            "shoulder_pan_joint": 2.6996025414629847,
            "wrist_1_joint": -1.5485510000780065,
            "wrist_2_joint": -1.5709468930060704,
            "wrist_3_joint": 0.4420197071253992
        }
    },
    "waypoints": [
        {
            "positions": [
                2.6996025414629847,
                -1.2443396400964142,
                -1.9196185241190666,
                -1.5485510000780065,
                -1.5709468930060704,
                0.4420197071253992
            ]
        },
        {
            "positions": [
                2.603725745992891,
                -1.2385630946752428,
                -1.817302144825883,
                -1.4557997130944471,
                -1.5145599506489438,
                0.41068082524400756
            ]
        },
        {
            "positions": [
                2.5078489505227974,
                -1.2327865492540717,
                -1.7149857655326997,
                -1.363048426110888,
                -1.4581730082918172,
                0.379341943362616
            ]
        },
        {
            "positions": [
                2.4119721550527036,
                -1.2270100038329004,
                -1.612669386239516,
                -1.2702971391273286,
                -1.4017860659346904,
                0.3480030614812244
            ]
        },
        {
            "positions": [
                2.31609535958261,
                -1.2212334584117293,
                -1.5103530069463325,
                -1.1775458521437694,
                -1.3453991235775637,
                0.31666417959983284
            ]
        },
        {
            "positions": [
                2.2202185641125163,
                -1.215456912990558,
                -1.4080366276531489,
                -1.08479456516021,
                -1.2890121812204371,
                0.2853252977184412
            ]
        },
        {
            "positions": [
                2.124341768642423,
                -1.2096803675693868,
                -1.3057202483599655,
                -0.9920432781766507,
                -1.2326252388633105,
                0.2539864158370496
            ]
        },
        {
            "positions": [
                2.028464973172329,
                -1.2039038221482155,
                -1.2034038690667819,
                -0.8992919911930914,
                -1.1762382965061837,
                0.22264753395565803
            ]
        },
        {
            "positions": [
                1.9325881777022351,
                -1.1981272767270443,
                -1.1010874897735983,
                -0.8065407042095322,
                -1.1198513541490571,
                0.19130865207426645
            ]
        },
        {
            "positions": [
                1.8367113822321417,
                -1.192350731305873,
                -0.9987711104804148,
                -0.7137894172259728,
                -1.0634644117919305,
                0.15996977019287484
            ]
        },
        {
            "positions": [
                1.7408345867620478,
                -1.1865741858847019,
                -0.8964547311872311,
                -0.6210381302424135,
                -1.007077469434804,
                0.12863088831148323
            ]
        },
        {
            "positions": [
                1.6449577912919542,
                -1.1807976404635305,
                -0.7941383518940477,
                -0.5282868432588543,
                -0.9506905270776773,
                0.09729200643009167
            ]
        },
        {
            "positions": [
                1.5490809958218605,
                -1.1750210950423594,
                -0.6918219726008641,
                -0.43553555627529494,
                -0.8943035847205506,
                0.06595312454870011
            ]
        },
        {
            "positions": [
                1.453204200351767,
                -1.169244549621188,
                -0.5895055933076805,
                -0.34278426929173555,
                -0.837916642363424,
                0.034614242667308504
            ]
        },
        {
            "positions": [
                1.357327404881673,
                -1.163468004200017,
                -0.4871892140144971,
                -0.2500329823081764,
                -0.7815297000062973,
                0.003275360785916892
            ]
        },
        {
            "positions": [
                1.2614506094115794,
                -1.1576914587788456,
                -0.3848728347213135,
                -0.157281695324617,
                -0.7251427576491706,
                -0.02806352109547472
            ]
        },
        {
            "positions": [
                1.1655738139414857,
                -1.1519149133576745,
                -0.2825564554281301,
                -0.06453040834105783,
                -0.668755815292044,
                -0.059402402976866275
            ]
        },
        {
            "positions": [
                1.0696970184713923,
                -1.1461383679365031,
                -0.18024007613494653,
                0.028220878642501335,
                -0.6123688729349175,
                -0.09074128485825783
            ]
        },
        {
            "positions": [
                0.9738202230012984,
                -1.140361822515332,
                -0.07792369684176292,
                0.12097216562606095,
                -0.5559819305777907,
                -0.1220801667396495
            ]
        },
        {
            "positions": [
                0.8779434275312048,
                -1.1345852770941607,
                0.024392682451420455,
                0.2137234526096201,
                -0.49959498822066406,
                -0.15341904862104105
            ]
        },
        {
            "positions": [
                0.7820666320611109,
                -1.1288087316729896,
                0.1267090617446045,
                0.3064747395931795,
                -0.44320804586353746,
                -0.18475793050243272
            ]
        },
        {
            "positions": [
                0.6861898365910175,
                -1.1230321862518182,
                0.22902544103778766,
                0.39922602657673867,
                -0.38682110350641086,
                -0.21609681238382428
            ]
        },
        {
            "positions": [
                0.5903130411209236,
                -1.117255640830647,
                0.33134182033097126,
                0.49197731356029784,
                -0.33043416114928426,
                -0.24743569426521583
            ]
        },
        {
            "positions": [
                0.4944362456508298,
                -1.1114790954094758,
                0.43365819962415486,
                0.5847286005438572,
                -0.27404721879215743,
                -0.2787745761466074
            ]
        },
        {
            "positions": [
                0.39855945018073635,
                -1.1057025499883046,
                0.5359745789173385,
                0.6774798875274166,
                -0.21766027643503083,
                -0.31011345802799894
            ]
        },
        {
            "positions": [
                0.30268265471064293,
                -1.0999260045671333,
                0.6382909582105216,
                0.770231174510976,
                -0.16127333407790423,
                -0.3414523399093905
            ]
        },
        {
            "positions": [
                0.20680585924054906,
                -1.094149459145962,
                0.7406073375037057,
                0.8629824614945354,
                -0.10488639172077763,
                -0.37279122179078217
            ]
        },
        {
            "positions": [
                0.1109290637704552,
                -1.0883729137247908,
                0.8429237167968888,
                0.9557337484780943,
                -0.048499449363651026,
                -0.4041301036721737
            ]
        },
        {
            "positions": [
                0.015052268300361327,
                -1.0825963683036197,
                0.9452400960900724,
                1.0484850354616537,
                0.007887492993475798,
                -0.4354689855535654
            ]
        },
        {
            "positions": [
                -0.08082452716973197,
                -1.0768198228824484,
                1.0475564753832558,
                1.1412363224452133,
                0.06427443535060232,
                -0.46680786743495695
            ]
        },
        {
            "positions": [
                -0.07611085648193791,
                -1.0509457578342187,
                1.149929773918889,
                1.2321661836929108,
                0.05786713948324713,
                -0.4309788642638378
            ]
        },
        {
            "positions": [
                -0.07139718579414384,
                -1.025071692785989,
                1.2523030724545223,
                1.323096044940608,
                0.05145984361589195,
                -0.39514986109271866
            ]
        },
        {
            "positions": [
                -0.06668351510634977,
                -0.9991976277377596,
                1.3546763709901555,
                1.4140259061883054,
                0.04505254774853676,
                -0.35932085792159946
            ]
        },
        {
            "positions": [
                -0.03525232757622047,
                -0.9634639194438511,
                1.4637629359610398,
                1.5083356543462365,
                0.01754611235276452,
                -0.31087033846907064
            ]
        },
        {
            "positions": [
                -0.0038211400460911593,
                -0.9277302111499428,
                1.572849500931924,
                1.6026454025041676,
                -0.009960323043007716,
                -0.26241981901654177
            ]
        },
        {
            "positions": [
                0.027610047484038155,
                -0.8919965028560344,
                1.6819360659028084,
                1.6969551506620988,
                -0.03746675843877996,
                -0.21396929956401292
            ]
        },
        {
            "positions": [
                0.059041235014167456,
                -0.856262794562126,
                1.7910226308736927,
                1.79126489882003,
                -0.06497319383455219,
                -0.16551878011148408
            ]
        },
        {
            "positions": [
                0.09047242254429678,
                -0.8205290862682175,
                1.900109195844577,
                1.885574646977961,
                -0.09247962923032443,
                -0.11706826065895523
            ]
        },
        {
            "positions": [
                0.1219036100744261,
                -0.7847953779743092,
                2.0091957608154614,
                1.9798843951358922,
                -0.11998606462609668,
                -0.0686177412064264
            ]
        }
    ]
}