{
    "goal": {
        "global_pose": {
            "orientation": {
                "w": -0.4816463035849501,
                "x": 0.5182115481033762,
                "y": 0.4908360881923453,
                "z": -0.5084816262002911
            },
            "position": {
                "x": -0.8240239810943604,
                "y": -0.300875300988555,
                "z": 0.16403168439865112
            }
        },
        "name": "move_to_storage_C"
    },
    "id": "TRRT_move_to_storage_C_1",
    "joint_names": [
        "shoulder_pan_joint",
        "shoulder_lift_joint",
        "elbow_joint",
        "wrist_1_joint",
        "wrist_2_joint",
        "wrist_3_joint"
    ],
    "metrics": {
        "cart_traj_len": 0.5773789211073452,
        "distance_elbow_joint": 0.2562750779108809,
        "distance_shoulder_lift_joint": 0.18983533949618947,
        "distance_shoulder_pan_joint": 0.49598815132746665,
        "distance_wrist_1_joint": 0.06540520700547259,
        "distance_wrist_2_joint": 1.0597768595702024,
        "distance_wrist_3_joint": 0.05870975530121525,
        "smoothness": 0.0,
        "time": 0.026603997,
        "traj_len": 1.4580776353169358,
        "weighted_distance": 1.8353724329926973
    },
    "planner": "TRRT",
    "start": {
        "state": {
            "elbow_joint": 2.010868314990456,
            "shoulder_lift_joint": -1.1634956873337592,
            "shoulder_pan_joint": -2.4736205022346125,
            "wrist_1_joint": -0.8367026794202681,
            "wrist_2_joint": 0.6746043897044499,
            "wrist_3_joint": -3.1496632123970403
        }
    },
    "waypoints": [
        {
            "positions": [
                -2.4736205022346125,
                -1.1634956873337592,
                2.010868314990456,
                -0.8367026794202681,
                0.6746043897044499,
                -3.1496632123970403
            ]
        },
        {
            "positions": [
                -2.5562851941225238,
                -1.1318564640843942,
                1.968155802005309,
                -0.8258018115860226,
                0.8512338662994836,
                -3.139878253180171
            ]
        },
        {
            "positions": [
                -2.6389498860104346,
                -1.1002172408350295,
                1.9254432890201623,
                -0.8149009437517772,
                1.0278633428945174,
                -3.1300932939633017
            ]
        },
        {
            "positions": [
                -2.721614577898346,
                -1.0685780175856645,
                1.8827307760350154,
                -0.8040000759175319,
                1.204492819489551,
                -3.120308334746433
            ]
        },
        {
            "positions": [
                -2.804279269786257,
                -1.0369387943362995,
                1.8400182630498685,
                -0.7930992080832864,
                1.3811222960845848,
                -3.1105233755295636
            ]
        },
        {
            "positions": [
                -2.886943961674168,
                -1.0052995710869346,
                1.7973057500647218,
                -0.7821983402490409,
                1.5577517726796186,
                -3.1007384163126943
            ]
        },
        {
            "positions": [
                -2.969608653562079,
                -0.9736603478375697,
                1.754593237079575,
                -0.7712974724147955,
                1.7343812492746524,
                -3.090953457095825
            ]
        }
    ]
}