{
    "goal": {
        "global_pose": {
            "orientation": {
                "w": -0.00223480608172531,
                "x": 0.0024358444001904467,
                "y": 0.7094548369677653,
                "z": -0.704743149386269
            },
            "position": {
                "x": 0.6205249238014221,
                "y": -0.6371506643295288,
                "z": 0.19426114857196808
            }
        },
        "name": "move_to_magneteinheit_B"
    },
    "id": "TRRT_move_to_magneteinheit_B_120",
    "joint_names": [
        "shoulder_pan_joint",
        "shoulder_lift_joint",
        "elbow_joint",
        "wrist_1_joint",
        "wrist_2_joint",
        "wrist_3_joint"
    ],
    "metrics": {
        "cart_traj_len": 3.846175897323102,
        "distance_elbow_joint": 1.7075097855056922,
        "distance_shoulder_lift_joint": 3.6783238517791794,
        "distance_shoulder_pan_joint": 2.9081954044694993,
        "distance_wrist_1_joint": 1.2977859624092556,
        "distance_wrist_2_joint": 4.774466760430782,
        "distance_wrist_3_joint": 3.4655384853171203,
        "smoothness": 0.8527575263453381,
        "time": 0.10768965500000001,
        "traj_len": 4.222773999388497,
        "weighted_distance": 5.552940657290136
    },
    "planner": "TRRT",
    "start": {
        "state": {
            "elbow_joint": 2.6216224122426386,
            "shoulder_lift_joint": -1.4174107377796124,
            "shoulder_pan_joint": 0.7066234856936794,
            "wrist_1_joint": 1.9546482284002225,
            "wrist_2_joint": -0.7096286983471962,
            "wrist_3_joint": 0.005740856962016249
        }
    },
    "waypoints": [
        {
            "positions": [
                0.7066234856936794,
                -1.4174107377796124,
                2.6216224122426386,
                1.9546482284002225,
                -0.7096286983471962,
                0.005740856962016249
            ]
        },
        {
            "positions": [
                0.5976891070424494,
                -1.4156730297685147,
                2.5786099125974475,
                1.9608697312720649,
                -0.6415511211415771,
                -0.08273030695943649
            ]
        },
        {
            "positions": [
                0.4887547283912193,
                -1.413935321757417,
                2.5355974129522565,
                1.9670912341439073,
                -0.573473543935958,
                -0.17120147088088922
            ]
        },
        {
            "positions": [
                0.5017570599298068,
                -1.4621455364029996,
                2.59469005587126,
                1.9242163376057118,
                -0.5436957992743331,
                -0.3714389248597894
            ]
        },
        {
            "positions": [
                0.5147593914683943,
                -1.5103557510485823,
                2.653782698790263,
                1.8813414410675162,
                -0.5139180546127083,
                -0.5716763788386896
            ]
        },
        {
            "positions": [
                0.5277617230069818,
                -1.5585659656941648,
                2.7128753417092666,
                1.8384665445293207,
                -0.4841403099510835,
                -0.7719138328175899
            ]
        },
        {
            "positions": [
                0.5655488672661656,
                -1.6407598812572681,
                2.6348654655383767,
                1.8116562135105287,
                -0.3965631830023779,
                -0.8318424785417887
            ]
        },
        {
            "positions": [
                0.6033360115253493,
                -1.7229537968203714,
                2.556855589367487,
                1.7848458824917368,
                -0.3089860560536723,
                -0.8917711242659876
            ]
        },
        {
            "positions": [
                0.6411231557845332,
                -1.8051477123834747,
                2.478845713196597,
                1.7580355514729447,
                -0.22140892910496668,
                -0.9516997699901864
            ]
        },
        {
            "positions": [
                0.6789103000437169,
                -1.887341627946578,
                2.4008358370257072,
                1.7312252204541527,
                -0.13383180215626111,
                -1.0116284157143853
            ]
        },
        {
            "positions": [
                0.7166974443029007,
                -1.9695355435096813,
                2.322825960854818,
                1.7044148894353608,
                -0.04625467520755555,
                -1.071557061438584
            ]
        },
        {
            "positions": [
                0.7544845885620846,
                -2.0517294590727846,
                2.244816084683928,
                1.6776045584165686,
                0.041322451741150124,
                -1.131485707162783
            ]
        },
        {
            "positions": [
                0.7922717328212683,
                -2.133923374635888,
                2.166806208513038,
                1.6507942273977767,
                0.1288995786898557,
                -1.1914143528869818
            ]
        },
        {
            "positions": [
                0.8300588770804521,
                -2.216117290198991,
                2.0887963323421483,
                1.6239838963789848,
                0.21647670563856125,
                -1.2513429986111806
            ]
        },
        {
            "positions": [
                0.867846021339636,
                -2.2983112057620945,
                2.0107864561712585,
                1.5971735653601928,
                0.3040538325872668,
                -1.3112716443353796
            ]
        },
        {
            "positions": [
                0.9056331655988197,
                -2.3805051213251978,
                1.9327765800003687,
                1.570363234341401,
                0.3916309595359724,
                -1.3712002900595786
            ]
        },
        {
            "positions": [
                0.9434203098580035,
                -2.462699036888301,
                1.854766703829479,
                1.5435529033226087,
                0.47920808648467805,
                -1.4311289357837773
            ]
        },
        {
            "positions": [
                0.9812074541171873,
                -2.5448929524514043,
                1.7767568276585892,
                1.5167425723038168,
                0.5667852134333837,
                -1.491057581507976
            ]
        },
        {
            "positions": [
                1.018994598376371,
                -2.6270868680145076,
                1.6987469514876994,
                1.4899322412850249,
                0.6543623403820893,
                -1.5509862272321748
            ]
        },
        {
            "positions": [
                1.0567817426355548,
                -2.709280783577611,
                1.6207370753168098,
                1.4631219102662327,
                0.7419394673307949,
                -1.6109148729563738
            ]
        },
        {
            "positions": [
                1.0945688868947387,
                -2.7914746991407142,
                1.54272719914592,
                1.4363115792474408,
                0.8295165942795004,
                -1.6708435186805728
            ]
        },
        {
            "positions": [
                1.1323560311539225,
                -2.8736686147038175,
                1.46471732297503,
                1.4095012482286489,
                0.917093721228206,
                -1.7307721644047716
            ]
        },
        {
            "positions": [
                1.0536358255999096,
                -2.788471878441872,
                1.4722576629259556,
                1.4374917471036608,
                0.7960266311953068,
                -1.6642711850220666
            ]
        },
        {
            "positions": [
                0.9749156200458966,
                -2.7032751421799266,
                1.4797980028768811,
                1.465482245978673,
                0.6749595411624075,
                -1.5977702056393617
            ]
        },
        {
            "positions": [
                0.8961954144918838,
                -2.6180784059179807,
                1.4873383428278066,
                1.4934727448536849,
                0.5538924511295084,
                -1.5312692262566565
            ]
        },
        {
            "positions": [
                0.8174752089378708,
                -2.5328816696560352,
                1.4948786827787321,
                1.521463243728697,
                0.43282536109660913,
                -1.4647682468739516
            ]
        },
        {
            "positions": [
                0.7387550033838579,
                -2.4476849333940898,
                1.5024190227296577,
                1.549453742603709,
                0.3117582710637099,
                -1.3982672674912466
            ]
        },
        {
            "positions": [
                0.660034797829845,
                -2.3624881971321443,
                1.5099593626805832,
                1.5774442414787209,
                0.19069118103081073,
                -1.3317662881085415
            ]
        },
        {
            "positions": [
                0.5813145922758322,
                -2.277291460870199,
                1.5174997026315087,
                1.605434740353733,
                0.06962409099791156,
                -1.2652653087258368
            ]
        },
        {
            "positions": [
                0.5025943867218192,
                -2.1920947246082534,
                1.5250400425824342,
                1.633425239228745,
                -0.051442999034987724,
                -1.1987643293431316
            ]
        },
        {
            "positions": [
                0.4238741811678063,
                -2.106897988346308,
                1.5325803825333597,
                1.661415738103757,
                -0.17251008906788678,
                -1.1322633499604267
            ]
        },
        {
            "positions": [
                0.34515397561379335,
                -2.021701252084362,
                1.5401207224842852,
                1.689406236978769,
                -0.2935771791007862,
                -1.0657623705777217
            ]
        },
        {
            "positions": [
                0.26643377005978053,
                -1.9365045158224166,
                1.5476610624352107,
                1.717396735853781,
                -0.41464426913368535,
                -0.9992613911950167
            ]
        },
        {
            "positions": [
                0.18771356450576748,
                -1.851307779560471,
                1.5552014023861362,
                1.745387234728793,
                -0.5357113591665845,
                -0.9327604118123116
            ]
        },
        {
            "positions": [
                0.10899335895175466,
                -1.7661110432985256,
                1.562741742337062,
                1.773377733603805,
                -0.6567784491994837,
                -0.8662594324296067
            ]
        },
        {
            "positions": [
                0.030273153397741837,
                -1.6809143070365802,
                1.5702820822879873,
                1.801368232478817,
                -0.7778455392323829,
                -0.7997584530469017
            ]
        },
        {
            "positions": [
                -0.04844705215627099,
                -1.5957175707746347,
                1.577822422238913,
                1.829358731353829,
                -0.898912629265282,
                -0.7332574736641968
            ]
        },
        {
            "positions": [
                -0.12716725771028403,
                -1.510520834512689,
                1.5853627621898385,
                1.857349230228841,
                -1.0199797192981814,
                -0.6667564942814916
            ]
        },
        {
            "positions": [
                -0.20588746326429708,
                -1.4253240982507436,
                1.592903102140764,
                1.885339729103853,
                -1.1410468093310806,
                -0.6002555148987867
            ]
        },
        {
            "positions": [
                -0.2846076688183099,
                -1.3401273619887981,
                1.6004434420916895,
                1.913330227978865,
                -1.2621138993639796,
                -0.5337545355160818
            ]
        },
        {
            "positions": [
                -0.3633278743723227,
                -1.2549306257268527,
                1.607983782042615,
                1.941320726853877,
                -1.383180989396879,
                -0.4672535561333768
            ]
        },
        {
            "positions": [
                -0.44204807992633577,
                -1.1697338894649068,
                1.6155241219935406,
                1.9693112257288892,
                -1.5042480794297783,
                -0.40075257675067166
            ]
        },
        {
            "positions": [
                -0.5207682854803486,
                -1.0845371532029613,
                1.623064461944466,
                1.997301724603901,
                -1.6253151694626773,
                -0.3342515973679667
            ]
        },
        {
            "positions": [
                -0.5994884910343614,
                -0.9993404169410158,
                1.6306048018953916,
                2.025292223478913,
                -1.7463822594955767,
                -0.2677506179852618
            ]
        },
        {
            "positions": [
                -0.6782086965883745,
                -0.9141436806790704,
                1.638145141846317,
                2.053282722353925,
                -1.8674493495284756,
                -0.20124963860255685
            ]
        },
        {
            "positions": [
                -0.7569289021423875,
                -0.8289469444171247,
                1.6456854817972426,
                2.0812732212289373,
                -1.988516439561375,
                -0.13474865921985169
            ]
        },
        {
            "positions": [
                -0.8356491076964003,
                -0.7437502081551792,
                1.6532258217481681,
                2.1092637201039492,
                -2.1095835295942744,
                -0.06824767983714675
            ]
        },
        {
            "positions": [
                -0.9143693132504133,
                -0.6585534718932339,
                1.6607661616990936,
                2.137254218978961,
                -2.2306506196271734,
                -0.0017467004544417547
            ]
        }
    ]
}