{
    "goal": {
        "global_pose": {
            "orientation": {
                "w": 0.5084816262002911,
                "x": -0.4908360881923452,
                "y": 0.5182115481033761,
                "z": -0.48164630358495003
            },
            "position": {
                "x": 0.5540239810943604,
                "y": -0.46912469901144505,
                "z": 0.16403168439865112
            }
        },
        "name": "move_to_storage_B"
    },
    "id": "TRRT_move_to_storage_B_70",
    "joint_names": [
        "shoulder_pan_joint",
        "shoulder_lift_joint",
        "elbow_joint",
        "wrist_1_joint",
        "wrist_2_joint",
        "wrist_3_joint"
    ],
    "metrics": {
        "cart_traj_len": 1.0259851290805861,
        "distance_elbow_joint": 0.34762622843319635,
        "distance_shoulder_lift_joint": 0.6450250035939129,
        "distance_shoulder_pan_joint": 0.35536232164979,
        "distance_wrist_1_joint": 3.4549585813434605,
        "distance_wrist_2_joint": 2.711583130678168,
        "distance_wrist_3_joint": 3.1322635999548623,
        "smoothness": 0.23795069653336115,
        "time": 0.107083283,
        "traj_len": 3.2629463473452014,
        "weighted_distance": 4.80394502233162
    },
    "planner": "TRRT",
    "start": {
        "state": {
            "elbow_joint": 1.664937868594044,
            "shoulder_lift_joint": -0.661644460510453,
            "shoulder_pan_joint": -0.9139846352900073,
            "wrist_1_joint": 2.146753192139373,
            "wrist_2_joint": -2.2341966793290973,
            "wrist_3_joint": 0.005466555786416001
        }
    },
    "waypoints": [
        {
            "positions": [
                -0.9139846352900073,
                -0.661644460510453,
                1.664937868594044,
                2.146753192139373,
                -2.2341966793290973,
                0.005466555786416001
            ]
        },
        {
            "positions": [
                -0.8922632922282804,
                -0.7995709801516402,
                1.716353112770021,
                2.206545530494023,
                -2.1903018055146792,
                0.027116988936467502
            ]
        },
        {
            "positions": [
                -0.8705419491665534,
                -0.9374974997928273,
                1.7677683569459979,
                2.266337868848673,
                -2.1464069317002608,
                0.048767422086519005
            ]
        },
        {
            "positions": [
                -0.8488206061048265,
                -1.0754240194340143,
                1.819183601121975,
                2.326130207203323,
                -2.1025120578858427,
                0.07041785523657051
            ]
        },
        {
            "positions": [
                -0.8270992630430996,
                -1.2133505390752015,
                1.870598845297952,
                2.385922545557973,
                -2.0586171840714247,
                0.09206828838662201
            ]
        },
        {
            "positions": [
                -0.8382858026015529,
                -1.2094622505323196,
                1.8765140641200058,
                2.25193132772777,
                -1.952950365928904,
                0.21897086619306602
            ]
        },
        {
            "positions": [
                -0.8494723421600064,
                -1.205573961989438,
                1.8824292829420595,
                2.117940109897568,
                -1.8472835477863834,
                0.34587344399951003
            ]
        },
        {
            "positions": [
                -0.8606588817184598,
                -1.201685673446556,
                1.8883445017641132,
                1.9839488920673654,
                -1.7416167296438627,
                0.47277602180595407
            ]
        },
        {
            "positions": [
                -0.8718454212769132,
                -1.197797384903674,
                1.8942597205861667,
                1.8499576742371628,
                -1.635949911501342,
                0.5996785996123981
            ]
        },
        {
            "positions": [
                -0.8830319608353667,
                -1.1939090963607923,
                1.9001749394082204,
                1.71596645640696,
                -1.5302830933588214,
                0.7265811774188422
            ]
        },
        {
            "positions": [
                -0.8942185003938201,
                -1.1900208078179104,
                1.906090158230274,
                1.5819752385767578,
                -1.4246162752163007,
                0.8534837552252861
            ]
        },
        {
            "positions": [
                -0.9054050399522735,
                -1.1861325192750285,
                1.9120053770523278,
                1.447984020746555,
                -1.31894945707378,
                0.9803863330317302
            ]
        },
        {
            "positions": [
                -0.916591579510727,
                -1.1822442307321468,
                1.9179205958743815,
                1.3139928029163528,
                -1.2132826389312596,
                1.107288910838174
            ]
        },
        {
            "positions": [
                -0.9277781190691804,
                -1.1783559421892649,
                1.9238358146964352,
                1.18000158508615,
                -1.107615820788739,
                1.2341914886446181
            ]
        },
        {
            "positions": [
                -0.9389646586276338,
                -1.174467653646383,
                1.9297510335184889,
                1.0460103672559475,
                -1.0019490026462183,
                1.3610940664510622
            ]
        },
        {
            "positions": [
                -0.9501511981860873,
                -1.1705793651035012,
                1.9356662523405426,
                0.912019149425745,
                -0.8962821845036977,
                1.487996644257506
            ]
        },
        {
            "positions": [
                -0.9613377377445407,
                -1.1666910765606193,
                1.9415814711625963,
                0.7780279315955425,
                -0.790615366361177,
                1.6148992220639502
            ]
        },
        {
            "positions": [
                -0.9725242773029941,
                -1.1628027880177374,
                1.9474966899846498,
                0.64403671376534,
                -0.6849485482186566,
                1.741801799870394
            ]
        },
        {
            "positions": [
                -0.9837108168614476,
                -1.1589144994748557,
                1.9534119088067035,
                0.5100454959351373,
                -0.5792817300761357,
                1.8687043776768384
            ]
        },
        {
            "positions": [
                -0.994897356419901,
                -1.1550262109319738,
                1.9593271276287572,
                0.37605427810493497,
                -0.47361491193361505,
                1.9956069554832823
            ]
        },
        {
            "positions": [
                -1.0060838959783545,
                -1.1511379223890918,
                1.9652423464508109,
                0.24206306027473268,
                -0.3679480937910946,
                2.122509533289726
            ]
        },
        {
            "positions": [
                -1.0172704355368078,
                -1.1472496338462101,
                1.9711575652728646,
                0.10807184244452994,
                -0.26228127564857373,
                2.2494121110961705
            ]
        },
        {
            "positions": [
                -1.0284569750952612,
                -1.1433613453033282,
                1.9770727840949183,
                -0.025919375385672794,
                -0.1566144575060533,
                2.3763146889026143
            ]
        },
        {
            "positions": [
                -1.0396435146537146,
                -1.1394730567604463,
                1.982988002916972,
                -0.15991059321587509,
                -0.05094763936353264,
                2.503217266709058
            ]
        },
        {
            "positions": [
                -1.050830054212168,
                -1.1355847682175646,
                1.9889032217390255,
                -0.2939018110460778,
                0.05471917877898802,
                2.6301198445155025
            ]
        },
        {
            "positions": [
                -1.0620165937706214,
                -1.1316964796746827,
                1.9948184405610792,
                -0.4278930288762801,
                0.16038599692150868,
                2.7570224223219464
            ]
        },
        {
            "positions": [
                -1.073203133329075,
                -1.1278081911318008,
                2.000733659383133,
                -0.5618842467064828,
                0.26605281506402934,
                2.8839250001283903
            ]
        },
        {
            "positions": [
                -1.0843896728875284,
                -1.123919902588919,
                2.0066488782051866,
                -0.6958754645366856,
                0.37171963320655,
                3.0108275779348346
            ]
        },
        {
            "positions": [
                -1.0955762124459818,
                -1.1200316140460371,
                2.0125640970272403,
                -0.829866682366888,
                0.47738645134907065,
                3.1377301557412784
            ]
        }
    ]
}