{
    "goal": {
        "global_pose": {
            "orientation": {
                "w": -0.4816463035849501,
                "x": 0.5182115481033762,
                "y": 0.4908360881923453,
                "z": -0.5084816262002911
            },
            "position": {
                "x": -0.8240239810943604,
                "y": 0.19912469901144506,
                "z": 0.16403168439865112
            }
        },
        "name": "move_to_storage_D"
    },
    "id": "TRRT_move_to_storage_D_124",
    "joint_names": [
        "shoulder_pan_joint",
        "shoulder_lift_joint",
        "elbow_joint",
        "wrist_1_joint",
        "wrist_2_joint",
        "wrist_3_joint"
    ],
    "metrics": {
        "cart_traj_len": 3.9805310318475366,
        "distance_elbow_joint": 4.21512534455998,
        "distance_shoulder_lift_joint": 1.2635533496472142,
        "distance_shoulder_pan_joint": 2.811704578930105,
        "distance_wrist_1_joint": 2.62559251800093,
        "distance_wrist_2_joint": 0.8693916944840903,
        "distance_wrist_3_joint": 3.126325774353773,
        "smoothness": 0.051475570594601096,
        "time": 0.42722634299999995,
        "traj_len": 3.861566166722524,
        "weighted_distance": 4.965816047858465
    },
    "planner": "TRRT",
    "start": {
        "state": {
            "elbow_joint": -2.384821988534728,
            "shoulder_lift_joint": -2.2788054721415256,
            "shoulder_pan_joint": -0.1854694642142757,
            "wrist_1_joint": 1.4845938289331202,
            "wrist_2_joint": 0.17898776772866878,
            "wrist_3_joint": 0.037105688729662994
        }
    },
    "waypoints": [
        {
            "positions": [
                -0.1854694642142757,
                -2.2788054721415256,
                -2.384821988534728,
                1.4845938289331202,
                0.17898776772866878,
                0.037105688729662994
            ]
        },
        {
            "positions": [
                -0.16083633493890753,
                -2.25554481494225,
                -2.3502154596151366,
                1.4833829884467091,
                0.19108483886882438,
                0.02930578635852013
            ]
        },
        {
            "positions": [
                -0.08508285108727892,
                -2.220512176592068,
                -2.245964168519368,
                1.4041783016443918,
                0.2108073170354572,
                -0.052074667563471816
            ]
        },
        {
            "positions": [
                -0.00932936723565031,
                -2.1854795382418857,
                -2.1417128774236,
                1.3249736148420745,
                0.23052979520209,
                -0.13345512148546376
            ]
        },
        {
            "positions": [
                0.06642411661597827,
                -2.1504468998917035,
                -2.0374615863278316,
                1.245768928039757,
                0.2502522733687228,
                -0.2148355754074557
            ]
        },
        {
            "positions": [
                0.1421776004676069,
                -2.1154142615415212,
                -1.9332102952320633,
                1.1665642412374397,
                0.26997475153535555,
                -0.2962160293294477
            ]
        },
        {
            "positions": [
                0.21793108431923547,
                -2.0803816231913386,
                -1.828959004136295,
                1.0873595544351224,
                0.2896972297019884,
                -0.3775964832514396
            ]
        },
        {
            "positions": [
                0.2936845681708641,
                -2.0453489848411563,
                -1.7247077130405266,
                1.008154867632805,
                0.30941970786862116,
                -0.4589769371734316
            ]
        },
        {
            "positions": [
                0.36943805202249275,
                -2.010316346490974,
                -1.6204564219447581,
                0.9289501808304876,
                0.329142186035254,
                -0.5403573910954236
            ]
        },
        {
            "positions": [
                0.44519153587412136,
                -1.975283708140792,
                -1.5162051308489901,
                0.8497454940281703,
                0.3488646642018868,
                -0.6217378450174155
            ]
        },
        {
            "positions": [
                0.5209450197257499,
                -1.9402510697906097,
                -1.4119538397532216,
                0.7705408072258528,
                0.36858714236851964,
                -0.7031182989394075
            ]
        },
        {
            "positions": [
                0.5966985035773784,
                -1.9052184314404275,
                -1.3077025486574534,
                0.6913361204235355,
                0.3883096205351524,
                -0.7844987528613994
            ]
        },
        {
            "positions": [
                0.6724519874290071,
                -1.8701857930902452,
                -1.203451257561685,
                0.6121314336212181,
                0.4080320987017852,
                -0.8658792067833914
            ]
        },
        {
            "positions": [
                0.7482054712806356,
                -1.835153154740063,
                -1.0991999664659167,
                0.5329267468189008,
                0.427754576868418,
                -0.9472596607053833
            ]
        },
        {
            "positions": [
                0.8239589551322644,
                -1.8001205163898808,
                -0.9949486753701482,
                0.45372206001658344,
                0.4474770550350508,
                -1.0286401146273751
            ]
        },
        {
            "positions": [
                0.8997124389838931,
                -1.7650878780396984,
                -0.8906973842743799,
                0.37451737321426615,
                0.4671995332016836,
                -1.1100205685493671
            ]
        },
        {
            "positions": [
                0.9754659228355216,
                -1.7300552396895161,
                -0.7864460931786115,
                0.29531268641194863,
                0.4869220113683164,
                -1.1914010224713592
            ]
        },
        {
            "positions": [
                1.0512194066871503,
                -1.695022601339334,
                -0.6821948020828434,
                0.21610799960963156,
                0.5066444895349491,
                -1.272781476393351
            ]
        },
        {
            "positions": [
                1.1269728905387788,
                -1.6599899629891517,
                -0.5779435109870752,
                0.13690331280731427,
                0.526366967701582,
                -1.354161930315343
            ]
        },
        {
            "positions": [
                1.2027263743904075,
                -1.6249573246389692,
                -0.4736922198913065,
                0.057698626004996534,
                0.5460894458682148,
                -1.435542384237335
            ]
        },
        {
            "positions": [
                1.278479858242036,
                -1.589924686288787,
                -0.36944092879553825,
                -0.02150606079732076,
                0.5658119240348476,
                -1.516922838159327
            ]
        },
        {
            "positions": [
                1.3542333420936645,
                -1.5548920479386048,
                -0.2651896376997702,
                -0.10071074759963805,
                0.5855344022014803,
                -1.5983032920813187
            ]
        },
        {
            "positions": [
                1.4299868259452932,
                -1.5198594095884226,
                -0.16093834660400175,
                -0.17991543440195534,
                0.6052568803681131,
                -1.6796837460033107
            ]
        },
        {
            "positions": [
                1.505740309796922,
                -1.4848267712382404,
                -0.056687055508233275,
                -0.25912012120427286,
                0.6249793585347461,
                -1.7610641999253027
            ]
        },
        {
            "positions": [
                1.5814937936485505,
                -1.4497941328880581,
                0.0475642355875352,
                -0.33832480800659015,
                0.6447018367013788,
                -1.8424446538472947
            ]
        },
        {
            "positions": [
                1.657247277500179,
                -1.414761494537876,
                0.15181552668330323,
                -0.41752949480890744,
                0.6644243148680116,
                -1.9238251077692865
            ]
        },
        {
            "positions": [
                1.7330007613518077,
                -1.3797288561876937,
                0.2560668177790717,
                -0.49673418161122473,
                0.6841467930346443,
                -2.0052055616912785
            ]
        },
        {
            "positions": [
                1.8087542452034364,
                -1.3446962178375113,
                0.36031810887484017,
                -0.5759388684135422,
                0.7038692712012773,
                -2.0865860156132707
            ]
        },
        {
            "positions": [
                1.884507729055065,
                -1.309663579487329,
                0.4645693999706082,
                -0.6551435552158593,
                0.72359174936791,
                -2.1679664695352625
            ]
        },
        {
            "positions": [
                1.9602612129066936,
                -1.2746309411371466,
                0.5688206910663767,
                -0.7343482420181768,
                0.7433142275345428,
                -2.2493469234572547
            ]
        },
        {
            "positions": [
                2.036014696758322,
                -1.2395983027869646,
                0.6730719821621447,
                -0.8135529288204939,
                0.7630367057011755,
                -2.3307273773792465
            ]
        },
        {
            "positions": [
                2.1117681806099506,
                -1.2045656644367821,
                0.7773232732579136,
                -0.8927576156228119,
                0.7827591838678085,
                -2.4121078313012387
            ]
        },
        {
            "positions": [
                2.1875216644615794,
                -1.1695330260866,
                0.8815745643536815,
                -0.9719623024251289,
                0.8024816620344413,
                -2.4934882852232305
            ]
        },
        {
            "positions": [
                2.250195014497901,
                -1.1474928970019873,
                1.0171072488781916,
                -0.9478142471904601,
                0.8376099192027724,
                -2.578592828137642
            ]
        },
        {
            "positions": [
                2.3128683645342223,
                -1.1254527679173747,
                1.1526399334027015,
                -0.9236661919557915,
                0.8727381763711035,
                -2.663697371052053
            ]
        },
        {
            "positions": [
                2.3755417145705437,
                -1.103412638832762,
                1.2881726179272115,
                -0.8995181367211227,
                0.9078664335394346,
                -2.7488019139664646
            ]
        },
        {
            "positions": [
                2.4382150646068648,
                -1.0813725097481492,
                1.4237053024517214,
                -0.875370081486454,
                0.9429946907077658,
                -2.833906456880876
            ]
        },
        {
            "positions": [
                2.5008884146431862,
                -1.0593323806635366,
                1.5592379869762314,
                -0.8512220262517852,
                0.9781229478760969,
                -2.9190109997952876
            ]
        },
        {
            "positions": [
                2.5635617646795077,
                -1.037292251578924,
                1.6947706715007413,
                -0.8270739710171165,
                1.013251205044428,
                -3.0041155427096986
            ]
        },
        {
            "positions": [
                2.626235114715829,
                -1.0152521224943114,
                1.8303033560252515,
                -0.8029259157824478,
                1.0483794622127591,
                -3.08922008562411
            ]
        }
    ]
}