{
    "goal": {
        "global_pose": {
            "orientation": {
                "w": 0.7047431468963623,
                "x": -0.7094548344612122,
                "y": 0.0024358443915843964,
                "z": -0.0022348060738295317
            },
            "position": {
                "x": 0.6094750761985779,
                "y": 0.3671506643295288,
                "z": 0.19426114857196808
            }
        },
        "name": "move_to_magneteinheit_A"
    },
    "id": "TRRT_move_to_magneteinheit_A_130",
    "joint_names": [
        "shoulder_pan_joint",
        "shoulder_lift_joint",
        "elbow_joint",
        "wrist_1_joint",
        "wrist_2_joint",
        "wrist_3_joint"
    ],
    "metrics": {
        "cart_traj_len": 2.9479143114315356,
        "distance_elbow_joint": 3.9248049276633203,
        "distance_shoulder_lift_joint": 0.6221040351271067,
        "distance_shoulder_pan_joint": 2.846848328698129,
        "distance_wrist_1_joint": 3.4907442344819137,
        "distance_wrist_2_joint": 1.4393217281867632,
        "distance_wrist_3_joint": 0.46836049098516774,
        "smoothness": 0.07402872800951193,
        "time": 1.64861671,
        "traj_len": 3.5766162423640586,
        "weighted_distance": 4.3196030708598
    },
    "planner": "TRRT",
    "start": {
        "state": {
            "elbow_joint": -1.9196185241190666,
            "shoulder_lift_joint": -1.2443396400964142,
            "shoulder_pan_joint": 2.6996025414629847,
            "wrist_1_joint": -1.5485510000780065,
            "wrist_2_joint": -1.5709468930060704,
            "wrist_3_joint": 0.4420197071253992
        }
    },
    "waypoints": [
        {
            "positions": [
                2.6996025414629847,
                -1.2443396400964142,
                -1.9196185241190666,
                -1.5485510000780065,
                -1.5709468930060704,
                0.4420197071253992
            ]
        },
        {
            "positions": [
                2.5924460340097935,
                -1.2475947447110496,
                -1.7736419869658382,
                -1.4500768018824388,
                -1.5437654368644884,
                0.4327534855089765
            ]
        },
        {
            "positions": [
                2.485289526556602,
                -1.2508498493256852,
                -1.6276654498126097,
                -1.351602603686871,
                -1.5165839807229062,
                0.42348726389255387
            ]
        },
        {
            "positions": [
                2.378133019103411,
                -1.2541049539403208,
                -1.481688912659381,
                -1.2531284054913032,
                -1.4894025245813243,
                0.4142210422761312
            ]
        },
        {
            "positions": [
                2.2709765116502196,
                -1.2573600585549563,
                -1.3357123755061528,
                -1.1546542072957355,
                -1.4622210684397423,
                0.40495482065970856
            ]
        },
        {
            "positions": [
                2.1638200041970284,
                -1.2606151631695917,
                -1.1897358383529242,
                -1.0561800091001676,
                -1.4350396122981601,
                0.3956885990432859
            ]
        },
        {
            "positions": [
                2.056663496743837,
                -1.2638702677842273,
                -1.0437593011996957,
                -0.9577058109045998,
                -1.4078581561565782,
                0.38642237742686325
            ]
        },
        {
            "positions": [
                1.9495069892906456,
                -1.267125372398863,
                -0.8977827640464673,
                -0.859231612709032,
                -1.380676700014996,
                0.3771561558104406
            ]
        },
        {
            "positions": [
                1.8423504818374545,
                -1.2703804770134983,
                -0.7518062268932388,
                -0.7607574145134643,
                -1.353495243873414,
                0.36788993419401794
            ]
        },
        {
            "positions": [
                1.735193974384263,
                -1.2736355816281337,
                -0.6058296897400104,
                -0.6622832163178964,
                -1.326313787731832,
                0.3586237125775953
            ]
        },
        {
            "positions": [
                1.6280374669310718,
                -1.2768906862427694,
                -0.4598531525867817,
                -0.5638090181223286,
                -1.2991323315902499,
                0.34935749096117263
            ]
        },
        {
            "positions": [
                1.5208809594778805,
                -1.280145790857405,
                -0.3138766154335533,
                -0.46533481992676107,
                -1.271950875448668,
                0.34009126934475
            ]
        },
        {
            "positions": [
                1.4137244520246892,
                -1.2834008954720404,
                -0.16790007828032483,
                -0.36686062173119316,
                -1.2447694193070857,
                0.3308250477283273
            ]
        },
        {
            "positions": [
                1.306567944571498,
                -1.2866560000866758,
                -0.02192354112709638,
                -0.2683864235356255,
                -1.2175879631655038,
                0.3215588261119047
            ]
        },
        {
            "positions": [
                1.1994114371183064,
                -1.2899111047013114,
                0.12405299602613207,
                -0.16991222534005757,
                -1.1904065070239218,
                0.312292604495482
            ]
        },
        {
            "positions": [
                1.0922549296651154,
                -1.293166209315947,
                0.27002953317936074,
                -0.07143802714448988,
                -1.1632250508823399,
                0.30302638287905936
            ]
        },
        {
            "positions": [
                0.9850984222119241,
                -1.2964213139305825,
                0.41600607033258896,
                0.027036171051077806,
                -1.1360435947407577,
                0.29376016126263677
            ]
        },
        {
            "positions": [
                0.8779419147587326,
                -1.2996764185452179,
                0.5619826074858176,
                0.12551036924664571,
                -1.1088621385991755,
                0.28449393964621406
            ]
        },
        {
            "positions": [
                0.7707854073055413,
                -1.3029315231598535,
                0.7079591446390459,
                0.22398456744221362,
                -1.0816806824575935,
                0.27522771802979146
            ]
        },
        {
            "positions": [
                0.6636288998523501,
                -1.3061866277744891,
                0.8539356817922745,
                0.3224587656377813,
                -1.0544992263160116,
                0.2659614964133688
            ]
        },
        {
            "positions": [
                0.5564723923991588,
                -1.3094417323891245,
                0.9999122189455032,
                0.4209329638333492,
                -1.0273177701744296,
                0.2566952747969461
            ]
        },
        {
            "positions": [
                0.4493158849459675,
                -1.31269683700376,
                1.1458887560987314,
                0.5194071620289169,
                -1.0001363140328474,
                0.2474290531805235
            ]
        },
        {
            "positions": [
                0.34215937749277625,
                -1.3159519416183956,
                1.29186529325196,
                0.6178813602244844,
                -0.9729548578912655,
                0.23816283156410084
            ]
        },
        {
            "positions": [
                0.23500287003958498,
                -1.3192070462330312,
                1.4378418304051888,
                0.7163555584200523,
                -0.9457734017496834,
                0.2288966099476782
            ]
        },
        {
            "positions": [
                0.1278463625863936,
                -1.3224621508476666,
                1.5838183675584172,
                0.8148297566156202,
                -0.9185919456081013,
                0.21963038833125553
            ]
        },
        {
            "positions": [
                0.10448880388857748,
                -1.2797512109697267,
                1.6536037101968857,
                0.943983047570424,
                -0.8586450711953881,
                0.19412610907962827
            ]
        },
        {
            "positions": [
                0.08113124519076137,
                -1.2370402710917867,
                1.7233890528353542,
                1.0731363385252277,
                -0.798698196782675,
                0.168621829828001
            ]
        },
        {
            "positions": [
                0.057773686492945245,
                -1.1943293312138468,
                1.7931743954738226,
                1.2022896294800316,
                -0.7387513223699618,
                0.1431175505763737
            ]
        },
        {
            "positions": [
                0.034416127795129134,
                -1.1516183913359066,
                1.8629597381122913,
                1.3314429204348353,
                -0.6788044479572487,
                0.11761327132474644
            ]
        },
        {
            "positions": [
                0.011058569097313009,
                -1.1089074514579667,
                1.9327450807507598,
                1.460596211389639,
                -0.6188575735445354,
                0.09210899207311915
            ]
        },
        {
            "positions": [
                -0.012298989600503095,
                -1.0661965115800267,
                2.0025304233892283,
                1.5897495023444428,
                -0.5589106991318223,
                0.06660471282149188
            ]
        },
        {
            "positions": [
                0.02143770980815709,
                -0.9942675403029732,
                2.0018664283504717,
                1.677860435359309,
                -0.4520893155536936,
                0.04336833865117681
            ]
        },
        {
            "positions": [
                0.05517440921681727,
                -0.9223385690259196,
                2.001202433311715,
                1.765971368374175,
                -0.34526793197556477,
                0.02013196448086174
            ]
        },
        {
            "positions": [
                0.08891110862547746,
                -0.8504095977488659,
                2.0005384382729585,
                1.8540823013890408,
                -0.23844654839743595,
                -0.00310440968945333
            ]
        },
        {
            "positions": [
                0.12264780803413763,
                -0.7784806264718124,
                1.9998744432342017,
                1.942193234403907,
                -0.13162516481930722,
                -0.026340783859768405
            ]
        }
    ]
}