{
    "goal": {
        "global_pose": {
            "orientation": {
                "w": -0.00223480608172531,
                "x": 0.0024358444001904467,
                "y": 0.7094548369677653,
                "z": -0.704743149386269
            },
            "position": {
                "x": -0.37947507619857795,
                "y": -0.6371506643295288,
                "z": 0.19426114857196808
            }
        },
        "name": "move_to_magneteinheit_C"
    },
    "id": "TRRT_move_to_magneteinheit_C_12",
    "joint_names": [
        "shoulder_pan_joint",
        "shoulder_lift_joint",
        "elbow_joint",
        "wrist_1_joint",
        "wrist_2_joint",
        "wrist_3_joint"
    ],
    "metrics": {
        "cart_traj_len": 1.5188368222316755,
        "distance_elbow_joint": 0.8423244727604149,
        "distance_shoulder_lift_joint": 0.7030969827723874,
        "distance_shoulder_pan_joint": 1.1273213083386573,
        "distance_wrist_1_joint": 0.8487927214484904,
        "distance_wrist_2_joint": 0.8599439027942861,
        "distance_wrist_3_joint": 0.408512203334523,
        "smoothness": 0.9139817647853891,
        "time": 4.740481654,
        "traj_len": 2.1886049418405227,
        "weighted_distance": 2.7047647998228204
    },
    "planner": "TRRT",
    "start": {
        "state": {
            "elbow_joint": 1.9565354010623817,
            "shoulder_lift_joint": -1.4165861575791021,
            "shoulder_pan_joint": -1.6717766225146293,
            "wrist_1_joint": -0.5286633292919765,
            "wrist_2_joint": 1.472756589071564,
            "wrist_3_joint": -3.1238370188695823
        }
    },
    "waypoints": [
        {
            "positions": [
                -1.6717766225146293,
                -1.4165861575791021,
                1.9565354010623817,
                -0.5286633292919765,
                1.472756589071564,
                -3.1238370188695823
            ]
        },
        {
            "positions": [
                -1.6752853384716457,
                -1.4783000138472941,
                1.8323529454918244,
                -0.5446577890588665,
                1.48128613260749,
                -3.058483391320982
            ]
        },
        {
            "positions": [
                -1.6787940544286624,
                -1.540013870115486,
                1.7081704899212669,
                -0.5606522488257565,
                1.4898156761434158,
                -2.993129763772382
            ]
        },
        {
            "positions": [
                -1.6823027703856788,
                -1.601727726383678,
                1.5839880343507096,
                -0.5766467085926466,
                1.4983452196793419,
                -2.9277761362237817
            ]
        },
        {
            "positions": [
                -1.8209938504330037,
                -1.6098525690591705,
                1.6046507876073495,
                -0.683684401942361,
                1.41042483848724,
                -2.9458759995517148
            ]
        },
        {
            "positions": [
                -1.9596849304803283,
                -1.617977411734663,
                1.6253135408639894,
                -0.7907220952920755,
                1.322504457295138,
                -2.9639758628796473
            ]
        },
        {
            "positions": [
                -2.098376010527653,
                -1.6261022544101553,
                1.6459762941206293,
                -0.8977597886417901,
                1.2345840761030362,
                -2.9820757262075803
            ]
        },
        {
            "positions": [
                -2.237067090574978,
                -1.6342270970856478,
                1.6666390473772692,
                -1.0047974819915044,
                1.1466636949109343,
                -3.000175589535513
            ]
        },
        {
            "positions": [
                -2.3757581706223028,
                -1.6423519397611404,
                1.687301800633909,
                -1.111835175341219,
                1.0587433137188325,
                -3.018275452863446
            ]
        },
        {
            "positions": [
                -2.4408736383400584,
                -1.6059309163213886,
                1.7733402713983266,
                -1.0881835648532225,
                0.9698018389292463,
                -3.04521643115548
            ]
        },
        {
            "positions": [
                -2.5059891060578137,
                -1.5695098928816371,
                1.859378742162744,
                -1.064531954365226,
                0.8808603641396602,
                -3.072157409447515
            ]
        },
        {
            "positions": [
                -2.5711045737755693,
                -1.5330888694418854,
                1.9454172129271612,
                -1.0408803438772298,
                0.7919188893500742,
                -3.0990983877395495
            ]
        },
        {
            "positions": [
                -2.636220041493325,
                -1.4966678460021337,
                2.0314556836915787,
                -1.0172287333892334,
                0.702977414560488,
                -3.1260393660315837
            ]
        },
        {
            "positions": [
                -2.5875876780416465,
                -1.387814679477605,
                2.032437936571002,
                -0.9571565406408772,
                0.6871276514063861,
                -3.1325966398829355
            ]
        },
        {
            "positions": [
                -2.538955314589968,
                -1.2789615129530763,
                2.0334201894504247,
                -0.897084347892521,
                0.6712778882522842,
                -3.1391539137342868
            ]
        },
        {
            "positions": [
                -2.4733421521333634,
                -1.1650207391707912,
                2.013075238501397,
                -0.8462142999419712,
                0.6785658290117347,
                -3.140227456912504
            ]
        }
    ]
}