{
    "goal": {
        "global_pose": {
            "orientation": {
                "w": 0.005598929693374612,
                "x": 0.007748599140229565,
                "y": 0.7110244013736278,
                "z": -0.7031023480610252
            },
            "position": {
                "x": 0.1141497679147869,
                "y": -0.7141253447532654,
                "z": 0.3711530566215515
            }
        },
        "name": "move_to_auspresseinheit_B"
    },
    "id": "TRRT_move_to_auspresseinheit_B_44",
    "joint_names": [
        "shoulder_pan_joint",
        "shoulder_lift_joint",
        "elbow_joint",
        "wrist_1_joint",
        "wrist_2_joint",
        "wrist_3_joint"
    ],
    "metrics": {
        "cart_traj_len": 0.5642948290029877,
        "distance_elbow_joint": 0.06465272201091499,
        "distance_shoulder_lift_joint": 0.29469862641577094,
        "distance_shoulder_pan_joint": 0.576042604000933,
        "distance_wrist_1_joint": 0.33362205541162404,
        "distance_wrist_2_joint": 0.9943575759133123,
        "distance_wrist_3_joint": 0.004072528647927953,
        "smoothness": 2.5376526478085547e-16,
        "time": 0.013794442,
        "traj_len": 1.5058041414475134,
        "weighted_distance": 1.898307351569096
    },
    "planner": "TRRT",
    "start": {
        "state": {
            "elbow_joint": 2.0193083361928714,
            "shoulder_lift_joint": -1.1220246554650708,
            "shoulder_pan_joint": -1.0952077554168747,
            "wrist_1_joint": -0.8559753972642168,
            "wrist_2_joint": 0.4759566250798843,
            "wrist_3_joint": -3.1240929996934557
        }
    },
    "waypoints": [
        {
            "positions": [
                -1.0952077554168747,
                -1.1220246554650708,
                2.0193083361928714,
                -0.8559753972642168,
                0.4759566250798843,
                -3.1240929996934557
            ]
        },
        {
            "positions": [
                -1.1912148560836968,
                -1.1711410932010327,
                2.0085328825243858,
                -0.8003717213622794,
                0.641682887732103,
                -3.123414244918801
            ]
        },
        {
            "positions": [
                -1.287221956750519,
                -1.2202575309369945,
                1.9977574288558997,
                -0.7447680454603421,
                0.8074091503843217,
                -3.122735490144146
            ]
        },
        {
            "positions": [
                -1.3832290574173411,
                -1.2693739686729564,
                1.986981975187414,
                -0.6891643695584048,
                0.9731354130365404,
                -3.1220567353694917
            ]
        },
        {
            "positions": [
                -1.4792361580841633,
                -1.318490406408918,
                1.9762065215189282,
                -0.6335606936564675,
                1.138861675688759,
                -3.121377980594837
            ]
        },
        {
            "positions": [
                -1.5752432587509855,
                -1.3676068441448799,
                1.9654310678504423,
                -0.5779570177545301,
                1.304587938340978,
                -3.120699225820182
            ]
        },
        {
            "positions": [
                -1.6712503594178076,
                -1.4167232818808417,
                1.9546556141819564,
                -0.5223533418525927,
                1.4703142009931967,
                -3.1200204710455277
            ]
        }
    ]
}