{
    "goal": {
        "global_pose": {
            "orientation": {
                "w": 0.7031023502349854,
                "x": -0.7110244035720825,
                "y": 0.007748599164187908,
                "z": 0.005598929710686207
            },
            "position": {
                "x": 0.11585023208521307,
                "y": 0.44412534475326537,
                "z": 0.3711530566215515
            }
        },
        "name": "move_to_auspresseinheit_A"
    },
    "id": "TRRT_move_to_auspresseinheit_A_105",
    "joint_names": [
        "shoulder_pan_joint",
        "shoulder_lift_joint",
        "elbow_joint",
        "wrist_1_joint",
        "wrist_2_joint",
        "wrist_3_joint"
    ],
    "metrics": {
        "cart_traj_len": 0.6804102065387825,
        "distance_elbow_joint": 0.04791712836381068,
        "distance_shoulder_lift_joint": 0.5347160518193725,
        "distance_shoulder_pan_joint": 1.0423873092595486,
        "distance_wrist_1_joint": 0.5439367898061123,
        "distance_wrist_2_joint": 0.5805945394363662,
        "distance_wrist_3_joint": 0.0312876225040144,
        "smoothness": 0.19187924635421533,
        "time": 0.026482432,
        "traj_len": 1.6675849127373468,
        "weighted_distance": 1.9919703851813992
    },
    "planner": "TRRT",
    "start": {
        "state": {
            "elbow_joint": 2.4225746658250005,
            "shoulder_lift_joint": -1.3736534386056498,
            "shoulder_pan_joint": -0.3378633547517467,
            "wrist_1_joint": -1.0288598680537169,
            "wrist_2_joint": 1.233022673432363,
            "wrist_3_joint": -3.0940220416140027
        }
    },
    "waypoints": [
        {
            "positions": [
                -0.3378633547517467,
                -1.3736534386056498,
                2.4225746658250005,
                -1.0288598680537169,
                1.233022673432363,
                -3.0940220416140027
            ]
        },
        {
            "positions": [
                -0.24251224686046335,
                -1.437626789899396,
                2.4163338653390136,
                -0.9504879269869847,
                1.1400699448185194,
                -3.0984949394762538
            ]
        },
        {
            "positions": [
                -0.14716113896917996,
                -1.5016001411931421,
                2.4100930648530268,
                -0.8721159859202525,
                1.0471172162046758,
                -3.1029678373385052
            ]
        },
        {
            "positions": [
                -0.05181003107789656,
                -1.5655734924868883,
                2.40385226436704,
                -0.7937440448535205,
                0.9541644875908321,
                -3.1074407352007563
            ]
        },
        {
            "positions": [
                0.043541076813386814,
                -1.6295468437806344,
                2.397611463881053,
                -0.7153721037867883,
                0.8612117589769884,
                -3.1119136330630073
            ]
        },
        {
            "positions": [
                0.13889218470467024,
                -1.6935201950743806,
                2.391370663395066,
                -0.6370001627200561,
                0.7682590303631447,
                -3.1163865309252587
            ]
        },
        {
            "positions": [
                0.2342432925959536,
                -1.7574935463681267,
                2.3851298629090794,
                -0.5586282216533239,
                0.6753063017493011,
                -3.1208594287875098
            ]
        },
        {
            "positions": [
                0.4693836235518778,
                -1.8329315183965744,
                2.390366025633024,
                -0.5217756499504643,
                0.6867453856259531,
                -3.118634311122256
            ]
        },
        {
            "positions": [
                0.7045239545078019,
                -1.9083694904250224,
                2.395602188356969,
                -0.48492307824760467,
                0.6981844695026053,
                -3.1164091934570024
            ]
        }
    ]
}