{
    "goal": {
        "global_pose": {
            "orientation": {
                "w": -0.4816463035849501,
                "x": 0.5182115481033762,
                "y": 0.4908360881923453,
                "z": -0.5084816262002911
            },
            "position": {
                "x": -0.8240239810943604,
                "y": -0.300875300988555,
                "z": 0.16403168439865112
            }
        },
        "name": "move_to_storage_C"
    },
    "id": "TRRT_move_to_storage_C_112",
    "joint_names": [
        "shoulder_pan_joint",
        "shoulder_lift_joint",
        "elbow_joint",
        "wrist_1_joint",
        "wrist_2_joint",
        "wrist_3_joint"
    ],
    "metrics": {
        "cart_traj_len": 0.5766462435065126,
        "distance_elbow_joint": 0.25372873707858745,
        "distance_shoulder_lift_joint": 0.1889393986353365,
        "distance_shoulder_pan_joint": 0.4947713699258167,
        "distance_wrist_1_joint": 0.06432371173788642,
        "distance_wrist_2_joint": 1.071503585506159,
        "distance_wrist_3_joint": 0.06727656484973465,
        "smoothness": 2.5376526478085547e-16,
        "time": 0.027505606999999998,
        "traj_len": 1.463059591313191,
        "weighted_distance": 1.8468686457561176
    },
    "planner": "TRRT",
    "start": {
        "state": {
            "elbow_joint": 2.010868314990456,
            "shoulder_lift_joint": -1.1634956873337592,
            "shoulder_pan_joint": -2.4736205022346125,
            "wrist_1_joint": -0.8367026794202681,
            "wrist_2_joint": 0.6746043897044499,
            "wrist_3_joint": -3.1496632123970403
        }
    },
    "waypoints": [
        {
            "positions": [
                -2.4736205022346125,
                -1.1634956873337592,
                2.010868314990456,
                -0.8367026794202681,
                0.6746043897044499,
                -3.1496632123970403
            ]
        },
        {
            "positions": [
                -2.556082397222249,
                -1.132005787561203,
                1.9685801921440245,
                -0.825982060797287,
                0.8531883206221431,
                -3.138450451588751
            ]
        },
        {
            "positions": [
                -2.6385442922098847,
                -1.100515887788647,
                1.9262920692975933,
                -0.815261442174306,
                1.0317722515398362,
                -3.127237690780462
            ]
        },
        {
            "positions": [
                -2.7210061871975206,
                -1.069025988016091,
                1.8840039464511622,
                -0.804540823551325,
                1.2103561824575295,
                -3.116024929972173
            ]
        },
        {
            "positions": [
                -2.803468082185157,
                -1.037536088243535,
                1.8417158236047309,
                -0.7938202049283438,
                1.3889401133752224,
                -3.1048121691638837
            ]
        },
        {
            "positions": [
                -2.8859299771727933,
                -1.0060461884709788,
                1.7994277007582995,
                -0.7830995863053627,
                1.5675240442929157,
                -3.093599408355595
            ]
        },
        {
            "positions": [
                -2.968391872160429,
                -0.9745562886984227,
                1.7571395779118684,
                -0.7723789676823817,
                1.746107975210609,
                -3.0823866475473056
            ]
        }
    ]
}