{
    "goal": {
        "global_pose": {
            "orientation": {
                "w": 0.5084816217422485,
                "x": -0.49083608388900757,
                "y": 0.5182115435600281,
                "z": -0.4816462993621826
            },
            "position": {
                "x": 0.5540239810943604,
                "y": 0.030875300988554955,
                "z": 0.16403168439865112
            }
        },
        "name": "move_to_storage_A"
    },
    "id": "TRRT_move_to_storage_A_6",
    "joint_names": [
        "shoulder_pan_joint",
        "shoulder_lift_joint",
        "elbow_joint",
        "wrist_1_joint",
        "wrist_2_joint",
        "wrist_3_joint"
    ],
    "metrics": {
        "cart_traj_len": 0.3525170004915336,
        "distance_elbow_joint": 0.45090172106965576,
        "distance_shoulder_lift_joint": 0.23396225286929795,
        "distance_shoulder_pan_joint": 0.46045001978505634,
        "distance_wrist_1_joint": 0.24657888687257878,
        "distance_wrist_2_joint": 1.0999573112995198,
        "distance_wrist_3_joint": 0.0996085735059542,
        "smoothness": 4.440892133664971e-16,
        "time": 0.02823951,
        "traj_len": 1.6098008465030893,
        "weighted_distance": 2.0340137931159834
    },
    "planner": "TRRT",
    "start": {
        "state": {
            "elbow_joint": 1.971548259319323,
            "shoulder_lift_joint": -1.1394851275133948,
            "shoulder_pan_joint": 0.1228115487234821,
            "wrist_1_joint": -0.7804723859257726,
            "wrist_2_joint": 0.12958671773740124,
            "wrist_3_joint": -3.192489227718131
        }
    },
    "waypoints": [
        {
            "positions": [
                0.1228115487234821,
                -1.1394851275133948,
                1.971548259319323,
                -0.7804723859257726,
                0.12958671773740124,
                -3.192489227718131
            ]
        },
        {
            "positions": [
                0.05703297446847405,
                -1.172908306494723,
                2.0359627909007023,
                -0.8156979411932839,
                0.2867234764944755,
                -3.178259431502995
            ]
        },
        {
            "positions": [
                -0.008745599786533997,
                -1.2063314854760514,
                2.100377322482082,
                -0.8509234964607951,
                0.4438602352515497,
                -3.1640296352878585
            ]
        },
        {
            "positions": [
                -0.07452417404154205,
                -1.2397546644573796,
                2.164791854063461,
                -0.8861490517283064,
                0.6009969940086239,
                -3.149799839072722
            ]
        },
        {
            "positions": [
                -0.1403027482965501,
                -1.273177843438708,
                2.2292063856448405,
                -0.9213746069958176,
                0.7581337527656983,
                -3.135570042857586
            ]
        },
        {
            "positions": [
                -0.20608132255155814,
                -1.3066010224200362,
                2.29362091722622,
                -0.9566001622633289,
                0.9152705115227726,
                -3.1213402466424496
            ]
        },
        {
            "positions": [
                -0.2718598968065662,
                -1.3400242014013646,
                2.358035448807599,
                -0.9918257175308401,
                1.0724072702798466,
                -3.1071104504273133
            ]
        },
        {
            "positions": [
                -0.33763847106157424,
                -1.3734473803826928,
                2.4224499803889787,
                -1.0270512727983514,
                1.229544029036921,
                -3.092880654212177
            ]
        }
    ]
}{
    "goal": {
        "global_pose": {
            "orientation": {
                "w": 0.5084816217422485,
                "x": -0.49083608388900757,
                "y": 0.5182115435600281,
                "z": -0.4816462993621826
            },
            "position": {
                "x": 0.5540239810943604,
                "y": 0.030875300988554955,
                "z": 0.16403168439865112
            }
        },
        "name": "move_to_storage_A"
    },
    "id": "TRRT_move_to_storage_A_6",
    "joint_names": [
        "shoulder_pan_joint",
        "shoulder_lift_joint",
        "elbow_joint",
        "wrist_1_joint",
        "wrist_2_joint",
        "wrist_3_joint"
    ],
    "metrics": {
        "cart_traj_len": 0.35245252124624904,
        "distance_elbow_joint": 0.4509423236667982,
        "distance_shoulder_lift_joint": 0.23268229369614457,
        "distance_shoulder_pan_joint": 0.46080437449103834,
        "distance_wrist_1_joint": 0.2537508158641164,
        "distance_wrist_2_joint": 1.0968035589158018,
        "distance_wrist_3_joint": 0.10649520179222227,
        "smoothness": 2.2204460668324854e-16,
        "time": 0.014414707,
        "traj_len": 1.6129099691012272,
        "weighted_distance": 2.040838883104319
    },
    "planner": "TRRT",
    "start": {
        "state": {
            "elbow_joint": 1.97154746011099,
            "shoulder_lift_joint": -1.13948474672311,
            "shoulder_pan_joint": 0.12281154466712228,
            "wrist_1_joint": -0.7804688027058302,
            "wrist_2_joint": 0.12958655903071145,
            "wrist_3_joint": 3.0906928834467795
        }
    },
    "waypoints": [
        {
            "positions": [
                0.12281154466712228,
                -1.13948474672311,
                1.97154746011099,
                -0.7804688027058302,
                0.12958655903071145,
                3.0906928834467795
            ]
        },
        {
            "positions": [
                0.05698234831125967,
                -1.1727250743939877,
                2.03596779206339,
                -0.8167189192578468,
                0.2862727817329689,
                3.105906483702811
            ]
        },
        {
            "positions": [
                -0.008846848044602937,
                -1.2059654020648656,
                2.1003881240157893,
                -0.8529690358098634,
                0.4429590044352263,
                3.121120083958843
            ]
        },
        {
            "positions": [
                -0.07467604440046556,
                -1.2392057297357433,
                2.1648084559681893,
                -0.8892191523618801,
                0.5996452271374837,
                3.1363336842148746
            ]
        },
        {
            "positions": [
                -0.14050524075632814,
                -1.2724460574066212,
                2.2292287879205888,
                -0.9254692689138967,
                0.7563314498397411,
                3.1515472844709067
            ]
        },
        {
            "positions": [
                -0.2063344371121908,
                -1.305686385077499,
                2.2936491198729887,
                -0.9617193854659134,
                0.9130176725419985,
                3.1667608847269384
            ]
        },
        {
            "positions": [
                -0.2721636334680534,
                -1.3389267127483766,
                2.358069451825388,
                -0.99796950201793,
                1.069703895244256,
                3.18197448498297
            ]
        },
        {
            "positions": [
                -0.33799282982391604,
                -1.3721670404192545,
                2.422489783777788,
                -1.0342196185699466,
                1.2263901179465133,
                3.1971880852390018
            ]
        }
    ]
}{
    "goal": {
        "global_pose": {
            "orientation": {
                "w": 0.5084816217422485,
                "x": -0.49083608388900757,
                "y": 0.5182115435600281,
                "z": -0.4816462993621826
            },
            "position": {
                "x": 0.5540239810943604,
                "y": 0.030875300988554955,
                "z": 0.16403168439865112
            }
        },
        "name": "move_to_storage_A"
    },
    "id": "TRRT_move_to_storage_A_6",
    "joint_names": [
        "shoulder_pan_joint",
        "shoulder_lift_joint",
        "elbow_joint",
        "wrist_1_joint",
        "wrist_2_joint",
        "wrist_3_joint"
    ],
    "metrics": {
        "cart_traj_len": 0.3532770674002565,
        "distance_elbow_joint": 0.4474062261453362,
        "distance_shoulder_lift_joint": 0.2349246143054471,
        "distance_shoulder_pan_joint": 0.4596959912935366,
        "distance_wrist_1_joint": 0.23604635859531498,
        "distance_wrist_2_joint": 1.1084862590676925,
        "distance_wrist_3_joint": 0.09308098327816339,
        "smoothness": 0.0,
        "time": 0.026533099,
        "traj_len": 1.606125908104807,
        "weighted_distance": 2.0273961174138675
    },
    "planner": "TRRT",
    "start": {
        "state": {
            "elbow_joint": 1.9715472970024885,
            "shoulder_lift_joint": -1.1394870060712896,
            "shoulder_pan_joint": 0.12281152778156021,
            "wrist_1_joint": -0.780463741449964,
            "wrist_2_joint": 0.12958659822042276,
            "wrist_3_joint": 3.090690232415272
        }
    },
    "waypoints": [
        {
            "positions": [
                0.12281152778156021,
                -1.1394870060712896,
                1.9715472970024885,
                -0.780463741449964,
                0.12958659822042276,
                3.090690232415272
            ]
        },
        {
            "positions": [
                0.05714067188248356,
                -1.1730476652577821,
                2.035462472166108,
                -0.8141846498207232,
                0.287941778087236,
                3.103987515740724
            ]
        },
        {
            "positions": [
                -0.008530184016593084,
                -1.2066083244442745,
                2.0993776473297276,
                -0.8479055581914825,
                0.4462969579540492,
                3.1172847990661756
            ]
        },
        {
            "positions": [
                -0.07420103991566973,
                -1.240168983630767,
                2.163292822493347,
                -0.8816264665622419,
                0.6046521378208624,
                3.1305820823916277
            ]
        },
        {
            "positions": [
                -0.13987189581474638,
                -1.2737296428172593,
                2.2272079976569663,
                -0.9153473749330011,
                0.7630073176876756,
                3.1438793657170794
            ]
        },
        {
            "positions": [
                -0.20554275171382305,
                -1.3072903020037518,
                2.291123172820586,
                -0.9490682833037605,
                0.9213624975544888,
                3.1571766490425315
            ]
        },
        {
            "positions": [
                -0.2712136076128997,
                -1.3408509611902442,
                2.3550383479842054,
                -0.9827891916745197,
                1.079717677421302,
                3.170473932367983
            ]
        },
        {
            "positions": [
                -0.3368844635119764,
                -1.3744116203767367,
                2.4189535231478247,
                -1.016510100045279,
                1.2380728572881152,
                3.1837712156934352
            ]
        }
    ]
}