{
    "goal": {
        "global_pose": {
            "orientation": {
                "w": 0.7047431468963623,
                "x": -0.7094548344612122,
                "y": 0.0024358443915843964,
                "z": -0.0022348060738295317
            },
            "position": {
                "x": 0.6094750761985779,
                "y": 0.3671506643295288,
                "z": 0.19426114857196808
            }
        },
        "name": "move_to_magneteinheit_A"
    },
    "id": "TRRT_move_to_magneteinheit_A_82",
    "joint_names": [
        "shoulder_pan_joint",
        "shoulder_lift_joint",
        "elbow_joint",
        "wrist_1_joint",
        "wrist_2_joint",
        "wrist_3_joint"
    ],
    "metrics": {
        "cart_traj_len": 3.5761431839569298,
        "distance_elbow_joint": 3.9010666707797403,
        "distance_shoulder_lift_joint": 0.099058311289423,
        "distance_shoulder_pan_joint": 2.6061217324273724,
        "distance_wrist_1_joint": 0.7195599501455878,
        "distance_wrist_2_joint": 1.9277856022558286,
        "distance_wrist_3_joint": 3.598056433019874,
        "smoothness": 0.04251674388467909,
        "time": 0.103631606,
        "traj_len": 3.5849196225184494,
        "weighted_distance": 4.763938194221141
    },
    "planner": "TRRT",
    "start": {
        "state": {
            "elbow_joint": -1.9196185241190666,
            "shoulder_lift_joint": -1.2443396400964142,
            "shoulder_pan_joint": 2.6996025414629847,
            "wrist_1_joint": -1.5485510000780065,
            "wrist_2_joint": -1.5709468930060704,
            "wrist_3_joint": 0.4420197071253992
        }
    },
    "waypoints": [
        {
            "positions": [
                2.6996025414629847,
                -1.2443396400964142,
                -1.9196185241190666,
                -1.5485510000780065,
                -1.5709468930060704,
                0.4420197071253992
            ]
        },
        {
            "positions": [
                2.5975409606425037,
                -1.2415573960331057,
                -1.8124866833017508,
                -1.536677415225578,
                -1.498540011794267,
                0.35337519655923694
            ]
        },
        {
            "positions": [
                2.4954793798220227,
                -1.2387751519697972,
                -1.705354842484435,
                -1.5248038303731495,
                -1.4261331305824638,
                0.2647306859930747
            ]
        },
        {
            "positions": [
                2.3934177990015417,
                -1.2359929079064886,
                -1.5982230016671193,
                -1.5129302455207208,
                -1.3537262493706606,
                0.17608617542691252
            ]
        },
        {
            "positions": [
                2.2913562181810607,
                -1.2332106638431801,
                -1.4910911608498034,
                -1.5010566606682922,
                -1.2813193681588573,
                0.08744166486075028
            ]
        },
        {
            "positions": [
                2.1892946373605797,
                -1.2304284197798716,
                -1.3839593200324876,
                -1.4891830758158637,
                -1.208912486947054,
                -0.001202845705411959
            ]
        },
        {
            "positions": [
                2.0872330565400983,
                -1.227646175716563,
                -1.276827479215172,
                -1.4773094909634352,
                -1.1365056057352505,
                -0.08984735627157414
            ]
        },
        {
            "positions": [
                1.9851714757196173,
                -1.2248639316532544,
                -1.1696956383978558,
                -1.4654359061110065,
                -1.0640987245234472,
                -0.17849186683773643
            ]
        },
        {
            "positions": [
                1.8831098948991363,
                -1.2220816875899458,
                -1.0625637975805402,
                -1.453562321258578,
                -0.9916918433116441,
                -0.2671363774038986
            ]
        },
        {
            "positions": [
                1.7810483140786553,
                -1.2192994435266373,
                -0.9554319567632243,
                -1.4416887364061495,
                -0.9192849620998408,
                -0.3557808879700608
            ]
        },
        {
            "positions": [
                1.6789867332581743,
                -1.2165171994633288,
                -0.8483001159459085,
                -1.429815151553721,
                -0.8468780808880374,
                -0.4444253985362231
            ]
        },
        {
            "positions": [
                1.5769251524376933,
                -1.2137349554000203,
                -0.7411682751285926,
                -1.4179415667012922,
                -0.7744711996762341,
                -0.5330699091023853
            ]
        },
        {
            "positions": [
                1.4748635716172123,
                -1.2109527113367118,
                -0.634036434311277,
                -1.4060679818488637,
                -0.7020643184644308,
                -0.6217144196685475
            ]
        },
        {
            "positions": [
                1.3728019907967313,
                -1.2081704672734033,
                -0.5269045934939609,
                -1.3941943969964352,
                -0.6296574372526276,
                -0.7103589302347096
            ]
        },
        {
            "positions": [
                1.27074040997625,
                -1.2053882232100948,
                -0.41977275267664504,
                -1.3823208121440067,
                -0.5572505560408241,
                -0.799003440800872
            ]
        },
        {
            "positions": [
                1.1686788291557693,
                -1.2026059791467862,
                -0.3126409118593294,
                -1.370447227291578,
                -0.484843674829021,
                -0.887647951367034
            ]
        },
        {
            "positions": [
                1.066617248335288,
                -1.1998237350834777,
                -0.20550907104201355,
                -1.3585736424391495,
                -0.41243679361721775,
                -0.9762924619331964
            ]
        },
        {
            "positions": [
                0.964555667514807,
                -1.1970414910201692,
                -0.09837723022469769,
                -1.346700057586721,
                -0.34002991240541425,
                -1.0649369724993587
            ]
        },
        {
            "positions": [
                0.862494086694326,
                -1.1942592469568607,
                0.00875461059261795,
                -1.3348264727342924,
                -0.2676230311936112,
                -1.1535814830655209
            ]
        },
        {
            "positions": [
                0.760432505873845,
                -1.191477002893552,
                0.11588645140993403,
                -1.3229528878818637,
                -0.1952161499818077,
                -1.242225993631683
            ]
        },
        {
            "positions": [
                0.6583709250533638,
                -1.1886947588302434,
                0.22301829222724967,
                -1.3110793030294352,
                -0.12280926877000442,
                -1.3308705041978452
            ]
        },
        {
            "positions": [
                0.5563093442328828,
                -1.185912514766935,
                0.3301501330445653,
                -1.2992057181770067,
                -0.05040238755820137,
                -1.4195150147640074
            ]
        },
        {
            "positions": [
                0.4542477634124018,
                -1.1831302707036264,
                0.4372819738618814,
                -1.2873321333245782,
                0.02200449365360213,
                -1.5081595253301696
            ]
        },
        {
            "positions": [
                0.3521861825919208,
                -1.180348026640318,
                0.544413814679197,
                -1.2754585484721495,
                0.0944113748654054,
                -1.5968040358963318
            ]
        },
        {
            "positions": [
                0.2501246017714398,
                -1.1775657825770094,
                0.6515456554965127,
                -1.263584963619721,
                0.16681825607720868,
                -1.685448546462494
            ]
        },
        {
            "positions": [
                0.14806302095095875,
                -1.1747835385137009,
                0.7586774963138287,
                -1.2517113787672924,
                0.23922513728901199,
                -1.7740930570286562
            ]
        },
        {
            "positions": [
                0.14305193735808988,
                -1.1711249806662765,
                0.8960165970081646,
                -1.2003082490599208,
                0.22760203734698167,
                -1.9320107569614051
            ]
        },
        {
            "positions": [
                0.13804085376522104,
                -1.167466422818852,
                1.0333556977025005,
                -1.1489051193525495,
                0.21597893740495133,
                -2.089928456894154
            ]
        },
        {
            "positions": [
                0.13302977017235218,
                -1.1638078649714274,
                1.1706947983968363,
                -1.0975019896451779,
                0.20435583746292102,
                -2.247846156826903
            ]
        },
        {
            "positions": [
                0.12801868657948334,
                -1.160149307124003,
                1.3080338990911722,
                -1.0460988599378065,
                0.1927327375208907,
                -2.405763856759652
            ]
        },
        {
            "positions": [
                0.12300760298661448,
                -1.1564907492765786,
                1.445372999785508,
                -0.9946957302304349,
                0.18110963757886037,
                -2.563681556692401
            ]
        },
        {
            "positions": [
                0.11799651939374563,
                -1.152832191429154,
                1.582712100479844,
                -0.9432926005230634,
                0.16948653763683005,
                -2.72159925662515
            ]
        },
        {
            "positions": [
                0.11298543580087678,
                -1.1491736335817295,
                1.7200512011741798,
                -0.8918894708156919,
                0.1578634376947997,
                -2.879516956557899
            ]
        },
        {
            "positions": [
                0.10797435220800793,
                -1.145515075734305,
                1.8573903018685156,
                -0.8404863411083204,
                0.1462403377527694,
                -3.037434656490648
            ]
        },
        {
            "positions": [
                0.12246789538040477,
                -1.1452813288069912,
                1.9814481466606737,
                -0.8289910499324187,
                0.12161156532826607,
                -3.1560367258944746
            ]
        }
    ]
}