{
    "goal": {
        "global_pose": {
            "orientation": {
                "w": 0.7047431468963623,
                "x": -0.7094548344612122,
                "y": 0.0024358443915843964,
                "z": -0.0022348060738295317
            },
            "position": {
                "x": 0.6094750761985779,
                "y": 0.3671506643295288,
                "z": 0.19426114857196808
            }
        },
        "name": "move_to_magneteinheit_A"
    },
    "id": "TRRT_move_to_magneteinheit_A_96",
    "joint_names": [
        "shoulder_pan_joint",
        "shoulder_lift_joint",
        "elbow_joint",
        "wrist_1_joint",
        "wrist_2_joint",
        "wrist_3_joint"
    ],
    "metrics": {
        "cart_traj_len": 4.096781988635679,
        "distance_elbow_joint": 3.8982556301712075,
        "distance_shoulder_lift_joint": 0.2923817484427367,
        "distance_shoulder_pan_joint": 4.077077939600215,
        "distance_wrist_1_joint": 2.2996421415927166,
        "distance_wrist_2_joint": 1.6981445756568976,
        "distance_wrist_3_joint": 3.606716527970783,
        "smoothness": 0.27286171837755896,
        "time": 0.110373465,
        "traj_len": 3.983995301633093,
        "weighted_distance": 5.204175087045567
    },
    "planner": "TRRT",
    "start": {
        "state": {
            "elbow_joint": -1.9196185241190666,
            "shoulder_lift_joint": -1.2443396400964142,
            "shoulder_pan_joint": 2.6996025414629847,
            "wrist_1_joint": -1.5485510000780065,
            "wrist_2_joint": -1.5709468930060704,
            "wrist_3_joint": 0.4420197071253992
        }
    },
    "waypoints": [
        {
            "positions": [
                2.6996025414629847,
                -1.2443396400964142,
                -1.9196185241190666,
                -1.5485510000780065,
                -1.5709468930060704,
                0.4420197071253992
            ]
        },
        {
            "positions": [
                2.5922919242130633,
                -1.2380048397071437,
                -1.8276284502932036,
                -1.4995513496811825,
                -1.5213754206005354,
                0.3585866051725135
            ]
        },
        {
            "positions": [
                2.484981306963142,
                -1.2316700393178734,
                -1.7356383764673406,
                -1.4505516992843586,
                -1.4718039481950005,
                0.2751535032196278
            ]
        },
        {
            "positions": [
                2.3776706897132205,
                -1.225335238928603,
                -1.6436483026414774,
                -1.4015520488875346,
                -1.4222324757894655,
                0.19172040126674206
            ]
        },
        {
            "positions": [
                2.2703600724632995,
                -1.2190004385393327,
                -1.5516582288156147,
                -1.3525523984907106,
                -1.3726610033839306,
                0.10828729931385639
            ]
        },
        {
            "positions": [
                2.163049455213378,
                -1.2126656381500622,
                -1.4596681549897514,
                -1.3035527480938867,
                -1.3230895309783957,
                0.024854197360970665
            ]
        },
        {
            "positions": [
                2.0557388379634567,
                -1.206330837760792,
                -1.3676780811638884,
                -1.254553097697063,
                -1.2735180585728607,
                -0.05857890459191506
            ]
        },
        {
            "positions": [
                1.9484282207135353,
                -1.1999960373715215,
                -1.2756880073380255,
                -1.2055534473002387,
                -1.2239465861673258,
                -0.14201200654480073
            ]
        },
        {
            "positions": [
                1.8411176034636139,
                -1.1936612369822512,
                -1.1836979335121625,
                -1.156553796903415,
                -1.1743751137617908,
                -0.2254451084976864
            ]
        },
        {
            "positions": [
                1.7338069862136924,
                -1.1873264365929808,
                -1.0917078596862995,
                -1.1075541465065908,
                -1.1248036413562559,
                -0.3088782104505722
            ]
        },
        {
            "positions": [
                1.6264963689637713,
                -1.1809916362037103,
                -0.9997177858604364,
                -1.058554496109767,
                -1.0752321689507212,
                -0.39231131240345785
            ]
        },
        {
            "positions": [
                1.5191857517138498,
                -1.17465683581444,
                -0.9077277120345733,
                -1.0095548457129428,
                -1.025660696545186,
                -0.4757444143563436
            ]
        },
        {
            "positions": [
                1.4118751344639284,
                -1.1683220354251695,
                -0.8157376382087103,
                -0.9605551953161191,
                -0.9760892241396512,
                -0.5591775163092293
            ]
        },
        {
            "positions": [
                1.304564517214007,
                -1.1619872350358993,
                -0.7237475643828473,
                -0.911555544919295,
                -0.9265177517341162,
                -0.6426106182621151
            ]
        },
        {
            "positions": [
                1.1972538999640858,
                -1.1556524346466288,
                -0.6317574905569843,
                -0.8625558945224712,
                -0.8769462793285813,
                -0.7260437202150006
            ]
        },
        {
            "positions": [
                1.0899432827141644,
                -1.1493176342573586,
                -0.539767416731121,
                -0.8135562441256472,
                -0.8273748069230463,
                -0.8094768221678864
            ]
        },
        {
            "positions": [
                0.982632665464243,
                -1.142982833868088,
                -0.4477773429052583,
                -0.7645565937288232,
                -0.7778033345175114,
                -0.892909924120772
            ]
        },
        {
            "positions": [
                0.8753220482143218,
                -1.1366480334788178,
                -0.3557872690793953,
                -0.7155569433319994,
                -0.7282318621119765,
                -0.9763430260736575
            ]
        },
        {
            "positions": [
                0.7680114309644002,
                -1.1303132330895473,
                -0.26379719525353207,
                -0.6665572929351753,
                -0.6786603897064415,
                -1.0597761280265434
            ]
        },
        {
            "positions": [
                0.6607008137144788,
                -1.123978432700277,
                -0.17180712142766907,
                -0.6175576425383513,
                -0.6290889173009065,
                -1.143209229979429
            ]
        },
        {
            "positions": [
                0.5533901964645578,
                -1.1176436323110066,
                -0.07981704760180608,
                -0.5685579921415275,
                -0.5795174448953717,
                -1.226642331932315
            ]
        },
        {
            "positions": [
                0.44607957921463637,
                -1.1113088319217361,
                0.012173026224056915,
                -0.5195583417447036,
                -0.5299459724898368,
                -1.3100754338852005
            ]
        },
        {
            "positions": [
                0.33876896196471495,
                -1.1049740315324659,
                0.10416310004992013,
                -0.4705586913478794,
                -0.4803745000843016,
                -1.3935085358380865
            ]
        },
        {
            "positions": [
                0.23145834471479354,
                -1.0986392311431954,
                0.1961531738757829,
                -0.42155904095105545,
                -0.4308030276787669,
                -1.476941637790972
            ]
        },
        {
            "positions": [
                0.12414772746487213,
                -1.0923044307539251,
                0.2881432477016461,
                -0.3725593905542317,
                -0.38123155527323194,
                -1.5603747397438577
            ]
        },
        {
            "positions": [
                0.016837110214951156,
                -1.0859696303646547,
                0.3801333215275089,
                -0.32355974015740774,
                -0.331660082867697,
                -1.6438078416967432
            ]
        },
        {
            "positions": [
                -0.0904735070349707,
                -1.0796348299753844,
                0.4721233953533721,
                -0.27456008976058355,
                -0.28208861046216205,
                -1.7272409436496292
            ]
        },
        {
            "positions": [
                -0.19778412428489212,
                -1.073300029586114,
                0.5641134691792353,
                -0.2255604393637598,
                -0.2325171380566271,
                -1.8106740456025148
            ]
        },
        {
            "positions": [
                -0.3050947415348131,
                -1.0669652291968437,
                0.6561035430050981,
                -0.17656078896693583,
                -0.18294566565109216,
                -1.8941071475554003
            ]
        },
        {
            "positions": [
                -0.4124053587847345,
                -1.0606304288075732,
                0.7480936168309609,
                -0.12756113857011186,
                -0.13337419324555722,
                -1.9775402495082859
            ]
        },
        {
            "positions": [
                -0.5197159760346559,
                -1.054295628418303,
                0.8400836906568245,
                -0.0785614881732879,
                -0.08380272084002227,
                -2.060973351461172
            ]
        },
        {
            "positions": [
                -0.6270265932845775,
                -1.0479608280290325,
                0.9320737644826875,
                -0.02956183777646393,
                -0.03423124843448733,
                -2.1444064534140574
            ]
        },
        {
            "positions": [
                -0.5519817127993123,
                -1.057561121666568,
                1.0367300986396328,
                -0.10762713570558136,
                -0.018088355325955884,
                -2.24643549015719
            ]
        },
        {
            "positions": [
                -0.47693683231404715,
                -1.0671614153041034,
                1.1413864327965784,
                -0.18569243363469878,
                -0.0019454622174244415,
                -2.348464526900323
            ]
        },
        {
            "positions": [
                -0.401891951828782,
                -1.076761708941639,
                1.2460427669535237,
                -0.2637577315638162,
                0.014197430891106998,
                -2.4504935636434553
            ]
        },
        {
            "positions": [
                -0.32684707134351676,
                -1.0863620025791745,
                1.350699101110469,
                -0.34182302949293364,
                0.030340323999638444,
                -2.552522600386588
            ]
        },
        {
            "positions": [
                -0.2518021908582516,
                -1.09596229621671,
                1.4553554352674145,
                -0.41988832742205107,
                0.04648321710816988,
                -2.6545516371297206
            ]
        },
        {
            "positions": [
                -0.17675731037298648,
                -1.1055625898542454,
                1.5600117694243596,
                -0.4979536253511685,
                0.06262611021670132,
                -2.756580673872853
            ]
        },
        {
            "positions": [
                -0.10171242988772133,
                -1.1151628834917808,
                1.6646681035813051,
                -0.5760189232802859,
                0.07876900332523276,
                -2.858609710615986
            ]
        },
        {
            "positions": [
                -0.02666754940245597,
                -1.1247631771293165,
                1.7693244377382507,
                -0.6540842212094033,
                0.09491189643376421,
                -2.9606387473591185
            ]
        },
        {
            "positions": [
                0.04837733108280917,
                -1.134363470766852,
                1.873980771895196,
                -0.7321495191385208,
                0.11105478954229567,
                -3.0626677841022514
            ]
        },
        {
            "positions": [
                0.12342221156807437,
                -1.1439637644043874,
                1.9786371060521413,
                -0.8102148170676382,
                0.1271976826508271,
                -3.164696820845384
            ]
        }
    ]
}