{
    "goal": {
        "global_pose": {
            "orientation": {
                "w": 0.005598929693374612,
                "x": 0.007748599140229565,
                "y": 0.7110244013736278,
                "z": -0.7031023480610252
            },
            "position": {
                "x": 0.1141497679147869,
                "y": -0.7141253447532654,
                "z": 0.3711530566215515
            }
        },
        "name": "move_to_auspresseinheit_B"
    },
    "id": "TRRT_move_to_auspresseinheit_B_111",
    "joint_names": [
        "shoulder_pan_joint",
        "shoulder_lift_joint",
        "elbow_joint",
        "wrist_1_joint",
        "wrist_2_joint",
        "wrist_3_joint"
    ],
    "metrics": {
        "cart_traj_len": 0.5651083096272128,
        "distance_elbow_joint": 0.06054409224431567,
        "distance_shoulder_lift_joint": 0.29469377456715695,
        "distance_shoulder_pan_joint": 0.5779880060582869,
        "distance_wrist_1_joint": 0.3166368197845484,
        "distance_wrist_2_joint": 0.9908276715910285,
        "distance_wrist_3_joint": 0.0013322930543639977,
        "smoothness": 2.5376526478085547e-16,
        "time": 0.021756972,
        "traj_len": 1.4973385246161606,
        "weighted_distance": 1.8847152927654631
    },
    "planner": "TRRT",
    "start": {
        "state": {
            "elbow_joint": 2.0193083361928714,
            "shoulder_lift_joint": -1.1220246554650708,
            "shoulder_pan_joint": -1.0952077554168747,
            "wrist_1_joint": -0.8559753972642168,
            "wrist_2_joint": 0.4759566250798843,
            "wrist_3_joint": -3.1240929996934557
        }
    },
    "waypoints": [
        {
            "positions": [
                -1.0952077554168747,
                -1.1220246554650708,
                2.0193083361928714,
                -0.8559753972642168,
                0.4759566250798843,
                -3.1240929996934557
            ]
        },
        {
            "positions": [
                -1.1915390897599225,
                -1.171140284559597,
                2.009217654152152,
                -0.8032025939667921,
                0.6410945703450557,
                -3.1238709508510616
            ]
        },
        {
            "positions": [
                -1.2878704241029704,
                -1.2202559136541231,
                1.9991269721114329,
                -0.7504297906693673,
                0.806232515610227,
                -3.1236489020086675
            ]
        },
        {
            "positions": [
                -1.384201758446018,
                -1.2693715427486492,
                1.9890362900707137,
                -0.6976569873719426,
                0.9713704608753986,
                -3.123426853166274
            ]
        },
        {
            "positions": [
                -1.4805330927890659,
                -1.3184871718431754,
                1.9789456080299943,
                -0.6448841840745179,
                1.13650840614057,
                -3.12320480432388
            ]
        },
        {
            "positions": [
                -1.5768644271321137,
                -1.3676028009377017,
                1.968854925989275,
                -0.5921113807770931,
                1.3016463514057415,
                -3.1229827554814857
            ]
        },
        {
            "positions": [
                -1.6731957614751616,
                -1.4167184300322277,
                1.9587642439485557,
                -0.5393385774796684,
                1.4667842966709128,
                -3.1227607066390917
            ]
        }
    ]
}