{
    "goal": {
        "global_pose": {
            "orientation": {
                "w": 0.5084816217422485,
                "x": -0.49083608388900757,
                "y": 0.5182115435600281,
                "z": -0.4816462993621826
            },
            "position": {
                "x": 0.5540239810943604,
                "y": 0.030875300988554955,
                "z": 0.16403168439865112
            }
        },
        "name": "move_to_storage_A"
    },
    "id": "TRRT_move_to_storage_A_28",
    "joint_names": [
        "shoulder_pan_joint",
        "shoulder_lift_joint",
        "elbow_joint",
        "wrist_1_joint",
        "wrist_2_joint",
        "wrist_3_joint"
    ],
    "metrics": {
        "cart_traj_len": 0.35286911969567025,
        "distance_elbow_joint": 0.44799787414743286,
        "distance_shoulder_lift_joint": 0.23353280491392936,
        "distance_shoulder_pan_joint": 0.4577314654135505,
        "distance_wrist_1_joint": 0.2373411510874267,
        "distance_wrist_2_joint": 1.1136024321110418,
        "distance_wrist_3_joint": 0.09741835433638135,
        "smoothness": 0.0,
        "time": 0.028832625,
        "traj_len": 1.608609362775737,
        "weighted_distance": 2.033077562190138
    },
    "planner": "TRRT",
    "start": {
        "state": {
            "elbow_joint": 1.971548259319323,
            "shoulder_lift_joint": -1.1394851275133948,
            "shoulder_pan_joint": 0.1228115487234821,
            "wrist_1_joint": -0.7804723859257726,
            "wrist_2_joint": 0.12958671773740124,
            "wrist_3_joint": -3.192489227718131
        }
    },
    "waypoints": [
        {
            "positions": [
                0.1228115487234821,
                -1.1394851275133948,
                1.971548259319323,
                -0.7804723859257726,
                0.12958671773740124,
                -3.192489227718131
            ]
        },
        {
            "positions": [
                0.05742133937868918,
                -1.1728469567868134,
                2.035547955626099,
                -0.8143782646525478,
                0.2886727794675501,
                -3.178572319955791
            ]
        },
        {
            "positions": [
                -0.007968869966103742,
                -1.2062087860602317,
                2.099547651932875,
                -0.8482841433793231,
                0.44775884119769893,
                -3.1646554121934507
            ]
        },
        {
            "positions": [
                -0.07335907931089666,
                -1.2395706153336503,
                2.1635473482396512,
                -0.8821900221060983,
                0.6068449029278478,
                -3.1507385044311107
            ]
        },
        {
            "positions": [
                -0.13874928865568958,
                -1.2729324446070687,
                2.2275470445464274,
                -0.9160959008328736,
                0.7659309646579966,
                -3.1368215966687703
            ]
        },
        {
            "positions": [
                -0.20413949800048253,
                -1.3062942738804872,
                2.2915467408532035,
                -0.9500017795596488,
                0.9250170263881454,
                -3.1229046889064302
            ]
        },
        {
            "positions": [
                -0.2695297073452754,
                -1.3396561031539056,
                2.3555464371599797,
                -0.9839076582864241,
                1.0841030881182943,
                -3.10898778114409
            ]
        },
        {
            "positions": [
                -0.3349199166900684,
                -1.3730179324273242,
                2.419546133466756,
                -1.0178135370131993,
                1.243189149848443,
                -3.09507087338175
            ]
        }
    ]
}{
    "goal": {
        "global_pose": {
            "orientation": {
                "w": 0.5084816217422485,
                "x": -0.49083608388900757,
                "y": 0.5182115435600281,
                "z": -0.4816462993621826
            },
            "position": {
                "x": 0.5540239810943604,
                "y": 0.030875300988554955,
                "z": 0.16403168439865112
            }
        },
        "name": "move_to_storage_A"
    },
    "id": "TRRT_move_to_storage_A_28",
    "joint_names": [
        "shoulder_pan_joint",
        "shoulder_lift_joint",
        "elbow_joint",
        "wrist_1_joint",
        "wrist_2_joint",
        "wrist_3_joint"
    ],
    "metrics": {
        "cart_traj_len": 0.3523624189843431,
        "distance_elbow_joint": 0.4486705434938969,
        "distance_shoulder_lift_joint": 0.2354723278601123,
        "distance_shoulder_pan_joint": 0.4577447835783698,
        "distance_wrist_1_joint": 0.23569094813905056,
        "distance_wrist_2_joint": 1.1109079739195875,
        "distance_wrist_3_joint": 0.0926629949593778,
        "smoothness": 0.0,
        "time": 0.028321073999999998,
        "traj_len": 1.6065956466859963,
        "weighted_distance": 2.0280716170608444
    },
    "planner": "TRRT",
    "start": {
        "state": {
            "elbow_joint": 1.97154746011099,
            "shoulder_lift_joint": -1.13948474672311,
            "shoulder_pan_joint": 0.12281154466712228,
            "wrist_1_joint": -0.7804688027058302,
            "wrist_2_joint": 0.12958655903071145,
            "wrist_3_joint": 3.0906928834467795
        }
    },
    "waypoints": [
        {
            "positions": [
                0.12281154466712228,
                -1.13948474672311,
                1.97154746011099,
                -0.7804688027058302,
                0.12958655903071145,
                3.0906928834467795
            ]
        },
        {
            "positions": [
                0.05741943272735517,
                -1.173123650703126,
                2.0356432520386893,
                -0.814138938154266,
                0.2882876981620811,
                3.103930454155262
            ]
        },
        {
            "positions": [
                -0.007972679212411946,
                -1.206762554683142,
                2.099739043966389,
                -0.8478090736027017,
                0.44698883729345074,
                3.117168024863745
            ]
        },
        {
            "positions": [
                -0.07336479115217905,
                -1.240401458663158,
                2.1638348358940886,
                -0.8814792090511375,
                0.6056899764248204,
                3.130405595572227
            ]
        },
        {
            "positions": [
                -0.13875690309194616,
                -1.274040362643174,
                2.227930627821788,
                -0.9151493444995733,
                0.76439111555619,
                3.1436431662807096
            ]
        },
        {
            "positions": [
                -0.2041490150317133,
                -1.3076792666231902,
                2.2920264197494875,
                -0.9488194799480092,
                0.9230922546875597,
                3.156880736989192
            ]
        },
        {
            "positions": [
                -0.26954112697148036,
                -1.3413181706032062,
                2.3561222116771874,
                -0.982489615396445,
                1.0817933938189292,
                3.170118307697675
            ]
        },
        {
            "positions": [
                -0.3349332389112475,
                -1.3749570745832222,
                2.420218003604887,
                -1.0161597508448807,
                1.240494532950299,
                3.1833558784061573
            ]
        }
    ]
}{
    "goal": {
        "global_pose": {
            "orientation": {
                "w": 0.5084816217422485,
                "x": -0.49083608388900757,
                "y": 0.5182115435600281,
                "z": -0.4816462993621826
            },
            "position": {
                "x": 0.5540239810943604,
                "y": 0.030875300988554955,
                "z": 0.16403168439865112
            }
        },
        "name": "move_to_storage_A"
    },
    "id": "TRRT_move_to_storage_A_28",
    "joint_names": [
        "shoulder_pan_joint",
        "shoulder_lift_joint",
        "elbow_joint",
        "wrist_1_joint",
        "wrist_2_joint",
        "wrist_3_joint"
    ],
    "metrics": {
        "cart_traj_len": 0.35363102241212674,
        "distance_elbow_joint": 0.45108658027213977,
        "distance_shoulder_lift_joint": 0.23521111187348032,
        "distance_shoulder_pan_joint": 0.464808676061888,
        "distance_wrist_1_joint": 0.24836083280005217,
        "distance_wrist_2_joint": 1.089838406293133,
        "distance_wrist_3_joint": 0.08996376855516441,
        "smoothness": 1.3322676295501878e-15,
        "time": 0.030597072,
        "traj_len": 1.6060103909551324,
        "weighted_distance": 2.0242025965943653
    },
    "planner": "TRRT",
    "start": {
        "state": {
            "elbow_joint": 1.9715472970024885,
            "shoulder_lift_joint": -1.1394870060712896,
            "shoulder_pan_joint": 0.12281152778156021,
            "wrist_1_joint": -0.780463741449964,
            "wrist_2_joint": 0.12958659822042276,
            "wrist_3_joint": 3.090690232415272
        }
    },
    "waypoints": [
        {
            "positions": [
                0.12281152778156021,
                -1.1394870060712896,
                1.9715472970024885,
                -0.780463741449964,
                0.12958659822042276,
                3.090690232415272
            ]
        },
        {
            "positions": [
                0.056410288344147644,
                -1.1730885934817867,
                2.0359882370413658,
                -0.8159438604214,
                0.28527779911944173,
                3.103542199351724
            ]
        },
        {
            "positions": [
                -0.009990951093264921,
                -1.206690180892284,
                2.1004291770802426,
                -0.851423979392836,
                0.44096900001846073,
                3.116394166288176
            ]
        },
        {
            "positions": [
                -0.0763921905306775,
                -1.2402917683027812,
                2.16487011711912,
                -0.8869040983642721,
                0.5966602009174797,
                3.129246133224628
            ]
        },
        {
            "positions": [
                -0.14279342996809005,
                -1.2738933557132783,
                2.229311057157997,
                -0.9223842173357081,
                0.7523514018164987,
                3.14209810016108
            ]
        },
        {
            "positions": [
                -0.20919466940550266,
                -1.3074949431237757,
                2.2937519971968743,
                -0.9578643363071442,
                0.9080426027155177,
                3.1549500670975323
            ]
        },
        {
            "positions": [
                -0.2755959088429152,
                -1.3410965305342728,
                2.358192937235751,
                -0.9933444552785802,
                1.0637338036145367,
                3.167802034033984
            ]
        },
        {
            "positions": [
                -0.3419971482803278,
                -1.37469811794477,
                2.4226338772746283,
                -1.0288245742500162,
                1.2194250045135557,
                3.1806540009704363
            ]
        }
    ]
}