{
    "goal": {
        "global_pose": {
            "orientation": {
                "w": 0.7031023480610252,
                "x": -0.7110244013736278,
                "y": 0.0077485991402295624,
                "z": 0.005598929693374583
            },
            "position": {
                "x": -0.8841497679147869,
                "y": 0.44412534475326537,
                "z": 0.3711530566215515
            }
        },
        "name": "move_to_auspresseinheit_D"
    },
    "id": "TRRT_move_to_auspresseinheit_D_97",
    "joint_names": [
        "shoulder_pan_joint",
        "shoulder_lift_joint",
        "elbow_joint",
        "wrist_1_joint",
        "wrist_2_joint",
        "wrist_3_joint"
    ],
    "metrics": {
        "cart_traj_len": 0.3430847259093776,
        "distance_elbow_joint": 0.6372225521391883,
        "distance_shoulder_lift_joint": 0.12019404269861456,
        "distance_shoulder_pan_joint": 0.13377017087383572,
        "distance_wrist_1_joint": 0.533705533082967,
        "distance_wrist_2_joint": 1.4362849342823527,
        "distance_wrist_3_joint": 0.006785608907469598,
        "smoothness": 7.894919286223335e-16,
        "time": 1.537631169,
        "traj_len": 1.6935060797010524,
        "weighted_distance": 2.202617653421648
    },
    "planner": "TRRT",
    "start": {
        "state": {
            "elbow_joint": -1.8275523626775212,
            "shoulder_lift_joint": -2.126789852344167,
            "shoulder_pan_joint": -0.03513704404078235,
            "wrist_1_joint": -2.347782403156801,
            "wrist_2_joint": -1.6058999987535132,
            "wrist_3_joint": -3.0880379163319196
        }
    },
    "waypoints": [
        {
            "positions": [
                -0.03513704404078235,
                -2.126789852344167,
                -1.8275523626775212,
                -2.347782403156801,
                -1.6058999987535132,
                -3.0880379163319196
            ]
        },
        {
            "positions": [
                -0.05185831540001182,
                -2.1418141076814936,
                -1.7478995436601226,
                -2.4144955947921716,
                -1.426364381968219,
                -3.0871897152184857
            ]
        },
        {
            "positions": [
                -0.06857958675924128,
                -2.1568383630188204,
                -1.6682467246427242,
                -2.4812087864275427,
                -1.246828765182925,
                -3.0863415141050523
            ]
        },
        {
            "positions": [
                -0.08530085811847074,
                -2.171862618356147,
                -1.5885939056253255,
                -2.5479219780629134,
                -1.067293148397631,
                -3.0854933129916184
            ]
        },
        {
            "positions": [
                -0.1020221294777002,
                -2.1868868736934743,
                -1.5089410866079271,
                -2.6146351696982846,
                -0.8877575316123368,
                -3.084645111878185
            ]
        },
        {
            "positions": [
                -0.11874340083692966,
                -2.201911129030801,
                -1.4292882675905285,
                -2.6813483613336553,
                -0.7082219148270428,
                -3.083796910764751
            ]
        },
        {
            "positions": [
                -0.13546467219615915,
                -2.216935384368128,
                -1.34963544857313,
                -2.748061552969026,
                -0.5286862980417486,
                -3.0829487096513173
            ]
        },
        {
            "positions": [
                -0.15218594355538861,
                -2.2319596397054546,
                -1.2699826295557313,
                -2.814774744604397,
                -0.34915068125645465,
                -3.082100508537884
            ]
        },
        {
            "positions": [
                -0.16890721491461808,
                -2.2469838950427814,
                -1.1903298105383329,
                -2.881487936239768,
                -0.16961506447116043,
                -3.08125230742445
            ]
        }
    ]
}