{
    "goal": {
        "global_pose": {
            "orientation": {
                "w": 0.005598929693374612,
                "x": 0.007748599140229565,
                "y": 0.7110244013736278,
                "z": -0.7031023480610252
            },
            "position": {
                "x": -0.8858502320852131,
                "y": -0.7141253447532654,
                "z": 0.3711530566215515
            }
        },
        "name": "move_to_auspresseinheit_C"
    },
    "id": "TRRT_move_to_auspresseinheit_C_44",
    "joint_names": [
        "shoulder_pan_joint",
        "shoulder_lift_joint",
        "elbow_joint",
        "wrist_1_joint",
        "wrist_2_joint",
        "wrist_3_joint"
    ],
    "metrics": {
        "cart_traj_len": 0.49769954765222285,
        "distance_elbow_joint": 0.9893126413256369,
        "distance_shoulder_lift_joint": 0.3191708595024998,
        "distance_shoulder_pan_joint": 0.2573240417097331,
        "distance_wrist_1_joint": 0.6564189852713125,
        "distance_wrist_2_joint": 1.3018610869170633,
        "distance_wrist_3_joint": 0.03623267845267675,
        "smoothness": 5.65204451098088e-16,
        "time": 0.117273435,
        "traj_len": 1.8868811020249587,
        "weighted_distance": 2.3645434490134982
    },
    "planner": "TRRT",
    "start": {
        "state": {
            "elbow_joint": 1.7527959577737207,
            "shoulder_lift_joint": -0.9740617694225068,
            "shoulder_pan_joint": -2.967991417825858,
            "wrist_1_joint": -0.759517768980727,
            "wrist_2_joint": 1.7443932448377408,
            "wrist_3_joint": -3.0840537646736568
        }
    },
    "waypoints": [
        {
            "positions": [
                -2.967991417825858,
                -0.9740617694225068,
                1.7527959577737207,
                -0.759517768980727,
                1.7443932448377408,
                -3.0840537646736568
            ]
        },
        {
            "positions": [
                -2.940131895017397,
                -0.9386838293811349,
                1.6459647893384024,
                -0.6884176719883437,
                1.606479176356658,
                -3.0847500874905105
            ]
        },
        {
            "positions": [
                -2.9122723722089363,
                -0.903305889339763,
                1.5391336209030841,
                -0.6173175749959603,
                1.468565107875575,
                -3.0854464103073647
            ]
        },
        {
            "positions": [
                -2.8844128494004755,
                -0.8679279492983911,
                1.4323024524677659,
                -0.546217478003577,
                1.3306510393944921,
                -3.0861427331242184
            ]
        },
        {
            "positions": [
                -2.8565533265920147,
                -0.8325500092570193,
                1.3254712840324474,
                -0.4751173810111937,
                1.192736970913409,
                -3.0868390559410726
            ]
        },
        {
            "positions": [
                -2.828693803783554,
                -0.7971720692156473,
                1.2186401155971291,
                -0.4040172840188103,
                1.0548229024323261,
                -3.0875353787579263
            ]
        },
        {
            "positions": [
                -2.800834280975093,
                -0.7617941291742755,
                1.111808947161811,
                -0.33291718702642703,
                0.9169088339512432,
                -3.0882317015747804
            ]
        },
        {
            "positions": [
                -2.772974758166632,
                -0.7264161891329036,
                1.0049777787264924,
                -0.2618170900340437,
                0.7789947654701602,
                -3.088928024391634
            ]
        },
        {
            "positions": [
                -2.7451152353581714,
                -0.6910382490915317,
                0.8981466102911743,
                -0.19071699304166045,
                0.6410806969890772,
                -3.0896243472084883
            ]
        },
        {
            "positions": [
                -2.7172557125497105,
                -0.6556603090501598,
                0.7913154418558559,
                -0.11961689604927705,
                0.5031666285079943,
                -3.090320670025342
            ]
        },
        {
            "positions": [
                -2.710667376116125,
                -0.654890909920007,
                0.7634833164480838,
                -0.10309878370941448,
                0.44253215792067757,
                -3.1202864431263335
            ]
        }
    ]
}