{
    "goal": {
        "global_pose": {
            "orientation": {
                "w": 0.7031023502349854,
                "x": -0.7110244035720825,
                "y": 0.007748599164187908,
                "z": 0.005598929710686207
            },
            "position": {
                "x": 0.11585023208521307,
                "y": 0.44412534475326537,
                "z": 0.3711530566215515
            }
        },
        "name": "move_to_auspresseinheit_A"
    },
    "id": "TRRT_move_to_auspresseinheit_A_104",
    "joint_names": [
        "shoulder_pan_joint",
        "shoulder_lift_joint",
        "elbow_joint",
        "wrist_1_joint",
        "wrist_2_joint",
        "wrist_3_joint"
    ],
    "metrics": {
        "cart_traj_len": 0.6878598148131921,
        "distance_elbow_joint": 0.025166135975001058,
        "distance_shoulder_lift_joint": 0.5363268977404285,
        "distance_shoulder_pan_joint": 1.0457915853935826,
        "distance_wrist_1_joint": 0.5482412423508358,
        "distance_wrist_2_joint": 0.5183510817945473,
        "distance_wrist_3_joint": 0.03437521361740892,
        "smoothness": 9.868649107779169e-17,
        "time": 0.023409227,
        "traj_len": 1.6456768081466677,
        "weighted_distance": 1.96050883911601
    },
    "planner": "TRRT",
    "start": {
        "state": {
            "elbow_joint": 2.4225746658250005,
            "shoulder_lift_joint": -1.3736534386056498,
            "shoulder_pan_joint": -0.3378633547517467,
            "wrist_1_joint": -1.0288598680537169,
            "wrist_2_joint": 1.233022673432363,
            "wrist_3_joint": -3.0940220416140027
        }
    },
    "waypoints": [
        {
            "positions": [
                -0.3378633547517467,
                -1.3736534386056498,
                2.4225746658250005,
                -1.0288598680537169,
                1.233022673432363,
                -3.0940220416140027
            ]
        },
        {
            "positions": [
                -0.20754383080089778,
                -1.4401052930473706,
                2.4185857363979153,
                -0.9568745588538443,
                1.166302208730129,
                -3.101221989769191
            ]
        },
        {
            "positions": [
                -0.07722430685004883,
                -1.5065571474890915,
                2.41459680697083,
                -0.8848892496539716,
                1.0995817440278948,
                -3.108421937924379
            ]
        },
        {
            "positions": [
                0.05309521710080012,
                -1.5730090019308123,
                2.410607877543745,
                -0.812903940454099,
                1.0328612793256606,
                -3.1156218860795675
            ]
        },
        {
            "positions": [
                0.18341474105164907,
                -1.639460856372533,
                2.4066189481166598,
                -0.7409186312542264,
                0.9661408146234264,
                -3.1228218342347556
            ]
        },
        {
            "positions": [
                0.3145431134491957,
                -1.7070907263659194,
                2.404316343549995,
                -0.67584362986639,
                0.9032735088770237,
                -3.1242156894839197
            ]
        },
        {
            "positions": [
                0.4456714858467424,
                -1.7747205963593058,
                2.40201373898333,
                -0.6107686284785537,
                0.8404062031306211,
                -3.1256095447330834
            ]
        },
        {
            "positions": [
                0.576799858244289,
                -1.842350466352692,
                2.3997111344166644,
                -0.5456936270907173,
                0.7775388973842184,
                -3.1270033999822475
            ]
        },
        {
            "positions": [
                0.7079282306418357,
                -1.9099803363460783,
                2.3974085298499994,
                -0.480618625702881,
                0.7146715916378158,
                -3.1283972552314117
            ]
        }
    ]
}