{
    "goal": {
        "global_pose": {
            "orientation": {
                "w": 0.7047431493862688,
                "x": -0.7094548369677653,
                "y": 0.0024358444001904,
                "z": -0.0022348060817251984
            },
            "position": {
                "x": -0.39052492380142206,
                "y": 0.3671506643295288,
                "z": 0.19426114857196808
            }
        },
        "name": "move_to_magneteinheit_D"
    },
    "id": "TRRT_move_to_magneteinheit_D_133",
    "joint_names": [
        "shoulder_pan_joint",
        "shoulder_lift_joint",
        "elbow_joint",
        "wrist_1_joint",
        "wrist_2_joint",
        "wrist_3_joint"
    ],
    "metrics": {
        "cart_traj_len": 5.058302973230942,
        "distance_elbow_joint": 3.77522771578705,
        "distance_shoulder_lift_joint": 1.3851310267567505,
        "distance_shoulder_pan_joint": 3.304041009761743,
        "distance_wrist_1_joint": 3.740367375990308,
        "distance_wrist_2_joint": 1.950136629153753,
        "distance_wrist_3_joint": 6.273366501311671,
        "smoothness": 0.6752469084231965,
        "time": 0.310151607,
        "traj_len": 4.51976440301497,
        "weighted_distance": 6.218159475803806
    },
    "planner": "TRRT",
    "start": {
        "state": {
            "elbow_joint": 0.749534889911806,
            "shoulder_lift_joint": -0.6476975780787326,
            "shoulder_pan_joint": -2.711696901376241,
            "wrist_1_joint": -0.07506478083263063,
            "wrist_2_joint": 0.43296659715538205,
            "wrist_3_joint": -3.14703540197715
        }
    },
    "waypoints": [
        {
            "positions": [
                -2.711696901376241,
                -0.6476975780787326,
                0.749534889911806,
                -0.07506478083263063,
                0.43296659715538205,
                -3.14703540197715
            ]
        },
        {
            "positions": [
                -2.739723022971112,
                -0.6522837972415587,
                0.7872974685739415,
                0.027038309025307947,
                0.5215727606005833,
                -3.0330478220343178
            ]
        },
        {
            "positions": [
                -2.7677491445659825,
                -0.6568700164043849,
                0.825060047236077,
                0.12914139888324652,
                0.6101789240457846,
                -2.919060242091485
            ]
        },
        {
            "positions": [
                -2.795775266160853,
                -0.661456235567211,
                0.8628226258982123,
                0.23124448874118508,
                0.6987850874909858,
                -2.805072662148653
            ]
        },
        {
            "positions": [
                -2.8238013877557235,
                -0.6660424547300372,
                0.9005852045603479,
                0.3333475785991237,
                0.787391250936187,
                -2.69108508220582
            ]
        },
        {
            "positions": [
                -2.8518275093505943,
                -0.6706286738928633,
                0.9383477832224834,
                0.43545066845706226,
                0.8759974143813882,
                -2.577097502262988
            ]
        },
        {
            "positions": [
                -2.8037365467102138,
                -0.7113320968220647,
                0.8710809613935845,
                0.46243615177151887,
                0.8256527010985544,
                -2.464727427179338
            ]
        },
        {
            "positions": [
                -2.7556455840698337,
                -0.752035519751266,
                0.8038141395646856,
                0.48942163508597547,
                0.7753079878157206,
                -2.352357352095688
            ]
        },
        {
            "positions": [
                -2.7075546214294532,
                -0.7927389426804674,
                0.7365473177357866,
                0.5164071184004321,
                0.7249632745328868,
                -2.239987277012039
            ]
        },
        {
            "positions": [
                -2.659463658789073,
                -0.8334423656096688,
                0.6692804959068878,
                0.5433926017148887,
                0.674618561250053,
                -2.127617201928389
            ]
        },
        {
            "positions": [
                -2.6113726961486927,
                -0.8741457885388701,
                0.6020136740779889,
                0.5703780850293453,
                0.6242738479672192,
                -2.015247126844739
            ]
        },
        {
            "positions": [
                -2.5333636736806073,
                -0.9069187671853873,
                0.5274960058391739,
                0.5009567984975822,
                0.6024600491606346,
                -1.8995207792191684
            ]
        },
        {
            "positions": [
                -2.455354651212522,
                -0.9396917458319045,
                0.4529783376003589,
                0.4315355119658191,
                0.5806462503540498,
                -1.7837944315935976
            ]
        },
        {
            "positions": [
                -2.3773456287444366,
                -0.9724647244784217,
                0.3784606693615439,
                0.36211422543405597,
                0.5588324515474652,
                -1.6680680839680269
            ]
        },
        {
            "positions": [
                -2.299336606276351,
                -1.0052377031249389,
                0.3039430011227289,
                0.29269293890229287,
                0.5370186527408806,
                -1.552341736342456
            ]
        },
        {
            "positions": [
                -2.221327583808266,
                -1.038010681771456,
                0.2294253328839138,
                0.2232716523705297,
                0.5152048539342958,
                -1.436615388716885
            ]
        },
        {
            "positions": [
                -2.1433185613401804,
                -1.0707836604179732,
                0.15490766464509886,
                0.15385036583876666,
                0.4933910551277112,
                -1.3208890410913146
            ]
        },
        {
            "positions": [
                -2.065309538872095,
                -1.1035566390644904,
                0.08038999640628386,
                0.0844290793070035,
                0.4715772563211265,
                -1.2051626934657436
            ]
        },
        {
            "positions": [
                -1.9873005164040096,
                -1.1363296177110076,
                0.005872328167468854,
                0.015007792775240447,
                0.44976345751454183,
                -1.0894363458401728
            ]
        },
        {
            "positions": [
                -1.9092914939359242,
                -1.1691025963575248,
                -0.06864534007134615,
                -0.05441349375652271,
                0.4279496587079572,
                -0.973709998214602
            ]
        },
        {
            "positions": [
                -1.8312824714678388,
                -1.201875575004042,
                -0.14316300831016127,
                -0.12383478028828587,
                0.4061358599013725,
                -0.8579836505890313
            ]
        },
        {
            "positions": [
                -1.7532734489997535,
                -1.234648553650559,
                -0.21768067654897616,
                -0.1932560668200488,
                0.38432206109478784,
                -0.7422573029634605
            ]
        },
        {
            "positions": [
                -1.675264426531668,
                -1.267421532297076,
                -0.29219834478779116,
                -0.26267735335181197,
                0.3625082622882032,
                -0.6265309553378897
            ]
        },
        {
            "positions": [
                -1.5972554040635827,
                -1.3001945109435933,
                -0.3667160130266063,
                -0.33209863988357513,
                0.3406944634816185,
                -0.510804607712319
            ]
        },
        {
            "positions": [
                -1.5192463815954973,
                -1.3329674895901105,
                -0.4412336812654212,
                -0.4015199264153383,
                0.31888066467503384,
                -0.39507826008674796
            ]
        },
        {
            "positions": [
                -1.441237359127412,
                -1.3657404682366276,
                -0.5157513495042363,
                -0.47094121294710145,
                0.29706686586844916,
                -0.2793519124611772
            ]
        },
        {
            "positions": [
                -1.3632283366593265,
                -1.3985134468831448,
                -0.5902690177430512,
                -0.5403624994788644,
                0.27525306706186453,
                -0.16362556483560642
            ]
        },
        {
            "positions": [
                -1.2852193141912414,
                -1.4312864255296618,
                -0.6647866859818661,
                -0.6097837860106273,
                0.2534392682552799,
                -0.04789921721003587
            ]
        },
        {
            "positions": [
                -1.2072102917231557,
                -1.4640594041761792,
                -0.7393043542206812,
                -0.6792050725423907,
                0.23162546944869516,
                0.06782713041553512
            ]
        },
        {
            "positions": [
                -1.1292012692550704,
                -1.4968323828226962,
                -0.8138220224594963,
                -0.7486263590741536,
                0.20981167064211054,
                0.18355347804110567
            ]
        },
        {
            "positions": [
                -1.051192246786985,
                -1.5296053614692136,
                -0.8883396906983114,
                -0.818047645605917,
                0.18799787183552585,
                0.29927982566667666
            ]
        },
        {
            "positions": [
                -0.9731832243188996,
                -1.5623783401157305,
                -0.9628573589371263,
                -0.88746893213768,
                0.16618407302894117,
                0.41500617329224765
            ]
        },
        {
            "positions": [
                -0.8951742018508142,
                -1.5951513187622477,
                -1.0373750271759412,
                -0.9568902186694429,
                0.14437027422235654,
                0.5307325209178182
            ]
        },
        {
            "positions": [
                -0.8171651793827288,
                -1.6279242974087649,
                -1.1118926954147563,
                -1.0263115052012064,
                0.12255647541577186,
                0.6464588685433892
            ]
        },
        {
            "positions": [
                -0.7391561569146434,
                -1.660697276055282,
                -1.1864103636535712,
                -1.0957327917329693,
                0.10074267660918723,
                0.7621852161689597
            ]
        },
        {
            "positions": [
                -0.6611471344465583,
                -1.6934702547017992,
                -1.2609280318923861,
                -1.1651540782647323,
                0.0789288778026026,
                0.8779115637945303
            ]
        },
        {
            "positions": [
                -0.5831381119784727,
                -1.7262432333483164,
                -1.3354457001312015,
                -1.2345753647964957,
                0.057115078996017865,
                0.9936379114201013
            ]
        },
        {
            "positions": [
                -0.5051290895103873,
                -1.7590162119948336,
                -1.4099633683700161,
                -1.3039966513282586,
                0.03530128018943324,
                1.1093642590456723
            ]
        },
        {
            "positions": [
                -0.4271200670423019,
                -1.7917891906413508,
                -1.4844810366088312,
                -1.373417937860022,
                0.013487481382848499,
                1.2250906066712433
            ]
        },
        {
            "positions": [
                -0.3491110445742165,
                -1.824562169287868,
                -1.5589987048476461,
                -1.442839224391785,
                -0.008326317423736134,
                1.340816954296814
            ]
        },
        {
            "positions": [
                -0.29581862347541676,
                -1.8272648286846562,
                -1.6264855669223204,
                -1.51177584231689,
                -0.00012228194545785276,
                1.4598679601495104
            ]
        },
        {
            "positions": [
                -0.2425262023766171,
                -1.8299674880814445,
                -1.6939724289969946,
                -1.5807124602419953,
                0.008081753532820429,
                1.578918966002207
            ]
        },
        {
            "positions": [
                -0.1892337812778174,
                -1.832670147478233,
                -1.7614592910716689,
                -1.6496490781671007,
                0.016285789011098714,
                1.6979699718549033
            ]
        },
        {
            "positions": [
                -0.13594136017901767,
                -1.8353728068750212,
                -1.8289461531463431,
                -1.718585696092206,
                0.02448982448937699,
                1.8170209777075998
            ]
        },
        {
            "positions": [
                -0.08264893908021795,
                -1.8380754662718095,
                -1.8964330152210174,
                -1.787522314017311,
                0.032693859967655274,
                1.9360719835602962
            ]
        },
        {
            "positions": [
                -0.03395280403419257,
                -1.8377271433805973,
                -1.9771384894114792,
                -1.8673876563942222,
                0.03423470826779163,
                2.0910869068255966
            ]
        },
        {
            "positions": [
                0.014743331011832811,
                -1.837378820489385,
                -2.057843963601941,
                -1.9472529987711331,
                0.035775556567927996,
                2.2461018300908973
            ]
        },
        {
            "positions": [
                0.06343946605785819,
                -1.8370304975981728,
                -2.138549437792403,
                -2.0271183411480442,
                0.037316404868064354,
                2.401116753356198
            ]
        },
        {
            "positions": [
                0.01766785062350193,
                -1.8081654794695854,
                -2.2121321231768762,
                -2.0906587222622997,
                -0.041863400222350855,
                2.4722450468011012
            ]
        },
        {
            "positions": [
                -0.02810376481085433,
                -1.7793004613409982,
                -2.2857148085613495,
                -2.154199103376555,
                -0.12104320531276606,
                2.5433733402460046
            ]
        },
        {
            "positions": [
                -0.07387538024521056,
                -1.7504354432124107,
                -2.3592974939458227,
                -2.217739484490811,
                -0.20022301040318125,
                2.614501633690908
            ]
        },
        {
            "positions": [
                -0.11964699567956685,
                -1.7215704250838235,
                -2.432880179330296,
                -2.2812798656050663,
                -0.27940281549359647,
                2.6856299271358113
            ]
        },
        {
            "positions": [
                -0.1654186111139231,
                -1.692705406955236,
                -2.506462864714769,
                -2.3448202467193218,
                -0.35858262058401164,
                2.7567582205807146
            ]
        },
        {
            "positions": [
                -0.17201372751630872,
                -1.7091664333709362,
                -2.4592614732017295,
                -2.284911520592767,
                -0.2981691764577632,
                2.879949180165316
            ]
        },
        {
            "positions": [
                -0.17860884391869433,
                -1.7256274597866361,
                -2.41206008168869,
                -2.2250027944662114,
                -0.23775573233151473,
                3.0031401397499167
            ]
        },
        {
            "positions": [
                -0.18520396032107997,
                -1.7420884862023363,
                -2.3648586901756503,
                -2.1650940683396565,
                -0.17734228820526626,
                3.126331099334518
            ]
        }
    ]
}