{
    "goal": {
        "global_pose": {
            "orientation": {
                "w": 0.5084816262002911,
                "x": -0.4908360881923452,
                "y": 0.5182115481033761,
                "z": -0.48164630358495003
            },
            "position": {
                "x": 0.5540239810943604,
                "y": -0.46912469901144505,
                "z": 0.16403168439865112
            }
        },
        "name": "move_to_storage_B"
    },
    "id": "TRRT_move_to_storage_B_34",
    "joint_names": [
        "shoulder_pan_joint",
        "shoulder_lift_joint",
        "elbow_joint",
        "wrist_1_joint",
        "wrist_2_joint",
        "wrist_3_joint"
    ],
    "metrics": {
        "cart_traj_len": 0.6038053464377473,
        "distance_elbow_joint": 0.36288705902392193,
        "distance_shoulder_lift_joint": 0.46395060970570823,
        "distance_shoulder_pan_joint": 0.22812807630657284,
        "distance_wrist_1_joint": 2.9945032278740102,
        "distance_wrist_2_joint": 2.7120441077140667,
        "distance_wrist_3_joint": 3.145504358546033,
        "smoothness": 0.3253805428461418,
        "time": 0.12450825199999999,
        "traj_len": 3.147541491254771,
        "weighted_distance": 4.680232204907194
    },
    "planner": "TRRT",
    "start": {
        "state": {
            "elbow_joint": 1.664937868594044,
            "shoulder_lift_joint": -0.661644460510453,
            "shoulder_pan_joint": -0.9139846352900073,
            "wrist_1_joint": 2.146753192139373,
            "wrist_2_joint": -2.2341966793290973,
            "wrist_3_joint": 0.005466555786416001
        }
    },
    "waypoints": [
        {
            "positions": [
                -0.9139846352900073,
                -0.661644460510453,
                1.664937868594044,
                2.146753192139373,
                -2.2341966793290973,
                0.005466555786416001
            ]
        },
        {
            "positions": [
                -0.8902579640653865,
                -0.6597527894666079,
                1.6604794978608095,
                2.139179932007314,
                -2.2279900586879435,
                0.012540423737240968
            ]
        },
        {
            "positions": [
                -0.8984340202686646,
                -0.6782351470130824,
                1.674816645392437,
                2.019702733297636,
                -2.119756559205027,
                -0.11299679588656737
            ]
        },
        {
            "positions": [
                -0.9066100764719427,
                -0.6967175045595569,
                1.6891537929240645,
                1.9002255345879577,
                -2.0115230597221103,
                -0.23853401551037573
            ]
        },
        {
            "positions": [
                -0.9147861326752207,
                -0.7151998621060315,
                1.703490940455692,
                1.7807483358782799,
                -1.903289560239194,
                -0.36407123513418405
            ]
        },
        {
            "positions": [
                -0.9229621888784988,
                -0.7336822196525059,
                1.7178280879873196,
                1.6612711371686018,
                -1.7950560607562775,
                -0.4896084547579924
            ]
        },
        {
            "positions": [
                -0.9311382450817769,
                -0.7521645771989804,
                1.732165235518947,
                1.5417939384589237,
                -1.686822561273361,
                -0.6151456743818008
            ]
        },
        {
            "positions": [
                -0.939314301285055,
                -0.770646934745455,
                1.7465023830505746,
                1.4223167397492458,
                -1.5785890617904443,
                -0.740682894005609
            ]
        },
        {
            "positions": [
                -0.9474903574883331,
                -0.7891292922919295,
                1.760839530582202,
                1.3028395410395675,
                -1.4703555623075277,
                -0.8662201136294175
            ]
        },
        {
            "positions": [
                -0.9556664136916111,
                -0.807611649838404,
                1.7751766781138296,
                1.1833623423298896,
                -1.3621220628246113,
                -0.9917573332532258
            ]
        },
        {
            "positions": [
                -0.9638424698948892,
                -0.8260940073848786,
                1.789513825645457,
                1.0638851436202117,
                -1.253888563341695,
                -1.117294552877034
            ]
        },
        {
            "positions": [
                -0.9720185260981673,
                -0.8445763649313531,
                1.8038509731770844,
                0.9444079449105336,
                -1.1456550638587784,
                -1.2428317725008424
            ]
        },
        {
            "positions": [
                -0.9801945823014454,
                -0.8630587224778277,
                1.818188120708712,
                0.8249307462008555,
                -1.0374215643758617,
                -1.3683689921246507
            ]
        },
        {
            "positions": [
                -0.9883706385047235,
                -0.8815410800243022,
                1.8325252682403395,
                0.7054535474911776,
                -0.9291880648929454,
                -1.493906211748459
            ]
        },
        {
            "positions": [
                -0.9965466947080015,
                -0.9000234375707767,
                1.846862415771967,
                0.5859763487814993,
                -0.8209545654100288,
                -1.6194434313722674
            ]
        },
        {
            "positions": [
                -1.0047227509112797,
                -0.9185057951172513,
                1.8611995633035945,
                0.4664991500718212,
                -0.7127210659271122,
                -1.744980650996076
            ]
        },
        {
            "positions": [
                -1.0128988071145577,
                -0.9369881526637257,
                1.875536710835222,
                0.3470219513621433,
                -0.6044875664441958,
                -1.870517870619884
            ]
        },
        {
            "positions": [
                -1.0210748633178357,
                -0.9554705102102002,
                1.8898738583668495,
                0.2275447526524652,
                -0.49625406696127916,
                -1.9960550902436924
            ]
        },
        {
            "positions": [
                -1.029250919521114,
                -0.9739528677566748,
                1.904211005898477,
                0.10806755394278733,
                -0.38802056747836255,
                -2.121592309867501
            ]
        },
        {
            "positions": [
                -1.037426975724392,
                -0.9924352253031492,
                1.9185481534301045,
                -0.011409644766890548,
                -0.2797870679954464,
                -2.247129529491309
            ]
        },
        {
            "positions": [
                -1.0456030319276701,
                -1.0109175828496237,
                1.932885300961732,
                -0.13088684347656887,
                -0.17155356851252979,
                -2.3726667491151177
            ]
        },
        {
            "positions": [
                -1.0537790881309481,
                -1.0293999403960985,
                1.9472224484933596,
                -0.25036404218624675,
                -0.06332006902961318,
                -2.498203968738926
            ]
        },
        {
            "positions": [
                -1.061955144334226,
                -1.0478822979425728,
                1.961559596024987,
                -0.36984124089592463,
                0.04491343045330343,
                -2.623741188362734
            ]
        },
        {
            "positions": [
                -1.0701312005375043,
                -1.0663646554890474,
                1.9758967435566146,
                -0.48931843960560295,
                0.15314692993622003,
                -2.7492784079865427
            ]
        },
        {
            "positions": [
                -1.0783072567407823,
                -1.084847013035522,
                1.990233891088242,
                -0.6087956383152813,
                0.26138042941913664,
                -2.874815627610351
            ]
        },
        {
            "positions": [
                -1.0864833129440605,
                -1.1033293705819964,
                2.0045710386198694,
                -0.7282728370249587,
                0.3696139289020528,
                -3.000352847234159
            ]
        },
        {
            "positions": [
                -1.0946593691473385,
                -1.121811728128471,
                2.018908186151497,
                -0.847750035734637,
                0.47784742838496924,
                -3.1258900668579677
            ]
        }
    ]
}