{
    "goal": {
        "global_pose": {
            "orientation": {
                "w": 0.005598929693374612,
                "x": 0.007748599140229565,
                "y": 0.7110244013736278,
                "z": -0.7031023480610252
            },
            "position": {
                "x": 0.1141497679147869,
                "y": -0.7141253447532654,
                "z": 0.3711530566215515
            }
        },
        "name": "move_to_auspresseinheit_B"
    },
    "id": "TRRT_move_to_auspresseinheit_B_135",
    "joint_names": [
        "shoulder_pan_joint",
        "shoulder_lift_joint",
        "elbow_joint",
        "wrist_1_joint",
        "wrist_2_joint",
        "wrist_3_joint"
    ],
    "metrics": {
        "cart_traj_len": 0.564545091310379,
        "distance_elbow_joint": 0.060561989455597987,
        "distance_shoulder_lift_joint": 0.2951542897508008,
        "distance_shoulder_pan_joint": 0.5757922743444364,
        "distance_wrist_1_joint": 0.31649452186196714,
        "distance_wrist_2_joint": 0.997859225943255,
        "distance_wrist_3_joint": 0.0017945857745949034,
        "smoothness": 5.075305255429287e-16,
        "time": 0.015490709,
        "traj_len": 1.4992187589310149,
        "weighted_distance": 1.8882795890664772
    },
    "planner": "TRRT",
    "start": {
        "state": {
            "elbow_joint": 2.0193083361928714,
            "shoulder_lift_joint": -1.1220246554650708,
            "shoulder_pan_joint": -1.0952077554168747,
            "wrist_1_joint": -0.8559753972642168,
            "wrist_2_joint": 0.4759566250798843,
            "wrist_3_joint": -3.1240929996934557
        }
    },
    "waypoints": [
        {
            "positions": [
                -1.0952077554168747,
                -1.1220246554650708,
                2.0193083361928714,
                -0.8559753972642168,
                0.4759566250798843,
                -3.1240929996934557
            ]
        },
        {
            "positions": [
                -1.1911731344742806,
                -1.1712170370902042,
                2.009214671283605,
                -0.8032263102872222,
                0.6422664960704267,
                -3.1237939020643566
            ]
        },
        {
            "positions": [
                -1.2871385135316868,
                -1.2204094187153378,
                1.9991210063743388,
                -0.7504772233102277,
                0.8085763670609694,
                -3.1234948044352575
            ]
        },
        {
            "positions": [
                -1.3831038925890928,
                -1.2696018003404712,
                1.9890273414650723,
                -0.6977281363332333,
                0.9748862380515118,
                -3.1231957068061584
            ]
        },
        {
            "positions": [
                -1.4790692716464988,
                -1.3187941819656046,
                1.978933676555806,
                -0.6449790493562387,
                1.1411961090420544,
                -3.122896609177059
            ]
        },
        {
            "positions": [
                -1.575034650703905,
                -1.3679865635907382,
                1.9688400116465399,
                -0.5922299623792442,
                1.3075059800325968,
                -3.12259751154796
            ]
        },
        {
            "positions": [
                -1.671000029761311,
                -1.4171789452158716,
                1.9587463467372734,
                -0.5394808754022496,
                1.4738158510231394,
                -3.1222984139188608
            ]
        }
    ]
}