{
    "goal": {
        "global_pose": {
            "orientation": {
                "w": 0.005598929693374612,
                "x": 0.007748599140229565,
                "y": 0.7110244013736278,
                "z": -0.7031023480610252
            },
            "position": {
                "x": -0.8858502320852131,
                "y": -0.7141253447532654,
                "z": 0.3711530566215515
            }
        },
        "name": "move_to_auspresseinheit_C"
    },
    "id": "TRRT_move_to_auspresseinheit_C_47",
    "joint_names": [
        "shoulder_pan_joint",
        "shoulder_lift_joint",
        "elbow_joint",
        "wrist_1_joint",
        "wrist_2_joint",
        "wrist_3_joint"
    ],
    "metrics": {
        "cart_traj_len": 0.4925554978294683,
        "distance_elbow_joint": 1.0004698524408435,
        "distance_shoulder_lift_joint": 0.32514091391616595,
        "distance_shoulder_pan_joint": 0.25573846651649346,
        "distance_wrist_1_joint": 0.6811887090021953,
        "distance_wrist_2_joint": 1.3113484945666323,
        "distance_wrist_3_joint": 0.06214605237769,
        "smoothness": 1.6148698667872622e-16,
        "time": 0.598150847,
        "traj_len": 1.9068383488958942,
        "weighted_distance": 2.3985124133813085
    },
    "planner": "TRRT",
    "start": {
        "state": {
            "elbow_joint": 1.7527959577737207,
            "shoulder_lift_joint": -0.9740617694225068,
            "shoulder_pan_joint": -2.967991417825858,
            "wrist_1_joint": -0.759517768980727,
            "wrist_2_joint": 1.7443932448377408,
            "wrist_3_joint": -3.0840537646736568
        }
    },
    "waypoints": [
        {
            "positions": [
                -2.967991417825858,
                -0.9740617694225068,
                1.7527959577737207,
                -0.759517768980727,
                1.7443932448377408,
                -3.0840537646736568
            ]
        },
        {
            "positions": [
                -2.9424175711742087,
                -0.9415476780308902,
                1.6527489725296363,
                -0.6913988980805075,
                1.6132583953810775,
                -3.090268369911426
            ]
        },
        {
            "positions": [
                -2.9168437245225594,
                -0.9090335866392736,
                1.5527019872855519,
                -0.6232800271802879,
                1.4821235459244144,
                -3.0964829751491947
            ]
        },
        {
            "positions": [
                -2.89126987787091,
                -0.8765194952476569,
                1.4526550020414677,
                -0.5551611562800685,
                1.350988696467751,
                -3.102697580386964
            ]
        },
        {
            "positions": [
                -2.8656960312192608,
                -0.8440054038560404,
                1.3526080167973833,
                -0.48704228537984884,
                1.219853847011088,
                -3.1089121856247326
            ]
        },
        {
            "positions": [
                -2.840122184567611,
                -0.8114913124644239,
                1.252561031553299,
                -0.41892341447962933,
                1.0887189975544247,
                -3.1151267908625018
            ]
        },
        {
            "positions": [
                -2.8145483379159617,
                -0.7789772210728072,
                1.1525140463092147,
                -0.3508045435794098,
                0.9575841480977615,
                -3.121341396100271
            ]
        },
        {
            "positions": [
                -2.7889744912643124,
                -0.7464631296811907,
                1.0524670610651303,
                -0.2826856726791903,
                0.8264492986410983,
                -3.1275560013380397
            ]
        },
        {
            "positions": [
                -2.763400644612663,
                -0.713949038289574,
                0.9524200758210458,
                -0.2145668017789707,
                0.695314449184435,
                -3.133770606575809
            ]
        },
        {
            "positions": [
                -2.737826797961014,
                -0.6814349468979575,
                0.8523730905769614,
                -0.1464479308787512,
                0.5641795997277717,
                -3.1399852118135776
            ]
        },
        {
            "positions": [
                -2.7122529513093645,
                -0.6489208555063408,
                0.7523261053328771,
                -0.07832905997853165,
                0.43304475027110856,
                -3.1461998170513468
            ]
        }
    ]
}