{
    "goal": {
        "global_pose": {
            "orientation": {
                "w": 0.7031023480610252,
                "x": -0.7110244013736278,
                "y": 0.0077485991402295624,
                "z": 0.005598929693374583
            },
            "position": {
                "x": -0.8841497679147869,
                "y": 0.44412534475326537,
                "z": 0.3711530566215515
            }
        },
        "name": "move_to_auspresseinheit_D"
    },
    "id": "TRRT_move_to_auspresseinheit_D_106",
    "joint_names": [
        "shoulder_pan_joint",
        "shoulder_lift_joint",
        "elbow_joint",
        "wrist_1_joint",
        "wrist_2_joint",
        "wrist_3_joint"
    ],
    "metrics": {
        "cart_traj_len": 0.3432700937334451,
        "distance_elbow_joint": 0.6400153765117953,
        "distance_shoulder_lift_joint": 0.12252473518551854,
        "distance_shoulder_pan_joint": 0.1337571072592863,
        "distance_wrist_1_joint": 0.5266276334581979,
        "distance_wrist_2_joint": 1.442727190489852,
        "distance_wrist_3_joint": 0.004137038770302581,
        "smoothness": 5.921189480296099e-16,
        "time": 0.024426181999999998,
        "traj_len": 1.6940451828906316,
        "weighted_distance": 2.2016852597870584
    },
    "planner": "TRRT",
    "start": {
        "state": {
            "elbow_joint": -1.8275523626775212,
            "shoulder_lift_joint": -2.126789852344167,
            "shoulder_pan_joint": -0.03513704404078235,
            "wrist_1_joint": -2.347782403156801,
            "wrist_2_joint": -1.6058999987535132,
            "wrist_3_joint": -3.0880379163319196
        }
    },
    "waypoints": [
        {
            "positions": [
                -0.03513704404078235,
                -2.126789852344167,
                -1.8275523626775212,
                -2.347782403156801,
                -1.6058999987535132,
                -3.0880379163319196
            ]
        },
        {
            "positions": [
                -0.05185668244819314,
                -2.1421054442423566,
                -1.7475504406135467,
                -2.4136108573390755,
                -1.4255590999422818,
                -3.0885550461782074
            ]
        },
        {
            "positions": [
                -0.06857632085560392,
                -2.1574210361405464,
                -1.6675485185495724,
                -2.47943931152135,
                -1.2452182011310502,
                -3.0890721760244952
            ]
        },
        {
            "positions": [
                -0.08529595926301471,
                -2.172736628038736,
                -1.587546596485598,
                -2.545267765703625,
                -1.0648773023198186,
                -3.089589305870783
            ]
        },
        {
            "positions": [
                -0.1020155976704255,
                -2.1880522199369263,
                -1.5075446744216237,
                -2.6110962198858996,
                -0.8845364035085872,
                -3.090106435717071
            ]
        },
        {
            "positions": [
                -0.11873523607783629,
                -2.203367811835116,
                -1.4275427523576492,
                -2.6769246740681747,
                -0.7041955046973557,
                -3.0906235655633587
            ]
        },
        {
            "positions": [
                -0.13545487448524707,
                -2.218683403733306,
                -1.3475408302936747,
                -2.7427531282504494,
                -0.5238546058861242,
                -3.0911406954096465
            ]
        },
        {
            "positions": [
                -0.15217451289265788,
                -2.2339989956314956,
                -1.2675389082297004,
                -2.808581582432724,
                -0.3435137070748926,
                -3.0916578252559344
            ]
        },
        {
            "positions": [
                -0.16889415130006866,
                -2.2493145875296854,
                -1.187536986165726,
                -2.8744100366149987,
                -0.16317280826366126,
                -3.092174955102222
            ]
        }
    ]
}