{
    "goal": {
        "global_pose": {
            "orientation": {
                "w": -0.4816463035849501,
                "x": 0.5182115481033762,
                "y": 0.4908360881923453,
                "z": -0.5084816262002911
            },
            "position": {
                "x": -0.8240239810943604,
                "y": -0.300875300988555,
                "z": 0.16403168439865112
            }
        },
        "name": "move_to_storage_C"
    },
    "id": "TRRT_move_to_storage_C_104",
    "joint_names": [
        "shoulder_pan_joint",
        "shoulder_lift_joint",
        "elbow_joint",
        "wrist_1_joint",
        "wrist_2_joint",
        "wrist_3_joint"
    ],
    "metrics": {
        "cart_traj_len": 0.5763445263664817,
        "distance_elbow_joint": 0.26067227835331597,
        "distance_shoulder_lift_joint": 0.1903909737771643,
        "distance_shoulder_pan_joint": 0.49435020011675945,
        "distance_wrist_1_joint": 0.08680992035325652,
        "distance_wrist_2_joint": 1.064588331386262,
        "distance_wrist_3_joint": 0.06853712560079561,
        "smoothness": 2.5376526478085547e-16,
        "time": 0.023572892999999998,
        "traj_len": 1.471512429301076,
        "weighted_distance": 1.8584459455493085
    },
    "planner": "TRRT",
    "start": {
        "state": {
            "elbow_joint": 2.010868314990456,
            "shoulder_lift_joint": -1.1634956873337592,
            "shoulder_pan_joint": -2.4736205022346125,
            "wrist_1_joint": -0.8367026794202681,
            "wrist_2_joint": 0.6746043897044499,
            "wrist_3_joint": -3.1496632123970403
        }
    },
    "waypoints": [
        {
            "positions": [
                -2.4736205022346125,
                -1.1634956873337592,
                2.010868314990456,
                -0.8367026794202681,
                0.6746043897044499,
                -3.1496632123970403
            ]
        },
        {
            "positions": [
                -2.5560122022540726,
                -1.1317638583708984,
                1.967422935264903,
                -0.822234359361392,
                0.8520357782688269,
                -3.138240358130241
            ]
        },
        {
            "positions": [
                -2.638403902273532,
                -1.1000320294080377,
                1.9239775555393506,
                -0.8077660393025159,
                1.029467166833204,
                -3.1268175038634416
            ]
        },
        {
            "positions": [
                -2.720795602292992,
                -1.0683002004451772,
                1.8805321758137978,
                -0.7932977192436399,
                1.206898555397581,
                -3.1153946495966425
            ]
        },
        {
            "positions": [
                -2.8031873023124523,
                -1.0365683714823164,
                1.837086796088245,
                -0.7788293991847638,
                1.384329943961958,
                -3.1039717953298434
            ]
        },
        {
            "positions": [
                -2.885579002331912,
                -1.0048365425194556,
                1.7936414163626926,
                -0.7643610791258877,
                1.561761332526335,
                -3.092548941063044
            ]
        },
        {
            "positions": [
                -2.967970702351372,
                -0.9731047135565949,
                1.7501960366371399,
                -0.7498927590670116,
                1.7391927210907119,
                -3.0811260867962447
            ]
        }
    ]
}