{
    "goal": {
        "global_pose": {
            "orientation": {
                "w": 0.005598929693374612,
                "x": 0.007748599140229565,
                "y": 0.7110244013736278,
                "z": -0.7031023480610252
            },
            "position": {
                "x": 0.1141497679147869,
                "y": -0.7141253447532654,
                "z": 0.3711530566215515
            }
        },
        "name": "move_to_auspresseinheit_B"
    },
    "id": "TRRT_move_to_auspresseinheit_B_101",
    "joint_names": [
        "shoulder_pan_joint",
        "shoulder_lift_joint",
        "elbow_joint",
        "wrist_1_joint",
        "wrist_2_joint",
        "wrist_3_joint"
    ],
    "metrics": {
        "cart_traj_len": 0.5646352982659092,
        "distance_elbow_joint": 0.061516102313073695,
        "distance_shoulder_lift_joint": 0.2935093225108403,
        "distance_shoulder_pan_joint": 0.5760861913329525,
        "distance_wrist_1_joint": 0.31916628702483674,
        "distance_wrist_2_joint": 0.9980905579048727,
        "distance_wrist_3_joint": 0.0013598370134122462,
        "smoothness": 2.5376526478085547e-16,
        "time": 0.030040869999999997,
        "traj_len": 1.4999094299656857,
        "weighted_distance": 1.889366247464086
    },
    "planner": "TRRT",
    "start": {
        "state": {
            "elbow_joint": 2.0193083361928714,
            "shoulder_lift_joint": -1.1220246554650708,
            "shoulder_pan_joint": -1.0952077554168747,
            "wrist_1_joint": -0.8559753972642168,
            "wrist_2_joint": 0.4759566250798843,
            "wrist_3_joint": -3.1240929996934557
        }
    },
    "waypoints": [
        {
            "positions": [
                -1.0952077554168747,
                -1.1220246554650708,
                2.0193083361928714,
                -0.8559753972642168,
                0.4759566250798843,
                -3.1240929996934557
            ]
        },
        {
            "positions": [
                -1.1912221206390334,
                -1.170942875883544,
                2.009055652474026,
                -0.8027810160934107,
                0.642305051397363,
                -3.1238663601912204
            ]
        },
        {
            "positions": [
                -1.2872364858611922,
                -1.2198610963020176,
                1.9988029687551803,
                -0.7495866349226046,
                0.8086534777148418,
                -3.1236397206889848
            ]
        },
        {
            "positions": [
                -1.3832508510833508,
                -1.268779316720491,
                1.9885502850363346,
                -0.6963922537517984,
                0.9750019040323206,
                -3.1234130811867495
            ]
        },
        {
            "positions": [
                -1.4792652163055096,
                -1.3176975371389643,
                1.9782976013174889,
                -0.6431978725809924,
                1.1413503303497994,
                -3.1231864416845143
            ]
        },
        {
            "positions": [
                -1.5752795815276683,
                -1.3666157575574376,
                1.9680449175986434,
                -0.5900034914101862,
                1.3076987566672782,
                -3.1229598021822786
            ]
        },
        {
            "positions": [
                -1.6712939467498271,
                -1.415533977975911,
                1.9577922338797977,
                -0.53680911023938,
                1.474047182984757,
                -3.1227331626800434
            ]
        }
    ]
}