{
    "goal": {
        "global_pose": {
            "orientation": {
                "w": 0.5084816217422485,
                "x": -0.49083608388900757,
                "y": 0.5182115435600281,
                "z": -0.4816462993621826
            },
            "position": {
                "x": 0.5540239810943604,
                "y": 0.030875300988554955,
                "z": 0.16403168439865112
            }
        },
        "name": "move_to_storage_A"
    },
    "id": "TRRT_move_to_storage_A_53",
    "joint_names": [
        "shoulder_pan_joint",
        "shoulder_lift_joint",
        "elbow_joint",
        "wrist_1_joint",
        "wrist_2_joint",
        "wrist_3_joint"
    ],
    "metrics": {
        "cart_traj_len": 0.35309257798354926,
        "distance_elbow_joint": 0.44924398765772744,
        "distance_shoulder_lift_joint": 0.2356504464538025,
        "distance_shoulder_pan_joint": 0.4619345578044522,
        "distance_wrist_1_joint": 0.24103384904185232,
        "distance_wrist_2_joint": 1.0981350515196675,
        "distance_wrist_3_joint": 0.10086451607665747,
        "smoothness": 2.2204460668324854e-16,
        "time": 0.019451571,
        "traj_len": 1.6083725963078828,
        "weighted_distance": 2.0316890365577587
    },
    "planner": "TRRT",
    "start": {
        "state": {
            "elbow_joint": 1.971548259319323,
            "shoulder_lift_joint": -1.1394851275133948,
            "shoulder_pan_joint": 0.1228115487234821,
            "wrist_1_joint": -0.7804723859257726,
            "wrist_2_joint": 0.12958671773740124,
            "wrist_3_joint": -3.192489227718131
        }
    },
    "waypoints": [
        {
            "positions": [
                0.1228115487234821,
                -1.1394851275133948,
                1.971548259319323,
                -0.7804723859257726,
                0.12958671773740124,
                -3.192489227718131
            ]
        },
        {
            "positions": [
                0.056820897608560364,
                -1.1731494770067952,
                2.0357259718418557,
                -0.8149057929317515,
                0.2864631536687823,
                -3.1780800111357514
            ]
        },
        {
            "positions": [
                -0.009169753506361372,
                -1.2068138265001955,
                2.099903684364388,
                -0.8493391999377304,
                0.4433395896001634,
                -3.1636707945533717
            ]
        },
        {
            "positions": [
                -0.07516040462128312,
                -1.2404781759935959,
                2.1640813968869206,
                -0.8837726069437093,
                0.6002160255315444,
                -3.149261577970992
            ]
        },
        {
            "positions": [
                -0.14115105573620484,
                -1.2741425254869962,
                2.228259109409453,
                -0.9182060139496883,
                0.7570924614629255,
                -3.134852361388613
            ]
        },
        {
            "positions": [
                -0.2071417068511266,
                -1.3078068749803966,
                2.2924368219319855,
                -0.9526394209556671,
                0.9139688973943066,
                -3.120443144806233
            ]
        },
        {
            "positions": [
                -0.27313235796604834,
                -1.341471224473797,
                2.356614534454518,
                -0.9870728279616461,
                1.0708453333256875,
                -3.1060339282238534
            ]
        },
        {
            "positions": [
                -0.3391230090809701,
                -1.3751355739671973,
                2.4207922469770504,
                -1.021506234967625,
                1.2277217692570688,
                -3.0916247116414737
            ]
        }
    ]
}{
    "goal": {
        "global_pose": {
            "orientation": {
                "w": 0.5084816217422485,
                "x": -0.49083608388900757,
                "y": 0.5182115435600281,
                "z": -0.4816462993621826
            },
            "position": {
                "x": 0.5540239810943604,
                "y": 0.030875300988554955,
                "z": 0.16403168439865112
            }
        },
        "name": "move_to_storage_A"
    },
    "id": "TRRT_move_to_storage_A_53",
    "joint_names": [
        "shoulder_pan_joint",
        "shoulder_lift_joint",
        "elbow_joint",
        "wrist_1_joint",
        "wrist_2_joint",
        "wrist_3_joint"
    ],
    "metrics": {
        "cart_traj_len": 0.3540197821217488,
        "distance_elbow_joint": 0.45019258749153,
        "distance_shoulder_lift_joint": 0.23566125009220573,
        "distance_shoulder_pan_joint": 0.4635050311559202,
        "distance_wrist_1_joint": 0.23959521108096649,
        "distance_wrist_2_joint": 1.0989828906769257,
        "distance_wrist_3_joint": 0.09613932171852735,
        "smoothness": 2.2204460668324854e-16,
        "time": 0.022716555,
        "traj_len": 1.6075062339586976,
        "weighted_distance": 2.028529772374816
    },
    "planner": "TRRT",
    "start": {
        "state": {
            "elbow_joint": 1.97154746011099,
            "shoulder_lift_joint": -1.13948474672311,
            "shoulder_pan_joint": 0.12281154466712228,
            "wrist_1_joint": -0.7804688027058302,
            "wrist_2_joint": 0.12958655903071145,
            "wrist_3_joint": 3.0906928834467795
        }
    },
    "waypoints": [
        {
            "positions": [
                0.12281154466712228,
                -1.13948474672311,
                1.97154746011099,
                -0.7804688027058302,
                0.12958655903071145,
                3.0906928834467795
            ]
        },
        {
            "positions": [
                0.05659654021627655,
                -1.173150639593425,
                2.0358606868954943,
                -0.8146966900031111,
                0.2865841148417008,
                3.104427072263712
            ]
        },
        {
            "positions": [
                -0.009618464234569177,
                -1.20681653246374,
                2.1001739136799986,
                -0.8489245773003921,
                0.44358167065269016,
                3.1181612610806444
            ]
        },
        {
            "positions": [
                -0.07583346868541492,
                -1.2404824253340552,
                2.164487140464503,
                -0.8831524645976729,
                0.6005792264636796,
                3.131895449897577
            ]
        },
        {
            "positions": [
                -0.14204847313626062,
                -1.2741483182043702,
                2.228800367249007,
                -0.9173803518949539,
                0.757576782274669,
                3.1456296387145093
            ]
        },
        {
            "positions": [
                -0.2082634775871064,
                -1.3078142110746855,
                2.2931135940335112,
                -0.9516082391922348,
                0.9145743380856584,
                3.159363827531442
            ]
        },
        {
            "positions": [
                -0.2744784820379521,
                -1.3414801039450006,
                2.3574268208180156,
                -0.9858361264895157,
                1.0715718938966476,
                3.173098016348374
            ]
        },
        {
            "positions": [
                -0.3406934864887979,
                -1.3751459968153157,
                2.42174004760252,
                -1.0200640137867967,
                1.2285694497076372,
                3.186832205165307
            ]
        }
    ]
}{
    "goal": {
        "global_pose": {
            "orientation": {
                "w": 0.5084816217422485,
                "x": -0.49083608388900757,
                "y": 0.5182115435600281,
                "z": -0.4816462993621826
            },
            "position": {
                "x": 0.5540239810943604,
                "y": 0.030875300988554955,
                "z": 0.16403168439865112
            }
        },
        "name": "move_to_storage_A"
    },
    "id": "TRRT_move_to_storage_A_53",
    "joint_names": [
        "shoulder_pan_joint",
        "shoulder_lift_joint",
        "elbow_joint",
        "wrist_1_joint",
        "wrist_2_joint",
        "wrist_3_joint"
    ],
    "metrics": {
        "cart_traj_len": 0.35321912852240106,
        "distance_elbow_joint": 0.4482538979271333,
        "distance_shoulder_lift_joint": 0.23495553782757206,
        "distance_shoulder_pan_joint": 0.46337556303829563,
        "distance_wrist_1_joint": 0.2380725330156015,
        "distance_wrist_2_joint": 1.0923898623851929,
        "distance_wrist_3_joint": 0.09429393788094398,
        "smoothness": 0.0,
        "time": 0.023791733,
        "traj_len": 1.603540249596105,
        "weighted_distance": 2.0224716569676375
    },
    "planner": "TRRT",
    "start": {
        "state": {
            "elbow_joint": 1.9715472970024885,
            "shoulder_lift_joint": -1.1394870060712896,
            "shoulder_pan_joint": 0.12281152778156021,
            "wrist_1_joint": -0.780463741449964,
            "wrist_2_joint": 0.12958659822042276,
            "wrist_3_joint": 3.090690232415272
        }
    },
    "waypoints": [
        {
            "positions": [
                0.12281152778156021,
                -1.1394870060712896,
                1.9715472970024885,
                -0.780463741449964,
                0.12958659822042276,
                3.090690232415272
            ]
        },
        {
            "positions": [
                0.056615018776089404,
                -1.1730520829037998,
                2.0355835681349363,
                -0.8144741033093357,
                0.28564229284687886,
                3.1041607949696925
            ]
        },
        {
            "positions": [
                -0.0095814902293814,
                -1.2066171597363102,
                2.0996198392673837,
                -0.8484844651687072,
                0.441697987473335,
                3.117631357524113
            ]
        },
        {
            "positions": [
                -0.0757779992348522,
                -1.2401822365688204,
                2.1636561103998315,
                -0.8824948270280789,
                0.5977536820997911,
                3.1311019200785335
            ]
        },
        {
            "positions": [
                -0.141974508240323,
                -1.2737473134013308,
                2.227692381532279,
                -0.9165051888874506,
                0.7538093767262471,
                3.144572482632954
            ]
        },
        {
            "positions": [
                -0.20817101724579382,
                -1.307312390233841,
                2.2917286526647267,
                -0.9505155507468221,
                0.9098650713527033,
                3.158043045187375
            ]
        },
        {
            "positions": [
                -0.2743675262512646,
                -1.3408774670663512,
                2.355764923797174,
                -0.9845259126061938,
                1.0659207659791594,
                3.171513607741795
            ]
        },
        {
            "positions": [
                -0.3405640352567354,
                -1.3744425438988617,
                2.419801194929622,
                -1.0185362744655655,
                1.2219764606056156,
                3.184984170296216
            ]
        }
    ]
}