{
    "goal": {
        "global_pose": {
            "orientation": {
                "w": 0.005598929693374612,
                "x": 0.007748599140229565,
                "y": 0.7110244013736278,
                "z": -0.7031023480610252
            },
            "position": {
                "x": 0.1141497679147869,
                "y": -0.7141253447532654,
                "z": 0.3711530566215515
            }
        },
        "name": "move_to_auspresseinheit_B"
    },
    "id": "TRRT_move_to_auspresseinheit_B_117",
    "joint_names": [
        "shoulder_pan_joint",
        "shoulder_lift_joint",
        "elbow_joint",
        "wrist_1_joint",
        "wrist_2_joint",
        "wrist_3_joint"
    ],
    "metrics": {
        "cart_traj_len": 0.5650121214643857,
        "distance_elbow_joint": 0.06196416905717084,
        "distance_shoulder_lift_joint": 0.2945214222601824,
        "distance_shoulder_pan_joint": 0.5767371819736795,
        "distance_wrist_1_joint": 0.3194341886236969,
        "distance_wrist_2_joint": 0.9943922648473338,
        "distance_wrist_3_joint": 0.0006003031580119611,
        "smoothness": 2.5376526478085547e-16,
        "time": 0.022932143000000002,
        "traj_len": 1.4992163052475367,
        "weighted_distance": 1.8875053879941985
    },
    "planner": "TRRT",
    "start": {
        "state": {
            "elbow_joint": 2.0193083361928714,
            "shoulder_lift_joint": -1.1220246554650708,
            "shoulder_pan_joint": -1.0952077554168747,
            "wrist_1_joint": -0.8559753972642168,
            "wrist_2_joint": 0.4759566250798843,
            "wrist_3_joint": -3.1240929996934557
        }
    },
    "waypoints": [
        {
            "positions": [
                -1.0952077554168747,
                -1.1220246554650708,
                2.0193083361928714,
                -0.8559753972642168,
                0.4759566250798843,
                -3.1240929996934557
            ]
        },
        {
            "positions": [
                -1.1913306190791546,
                -1.1711115591751011,
                2.008980974683343,
                -0.802736365826934,
                0.6416886692211066,
                -3.1239929491671203
            ]
        },
        {
            "positions": [
                -1.2874534827414346,
                -1.2201984628851317,
                1.9986536131738144,
                -0.7494973343896512,
                0.8074207133623288,
                -3.123892898640785
            ]
        },
        {
            "positions": [
                -1.3835763464037143,
                -1.269285366595162,
                1.9883262516642861,
                -0.6962583029523683,
                0.9731527575035512,
                -3.1237928481144497
            ]
        },
        {
            "positions": [
                -1.4796992100659943,
                -1.3183722703051923,
                1.9779988901547576,
                -0.6430192715150855,
                1.1388848016447735,
                -3.1236927975881144
            ]
        },
        {
            "positions": [
                -1.5758220737282742,
                -1.3674591740152229,
                1.967671528645229,
                -0.5897802400778027,
                1.304616845785996,
                -3.123592747061779
            ]
        },
        {
            "positions": [
                -1.6719449373905542,
                -1.4165460777252532,
                1.9573441671357006,
                -0.5365412086405199,
                1.4703488899272181,
                -3.1234926965354437
            ]
        }
    ]
}