{
    "goal": {
        "global_pose": {
            "orientation": {
                "w": 0.7047431468963623,
                "x": -0.7094548344612122,
                "y": 0.0024358443915843964,
                "z": -0.0022348060738295317
            },
            "position": {
                "x": 0.6094750761985779,
                "y": 0.3671506643295288,
                "z": 0.19426114857196808
            }
        },
        "name": "move_to_magneteinheit_A"
    },
    "id": "TRRT_move_to_magneteinheit_A_26",
    "joint_names": [
        "shoulder_pan_joint",
        "shoulder_lift_joint",
        "elbow_joint",
        "wrist_1_joint",
        "wrist_2_joint",
        "wrist_3_joint"
    ],
    "metrics": {
        "cart_traj_len": 3.861798363335285,
        "distance_elbow_joint": 4.110812447671681,
        "distance_shoulder_lift_joint": 0.5625110108487674,
        "distance_shoulder_pan_joint": 3.4786800916100096,
        "distance_wrist_1_joint": 1.2074463890277194,
        "distance_wrist_2_joint": 1.7722074404393666,
        "distance_wrist_3_joint": 3.6055391929725156,
        "smoothness": 0.4201577580186157,
        "time": 0.094125191,
        "traj_len": 3.8389056477816768,
        "weighted_distance": 4.992787677037966
    },
    "planner": "TRRT",
    "start": {
        "state": {
            "elbow_joint": -1.9196185241190666,
            "shoulder_lift_joint": -1.2443396400964142,
            "shoulder_pan_joint": 2.6996025414629847,
            "wrist_1_joint": -1.5485510000780065,
            "wrist_2_joint": -1.5709468930060704,
            "wrist_3_joint": 0.4420197071253992
        }
    },
    "waypoints": [
        {
            "positions": [
                2.6996025414629847,
                -1.2443396400964142,
                -1.9196185241190666,
                -1.5485510000780065,
                -1.5709468930060704,
                0.4420197071253992
            ]
        },
        {
            "positions": [
                2.603501471655501,
                -1.2411414463660744,
                -1.7968343907820714,
                -1.5450918501337196,
                -1.5107154370671962,
                0.3451562582331864
            ]
        },
        {
            "positions": [
                2.5074004018480176,
                -1.2379432526357346,
                -1.6740502574450762,
                -1.5416327001894328,
                -1.450483981128322,
                0.24829280934097359
            ]
        },
        {
            "positions": [
                2.411299332040534,
                -1.2347450589053948,
                -1.5512661241080812,
                -1.538173550245146,
                -1.3902525251894482,
                0.15142936044876082
            ]
        },
        {
            "positions": [
                2.3151982622330505,
                -1.231546865175055,
                -1.428481990771086,
                -1.534714400300859,
                -1.330021069250574,
                0.054565911556548
            ]
        },
        {
            "positions": [
                2.2190971924255667,
                -1.2283486714447152,
                -1.3056978574340907,
                -1.5312552503565722,
                -1.2697896133117,
                -0.042297537335664825
            ]
        },
        {
            "positions": [
                2.1229961226180833,
                -1.2251504777143754,
                -1.1829137240970957,
                -1.5277961004122853,
                -1.2095581573728258,
                -0.13916098622787754
            ]
        },
        {
            "positions": [
                2.0268950528105996,
                -1.2219522839840358,
                -1.0601295907601003,
                -1.5243369504679984,
                -1.1493267014339517,
                -0.23602443512009053
            ]
        },
        {
            "positions": [
                1.930793983003116,
                -1.218754090253696,
                -0.9373454574231052,
                -1.5208778005237116,
                -1.0890952454950777,
                -0.3328878840123032
            ]
        },
        {
            "positions": [
                1.8346929131956324,
                -1.2155558965233562,
                -0.81456132408611,
                -1.5174186505794247,
                -1.0288637895562038,
                -0.42975133290451595
            ]
        },
        {
            "positions": [
                1.7385918433881487,
                -1.2123577027930164,
                -0.6917771907491148,
                -1.5139595006351378,
                -0.9686323336173295,
                -0.5266147817967288
            ]
        },
        {
            "positions": [
                1.6424907735806653,
                -1.2091595090626766,
                -0.5689930574121196,
                -1.510500350690851,
                -0.9084008776784555,
                -0.6234782306889416
            ]
        },
        {
            "positions": [
                1.5463897037731817,
                -1.2059613153323367,
                -0.4462089240751246,
                -1.5070412007465641,
                -0.8481694217395814,
                -0.7203416795811542
            ]
        },
        {
            "positions": [
                1.450288633965698,
                -1.202763121601997,
                -0.32342479073812913,
                -1.5035820508022772,
                -0.7879379658007073,
                -0.8172051284733673
            ]
        },
        {
            "positions": [
                1.3541875641582144,
                -1.1995649278716571,
                -0.2006406574011339,
                -1.5001229008579904,
                -0.7277065098618332,
                -0.9140685773655802
            ]
        },
        {
            "positions": [
                1.2580864943507308,
                -1.1963667341413173,
                -0.0778565240641389,
                -1.4966637509137035,
                -0.6674750539229592,
                -1.0109320262577928
            ]
        },
        {
            "positions": [
                1.1619854245432473,
                -1.1931685404109775,
                0.04492760927285633,
                -1.4932046009694167,
                -0.607243597984085,
                -1.1077954751500054
            ]
        },
        {
            "positions": [
                1.0658843547357635,
                -1.1899703466806377,
                0.16771174260985156,
                -1.4897454510251298,
                -0.547012142045211,
                -1.2046589240422185
            ]
        },
        {
            "positions": [
                0.9697832849282801,
                -1.186772152950298,
                0.29049587594684656,
                -1.486286301080843,
                -0.48678068610633707,
                -1.3015223729344312
            ]
        },
        {
            "positions": [
                0.8736822151207966,
                -1.1835739592199583,
                0.413280009283842,
                -1.482827151136556,
                -0.4265492301674627,
                -1.3983858218266438
            ]
        },
        {
            "positions": [
                0.7775811453133128,
                -1.1803757654896185,
                0.536064142620837,
                -1.4793680011922692,
                -0.3663177742285886,
                -1.495249270718857
            ]
        },
        {
            "positions": [
                0.6814800755058292,
                -1.1771775717592787,
                0.658848275957832,
                -1.4759088512479823,
                -0.30608631828971467,
                -1.5921127196110696
            ]
        },
        {
            "positions": [
                0.5853790056983459,
                -1.173979378028939,
                0.7816324092948275,
                -1.4724497013036955,
                -0.24585486235084053,
                -1.6889761685032822
            ]
        },
        {
            "positions": [
                0.4892779358908621,
                -1.1707811842985991,
                0.9044165426318225,
                -1.4689905513594086,
                -0.1856234064119664,
                -1.7858396173954953
            ]
        },
        {
            "positions": [
                0.39317686608337876,
                -1.1675829905682593,
                1.0272006759688175,
                -1.4655314014151217,
                -0.12539195047309248,
                -1.8827030662877076
            ]
        },
        {
            "positions": [
                0.29707579627589487,
                -1.1643847968379195,
                1.1499848093058127,
                -1.4620722514708349,
                -0.0651604945342184,
                -1.9795665151799209
            ]
        },
        {
            "positions": [
                0.22764504671510954,
                -1.1900664035600914,
                1.2539800563180212,
                -1.3638397023413946,
                -0.039252952124835844,
                -2.044406300042602
            ]
        },
        {
            "positions": [
                0.15821429715432425,
                -1.2157480102822633,
                1.3579753033302298,
                -1.2656071532119544,
                -0.013345409715453282,
                -2.109246084905283
            ]
        },
        {
            "positions": [
                0.08878354759353896,
                -1.241429617004435,
                1.4619705503424383,
                -1.1673746040825144,
                0.012562132693929279,
                -2.174085869767964
            ]
        },
        {
            "positions": [
                0.019352798032753638,
                -1.267111223726607,
                1.565965797354647,
                -1.069142054953074,
                0.03846967510331184,
                -2.2389256546306453
            ]
        },
        {
            "positions": [
                -0.05007795152803168,
                -1.2927928304487788,
                1.6699610443668556,
                -0.9709095058236338,
                0.06437721751269443,
                -2.3037654394933265
            ]
        },
        {
            "positions": [
                -0.11950870108881695,
                -1.3184744371709507,
                1.773956291379064,
                -0.8726769566941937,
                0.09028475992207696,
                -2.368605224356007
            ]
        },
        {
            "positions": [
                -0.18893945064960233,
                -1.3441560438931224,
                1.8779515383912728,
                -0.7744444075647533,
                0.11619230233145955,
                -2.4334450092186883
            ]
        },
        {
            "positions": [
                -0.2583702002103876,
                -1.3698376506152943,
                1.9819467854034811,
                -0.6762118584353132,
                0.14209984474084209,
                -2.4982847940813695
            ]
        },
        {
            "positions": [
                -0.3278009497711729,
                -1.3955192573374662,
                2.08594203241569,
                -0.5779793093058729,
                0.16800738715022467,
                -2.5631245789440507
            ]
        },
        {
            "positions": [
                -0.2375456296960025,
                -1.3452349159193209,
                2.064891654188305,
                -0.6253542489569901,
                0.16135675509361055,
                -2.683203560324664
            ]
        },
        {
            "positions": [
                -0.14729030962083212,
                -1.2949505745011758,
                2.04384127596092,
                -0.6727291886081073,
                0.15470612303699643,
                -2.803282541705277
            ]
        },
        {
            "positions": [
                -0.057034989545661774,
                -1.2446662330830305,
                2.022790897733535,
                -0.7201041282592244,
                0.14805549098038234,
                -2.92336152308589
            ]
        },
        {
            "positions": [
                0.03322033052950868,
                -1.1943818916648854,
                2.0017405195061504,
                -0.7674790679103416,
                0.14140485892376822,
                -3.043440504466503
            ]
        },
        {
            "positions": [
                0.12347565060467902,
                -1.14409755024674,
                1.9806901412787654,
                -0.8148540075614588,
                0.1347542268671541,
                -3.1635194858471163
            ]
        }
    ]
}