{
    "goal": {
        "global_pose": {
            "orientation": {
                "w": 0.5084816217422485,
                "x": -0.49083608388900757,
                "y": 0.5182115435600281,
                "z": -0.4816462993621826
            },
            "position": {
                "x": 0.5540239810943604,
                "y": 0.030875300988554955,
                "z": 0.16403168439865112
            }
        },
        "name": "move_to_storage_A"
    },
    "id": "TRRT_move_to_storage_A_91",
    "joint_names": [
        "shoulder_pan_joint",
        "shoulder_lift_joint",
        "elbow_joint",
        "wrist_1_joint",
        "wrist_2_joint",
        "wrist_3_joint"
    ],
    "metrics": {
        "cart_traj_len": 0.353101235624561,
        "distance_elbow_joint": 0.448518891438636,
        "distance_shoulder_lift_joint": 0.2347435833802114,
        "distance_shoulder_pan_joint": 0.4623640296949312,
        "distance_wrist_1_joint": 0.23553447192106425,
        "distance_wrist_2_joint": 1.0962109595585012,
        "distance_wrist_3_joint": 0.08974140850810208,
        "smoothness": 2.2204460668324854e-16,
        "time": 0.018165227,
        "traj_len": 1.6022213781189683,
        "weighted_distance": 2.019490429043232
    },
    "planner": "TRRT",
    "start": {
        "state": {
            "elbow_joint": 1.971548259319323,
            "shoulder_lift_joint": -1.1394851275133948,
            "shoulder_pan_joint": 0.1228115487234821,
            "wrist_1_joint": -0.7804723859257726,
            "wrist_2_joint": 0.12958671773740124,
            "wrist_3_joint": -3.192489227718131
        }
    },
    "waypoints": [
        {
            "positions": [
                0.1228115487234821,
                -1.1394851275133948,
                1.971548259319323,
                -0.7804723859257726,
                0.12958671773740124,
                -3.192489227718131
            ]
        },
        {
            "positions": [
                0.05675954448134908,
                -1.1730199251391393,
                2.0356223866676997,
                -0.8141201676287818,
                0.2861882833886157,
                -3.179669026502688
            ]
        },
        {
            "positions": [
                -0.009292459760783939,
                -1.2065547227648838,
                2.099696514016076,
                -0.847767949331791,
                0.4427898490398301,
                -3.1668488252872447
            ]
        },
        {
            "positions": [
                -0.07534446400291697,
                -1.2400895203906284,
                2.1637706413644526,
                -0.8814157310348001,
                0.5993914146910446,
                -3.1540286240718016
            ]
        },
        {
            "positions": [
                -0.14139646824504998,
                -1.2736243180163727,
                2.227844768712829,
                -0.9150635127378093,
                0.755992980342259,
                -3.1412084228563586
            ]
        },
        {
            "positions": [
                -0.207448472487183,
                -1.3071591156421172,
                2.291918896061206,
                -0.9487112944408185,
                0.9125945459934736,
                -3.1283882216409156
            ]
        },
        {
            "positions": [
                -0.27350047672931604,
                -1.3406939132678617,
                2.3559930234095825,
                -0.9823590761438277,
                1.069196111644688,
                -3.115568020425472
            ]
        },
        {
            "positions": [
                -0.3395524809714491,
                -1.3742287108936062,
                2.420067150757959,
                -1.0160068578468369,
                1.2257976772959025,
                -3.102747819210029
            ]
        }
    ]
}{
    "goal": {
        "global_pose": {
            "orientation": {
                "w": 0.5084816217422485,
                "x": -0.49083608388900757,
                "y": 0.5182115435600281,
                "z": -0.4816462993621826
            },
            "position": {
                "x": 0.5540239810943604,
                "y": 0.030875300988554955,
                "z": 0.16403168439865112
            }
        },
        "name": "move_to_storage_A"
    },
    "id": "TRRT_move_to_storage_A_91",
    "joint_names": [
        "shoulder_pan_joint",
        "shoulder_lift_joint",
        "elbow_joint",
        "wrist_1_joint",
        "wrist_2_joint",
        "wrist_3_joint"
    ],
    "metrics": {
        "cart_traj_len": 0.35335605301095374,
        "distance_elbow_joint": 0.45161932002866356,
        "distance_shoulder_lift_joint": 0.23580161831302582,
        "distance_shoulder_pan_joint": 0.46429634787316737,
        "distance_wrist_1_joint": 0.24657959228575477,
        "distance_wrist_2_joint": 1.09065289029368,
        "distance_wrist_3_joint": 0.08961517877394076,
        "smoothness": 4.440892098500626e-16,
        "time": 0.022460651999999998,
        "traj_len": 1.605791065975967,
        "weighted_distance": 2.023617500343271
    },
    "planner": "TRRT",
    "start": {
        "state": {
            "elbow_joint": 1.97154746011099,
            "shoulder_lift_joint": -1.13948474672311,
            "shoulder_pan_joint": 0.12281154466712228,
            "wrist_1_joint": -0.7804688027058302,
            "wrist_2_joint": 0.12958655903071145,
            "wrist_3_joint": 3.0906928834467795
        }
    },
    "waypoints": [
        {
            "positions": [
                0.12281154466712228,
                -1.13948474672311,
                1.97154746011099,
                -0.7804688027058302,
                0.12958655903071145,
                3.0906928834467795
            ]
        },
        {
            "positions": [
                0.05648349497095552,
                -1.1731706921963994,
                2.0360645058293705,
                -0.8156944587466523,
                0.2853941147869514,
                3.1034950518430566
            ]
        },
        {
            "positions": [
                -0.009844554725211244,
                -1.2068566376696888,
                2.100581551547751,
                -0.8509201147874744,
                0.4412016705431915,
                3.116297220239334
            ]
        },
        {
            "positions": [
                -0.076172604421378,
                -1.2405425831429782,
                2.1650985972661316,
                -0.8861457708282965,
                0.5970092262994314,
                3.1290993886356113
            ]
        },
        {
            "positions": [
                -0.14250065411754476,
                -1.2742285286162676,
                2.2296156429845118,
                -0.9213714268691187,
                0.7528167820556715,
                3.1419015570318884
            ]
        },
        {
            "positions": [
                -0.20882870381371155,
                -1.307914474089557,
                2.2941326887028923,
                -0.9565970829099407,
                0.9086243378119115,
                3.1547037254281656
            ]
        },
        {
            "positions": [
                -0.2751567535098783,
                -1.3416004195628464,
                2.358649734421273,
                -0.9918227389507628,
                1.0644318935681514,
                3.167505893824443
            ]
        },
        {
            "positions": [
                -0.3414848032060451,
                -1.3752863650361358,
                2.4231667801396535,
                -1.027048394991585,
                1.2202394493243915,
                3.1803080622207203
            ]
        }
    ]
}{
    "goal": {
        "global_pose": {
            "orientation": {
                "w": 0.5084816217422485,
                "x": -0.49083608388900757,
                "y": 0.5182115435600281,
                "z": -0.4816462993621826
            },
            "position": {
                "x": 0.5540239810943604,
                "y": 0.030875300988554955,
                "z": 0.16403168439865112
            }
        },
        "name": "move_to_storage_A"
    },
    "id": "TRRT_move_to_storage_A_91",
    "joint_names": [
        "shoulder_pan_joint",
        "shoulder_lift_joint",
        "elbow_joint",
        "wrist_1_joint",
        "wrist_2_joint",
        "wrist_3_joint"
    ],
    "metrics": {
        "cart_traj_len": 0.3532184034882583,
        "distance_elbow_joint": 0.45161062520400685,
        "distance_shoulder_lift_joint": 0.2341735683820465,
        "distance_shoulder_pan_joint": 0.4620582657317988,
        "distance_wrist_1_joint": 0.24749139396640163,
        "distance_wrist_2_joint": 1.0986426734148635,
        "distance_wrist_3_joint": 0.09506969345259897,
        "smoothness": 6.661338165333112e-16,
        "time": 0.02708827,
        "traj_len": 1.6090513416767398,
        "weighted_distance": 2.031088298040777
    },
    "planner": "TRRT",
    "start": {
        "state": {
            "elbow_joint": 1.9715472970024885,
            "shoulder_lift_joint": -1.1394870060712896,
            "shoulder_pan_joint": 0.12281152778156021,
            "wrist_1_joint": -0.780463741449964,
            "wrist_2_joint": 0.12958659822042276,
            "wrist_3_joint": 3.090690232415272
        }
    },
    "waypoints": [
        {
            "positions": [
                0.12281152778156021,
                -1.1394870060712896,
                1.9715472970024885,
                -0.780463741449964,
                0.12958659822042276,
                3.090690232415272
            ]
        },
        {
            "positions": [
                0.056803204105588964,
                -1.1729403729830106,
                2.036063100603061,
                -0.8158196548737356,
                0.2865355515654032,
                3.1042716171942146
            ]
        },
        {
            "positions": [
                -0.00920511957038228,
                -1.2063937398947315,
                2.1005789042036334,
                -0.8511755682975073,
                0.4434845049103837,
                3.1178530019731574
            ]
        },
        {
            "positions": [
                -0.07521344324635354,
                -1.2398471068064525,
                2.1650947078042058,
                -0.8865314817212789,
                0.6004334582553642,
                3.1314343867521
            ]
        },
        {
            "positions": [
                -0.14122176692232477,
                -1.2733004737181732,
                2.229610511404778,
                -0.9218873951450506,
                0.7573824116003447,
                3.1450157715310425
            ]
        },
        {
            "positions": [
                -0.20723009059829603,
                -1.3067538406298942,
                2.2941263150053506,
                -0.9572433085688223,
                0.9143313649453253,
                3.1585971563099853
            ]
        },
        {
            "positions": [
                -0.2732384142742673,
                -1.3402072075416152,
                2.358642118605923,
                -0.992599221992594,
                1.0712803182903057,
                3.172178541088928
            ]
        },
        {
            "positions": [
                -0.3392467379502386,
                -1.3736605744533361,
                2.4231579222064954,
                -1.0279551354163656,
                1.2282292716352863,
                3.185759925867871
            ]
        }
    ]
}