{
    "goal": {
        "global_pose": {
            "orientation": {
                "w": 0.7031023502349854,
                "x": -0.7110244035720825,
                "y": 0.007748599164187908,
                "z": 0.005598929710686207
            },
            "position": {
                "x": 0.11585023208521307,
                "y": 0.44412534475326537,
                "z": 0.3711530566215515
            }
        },
        "name": "move_to_auspresseinheit_A"
    },
    "id": "TRRT_move_to_auspresseinheit_A_147",
    "joint_names": [
        "shoulder_pan_joint",
        "shoulder_lift_joint",
        "elbow_joint",
        "wrist_1_joint",
        "wrist_2_joint",
        "wrist_3_joint"
    ],
    "metrics": {
        "cart_traj_len": 0.8298395939342207,
        "distance_elbow_joint": 0.28175235529354303,
        "distance_shoulder_lift_joint": 0.5346143673456911,
        "distance_shoulder_pan_joint": 1.0607578694857938,
        "distance_wrist_1_joint": 0.6372296101344244,
        "distance_wrist_2_joint": 0.5169477710819459,
        "distance_wrist_3_joint": 0.10616763581457933,
        "smoothness": 0.411825366428279,
        "time": 0.6061855309999999,
        "traj_len": 1.771290379682557,
        "weighted_distance": 2.122258764147649
    },
    "planner": "TRRT",
    "start": {
        "state": {
            "elbow_joint": 2.4225746658250005,
            "shoulder_lift_joint": -1.3736534386056498,
            "shoulder_pan_joint": -0.3378633547517467,
            "wrist_1_joint": -1.0288598680537169,
            "wrist_2_joint": 1.233022673432363,
            "wrist_3_joint": -3.0940220416140027
        }
    },
    "waypoints": [
        {
            "positions": [
                -0.3378633547517467,
                -1.3736534386056498,
                2.4225746658250005,
                -1.0288598680537169,
                1.233022673432363,
                -3.0940220416140027
            ]
        },
        {
            "positions": [
                -0.3416266826207014,
                -1.4155774387892093,
                2.344336321519022,
                -0.9477649465814467,
                1.1792425317184243,
                -3.1007002520296796
            ]
        },
        {
            "positions": [
                -0.345390010489656,
                -1.4575014389727685,
                2.266097977213043,
                -0.8666700251091766,
                1.1254623900044853,
                -3.1073784624453564
            ]
        },
        {
            "positions": [
                -0.21875216051095184,
                -1.5335511543240492,
                2.277936019836468,
                -0.7777125654952104,
                1.0560421645260065,
                -3.1208069878756977
            ]
        },
        {
            "positions": [
                -0.09211431053224767,
                -1.6096008696753297,
                2.2897740624598923,
                -0.6887551058812442,
                0.9866219390475275,
                -3.134235513306039
            ]
        },
        {
            "positions": [
                0.03452353944645653,
                -1.6856505850266104,
                2.301612105083317,
                -0.599797646267278,
                0.9172017135690487,
                -3.14766403873638
            ]
        },
        {
            "positions": [
                0.16116138942516067,
                -1.7617003003778908,
                2.3134501477067415,
                -0.5108401866533119,
                0.8477814880905696,
                -3.1610925641667214
            ]
        },
        {
            "positions": [
                0.28779923940386487,
                -1.8377500157291715,
                2.3252881903301663,
                -0.4218827270393458,
                0.7783612626120908,
                -3.1745210895970626
            ]
        },
        {
            "positions": [
                0.49782022133104664,
                -1.8730089108402561,
                2.3583309171123976,
                -0.4370089615993724,
                0.747218082481254,
                -3.1616867956813026
            ]
        },
        {
            "positions": [
                0.7078412032582284,
                -1.908267805951341,
                2.391373643894629,
                -0.45213519615939907,
                0.7160749023504172,
                -3.148852501765543
            ]
        }
    ]
}