{
    "goal": {
        "global_pose": {
            "orientation": {
                "w": -0.4816463035849501,
                "x": 0.5182115481033762,
                "y": 0.4908360881923453,
                "z": -0.5084816262002911
            },
            "position": {
                "x": -0.8240239810943604,
                "y": -0.300875300988555,
                "z": 0.16403168439865112
            }
        },
        "name": "move_to_storage_C"
    },
    "id": "TRRT_move_to_storage_C_21",
    "joint_names": [
        "shoulder_pan_joint",
        "shoulder_lift_joint",
        "elbow_joint",
        "wrist_1_joint",
        "wrist_2_joint",
        "wrist_3_joint"
    ],
    "metrics": {
        "cart_traj_len": 0.5766242660375414,
        "distance_elbow_joint": 0.2552627253093289,
        "distance_shoulder_lift_joint": 0.18888677361612116,
        "distance_shoulder_pan_joint": 0.49503552280720875,
        "distance_wrist_1_joint": 0.06706246653256653,
        "distance_wrist_2_joint": 1.0654974499494765,
        "distance_wrist_3_joint": 0.06069568062409747,
        "smoothness": 2.5376526478085547e-16,
        "time": 0.026309864000000002,
        "traj_len": 1.4602878547871303,
        "weighted_distance": 1.8402151767032673
    },
    "planner": "TRRT",
    "start": {
        "state": {
            "elbow_joint": 2.010868314990456,
            "shoulder_lift_joint": -1.1634956873337592,
            "shoulder_pan_joint": -2.4736205022346125,
            "wrist_1_joint": -0.8367026794202681,
            "wrist_2_joint": 0.6746043897044499,
            "wrist_3_joint": -3.1496632123970403
        }
    },
    "waypoints": [
        {
            "positions": [
                -2.4736205022346125,
                -1.1634956873337592,
                2.010868314990456,
                -0.8367026794202681,
                0.6746043897044499,
                -3.1496632123970403
            ]
        },
        {
            "positions": [
                -2.5561264227024805,
                -1.132014558397739,
                1.968324527438901,
                -0.8255256016648403,
                0.8521872980293627,
                -3.139547265626357
            ]
        },
        {
            "positions": [
                -2.638632343170349,
                -1.1005334294617188,
                1.925780739887346,
                -0.8143485239094126,
                1.0297702063542755,
                -3.1294313188556746
            ]
        },
        {
            "positions": [
                -2.721138263638217,
                -1.0690523005256987,
                1.8832369523357912,
                -0.8031714461539848,
                1.2073531146791883,
                -3.1193153720849915
            ]
        },
        {
            "positions": [
                -2.803644184106085,
                -1.0375711715896785,
                1.8406931647842366,
                -0.7919943683985571,
                1.384936023004101,
                -3.1091994253143085
            ]
        },
        {
            "positions": [
                -2.8861501045739533,
                -1.0060900426536583,
                1.7981493772326818,
                -0.7808172906431293,
                1.5625189313290138,
                -3.099083478543626
            ]
        },
        {
            "positions": [
                -2.9686560250418212,
                -0.974608913717638,
                1.755605589681127,
                -0.7696402128877016,
                1.7401018396539263,
                -3.088967531772943
            ]
        }
    ]
}