{
    "goal": {
        "global_pose": {
            "orientation": {
                "w": -0.4816463035849501,
                "x": 0.5182115481033762,
                "y": 0.4908360881923453,
                "z": -0.5084816262002911
            },
            "position": {
                "x": -0.8240239810943604,
                "y": 0.19912469901144506,
                "z": 0.16403168439865112
            }
        },
        "name": "move_to_storage_D"
    },
    "id": "TRRT_move_to_storage_D_150",
    "joint_names": [
        "shoulder_pan_joint",
        "shoulder_lift_joint",
        "elbow_joint",
        "wrist_1_joint",
        "wrist_2_joint",
        "wrist_3_joint"
    ],
    "metrics": {
        "cart_traj_len": 3.9140479228831855,
        "distance_elbow_joint": 4.208931433104605,
        "distance_shoulder_lift_joint": 1.2638136793385433,
        "distance_shoulder_pan_joint": 2.81270074676217,
        "distance_wrist_1_joint": 2.3908488814351365,
        "distance_wrist_2_joint": 1.0113920164156398,
        "distance_wrist_3_joint": 4.901793862253449,
        "smoothness": 0.25611525114109035,
        "time": 1.978361425,
        "traj_len": 4.073018612688817,
        "weighted_distance": 5.458507968453212
    },
    "planner": "TRRT",
    "start": {
        "state": {
            "elbow_joint": -2.384821988534728,
            "shoulder_lift_joint": -2.2788054721415256,
            "shoulder_pan_joint": -0.1854694642142757,
            "wrist_1_joint": 1.4845938289331202,
            "wrist_2_joint": 0.17898776772866878,
            "wrist_3_joint": 0.037105688729662994
        }
    },
    "waypoints": [
        {
            "positions": [
                -0.1854694642142757,
                -2.2788054721415256,
                -2.384821988534728,
                1.4845938289331202,
                0.17898776772866878,
                0.037105688729662994
            ]
        },
        {
            "positions": [
                -0.061727130077428985,
                -2.244766431969866,
                -2.3026936555533166,
                1.4926800633008122,
                0.17062230875887974,
                0.14772198718120932
            ]
        },
        {
            "positions": [
                0.06201520405941774,
                -2.2107273917982058,
                -2.2205653225719058,
                1.500766297668504,
                0.16225684978909072,
                0.2583382856327556
            ]
        },
        {
            "positions": [
                0.18575753819626448,
                -2.176688351626546,
                -2.1384369895904944,
                1.5088525320361956,
                0.15389139081930167,
                0.36895458408430204
            ]
        },
        {
            "positions": [
                0.30949987233311116,
                -2.1426493114548864,
                -2.056308656609083,
                1.5169387664038876,
                0.14552593184951262,
                0.47957088253584834
            ]
        },
        {
            "positions": [
                0.4332422064699579,
                -2.108610271283226,
                -1.974180323627672,
                1.5250250007715795,
                0.1371604728797236,
                0.5901871809873946
            ]
        },
        {
            "positions": [
                0.5569845406068047,
                -2.0745712311115665,
                -1.892051990646261,
                1.5331112351392713,
                0.12879501390993456,
                0.7008034794389411
            ]
        },
        {
            "positions": [
                0.6807268747436513,
                -2.0405321909399063,
                -1.8099236576648496,
                1.541197469506963,
                0.12042955494014553,
                0.8114197778904874
            ]
        },
        {
            "positions": [
                0.8044692088804981,
                -2.0064931507682466,
                -1.7277953246834385,
                1.549283703874655,
                0.11206409597035649,
                0.9220360763420337
            ]
        },
        {
            "positions": [
                0.8477091451940948,
                -1.9950415073762313,
                -1.6301148440317723,
                1.4773271506292613,
                0.14598533278088946,
                0.7972920729241941
            ]
        },
        {
            "positions": [
                0.8909490815076914,
                -1.983589863984216,
                -1.532434363380106,
                1.4053705973838677,
                0.17990656959142243,
                0.6725480695063546
            ]
        },
        {
            "positions": [
                0.934189017821288,
                -1.9721382205922007,
                -1.4347538827284398,
                1.333414044138474,
                0.2138278064019554,
                0.5478040660885151
            ]
        },
        {
            "positions": [
                0.9774289541348846,
                -1.9606865772001854,
                -1.3370734020767736,
                1.2614574908930805,
                0.2477490432124884,
                0.4230600626706756
            ]
        },
        {
            "positions": [
                1.0206688904484813,
                -1.94923493380817,
                -1.2393929214251074,
                1.1895009376476868,
                0.28167028002302136,
                0.298316059252836
            ]
        },
        {
            "positions": [
                1.063908826762078,
                -1.9377832904161547,
                -1.1417124407734411,
                1.1175443844022932,
                0.3155915168335543,
                0.17357205583499657
            ]
        },
        {
            "positions": [
                1.1071487630756747,
                -1.9263316470241392,
                -1.044031960121775,
                1.0455878311568996,
                0.3495127536440873,
                0.04882805241715693
            ]
        },
        {
            "positions": [
                1.1503886993892714,
                -1.9148800036321239,
                -0.9463514794701086,
                0.9736312779115058,
                0.3834339904546203,
                -0.07591595100068249
            ]
        },
        {
            "positions": [
                1.1936286357028678,
                -1.9034283602401085,
                -0.8486709988184424,
                0.9016747246661122,
                0.41735522726515323,
                -0.2006599544185219
            ]
        },
        {
            "positions": [
                1.2368685720164645,
                -1.8919767168480932,
                -0.7509905181667761,
                0.8297181714207186,
                0.4512764640756862,
                -0.32540395783636167
            ]
        },
        {
            "positions": [
                1.2801085083300612,
                -1.8805250734560779,
                -0.65331003751511,
                0.757761618175325,
                0.48519770088621916,
                -0.450147961254201
            ]
        },
        {
            "positions": [
                1.3233484446436576,
                -1.8690734300640626,
                -0.5556295568634437,
                0.6858050649299313,
                0.5191189376967521,
                -0.5748919646720405
            ]
        },
        {
            "positions": [
                1.3665883809572543,
                -1.8576217866720472,
                -0.4579490762117773,
                0.6138485116845377,
                0.5530401745072852,
                -0.69963596808988
            ]
        },
        {
            "positions": [
                1.409828317270851,
                -1.846170143280032,
                -0.36026859556011104,
                0.541891958439144,
                0.5869614113178181,
                -0.8243799715077198
            ]
        },
        {
            "positions": [
                1.4530682535844477,
                -1.8347184998880166,
                -0.262588114908445,
                0.46993540519375054,
                0.620882648128351,
                -0.9491239749255589
            ]
        },
        {
            "positions": [
                1.4963081898980444,
                -1.8232668564960013,
                -0.16490763425677857,
                0.3979788519483567,
                0.6548038849388841,
                -1.0738679783433986
            ]
        },
        {
            "positions": [
                1.539548126211641,
                -1.811815213103986,
                -0.06722715360511233,
                0.32602229870296306,
                0.688725121749417,
                -1.1986119817612384
            ]
        },
        {
            "positions": [
                1.5827880625252377,
                -1.8003635697119706,
                0.03045332704655368,
                0.25406574545756944,
                0.72264635855995,
                -1.3233559851790775
            ]
        },
        {
            "positions": [
                1.6260279988388342,
                -1.788911926319955,
                0.12813380769822014,
                0.1821091922121758,
                0.7565675953704829,
                -1.448099988596917
            ]
        },
        {
            "positions": [
                1.6692679351524309,
                -1.7774602829279398,
                0.22581428834988637,
                0.11015263896678218,
                0.790488832181016,
                -1.572843992014757
            ]
        },
        {
            "positions": [
                1.7125078714660273,
                -1.7660086395359245,
                0.3234947690015526,
                0.03819608572138855,
                0.8244100689915489,
                -1.697587995432596
            ]
        },
        {
            "positions": [
                1.755747807779624,
                -1.7545569961439091,
                0.4211752496532186,
                -0.03376046752400508,
                0.8583313058020818,
                -1.8223319988504356
            ]
        },
        {
            "positions": [
                1.7989877440932207,
                -1.7431053527518938,
                0.5188557303048851,
                -0.1057170207693987,
                0.8922525426126149,
                -1.9470760022682752
            ]
        },
        {
            "positions": [
                1.8422276804068174,
                -1.7316537093598785,
                0.6165362109565511,
                -0.17767357401479233,
                0.9261737794231477,
                -2.0718200056861145
            ]
        },
        {
            "positions": [
                1.885467616720414,
                -1.7202020659678632,
                0.7142166916082173,
                -0.2496301272601859,
                0.9600950162336808,
                -2.196564009103954
            ]
        },
        {
            "positions": [
                1.952900677250185,
                -1.6560920411346922,
                0.81511603278655,
                -0.29756150683825516,
                0.9688620548149538,
                -2.278224317212598
            ]
        },
        {
            "positions": [
                2.0203337377799557,
                -1.5919820163015213,
                0.9160153739648826,
                -0.3454928864163245,
                0.9776290933962268,
                -2.359884625321243
            ]
        },
        {
            "positions": [
                2.087766798309727,
                -1.5278719914683503,
                1.0169147151432152,
                -0.39342426599439373,
                0.9863961319774999,
                -2.441544933429887
            ]
        },
        {
            "positions": [
                2.155199858839498,
                -1.4637619666351793,
                1.117814056321548,
                -0.441355645572463,
                0.9951631705587729,
                -2.5232052415385318
            ]
        },
        {
            "positions": [
                2.2226329193692687,
                -1.3996519418020084,
                1.2187133974998805,
                -0.48928702515053224,
                1.003930209140046,
                -2.604865549647176
            ]
        },
        {
            "positions": [
                2.2900659798990395,
                -1.3355419169688374,
                1.319612738678213,
                -0.5372184047286015,
                1.012697247721319,
                -2.6865258577558206
            ]
        },
        {
            "positions": [
                2.3574990404288103,
                -1.2714318921356664,
                1.4205120798565458,
                -0.5851497843066708,
                1.021464286302592,
                -2.768186165864465
            ]
        },
        {
            "positions": [
                2.424932100958581,
                -1.2073218673024952,
                1.5214114210348786,
                -0.63308116388474,
                1.030231324883865,
                -2.8498464739731095
            ]
        },
        {
            "positions": [
                2.4923651614883524,
                -1.1432118424693243,
                1.6223107622132114,
                -0.6810125434628094,
                1.038998363465138,
                -2.9315067820817537
            ]
        },
        {
            "positions": [
                2.5597982220181232,
                -1.0791018176361533,
                1.7232101033915437,
                -0.7289439230408785,
                1.047765402046411,
                -3.0131670901903984
            ]
        },
        {
            "positions": [
                2.627231282547894,
                -1.0149917928029824,
                1.8241094445698764,
                -0.7768753026189478,
                1.0565324406276841,
                -3.0948273982990426
            ]
        }
    ]
}