{
    "goal": {
        "global_pose": {
            "orientation": {
                "w": -0.00223480608172531,
                "x": 0.0024358444001904467,
                "y": 0.7094548369677653,
                "z": -0.704743149386269
            },
            "position": {
                "x": 0.6205249238014221,
                "y": -0.6371506643295288,
                "z": 0.19426114857196808
            }
        },
        "name": "move_to_magneteinheit_B"
    },
    "id": "TRRT_move_to_magneteinheit_B_76",
    "joint_names": [
        "shoulder_pan_joint",
        "shoulder_lift_joint",
        "elbow_joint",
        "wrist_1_joint",
        "wrist_2_joint",
        "wrist_3_joint"
    ],
    "metrics": {
        "cart_traj_len": 1.4717119507509726,
        "distance_elbow_joint": 0.9565340992355926,
        "distance_shoulder_lift_joint": 0.7554327668757941,
        "distance_shoulder_pan_joint": 1.621057794018986,
        "distance_wrist_1_joint": 0.19018827477537092,
        "distance_wrist_2_joint": 1.5158744110584446,
        "distance_wrist_3_joint": 0.4489100193264869,
        "smoothness": 0.12449332559292763,
        "time": 0.065649647,
        "traj_len": 2.3426475119596364,
        "weighted_distance": 2.8446230136482873
    },
    "planner": "TRRT",
    "start": {
        "state": {
            "elbow_joint": 2.6216224122426386,
            "shoulder_lift_joint": -1.4174107377796124,
            "shoulder_pan_joint": 0.7066234856936794,
            "wrist_1_joint": 1.9546482284002225,
            "wrist_2_joint": -0.7096286983471962,
            "wrist_3_joint": 0.005740856962016249
        }
    },
    "waypoints": [
        {
            "positions": [
                0.7066234856936794,
                -1.4174107377796124,
                2.6216224122426386,
                1.9546482284002225,
                -0.7096286983471962,
                0.005740856962016249
            ]
        },
        {
            "positions": [
                0.5751481465539207,
                -1.3414151146437396,
                2.590524398408843,
                1.96703882466612,
                -0.7471582326655445,
                -0.040132583226422554
            ]
        },
        {
            "positions": [
                0.443672807414162,
                -1.265419491507867,
                2.559426384575048,
                1.9794294209320173,
                -0.7846877669838928,
                -0.08600602341486135
            ]
        },
        {
            "positions": [
                0.31219746827440326,
                -1.1894238683719944,
                2.5283283707412525,
                1.9918200171979148,
                -0.8222173013022409,
                -0.13187946360330013
            ]
        },
        {
            "positions": [
                0.18072212913464458,
                -1.1134282452361217,
                2.4972303569074574,
                2.0042106134638122,
                -0.8597468356205892,
                -0.17775290379173894
            ]
        },
        {
            "positions": [
                0.04924678999488588,
                -1.037432622100249,
                2.466132343073662,
                2.0166012097297097,
                -0.8972763699389374,
                -0.22362634398017772
            ]
        },
        {
            "positions": [
                -0.047121319837133344,
                -0.9998871569806059,
                2.386027940067,
                2.029424739074298,
                -1.0300990438856077,
                -0.20167206214174843
            ]
        },
        {
            "positions": [
                -0.14348942966915257,
                -0.9623416918609629,
                2.305923537060339,
                2.0422482684188865,
                -1.1629217178322782,
                -0.17971778030331914
            ]
        },
        {
            "positions": [
                -0.23985753950117175,
                -0.9247962267413198,
                2.225819134053677,
                2.0550717977634747,
                -1.2957443917789484,
                -0.15776349846488985
            ]
        },
        {
            "positions": [
                -0.336225649333191,
                -0.8872507616216767,
                2.1457147310470157,
                2.0678953271080633,
                -1.4285670657256189,
                -0.13580921662646056
            ]
        },
        {
            "positions": [
                -0.43259375916521026,
                -0.8497052965020336,
                2.065610328040354,
                2.0807188564526515,
                -1.5613897396722891,
                -0.11385493478803128
            ]
        },
        {
            "positions": [
                -0.5289618689972294,
                -0.8121598313823906,
                1.9855059250336924,
                2.0935423857972397,
                -1.6942124136189594,
                -0.09190065294960201
            ]
        },
        {
            "positions": [
                -0.6253299788292487,
                -0.7746143662627475,
                1.9054015220270308,
                2.1063659151418284,
                -1.8270350875656298,
                -0.06994637111117272
            ]
        },
        {
            "positions": [
                -0.721698088661268,
                -0.7370689011431044,
                1.825297119020369,
                2.1191894444864166,
                -1.9598577615123,
                -0.0479920892727434
            ]
        },
        {
            "positions": [
                -0.8180661984932872,
                -0.6995234360234613,
                1.7451927160137075,
                2.132012973831005,
                -2.0926804354589708,
                -0.026037807434314136
            ]
        },
        {
            "positions": [
                -0.9144343083253064,
                -0.6619779709038183,
                1.665088313007046,
                2.1448365031755934,
                -2.2255031094056408,
                -0.004083525595884858
            ]
        }
    ]
}