{
    "goal": {
        "global_pose": {
            "orientation": {
                "w": -0.00223480608172531,
                "x": 0.0024358444001904467,
                "y": 0.7094548369677653,
                "z": -0.704743149386269
            },
            "position": {
                "x": 0.6205249238014221,
                "y": -0.6371506643295288,
                "z": 0.19426114857196808
            }
        },
        "name": "move_to_magneteinheit_B"
    },
    "id": "TRRT_move_to_magneteinheit_B_18",
    "joint_names": [
        "shoulder_pan_joint",
        "shoulder_lift_joint",
        "elbow_joint",
        "wrist_1_joint",
        "wrist_2_joint",
        "wrist_3_joint"
    ],
    "metrics": {
        "cart_traj_len": 4.85857949031581,
        "distance_elbow_joint": 4.447518122239204,
        "distance_shoulder_lift_joint": 1.7895269040785313,
        "distance_shoulder_pan_joint": 3.965543029081299,
        "distance_wrist_1_joint": 4.405767832215701,
        "distance_wrist_2_joint": 1.0876481340037256,
        "distance_wrist_3_joint": 3.791356205012094,
        "smoothness": 0.3503770635587336,
        "time": 3.486287331,
        "traj_len": 4.414449028659245,
        "weighted_distance": 5.706442727555774
    },
    "planner": "TRRT",
    "start": {
        "state": {
            "elbow_joint": 2.6216224122426386,
            "shoulder_lift_joint": -1.4174107377796124,
            "shoulder_pan_joint": 0.7066234856936794,
            "wrist_1_joint": 1.9546482284002225,
            "wrist_2_joint": -0.7096286983471962,
            "wrist_3_joint": 0.005740856962016249
        }
    },
    "waypoints": [
        {
            "positions": [
                0.7066234856936794,
                -1.4174107377796124,
                2.6216224122426386,
                1.9546482284002225,
                -0.7096286983471962,
                0.005740856962016249
            ]
        },
        {
            "positions": [
                0.6508449676792214,
                -1.4159612196834717,
                2.59026080816475,
                1.8303342652833534,
                -0.6263170797598405,
                0.056191664946253994
            ]
        },
        {
            "positions": [
                0.5950664496647635,
                -1.414511701587331,
                2.558899204086861,
                1.7060203021664844,
                -0.5430054611724848,
                0.10664247293049174
            ]
        },
        {
            "positions": [
                0.4940222431051374,
                -1.420443804965392,
                2.5464473226873294,
                1.6043843134115128,
                -0.46604496263842543,
                0.12802879185638505
            ]
        },
        {
            "positions": [
                0.3929780365455113,
                -1.4263759083434528,
                2.5339954412877983,
                1.5027483246565412,
                -0.3890844641043661,
                0.14941511078227837
            ]
        },
        {
            "positions": [
                0.29193382998588513,
                -1.432308011721514,
                2.5215435598882667,
                1.4011123359015696,
                -0.3121239655703067,
                0.1708014297081717
            ]
        },
        {
            "positions": [
                0.229175689107801,
                -1.3836928409188474,
                2.4156727120221473,
                1.3312576806066652,
                -0.3081060655761321,
                0.09150677587841133
            ]
        },
        {
            "positions": [
                0.1664175482297169,
                -1.3350776701161806,
                2.309801864156028,
                1.261403025311761,
                -0.3040881655819575,
                0.012212122048650964
            ]
        },
        {
            "positions": [
                0.10365940735163282,
                -1.2864624993135139,
                2.2039310162899084,
                1.1915483700168568,
                -0.30007026558778294,
                -0.0670825317811094
            ]
        },
        {
            "positions": [
                0.04090126647354869,
                -1.2378473285108473,
                2.098060168423789,
                1.1216937147219523,
                -0.29605236559360837,
                -0.14637718561086974
            ]
        },
        {
            "positions": [
                0.0170023089233845,
                -1.196354462922909,
                1.9803344847110935,
                1.077253555358991,
                -0.2892555527108718,
                -0.23080273005972285
            ]
        },
        {
            "positions": [
                -0.006896648626779689,
                -1.1548615973349707,
                1.862608800998398,
                1.0328133959960295,
                -0.2824587398281352,
                -0.31522827450857593
            ]
        },
        {
            "positions": [
                -0.03079560617694388,
                -1.1133687317470327,
                1.7448831172857027,
                0.9883732366330682,
                -0.2756619269453986,
                -0.399653818957429
            ]
        },
        {
            "positions": [
                -0.05469456372710807,
                -1.0718758661590944,
                1.6271574335730072,
                0.9439330772701069,
                -0.268865114062662,
                -0.4840793634062822
            ]
        },
        {
            "positions": [
                -0.07859352127727226,
                -1.030383000571156,
                1.5094317498603118,
                0.8994929179071455,
                -0.2620683011799254,
                -0.5685049078551353
            ]
        },
        {
            "positions": [
                -0.03974994995958213,
                -1.0103898721957072,
                1.349258606980757,
                0.8930401914257403,
                -0.233459707266138,
                -0.6886753542501756
            ]
        },
        {
            "positions": [
                -0.0009063786418919972,
                -0.9903967438202583,
                1.1890854641012025,
                0.886587464944335,
                -0.20485111335235057,
                -0.8088458006452159
            ]
        },
        {
            "positions": [
                0.03793719267579812,
                -0.9704036154448095,
                1.028912321221648,
                0.8801347384629299,
                -0.17624251943856312,
                -0.9290162470402562
            ]
        },
        {
            "positions": [
                0.07678076399348827,
                -0.9504104870693606,
                0.8687391783420932,
                0.8736820119815246,
                -0.1476339255247757,
                -1.0491866934352965
            ]
        },
        {
            "positions": [
                0.11562433531117838,
                -0.9304173586939117,
                0.7085660354625387,
                0.8672292855001195,
                -0.11902533161098829,
                -1.1693571398303368
            ]
        },
        {
            "positions": [
                0.17190297389706372,
                -0.927493839535843,
                0.5778339356585949,
                0.8696384441304728,
                -0.09062029213758943,
                -1.2705228023734758
            ]
        },
        {
            "positions": [
                0.22818161248294908,
                -0.9245703203777743,
                0.447101835854651,
                0.872047602760826,
                -0.06221525266419056,
                -1.3716884649166146
            ]
        },
        {
            "positions": [
                0.3229380926662362,
                -0.9575828688651065,
                0.36901601855840227,
                0.7696955668541235,
                -0.07730375843006339,
                -1.440586947884275
            ]
        },
        {
            "positions": [
                0.41769457284952327,
                -0.9905954173524385,
                0.2909302012621535,
                0.6673435309474212,
                -0.09239226419593623,
                -1.5094854308519354
            ]
        },
        {
            "positions": [
                0.5124510530328104,
                -1.0236079658397705,
                0.21284438396590483,
                0.5649914950407187,
                -0.10748076996180905,
                -1.5783839138195959
            ]
        },
        {
            "positions": [
                0.6072075332160974,
                -1.0566205143271028,
                0.13475856666965608,
                0.4626394591340162,
                -0.12256927572768189,
                -1.647282396787256
            ]
        },
        {
            "positions": [
                0.7019640133993846,
                -1.0896330628144348,
                0.05667274937340733,
                0.36028742322731366,
                -0.13765778149355473,
                -1.7161808797549165
            ]
        },
        {
            "positions": [
                0.7967204935826717,
                -1.1226456113017669,
                -0.021413067922841367,
                0.2579353873206113,
                -0.15274628725942754,
                -1.785079362722577
            ]
        },
        {
            "positions": [
                0.8914769737659588,
                -1.155658159789099,
                -0.09949888521909012,
                0.15558335141390878,
                -0.16783479302530038,
                -1.8539778456902374
            ]
        },
        {
            "positions": [
                0.9862334539492459,
                -1.188670708276431,
                -0.17758470251533887,
                0.05323131550720639,
                -0.1829232987911732,
                -1.9228763286578978
            ]
        },
        {
            "positions": [
                1.080989934132533,
                -1.2216832567637632,
                -0.2556705198115876,
                -0.04912072039949622,
                -0.19801180455704606,
                -1.9917748116255583
            ]
        },
        {
            "positions": [
                1.17574641431582,
                -1.2546958052510953,
                -0.33375633710783636,
                -0.15147275630619872,
                -0.21310031032291887,
                -2.0606732945932187
            ]
        },
        {
            "positions": [
                1.270502894499107,
                -1.2877083537384273,
                -0.411842154404085,
                -0.253824792212901,
                -0.2281888160887917,
                -2.129571777560879
            ]
        },
        {
            "positions": [
                1.3652593746823942,
                -1.3207209022257596,
                -0.48992797170033375,
                -0.3561768281196035,
                -0.24327732185466452,
                -2.1984702605285396
            ]
        },
        {
            "positions": [
                1.4600158548656814,
                -1.3537334507130916,
                -0.5680137889965826,
                -0.458528864026306,
                -0.2583658276205374,
                -2.2673687434962
            ]
        },
        {
            "positions": [
                1.5547723350489684,
                -1.3867459992004236,
                -0.6460996062928313,
                -0.5608808999330085,
                -0.27345433338641023,
                -2.3362672264638604
            ]
        },
        {
            "positions": [
                1.6495288152322554,
                -1.419758547687756,
                -0.7241854235890799,
                -0.663232935839711,
                -0.288542839152283,
                -2.405165709431521
            ]
        },
        {
            "positions": [
                1.7442852954155426,
                -1.4527710961750877,
                -0.8022712408853288,
                -0.7655849717464133,
                -0.30363134491815585,
                -2.4740641923991813
            ]
        },
        {
            "positions": [
                1.8390417755988295,
                -1.48578364466242,
                -0.8803570581815774,
                -0.8679370076531158,
                -0.31871985068402864,
                -2.5429626753668417
            ]
        },
        {
            "positions": [
                1.933798255782117,
                -1.5187961931497522,
                -0.9584428754778263,
                -0.9702890435598185,
                -0.3338083564499016,
                -2.611861158334502
            ]
        },
        {
            "positions": [
                2.028554735965404,
                -1.551808741637084,
                -1.0365286927740749,
                -1.0726410794665209,
                -0.34889686221577443,
                -2.6807596413021626
            ]
        },
        {
            "positions": [
                2.123311216148691,
                -1.5848212901244163,
                -1.1146145100703237,
                -1.1749931153732236,
                -0.36398536798164716,
                -2.749658124269823
            ]
        },
        {
            "positions": [
                2.2180676963319783,
                -1.6178338386117483,
                -1.1927003273665724,
                -1.2773451512799259,
                -0.37907387374752,
                -2.8185566072374835
            ]
        },
        {
            "positions": [
                2.312824176515265,
                -1.6508463870990804,
                -1.270786144662821,
                -1.3796971871866281,
                -0.39416237951339284,
                -2.887455090205144
            ]
        },
        {
            "positions": [
                2.4075806566985523,
                -1.6838589355864126,
                -1.3488719619590699,
                -1.4820492230933309,
                -0.4092508852792657,
                -2.956353573172804
            ]
        },
        {
            "positions": [
                2.5023371368818395,
                -1.7168714840737445,
                -1.4269577792553185,
                -1.5844012590000331,
                -0.4243393910451385,
                -3.0252520561404643
            ]
        },
        {
            "positions": [
                2.5970936170651266,
                -1.7498840325610767,
                -1.5050435965515674,
                -1.6867532949067359,
                -0.43942789681101135,
                -3.094150539108125
            ]
        },
        {
            "positions": [
                2.691850097248414,
                -1.782896581048409,
                -1.5831294138478162,
                -1.7891053308134381,
                -0.4545164025768842,
                -3.163049022075785
            ]
        },
        {
            "positions": [
                2.7866065774317006,
                -1.815909129535741,
                -1.6612152311440649,
                -1.8914573667201409,
                -0.46960490834275703,
                -3.2319475050434456
            ]
        },
        {
            "positions": [
                2.881363057614988,
                -1.848921678023073,
                -1.7393010484403137,
                -1.9938094026268431,
                -0.48469341410862987,
                -3.300845988011106
            ]
        },
        {
            "positions": [
                2.8227157656158606,
                -1.9406927034618169,
                -1.7192433840539578,
                -2.114208760887886,
                -0.47919318243950676,
                -3.2604161123237376
            ]
        },
        {
            "positions": [
                2.764068473616733,
                -2.0324637289005607,
                -1.6991857196676021,
                -2.2346081191489287,
                -0.4736929507703837,
                -3.219986236636369
            ]
        },
        {
            "positions": [
                2.7054211816176057,
                -2.1242347543393048,
                -1.6791280552812462,
                -2.3550074774099716,
                -0.4681927191012606,
                -3.1795563609490007
            ]
        },
        {
            "positions": [
                2.660993614396902,
                -2.1856641867861017,
                -1.6527063868840615,
                -2.441482969294065,
                -0.46944855097017224,
                -3.1461977734644453
            ]
        }
    ]
}