{
    "goal": {
        "global_pose": {
            "orientation": {
                "w": -0.4816463035849501,
                "x": 0.5182115481033762,
                "y": 0.4908360881923453,
                "z": -0.5084816262002911
            },
            "position": {
                "x": -0.8240239810943604,
                "y": 0.19912469901144506,
                "z": 0.16403168439865112
            }
        },
        "name": "move_to_storage_D"
    },
    "id": "TRRT_move_to_storage_D_83",
    "joint_names": [
        "shoulder_pan_joint",
        "shoulder_lift_joint",
        "elbow_joint",
        "wrist_1_joint",
        "wrist_2_joint",
        "wrist_3_joint"
    ],
    "metrics": {
        "cart_traj_len": 0.7205523725252723,
        "distance_elbow_joint": 0.5566969056882376,
        "distance_shoulder_lift_joint": 0.5172138076553328,
        "distance_shoulder_pan_joint": 0.2140555210867939,
        "distance_wrist_1_joint": 3.8210317323088936,
        "distance_wrist_2_joint": 1.7913775074622131,
        "distance_wrist_3_joint": 3.1207569650056364,
        "smoothness": 0.031586748689219575,
        "time": 0.077331971,
        "traj_len": 3.165617228789214,
        "weighted_distance": 4.677077678314685
    },
    "planner": "TRRT",
    "start": {
        "state": {
            "elbow_joint": -2.384821988534728,
            "shoulder_lift_joint": -2.2788054721415256,
            "shoulder_pan_joint": -0.1854694642142757,
            "wrist_1_joint": 1.4845938289331202,
            "wrist_2_joint": 0.17898776772866878,
            "wrist_3_joint": 0.037105688729662994
        }
    },
    "waypoints": [
        {
            "positions": [
                -0.1854694642142757,
                -2.2788054721415256,
                -2.384821988534728,
                1.4845938289331202,
                0.17898776772866878,
                0.037105688729662994
            ]
        },
        {
            "positions": [
                -0.12331314999486973,
                -2.175960833949868,
                -2.3620667030227187,
                1.403499334511601,
                0.09910623662864532,
                0.0023039980793721493
            ]
        },
        {
            "positions": [
                -0.061156835775463755,
                -2.073116195758211,
                -2.33931141751071,
                1.3224048400900816,
                0.019224705528621835,
                -0.032497692570918696
            ]
        },
        {
            "positions": [
                -0.03239546801476858,
                -2.00891717944923,
                -2.2837044109764113,
                1.2075161680356405,
                -0.01687786162618843,
                -0.08398888043648482
            ]
        },
        {
            "positions": [
                -0.0036341002540734024,
                -1.9447181631402488,
                -2.228097404442113,
                1.0926274959811995,
                -0.05298042878099869,
                -0.13548006830205095
            ]
        },
        {
            "positions": [
                -0.005098652850736652,
                -1.9530420948972513,
                -2.2099168443695847,
                0.9367608869195189,
                -0.1238626701879326,
                -0.26948785048268376
            ]
        },
        {
            "positions": [
                -0.0065632054473999,
                -1.9613660266542539,
                -2.1917362842970567,
                0.7808942778578383,
                -0.1947449115948665,
                -0.4034956326633166
            ]
        },
        {
            "positions": [
                -0.008027758044063148,
                -1.9696899584112564,
                -2.1735557242245283,
                0.6250276687961578,
                -0.2656271530018004,
                -0.5375034148439495
            ]
        },
        {
            "positions": [
                -0.009492310640726398,
                -1.978013890168259,
                -2.155375164152,
                0.4691610597344772,
                -0.3365093944087343,
                -0.6715111970245823
            ]
        },
        {
            "positions": [
                -0.010956863237389647,
                -1.9863378219252614,
                -2.1371946040794714,
                0.3132944506727967,
                -0.4073916358156682,
                -0.8055189792052151
            ]
        },
        {
            "positions": [
                -0.012421415834052894,
                -1.9946617536822642,
                -2.1190140440069434,
                0.15742784161111611,
                -0.47827387722260206,
                -0.9395267613858479
            ]
        },
        {
            "positions": [
                -0.013885968430716144,
                -2.0029856854392665,
                -2.100833483934415,
                0.0015612325494356316,
                -0.549156118629536,
                -1.0735345435664807
            ]
        },
        {
            "positions": [
                -0.015350521027379393,
                -2.011309617196269,
                -2.0826529238618865,
                -0.15430537651224507,
                -0.62003836003647,
                -1.2075423257471136
            ]
        },
        {
            "positions": [
                -0.016815073624042644,
                -2.0196335489532715,
                -2.0644723637893585,
                -0.3101719855739258,
                -0.6909206014434038,
                -1.3415501079277465
            ]
        },
        {
            "positions": [
                -0.01827962622070589,
                -2.027957480710274,
                -2.04629180371683,
                -0.46603859463560604,
                -0.7618028428503377,
                -1.4755578901083792
            ]
        },
        {
            "positions": [
                -0.01974417881736914,
                -2.036281412467277,
                -2.0281112436443016,
                -0.6219052036972867,
                -0.8326850842572716,
                -1.6095656722890122
            ]
        },
        {
            "positions": [
                -0.021208731414032386,
                -2.0446053442242795,
                -2.0099306835717736,
                -0.7777718127589672,
                -0.9035673256642055,
                -1.7435734544696448
            ]
        },
        {
            "positions": [
                -0.022673284010695637,
                -2.052929275981282,
                -1.9917501234992452,
                -0.9336384218206479,
                -0.9744495670711395,
                -1.877581236650278
            ]
        },
        {
            "positions": [
                -0.024137836607358885,
                -2.0612532077382846,
                -1.9735695634267167,
                -1.0895050308823282,
                -1.0453318084780732,
                -2.011589018830911
            ]
        },
        {
            "positions": [
                -0.025602389204022132,
                -2.069577139495287,
                -1.9553890033541885,
                -1.245371639944009,
                -1.116214049885007,
                -2.145596801011543
            ]
        },
        {
            "positions": [
                -0.027066941800685383,
                -2.0779010712522896,
                -1.9372084432816603,
                -1.4012382490056896,
                -1.1870962912919412,
                -2.2796045831921763
            ]
        },
        {
            "positions": [
                -0.02853149439734863,
                -2.086225003009292,
                -1.9190278832091319,
                -1.5571048580673699,
                -1.257978532698875,
                -2.413612365372809
            ]
        },
        {
            "positions": [
                -0.02999604699401188,
                -2.0945489347662947,
                -1.9008473231366034,
                -1.712971467129051,
                -1.328860774105809,
                -2.547620147553442
            ]
        },
        {
            "positions": [
                -0.031460599590675126,
                -2.102872866523297,
                -1.8826667630640752,
                -1.8688380761907313,
                -1.3997430155127428,
                -2.681627929734075
            ]
        },
        {
            "positions": [
                -0.03292515218733838,
                -2.1111967982802997,
                -1.864486202991547,
                -2.0247046852524115,
                -1.4706252569196767,
                -2.8156357119147075
            ]
        },
        {
            "positions": [
                -0.03438970478400163,
                -2.1195207300373022,
                -1.8463056429190186,
                -2.1805712943140927,
                -1.5415074983266106,
                -2.9496434940953407
            ]
        },
        {
            "positions": [
                -0.035854257380664875,
                -2.1278446617943048,
                -1.8281250828464903,
                -2.336437903375773,
                -1.6123897397335445,
                -3.0836512762759734
            ]
        }
    ]
}