{
    "goal": {
        "global_pose": {
            "orientation": {
                "w": 0.7031023502349854,
                "x": -0.7110244035720825,
                "y": 0.007748599164187908,
                "z": 0.005598929710686207
            },
            "position": {
                "x": 0.11585023208521307,
                "y": 0.44412534475326537,
                "z": 0.3711530566215515
            }
        },
        "name": "move_to_auspresseinheit_A"
    },
    "id": "TRRT_move_to_auspresseinheit_A_65",
    "joint_names": [
        "shoulder_pan_joint",
        "shoulder_lift_joint",
        "elbow_joint",
        "wrist_1_joint",
        "wrist_2_joint",
        "wrist_3_joint"
    ],
    "metrics": {
        "cart_traj_len": 0.6945638276076369,
        "distance_elbow_joint": 0.03745089516241906,
        "distance_shoulder_lift_joint": 0.5334667849773869,
        "distance_shoulder_pan_joint": 1.1185266411366417,
        "distance_wrist_1_joint": 0.6559418981542837,
        "distance_wrist_2_joint": 0.5919042267908882,
        "distance_wrist_3_joint": 0.6397613306437502,
        "smoothness": 0.7553731180407474,
        "time": 0.053661925,
        "traj_len": 1.8913095402036573,
        "weighted_distance": 2.470712561812491
    },
    "planner": "TRRT",
    "start": {
        "state": {
            "elbow_joint": 2.4225746658250005,
            "shoulder_lift_joint": -1.3736534386056498,
            "shoulder_pan_joint": -0.3378633547517467,
            "wrist_1_joint": -1.0288598680537169,
            "wrist_2_joint": 1.233022673432363,
            "wrist_3_joint": -3.0940220416140027
        }
    },
    "waypoints": [
        {
            "positions": [
                -0.3378633547517467,
                -1.3736534386056498,
                2.4225746658250005,
                -1.0288598680537169,
                1.233022673432363,
                -3.0940220416140027
            ]
        },
        {
            "positions": [
                -0.35575732138912985,
                -1.4197406662323964,
                2.424276587042528,
                -0.8894474296741566,
                1.252951080011349,
                -2.942670204584757
            ]
        },
        {
            "positions": [
                -0.37365128802651293,
                -1.4658278938591427,
                2.425978508260055,
                -0.7500349912945964,
                1.2728794865903348,
                -2.7913183675555104
            ]
        },
        {
            "positions": [
                -0.23156690578453415,
                -1.5319653663628723,
                2.4221212689570866,
                -0.694893893668607,
                1.1845292106757712,
                -2.819634148086075
            ]
        },
        {
            "positions": [
                -0.08948252354255537,
                -1.5981028388666019,
                2.4182640296541185,
                -0.6397527960426176,
                1.0961789347612079,
                -2.84794992861664
            ]
        },
        {
            "positions": [
                0.052601858699423465,
                -1.6642403113703315,
                2.4144067903511504,
                -0.5846116984166282,
                1.0078286588466443,
                -2.876265709147205
            ]
        },
        {
            "positions": [
                0.1946862409414022,
                -1.730377783874061,
                2.410549551048182,
                -0.5294706007906388,
                0.9194783829320808,
                -2.9045814896777697
            ]
        },
        {
            "positions": [
                0.33677062318338113,
                -1.7965152563777906,
                2.4066923117452133,
                -0.4743295031646494,
                0.8311281070175173,
                -2.9328972702083345
            ]
        },
        {
            "positions": [
                0.4788550054253599,
                -1.8626527288815202,
                2.402835072442245,
                -0.41918840553866,
                0.7427778311029538,
                -2.961213050738899
            ]
        },
        {
            "positions": [
                0.5939712126303612,
                -1.8848864762322783,
                2.397383263987468,
                -0.4423236233582734,
                0.7318049520301861,
                -3.0447945374398335
            ]
        },
        {
            "positions": [
                0.7090874198353626,
                -1.9071202235830367,
                2.3919314555326907,
                -0.46545884117788683,
                0.7208320729574184,
                -3.1283760241407683
            ]
        }
    ]
}