{
    "goal": {
        "global_pose": {
            "orientation": {
                "w": -0.00223480608172531,
                "x": 0.0024358444001904467,
                "y": 0.7094548369677653,
                "z": -0.704743149386269
            },
            "position": {
                "x": -0.37947507619857795,
                "y": -0.6371506643295288,
                "z": 0.19426114857196808
            }
        },
        "name": "move_to_magneteinheit_C"
    },
    "id": "TRRT_move_to_magneteinheit_C_122",
    "joint_names": [
        "shoulder_pan_joint",
        "shoulder_lift_joint",
        "elbow_joint",
        "wrist_1_joint",
        "wrist_2_joint",
        "wrist_3_joint"
    ],
    "metrics": {
        "cart_traj_len": 1.6807389773252666,
        "distance_elbow_joint": 2.189818244642294,
        "distance_shoulder_lift_joint": 0.629940285507842,
        "distance_shoulder_pan_joint": 1.7865074745858884,
        "distance_wrist_1_joint": 3.34219558892284,
        "distance_wrist_2_joint": 3.5422315032923324,
        "distance_wrist_3_joint": 1.3426028598629074,
        "smoothness": 1.502022145632522,
        "time": 0.575409609,
        "traj_len": 3.582358993291167,
        "weighted_distance": 4.733173224038509
    },
    "planner": "TRRT",
    "start": {
        "state": {
            "elbow_joint": 1.9565354010623817,
            "shoulder_lift_joint": -1.4165861575791021,
            "shoulder_pan_joint": -1.6717766225146293,
            "wrist_1_joint": -0.5286633292919765,
            "wrist_2_joint": 1.472756589071564,
            "wrist_3_joint": -3.1238370188695823
        }
    },
    "waypoints": [
        {
            "positions": [
                -1.6717766225146293,
                -1.4165861575791021,
                1.9565354010623817,
                -0.5286633292919765,
                1.472756589071564,
                -3.1238370188695823
            ]
        },
        {
            "positions": [
                -1.7678073855641876,
                -1.4344710792697022,
                1.9971451341853805,
                -0.5544028684638588,
                1.3483703935355253,
                -3.0837601865381674
            ]
        },
        {
            "positions": [
                -1.8638381486137459,
                -1.4523560009603025,
                2.0377548673083794,
                -0.5801424076357411,
                1.2239841979994868,
                -3.043683354206752
            ]
        },
        {
            "positions": [
                -1.9598689116633041,
                -1.4702409226509026,
                2.0783646004313785,
                -0.6058819468076234,
                1.099598002463448,
                -3.003606521875337
            ]
        },
        {
            "positions": [
                -2.0558996747128626,
                -1.4881258443415026,
                2.1189743335543776,
                -0.6316214859795057,
                0.9752118069274094,
                -2.963529689543922
            ]
        },
        {
            "positions": [
                -2.1519304377624207,
                -1.5060107660321027,
                2.1595840666773767,
                -0.6573610251513881,
                0.8508256113913707,
                -2.923452857212507
            ]
        },
        {
            "positions": [
                -2.2479612008119787,
                -1.523895687722703,
                2.2001937998003753,
                -0.6831005643232704,
                0.7264394158553321,
                -2.8833760248810916
            ]
        },
        {
            "positions": [
                -2.343991963861537,
                -1.541780609413303,
                2.2408035329233744,
                -0.7088401034951527,
                0.6020532203192934,
                -2.8432991925496767
            ]
        },
        {
            "positions": [
                -2.3954977305145237,
                -1.453085670856481,
                2.2046474100579676,
                -0.7522286809004946,
                0.5928264104267388,
                -2.883973362550649
            ]
        },
        {
            "positions": [
                -2.4470034971675103,
                -1.364390732299659,
                2.168491287192561,
                -0.7956172583058364,
                0.5835996005341841,
                -2.9246475325516217
            ]
        },
        {
            "positions": [
                -2.4869928615414296,
                -1.3440351282823544,
                2.0918288136222882,
                -0.6787485741225585,
                0.48464743259869236,
                -2.8955624866529335
            ]
        },
        {
            "positions": [
                -2.526982225915349,
                -1.32367952426505,
                2.0151663400520152,
                -0.5618798899392807,
                0.3856952646632006,
                -2.866477440754245
            ]
        },
        {
            "positions": [
                -2.5669715902892682,
                -1.3033239202477456,
                1.9385038664817427,
                -0.44501120575600284,
                0.28674309672770876,
                -2.8373923948555566
            ]
        },
        {
            "positions": [
                -2.6069609546631876,
                -1.282968316230441,
                1.86184139291147,
                -0.328142521572725,
                0.18779092879221698,
                -2.808307348956868
            ]
        },
        {
            "positions": [
                -2.646950319037107,
                -1.2626127122131368,
                1.7851789193411973,
                -0.21127383738944716,
                0.08883876085672521,
                -2.7792223030581797
            ]
        },
        {
            "positions": [
                -2.686939683411026,
                -1.2422571081958322,
                1.7085164457709245,
                -0.09440515320616927,
                -0.010113407078766623,
                -2.7501372571594915
            ]
        },
        {
            "positions": [
                -2.726929047784945,
                -1.2219015041785277,
                1.631853972200652,
                0.022463530977108515,
                -0.10906557501425829,
                -2.721052211260803
            ]
        },
        {
            "positions": [
                -2.7669184121588644,
                -1.2015459001612232,
                1.5551914986303792,
                0.1393322151603864,
                -0.20801774294975017,
                -2.6919671653621147
            ]
        },
        {
            "positions": [
                -2.8069077765327837,
                -1.181190296143919,
                1.4785290250601064,
                0.2562008993436643,
                -0.30696991088524184,
                -2.6628821194634265
            ]
        },
        {
            "positions": [
                -2.846897140906703,
                -1.1608346921266144,
                1.4018665514898339,
                0.3730695835269421,
                -0.4059220788207337,
                -2.633797073564738
            ]
        },
        {
            "positions": [
                -2.8868865052806223,
                -1.1404790881093099,
                1.3252040779195613,
                0.48993826771021987,
                -0.5048742467562255,
                -2.6047120276660496
            ]
        },
        {
            "positions": [
                -2.9268758696545416,
                -1.1201234840920056,
                1.2485416043492883,
                0.6068069518934979,
                -0.6038264146917174,
                -2.575626981767361
            ]
        },
        {
            "positions": [
                -2.966865234028461,
                -1.099767880074701,
                1.1718791307790157,
                0.7236756360767758,
                -0.702778582627209,
                -2.5465419358686727
            ]
        },
        {
            "positions": [
                -2.9290637830229183,
                -1.1045935034850887,
                1.236234954674165,
                0.6039872694978243,
                -0.5976480955815507,
                -2.592896635626989
            ]
        },
        {
            "positions": [
                -2.891262332017375,
                -1.1094191268954763,
                1.3005907785693145,
                0.484298902918873,
                -0.49251760853589244,
                -2.6392513353853047
            ]
        },
        {
            "positions": [
                -2.8534608810118325,
                -1.114244750305864,
                1.3649466024644639,
                0.3646105363399216,
                -0.3873871214902341,
                -2.685606035143621
            ]
        },
        {
            "positions": [
                -2.8156594300062894,
                -1.1190703737162515,
                1.4293024263596135,
                0.2449221697609702,
                -0.28225663444457577,
                -2.7319607349019366
            ]
        },
        {
            "positions": [
                -2.7778579790007467,
                -1.1238959971266391,
                1.4936582502547628,
                0.12523380318201882,
                -0.1771261473989174,
                -2.7783154346602528
            ]
        },
        {
            "positions": [
                -2.740056527995204,
                -1.1287216205370267,
                1.5580140741499122,
                0.0055454366030673885,
                -0.0719956603532591,
                -2.8246701344185685
            ]
        },
        {
            "positions": [
                -2.702255076989661,
                -1.1335472439474144,
                1.6223698980450616,
                -0.11414292997588382,
                0.03313482669239909,
                -2.8710248341768847
            ]
        },
        {
            "positions": [
                -2.6644536259841183,
                -1.138372867357802,
                1.6867257219402112,
                -0.23383129655483537,
                0.1382653137380575,
                -2.9173795339352004
            ]
        },
        {
            "positions": [
                -2.6266521749785756,
                -1.1431984907681896,
                1.7510815458353606,
                -0.3535196631337867,
                0.2433958007837157,
                -2.9637342336935166
            ]
        },
        {
            "positions": [
                -2.5888507239730325,
                -1.1480241141785772,
                1.81543736973051,
                -0.4732080297127381,
                0.3485262878293742,
                -3.010088933451833
            ]
        },
        {
            "positions": [
                -2.55104927296749,
                -1.1528497375889648,
                1.8797931936256593,
                -0.5928963962916893,
                0.4536567748750324,
                -3.0564436332101486
            ]
        },
        {
            "positions": [
                -2.5132478219619467,
                -1.1576753609993524,
                1.9441490175208087,
                -0.712584762870641,
                0.5587872619206908,
                -3.1027983329684643
            ]
        },
        {
            "positions": [
                -2.475446370956404,
                -1.16250098440974,
                2.008504841415958,
                -0.8322731294495922,
                0.663917748966349,
                -3.1491530327267805
            ]
        }
    ]
}