{
    "goal": {
        "global_pose": {
            "orientation": {
                "w": 0.7031023480610252,
                "x": -0.7110244013736278,
                "y": 0.0077485991402295624,
                "z": 0.005598929693374583
            },
            "position": {
                "x": -0.8841497679147869,
                "y": 0.44412534475326537,
                "z": 0.3711530566215515
            }
        },
        "name": "move_to_auspresseinheit_D"
    },
    "id": "TRRT_move_to_auspresseinheit_D_42",
    "joint_names": [
        "shoulder_pan_joint",
        "shoulder_lift_joint",
        "elbow_joint",
        "wrist_1_joint",
        "wrist_2_joint",
        "wrist_3_joint"
    ],
    "metrics": {
        "cart_traj_len": 0.34326330170375596,
        "distance_elbow_joint": 0.6369899453608836,
        "distance_shoulder_lift_joint": 0.11970933191764965,
        "distance_shoulder_pan_joint": 0.13366871861280064,
        "distance_wrist_1_joint": 0.5313702022983535,
        "distance_wrist_2_joint": 1.434342808917061,
        "distance_wrist_3_joint": 0.007658342113349814,
        "smoothness": 0.0,
        "time": 1.236912285,
        "traj_len": 1.692258653167446,
        "weighted_distance": 2.2010836069223294
    },
    "planner": "TRRT",
    "start": {
        "state": {
            "elbow_joint": -1.8275523626775212,
            "shoulder_lift_joint": -2.126789852344167,
            "shoulder_pan_joint": -0.03513704404078235,
            "wrist_1_joint": -2.347782403156801,
            "wrist_2_joint": -1.6058999987535132,
            "wrist_3_joint": -3.0880379163319196
        }
    },
    "waypoints": [
        {
            "positions": [
                -0.03513704404078235,
                -2.126789852344167,
                -1.8275523626775212,
                -2.347782403156801,
                -1.6058999987535132,
                -3.0880379163319196
            ]
        },
        {
            "positions": [
                -0.05184563386738243,
                -2.141753518833873,
                -1.7479286195074106,
                -2.4142036784440952,
                -1.4266071476388806,
                -3.087080623567751
            ]
        },
        {
            "positions": [
                -0.06855422369398251,
                -2.156717185323579,
                -1.6683048763373003,
                -2.480624953731389,
                -1.247314296524248,
                -3.086123330803582
            ]
        },
        {
            "positions": [
                -0.0852628135205826,
                -2.1716808518132855,
                -1.58868113316719,
                -2.5470462290186835,
                -1.0680214454096153,
                -3.0851660380394135
            ]
        },
        {
            "positions": [
                -0.10197140334718266,
                -2.186644518302992,
                -1.5090573899970794,
                -2.6134675043059774,
                -0.8887285942949827,
                -3.0842087452752445
            ]
        },
        {
            "positions": [
                -0.11867999317378275,
                -2.201608184792698,
                -1.4294336468269688,
                -2.6798887795932718,
                -0.7094357431803502,
                -3.083251452511076
            ]
        },
        {
            "positions": [
                -0.13538858300038284,
                -2.216571851282404,
                -1.3498099036568585,
                -2.746310054880566,
                -0.5301428920657174,
                -3.0822941597469073
            ]
        },
        {
            "positions": [
                -0.1520971728269829,
                -2.23153551777211,
                -1.2701861604867482,
                -2.81273133016786,
                -0.35085004095108485,
                -3.0813368669827383
            ]
        },
        {
            "positions": [
                -0.168805762653583,
                -2.2464991842618165,
                -1.1905624173166376,
                -2.8791526054551544,
                -0.17155718983645235,
                -3.08037957421857
            ]
        }
    ]
}