{
    "goal": {
        "global_pose": {
            "orientation": {
                "w": -0.4816463035849501,
                "x": 0.5182115481033762,
                "y": 0.4908360881923453,
                "z": -0.5084816262002911
            },
            "position": {
                "x": -0.8240239810943604,
                "y": 0.19912469901144506,
                "z": 0.16403168439865112
            }
        },
        "name": "move_to_storage_D"
    },
    "id": "TRRT_move_to_storage_D_72",
    "joint_names": [
        "shoulder_pan_joint",
        "shoulder_lift_joint",
        "elbow_joint",
        "wrist_1_joint",
        "wrist_2_joint",
        "wrist_3_joint"
    ],
    "metrics": {
        "cart_traj_len": 1.2942009574761988,
        "distance_elbow_joint": 0.5837750053949735,
        "distance_shoulder_lift_joint": 1.6279269093523094,
        "distance_shoulder_pan_joint": 0.3981059562796657,
        "distance_wrist_1_joint": 3.8310858357854016,
        "distance_wrist_2_joint": 1.7846455483451726,
        "distance_wrist_3_joint": 3.126973118777948,
        "smoothness": 0.16848829109895572,
        "time": 0.061858838,
        "traj_len": 3.3693489540170027,
        "weighted_distance": 4.818940754524997
    },
    "planner": "TRRT",
    "start": {
        "state": {
            "elbow_joint": -2.384821988534728,
            "shoulder_lift_joint": -2.2788054721415256,
            "shoulder_pan_joint": -0.1854694642142757,
            "wrist_1_joint": 1.4845938289331202,
            "wrist_2_joint": 0.17898776772866878,
            "wrist_3_joint": 0.037105688729662994
        }
    },
    "waypoints": [
        {
            "positions": [
                -0.1854694642142757,
                -2.2788054721415256,
                -2.384821988534728,
                1.4845938289331202,
                0.17898776772866878,
                0.037105688729662994
            ]
        },
        {
            "positions": [
                -0.1437989485098441,
                -2.1622533047698465,
                -2.398311191796304,
                1.4738500472832725,
                0.1539501259383262,
                -0.04000866905684075
            ]
        },
        {
            "positions": [
                -0.117925572219377,
                -2.0763317619338837,
                -2.372404296414403,
                1.376714838796438,
                0.09625323876487671,
                -0.14356159084164943
            ]
        },
        {
            "positions": [
                -0.0920521959289099,
                -1.9904102190979207,
                -2.346497401032503,
                1.2795796303096036,
                0.03855635159142724,
                -0.24711451262645812
            ]
        },
        {
            "positions": [
                -0.06617881963844278,
                -1.904488676261958,
                -2.3205905056506024,
                1.182444421822769,
                -0.019140535582022222,
                -0.3506674344112668
            ]
        },
        {
            "positions": [
                -0.040305443347975686,
                -1.8185671334259952,
                -2.2946836102687023,
                1.0853092133359348,
                -0.0768374227554717,
                -0.4542203561960755
            ]
        },
        {
            "positions": [
                -0.014432067057508574,
                -1.7326455905900322,
                -2.2687767148868017,
                0.9881740048491001,
                -0.13453430992892118,
                -0.5577732779808842
            ]
        },
        {
            "positions": [
                0.011441309232958524,
                -1.6467240477540694,
                -2.2428698195049015,
                0.8910387963622657,
                -0.19223119710237063,
                -0.6613261997656928
            ]
        },
        {
            "positions": [
                0.03731468552342565,
                -1.5608025049181067,
                -2.216962924123001,
                0.7939035878754312,
                -0.24992808427582014,
                -0.7648791215505015
            ]
        },
        {
            "positions": [
                0.06318806181389272,
                -1.474880962082144,
                -2.1910560287411007,
                0.6967683793885968,
                -0.3076249714492696,
                -0.8684320433353102
            ]
        },
        {
            "positions": [
                0.08906143810435985,
                -1.388959419246181,
                -2.1651491333592,
                0.5996331709017623,
                -0.3653218586227191,
                -0.9719849651201189
            ]
        },
        {
            "positions": [
                0.0825574878958846,
                -1.427805780112337,
                -2.1474057784278164,
                0.44457395101997044,
                -0.430602696622392,
                -1.0834524632742328
            ]
        },
        {
            "positions": [
                0.07605353768740934,
                -1.466652140978493,
                -2.1296624234964323,
                0.28951473113817866,
                -0.4958835346220648,
                -1.1949199614283468
            ]
        },
        {
            "positions": [
                0.06954958747893408,
                -1.505498501844649,
                -2.1119190685650486,
                0.13445551125638688,
                -0.5611643726217377,
                -1.306387459582461
            ]
        },
        {
            "positions": [
                0.06304563727045884,
                -1.5443448627108052,
                -2.0941757136336645,
                -0.02060370862540495,
                -0.6264452106214106,
                -1.4178549577365749
            ]
        },
        {
            "positions": [
                0.056541687061983585,
                -1.5831912235769612,
                -2.076432358702281,
                -0.17566292850719667,
                -0.6917260486210834,
                -1.5293224558906888
            ]
        },
        {
            "positions": [
                0.05003773685350833,
                -1.6220375844431172,
                -2.0586890037708967,
                -0.3307221483889885,
                -0.7570068866207563,
                -1.640789954044803
            ]
        },
        {
            "positions": [
                0.04353378664503308,
                -1.6608839453092732,
                -2.040945648839513,
                -0.4857813682707802,
                -0.8222877246204292,
                -1.7522574521989167
            ]
        },
        {
            "positions": [
                0.03702983643655783,
                -1.6997303061754292,
                -2.023202293908129,
                -0.6408405881525722,
                -0.887568562620102,
                -1.8637249503530309
            ]
        },
        {
            "positions": [
                0.030525886228082576,
                -1.7385766670415852,
                -2.005458938976745,
                -0.7958998080343639,
                -0.952849400619775,
                -1.9751924485071448
            ]
        },
        {
            "positions": [
                0.024021936019607323,
                -1.7774230279077412,
                -1.9877155840453613,
                -0.9509590279161556,
                -1.0181302386194477,
                -2.0866599466612588
            ]
        },
        {
            "positions": [
                0.017517985811132064,
                -1.8162693887738974,
                -1.9699722291139774,
                -1.1060182477979477,
                -1.0834110766191207,
                -2.198127444815373
            ]
        },
        {
            "positions": [
                0.011014035602656819,
                -1.8551157496400534,
                -1.9522288741825935,
                -1.2610774676797392,
                -1.1486919146187935,
                -2.309594942969487
            ]
        },
        {
            "positions": [
                0.004510085394181559,
                -1.8939621105062094,
                -1.9344855192512096,
                -1.416136687561531,
                -1.2139727526184665,
                -2.421062441123601
            ]
        },
        {
            "positions": [
                -0.001993864814293686,
                -1.9328084713723654,
                -1.9167421643198257,
                -1.5711959074433226,
                -1.2792535906181393,
                -2.5325299392777145
            ]
        },
        {
            "positions": [
                -0.008497815022768945,
                -1.9716548322385217,
                -1.8989988093884418,
                -1.7262551273251145,
                -1.3445344286178122,
                -2.643997437431829
            ]
        },
        {
            "positions": [
                -0.01500176523124419,
                -2.0105011931046777,
                -1.8812554544570579,
                -1.8813143472069065,
                -1.409815266617485,
                -2.755464935585943
            ]
        },
        {
            "positions": [
                -0.02150571543971945,
                -2.0493475539708337,
                -1.863512099525674,
                -2.0363735670886984,
                -1.475096104617158,
                -2.866932433740057
            ]
        },
        {
            "positions": [
                -0.028009665648194695,
                -2.0881939148369897,
                -1.84576874459429,
                -2.19143278697049,
                -1.5403769426168308,
                -2.9783999318941707
            ]
        },
        {
            "positions": [
                -0.03451361585666996,
                -2.1270402757031457,
                -1.8280253896629062,
                -2.346492006852282,
                -1.6056577806165038,
                -3.089867430048285
            ]
        }
    ]
}