{
    "goal": {
        "global_pose": {
            "orientation": {
                "w": 0.005598929693374612,
                "x": 0.007748599140229565,
                "y": 0.7110244013736278,
                "z": -0.7031023480610252
            },
            "position": {
                "x": -0.8858502320852131,
                "y": -0.7141253447532654,
                "z": 0.3711530566215515
            }
        },
        "name": "move_to_auspresseinheit_C"
    },
    "id": "TRRT_move_to_auspresseinheit_C_30",
    "joint_names": [
        "shoulder_pan_joint",
        "shoulder_lift_joint",
        "elbow_joint",
        "wrist_1_joint",
        "wrist_2_joint",
        "wrist_3_joint"
    ],
    "metrics": {
        "cart_traj_len": 0.6050724383622177,
        "distance_elbow_joint": 0.9836695932137085,
        "distance_shoulder_lift_joint": 0.429553063582476,
        "distance_shoulder_pan_joint": 0.25681827252264,
        "distance_wrist_1_joint": 0.6530613206551712,
        "distance_wrist_2_joint": 1.3018291892133176,
        "distance_wrist_3_joint": 0.04626224330907247,
        "smoothness": 0.12072383432670404,
        "time": 0.070348201,
        "traj_len": 1.9160359293333689,
        "weighted_distance": 2.3913612606595054
    },
    "planner": "TRRT",
    "start": {
        "state": {
            "elbow_joint": 1.7527959577737207,
            "shoulder_lift_joint": -0.9740617694225068,
            "shoulder_pan_joint": -2.967991417825858,
            "wrist_1_joint": -0.759517768980727,
            "wrist_2_joint": 1.7443932448377408,
            "wrist_3_joint": -3.0840537646736568
        }
    },
    "waypoints": [
        {
            "positions": [
                -2.967991417825858,
                -0.9740617694225068,
                1.7527959577737207,
                -0.759517768980727,
                1.7443932448377408,
                -3.0840537646736568
            ]
        },
        {
            "positions": [
                -2.9418451409352966,
                -0.9118730315408501,
                1.6150965719051713,
                -0.7007743856678772,
                1.6546597712118671,
                -3.091206375213526
            ]
        },
        {
            "positions": [
                -2.9156988640447348,
                -0.8496842936591934,
                1.477397186036622,
                -0.6420310023550273,
                1.5649262975859937,
                -3.098358985753395
            ]
        },
        {
            "positions": [
                -2.8895525871541734,
                -0.7874955557775367,
                1.3396978001680726,
                -0.5832876190421774,
                1.47519282396012,
                -3.1055115962932645
            ]
        },
        {
            "positions": [
                -2.863406310263612,
                -0.72530681789588,
                1.2019984142995233,
                -0.5245442357293276,
                1.3854593503342465,
                -3.112664206833134
            ]
        },
        {
            "positions": [
                -2.83726003337305,
                -0.6631180800142233,
                1.064299028430974,
                -0.4658008524164778,
                1.2957258767083726,
                -3.1198168173730028
            ]
        },
        {
            "positions": [
                -2.811113756482489,
                -0.6009293421325667,
                0.9265996425624246,
                -0.40705746910362794,
                1.205992403082499,
                -3.126969427912872
            ]
        },
        {
            "positions": [
                -2.786128603687671,
                -0.6150345012057006,
                0.8872313230618214,
                -0.33190721390910993,
                1.0151353162179801,
                -3.1261327828954077
            ]
        },
        {
            "positions": [
                -2.7611434508928534,
                -0.6291396602788346,
                0.8478630035612184,
                -0.2567569587145919,
                0.8242782293534612,
                -3.1252961378779434
            ]
        },
        {
            "positions": [
                -2.7361582980980357,
                -0.6432448193519686,
                0.8084946840606153,
                -0.18160670352007385,
                0.6334211424889423,
                -3.1244594928604794
            ]
        },
        {
            "positions": [
                -2.711173145303218,
                -0.6573499784251026,
                0.7691263645600122,
                -0.10645644832555586,
                0.44256405562442336,
                -3.123622847843015
            ]
        }
    ]
}