{
    "goal": {
        "global_pose": {
            "orientation": {
                "w": 0.7031023502349854,
                "x": -0.7110244035720825,
                "y": 0.007748599164187908,
                "z": 0.005598929710686207
            },
            "position": {
                "x": 0.11585023208521307,
                "y": 0.44412534475326537,
                "z": 0.3711530566215515
            }
        },
        "name": "move_to_auspresseinheit_A"
    },
    "id": "TRRT_move_to_auspresseinheit_A_47",
    "joint_names": [
        "shoulder_pan_joint",
        "shoulder_lift_joint",
        "elbow_joint",
        "wrist_1_joint",
        "wrist_2_joint",
        "wrist_3_joint"
    ],
    "metrics": {
        "cart_traj_len": 2.9038834114731165,
        "distance_elbow_joint": 1.8122809523268648,
        "distance_shoulder_lift_joint": 0.5347005109390641,
        "distance_shoulder_pan_joint": 2.9896178133918747,
        "distance_wrist_1_joint": 1.798444993460139,
        "distance_wrist_2_joint": 2.178510165176112,
        "distance_wrist_3_joint": 1.8268666017090278,
        "smoothness": 1.0545766411935704,
        "time": 0.091115667,
        "traj_len": 3.3377269266677705,
        "weighted_distance": 4.332563836697318
    },
    "planner": "TRRT",
    "start": {
        "state": {
            "elbow_joint": 2.4225746658250005,
            "shoulder_lift_joint": -1.3736534386056498,
            "shoulder_pan_joint": -0.3378633547517467,
            "wrist_1_joint": -1.0288598680537169,
            "wrist_2_joint": 1.233022673432363,
            "wrist_3_joint": -3.0940220416140027
        }
    },
    "waypoints": [
        {
            "positions": [
                -0.3378633547517467,
                -1.3736534386056498,
                2.4225746658250005,
                -1.0288598680537169,
                1.233022673432363,
                -3.0940220416140027
            ]
        },
        {
            "positions": [
                -0.4262491465750171,
                -1.3747189454347948,
                2.3389873325743586,
                -1.0859168672383668,
                1.3081517830402412,
                -3.0121688235714985
            ]
        },
        {
            "positions": [
                -0.5146349383982876,
                -1.3757844522639395,
                2.255399999323717,
                -1.1429738664230167,
                1.383280892648119,
                -2.9303156055289947
            ]
        },
        {
            "positions": [
                -0.6030207302215579,
                -1.3768499590930845,
                2.171812666073075,
                -1.2000308656076666,
                1.4584100022559972,
                -2.8484623874864905
            ]
        },
        {
            "positions": [
                -0.6914065220448283,
                -1.3779154659222295,
                2.088225332822433,
                -1.2570878647923165,
                1.5335391118638753,
                -2.7666091694439867
            ]
        },
        {
            "positions": [
                -0.7797923138680987,
                -1.3789809727513742,
                2.0046379995717913,
                -1.3141448639769662,
                1.6086682214717531,
                -2.6847559514014825
            ]
        },
        {
            "positions": [
                -0.8681781056913691,
                -1.3800464795805192,
                1.9210506663211495,
                -1.371201863161616,
                1.6837973310796313,
                -2.6029027333589787
            ]
        },
        {
            "positions": [
                -0.9565638975146395,
                -1.381111986409664,
                1.8374633330705077,
                -1.428258862346266,
                1.7589264406875094,
                -2.5210495153164745
            ]
        },
        {
            "positions": [
                -1.04494968933791,
                -1.382177493238809,
                1.7538759998198659,
                -1.4853158615309159,
                1.8340555502953872,
                -2.4391962972739707
            ]
        },
        {
            "positions": [
                -1.1333354811611804,
                -1.3832430000679539,
                1.670288666569224,
                -1.5423728607155658,
                1.9091846599032654,
                -2.3573430792314665
            ]
        },
        {
            "positions": [
                -1.2217212729844507,
                -1.3843085068970986,
                1.5867013333185822,
                -1.5994298599002157,
                1.9843137695111435,
                -2.2754898611889622
            ]
        },
        {
            "positions": [
                -1.310107064807721,
                -1.3853740137262436,
                1.5031140000679404,
                -1.6564868590848656,
                2.0594428791190214,
                -2.1936366431464585
            ]
        },
        {
            "positions": [
                -1.1980307257335046,
                -1.4144284546050474,
                1.5527151270995962,
                -1.5914414145054772,
                1.9843267702584961,
                -2.2451078211043187
            ]
        },
        {
            "positions": [
                -1.0859543866592878,
                -1.4434828954838514,
                1.6023162541312521,
                -1.526395969926089,
                1.909210661397971,
                -2.296578999062179
            ]
        },
        {
            "positions": [
                -0.9738780475850712,
                -1.4725373363626553,
                1.6519173811629078,
                -1.4613505253467005,
                1.8340945525374457,
                -2.3480501770200393
            ]
        },
        {
            "positions": [
                -0.8618017085108547,
                -1.501591777241459,
                1.7015185081945636,
                -1.3963050807673123,
                1.7589784436769205,
                -2.399521354977899
            ]
        },
        {
            "positions": [
                -0.7497253694366379,
                -1.5306462181202631,
                1.7511196352262195,
                -1.3312596361879239,
                1.6838623348163952,
                -2.4509925329357594
            ]
        },
        {
            "positions": [
                -0.6376490303624214,
                -1.559700658999067,
                1.8007207622578751,
                -1.2662141916085357,
                1.60874622595587,
                -2.5024637108936196
            ]
        },
        {
            "positions": [
                -0.5255726912882047,
                -1.588755099877871,
                1.850321889289531,
                -1.2011687470291472,
                1.533630117095345,
                -2.55393488885148
            ]
        },
        {
            "positions": [
                -0.41349635221398817,
                -1.6178095407566748,
                1.8999230163211869,
                -1.136123302449759,
                1.4585140082348196,
                -2.60540606680934
            ]
        },
        {
            "positions": [
                -0.3014200131397715,
                -1.6468639816354789,
                1.9495241433528427,
                -1.0710778578703706,
                1.3833978993742946,
                -2.6568772447672
            ]
        },
        {
            "positions": [
                -0.18934367406555475,
                -1.6759184225142827,
                1.9991252703844986,
                -1.0060324132909821,
                1.3082817905137691,
                -2.7083484227250603
            ]
        },
        {
            "positions": [
                -0.0772673349913382,
                -1.7049728633930865,
                2.0487263974161545,
                -0.9409869687115938,
                1.2331656816532441,
                -2.7598196006829205
            ]
        },
        {
            "positions": [
                0.03480900408287835,
                -1.7340273042718906,
                2.09832752444781,
                -0.8759415241322056,
                1.158049572792719,
                -2.811290778640781
            ]
        },
        {
            "positions": [
                0.1468853431570949,
                -1.7630817451506944,
                2.147928651479466,
                -0.8108960795528173,
                1.0829334639321937,
                -2.862761956598641
            ]
        },
        {
            "positions": [
                0.25896168223131166,
                -1.7921361860294982,
                2.1975297785111216,
                -0.7458506349734288,
                1.0078173550716685,
                -2.9142331345565013
            ]
        },
        {
            "positions": [
                0.3710380213055282,
                -1.8211906269083022,
                2.247130905542778,
                -0.6808051903940405,
                0.9327012462111433,
                -2.9657043125143616
            ]
        },
        {
            "positions": [
                0.48311436037974476,
                -1.850245067787106,
                2.2967320325744334,
                -0.6157597458146522,
                0.857585137350618,
                -3.0171754904722214
            ]
        },
        {
            "positions": [
                0.5951906994539613,
                -1.87929950866591,
                2.3463331596060892,
                -0.550714301235264,
                0.7824690284900928,
                -3.0686466684300817
            ]
        },
        {
            "positions": [
                0.7072670385281778,
                -1.908353949544714,
                2.395934286637745,
                -0.48566885665587545,
                0.7073529196295676,
                -3.120117846387942
            ]
        }
    ]
}