{
    "goal": {
        "global_pose": {
            "orientation": {
                "w": -0.4816463035849501,
                "x": 0.5182115481033762,
                "y": 0.4908360881923453,
                "z": -0.5084816262002911
            },
            "position": {
                "x": -0.8240239810943604,
                "y": 0.19912469901144506,
                "z": 0.16403168439865112
            }
        },
        "name": "move_to_storage_D"
    },
    "id": "TRRT_move_to_storage_D_132",
    "joint_names": [
        "shoulder_pan_joint",
        "shoulder_lift_joint",
        "elbow_joint",
        "wrist_1_joint",
        "wrist_2_joint",
        "wrist_3_joint"
    ],
    "metrics": {
        "cart_traj_len": 0.8234704312789393,
        "distance_elbow_joint": 0.6520300846572751,
        "distance_shoulder_lift_joint": 0.9705051544632428,
        "distance_shoulder_pan_joint": 0.4259589853340038,
        "distance_wrist_1_joint": 3.8284911708148934,
        "distance_wrist_2_joint": 1.7812206555903758,
        "distance_wrist_3_joint": 3.1230414488532783,
        "smoothness": 0.09882623824324283,
        "time": 0.117115835,
        "traj_len": 3.2834810034037156,
        "weighted_distance": 4.75784007968163
    },
    "planner": "TRRT",
    "start": {
        "state": {
            "elbow_joint": -2.384821988534728,
            "shoulder_lift_joint": -2.2788054721415256,
            "shoulder_pan_joint": -0.1854694642142757,
            "wrist_1_joint": 1.4845938289331202,
            "wrist_2_joint": 0.17898776772866878,
            "wrist_3_joint": 0.037105688729662994
        }
    },
    "waypoints": [
        {
            "positions": [
                -0.1854694642142757,
                -2.2788054721415256,
                -2.384821988534728,
                1.4845938289331202,
                0.17898776772866878,
                0.037105688729662994
            ]
        },
        {
            "positions": [
                -0.13741586798895733,
                -2.1853831984073127,
                -2.3927324561132908,
                1.368840096013774,
                0.11027720989750596,
                0.019001562074757613
            ]
        },
        {
            "positions": [
                -0.08936227176363898,
                -2.0919609246731,
                -2.400642923691853,
                1.253086363094428,
                0.041566652066343135,
                0.0008974354198522314
            ]
        },
        {
            "positions": [
                -0.0413086755383206,
                -1.9985386509388872,
                -2.408553391270416,
                1.1373326301750817,
                -0.027143905764819704,
                -0.017206691235053154
            ]
        },
        {
            "positions": [
                0.006744920686997752,
                -1.9051163772046746,
                -2.416463858848979,
                1.0215788972557356,
                -0.09585446359598251,
                -0.03531081788995853
            ]
        },
        {
            "positions": [
                0.05479851691231616,
                -1.8116941034704617,
                -2.4243743264275412,
                0.9058251643363894,
                -0.16456502142714538,
                -0.053414944544863924
            ]
        },
        {
            "positions": [
                0.10285211313763454,
                -1.718271829736249,
                -2.432284794006104,
                0.7900714314170433,
                -0.23327557925830822,
                -0.0715190711997693
            ]
        },
        {
            "positions": [
                0.09659586732026665,
                -1.7369068984661564,
                -2.4048044631340177,
                0.6476183053580061,
                -0.29550091146755364,
                -0.20853801160539867
            ]
        },
        {
            "positions": [
                0.09033962150289877,
                -1.755541967196064,
                -2.3773241322619314,
                0.5051651792989691,
                -0.357726243676799,
                -0.34555695201102804
            ]
        },
        {
            "positions": [
                0.0840833756855309,
                -1.7741770359259716,
                -2.349843801389845,
                0.362712053239932,
                -0.41995157588604437,
                -0.4825758924166573
            ]
        },
        {
            "positions": [
                0.07782712986816301,
                -1.7928121046558791,
                -2.3223634705177587,
                0.2202589271808948,
                -0.4821769080952898,
                -0.6195948328222868
            ]
        },
        {
            "positions": [
                0.07157088405079512,
                -1.8114471733857866,
                -2.2948831396456724,
                0.07780580112185775,
                -0.5444022403045352,
                -0.756613773227916
            ]
        },
        {
            "positions": [
                0.06531463823342724,
                -1.8300822421156941,
                -2.267402808773586,
                -0.06464732493717928,
                -0.6066275725137806,
                -0.8936327136335454
            ]
        },
        {
            "positions": [
                0.059058392416059355,
                -1.8487173108456019,
                -2.2399224779014997,
                -0.20710045099621643,
                -0.668852904723026,
                -1.0306516540391746
            ]
        },
        {
            "positions": [
                0.05280214659869147,
                -1.8673523795755094,
                -2.2124421470294138,
                -0.3495535770552537,
                -0.7310782369322715,
                -1.1676705944448043
            ]
        },
        {
            "positions": [
                0.04654590078132359,
                -1.8859874483054169,
                -2.1849618161573274,
                -0.49200670311429084,
                -0.7933035691415169,
                -1.3046895348504335
            ]
        },
        {
            "positions": [
                0.040289654963955715,
                -1.9046225170353244,
                -2.157481485285241,
                -0.6344598291733278,
                -0.8555289013507622,
                -1.4417084752560627
            ]
        },
        {
            "positions": [
                0.034033409146587826,
                -1.9232575857652319,
                -2.1300011544131547,
                -0.7769129552323649,
                -0.9177542335600076,
                -1.5787274156616922
            ]
        },
        {
            "positions": [
                0.02777716332921995,
                -1.9418926544951396,
                -2.1025208235410684,
                -0.9193660812914018,
                -0.9799795657692529,
                -1.7157463560673214
            ]
        },
        {
            "positions": [
                0.02152091751185206,
                -1.960527723225047,
                -2.075040492668982,
                -1.0618192073504393,
                -1.0422048979784986,
                -1.852765296472951
            ]
        },
        {
            "positions": [
                0.015264671694484172,
                -1.9791627919549546,
                -2.0475601617968957,
                -1.204272333409476,
                -1.1044302301877438,
                -1.98978423687858
            ]
        },
        {
            "positions": [
                0.009008425877116297,
                -1.997797860684862,
                -2.0200798309248094,
                -1.3467254594685132,
                -1.1666555623969892,
                -2.1268031772842093
            ]
        },
        {
            "positions": [
                0.0027521800597484075,
                -2.0164329294147696,
                -1.992599500052723,
                -1.4891785855275508,
                -1.2288808946062346,
                -2.2638221176898394
            ]
        },
        {
            "positions": [
                -0.003504065757619468,
                -2.0350679981446773,
                -1.9651191691806367,
                -1.6316317115865875,
                -1.2911062268154798,
                -2.4008410580954678
            ]
        },
        {
            "positions": [
                -0.009760311574987357,
                -2.053703066874585,
                -1.9376388383085503,
                -1.774084837645625,
                -1.3533315590247255,
                -2.537859998501098
            ]
        },
        {
            "positions": [
                -0.016016557392355232,
                -2.0723381356044923,
                -1.910158507436464,
                -1.9165379637046618,
                -1.4155568912339707,
                -2.674878938906727
            ]
        },
        {
            "positions": [
                -0.022272803209723108,
                -2.0909732043344,
                -1.8826781765643779,
                -2.058991089763699,
                -1.4777822234432163,
                -2.8118978793123564
            ]
        },
        {
            "positions": [
                -0.028529049027090997,
                -2.1096082730643073,
                -1.8551978456922915,
                -2.201444215822736,
                -1.5400075556524615,
                -2.9489168197179856
            ]
        },
        {
            "positions": [
                -0.03478529484445888,
                -2.128243341794215,
                -1.8277175148202052,
                -2.3438973418817732,
                -1.602232887861707,
                -3.0859357601236153
            ]
        }
    ]
}