{
    "goal": {
        "global_pose": {
            "orientation": {
                "w": 0.7047431493862688,
                "x": -0.7094548369677653,
                "y": 0.0024358444001904,
                "z": -0.0022348060817251984
            },
            "position": {
                "x": -0.39052492380142206,
                "y": 0.3671506643295288,
                "z": 0.19426114857196808
            }
        },
        "name": "move_to_magneteinheit_D"
    },
    "id": "TRRT_move_to_magneteinheit_D_105",
    "joint_names": [
        "shoulder_pan_joint",
        "shoulder_lift_joint",
        "elbow_joint",
        "wrist_1_joint",
        "wrist_2_joint",
        "wrist_3_joint"
    ],
    "metrics": {
        "cart_traj_len": 4.444669730762957,
        "distance_elbow_joint": 4.939340941594379,
        "distance_shoulder_lift_joint": 1.3809723169899348,
        "distance_shoulder_pan_joint": 3.102283859122623,
        "distance_wrist_1_joint": 5.040165652656896,
        "distance_wrist_2_joint": 2.588978062062671,
        "distance_wrist_3_joint": 6.274678422715871,
        "smoothness": 0.39286545333498646,
        "time": 0.971771127,
        "traj_len": 4.829743187286708,
        "weighted_distance": 6.5958259388262865
    },
    "planner": "TRRT",
    "start": {
        "state": {
            "elbow_joint": 0.749534889911806,
            "shoulder_lift_joint": -0.6476975780787326,
            "shoulder_pan_joint": -2.711696901376241,
            "wrist_1_joint": -0.07506478083263063,
            "wrist_2_joint": 0.43296659715538205,
            "wrist_3_joint": -3.14703540197715
        }
    },
    "waypoints": [
        {
            "positions": [
                -2.711696901376241,
                -0.6476975780787326,
                0.749534889911806,
                -0.07506478083263063,
                0.43296659715538205,
                -3.14703540197715
            ]
        },
        {
            "positions": [
                -2.719268245821911,
                -0.7200133789590406,
                0.7670622913377132,
                0.012100877671809507,
                0.503677176609703,
                -3.1095953231845126
            ]
        },
        {
            "positions": [
                -2.7268395902675806,
                -0.7923291798393485,
                0.7845896927636204,
                0.09926653617624964,
                0.5743877560640239,
                -3.0721552443918747
            ]
        },
        {
            "positions": [
                -2.7344109347132504,
                -0.8646449807196565,
                0.8021170941895277,
                0.18643219468068978,
                0.6450983355183448,
                -3.0347151655992373
            ]
        },
        {
            "positions": [
                -2.720747777297653,
                -0.945190087622062,
                0.888062622305993,
                0.30760385894748127,
                0.7225270207595919,
                -3.034412400311535
            ]
        },
        {
            "positions": [
                -2.7070846198820555,
                -1.0257351945244677,
                0.9740081504224583,
                0.42877552321427276,
                0.7999557060008389,
                -3.034109635023833
            ]
        },
        {
            "positions": [
                -2.6934214624664583,
                -1.1062803014268732,
                1.0599536785389234,
                0.5499471874810642,
                0.8773843912420859,
                -3.033806869736131
            ]
        },
        {
            "positions": [
                -2.6797583050508607,
                -1.1868254083292789,
                1.1458992066553888,
                0.6711188517478557,
                0.9548130764833329,
                -3.0335041044484288
            ]
        },
        {
            "positions": [
                -2.6660951476352635,
                -1.2673705152316845,
                1.231844734771854,
                0.7922905160146472,
                1.0322417617245798,
                -3.0332013391607267
            ]
        },
        {
            "positions": [
                -2.6524319902196662,
                -1.34791562213409,
                1.3177902628883191,
                0.9134621802814387,
                1.109670446965827,
                -3.0328985738730245
            ]
        },
        {
            "positions": [
                -2.6387688328040686,
                -1.4284607290364957,
                1.4037357910047845,
                1.0346338445482302,
                1.187099132207074,
                -3.0325958085853224
            ]
        },
        {
            "positions": [
                -2.6251056753884714,
                -1.5090058359389014,
                1.48968131912125,
                1.1558055088150216,
                1.264527817448321,
                -3.0322930432976203
            ]
        },
        {
            "positions": [
                -2.6114425179728737,
                -1.5895509428413068,
                1.5756268472377148,
                1.2769771730818131,
                1.341956502689568,
                -3.031990278009918
            ]
        },
        {
            "positions": [
                -2.5977793605572765,
                -1.6700960497437125,
                1.6615723753541802,
                1.3981488373486046,
                1.419385187930815,
                -3.031687512722216
            ]
        },
        {
            "positions": [
                -2.5345584391504756,
                -1.6676990251073427,
                1.571344116061443,
                1.318275978893221,
                1.3934129537951776,
                -2.903419600761566
            ]
        },
        {
            "positions": [
                -2.4713375177436743,
                -1.6653020004709729,
                1.481115856768706,
                1.2384031204378372,
                1.3674407196595402,
                -2.7751516888009156
            ]
        },
        {
            "positions": [
                -2.4081165963368734,
                -1.6629049758346028,
                1.390887597475969,
                1.1585302619824536,
                1.3414684855239027,
                -2.646883776840265
            ]
        },
        {
            "positions": [
                -2.3448956749300724,
                -1.660507951198233,
                1.3006593381832317,
                1.0786574035270697,
                1.3154962513882653,
                -2.5186158648796146
            ]
        },
        {
            "positions": [
                -2.281674753523271,
                -1.6581109265618632,
                1.2104310788904946,
                0.9987845450716861,
                1.2895240172526279,
                -2.3903479529189644
            ]
        },
        {
            "positions": [
                -2.21845383211647,
                -1.6557139019254934,
                1.1202028195977574,
                0.9189116866163025,
                1.2635517831169905,
                -2.262080040958314
            ]
        },
        {
            "positions": [
                -2.1552329107096693,
                -1.6533168772891236,
                1.0299745603050203,
                0.8390388281609188,
                1.237579548981353,
                -2.133812128997664
            ]
        },
        {
            "positions": [
                -2.092011989302868,
                -1.6509198526527538,
                0.9397463010122831,
                0.7591659697055351,
                1.2116073148457156,
                -2.0055442170370137
            ]
        },
        {
            "positions": [
                -2.028791067896067,
                -1.6485228280163837,
                0.8495180417195459,
                0.6792931112501513,
                1.1856350807100782,
                -1.8772763050763632
            ]
        },
        {
            "positions": [
                -1.965570146489266,
                -1.646125803380014,
                0.7592897824268089,
                0.5994202527947677,
                1.1596628465744407,
                -1.749008393115713
            ]
        },
        {
            "positions": [
                -1.9023492250824647,
                -1.643728778743644,
                0.6690615231340716,
                0.519547394339384,
                1.1336906124388033,
                -1.6207404811550628
            ]
        },
        {
            "positions": [
                -1.8391283036756638,
                -1.6413317541072743,
                0.5788332638413345,
                0.4396745358840003,
                1.1077183783031659,
                -1.4924725691944123
            ]
        },
        {
            "positions": [
                -1.775907382268863,
                -1.6389347294709045,
                0.48860500454859745,
                0.3598016774286168,
                1.0817461441675285,
                -1.364204657233762
            ]
        },
        {
            "positions": [
                -1.7126864608620616,
                -1.6365377048345344,
                0.3983767452558602,
                0.27992881897323296,
                1.055773910031891,
                -1.2359367452731118
            ]
        },
        {
            "positions": [
                -1.6494655394552606,
                -1.6341406801981646,
                0.30814848596312294,
                0.20005596051784913,
                1.0298016758962536,
                -1.1076688333124614
            ]
        },
        {
            "positions": [
                -1.5862446180484595,
                -1.6317436555617948,
                0.2179202266703859,
                0.12018310206246552,
                1.0038294417606162,
                -0.9794009213518113
            ]
        },
        {
            "positions": [
                -1.5230236966416586,
                -1.629346630925425,
                0.12769196737764887,
                0.04031024360708191,
                0.9778572076249789,
                -0.8511330093911607
            ]
        },
        {
            "positions": [
                -1.4598027752348575,
                -1.6269496062890552,
                0.03746370808491162,
                -0.039562614848301925,
                0.9518849734893413,
                -0.7228650974305104
            ]
        },
        {
            "positions": [
                -1.3965818538280563,
                -1.6245525816526853,
                -0.052764551207825416,
                -0.11943547330368554,
                0.925912739353704,
                -0.5945971854698602
            ]
        },
        {
            "positions": [
                -1.3333609324212554,
                -1.6221555570163153,
                -0.14299281050056245,
                -0.19930833175906915,
                0.8999405052180666,
                -0.46632927350920994
            ]
        },
        {
            "positions": [
                -1.2701400110144543,
                -1.6197585323799455,
                -0.2332210697932997,
                -0.27918119021445276,
                0.8739682710824291,
                -0.3380613615485597
            ]
        },
        {
            "positions": [
                -1.2069190896076532,
                -1.6173615077435757,
                -0.32344932908603696,
                -0.3590540486698366,
                0.8479960369467917,
                -0.20979344958790946
            ]
        },
        {
            "positions": [
                -1.1436981682008522,
                -1.6149644831072059,
                -0.413677588378774,
                -0.4389269071252202,
                0.8220238028111543,
                -0.08152553762725878
            ]
        },
        {
            "positions": [
                -1.080477246794051,
                -1.612567458470836,
                -0.5039058476715113,
                -0.518799765580604,
                0.7960515686755169,
                0.046742374333391457
            ]
        },
        {
            "positions": [
                -1.01725632538725,
                -1.6101704338344662,
                -0.5941341069642485,
                -0.5986726240359879,
                0.7700793345398794,
                0.1750102862940417
            ]
        },
        {
            "positions": [
                -0.9540354039804491,
                -1.6077734091980962,
                -0.6843623662569853,
                -0.678545482491371,
                0.7441071004042421,
                0.30327819825469193
            ]
        },
        {
            "positions": [
                -0.8908144825736479,
                -1.6053763845617264,
                -0.7745906255497226,
                -0.7584183409467551,
                0.7181348662686047,
                0.43154611021534217
            ]
        },
        {
            "positions": [
                -0.8275935611668468,
                -1.6029793599253566,
                -0.8648188848424598,
                -0.8382911994021387,
                0.6921626321329671,
                0.5598140221759924
            ]
        },
        {
            "positions": [
                -0.7643726397600457,
                -1.6005823352889867,
                -0.9550471441351971,
                -0.9181640578575223,
                0.6661903979973297,
                0.6880819341366431
            ]
        },
        {
            "positions": [
                -0.7011517183532447,
                -1.598185310652617,
                -1.0452754034279343,
                -0.9980369163129064,
                0.6402181638616923,
                0.8163498460972933
            ]
        },
        {
            "positions": [
                -0.6379307969464438,
                -1.595788286016247,
                -1.1355036627206712,
                -1.0779097747682895,
                0.614245929726055,
                0.9446177580579431
            ]
        },
        {
            "positions": [
                -0.5747098755396425,
                -1.593391261379877,
                -1.2257319220134084,
                -1.1577826332236736,
                0.5882736955904175,
                1.0728856700185934
            ]
        },
        {
            "positions": [
                -0.5114889541328416,
                -1.5909942367435073,
                -1.3159601813061452,
                -1.2376554916790572,
                0.5623014614547801,
                1.2011535819792436
            ]
        },
        {
            "positions": [
                -0.44826803272604065,
                -1.5885972121071374,
                -1.4061884405988825,
                -1.3175283501344408,
                0.5363292273191427,
                1.3294214939398947
            ]
        },
        {
            "positions": [
                -0.3850471113192393,
                -1.5862001874707676,
                -1.4964166998916197,
                -1.3974012085898249,
                0.5103569931835052,
                1.457689405900545
            ]
        },
        {
            "positions": [
                -0.3218261899124384,
                -1.5838031628343976,
                -1.586644959184357,
                -1.4772740670452085,
                0.4843847590478677,
                1.5859573178611952
            ]
        },
        {
            "positions": [
                -0.2586052685056375,
                -1.5814061381980278,
                -1.6768732184770938,
                -1.5571469255005916,
                0.4584125249122304,
                1.7142252298218454
            ]
        },
        {
            "positions": [
                -0.19538434709883612,
                -1.579009113561658,
                -1.767101477769831,
                -1.6370197839559757,
                0.43244029077659296,
                1.8424931417824957
            ]
        },
        {
            "positions": [
                -0.13216342569203504,
                -1.5766120889252881,
                -1.8573297370625685,
                -1.7168926424113593,
                0.40646805664095553,
                1.9707610537431457
            ]
        },
        {
            "positions": [
                -0.09688778911632484,
                -1.6115753838699112,
                -1.911668942725776,
                -1.737913328331665,
                0.33593069434294553,
                2.126134328566008
            ]
        },
        {
            "positions": [
                -0.061612152540614626,
                -1.6465386788145344,
                -1.9660081483889835,
                -1.7589340142519707,
                0.2653933320449356,
                2.281507603388871
            ]
        },
        {
            "positions": [
                -0.02633651596490441,
                -1.6815019737591574,
                -2.020347354052191,
                -1.7799547001722764,
                0.19485596974692562,
                2.436880878211733
            ]
        },
        {
            "positions": [
                0.00893912061080579,
                -1.7164652687037805,
                -2.0746865597153983,
                -1.8009753860925821,
                0.12431860744891565,
                2.5922541530345957
            ]
        },
        {
            "positions": [
                0.04421475718651602,
                -1.7514285636484037,
                -2.1290257653786058,
                -1.8219960720128878,
                0.053781245150905654,
                2.7476274278574584
            ]
        },
        {
            "positions": [
                0.07949039376222622,
                -1.7863918585930267,
                -2.1833649710418133,
                -1.8430167579331935,
                -0.016756117147104288,
                2.9030007026803206
            ]
        },
        {
            "positions": [
                -0.012459391802105757,
                -1.7619722530397555,
                -2.2510183134109663,
                -1.9665287914500258,
                -0.023128308405608818,
                2.9093922391152938
            ]
        },
        {
            "positions": [
                -0.10440917736643773,
                -1.7375526474864844,
                -2.3186716557801192,
                -2.090040824966858,
                -0.029500499664113347,
                2.915783775550267
            ]
        },
        {
            "positions": [
                -0.14529364045717447,
                -1.7407880993526093,
                -2.34220136828897,
                -2.129422011046958,
                -0.10633739151026782,
                3.0217133981444935
            ]
        },
        {
            "positions": [
                -0.18617810354791123,
                -1.744023551218734,
                -2.3657310807978216,
                -2.168803197127058,
                -0.1831742833564223,
                3.12764302073872
            ]
        }
    ]
}