{
    "goal": {
        "global_pose": {
            "orientation": {
                "w": 0.7047431493862688,
                "x": -0.7094548369677653,
                "y": 0.0024358444001904,
                "z": -0.0022348060817251984
            },
            "position": {
                "x": -0.39052492380142206,
                "y": 0.3671506643295288,
                "z": 0.19426114857196808
            }
        },
        "name": "move_to_magneteinheit_D"
    },
    "id": "TRRT_move_to_magneteinheit_D_123",
    "joint_names": [
        "shoulder_pan_joint",
        "shoulder_lift_joint",
        "elbow_joint",
        "wrist_1_joint",
        "wrist_2_joint",
        "wrist_3_joint"
    ],
    "metrics": {
        "cart_traj_len": 4.365081085486391,
        "distance_elbow_joint": 3.1023544020689564,
        "distance_shoulder_lift_joint": 1.1022627404144902,
        "distance_shoulder_pan_joint": 3.0545906760258226,
        "distance_wrist_1_joint": 2.3793388266580333,
        "distance_wrist_2_joint": 1.3611974392809563,
        "distance_wrist_3_joint": 2.256101509079496,
        "smoothness": 0.33012930892710546,
        "time": 1.296035489,
        "traj_len": 3.640857810122191,
        "weighted_distance": 4.637734886517959
    },
    "planner": "TRRT",
    "start": {
        "state": {
            "elbow_joint": 0.749534889911806,
            "shoulder_lift_joint": -0.6476975780787326,
            "shoulder_pan_joint": -2.711696901376241,
            "wrist_1_joint": -0.07506478083263063,
            "wrist_2_joint": 0.43296659715538205,
            "wrist_3_joint": -3.14703540197715
        }
    },
    "waypoints": [
        {
            "positions": [
                -2.711696901376241,
                -0.6476975780787326,
                0.749534889911806,
                -0.07506478083263063,
                0.43296659715538205,
                -3.14703540197715
            ]
        },
        {
            "positions": [
                -2.7090750564078188,
                -0.7360797060991224,
                0.6184695029503138,
                -0.02058450441334031,
                0.4198291398263566,
                -3.0840708512084016
            ]
        },
        {
            "positions": [
                -2.7064532114393964,
                -0.8244618341195123,
                0.4874041159888216,
                0.03389577200595001,
                0.40669168249733123,
                -3.0211063004396532
            ]
        },
        {
            "positions": [
                -2.5880890777675853,
                -0.8451908324674993,
                0.39257601842418033,
                -0.03271933488162361,
                0.3646890404042766,
                -2.976015565270781
            ]
        },
        {
            "positions": [
                -2.4697249440957743,
                -0.8659198308154862,
                0.297747920859539,
                -0.09933444176919723,
                0.3226863983112219,
                -2.930924830101909
            ]
        },
        {
            "positions": [
                -2.351360810423963,
                -0.8866488291634731,
                0.20291982329489766,
                -0.16594954865677083,
                0.2806837562181673,
                -2.885834094933037
            ]
        },
        {
            "positions": [
                -2.232996676752152,
                -0.90737782751146,
                0.10809172573025638,
                -0.23256465554434447,
                0.23868111412511267,
                -2.840743359764165
            ]
        },
        {
            "positions": [
                -2.114632543080341,
                -0.9281068258594469,
                0.013263628165615049,
                -0.2991797624319181,
                0.19667847203205802,
                -2.795652624595293
            ]
        },
        {
            "positions": [
                -1.9962684094085295,
                -0.9488358242074338,
                -0.08156446939902628,
                -0.3657948693194917,
                0.15467582993900336,
                -2.7505618894264208
            ]
        },
        {
            "positions": [
                -1.8779042757367184,
                -0.9695648225554208,
                -0.17639256696366767,
                -0.43240997620706534,
                0.11267318784594871,
                -2.7054711542575487
            ]
        },
        {
            "positions": [
                -1.7595401420649073,
                -0.9902938209034077,
                -0.27122066452830884,
                -0.49902508309463894,
                0.07067054575289411,
                -2.6603804190886766
            ]
        },
        {
            "positions": [
                -1.641176008393096,
                -1.0110228192513946,
                -0.36604876209295023,
                -0.5656401899822125,
                0.028667903659839455,
                -2.6152896839198045
            ]
        },
        {
            "positions": [
                -1.522811874721285,
                -1.0317518175993814,
                -0.4608768596575915,
                -0.6322552968697861,
                -0.013334738433215199,
                -2.5701989487509325
            ]
        },
        {
            "positions": [
                -1.4044477410494738,
                -1.0524808159473684,
                -0.5557049572222328,
                -0.6988704037573599,
                -0.05533738052626985,
                -2.5251082135820604
            ]
        },
        {
            "positions": [
                -1.2860836073776627,
                -1.0732098142953554,
                -0.6505330547868742,
                -0.7654855106449334,
                -0.0973400226193245,
                -2.4800174784131883
            ]
        },
        {
            "positions": [
                -1.1677194737058516,
                -1.0939388126433423,
                -0.7453611523515153,
                -0.832100617532507,
                -0.1393426647123791,
                -2.4349267432443167
            ]
        },
        {
            "positions": [
                -1.0493553400340403,
                -1.114667810991329,
                -0.840189249916157,
                -0.8987157244200807,
                -0.18134530680543381,
                -2.389836008075444
            ]
        },
        {
            "positions": [
                -0.9309912063622292,
                -1.135396809339316,
                -0.9350173474807981,
                -0.9653308313076543,
                -0.2233479488984884,
                -2.344745272906572
            ]
        },
        {
            "positions": [
                -0.8126270726904181,
                -1.156125807687303,
                -1.0298454450454393,
                -1.0319459381952278,
                -0.265350590991543,
                -2.2996545377377
            ]
        },
        {
            "positions": [
                -0.694262939018607,
                -1.17685480603529,
                -1.1246735426100807,
                -1.0985610450828014,
                -0.3073532330845976,
                -2.2545638025688284
            ]
        },
        {
            "positions": [
                -0.5758988053467955,
                -1.1975838043832767,
                -1.219501640174722,
                -1.1651761519703752,
                -0.3493558751776523,
                -2.209473067399956
            ]
        },
        {
            "positions": [
                -0.4575346716749844,
                -1.2183128027312637,
                -1.3143297377393632,
                -1.2317912588579487,
                -0.3913585172707069,
                -2.1643823322310842
            ]
        },
        {
            "positions": [
                -0.33917053800317376,
                -1.2390418010792508,
                -1.4091578353040046,
                -1.2984063657455223,
                -0.43336115936376163,
                -2.1192915970622117
            ]
        },
        {
            "positions": [
                -0.22080640433136267,
                -1.2597707994272376,
                -1.5039859328686458,
                -1.3650214726330958,
                -0.4753638014568162,
                -2.07420086189334
            ]
        },
        {
            "positions": [
                -0.10244227065955114,
                -1.2804997977752244,
                -1.5988140304332872,
                -1.4316365795206696,
                -0.5173664435498709,
                -2.0291101267244676
            ]
        },
        {
            "positions": [
                0.015921863012260156,
                -1.3012287961232114,
                -1.6936421279979288,
                -1.4982516864082431,
                -0.5593690856429255,
                -1.9840193915555957
            ]
        },
        {
            "positions": [
                0.02363651478557431,
                -1.3437969505622187,
                -1.7656936533776824,
                -1.5855625254208623,
                -0.5324470813817779,
                -2.1093747742259414
            ]
        },
        {
            "positions": [
                0.03135116655888846,
                -1.386365105001226,
                -1.837745178757436,
                -1.6728733644334817,
                -0.5055250771206302,
                -2.2347301568962874
            ]
        },
        {
            "positions": [
                0.039065818332202615,
                -1.4289332594402333,
                -1.9097967041371893,
                -1.7601842034461008,
                -0.4786030728594825,
                -2.3600855395666334
            ]
        },
        {
            "positions": [
                0.04678047010551677,
                -1.4715014138792406,
                -1.9818482295169428,
                -1.84749504245872,
                -0.45168106859833485,
                -2.4854409222369793
            ]
        },
        {
            "positions": [
                0.05449512187883092,
                -1.514069568318248,
                -2.053899754896696,
                -1.9348058814713394,
                -0.4247590643371872,
                -2.610796304907325
            ]
        },
        {
            "positions": [
                0.062209773652145084,
                -1.5566377227572552,
                -2.1259512802764498,
                -2.0221167204839583,
                -0.3978370600760395,
                -2.736151687577671
            ]
        },
        {
            "positions": [
                0.06992442542545924,
                -1.5992058771962625,
                -2.1980028056562033,
                -2.1094275594965777,
                -0.3709150558148918,
                -2.8615070702480168
            ]
        },
        {
            "positions": [
                0.07763907719877339,
                -1.6417740316352698,
                -2.270054331035957,
                -2.196738398509197,
                -0.34399305155374416,
                -2.9868624529183627
            ]
        },
        {
            "positions": [
                -0.054988271526631466,
                -1.6958671750642464,
                -2.311436921596554,
                -2.21661045016135,
                -0.26725019035701075,
                -3.03198367156595
            ]
        },
        {
            "positions": [
                -0.18761562025203632,
                -1.7499603184932229,
                -2.3528195121571507,
                -2.236482501813503,
                -0.19050732916027735,
                -3.0771048902135374
            ]
        }
    ]
}