{
    "goal": {
        "global_pose": {
            "orientation": {
                "w": 0.5084816217422485,
                "x": -0.49083608388900757,
                "y": 0.5182115435600281,
                "z": -0.4816462993621826
            },
            "position": {
                "x": 0.5540239810943604,
                "y": 0.030875300988554955,
                "z": 0.16403168439865112
            }
        },
        "name": "move_to_storage_A"
    },
    "id": "TRRT_move_to_storage_A_128",
    "joint_names": [
        "shoulder_pan_joint",
        "shoulder_lift_joint",
        "elbow_joint",
        "wrist_1_joint",
        "wrist_2_joint",
        "wrist_3_joint"
    ],
    "metrics": {
        "cart_traj_len": 0.3534493934627791,
        "distance_elbow_joint": 0.44995802620552516,
        "distance_shoulder_lift_joint": 0.23434840258547318,
        "distance_shoulder_pan_joint": 0.45882032523341726,
        "distance_wrist_1_joint": 0.24407794368905844,
        "distance_wrist_2_joint": 1.113885589824382,
        "distance_wrist_3_joint": 0.0885427383087869,
        "smoothness": 4.440892133664971e-16,
        "time": 0.020278819,
        "traj_len": 1.6092336765823176,
        "weighted_distance": 2.0309313223193093
    },
    "planner": "TRRT",
    "start": {
        "state": {
            "elbow_joint": 1.971548259319323,
            "shoulder_lift_joint": -1.1394851275133948,
            "shoulder_pan_joint": 0.1228115487234821,
            "wrist_1_joint": -0.7804723859257726,
            "wrist_2_joint": 0.12958671773740124,
            "wrist_3_joint": -3.192489227718131
        }
    },
    "waypoints": [
        {
            "positions": [
                0.1228115487234821,
                -1.1394851275133948,
                1.971548259319323,
                -0.7804723859257726,
                0.12958671773740124,
                -3.192489227718131
            ]
        },
        {
            "positions": [
                0.057265787975851065,
                -1.172963470739891,
                2.0358279773486836,
                -0.8153406635956381,
                0.2887132305694558,
                -3.17984026510259
            ]
        },
        {
            "positions": [
                -0.00827997277177997,
                -1.206441813966387,
                2.1001076953780444,
                -0.8502089412655036,
                0.44783974340151034,
                -3.167191302487049
            ]
        },
        {
            "positions": [
                -0.07382573351941099,
                -1.2399201571928833,
                2.1643874134074053,
                -0.8850772189353691,
                0.6069662562335649,
                -3.154542339871508
            ]
        },
        {
            "positions": [
                -0.13937149426704204,
                -1.2733985004193795,
                2.228667131436766,
                -0.9199454966052346,
                0.7660927690656195,
                -3.1418933772559674
            ]
        },
        {
            "positions": [
                -0.20491725501467312,
                -1.3068768436458758,
                2.2929468494661265,
                -0.9548137742751001,
                0.9252192818976741,
                -3.1292444146404264
            ]
        },
        {
            "positions": [
                -0.2704630157623041,
                -1.3403551868723718,
                2.3572265674954873,
                -0.9896820519449656,
                1.0843457947297286,
                -3.1165954520248853
            ]
        },
        {
            "positions": [
                -0.33600877650993516,
                -1.373833530098868,
                2.421506285524848,
                -1.024550329614831,
                1.2434723075617833,
                -3.1039464894093443
            ]
        }
    ]
}{
    "goal": {
        "global_pose": {
            "orientation": {
                "w": 0.5084816217422485,
                "x": -0.49083608388900757,
                "y": 0.5182115435600281,
                "z": -0.4816462993621826
            },
            "position": {
                "x": 0.5540239810943604,
                "y": 0.030875300988554955,
                "z": 0.16403168439865112
            }
        },
        "name": "move_to_storage_A"
    },
    "id": "TRRT_move_to_storage_A_128",
    "joint_names": [
        "shoulder_pan_joint",
        "shoulder_lift_joint",
        "elbow_joint",
        "wrist_1_joint",
        "wrist_2_joint",
        "wrist_3_joint"
    ],
    "metrics": {
        "cart_traj_len": 0.3523995428794523,
        "distance_elbow_joint": 0.447959213632815,
        "distance_shoulder_lift_joint": 0.23457063865171635,
        "distance_shoulder_pan_joint": 0.45960569594615475,
        "distance_wrist_1_joint": 0.23624023477612788,
        "distance_wrist_2_joint": 1.1024312360424169,
        "distance_wrist_3_joint": 0.09101615043430389,
        "smoothness": 9.992007159366741e-16,
        "time": 0.028479895999999998,
        "traj_len": 1.6036904843153292,
        "weighted_distance": 2.022999491144446
    },
    "planner": "TRRT",
    "start": {
        "state": {
            "elbow_joint": 1.97154746011099,
            "shoulder_lift_joint": -1.13948474672311,
            "shoulder_pan_joint": 0.12281154466712228,
            "wrist_1_joint": -0.7804688027058302,
            "wrist_2_joint": 0.12958655903071145,
            "wrist_3_joint": 3.0906928834467795
        }
    },
    "waypoints": [
        {
            "positions": [
                0.12281154466712228,
                -1.13948474672311,
                1.97154746011099,
                -0.7804688027058302,
                0.12958655903071145,
                3.0906928834467795
            ]
        },
        {
            "positions": [
                0.05715358810338589,
                -1.1729948379590693,
                2.035541633487106,
                -0.8142174076738484,
                0.2870767356081996,
                3.10369519065168
            ]
        },
        {
            "positions": [
                -0.008504368460350506,
                -1.206504929195029,
                2.099535806863223,
                -0.8479660126418667,
                0.44456691218568767,
                3.1166974978565807
            ]
        },
        {
            "positions": [
                -0.07416232502408689,
                -1.2400150204309883,
                2.163529980239339,
                -0.881714617609885,
                0.6020570887631758,
                3.129699805061481
            ]
        },
        {
            "positions": [
                -0.13982028158782328,
                -1.273525111666948,
                2.2275241536154557,
                -0.9154632225779032,
                0.759547265340664,
                3.142702112266382
            ]
        },
        {
            "positions": [
                -0.2054782381515597,
                -1.3070352029029073,
                2.291518326991572,
                -0.9492118275459216,
                0.9170374419181522,
                3.155704419471282
            ]
        },
        {
            "positions": [
                -0.27113619471529604,
                -1.3405452941388667,
                2.3555125003676887,
                -0.9829604325139398,
                1.07452761849564,
                3.168706726676183
            ]
        },
        {
            "positions": [
                -0.33679415127903245,
                -1.3740553853748263,
                2.419506673743805,
                -1.016709037481958,
                1.2320177950731284,
                3.1817090338810834
            ]
        }
    ]
}{
    "goal": {
        "global_pose": {
            "orientation": {
                "w": 0.5084816217422485,
                "x": -0.49083608388900757,
                "y": 0.5182115435600281,
                "z": -0.4816462993621826
            },
            "position": {
                "x": 0.5540239810943604,
                "y": 0.030875300988554955,
                "z": 0.16403168439865112
            }
        },
        "name": "move_to_storage_A"
    },
    "id": "TRRT_move_to_storage_A_128",
    "joint_names": [
        "shoulder_pan_joint",
        "shoulder_lift_joint",
        "elbow_joint",
        "wrist_1_joint",
        "wrist_2_joint",
        "wrist_3_joint"
    ],
    "metrics": {
        "cart_traj_len": 0.3529465641692032,
        "distance_elbow_joint": 0.4507424438707517,
        "distance_shoulder_lift_joint": 0.23162246354418636,
        "distance_shoulder_pan_joint": 0.46074304416944717,
        "distance_wrist_1_joint": 0.2545989537747362,
        "distance_wrist_2_joint": 1.1002316665552623,
        "distance_wrist_3_joint": 0.10021382009305846,
        "smoothness": 8.881784232165597e-16,
        "time": 0.029605259999999998,
        "traj_len": 1.611878528924386,
        "weighted_distance": 2.0379918185614874
    },
    "planner": "TRRT",
    "start": {
        "state": {
            "elbow_joint": 1.9715472970024885,
            "shoulder_lift_joint": -1.1394870060712896,
            "shoulder_pan_joint": 0.12281152778156021,
            "wrist_1_joint": -0.780463741449964,
            "wrist_2_joint": 0.12958659822042276,
            "wrist_3_joint": 3.090690232415272
        }
    },
    "waypoints": [
        {
            "positions": [
                0.12281152778156021,
                -1.1394870060712896,
                1.9715472970024885,
                -0.780463741449964,
                0.12958659822042276,
                3.090690232415272
            ]
        },
        {
            "positions": [
                0.05699109290021062,
                -1.1725759294347449,
                2.03593907469831,
                -0.8168350205606406,
                0.2867625505854602,
                3.105006492428566
            ]
        },
        {
            "positions": [
                -0.008829341981138966,
                -1.2056648527982,
                2.1003308523941318,
                -0.8532062996713172,
                0.44393850295049764,
                3.11932275244186
            ]
        },
        {
            "positions": [
                -0.07464977686248855,
                -1.2387537761616552,
                2.1647226300899534,
                -0.8895775787819937,
                0.6011144553155351,
                3.133639012455154
            ]
        },
        {
            "positions": [
                -0.14047021174383814,
                -1.2718426995251104,
                2.229114407785775,
                -0.9259488578926703,
                0.7582904076805725,
                3.1479552724684483
            ]
        },
        {
            "positions": [
                -0.20629064662518773,
                -1.3049316228885657,
                2.293506185481597,
                -0.962320137003347,
                0.9154663600456101,
                3.1622715324817423
            ]
        },
        {
            "positions": [
                -0.2721110815065373,
                -1.3380205462520207,
                2.3578979631774186,
                -0.9986914161140236,
                1.0726423124106474,
                3.1765877924950363
            ]
        },
        {
            "positions": [
                -0.33793151638788693,
                -1.371109469615476,
                2.4222897408732402,
                -1.0350626952247002,
                1.229818264775685,
                3.1909040525083303
            ]
        }
    ]
}