{
    "goal": {
        "global_pose": {
            "orientation": {
                "w": 0.005598929693374612,
                "x": 0.007748599140229565,
                "y": 0.7110244013736278,
                "z": -0.7031023480610252
            },
            "position": {
                "x": 0.1141497679147869,
                "y": -0.7141253447532654,
                "z": 0.3711530566215515
            }
        },
        "name": "move_to_auspresseinheit_B"
    },
    "id": "TRRT_move_to_auspresseinheit_B_93",
    "joint_names": [
        "shoulder_pan_joint",
        "shoulder_lift_joint",
        "elbow_joint",
        "wrist_1_joint",
        "wrist_2_joint",
        "wrist_3_joint"
    ],
    "metrics": {
        "cart_traj_len": 0.5651957169840349,
        "distance_elbow_joint": 0.06107014355446183,
        "distance_shoulder_lift_joint": 0.2956625504400685,
        "distance_shoulder_pan_joint": 0.5785021738496041,
        "distance_wrist_1_joint": 0.32282107153969575,
        "distance_wrist_2_joint": 0.9907087381142141,
        "distance_wrist_3_joint": 0.004971399846397162,
        "smoothness": 2.5376526478085547e-16,
        "time": 0.01907691,
        "traj_len": 1.501244842570472,
        "weighted_distance": 1.8913510215428404
    },
    "planner": "TRRT",
    "start": {
        "state": {
            "elbow_joint": 2.0193083361928714,
            "shoulder_lift_joint": -1.1220246554650708,
            "shoulder_pan_joint": -1.0952077554168747,
            "wrist_1_joint": -0.8559753972642168,
            "wrist_2_joint": 0.4759566250798843,
            "wrist_3_joint": -3.1240929996934557
        }
    },
    "waypoints": [
        {
            "positions": [
                -1.0952077554168747,
                -1.1220246554650708,
                2.0193083361928714,
                -0.8559753972642168,
                0.4759566250798843,
                -3.1240929996934557
            ]
        },
        {
            "positions": [
                -1.1916247843918086,
                -1.1713017472050822,
                2.0091299789337946,
                -0.8021718853409342,
                0.64107474809892,
                -3.124921566334522
            ]
        },
        {
            "positions": [
                -1.2880418133667426,
                -1.2205788389450936,
                1.9989516216747174,
                -0.7483683734176515,
                0.8061928711179556,
                -3.125750132975588
            ]
        },
        {
            "positions": [
                -1.3844588423416768,
                -1.2698559306851052,
                1.9887732644156406,
                -0.6945648614943689,
                0.9713109941369913,
                -3.1265786996166542
            ]
        },
        {
            "positions": [
                -1.4808758713166106,
                -1.3191330224251165,
                1.9785949071565636,
                -0.6407613495710863,
                1.136429117156027,
                -3.1274072662577206
            ]
        },
        {
            "positions": [
                -1.5772929002915448,
                -1.368410114165128,
                1.9684165498974866,
                -0.5869578376478036,
                1.3015472401750627,
                -3.1282358328987865
            ]
        },
        {
            "positions": [
                -1.6737099292664788,
                -1.4176872059051393,
                1.9582381926384096,
                -0.533154325724521,
                1.4666653631940985,
                -3.129064399539853
            ]
        }
    ]
}