{
    "goal": {
        "global_pose": {
            "orientation": {
                "w": -0.4816463035849501,
                "x": 0.5182115481033762,
                "y": 0.4908360881923453,
                "z": -0.5084816262002911
            },
            "position": {
                "x": -0.8240239810943604,
                "y": 0.19912469901144506,
                "z": 0.16403168439865112
            }
        },
        "name": "move_to_storage_D"
    },
    "id": "TRRT_move_to_storage_D_25",
    "joint_names": [
        "shoulder_pan_joint",
        "shoulder_lift_joint",
        "elbow_joint",
        "wrist_1_joint",
        "wrist_2_joint",
        "wrist_3_joint"
    ],
    "metrics": {
        "cart_traj_len": 3.861449149719387,
        "distance_elbow_joint": 4.2381643652374885,
        "distance_shoulder_lift_joint": 1.2747070076417648,
        "distance_shoulder_pan_joint": 2.812671615036666,
        "distance_wrist_1_joint": 3.2657304941498557,
        "distance_wrist_2_joint": 0.8694254652647259,
        "distance_wrist_3_joint": 3.1326539100173356,
        "smoothness": 0.12623756371760098,
        "time": 0.18785412899999998,
        "traj_len": 3.9488419640886914,
        "weighted_distance": 5.098413148892219
    },
    "planner": "TRRT",
    "start": {
        "state": {
            "elbow_joint": -2.384821988534728,
            "shoulder_lift_joint": -2.2788054721415256,
            "shoulder_pan_joint": -0.1854694642142757,
            "wrist_1_joint": 1.4845938289331202,
            "wrist_2_joint": 0.17898776772866878,
            "wrist_3_joint": 0.037105688729662994
        }
    },
    "waypoints": [
        {
            "positions": [
                -0.1854694642142757,
                -2.2788054721415256,
                -2.384821988534728,
                1.4845938289331202,
                0.17898776772866878,
                0.037105688729662994
            ]
        },
        {
            "positions": [
                -0.16257207236558732,
                -2.2034233097694385,
                -2.397226620358594,
                1.4567902711863034,
                0.1798389654298298,
                0.03147080476332588
            ]
        },
        {
            "positions": [
                -0.09721862232281574,
                -2.1884816452376046,
                -2.269003121720977,
                1.3713488392595485,
                0.2026442198855385,
                -0.04616105246577358
            ]
        },
        {
            "positions": [
                -0.03186517228004415,
                -2.1735399807057707,
                -2.14077962308336,
                1.2859074073327939,
                0.22544947434124718,
                -0.12379290969487304
            ]
        },
        {
            "positions": [
                0.03348827776272742,
                -2.158598316173937,
                -2.0125561244457426,
                1.200465975406039,
                0.2482547287969559,
                -0.2014247669239725
            ]
        },
        {
            "positions": [
                0.09884172780549902,
                -2.143656651642103,
                -1.8843326258081252,
                1.1150245434792843,
                0.27105998325266456,
                -0.279056624153072
            ]
        },
        {
            "positions": [
                0.16419517784827062,
                -2.1287149871102686,
                -1.756109127170508,
                1.0295831115525294,
                0.29386523770837325,
                -0.35668848138217146
            ]
        },
        {
            "positions": [
                0.22954862789104216,
                -2.1137733225784348,
                -1.6278856285328906,
                0.9441416796257744,
                0.316670492164082,
                -0.4343203386112709
            ]
        },
        {
            "positions": [
                0.29490207793381373,
                -2.098831658046601,
                -1.4996621298952735,
                0.8587002476990196,
                0.3394757466197907,
                -0.5119521958403703
            ]
        },
        {
            "positions": [
                0.36025552797658533,
                -2.083889993514767,
                -1.3714386312576563,
                0.7732588157722649,
                0.3622810010754994,
                -0.5895840530694698
            ]
        },
        {
            "positions": [
                0.42560897801935693,
                -2.068948328982933,
                -1.2432151326200391,
                0.68781738384551,
                0.38508625553120807,
                -0.6672159102985693
            ]
        },
        {
            "positions": [
                0.49096242806212853,
                -2.0540066644510993,
                -1.114991633982422,
                0.6023759519187553,
                0.40789150998691676,
                -0.7448477675276688
            ]
        },
        {
            "positions": [
                0.5563158781049001,
                -2.0390649999192654,
                -0.9867681353448046,
                0.5169345199920004,
                0.43069676444262545,
                -0.8224796247567682
            ]
        },
        {
            "positions": [
                0.6216693281476716,
                -2.024123335387431,
                -0.8585446367071874,
                0.43149308806524544,
                0.4535020188983342,
                -0.9001114819858677
            ]
        },
        {
            "positions": [
                0.6870227781904432,
                -2.009181670855597,
                -0.7303211380695702,
                0.34605165613849076,
                0.4763072733540429,
                -0.977743339214967
            ]
        },
        {
            "positions": [
                0.7523762282332148,
                -1.9942400063237633,
                -0.6020976394319528,
                0.26061022421173585,
                0.49911252780975157,
                -1.0553751964440665
            ]
        },
        {
            "positions": [
                0.8177296782759864,
                -1.9792983417919294,
                -0.47387414079433565,
                0.17516879228498117,
                0.5219177822654603,
                -1.133007053673166
            ]
        },
        {
            "positions": [
                0.883083128318758,
                -1.9643566772600956,
                -0.3456506421567185,
                0.08972736035822626,
                0.544723036721169,
                -1.2106389109022655
            ]
        },
        {
            "positions": [
                0.9484365783615295,
                -1.9494150127282617,
                -0.2174271435191013,
                0.004285928431471353,
                0.5675282911768776,
                -1.288270768131365
            ]
        },
        {
            "positions": [
                1.0137900284043013,
                -1.9344733481964278,
                -0.08920364488148413,
                -0.08115550349528333,
                0.5903335456325863,
                -1.3659026253604645
            ]
        },
        {
            "positions": [
                1.0791434784470728,
                -1.9195316836645937,
                0.03901985375613304,
                -0.16659693542203824,
                0.613138800088295,
                -1.443534482589564
            ]
        },
        {
            "positions": [
                1.1444969284898445,
                -1.9045900191327598,
                0.1672433523937502,
                -0.2520383673487929,
                0.6359440545440037,
                -1.5211663398186634
            ]
        },
        {
            "positions": [
                1.209850378532616,
                -1.889648354600926,
                0.2954668510313678,
                -0.33747979927554783,
                0.6587493089997125,
                -1.5987981970477627
            ]
        },
        {
            "positions": [
                1.2752038285753877,
                -1.8747066900690919,
                0.423690349668985,
                -0.42292123120230274,
                0.6815545634554211,
                -1.6764300542768622
            ]
        },
        {
            "positions": [
                1.3405572786181592,
                -1.859765025537258,
                0.5519138483066022,
                -0.5083626631290574,
                0.7043598179111298,
                -1.7540619115059617
            ]
        },
        {
            "positions": [
                1.4059107286609307,
                -1.844823361005424,
                0.6801373469442193,
                -0.5938040950558126,
                0.7271650723668386,
                -1.8316937687350612
            ]
        },
        {
            "positions": [
                1.4712641787037024,
                -1.8298816964735902,
                0.8083608455818365,
                -0.6792455269825672,
                0.7499703268225473,
                -1.9093256259641607
            ]
        },
        {
            "positions": [
                1.536617628746474,
                -1.8149400319417563,
                0.9365843442194537,
                -0.7646869589093219,
                0.772775581278256,
                -1.98695748319326
            ]
        },
        {
            "positions": [
                1.6019710787892456,
                -1.7999983674099223,
                1.0648078428570709,
                -0.8501283908360766,
                0.7955808357339647,
                -2.0645893404223594
            ]
        },
        {
            "positions": [
                1.667324528832017,
                -1.7850567028780884,
                1.1930313414946885,
                -0.9355698227628317,
                0.8183860901896733,
                -2.142221197651459
            ]
        },
        {
            "positions": [
                1.7326779788747888,
                -1.7701150383462545,
                1.3212548401323057,
                -1.0210112546895864,
                0.841191344645382,
                -2.2198530548805584
            ]
        },
        {
            "positions": [
                1.7980314289175603,
                -1.7551733738144204,
                1.4494783387699228,
                -1.106452686616341,
                0.8639965991010907,
                -2.297484912109658
            ]
        },
        {
            "positions": [
                1.863384878960332,
                -1.7402317092825865,
                1.57770183740754,
                -1.1918941185430962,
                0.8868018535567994,
                -2.3751167693387574
            ]
        },
        {
            "positions": [
                1.9287383290031035,
                -1.7252900447507526,
                1.7059253360451567,
                -1.2773355504698507,
                0.9096071080125081,
                -2.452748626567857
            ]
        },
        {
            "positions": [
                1.951545541531686,
                -1.7298915048600594,
                1.7527600552157045,
                -1.290643470625927,
                0.946933434580365,
                -2.4780918952767284
            ]
        },
        {
            "positions": [
                2.048067914287501,
                -1.6275214876969615,
                1.763584777764179,
                -1.2205730142558116,
                0.9614305486393693,
                -2.5662999418497203
            ]
        },
        {
            "positions": [
                2.144590287043316,
                -1.5251514705338636,
                1.7744095003126537,
                -1.150502557885696,
                0.9759276626983735,
                -2.6545079884227123
            ]
        },
        {
            "positions": [
                2.2411126597991307,
                -1.422781453370766,
                1.7852342228611282,
                -1.0804321015155804,
                0.9904247767573777,
                -2.7427160349957043
            ]
        },
        {
            "positions": [
                2.3376350325549455,
                -1.320411436207668,
                1.796058945409603,
                -1.0103616451454647,
                1.004921890816382,
                -2.8309240815686962
            ]
        },
        {
            "positions": [
                2.4341574053107604,
                -1.21804141904457,
                1.8068836679580775,
                -0.9402911887753491,
                1.0194190048753862,
                -2.9191321281416887
            ]
        },
        {
            "positions": [
                2.5306797780665753,
                -1.1156714018814722,
                1.817708390506552,
                -0.8702207324052336,
                1.0339161189343904,
                -3.0073401747146806
            ]
        },
        {
            "positions": [
                2.62720215082239,
                -1.0133013847183743,
                1.8285331130550266,
                -0.800150276035118,
                1.0484132329933946,
                -3.0955482212876726
            ]
        }
    ]
}