{
    "goal": {
        "global_pose": {
            "orientation": {
                "w": 0.5084816217422485,
                "x": -0.49083608388900757,
                "y": 0.5182115435600281,
                "z": -0.4816462993621826
            },
            "position": {
                "x": 0.5540239810943604,
                "y": 0.030875300988554955,
                "z": 0.16403168439865112
            }
        },
        "name": "move_to_storage_A"
    },
    "id": "TRRT_move_to_storage_A_68",
    "joint_names": [
        "shoulder_pan_joint",
        "shoulder_lift_joint",
        "elbow_joint",
        "wrist_1_joint",
        "wrist_2_joint",
        "wrist_3_joint"
    ],
    "metrics": {
        "cart_traj_len": 0.3533115058562141,
        "distance_elbow_joint": 0.45109109925690993,
        "distance_shoulder_lift_joint": 0.23332677487075903,
        "distance_shoulder_pan_joint": 0.46096824503185113,
        "distance_wrist_1_joint": 0.2455059238670293,
        "distance_wrist_2_joint": 1.1036805939496197,
        "distance_wrist_3_joint": 0.10707679808645176,
        "smoothness": 6.661338165333112e-16,
        "time": 0.028233712,
        "traj_len": 1.6129629366673683,
        "weighted_distance": 2.040830602733155
    },
    "planner": "TRRT",
    "start": {
        "state": {
            "elbow_joint": 1.971548259319323,
            "shoulder_lift_joint": -1.1394851275133948,
            "shoulder_pan_joint": 0.1228115487234821,
            "wrist_1_joint": -0.7804723859257726,
            "wrist_2_joint": 0.12958671773740124,
            "wrist_3_joint": -3.192489227718131
        }
    },
    "waypoints": [
        {
            "positions": [
                0.1228115487234821,
                -1.1394851275133948,
                1.971548259319323,
                -0.7804723859257726,
                0.12958671773740124,
                -3.192489227718131
            ]
        },
        {
            "positions": [
                0.05695894229036051,
                -1.1728175239235032,
                2.035989844927453,
                -0.8155446607639196,
                0.28725537401591833,
                -3.1771925422772096
            ]
        },
        {
            "positions": [
                -0.008893664142761076,
                -1.2061499203336117,
                2.100431430535583,
                -0.8506169356020667,
                0.4449240302944354,
                -3.1618958568362876
            ]
        },
        {
            "positions": [
                -0.07474627057588265,
                -1.2394823167437201,
                2.164873016143713,
                -0.8856892104402138,
                0.6025926865729525,
                -3.146599171395366
            ]
        },
        {
            "positions": [
                -0.14059887700900425,
                -1.2728147131538285,
                2.229314601751843,
                -0.9207614852783608,
                0.7602613428514696,
                -3.1313024859544445
            ]
        },
        {
            "positions": [
                -0.20645148344212588,
                -1.306147109563937,
                2.293756187359973,
                -0.9558337601165079,
                0.9179299991299867,
                -3.116005800513523
            ]
        },
        {
            "positions": [
                -0.2723040898752474,
                -1.3394795059740454,
                2.358197772968103,
                -0.9909060349546548,
                1.0755986554085037,
                -3.100709115072601
            ]
        },
        {
            "positions": [
                -0.33815669630836903,
                -1.3728119023841538,
                2.422639358576233,
                -1.025978309792802,
                1.233267311687021,
                -3.0854124296316794
            ]
        }
    ]
}{
    "goal": {
        "global_pose": {
            "orientation": {
                "w": 0.5084816217422485,
                "x": -0.49083608388900757,
                "y": 0.5182115435600281,
                "z": -0.4816462993621826
            },
            "position": {
                "x": 0.5540239810943604,
                "y": 0.030875300988554955,
                "z": 0.16403168439865112
            }
        },
        "name": "move_to_storage_A"
    },
    "id": "TRRT_move_to_storage_A_68",
    "joint_names": [
        "shoulder_pan_joint",
        "shoulder_lift_joint",
        "elbow_joint",
        "wrist_1_joint",
        "wrist_2_joint",
        "wrist_3_joint"
    ],
    "metrics": {
        "cart_traj_len": 0.3530687882769158,
        "distance_elbow_joint": 0.45283268435010493,
        "distance_shoulder_lift_joint": 0.23401560884585115,
        "distance_shoulder_pan_joint": 0.46210785576912,
        "distance_wrist_1_joint": 0.25376398703531855,
        "distance_wrist_2_joint": 1.0972585296864055,
        "distance_wrist_3_joint": 0.09281969358098507,
        "smoothness": 1.3322676295501878e-15,
        "time": 0.028570469,
        "traj_len": 1.6102168671541686,
        "weighted_distance": 2.0321073453810157
    },
    "planner": "TRRT",
    "start": {
        "state": {
            "elbow_joint": 1.97154746011099,
            "shoulder_lift_joint": -1.13948474672311,
            "shoulder_pan_joint": 0.12281154466712228,
            "wrist_1_joint": -0.7804688027058302,
            "wrist_2_joint": 0.12958655903071145,
            "wrist_3_joint": 3.0906928834467795
        }
    },
    "waypoints": [
        {
            "positions": [
                0.12281154466712228,
                -1.13948474672311,
                1.97154746011099,
                -0.7804688027058302,
                0.12958655903071145,
                3.0906928834467795
            ]
        },
        {
            "positions": [
                0.05679613670010514,
                -1.172915547986803,
                2.0362378435895763,
                -0.8167208008537329,
                0.2863377775573408,
                3.1039528396726346
            ]
        },
        {
            "positions": [
                -0.009219271266912007,
                -1.206346349250496,
                2.1009282270681626,
                -0.8529727990016355,
                0.4430889960839701,
                3.1172127958984897
            ]
        },
        {
            "positions": [
                -0.07523467923392914,
                -1.239777150514189,
                2.165618610546749,
                -0.8892247971495382,
                0.5998402146105994,
                3.1304727521243447
            ]
        },
        {
            "positions": [
                -0.14125008720094628,
                -1.273207951777882,
                2.2303089940253358,
                -0.9254767952974408,
                0.7565914331372289,
                3.1437327083501994
            ]
        },
        {
            "positions": [
                -0.20726549516796344,
                -1.306638753041575,
                2.294999377503922,
                -0.9617287934453435,
                0.9133426516638583,
                3.1569926645760544
            ]
        },
        {
            "positions": [
                -0.27328090313498055,
                -1.340069554305268,
                2.3596897609825085,
                -0.997980791593246,
                1.0700938701904874,
                3.1702526208019095
            ]
        },
        {
            "positions": [
                -0.3392963111019977,
                -1.373500355568961,
                2.424380144461095,
                -1.0342327897411487,
                1.226845088717117,
                3.1835125770277646
            ]
        }
    ]
}{
    "goal": {
        "global_pose": {
            "orientation": {
                "w": 0.5084816217422485,
                "x": -0.49083608388900757,
                "y": 0.5182115435600281,
                "z": -0.4816462993621826
            },
            "position": {
                "x": 0.5540239810943604,
                "y": 0.030875300988554955,
                "z": 0.16403168439865112
            }
        },
        "name": "move_to_storage_A"
    },
    "id": "TRRT_move_to_storage_A_68",
    "joint_names": [
        "shoulder_pan_joint",
        "shoulder_lift_joint",
        "elbow_joint",
        "wrist_1_joint",
        "wrist_2_joint",
        "wrist_3_joint"
    ],
    "metrics": {
        "cart_traj_len": 0.3530929809980392,
        "distance_elbow_joint": 0.44956624832482595,
        "distance_shoulder_lift_joint": 0.23596637711289703,
        "distance_shoulder_pan_joint": 0.46381762695053863,
        "distance_wrist_1_joint": 0.2415606936808723,
        "distance_wrist_2_joint": 1.0902096688759484,
        "distance_wrist_3_joint": 0.09260356625493049,
        "smoothness": 0.0,
        "time": 0.024193591,
        "traj_len": 1.6042830738993703,
        "weighted_distance": 2.0225483124678862
    },
    "planner": "TRRT",
    "start": {
        "state": {
            "elbow_joint": 1.9715472970024885,
            "shoulder_lift_joint": -1.1394870060712896,
            "shoulder_pan_joint": 0.12281152778156021,
            "wrist_1_joint": -0.780463741449964,
            "wrist_2_joint": 0.12958659822042276,
            "wrist_3_joint": 3.090690232415272
        }
    },
    "waypoints": [
        {
            "positions": [
                0.12281152778156021,
                -1.1394870060712896,
                1.9715472970024885,
                -0.780463741449964,
                0.12958659822042276,
                3.090690232415272
            ]
        },
        {
            "positions": [
                0.05655186678862613,
                -1.1731964885159891,
                2.0357710467631778,
                -0.814972411975803,
                0.2853308366312725,
                3.1039193133088334
            ]
        },
        {
            "positions": [
                -0.009707794204307951,
                -1.2069059709606889,
                2.0999947965238674,
                -0.8494810825016418,
                0.4410750750421223,
                3.117148394202395
            ]
        },
        {
            "positions": [
                -0.07596745519724205,
                -1.2406154534053884,
                2.1642185462845567,
                -0.8839897530274807,
                0.596819313452972,
                3.1303774750959565
            ]
        },
        {
            "positions": [
                -0.1422271161901761,
                -1.2743249358500879,
                2.2284422960452464,
                -0.9184984235533196,
                0.7525635518638217,
                3.1436065559895177
            ]
        },
        {
            "positions": [
                -0.20848677718311023,
                -1.3080344182947874,
                2.2926660458059356,
                -0.9530070940791585,
                0.9083077902746716,
                3.156835636883079
            ]
        },
        {
            "positions": [
                -0.27474643817604427,
                -1.3417439007394871,
                2.356889795566625,
                -0.9875157646049973,
                1.0640520286855213,
                3.170064717776641
            ]
        },
        {
            "positions": [
                -0.3410060991689784,
                -1.3754533831841866,
                2.4211135453273145,
                -1.0220244351308363,
                1.2197962670963711,
                3.1832937986702023
            ]
        }
    ]
}