{
    "goal": {
        "global_pose": {
            "orientation": {
                "w": 0.5084816217422485,
                "x": -0.49083608388900757,
                "y": 0.5182115435600281,
                "z": -0.4816462993621826
            },
            "position": {
                "x": 0.5540239810943604,
                "y": 0.030875300988554955,
                "z": 0.16403168439865112
            }
        },
        "name": "move_to_storage_A"
    },
    "id": "TRRT_move_to_storage_A_90",
    "joint_names": [
        "shoulder_pan_joint",
        "shoulder_lift_joint",
        "elbow_joint",
        "wrist_1_joint",
        "wrist_2_joint",
        "wrist_3_joint"
    ],
    "metrics": {
        "cart_traj_len": 0.352620348480702,
        "distance_elbow_joint": 0.45018524751740707,
        "distance_shoulder_lift_joint": 0.2346401292608178,
        "distance_shoulder_pan_joint": 0.4591986156415035,
        "distance_wrist_1_joint": 0.24604925565052282,
        "distance_wrist_2_joint": 1.1060541573287972,
        "distance_wrist_3_joint": 0.09571732071616745,
        "smoothness": 4.440892133664971e-16,
        "time": 0.019821798,
        "traj_len": 1.6099207204440895,
        "weighted_distance": 2.033564058623891
    },
    "planner": "TRRT",
    "start": {
        "state": {
            "elbow_joint": 1.971548259319323,
            "shoulder_lift_joint": -1.1394851275133948,
            "shoulder_pan_joint": 0.1228115487234821,
            "wrist_1_joint": -0.7804723859257726,
            "wrist_2_joint": 0.12958671773740124,
            "wrist_3_joint": -3.192489227718131
        }
    },
    "waypoints": [
        {
            "positions": [
                0.1228115487234821,
                -1.1394851275133948,
                1.971548259319323,
                -0.7804723859257726,
                0.12958671773740124,
                -3.192489227718131
            ]
        },
        {
            "positions": [
                0.0572117464889816,
                -1.173005145979226,
                2.0358604375360954,
                -0.815622279590133,
                0.28759445449865795,
                -3.178815324758679
            ]
        },
        {
            "positions": [
                -0.008388055745518902,
                -1.206525164445057,
                2.100172615752868,
                -0.8507721732544934,
                0.44560219125991474,
                -3.165141421799226
            ]
        },
        {
            "positions": [
                -0.07398785798001939,
                -1.240045182910888,
                2.16448479396964,
                -0.8859220669188538,
                0.6036099280211714,
                -3.1514675188397736
            ]
        },
        {
            "positions": [
                -0.1395876602145199,
                -1.2735652013767194,
                2.2287969721864127,
                -0.9210719605832143,
                0.7616176647824282,
                -3.1377936158803212
            ]
        },
        {
            "positions": [
                -0.20518746244902042,
                -1.3070852198425504,
                2.2931091504031853,
                -0.9562218542475747,
                0.919625401543685,
                -3.124119712920869
            ]
        },
        {
            "positions": [
                -0.2707872646835209,
                -1.3406052383083815,
                2.3574213286199575,
                -0.991371747911935,
                1.0776331383049416,
                -3.110445809961416
            ]
        },
        {
            "positions": [
                -0.3363870669180214,
                -1.3741252567742126,
                2.42173350683673,
                -1.0265216415762954,
                1.2356408750661985,
                -3.0967719070019637
            ]
        }
    ]
}{
    "goal": {
        "global_pose": {
            "orientation": {
                "w": 0.5084816217422485,
                "x": -0.49083608388900757,
                "y": 0.5182115435600281,
                "z": -0.4816462993621826
            },
            "position": {
                "x": 0.5540239810943604,
                "y": 0.030875300988554955,
                "z": 0.16403168439865112
            }
        },
        "name": "move_to_storage_A"
    },
    "id": "TRRT_move_to_storage_A_90",
    "joint_names": [
        "shoulder_pan_joint",
        "shoulder_lift_joint",
        "elbow_joint",
        "wrist_1_joint",
        "wrist_2_joint",
        "wrist_3_joint"
    ],
    "metrics": {
        "cart_traj_len": 0.3534977325687231,
        "distance_elbow_joint": 0.4486852723783983,
        "distance_shoulder_lift_joint": 0.2342527351658401,
        "distance_shoulder_pan_joint": 0.45892618291124526,
        "distance_wrist_1_joint": 0.23575217769238743,
        "distance_wrist_2_joint": 1.1139216787550683,
        "distance_wrist_3_joint": 0.08594714247230417,
        "smoothness": 4.440892098500626e-16,
        "time": 0.024696154,
        "traj_len": 1.6054548232121775,
        "weighted_distance": 2.024611896331568
    },
    "planner": "TRRT",
    "start": {
        "state": {
            "elbow_joint": 1.97154746011099,
            "shoulder_lift_joint": -1.13948474672311,
            "shoulder_pan_joint": 0.12281154466712228,
            "wrist_1_joint": -0.7804688027058302,
            "wrist_2_joint": 0.12958655903071145,
            "wrist_3_joint": 3.0906928834467795
        }
    },
    "waypoints": [
        {
            "positions": [
                0.12281154466712228,
                -1.13948474672311,
                1.97154746011099,
                -0.7804688027058302,
                0.12958655903071145,
                3.0906928834467795
            ]
        },
        {
            "positions": [
                0.05725066139408724,
                -1.1729494231753728,
                2.035645356165047,
                -0.8141476852333142,
                0.28871822742429265,
                3.1029710466571085
            ]
        },
        {
            "positions": [
                -0.008310221878947796,
                -1.2064140996276358,
                2.0997432522191035,
                -0.847826567760798,
                0.4478498958178738,
                3.115249209867438
            ]
        },
        {
            "positions": [
                -0.07387110515198282,
                -1.2398787760798986,
                2.1638411482731605,
                -0.881505450288282,
                0.606981564211455,
                3.127527373077767
            ]
        },
        {
            "positions": [
                -0.13943198842501786,
                -1.2733434525321614,
                2.2279390443272176,
                -0.9151843328157658,
                0.7661132326050362,
                3.139805536288096
            ]
        },
        {
            "positions": [
                -0.20499287169805291,
                -1.3068081289844242,
                2.2920369403812746,
                -0.9488632153432498,
                0.9252449009986174,
                3.152083699498425
            ]
        },
        {
            "positions": [
                -0.2705537549710879,
                -1.3402728054366873,
                2.356134836435331,
                -0.9825420978707337,
                1.0843765693921985,
                3.1643618627087546
            ]
        },
        {
            "positions": [
                -0.33611463824412297,
                -1.37373748188895,
                2.420232732489388,
                -1.0162209803982176,
                1.2435082377857798,
                3.1766400259190837
            ]
        }
    ]
}{
    "goal": {
        "global_pose": {
            "orientation": {
                "w": 0.5084816217422485,
                "x": -0.49083608388900757,
                "y": 0.5182115435600281,
                "z": -0.4816462993621826
            },
            "position": {
                "x": 0.5540239810943604,
                "y": 0.030875300988554955,
                "z": 0.16403168439865112
            }
        },
        "name": "move_to_storage_A"
    },
    "id": "TRRT_move_to_storage_A_90",
    "joint_names": [
        "shoulder_pan_joint",
        "shoulder_lift_joint",
        "elbow_joint",
        "wrist_1_joint",
        "wrist_2_joint",
        "wrist_3_joint"
    ],
    "metrics": {
        "cart_traj_len": 0.3530069624877285,
        "distance_elbow_joint": 0.4506126366522949,
        "distance_shoulder_lift_joint": 0.23408808417762783,
        "distance_shoulder_pan_joint": 0.46178250266983417,
        "distance_wrist_1_joint": 0.24894601798928373,
        "distance_wrist_2_joint": 1.0975424741466429,
        "distance_wrist_3_joint": 0.08874773517116319,
        "smoothness": 4.440892133664971e-16,
        "time": 0.030883198,
        "traj_len": 1.6067729929292585,
        "weighted_distance": 2.026253541214697
    },
    "planner": "TRRT",
    "start": {
        "state": {
            "elbow_joint": 1.9715472970024885,
            "shoulder_lift_joint": -1.1394870060712896,
            "shoulder_pan_joint": 0.12281152778156021,
            "wrist_1_joint": -0.780463741449964,
            "wrist_2_joint": 0.12958659822042276,
            "wrist_3_joint": 3.090690232415272
        }
    },
    "waypoints": [
        {
            "positions": [
                0.12281152778156021,
                -1.1394870060712896,
                1.9715472970024885,
                -0.780463741449964,
                0.12958659822042276,
                3.090690232415272
            ]
        },
        {
            "positions": [
                0.05684259882872676,
                -1.1729281609538078,
                2.035920530809959,
                -0.816027458305576,
                0.28637838024137174,
                3.1033684802968664
            ]
        },
        {
            "positions": [
                -0.009126330124106685,
                -1.2063693158363262,
                2.10029376461743,
                -0.8515911751611879,
                0.44317016226232075,
                3.1160467281784614
            ]
        },
        {
            "positions": [
                -0.07509525907694012,
                -1.2398104707188444,
                2.1646669984249005,
                -0.8871548920167999,
                0.5999619442832697,
                3.128724976060056
            ]
        },
        {
            "positions": [
                -0.14106418802977358,
                -1.2732516256013626,
                2.2290402322323715,
                -0.9227186088724119,
                0.7567537263042187,
                3.141403223941651
            ]
        },
        {
            "positions": [
                -0.20703311698260704,
                -1.306692780483881,
                2.293413466039842,
                -0.9582823257280237,
                0.9135455083251677,
                3.1540814718232455
            ]
        },
        {
            "positions": [
                -0.2730020459354404,
                -1.3401339353663992,
                2.3577866998473125,
                -0.9938460425836357,
                1.0703372903461166,
                3.1667597197048405
            ]
        },
        {
            "positions": [
                -0.33897097488827393,
                -1.3735750902489174,
                2.4221599336547834,
                -1.0294097594392477,
                1.2271290723670656,
                3.179437967586435
            ]
        }
    ]
}