{
    "goal": {
        "global_pose": {
            "orientation": {
                "w": -0.4816463035849501,
                "x": 0.5182115481033762,
                "y": 0.4908360881923453,
                "z": -0.5084816262002911
            },
            "position": {
                "x": -0.8240239810943604,
                "y": 0.19912469901144506,
                "z": 0.16403168439865112
            }
        },
        "name": "move_to_storage_D"
    },
    "id": "TRRT_move_to_storage_D_80",
    "joint_names": [
        "shoulder_pan_joint",
        "shoulder_lift_joint",
        "elbow_joint",
        "wrist_1_joint",
        "wrist_2_joint",
        "wrist_3_joint"
    ],
    "metrics": {
        "cart_traj_len": 3.7835986963194244,
        "distance_elbow_joint": 4.207475533084886,
        "distance_shoulder_lift_joint": 1.26638094356102,
        "distance_shoulder_pan_joint": 2.811928482150249,
        "distance_wrist_1_joint": 2.2651066917234592,
        "distance_wrist_2_joint": 0.8678823824217868,
        "distance_wrist_3_joint": 3.138264582488361,
        "smoothness": 6.778203764960916e-16,
        "time": 0.16184239,
        "traj_len": 3.8153687391168054,
        "weighted_distance": 4.895565018928023
    },
    "planner": "TRRT",
    "start": {
        "state": {
            "elbow_joint": -2.384821988534728,
            "shoulder_lift_joint": -2.2788054721415256,
            "shoulder_pan_joint": -0.1854694642142757,
            "wrist_1_joint": 1.4845938289331202,
            "wrist_2_joint": 0.17898776772866878,
            "wrist_3_joint": 0.037105688729662994
        }
    },
    "waypoints": [
        {
            "positions": [
                -0.1854694642142757,
                -2.2788054721415256,
                -2.384821988534728,
                1.4845938289331202,
                0.17898776772866878,
                0.037105688729662994
            ]
        },
        {
            "positions": [
                -0.10352997191531464,
                -2.249258736939457,
                -2.2559247736995074,
                1.4175864712701043,
                0.20253474808579705,
                -0.025930916260416062
            ]
        },
        {
            "positions": [
                -0.021590479616353575,
                -2.2197120017373884,
                -2.127027558864287,
                1.3505791136070882,
                0.22608172844292534,
                -0.08896752125049512
            ]
        },
        {
            "positions": [
                0.06034901268260748,
                -2.19016526653532,
                -1.998130344029066,
                1.283571755944072,
                0.2496287088000536,
                -0.1520041262405742
            ]
        },
        {
            "positions": [
                0.14228850498156856,
                -2.160618531333251,
                -1.8692331291938453,
                1.2165643982810561,
                0.2731756891571819,
                -0.21504073123065323
            ]
        },
        {
            "positions": [
                0.22422799728052958,
                -2.1310717961311827,
                -1.7403359143586248,
                1.1495570406180402,
                0.29672266951431014,
                -0.2780773362207323
            ]
        },
        {
            "positions": [
                0.3061674895794907,
                -2.1015250609291143,
                -1.6114386995234042,
                1.082549682955024,
                0.32026964987143847,
                -0.3411139412108114
            ]
        },
        {
            "positions": [
                0.3881069818784517,
                -2.0719783257270454,
                -1.4825414846881835,
                1.015542325292008,
                0.3438166302285667,
                -0.4041505462008904
            ]
        },
        {
            "positions": [
                0.47004647417741285,
                -2.042431590524977,
                -1.353644269852963,
                0.948534967628992,
                0.367363610585695,
                -0.46718715119096943
            ]
        },
        {
            "positions": [
                0.5519859664763739,
                -2.012884855322908,
                -1.2247470550177424,
                0.881527609965976,
                0.3909105909428232,
                -0.5302237561810484
            ]
        },
        {
            "positions": [
                0.6339254587753349,
                -1.9833381201208398,
                -1.0958498401825216,
                0.81452025230296,
                0.41445757129995153,
                -0.5932603611711276
            ]
        },
        {
            "positions": [
                0.7158649510742959,
                -1.9537913849187711,
                -0.9669526253473011,
                0.747512894639944,
                0.43800455165707974,
                -0.6562969661612066
            ]
        },
        {
            "positions": [
                0.7978044433732571,
                -1.9242446497167025,
                -0.8380554105120803,
                0.6805055369769278,
                0.46155153201420807,
                -0.7193335711512857
            ]
        },
        {
            "positions": [
                0.8797439356722182,
                -1.894697914514634,
                -0.7091581956768598,
                0.6134981793139118,
                0.4850985123713364,
                -0.7823701761413647
            ]
        },
        {
            "positions": [
                0.9616834279711791,
                -1.8651511793125655,
                -0.580260980841639,
                0.5464908216508958,
                0.5086454927284646,
                -0.8454067811314439
            ]
        },
        {
            "positions": [
                1.0436229202701401,
                -1.8356044441104968,
                -0.4513637660064185,
                0.4794834639878798,
                0.5321924730855929,
                -0.9084433861215229
            ]
        },
        {
            "positions": [
                1.1255624125691013,
                -1.8060577089084282,
                -0.32246655117119793,
                0.41247610632486387,
                0.5557394534427211,
                -0.9714799911116019
            ]
        },
        {
            "positions": [
                1.2075019048680622,
                -1.7765109737063596,
                -0.1935693363359774,
                0.34546874866184774,
                0.5792864337998495,
                -1.034516596101681
            ]
        },
        {
            "positions": [
                1.2894413971670233,
                -1.7469642385042912,
                -0.06467212150075685,
                0.2784613909988318,
                0.6028334141569777,
                -1.09755320109176
            ]
        },
        {
            "positions": [
                1.3713808894659842,
                -1.7174175033022225,
                0.06422509333446413,
                0.2114540333358157,
                0.626380394514106,
                -1.1605898060818391
            ]
        },
        {
            "positions": [
                1.4533203817649454,
                -1.687870768100154,
                0.19312230816968468,
                0.14444667567279978,
                0.6499273748712342,
                -1.2236264110719182
            ]
        },
        {
            "positions": [
                1.5352598740639065,
                -1.6583240328980855,
                0.3220195230049052,
                0.07743931800978365,
                0.6734743552283625,
                -1.2866630160619972
            ]
        },
        {
            "positions": [
                1.6171993663628674,
                -1.6287772976960166,
                0.45091673784012576,
                0.010431960346767744,
                0.6970213355854907,
                -1.3496996210520762
            ]
        },
        {
            "positions": [
                1.6991388586618288,
                -1.5992305624939482,
                0.5798139526753467,
                -0.05657539731624861,
                0.720568315942619,
                -1.4127362260421554
            ]
        },
        {
            "positions": [
                1.7810783509607897,
                -1.5696838272918794,
                0.7087111675105673,
                -0.12358275497926452,
                0.7441152962997474,
                -1.4757728310322344
            ]
        },
        {
            "positions": [
                1.863017843259751,
                -1.540137092089811,
                0.8376083823457878,
                -0.19059011264228065,
                0.7676622766568756,
                -1.5388094360223135
            ]
        },
        {
            "positions": [
                1.944957335558712,
                -1.5105903568877423,
                0.9665055971810084,
                -0.25759747030529656,
                0.7912092570140039,
                -1.6018460410123925
            ]
        },
        {
            "positions": [
                2.026896827857673,
                -1.4810436216856737,
                1.0954028120162294,
                -0.3246048279683127,
                0.8147562373711321,
                -1.6648826460024717
            ]
        },
        {
            "positions": [
                2.108836320156634,
                -1.4514968864836053,
                1.22430002685145,
                -0.3916121856313286,
                0.8383032177282604,
                -1.7279192509925507
            ]
        },
        {
            "positions": [
                2.190775812455595,
                -1.4219501512815367,
                1.3531972416866704,
                -0.45861954329434473,
                0.8618501980853887,
                -1.7909558559826297
            ]
        },
        {
            "positions": [
                2.272715304754556,
                -1.392403416079468,
                1.4820944565218908,
                -0.5256269009573606,
                0.885397178442517,
                -1.8539924609727088
            ]
        },
        {
            "positions": [
                2.32325012092333,
                -1.3381207178653305,
                1.5307457548116434,
                -0.5620391812192148,
                0.9084647458293653,
                -2.03215909422785
            ]
        },
        {
            "positions": [
                2.373784937092104,
                -1.2838380196511932,
                1.579397053101396,
                -0.5984514614810689,
                0.9315323132162138,
                -2.2103257274829913
            ]
        },
        {
            "positions": [
                2.424319753260878,
                -1.2295553214370556,
                1.6280483513911488,
                -0.634863741742923,
                0.9545998806030621,
                -2.3884923607381325
            ]
        },
        {
            "positions": [
                2.4748545694296515,
                -1.175272623222918,
                1.6766996496809015,
                -0.6712760220047772,
                0.9776674479899105,
                -2.566658993993274
            ]
        },
        {
            "positions": [
                2.5253893855984257,
                -1.1209899250087805,
                1.7253509479706541,
                -0.7076883022666314,
                1.000735015376759,
                -2.7448256272484155
            ]
        },
        {
            "positions": [
                2.5759242017671995,
                -1.0667072267946431,
                1.7740022462604068,
                -0.7441005825284854,
                1.0238025827636072,
                -2.9229922605035563
            ]
        },
        {
            "positions": [
                2.6264590179359733,
                -1.0124245285805056,
                1.8226535445501595,
                -0.7805128627903396,
                1.0468701501504556,
                -3.101158893758698
            ]
        }
    ]
}