{
    "goal": {
        "global_pose": {
            "orientation": {
                "w": 0.5084816217422485,
                "x": -0.49083608388900757,
                "y": 0.5182115435600281,
                "z": -0.4816462993621826
            },
            "position": {
                "x": 0.5540239810943604,
                "y": 0.030875300988554955,
                "z": 0.16403168439865112
            }
        },
        "name": "move_to_storage_A"
    },
    "id": "TRRT_move_to_storage_A_25",
    "joint_names": [
        "shoulder_pan_joint",
        "shoulder_lift_joint",
        "elbow_joint",
        "wrist_1_joint",
        "wrist_2_joint",
        "wrist_3_joint"
    ],
    "metrics": {
        "cart_traj_len": 0.3531553806492222,
        "distance_elbow_joint": 0.4500661789550058,
        "distance_shoulder_lift_joint": 0.23316755344443485,
        "distance_shoulder_pan_joint": 0.4619238827461016,
        "distance_wrist_1_joint": 0.24159231945033144,
        "distance_wrist_2_joint": 1.0981795076081513,
        "distance_wrist_3_joint": 0.09855200384934637,
        "smoothness": 2.2204460668324854e-16,
        "time": 0.026913578,
        "traj_len": 1.6073212018925687,
        "weighted_distance": 2.0298663209212933
    },
    "planner": "TRRT",
    "start": {
        "state": {
            "elbow_joint": 1.971548259319323,
            "shoulder_lift_joint": -1.1394851275133948,
            "shoulder_pan_joint": 0.1228115487234821,
            "wrist_1_joint": -0.7804723859257726,
            "wrist_2_joint": 0.12958671773740124,
            "wrist_3_joint": -3.192489227718131
        }
    },
    "waypoints": [
        {
            "positions": [
                0.1228115487234821,
                -1.1394851275133948,
                1.971548259319323,
                -0.7804723859257726,
                0.12958671773740124,
                -3.192489227718131
            ]
        },
        {
            "positions": [
                0.05682242261689617,
                -1.1727947780054568,
                2.0358434277414665,
                -0.8149855744186771,
                0.2864695045385657,
                -3.178410370025367
            ]
        },
        {
            "positions": [
                -0.00916670348968976,
                -1.206104428497519,
                2.1001385961636103,
                -0.8494987629115816,
                0.4433522913397302,
                -3.1643315123326037
            ]
        },
        {
            "positions": [
                -0.0751558295962757,
                -1.2394140789895811,
                2.164433764585754,
                -0.8840119514044861,
                0.6002350781408946,
                -3.1502526546398397
            ]
        },
        {
            "positions": [
                -0.14114495570286162,
                -1.2727237294816434,
                2.228728933007898,
                -0.9185251398973906,
                0.7571178649420591,
                -3.136173796947076
            ]
        },
        {
            "positions": [
                -0.2071340818094476,
                -1.3060333799737054,
                2.293024101430041,
                -0.953038328390295,
                0.9140006517432236,
                -3.1220949392543123
            ]
        },
        {
            "positions": [
                -0.2731232079160335,
                -1.3393430304657676,
                2.357319269852185,
                -0.9875515168831995,
                1.070883438544388,
                -3.1080160815615487
            ]
        },
        {
            "positions": [
                -0.3391123340226195,
                -1.3726526809578297,
                2.4216144382743288,
                -1.022064705376104,
                1.2277662253455526,
                -3.093937223868785
            ]
        }
    ]
}{
    "goal": {
        "global_pose": {
            "orientation": {
                "w": 0.5084816217422485,
                "x": -0.49083608388900757,
                "y": 0.5182115435600281,
                "z": -0.4816462993621826
            },
            "position": {
                "x": 0.5540239810943604,
                "y": 0.030875300988554955,
                "z": 0.16403168439865112
            }
        },
        "name": "move_to_storage_A"
    },
    "id": "TRRT_move_to_storage_A_25",
    "joint_names": [
        "shoulder_pan_joint",
        "shoulder_lift_joint",
        "elbow_joint",
        "wrist_1_joint",
        "wrist_2_joint",
        "wrist_3_joint"
    ],
    "metrics": {
        "cart_traj_len": 0.3534139655290121,
        "distance_elbow_joint": 0.4485414832100396,
        "distance_shoulder_lift_joint": 0.23473257284201599,
        "distance_shoulder_pan_joint": 0.46114754328632507,
        "distance_wrist_1_joint": 0.23808721739474592,
        "distance_wrist_2_joint": 1.1035730203802203,
        "distance_wrist_3_joint": 0.09140377346296358,
        "smoothness": 4.440892133664971e-16,
        "time": 0.018228651,
        "traj_len": 1.6054549543902845,
        "weighted_distance": 2.0253279722744177
    },
    "planner": "TRRT",
    "start": {
        "state": {
            "elbow_joint": 1.97154746011099,
            "shoulder_lift_joint": -1.13948474672311,
            "shoulder_pan_joint": 0.12281154466712228,
            "wrist_1_joint": -0.7804688027058302,
            "wrist_2_joint": 0.12958655903071145,
            "wrist_3_joint": 3.0906928834467795
        }
    },
    "waypoints": [
        {
            "positions": [
                0.12281154466712228,
                -1.13948474672311,
                1.97154746011099,
                -0.7804688027058302,
                0.12958655903071145,
                3.0906928834467795
            ]
        },
        {
            "positions": [
                0.05693332419764728,
                -1.1730179714148266,
                2.0356248148552814,
                -0.814481262333651,
                0.2872398476564572,
                3.10375056537006
            ]
        },
        {
            "positions": [
                -0.00894489627182772,
                -1.2065511961065432,
                2.099702169599573,
                -0.8484937219614719,
                0.44489313628220295,
                3.1168082472933407
            ]
        },
        {
            "positions": [
                -0.07482311674130272,
                -1.2400844207982598,
                2.1637795243438642,
                -0.8825061815892927,
                0.6025464249079487,
                3.129865929216621
            ]
        },
        {
            "positions": [
                -0.1407013372107777,
                -1.2736176454899761,
                2.227856879088155,
                -0.9165186412171136,
                0.7601997135336945,
                3.1429236111399015
            ]
        },
        {
            "positions": [
                -0.20657955768025277,
                -1.3071508701816927,
                2.2919342338324467,
                -0.9505311008449344,
                0.9178530021594403,
                3.155981293063182
            ]
        },
        {
            "positions": [
                -0.2724577781497277,
                -1.3406840948734093,
                2.356011588576738,
                -0.9845435604727553,
                1.075506290785186,
                3.1690389749864627
            ]
        },
        {
            "positions": [
                -0.33833599861920277,
                -1.374217319565126,
                2.4200889433210295,
                -1.018556020100576,
                1.2331595794109318,
                3.182096656909743
            ]
        }
    ]
}{
    "goal": {
        "global_pose": {
            "orientation": {
                "w": 0.5084816217422485,
                "x": -0.49083608388900757,
                "y": 0.5182115435600281,
                "z": -0.4816462993621826
            },
            "position": {
                "x": 0.5540239810943604,
                "y": 0.030875300988554955,
                "z": 0.16403168439865112
            }
        },
        "name": "move_to_storage_A"
    },
    "id": "TRRT_move_to_storage_A_25",
    "joint_names": [
        "shoulder_pan_joint",
        "shoulder_lift_joint",
        "elbow_joint",
        "wrist_1_joint",
        "wrist_2_joint",
        "wrist_3_joint"
    ],
    "metrics": {
        "cart_traj_len": 0.35272790870603704,
        "distance_elbow_joint": 0.450452626924835,
        "distance_shoulder_lift_joint": 0.23369522451037783,
        "distance_shoulder_pan_joint": 0.461628165160361,
        "distance_wrist_1_joint": 0.24313549456401518,
        "distance_wrist_2_joint": 1.0964697308343423,
        "distance_wrist_3_joint": 0.08982119912801245,
        "smoothness": 6.661338165333112e-16,
        "time": 0.0225874,
        "traj_len": 1.6047437306691505,
        "weighted_distance": 2.0234747502196133
    },
    "planner": "TRRT",
    "start": {
        "state": {
            "elbow_joint": 1.9715472970024885,
            "shoulder_lift_joint": -1.1394870060712896,
            "shoulder_pan_joint": 0.12281152778156021,
            "wrist_1_joint": -0.780463741449964,
            "wrist_2_joint": 0.12958659822042276,
            "wrist_3_joint": 3.090690232415272
        }
    },
    "waypoints": [
        {
            "positions": [
                0.12281152778156021,
                -1.1394870060712896,
                1.9715472970024885,
                -0.780463741449964,
                0.12958659822042276,
                3.090690232415272
            ]
        },
        {
            "positions": [
                0.05686464704436579,
                -1.1728720381442008,
                2.035897672277465,
                -0.8151973835305376,
                0.28622513119675735,
                3.1035218322907023
            ]
        },
        {
            "positions": [
                -0.009082233692828623,
                -1.2062570702171118,
                2.100248047552441,
                -0.8499310256111112,
                0.442863664173092,
                3.1163534321661324
            ]
        },
        {
            "positions": [
                -0.07502911443002305,
                -1.239642102290023,
                2.1645984228274178,
                -0.8846646676916847,
                0.5995021971494265,
                3.129185032041563
            ]
        },
        {
            "positions": [
                -0.14097599516721745,
                -1.273027134362934,
                2.2289487981023943,
                -0.9193983097722583,
                0.7561407301257611,
                3.1420166319169933
            ]
        },
        {
            "positions": [
                -0.2069228759044119,
                -1.3064121664358452,
                2.293299173377371,
                -0.954131951852832,
                0.9127792631020958,
                3.154848231792424
            ]
        },
        {
            "positions": [
                -0.2728697566416063,
                -1.3397971985087562,
                2.357649548652347,
                -0.9888655939334056,
                1.0694177960784303,
                3.167679831667854
            ]
        },
        {
            "positions": [
                -0.33881663737880074,
                -1.3731822305816674,
                2.4219999239273236,
                -1.0235992360139792,
                1.226056329054765,
                3.1805114315432843
            ]
        }
    ]
}