{
    "goal": {
        "global_pose": {
            "orientation": {
                "w": 0.5084816217422485,
                "x": -0.49083608388900757,
                "y": 0.5182115435600281,
                "z": -0.4816462993621826
            },
            "position": {
                "x": 0.5540239810943604,
                "y": 0.030875300988554955,
                "z": 0.16403168439865112
            }
        },
        "name": "move_to_storage_A"
    },
    "id": "TRRT_move_to_storage_A_20",
    "joint_names": [
        "shoulder_pan_joint",
        "shoulder_lift_joint",
        "elbow_joint",
        "wrist_1_joint",
        "wrist_2_joint",
        "wrist_3_joint"
    ],
    "metrics": {
        "cart_traj_len": 0.35259677212709156,
        "distance_elbow_joint": 0.4491276850916426,
        "distance_shoulder_lift_joint": 0.23461733283051767,
        "distance_shoulder_pan_joint": 0.46078258250461646,
        "distance_wrist_1_joint": 0.23914175481186029,
        "distance_wrist_2_joint": 1.0991635370528658,
        "distance_wrist_3_joint": 0.09502981579995806,
        "smoothness": 0.0,
        "time": 0.016231801,
        "traj_len": 1.6055723926660737,
        "weighted_distance": 2.0263828936200836
    },
    "planner": "TRRT",
    "start": {
        "state": {
            "elbow_joint": 1.971548259319323,
            "shoulder_lift_joint": -1.1394851275133948,
            "shoulder_pan_joint": 0.1228115487234821,
            "wrist_1_joint": -0.7804723859257726,
            "wrist_2_joint": 0.12958671773740124,
            "wrist_3_joint": -3.192489227718131
        }
    },
    "waypoints": [
        {
            "positions": [
                0.1228115487234821,
                -1.1394851275133948,
                1.971548259319323,
                -0.7804723859257726,
                0.12958671773740124,
                -3.192489227718131
            ]
        },
        {
            "positions": [
                0.05698546550853689,
                -1.1730018893463259,
                2.0357093571895577,
                -0.8146354937560384,
                0.28661008017352496,
                -3.1789135397467088
            ]
        },
        {
            "positions": [
                -0.008840617706408316,
                -1.206518651179257,
                2.099870455059792,
                -0.8487986015863042,
                0.44363344260964865,
                -3.165337851775286
            ]
        },
        {
            "positions": [
                -0.07466670092135352,
                -1.240035413012188,
                2.164031552930027,
                -0.8829617094165698,
                0.6006568050457723,
                -3.1517621638038635
            ]
        },
        {
            "positions": [
                -0.14049278413629873,
                -1.2735521748451193,
                2.2281926508002616,
                -0.9171248172468356,
                0.757680167481896,
                -3.1381864758324407
            ]
        },
        {
            "positions": [
                -0.20631886735124394,
                -1.3070689366780504,
                2.292353748670496,
                -0.9512879250771014,
                0.9147035299180197,
                -3.1246107878610183
            ]
        },
        {
            "positions": [
                -0.27214495056618915,
                -1.3405856985109814,
                2.356514846540731,
                -0.9854510329073671,
                1.0717268923541434,
                -3.1110350998895955
            ]
        },
        {
            "positions": [
                -0.33797103378113436,
                -1.3741024603439125,
                2.4206759444109656,
                -1.019614140737633,
                1.2287502547902671,
                -3.097459411918173
            ]
        }
    ]
}{
    "goal": {
        "global_pose": {
            "orientation": {
                "w": 0.5084816217422485,
                "x": -0.49083608388900757,
                "y": 0.5182115435600281,
                "z": -0.4816462993621826
            },
            "position": {
                "x": 0.5540239810943604,
                "y": 0.030875300988554955,
                "z": 0.16403168439865112
            }
        },
        "name": "move_to_storage_A"
    },
    "id": "TRRT_move_to_storage_A_20",
    "joint_names": [
        "shoulder_pan_joint",
        "shoulder_lift_joint",
        "elbow_joint",
        "wrist_1_joint",
        "wrist_2_joint",
        "wrist_3_joint"
    ],
    "metrics": {
        "cart_traj_len": 0.3523456322395743,
        "distance_elbow_joint": 0.45102299470681295,
        "distance_shoulder_lift_joint": 0.23383360940987297,
        "distance_shoulder_pan_joint": 0.4597517118921853,
        "distance_wrist_1_joint": 0.25035512618341293,
        "distance_wrist_2_joint": 1.1013306356884178,
        "distance_wrist_3_joint": 0.10374831489869063,
        "smoothness": 4.440892098500626e-16,
        "time": 0.022686863,
        "traj_len": 1.6124646950489778,
        "weighted_distance": 2.039417756235491
    },
    "planner": "TRRT",
    "start": {
        "state": {
            "elbow_joint": 1.97154746011099,
            "shoulder_lift_joint": -1.13948474672311,
            "shoulder_pan_joint": 0.12281154466712228,
            "wrist_1_joint": -0.7804688027058302,
            "wrist_2_joint": 0.12958655903071145,
            "wrist_3_joint": 3.0906928834467795
        }
    },
    "waypoints": [
        {
            "positions": [
                0.12281154466712228,
                -1.13948474672311,
                1.97154746011099,
                -0.7804688027058302,
                0.12958655903071145,
                3.0906928834467795
            ]
        },
        {
            "positions": [
                0.05713272868252439,
                -1.1728895480673776,
                2.0359793164976776,
                -0.816233820732032,
                0.2869195069861997,
                3.10551407128945
            ]
        },
        {
            "positions": [
                -0.008546087302073499,
                -1.2062943494116452,
                2.100411172884365,
                -0.8519988387582339,
                0.44425245494168797,
                3.1203352591321196
            ]
        },
        {
            "positions": [
                -0.0742249032866714,
                -1.2396991507559127,
                2.1648430292710525,
                -0.8877638567844357,
                0.6015854028971762,
                3.13515644697479
            ]
        },
        {
            "positions": [
                -0.13990371927126927,
                -1.2731039521001801,
                2.2292748856577402,
                -0.9235288748106376,
                0.7589183508526645,
                3.1499776348174597
            ]
        },
        {
            "positions": [
                -0.20558253525586717,
                -1.3065087534444477,
                2.293706742044428,
                -0.9592938928368394,
                0.9162512988081528,
                3.16479882266013
            ]
        },
        {
            "positions": [
                -0.2712613512404651,
                -1.3399135547887153,
                2.358138598431115,
                -0.9950589108630412,
                1.073584246763641,
                3.1796200105028
            ]
        },
        {
            "positions": [
                -0.336940167225063,
                -1.373318356132983,
                2.422570454817803,
                -1.0308239288892431,
                1.2309171947191293,
                3.19444119834547
            ]
        }
    ]
}{
    "goal": {
        "global_pose": {
            "orientation": {
                "w": 0.5084816217422485,
                "x": -0.49083608388900757,
                "y": 0.5182115435600281,
                "z": -0.4816462993621826
            },
            "position": {
                "x": 0.5540239810943604,
                "y": 0.030875300988554955,
                "z": 0.16403168439865112
            }
        },
        "name": "move_to_storage_A"
    },
    "id": "TRRT_move_to_storage_A_20",
    "joint_names": [
        "shoulder_pan_joint",
        "shoulder_lift_joint",
        "elbow_joint",
        "wrist_1_joint",
        "wrist_2_joint",
        "wrist_3_joint"
    ],
    "metrics": {
        "cart_traj_len": 0.353284871133593,
        "distance_elbow_joint": 0.45003326087266915,
        "distance_shoulder_lift_joint": 0.2346910911279254,
        "distance_shoulder_pan_joint": 0.46434415743063256,
        "distance_wrist_1_joint": 0.23780705182762563,
        "distance_wrist_2_joint": 1.0895797199498372,
        "distance_wrist_3_joint": 0.09937357241949973,
        "smoothness": 6.661338165333112e-16,
        "time": 0.02280827,
        "traj_len": 1.6049388940480538,
        "weighted_distance": 2.0253302867050236
    },
    "planner": "TRRT",
    "start": {
        "state": {
            "elbow_joint": 1.9715472970024885,
            "shoulder_lift_joint": -1.1394870060712896,
            "shoulder_pan_joint": 0.12281152778156021,
            "wrist_1_joint": -0.780463741449964,
            "wrist_2_joint": 0.12958659822042276,
            "wrist_3_joint": 3.090690232415272
        }
    },
    "waypoints": [
        {
            "positions": [
                0.12281152778156021,
                -1.1394870060712896,
                1.9715472970024885,
                -0.780463741449964,
                0.12958659822042276,
                3.090690232415272
            ]
        },
        {
            "positions": [
                0.05647664814861271,
                -1.1730143048038504,
                2.0358377628414415,
                -0.8144361774253391,
                0.28524084392754234,
                3.104886457046629
            ]
        },
        {
            "positions": [
                -0.00985823148433479,
                -1.2065416035364112,
                2.100128228680394,
                -0.8484086134007142,
                0.44089508963466195,
                3.119082681677986
            ]
        },
        {
            "positions": [
                -0.07619311111728228,
                -1.240068902268972,
                2.164418694519347,
                -0.8823810493760893,
                0.5965493353417816,
                3.1332789063093434
            ]
        },
        {
            "positions": [
                -0.1425279907502298,
                -1.2735962010015327,
                2.2287091603582994,
                -0.9163534853514643,
                0.7522035810489011,
                3.1474751309407
            ]
        },
        {
            "positions": [
                -0.20886287038317733,
                -1.3071234997340935,
                2.2929996261972523,
                -0.9503259213268395,
                0.9078578267560207,
                3.1616713555720573
            ]
        },
        {
            "positions": [
                -0.2751977500161248,
                -1.3406507984666542,
                2.3572900920362048,
                -0.9842983573022145,
                1.0635120724631404,
                3.1758675802034144
            ]
        },
        {
            "positions": [
                -0.34153262964907233,
                -1.374178097199215,
                2.4215805578751577,
                -1.0182707932775896,
                1.2191663181702599,
                3.1900638048347716
            ]
        }
    ]
}