{
    "goal": {
        "global_pose": {
            "orientation": {
                "w": 0.5084816262002911,
                "x": -0.4908360881923452,
                "y": 0.5182115481033761,
                "z": -0.48164630358495003
            },
            "position": {
                "x": 0.5540239810943604,
                "y": -0.46912469901144505,
                "z": 0.16403168439865112
            }
        },
        "name": "move_to_storage_B"
    },
    "id": "TRRT_move_to_storage_B_114",
    "joint_names": [
        "shoulder_pan_joint",
        "shoulder_lift_joint",
        "elbow_joint",
        "wrist_1_joint",
        "wrist_2_joint",
        "wrist_3_joint"
    ],
    "metrics": {
        "cart_traj_len": 1.0343709674517623,
        "distance_elbow_joint": 0.6635793143592918,
        "distance_shoulder_lift_joint": 0.45798626507949347,
        "distance_shoulder_pan_joint": 0.8624159721605235,
        "distance_wrist_1_joint": 2.982696157742854,
        "distance_wrist_2_joint": 2.7051589904201157,
        "distance_wrist_3_joint": 3.2819882100990534,
        "smoothness": 0.16909358378805697,
        "time": 0.12251870399999999,
        "traj_len": 3.309656312951744,
        "weighted_distance": 4.817224976915901
    },
    "planner": "TRRT",
    "start": {
        "state": {
            "elbow_joint": 1.664937868594044,
            "shoulder_lift_joint": -0.661644460510453,
            "shoulder_pan_joint": -0.9139846352900073,
            "wrist_1_joint": 2.146753192139373,
            "wrist_2_joint": -2.2341966793290973,
            "wrist_3_joint": 0.005466555786416001
        }
    },
    "waypoints": [
        {
            "positions": [
                -0.9139846352900073,
                -0.661644460510453,
                1.664937868594044,
                2.146753192139373,
                -2.2341966793290973,
                0.005466555786416001
            ]
        },
        {
            "positions": [
                -0.8572406708681295,
                -0.6923079108630673,
                1.6387264050280714,
                2.069019169127993,
                -2.08018597570731,
                -0.006928006029745881
            ]
        },
        {
            "positions": [
                -0.8004967064462517,
                -0.7229713612156816,
                1.6125149414620987,
                1.9912851461166126,
                -1.9261752720855223,
                -0.019322567845907763
            ]
        },
        {
            "positions": [
                -0.7437527420243739,
                -0.7536348115682959,
                1.5863034778961262,
                1.9135511231052322,
                -1.7721645684637346,
                -0.031717129662069646
            ]
        },
        {
            "positions": [
                -0.6870087776024962,
                -0.7842982619209102,
                1.5600920143301538,
                1.835817100093852,
                -1.6181538648419471,
                -0.044111691478231525
            ]
        },
        {
            "positions": [
                -0.6302648131806183,
                -0.8149617122735245,
                1.533880550764181,
                1.7580830770824716,
                -1.4641431612201594,
                -0.05650625329439341
            ]
        },
        {
            "positions": [
                -0.5735208487587407,
                -0.8456251626261388,
                1.5076690871982086,
                1.6803490540710913,
                -1.310132457598372,
                -0.06890081511055529
            ]
        },
        {
            "positions": [
                -0.5962144220469692,
                -0.8575384479723913,
                1.5296825886314023,
                1.570945053215675,
                -1.2326935546118767,
                0.07056096050692653
            ]
        },
        {
            "positions": [
                -0.6189079953351978,
                -0.8694517333186439,
                1.5516960900645962,
                1.4615410523602588,
                -1.1552546516253814,
                0.21002273612440836
            ]
        },
        {
            "positions": [
                -0.6416015686234263,
                -0.8813650186648964,
                1.5737095914977899,
                1.3521370515048428,
                -1.0778157486388862,
                0.34948451174189016
            ]
        },
        {
            "positions": [
                -0.6642951419116548,
                -0.8932783040111488,
                1.5957230929309836,
                1.2427330506494265,
                -1.000376845652391,
                0.488946287359372
            ]
        },
        {
            "positions": [
                -0.6869887151998835,
                -0.9051915893574014,
                1.6177365943641773,
                1.1333290497940105,
                -0.9229379426658958,
                0.6284080629768538
            ]
        },
        {
            "positions": [
                -0.709682288488112,
                -0.9171048747036539,
                1.6397500957973712,
                1.0239250489385943,
                -0.8454990396794005,
                0.7678698385943357
            ]
        },
        {
            "positions": [
                -0.7323758617763405,
                -0.9290181600499063,
                1.6617635972305649,
                0.9145210480831779,
                -0.7680601366929053,
                0.9073316142118175
            ]
        },
        {
            "positions": [
                -0.7550694350645691,
                -0.9409314453961589,
                1.6837770986637586,
                0.8051170472277618,
                -0.6906212337064102,
                1.0467933898292994
            ]
        },
        {
            "positions": [
                -0.7777630083527977,
                -0.9528447307424114,
                1.7057906000969525,
                0.6957130463723455,
                -0.6131823307199148,
                1.1862551654467812
            ]
        },
        {
            "positions": [
                -0.8004565816410263,
                -0.964758016088664,
                1.7278041015301462,
                0.5863090455169295,
                -0.5357434277334197,
                1.325716941064263
            ]
        },
        {
            "positions": [
                -0.8231501549292548,
                -0.9766713014349164,
                1.7498176029633399,
                0.4769050446615133,
                -0.4583045247469244,
                1.465178716681745
            ]
        },
        {
            "positions": [
                -0.8458437282174833,
                -0.9885845867811689,
                1.7718311043965338,
                0.36750104380609705,
                -0.38086562176042915,
                1.6046404922992266
            ]
        },
        {
            "positions": [
                -0.8685373015057118,
                -1.0004978721274214,
                1.7938446058297275,
                0.25809704295068103,
                -0.3034267187739339,
                1.7441022679167084
            ]
        },
        {
            "positions": [
                -0.8912308747939405,
                -1.0124111574736738,
                1.8158581072629212,
                0.14869304209526457,
                -0.22598781578743865,
                1.8835640435341905
            ]
        },
        {
            "positions": [
                -0.9139244480821691,
                -1.0243244428199265,
                1.837871608696115,
                0.039289041239848554,
                -0.1485489128009434,
                2.0230258191516723
            ]
        },
        {
            "positions": [
                -0.9366180213703976,
                -1.036237728166179,
                1.8598851101293088,
                -0.07011495961556768,
                -0.07111000981444837,
                2.162487594769154
            ]
        },
        {
            "positions": [
                -0.9593115946586261,
                -1.0481510135124315,
                1.8818986115625025,
                -0.1795189604709837,
                0.006328893172046879,
                2.3019493703866356
            ]
        },
        {
            "positions": [
                -0.9820051679468547,
                -1.060064298858684,
                1.9039121129956964,
                -0.28892296132640016,
                0.08376779615854235,
                2.4414111460041177
            ]
        },
        {
            "positions": [
                -1.0046987412350832,
                -1.0719775842049364,
                1.92592561442889,
                -0.3983269621818164,
                0.16120669914503738,
                2.5808729216215993
            ]
        },
        {
            "positions": [
                -1.0273923145233117,
                -1.083890869551189,
                1.9479391158620838,
                -0.5077309630372322,
                0.23864560213153263,
                2.7203346972390814
            ]
        },
        {
            "positions": [
                -1.0500858878115404,
                -1.0958041548974413,
                1.9699526172952775,
                -0.6171349638926484,
                0.3160845051180279,
                2.859796472856563
            ]
        },
        {
            "positions": [
                -1.072779461099769,
                -1.107717440243694,
                1.9919661187284714,
                -0.7265389647480647,
                0.39352340810452313,
                2.999258248474045
            ]
        },
        {
            "positions": [
                -1.0954730343879975,
                -1.1196307255899465,
                2.013979620161665,
                -0.8359429656034807,
                0.47096231109101827,
                3.1387200240915267
            ]
        }
    ]
}