{
    "goal": {
        "global_pose": {
            "orientation": {
                "w": 0.7031023502349854,
                "x": -0.7110244035720825,
                "y": 0.007748599164187908,
                "z": 0.005598929710686207
            },
            "position": {
                "x": 0.11585023208521307,
                "y": 0.44412534475326537,
                "z": 0.3711530566215515
            }
        },
        "name": "move_to_auspresseinheit_A"
    },
    "id": "TRRT_move_to_auspresseinheit_A_52",
    "joint_names": [
        "shoulder_pan_joint",
        "shoulder_lift_joint",
        "elbow_joint",
        "wrist_1_joint",
        "wrist_2_joint",
        "wrist_3_joint"
    ],
    "metrics": {
        "cart_traj_len": 0.6875032928431846,
        "distance_elbow_joint": 0.026890950190765484,
        "distance_shoulder_lift_joint": 0.53601197623407,
        "distance_shoulder_pan_joint": 1.0457676432913057,
        "distance_wrist_1_joint": 0.5478348495295253,
        "distance_wrist_2_joint": 0.5150375305601715,
        "distance_wrist_3_joint": 0.038793884495853526,
        "smoothness": 8.88178420384455e-16,
        "time": 0.022030002,
        "traj_len": 1.646310066269927,
        "weighted_distance": 1.962344766696998
    },
    "planner": "TRRT",
    "start": {
        "state": {
            "elbow_joint": 2.4225746658250005,
            "shoulder_lift_joint": -1.3736534386056498,
            "shoulder_pan_joint": -0.3378633547517467,
            "wrist_1_joint": -1.0288598680537169,
            "wrist_2_joint": 1.233022673432363,
            "wrist_3_joint": -3.0940220416140027
        }
    },
    "waypoints": [
        {
            "positions": [
                -0.3378633547517467,
                -1.3736534386056498,
                2.4225746658250005,
                -1.0288598680537169,
                1.233022673432363,
                -3.0940220416140027
            ]
        },
        {
            "positions": [
                -0.20391984199668958,
                -1.442316942743568,
                2.4192515390433975,
                -0.9588960156339349,
                1.1666589802599643,
                -3.099075437597035
            ]
        },
        {
            "positions": [
                -0.06997632924163244,
                -1.5109804468814865,
                2.415928412261795,
                -0.8889321632141529,
                1.1002952870875653,
                -3.1041288335800674
            ]
        },
        {
            "positions": [
                0.06396718351342467,
                -1.5796439510194047,
                2.412605285480192,
                -0.818968310794371,
                1.0339315939151665,
                -3.1091822295630998
            ]
        },
        {
            "positions": [
                0.19791069626848184,
                -1.6483074551573231,
                2.4092821586985895,
                -0.749004458374589,
                0.9675679007427676,
                -3.114235625546132
            ]
        },
        {
            "positions": [
                0.33185420902353896,
                -1.7169709592952414,
                2.4059590319169866,
                -0.6790406059548071,
                0.9012042075703688,
                -3.1192890215291644
            ]
        },
        {
            "positions": [
                0.4572042355288789,
                -1.7812024444767343,
                2.4025339264894026,
                -0.6130354101446019,
                0.8401311860043097,
                -3.1237979897227284
            ]
        },
        {
            "positions": [
                0.5825542620342188,
                -1.845433929658227,
                2.399108821061819,
                -0.5470302143343968,
                0.7790581644382506,
                -3.1283069579162923
            ]
        },
        {
            "positions": [
                0.7079042885395588,
                -1.9096654148397199,
                2.395683715634235,
                -0.48102501852419155,
                0.7179851428721915,
                -3.1328159261098563
            ]
        }
    ]
}