{
    "goal": {
        "global_pose": {
            "orientation": {
                "w": 0.5084816217422485,
                "x": -0.49083608388900757,
                "y": 0.5182115435600281,
                "z": -0.4816462993621826
            },
            "position": {
                "x": 0.5540239810943604,
                "y": 0.030875300988554955,
                "z": 0.16403168439865112
            }
        },
        "name": "move_to_storage_A"
    },
    "id": "TRRT_move_to_storage_A_121",
    "joint_names": [
        "shoulder_pan_joint",
        "shoulder_lift_joint",
        "elbow_joint",
        "wrist_1_joint",
        "wrist_2_joint",
        "wrist_3_joint"
    ],
    "metrics": {
        "cart_traj_len": 0.35348788292649663,
        "distance_elbow_joint": 0.44713857916221733,
        "distance_shoulder_lift_joint": 0.23402095653032906,
        "distance_shoulder_pan_joint": 0.4585739418612161,
        "distance_wrist_1_joint": 0.2365429686381323,
        "distance_wrist_2_joint": 1.1144107435670263,
        "distance_wrist_3_joint": 0.09744551280059355,
        "smoothness": 4.440892133664971e-16,
        "time": 0.025310102,
        "traj_len": 1.608767448253325,
        "weighted_distance": 2.033218493021805
    },
    "planner": "TRRT",
    "start": {
        "state": {
            "elbow_joint": 1.971548259319323,
            "shoulder_lift_joint": -1.1394851275133948,
            "shoulder_pan_joint": 0.1228115487234821,
            "wrist_1_joint": -0.7804723859257726,
            "wrist_2_joint": 0.12958671773740124,
            "wrist_3_joint": -3.192489227718131
        }
    },
    "waypoints": [
        {
            "positions": [
                0.1228115487234821,
                -1.1394851275133948,
                1.971548259319323,
                -0.7804723859257726,
                0.12958671773740124,
                -3.192489227718131
            ]
        },
        {
            "positions": [
                0.05730098560045123,
                -1.1729166927320132,
                2.03542519919964,
                -0.8142642385883629,
                0.2887882525326907,
                -3.178568440175189
            ]
        },
        {
            "positions": [
                -0.008209577522579642,
                -1.2063482579506317,
                2.0993021390799567,
                -0.8480560912509533,
                0.4479897873279801,
                -3.1646476526322473
            ]
        },
        {
            "positions": [
                -0.0737201406456105,
                -1.23977982316925,
                2.1631790789602734,
                -0.8818479439135436,
                0.6071913221232697,
                -3.150726865089305
            ]
        },
        {
            "positions": [
                -0.13923070376864138,
                -1.2732113883878686,
                2.22705601884059,
                -0.9156397965761339,
                0.7663928569185591,
                -3.1368060775463635
            ]
        },
        {
            "positions": [
                -0.20474126689167227,
                -1.306642953606487,
                2.290932958720907,
                -0.9494316492387243,
                0.9255943917138486,
                -3.1228852900034214
            ]
        },
        {
            "positions": [
                -0.2702518300147031,
                -1.3400745188251055,
                2.3548098986012236,
                -0.9832235019013146,
                1.084795926509138,
                -3.1089645024604797
            ]
        },
        {
            "positions": [
                -0.335762393137734,
                -1.3735060840437239,
                2.4186868384815403,
                -1.017015354563905,
                1.2439974613044276,
                -3.0950437149175376
            ]
        }
    ]
}{
    "goal": {
        "global_pose": {
            "orientation": {
                "w": 0.5084816217422485,
                "x": -0.49083608388900757,
                "y": 0.5182115435600281,
                "z": -0.4816462993621826
            },
            "position": {
                "x": 0.5540239810943604,
                "y": 0.030875300988554955,
                "z": 0.16403168439865112
            }
        },
        "name": "move_to_storage_A"
    },
    "id": "TRRT_move_to_storage_A_121",
    "joint_names": [
        "shoulder_pan_joint",
        "shoulder_lift_joint",
        "elbow_joint",
        "wrist_1_joint",
        "wrist_2_joint",
        "wrist_3_joint"
    ],
    "metrics": {
        "cart_traj_len": 0.3537412849976861,
        "distance_elbow_joint": 0.4487357785061583,
        "distance_shoulder_lift_joint": 0.23336981651060817,
        "distance_shoulder_pan_joint": 0.462034783117771,
        "distance_wrist_1_joint": 0.23872496124013853,
        "distance_wrist_2_joint": 1.1017717176761912,
        "distance_wrist_3_joint": 0.08919654050009296,
        "smoothness": 0.0,
        "time": 0.035768613,
        "traj_len": 1.6043171748600586,
        "weighted_distance": 2.023048036371721
    },
    "planner": "TRRT",
    "start": {
        "state": {
            "elbow_joint": 1.97154746011099,
            "shoulder_lift_joint": -1.13948474672311,
            "shoulder_pan_joint": 0.12281154466712228,
            "wrist_1_joint": -0.7804688027058302,
            "wrist_2_joint": 0.12958655903071145,
            "wrist_3_joint": 3.0906928834467795
        }
    },
    "waypoints": [
        {
            "positions": [
                0.12281154466712228,
                -1.13948474672311,
                1.97154746011099,
                -0.7804688027058302,
                0.12958655903071145,
                3.0906928834467795
            ]
        },
        {
            "positions": [
                0.056806575650297855,
                -1.1728232919389112,
                2.0356525713261555,
                -0.8145723685972786,
                0.28698251869873875,
                3.1034352463753643
            ]
        },
        {
            "positions": [
                -0.009198393366526572,
                -1.2061618371547123,
                2.0997576825413207,
                -0.8486759344887269,
                0.444378478366766,
                3.116177609303949
            ]
        },
        {
            "positions": [
                -0.075203362383351,
                -1.2395003823705135,
                2.1638627937564863,
                -0.8827795003801753,
                0.6017744380347934,
                3.128919972232534
            ]
        },
        {
            "positions": [
                -0.1412083314001754,
                -1.2728389275863146,
                2.227967904971652,
                -0.9168830662716236,
                0.7591703977028207,
                3.141662335161118
            ]
        },
        {
            "positions": [
                -0.20721330041699987,
                -1.3061774728021158,
                2.2920730161868175,
                -0.950986632163072,
                0.916566357370848,
                3.154404698089703
            ]
        },
        {
            "positions": [
                -0.27321826943382427,
                -1.3395160180179169,
                2.3561781274019826,
                -0.9850901980545204,
                1.0739623170388752,
                3.1671470610182877
            ]
        },
        {
            "positions": [
                -0.3392232384506487,
                -1.3728545632337181,
                2.4202832386171482,
                -1.0191937639459687,
                1.2313582767069027,
                3.1798894239468725
            ]
        }
    ]
}{
    "goal": {
        "global_pose": {
            "orientation": {
                "w": 0.5084816217422485,
                "x": -0.49083608388900757,
                "y": 0.5182115435600281,
                "z": -0.4816462993621826
            },
            "position": {
                "x": 0.5540239810943604,
                "y": 0.030875300988554955,
                "z": 0.16403168439865112
            }
        },
        "name": "move_to_storage_A"
    },
    "id": "TRRT_move_to_storage_A_121",
    "joint_names": [
        "shoulder_pan_joint",
        "shoulder_lift_joint",
        "elbow_joint",
        "wrist_1_joint",
        "wrist_2_joint",
        "wrist_3_joint"
    ],
    "metrics": {
        "cart_traj_len": 0.35299969480308147,
        "distance_elbow_joint": 0.44938275305810027,
        "distance_shoulder_lift_joint": 0.23533705535708727,
        "distance_shoulder_pan_joint": 0.46091566872402767,
        "distance_wrist_1_joint": 0.24182387971841823,
        "distance_wrist_2_joint": 1.101730731808038,
        "distance_wrist_3_joint": 0.10161680572440357,
        "smoothness": 2.2204460668324854e-16,
        "time": 0.039282794999999995,
        "traj_len": 1.6095983643102012,
        "weighted_distance": 2.034107941424284
    },
    "planner": "TRRT",
    "start": {
        "state": {
            "elbow_joint": 1.9715472970024885,
            "shoulder_lift_joint": -1.1394870060712896,
            "shoulder_pan_joint": 0.12281152778156021,
            "wrist_1_joint": -0.780463741449964,
            "wrist_2_joint": 0.12958659822042276,
            "wrist_3_joint": 3.090690232415272
        }
    },
    "waypoints": [
        {
            "positions": [
                0.12281152778156021,
                -1.1394870060712896,
                1.9715472970024885,
                -0.780463741449964,
                0.12958659822042276,
                3.090690232415272
            ]
        },
        {
            "positions": [
                0.05696643224955626,
                -1.1731065854080163,
                2.035744833153646,
                -0.8150100099811666,
                0.2869767027644282,
                3.1052069189473297
            ]
        },
        {
            "positions": [
                -0.008878663282447685,
                -1.2067261647447431,
                2.0999423693048027,
                -0.8495562785123691,
                0.4443668073084336,
                3.119723605479387
            ]
        },
        {
            "positions": [
                -0.07472375881445165,
                -1.2403457440814698,
                2.16413990545596,
                -0.8841025470435718,
                0.6017569118524391,
                3.134240292011445
            ]
        },
        {
            "positions": [
                -0.14056885434645558,
                -1.2739653234181967,
                2.2283374416071173,
                -0.9186488155747744,
                0.7591470163964444,
                3.1487569785435023
            ]
        },
        {
            "positions": [
                -0.20641394987845954,
                -1.3075849027549233,
                2.2925349777582746,
                -0.9531950841059771,
                0.9165371209404499,
                3.16327366507556
            ]
        },
        {
            "positions": [
                -0.27225904541046353,
                -1.34120448209165,
                2.3567325139094315,
                -0.9877413526371797,
                1.0739272254844554,
                3.1777903516076176
            ]
        },
        {
            "positions": [
                -0.33810414094246743,
                -1.3748240614283769,
                2.420930050060589,
                -1.0222876211683822,
                1.2313173300284608,
                3.1923070381396754
            ]
        }
    ]
}