{
    "goal": {
        "global_pose": {
            "orientation": {
                "w": -0.4816463035849501,
                "x": 0.5182115481033762,
                "y": 0.4908360881923453,
                "z": -0.5084816262002911
            },
            "position": {
                "x": -0.8240239810943604,
                "y": 0.19912469901144506,
                "z": 0.16403168439865112
            }
        },
        "name": "move_to_storage_D"
    },
    "id": "TRRT_move_to_storage_D_123",
    "joint_names": [
        "shoulder_pan_joint",
        "shoulder_lift_joint",
        "elbow_joint",
        "wrist_1_joint",
        "wrist_2_joint",
        "wrist_3_joint"
    ],
    "metrics": {
        "cart_traj_len": 3.8444198255990822,
        "distance_elbow_joint": 4.209908499809478,
        "distance_shoulder_lift_joint": 1.26422800544778,
        "distance_shoulder_pan_joint": 2.8124000410934964,
        "distance_wrist_1_joint": 2.2639555193064065,
        "distance_wrist_2_joint": 0.9233790881428053,
        "distance_wrist_3_joint": 3.1378389654075187,
        "smoothness": 0.005638922346762989,
        "time": 0.096887684,
        "traj_len": 3.8225266669059987,
        "weighted_distance": 4.906599908029157
    },
    "planner": "TRRT",
    "start": {
        "state": {
            "elbow_joint": -2.384821988534728,
            "shoulder_lift_joint": -2.2788054721415256,
            "shoulder_pan_joint": -0.1854694642142757,
            "wrist_1_joint": 1.4845938289331202,
            "wrist_2_joint": 0.17898776772866878,
            "wrist_3_joint": 0.037105688729662994
        }
    },
    "waypoints": [
        {
            "positions": [
                -0.1854694642142757,
                -2.2788054721415256,
                -2.384821988534728,
                1.4845938289331202,
                0.17898776772866878,
                0.037105688729662994
            ]
        },
        {
            "positions": [
                -0.10837519615081614,
                -2.25258354675556,
                -2.2602703647227314,
                1.4237705240553749,
                0.2100087353661496,
                -0.02748141237056506
            ]
        },
        {
            "positions": [
                -0.03128092808735658,
                -2.2263616213695943,
                -2.1357187409107348,
                1.3629472191776295,
                0.24102970300363044,
                -0.09206851347079312
            ]
        },
        {
            "positions": [
                0.04581333997610301,
                -2.200139695983628,
                -2.011167117098738,
                1.3021239142998842,
                0.27205067064111127,
                -0.1566556145710212
            ]
        },
        {
            "positions": [
                0.12290760803956255,
                -2.1739177705976624,
                -1.886615493286742,
                1.2413006094221388,
                0.30307163827859207,
                -0.22124271567124923
            ]
        },
        {
            "positions": [
                0.2000018761030222,
                -2.1476958452116968,
                -1.7620638694747455,
                1.1804773045443935,
                0.3340926059160729,
                -0.28582981677147734
            ]
        },
        {
            "positions": [
                0.27709614416648176,
                -2.121473919825731,
                -1.6375122456627489,
                1.1196539996666481,
                0.3651135735535538,
                -0.35041691787170537
            ]
        },
        {
            "positions": [
                0.3541904122299413,
                -2.095251994439765,
                -1.5129606218507523,
                1.0588306947889028,
                0.39613454119103464,
                -0.4150040189719335
            ]
        },
        {
            "positions": [
                0.43128468029340084,
                -2.0690300690537993,
                -1.388408998038756,
                0.9980073899111574,
                0.4271555088285154,
                -0.4795911200721614
            ]
        },
        {
            "positions": [
                0.5083789483568605,
                -2.0428081436678336,
                -1.2638573742267594,
                0.9371840850334121,
                0.45817647646599624,
                -0.5441782211723896
            ]
        },
        {
            "positions": [
                0.5854732164203201,
                -2.0165862182818675,
                -1.1393057504147628,
                0.8763607801556668,
                0.4891974441034771,
                -0.6087653222726176
            ]
        },
        {
            "positions": [
                0.6625674844837796,
                -1.990364292895902,
                -1.0147541266027664,
                0.8155374752779214,
                0.5202184117409578,
                -0.6733524233728456
            ]
        },
        {
            "positions": [
                0.7396617525472392,
                -1.964142367509936,
                -0.8902025027907698,
                0.7547141704001761,
                0.5512393793784387,
                -0.7379395244730738
            ]
        },
        {
            "positions": [
                0.8167560206106989,
                -1.9379204421239704,
                -0.7656508789787733,
                0.6938908655224307,
                0.5822603470159196,
                -0.8025266255733018
            ]
        },
        {
            "positions": [
                0.8938502886741583,
                -1.9116985167380045,
                -0.6410992551667767,
                0.6330675606446854,
                0.6132813146534004,
                -0.8671137266735299
            ]
        },
        {
            "positions": [
                0.9709445567376179,
                -1.8854765913520388,
                -0.5165476313547803,
                0.5722442557669399,
                0.6443022822908813,
                -0.931700827773758
            ]
        },
        {
            "positions": [
                1.0480388248010772,
                -1.859254665966073,
                -0.39199600754278396,
                0.5114209508891947,
                0.675323249928362,
                -0.9962879288739859
            ]
        },
        {
            "positions": [
                1.1251330928645369,
                -1.8330327405801072,
                -0.2674443837307874,
                0.45059764601144936,
                0.7063442175658428,
                -1.060875029974214
            ]
        },
        {
            "positions": [
                1.2022273609279965,
                -1.8068108151941413,
                -0.1428927599187908,
                0.389774341133704,
                0.7373651852033237,
                -1.1254621310744422
            ]
        },
        {
            "positions": [
                1.279321628991456,
                -1.7805888898081756,
                -0.01834113610679422,
                0.3289510362559587,
                0.7683861528408045,
                -1.19004923217467
            ]
        },
        {
            "positions": [
                1.3564158970549158,
                -1.7543669644222097,
                0.10621048770520236,
                0.26812773137821333,
                0.7994071204782854,
                -1.2546363332748982
            ]
        },
        {
            "positions": [
                1.4335101651183753,
                -1.728145039036244,
                0.2307621115171985,
                0.207304426500468,
                0.8304280881157662,
                -1.3192234343751263
            ]
        },
        {
            "positions": [
                1.5106044331818347,
                -1.7019231136502784,
                0.3553137353291951,
                0.14648112162272264,
                0.8614490557532469,
                -1.3838105354753543
            ]
        },
        {
            "positions": [
                1.5876987012452943,
                -1.6757011882643125,
                0.47986535914119166,
                0.0856578167449773,
                0.8924700233907279,
                -1.4483976365755824
            ]
        },
        {
            "positions": [
                1.664792969308754,
                -1.6494792628783466,
                0.6044169829531882,
                0.024834511867231956,
                0.9234909910282086,
                -1.5129847376758105
            ]
        },
        {
            "positions": [
                1.7418872373722134,
                -1.6232573374923809,
                0.7289686067651844,
                -0.03598879301051339,
                0.9545119586656895,
                -1.5775718387760385
            ]
        },
        {
            "positions": [
                1.8189815054356733,
                -1.5970354121064152,
                0.8535202305771814,
                -0.09681209788825873,
                0.9855329263031704,
                -1.6421589398762666
            ]
        },
        {
            "positions": [
                1.8960757734991325,
                -1.5708134867204493,
                0.9780718543891775,
                -0.15763540276600407,
                1.016553893940651,
                -1.7067460409764945
            ]
        },
        {
            "positions": [
                1.9731700415625921,
                -1.5445915613344834,
                1.1026234782011746,
                -0.21845870764374942,
                1.0475748615781322,
                -1.7713331420767229
            ]
        },
        {
            "positions": [
                2.0502643096260518,
                -1.5183696359485177,
                1.227175102013171,
                -0.27928201252149476,
                1.0785958292156128,
                -1.8359202431769508
            ]
        },
        {
            "positions": [
                2.1143383393208484,
                -1.462392728253543,
                1.2936097030422353,
                -0.33484642117169383,
                1.0759546040316281,
                -1.9764550246770514
            ]
        },
        {
            "positions": [
                2.178412369015645,
                -1.4064158205585684,
                1.3600443040712995,
                -0.39041082982189296,
                1.0733133788476437,
                -2.116989806177152
            ]
        },
        {
            "positions": [
                2.2424863987104415,
                -1.3504389128635936,
                1.426478905100364,
                -0.44597523847209203,
                1.070672153663659,
                -2.2575245876772523
            ]
        },
        {
            "positions": [
                2.3065604284052377,
                -1.294462005168619,
                1.4929135061294283,
                -0.5015396471222912,
                1.0680309284796745,
                -2.398059369177353
            ]
        },
        {
            "positions": [
                2.3706344581000343,
                -1.2384850974736443,
                1.5593481071584927,
                -0.5571040557724902,
                1.0653897032956898,
                -2.5385941506774534
            ]
        },
        {
            "positions": [
                2.434708487794831,
                -1.1825081897786698,
                1.625782708187557,
                -0.6126684644226893,
                1.0627484781117054,
                -2.679128932177554
            ]
        },
        {
            "positions": [
                2.4987825174896274,
                -1.126531282083695,
                1.6922173092166215,
                -0.6682328730728884,
                1.0601072529277207,
                -2.8196637136776546
            ]
        },
        {
            "positions": [
                2.562856547184424,
                -1.0705543743887205,
                1.7586519102456857,
                -0.7237972817230875,
                1.0574660277437362,
                -2.960198495177755
            ]
        },
        {
            "positions": [
                2.6269305768792206,
                -1.0145774666937457,
                1.82508651127475,
                -0.7793616903732866,
                1.0548248025597515,
                -3.1007332766778557
            ]
        }
    ]
}