{
    "goal": {
        "global_pose": {
            "orientation": {
                "w": -0.4816463035849501,
                "x": 0.5182115481033762,
                "y": 0.4908360881923453,
                "z": -0.5084816262002911
            },
            "position": {
                "x": -0.8240239810943604,
                "y": -0.300875300988555,
                "z": 0.16403168439865112
            }
        },
        "name": "move_to_storage_C"
    },
    "id": "TRRT_move_to_storage_C_108",
    "joint_names": [
        "shoulder_pan_joint",
        "shoulder_lift_joint",
        "elbow_joint",
        "wrist_1_joint",
        "wrist_2_joint",
        "wrist_3_joint"
    ],
    "metrics": {
        "cart_traj_len": 0.5771838802112232,
        "distance_elbow_joint": 0.2549008642551349,
        "distance_shoulder_lift_joint": 0.18837402422394733,
        "distance_shoulder_pan_joint": 0.4953737347485738,
        "distance_wrist_1_joint": 0.06559113482173073,
        "distance_wrist_2_joint": 1.0690488151937254,
        "distance_wrist_3_joint": 0.05531335789558378,
        "smoothness": 0.0,
        "time": 0.014224616,
        "traj_len": 1.458972902811665,
        "weighted_distance": 1.8368093523676647
    },
    "planner": "TRRT",
    "start": {
        "state": {
            "elbow_joint": 2.010868314990456,
            "shoulder_lift_joint": -1.1634956873337592,
            "shoulder_pan_joint": -2.4736205022346125,
            "wrist_1_joint": -0.8367026794202681,
            "wrist_2_joint": 0.6746043897044499,
            "wrist_3_joint": -3.1496632123970403
        }
    },
    "waypoints": [
        {
            "positions": [
                -2.4736205022346125,
                -1.1634956873337592,
                2.010868314990456,
                -0.8367026794202681,
                0.6746043897044499,
                -3.1496632123970403
            ]
        },
        {
            "positions": [
                -2.5561827913593747,
                -1.132100016629768,
                1.9683848376146,
                -0.8257708236166463,
                0.8527791922367375,
                -3.140444319414443
            ]
        },
        {
            "positions": [
                -2.6387450804841373,
                -1.1007043459257768,
                1.9259013602387443,
                -0.8148389678130246,
                1.0309539947690252,
                -3.1312254264318455
            ]
        },
        {
            "positions": [
                -2.7213073696088994,
                -1.0693086752217855,
                1.8834178828628882,
                -0.8039071120094028,
                1.2091287973013127,
                -3.122006533449248
            ]
        },
        {
            "positions": [
                -2.8038696587336616,
                -1.0379130045177942,
                1.8409344054870325,
                -0.7929752562057809,
                1.3873035998336003,
                -3.1127876404666512
            ]
        },
        {
            "positions": [
                -2.886431947858424,
                -1.0065173338138032,
                1.7984509281111767,
                -0.7820434004021591,
                1.5654784023658879,
                -3.103568747484054
            ]
        },
        {
            "positions": [
                -2.9689942369831863,
                -0.9751216631098119,
                1.755967450735321,
                -0.7711115445985374,
                1.7436532048981752,
                -3.0943498545014565
            ]
        }
    ]
}