{
    "goal": {
        "global_pose": {
            "orientation": {
                "w": 0.005598929693374612,
                "x": 0.007748599140229565,
                "y": 0.7110244013736278,
                "z": -0.7031023480610252
            },
            "position": {
                "x": 0.1141497679147869,
                "y": -0.7141253447532654,
                "z": 0.3711530566215515
            }
        },
        "name": "move_to_auspresseinheit_B"
    },
    "id": "TRRT_move_to_auspresseinheit_B_9",
    "joint_names": [
        "shoulder_pan_joint",
        "shoulder_lift_joint",
        "elbow_joint",
        "wrist_1_joint",
        "wrist_2_joint",
        "wrist_3_joint"
    ],
    "metrics": {
        "cart_traj_len": 0.5641044550490109,
        "distance_elbow_joint": 0.05953401998614605,
        "distance_shoulder_lift_joint": 0.29430241526481304,
        "distance_shoulder_pan_joint": 0.5767955422831179,
        "distance_wrist_1_joint": 0.3161130137810594,
        "distance_wrist_2_joint": 0.9934042580550013,
        "distance_wrist_3_joint": 0.008156887905311105,
        "smoothness": 2.5376526478085547e-16,
        "time": 0.020332253,
        "traj_len": 1.4994352727862075,
        "weighted_distance": 1.8905388609923184
    },
    "planner": "TRRT",
    "start": {
        "state": {
            "elbow_joint": 2.0193083361928714,
            "shoulder_lift_joint": -1.1220246554650708,
            "shoulder_pan_joint": -1.0952077554168747,
            "wrist_1_joint": -0.8559753972642168,
            "wrist_2_joint": 0.4759566250798843,
            "wrist_3_joint": -3.1240929996934557
        }
    },
    "waypoints": [
        {
            "positions": [
                -1.0952077554168747,
                -1.1220246554650708,
                2.0193083361928714,
                -0.8559753972642168,
                0.4759566250798843,
                -3.1240929996934557
            ]
        },
        {
            "positions": [
                -1.1913403457973943,
                -1.1710750580092064,
                2.0093859995285137,
                -0.8032898949673736,
                0.6415240014223845,
                -3.1227335183759037
            ]
        },
        {
            "positions": [
                -1.287472936177914,
                -1.2201254605533418,
                1.999463662864156,
                -0.7506043926705304,
                0.8070913777648847,
                -3.121374037058352
            ]
        },
        {
            "positions": [
                -1.3836055265584335,
                -1.2691758630974772,
                1.9895413261997983,
                -0.697918890373687,
                0.972658754107385,
                -3.1200145557408003
            ]
        },
        {
            "positions": [
                -1.4797381169389532,
                -1.3182262656416128,
                1.9796189895354408,
                -0.6452333880768439,
                1.138226130449885,
                -3.1186550744232484
            ]
        },
        {
            "positions": [
                -1.5758707073194729,
                -1.3672766681857484,
                1.969696652871083,
                -0.5925478857800006,
                1.3037935067923854,
                -3.1172955931056965
            ]
        },
        {
            "positions": [
                -1.6720032976999926,
                -1.4163270707298838,
                1.9597743162067254,
                -0.5398623834831574,
                1.4693608831348857,
                -3.1159361117881446
            ]
        }
    ]
}