{
    "goal": {
        "global_pose": {
            "orientation": {
                "w": 0.5084816217422485,
                "x": -0.49083608388900757,
                "y": 0.5182115435600281,
                "z": -0.4816462993621826
            },
            "position": {
                "x": 0.5540239810943604,
                "y": 0.030875300988554955,
                "z": 0.16403168439865112
            }
        },
        "name": "move_to_storage_A"
    },
    "id": "TRRT_move_to_storage_A_147",
    "joint_names": [
        "shoulder_pan_joint",
        "shoulder_lift_joint",
        "elbow_joint",
        "wrist_1_joint",
        "wrist_2_joint",
        "wrist_3_joint"
    ],
    "metrics": {
        "cart_traj_len": 0.35278064732459763,
        "distance_elbow_joint": 0.4469871830381156,
        "distance_shoulder_lift_joint": 0.2352577881805087,
        "distance_shoulder_pan_joint": 0.45891973009700787,
        "distance_wrist_1_joint": 0.23378693463680877,
        "distance_wrist_2_joint": 1.1082298656158562,
        "distance_wrist_3_joint": 0.10063678402390464,
        "smoothness": 4.440892133664971e-16,
        "time": 0.046020035,
        "traj_len": 1.6074259813727667,
        "weighted_distance": 2.0315286495377505
    },
    "planner": "TRRT",
    "start": {
        "state": {
            "elbow_joint": 1.971548259319323,
            "shoulder_lift_joint": -1.1394851275133948,
            "shoulder_pan_joint": 0.1228115487234821,
            "wrist_1_joint": -0.7804723859257726,
            "wrist_2_joint": 0.12958671773740124,
            "wrist_3_joint": -3.192489227718131
        }
    },
    "waypoints": [
        {
            "positions": [
                0.1228115487234821,
                -1.1394851275133948,
                1.971548259319323,
                -0.7804723859257726,
                0.12958671773740124,
                -3.192489227718131
            ]
        },
        {
            "positions": [
                0.05725158728105241,
                -1.1730933829677532,
                2.0354035711819107,
                -0.8138705194453167,
                0.28790526996823784,
                -3.1781125442861446
            ]
        },
        {
            "positions": [
                -0.00830837416137728,
                -1.2067016384221116,
                2.0992588830444987,
                -0.8472686529648609,
                0.4462238221990744,
                -3.1637358608541586
            ]
        },
        {
            "positions": [
                -0.07386833560380698,
                -1.24030989387647,
                2.1631141949070867,
                -0.8806667864844049,
                0.604542374429911,
                -3.149359177422172
            ]
        },
        {
            "positions": [
                -0.13942829704623666,
                -1.2739181493308283,
                2.2269695067696746,
                -0.914064920003949,
                0.7628609266607477,
                -3.1349824939901856
            ]
        },
        {
            "positions": [
                -0.20498825848866636,
                -1.3075264047851867,
                2.2908248186322626,
                -0.9474630535234931,
                0.9211794788915844,
                -3.120605810558199
            ]
        },
        {
            "positions": [
                -0.27054821993109607,
                -1.341134660239545,
                2.3546801304948506,
                -0.9808611870430373,
                1.0794980311224207,
                -3.106229127126213
            ]
        },
        {
            "positions": [
                -0.33610818137352577,
                -1.3747429156939035,
                2.4185354423574386,
                -1.0142593205625814,
                1.2378165833532575,
                -3.0918524436942265
            ]
        }
    ]
}{
    "goal": {
        "global_pose": {
            "orientation": {
                "w": 0.5084816217422485,
                "x": -0.49083608388900757,
                "y": 0.5182115435600281,
                "z": -0.4816462993621826
            },
            "position": {
                "x": 0.5540239810943604,
                "y": 0.030875300988554955,
                "z": 0.16403168439865112
            }
        },
        "name": "move_to_storage_A"
    },
    "id": "TRRT_move_to_storage_A_147",
    "joint_names": [
        "shoulder_pan_joint",
        "shoulder_lift_joint",
        "elbow_joint",
        "wrist_1_joint",
        "wrist_2_joint",
        "wrist_3_joint"
    ],
    "metrics": {
        "cart_traj_len": 0.3525008200791719,
        "distance_elbow_joint": 0.44798613186831604,
        "distance_shoulder_lift_joint": 0.23423261613429025,
        "distance_shoulder_pan_joint": 0.46018575447790605,
        "distance_wrist_1_joint": 0.23566486003089926,
        "distance_wrist_2_joint": 1.1006415188170118,
        "distance_wrist_3_joint": 0.08994843362121818,
        "smoothness": 0.0,
        "time": 0.020510804,
        "traj_len": 1.6027037514617732,
        "weighted_distance": 2.0211042924698344
    },
    "planner": "TRRT",
    "start": {
        "state": {
            "elbow_joint": 1.97154746011099,
            "shoulder_lift_joint": -1.13948474672311,
            "shoulder_pan_joint": 0.12281154466712228,
            "wrist_1_joint": -0.7804688027058302,
            "wrist_2_joint": 0.12958655903071145,
            "wrist_3_joint": 3.0906928834467795
        }
    },
    "waypoints": [
        {
            "positions": [
                0.12281154466712228,
                -1.13948474672311,
                1.97154746011099,
                -0.7804688027058302,
                0.12958655903071145,
                3.0906928834467795
            ]
        },
        {
            "positions": [
                0.05707072259884999,
                -1.1729465490280087,
                2.0355454789493206,
                -0.814135211281673,
                0.286821061718856,
                3.103542659678382
            ]
        },
        {
            "positions": [
                -0.008670099469422307,
                -1.2064083513329071,
                2.0995434977876517,
                -0.8478016198575157,
                0.44405556440700056,
                3.116392435909985
            ]
        },
        {
            "positions": [
                -0.07441092153769459,
                -1.2398701536378058,
                2.1635415166259824,
                -0.8814680284333585,
                0.6012900670951451,
                3.1292422121415875
            ]
        },
        {
            "positions": [
                -0.14015174360596688,
                -1.2733319559427043,
                2.2275395354643135,
                -0.9151344370092012,
                0.7585245697832896,
                3.1420919883731897
            ]
        },
        {
            "positions": [
                -0.2058925656742392,
                -1.306793758247603,
                2.291537554302644,
                -0.948800845585044,
                0.9157590724714342,
                3.1549417646047924
            ]
        },
        {
            "positions": [
                -0.27163338774251145,
                -1.3402555605525015,
                2.3555355731409753,
                -0.9824672541608866,
                1.0729935751595787,
                3.167791540836395
            ]
        },
        {
            "positions": [
                -0.33737420981078375,
                -1.3737173628574002,
                2.419533591979306,
                -1.0161336627367294,
                1.2302280778477233,
                3.1806413170679977
            ]
        }
    ]
}{
    "goal": {
        "global_pose": {
            "orientation": {
                "w": 0.5084816217422485,
                "x": -0.49083608388900757,
                "y": 0.5182115435600281,
                "z": -0.4816462993621826
            },
            "position": {
                "x": 0.5540239810943604,
                "y": 0.030875300988554955,
                "z": 0.16403168439865112
            }
        },
        "name": "move_to_storage_A"
    },
    "id": "TRRT_move_to_storage_A_147",
    "joint_names": [
        "shoulder_pan_joint",
        "shoulder_lift_joint",
        "elbow_joint",
        "wrist_1_joint",
        "wrist_2_joint",
        "wrist_3_joint"
    ],
    "metrics": {
        "cart_traj_len": 0.35404938935058566,
        "distance_elbow_joint": 0.44858334690233725,
        "distance_shoulder_lift_joint": 0.234712030275545,
        "distance_shoulder_pan_joint": 0.4606810056654292,
        "distance_wrist_1_joint": 0.23870757525032604,
        "distance_wrist_2_joint": 1.1103103441080344,
        "distance_wrist_3_joint": 0.09013894329447458,
        "smoothness": 4.440892098500626e-16,
        "time": 0.022225171000000002,
        "traj_len": 1.6072128812002928,
        "weighted_distance": 2.027912486140232
    },
    "planner": "TRRT",
    "start": {
        "state": {
            "elbow_joint": 1.9715472970024885,
            "shoulder_lift_joint": -1.1394870060712896,
            "shoulder_pan_joint": 0.12281152778156021,
            "wrist_1_joint": -0.780463741449964,
            "wrist_2_joint": 0.12958659822042276,
            "wrist_3_joint": 3.090690232415272
        }
    },
    "waypoints": [
        {
            "positions": [
                0.12281152778156021,
                -1.1394870060712896,
                1.9715472970024885,
                -0.780463741449964,
                0.12958659822042276,
                3.090690232415272
            ]
        },
        {
            "positions": [
                0.05699995554364176,
                -1.173017296110653,
                2.035630632274251,
                -0.814564823628582,
                0.2882023616644277,
                3.1035672243144825
            ]
        },
        {
            "positions": [
                -0.008811616694276686,
                -1.2065475861500168,
                2.0997139675460135,
                -0.8486659058072,
                0.44681812510843255,
                3.116444216213693
            ]
        },
        {
            "positions": [
                -0.07462318893219513,
                -1.2400778761893803,
                2.163797302817776,
                -0.882766987985818,
                0.6054338885524375,
                3.129321208112904
            ]
        },
        {
            "positions": [
                -0.14043476117011358,
                -1.273608166228744,
                2.2278806380895384,
                -0.916868070164436,
                0.7640496519964424,
                3.1421982000121145
            ]
        },
        {
            "positions": [
                -0.20624633340803203,
                -1.3071384562681074,
                2.291963973361301,
                -0.950969152343054,
                0.9226654154404473,
                3.155075191911325
            ]
        },
        {
            "positions": [
                -0.27205790564595045,
                -1.340668746307471,
                2.3560473086330633,
                -0.985070234521672,
                1.0812811788844523,
                3.167952183810536
            ]
        },
        {
            "positions": [
                -0.33786947788386895,
                -1.3741990363468346,
                2.420130643904826,
                -1.01917131670029,
                1.2398969423284572,
                3.1808291757097464
            ]
        }
    ]
}