{
    "goal": {
        "global_pose": {
            "orientation": {
                "w": 0.7031023502349854,
                "x": -0.7110244035720825,
                "y": 0.007748599164187908,
                "z": 0.005598929710686207
            },
            "position": {
                "x": 0.11585023208521307,
                "y": 0.44412534475326537,
                "z": 0.3711530566215515
            }
        },
        "name": "move_to_auspresseinheit_A"
    },
    "id": "TRRT_move_to_auspresseinheit_A_145",
    "joint_names": [
        "shoulder_pan_joint",
        "shoulder_lift_joint",
        "elbow_joint",
        "wrist_1_joint",
        "wrist_2_joint",
        "wrist_3_joint"
    ],
    "metrics": {
        "cart_traj_len": 0.7038442877946739,
        "distance_elbow_joint": 0.026286266230791,
        "distance_shoulder_lift_joint": 0.538423507042141,
        "distance_shoulder_pan_joint": 1.0490788858428024,
        "distance_wrist_1_joint": 0.5492466532544162,
        "distance_wrist_2_joint": 0.509778911665318,
        "distance_wrist_3_joint": 0.02858067840472378,
        "smoothness": 0.002007847713664952,
        "time": 0.031621899,
        "traj_len": 1.643592073003576,
        "weighted_distance": 1.9538633074423026
    },
    "planner": "TRRT",
    "start": {
        "state": {
            "elbow_joint": 2.4225746658250005,
            "shoulder_lift_joint": -1.3736534386056498,
            "shoulder_pan_joint": -0.3378633547517467,
            "wrist_1_joint": -1.0288598680537169,
            "wrist_2_joint": 1.233022673432363,
            "wrist_3_joint": -3.0940220416140027
        }
    },
    "waypoints": [
        {
            "positions": [
                -0.3378633547517467,
                -1.3736534386056498,
                2.4225746658250005,
                -1.0288598680537169,
                1.233022673432363,
                -3.0940220416140027
            ]
        },
        {
            "positions": [
                -0.26340279201052674,
                -1.486502879574149,
                2.416753370858541,
                -0.9492902461565884,
                1.1394449573493086,
                -3.1007748698972404
            ]
        },
        {
            "positions": [
                -0.1889422292693067,
                -1.5993523205426483,
                2.410932075892082,
                -0.8697206242594598,
                1.0458672412662544,
                -3.107527698180478
            ]
        },
        {
            "positions": [
                -0.1144816665280867,
                -1.7122017615111476,
                2.405110780925622,
                -0.7901510023623313,
                0.9522895251832,
                -3.1142805264637157
            ]
        },
        {
            "positions": [
                -0.040021103786866685,
                -1.8250512024796468,
                2.3992894859591627,
                -0.7105813804652028,
                0.8587118091001456,
                -3.1210333547469533
            ]
        },
        {
            "positions": [
                0.13611575360750924,
                -1.8476240156367811,
                2.398435440909335,
                -0.6551042253581503,
                0.8249081380946252,
                -3.121210301490491
            ]
        },
        {
            "positions": [
                0.31225261100188517,
                -1.8701968287939155,
                2.3975813958595076,
                -0.5996270702510978,
                0.7911044670891048,
                -3.1213872482340284
            ]
        },
        {
            "positions": [
                0.4883894683962611,
                -1.8927696419510498,
                2.39672735080968,
                -0.5441499151440453,
                0.7573007960835844,
                -3.121564194977566
            ]
        },
        {
            "positions": [
                0.7112155310910557,
                -1.9120769456477908,
                2.3962883995942095,
                -0.47961321479930064,
                0.7232437617670451,
                -3.1205256699364052
            ]
        }
    ]
}