{
    "goal": {
        "global_pose": {
            "orientation": {
                "w": 0.005598929693374612,
                "x": 0.007748599140229565,
                "y": 0.7110244013736278,
                "z": -0.7031023480610252
            },
            "position": {
                "x": 0.1141497679147869,
                "y": -0.7141253447532654,
                "z": 0.3711530566215515
            }
        },
        "name": "move_to_auspresseinheit_B"
    },
    "id": "TRRT_move_to_auspresseinheit_B_134",
    "joint_names": [
        "shoulder_pan_joint",
        "shoulder_lift_joint",
        "elbow_joint",
        "wrist_1_joint",
        "wrist_2_joint",
        "wrist_3_joint"
    ],
    "metrics": {
        "cart_traj_len": 0.5642351265000937,
        "distance_elbow_joint": 0.06057920169310571,
        "distance_shoulder_lift_joint": 0.29396532689140664,
        "distance_shoulder_pan_joint": 0.5774574092804063,
        "distance_wrist_1_joint": 0.31546117687407493,
        "distance_wrist_2_joint": 0.986381332739855,
        "distance_wrist_3_joint": 0.0015397999803838935,
        "smoothness": 2.5376526478085547e-16,
        "time": 0.020658844000000003,
        "traj_len": 1.495120144824232,
        "weighted_distance": 1.8815701839245673
    },
    "planner": "TRRT",
    "start": {
        "state": {
            "elbow_joint": 2.0193083361928714,
            "shoulder_lift_joint": -1.1220246554650708,
            "shoulder_pan_joint": -1.0952077554168747,
            "wrist_1_joint": -0.8559753972642168,
            "wrist_2_joint": 0.4759566250798843,
            "wrist_3_joint": -3.1240929996934557
        }
    },
    "waypoints": [
        {
            "positions": [
                -1.0952077554168747,
                -1.1220246554650708,
                2.0193083361928714,
                -0.8559753972642168,
                0.4759566250798843,
                -3.1240929996934557
            ]
        },
        {
            "positions": [
                -1.191450656963609,
                -1.1710188766136387,
                2.009211802577354,
                -0.8033985344518709,
                0.6403535138698602,
                -3.1243496330235194
            ]
        },
        {
            "positions": [
                -1.2876935585103435,
                -1.2200130977622063,
                1.9991152689618361,
                -0.7508216716395252,
                0.804750402659836,
                -3.1246062663535836
            ]
        },
        {
            "positions": [
                -1.3839364600570778,
                -1.269007318910774,
                1.9890187353463187,
                -0.6982448088271793,
                0.9691472914498118,
                -3.124862899683648
            ]
        },
        {
            "positions": [
                -1.4801793616038121,
                -1.318001540059342,
                1.978922201730801,
                -0.6456679460148336,
                1.1335441802397876,
                -3.1251195330137116
            ]
        },
        {
            "positions": [
                -1.5764222631505467,
                -1.3669957612079098,
                1.9688256681152834,
                -0.5930910832024876,
                1.2979410690297635,
                -3.1253761663437754
            ]
        },
        {
            "positions": [
                -1.672665164697281,
                -1.4159899823564774,
                1.9587291344997657,
                -0.5405142203901419,
                1.4623379578197393,
                -3.1256327996738396
            ]
        }
    ]
}