{
    "goal": {
        "global_pose": {
            "orientation": {
                "w": 0.005598929693374612,
                "x": 0.007748599140229565,
                "y": 0.7110244013736278,
                "z": -0.7031023480610252
            },
            "position": {
                "x": -0.8858502320852131,
                "y": -0.7141253447532654,
                "z": 0.3711530566215515
            }
        },
        "name": "move_to_auspresseinheit_C"
    },
    "id": "TRRT_move_to_auspresseinheit_C_1",
    "joint_names": [
        "shoulder_pan_joint",
        "shoulder_lift_joint",
        "elbow_joint",
        "wrist_1_joint",
        "wrist_2_joint",
        "wrist_3_joint"
    ],
    "metrics": {
        "cart_traj_len": 0.49221253471986004,
        "distance_elbow_joint": 0.9882104409027185,
        "distance_shoulder_lift_joint": 0.3188960728894521,
        "distance_shoulder_pan_joint": 0.2565370568731691,
        "distance_wrist_1_joint": 0.6608931449859476,
        "distance_wrist_2_joint": 1.3035709950708747,
        "distance_wrist_3_joint": 0.05581599734210574,
        "smoothness": 8.074349282788172e-16,
        "time": 0.630303064,
        "traj_len": 1.8931253809677444,
        "weighted_distance": 2.379079620946996
    },
    "planner": "TRRT",
    "start": {
        "state": {
            "elbow_joint": 1.7527959577737207,
            "shoulder_lift_joint": -0.9740617694225068,
            "shoulder_pan_joint": -2.967991417825858,
            "wrist_1_joint": -0.759517768980727,
            "wrist_2_joint": 1.7443932448377408,
            "wrist_3_joint": -3.0840537646736568
        }
    },
    "waypoints": [
        {
            "positions": [
                -2.967991417825858,
                -0.9740617694225068,
                1.7527959577737207,
                -0.759517768980727,
                1.7443932448377408,
                -3.0840537646736568
            ]
        },
        {
            "positions": [
                -2.9423377121385412,
                -0.9421721621335616,
                1.6539749136834487,
                -0.6934284544821322,
                1.6140361453306533,
                -3.0896353644078673
            ]
        },
        {
            "positions": [
                -2.916684006451224,
                -0.9102825548446164,
                1.555153869593177,
                -0.6273391399835374,
                1.4836790458235658,
                -3.095216964142078
            ]
        },
        {
            "positions": [
                -2.8910303007639073,
                -0.8783929475556711,
                1.456332825502905,
                -0.5612498254849427,
                1.3533219463164785,
                -3.1007985638762885
            ]
        },
        {
            "positions": [
                -2.86537659507659,
                -0.8465033402667259,
                1.3575117814126332,
                -0.4951605109863479,
                1.2229648468093908,
                -3.106380163610499
            ]
        },
        {
            "positions": [
                -2.8397228893892734,
                -0.8146137329777807,
                1.2586907373223615,
                -0.42907119648775316,
                1.0926077473023035,
                -3.1119617633447096
            ]
        },
        {
            "positions": [
                -2.8140691837019567,
                -0.7827241256888355,
                1.1598696932320895,
                -0.36298188198915843,
                0.9622506477952161,
                -3.11754336307892
            ]
        },
        {
            "positions": [
                -2.7884154780146395,
                -0.7508345183998903,
                1.0610486491418176,
                -0.29689256749056364,
                0.8318935482881286,
                -3.123124962813131
            ]
        },
        {
            "positions": [
                -2.762761772327323,
                -0.7189449111109452,
                0.9622276050515458,
                -0.2308032529919688,
                0.7015364487810409,
                -3.1287065625473414
            ]
        },
        {
            "positions": [
                -2.7371080666400056,
                -0.6870553038219999,
                0.863406560961274,
                -0.16471393849337412,
                0.5711793492739536,
                -3.134288162281552
            ]
        },
        {
            "positions": [
                -2.711454360952689,
                -0.6551656965330547,
                0.7645855168710022,
                -0.0986246239947793,
                0.4408222497668661,
                -3.1398697620157625
            ]
        }
    ]
}