{
    "goal": {
        "global_pose": {
            "orientation": {
                "w": 0.5084816217422485,
                "x": -0.49083608388900757,
                "y": 0.5182115435600281,
                "z": -0.4816462993621826
            },
            "position": {
                "x": 0.5540239810943604,
                "y": 0.030875300988554955,
                "z": 0.16403168439865112
            }
        },
        "name": "move_to_storage_A"
    },
    "id": "TRRT_move_to_storage_A_136",
    "joint_names": [
        "shoulder_pan_joint",
        "shoulder_lift_joint",
        "elbow_joint",
        "wrist_1_joint",
        "wrist_2_joint",
        "wrist_3_joint"
    ],
    "metrics": {
        "cart_traj_len": 0.3529107764414009,
        "distance_elbow_joint": 0.4497295824059673,
        "distance_shoulder_lift_joint": 0.23501334605987045,
        "distance_shoulder_pan_joint": 0.4631308940365589,
        "distance_wrist_1_joint": 0.2412525535852711,
        "distance_wrist_2_joint": 1.091607990069434,
        "distance_wrist_3_joint": 0.08982221594993556,
        "smoothness": 8.881784197001252e-16,
        "time": 0.041104199,
        "traj_len": 1.6032955379801435,
        "weighted_distance": 2.020658694005896
    },
    "planner": "TRRT",
    "start": {
        "state": {
            "elbow_joint": 1.971548259319323,
            "shoulder_lift_joint": -1.1394851275133948,
            "shoulder_pan_joint": 0.1228115487234821,
            "wrist_1_joint": -0.7804723859257726,
            "wrist_2_joint": 0.12958671773740124,
            "wrist_3_joint": -3.192489227718131
        }
    },
    "waypoints": [
        {
            "positions": [
                0.1228115487234821,
                -1.1394851275133948,
                1.971548259319323,
                -0.7804723859257726,
                0.12958671773740124,
                -3.192489227718131
            ]
        },
        {
            "positions": [
                0.05664999243254512,
                -1.1730584626648048,
                2.0357953425201756,
                -0.8149370364379542,
                0.28553071631874893,
                -3.179657482582426
            ]
        },
        {
            "positions": [
                -0.009511563858391858,
                -1.2066317978162149,
                2.100042425721028,
                -0.8494016869501357,
                0.4414747149000966,
                -3.166825737446721
            ]
        },
        {
            "positions": [
                -0.07567312014932884,
                -1.240205132967625,
                2.1642895089218803,
                -0.8838663374623174,
                0.5974187134814444,
                -3.153993992311016
            ]
        },
        {
            "positions": [
                -0.14183467644026582,
                -1.2737784681190352,
                2.2285365921227327,
                -0.918330987974499,
                0.753362712062792,
                -3.141162247175311
            ]
        },
        {
            "positions": [
                -0.20799623273120282,
                -1.3073518032704452,
                2.2927836753235855,
                -0.9527956384866805,
                0.9093067106441398,
                -3.128330502039606
            ]
        },
        {
            "positions": [
                -0.2741577890221398,
                -1.3409251384218552,
                2.357030758524438,
                -0.9872602889988621,
                1.0652507092254875,
                -3.1154987569039005
            ]
        },
        {
            "positions": [
                -0.3403193453130768,
                -1.3744984735732653,
                2.4212778417252903,
                -1.0217249395110437,
                1.2211947078068353,
                -3.1026670117681956
            ]
        }
    ]
}{
    "goal": {
        "global_pose": {
            "orientation": {
                "w": 0.5084816217422485,
                "x": -0.49083608388900757,
                "y": 0.5182115435600281,
                "z": -0.4816462993621826
            },
            "position": {
                "x": 0.5540239810943604,
                "y": 0.030875300988554955,
                "z": 0.16403168439865112
            }
        },
        "name": "move_to_storage_A"
    },
    "id": "TRRT_move_to_storage_A_136",
    "joint_names": [
        "shoulder_pan_joint",
        "shoulder_lift_joint",
        "elbow_joint",
        "wrist_1_joint",
        "wrist_2_joint",
        "wrist_3_joint"
    ],
    "metrics": {
        "cart_traj_len": 0.35308662187649636,
        "distance_elbow_joint": 0.4505816091805235,
        "distance_shoulder_lift_joint": 0.23491460663960861,
        "distance_shoulder_pan_joint": 0.4595186001769777,
        "distance_wrist_1_joint": 0.24615102370162378,
        "distance_wrist_2_joint": 1.1084643528540805,
        "distance_wrist_3_joint": 0.10078452533265025,
        "smoothness": 0.0,
        "time": 0.02389554,
        "traj_len": 1.6125801430891626,
        "weighted_distance": 2.0387739318292426
    },
    "planner": "TRRT",
    "start": {
        "state": {
            "elbow_joint": 1.97154746011099,
            "shoulder_lift_joint": -1.13948474672311,
            "shoulder_pan_joint": 0.12281154466712228,
            "wrist_1_joint": -0.7804688027058302,
            "wrist_2_joint": 0.12958655903071145,
            "wrist_3_joint": 3.0906928834467795
        }
    },
    "waypoints": [
        {
            "positions": [
                0.12281154466712228,
                -1.13948474672311,
                1.97154746011099,
                -0.7804688027058302,
                0.12958655903071145,
                3.0906928834467795
            ]
        },
        {
            "positions": [
                0.05716603035612547,
                -1.173043976243054,
                2.0359162614224933,
                -0.815633234663205,
                0.28793860943843724,
                3.1050906727800154
            ]
        },
        {
            "positions": [
                -0.008479483954871345,
                -1.206603205762998,
                2.1002850627339966,
                -0.8507976666205799,
                0.446290659846163,
                3.119488462113251
            ]
        },
        {
            "positions": [
                -0.07412499826586814,
                -1.2401624352829421,
                2.1646538640455,
                -0.8859620985779546,
                0.6046427102538888,
                3.1338862514464867
            ]
        },
        {
            "positions": [
                -0.13977051257686496,
                -1.2737216648028862,
                2.2290226653570033,
                -0.9211265305353294,
                0.7629947606616146,
                3.1482840407797226
            ]
        },
        {
            "positions": [
                -0.2054160268878618,
                -1.3072808943228305,
                2.2933914666685067,
                -0.9562909624927043,
                0.9213468110693405,
                3.1626818301129584
            ]
        },
        {
            "positions": [
                -0.27106154119885856,
                -1.3408401238427745,
                2.35776026798001,
                -0.9914553944500791,
                1.0796988614770662,
                3.177079619446194
            ]
        },
        {
            "positions": [
                -0.3367070555098554,
                -1.3743993533627186,
                2.4221290692915134,
                -1.026619826407454,
                1.238050911884792,
                3.1914774087794298
            ]
        }
    ]
}{
    "goal": {
        "global_pose": {
            "orientation": {
                "w": 0.5084816217422485,
                "x": -0.49083608388900757,
                "y": 0.5182115435600281,
                "z": -0.4816462993621826
            },
            "position": {
                "x": 0.5540239810943604,
                "y": 0.030875300988554955,
                "z": 0.16403168439865112
            }
        },
        "name": "move_to_storage_A"
    },
    "id": "TRRT_move_to_storage_A_136",
    "joint_names": [
        "shoulder_pan_joint",
        "shoulder_lift_joint",
        "elbow_joint",
        "wrist_1_joint",
        "wrist_2_joint",
        "wrist_3_joint"
    ],
    "metrics": {
        "cart_traj_len": 0.3527058645953562,
        "distance_elbow_joint": 0.4492115822738669,
        "distance_shoulder_lift_joint": 0.23679127802639677,
        "distance_shoulder_pan_joint": 0.46199045727026733,
        "distance_wrist_1_joint": 0.23362762022994343,
        "distance_wrist_2_joint": 1.0960971596403875,
        "distance_wrist_3_joint": 0.09868482014131308,
        "smoothness": 0.0,
        "time": 0.036607437,
        "traj_len": 1.6051177270163628,
        "weighted_distance": 2.0257090950418157
    },
    "planner": "TRRT",
    "start": {
        "state": {
            "elbow_joint": 1.9715472970024885,
            "shoulder_lift_joint": -1.1394870060712896,
            "shoulder_pan_joint": 0.12281152778156021,
            "wrist_1_joint": -0.780463741449964,
            "wrist_2_joint": 0.12958659822042276,
            "wrist_3_joint": 3.090690232415272
        }
    },
    "waypoints": [
        {
            "positions": [
                0.12281152778156021,
                -1.1394870060712896,
                1.9715472970024885,
                -0.780463741449964,
                0.12958659822042276,
                3.090690232415272
            ]
        },
        {
            "positions": [
                0.05681289102866488,
                -1.173314331503632,
                2.0357203801844697,
                -0.8138391157685273,
                0.2861719067404781,
                3.104788063864031
            ]
        },
        {
            "positions": [
                -0.009185745724230449,
                -1.2071416569359743,
                2.0998934633664503,
                -0.8472144900870907,
                0.44275721526053347,
                3.11888589531279
            ]
        },
        {
            "positions": [
                -0.07518438247712578,
                -1.2409689823683168,
                2.1640665465484314,
                -0.880589864405654,
                0.5993425237805888,
                3.132983726761549
            ]
        },
        {
            "positions": [
                -0.1411830192300211,
                -1.2747963078006592,
                2.2282396297304126,
                -0.9139652387242174,
                0.7559278323006441,
                3.1470815582103078
            ]
        },
        {
            "positions": [
                -0.20718165598291646,
                -1.3086236332330017,
                2.2924127129123937,
                -0.9473406130427807,
                0.9125131408206995,
                3.161179389659067
            ]
        },
        {
            "positions": [
                -0.2731802927358118,
                -1.342450958665344,
                2.3565857960943744,
                -0.980715987361344,
                1.069098449340755,
                3.1752772211078257
            ]
        },
        {
            "positions": [
                -0.3391789294887071,
                -1.3762782840976864,
                2.4207588792763555,
                -1.0140913616799074,
                1.2256837578608102,
                3.189375052556585
            ]
        }
    ]
}