{
    "goal": {
        "global_pose": {
            "orientation": {
                "w": 0.7047431493862688,
                "x": -0.7094548369677653,
                "y": 0.0024358444001904,
                "z": -0.0022348060817251984
            },
            "position": {
                "x": -0.39052492380142206,
                "y": 0.3671506643295288,
                "z": 0.19426114857196808
            }
        },
        "name": "move_to_magneteinheit_D"
    },
    "id": "TRRT_move_to_magneteinheit_D_75",
    "joint_names": [
        "shoulder_pan_joint",
        "shoulder_lift_joint",
        "elbow_joint",
        "wrist_1_joint",
        "wrist_2_joint",
        "wrist_3_joint"
    ],
    "metrics": {
        "cart_traj_len": 5.899764398650331,
        "distance_elbow_joint": 3.1238852276183553,
        "distance_shoulder_lift_joint": 2.400017525604766,
        "distance_shoulder_pan_joint": 7.195181533492702,
        "distance_wrist_1_joint": 6.297872263440871,
        "distance_wrist_2_joint": 5.273999486514613,
        "distance_wrist_3_joint": 3.12640337128335,
        "smoothness": 0.35407904106230426,
        "time": 0.15961434,
        "traj_len": 5.236158840978247,
        "weighted_distance": 6.726220179304041
    },
    "planner": "TRRT",
    "start": {
        "state": {
            "elbow_joint": 0.749534889911806,
            "shoulder_lift_joint": -0.6476975780787326,
            "shoulder_pan_joint": -2.711696901376241,
            "wrist_1_joint": -0.07506478083263063,
            "wrist_2_joint": 0.43296659715538205,
            "wrist_3_joint": -3.14703540197715
        }
    },
    "waypoints": [
        {
            "positions": [
                -2.711696901376241,
                -0.6476975780787326,
                0.749534889911806,
                -0.07506478083263063,
                0.43296659715538205,
                -3.14703540197715
            ]
        },
        {
            "positions": [
                -2.705193190768525,
                -0.7587848113137469,
                0.7248953370940923,
                -0.0812951818796891,
                0.4788725406764516,
                -2.994757155757102
            ]
        },
        {
            "positions": [
                -2.6986894801608083,
                -0.8698720445487611,
                0.7002557842763786,
                -0.08752558292674756,
                0.524778484197521,
                -2.842478909537055
            ]
        },
        {
            "positions": [
                -2.560221989505349,
                -0.8589430659251509,
                0.6239135542374115,
                -0.1542025289357692,
                0.4459864235606959,
                -2.8178370499262657
            ]
        },
        {
            "positions": [
                -2.42175449884989,
                -0.8480140873015407,
                0.5475713241984443,
                -0.22087947494479082,
                0.36719436292387075,
                -2.7931951903154766
            ]
        },
        {
            "positions": [
                -2.2832870081944305,
                -0.8370851086779305,
                0.4712290941594771,
                -0.28755642095381245,
                0.2884023022870456,
                -2.768553330704687
            ]
        },
        {
            "positions": [
                -2.1448195175389713,
                -0.8261561300543203,
                0.39488686412051,
                -0.3542333669628341,
                0.20961024165022046,
                -2.743911471093898
            ]
        },
        {
            "positions": [
                -2.006352026883512,
                -0.8152271514307101,
                0.3185446340815429,
                -0.4209103129718557,
                0.13081818101339532,
                -2.7192696114831088
            ]
        },
        {
            "positions": [
                -1.8678845362280527,
                -0.8042981728070999,
                0.24220240404257565,
                -0.48758725898087735,
                0.05202612037657017,
                -2.6946277518723196
            ]
        },
        {
            "positions": [
                -1.7294170455725935,
                -0.7933691941834897,
                0.16586017400360853,
                -0.554264204989899,
                -0.026765940260255028,
                -2.66998589226153
            ]
        },
        {
            "positions": [
                -1.5909495549171344,
                -0.7824402155598795,
                0.08951794396464141,
                -0.6209411509989207,
                -0.10555800089708012,
                -2.645344032650741
            ]
        },
        {
            "positions": [
                -1.4524820642616751,
                -0.7715112369362694,
                0.013175713925674293,
                -0.6876180970079422,
                -0.1843500615339052,
                -2.620702173039952
            ]
        },
        {
            "positions": [
                -1.3140145736062159,
                -0.7605822583126592,
                -0.06316651611329283,
                -0.7542950430169639,
                -0.2631421221707304,
                -2.5960603134291627
            ]
        },
        {
            "positions": [
                -1.1755470829507566,
                -0.749653279689049,
                -0.13950874615226005,
                -0.8209719890259854,
                -0.3419341828075555,
                -2.5714184538183735
            ]
        },
        {
            "positions": [
                -1.0370795922952973,
                -0.7387243010654388,
                -0.21585097619122728,
                -0.8876489350350072,
                -0.4207262434443807,
                -2.546776594207584
            ]
        },
        {
            "positions": [
                -0.8986121016398378,
                -0.7277953224418287,
                -0.2921932062301944,
                -0.9543258810440289,
                -0.499518304081206,
                -2.522134734596795
            ]
        },
        {
            "positions": [
                -0.7601446109843786,
                -0.7168663438182185,
                -0.3685354362691615,
                -1.0210028270530505,
                -0.5783103647180311,
                -2.4974928749860057
            ]
        },
        {
            "positions": [
                -0.6216771203289198,
                -0.7059373651946083,
                -0.44487766630812864,
                -1.087679773062072,
                -0.6571024253548562,
                -2.4728510153752166
            ]
        },
        {
            "positions": [
                -0.4832096296734605,
                -0.6950083865709981,
                -0.5212198963470958,
                -1.1543567190710937,
                -0.7358944859916813,
                -2.4482091557644274
            ]
        },
        {
            "positions": [
                -0.3447421390180012,
                -0.6840794079473879,
                -0.5975621263860629,
                -1.2210336650801155,
                -0.8146865466285064,
                -2.423567296153638
            ]
        },
        {
            "positions": [
                -0.20627464836254195,
                -0.6731504293237777,
                -0.67390435642503,
                -1.287710611089137,
                -0.8934786072653315,
                -2.3989254365428487
            ]
        },
        {
            "positions": [
                -0.06780715770708268,
                -0.6622214507001675,
                -0.7502465864639971,
                -1.3543875570981585,
                -0.9722706679021565,
                -2.3742835769320596
            ]
        },
        {
            "positions": [
                0.07066033294837659,
                -0.6512924720765573,
                -0.8265888165029642,
                -1.4210645031071802,
                -1.051062728538982,
                -2.3496417173212705
            ]
        },
        {
            "positions": [
                0.20912782360383586,
                -0.6403634934529471,
                -0.9029310465419316,
                -1.487741449116202,
                -1.1298547891758068,
                -2.3249998577104813
            ]
        },
        {
            "positions": [
                0.34759531425929513,
                -0.6294345148293369,
                -0.9792732765808987,
                -1.5544183951252235,
                -1.2086468498126322,
                -2.3003579980996918
            ]
        },
        {
            "positions": [
                0.4860628049147544,
                -0.6185055362057268,
                -1.0556155066198658,
                -1.6210953411342452,
                -1.2874389104494575,
                -2.2757161384889026
            ]
        },
        {
            "positions": [
                0.6245302955702137,
                -0.6075765575821166,
                -1.1319577366588331,
                -1.6877722871432668,
                -1.3662309710862823,
                -2.2510742788781135
            ]
        },
        {
            "positions": [
                0.7629977862256729,
                -0.5966475789585064,
                -1.2082999666978003,
                -1.7544492331522885,
                -1.4450230317231076,
                -2.226432419267324
            ]
        },
        {
            "positions": [
                0.9014652768811326,
                -0.5857186003348962,
                -1.2846421967367674,
                -1.8211261791613103,
                -1.523815092359933,
                -2.2017905596565353
            ]
        },
        {
            "positions": [
                1.039932767536592,
                -0.574789621711286,
                -1.3609844267757347,
                -1.8878031251703318,
                -1.6026071529967578,
                -2.1771487000457457
            ]
        },
        {
            "positions": [
                1.1784002581920512,
                -0.5638606430876758,
                -1.4373266568147016,
                -1.9544800711793535,
                -1.6813992136335831,
                -2.1525068404349565
            ]
        },
        {
            "positions": [
                1.31686774884751,
                -0.5529316644640656,
                -1.513668886853669,
                -2.021157017188375,
                -1.7601912742704084,
                -2.1278649808241674
            ]
        },
        {
            "positions": [
                1.4553352395029688,
                -0.5420026858404554,
                -1.5900111168926359,
                -2.0878339631973963,
                -1.8389833349072333,
                -2.1032231212133783
            ]
        },
        {
            "positions": [
                1.5938027301584285,
                -0.5310737072168452,
                -1.6663533469316028,
                -2.1545109092064183,
                -1.9177753955440582,
                -2.078581261602589
            ]
        },
        {
            "positions": [
                1.7322702208138874,
                -0.520144728593235,
                -1.74269557697057,
                -2.22118785521544,
                -1.9965674561808835,
                -2.0539394019917996
            ]
        },
        {
            "positions": [
                1.870737711469347,
                -0.5092157499696248,
                -1.8190378070095374,
                -2.2878648012244613,
                -2.075359516817709,
                -2.0292975423810105
            ]
        },
        {
            "positions": [
                2.009205202124806,
                -0.4982867713460146,
                -1.8953800370485043,
                -2.3545417472334833,
                -2.1541515774545337,
                -2.0046556827702213
            ]
        },
        {
            "positions": [
                2.147672692780266,
                -0.4873577927224044,
                -1.971722267087472,
                -2.421218693242505,
                -2.232943638091359,
                -1.980013823159432
            ]
        },
        {
            "positions": [
                2.0768905128003814,
                -0.5417616959741736,
                -1.9839231177122925,
                -2.301469652302172,
                -2.1594749872676138,
                -1.9206386173271401
            ]
        },
        {
            "positions": [
                2.0061083328204967,
                -0.5961655992259427,
                -1.996123968337113,
                -2.1817206113618384,
                -2.086006336443868,
                -1.861263411494848
            ]
        },
        {
            "positions": [
                1.9353261528406118,
                -0.6505695024777117,
                -2.0083248189619334,
                -2.0619715704215054,
                -2.012537685620123,
                -1.8018882056625563
            ]
        },
        {
            "positions": [
                1.8645439728607272,
                -0.7049734057294809,
                -2.020525669586754,
                -1.9422225294811721,
                -1.9390690347963775,
                -1.7425129998302642
            ]
        },
        {
            "positions": [
                1.7937617928808425,
                -0.75937730898125,
                -2.0327265202115745,
                -1.822473488540839,
                -1.865600383972632,
                -1.6831377939979724
            ]
        },
        {
            "positions": [
                1.7229796129009576,
                -0.813781212233019,
                -2.0449273708363953,
                -1.702724447600506,
                -1.7921317331488869,
                -1.6237625881656803
            ]
        },
        {
            "positions": [
                1.652197432921073,
                -0.8681851154847882,
                -2.0571282214612157,
                -1.5829754066601727,
                -1.7186630823251414,
                -1.5643873823333885
            ]
        },
        {
            "positions": [
                1.5814152529411882,
                -0.9225890187365573,
                -2.069329072086036,
                -1.4632263657198394,
                -1.645194431501396,
                -1.5050121765010966
            ]
        },
        {
            "positions": [
                1.5106330729613036,
                -0.9769929219883264,
                -2.081529922710857,
                -1.3434773247795064,
                -1.5717257806776508,
                -1.4456369706688048
            ]
        },
        {
            "positions": [
                1.4398508929814189,
                -1.0313968252400956,
                -2.093730773335677,
                -1.2237282838391732,
                -1.4982571298539051,
                -1.3862617648365125
            ]
        },
        {
            "positions": [
                1.3690687130015342,
                -1.0858007284918645,
                -2.105931623960498,
                -1.10397924289884,
                -1.42478847903016,
                -1.3268865590042207
            ]
        },
        {
            "positions": [
                1.2982865330216493,
                -1.1402046317436336,
                -2.1181324745853183,
                -0.9842302019585067,
                -1.3513198282064145,
                -1.2675113531719289
            ]
        },
        {
            "positions": [
                1.2275043530417646,
                -1.1946085349954028,
                -2.130333325210139,
                -0.8644811610181737,
                -1.277851177382669,
                -1.208136147339637
            ]
        },
        {
            "positions": [
                1.1567221730618797,
                -1.249012438247172,
                -2.1425341758349594,
                -0.7447321200778405,
                -1.2043825265589239,
                -1.148760941507345
            ]
        },
        {
            "positions": [
                1.0859399930819953,
                -1.303416341498941,
                -2.1547350264597798,
                -0.6249830791375073,
                -1.1309138757351784,
                -1.0893857356750531
            ]
        },
        {
            "positions": [
                1.0151578131021104,
                -1.3578202447507102,
                -2.1669358770846006,
                -0.505234038197174,
                -1.057445224911433,
                -1.030010529842761
            ]
        },
        {
            "positions": [
                0.9443756331222257,
                -1.4122241480024793,
                -2.179136727709421,
                -0.38548499725684104,
                -0.9839765740876878,
                -0.9706353240104693
            ]
        },
        {
            "positions": [
                0.873593453142341,
                -1.4666280512542484,
                -2.1913375783342417,
                -0.26573595631650804,
                -0.9105079232639424,
                -0.9112601181781774
            ]
        },
        {
            "positions": [
                0.8028112731624562,
                -1.5210319545060176,
                -2.203538428959062,
                -0.1459869153761746,
                -0.8370392724401969,
                -0.8518849123458854
            ]
        },
        {
            "positions": [
                0.7320290931825715,
                -1.5754358577577867,
                -2.2157392795838824,
                -0.02623787443584158,
                -0.7635706216164515,
                -0.7925097065135933
            ]
        },
        {
            "positions": [
                0.6612469132026868,
                -1.6298397610095556,
                -2.227940130208703,
                0.09351116650449187,
                -0.6901019707927063,
                -0.7331345006813015
            ]
        },
        {
            "positions": [
                0.5904647332228021,
                -1.6842436642613248,
                -2.2401409808335235,
                0.21326020744482488,
                -0.6166333199689609,
                -0.6737592948490096
            ]
        },
        {
            "positions": [
                0.5196825532429172,
                -1.7386475675130941,
                -2.2523418314583443,
                0.33300924838515833,
                -0.5431646691452154,
                -0.6143840890167176
            ]
        },
        {
            "positions": [
                0.44890037326303256,
                -1.793051470764863,
                -2.2645426820831647,
                0.45275828932549134,
                -0.46969601832147,
                -0.5550088831844258
            ]
        },
        {
            "positions": [
                0.3781181932831479,
                -1.8474553740166322,
                -2.2767435327079855,
                0.5725073302658243,
                -0.3962273674977248,
                -0.4956336773521337
            ]
        },
        {
            "positions": [
                0.3073360133032632,
                -1.9018592772684013,
                -2.288944383332806,
                0.6922563712061574,
                -0.3227587166739794,
                -0.4362584715198419
            ]
        },
        {
            "positions": [
                0.23655383332337832,
                -1.9562631805201705,
                -2.3011452339576266,
                0.8120054121464908,
                -0.24929006585023394,
                -0.3768832656875498
            ]
        },
        {
            "positions": [
                0.16577165334349364,
                -2.0106670837719394,
                -2.313346084582447,
                0.9317544530868238,
                -0.17582141502648874,
                -0.317508059855258
            ]
        },
        {
            "positions": [
                0.09498947336360919,
                -2.0650709870237085,
                -2.3255469352072673,
                1.0515034940271573,
                -0.10235276420274309,
                -0.25813285402296615
            ]
        },
        {
            "positions": [
                0.024207293383724515,
                -2.1194748902754776,
                -2.337747785832088,
                1.1712525349674903,
                -0.028884113378997878,
                -0.19875764819067432
            ]
        },
        {
            "positions": [
                -0.0465748865961606,
                -2.1738787935272468,
                -2.3499486364569084,
                1.2910015759078237,
                0.044584537444747774,
                -0.13938244235838204
            ]
        },
        {
            "positions": [
                -0.11735706657604528,
                -2.228282696779016,
                -2.3621494870817292,
                1.4107506168481567,
                0.11805318826849298,
                -0.08000723652609021
            ]
        },
        {
            "positions": [
                -0.18813924655593012,
                -2.282686600030785,
                -2.3743503377065496,
                1.5304996577884897,
                0.19152183909223833,
                -0.020632030693798438
            ]
        }
    ]
}