{
    "goal": {
        "global_pose": {
            "orientation": {
                "w": -0.4816463035849501,
                "x": 0.5182115481033762,
                "y": 0.4908360881923453,
                "z": -0.5084816262002911
            },
            "position": {
                "x": -0.8240239810943604,
                "y": 0.19912469901144506,
                "z": 0.16403168439865112
            }
        },
        "name": "move_to_storage_D"
    },
    "id": "TRRT_move_to_storage_D_102",
    "joint_names": [
        "shoulder_pan_joint",
        "shoulder_lift_joint",
        "elbow_joint",
        "wrist_1_joint",
        "wrist_2_joint",
        "wrist_3_joint"
    ],
    "metrics": {
        "cart_traj_len": 0.7068065860547793,
        "distance_elbow_joint": 1.198156490362983,
        "distance_shoulder_lift_joint": 0.3850305873412285,
        "distance_shoulder_pan_joint": 0.9019120460285283,
        "distance_wrist_1_joint": 3.8248561444175326,
        "distance_wrist_2_joint": 1.7737706465971765,
        "distance_wrist_3_joint": 3.158334078893858,
        "smoothness": 0.16175362473740795,
        "time": 0.093738556,
        "traj_len": 3.3529181310675193,
        "weighted_distance": 4.8122089462578135
    },
    "planner": "TRRT",
    "start": {
        "state": {
            "elbow_joint": -2.384821988534728,
            "shoulder_lift_joint": -2.2788054721415256,
            "shoulder_pan_joint": -0.1854694642142757,
            "wrist_1_joint": 1.4845938289331202,
            "wrist_2_joint": 0.17898776772866878,
            "wrist_3_joint": 0.037105688729662994
        }
    },
    "waypoints": [
        {
            "positions": [
                -0.1854694642142757,
                -2.2788054721415256,
                -2.384821988534728,
                1.4845938289331202,
                0.17898776772866878,
                0.037105688729662994
            ]
        },
        {
            "positions": [
                -0.1327946622292583,
                -2.251937433784236,
                -2.416980172617331,
                1.3531471601414407,
                0.08168985205465594,
                0.05996604584367134
            ]
        },
        {
            "positions": [
                -0.08011986024424085,
                -2.2250693954269467,
                -2.449138356699934,
                1.2217004913497609,
                -0.015608063619356904,
                0.08282640295767968
            ]
        },
        {
            "positions": [
                -0.027445058259223443,
                -2.198201357069657,
                -2.481296540782537,
                1.0902538225580813,
                -0.11290597929336973,
                0.10568676007168801
            ]
        },
        {
            "positions": [
                0.025229743725794007,
                -2.1713333187123673,
                -2.5134547248651398,
                0.9588071537664017,
                -0.2102038949673826,
                0.12854711718569634
            ]
        },
        {
            "positions": [
                0.07790454571081143,
                -2.144465280355078,
                -2.545612908947743,
                0.8273604849747221,
                -0.30750181064139537,
                0.1514074742997047
            ]
        },
        {
            "positions": [
                0.13057934769582882,
                -2.1175972419977884,
                -2.577771093030346,
                0.6959138161830426,
                -0.4047997263154083,
                0.17426783141371302
            ]
        },
        {
            "positions": [
                0.18325414968084627,
                -2.0907292036404987,
                -2.6099292771129488,
                0.5644671473913629,
                -0.5020976419894211,
                0.19712818852772135
            ]
        },
        {
            "positions": [
                0.23592895166586372,
                -2.063861165283209,
                -2.6420874611955516,
                0.4330204785996832,
                -0.599395557663434,
                0.2199885456417297
            ]
        },
        {
            "positions": [
                0.2886037536508812,
                -2.03699312692592,
                -2.674245645278155,
                0.30157380980800363,
                -0.6966934733374468,
                0.24284890275573803
            ]
        },
        {
            "positions": [
                0.3412785556358986,
                -2.01012508856863,
                -2.7064038293607577,
                0.1701271410163241,
                -0.7939913890114596,
                0.26570925986974636
            ]
        },
        {
            "positions": [
                0.3225203543269809,
                -2.015942598757047,
                -2.66257509688391,
                0.04460766819128728,
                -0.834030963504312,
                0.4121957852574351
            ]
        },
        {
            "positions": [
                0.3037621530180632,
                -2.0217601089454633,
                -2.6187463644070625,
                -0.08091180463374953,
                -0.8740705379971644,
                0.5586823106451239
            ]
        },
        {
            "positions": [
                0.2850039517091455,
                -2.02757761913388,
                -2.574917631930215,
                -0.20643127745878626,
                -0.9141101124900168,
                0.7051688360328126
            ]
        },
        {
            "positions": [
                0.2662457504002278,
                -2.033395129322297,
                -2.531088899453367,
                -0.33195075028382315,
                -0.9541496869828692,
                0.8516553614205014
            ]
        },
        {
            "positions": [
                0.24748754909131016,
                -2.0392126395107133,
                -2.4872601669765193,
                -0.4574702231088599,
                -0.9941892614757216,
                0.99814188680819
            ]
        },
        {
            "positions": [
                0.22872934778239246,
                -2.04503014969913,
                -2.4434314344996717,
                -0.5829896959338966,
                -1.034228835968574,
                1.1446284121958787
            ]
        },
        {
            "positions": [
                0.20997114647347476,
                -2.050847659887547,
                -2.399602702022824,
                -0.7085091687589334,
                -1.0742684104614264,
                1.2911149375835675
            ]
        },
        {
            "positions": [
                0.19121294516455706,
                -2.0566651700759633,
                -2.3557739695459765,
                -0.8340286415839704,
                -1.1143079849542787,
                1.4376014629712563
            ]
        },
        {
            "positions": [
                0.1724547438556394,
                -2.06248268026438,
                -2.311945237069129,
                -0.959548114409007,
                -1.1543475594471313,
                1.584087988358945
            ]
        },
        {
            "positions": [
                0.1536965425467217,
                -2.0683001904527964,
                -2.268116504592281,
                -1.0850675872340438,
                -1.1943871339399836,
                1.7305745137466337
            ]
        },
        {
            "positions": [
                0.134938341237804,
                -2.0741177006412133,
                -2.2242877721154333,
                -1.2105870600590807,
                -1.234426708432836,
                1.8770610391343225
            ]
        },
        {
            "positions": [
                0.11618013992888632,
                -2.07993521082963,
                -2.1804590396385857,
                -1.3361065328841173,
                -1.2744662829256885,
                2.023547564522011
            ]
        },
        {
            "positions": [
                0.09742193861996862,
                -2.0857527210180464,
                -2.136630307161738,
                -1.4616260057091544,
                -1.3145058574185409,
                2.1700340899097
            ]
        },
        {
            "positions": [
                0.07866373731105092,
                -2.0915702312064632,
                -2.0928015746848905,
                -1.587145478534191,
                -1.3545454319113932,
                2.3165206152973887
            ]
        },
        {
            "positions": [
                0.05990553600213322,
                -2.09738774139488,
                -2.048972842208043,
                -1.7126649513592278,
                -1.3945850064042458,
                2.4630071406850775
            ]
        },
        {
            "positions": [
                0.04114733469321552,
                -2.1032052515832964,
                -2.0051441097311953,
                -1.8381844241842649,
                -1.434624580897098,
                2.6094936660727663
            ]
        },
        {
            "positions": [
                0.022389133384297877,
                -2.109022761771713,
                -1.9613153772543475,
                -1.9637038970093015,
                -1.4746641553899504,
                2.7559801914604547
            ]
        },
        {
            "positions": [
                0.0036309320753801777,
                -2.11484027196013,
                -1.9174866447774996,
                -2.089223369834338,
                -1.514703729882803,
                2.9024667168481435
            ]
        },
        {
            "positions": [
                -0.015127269233537521,
                -2.1206577821485464,
                -1.873657912300652,
                -2.2147428426593745,
                -1.554743304375655,
                3.0489532422358323
            ]
        },
        {
            "positions": [
                -0.03388547054245524,
                -2.126475292336963,
                -1.8298291798238044,
                -2.340262315484412,
                -1.5947828788685077,
                3.195439767623521
            ]
        }
    ]
}