{
    "goal": {
        "global_pose": {
            "orientation": {
                "w": 0.7031023480610252,
                "x": -0.7110244013736278,
                "y": 0.0077485991402295624,
                "z": 0.005598929693374583
            },
            "position": {
                "x": -0.8841497679147869,
                "y": 0.44412534475326537,
                "z": 0.3711530566215515
            }
        },
        "name": "move_to_auspresseinheit_D"
    },
    "id": "TRRT_move_to_auspresseinheit_D_8",
    "joint_names": [
        "shoulder_pan_joint",
        "shoulder_lift_joint",
        "elbow_joint",
        "wrist_1_joint",
        "wrist_2_joint",
        "wrist_3_joint"
    ],
    "metrics": {
        "cart_traj_len": 0.34242535048695594,
        "distance_elbow_joint": 0.6383861619235665,
        "distance_shoulder_lift_joint": 0.12159964150051783,
        "distance_shoulder_pan_joint": 0.133104467294496,
        "distance_wrist_1_joint": 0.5335029211848052,
        "distance_wrist_2_joint": 1.4342876348292504,
        "distance_wrist_3_joint": 0.00643417137929525,
        "smoothness": 7.894919182364742e-16,
        "time": 0.5952317509999999,
        "traj_len": 1.6933147959289587,
        "weighted_distance": 2.2018115034862946
    },
    "planner": "TRRT",
    "start": {
        "state": {
            "elbow_joint": -1.8275523626775212,
            "shoulder_lift_joint": -2.126789852344167,
            "shoulder_pan_joint": -0.03513704404078235,
            "wrist_1_joint": -2.347782403156801,
            "wrist_2_joint": -1.6058999987535132,
            "wrist_3_joint": -3.0880379163319196
        }
    },
    "waypoints": [
        {
            "positions": [
                -0.03513704404078235,
                -2.126789852344167,
                -1.8275523626775212,
                -2.347782403156801,
                -1.6058999987535132,
                -3.0880379163319196
            ]
        },
        {
            "positions": [
                -0.05177510245259435,
                -2.1419898075317314,
                -1.7477540924370754,
                -2.4144702683049015,
                -1.426614044399857,
                -3.0872336449095075
            ]
        },
        {
            "positions": [
                -0.06841316086440635,
                -2.1571897627192964,
                -1.6679558221966295,
                -2.481158133453002,
                -1.2473280900462007,
                -3.086429373487096
            ]
        },
        {
            "positions": [
                -0.08505121927621834,
                -2.172389717906861,
                -1.5881575519561837,
                -2.547845998601103,
                -1.0680421356925442,
                -3.085625102064684
            ]
        },
        {
            "positions": [
                -0.10168927768803035,
                -2.1875896730944255,
                -1.5083592817157379,
                -2.6145338637492035,
                -0.888756181338888,
                -3.084820830642272
            ]
        },
        {
            "positions": [
                -0.11832733609984233,
                -2.2027896282819905,
                -1.428561011475292,
                -2.681221728897304,
                -0.7094702269852318,
                -3.08401655921986
            ]
        },
        {
            "positions": [
                -0.13496539451165435,
                -2.217989583469555,
                -1.3487627412348464,
                -2.747909594045405,
                -0.5301842726315753,
                -3.083212287797448
            ]
        },
        {
            "positions": [
                -0.15160345292346633,
                -2.23318953865712,
                -1.2689644709944006,
                -2.8145974591935055,
                -0.35089831827791906,
                -3.0824080163750365
            ]
        },
        {
            "positions": [
                -0.16824151133527834,
                -2.2483894938446847,
                -1.1891662007539547,
                -2.881285324341606,
                -0.17161236392426277,
                -3.0816037449526243
            ]
        }
    ]
}