{
    "goal": {
        "global_pose": {
            "orientation": {
                "w": -0.00223480608172531,
                "x": 0.0024358444001904467,
                "y": 0.7094548369677653,
                "z": -0.704743149386269
            },
            "position": {
                "x": -0.37947507619857795,
                "y": -0.6371506643295288,
                "z": 0.19426114857196808
            }
        },
        "name": "move_to_magneteinheit_C"
    },
    "id": "TRRT_move_to_magneteinheit_C_52",
    "joint_names": [
        "shoulder_pan_joint",
        "shoulder_lift_joint",
        "elbow_joint",
        "wrist_1_joint",
        "wrist_2_joint",
        "wrist_3_joint"
    ],
    "metrics": {
        "cart_traj_len": 0.6419470137752107,
        "distance_elbow_joint": 0.5475151151567852,
        "distance_shoulder_lift_joint": 0.691579680415054,
        "distance_shoulder_pan_joint": 0.7999825651646921,
        "distance_wrist_1_joint": 0.5493598343380827,
        "distance_wrist_2_joint": 0.9194388986765355,
        "distance_wrist_3_joint": 0.4190998764477394,
        "smoothness": 0.9682098517144949,
        "time": 1.1100630439999999,
        "traj_len": 1.9816599027580108,
        "weighted_distance": 2.496792834039097
    },
    "planner": "TRRT",
    "start": {
        "state": {
            "elbow_joint": 1.9565354010623817,
            "shoulder_lift_joint": -1.4165861575791021,
            "shoulder_pan_joint": -1.6717766225146293,
            "wrist_1_joint": -0.5286633292919765,
            "wrist_2_joint": 1.472756589071564,
            "wrist_3_joint": -3.1238370188695823
        }
    },
    "waypoints": [
        {
            "positions": [
                -1.6717766225146293,
                -1.4165861575791021,
                1.9565354010623817,
                -0.5286633292919765,
                1.472756589071564,
                -3.1238370188695823
            ]
        },
        {
            "positions": [
                -1.7799918780855741,
                -1.4716478285103776,
                2.0172518496752323,
                -0.6027478758297845,
                1.4892740689044155,
                -3.0720463283521435
            ]
        },
        {
            "positions": [
                -1.8882071336565192,
                -1.5267094994416532,
                2.0779682982880834,
                -0.6768324223675926,
                1.5057915487372668,
                -3.0202556378347047
            ]
        },
        {
            "positions": [
                -1.996422389227464,
                -1.581771170372929,
                2.138684746900934,
                -0.7509169689054006,
                1.5223090285701182,
                -2.968464947317266
            ]
        },
        {
            "positions": [
                -2.1046376447984088,
                -1.6368328413042044,
                2.1994011955137847,
                -0.8250015154432087,
                1.5388265084029698,
                -2.916674256799827
            ]
        },
        {
            "positions": [
                -2.2307914180722346,
                -1.5913341827663356,
                2.2299594441643533,
                -0.8958096351744185,
                1.4813157716585452,
                -2.941795668676525
            ]
        },
        {
            "positions": [
                -2.35694519134606,
                -1.5458355242284667,
                2.2605176928149224,
                -0.9666177549056283,
                1.4238050349141207,
                -2.9669170805532232
            ]
        },
        {
            "positions": [
                -2.3836766996286824,
                -1.4769786981570756,
                2.2204508515628447,
                -0.9513394157114781,
                1.2944043818292892,
                -2.9974757154144385
            ]
        },
        {
            "positions": [
                -2.4104082079113045,
                -1.4081218720856847,
                2.1803840103107675,
                -0.9360610765173277,
                1.1650037287444577,
                -3.0280343502756533
            ]
        },
        {
            "positions": [
                -2.4371397161939266,
                -1.3392650460142939,
                2.1403171690586897,
                -0.9207827373231774,
                1.0356030756596264,
                -3.058592985136868
            ]
        },
        {
            "positions": [
                -2.463871224476549,
                -1.2704082199429028,
                2.100250327806612,
                -0.9055043981290272,
                0.9062024225747949,
                -3.0891516199980833
            ]
        },
        {
            "positions": [
                -2.467815206077935,
                -1.2179540322785778,
                2.0586175986086452,
                -0.8803583721551123,
                0.7958299758163174,
                -3.1088814955879474
            ]
        },
        {
            "positions": [
                -2.4717591876793215,
                -1.1654998446142526,
                2.016984869410678,
                -0.8552123461811975,
                0.6854575290578401,
                -3.1286113711778114
            ]
        }
    ]
}