{
    "goal": {
        "global_pose": {
            "orientation": {
                "w": 0.5084816217422485,
                "x": -0.49083608388900757,
                "y": 0.5182115435600281,
                "z": -0.4816462993621826
            },
            "position": {
                "x": 0.5540239810943604,
                "y": 0.030875300988554955,
                "z": 0.16403168439865112
            }
        },
        "name": "move_to_storage_A"
    },
    "id": "TRRT_move_to_storage_A_55",
    "joint_names": [
        "shoulder_pan_joint",
        "shoulder_lift_joint",
        "elbow_joint",
        "wrist_1_joint",
        "wrist_2_joint",
        "wrist_3_joint"
    ],
    "metrics": {
        "cart_traj_len": 0.35307181289262773,
        "distance_elbow_joint": 0.4480520403798447,
        "distance_shoulder_lift_joint": 0.2357949766130043,
        "distance_shoulder_pan_joint": 0.4635542367647235,
        "distance_wrist_1_joint": 0.23378888450413504,
        "distance_wrist_2_joint": 1.0911221366981925,
        "distance_wrist_3_joint": 0.0956243441102469,
        "smoothness": 1.1102230263833737e-15,
        "time": 0.01423825,
        "traj_len": 1.602478274133583,
        "weighted_distance": 2.020914725685616
    },
    "planner": "TRRT",
    "start": {
        "state": {
            "elbow_joint": 1.971548259319323,
            "shoulder_lift_joint": -1.1394851275133948,
            "shoulder_pan_joint": 0.1228115487234821,
            "wrist_1_joint": -0.7804723859257726,
            "wrist_2_joint": 0.12958671773740124,
            "wrist_3_joint": -3.192489227718131
        }
    },
    "waypoints": [
        {
            "positions": [
                0.1228115487234821,
                -1.1394851275133948,
                1.971548259319323,
                -0.7804723859257726,
                0.12958671773740124,
                -3.192489227718131
            ]
        },
        {
            "positions": [
                0.05658951489995018,
                -1.1731701241723955,
                2.0355556936593007,
                -0.8138707979977919,
                0.2854613086942859,
                -3.178828607130953
            ]
        },
        {
            "positions": [
                -0.009632518923581745,
                -1.206855120831396,
                2.0995631279992786,
                -0.8472692100698112,
                0.4413358996511705,
                -3.165167986543775
            ]
        },
        {
            "positions": [
                -0.07585455274711367,
                -1.2405401174903967,
                2.1635705623392565,
                -0.8806676221418305,
                0.5972104906080551,
                -3.1515073659565966
            ]
        },
        {
            "positions": [
                -0.1420765865706456,
                -1.2742251141493972,
                2.2275779966792344,
                -0.9140660342138498,
                0.7530850815649398,
                -3.1378467453694188
            ]
        },
        {
            "positions": [
                -0.20829862039417757,
                -1.307910110808398,
                2.291585431019212,
                -0.947464446285869,
                0.9089596725218245,
                -3.1241861247822404
            ]
        },
        {
            "positions": [
                -0.27452065421770944,
                -1.3415951074673984,
                2.3555928653591898,
                -0.9808628583578883,
                1.064834263478709,
                -3.1105255041950626
            ]
        },
        {
            "positions": [
                -0.3407426880412414,
                -1.3752801041263991,
                2.4196002996991677,
                -1.0142612704299077,
                1.2207088544355937,
                -3.0968648836078843
            ]
        }
    ]
}{
    "goal": {
        "global_pose": {
            "orientation": {
                "w": 0.5084816217422485,
                "x": -0.49083608388900757,
                "y": 0.5182115435600281,
                "z": -0.4816462993621826
            },
            "position": {
                "x": 0.5540239810943604,
                "y": 0.030875300988554955,
                "z": 0.16403168439865112
            }
        },
        "name": "move_to_storage_A"
    },
    "id": "TRRT_move_to_storage_A_55",
    "joint_names": [
        "shoulder_pan_joint",
        "shoulder_lift_joint",
        "elbow_joint",
        "wrist_1_joint",
        "wrist_2_joint",
        "wrist_3_joint"
    ],
    "metrics": {
        "cart_traj_len": 0.35349474099010364,
        "distance_elbow_joint": 0.44861729376518156,
        "distance_shoulder_lift_joint": 0.236137357624296,
        "distance_shoulder_pan_joint": 0.4645957010912541,
        "distance_wrist_1_joint": 0.2346881364349278,
        "distance_wrist_2_joint": 1.0901284000546152,
        "distance_wrist_3_joint": 0.09343356876822417,
        "smoothness": 1.1102230263833737e-15,
        "time": 0.039585527999999995,
        "traj_len": 1.60237338274776,
        "weighted_distance": 2.019723776105161
    },
    "planner": "TRRT",
    "start": {
        "state": {
            "elbow_joint": 1.97154746011099,
            "shoulder_lift_joint": -1.13948474672311,
            "shoulder_pan_joint": 0.12281154466712228,
            "wrist_1_joint": -0.7804688027058302,
            "wrist_2_joint": 0.12958655903071145,
            "wrist_3_joint": 3.0906928834467795
        }
    },
    "waypoints": [
        {
            "positions": [
                0.12281154466712228,
                -1.13948474672311,
                1.97154746011099,
                -0.7804688027058302,
                0.12958655903071145,
                3.0906928834467795
            ]
        },
        {
            "positions": [
                0.05644073022551456,
                -1.1732186549551522,
                2.035635644934587,
                -0.8139956793393913,
                0.2853191876099422,
                3.1040405361279544
            ]
        },
        {
            "positions": [
                -0.009930084216093163,
                -1.2069525631871945,
                2.099723829758185,
                -0.8475225559729525,
                0.4410518161891729,
                3.1173881888091293
            ]
        },
        {
            "positions": [
                -0.07630089865770089,
                -1.2406864714192367,
                2.163812014581782,
                -0.8810494326065135,
                0.5967844447684036,
                3.130735841490304
            ]
        },
        {
            "positions": [
                -0.1426717130993086,
                -1.274420379651279,
                2.2279001994053793,
                -0.9145763092400746,
                0.7525170733476344,
                3.144083494171479
            ]
        },
        {
            "positions": [
                -0.20904252754091635,
                -1.3081542878833214,
                2.2919883842289765,
                -0.9481031858736357,
                0.9082497019268652,
                3.157431146852654
            ]
        },
        {
            "positions": [
                -0.27541334198252404,
                -1.3418881961153637,
                2.3560765690525742,
                -0.9816300625071969,
                1.0639823305060958,
                3.170778799533829
            ]
        },
        {
            "positions": [
                -0.3417841564241318,
                -1.375622104347406,
                2.4201647538761715,
                -1.015156939140758,
                1.2197149590853267,
                3.1841264522150037
            ]
        }
    ]
}{
    "goal": {
        "global_pose": {
            "orientation": {
                "w": 0.5084816217422485,
                "x": -0.49083608388900757,
                "y": 0.5182115435600281,
                "z": -0.4816462993621826
            },
            "position": {
                "x": 0.5540239810943604,
                "y": 0.030875300988554955,
                "z": 0.16403168439865112
            }
        },
        "name": "move_to_storage_A"
    },
    "id": "TRRT_move_to_storage_A_55",
    "joint_names": [
        "shoulder_pan_joint",
        "shoulder_lift_joint",
        "elbow_joint",
        "wrist_1_joint",
        "wrist_2_joint",
        "wrist_3_joint"
    ],
    "metrics": {
        "cart_traj_len": 0.353055457271267,
        "distance_elbow_joint": 0.44795934747187927,
        "distance_shoulder_lift_joint": 0.23660591348212723,
        "distance_shoulder_pan_joint": 0.46173298895995035,
        "distance_wrist_1_joint": 0.23405025399670554,
        "distance_wrist_2_joint": 1.0990778280434792,
        "distance_wrist_3_joint": 0.09360612907673582,
        "smoothness": 4.440892098500626e-16,
        "time": 0.033723204,
        "traj_len": 1.6040674739645078,
        "weighted_distance": 2.0232085412098613
    },
    "planner": "TRRT",
    "start": {
        "state": {
            "elbow_joint": 1.9715472970024885,
            "shoulder_lift_joint": -1.1394870060712896,
            "shoulder_pan_joint": 0.12281152778156021,
            "wrist_1_joint": -0.780463741449964,
            "wrist_2_joint": 0.12958659822042276,
            "wrist_3_joint": 3.090690232415272
        }
    },
    "waypoints": [
        {
            "positions": [
                0.12281152778156021,
                -1.1394870060712896,
                1.9715472970024885,
                -0.780463741449964,
                0.12958659822042276,
                3.090690232415272
            ]
        },
        {
            "positions": [
                0.056849672215853034,
                -1.1732878508544506,
                2.0355414894984714,
                -0.8138994920209219,
                0.28659771651234833,
                3.1040625365690913
            ]
        },
        {
            "positions": [
                -0.009112183349854142,
                -1.2070886956376117,
                2.099535681994454,
                -0.8473352425918799,
                0.44360883480427393,
                3.1174348407229107
            ]
        },
        {
            "positions": [
                -0.07507403891556133,
                -1.2408895404207727,
                2.163529874490437,
                -0.8807709931628378,
                0.6006199530961995,
                3.13080714487673
            ]
        },
        {
            "positions": [
                -0.1410358944812685,
                -1.2746903852039337,
                2.2275240669864194,
                -0.9142067437337957,
                0.7576310713881251,
                3.1441794490305495
            ]
        },
        {
            "positions": [
                -0.2069977500469757,
                -1.3084912299870948,
                2.291518259482402,
                -0.9476424943047537,
                0.9146421896800507,
                3.157551753184369
            ]
        },
        {
            "positions": [
                -0.27295960561268284,
                -1.3422920747702558,
                2.355512451978385,
                -0.9810782448757116,
                1.0716533079719763,
                3.1709240573381883
            ]
        },
        {
            "positions": [
                -0.3389214611783901,
                -1.3760929195534168,
                2.419506644474368,
                -1.0145139954466695,
                1.228664426263902,
                3.1842963614920077
            ]
        }
    ]
}