{
    "goal": {
        "global_pose": {
            "orientation": {
                "w": 0.7047431468963623,
                "x": -0.7094548344612122,
                "y": 0.0024358443915843964,
                "z": -0.0022348060738295317
            },
            "position": {
                "x": 0.6094750761985779,
                "y": 0.3671506643295288,
                "z": 0.19426114857196808
            }
        },
        "name": "move_to_magneteinheit_A"
    },
    "id": "TRRT_move_to_magneteinheit_A_30",
    "joint_names": [
        "shoulder_pan_joint",
        "shoulder_lift_joint",
        "elbow_joint",
        "wrist_1_joint",
        "wrist_2_joint",
        "wrist_3_joint"
    ],
    "metrics": {
        "cart_traj_len": 3.486870762175435,
        "distance_elbow_joint": 3.8757629423220252,
        "distance_shoulder_lift_joint": 0.11334986826820748,
        "distance_shoulder_pan_joint": 2.8044655378519097,
        "distance_wrist_1_joint": 1.1799903551896735,
        "distance_wrist_2_joint": 1.7031631881717668,
        "distance_wrist_3_joint": 2.576093026255377,
        "smoothness": 0.11715434305769087,
        "time": 0.107145138,
        "traj_len": 3.5004035364596118,
        "weighted_distance": 4.50423850544475
    },
    "planner": "TRRT",
    "start": {
        "state": {
            "elbow_joint": -1.9196185241190666,
            "shoulder_lift_joint": -1.2443396400964142,
            "shoulder_pan_joint": 2.6996025414629847,
            "wrist_1_joint": -1.5485510000780065,
            "wrist_2_joint": -1.5709468930060704,
            "wrist_3_joint": 0.4420197071253992
        }
    },
    "waypoints": [
        {
            "positions": [
                2.6996025414629847,
                -1.2443396400964142,
                -1.9196185241190666,
                -1.5485510000780065,
                -1.5709468930060704,
                0.4420197071253992
            ]
        },
        {
            "positions": [
                2.6039403532692256,
                -1.2428009377457707,
                -1.8049321781410717,
                -1.51246324139102,
                -1.5110798447675464,
                0.5180834501152124
            ]
        },
        {
            "positions": [
                2.5082781650754664,
                -1.2412622353951273,
                -1.6902458321630767,
                -1.4763754827040336,
                -1.4512127965290227,
                0.5941471931050257
            ]
        },
        {
            "positions": [
                2.4126159768817073,
                -1.2397235330444838,
                -1.5755594861850817,
                -1.4402877240170473,
                -1.3913457482904987,
                0.670210936094839
            ]
        },
        {
            "positions": [
                2.316953788687948,
                -1.2381848306938403,
                -1.4608731402070867,
                -1.4041999653300608,
                -1.331478700051975,
                0.7462746790846522
            ]
        },
        {
            "positions": [
                2.221291600494189,
                -1.2366461283431969,
                -1.3461867942290915,
                -1.3681122066430742,
                -1.271611651813451,
                0.8223384220744654
            ]
        },
        {
            "positions": [
                2.12562941230043,
                -1.2351074259925534,
                -1.2315004482510967,
                -1.3320244479560879,
                -1.2117446035749273,
                0.8984021650642786
            ]
        },
        {
            "positions": [
                2.0299672241066706,
                -1.23356872364191,
                -1.1168141022731015,
                -1.2959366892691015,
                -1.1518775553364033,
                0.974465908054092
            ]
        },
        {
            "positions": [
                1.9343050359129115,
                -1.2320300212912665,
                -1.0021277562951065,
                -1.259848930582115,
                -1.0920105070978794,
                1.050529651043905
            ]
        },
        {
            "positions": [
                1.838642847719152,
                -1.230491318940623,
                -0.8874414103171113,
                -1.2237611718951285,
                -1.0321434588593554,
                1.1265933940337185
            ]
        },
        {
            "positions": [
                1.742980659525393,
                -1.2289526165899796,
                -0.7727550643391163,
                -1.1876734132081421,
                -0.9722764106208317,
                1.2026571370235317
            ]
        },
        {
            "positions": [
                1.6473184713316338,
                -1.227413914239336,
                -0.6580687183611216,
                -1.1515856545211558,
                -0.9124093623823079,
                1.278720880013345
            ]
        },
        {
            "positions": [
                1.5516562831378746,
                -1.2258752118886926,
                -0.5433823723831266,
                -1.1154978958341693,
                -0.852542314143784,
                1.3547846230031582
            ]
        },
        {
            "positions": [
                1.4559940949441155,
                -1.2243365095380492,
                -0.4286960264051314,
                -1.0794101371471827,
                -0.79267526590526,
                1.4308483659929716
            ]
        },
        {
            "positions": [
                1.3603319067503563,
                -1.2227978071874057,
                -0.3140096804271364,
                -1.0433223784601964,
                -0.7328082176667362,
                1.5069121089827848
            ]
        },
        {
            "positions": [
                1.2646697185565972,
                -1.2212591048367625,
                -0.1993233344491414,
                -1.00723461977321,
                -0.6729411694282124,
                1.582975851972598
            ]
        },
        {
            "positions": [
                1.169007530362838,
                -1.219720402486119,
                -0.08463698847114642,
                -0.9711468610862235,
                -0.6130741211896885,
                1.6590395949624113
            ]
        },
        {
            "positions": [
                1.0733453421690788,
                -1.2181817001354756,
                0.030049357506848562,
                -0.9350591023992371,
                -0.5532070729511647,
                1.7351033379522245
            ]
        },
        {
            "positions": [
                0.9776831539753195,
                -1.216642997784832,
                0.144735703484844,
                -0.8989713437122506,
                -0.4933400247126407,
                1.8111670809420377
            ]
        },
        {
            "positions": [
                0.8820209657815603,
                -1.2151042954341886,
                0.259422049462839,
                -0.8628835850252642,
                -0.43347297647411676,
                1.887230823931851
            ]
        },
        {
            "positions": [
                0.7863587775878011,
                -1.2135655930835452,
                0.37410839544083396,
                -0.8267958263382778,
                -0.373605928235593,
                1.9632945669216642
            ]
        },
        {
            "positions": [
                0.690696589394042,
                -1.2120268907329017,
                0.4887947414188285,
                -0.7907080676512913,
                -0.31373887999706906,
                2.0393583099114774
            ]
        },
        {
            "positions": [
                0.5950344012002828,
                -1.2104881883822582,
                0.6034810873968235,
                -0.7546203089643049,
                -0.25387183175854533,
                2.1154220529012906
            ]
        },
        {
            "positions": [
                0.4993722130065237,
                -1.2089494860316148,
                0.7181674333748185,
                -0.7185325502773184,
                -0.19400478352002137,
                2.191485795891104
            ]
        },
        {
            "positions": [
                0.4037100248127645,
                -1.2074107836809713,
                0.8328537793528135,
                -0.682444791590332,
                -0.13413773528149764,
                2.267549538880917
            ]
        },
        {
            "positions": [
                0.30804783661900537,
                -1.2058720813303279,
                0.9475401253308089,
                -0.6463570329033456,
                -0.07427068704297346,
                2.3436132818707307
            ]
        },
        {
            "positions": [
                0.2123856484252462,
                -1.2043333789796844,
                1.0622264713088039,
                -0.6102692742163591,
                -0.014403638804449725,
                2.419677024860544
            ]
        },
        {
            "positions": [
                0.11672346023148705,
                -1.202794676629041,
                1.1769128172867989,
                -0.5741815155293727,
                0.04546340943407423,
                2.495740767850357
            ]
        },
        {
            "positions": [
                0.021061272037727806,
                -1.2012559742783975,
                1.2915991632647938,
                -0.5380937568423863,
                0.10533045767259788,
                2.5718045108401704
            ]
        },
        {
            "positions": [
                0.00888605733137101,
                -1.1986522598564917,
                1.4542905070857075,
                -0.5695807610984173,
                0.1312809873890794,
                2.686062089039269
            ]
        },
        {
            "positions": [
                0.04680240857146963,
                -1.1760980971803967,
                1.6215751441247912,
                -0.6155961303310914,
                0.13159275664795173,
                2.796745637153105
            ]
        },
        {
            "positions": [
                0.08471875981156826,
                -1.1535439345043017,
                1.788859781163875,
                -0.6616114995637656,
                0.13190452590682403,
                2.9074291852669405
            ]
        },
        {
            "positions": [
                0.12263511105166687,
                -1.1309897718282067,
                1.9561444182029586,
                -0.7076268687964398,
                0.13221629516569636,
                3.0181127333807765
            ]
        }
    ]
}