{
    "goal": {
        "global_pose": {
            "orientation": {
                "w": 0.005598929693374612,
                "x": 0.007748599140229565,
                "y": 0.7110244013736278,
                "z": -0.7031023480610252
            },
            "position": {
                "x": 0.1141497679147869,
                "y": -0.7141253447532654,
                "z": 0.3711530566215515
            }
        },
        "name": "move_to_auspresseinheit_B"
    },
    "id": "TRRT_move_to_auspresseinheit_B_63",
    "joint_names": [
        "shoulder_pan_joint",
        "shoulder_lift_joint",
        "elbow_joint",
        "wrist_1_joint",
        "wrist_2_joint",
        "wrist_3_joint"
    ],
    "metrics": {
        "cart_traj_len": 0.5637508026631348,
        "distance_elbow_joint": 0.06056064527080851,
        "distance_shoulder_lift_joint": 0.2946566625774256,
        "distance_shoulder_pan_joint": 0.5755675113369159,
        "distance_wrist_1_joint": 0.3177620749304233,
        "distance_wrist_2_joint": 0.9943628981190102,
        "distance_wrist_3_joint": 0.00499691643143052,
        "smoothness": 5.075305295617109e-16,
        "time": 0.022485016,
        "traj_len": 1.4993020738550369,
        "weighted_distance": 1.8894511146304653
    },
    "planner": "TRRT",
    "start": {
        "state": {
            "elbow_joint": 2.0193083361928714,
            "shoulder_lift_joint": -1.1220246554650708,
            "shoulder_pan_joint": -1.0952077554168747,
            "wrist_1_joint": -0.8559753972642168,
            "wrist_2_joint": 0.4759566250798843,
            "wrist_3_joint": -3.1240929996934557
        }
    },
    "waypoints": [
        {
            "positions": [
                -1.0952077554168747,
                -1.1220246554650708,
                2.0193083361928714,
                -0.8559753972642168,
                0.4759566250798843,
                -3.1240929996934557
            ]
        },
        {
            "positions": [
                -1.1911356739730272,
                -1.171134099227975,
                2.009214895314403,
                -0.8030150514424795,
                0.6416837747663859,
                -3.124925819098694
            ]
        },
        {
            "positions": [
                -1.28706359252918,
                -1.2202435429908793,
                1.9991214544359353,
                -0.7500547056207424,
                0.8074109244528878,
                -3.1257586385039327
            ]
        },
        {
            "positions": [
                -1.3829915110853326,
                -1.2693529867537836,
                1.9890280135574672,
                -0.6970943597990051,
                0.9731380741393894,
                -3.126591457909171
            ]
        },
        {
            "positions": [
                -1.4789194296414852,
                -1.3184624305166879,
                1.978934572678999,
                -0.644134013977268,
                1.1388652238258912,
                -3.127424277314409
            ]
        },
        {
            "positions": [
                -1.574847348197638,
                -1.3675718742795921,
                1.968841131800531,
                -0.5911736681555306,
                1.3045923735123928,
                -3.128257096719648
            ]
        },
        {
            "positions": [
                -1.6707752667537905,
                -1.4166813180424964,
                1.958747690922063,
                -0.5382133223337935,
                1.4703195231988946,
                -3.129089916124886
            ]
        }
    ]
}