{
    "goal": {
        "global_pose": {
            "orientation": {
                "w": -0.00223480608172531,
                "x": 0.0024358444001904467,
                "y": 0.7094548369677653,
                "z": -0.704743149386269
            },
            "position": {
                "x": 0.6205249238014221,
                "y": -0.6371506643295288,
                "z": 0.19426114857196808
            }
        },
        "name": "move_to_magneteinheit_B"
    },
    "id": "TRRT_move_to_magneteinheit_B_118",
    "joint_names": [
        "shoulder_pan_joint",
        "shoulder_lift_joint",
        "elbow_joint",
        "wrist_1_joint",
        "wrist_2_joint",
        "wrist_3_joint"
    ],
    "metrics": {
        "cart_traj_len": 1.469474091266014,
        "distance_elbow_joint": 0.9579030622167064,
        "distance_shoulder_lift_joint": 0.7579975541596955,
        "distance_shoulder_pan_joint": 1.6212452220307498,
        "distance_wrist_1_joint": 1.1948907762878638,
        "distance_wrist_2_joint": 2.360090177868983,
        "distance_wrist_3_joint": 0.53512122241122,
        "smoothness": 0.329706091563225,
        "time": 0.073037782,
        "traj_len": 2.7252977846421147,
        "weighted_distance": 3.4716669503214885
    },
    "planner": "TRRT",
    "start": {
        "state": {
            "elbow_joint": 2.6216224122426386,
            "shoulder_lift_joint": -1.4174107377796124,
            "shoulder_pan_joint": 0.7066234856936794,
            "wrist_1_joint": 1.9546482284002225,
            "wrist_2_joint": -0.7096286983471962,
            "wrist_3_joint": 0.005740856962016249
        }
    },
    "waypoints": [
        {
            "positions": [
                0.7066234856936794,
                -1.4174107377796124,
                2.6216224122426386,
                1.9546482284002225,
                -0.7096286983471962,
                0.005740856962016249
            ]
        },
        {
            "positions": [
                0.6298276517569792,
                -1.3631332751762593,
                2.5971356999255146,
                1.8701232851248684,
                -0.6397489011489454,
                -0.04006175802121739
            ]
        },
        {
            "positions": [
                0.5530318178202789,
                -1.3088558125729062,
                2.572648987608391,
                1.7855983418495143,
                -0.5698691039506947,
                -0.08586437300445103
            ]
        },
        {
            "positions": [
                0.4762359838835786,
                -1.254578349969553,
                2.548162275291267,
                1.7010733985741602,
                -0.4999893067524438,
                -0.13166698798768467
            ]
        },
        {
            "positions": [
                0.3994401499468784,
                -1.2003008873662,
                2.523675562974143,
                1.616548455298806,
                -0.430109509554193,
                -0.1774696029709183
            ]
        },
        {
            "positions": [
                0.32264431601017807,
                -1.146023424762847,
                2.4991888506570197,
                1.532023512023452,
                -0.36022971235594214,
                -0.22327221795415197
            ]
        },
        {
            "positions": [
                0.24584848207347781,
                -1.0917459621594938,
                2.4747021383398957,
                1.447498568748098,
                -0.2903499151576914,
                -0.2690748329373856
            ]
        },
        {
            "positions": [
                0.12569961638247762,
                -1.0477235382766459,
                2.380920860883078,
                1.4501004611579025,
                -0.35287073886867526,
                -0.26283735986630663
            ]
        },
        {
            "positions": [
                0.005550750691477424,
                -1.0037011143937977,
                2.28713958342626,
                1.4527023535677068,
                -0.4153915625796592,
                -0.25659988679522766
            ]
        },
        {
            "positions": [
                -0.11459811499952277,
                -0.9596786905109498,
                2.193358305969442,
                1.4553042459775114,
                -0.47791238629064314,
                -0.2503624137241487
            ]
        },
        {
            "positions": [
                -0.18732753512111802,
                -0.9323818262481286,
                2.1452093099745775,
                1.5171165586508137,
                -0.6372986520676001,
                -0.22839940342427767
            ]
        },
        {
            "positions": [
                -0.2600569552427133,
                -0.9050849619853074,
                2.0970603139797133,
                1.578928871324116,
                -0.796684917844557,
                -0.20643639312440665
            ]
        },
        {
            "positions": [
                -0.33278637536430855,
                -0.8777880977224862,
                2.0489113179848486,
                1.6407411839974184,
                -0.9560711836215139,
                -0.18447338282453563
            ]
        },
        {
            "positions": [
                -0.4055157954859038,
                -0.850491233459665,
                2.000762321989984,
                1.7025534966707208,
                -1.115457449398471,
                -0.1625103725246646
            ]
        },
        {
            "positions": [
                -0.47824521560749905,
                -0.823194369196844,
                1.9526133259951195,
                1.764365809344023,
                -1.274843715175428,
                -0.1405473622247936
            ]
        },
        {
            "positions": [
                -0.5509746357290943,
                -0.7958975049340228,
                1.9044643300002548,
                1.8261781220173254,
                -1.4342299809523846,
                -0.11858435192492259
            ]
        },
        {
            "positions": [
                -0.6237040558506896,
                -0.7686006406712016,
                1.8563153340053904,
                1.8879904346906278,
                -1.5936162467293418,
                -0.09662134162505157
            ]
        },
        {
            "positions": [
                -0.6964334759722848,
                -0.7413037764083804,
                1.8081663380105257,
                1.9498027473639301,
                -1.7530025125062987,
                -0.07465833132518054
            ]
        },
        {
            "positions": [
                -0.7691628960938801,
                -0.7140069121455592,
                1.7600173420156613,
                2.0116150600372324,
                -1.9123887782832556,
                -0.05269532102530952
            ]
        },
        {
            "positions": [
                -0.8418923162154753,
                -0.686710047882738,
                1.7118683460207968,
                2.073427372710535,
                -2.0717750440602125,
                -0.030732310725438527
            ]
        },
        {
            "positions": [
                -0.9146217363370706,
                -0.6594131836199169,
                1.6637193500259322,
                2.135239685383837,
                -2.2311613098371694,
                -0.008769300425567495
            ]
        }
    ]
}