{
    "goal": {
        "global_pose": {
            "orientation": {
                "w": 0.7047431493862688,
                "x": -0.7094548369677653,
                "y": 0.0024358444001904,
                "z": -0.0022348060817251984
            },
            "position": {
                "x": -0.39052492380142206,
                "y": 0.3671506643295288,
                "z": 0.19426114857196808
            }
        },
        "name": "move_to_magneteinheit_D"
    },
    "id": "TRRT_move_to_magneteinheit_D_73",
    "joint_names": [
        "shoulder_pan_joint",
        "shoulder_lift_joint",
        "elbow_joint",
        "wrist_1_joint",
        "wrist_2_joint",
        "wrist_3_joint"
    ],
    "metrics": {
        "cart_traj_len": 4.239357455887561,
        "distance_elbow_joint": 3.126478996346692,
        "distance_shoulder_lift_joint": 1.6328127436824424,
        "distance_shoulder_pan_joint": 3.659837683963796,
        "distance_wrist_1_joint": 3.4331500412607805,
        "distance_wrist_2_joint": 3.838077445045349,
        "distance_wrist_3_joint": 4.8072475065264,
        "smoothness": 0.5519521959196461,
        "time": 0.812117094,
        "traj_len": 4.527428013433837,
        "weighted_distance": 6.114190618240848
    },
    "planner": "TRRT",
    "start": {
        "state": {
            "elbow_joint": 0.749534889911806,
            "shoulder_lift_joint": -0.6476975780787326,
            "shoulder_pan_joint": -2.711696901376241,
            "wrist_1_joint": -0.07506478083263063,
            "wrist_2_joint": 0.43296659715538205,
            "wrist_3_joint": -3.14703540197715
        }
    },
    "waypoints": [
        {
            "positions": [
                -2.711696901376241,
                -0.6476975780787326,
                0.749534889911806,
                -0.07506478083263063,
                0.43296659715538205,
                -3.14703540197715
            ]
        },
        {
            "positions": [
                -2.7198358617908585,
                -0.6886829868356559,
                0.7075001137492143,
                -0.137396944897065,
                0.4107796385344895,
                -3.0206554491181348
            ]
        },
        {
            "positions": [
                -2.77243857808425,
                -0.7912957972331378,
                0.6767342893731445,
                -0.12732765226704515,
                0.46579006472200923,
                -2.9020977578974736
            ]
        },
        {
            "positions": [
                -2.825041294377641,
                -0.8939086076306197,
                0.6459684649970747,
                -0.11725835963702533,
                0.520800490909529,
                -2.783540066676813
            ]
        },
        {
            "positions": [
                -2.8776440106710326,
                -0.9965214180281017,
                0.6152026406210049,
                -0.10718906700700548,
                0.5758109170970487,
                -2.6649823754561517
            ]
        },
        {
            "positions": [
                -2.7866722126059638,
                -1.0061503191298362,
                0.5648346108766266,
                -0.03415677246787087,
                0.5163005803564982,
                -2.5622393659747775
            ]
        },
        {
            "positions": [
                -2.6957004145408954,
                -1.0157792202315707,
                0.5144665811322482,
                0.03887552207126374,
                0.45679024361594767,
                -2.459496356493403
            ]
        },
        {
            "positions": [
                -2.6047286164758265,
                -1.0254081213333055,
                0.4640985513878697,
                0.11190781661039836,
                0.39727990687539716,
                -2.3567533470120288
            ]
        },
        {
            "positions": [
                -2.5137568184107577,
                -1.03503702243504,
                0.41373052164349133,
                0.18494011114953296,
                0.33776957013484665,
                -2.2540103375306546
            ]
        },
        {
            "positions": [
                -2.422785020345689,
                -1.0446659235367746,
                0.3633624918991129,
                0.2579724056886676,
                0.27825923339429615,
                -2.15126732804928
            ]
        },
        {
            "positions": [
                -2.33181322228062,
                -1.054294824638509,
                0.31299446215473453,
                0.3310047002278022,
                0.21874889665374564,
                -2.048524318567906
            ]
        },
        {
            "positions": [
                -2.2408414242155517,
                -1.0639237257402436,
                0.26262643241035616,
                0.4040369947669368,
                0.15923855991319513,
                -1.9457813090865315
            ]
        },
        {
            "positions": [
                -2.149869626150483,
                -1.0735526268419782,
                0.21225840266597773,
                0.4770692893060714,
                0.09972822317264463,
                -1.843038299605157
            ]
        },
        {
            "positions": [
                -2.058897828085414,
                -1.083181527943713,
                0.16189037292159936,
                0.550101583845206,
                0.04021788643209412,
                -1.740295290123783
            ]
        },
        {
            "positions": [
                -1.9679260300203454,
                -1.0928104290454475,
                0.11152234317722087,
                0.6231338783843406,
                -0.019292450308456388,
                -1.6375522806424085
            ]
        },
        {
            "positions": [
                -1.8769542319552768,
                -1.102439330147182,
                0.0611543134328425,
                0.6961661729234753,
                -0.0788027870490069,
                -1.5348092711610342
            ]
        },
        {
            "positions": [
                -1.785982433890208,
                -1.1120682312489165,
                0.010786283688464127,
                0.7691984674626099,
                -0.1383131237895574,
                -1.4320662616796598
            ]
        },
        {
            "positions": [
                -1.6950106358251393,
                -1.121697132350651,
                -0.039581746055914246,
                0.8422307620017444,
                -0.1978234605301079,
                -1.3293232521982856
            ]
        },
        {
            "positions": [
                -1.6040388377600707,
                -1.1313260334523858,
                -0.08994977580029262,
                0.915263056540879,
                -0.2573337972706584,
                -1.2265802427169112
            ]
        },
        {
            "positions": [
                -1.513067039695002,
                -1.1409549345541203,
                -0.140317805544671,
                0.9882953510800137,
                -0.3168441340112089,
                -1.123837233235537
            ]
        },
        {
            "positions": [
                -1.4220952416299333,
                -1.1505838356558549,
                -0.19068583528904948,
                1.0613276456191483,
                -0.37635447075175943,
                -1.0210942237541627
            ]
        },
        {
            "positions": [
                -1.3311234435648645,
                -1.1602127367575894,
                -0.24105386503342785,
                1.134359940158283,
                -0.43586480749230994,
                -0.9183512142727883
            ]
        },
        {
            "positions": [
                -1.2401516454997956,
                -1.169841637859324,
                -0.2914218947778062,
                1.2073922346974175,
                -0.49537514423286044,
                -0.8156082047914139
            ]
        },
        {
            "positions": [
                -1.149179847434727,
                -1.1794705389610585,
                -0.3417899245221847,
                1.2804245292365521,
                -0.554885480973411,
                -0.7128651953100396
            ]
        },
        {
            "positions": [
                -1.0582080493696582,
                -1.189099440062793,
                -0.3921579542665632,
                1.3534568237756868,
                -0.6143958177139615,
                -0.6101221858286654
            ]
        },
        {
            "positions": [
                -0.9672362513045896,
                -1.1987283411645278,
                -0.44252598401094145,
                1.4264891183148214,
                -0.673906154454512,
                -0.5073791763472908
            ]
        },
        {
            "positions": [
                -0.876264453239521,
                -1.2083572422662623,
                -0.49289401375531994,
                1.499521412853956,
                -0.7334164911950625,
                -0.40463616686591664
            ]
        },
        {
            "positions": [
                -0.7852926551744521,
                -1.2179861433679968,
                -0.5432620434996984,
                1.5725537073930906,
                -0.792926827935613,
                -0.3018931573845425
            ]
        },
        {
            "positions": [
                -0.6943208571093833,
                -1.2276150444697314,
                -0.5936300732440767,
                1.6455860019322253,
                -0.8524371646761635,
                -0.19915014790316787
            ]
        },
        {
            "positions": [
                -0.6033490590443145,
                -1.2372439455714659,
                -0.6439981029884552,
                1.7186182964713599,
                -0.911947501416714,
                -0.09640713842179371
            ]
        },
        {
            "positions": [
                -0.5123772609792461,
                -1.2468728466732006,
                -0.6943661327328334,
                1.7916505910104943,
                -0.9714578381572645,
                0.006335871059580445
            ]
        },
        {
            "positions": [
                -0.42140546291417724,
                -1.2565017477749352,
                -0.7447341624772117,
                1.864682885549629,
                -1.030968174897815,
                0.1090788805409546
            ]
        },
        {
            "positions": [
                -0.33043366484910885,
                -1.2661306488766697,
                -0.7951021922215902,
                1.9377151800887635,
                -1.0904785116383655,
                0.2118218900223292
            ]
        },
        {
            "positions": [
                -0.23946186678404002,
                -1.2757595499784042,
                -0.8454702219659687,
                2.010747474627898,
                -1.149988848378916,
                0.31456489950370337
            ]
        },
        {
            "positions": [
                -0.1484900687189712,
                -1.2853884510801388,
                -0.8958382517103469,
                2.083779769167033,
                -1.2094991851194665,
                0.4173079089850775
            ]
        },
        {
            "positions": [
                -0.05751827065390236,
                -1.2950173521818735,
                -0.9462062814547254,
                2.156812063706167,
                -1.269009521860017,
                0.5200509184664521
            ]
        },
        {
            "positions": [
                0.03345352741116603,
                -1.304646253283608,
                -0.9965743111991039,
                2.229844358245302,
                -1.3285198586005675,
                0.6227939279478263
            ]
        },
        {
            "positions": [
                0.12442532547623486,
                -1.3142751543853426,
                -1.0469423409434822,
                2.3028766527844367,
                -1.388030195341118,
                0.7255369374292009
            ]
        },
        {
            "positions": [
                0.2153971235413037,
                -1.3239040554870771,
                -1.0973103706878606,
                2.3759089473235715,
                -1.4475405320816688,
                0.8282799469105748
            ]
        },
        {
            "positions": [
                0.19034403351276202,
                -1.3836919471292082,
                -1.1772874791720496,
                2.3223144482625897,
                -1.34582129716397,
                0.7762841870581574
            ]
        },
        {
            "positions": [
                0.16529094348422038,
                -1.4434798387713395,
                -1.2572645876562385,
                2.268719949201608,
                -1.2441020622462715,
                0.7242884272057399
            ]
        },
        {
            "positions": [
                0.14023785345567874,
                -1.5032677304134705,
                -1.3372416961404274,
                2.215125450140626,
                -1.1423828273285728,
                0.6722926673533225
            ]
        },
        {
            "positions": [
                0.11518476342713707,
                -1.5630556220556016,
                -1.4172188046246164,
                2.1615309510796443,
                -1.040663592410874,
                0.620296907500905
            ]
        },
        {
            "positions": [
                0.0901316733985954,
                -1.6228435136977328,
                -1.4971959131088055,
                2.107936452018662,
                -0.9389443574931754,
                0.5683011476484876
            ]
        },
        {
            "positions": [
                0.06507858337005376,
                -1.6826314053398639,
                -1.5771730215929944,
                2.0543419529576807,
                -0.8372251225754768,
                0.5163053877960702
            ]
        },
        {
            "positions": [
                0.04002549334151212,
                -1.742419296981995,
                -1.6571501300771834,
                2.0007474538966985,
                -0.735505887657778,
                0.46430962794365266
            ]
        },
        {
            "positions": [
                0.01497240331297045,
                -1.8022071886241262,
                -1.7371272385613723,
                1.9471529548357167,
                -0.6337866527400794,
                0.4123138680912352
            ]
        },
        {
            "positions": [
                -0.010080686715571219,
                -1.8619950802662573,
                -1.8171043470455612,
                1.893558455774735,
                -0.5320674178223808,
                0.36031810823881777
            ]
        },
        {
            "positions": [
                -0.03513377674411289,
                -1.9217829719083883,
                -1.8970814555297502,
                1.8399639567137531,
                -0.430348182904682,
                0.30832234838640027
            ]
        },
        {
            "positions": [
                -0.0601868667726545,
                -1.9815708635505196,
                -1.977058564013939,
                1.7863694576527713,
                -0.3286289479869833,
                0.2563265885339828
            ]
        },
        {
            "positions": [
                -0.08523995680119617,
                -2.0413587551926504,
                -2.0570356724981282,
                1.7327749585917895,
                -0.22690971306928476,
                0.20433082868156538
            ]
        },
        {
            "positions": [
                -0.11029304682973784,
                -2.1011466468347817,
                -2.1370127809823174,
                1.6791804595308077,
                -0.12519047815158602,
                0.15233506882914793
            ]
        },
        {
            "positions": [
                -0.13534613685827945,
                -2.160934538476913,
                -2.216989889466506,
                1.625585960469826,
                -0.023471243233887273,
                0.10033930897673049
            ]
        },
        {
            "positions": [
                -0.16039922688682112,
                -2.220722430119044,
                -2.296966997950695,
                1.571991461408844,
                0.07824799168381125,
                0.048343549124313046
            ]
        },
        {
            "positions": [
                -0.1854523169153628,
                -2.280510321761175,
                -2.376944106434884,
                1.5183969623478621,
                0.17996722660151002,
                -0.0036522107281044486
            ]
        }
    ]
}