{
    "goal": {
        "global_pose": {
            "orientation": {
                "w": -0.4816463035849501,
                "x": 0.5182115481033762,
                "y": 0.4908360881923453,
                "z": -0.5084816262002911
            },
            "position": {
                "x": -0.8240239810943604,
                "y": 0.19912469901144506,
                "z": 0.16403168439865112
            }
        },
        "name": "move_to_storage_D"
    },
    "id": "TRRT_move_to_storage_D_16",
    "joint_names": [
        "shoulder_pan_joint",
        "shoulder_lift_joint",
        "elbow_joint",
        "wrist_1_joint",
        "wrist_2_joint",
        "wrist_3_joint"
    ],
    "metrics": {
        "cart_traj_len": 1.4145333217894134,
        "distance_elbow_joint": 0.5570452992677994,
        "distance_shoulder_lift_joint": 1.099345601853397,
        "distance_shoulder_pan_joint": 0.6713511203717268,
        "distance_wrist_1_joint": 3.8288494924839918,
        "distance_wrist_2_joint": 1.7889910686699422,
        "distance_wrist_3_joint": 3.1493633957696465,
        "smoothness": 0.06312909054284431,
        "time": 0.073690359,
        "traj_len": 3.330907680860655,
        "weighted_distance": 4.797031720877998
    },
    "planner": "TRRT",
    "start": {
        "state": {
            "elbow_joint": -2.384821988534728,
            "shoulder_lift_joint": -2.2788054721415256,
            "shoulder_pan_joint": -0.1854694642142757,
            "wrist_1_joint": 1.4845938289331202,
            "wrist_2_joint": 0.17898776772866878,
            "wrist_3_joint": 0.037105688729662994
        }
    },
    "waypoints": [
        {
            "positions": [
                -0.1854694642142757,
                -2.2788054721415256,
                -2.384821988534728,
                1.4845938289331202,
                0.17898776772866878,
                0.037105688729662994
            ]
        },
        {
            "positions": [
                -0.26257158222524446,
                -2.2710194466452522,
                -2.378372187616371,
                1.458592974838126,
                0.08850065599768898,
                0.064758864364787
            ]
        },
        {
            "positions": [
                -0.33967370023621324,
                -2.2632334211489793,
                -2.371922386698014,
                1.432592120743132,
                -0.001986455733290815,
                0.09241203999991103
            ]
        },
        {
            "positions": [
                -0.38344465742557843,
                -2.1747250922332553,
                -2.341677659829293,
                1.3544943214497018,
                -0.10748949355341444,
                0.1394096069915387
            ]
        },
        {
            "positions": [
                -0.3990113875950265,
                -2.0788889327352176,
                -2.310515179124925,
                1.278097532381992,
                -0.18659115698416506,
                0.18023679264485376
            ]
        },
        {
            "positions": [
                -0.4145781177644746,
                -1.98305277323718,
                -2.279352698420557,
                1.2017007433142826,
                -0.2656928204149157,
                0.22106397829816882
            ]
        },
        {
            "positions": [
                -0.43014484793392277,
                -1.8872166137391426,
                -2.2481902177161888,
                1.125303954246573,
                -0.3447944838456663,
                0.2618911639514839
            ]
        },
        {
            "positions": [
                -0.44571157810337086,
                -1.791380454241105,
                -2.2170277370118208,
                1.0489071651788633,
                -0.4238961472764169,
                0.30271834960479893
            ]
        },
        {
            "positions": [
                -0.41658324114853623,
                -1.7453786967814886,
                -2.185382669536201,
                0.9408060498134643,
                -0.4761577405635969,
                0.38480564547149554
            ]
        },
        {
            "positions": [
                -0.38745490419370165,
                -1.6993769393218723,
                -2.1537376020605805,
                0.8327049344480653,
                -0.5284193338507769,
                0.4668929413381922
            ]
        },
        {
            "positions": [
                -0.358326567238867,
                -1.653375181862256,
                -2.1220925345849606,
                0.7246038190826662,
                -0.5806809271379569,
                0.5489802372048889
            ]
        },
        {
            "positions": [
                -0.3365691497436613,
                -1.6595432000195893,
                -2.100221505029574,
                0.5889111937768571,
                -0.634607575943523,
                0.6662427670614031
            ]
        },
        {
            "positions": [
                -0.31481173224845554,
                -1.6657112181769227,
                -2.0783504754741875,
                0.45321856847104786,
                -0.6885342247490891,
                0.7835052969179173
            ]
        },
        {
            "positions": [
                -0.29305431475324983,
                -1.6718792363342558,
                -2.0564794459188005,
                0.3175259431652387,
                -0.7424608735546551,
                0.9007678267744315
            ]
        },
        {
            "positions": [
                -0.27129689725804407,
                -1.6780472544915892,
                -2.034608416363414,
                0.18183331785942947,
                -0.7963875223602211,
                1.0180303566309457
            ]
        },
        {
            "positions": [
                -0.24953947976283836,
                -1.6842152726489226,
                -2.0127373868080274,
                0.0461406925536203,
                -0.8503141711657872,
                1.1352928864874599
            ]
        },
        {
            "positions": [
                -0.22778206226763262,
                -1.690383290806256,
                -1.9908663572526408,
                -0.08955193275218887,
                -0.9042408199713532,
                1.252555416343974
            ]
        },
        {
            "positions": [
                -0.2060246447724269,
                -1.6965513089635893,
                -1.968995327697254,
                -0.22524455805799803,
                -0.9581674687769193,
                1.3698179462004882
            ]
        },
        {
            "positions": [
                -0.18426722727722114,
                -1.7027193271209224,
                -1.9471242981418675,
                -0.3609371833638073,
                -1.0120941175824854,
                1.4870804760570024
            ]
        },
        {
            "positions": [
                -0.16250980978201543,
                -1.7088873452782558,
                -1.9252532685864807,
                -0.4966298086696166,
                -1.0660207663880514,
                1.6043430059135166
            ]
        },
        {
            "positions": [
                -0.1407523922868097,
                -1.7150553634355892,
                -1.9033822390310942,
                -0.6323224339754256,
                -1.1199474151936175,
                1.7216055357700308
            ]
        },
        {
            "positions": [
                -0.13110240858989416,
                -1.7525312843447522,
                -1.8965090072343518,
                -0.7879527275731935,
                -1.1644979502615862,
                1.8547749492908743
            ]
        },
        {
            "positions": [
                -0.12145242489297864,
                -1.7900072052539153,
                -1.8896357754376094,
                -0.9435830211709613,
                -1.209048485329555,
                1.987944362811718
            ]
        },
        {
            "positions": [
                -0.11180244119606311,
                -1.8274831261630784,
                -1.8827625436408673,
                -1.099213314768729,
                -1.2535990203975236,
                2.121113776332561
            ]
        },
        {
            "positions": [
                -0.10215245749914759,
                -1.8649590470722415,
                -1.8758893118441249,
                -1.2548436083664969,
                -1.2981495554654923,
                2.254283189853405
            ]
        },
        {
            "positions": [
                -0.09250247380223206,
                -1.9024349679814045,
                -1.8690160800473825,
                -1.4104739019642647,
                -1.342700090533461,
                2.3874526033742485
            ]
        },
        {
            "positions": [
                -0.08285249010531653,
                -1.9399108888905676,
                -1.8621428482506401,
                -1.5661041955620325,
                -1.3872506256014296,
                2.520622016895092
            ]
        },
        {
            "positions": [
                -0.073202506408401,
                -1.977386809799731,
                -1.8552696164538978,
                -1.7217344891598003,
                -1.4318011606693983,
                2.6537914304159353
            ]
        },
        {
            "positions": [
                -0.06355252271148547,
                -2.0148627307088938,
                -1.8483963846571554,
                -1.8773647827575681,
                -1.4763516957373672,
                2.786960843936779
            ]
        },
        {
            "positions": [
                -0.05390253901456994,
                -2.052338651618057,
                -1.8415231528604132,
                -2.032995076355336,
                -1.520902230805336,
                2.9201302574576227
            ]
        },
        {
            "positions": [
                -0.044252555317654416,
                -2.08981457252722,
                -1.8346499210636709,
                -2.1886253699531037,
                -1.5654527658733046,
                3.0532996709784657
            ]
        },
        {
            "positions": [
                -0.03460257162073889,
                -2.127290493436383,
                -1.8277766892669285,
                -2.3442556635508716,
                -1.6100033009412733,
                3.1864690844993095
            ]
        }
    ]
}