{
    "goal": {
        "global_pose": {
            "orientation": {
                "w": 0.5084816262002911,
                "x": -0.4908360881923452,
                "y": 0.5182115481033761,
                "z": -0.48164630358495003
            },
            "position": {
                "x": 0.5540239810943604,
                "y": -0.46912469901144505,
                "z": 0.16403168439865112
            }
        },
        "name": "move_to_storage_B"
    },
    "id": "TRRT_move_to_storage_B_118",
    "joint_names": [
        "shoulder_pan_joint",
        "shoulder_lift_joint",
        "elbow_joint",
        "wrist_1_joint",
        "wrist_2_joint",
        "wrist_3_joint"
    ],
    "metrics": {
        "cart_traj_len": 0.8299164593348491,
        "distance_elbow_joint": 0.3496966374927952,
        "distance_shoulder_lift_joint": 0.45937093305015764,
        "distance_shoulder_pan_joint": 0.591320312916069,
        "distance_wrist_1_joint": 3.0903856872891855,
        "distance_wrist_2_joint": 2.708860975810042,
        "distance_wrist_3_joint": 3.12825329454785,
        "smoothness": 0.13634857748711648,
        "time": 0.06947318999999999,
        "traj_len": 3.2137031351862757,
        "weighted_distance": 4.731135285880233
    },
    "planner": "TRRT",
    "start": {
        "state": {
            "elbow_joint": 1.664937868594044,
            "shoulder_lift_joint": -0.661644460510453,
            "shoulder_pan_joint": -0.9139846352900073,
            "wrist_1_joint": 2.146753192139373,
            "wrist_2_joint": -2.2341966793290973,
            "wrist_3_joint": 0.005466555786416001
        }
    },
    "waypoints": [
        {
            "positions": [
                -0.9139846352900073,
                -0.661644460510453,
                1.664937868594044,
                2.146753192139373,
                -2.2341966793290973,
                0.005466555786416001
            ]
        },
        {
            "positions": [
                -0.8115402416380467,
                -0.737664307626866,
                1.682302021421132,
                2.1749951312642213,
                -2.1186264651207303,
                0.029702799141237454
            ]
        },
        {
            "positions": [
                -0.7090958479860862,
                -0.8136841547432789,
                1.69966617424822,
                2.2032370703890694,
                -2.0030562509123637,
                0.05393904249605891
            ]
        },
        {
            "positions": [
                -0.7245531090105721,
                -0.8259774042959722,
                1.7122649075217646,
                2.08188099802749,
                -1.9039474290166314,
                0.1771302748095872
            ]
        },
        {
            "positions": [
                -0.740010370035058,
                -0.8382706538486655,
                1.7248636407953095,
                1.96052492566591,
                -1.804838607120899,
                0.3003215071231155
            ]
        },
        {
            "positions": [
                -0.755467631059544,
                -0.8505639034013588,
                1.7374623740688542,
                1.8391688533043307,
                -1.7057297852251667,
                0.4235127394366438
            ]
        },
        {
            "positions": [
                -0.7709248920840298,
                -0.862857152954052,
                1.750061107342399,
                1.717812780942751,
                -1.6066209633294344,
                0.546703971750172
            ]
        },
        {
            "positions": [
                -0.7863821531085158,
                -0.8751504025067453,
                1.7626598406159437,
                1.5964567085811714,
                -1.507512141433702,
                0.6698952040637005
            ]
        },
        {
            "positions": [
                -0.8018394141330016,
                -0.8874436520594385,
                1.7752585738894886,
                1.475100636219592,
                -1.4084033195379697,
                0.7930864363772288
            ]
        },
        {
            "positions": [
                -0.8172966751574876,
                -0.8997369016121318,
                1.7878573071630333,
                1.3537445638580121,
                -1.3092944976422372,
                0.916277668690757
            ]
        },
        {
            "positions": [
                -0.8327539361819735,
                -0.9120301511648251,
                1.8004560404365781,
                1.2323884914964327,
                -1.210185675746505,
                1.0394689010042852
            ]
        },
        {
            "positions": [
                -0.8482111972064594,
                -0.9243234007175183,
                1.8130547737101228,
                1.1110324191348533,
                -1.1110768538507727,
                1.1626601333178135
            ]
        },
        {
            "positions": [
                -0.8636684582309453,
                -0.9366166502702116,
                1.8256535069836677,
                0.9896763467732734,
                -1.0119680319550404,
                1.285851365631342
            ]
        },
        {
            "positions": [
                -0.8791257192554313,
                -0.9489098998229049,
                1.8382522402572123,
                0.868320274411694,
                -0.912859210059308,
                1.4090425979448702
            ]
        },
        {
            "positions": [
                -0.8945829802799171,
                -0.9612031493755981,
                1.8508509735307572,
                0.7469642020501146,
                -0.8137503881635757,
                1.5322338302583984
            ]
        },
        {
            "positions": [
                -0.9100402413044031,
                -0.9734963989282914,
                1.8634497068043019,
                0.6256081296885347,
                -0.7146415662678431,
                1.6554250625719267
            ]
        },
        {
            "positions": [
                -0.9254975023288889,
                -0.9857896484809847,
                1.8760484400778468,
                0.5042520573269551,
                -0.6155327443721108,
                1.7786162948854551
            ]
        },
        {
            "positions": [
                -0.9409547633533749,
                -0.998082898033678,
                1.8886471733513914,
                0.3828959849653759,
                -0.5164239224763787,
                1.9018075271989832
            ]
        },
        {
            "positions": [
                -0.9564120243778608,
                -1.0103761475863713,
                1.9012459066249363,
                0.26153991260379605,
                -0.41731510058064614,
                2.0249987595125116
            ]
        },
        {
            "positions": [
                -0.9718692854023467,
                -1.0226693971390646,
                1.913844639898481,
                0.14018384024221664,
                -0.3182062786849138,
                2.14818999182604
            ]
        },
        {
            "positions": [
                -0.9873265464268326,
                -1.0349626466917576,
                1.9264433731720259,
                0.018827767880637225,
                -0.2190974567891817,
                2.271381224139568
            ]
        },
        {
            "positions": [
                -1.0027838074513187,
                -1.047255896244451,
                1.9390421064455705,
                -0.10252830448094263,
                -0.11998863489344913,
                2.3945724564530964
            ]
        },
        {
            "positions": [
                -1.0182410684758045,
                -1.0595491457971442,
                1.9516408397191154,
                -0.2238843768425225,
                -0.020879812997716796,
                2.517763688766625
            ]
        },
        {
            "positions": [
                -1.0336983295002904,
                -1.0718423953498375,
                1.96423957299266,
                -0.34524044920410146,
                0.07822900889801554,
                2.640954921080153
            ]
        },
        {
            "positions": [
                -1.0491555905247762,
                -1.0841356449025308,
                1.9768383062662047,
                -0.4665965215656813,
                0.17733783079374765,
                2.7641461533936815
            ]
        },
        {
            "positions": [
                -1.064612851549262,
                -1.096428894455224,
                1.9894370395397496,
                -0.5879525939272612,
                0.2764466526894802,
                2.8873373857072098
            ]
        },
        {
            "positions": [
                -1.0800701125737482,
                -1.1087221440079174,
                2.0020357728132945,
                -0.7093086662888402,
                0.3755554745852123,
                3.010528618020738
            ]
        },
        {
            "positions": [
                -1.095527373598234,
                -1.1210153935606106,
                2.014634506086839,
                -0.83066473865042,
                0.4746642964809447,
                3.1337198503342663
            ]
        }
    ]
}