{
    "goal": {
        "global_pose": {
            "orientation": {
                "w": 0.7047431468963623,
                "x": -0.7094548344612122,
                "y": 0.0024358443915843964,
                "z": -0.0022348060738295317
            },
            "position": {
                "x": 0.6094750761985779,
                "y": 0.3671506643295288,
                "z": 0.19426114857196808
            }
        },
        "name": "move_to_magneteinheit_A"
    },
    "id": "TRRT_move_to_magneteinheit_A_65",
    "joint_names": [
        "shoulder_pan_joint",
        "shoulder_lift_joint",
        "elbow_joint",
        "wrist_1_joint",
        "wrist_2_joint",
        "wrist_3_joint"
    ],
    "metrics": {
        "cart_traj_len": 4.013166998683593,
        "distance_elbow_joint": 3.88542158514808,
        "distance_shoulder_lift_joint": 0.2142330717066494,
        "distance_shoulder_pan_joint": 3.806694547950649,
        "distance_wrist_1_joint": 1.5628686135961551,
        "distance_wrist_2_joint": 1.6952724756115005,
        "distance_wrist_3_joint": 3.6457186453786505,
        "smoothness": 0.23259233972671897,
        "time": 0.086888331,
        "traj_len": 3.848403427317838,
        "weighted_distance": 5.035850208192916
    },
    "planner": "TRRT",
    "start": {
        "state": {
            "elbow_joint": -1.9196185241190666,
            "shoulder_lift_joint": -1.2443396400964142,
            "shoulder_pan_joint": 2.6996025414629847,
            "wrist_1_joint": -1.5485510000780065,
            "wrist_2_joint": -1.5709468930060704,
            "wrist_3_joint": 0.4420197071253992
        }
    },
    "waypoints": [
        {
            "positions": [
                2.6996025414629847,
                -1.2443396400964142,
                -1.9196185241190666,
                -1.5485510000780065,
                -1.5709468930060704,
                0.4420197071253992
            ]
        },
        {
            "positions": [
                2.5998504614744644,
                -1.2459856360448105,
                -1.7999779049904117,
                -1.5606928845526493,
                -1.525650410755362,
                0.33414370090974055
            ]
        },
        {
            "positions": [
                2.5000983814859437,
                -1.2476316319932066,
                -1.6803372858617567,
                -1.5728347690272921,
                -1.4803539285046532,
                0.22626769469408198
            ]
        },
        {
            "positions": [
                2.4003463014974233,
                -1.249277627941603,
                -1.5606966667331017,
                -1.584976653501935,
                -1.4350574462539447,
                0.1183916884784234
            ]
        },
        {
            "positions": [
                2.3005942215089026,
                -1.2509236238899992,
                -1.4410560476044467,
                -1.5971185379765778,
                -1.389760964003236,
                0.01051568226276478
            ]
        },
        {
            "positions": [
                2.2008421415203823,
                -1.2525696198383953,
                -1.3214154284757917,
                -1.6092604224512206,
                -1.3444644817525275,
                -0.09736032395289385
            ]
        },
        {
            "positions": [
                2.1010900615318615,
                -1.2542156157867916,
                -1.2017748093471368,
                -1.6214023069258634,
                -1.2991679995018188,
                -0.20523633016855236
            ]
        },
        {
            "positions": [
                2.001337981543341,
                -1.255861611735188,
                -1.0821341902184818,
                -1.6335441914005062,
                -1.2538715172511103,
                -0.313112336384211
            ]
        },
        {
            "positions": [
                1.9015859015548207,
                -1.2575076076835843,
                -0.9624935710898268,
                -1.645686075875149,
                -1.2085750350004016,
                -0.4209883425998696
            ]
        },
        {
            "positions": [
                1.8018338215663001,
                -1.2591536036319804,
                -0.8428529519611718,
                -1.6578279603497919,
                -1.1632785527496932,
                -0.5288643488155282
            ]
        },
        {
            "positions": [
                1.7020817415777796,
                -1.2607995995803767,
                -0.7232123328325168,
                -1.6699698448244347,
                -1.1179820704989845,
                -0.6367403550311869
            ]
        },
        {
            "positions": [
                1.602329661589259,
                -1.262445595528773,
                -0.6035717137038619,
                -1.6821117292990775,
                -1.072685588248276,
                -0.7446163612468454
            ]
        },
        {
            "positions": [
                1.5025775816007387,
                -1.264091591477169,
                -0.4839310945752069,
                -1.6942536137737203,
                -1.0273891059975675,
                -0.8524923674625039
            ]
        },
        {
            "positions": [
                1.4028255016122182,
                -1.2657375874255654,
                -0.3642904754465519,
                -1.7063954982483631,
                -0.9820926237468588,
                -0.9603683736781626
            ]
        },
        {
            "positions": [
                1.3030734216236977,
                -1.2673835833739617,
                -0.24464985631789693,
                -1.7185373827230057,
                -0.9367961414961502,
                -1.0682443798938213
            ]
        },
        {
            "positions": [
                1.2033213416351771,
                -1.2690295793223578,
                -0.12500923718924195,
                -1.7306792671976488,
                -0.8914996592454416,
                -1.17612038610948
            ]
        },
        {
            "positions": [
                1.1035692616466566,
                -1.2706755752707541,
                -0.0053686180605869716,
                -1.7428211516722913,
                -0.846203176994733,
                -1.2839963923251383
            ]
        },
        {
            "positions": [
                1.003817181658136,
                -1.2723215712191505,
                0.11427200106806801,
                -1.7549630361469344,
                -0.8009066947440244,
                -1.391872398540797
            ]
        },
        {
            "positions": [
                0.9040651016696155,
                -1.2739675671675466,
                0.233912620196723,
                -1.767104920621577,
                -0.7556102124933158,
                -1.4997484047564558
            ]
        },
        {
            "positions": [
                0.804313021681095,
                -1.2756135631159429,
                0.35355323932537797,
                -1.7792468050962198,
                -0.7103137302426072,
                -1.607624410972114
            ]
        },
        {
            "positions": [
                0.7045609416925744,
                -1.2772595590643392,
                0.47319385845403295,
                -1.7913886895708626,
                -0.6650172479918987,
                -1.7155004171877728
            ]
        },
        {
            "positions": [
                0.6048088617040541,
                -1.2789055550127353,
                0.5928344775826879,
                -1.8035305740455054,
                -0.6197207657411901,
                -1.823376423403431
            ]
        },
        {
            "positions": [
                0.5050567817155334,
                -1.2805515509611316,
                0.7124750967113429,
                -1.8156724585201482,
                -0.5744242834904815,
                -1.9312524296190898
            ]
        },
        {
            "positions": [
                0.40530470172701305,
                -1.282197546909528,
                0.8321157158399979,
                -1.827814342994791,
                -0.5291278012397729,
                -2.0391284358347486
            ]
        },
        {
            "positions": [
                0.30555262173849274,
                -1.283843542857924,
                0.9517563349686529,
                -1.8399562274694339,
                -0.4838313189890644,
                -2.147004442050407
            ]
        },
        {
            "positions": [
                0.20580054174997198,
                -1.2854895388063203,
                1.0713969540973078,
                -1.8520981119440767,
                -0.4385348367383557,
                -2.2548804482660656
            ]
        },
        {
            "positions": [
                0.10604846176145166,
                -1.2871355347547166,
                1.1910375732259628,
                -1.8642399964187195,
                -0.3932383544876472,
                -2.3627564544817243
            ]
        },
        {
            "positions": [
                0.0062963817729309035,
                -1.288781530703113,
                1.3106781923546178,
                -1.8763818808933623,
                -0.3479418722369385,
                -2.470632460697383
            ]
        },
        {
            "positions": [
                -0.09345569821558941,
                -1.290427526651509,
                1.4303188114832728,
                -1.8885237653680051,
                -0.30264538998623003,
                -2.5785084669130414
            ]
        },
        {
            "positions": [
                -0.19320777820411017,
                -1.2920735225999054,
                1.5499594306119278,
                -1.900665649842648,
                -0.2573489077355213,
                -2.6863844731287
            ]
        },
        {
            "positions": [
                -0.2929598581926305,
                -1.2937195185483017,
                1.6696000497405827,
                -1.9128075343172908,
                -0.21205242548481285,
                -2.794260479344359
            ]
        },
        {
            "positions": [
                -0.39271193818115124,
                -1.2953655144966978,
                1.7892406688692377,
                -1.9249494187919336,
                -0.16675594323410414,
                -2.902136485560017
            ]
        },
        {
            "positions": [
                -0.49246401816967134,
                -1.297011510445094,
                1.9088812879978927,
                -1.9370913032665764,
                -0.12145946098339566,
                -3.010012491775676
            ]
        },
        {
            "positions": [
                -0.4046600198385294,
                -1.273931338822527,
                1.9170129698594813,
                -1.7693301160654928,
                -0.08634731189927772,
                -3.037681984129615
            ]
        },
        {
            "positions": [
                -0.31685602150738745,
                -1.25085116719996,
                1.92514465172107,
                -1.6015689288644093,
                -0.05123516281515979,
                -3.0653514764835545
            ]
        },
        {
            "positions": [
                -0.22905202317624557,
                -1.227770995577393,
                1.9332763335826586,
                -1.4338077416633257,
                -0.016123013731041844,
                -3.093020968837494
            ]
        },
        {
            "positions": [
                -0.14124802484510363,
                -1.2046908239548257,
                1.9414080154442472,
                -1.266046554462242,
                0.018989135353076086,
                -3.1206904611914332
            ]
        },
        {
            "positions": [
                -0.053444026513961684,
                -1.1816106523322587,
                1.9495396973058359,
                -1.098285367261158,
                0.05410128443719403,
                -3.1483599535453726
            ]
        },
        {
            "positions": [
                0.0343599718171802,
                -1.1585304807096917,
                1.9576713791674245,
                -0.9305241800600748,
                0.08921343352131197,
                -3.176029445899312
            ]
        },
        {
            "positions": [
                0.1221639701483221,
                -1.1354503090871246,
                1.9658030610290131,
                -0.7627629928589911,
                0.12432558260542993,
                -3.2036989382532512
            ]
        }
    ]
}