{
    "goal": {
        "global_pose": {
            "orientation": {
                "w": -0.4816463035849501,
                "x": 0.5182115481033762,
                "y": 0.4908360881923453,
                "z": -0.5084816262002911
            },
            "position": {
                "x": -0.8240239810943604,
                "y": -0.300875300988555,
                "z": 0.16403168439865112
            }
        },
        "name": "move_to_storage_C"
    },
    "id": "TRRT_move_to_storage_C_20",
    "joint_names": [
        "shoulder_pan_joint",
        "shoulder_lift_joint",
        "elbow_joint",
        "wrist_1_joint",
        "wrist_2_joint",
        "wrist_3_joint"
    ],
    "metrics": {
        "cart_traj_len": 0.5772388485741821,
        "distance_elbow_joint": 0.2604373415225085,
        "distance_shoulder_lift_joint": 0.1896300231660364,
        "distance_shoulder_pan_joint": 0.49659387953625167,
        "distance_wrist_1_joint": 0.08804369840639648,
        "distance_wrist_2_joint": 1.0571330213201433,
        "distance_wrist_3_joint": 0.07214514454754495,
        "smoothness": 2.5376526478085547e-16,
        "time": 0.021574264,
        "traj_len": 1.4710483025716325,
        "weighted_distance": 1.8583460703863828
    },
    "planner": "TRRT",
    "start": {
        "state": {
            "elbow_joint": 2.010868314990456,
            "shoulder_lift_joint": -1.1634956873337592,
            "shoulder_pan_joint": -2.4736205022346125,
            "wrist_1_joint": -0.8367026794202681,
            "wrist_2_joint": 0.6746043897044499,
            "wrist_3_joint": -3.1496632123970403
        }
    },
    "waypoints": [
        {
            "positions": [
                -2.4736205022346125,
                -1.1634956873337592,
                2.010868314990456,
                -0.8367026794202681,
                0.6746043897044499,
                -3.1496632123970403
            ]
        },
        {
            "positions": [
                -2.5563861488239876,
                -1.1318906834727531,
                1.9674620914033711,
                -0.8220287296858687,
                0.8507932265911404,
                -3.1376390216391163
            ]
        },
        {
            "positions": [
                -2.639151795413363,
                -1.100285679611747,
                1.9240558678162862,
                -0.8073547799514693,
                1.026982063477831,
                -3.125614830881192
            ]
        },
        {
            "positions": [
                -2.7219174420027383,
                -1.068680675750741,
                1.8806496442292016,
                -0.7926808302170698,
                1.2031709003645217,
                -3.1135906401232676
            ]
        },
        {
            "positions": [
                -2.8046830885921135,
                -1.037075671889735,
                1.8372434206421169,
                -0.7780068804826704,
                1.379359737251212,
                -3.1015664493653436
            ]
        },
        {
            "positions": [
                -2.887448735181489,
                -1.0054706680287289,
                1.793837197055032,
                -0.763332930748271,
                1.5555485741379027,
                -3.0895422586074197
            ]
        },
        {
            "positions": [
                -2.970214381770864,
                -0.9738656641677228,
                1.7504309734679473,
                -0.7486589810138716,
                1.731737411024593,
                -3.0775180678494953
            ]
        }
    ]
}