{
    "goal": {
        "global_pose": {
            "orientation": {
                "w": 0.5084816217422485,
                "x": -0.49083608388900757,
                "y": 0.5182115435600281,
                "z": -0.4816462993621826
            },
            "position": {
                "x": 0.5540239810943604,
                "y": 0.030875300988554955,
                "z": 0.16403168439865112
            }
        },
        "name": "move_to_storage_A"
    },
    "id": "TRRT_move_to_storage_A_65",
    "joint_names": [
        "shoulder_pan_joint",
        "shoulder_lift_joint",
        "elbow_joint",
        "wrist_1_joint",
        "wrist_2_joint",
        "wrist_3_joint"
    ],
    "metrics": {
        "cart_traj_len": 0.3532963224709978,
        "distance_elbow_joint": 0.4504853351264091,
        "distance_shoulder_lift_joint": 0.23383738437583812,
        "distance_shoulder_pan_joint": 0.46148768488670755,
        "distance_wrist_1_joint": 0.25053790844297563,
        "distance_wrist_2_joint": 1.1006790675506164,
        "distance_wrist_3_joint": 0.0945990951417115,
        "smoothness": 1.1102230298998083e-15,
        "time": 0.022654667,
        "traj_len": 1.609852935992682,
        "weighted_distance": 2.0327423943533214
    },
    "planner": "TRRT",
    "start": {
        "state": {
            "elbow_joint": 1.971548259319323,
            "shoulder_lift_joint": -1.1394851275133948,
            "shoulder_pan_joint": 0.1228115487234821,
            "wrist_1_joint": -0.7804723859257726,
            "wrist_2_joint": 0.12958671773740124,
            "wrist_3_joint": -3.192489227718131
        }
    },
    "waypoints": [
        {
            "positions": [
                0.1228115487234821,
                -1.1394851275133948,
                1.971548259319323,
                -0.7804723859257726,
                0.12958671773740124,
                -3.192489227718131
            ]
        },
        {
            "positions": [
                0.05688473659680959,
                -1.1728904681385146,
                2.0359033071945243,
                -0.8162635157033405,
                0.28682658453034643,
                -3.1789750712693152
            ]
        },
        {
            "positions": [
                -0.009042075529862914,
                -1.2062958087636342,
                2.100258355069726,
                -0.8520546454809085,
                0.4440664513232916,
                -3.1654609148204993
            ]
        },
        {
            "positions": [
                -0.07496888765653542,
                -1.239701149388754,
                2.164613402944927,
                -0.8878457752584764,
                0.6013063181162368,
                -3.1519467583716834
            ]
        },
        {
            "positions": [
                -0.14089569978320793,
                -1.2731064900138738,
                2.228968450820128,
                -0.9236369050360445,
                0.758546184909182,
                -3.1384326019228674
            ]
        },
        {
            "positions": [
                -0.20682251190988044,
                -1.3065118306389936,
                2.2933234986953295,
                -0.9594280348136124,
                0.9157860517021272,
                -3.1249184454740515
            ]
        },
        {
            "positions": [
                -0.27274932403655294,
                -1.3399171712641131,
                2.357678546570531,
                -0.9952191645911803,
                1.0730259184950723,
                -3.1114042890252356
            ]
        },
        {
            "positions": [
                -0.33867613616322545,
                -1.373322511889233,
                2.422033594445732,
                -1.0310102943687482,
                1.2302657852880177,
                -3.0978901325764197
            ]
        }
    ]
}{
    "goal": {
        "global_pose": {
            "orientation": {
                "w": 0.5084816217422485,
                "x": -0.49083608388900757,
                "y": 0.5182115435600281,
                "z": -0.4816462993621826
            },
            "position": {
                "x": 0.5540239810943604,
                "y": 0.030875300988554955,
                "z": 0.16403168439865112
            }
        },
        "name": "move_to_storage_A"
    },
    "id": "TRRT_move_to_storage_A_65",
    "joint_names": [
        "shoulder_pan_joint",
        "shoulder_lift_joint",
        "elbow_joint",
        "wrist_1_joint",
        "wrist_2_joint",
        "wrist_3_joint"
    ],
    "metrics": {
        "cart_traj_len": 0.3528250900427975,
        "distance_elbow_joint": 0.448307516618176,
        "distance_shoulder_lift_joint": 0.23435269488124444,
        "distance_shoulder_pan_joint": 0.4624620018611348,
        "distance_wrist_1_joint": 0.23562059568080151,
        "distance_wrist_2_joint": 1.0934502085756617,
        "distance_wrist_3_joint": 0.08661281528318598,
        "smoothness": 2.2204460668324854e-16,
        "time": 0.019994002,
        "traj_len": 1.6002518029673343,
        "weighted_distance": 2.015713835772092
    },
    "planner": "TRRT",
    "start": {
        "state": {
            "elbow_joint": 1.97154746011099,
            "shoulder_lift_joint": -1.13948474672311,
            "shoulder_pan_joint": 0.12281154466712228,
            "wrist_1_joint": -0.7804688027058302,
            "wrist_2_joint": 0.12958655903071145,
            "wrist_3_joint": 3.0906928834467795
        }
    },
    "waypoints": [
        {
            "positions": [
                0.12281154466712228,
                -1.13948474672311,
                1.97154746011099,
                -0.7804688027058302,
                0.12958655903071145,
                3.0906928834467795
            ]
        },
        {
            "positions": [
                0.05674554440124589,
                -1.1729637031347162,
                2.035591391056444,
                -0.8141288878030876,
                0.2857937316843774,
                3.103066142772949
            ]
        },
        {
            "positions": [
                -0.009320455864630497,
                -1.2064426595463227,
                2.0996353220018973,
                -0.8477889729003449,
                0.4420009043380433,
                3.1154394020991183
            ]
        },
        {
            "positions": [
                -0.07538645613050689,
                -1.239921615957929,
                2.163679252947351,
                -0.8814490579976022,
                0.5982080769917093,
                3.127812661425288
            ]
        },
        {
            "positions": [
                -0.14145245639638326,
                -1.2734005723695354,
                2.2277231838928047,
                -0.9151091430948596,
                0.7544152496453752,
                3.140185920751457
            ]
        },
        {
            "positions": [
                -0.2075184566622597,
                -1.3068795287811417,
                2.2917671148382586,
                -0.948769228192117,
                0.9106224222990412,
                3.1525591800776267
            ]
        },
        {
            "positions": [
                -0.27358445692813604,
                -1.340358485192748,
                2.355811045783712,
                -0.9824293132893743,
                1.0668295949527071,
                3.164932439403796
            ]
        },
        {
            "positions": [
                -0.3396504571940125,
                -1.3738374416043544,
                2.419854976729166,
                -1.0160893983866317,
                1.2230367676063731,
                3.1773056987299655
            ]
        }
    ]
}{
    "goal": {
        "global_pose": {
            "orientation": {
                "w": 0.5084816217422485,
                "x": -0.49083608388900757,
                "y": 0.5182115435600281,
                "z": -0.4816462993621826
            },
            "position": {
                "x": 0.5540239810943604,
                "y": 0.030875300988554955,
                "z": 0.16403168439865112
            }
        },
        "name": "move_to_storage_A"
    },
    "id": "TRRT_move_to_storage_A_65",
    "joint_names": [
        "shoulder_pan_joint",
        "shoulder_lift_joint",
        "elbow_joint",
        "wrist_1_joint",
        "wrist_2_joint",
        "wrist_3_joint"
    ],
    "metrics": {
        "cart_traj_len": 0.3537052812047299,
        "distance_elbow_joint": 0.44920398054283606,
        "distance_shoulder_lift_joint": 0.23589033366631829,
        "distance_shoulder_pan_joint": 0.46446259498495995,
        "distance_wrist_1_joint": 0.2348183111708666,
        "distance_wrist_2_joint": 1.0925140699056506,
        "distance_wrist_3_joint": 0.08782988127350677,
        "smoothness": 7.771561092534257e-16,
        "time": 0.022775293999999998,
        "traj_len": 1.6014740620890926,
        "weighted_distance": 2.0168567909417043
    },
    "planner": "TRRT",
    "start": {
        "state": {
            "elbow_joint": 1.9715472970024885,
            "shoulder_lift_joint": -1.1394870060712896,
            "shoulder_pan_joint": 0.12281152778156021,
            "wrist_1_joint": -0.780463741449964,
            "wrist_2_joint": 0.12958659822042276,
            "wrist_3_joint": 3.090690232415272
        }
    },
    "waypoints": [
        {
            "positions": [
                0.12281152778156021,
                -1.1394870060712896,
                1.9715472970024885,
                -0.780463741449964,
                0.12958659822042276,
                3.090690232415272
            ]
        },
        {
            "positions": [
                0.05645972849799451,
                -1.1731856251664778,
                2.035719294222894,
                -0.8140092144743735,
                0.2856600367783728,
                3.103237358311487
            ]
        },
        {
            "positions": [
                -0.009892070785571194,
                -1.2068842442616663,
                2.099891291443299,
                -0.847554687498783,
                0.4417334753363229,
                3.1157844842077025
            ]
        },
        {
            "positions": [
                -0.07624387006913688,
                -1.2405828633568545,
                2.164063288663704,
                -0.8811001605231925,
                0.597806913894273,
                3.128331610103918
            ]
        },
        {
            "positions": [
                -0.1425956693527026,
                -1.274281482452043,
                2.228235285884109,
                -0.9146456335476021,
                0.7538803524522231,
                3.1408787360001327
            ]
        },
        {
            "positions": [
                -0.2089474686362683,
                -1.3079801015472312,
                2.2924072831045144,
                -0.9481911065720116,
                0.9099537910101732,
                3.153425861896348
            ]
        },
        {
            "positions": [
                -0.27529926791983395,
                -1.3416787206424194,
                2.3565792803249193,
                -0.981736579596421,
                1.0660272295681232,
                3.1659729877925633
            ]
        },
        {
            "positions": [
                -0.3416510672033997,
                -1.375377339737608,
                2.4207512775453246,
                -1.0152820526208306,
                1.2221006681260733,
                3.1785201136887786
            ]
        }
    ]
}