{
    "goal": {
        "global_pose": {
            "orientation": {
                "w": 0.7031023480610252,
                "x": -0.7110244013736278,
                "y": 0.0077485991402295624,
                "z": 0.005598929693374583
            },
            "position": {
                "x": -0.8841497679147869,
                "y": 0.44412534475326537,
                "z": 0.3711530566215515
            }
        },
        "name": "move_to_auspresseinheit_D"
    },
    "id": "TRRT_move_to_auspresseinheit_D_104",
    "joint_names": [
        "shoulder_pan_joint",
        "shoulder_lift_joint",
        "elbow_joint",
        "wrist_1_joint",
        "wrist_2_joint",
        "wrist_3_joint"
    ],
    "metrics": {
        "cart_traj_len": 0.3424691012225811,
        "distance_elbow_joint": 0.6344764172998856,
        "distance_shoulder_lift_joint": 0.11908690803502431,
        "distance_shoulder_pan_joint": 0.13331375194085598,
        "distance_wrist_1_joint": 0.5244939499593393,
        "distance_wrist_2_joint": 1.4397421966246262,
        "distance_wrist_3_joint": 0.01419574235955201,
        "smoothness": 3.947459674368863e-16,
        "time": 0.025809971,
        "traj_len": 1.6927223535533769,
        "weighted_distance": 2.2040727296353797
    },
    "planner": "TRRT",
    "start": {
        "state": {
            "elbow_joint": -1.8275523626775212,
            "shoulder_lift_joint": -2.126789852344167,
            "shoulder_pan_joint": -0.03513704404078235,
            "wrist_1_joint": -2.347782403156801,
            "wrist_2_joint": -1.6058999987535132,
            "wrist_3_joint": -3.0880379163319196
        }
    },
    "waypoints": [
        {
            "positions": [
                -0.03513704404078235,
                -2.126789852344167,
                -1.8275523626775212,
                -2.347782403156801,
                -1.6058999987535132,
                -3.0880379163319196
            ]
        },
        {
            "positions": [
                -0.05180126303338935,
                -2.141675715848545,
                -1.7482428105150354,
                -2.4133441469017183,
                -1.4259322241754349,
                -3.0898123841268634
            ]
        },
        {
            "positions": [
                -0.06846548202599634,
                -2.156561579352923,
                -1.6689332583525498,
                -2.4789058906466357,
                -1.2459644495973565,
                -3.0915868519218077
            ]
        },
        {
            "positions": [
                -0.08512970101860334,
                -2.1714474428573007,
                -1.5896237061900642,
                -2.544467634391553,
                -1.0659966750192784,
                -3.0933613197167515
            ]
        },
        {
            "positions": [
                -0.10179392001121035,
                -2.186333306361679,
                -1.5103141540275784,
                -2.6100293781364705,
                -0.8860289004412001,
                -3.095135787511696
            ]
        },
        {
            "positions": [
                -0.11845813900381735,
                -2.2012191698660573,
                -1.4310046018650926,
                -2.675591121881388,
                -0.7060611258631218,
                -3.0969102553066397
            ]
        },
        {
            "positions": [
                -0.13512235799642433,
                -2.216105033370435,
                -1.351695049702607,
                -2.7411528656263053,
                -0.5260933512850436,
                -3.0986847231015835
            ]
        },
        {
            "positions": [
                -0.15178657698903134,
                -2.230990896874813,
                -1.2723854975401214,
                -2.8067146093712227,
                -0.3461255767069653,
                -3.1004591908965278
            ]
        },
        {
            "positions": [
                -0.16845079598163834,
                -2.245876760379191,
                -1.1930759453776356,
                -2.87227635311614,
                -0.16615780212888692,
                -3.1022336586914716
            ]
        }
    ]
}