{
    "goal": {
        "global_pose": {
            "orientation": {
                "w": 0.7031023480610252,
                "x": -0.7110244013736278,
                "y": 0.0077485991402295624,
                "z": 0.005598929693374583
            },
            "position": {
                "x": -0.8841497679147869,
                "y": 0.44412534475326537,
                "z": 0.3711530566215515
            }
        },
        "name": "move_to_auspresseinheit_D"
    },
    "id": "TRRT_move_to_auspresseinheit_D_117",
    "joint_names": [
        "shoulder_pan_joint",
        "shoulder_lift_joint",
        "elbow_joint",
        "wrist_1_joint",
        "wrist_2_joint",
        "wrist_3_joint"
    ],
    "metrics": {
        "cart_traj_len": 0.3418803789094407,
        "distance_elbow_joint": 0.62741904324635,
        "distance_shoulder_lift_joint": 0.11619479959312606,
        "distance_shoulder_pan_joint": 0.1339075723347154,
        "distance_wrist_1_joint": 0.5033918397160377,
        "distance_wrist_2_joint": 1.4330692168546126,
        "distance_wrist_3_joint": 0.030675070191830134,
        "smoothness": 3.947459674368863e-16,
        "time": 0.024615089,
        "traj_len": 1.6866112598748628,
        "weighted_distance": 2.2005610054917772
    },
    "planner": "TRRT",
    "start": {
        "state": {
            "elbow_joint": -1.8275523626775212,
            "shoulder_lift_joint": -2.126789852344167,
            "shoulder_pan_joint": -0.03513704404078235,
            "wrist_1_joint": -2.347782403156801,
            "wrist_2_joint": -1.6058999987535132,
            "wrist_3_joint": -3.0880379163319196
        }
    },
    "waypoints": [
        {
            "positions": [
                -0.03513704404078235,
                -2.126789852344167,
                -1.8275523626775212,
                -2.347782403156801,
                -1.6058999987535132,
                -3.0880379163319196
            ]
        },
        {
            "positions": [
                -0.051875490582621774,
                -2.141314202293308,
                -1.7491249822717274,
                -2.4107063831213056,
                -1.4267663466466867,
                -3.0918723001058983
            ]
        },
        {
            "positions": [
                -0.0686139371244612,
                -2.1558385522424484,
                -1.6706976018659336,
                -2.4736303630858103,
                -1.2476326945398601,
                -3.095706683879877
            ]
        },
        {
            "positions": [
                -0.08535238366630063,
                -2.170362902191589,
                -1.5922702214601399,
                -2.536554343050315,
                -1.0684990424330334,
                -3.0995410676538557
            ]
        },
        {
            "positions": [
                -0.10209083020814005,
                -2.18488725214073,
                -1.513842841054346,
                -2.5994783230148197,
                -0.8893653903262069,
                -3.1033754514278344
            ]
        },
        {
            "positions": [
                -0.11882927674997948,
                -2.199411602089871,
                -1.4354154606485525,
                -2.6624023029793245,
                -0.7102317382193803,
                -3.1072098352018136
            ]
        },
        {
            "positions": [
                -0.1355677232918189,
                -2.2139359520390114,
                -1.3569880802427587,
                -2.725326282943829,
                -0.5310980861125536,
                -3.1110442189757923
            ]
        },
        {
            "positions": [
                -0.15230616983365833,
                -2.228460301988152,
                -1.278560699836965,
                -2.788250262908334,
                -0.3519644340057271,
                -3.114878602749771
            ]
        },
        {
            "positions": [
                -0.16904461637549775,
                -2.242984651937293,
                -1.2001333194311712,
                -2.8511742428728386,
                -0.17283078189890053,
                -3.1187129865237497
            ]
        }
    ]
}