{
    "goal": {
        "global_pose": {
            "orientation": {
                "w": -0.00223480608172531,
                "x": 0.0024358444001904467,
                "y": 0.7094548369677653,
                "z": -0.704743149386269
            },
            "position": {
                "x": 0.6205249238014221,
                "y": -0.6371506643295288,
                "z": 0.19426114857196808
            }
        },
        "name": "move_to_magneteinheit_B"
    },
    "id": "TRRT_move_to_magneteinheit_B_79",
    "joint_names": [
        "shoulder_pan_joint",
        "shoulder_lift_joint",
        "elbow_joint",
        "wrist_1_joint",
        "wrist_2_joint",
        "wrist_3_joint"
    ],
    "metrics": {
        "cart_traj_len": 3.2409845071807104,
        "distance_elbow_joint": 4.9675512938529955,
        "distance_shoulder_lift_joint": 1.0593510700788729,
        "distance_shoulder_pan_joint": 2.7521668128781243,
        "distance_wrist_1_joint": 2.379160476898252,
        "distance_wrist_2_joint": 1.778520817960231,
        "distance_wrist_3_joint": 1.4683963507068474,
        "smoothness": 0.3447273568017239,
        "time": 0.261874838,
        "traj_len": 3.795411285009217,
        "weighted_distance": 4.636768359390783
    },
    "planner": "TRRT",
    "start": {
        "state": {
            "elbow_joint": 2.6216224122426386,
            "shoulder_lift_joint": -1.4174107377796124,
            "shoulder_pan_joint": 0.7066234856936794,
            "wrist_1_joint": 1.9546482284002225,
            "wrist_2_joint": -0.7096286983471962,
            "wrist_3_joint": 0.005740856962016249
        }
    },
    "waypoints": [
        {
            "positions": [
                0.7066234856936794,
                -1.4174107377796124,
                2.6216224122426386,
                1.9546482284002225,
                -0.7096286983471962,
                0.005740856962016249
            ]
        },
        {
            "positions": [
                0.6302544986304321,
                -1.4182679069149686,
                2.580690749126614,
                1.9021644631745742,
                -0.7305685913232463,
                -0.058706551024985426
            ]
        },
        {
            "positions": [
                0.5538855115671848,
                -1.419125076050325,
                2.5397590860105885,
                1.8496806979489258,
                -0.7515084842992963,
                -0.1231539590119871
            ]
        },
        {
            "positions": [
                0.5186965238871248,
                -1.488877465675173,
                2.452823502615882,
                1.7864568201935056,
                -0.7882029636628746,
                -0.20859446040234592
            ]
        },
        {
            "positions": [
                0.483507536207065,
                -1.5586298553000213,
                2.3658879192211755,
                1.7232329424380854,
                -0.8248974430264528,
                -0.2940349617927047
            ]
        },
        {
            "positions": [
                0.4483185485270051,
                -1.6283822449248695,
                2.2789523358264687,
                1.6600090646826655,
                -0.861591922390031,
                -0.3794754631830636
            ]
        },
        {
            "positions": [
                0.4131295608469452,
                -1.6981346345497175,
                2.192016752431762,
                1.5967851869272454,
                -0.8982864017536093,
                -0.4649159645734224
            ]
        },
        {
            "positions": [
                0.37794057316688523,
                -1.7678870241745657,
                2.1050811690370552,
                1.5335613091718252,
                -0.9349808811171876,
                -0.5503564659637812
            ]
        },
        {
            "positions": [
                0.3427515854868254,
                -1.8376394137994139,
                2.018145585642349,
                1.470337431416405,
                -0.9716753604807659,
                -0.63579696735414
            ]
        },
        {
            "positions": [
                0.3075625978067654,
                -1.907391803424262,
                1.9312100022476422,
                1.407113553660985,
                -1.0083698398443441,
                -0.7212374687444989
            ]
        },
        {
            "positions": [
                0.3994130816275827,
                -1.907491824443385,
                1.7469710882532945,
                1.3531437992043438,
                -0.9625395185198952,
                -0.7109494545554302
            ]
        },
        {
            "positions": [
                0.49126356544839994,
                -1.9075918454625078,
                1.5627321742589468,
                1.299174044747703,
                -0.9167091971954461,
                -0.7006614403663617
            ]
        },
        {
            "positions": [
                0.5831140492692172,
                -1.907691866481631,
                1.3784932602645994,
                1.2452042902910618,
                -0.8708788758709971,
                -0.690373426177293
            ]
        },
        {
            "positions": [
                0.6749645330900345,
                -1.9077918875007538,
                1.1942543462702515,
                1.191234535834421,
                -0.825048554546548,
                -0.6800854119882244
            ]
        },
        {
            "positions": [
                0.7668150169108516,
                -1.9078919085198767,
                1.010015432275904,
                1.1372647813777799,
                -0.779218233222099,
                -0.6697973977991557
            ]
        },
        {
            "positions": [
                0.8586655007316689,
                -1.9079919295389995,
                0.8257765182815564,
                1.083295026921139,
                -0.7333879118976501,
                -0.6595093836100872
            ]
        },
        {
            "positions": [
                0.9505159845524862,
                -1.9080919505581224,
                0.6415376042872087,
                1.029325272464498,
                -0.687557590573201,
                -0.6492213694210185
            ]
        },
        {
            "positions": [
                1.0423664683733036,
                -1.9081919715772455,
                0.4572986902928611,
                0.9753555180078569,
                -0.6417272692487519,
                -0.6389333552319498
            ]
        },
        {
            "positions": [
                1.1342169521941208,
                -1.9082919925963684,
                0.2730597762985134,
                0.9213857635512159,
                -0.5958969479243029,
                -0.6286453410428813
            ]
        },
        {
            "positions": [
                1.226067436014938,
                -1.9083920136154913,
                0.08882086230416575,
                0.867416009094575,
                -0.550066626599854,
                -0.6183573268538126
            ]
        },
        {
            "positions": [
                1.3179179198357551,
                -1.9084920346346141,
                -0.09541805169018192,
                0.8134462546379339,
                -0.5042363052754049,
                -0.608069312664744
            ]
        },
        {
            "positions": [
                1.4097684036565723,
                -1.908592055653737,
                -0.27965696568452936,
                0.759476500181293,
                -0.4584059839509559,
                -0.5977812984756754
            ]
        },
        {
            "positions": [
                1.50161888747739,
                -1.90869207667286,
                -0.46389587967887724,
                0.7055067457246519,
                -0.4125756626265068,
                -0.5874932842866067
            ]
        },
        {
            "positions": [
                1.593469371298207,
                -1.908792097691983,
                -0.6481347936732247,
                0.6515369912680109,
                -0.3667453413020578,
                -0.5772052700975381
            ]
        },
        {
            "positions": [
                1.6853198551190243,
                -1.9088921187111059,
                -0.8323737076675726,
                0.5975672368113699,
                -0.32091501997760874,
                -0.5669172559084694
            ]
        },
        {
            "positions": [
                1.7771703389398414,
                -1.9089921397302287,
                -1.01661262166192,
                0.5435974823547289,
                -0.27508469865315976,
                -0.5566292417194009
            ]
        },
        {
            "positions": [
                1.869020822760659,
                -1.9090921607493516,
                -1.200851535656268,
                0.48962772789808784,
                -0.22925437732871068,
                -0.5463412275303322
            ]
        },
        {
            "positions": [
                1.9608713065814758,
                -1.9091921817684745,
                -1.3850904496506153,
                0.43565797344144697,
                -0.1834240560042617,
                -0.5360532133412635
            ]
        },
        {
            "positions": [
                2.0527217904022934,
                -1.9092922027875976,
                -1.5693293636449632,
                0.38168821898480587,
                -0.13759373467981262,
                -0.525765199152195
            ]
        },
        {
            "positions": [
                2.1445722742231106,
                -1.9093922238067205,
                -1.7535682776393107,
                0.327718464528165,
                -0.09176341335536364,
                -0.5154771849631263
            ]
        },
        {
            "positions": [
                2.2364227580439278,
                -1.9094922448258433,
                -1.9378071916336583,
                0.27374871007152385,
                -0.045933092030914516,
                -0.5051891707740577
            ]
        },
        {
            "positions": [
                2.30704102658915,
                -1.9704909012145262,
                -1.961229052438873,
                0.3638442201530274,
                -0.010730988037226337,
                -0.47171361679456336
            ]
        },
        {
            "positions": [
                2.377659295134372,
                -2.031489557603209,
                -1.9846509132440873,
                0.45393973023453105,
                0.024471115956461842,
                -0.4382380628150691
            ]
        },
        {
            "positions": [
                2.448277563679594,
                -2.092488213991892,
                -2.008072774049302,
                0.5440352403160347,
                0.05967321995015003,
                -0.4047625088355748
            ]
        },
        {
            "positions": [
                2.483784354790082,
                -2.1355910507323603,
                -1.9911603972076635,
                0.6379568918965198,
                0.10590113249727226,
                -0.3627499955426056
            ]
        },
        {
            "positions": [
                2.5192911459005707,
                -2.178693887472828,
                -1.9742480203660253,
                0.731878543477005,
                0.1521290450443945,
                -0.3207374822496364
            ]
        },
        {
            "positions": [
                2.5547979370110587,
                -2.2217967242132963,
                -1.957335643524387,
                0.8258001950574901,
                0.19835695759151672,
                -0.2787249689566672
            ]
        },
        {
            "positions": [
                2.581265583457788,
                -2.2855379951245935,
                -1.8855558992653518,
                0.8623525634533871,
                0.2666201773483221,
                -0.203998587653542
            ]
        },
        {
            "positions": [
                2.6077332299045173,
                -2.3492792660358908,
                -1.813776155006317,
                0.8989049318492841,
                0.3348833971051275,
                -0.12927220635041678
            ]
        },
        {
            "positions": [
                2.634200876351246,
                -2.413020536947188,
                -1.7419964107472818,
                0.935457300245181,
                0.4031466168619328,
                -0.05454582504729155
            ]
        },
        {
            "positions": [
                2.6606685227979754,
                -2.476761807858485,
                -1.6702166664882467,
                0.972009668641078,
                0.4714098366187382,
                0.020180556255833634
            ]
        }
    ]
}