{
    "goal": {
        "global_pose": {
            "orientation": {
                "w": -0.4816463035849501,
                "x": 0.5182115481033762,
                "y": 0.4908360881923453,
                "z": -0.5084816262002911
            },
            "position": {
                "x": -0.8240239810943604,
                "y": -0.300875300988555,
                "z": 0.16403168439865112
            }
        },
        "name": "move_to_storage_C"
    },
    "id": "BKPIECE_move_to_storage_C_56",
    "joint_names": [
        "shoulder_pan_joint",
        "shoulder_lift_joint",
        "elbow_joint",
        "wrist_1_joint",
        "wrist_2_joint",
        "wrist_3_joint"
    ],
    "metrics": {
        "cart_traj_len": 0.5766480367399318,
        "distance_elbow_joint": 0.2606562827829846,
        "distance_shoulder_lift_joint": 0.188993758199007,
        "distance_shoulder_pan_joint": 0.4947500931480513,
        "distance_wrist_1_joint": 0.08983035240731208,
        "distance_wrist_2_joint": 1.067797446780483,
        "distance_wrist_3_joint": 0.06680978441513163,
        "smoothness": 0.0,
        "time": 1.017475288,
        "traj_len": 1.4726974291187478,
        "weighted_distance": 1.8601303948247898
    },
    "planner": "BKPIECE",
    "start": {
        "state": {
            "elbow_joint": 2.010868315001653,
            "shoulder_lift_joint": -1.1634956873357014,
            "shoulder_pan_joint": -2.4736205022346103,
            "wrist_1_joint": -0.8367026794713948,
            "wrist_2_joint": 0.6746043897044093,
            "wrist_3_joint": 3.1335220948105738
        }
    },
    "waypoints": [
        {
            "positions": [
                -2.4736205022346103,
                -1.1634956873357014,
                2.010868315001653,
                -0.8367026794713948,
                0.6746043897044093,
                3.1335220948105738
            ]
        },
        {
            "positions": [
                -2.556078851092619,
                -1.131996727635867,
                1.967425601204489,
                -0.821730954070176,
                0.8525706308344898,
                3.1446570588797624
            ]
        },
        {
            "positions": [
                -2.6385371999506275,
                -1.1004977679360324,
                1.9239828874073248,
                -0.8067592286689574,
                1.0305368719645702,
                3.155792022948951
            ]
        },
        {
            "positions": [
                -2.720995548808636,
                -1.0689988082361979,
                1.8805401736101608,
                -0.7917875032677387,
                1.2085031130946509,
                3.1669269870181394
            ]
        },
        {
            "positions": [
                -2.8034538976666443,
                -1.0374998485363633,
                1.8370974598129968,
                -0.77681577786652,
                1.3864693542247313,
                3.178061951087328
            ]
        },
        {
            "positions": [
                -2.885912246524653,
                -1.0060008888365288,
                1.7936547460158325,
                -0.7618440524653014,
                1.5644355953548117,
                3.1891969151565167
            ]
        },
        {
            "positions": [
                -2.9683705953826616,
                -0.9745019291366944,
                1.7502120322186685,
                -0.7468723270640827,
                1.7424018364848923,
                3.2003318792257054
            ]
        }
    ]
}