{
    "goal": {
        "global_pose": {
            "orientation": {
                "w": 0.7031023502349854,
                "x": -0.7110244035720825,
                "y": 0.007748599164187908,
                "z": 0.005598929710686207
            },
            "position": {
                "x": 0.11585023208521307,
                "y": 0.44412534475326537,
                "z": 0.3711530566215515
            }
        },
        "name": "move_to_auspresseinheit_A"
    },
    "id": "BKPIECE_move_to_auspresseinheit_A_3",
    "joint_names": [
        "shoulder_pan_joint",
        "shoulder_lift_joint",
        "elbow_joint",
        "wrist_1_joint",
        "wrist_2_joint",
        "wrist_3_joint"
    ],
    "metrics": {
        "cart_traj_len": 1.288338238901366,
        "distance_elbow_joint": 1.057718963630216,
        "distance_shoulder_lift_joint": 1.156886222567622,
        "distance_shoulder_pan_joint": 1.0432514077080177,
        "distance_wrist_1_joint": 1.8530329558700316,
        "distance_wrist_2_joint": 0.8373115607155343,
        "distance_wrist_3_joint": 1.8375639196399995,
        "smoothness": 0.8911318660467873,
        "time": 0.890796263,
        "traj_len": 2.790298376541731,
        "weighted_distance": 3.76181304506178
    },
    "planner": "BKPIECE",
    "start": {
        "state": {
            "elbow_joint": 2.4225747245308327,
            "shoulder_lift_joint": -1.373653427065438,
            "shoulder_pan_joint": -0.33786330853087027,
            "wrist_1_joint": -1.0288602302712604,
            "wrist_2_joint": 1.23302299562683,
            "wrist_3_joint": -3.094021725338297
        }
    },
    "waypoints": [
        {
            "positions": [
                -0.33786330853087027,
                -1.373653427065438,
                2.4225747245308327,
                -1.0288602302712604,
                1.23302299562683,
                -3.094021725338297
            ]
        },
        {
            "positions": [
                -0.2769042801900333,
                -1.438820371133921,
                2.380869956821017,
                -0.9364958511222881,
                1.194151933471822,
                -3.024542465432868
            ]
        },
        {
            "positions": [
                -0.21594525184919644,
                -1.5039873152024041,
                2.3391651891112013,
                -0.8441314719733156,
                1.155280871316814,
                -2.955063205527439
            ]
        },
        {
            "positions": [
                -0.15498622350835953,
                -1.5691542592708871,
                2.297460421401386,
                -0.7517670928243432,
                1.116409809161806,
                -2.8855839456220096
            ]
        },
        {
            "positions": [
                -0.09402719516752261,
                -1.6343212033393701,
                2.2557556536915704,
                -0.6594027136753708,
                1.0775387470067979,
                -2.8161046857165806
            ]
        },
        {
            "positions": [
                -0.033068166826685674,
                -1.6994881474078531,
                2.2140508859817545,
                -0.5670383345263985,
                1.03866768485179,
                -2.7466254258111515
            ]
        },
        {
            "positions": [
                0.02789086151415121,
                -1.7646550914763361,
                2.172346118271939,
                -0.47467395537742607,
                0.9997966226967818,
                -2.6771461659057225
            ]
        },
        {
            "positions": [
                0.0888498898549881,
                -1.8298220355448191,
                2.1306413505621236,
                -0.38230957622845374,
                0.9609255605417739,
                -2.6076669060002935
            ]
        },
        {
            "positions": [
                0.14980891819582504,
                -1.8949889796133024,
                2.088936582852308,
                -0.2899451970794813,
                0.9220544983867658,
                -2.5381876460948645
            ]
        },
        {
            "positions": [
                0.21076794653666192,
                -1.9601559236817854,
                2.047231815142492,
                -0.19758081793050897,
                0.8831834362317579,
                -2.4687083861894354
            ]
        },
        {
            "positions": [
                0.2717269748774989,
                -2.0253228677502686,
                2.0055270474326767,
                -0.10521643878153653,
                0.8443123740767497,
                -2.399229126284006
            ]
        },
        {
            "positions": [
                0.3326860032183357,
                -2.0904898118187516,
                1.963822279722861,
                -0.012852059632564306,
                0.8054413119217418,
                -2.329749866378577
            ]
        },
        {
            "positions": [
                0.3936450315591727,
                -2.1556567558872346,
                1.9221175120130454,
                0.07951231951640825,
                0.7665702497667337,
                -2.260270606473148
            ]
        },
        {
            "positions": [
                0.4546040599000096,
                -2.2208236999557176,
                1.88041274430323,
                0.17187669866538047,
                0.7276991876117258,
                -2.190791346567719
            ]
        },
        {
            "positions": [
                0.49509121826066,
                -2.162712337133925,
                2.0043833585047404,
                0.1374135207086359,
                0.6686434731458436,
                -2.2316595055822055
            ]
        },
        {
            "positions": [
                0.5355783766213104,
                -2.1046009743121328,
                2.128353972706251,
                0.10295034275189134,
                0.6095877586799614,
                -2.272527664596692
            ]
        },
        {
            "positions": [
                0.5760655349819608,
                -2.0464896114903404,
                2.2523245869077613,
                0.06848716479514677,
                0.5505320442140792,
                -2.3133958236111787
            ]
        },
        {
            "positions": [
                0.6019300478209982,
                -2.0194132392479474,
                2.2810536150673775,
                -0.04129413381748456,
                0.581496166074636,
                -2.475741636376371
            ]
        },
        {
            "positions": [
                0.6277945606600356,
                -1.9923368670055543,
                2.309782643226994,
                -0.1510754324301159,
                0.6124602879351926,
                -2.6380874491415636
            ]
        },
        {
            "positions": [
                0.653659073499073,
                -1.9652604947631613,
                2.3385116713866103,
                -0.2608567310427472,
                0.6434244097957493,
                -2.800433261906756
            ]
        },
        {
            "positions": [
                0.6795235863381104,
                -1.9381841225207683,
                2.367240699546227,
                -0.37063802965537856,
                0.6743885316563061,
                -2.962779074671948
            ]
        },
        {
            "positions": [
                0.7053880991771478,
                -1.9111077502783753,
                2.395969727705843,
                -0.4804193282680098,
                0.7053526535168627,
                -3.1251248874371402
            ]
        }
    ]
}