{
    "goal": {
        "global_pose": {
            "orientation": {
                "w": -0.00223480608172531,
                "x": 0.0024358444001904467,
                "y": 0.7094548369677653,
                "z": -0.704743149386269
            },
            "position": {
                "x": -0.37947507619857795,
                "y": -0.6371506643295288,
                "z": 0.19426114857196808
            }
        },
        "name": "move_to_magneteinheit_C"
    },
    "id": "BKPIECE_move_to_magneteinheit_C_143",
    "joint_names": [
        "shoulder_pan_joint",
        "shoulder_lift_joint",
        "elbow_joint",
        "wrist_1_joint",
        "wrist_2_joint",
        "wrist_3_joint"
    ],
    "metrics": {
        "cart_traj_len": 2.6747842717299815,
        "distance_elbow_joint": 2.2272661318332094,
        "distance_shoulder_lift_joint": 1.202442565658017,
        "distance_shoulder_pan_joint": 1.3020127558281884,
        "distance_wrist_1_joint": 1.63488746230658,
        "distance_wrist_2_joint": 2.1008336007239237,
        "distance_wrist_3_joint": 5.366227654799934,
        "smoothness": 0.731733610048009,
        "time": 0.47385885299999997,
        "traj_len": 3.7193642159850184,
        "weighted_distance": 5.319947983183691
    },
    "planner": "BKPIECE",
    "start": {
        "state": {
            "elbow_joint": 1.9565354006590394,
            "shoulder_lift_joint": -1.4165861576513559,
            "shoulder_pan_joint": -1.6717766223277177,
            "wrist_1_joint": -0.5286633288215096,
            "wrist_2_joint": 1.4727565892594296,
            "wrist_3_joint": 3.1593482883155493
        }
    },
    "waypoints": [
        {
            "positions": [
                -1.6717766223277177,
                -1.4165861576513559,
                1.9565354006590394,
                -0.5286633288215096,
                1.4727565892594296,
                3.1593482883155493
            ]
        },
        {
            "positions": [
                -1.6563496091108825,
                -1.4282061367638192,
                1.9302840514700264,
                -0.45700694213593396,
                1.3836275550447628,
                3.0999297735092854
            ]
        },
        {
            "positions": [
                -1.6409225958940472,
                -1.4398261158762824,
                1.9040327022810133,
                -0.38535055545035835,
                1.2944985208300959,
                3.040511258703022
            ]
        },
        {
            "positions": [
                -1.6214321477308618,
                -1.452501252456429,
                1.8569559832135973,
                -0.3041339505510193,
                1.186505161423131,
                2.9416485239940755
            ]
        },
        {
            "positions": [
                -1.615252135825524,
                -1.4545686914212665,
                1.791528792483219,
                -0.2334660022176947,
                1.0871305610869682,
                2.804557578716197
            ]
        },
        {
            "positions": [
                -1.6307623158536801,
                -1.4405298296654185,
                1.7175568361059514,
                -0.19538301346325154,
                1.0255237034885731,
                2.648572579285887
            ]
        },
        {
            "positions": [
                -1.6462724958818362,
                -1.4264909679095703,
                1.6435848797286838,
                -0.15730002470880836,
                0.9639168458901782,
                2.4925875798555763
            ]
        },
        {
            "positions": [
                -1.6617826759099923,
                -1.4124521061537223,
                1.5696129233514162,
                -0.11921703595436518,
                0.9023099882917833,
                2.336602580425266
            ]
        },
        {
            "positions": [
                -1.6772928559381481,
                -1.3984132443978743,
                1.4956409669741486,
                -0.08113404719992201,
                0.8407031306933883,
                2.180617580994956
            ]
        },
        {
            "positions": [
                -1.6928030359663042,
                -1.3843743826420263,
                1.4216690105968808,
                -0.043051058445478824,
                0.7790962730949934,
                2.0246325815646458
            ]
        },
        {
            "positions": [
                -1.7083132159944603,
                -1.370335520886178,
                1.3476970542196132,
                -0.004968069691035665,
                0.7174894154965985,
                1.8686475821343353
            ]
        },
        {
            "positions": [
                -1.7238233960226164,
                -1.35629665913033,
                1.2737250978423456,
                0.03311491906340751,
                0.6558825578982035,
                1.712662582704025
            ]
        },
        {
            "positions": [
                -1.7364230821755429,
                -1.345011386571868,
                1.216841657887883,
                0.061150173303999064,
                0.610024786517959,
                1.5926826178825524
            ]
        },
        {
            "positions": [
                -1.7490227683284691,
                -1.3337261140134062,
                1.1599582179334202,
                0.08918542754459063,
                0.5641670151377144,
                1.4727026530610798
            ]
        },
        {
            "positions": [
                -1.7616224544813956,
                -1.3224408414549442,
                1.1030747779789576,
                0.11722068178518219,
                0.5183092437574699,
                1.3527226882396073
            ]
        },
        {
            "positions": [
                -1.8327894644675347,
                -1.3372019115515117,
                1.077054583151257,
                0.015005481626075096,
                0.5906940177085741,
                1.2535917492008501
            ]
        },
        {
            "positions": [
                -1.9039564744536737,
                -1.351962981648079,
                1.0510343883235564,
                -0.087209718533032,
                0.6630787916596782,
                1.154460810162093
            ]
        },
        {
            "positions": [
                -1.975123484439813,
                -1.3667240517446464,
                1.0250141934958559,
                -0.18942491869213907,
                0.7354635656107824,
                1.0553298711233356
            ]
        },
        {
            "positions": [
                -2.0462904944259517,
                -1.3814851218412139,
                0.9989939986681553,
                -0.2916401188512462,
                0.8078483395618865,
                0.9561989320845785
            ]
        },
        {
            "positions": [
                -2.117457504412091,
                -1.396246191937781,
                0.9729738038404547,
                -0.3938553190103533,
                0.8802331135129908,
                0.8570679930458214
            ]
        },
        {
            "positions": [
                -2.18862451439823,
                -1.4110072620343486,
                0.9469536090127542,
                -0.4960705191694603,
                0.9526178874640949,
                0.7579370540070642
            ]
        },
        {
            "positions": [
                -2.259791524384369,
                -1.425768332130916,
                0.9209334141850536,
                -0.5982857193285676,
                1.0250026614151992,
                0.658806114968307
            ]
        },
        {
            "positions": [
                -2.330958534370508,
                -1.4405294022274833,
                0.894913219357353,
                -0.7005009194876746,
                1.0973874353663033,
                0.5596751759295499
            ]
        },
        {
            "positions": [
                -2.402125544356647,
                -1.4552904723240507,
                0.8688930245296524,
                -0.8027161196467817,
                1.1697722093174074,
                0.46054423689079255
            ]
        },
        {
            "positions": [
                -2.4462365755993347,
                -1.3559796297184412,
                0.9158101972091144,
                -0.8106461250174138,
                1.150452752152596,
                0.6007045184347357
            ]
        },
        {
            "positions": [
                -2.4903476068420223,
                -1.2566687871128315,
                0.9627273698885763,
                -0.8185761303880461,
                1.1311332949877846,
                0.7408647999786788
            ]
        },
        {
            "positions": [
                -2.5344586380847094,
                -1.157357944507222,
                1.0096445425680383,
                -0.8265061357586783,
                1.111813837822973,
                0.8810250815226219
            ]
        },
        {
            "positions": [
                -2.578569669327397,
                -1.0580471019016124,
                1.0565617152475002,
                -0.8344361411293104,
                1.0924943806581615,
                1.021185363066565
            ]
        },
        {
            "positions": [
                -2.6226807005700845,
                -0.9587362592960027,
                1.1034788879269621,
                -0.8423661464999427,
                1.07317492349335,
                1.1613456446105084
            ]
        },
        {
            "positions": [
                -2.666791731812772,
                -0.8594254166903932,
                1.150396060606424,
                -0.8502961518705748,
                1.0538554663285387,
                1.3015059261544515
            ]
        },
        {
            "positions": [
                -2.6473968644788974,
                -0.8897871662322951,
                1.2362081325691292,
                -0.8481474900661617,
                1.015954811661223,
                1.4841521175656032
            ]
        },
        {
            "positions": [
                -2.628001997145023,
                -0.9201489157741971,
                1.3220202045318343,
                -0.8459988282617485,
                0.9780541569939071,
                1.6667983089767546
            ]
        },
        {
            "positions": [
                -2.608607129811148,
                -0.9505106653160992,
                1.4078322764945392,
                -0.8438501664573355,
                0.9401535023265913,
                1.8494445003879063
            ]
        },
        {
            "positions": [
                -2.5892122624772735,
                -0.9808724148580011,
                1.4936443484572444,
                -0.8417015046529223,
                0.9022528476592755,
                2.0320906917990578
            ]
        },
        {
            "positions": [
                -2.5698173951433985,
                -1.011234164399903,
                1.5794564204199495,
                -0.8395528428485092,
                0.8643521929919598,
                2.2147368832102092
            ]
        },
        {
            "positions": [
                -2.550422527809524,
                -1.0415959139418052,
                1.6652684923826544,
                -0.8374041810440961,
                0.826451538324644,
                2.397383074621361
            ]
        },
        {
            "positions": [
                -2.531027660475649,
                -1.0719576634837071,
                1.7510805643453597,
                -0.8352555192396829,
                0.7885508836573283,
                2.5800292660325126
            ]
        },
        {
            "positions": [
                -2.5116327931417746,
                -1.102319413025609,
                1.8368926363080647,
                -0.8331068574352698,
                0.7506502289900123,
                2.762675457443664
            ]
        },
        {
            "positions": [
                -2.4922379258079,
                -1.132681162567511,
                1.92270470827077,
                -0.8309581956308566,
                0.7127495743226966,
                2.945321648854816
            ]
        },
        {
            "positions": [
                -2.4728430584740253,
                -1.163042912109413,
                2.008516780233475,
                -0.8288095338264435,
                0.6748489196553809,
                3.1279678402659674
            ]
        }
    ]
}