{
    "goal": {
        "global_pose": {
            "orientation": {
                "w": -0.4816463035849501,
                "x": 0.5182115481033762,
                "y": 0.4908360881923453,
                "z": -0.5084816262002911
            },
            "position": {
                "x": -0.8240239810943604,
                "y": 0.19912469901144506,
                "z": 0.16403168439865112
            }
        },
        "name": "move_to_storage_D"
    },
    "id": "BKPIECE_move_to_storage_D_139",
    "joint_names": [
        "shoulder_pan_joint",
        "shoulder_lift_joint",
        "elbow_joint",
        "wrist_1_joint",
        "wrist_2_joint",
        "wrist_3_joint"
    ],
    "metrics": {
        "cart_traj_len": 3.442248625626806,
        "distance_elbow_joint": 4.444097901313296,
        "distance_shoulder_lift_joint": 1.264436521862852,
        "distance_shoulder_pan_joint": 2.811201321129478,
        "distance_wrist_1_joint": 2.8127622141575257,
        "distance_wrist_2_joint": 0.8662533586561985,
        "distance_wrist_3_joint": 3.197937024950102,
        "smoothness": 0.23299750033894145,
        "time": 0.8734469250000001,
        "traj_len": 3.92386140709244,
        "weighted_distance": 5.046937483740351
    },
    "planner": "BKPIECE",
    "start": {
        "state": {
            "elbow_joint": -2.384821997420982,
            "shoulder_lift_joint": -2.2788054674887404,
            "shoulder_pan_joint": -0.18546946417610016,
            "wrist_1_joint": 1.4845937964226739,
            "wrist_2_joint": 0.1789877726866377,
            "wrist_3_joint": 0.03710572555276528
        }
    },
    "waypoints": [
        {
            "positions": [
                -0.18546946417610016,
                -2.2788054674887404,
                -2.384821997420982,
                1.4845937964226739,
                0.1789877726866377,
                0.03710572555276528
            ]
        },
        {
            "positions": [
                -0.05612156141884672,
                -2.1652959342521525,
                -2.4142644000049955,
                1.55315782587381,
                0.18184367226251325,
                0.02987990738083693
            ]
        },
        {
            "positions": [
                0.07322634133840672,
                -2.0517864010155646,
                -2.4437068025890087,
                1.621721855324946,
                0.18469957183838875,
                0.022654089208908584
            ]
        },
        {
            "positions": [
                0.20257424409566016,
                -1.9382768677789763,
                -2.473149205173022,
                1.690285884776082,
                0.1875554714142643,
                0.015428271036980239
            ]
        },
        {
            "positions": [
                0.33192214685291366,
                -1.8247673345423885,
                -2.5025916077570356,
                1.758849914227218,
                0.19041137099013983,
                0.00820245286505189
            ]
        },
        {
            "positions": [
                0.39868127842956286,
                -1.808556420541076,
                -2.363768939706194,
                1.6734540676592298,
                0.19614519196693125,
                0.0883472213657825
            ]
        },
        {
            "positions": [
                0.46544041000621206,
                -1.7923455065397635,
                -2.2249462716553525,
                1.5880582210912417,
                0.20187901294372268,
                0.16849198986651312
            ]
        },
        {
            "positions": [
                0.5321995415828613,
                -1.776134592538451,
                -2.086123603604511,
                1.5026623745232535,
                0.2076128339205141,
                0.24863675836724372
            ]
        },
        {
            "positions": [
                0.5989586731595105,
                -1.7599236785371388,
                -1.9473009355536692,
                1.4172665279552652,
                0.2133466548973055,
                0.32878152686797435
            ]
        },
        {
            "positions": [
                0.6657178047361598,
                -1.7437127645358264,
                -1.8084782675028275,
                1.3318706813872772,
                0.21908047587409693,
                0.408926295368705
            ]
        },
        {
            "positions": [
                0.732476936312809,
                -1.7275018505345139,
                -1.669655599451986,
                1.246474834819289,
                0.22481429685088836,
                0.48907106386943555
            ]
        },
        {
            "positions": [
                0.7992360678894581,
                -1.7112909365332014,
                -1.5308329314011444,
                1.1610789882513006,
                0.23054811782767978,
                0.5692158323701662
            ]
        },
        {
            "positions": [
                0.8659951994661074,
                -1.695080022531889,
                -1.3920102633503029,
                1.0756831416833124,
                0.2362819388044712,
                0.6493606008708968
            ]
        },
        {
            "positions": [
                0.9327543310427566,
                -1.6788691085305765,
                -1.253187595299461,
                0.9902872951153242,
                0.24201575978126263,
                0.7295053693716276
            ]
        },
        {
            "positions": [
                0.9995134626194059,
                -1.662658194529264,
                -1.1143649272486196,
                0.904891448547336,
                0.24774958075805403,
                0.8096501378723582
            ]
        },
        {
            "positions": [
                1.0662725941960551,
                -1.6464472805279518,
                -0.975542259197778,
                0.8194956019793478,
                0.25348340173484546,
                0.8897949063730886
            ]
        },
        {
            "positions": [
                1.133031725772704,
                -1.6302363665266393,
                -0.8367195911469365,
                0.7340997554113597,
                0.2592172227116369,
                0.9699396748738192
            ]
        },
        {
            "positions": [
                1.1997908573493534,
                -1.6140254525253268,
                -0.6978969230960947,
                0.6487039088433715,
                0.2649510436884283,
                1.05008444337455
            ]
        },
        {
            "positions": [
                1.2665499889260028,
                -1.5978145385240143,
                -0.5590742550452532,
                0.5633080622753832,
                0.27068486466521974,
                1.1302292118752806
            ]
        },
        {
            "positions": [
                1.333309120502652,
                -1.5816036245227019,
                -0.4202515869944117,
                0.47791221570739495,
                0.27641868564201116,
                1.2103739803760112
            ]
        },
        {
            "positions": [
                1.400068252079301,
                -1.5653927105213894,
                -0.28142891894357014,
                0.3925163691394069,
                0.2821525066188026,
                1.2905187488767418
            ]
        },
        {
            "positions": [
                1.4668273836559502,
                -1.549181796520077,
                -0.1426062508927286,
                0.30712052257141864,
                0.287886327595594,
                1.3706635173774724
            ]
        },
        {
            "positions": [
                1.5335865152325996,
                -1.5329708825187645,
                -0.0037835828418866235,
                0.22172467600343038,
                0.29362014857238544,
                1.4508082858782032
            ]
        },
        {
            "positions": [
                1.6003456468092487,
                -1.5167599685174522,
                0.1350390852089549,
                0.1363288294354421,
                0.29935396954917687,
                1.5309530543789338
            ]
        },
        {
            "positions": [
                1.667104778385898,
                -1.5005490545161397,
                0.27386175325979645,
                0.05093298286745407,
                0.30508779052596824,
                1.6110978228796644
            ]
        },
        {
            "positions": [
                1.7338639099625472,
                -1.4843381405148273,
                0.412684421310638,
                -0.034462863700534196,
                0.31082161150275966,
                1.6912425913803948
            ]
        },
        {
            "positions": [
                1.8006230415391964,
                -1.4681272265135148,
                0.5515070893614795,
                -0.11985871026852246,
                0.3165554324795511,
                1.7713873598811254
            ]
        },
        {
            "positions": [
                1.8673821731158455,
                -1.4519163125122023,
                0.690329757412321,
                -0.2052545568365105,
                0.3222892534563425,
                1.851532128381856
            ]
        },
        {
            "positions": [
                1.9341413046924947,
                -1.43570539851089,
                0.8291524254631626,
                -0.29065040340449855,
                0.32802307443313394,
                1.9316768968825866
            ]
        },
        {
            "positions": [
                2.000900436269144,
                -1.4194944845095776,
                0.9679750935140046,
                -0.37604624997248726,
                0.33375689540992537,
                2.0118216653833176
            ]
        },
        {
            "positions": [
                2.0676595678457934,
                -1.4032835705082651,
                1.106797761564846,
                -0.4614420965404751,
                0.3394907163867168,
                2.091966433884048
            ]
        },
        {
            "positions": [
                2.1344186994224428,
                -1.3870726565069527,
                1.2456204296156876,
                -0.5468379431084633,
                0.3452245373635082,
                2.172111202384779
            ]
        },
        {
            "positions": [
                2.2011778309990917,
                -1.3708617425056402,
                1.3844430976665294,
                -0.6322337896764518,
                0.35095835834029965,
                2.252255970885509
            ]
        },
        {
            "positions": [
                2.2542470842433775,
                -1.326300142895671,
                1.4393547958607393,
                -0.6506615887326158,
                0.4377437049656167,
                2.3678785001657507
            ]
        },
        {
            "positions": [
                2.3073163374876633,
                -1.2817385432857022,
                1.494266494054949,
                -0.6690893877887798,
                0.5245290515909338,
                2.483501029445992
            ]
        },
        {
            "positions": [
                2.360385590731949,
                -1.2371769436757334,
                1.549178192249159,
                -0.6875171868449438,
                0.6113143982162509,
                2.5991235587262334
            ]
        },
        {
            "positions": [
                2.4134548439762344,
                -1.1926153440657643,
                1.604089890443369,
                -0.7059449859011078,
                0.698099744841568,
                2.714746088006475
            ]
        },
        {
            "positions": [
                2.4665240972205202,
                -1.1480537444557952,
                1.6590015886375789,
                -0.7243727849572718,
                0.784885091466885,
                2.8303686172867164
            ]
        },
        {
            "positions": [
                2.519593350464806,
                -1.1034921448458264,
                1.7139132868317888,
                -0.7428005840134357,
                0.8716704380922021,
                2.945991146566958
            ]
        },
        {
            "positions": [
                2.572662603709092,
                -1.0589305452358575,
                1.7688249850259985,
                -0.7612283830695997,
                0.9584557847175191,
                3.061613675847199
            ]
        },
        {
            "positions": [
                2.6257318569533776,
                -1.0143689456258884,
                1.8237366832202084,
                -0.7796561821257637,
                1.0452411313428362,
                3.1772362051274405
            ]
        }
    ]
}