{
    "goal": {
        "global_pose": {
            "orientation": {
                "w": 0.005598929693374612,
                "x": 0.007748599140229565,
                "y": 0.7110244013736278,
                "z": -0.7031023480610252
            },
            "position": {
                "x": -0.8858502320852131,
                "y": -0.7141253447532654,
                "z": 0.3711530566215515
            }
        },
        "name": "move_to_auspresseinheit_C"
    },
    "id": "BKPIECE_move_to_auspresseinheit_C_98",
    "joint_names": [
        "shoulder_pan_joint",
        "shoulder_lift_joint",
        "elbow_joint",
        "wrist_1_joint",
        "wrist_2_joint",
        "wrist_3_joint"
    ],
    "metrics": {
        "cart_traj_len": 0.49400355650564426,
        "distance_elbow_joint": 1.0154250672214835,
        "distance_shoulder_lift_joint": 0.3326553816346631,
        "distance_shoulder_pan_joint": 0.2568840960011287,
        "distance_wrist_1_joint": 0.7135963108247898,
        "distance_wrist_2_joint": 1.3059450780937665,
        "distance_wrist_3_joint": 0.07483042113450988,
        "smoothness": 9.689219149575433e-16,
        "time": 1.092646739,
        "traj_len": 1.9233658921043446,
        "weighted_distance": 2.4225066741080235
    },
    "planner": "BKPIECE",
    "start": {
        "state": {
            "elbow_joint": 1.752795957773711,
            "shoulder_lift_joint": -0.9740617694225064,
            "shoulder_pan_joint": -2.967991417825858,
            "wrist_1_joint": -0.7595177689806859,
            "wrist_2_joint": 1.7443932448377395,
            "wrist_3_joint": 3.199131542505932
        }
    },
    "waypoints": [
        {
            "positions": [
                -2.967991417825858,
                -0.9740617694225064,
                1.752795957773711,
                -0.7595177689806859,
                1.7443932448377395,
                3.199131542505932
            ]
        },
        {
            "positions": [
                -2.9423030082257453,
                -0.9407962312590401,
                1.6512534510515628,
                -0.6881581378982069,
                1.6137987370283629,
                3.191648500392481
            ]
        },
        {
            "positions": [
                -2.916614598625632,
                -0.9075306930955738,
                1.5497109443294144,
                -0.6167985068157279,
                1.4832042292189862,
                3.18416545827903
            ]
        },
        {
            "positions": [
                -2.890926189025519,
                -0.8742651549321075,
                1.448168437607266,
                -0.545438875733249,
                1.3526097214096096,
                3.1766824161655793
            ]
        },
        {
            "positions": [
                -2.8652377794254065,
                -0.8409996167686412,
                1.3466259308851176,
                -0.47407924465076995,
                1.222015213600233,
                3.1691993740521283
            ]
        },
        {
            "positions": [
                -2.839549369825294,
                -0.8077340786051749,
                1.2450834241629694,
                -0.402719613568291,
                1.0914207057908563,
                3.161716331938677
            ]
        },
        {
            "positions": [
                -2.8138609602251807,
                -0.7744685404417085,
                1.1435409174408209,
                -0.33135998248581205,
                0.9608261979814796,
                3.154233289825226
            ]
        },
        {
            "positions": [
                -2.7881725506250676,
                -0.7412030022782423,
                1.0419984107186728,
                -0.26000035140333305,
                0.8302316901721031,
                3.146750247711775
            ]
        },
        {
            "positions": [
                -2.762484141024955,
                -0.707937464114776,
                0.9404559039965242,
                -0.188640720320854,
                0.6996371823627263,
                3.1392672055983244
            ]
        },
        {
            "positions": [
                -2.7367957314248423,
                -0.6746719259513096,
                0.838913397274376,
                -0.1172810892383751,
                0.5690426745533497,
                3.1317841634848733
            ]
        },
        {
            "positions": [
                -2.7111073218247292,
                -0.6414063877878433,
                0.7373708905522276,
                -0.04592145815589614,
                0.4384481667439729,
                3.1243011213714222
            ]
        }
    ]
}