{
    "goal": {
        "global_pose": {
            "orientation": {
                "w": -0.4816463035849501,
                "x": 0.5182115481033762,
                "y": 0.4908360881923453,
                "z": -0.5084816262002911
            },
            "position": {
                "x": -0.8240239810943604,
                "y": 0.19912469901144506,
                "z": 0.16403168439865112
            }
        },
        "name": "move_to_storage_D"
    },
    "id": "BKPIECE_move_to_storage_D_27",
    "joint_names": [
        "shoulder_pan_joint",
        "shoulder_lift_joint",
        "elbow_joint",
        "wrist_1_joint",
        "wrist_2_joint",
        "wrist_3_joint"
    ],
    "metrics": {
        "cart_traj_len": 0.7135470830790634,
        "distance_elbow_joint": 1.5237413704375748,
        "distance_shoulder_lift_joint": 0.17633425826814841,
        "distance_shoulder_pan_joint": 1.0584481380924733,
        "distance_wrist_1_joint": 3.8219417652160734,
        "distance_wrist_2_joint": 1.7841598177906968,
        "distance_wrist_3_joint": 3.5731401233598628,
        "smoothness": 0.25323786220943306,
        "time": 1.45327433,
        "traj_len": 3.4551071579858172,
        "weighted_distance": 4.968918121974976
    },
    "planner": "BKPIECE",
    "start": {
        "state": {
            "elbow_joint": -2.384821997420982,
            "shoulder_lift_joint": -2.2788054674887404,
            "shoulder_pan_joint": -0.18546946417610016,
            "wrist_1_joint": 1.4845937964226739,
            "wrist_2_joint": 0.1789877726866377,
            "wrist_3_joint": 0.03710572555276528
        }
    },
    "waypoints": [
        {
            "positions": [
                -0.18546946417610016,
                -2.2788054674887404,
                -2.384821997420982,
                1.4845937964226739,
                0.1789877726866377,
                0.03710572555276528
            ]
        },
        {
            "positions": [
                -0.09916341759527815,
                -2.2553494792947903,
                -2.4540922155433638,
                1.3639709180190502,
                0.13387286149386846,
                0.007291422147927228
            ]
        },
        {
            "positions": [
                -0.012857371014456137,
                -2.2318934911008403,
                -2.523362433665745,
                1.2433480396154268,
                0.0887579503010992,
                -0.02252288125691082
            ]
        },
        {
            "positions": [
                0.07344867556636586,
                -2.2084375029068903,
                -2.592632651788127,
                1.1227251612118032,
                0.04364303910832995,
                -0.052337184661748866
            ]
        },
        {
            "positions": [
                0.1597547221471879,
                -2.18498151471294,
                -2.6619028699105085,
                1.0021022828081796,
                -0.0014718720844393018,
                -0.08215148806658693
            ]
        },
        {
            "positions": [
                0.24606076872800992,
                -2.16152552651899,
                -2.7311730880328904,
                0.8814794044045561,
                -0.04658678327720858,
                -0.11196579147142496
            ]
        },
        {
            "positions": [
                0.3323668153088319,
                -2.13806953832504,
                -2.800443306155272,
                0.7608565260009326,
                -0.09170169446997781,
                -0.141780094876263
            ]
        },
        {
            "positions": [
                0.418672861889654,
                -2.11461355013109,
                -2.8697135242776537,
                0.6402336475973089,
                -0.13681660566274711,
                -0.17159439828110107
            ]
        },
        {
            "positions": [
                0.3997434530552074,
                -2.1151194810023606,
                -2.8264281141284493,
                0.5161677469143627,
                -0.1979980823061351,
                -0.03140939830085121
            ]
        },
        {
            "positions": [
                0.3808140442207608,
                -2.1156254118736313,
                -2.783142703979245,
                0.3921018462314166,
                -0.2591795589495231,
                0.10877560167939865
            ]
        },
        {
            "positions": [
                0.3618846353863142,
                -2.116131342744902,
                -2.739857293830041,
                0.2680359455484704,
                -0.32036103559291107,
                0.2489606016596485
            ]
        },
        {
            "positions": [
                0.3429552265518676,
                -2.1166372736161727,
                -2.6965718836808366,
                0.14397004486552423,
                -0.3815425122362991,
                0.38914560163989836
            ]
        },
        {
            "positions": [
                0.324025817717421,
                -2.1171432044874434,
                -2.653286473531632,
                0.01990414418257802,
                -0.4427239888796871,
                0.5293306016201482
            ]
        },
        {
            "positions": [
                0.3050964088829744,
                -2.1176491353587146,
                -2.6100010633824278,
                -0.10416175650036819,
                -0.503905465523075,
                0.669515601600398
            ]
        },
        {
            "positions": [
                0.2861670000485278,
                -2.1181550662299853,
                -2.5667156532332234,
                -0.2282276571833144,
                -0.565086942166463,
                0.809700601580648
            ]
        },
        {
            "positions": [
                0.2672375912140812,
                -2.118660997101256,
                -2.5234302430840194,
                -0.3522935578662605,
                -0.6262684188098511,
                0.9498856015608979
            ]
        },
        {
            "positions": [
                0.24830818237963453,
                -2.1191669279725267,
                -2.480144832934815,
                -0.4763594585492068,
                -0.6874498954532391,
                1.0900706015411477
            ]
        },
        {
            "positions": [
                0.22937877354518793,
                -2.1196728588437974,
                -2.4368594227856106,
                -0.6004253592321529,
                -0.7486313720966271,
                1.2302556015213977
            ]
        },
        {
            "positions": [
                0.21044936471074133,
                -2.120178789715068,
                -2.3935740126364067,
                -0.724491259915099,
                -0.809812848740015,
                1.3704406015016473
            ]
        },
        {
            "positions": [
                0.19151995587629472,
                -2.120684720586339,
                -2.3502886024872023,
                -0.8485571605980453,
                -0.870994325383403,
                1.5106256014818973
            ]
        },
        {
            "positions": [
                0.17259054704184812,
                -2.1211906514576095,
                -2.307003192337998,
                -0.9726230612809914,
                -0.932175802026791,
                1.650810601462147
            ]
        },
        {
            "positions": [
                0.15366113820740152,
                -2.1216965823288803,
                -2.2637177821887935,
                -1.0966889619639377,
                -0.9933572786701791,
                1.7909956014423971
            ]
        },
        {
            "positions": [
                0.1347317293729549,
                -2.122202513200151,
                -2.220432372039589,
                -1.2207548626468838,
                -1.054538755313567,
                1.931180601422647
            ]
        },
        {
            "positions": [
                0.11580232053850831,
                -2.1227084440714217,
                -2.177146961890385,
                -1.34482076332983,
                -1.115720231956955,
                2.0713656014028965
            ]
        },
        {
            "positions": [
                0.09687291170406165,
                -2.1232143749426924,
                -2.1338615517411808,
                -1.4688866640127762,
                -1.176901708600343,
                2.2115506013831463
            ]
        },
        {
            "positions": [
                0.07794350286961504,
                -2.123720305813963,
                -2.0905761415919764,
                -1.5929525646957226,
                -1.238083185243731,
                2.351735601363396
            ]
        },
        {
            "positions": [
                0.059014094035168496,
                -2.1242262366852342,
                -2.0472907314427724,
                -1.7170184653786684,
                -1.2992646618871189,
                2.491920601343646
            ]
        },
        {
            "positions": [
                0.04008468520072184,
                -2.124732167556505,
                -2.004005321293568,
                -1.8410843660616147,
                -1.360446138530507,
                2.632105601323896
            ]
        },
        {
            "positions": [
                0.021155276366275233,
                -2.1252380984277757,
                -1.9607199111443636,
                -1.965150266744561,
                -1.421627615173895,
                2.772290601304146
            ]
        },
        {
            "positions": [
                0.002225867531828629,
                -2.1257440292990464,
                -1.9174345009951592,
                -2.089216167427507,
                -1.482809091817283,
                2.9124756012843953
            ]
        },
        {
            "positions": [
                -0.016703541302617975,
                -2.126249960170317,
                -1.8741490908459548,
                -2.2132820681104537,
                -1.543990568460671,
                3.0526606012646456
            ]
        },
        {
            "positions": [
                -0.035632950137064585,
                -2.126755891041588,
                -1.8308636806967507,
                -2.3373479687933996,
                -1.605172045104059,
                3.1928456012448954
            ]
        }
    ]
}