{
    "goal": {
        "global_pose": {
            "orientation": {
                "w": -0.4816463035849501,
                "x": 0.5182115481033762,
                "y": 0.4908360881923453,
                "z": -0.5084816262002911
            },
            "position": {
                "x": -0.8240239810943604,
                "y": -0.300875300988555,
                "z": 0.16403168439865112
            }
        },
        "name": "move_to_storage_C"
    },
    "id": "BKPIECE_move_to_storage_C_102",
    "joint_names": [
        "shoulder_pan_joint",
        "shoulder_lift_joint",
        "elbow_joint",
        "wrist_1_joint",
        "wrist_2_joint",
        "wrist_3_joint"
    ],
    "metrics": {
        "cart_traj_len": 0.5768502272211417,
        "distance_elbow_joint": 0.25980936588112624,
        "distance_shoulder_lift_joint": 0.1903110611092126,
        "distance_shoulder_pan_joint": 0.49435154033245254,
        "distance_wrist_1_joint": 0.07960031996049777,
        "distance_wrist_2_joint": 1.067120049641252,
        "distance_wrist_3_joint": 0.056959322028718784,
        "smoothness": 2.5376526478085547e-16,
        "time": 1.505279074,
        "traj_len": 1.4656574152759096,
        "weighted_distance": 1.8462910584770884
    },
    "planner": "BKPIECE",
    "start": {
        "state": {
            "elbow_joint": 2.010868315001653,
            "shoulder_lift_joint": -1.1634956873357014,
            "shoulder_pan_joint": -2.4736205022346103,
            "wrist_1_joint": -0.8367026794713948,
            "wrist_2_joint": 0.6746043897044093,
            "wrist_3_joint": 3.1335220948105738
        }
    },
    "waypoints": [
        {
            "positions": [
                -2.4736205022346103,
                -1.1634956873357014,
                2.010868315001653,
                -0.8367026794713948,
                0.6746043897044093,
                3.1335220948105738
            ]
        },
        {
            "positions": [
                -2.5560124256233525,
                -1.1317771771508327,
                1.9675667540214654,
                -0.8234359594779784,
                0.8524577313112847,
                3.1430153151486935
            ]
        },
        {
            "positions": [
                -2.6384043490120943,
                -1.100058666965964,
                1.9242651930412777,
                -0.8101692394845622,
                1.03031107291816,
                3.152508535486813
            ]
        },
        {
            "positions": [
                -2.7207962724008365,
                -1.068340156781095,
                1.88096363206109,
                -0.7969025194911459,
                1.2081644145250352,
                3.1620017558249334
            ]
        },
        {
            "positions": [
                -2.803188195789579,
                -1.0366216465962264,
                1.8376620710809022,
                -0.7836357994977295,
                1.3860177561319107,
                3.171494976163053
            ]
        },
        {
            "positions": [
                -2.8855801191783206,
                -1.0049031364113576,
                1.7943605101007145,
                -0.7703690795043133,
                1.5638710977387862,
                3.180988196501173
            ]
        },
        {
            "positions": [
                -2.967972042567063,
                -0.9731846262264888,
                1.7510589491205268,
                -0.757102359510897,
                1.7417244393456612,
                3.1904814168392925
            ]
        }
    ]
}