{
    "goal": {
        "global_pose": {
            "orientation": {
                "w": -0.4816463035849501,
                "x": 0.5182115481033762,
                "y": 0.4908360881923453,
                "z": -0.5084816262002911
            },
            "position": {
                "x": -0.8240239810943604,
                "y": 0.19912469901144506,
                "z": 0.16403168439865112
            }
        },
        "name": "move_to_storage_D"
    },
    "id": "BKPIECE_move_to_storage_D_85",
    "joint_names": [
        "shoulder_pan_joint",
        "shoulder_lift_joint",
        "elbow_joint",
        "wrist_1_joint",
        "wrist_2_joint",
        "wrist_3_joint"
    ],
    "metrics": {
        "cart_traj_len": 3.80344475177807,
        "distance_elbow_joint": 4.209960712857483,
        "distance_shoulder_lift_joint": 1.2637928671343008,
        "distance_shoulder_pan_joint": 2.8115855393808675,
        "distance_wrist_1_joint": 2.2679325674470294,
        "distance_wrist_2_joint": 0.8680216879653714,
        "distance_wrist_3_joint": 3.129341122447025,
        "smoothness": 4.3270230683825273e-16,
        "time": 0.300434191,
        "traj_len": 3.8145293939399756,
        "weighted_distance": 4.893390542102534
    },
    "planner": "BKPIECE",
    "start": {
        "state": {
            "elbow_joint": -2.384821997420982,
            "shoulder_lift_joint": -2.2788054674887404,
            "shoulder_pan_joint": -0.18546946417610016,
            "wrist_1_joint": 1.4845937964226739,
            "wrist_2_joint": 0.1789877726866377,
            "wrist_3_joint": 0.03710572555276528
        }
    },
    "waypoints": [
        {
            "positions": [
                -0.18546946417610016,
                -2.2788054674887404,
                -2.384821997420982,
                1.4845937964226739,
                0.1789877726866377,
                0.03710572555276528
            ]
        },
        {
            "positions": [
                -0.09067339538862183,
                -2.2529190482527297,
                -2.2679525679507653,
                1.429959457155141,
                0.20568510691980557,
                -0.03434498550550944
            ]
        },
        {
            "positions": [
                0.004122673398856497,
                -2.227032629016719,
                -2.151083138480549,
                1.3753251178876085,
                0.23238244115297343,
                -0.10579569656378415
            ]
        },
        {
            "positions": [
                0.09891874218633484,
                -2.201146209780709,
                -2.0342137090103325,
                1.3206907786200757,
                0.2590797753861413,
                -0.1772464076220589
            ]
        },
        {
            "positions": [
                0.19371481097381316,
                -2.175259790544698,
                -1.9173442795401159,
                1.2660564393525429,
                0.28577710961930913,
                -0.2486971186803336
            ]
        },
        {
            "positions": [
                0.2885108797612915,
                -2.1493733713086876,
                -1.8004748500698995,
                1.21142210008501,
                0.312474443852477,
                -0.3201478297386084
            ]
        },
        {
            "positions": [
                0.38330694854876984,
                -2.123486952072677,
                -1.683605420599683,
                1.1567877608174775,
                0.33917177808564486,
                -0.3915985407968831
            ]
        },
        {
            "positions": [
                0.4781030173362482,
                -2.0976005328366663,
                -1.5667359911294665,
                1.1021534215499447,
                0.36586911231881275,
                -0.4630492518551579
            ]
        },
        {
            "positions": [
                0.5728990861237264,
                -2.0717141136006556,
                -1.44986656165925,
                1.0475190822824119,
                0.3925664465519806,
                -0.5344999629134325
            ]
        },
        {
            "positions": [
                0.6676951549112049,
                -2.0458276943646454,
                -1.3329971321890335,
                0.9928847430148792,
                0.4192637807851485,
                -0.6059506739717073
            ]
        },
        {
            "positions": [
                0.7624912236986832,
                -2.0199412751286348,
                -1.216127702718817,
                0.9382504037473464,
                0.44596111501831637,
                -0.677401385029982
            ]
        },
        {
            "positions": [
                0.8572872924861614,
                -1.994054855892624,
                -1.0992582732486007,
                0.8836160644798137,
                0.47265844925148415,
                -0.7488520960882566
            ]
        },
        {
            "positions": [
                0.9520833612736399,
                -1.9681684366566135,
                -0.9823888437783843,
                0.828981725212281,
                0.49935578348465204,
                -0.8203028071465315
            ]
        },
        {
            "positions": [
                1.0468794300611182,
                -1.9422820174206028,
                -0.8655194143081677,
                0.7743473859447482,
                0.5260531177178199,
                -0.8917535182048062
            ]
        },
        {
            "positions": [
                1.1416754988485966,
                -1.9163955981845924,
                -0.7486499848379511,
                0.7197130466772154,
                0.5527504519509878,
                -0.963204229263081
            ]
        },
        {
            "positions": [
                1.236471567636075,
                -1.8905091789485817,
                -0.6317805553677347,
                0.6650787074096827,
                0.5794477861841556,
                -1.0346549403213556
            ]
        },
        {
            "positions": [
                1.3312676364235532,
                -1.8646227597125713,
                -0.5149111258975183,
                0.61044436814215,
                0.6061451204173235,
                -1.1061056513796301
            ]
        },
        {
            "positions": [
                1.4260637052110314,
                -1.8387363404765606,
                -0.3980416964273019,
                0.5558100288746173,
                0.6328424546504913,
                -1.1775563624379048
            ]
        },
        {
            "positions": [
                1.52085977399851,
                -1.81284992124055,
                -0.2811722669570851,
                0.5011756896070845,
                0.6595397888836592,
                -1.2490070734961798
            ]
        },
        {
            "positions": [
                1.6156558427859882,
                -1.7869635020045396,
                -0.1643028374868689,
                0.44654135033955167,
                0.686237123116827,
                -1.3204577845544543
            ]
        },
        {
            "positions": [
                1.7104519115734667,
                -1.7610770827685287,
                -0.0474334080166523,
                0.39190701107201886,
                0.7129344573499949,
                -1.3919084956127292
            ]
        },
        {
            "positions": [
                1.805247980360945,
                -1.7351906635325183,
                0.06943602145356431,
                0.3372726718044863,
                0.7396317915831627,
                -1.463359206671004
            ]
        },
        {
            "positions": [
                1.900044049148423,
                -1.7093042442965078,
                0.18630545092378048,
                0.2826383325369535,
                0.7663291258163306,
                -1.5348099177292784
            ]
        },
        {
            "positions": [
                1.9948401179359014,
                -1.6834178250604972,
                0.3031748803939971,
                0.22800399326942067,
                0.7930264600494985,
                -1.6062606287875534
            ]
        },
        {
            "positions": [
                2.08963618672338,
                -1.6575314058244865,
                0.42004430986421326,
                0.17336965400188808,
                0.8197237942826663,
                -1.677711339845828
            ]
        },
        {
            "positions": [
                2.184432255510858,
                -1.6316449865884761,
                0.5369137393344299,
                0.11873531473435528,
                0.8464211285158342,
                -1.7491620509041026
            ]
        },
        {
            "positions": [
                2.2792283242983364,
                -1.6057585673524655,
                0.6537831688046465,
                0.06410097546682247,
                0.8731184627490021,
                -1.8206127619623775
            ]
        },
        {
            "positions": [
                2.374024393085815,
                -1.579872148116455,
                0.7706525982748627,
                0.00946663619928989,
                0.8998157969821698,
                -1.8920634730206523
            ]
        },
        {
            "positions": [
                2.4688204618732934,
                -1.5539857288804444,
                0.8875220277450797,
                -0.04516770306824314,
                0.9265131312153378,
                -1.9635141840789272
            ]
        },
        {
            "positions": [
                2.5636165306607714,
                -1.5280993096444337,
                1.0043914572152959,
                -0.09980204233577572,
                0.9532104654485056,
                -2.0349648951372017
            ]
        },
        {
            "positions": [
                2.5705609244989933,
                -1.471089675278879,
                1.095585597017652,
                -0.17575056774561804,
                0.9636325760266726,
                -2.1524393953324306
            ]
        },
        {
            "positions": [
                2.577505318337215,
                -1.4140800409133238,
                1.1867797368200084,
                -0.25169909315546035,
                0.9740546866048397,
                -2.269913895527659
            ]
        },
        {
            "positions": [
                2.5844497121754366,
                -1.357070406547769,
                1.2779738766223645,
                -0.3276476185653026,
                0.9844767971830067,
                -2.387388395722888
            ]
        },
        {
            "positions": [
                2.5913941060136585,
                -1.3000607721822142,
                1.3691680164247206,
                -0.4035961439751449,
                0.9948989077611738,
                -2.5048628959181163
            ]
        },
        {
            "positions": [
                2.5983384998518804,
                -1.243051137816659,
                1.460362156227077,
                -0.47954466938498724,
                1.0053210183393408,
                -2.622337396113345
            ]
        },
        {
            "positions": [
                2.6052828936901022,
                -1.1860415034511043,
                1.5515562960294331,
                -0.5554931947948295,
                1.0157431289175078,
                -2.7398118963085736
            ]
        },
        {
            "positions": [
                2.6122272875283237,
                -1.1290318690855494,
                1.6427504358317893,
                -0.6314417202046718,
                1.026165239495675,
                -2.8572863965038025
            ]
        },
        {
            "positions": [
                2.6191716813665455,
                -1.0720222347199946,
                1.7339445756341454,
                -0.7073902456145141,
                1.036587350073842,
                -2.974760896699031
            ]
        },
        {
            "positions": [
                2.6261160752047674,
                -1.0150126003544395,
                1.8251387154365017,
                -0.7833387710243565,
                1.047009460652009,
                -3.0922353968942597
            ]
        }
    ]
}