{
    "goal": {
        "global_pose": {
            "orientation": {
                "w": -0.4816463035849501,
                "x": 0.5182115481033762,
                "y": 0.4908360881923453,
                "z": -0.5084816262002911
            },
            "position": {
                "x": -0.8240239810943604,
                "y": -0.300875300988555,
                "z": 0.16403168439865112
            }
        },
        "name": "move_to_storage_C"
    },
    "id": "BKPIECE_move_to_storage_C_67",
    "joint_names": [
        "shoulder_pan_joint",
        "shoulder_lift_joint",
        "elbow_joint",
        "wrist_1_joint",
        "wrist_2_joint",
        "wrist_3_joint"
    ],
    "metrics": {
        "cart_traj_len": 0.5760664333487567,
        "distance_elbow_joint": 0.25847567541501393,
        "distance_shoulder_lift_joint": 0.18829832196380236,
        "distance_shoulder_pan_joint": 0.4941458923951876,
        "distance_wrist_1_joint": 0.08627305869252788,
        "distance_wrist_2_joint": 1.0721090799654616,
        "distance_wrist_3_joint": 0.060479104510094306,
        "smoothness": 2.5376526478085547e-16,
        "time": 0.804834642,
        "traj_len": 1.4696193836984077,
        "weighted_distance": 1.854486851023826
    },
    "planner": "BKPIECE",
    "start": {
        "state": {
            "elbow_joint": 2.010868315001653,
            "shoulder_lift_joint": -1.1634956873357014,
            "shoulder_pan_joint": -2.4736205022346103,
            "wrist_1_joint": -0.8367026794713948,
            "wrist_2_joint": 0.6746043897044093,
            "wrist_3_joint": 3.1335220948105738
        }
    },
    "waypoints": [
        {
            "positions": [
                -2.4736205022346103,
                -1.1634956873357014,
                2.010868315001653,
                -0.8367026794713948,
                0.6746043897044093,
                3.1335220948105738
            ]
        },
        {
            "positions": [
                -2.5559781509671415,
                -1.1321126336750678,
                1.9677890357658174,
                -0.8223238363559735,
                0.8532892363653195,
                3.1436019455622564
            ]
        },
        {
            "positions": [
                -2.638335799699673,
                -1.1007295800144339,
                1.9247097565299818,
                -0.8079449932405521,
                1.0319740830262298,
                3.1536817963139385
            ]
        },
        {
            "positions": [
                -2.720693448432204,
                -1.0693465263538002,
                1.8816304772941461,
                -0.7935661501251308,
                1.2106589296871402,
                3.1637616470656207
            ]
        },
        {
            "positions": [
                -2.8030510971647353,
                -1.0379634726931666,
                1.8385511980583105,
                -0.7791873070097095,
                1.3893437763480503,
                3.1738414978173033
            ]
        },
        {
            "positions": [
                -2.8854087458972666,
                -1.0065804190325327,
                1.7954719188224748,
                -0.7648084638942882,
                1.5680286230089606,
                3.183921348568986
            ]
        },
        {
            "positions": [
                -2.967766394629798,
                -0.975197365371899,
                1.7523926395866392,
                -0.7504296207788669,
                1.746713469669871,
                3.194001199320668
            ]
        }
    ]
}