{
    "goal": {
        "global_pose": {
            "orientation": {
                "w": 0.7047431493862688,
                "x": -0.7094548369677653,
                "y": 0.0024358444001904,
                "z": -0.0022348060817251984
            },
            "position": {
                "x": -0.39052492380142206,
                "y": 0.3671506643295288,
                "z": 0.19426114857196808
            }
        },
        "name": "move_to_magneteinheit_D"
    },
    "id": "BKPIECE_move_to_magneteinheit_D_90",
    "joint_names": [
        "shoulder_pan_joint",
        "shoulder_lift_joint",
        "elbow_joint",
        "wrist_1_joint",
        "wrist_2_joint",
        "wrist_3_joint"
    ],
    "metrics": {
        "cart_traj_len": 5.187964422759756,
        "distance_elbow_joint": 3.1448390334719662,
        "distance_shoulder_lift_joint": 1.6270296365551316,
        "distance_shoulder_pan_joint": 4.126589282410548,
        "distance_wrist_1_joint": 5.076892201393177,
        "distance_wrist_2_joint": 1.1626545146215306,
        "distance_wrist_3_joint": 9.230978626207632,
        "smoothness": 0.5733716848031144,
        "time": 1.403478645,
        "traj_len": 4.936495041490469,
        "weighted_distance": 7.005032995146418
    },
    "planner": "BKPIECE",
    "start": {
        "state": {
            "elbow_joint": 0.7495348899011973,
            "shoulder_lift_joint": -0.6476975780737697,
            "shoulder_pan_joint": -2.711696901376276,
            "wrist_1_joint": -0.07506478080974305,
            "wrist_2_joint": 0.4329665971545858,
            "wrist_3_joint": 3.1361499051832524
        }
    },
    "waypoints": [
        {
            "positions": [
                -2.711696901376276,
                -0.6476975780737697,
                0.7495348899011973,
                -0.07506478080974305,
                0.4329665971545858,
                3.1361499051832524
            ]
        },
        {
            "positions": [
                -2.776536560257195,
                -0.6500301712882606,
                0.6913752334378798,
                -0.19589013358220697,
                0.42653801615207926,
                2.994347252451763
            ]
        },
        {
            "positions": [
                -2.8413762191381133,
                -0.6523627645027513,
                0.6332155769745622,
                -0.31671548635467084,
                0.42010943514957266,
                2.852544599720274
            ]
        },
        {
            "positions": [
                -2.906215878019032,
                -0.6546953577172421,
                0.5750559205112448,
                -0.43754083912713476,
                0.4136808541470661,
                2.710741946988785
            ]
        },
        {
            "positions": [
                -2.971055536899951,
                -0.6570279509317329,
                0.5168962640479272,
                -0.5583661918995987,
                0.4072522731445596,
                2.5689392942572953
            ]
        },
        {
            "positions": [
                -2.8555810352884263,
                -0.7054627946053479,
                0.44609301938415274,
                -0.518786704864517,
                0.4045639652662516,
                2.462085442986765
            ]
        },
        {
            "positions": [
                -2.7401065336769013,
                -0.7538976382789628,
                0.3752897747203783,
                -0.47920721782943515,
                0.40187565738794356,
                2.355231591716235
            ]
        },
        {
            "positions": [
                -2.6246320320653767,
                -0.8023324819525778,
                0.30448653005660375,
                -0.43962773079435336,
                0.3991873495096356,
                2.248377740445705
            ]
        },
        {
            "positions": [
                -2.5091575304538516,
                -0.8507673256261927,
                0.2336832853928293,
                -0.4000482437592716,
                0.3964990416313276,
                2.1415238891751747
            ]
        },
        {
            "positions": [
                -2.393683028842327,
                -0.8992021692998077,
                0.16288004072905482,
                -0.3604687567241899,
                0.39381073375301956,
                2.034670037904645
            ]
        },
        {
            "positions": [
                -2.278208527230802,
                -0.9476370129734226,
                0.09207679606528035,
                -0.3208892696891081,
                0.3911224258747116,
                1.9278161866341148
            ]
        },
        {
            "positions": [
                -2.1627340256192773,
                -0.9960718566470375,
                0.02127355140150594,
                -0.28130978265402634,
                0.3884341179964036,
                1.8209623353635846
            ]
        },
        {
            "positions": [
                -2.0472595240077522,
                -1.0445067003206525,
                -0.04952969326226864,
                -0.24173029561894455,
                0.3857458101180956,
                1.7141084840930545
            ]
        },
        {
            "positions": [
                -1.9317850223962278,
                -1.0929415439942674,
                -0.12033293792604305,
                -0.2021508085838628,
                0.3830575022397876,
                1.6072546328225246
            ]
        },
        {
            "positions": [
                -1.8163105207847028,
                -1.1413763876678824,
                -0.19113618258981757,
                -0.162571321548781,
                0.3803691943614796,
                1.5004007815519944
            ]
        },
        {
            "positions": [
                -1.7008360191731782,
                -1.1898112313414972,
                -0.261939427253592,
                -0.12299183451369927,
                0.3776808864831716,
                1.3935469302814643
            ]
        },
        {
            "positions": [
                -1.585361517561653,
                -1.238246075015112,
                -0.3327426719173665,
                -0.08341234747861748,
                0.37499257860486357,
                1.286693079010934
            ]
        },
        {
            "positions": [
                -1.4698870159501285,
                -1.2866809186887271,
                -0.4035459165811409,
                -0.04383286044353574,
                0.3723042707265556,
                1.1798392277404042
            ]
        },
        {
            "positions": [
                -1.3544125143386039,
                -1.3351157623623422,
                -0.47434916124491533,
                -0.004253373408453998,
                0.3696159628482476,
                1.0729853764698742
            ]
        },
        {
            "positions": [
                -1.238938012727079,
                -1.383550606035957,
                -0.5451524059086897,
                0.03532611362662774,
                0.3669276549699396,
                0.9661315251993441
            ]
        },
        {
            "positions": [
                -1.123463511115554,
                -1.4319854497095719,
                -0.6159556505724645,
                0.07490560066170959,
                0.3642393470916316,
                0.8592776739288137
            ]
        },
        {
            "positions": [
                -1.0079890095040291,
                -1.480420293383187,
                -0.6867588952362388,
                0.11448508769679133,
                0.3615510392133236,
                0.7524238226582838
            ]
        },
        {
            "positions": [
                -0.8925145078925047,
                -1.5288551370568018,
                -0.7575621399000133,
                0.15406457473187307,
                0.35886273133501556,
                0.6455699713877538
            ]
        },
        {
            "positions": [
                -0.7770400062809797,
                -1.5772899807304168,
                -0.8283653845637876,
                0.1936440617669548,
                0.3561744234567076,
                0.5387161201172237
            ]
        },
        {
            "positions": [
                -0.6615655046694546,
                -1.6257248244040317,
                -0.8991686292275624,
                0.23322354880203666,
                0.3534861155783996,
                0.43186226884669354
            ]
        },
        {
            "positions": [
                -0.54609100305793,
                -1.6741596680776467,
                -0.9699718738913367,
                0.2728030358371184,
                0.3507978077000916,
                0.3250084175761634
            ]
        },
        {
            "positions": [
                -0.4306165014464054,
                -1.7225945117512615,
                -1.040775118555111,
                0.31238252287220014,
                0.3481094998217836,
                0.21815456630563324
            ]
        },
        {
            "positions": [
                -0.3151419998348808,
                -1.7710293554248764,
                -1.1115783632188854,
                0.3519620099072819,
                0.3454211919434756,
                0.11130071503510353
            ]
        },
        {
            "positions": [
                -0.19966749822335528,
                -1.8194641990984914,
                -1.1823816078826601,
                0.39154149694236373,
                0.34273288406516755,
                0.004446863764572928
            ]
        },
        {
            "positions": [
                -0.08419299661183066,
                -1.8678990427721065,
                -1.2531848525464344,
                0.43112098397744547,
                0.34004457618685957,
                -0.10240698750595678
            ]
        },
        {
            "positions": [
                0.031281504999693954,
                -1.9163338864457213,
                -1.323988097210209,
                0.47070047101252727,
                0.3373562683085516,
                -0.20926083877648716
            ]
        },
        {
            "positions": [
                0.04927914861987305,
                -1.9237969208708585,
                -1.3724317593072708,
                0.5967066371974741,
                0.30348675519623197,
                -0.3645052412386969
            ]
        },
        {
            "positions": [
                0.06727679224005215,
                -1.931259955295996,
                -1.4208754214043327,
                0.7227128033824208,
                0.2696172420839124,
                -0.5197496437009066
            ]
        },
        {
            "positions": [
                0.08527443586023123,
                -1.938722989721133,
                -1.4693190835013947,
                0.8487189695673676,
                0.2357477289715928,
                -0.6749940461631162
            ]
        },
        {
            "positions": [
                0.10327207948041033,
                -1.9461860241462705,
                -1.5177627455984566,
                0.9747251357523143,
                0.2018782158592732,
                -0.8302384486253259
            ]
        },
        {
            "positions": [
                0.12126972310058944,
                -1.9536490585714077,
                -1.5662064076955184,
                1.100731301937261,
                0.1680087027469536,
                -0.9854828510875356
            ]
        },
        {
            "positions": [
                0.1392673667207685,
                -1.9611120929965449,
                -1.6146500697925803,
                1.2267374681222079,
                0.134139189634634,
                -1.1407272535497452
            ]
        },
        {
            "positions": [
                0.15726501034094761,
                -1.9685751274216823,
                -1.6630937318896422,
                1.3527436343071548,
                0.10026967652231442,
                -1.295971656011955
            ]
        },
        {
            "positions": [
                0.1752626539611267,
                -1.9760381618468195,
                -1.711537393986704,
                1.4787498004921016,
                0.06640016340999483,
                -1.4512160584741647
            ]
        },
        {
            "positions": [
                0.1932602975813058,
                -1.9835011962719569,
                -1.7599810560837659,
                1.6047559666770483,
                0.03253065029767521,
                -1.6064604609363744
            ]
        },
        {
            "positions": [
                0.21125794120148492,
                -1.990964230697094,
                -1.808424718180828,
                1.730762132861995,
                -0.0013388628146444037,
                -1.7617048633985841
            ]
        },
        {
            "positions": [
                0.229255584821664,
                -1.9984272651222312,
                -1.8568683802778898,
                1.856768299046942,
                -0.03520837592696402,
                -1.9169492658607938
            ]
        },
        {
            "positions": [
                0.24725322844184308,
                -2.0058902995473686,
                -1.9053120423749517,
                1.9827744652318886,
                -0.06907788903928358,
                -2.0721936683230036
            ]
        },
        {
            "positions": [
                0.2652508720620222,
                -2.013353333972506,
                -1.9537557044720135,
                2.108780631416835,
                -0.1029474021516032,
                -2.2274380707852135
            ]
        },
        {
            "positions": [
                0.2832485156822013,
                -2.020816368397643,
                -2.0021993665690756,
                2.234786797601782,
                -0.13681691526392276,
                -2.3826824732474225
            ]
        },
        {
            "positions": [
                0.3012461593023804,
                -2.0282794028227804,
                -2.0506430286661375,
                2.360792963786729,
                -0.17068642837624237,
                -2.5379268757096325
            ]
        },
        {
            "positions": [
                0.31924380292255944,
                -2.035742437247918,
                -2.0990866907631993,
                2.4867991299716756,
                -0.20455594148856193,
                -2.6931712781718424
            ]
        },
        {
            "positions": [
                0.3372414465427386,
                -2.0432054716730548,
                -2.147530352860261,
                2.612805296156622,
                -0.2384254546008816,
                -2.8484156806340515
            ]
        },
        {
            "positions": [
                0.35523909016291766,
                -2.050668506098192,
                -2.195974014957323,
                2.738811462341569,
                -0.27229496771320116,
                -3.003660083096262
            ]
        },
        {
            "positions": [
                0.31917668884131767,
                -2.065605753333573,
                -2.2092626901982193,
                2.6523839199374257,
                -0.24180210439628494,
                -2.7975821739010542
            ]
        },
        {
            "positions": [
                0.2831142875197177,
                -2.0805430005689534,
                -2.2225513654391156,
                2.565956377533282,
                -0.21130924107936874,
                -2.591504264705846
            ]
        },
        {
            "positions": [
                0.24705188619811766,
                -2.095480247804334,
                -2.2358400406800123,
                2.4795288351291385,
                -0.18081637776245252,
                -2.3854263555106385
            ]
        },
        {
            "positions": [
                0.21098948487651767,
                -2.1104174950397145,
                -2.2491287159209086,
                2.393101292724995,
                -0.15032351444553632,
                -2.179348446315431
            ]
        },
        {
            "positions": [
                0.17492708355491768,
                -2.1253547422750954,
                -2.262417391161805,
                2.306673750320851,
                -0.1198306511286201,
                -1.973270537120223
            ]
        },
        {
            "positions": [
                0.13886468223331766,
                -2.1402919895104757,
                -2.275706066402701,
                2.220246207916708,
                -0.08933778781170387,
                -1.7671926279250152
            ]
        },
        {
            "positions": [
                0.10280228091171767,
                -2.1552292367458565,
                -2.2889947416435974,
                2.133818665512564,
                -0.05884492449478765,
                -1.5611147187298073
            ]
        },
        {
            "positions": [
                0.06673987959011768,
                -2.170166483981237,
                -2.302283416884494,
                2.0473911231084205,
                -0.02835206117787145,
                -1.3550368095345997
            ]
        },
        {
            "positions": [
                0.03067747826851769,
                -2.1851037312166177,
                -2.3155720921253904,
                1.9609635807042771,
                0.002140802139044773,
                -1.1489589003393919
            ]
        },
        {
            "positions": [
                -0.005384923053082302,
                -2.200040978451998,
                -2.3288607673662867,
                1.8745360383001335,
                0.03263366545596097,
                -0.9428809911441842
            ]
        },
        {
            "positions": [
                -0.04144732437468229,
                -2.214978225687379,
                -2.342149442607183,
                1.7881084958959899,
                0.06312652877287717,
                -0.7368030819489766
            ]
        },
        {
            "positions": [
                -0.07750972569628234,
                -2.2299154729227593,
                -2.355438117848079,
                1.7016809534918462,
                0.09361939208979342,
                -0.5307251727537685
            ]
        },
        {
            "positions": [
                -0.11357212701788233,
                -2.24485272015814,
                -2.368726793088976,
                1.6152534110877026,
                0.12411225540670967,
                -0.32464726355856044
            ]
        },
        {
            "positions": [
                -0.14963452833948232,
                -2.2597899673935204,
                -2.382015468329872,
                1.5288258686835592,
                0.15460511872362587,
                -0.11856935436335281
            ]
        },
        {
            "positions": [
                -0.18569692966108228,
                -2.2747272146289013,
                -2.3953041435707685,
                1.4423983262794156,
                0.1850979820405421,
                0.08750855483185464
            ]
        }
    ]
}