{
    "goal": {
        "global_pose": {
            "orientation": {
                "w": 0.7047431468963623,
                "x": -0.7094548344612122,
                "y": 0.0024358443915843964,
                "z": -0.0022348060738295317
            },
            "position": {
                "x": 0.6094750761985779,
                "y": 0.3671506643295288,
                "z": 0.19426114857196808
            }
        },
        "name": "move_to_magneteinheit_A"
    },
    "id": "BKPIECE_move_to_magneteinheit_A_100",
    "joint_names": [
        "shoulder_pan_joint",
        "shoulder_lift_joint",
        "elbow_joint",
        "wrist_1_joint",
        "wrist_2_joint",
        "wrist_3_joint"
    ],
    "metrics": {
        "cart_traj_len": 1.0534435441063292,
        "distance_elbow_joint": 0.3863587518011702,
        "distance_shoulder_lift_joint": 0.3637497840445971,
        "distance_shoulder_pan_joint": 1.2420755987188423,
        "distance_wrist_1_joint": 2.237349805276573,
        "distance_wrist_2_joint": 1.6923273546020565,
        "distance_wrist_3_joint": 1.197057610892334,
        "smoothness": 4.674623298594705e-16,
        "time": 1.91595501,
        "traj_len": 2.6681302264573916,
        "weighted_distance": 3.6664303193977203
    },
    "planner": "BKPIECE",
    "start": {
        "state": {
            "elbow_joint": 1.5739458966750683,
            "shoulder_lift_joint": -1.4977259741207325,
            "shoulder_pan_joint": -1.1188672016454206,
            "wrist_1_joint": 1.494575848278785,
            "wrist_2_joint": -1.5706037134824402,
            "wrist_3_joint": -2.0226957942261072
        }
    },
    "waypoints": [
        {
            "positions": [
                -1.1188672016454206,
                -1.4977259741207325,
                1.5739458966750683,
                1.494575848278785,
                -1.5706037134824402,
                -2.0226957942261072
            ]
        },
        {
            "positions": [
                -1.049863001716596,
                -1.4775176527849216,
                1.5954102717751333,
                1.370278636874531,
                -1.4765855271156594,
                -2.089198994831237
            ]
        },
        {
            "positions": [
                -0.9808588017877715,
                -1.4573093314491106,
                1.6168746468751984,
                1.2459814254702768,
                -1.3825673407488783,
                -2.1557021954363664
            ]
        },
        {
            "positions": [
                -0.911854601858947,
                -1.4371010101132997,
                1.6383390219752634,
                1.1216842140660228,
                -1.2885491543820975,
                -2.2222053960414963
            ]
        },
        {
            "positions": [
                -0.8428504019301224,
                -1.4168926887774886,
                1.6598033970753283,
                0.9973870026617688,
                -1.1945309680153167,
                -2.288708596646626
            ]
        },
        {
            "positions": [
                -0.7738462020012977,
                -1.3966843674416778,
                1.6812677721753935,
                0.8730897912575146,
                -1.1005127816485356,
                -2.3552117972517554
            ]
        },
        {
            "positions": [
                -0.7048420020724733,
                -1.3764760461058667,
                1.7027321472754584,
                0.7487925798532606,
                -1.0064945952817548,
                -2.4217149978568853
            ]
        },
        {
            "positions": [
                -0.6358378021436486,
                -1.3562677247700559,
                1.7241965223755233,
                0.6244953684490065,
                -0.9124764089149737,
                -2.488218198462015
            ]
        },
        {
            "positions": [
                -0.566833602214824,
                -1.3360594034342448,
                1.7456608974755885,
                0.5001981570447526,
                -0.8184582225481929,
                -2.5547213990671445
            ]
        },
        {
            "positions": [
                -0.4978294022859995,
                -1.315851082098434,
                1.7671252725756534,
                0.3759009456404985,
                -0.724440036181412,
                -2.6212245996722743
            ]
        },
        {
            "positions": [
                -0.4288252023571749,
                -1.295642760762623,
                1.7885896476757184,
                0.25160373423624427,
                -0.630421849814631,
                -2.687727800277404
            ]
        },
        {
            "positions": [
                -0.35982100242835025,
                -1.275434439426812,
                1.8100540227757835,
                0.1273065228319903,
                -0.53640366344785,
                -2.754231000882534
            ]
        },
        {
            "positions": [
                -0.2908168024995258,
                -1.2552261180910012,
                1.8315183978758485,
                0.0030093114277363053,
                -0.44238547708106934,
                -2.8207342014876633
            ]
        },
        {
            "positions": [
                -0.22181260257070123,
                -1.23501779675519,
                1.8529827729759134,
                -0.12128789997651768,
                -0.3483672907142883,
                -2.887237402092793
            ]
        },
        {
            "positions": [
                -0.15280840264187656,
                -1.2148094754193792,
                1.8744471480759786,
                -0.24558511138077188,
                -0.25434910434750724,
                -2.9537406026979225
            ]
        },
        {
            "positions": [
                -0.08380420271305189,
                -1.1946011540835682,
                1.8959115231760435,
                -0.36988232278502586,
                -0.1603309179807264,
                -3.0202438033030523
            ]
        },
        {
            "positions": [
                -0.01480000278422744,
                -1.1743928327477573,
                1.9173758982761084,
                -0.49417953418927985,
                -0.06631273161394557,
                -3.086747003908182
            ]
        },
        {
            "positions": [
                0.05420419714459701,
                -1.1541845114119464,
                1.9388402733761736,
                -0.618476745593534,
                0.027705454752835257,
                -3.153250204513312
            ]
        },
        {
            "positions": [
                0.12320839707342172,
                -1.1339761900761354,
                1.9603046484762385,
                -0.742773956997788,
                0.12172364111961624,
                -3.2197534051184413
            ]
        }
    ]
}