{
    "goal": {
        "global_pose": {
            "orientation": {
                "w": 0.5084816217422485,
                "x": -0.49083608388900757,
                "y": 0.5182115435600281,
                "z": -0.4816462993621826
            },
            "position": {
                "x": 0.5540239810943604,
                "y": 0.030875300988554955,
                "z": 0.16403168439865112
            }
        },
        "name": "move_to_storage_A"
    },
    "id": "BKPIECE_move_to_storage_A_66",
    "joint_names": [
        "shoulder_pan_joint",
        "shoulder_lift_joint",
        "elbow_joint",
        "wrist_1_joint",
        "wrist_2_joint",
        "wrist_3_joint"
    ],
    "metrics": {
        "cart_traj_len": 0.35312407519892564,
        "distance_elbow_joint": 0.4497937670862764,
        "distance_shoulder_lift_joint": 0.23383176591150678,
        "distance_shoulder_pan_joint": 0.4600390621109563,
        "distance_wrist_1_joint": 0.24562613749767392,
        "distance_wrist_2_joint": 1.105774109428732,
        "distance_wrist_3_joint": 0.10756806655959661,
        "smoothness": 1.3322676330666223e-15,
        "time": 0.586375172,
        "traj_len": 1.6132677733701686,
        "weighted_distance": 2.0418543749837648
    },
    "planner": "BKPIECE",
    "start": {
        "state": {
            "elbow_joint": 1.9715474177455299,
            "shoulder_lift_joint": -1.139484666580328,
            "shoulder_pan_joint": 0.12281154398918248,
            "wrist_1_joint": -0.7804687475355282,
            "wrist_2_joint": 0.12958649657246987,
            "wrist_3_joint": -3.1924925159053466
        }
    },
    "waypoints": [
        {
            "positions": [
                0.12281154398918248,
                -1.139484666580328,
                1.9715474177455299,
                -0.7804687475355282,
                0.12958649657246987,
                -3.1924925159053466
            ]
        },
        {
            "positions": [
                0.05709167797333159,
                -1.1728892045676862,
                2.0358036701864264,
                -0.8155581957494816,
                0.2875542264908602,
                -3.1771256492539757
            ]
        },
        {
            "positions": [
                -0.008628188042519302,
                -1.2062937425550442,
                2.1000599226273233,
                -0.8506476439634351,
                0.4455219564092505,
                -3.161758782602605
            ]
        },
        {
            "positions": [
                -0.0743480540583702,
                -1.2396982805424024,
                2.16431617506822,
                -0.8857370921773884,
                0.6034896863276409,
                -3.146391915951234
            ]
        },
        {
            "positions": [
                -0.1400679200742211,
                -1.2731028185297604,
                2.2285724275091163,
                -0.9208265403913418,
                0.7614574162460312,
                -3.1310250492998626
            ]
        },
        {
            "positions": [
                -0.20578778609007203,
                -1.3065073565171186,
                2.292828679950013,
                -0.9559159886052953,
                0.9194251461644216,
                -3.1156581826484917
            ]
        },
        {
            "positions": [
                -0.27150765210592287,
                -1.3399118945044766,
                2.3570849323909098,
                -0.9910054368192487,
                1.0773928760828118,
                -3.100291315997121
            ]
        },
        {
            "positions": [
                -0.3372275181217738,
                -1.3733164324918348,
                2.4213411848318063,
                -1.0260948850332021,
                1.2353606060012021,
                -3.08492444934575
            ]
        }
    ]
}