{
    "goal": {
        "global_pose": {
            "orientation": {
                "w": -0.4816463035849501,
                "x": 0.5182115481033762,
                "y": 0.4908360881923453,
                "z": -0.5084816262002911
            },
            "position": {
                "x": -0.8240239810943604,
                "y": 0.19912469901144506,
                "z": 0.16403168439865112
            }
        },
        "name": "move_to_storage_D"
    },
    "id": "BKPIECE_move_to_storage_D_107",
    "joint_names": [
        "shoulder_pan_joint",
        "shoulder_lift_joint",
        "elbow_joint",
        "wrist_1_joint",
        "wrist_2_joint",
        "wrist_3_joint"
    ],
    "metrics": {
        "cart_traj_len": 0.5998115579295437,
        "distance_elbow_joint": 0.8135540657250702,
        "distance_shoulder_lift_joint": 0.16335907111998482,
        "distance_shoulder_pan_joint": 0.5190764452998398,
        "distance_wrist_1_joint": 3.821268614173811,
        "distance_wrist_2_joint": 1.773226351246107,
        "distance_wrist_3_joint": 3.251420156803624,
        "smoothness": 0.20030051321005962,
        "time": 0.6188061850000001,
        "traj_len": 3.215883191965846,
        "weighted_distance": 4.737007492436086
    },
    "planner": "BKPIECE",
    "start": {
        "state": {
            "elbow_joint": -2.384821997420982,
            "shoulder_lift_joint": -2.2788054674887404,
            "shoulder_pan_joint": -0.18546946417610016,
            "wrist_1_joint": 1.4845937964226739,
            "wrist_2_joint": 0.1789877726866377,
            "wrist_3_joint": 0.03710572555276528
        }
    },
    "waypoints": [
        {
            "positions": [
                -0.18546946417610016,
                -2.2788054674887404,
                -2.384821997420982,
                1.4845937964226739,
                0.1789877726866377,
                0.03710572555276528
            ]
        },
        {
            "positions": [
                -0.07358426886813443,
                -2.2261496019236606,
                -2.4281453009112837,
                1.4617097817096298,
                0.15735492526046757,
                0.05809925892244469
            ]
        },
        {
            "positions": [
                0.038300926439831295,
                -2.1734937363585805,
                -2.471468604401585,
                1.4388257669965856,
                0.13572207783429746,
                0.0790927922921241
            ]
        },
        {
            "positions": [
                0.15018612174779705,
                -2.1208378707935007,
                -2.514791907891887,
                1.4159417522835416,
                0.11408923040812732,
                0.10008632566180353
            ]
        },
        {
            "positions": [
                0.14284928737275934,
                -2.1210535297704904,
                -2.48744854168172,
                1.2658370894821545,
                0.04575611804942345,
                -0.027451256605979885
            ]
        },
        {
            "positions": [
                0.13551245299772166,
                -2.12126918874748,
                -2.4601051754715537,
                1.1157324266807673,
                -0.022576994309280424,
                -0.1549888388737633
            ]
        },
        {
            "positions": [
                0.12817561862268395,
                -2.1214848477244703,
                -2.432761809261387,
                0.9656277638793802,
                -0.0909101066679843,
                -0.2825264211415467
            ]
        },
        {
            "positions": [
                0.12083878424764624,
                -2.12170050670146,
                -2.40541844305122,
                0.815523101077993,
                -0.15924321902668817,
                -0.41006400340933014
            ]
        },
        {
            "positions": [
                0.11350194987260853,
                -2.1219161656784498,
                -2.378075076841054,
                0.6654184382766057,
                -0.22757633138539204,
                -0.5376015856771136
            ]
        },
        {
            "positions": [
                0.10616511549757085,
                -2.1221318246554395,
                -2.350731710630887,
                0.5153137754752187,
                -0.2959094437440959,
                -0.6651391679448969
            ]
        },
        {
            "positions": [
                0.09882828112253314,
                -2.122347483632429,
                -2.3233883444207204,
                0.3652091126738315,
                -0.3642425561027999,
                -0.7926767502126805
            ]
        },
        {
            "positions": [
                0.09149144674749543,
                -2.1225631426094194,
                -2.296044978210554,
                0.21510444987244437,
                -0.43257566846150364,
                -0.9202143324804638
            ]
        },
        {
            "positions": [
                0.08415461237245773,
                -2.122778801586409,
                -2.2687016120003873,
                0.06499978707105725,
                -0.5009087808202075,
                -1.0477519147482472
            ]
        },
        {
            "positions": [
                0.07681777799742003,
                -2.122994460563399,
                -2.2413582457902206,
                -0.0851048757303301,
                -0.5692418931789114,
                -1.1752894970160308
            ]
        },
        {
            "positions": [
                0.06948094362238233,
                -2.1232101195403885,
                -2.214014879580054,
                -0.235209538531717,
                -0.6375750055376153,
                -1.302827079283814
            ]
        },
        {
            "positions": [
                0.062144109247344634,
                -2.1234257785173782,
                -2.1866715133698875,
                -0.3853142013331041,
                -0.7059081178963191,
                -1.4303646615515975
            ]
        },
        {
            "positions": [
                0.054807274872306924,
                -2.1236414374943684,
                -2.1593281471597208,
                -0.5354188641344915,
                -0.774241230255023,
                -1.557902243819381
            ]
        },
        {
            "positions": [
                0.047470440497269215,
                -2.123857096471358,
                -2.131984780949554,
                -0.6855235269358786,
                -0.842574342613727,
                -1.6854398260871646
            ]
        },
        {
            "positions": [
                0.04013360612223153,
                -2.124072755448348,
                -2.1046414147393877,
                -0.8356281897372655,
                -0.9109074549724308,
                -1.8129774083549477
            ]
        },
        {
            "positions": [
                0.03279677174719382,
                -2.1242884144253376,
                -2.077298048529221,
                -0.9857328525386528,
                -0.9792405673311346,
                -1.9405149906227313
            ]
        },
        {
            "positions": [
                0.025459937372156113,
                -2.1245040734023273,
                -2.049954682319054,
                -1.1358375153400402,
                -1.0475736796898385,
                -2.068052572890515
            ]
        },
        {
            "positions": [
                0.018123102997118418,
                -2.1247197323793174,
                -2.022611316108888,
                -1.285942178141427,
                -1.1159067920485424,
                -2.195590155158298
            ]
        },
        {
            "positions": [
                0.010786268622080708,
                -2.124935391356307,
                -1.9952679498987211,
                -1.4360468409428144,
                -1.1842399044072462,
                -2.3231277374260815
            ]
        },
        {
            "positions": [
                0.0034494342470429984,
                -2.125151050333297,
                -1.9679245836885544,
                -1.5861515037442018,
                -1.2525730167659501,
                -2.450665319693865
            ]
        },
        {
            "positions": [
                -0.0038874001279946835,
                -2.1253667093102866,
                -1.940581217478388,
                -1.7362561665455882,
                -1.320906129124654,
                -2.578202901961648
            ]
        },
        {
            "positions": [
                -0.011224234503032393,
                -2.1255823682872763,
                -1.9132378512682213,
                -1.8863608293469756,
                -1.3892392414833579,
                -2.7057404842294317
            ]
        },
        {
            "positions": [
                -0.018561068878070103,
                -2.1257980272642665,
                -1.8858944850580546,
                -2.0364654921483627,
                -1.4575723538420617,
                -2.8332780664972153
            ]
        },
        {
            "positions": [
                -0.025897903253107785,
                -2.126013686241256,
                -1.8585511188478883,
                -2.1865701549497496,
                -1.5259054662007656,
                -2.9608156487649984
            ]
        },
        {
            "positions": [
                -0.03323473762814551,
                -2.126229345218246,
                -1.8312077526377215,
                -2.336674817751137,
                -1.5942385785594695,
                -3.088353231032782
            ]
        }
    ]
}