{
    "goal": {
        "global_pose": {
            "orientation": {
                "w": 0.5084816217422485,
                "x": -0.49083608388900757,
                "y": 0.5182115435600281,
                "z": -0.4816462993621826
            },
            "position": {
                "x": 0.5540239810943604,
                "y": 0.030875300988554955,
                "z": 0.16403168439865112
            }
        },
        "name": "move_to_storage_A"
    },
    "id": "BKPIECE_move_to_storage_A_74",
    "joint_names": [
        "shoulder_pan_joint",
        "shoulder_lift_joint",
        "elbow_joint",
        "wrist_1_joint",
        "wrist_2_joint",
        "wrist_3_joint"
    ],
    "metrics": {
        "cart_traj_len": 0.35395615671806996,
        "distance_elbow_joint": 0.44961101619253796,
        "distance_shoulder_lift_joint": 0.23626672651718383,
        "distance_shoulder_pan_joint": 0.46310536869431845,
        "distance_wrist_1_joint": 0.23682231040978718,
        "distance_wrist_2_joint": 1.1004076083863392,
        "distance_wrist_3_joint": 0.1032688041283194,
        "smoothness": 1.1102230263833737e-15,
        "time": 1.198859769,
        "traj_len": 1.6091866996493867,
        "weighted_distance": 2.0330394392094933
    },
    "planner": "BKPIECE",
    "start": {
        "state": {
            "elbow_joint": 1.9715474177455299,
            "shoulder_lift_joint": -1.139484666580328,
            "shoulder_pan_joint": 0.12281154398918248,
            "wrist_1_joint": -0.7804687475355282,
            "wrist_2_joint": 0.12958649657246987,
            "wrist_3_joint": -3.1924925159053466
        }
    },
    "waypoints": [
        {
            "positions": [
                0.12281154398918248,
                -1.139484666580328,
                1.9715474177455299,
                -0.7804687475355282,
                0.12958649657246987,
                -3.1924925159053466
            ]
        },
        {
            "positions": [
                0.056653634175708414,
                -1.1732370560827827,
                2.0357775629158925,
                -0.8143005061654978,
                0.28678758348480404,
                -3.177739829601301
            ]
        },
        {
            "positions": [
                -0.009504275637765652,
                -1.2069894455852377,
                2.100007708086255,
                -0.8481322647954674,
                0.4439886703971382,
                -3.162987143297255
            ]
        },
        {
            "positions": [
                -0.0756621854512397,
                -1.2407418350876924,
                2.1642378532566178,
                -0.881964023425437,
                0.6011897573094723,
                -3.1482344569932095
            ]
        },
        {
            "positions": [
                -0.14182009526471379,
                -1.2744942245901474,
                2.22846799842698,
                -0.9157957820554066,
                0.7583908442218066,
                -3.1334817706891642
            ]
        },
        {
            "positions": [
                -0.20797800507818787,
                -1.3082466140926021,
                2.2926981435973426,
                -0.9496275406853762,
                0.9155919311341408,
                -3.1187290843851185
            ]
        },
        {
            "positions": [
                -0.2741359148916619,
                -1.341999003595057,
                2.356928288767705,
                -0.9834592993153457,
                1.0727930180464749,
                -3.103976398081073
            ]
        },
        {
            "positions": [
                -0.34029382470513597,
                -1.3757513930975118,
                2.421158433938068,
                -1.0172910579453154,
                1.229994104958809,
                -3.089223711777027
            ]
        }
    ]
}