{
    "goal": {
        "global_pose": {
            "orientation": {
                "w": 0.005598929693374612,
                "x": 0.007748599140229565,
                "y": 0.7110244013736278,
                "z": -0.7031023480610252
            },
            "position": {
                "x": -0.8858502320852131,
                "y": -0.7141253447532654,
                "z": 0.3711530566215515
            }
        },
        "name": "move_to_auspresseinheit_C"
    },
    "id": "BKPIECE_move_to_auspresseinheit_C_132",
    "joint_names": [
        "shoulder_pan_joint",
        "shoulder_lift_joint",
        "elbow_joint",
        "wrist_1_joint",
        "wrist_2_joint",
        "wrist_3_joint"
    ],
    "metrics": {
        "cart_traj_len": 0.4931586960113725,
        "distance_elbow_joint": 0.9935378750578073,
        "distance_shoulder_lift_joint": 0.32199601382436105,
        "distance_shoulder_pan_joint": 0.2566962305622149,
        "distance_wrist_1_joint": 0.6616798834908472,
        "distance_wrist_2_joint": 1.3144583854827756,
        "distance_wrist_3_joint": 0.05262291719157508,
        "smoothness": 0.0,
        "time": 1.390832818,
        "traj_len": 1.8976278100854185,
        "weighted_distance": 2.3837733552010256
    },
    "planner": "BKPIECE",
    "start": {
        "state": {
            "elbow_joint": 1.752795957773711,
            "shoulder_lift_joint": -0.9740617694225064,
            "shoulder_pan_joint": -2.967991417825858,
            "wrist_1_joint": -0.7595177689806859,
            "wrist_2_joint": 1.7443932448377395,
            "wrist_3_joint": 3.199131542505932
        }
    },
    "waypoints": [
        {
            "positions": [
                -2.967991417825858,
                -0.9740617694225064,
                1.752795957773711,
                -0.7595177689806859,
                1.7443932448377395,
                3.199131542505932
            ]
        },
        {
            "positions": [
                -2.9423217947696365,
                -0.9418621680400703,
                1.6534421702679303,
                -0.6933497806316011,
                1.612947406289462,
                3.1938692507867747
            ]
        },
        {
            "positions": [
                -2.916652171713415,
                -0.9096625666576342,
                1.5540883827621497,
                -0.6271817922825165,
                1.4815015677411845,
                3.188606959067617
            ]
        },
        {
            "positions": [
                -2.8909825486571936,
                -0.8774629652751982,
                1.4547345952563688,
                -0.5610138039334318,
                1.3500557291929067,
                3.1833446673484596
            ]
        },
        {
            "positions": [
                -2.865312925600972,
                -0.845263363892762,
                1.3553808077505882,
                -0.49484581558434704,
                1.2186098906446292,
                3.178082375629302
            ]
        },
        {
            "positions": [
                -2.8396433025447507,
                -0.8130637625103259,
                1.2560270202448074,
                -0.4286778272352623,
                1.0871640520963517,
                3.1728200839101444
            ]
        },
        {
            "positions": [
                -2.813973679488529,
                -0.7808641611278898,
                1.1566732327390268,
                -0.3625098388861776,
                0.9557182135480742,
                3.167557792190987
            ]
        },
        {
            "positions": [
                -2.7883040564323074,
                -0.7486645597454538,
                1.057319445233246,
                -0.29634185053709294,
                0.8242723749997967,
                3.1622955004718296
            ]
        },
        {
            "positions": [
                -2.762634433376086,
                -0.7164649583630176,
                0.9579656577274652,
                -0.23017386218800817,
                0.6928265364515189,
                3.1570332087526722
            ]
        },
        {
            "positions": [
                -2.7369648103198645,
                -0.6842653569805814,
                0.8586118702216845,
                -0.1640058738389234,
                0.5613806979032414,
                3.1517709170335144
            ]
        },
        {
            "positions": [
                -2.711295187263643,
                -0.6520657555981454,
                0.7592580827159038,
                -0.09783788548983877,
                0.42993485935496384,
                3.146508625314357
            ]
        }
    ]
}