{
    "goal": {
        "global_pose": {
            "orientation": {
                "w": -0.00223480608172531,
                "x": 0.0024358444001904467,
                "y": 0.7094548369677653,
                "z": -0.704743149386269
            },
            "position": {
                "x": 0.6205249238014221,
                "y": -0.6371506643295288,
                "z": 0.19426114857196808
            }
        },
        "name": "move_to_magneteinheit_B"
    },
    "id": "BKPIECE_move_to_magneteinheit_B_54",
    "joint_names": [
        "shoulder_pan_joint",
        "shoulder_lift_joint",
        "elbow_joint",
        "wrist_1_joint",
        "wrist_2_joint",
        "wrist_3_joint"
    ],
    "metrics": {
        "cart_traj_len": 1.4532713858471573,
        "distance_elbow_joint": 0.7313650554343281,
        "distance_shoulder_lift_joint": 1.248663390877815,
        "distance_shoulder_pan_joint": 1.6208257604093799,
        "distance_wrist_1_joint": 2.606472626928412,
        "distance_wrist_2_joint": 2.946014472645289,
        "distance_wrist_3_joint": 3.129399720884983,
        "smoothness": 4.844609554812709e-16,
        "time": 0.704035926,
        "traj_len": 3.5046741684756104,
        "weighted_distance": 4.9085667529864425
    },
    "planner": "BKPIECE",
    "start": {
        "state": {
            "elbow_joint": 2.3935871308073637,
            "shoulder_lift_joint": -1.9085141043777403,
            "shoulder_pan_joint": 0.7066247067284167,
            "wrist_1_joint": -0.46782909355067076,
            "wrist_2_joint": 0.7096259085804283,
            "wrist_3_joint": -3.1358149275257428
        }
    },
    "waypoints": [
        {
            "positions": [
                0.7066247067284167,
                -1.9085141043777403,
                2.3935871308073637,
                -0.46782909355067076,
                0.7096259085804283,
                -3.1358149275257428
            ]
        },
        {
            "positions": [
                0.6559739017156236,
                -1.8694933734128085,
                2.370731972825041,
                -0.3863768239591579,
                0.617562956310263,
                -3.038021186248087
            ]
        },
        {
            "positions": [
                0.6053230967028305,
                -1.8304726424478768,
                2.347876814842718,
                -0.304924554367645,
                0.5255000040400977,
                -2.9402274449704313
            ]
        },
        {
            "positions": [
                0.5546722916900373,
                -1.791451911482945,
                2.3250216568603954,
                -0.22347228477613212,
                0.4334370517699324,
                -2.842433703692776
            ]
        },
        {
            "positions": [
                0.5040214866772442,
                -1.7524311805180135,
                2.302166498878073,
                -0.14202001518461926,
                0.34137409949976716,
                -2.74463996241512
            ]
        },
        {
            "positions": [
                0.4533706816644511,
                -1.7134104495530817,
                2.27931134089575,
                -0.060567745593106403,
                0.2493111472296019,
                -2.646846221137464
            ]
        },
        {
            "positions": [
                0.402719876651658,
                -1.67438971858815,
                2.256456182913427,
                0.020884523998406512,
                0.15724819495943654,
                -2.5490524798598084
            ]
        },
        {
            "positions": [
                0.35206907163886486,
                -1.6353689876232183,
                2.2336010249311045,
                0.10233679358991937,
                0.06518524268927128,
                -2.451258738582153
            ]
        },
        {
            "positions": [
                0.30141826662607174,
                -1.5963482566582865,
                2.210745866948782,
                0.18378906318143223,
                -0.02687770958089397,
                -2.353464997304497
            ]
        },
        {
            "positions": [
                0.2507674616132786,
                -1.5573275256933548,
                2.187890708966459,
                0.2652413327729451,
                -0.11894066185105923,
                -2.255671256026841
            ]
        },
        {
            "positions": [
                0.2001166566004855,
                -1.518306794728423,
                2.165035550984136,
                0.34669360236445795,
                -0.21100361412122448,
                -2.1578775147491855
            ]
        },
        {
            "positions": [
                0.14946585158769243,
                -1.4792860637634915,
                2.1421803930018135,
                0.4281458719559708,
                -0.30306656639138974,
                -2.06008377347153
            ]
        },
        {
            "positions": [
                0.09881504657489926,
                -1.4402653327985595,
                2.119325235019491,
                0.5095981415474837,
                -0.3951295186615552,
                -1.962290032193874
            ]
        },
        {
            "positions": [
                0.04816424156210608,
                -1.401244601833628,
                2.096470077037168,
                0.5910504111389965,
                -0.48719247093172047,
                -1.8644962909162184
            ]
        },
        {
            "positions": [
                -0.002486563450686985,
                -1.3622238708686962,
                2.073614919054845,
                0.6725026807305095,
                -0.5792554232018857,
                -1.7667025496385627
            ]
        },
        {
            "positions": [
                -0.05313736846348005,
                -1.3232031399037645,
                2.0507597610725226,
                0.7539549503220222,
                -0.671318375472051,
                -1.668908808360907
            ]
        },
        {
            "positions": [
                -0.10378817347627323,
                -1.2841824089388327,
                2.0279046030901995,
                0.8354072199135352,
                -0.7633813277422162,
                -1.5711150670832512
            ]
        },
        {
            "positions": [
                -0.1544389784890664,
                -1.245161677973901,
                2.005049445107877,
                0.9168594895050481,
                -0.8554442800123815,
                -1.4733213258055955
            ]
        },
        {
            "positions": [
                -0.20508978350185947,
                -1.2061409470089692,
                1.9821942871255542,
                0.9983117590965609,
                -0.9475072322825467,
                -1.3755275845279398
            ]
        },
        {
            "positions": [
                -0.25574058851465253,
                -1.1671202160440375,
                1.9593391291432314,
                1.0797640286880739,
                -1.039570184552712,
                -1.277733843250284
            ]
        },
        {
            "positions": [
                -0.3063913935274457,
                -1.128099485079106,
                1.9364839711609088,
                1.1612162982795866,
                -1.1316331368228774,
                -1.1799401019726283
            ]
        },
        {
            "positions": [
                -0.3570421985402389,
                -1.089078754114174,
                1.913628813178586,
                1.2426685678710996,
                -1.2236960890930426,
                -1.0821463606949728
            ]
        },
        {
            "positions": [
                -0.40769300355303184,
                -1.0500580231492425,
                1.8907736551962633,
                1.3241208374626123,
                -1.3157590413632079,
                -0.9843526194173169
            ]
        },
        {
            "positions": [
                -0.458343808565825,
                -1.0110372921843107,
                1.8679184972139404,
                1.4055731070541253,
                -1.4078219936333731,
                -0.8865588781396609
            ]
        },
        {
            "positions": [
                -0.5089946135786182,
                -0.972016561219379,
                1.8450633392316176,
                1.4870253766456383,
                -1.4998849459035388,
                -0.7887651368620054
            ]
        },
        {
            "positions": [
                -0.5596454185914114,
                -0.9329958302544472,
                1.822208181249295,
                1.568477646237151,
                -1.591947898173704,
                -0.69097139558435
            ]
        },
        {
            "positions": [
                -0.6102962236042045,
                -0.8939750992895155,
                1.7993530232669723,
                1.6499299158286638,
                -1.6840108504438693,
                -0.593177654306694
            ]
        },
        {
            "positions": [
                -0.6609470286169975,
                -0.8549543683245837,
                1.7764978652846495,
                1.731382185420177,
                -1.7760738027140346,
                -0.49538391302903806
            ]
        },
        {
            "positions": [
                -0.7115978336297907,
                -0.8159336373596522,
                1.7536427073023266,
                1.8128344550116897,
                -1.8681367549841998,
                -0.39759017175138256
            ]
        },
        {
            "positions": [
                -0.7622486386425839,
                -0.7769129063947204,
                1.730787549320004,
                1.8942867246032025,
                -1.960199707254365,
                -0.29979643047372706
            ]
        },
        {
            "positions": [
                -0.8128994436553768,
                -0.7378921754297887,
                1.7079323913376812,
                1.9757389941947152,
                -2.0522626595245304,
                -0.20200268919607112
            ]
        },
        {
            "positions": [
                -0.86355024866817,
                -0.6988714444648569,
                1.6850772333553583,
                2.0571912637862284,
                -2.1443256117946956,
                -0.10420894791841517
            ]
        },
        {
            "positions": [
                -0.914201053680963,
                -0.6598507134999252,
                1.6622220753730357,
                2.138643533377741,
                -2.236388564064861,
                -0.00641520664075951
            ]
        }
    ]
}