{
    "goal": {
        "global_pose": {
            "orientation": {
                "w": 0.7031023502349854,
                "x": -0.7110244035720825,
                "y": 0.007748599164187908,
                "z": 0.005598929710686207
            },
            "position": {
                "x": 0.11585023208521307,
                "y": 0.44412534475326537,
                "z": 0.3711530566215515
            }
        },
        "name": "move_to_auspresseinheit_A"
    },
    "id": "BKPIECE_move_to_auspresseinheit_A_120",
    "joint_names": [
        "shoulder_pan_joint",
        "shoulder_lift_joint",
        "elbow_joint",
        "wrist_1_joint",
        "wrist_2_joint",
        "wrist_3_joint"
    ],
    "metrics": {
        "cart_traj_len": 3.747807755675466,
        "distance_elbow_joint": 1.321392344893594,
        "distance_shoulder_lift_joint": 0.8693422845247685,
        "distance_shoulder_pan_joint": 6.267919652114122,
        "distance_wrist_1_joint": 0.6937319240403403,
        "distance_wrist_2_joint": 2.4461003002943293,
        "distance_wrist_3_joint": 7.845515230515897,
        "smoothness": 0.6418951209132592,
        "time": 1.686133604,
        "traj_len": 4.4095353197795175,
        "weighted_distance": 6.186668281211584
    },
    "planner": "BKPIECE",
    "start": {
        "state": {
            "elbow_joint": 2.4225747245308327,
            "shoulder_lift_joint": -1.373653427065438,
            "shoulder_pan_joint": -0.33786330853087027,
            "wrist_1_joint": -1.0288602302712604,
            "wrist_2_joint": 1.23302299562683,
            "wrist_3_joint": -3.094021725338297
        }
    },
    "waypoints": [
        {
            "positions": [
                -0.33786330853087027,
                -1.373653427065438,
                2.4225747245308327,
                -1.0288602302712604,
                1.23302299562683,
                -3.094021725338297
            ]
        },
        {
            "positions": [
                -0.44665889409903947,
                -1.402944554214314,
                2.394413887243735,
                -1.002552133410048,
                1.2733018356393224,
                -2.9313805391107346
            ]
        },
        {
            "positions": [
                -0.5554544796672086,
                -1.43223568136319,
                2.3662530499566374,
                -0.9762440365488355,
                1.3135806756518151,
                -2.7687393528831725
            ]
        },
        {
            "positions": [
                -0.6642500652353778,
                -1.461526808512066,
                2.3380922126695403,
                -0.9499359396876231,
                1.3538595156643076,
                -2.60609816665561
            ]
        },
        {
            "positions": [
                -0.773045650803547,
                -1.4908179356609421,
                2.3099313753824426,
                -0.9236278428264106,
                1.3941383556768003,
                -2.443456980428048
            ]
        },
        {
            "positions": [
                -0.8818412363717163,
                -1.5201090628098182,
                2.281770538095345,
                -0.8973197459651983,
                1.4344171956892928,
                -2.2808157942004854
            ]
        },
        {
            "positions": [
                -0.9906368219398853,
                -1.5494001899586942,
                2.2536097008082474,
                -0.8710116491039859,
                1.4746960357017853,
                -2.1181746079729233
            ]
        },
        {
            "positions": [
                -1.0994324075080546,
                -1.5786913171075703,
                2.22544886352115,
                -0.8447035522427734,
                1.514974875714278,
                -1.9555334217453608
            ]
        },
        {
            "positions": [
                -1.2082279930762236,
                -1.6079824442564463,
                2.197288026234052,
                -0.818395455381561,
                1.5552537157267705,
                -1.7928922355177985
            ]
        },
        {
            "positions": [
                -1.317023578644393,
                -1.6372735714053221,
                2.1691271889469546,
                -0.7920873585203485,
                1.5955325557392632,
                -1.6302510492902362
            ]
        },
        {
            "positions": [
                -1.4258191642125622,
                -1.6665646985541984,
                2.1409663516598574,
                -0.7657792616591361,
                1.6358113957517557,
                -1.4676098630626737
            ]
        },
        {
            "positions": [
                -1.5346147497807312,
                -1.6958558257030742,
                2.1128055143727598,
                -0.7394711647979237,
                1.6760902357642484,
                -1.3049686768351114
            ]
        },
        {
            "positions": [
                -1.6434103353489005,
                -1.7251469528519503,
                2.084644677085662,
                -0.7131630679367112,
                1.716369075776741,
                -1.1423274906075491
            ]
        },
        {
            "positions": [
                -1.7522059209170695,
                -1.7544380800008263,
                2.0564838397985645,
                -0.6868549710754989,
                1.7566479157892334,
                -0.979686304379987
            ]
        },
        {
            "positions": [
                -1.861001506485239,
                -1.7837292071497024,
                2.028323002511467,
                -0.6605468742142864,
                1.7969267558017261,
                -0.8170451181524245
            ]
        },
        {
            "positions": [
                -1.969797092053408,
                -1.8130203342985785,
                2.0001621652243697,
                -0.634238777353074,
                1.8372055958142186,
                -0.654403931924862
            ]
        },
        {
            "positions": [
                -2.078592677621577,
                -1.8423114614474545,
                1.9720013279372721,
                -0.6079306804918616,
                1.877484435826711,
                -0.49176274569729994
            ]
        },
        {
            "positions": [
                -2.1873882631897468,
                -1.8716025885963306,
                1.9438404906501745,
                -0.581622583630649,
                1.9177632758392038,
                -0.3291215594697374
            ]
        },
        {
            "positions": [
                -2.2961838487579156,
                -1.9008937157452066,
                1.9156796533630769,
                -0.5553144867694366,
                1.9580421158516965,
                -0.16648037324217535
            ]
        },
        {
            "positions": [
                -2.404979434326085,
                -1.9301848428940827,
                1.8875188160759793,
                -0.5290063899082242,
                1.998320955864189,
                -0.0038391870146128326
            ]
        },
        {
            "positions": [
                -2.513775019894254,
                -1.9594759700429587,
                1.8593579787888816,
                -0.5026982930470117,
                2.0385997958766815,
                0.15880199921294968
            ]
        },
        {
            "positions": [
                -2.6225706054624234,
                -1.9887670971918348,
                1.8311971415017843,
                -0.47639019618579936,
                2.078878635889174,
                0.32144318544051176
            ]
        },
        {
            "positions": [
                -2.731366191030592,
                -2.018058224340711,
                1.8030363042146869,
                -0.450082099324587,
                2.119157475901667,
                0.4840843716680743
            ]
        },
        {
            "positions": [
                -2.8401617765987615,
                -2.047349351489587,
                1.7748754669275892,
                -0.4237740024633745,
                2.159436315914159,
                0.6467255578956368
            ]
        },
        {
            "positions": [
                -2.9489573621669307,
                -2.076640478638463,
                1.7467146296404916,
                -0.3974659056021621,
                2.199715155926652,
                0.8093667441231989
            ]
        },
        {
            "positions": [
                -2.8083102237639284,
                -2.0702422004480114,
                1.7715427931021552,
                -0.39986350557797906,
                2.14281484284994,
                0.657746484082645
            ]
        },
        {
            "positions": [
                -2.667663085360926,
                -2.0638439222575595,
                1.7963709565638188,
                -0.402261105553796,
                2.085914529773228,
                0.5061262240420912
            ]
        },
        {
            "positions": [
                -2.5270159469579236,
                -2.057445644067108,
                1.8211991200254825,
                -0.40465870552961297,
                2.0290142166965164,
                0.35450596400153733
            ]
        },
        {
            "positions": [
                -2.3863688085549213,
                -2.051047365876656,
                1.8460272834871458,
                -0.4070563055054299,
                1.9721139036198045,
                0.2028857039609835
            ]
        },
        {
            "positions": [
                -2.245721670151919,
                -2.0446490876862047,
                1.8708554469488095,
                -0.4094539054812469,
                1.915213590543093,
                0.05126544392042964
            ]
        },
        {
            "positions": [
                -2.1050745317489166,
                -2.0382508094957528,
                1.895683610410473,
                -0.41185150545706384,
                1.858313277466381,
                -0.1003548161201242
            ]
        },
        {
            "positions": [
                -1.9644273933459147,
                -2.0318525313053013,
                1.9205117738721367,
                -0.4142491054328808,
                1.8014129643896692,
                -0.2519750761606778
            ]
        },
        {
            "positions": [
                -1.823780254942912,
                -2.0254542531148494,
                1.9453399373338003,
                -0.41664670540869775,
                1.7445126513129574,
                -0.4035953362012319
            ]
        },
        {
            "positions": [
                -1.68313311653991,
                -2.019055974924398,
                1.970168100795464,
                -0.4190443053845147,
                1.6876123382362458,
                -0.5552155962417855
            ]
        },
        {
            "positions": [
                -1.5424859781369074,
                -2.012657696733946,
                1.9949962642571273,
                -0.42144190536033166,
                1.630712025159534,
                -0.7068358562823396
            ]
        },
        {
            "positions": [
                -1.4018388397339052,
                -2.0062594185434945,
                2.019824427718791,
                -0.4238395053361486,
                1.5738117120828221,
                -0.8584561163228932
            ]
        },
        {
            "positions": [
                -1.2611917013309026,
                -1.9998611403530429,
                2.0446525911804545,
                -0.42623710531196557,
                1.5169113990061103,
                -1.0100763763634473
            ]
        },
        {
            "positions": [
                -1.1205445629279005,
                -1.9934628621625912,
                2.069480754642118,
                -0.4286347052877826,
                1.4600110859293984,
                -1.161696636404001
            ]
        },
        {
            "positions": [
                -0.9798974245248984,
                -1.9870645839721395,
                2.0943089181037817,
                -0.4310323052635995,
                1.4031107728526866,
                -1.3133168964445545
            ]
        },
        {
            "positions": [
                -0.8392502861218962,
                -1.9806663057816878,
                2.1191370815654453,
                -0.4334299052394165,
                1.3462104597759748,
                -1.4649371564851084
            ]
        },
        {
            "positions": [
                -0.6986031477188934,
                -1.974268027591236,
                2.143965245027109,
                -0.43582750521523345,
                1.289310146699263,
                -1.6165574165256626
            ]
        },
        {
            "positions": [
                -0.5579560093158911,
                -1.9678697494007844,
                2.1687934084887726,
                -0.4382251051910504,
                1.232409833622551,
                -1.768177676566216
            ]
        },
        {
            "positions": [
                -0.41730887091288915,
                -1.9614714712103327,
                2.193621571950436,
                -0.44062270516686736,
                1.1755095205458395,
                -1.91979793660677
            ]
        },
        {
            "positions": [
                -0.2766617325098868,
                -1.955073193019881,
                2.2184497354120998,
                -0.4430203051426843,
                1.1186092074691276,
                -2.0714181966473237
            ]
        },
        {
            "positions": [
                -0.136014594106884,
                -1.9486749148294296,
                2.243277898873763,
                -0.44541790511850127,
                1.0617088943924158,
                -2.223038456687878
            ]
        },
        {
            "positions": [
                0.004632544296118368,
                -1.9422766366389779,
                2.268106062335427,
                -0.4478155050943182,
                1.004808581315704,
                -2.3746587167284314
            ]
        },
        {
            "positions": [
                0.14527968269912028,
                -1.9358783584485262,
                2.29293422579709,
                -0.4502131050701352,
                0.9479082682389921,
                -2.5262789767689853
            ]
        },
        {
            "positions": [
                0.28592682110212264,
                -1.9294800802580745,
                2.3177623892587538,
                -0.45261070504595213,
                0.8910079551622805,
                -2.677899236809539
            ]
        },
        {
            "positions": [
                0.42657395950512544,
                -1.9230818020676228,
                2.3425905527204174,
                -0.4550083050217691,
                0.8341076420855684,
                -2.8295194968500934
            ]
        },
        {
            "positions": [
                0.5672210979081274,
                -1.9166835238771711,
                2.367418716182081,
                -0.45740590499758604,
                0.7772073290088568,
                -2.981139756890647
            ]
        },
        {
            "positions": [
                0.7078682363111295,
                -1.9102852456867194,
                2.3922468796437446,
                -0.459803504973403,
                0.7203070159321449,
                -3.1327600169312007
            ]
        }
    ]
}