{
    "goal": {
        "global_pose": {
            "orientation": {
                "w": 0.7031023480610252,
                "x": -0.7110244013736278,
                "y": 0.0077485991402295624,
                "z": 0.005598929693374583
            },
            "position": {
                "x": -0.8841497679147869,
                "y": 0.44412534475326537,
                "z": 0.3711530566215515
            }
        },
        "name": "move_to_auspresseinheit_D"
    },
    "id": "BKPIECE_move_to_auspresseinheit_D_137",
    "joint_names": [
        "shoulder_pan_joint",
        "shoulder_lift_joint",
        "elbow_joint",
        "wrist_1_joint",
        "wrist_2_joint",
        "wrist_3_joint"
    ],
    "metrics": {
        "cart_traj_len": 8.678975134049105,
        "distance_elbow_joint": 9.665536951194866,
        "distance_shoulder_lift_joint": 2.2831030085911093,
        "distance_shoulder_pan_joint": 4.879357903022901,
        "distance_wrist_1_joint": 5.659440705027337,
        "distance_wrist_2_joint": 2.2106158017222572,
        "distance_wrist_3_joint": 15.651405301685374,
        "smoothness": 0.560005146448315,
        "time": 0.9905117250000001,
        "traj_len": 6.352122454049811,
        "weighted_distance": 8.917529185899204
    },
    "planner": "BKPIECE",
    "start": {
        "state": {
            "elbow_joint": 1.8268400409724999,
            "shoulder_lift_joint": -1.0144045787793008,
            "shoulder_pan_joint": 2.6280239544362485,
            "wrist_1_joint": -0.790705565816056,
            "wrist_2_joint": 1.0573557467365533,
            "wrist_3_joint": 3.1851377467193758
        }
    },
    "waypoints": [
        {
            "positions": [
                2.6280239544362485,
                -1.0144045787793008,
                1.8268400409724999,
                -0.790705565816056,
                1.0573557467365533,
                3.1851377467193758
            ]
        },
        {
            "positions": [
                2.5829772939732463,
                -1.0344136845248115,
                1.7145911989905955,
                -0.7469352819169176,
                1.0696666584523702,
                3.02659392959147
            ]
        },
        {
            "positions": [
                2.5379306335102436,
                -1.0544227902703223,
                1.6023423570086914,
                -0.7031649980177793,
                1.081977570168187,
                2.868050112463565
            ]
        },
        {
            "positions": [
                2.4928839730472414,
                -1.074431896015833,
                1.490093515026787,
                -0.6593947141186409,
                1.0942884818840037,
                2.7095062953356592
            ]
        },
        {
            "positions": [
                2.447837312584239,
                -1.0944410017613437,
                1.377844673044883,
                -0.6156244302195025,
                1.1065993935998206,
                2.5509624782077536
            ]
        },
        {
            "positions": [
                2.4027906521212365,
                -1.1144501075068545,
                1.2655958310629787,
                -0.5718541463203642,
                1.1189103053156375,
                2.392418661079848
            ]
        },
        {
            "positions": [
                2.3577439916582343,
                -1.1344592132523652,
                1.1533469890810744,
                -0.5280838624212258,
                1.1312212170314544,
                2.2338748439519427
            ]
        },
        {
            "positions": [
                2.312697331195232,
                -1.1544683189978757,
                1.0410981470991703,
                -0.4843135785220875,
                1.1435321287472713,
                2.0753310268240375
            ]
        },
        {
            "positions": [
                2.2676506707322295,
                -1.1744774247433867,
                0.9288493051172659,
                -0.4405432946229491,
                1.155843040463088,
                1.9167872096961314
            ]
        },
        {
            "positions": [
                2.2226040102692273,
                -1.1944865304888972,
                0.8166004631353616,
                -0.39677301072381077,
                1.1681539521789048,
                1.758243392568226
            ]
        },
        {
            "positions": [
                2.177557349806225,
                -1.214495636234408,
                0.7043516211534575,
                -0.35300272682467243,
                1.1804648638947217,
                1.5996995754403205
            ]
        },
        {
            "positions": [
                2.1325106893432224,
                -1.2345047419799187,
                0.5921027791715532,
                -0.30923244292553403,
                1.1927757756105386,
                1.4411557583124148
            ]
        },
        {
            "positions": [
                2.08746402888022,
                -1.2545138477254294,
                0.4798539371896491,
                -0.2654621590263957,
                1.2050866873263555,
                1.2826119411845096
            ]
        },
        {
            "positions": [
                2.042417368417218,
                -1.2745229534709401,
                0.36760509520774476,
                -0.2216918751272573,
                1.2173975990421722,
                1.124068124056604
            ]
        },
        {
            "positions": [
                1.9973707079542156,
                -1.2945320592164509,
                0.25535625322584066,
                -0.177921591228119,
                1.229708510757989,
                0.9655243069286987
            ]
        },
        {
            "positions": [
                1.9523240474912131,
                -1.3145411649619616,
                0.14310741124393633,
                -0.13415130732898062,
                1.242019422473806,
                0.8069804898007926
            ]
        },
        {
            "positions": [
                1.907277387028211,
                -1.3345502707074723,
                0.03085856926203201,
                -0.09038102342984222,
                1.2543303341896228,
                0.648436672672887
            ]
        },
        {
            "positions": [
                1.8622307265652085,
                -1.354559376452983,
                -0.08139027271987209,
                -0.04661073953070394,
                1.2666412459054397,
                0.48989285554498174
            ]
        },
        {
            "positions": [
                1.817184066102206,
                -1.3745684821984938,
                -0.19363911470177664,
                -0.0028404556315655416,
                1.2789521576212564,
                0.3313490384170761
            ]
        },
        {
            "positions": [
                1.7721374056392039,
                -1.3945775879440045,
                -0.3058879566836805,
                0.04092982826757274,
                1.2912630693370732,
                0.17280522128917086
            ]
        },
        {
            "positions": [
                1.7270907451762014,
                -1.414586693689515,
                -0.41813679866558484,
                0.08470011216671114,
                1.3035739810528901,
                0.014261404161265201
            ]
        },
        {
            "positions": [
                1.682044084713199,
                -1.434595799435026,
                -0.5303856406474892,
                0.12847039606584953,
                1.315884892768707,
                -0.14428241296664046
            ]
        },
        {
            "positions": [
                1.6369974242501968,
                -1.4546049051805365,
                -0.6426344826293935,
                0.17224067996498793,
                1.328195804484524,
                -0.3028262300945461
            ]
        },
        {
            "positions": [
                1.5919507637871944,
                -1.4746140109260473,
                -0.7548833246112974,
                0.2160109638641261,
                1.3405067162003406,
                -0.4613700472224509
            ]
        },
        {
            "positions": [
                1.5469041033241921,
                -1.494623116671558,
                -0.8671321665932017,
                0.2597812477632646,
                1.3528176279161575,
                -0.6199138643503566
            ]
        },
        {
            "positions": [
                1.5018574428611897,
                -1.5146322224170687,
                -0.979381008575106,
                0.3035515316624029,
                1.3651285396319743,
                -0.7784576814782622
            ]
        },
        {
            "positions": [
                1.4568107823981873,
                -1.5346413281625795,
                -1.0916298505570103,
                0.3473218155615414,
                1.3774394513477912,
                -0.9370014986061679
            ]
        },
        {
            "positions": [
                1.4117641219351849,
                -1.5546504339080902,
                -1.2038786925389147,
                0.3910920994606797,
                1.389750363063608,
                -1.0955453157340735
            ]
        },
        {
            "positions": [
                1.3667174614721826,
                -1.574659539653601,
                -1.3161275345208185,
                0.43486238335981797,
                1.4020612747794248,
                -1.2540891328619783
            ]
        },
        {
            "positions": [
                1.3216708010091802,
                -1.5946686453991115,
                -1.4283763765027229,
                0.47863266725895626,
                1.4143721864952417,
                -1.412632949989884
            ]
        },
        {
            "positions": [
                1.2766241405461778,
                -1.6146777511446224,
                -1.5406252184846272,
                0.5224029511580948,
                1.4266830982110585,
                -1.5711767671177905
            ]
        },
        {
            "positions": [
                1.2315774800831756,
                -1.6346868568901332,
                -1.6528740604665315,
                0.566173235057233,
                1.4389940099268754,
                -1.7297205842456962
            ]
        },
        {
            "positions": [
                1.1865308196201731,
                -1.654695962635644,
                -1.7651229024484358,
                0.6099435189563716,
                1.4513049216426923,
                -1.8882644013736019
            ]
        },
        {
            "positions": [
                1.141484159157171,
                -1.6747050683811544,
                -1.8773717444303397,
                0.6537138028555096,
                1.463615833358509,
                -2.0468082185015066
            ]
        },
        {
            "positions": [
                1.0964374986941685,
                -1.6947141741266654,
                -1.989620586412244,
                0.6974840867546481,
                1.4759267450743259,
                -2.2053520356294123
            ]
        },
        {
            "positions": [
                1.051390838231166,
                -1.7147232798721759,
                -2.1018694283941484,
                0.7412543706537864,
                1.4882376567901427,
                -2.363895852757318
            ]
        },
        {
            "positions": [
                1.0063441777681637,
                -1.7347323856176868,
                -2.214118270376053,
                0.7850246545529249,
                1.5005485685059596,
                -2.5224396698852236
            ]
        },
        {
            "positions": [
                0.9612975173051614,
                -1.7547414913631973,
                -2.326367112357957,
                0.8287949384520632,
                1.5128594802217765,
                -2.6809834870131293
            ]
        },
        {
            "positions": [
                0.9162508568421592,
                -1.774750597108708,
                -2.438615954339861,
                0.8725652223512015,
                1.5251703919375932,
                -2.839527304141034
            ]
        },
        {
            "positions": [
                0.8712041963791568,
                -1.7947597028542188,
                -2.5508647963217648,
                0.9163355062503398,
                1.53748130365341,
                -2.9980711212689397
            ]
        },
        {
            "positions": [
                0.8261575359161544,
                -1.8147688085997296,
                -2.6631136383036695,
                0.9601057901494783,
                1.549792215369227,
                -3.1566149383968454
            ]
        },
        {
            "positions": [
                0.858691173029978,
                -1.798543899798569,
                -2.558874004776429,
                0.9014100590494561,
                1.5218548799216944,
                -3.0090804154756516
            ]
        },
        {
            "positions": [
                0.8912248101438017,
                -1.7823189909974084,
                -2.4546343712491883,
                0.8427143279494339,
                1.493917544474162,
                -2.861545892554458
            ]
        },
        {
            "positions": [
                0.9237584472576255,
                -1.7660940821962479,
                -2.350394737721947,
                0.7840185968494118,
                1.4659802090266296,
                -2.714011369633264
            ]
        },
        {
            "positions": [
                0.9562920843714491,
                -1.749869173395087,
                -2.2461551041947065,
                0.7253228657493895,
                1.438042873579097,
                -2.56647684671207
            ]
        },
        {
            "positions": [
                0.9888257214852727,
                -1.7336442645939265,
                -2.141915470667466,
                0.6666271346493674,
                1.4101055381315646,
                -2.4189423237908763
            ]
        },
        {
            "positions": [
                1.0213593585990965,
                -1.717419355792766,
                -2.037675837140225,
                0.6079314035493453,
                1.382168202684032,
                -2.2714078008696825
            ]
        },
        {
            "positions": [
                1.0538929957129202,
                -1.7011944469916054,
                -1.9334362036129842,
                0.549235672449323,
                1.3542308672364995,
                -2.123873277948489
            ]
        },
        {
            "positions": [
                1.0864266328267438,
                -1.6849695381904448,
                -1.8291965700857435,
                0.4905399413493009,
                1.3262935317889673,
                -1.976338755027295
            ]
        },
        {
            "positions": [
                1.1189602699405674,
                -1.6687446293892843,
                -1.724956936558503,
                0.43184421024927877,
                1.2983561963414347,
                -1.8288042321061013
            ]
        },
        {
            "positions": [
                1.151493907054391,
                -1.6525197205881237,
                -1.620717303031262,
                0.37314847914925653,
                1.2704188608939022,
                -1.6812697091849076
            ]
        },
        {
            "positions": [
                1.1840275441682149,
                -1.636294811786963,
                -1.5164776695040212,
                0.3144527480492344,
                1.2424815254463697,
                -1.5337351862637136
            ]
        },
        {
            "positions": [
                1.2165611812820385,
                -1.6200699029858023,
                -1.4122380359767805,
                0.25575701694921227,
                1.2145441899988372,
                -1.38620066334252
            ]
        },
        {
            "positions": [
                1.2490948183958621,
                -1.6038449941846418,
                -1.30799840244954,
                0.19706128584919003,
                1.1866068545513047,
                -1.2386661404213262
            ]
        },
        {
            "positions": [
                1.281628455509686,
                -1.5876200853834812,
                -1.203758768922299,
                0.1383655547491679,
                1.1586695191037721,
                -1.0911316175001322
            ]
        },
        {
            "positions": [
                1.3141620926235096,
                -1.5713951765823206,
                -1.0995191353950582,
                0.07966982364914565,
                1.1307321836562398,
                -0.9435970945789385
            ]
        },
        {
            "positions": [
                1.3466957297373332,
                -1.5551702677811599,
                -0.9952795018678176,
                0.020974092549123524,
                1.1027948482087073,
                -0.7960625716577447
            ]
        },
        {
            "positions": [
                1.3792293668511568,
                -1.5389453589799993,
                -0.8910398683405769,
                -0.037721638550898606,
                1.0748575127611748,
                -0.648528048736551
            ]
        },
        {
            "positions": [
                1.4117630039649804,
                -1.5227204501788387,
                -0.786800234813336,
                -0.09641736965092074,
                1.0469201773136425,
                -0.5009935258153573
            ]
        },
        {
            "positions": [
                1.4442966410788043,
                -1.5064955413776782,
                -0.6825606012860952,
                -0.15511310075094298,
                1.01898284186611,
                -0.35345900289416354
            ]
        },
        {
            "positions": [
                1.476830278192628,
                -1.4902706325765176,
                -0.5783209677588546,
                -0.21380883185096522,
                0.9910455064185775,
                -0.2059244799729698
            ]
        },
        {
            "positions": [
                1.5093639153064515,
                -1.474045723775357,
                -0.4740813342316139,
                -0.27250456295098724,
                0.963108170971045,
                -0.05838995705177563
            ]
        },
        {
            "positions": [
                1.5418975524202754,
                -1.4578208149741965,
                -0.36984170070437283,
                -0.3312002940510095,
                0.9351708355235124,
                0.0891445658694181
            ]
        },
        {
            "positions": [
                1.574431189534099,
                -1.4415959061730357,
                -0.2656020671771322,
                -0.3898960251510317,
                0.90723350007598,
                0.23667908879061184
            ]
        },
        {
            "positions": [
                1.6069648266479226,
                -1.4253709973718751,
                -0.16136243364989156,
                -0.44859175625105374,
                0.8792961646284475,
                0.38421361171180557
            ]
        },
        {
            "positions": [
                1.6394984637617462,
                -1.4091460885707146,
                -0.05712280012265092,
                -0.507287487351076,
                0.851358829180915,
                0.5317481346329993
            ]
        },
        {
            "positions": [
                1.6720321008755699,
                -1.392921179769554,
                0.04711683340458972,
                -0.5659832184510982,
                0.8234214937333826,
                0.679282657554193
            ]
        },
        {
            "positions": [
                1.7045657379893937,
                -1.3766962709683934,
                0.1513564669318308,
                -0.6246789495511205,
                0.7954841582858501,
                0.8268171804753868
            ]
        },
        {
            "positions": [
                1.7370993751032173,
                -1.3604713621672326,
                0.25559610045907144,
                -0.6833746806511425,
                0.7675468228383175,
                0.974351703396581
            ]
        },
        {
            "positions": [
                1.769633012217041,
                -1.3442464533660723,
                0.3598357339863121,
                -0.7420704117511647,
                0.7396094873907851,
                1.1218862263177747
            ]
        },
        {
            "positions": [
                1.8021666493308648,
                -1.3280215445649115,
                0.46407536751355316,
                -0.800766142851187,
                0.7116721519432526,
                1.2694207492389684
            ]
        },
        {
            "positions": [
                1.8347002864446884,
                -1.311796635763751,
                0.5683150010407938,
                -0.859461873951209,
                0.6837348164957202,
                1.4169552721601621
            ]
        },
        {
            "positions": [
                1.867233923558512,
                -1.2955717269625904,
                0.6725546345680345,
                -0.9181576050512311,
                0.6557974810481877,
                1.5644897950813554
            ]
        },
        {
            "positions": [
                1.8035959517816231,
                -1.3256824049980136,
                0.6150572908478165,
                -0.9816065411093904,
                0.6300417123366707,
                1.4210976737347638
            ]
        },
        {
            "positions": [
                1.7399579800047345,
                -1.3557930830334368,
                0.5575599471275983,
                -1.0450554771675495,
                0.6042859436251536,
                1.277705552388172
            ]
        },
        {
            "positions": [
                1.6763200082278455,
                -1.3859037610688598,
                0.5000626034073802,
                -1.108504413225709,
                0.5785301749136367,
                1.1343134310415803
            ]
        },
        {
            "positions": [
                1.6126820364509569,
                -1.416014439104283,
                0.44256525968716204,
                -1.1719533492838683,
                0.5527744062021196,
                0.9909213096949886
            ]
        },
        {
            "positions": [
                1.549044064674068,
                -1.4461251171397063,
                0.3850679159669439,
                -1.2354022853420275,
                0.5270186374906026,
                0.8475291883483969
            ]
        },
        {
            "positions": [
                1.485406092897179,
                -1.4762357951751293,
                0.3275705722467258,
                -1.2988512214001866,
                0.5012628687790857,
                0.7041370670018052
            ]
        },
        {
            "positions": [
                1.4217681211202904,
                -1.5063464732105525,
                0.27007322852650767,
                -1.362300157458346,
                0.4755071000675686,
                0.5607449456552134
            ]
        },
        {
            "positions": [
                1.3581301493434017,
                -1.5364571512459757,
                0.21257588480628953,
                -1.4257490935165054,
                0.44975133135605155,
                0.41735282430862175
            ]
        },
        {
            "positions": [
                1.2944921775665128,
                -1.566567829281399,
                0.15507854108607144,
                -1.4891980295746645,
                0.42399556264453453,
                0.2739607029620301
            ]
        },
        {
            "positions": [
                1.230854205789624,
                -1.5966785073168221,
                0.09758119736585324,
                -1.5526469656328237,
                0.3982397939330175,
                0.13056858161543827
            ]
        },
        {
            "positions": [
                1.1672162340127352,
                -1.6267891853522451,
                0.04008385364563516,
                -1.616095901690983,
                0.3724840252215005,
                -0.012823539731153355
            ]
        },
        {
            "positions": [
                1.1035782622358463,
                -1.6568998633876684,
                -0.017413490074582927,
                -1.6795448377491424,
                0.3467282565099835,
                -0.15621566107774498
            ]
        },
        {
            "positions": [
                1.0399402904589574,
                -1.6870105414230916,
                -0.07491083379480112,
                -1.7429937738073016,
                0.3209724877984665,
                -0.29960778242433683
            ]
        },
        {
            "positions": [
                0.9763023186820687,
                -1.7171212194585146,
                -0.1324081775150192,
                -1.8064427098654607,
                0.29521671908694946,
                -0.4429999037709287
            ]
        },
        {
            "positions": [
                0.91266434690518,
                -1.7472318974939378,
                -0.1899055212352374,
                -1.8698916459236201,
                0.26946095037543244,
                -0.5863920251175201
            ]
        },
        {
            "positions": [
                0.8490263751282912,
                -1.777342575529361,
                -0.2474028649554555,
                -1.9333405819817795,
                0.24370518166391542,
                -0.7297841464641119
            ]
        },
        {
            "positions": [
                0.7853884033514023,
                -1.8074532535647843,
                -0.3049002086756736,
                -1.9967895180399386,
                0.2179494129523984,
                -0.8731762678107038
            ]
        },
        {
            "positions": [
                0.7217504315745136,
                -1.8375639316002075,
                -0.36239755239589166,
                -2.060238454098098,
                0.19219364424088137,
                -1.0165683891572952
            ]
        },
        {
            "positions": [
                0.6581124597976247,
                -1.8676746096356305,
                -0.41989489611610986,
                -2.1236873901562574,
                0.16643787552936434,
                -1.159960510503887
            ]
        },
        {
            "positions": [
                0.594474488020736,
                -1.8977852876710537,
                -0.47739223983632806,
                -2.1871363262144166,
                0.14068210681784732,
                -1.303352631850479
            ]
        },
        {
            "positions": [
                0.5308365162438471,
                -1.927895965706477,
                -0.534889583556546,
                -2.2505852622725757,
                0.11492633810633035,
                -1.4467447531970703
            ]
        },
        {
            "positions": [
                0.4671985444669584,
                -1.9580066437419,
                -0.5923869272767642,
                -2.314034198330735,
                0.08917056939481327,
                -1.5901368745436621
            ]
        },
        {
            "positions": [
                0.4035605726900695,
                -1.9881173217773231,
                -0.6498842709969824,
                -2.3774831343888945,
                0.0634148006832963,
                -1.733528995890254
            ]
        },
        {
            "positions": [
                0.3399226009131806,
                -2.0182279998127464,
                -0.7073816147172004,
                -2.4409320704470536,
                0.03765903197177933,
                -1.8769211172368454
            ]
        },
        {
            "positions": [
                0.2762846291362919,
                -2.04833867784817,
                -0.7648789584374186,
                -2.504381006505213,
                0.011903263260262253,
                -2.0203132385834373
            ]
        },
        {
            "positions": [
                0.21264665735940302,
                -2.078449355883593,
                -0.8223763021576368,
                -2.567829942563372,
                -0.013852505451254715,
                -2.163705359930029
            ]
        },
        {
            "positions": [
                0.14900868558251434,
                -2.108560033919016,
                -0.879873645877855,
                -2.6312788786215315,
                -0.039608274162771795,
                -2.307097481276621
            ]
        },
        {
            "positions": [
                0.08537071380562544,
                -2.138670711954439,
                -0.937370989598073,
                -2.6947278146796907,
                -0.06536404287428876,
                -2.450489602623213
            ]
        },
        {
            "positions": [
                0.021732742028736762,
                -2.1687813899898623,
                -0.9948683333182912,
                -2.75817675073785,
                -0.09111981158580584,
                -2.5938817239698038
            ]
        },
        {
            "positions": [
                -0.04190522974815214,
                -2.1988920680252853,
                -1.0523656770385093,
                -2.821625686796009,
                -0.11687558029732281,
                -2.7372738453163956
            ]
        },
        {
            "positions": [
                -0.10554320152504082,
                -2.2290027460607087,
                -1.1098630207587274,
                -2.8850746228541686,
                -0.1426313490088399,
                -2.8806659666629875
            ]
        },
        {
            "positions": [
                -0.1691811733019296,
                -2.2591134240961317,
                -1.1673603644789456,
                -2.9485235589123278,
                -0.16838711772035692,
                -3.0240580880095793
            ]
        }
    ]
}