{
    "goal": {
        "global_pose": {
            "orientation": {
                "w": -0.00223480608172531,
                "x": 0.0024358444001904467,
                "y": 0.7094548369677653,
                "z": -0.704743149386269
            },
            "position": {
                "x": -0.37947507619857795,
                "y": -0.6371506643295288,
                "z": 0.19426114857196808
            }
        },
        "name": "move_to_magneteinheit_C"
    },
    "id": "BKPIECE_move_to_magneteinheit_C_65",
    "joint_names": [
        "shoulder_pan_joint",
        "shoulder_lift_joint",
        "elbow_joint",
        "wrist_1_joint",
        "wrist_2_joint",
        "wrist_3_joint"
    ],
    "metrics": {
        "cart_traj_len": 0.7336096743781968,
        "distance_elbow_joint": 0.330135451859054,
        "distance_shoulder_lift_joint": 0.6096546961771172,
        "distance_shoulder_pan_joint": 0.8006257155935192,
        "distance_wrist_1_joint": 1.995064412588329,
        "distance_wrist_2_joint": 0.9212678517866548,
        "distance_wrist_3_joint": 1.7964404168438284,
        "smoothness": 1.2564311002870312,
        "time": 0.779911723,
        "traj_len": 2.540312686432224,
        "weighted_distance": 3.6003335460636348
    },
    "planner": "BKPIECE",
    "start": {
        "state": {
            "elbow_joint": 1.9565354006590394,
            "shoulder_lift_joint": -1.4165861576513559,
            "shoulder_pan_joint": -1.6717766223277177,
            "wrist_1_joint": -0.5286633288215096,
            "wrist_2_joint": 1.4727565892594296,
            "wrist_3_joint": 3.1593482883155493
        }
    },
    "waypoints": [
        {
            "positions": [
                -1.6717766223277177,
                -1.4165861576513559,
                1.9565354006590394,
                -0.5286633288215096,
                1.4727565892594296,
                3.1593482883155493
            ]
        },
        {
            "positions": [
                -1.7313258463346144,
                -1.4388866372369005,
                1.9411520530720772,
                -0.4257078353674163,
                1.416328551556669,
                3.045013211235414
            ]
        },
        {
            "positions": [
                -1.790875070341511,
                -1.4611871168224448,
                1.9257687054851147,
                -0.3227523419133231,
                1.3599005138539084,
                2.9306781341552783
            ]
        },
        {
            "positions": [
                -1.850424294348408,
                -1.4834875964079894,
                1.9103853578981524,
                -0.21979684845922987,
                1.3034724761511478,
                2.816343057075143
            ]
        },
        {
            "positions": [
                -1.9099735183553046,
                -1.505788075993534,
                1.89500201031119,
                -0.1168413550051366,
                1.2470444384483872,
                2.702007979995008
            ]
        },
        {
            "positions": [
                -1.9695227423622013,
                -1.5280885555790784,
                1.8796186627242277,
                -0.013885861551043321,
                1.1906164007456264,
                2.5876729029148726
            ]
        },
        {
            "positions": [
                -2.029071966369098,
                -1.550389035164623,
                1.8642353151372655,
                0.08906963190304984,
                1.1341883630428657,
                2.4733378258347374
            ]
        },
        {
            "positions": [
                -2.088621190375995,
                -1.5726895147501674,
                1.848851967550303,
                0.1920251253571431,
                1.0777603253401051,
                2.3590027487546017
            ]
        },
        {
            "positions": [
                -2.1481704143828915,
                -1.594989994335712,
                1.8334686199633408,
                0.29498061881123644,
                1.0213322876373445,
                2.2446676716744665
            ]
        },
        {
            "positions": [
                -2.21258859801277,
                -1.5910414509934072,
                1.8176519464182108,
                0.3176722696867864,
                1.0854600380245025,
                2.3261078557226575
            ]
        },
        {
            "positions": [
                -2.259469240668207,
                -1.5553286210501114,
                1.856664293806644,
                0.21508574704088101,
                1.0608732342677185,
                2.4351135424267056
            ]
        },
        {
            "positions": [
                -2.3063498833236435,
                -1.5196157911068155,
                1.895676641195077,
                0.11249922439497564,
                1.0362864305109345,
                2.5441192291307537
            ]
        },
        {
            "positions": [
                -2.35323052597908,
                -1.4839029611635197,
                1.9346889885835101,
                0.009912701749070274,
                1.0116996267541505,
                2.6531249158348014
            ]
        },
        {
            "positions": [
                -2.4001111686345165,
                -1.4481901312202239,
                1.9737013359719433,
                -0.09267382089683511,
                0.9871128229973664,
                2.7621306025388495
            ]
        },
        {
            "positions": [
                -2.4145694024918605,
                -1.3912999319447692,
                1.980741857584842,
                -0.2403503655961175,
                0.9256391060473113,
                2.834989976406522
            ]
        },
        {
            "positions": [
                -2.4290276363492045,
                -1.3344097326693147,
                1.9877823791977405,
                -0.38802691029539993,
                0.8641653890972562,
                2.9078493502741947
            ]
        },
        {
            "positions": [
                -2.443485870206549,
                -1.27751953339386,
                1.994822900810639,
                -0.5357034549946823,
                0.802691672147201,
                2.980708724141867
            ]
        },
        {
            "positions": [
                -2.457944104063893,
                -1.2206293341184056,
                2.0018634224235377,
                -0.6833799996939647,
                0.741217955197146,
                3.0535680980095394
            ]
        },
        {
            "positions": [
                -2.472402337921237,
                -1.1637391348429509,
                2.0089039440364362,
                -0.831056544393247,
                0.6797442382470908,
                3.126427471877212
            ]
        }
    ]
}