{
    "goal": {
        "global_pose": {
            "orientation": {
                "w": 0.5084816217422485,
                "x": -0.49083608388900757,
                "y": 0.5182115435600281,
                "z": -0.4816462993621826
            },
            "position": {
                "x": 0.5540239810943604,
                "y": 0.030875300988554955,
                "z": 0.16403168439865112
            }
        },
        "name": "move_to_storage_A"
    },
    "id": "BKPIECE_move_to_storage_A_68",
    "joint_names": [
        "shoulder_pan_joint",
        "shoulder_lift_joint",
        "elbow_joint",
        "wrist_1_joint",
        "wrist_2_joint",
        "wrist_3_joint"
    ],
    "metrics": {
        "cart_traj_len": 0.3532240551612363,
        "distance_elbow_joint": 0.4496266621503877,
        "distance_shoulder_lift_joint": 0.2363621493131811,
        "distance_shoulder_pan_joint": 0.46274322016135583,
        "distance_wrist_1_joint": 0.23667589994332794,
        "distance_wrist_2_joint": 1.0965150389482434,
        "distance_wrist_3_joint": 0.10044717895692434,
        "smoothness": 4.440892133664971e-16,
        "time": 0.8763470200000001,
        "traj_len": 1.6069754663570381,
        "weighted_distance": 2.0289049870013236
    },
    "planner": "BKPIECE",
    "start": {
        "state": {
            "elbow_joint": 1.9715474177455299,
            "shoulder_lift_joint": -1.139484666580328,
            "shoulder_pan_joint": 0.12281154398918248,
            "wrist_1_joint": -0.7804687475355282,
            "wrist_2_joint": 0.12958649657246987,
            "wrist_3_joint": -3.1924925159053466
        }
    },
    "waypoints": [
        {
            "positions": [
                0.12281154398918248,
                -1.139484666580328,
                1.9715474177455299,
                -0.7804687475355282,
                0.12958649657246987,
                -3.1924925159053466
            ]
        },
        {
            "positions": [
                0.05670536968041737,
                -1.1732506879107825,
                2.035779798052728,
                -0.8142795903845751,
                0.2862315021365046,
                -3.1781429189115
            ]
        },
        {
            "positions": [
                -0.009400804628347748,
                -1.207016709241237,
                2.1000121783599264,
                -0.8480904332336219,
                0.44287650770053943,
                -3.163793321917654
            ]
        },
        {
            "positions": [
                -0.07550697893711286,
                -1.2407827305716914,
                2.1642445586671246,
                -0.8819012760826688,
                0.5995215132645741,
                -3.1494437249238074
            ]
        },
        {
            "positions": [
                -0.14161315324587798,
                -1.2745487519021457,
                2.228476938974323,
                -0.9157121189317156,
                0.756166518828609,
                -3.1350941279299613
            ]
        },
        {
            "positions": [
                -0.20771932755464312,
                -1.3083147732326001,
                2.292709319281521,
                -0.9495229617807625,
                0.9128115243926438,
                -3.120744530936115
            ]
        },
        {
            "positions": [
                -0.2738255018634082,
                -1.3420807945630546,
                2.3569416995887194,
                -0.9833338046298092,
                1.0694565299566785,
                -3.1063949339422687
            ]
        },
        {
            "positions": [
                -0.33993167617217335,
                -1.375846815893509,
                2.4211740798959176,
                -1.0171446474788561,
                1.2261015355207132,
                -3.092045336948422
            ]
        }
    ]
}