{
    "goal": {
        "global_pose": {
            "orientation": {
                "w": 0.7031023480610252,
                "x": -0.7110244013736278,
                "y": 0.0077485991402295624,
                "z": 0.005598929693374583
            },
            "position": {
                "x": -0.8841497679147869,
                "y": 0.44412534475326537,
                "z": 0.3711530566215515
            }
        },
        "name": "move_to_auspresseinheit_D"
    },
    "id": "BKPIECE_move_to_auspresseinheit_D_66",
    "joint_names": [
        "shoulder_pan_joint",
        "shoulder_lift_joint",
        "elbow_joint",
        "wrist_1_joint",
        "wrist_2_joint",
        "wrist_3_joint"
    ],
    "metrics": {
        "cart_traj_len": 3.601271693626955,
        "distance_elbow_joint": 3.0259873948770704,
        "distance_shoulder_lift_joint": 1.227762528225536,
        "distance_shoulder_pan_joint": 2.797623166610651,
        "distance_wrist_1_joint": 2.3825680492569297,
        "distance_wrist_2_joint": 1.230158177496084,
        "distance_wrist_3_joint": 1.6620616339503615,
        "smoothness": 0.1460188137625959,
        "time": 1.810584746,
        "traj_len": 3.5108632770896437,
        "weighted_distance": 4.388964621077546
    },
    "planner": "BKPIECE",
    "start": {
        "state": {
            "elbow_joint": 1.8268400409724999,
            "shoulder_lift_joint": -1.0144045787793008,
            "shoulder_pan_joint": 2.6280239544362485,
            "wrist_1_joint": -0.790705565816056,
            "wrist_2_joint": 1.0573557467365533,
            "wrist_3_joint": 3.1851377467193758
        }
    },
    "waypoints": [
        {
            "positions": [
                2.6280239544362485,
                -1.0144045787793008,
                1.8268400409724999,
                -0.790705565816056,
                1.0573557467365533,
                3.1851377467193758
            ]
        },
        {
            "positions": [
                2.5826010131686243,
                -1.0926058125231282,
                1.768472885753397,
                -0.7679429096256551,
                1.0418829674533827,
                3.0652683162378236
            ]
        },
        {
            "positions": [
                2.537178071901,
                -1.1708070462669558,
                1.7101057305342937,
                -0.7451802534352542,
                1.0264101881702121,
                2.9453988857562714
            ]
        },
        {
            "positions": [
                2.491755130633376,
                -1.2490082800107831,
                1.6517385753151907,
                -0.7224175972448533,
                1.0109374088870418,
                2.825529455274719
            ]
        },
        {
            "positions": [
                2.446332189365752,
                -1.3272095137546107,
                1.5933714200960878,
                -0.6996549410544524,
                0.9954646296038712,
                2.705660024793167
            ]
        },
        {
            "positions": [
                2.400909248098128,
                -1.405410747498438,
                1.5350042648769846,
                -0.6768922848640515,
                0.9799918503207006,
                2.585790594311615
            ]
        },
        {
            "positions": [
                2.3554863068305036,
                -1.4836119812422655,
                1.4766371096578816,
                -0.6541296286736507,
                0.9645190710375301,
                2.4659211638300627
            ]
        },
        {
            "positions": [
                2.3100633655628795,
                -1.561813214986093,
                1.4182699544387787,
                -0.6313669724832497,
                0.9490462917543595,
                2.3460517333485105
            ]
        },
        {
            "positions": [
                2.2146917279575993,
                -1.5879806723714294,
                1.3176000579640346,
                -0.7168757977111005,
                0.9058982639653638,
                2.377704641832337
            ]
        },
        {
            "positions": [
                2.1193200903523195,
                -1.6141481297567657,
                1.2169301614892902,
                -0.8023846229389515,
                0.8627502361763679,
                2.409357550316164
            ]
        },
        {
            "positions": [
                2.0239484527470393,
                -1.640315587142102,
                1.116260265014546,
                -0.8878934481668024,
                0.8196022083873722,
                2.441010458799991
            ]
        },
        {
            "positions": [
                1.928576815141759,
                -1.6664830445274383,
                1.0155903685398018,
                -0.9734022733946532,
                0.7764541805983765,
                2.4726633672838174
            ]
        },
        {
            "positions": [
                1.833205177536479,
                -1.6926505019127744,
                0.9149204720650576,
                -1.058911098622504,
                0.7333061528093806,
                2.5043162757676445
            ]
        },
        {
            "positions": [
                1.737833539931199,
                -1.7188179592981108,
                0.8142505755903133,
                -1.144419923850355,
                0.6901581250203849,
                2.535969184251471
            ]
        },
        {
            "positions": [
                1.6424619023259188,
                -1.744985416683447,
                0.7135806791155692,
                -1.2299287490782058,
                0.6470100972313891,
                2.5676220927352977
            ]
        },
        {
            "positions": [
                1.5470902647206386,
                -1.7711528740687834,
                0.6129107826408249,
                -1.315437574306057,
                0.6038620694423933,
                2.599275001219125
            ]
        },
        {
            "positions": [
                1.4517186271153588,
                -1.7973203314541197,
                0.5122408861660808,
                -1.4009463995339078,
                0.5607140416533976,
                2.6309279097029514
            ]
        },
        {
            "positions": [
                1.3563469895100786,
                -1.823487788839456,
                0.41157098969133643,
                -1.4864552247617588,
                0.5175660138644018,
                2.662580818186778
            ]
        },
        {
            "positions": [
                1.2609753519047986,
                -1.8496552462247924,
                0.3109010932165923,
                -1.5719640499896095,
                0.47441798607540603,
                2.694233726670605
            ]
        },
        {
            "positions": [
                1.1656037142995184,
                -1.8758227036101287,
                0.21023119674184798,
                -1.6574728752174606,
                0.43126995828641024,
                2.7258866351544317
            ]
        },
        {
            "positions": [
                1.0702320766942384,
                -1.901990160995465,
                0.10956130026710387,
                -1.7429817004453114,
                0.3881219304974145,
                2.7575395436382584
            ]
        },
        {
            "positions": [
                0.9748604390889584,
                -1.9281576183808011,
                0.008891403792359753,
                -1.8284905256731623,
                0.34497390270841877,
                2.7891924521220854
            ]
        },
        {
            "positions": [
                0.8794888014836784,
                -1.9543250757661375,
                -0.09177849268238436,
                -1.9139993509010131,
                0.30182587491942303,
                2.820845360605912
            ]
        },
        {
            "positions": [
                0.7841171638783979,
                -1.9804925331514738,
                -0.19244838915712892,
                -1.999508176128864,
                0.2586778471304272,
                2.8524982690897387
            ]
        },
        {
            "positions": [
                0.6887455262731179,
                -2.00665999053681,
                -0.29311828563187303,
                -2.085017001356715,
                0.21552981934143145,
                2.8841511775735658
            ]
        },
        {
            "positions": [
                0.5933738886678379,
                -2.032827447922146,
                -0.39378818210661715,
                -2.1705258265845657,
                0.17238179155243571,
                2.9158040860573924
            ]
        },
        {
            "positions": [
                0.4980022510625579,
                -2.0589949053074825,
                -0.49445807858136126,
                -2.2560346518124166,
                0.12923376376343998,
                2.947456994541219
            ]
        },
        {
            "positions": [
                0.4026306134572777,
                -2.0851623626928193,
                -0.5951279750561058,
                -2.341543477040268,
                0.08608573597444402,
                2.979109903025046
            ]
        },
        {
            "positions": [
                0.30725897585199746,
                -2.111329820078155,
                -0.6957978715308499,
                -2.4270523022681183,
                0.04293770818544829,
                3.0107628115088727
            ]
        },
        {
            "positions": [
                0.21188733824671768,
                -2.1374972774634915,
                -0.796467768005594,
                -2.512561127495969,
                -0.0002103196035474486,
                3.0424157199926993
            ]
        },
        {
            "positions": [
                0.11651570064143746,
                -2.163664734848828,
                -0.8971376644803382,
                -2.59806995272382,
                -0.043358347392543184,
                3.0740686284765264
            ]
        },
        {
            "positions": [
                0.021144063036157235,
                -2.189832192234164,
                -0.9978075609550827,
                -2.6835787779516713,
                -0.08650637518153903,
                3.1057215369603535
            ]
        },
        {
            "positions": [
                -0.07422757456912255,
                -2.2159996496195005,
                -1.0984774574298268,
                -2.769087603179522,
                -0.12965440297053477,
                3.13737444544418
            ]
        },
        {
            "positions": [
                -0.16959921217440257,
                -2.242167107004837,
                -1.1991473539045707,
                -2.854596428407373,
                -0.1728024307595306,
                3.1690273539280067
            ]
        }
    ]
}