{
    "goal": {
        "global_pose": {
            "orientation": {
                "w": 0.7031023480610252,
                "x": -0.7110244013736278,
                "y": 0.0077485991402295624,
                "z": 0.005598929693374583
            },
            "position": {
                "x": -0.8841497679147869,
                "y": 0.44412534475326537,
                "z": 0.3711530566215515
            }
        },
        "name": "move_to_auspresseinheit_D"
    },
    "id": "BKPIECE_move_to_auspresseinheit_D_17",
    "joint_names": [
        "shoulder_pan_joint",
        "shoulder_lift_joint",
        "elbow_joint",
        "wrist_1_joint",
        "wrist_2_joint",
        "wrist_3_joint"
    ],
    "metrics": {
        "cart_traj_len": 3.7496991452565256,
        "distance_elbow_joint": 3.204185926859706,
        "distance_shoulder_lift_joint": 1.3865505994567617,
        "distance_shoulder_pan_joint": 2.9521550180248743,
        "distance_wrist_1_joint": 1.6422638340697848,
        "distance_wrist_2_joint": 0.8853766927486331,
        "distance_wrist_3_joint": 3.056421167536479,
        "smoothness": 0.07433916707406017,
        "time": 0.759869608,
        "traj_len": 3.6231137490694714,
        "weighted_distance": 4.665558498249444
    },
    "planner": "BKPIECE",
    "start": {
        "state": {
            "elbow_joint": 1.8268400409724999,
            "shoulder_lift_joint": -1.0144045787793008,
            "shoulder_pan_joint": 2.6280239544362485,
            "wrist_1_joint": -0.790705565816056,
            "wrist_2_joint": 1.0573557467365533,
            "wrist_3_joint": 3.1851377467193758
        }
    },
    "waypoints": [
        {
            "positions": [
                2.6280239544362485,
                -1.0144045787793008,
                1.8268400409724999,
                -0.790705565816056,
                1.0573557467365533,
                3.1851377467193758
            ]
        },
        {
            "positions": [
                2.6377289211430477,
                -1.0530943141680211,
                1.7453545773055288,
                -0.811338707733919,
                1.047727550573035,
                2.9803864609443234
            ]
        },
        {
            "positions": [
                2.6474338878498473,
                -1.0917840495567417,
                1.6638691136385577,
                -0.8319718496517821,
                1.0380993544095167,
                2.7756351751692714
            ]
        },
        {
            "positions": [
                2.6571388545566466,
                -1.1304737849454622,
                1.5823836499715866,
                -0.852604991569645,
                1.0284711582459987,
                2.570883889394219
            ]
        },
        {
            "positions": [
                2.6668438212634458,
                -1.1691635203341826,
                1.5008981863046156,
                -0.873238133487508,
                1.0188429620824804,
                2.3661326036191666
            ]
        },
        {
            "positions": [
                2.676548787970245,
                -1.207853255722903,
                1.4194127226376445,
                -0.893871275405371,
                1.009214765918962,
                2.161381317844114
            ]
        },
        {
            "positions": [
                2.686253754677044,
                -1.2465429911116235,
                1.3379272589706734,
                -0.914504417323234,
                0.9995865697554439,
                1.9566300320690622
            ]
        },
        {
            "positions": [
                2.695958721383844,
                -1.285232726500344,
                1.2564417953037024,
                -0.935137559241097,
                0.9899583735919257,
                1.7518787462940097
            ]
        },
        {
            "positions": [
                2.705663688090643,
                -1.3239224618890644,
                1.1749563316367313,
                -0.95577070115896,
                0.9803301774284074,
                1.5471274605189576
            ]
        },
        {
            "positions": [
                2.5951054079225475,
                -1.3653467971331796,
                1.0767908617319644,
                -0.8989553665925415,
                0.9492397496037733,
                1.4925731958521862
            ]
        },
        {
            "positions": [
                2.4845471277544524,
                -1.406771132377295,
                0.9786253918271975,
                -0.842140032026123,
                0.9181493217791392,
                1.4380189311854146
            ]
        },
        {
            "positions": [
                2.373988847586357,
                -1.4481954676214104,
                0.8804599219224307,
                -0.7853246974597046,
                0.8870588939545051,
                1.3834646665186432
            ]
        },
        {
            "positions": [
                2.2634305674182613,
                -1.4896198028655256,
                0.7822944520176638,
                -0.728509362893286,
                0.855968466129871,
                1.3289104018518716
            ]
        },
        {
            "positions": [
                2.152872287250166,
                -1.531044138109641,
                0.684128982112897,
                -0.6716940283268675,
                0.8248780383052368,
                1.2743561371851002
            ]
        },
        {
            "positions": [
                2.0423140070820707,
                -1.5724684733537564,
                0.58596351220813,
                -0.614878693760449,
                0.7937876104806028,
                1.2198018725183286
            ]
        },
        {
            "positions": [
                1.9317557269139751,
                -1.6138928085978717,
                0.4877980423033633,
                -0.5580633591940306,
                0.7626971826559685,
                1.1652476078515572
            ]
        },
        {
            "positions": [
                1.8211974467458796,
                -1.655317143841987,
                0.3896325723985964,
                -0.5012480246276121,
                0.7316067548313344,
                1.1106933431847856
            ]
        },
        {
            "positions": [
                1.7106391665777845,
                -1.6967414790861022,
                0.29146710249382957,
                -0.44443269006119357,
                0.7005163270067003,
                1.0561390785180143
            ]
        },
        {
            "positions": [
                1.600080886409689,
                -1.7381658143302174,
                0.19330163258906263,
                -0.38761735549477505,
                0.6694258991820662,
                1.0015848138512427
            ]
        },
        {
            "positions": [
                1.4895226062415936,
                -1.7795901495743327,
                0.0951361626842957,
                -0.33080202092835664,
                0.6383354713574321,
                0.9470305491844713
            ]
        },
        {
            "positions": [
                1.378964326073498,
                -1.8210144848184482,
                -0.0030293072204712335,
                -0.273986686361938,
                0.607245043532798,
                0.8924762845176998
            ]
        },
        {
            "positions": [
                1.2684060459054027,
                -1.8624388200625634,
                -0.10119477712523794,
                -0.2171713517955196,
                0.5761546157081638,
                0.8379220198509283
            ]
        },
        {
            "positions": [
                1.1578477657373074,
                -1.9038631553066787,
                -0.19936024703000466,
                -0.1603560172291012,
                0.5450641878835297,
                0.7833677551841568
            ]
        },
        {
            "positions": [
                1.047289485569212,
                -1.945287490550794,
                -0.2975257169347716,
                -0.10354068266268268,
                0.5139737600588956,
                0.7288134905173854
            ]
        },
        {
            "positions": [
                0.9367312054011163,
                -1.9867118257949095,
                -0.3956911868395385,
                -0.04672534809626405,
                0.48288333223426144,
                0.6742592258506138
            ]
        },
        {
            "positions": [
                0.826172925233021,
                -2.0281361610390247,
                -0.49385665674430546,
                0.010089986470154355,
                0.4517929044096274,
                0.6197049611838423
            ]
        },
        {
            "positions": [
                0.7156146450649257,
                -2.06956049628314,
                -0.5920221266490722,
                0.06690532103657287,
                0.42070247658499327,
                0.565150696517071
            ]
        },
        {
            "positions": [
                0.6050563648968303,
                -2.1109848315272552,
                -0.6901875965538391,
                0.12372065560299128,
                0.38961204876035915,
                0.5105964318502996
            ]
        },
        {
            "positions": [
                0.4944980847287348,
                -2.1524091667713705,
                -0.788353066458606,
                0.1805359901694099,
                0.3585216209357249,
                0.45604216718352775
            ]
        },
        {
            "positions": [
                0.38393980456063925,
                -2.1938335020154858,
                -0.886518536363373,
                0.23735132473582832,
                0.3274311931110908,
                0.40148790251675637
            ]
        },
        {
            "positions": [
                0.27338152439254415,
                -2.235257837259601,
                -0.9846840062681399,
                0.2941666593022467,
                0.2963407652864567,
                0.346933637849985
            ]
        },
        {
            "positions": [
                0.1628232442244486,
                -2.2766821725037163,
                -1.0828494761729064,
                0.35098199386866535,
                0.2652503374618226,
                0.2923793731832136
            ]
        },
        {
            "positions": [
                0.05226496405635306,
                -2.318106507747832,
                -1.1810149460776738,
                0.407797328435084,
                0.23415990963718847,
                0.237825108516442
            ]
        },
        {
            "positions": [
                -0.058293316111742044,
                -2.3595308429919473,
                -1.2791804159824403,
                0.4646126630015024,
                0.20306948181255435,
                0.1832708438496704
            ]
        },
        {
            "positions": [
                -0.16885159627983737,
                -2.4009551782360625,
                -1.377345885887207,
                0.5214279975679208,
                0.17197905398792027,
                0.128716579182899
            ]
        }
    ]
}