{
    "goal": {
        "global_pose": {
            "orientation": {
                "w": 0.7047431468963623,
                "x": -0.7094548344612122,
                "y": 0.0024358443915843964,
                "z": -0.0022348060738295317
            },
            "position": {
                "x": 0.6094750761985779,
                "y": 0.3671506643295288,
                "z": 0.19426114857196808
            }
        },
        "name": "move_to_magneteinheit_A"
    },
    "id": "BKPIECE_move_to_magneteinheit_A_144",
    "joint_names": [
        "shoulder_pan_joint",
        "shoulder_lift_joint",
        "elbow_joint",
        "wrist_1_joint",
        "wrist_2_joint",
        "wrist_3_joint"
    ],
    "metrics": {
        "cart_traj_len": 1.052598658251176,
        "distance_elbow_joint": 0.39193920917564773,
        "distance_shoulder_lift_joint": 0.36103686863674533,
        "distance_shoulder_pan_joint": 1.2408207427382703,
        "distance_wrist_1_joint": 2.2523407529935326,
        "distance_wrist_2_joint": 1.6902112829045304,
        "distance_wrist_3_joint": 1.1929412110547517,
        "smoothness": 1.8698493194378823e-16,
        "time": 1.7347771319999998,
        "traj_len": 2.6700730453497856,
        "weighted_distance": 3.668477139837598
    },
    "planner": "BKPIECE",
    "start": {
        "state": {
            "elbow_joint": 1.5739458966750683,
            "shoulder_lift_joint": -1.4977259741207325,
            "shoulder_pan_joint": -1.1188672016454206,
            "wrist_1_joint": 1.494575848278785,
            "wrist_2_joint": -1.5706037134824402,
            "wrist_3_joint": -2.0226957942261072
        }
    },
    "waypoints": [
        {
            "positions": [
                -1.1188672016454206,
                -1.4977259741207325,
                1.5739458966750683,
                1.494575848278785,
                -1.5706037134824402,
                -2.0226957942261072
            ]
        },
        {
            "positions": [
                -1.049932715937739,
                -1.47766837030758,
                1.5957202971848266,
                1.369445806445811,
                -1.4767030866544109,
                -2.088970305951371
            ]
        },
        {
            "positions": [
                -0.9809982302300573,
                -1.4576107664944276,
                1.6174946976945848,
                1.2443157646128369,
                -1.3828024598263813,
                -2.155244817676635
            ]
        },
        {
            "positions": [
                -0.9120637445223756,
                -1.437553162681275,
                1.639269098204343,
                1.119185722779863,
                -1.2889018329983517,
                -2.2215193294018993
            ]
        },
        {
            "positions": [
                -0.8431292588146939,
                -1.4174955588681224,
                1.6610434987141012,
                0.9940556809468889,
                -1.1950012061703223,
                -2.287793841127163
            ]
        },
        {
            "positions": [
                -0.7741947731070122,
                -1.3974379550549698,
                1.6828178992238594,
                0.8689256391139147,
                -1.101100579342293,
                -2.354068352852427
            ]
        },
        {
            "positions": [
                -0.7052602873993306,
                -1.3773803512418175,
                1.7045922997336176,
                0.7437955972809408,
                -1.0071999525142634,
                -2.420342864577691
            ]
        },
        {
            "positions": [
                -0.6363258016916489,
                -1.3573227474286649,
                1.7263667002433758,
                0.6186655554479668,
                -0.913299325686234,
                -2.4866173763029553
            ]
        },
        {
            "positions": [
                -0.5673913159839672,
                -1.3372651436155123,
                1.748141100753134,
                0.4935355136149928,
                -0.8193986988582045,
                -2.552891888028219
            ]
        },
        {
            "positions": [
                -0.4984568302762855,
                -1.31720753980236,
                1.7699155012628922,
                0.36840547178201866,
                -0.725498072030175,
                -2.619166399753483
            ]
        },
        {
            "positions": [
                -0.42952234456860383,
                -1.2971499359892074,
                1.7916899017726504,
                0.2432754299490445,
                -0.6315974452021456,
                -2.685440911478747
            ]
        },
        {
            "positions": [
                -0.36058785886092204,
                -1.2770923321760548,
                1.8134643022824086,
                0.11814538811607056,
                -0.537696818374116,
                -2.7517154232040113
            ]
        },
        {
            "positions": [
                -0.29165337315324047,
                -1.2570347283629022,
                1.8352387027921668,
                -0.006984653716903377,
                -0.4437961915460866,
                -2.817989934929275
            ]
        },
        {
            "positions": [
                -0.2227188874455588,
                -1.2369771245497498,
                1.857013103301925,
                -0.13211469554987754,
                -0.3498955647180573,
                -2.884264446654539
            ]
        },
        {
            "positions": [
                -0.1537844017378771,
                -1.2169195207365973,
                1.8787875038116832,
                -0.2572447373828515,
                -0.2559949378900277,
                -2.950538958379803
            ]
        },
        {
            "positions": [
                -0.08484991603019543,
                -1.1968619169234447,
                1.9005619043214415,
                -0.38237477921582563,
                -0.16209431106199812,
                -3.016813470105067
            ]
        },
        {
            "positions": [
                -0.015915430322513746,
                -1.176804313110292,
                1.9223363048311997,
                -0.5075048210487993,
                -0.06819368423396877,
                -3.0830879818303307
            ]
        },
        {
            "positions": [
                0.053019055385167935,
                -1.1567467092971397,
                1.9441107053409579,
                -0.6326348628817737,
                0.02570694259406059,
                -3.1493624935555946
            ]
        },
        {
            "positions": [
                0.1219535410928495,
                -1.1366891054839872,
                1.965885105850716,
                -0.7577649047147476,
                0.11960756942209015,
                -3.215637005280859
            ]
        }
    ]
}