{
    "goal": {
        "global_pose": {
            "orientation": {
                "w": 0.005598929693374612,
                "x": 0.007748599140229565,
                "y": 0.7110244013736278,
                "z": -0.7031023480610252
            },
            "position": {
                "x": 0.1141497679147869,
                "y": -0.7141253447532654,
                "z": 0.3711530566215515
            }
        },
        "name": "move_to_auspresseinheit_B"
    },
    "id": "BKPIECE_move_to_auspresseinheit_B_13",
    "joint_names": [
        "shoulder_pan_joint",
        "shoulder_lift_joint",
        "elbow_joint",
        "wrist_1_joint",
        "wrist_2_joint",
        "wrist_3_joint"
    ],
    "metrics": {
        "cart_traj_len": 0.5650277658007845,
        "distance_elbow_joint": 0.05984920273322092,
        "distance_shoulder_lift_joint": 0.2967359970118766,
        "distance_shoulder_pan_joint": 0.5779192586980237,
        "distance_wrist_1_joint": 0.317260236962567,
        "distance_wrist_2_joint": 0.990768050831403,
        "distance_wrist_3_joint": 0.007146479987353516,
        "smoothness": 5.075305255429287e-16,
        "time": 1.286700542,
        "traj_len": 1.4998930715969205,
        "weighted_distance": 1.8899736701851488
    },
    "planner": "BKPIECE",
    "start": {
        "state": {
            "elbow_joint": 2.019306165916698,
            "shoulder_lift_joint": -1.1220205098164344,
            "shoulder_pan_joint": -1.095207207618794,
            "wrist_1_joint": -0.8559671824921639,
            "wrist_2_joint": 0.47596387242952726,
            "wrist_3_joint": 3.159081874673826
        }
    },
    "waypoints": [
        {
            "positions": [
                -1.095207207618794,
                -1.1220205098164344,
                2.019306165916698,
                -0.8559671824921639,
                0.47596387242952726,
                3.159081874673826
            ]
        },
        {
            "positions": [
                -1.1915270840684646,
                -1.1714765093184139,
                2.0093312987944945,
                -0.803090476331736,
                0.6410918809014278,
                3.1578907946759336
            ]
        },
        {
            "positions": [
                -1.2878469605181353,
                -1.2209325088203933,
                1.999356431672291,
                -0.7502137701713082,
                0.8062198893733282,
                3.1566997146780413
            ]
        },
        {
            "positions": [
                -1.3841668369678057,
                -1.2703885083223727,
                1.9893815645500874,
                -0.6973370640108804,
                0.9713478978452288,
                3.155508634680149
            ]
        },
        {
            "positions": [
                -1.4804867134174764,
                -1.3198445078243521,
                1.979406697427884,
                -0.6444603578504525,
                1.1364759063171292,
                3.154317554682257
            ]
        },
        {
            "positions": [
                -1.576806589867147,
                -1.3693005073263316,
                1.9694318303056806,
                -0.5915836516900247,
                1.3016039147890297,
                3.1531264746843646
            ]
        },
        {
            "positions": [
                -1.6731264663168177,
                -1.418756506828311,
                1.959456963183477,
                -0.5387069455295969,
                1.4667319232609302,
                3.1519353946864723
            ]
        }
    ]
}