{
    "goal": {
        "global_pose": {
            "orientation": {
                "w": -0.4816463035849501,
                "x": 0.5182115481033762,
                "y": 0.4908360881923453,
                "z": -0.5084816262002911
            },
            "position": {
                "x": -0.8240239810943604,
                "y": -0.300875300988555,
                "z": 0.16403168439865112
            }
        },
        "name": "move_to_storage_C"
    },
    "id": "BKPIECE_move_to_storage_C_24",
    "joint_names": [
        "shoulder_pan_joint",
        "shoulder_lift_joint",
        "elbow_joint",
        "wrist_1_joint",
        "wrist_2_joint",
        "wrist_3_joint"
    ],
    "metrics": {
        "cart_traj_len": 0.5775806909776141,
        "distance_elbow_joint": 0.26069873226054496,
        "distance_shoulder_lift_joint": 0.19076880627150938,
        "distance_shoulder_pan_joint": 0.49414556493895434,
        "distance_wrist_1_joint": 0.08279067265476392,
        "distance_wrist_2_joint": 1.0763371699403157,
        "distance_wrist_3_joint": 0.06396457804519562,
        "smoothness": 0.0,
        "time": 1.205707307,
        "traj_len": 1.4726525469747722,
        "weighted_distance": 1.8589681338841597
    },
    "planner": "BKPIECE",
    "start": {
        "state": {
            "elbow_joint": 2.010868315001653,
            "shoulder_lift_joint": -1.1634956873357014,
            "shoulder_pan_joint": -2.4736205022346103,
            "wrist_1_joint": -0.8367026794713948,
            "wrist_2_joint": 0.6746043897044093,
            "wrist_3_joint": 3.1335220948105738
        }
    },
    "waypoints": [
        {
            "positions": [
                -2.4736205022346103,
                -1.1634956873357014,
                2.010868315001653,
                -0.8367026794713948,
                0.6746043897044093,
                3.1335220948105738
            ]
        },
        {
            "positions": [
                -2.5559780963911027,
                -1.1317008862904498,
                1.9674185262915622,
                -0.8229042340289341,
                0.8539939180277952,
                3.144182857818106
            ]
        },
        {
            "positions": [
                -2.638335690547595,
                -1.0999060852451983,
                1.9239687375814714,
                -0.8091057885864734,
                1.033383446351181,
                3.154843620825639
            ]
        },
        {
            "positions": [
                -2.7206932847040877,
                -1.0681112841999467,
                1.8805189488713805,
                -0.7953073431440127,
                1.212772974674567,
                3.165504383833172
            ]
        },
        {
            "positions": [
                -2.8030508788605797,
                -1.0363164831546952,
                1.8370691601612898,
                -0.7815088977015522,
                1.392162502997953,
                3.176165146840704
            ]
        },
        {
            "positions": [
                -2.885408473017072,
                -1.0045216821094436,
                1.793619371451199,
                -0.7677104522590915,
                1.571552031321339,
                3.1868259098482365
            ]
        },
        {
            "positions": [
                -2.9677660671735646,
                -0.972726881064192,
                1.7501695827411081,
                -0.7539120068166308,
                1.7509415596447249,
                3.1974866728557694
            ]
        }
    ]
}