{
    "goal": {
        "global_pose": {
            "orientation": {
                "w": -0.00223480608172531,
                "x": 0.0024358444001904467,
                "y": 0.7094548369677653,
                "z": -0.704743149386269
            },
            "position": {
                "x": 0.6205249238014221,
                "y": -0.6371506643295288,
                "z": 0.19426114857196808
            }
        },
        "name": "move_to_magneteinheit_B"
    },
    "id": "BKPIECE_move_to_magneteinheit_B_138",
    "joint_names": [
        "shoulder_pan_joint",
        "shoulder_lift_joint",
        "elbow_joint",
        "wrist_1_joint",
        "wrist_2_joint",
        "wrist_3_joint"
    ],
    "metrics": {
        "cart_traj_len": 3.4672281193800845,
        "distance_elbow_joint": 4.337507184086204,
        "distance_shoulder_lift_joint": 0.8444191526837053,
        "distance_shoulder_pan_joint": 2.0597096126790375,
        "distance_wrist_1_joint": 1.4367655093319645,
        "distance_wrist_2_joint": 1.6001783082671661,
        "distance_wrist_3_joint": 3.1655950427013093,
        "smoothness": 0.16222834387545293,
        "time": 0.7212023080000001,
        "traj_len": 3.6666298981148047,
        "weighted_distance": 4.776223268729294
    },
    "planner": "BKPIECE",
    "start": {
        "state": {
            "elbow_joint": 2.3935871308073637,
            "shoulder_lift_joint": -1.9085141043777403,
            "shoulder_pan_joint": 0.7066247067284167,
            "wrist_1_joint": -0.46782909355067076,
            "wrist_2_joint": 0.7096259085804283,
            "wrist_3_joint": -3.1358149275257428
        }
    },
    "waypoints": [
        {
            "positions": [
                0.7066247067284167,
                -1.9085141043777403,
                2.3935871308073637,
                -0.46782909355067076,
                0.7096259085804283,
                -3.1358149275257428
            ]
        },
        {
            "positions": [
                0.7639987829084186,
                -1.9542648488637697,
                2.379947813668064,
                -0.4530985315283562,
                0.5647470239104386,
                -3.0175056941682525
            ]
        },
        {
            "positions": [
                0.8213728590884205,
                -2.000015593349799,
                2.366308496528764,
                -0.4383679695060416,
                0.4198681392404491,
                -2.899196460810762
            ]
        },
        {
            "positions": [
                0.8747009309627765,
                -1.993973462293565,
                2.1881971599469403,
                -0.4144387677218129,
                0.39232960108554044,
                -2.798654049785453
            ]
        },
        {
            "positions": [
                0.9280290028371323,
                -1.987931331237331,
                2.0100858233651167,
                -0.39050956593758407,
                0.3647910629306318,
                -2.6981116387601447
            ]
        },
        {
            "positions": [
                0.9813570747114883,
                -1.981889200181097,
                1.8319744867832932,
                -0.36658036415335526,
                0.3372525247757231,
                -2.597569227734836
            ]
        },
        {
            "positions": [
                1.0346851465858442,
                -1.975847069124863,
                1.6538631502014696,
                -0.3426511623691265,
                0.30971398662081445,
                -2.497026816709527
            ]
        },
        {
            "positions": [
                1.0880132184602,
                -1.969804938068629,
                1.4757518136196461,
                -0.31872196058489777,
                0.2821754484659058,
                -2.3964844056842187
            ]
        },
        {
            "positions": [
                1.1413412903345561,
                -1.9637628070123954,
                1.2976404770378225,
                -0.29479275880066896,
                0.25463691031099717,
                -2.29594199465891
            ]
        },
        {
            "positions": [
                1.194669362208912,
                -1.9577206759561614,
                1.1195291404559986,
                -0.27086355701644016,
                0.2270983721560885,
                -2.195399583633601
            ]
        },
        {
            "positions": [
                1.2479974340832678,
                -1.9516785448999274,
                0.9414178038741752,
                -0.2469343552322114,
                0.19955983400117985,
                -2.0948571726082923
            ]
        },
        {
            "positions": [
                1.3013255059576239,
                -1.9456364138436935,
                0.7633064672923515,
                -0.2230051534479826,
                0.17202129584627118,
                -1.994314761582984
            ]
        },
        {
            "positions": [
                1.3546535778319797,
                -1.9395942827874595,
                0.5851951307105281,
                -0.19907595166375386,
                0.14448275769136254,
                -1.8937723505576751
            ]
        },
        {
            "positions": [
                1.4079816497063358,
                -1.9335521517312255,
                0.40708379412870443,
                -0.17514674987952505,
                0.11694421953645384,
                -1.7932299395323665
            ]
        },
        {
            "positions": [
                1.4613097215806916,
                -1.9275100206749916,
                0.228972457546881,
                -0.1512175480952963,
                0.08940568138154525,
                -1.6926875285070577
            ]
        },
        {
            "positions": [
                1.5146377934550475,
                -1.9214678896187576,
                0.05086112096505735,
                -0.12728834631106756,
                0.06186714322663661,
                -1.5921451174817491
            ]
        },
        {
            "positions": [
                1.5679658653294033,
                -1.9154257585625236,
                -0.12725021561676675,
                -0.1033591445268387,
                0.03432860507172791,
                -1.4916027064564403
            ]
        },
        {
            "positions": [
                1.6212939372037594,
                -1.9093836275062896,
                -0.30536155219858996,
                -0.07942994274260995,
                0.006790066916819271,
                -1.3910602954311317
            ]
        },
        {
            "positions": [
                1.6746220090781152,
                -1.9033414964500557,
                -0.4834728887804136,
                -0.0555007409583812,
                -0.020748471238089372,
                -1.2905178844058232
            ]
        },
        {
            "positions": [
                1.727950080952471,
                -1.8972993653938217,
                -0.6615842253622368,
                -0.03157153917415245,
                -0.048287009392998015,
                -1.1899754733805146
            ]
        },
        {
            "positions": [
                1.781278152826827,
                -1.891257234337588,
                -0.8396955619440609,
                -0.0076423373899235925,
                -0.07582554754790671,
                -1.0894330623552058
            ]
        },
        {
            "positions": [
                1.834606224701183,
                -1.885215103281354,
                -1.0178068985258846,
                0.016286864394305156,
                -0.10336408570281541,
                -0.9888906513298972
            ]
        },
        {
            "positions": [
                1.8879342965755388,
                -1.87917297222512,
                -1.1959182351077078,
                0.040216066178533905,
                -0.130902623857724,
                -0.8883482403045884
            ]
        },
        {
            "positions": [
                1.9412623684498946,
                -1.873130841168886,
                -1.3740295716895314,
                0.06414526796276265,
                -0.15844116201263259,
                -0.78780582927928
            ]
        },
        {
            "positions": [
                1.994590440324251,
                -1.867088710112652,
                -1.552140908271355,
                0.08807446974699151,
                -0.1859797001675414,
                -0.6872634182539712
            ]
        },
        {
            "positions": [
                2.0479185121986068,
                -1.8610465790564181,
                -1.7302522448531785,
                0.11200367153122022,
                -0.21351823832244998,
                -0.5867210072286624
            ]
        },
        {
            "positions": [
                2.135851995651816,
                -1.8834568862571597,
                -1.756194643776839,
                0.18665715810289962,
                -0.19397245444270736,
                -0.5367341814255
            ]
        },
        {
            "positions": [
                2.223785479105025,
                -1.9058671934579015,
                -1.7821370427004992,
                0.261310644674579,
                -0.17442667056296476,
                -0.48674735562233756
            ]
        },
        {
            "positions": [
                2.311718962558234,
                -1.928277500658643,
                -1.8080794416241597,
                0.3359641312462584,
                -0.15488088668322214,
                -0.4367605298191751
            ]
        },
        {
            "positions": [
                2.378806833077362,
                -1.9903501116571605,
                -1.8022612682719208,
                0.4265758285897684,
                -0.08757309999454169,
                -0.3724604421695207
            ]
        },
        {
            "positions": [
                2.44589470359649,
                -2.052422722655678,
                -1.796443094919682,
                0.5171875259332783,
                -0.020265313305861232,
                -0.3081603545198662
            ]
        },
        {
            "positions": [
                2.512982574115618,
                -2.1144953336541956,
                -1.790624921567443,
                0.6077992232767884,
                0.04704247338281925,
                -0.2438602668702117
            ]
        },
        {
            "positions": [
                2.5800704446347464,
                -2.1765679446527133,
                -1.7848067482152041,
                0.6984109206202982,
                0.11435026007149968,
                -0.17956017922055723
            ]
        },
        {
            "positions": [
                2.6471583151538742,
                -2.2386405556512305,
                -1.7789885748629652,
                0.7890226179638082,
                0.18165804676018021,
                -0.11526009157090272
            ]
        },
        {
            "positions": [
                2.7142461856730025,
                -2.3007131666497482,
                -1.7731704015107264,
                0.8796343153073182,
                0.24896583344886064,
                -0.05096000392124829
            ]
        },
        {
            "positions": [
                2.6882021188057763,
                -2.3878541975622163,
                -1.7227046157401023,
                0.924285365544306,
                0.3562408782453491,
                -0.010589944372840762
            ]
        },
        {
            "positions": [
                2.6621580519385506,
                -2.474995228474684,
                -1.6722388299694784,
                0.9689364157812939,
                0.4635159230418376,
                0.029780115175566772
            ]
        }
    ]
}