{
    "goal": {
        "global_pose": {
            "orientation": {
                "w": -0.4816463035849501,
                "x": 0.5182115481033762,
                "y": 0.4908360881923453,
                "z": -0.5084816262002911
            },
            "position": {
                "x": -0.8240239810943604,
                "y": 0.19912469901144506,
                "z": 0.16403168439865112
            }
        },
        "name": "move_to_storage_D"
    },
    "id": "BKPIECE_move_to_storage_D_143",
    "joint_names": [
        "shoulder_pan_joint",
        "shoulder_lift_joint",
        "elbow_joint",
        "wrist_1_joint",
        "wrist_2_joint",
        "wrist_3_joint"
    ],
    "metrics": {
        "cart_traj_len": 7.243096622346155,
        "distance_elbow_joint": 12.443228731344508,
        "distance_shoulder_lift_joint": 5.578109798567272,
        "distance_shoulder_pan_joint": 5.163511299998069,
        "distance_wrist_1_joint": 6.071250575837045,
        "distance_wrist_2_joint": 5.699679975067978,
        "distance_wrist_3_joint": 9.206564228478175,
        "smoothness": 0.7695347477281028,
        "time": 0.5968050069999999,
        "traj_len": 6.645475499111635,
        "weighted_distance": 8.622436060485139
    },
    "planner": "BKPIECE",
    "start": {
        "state": {
            "elbow_joint": -2.384821997420982,
            "shoulder_lift_joint": -2.2788054674887404,
            "shoulder_pan_joint": -0.18546946417610016,
            "wrist_1_joint": 1.4845937964226739,
            "wrist_2_joint": 0.1789877726866377,
            "wrist_3_joint": 0.03710572555276528
        }
    },
    "waypoints": [
        {
            "positions": [
                -0.18546946417610016,
                -2.2788054674887404,
                -2.384821997420982,
                1.4845937964226739,
                0.1789877726866377,
                0.03710572555276528
            ]
        },
        {
            "positions": [
                -0.2911286474389994,
                -2.3054463564418826,
                -2.4797195183109935,
                1.4697558767470746,
                0.1947831720801326,
                0.14604693761236087
            ]
        },
        {
            "positions": [
                -0.2807991027636522,
                -2.241753588445154,
                -2.5298905434005827,
                1.3967402016713457,
                0.12431533477638743,
                0.22201059027220293
            ]
        },
        {
            "positions": [
                -0.27046955808830503,
                -2.1780608204484255,
                -2.580061568490172,
                1.3237245265956168,
                0.05384749747264225,
                0.297974242932045
            ]
        },
        {
            "positions": [
                -0.2601400134129579,
                -2.1143680524516975,
                -2.630232593579761,
                1.2507088515198876,
                -0.01662033983110292,
                0.37393789559188706
            ]
        },
        {
            "positions": [
                -0.2498104687376107,
                -2.050675284454969,
                -2.68040361866935,
                1.1776931764441587,
                -0.0870881771348481,
                0.4499015482517291
            ]
        },
        {
            "positions": [
                -0.2394809240622635,
                -1.9869825164582404,
                -2.7305746437589393,
                1.1046775013684298,
                -0.15755601443859324,
                0.5258652009115712
            ]
        },
        {
            "positions": [
                -0.24990804623452453,
                -1.8814655930046225,
                -2.6880582443633827,
                1.2165943012695757,
                -0.20606076264041479,
                0.45497268748058545
            ]
        },
        {
            "positions": [
                -0.26033516840678556,
                -1.7759486695510045,
                -2.645541844967826,
                1.3285111011707216,
                -0.25456551084223633,
                0.3840801740495997
            ]
        },
        {
            "positions": [
                -0.27076229057904655,
                -1.6704317460973865,
                -2.60302544557227,
                1.4404279010718675,
                -0.3030702590440579,
                0.31318766061861403
            ]
        },
        {
            "positions": [
                -0.2811894127513076,
                -1.5649148226437686,
                -2.5605090461767133,
                1.5523447009730136,
                -0.3515750072458794,
                0.2422951471876283
            ]
        },
        {
            "positions": [
                -0.2916165349235686,
                -1.4593978991901504,
                -2.5179926467811566,
                1.6642615008741592,
                -0.40007975544770097,
                0.17140263375664255
            ]
        },
        {
            "positions": [
                -0.3020436570958296,
                -1.3538809757365327,
                -2.4754762473856,
                1.7761783007753054,
                -0.4485845036495225,
                0.10051012032565682
            ]
        },
        {
            "positions": [
                -0.31247077926809064,
                -1.2483640522829145,
                -2.432959847990044,
                1.888095100676451,
                -0.497089251851344,
                0.029617606894671133
            ]
        },
        {
            "positions": [
                -0.32289790144035163,
                -1.1428471288292967,
                -2.390443448594487,
                2.000011900577597,
                -0.5455940000531656,
                -0.041274906536314604
            ]
        },
        {
            "positions": [
                -0.3333250236126127,
                -1.0373302053756785,
                -2.3479270491989306,
                2.1119287004787433,
                -0.5940987482549871,
                -0.11216741996730029
            ]
        },
        {
            "positions": [
                -0.3437521457848737,
                -0.9318132819220606,
                -2.305410649803374,
                2.223845500379889,
                -0.6426034964568087,
                -0.18305993339828608
            ]
        },
        {
            "positions": [
                -0.3541792679571347,
                -0.8262963584684426,
                -2.2628942504078173,
                2.335762300281035,
                -0.6911082446586302,
                -0.25395244682927176
            ]
        },
        {
            "positions": [
                -0.3646063901293957,
                -0.7207794350148247,
                -2.220377851012261,
                2.4476791001821807,
                -0.7396129928604518,
                -0.32484496026025755
            ]
        },
        {
            "positions": [
                -0.3750335123016567,
                -0.6152625115612069,
                -2.1778614516167045,
                2.559595900083327,
                -0.7881177410622733,
                -0.3957374736912431
            ]
        },
        {
            "positions": [
                -0.38546063447391776,
                -0.5097455881075887,
                -2.135345052221148,
                2.6715126999844725,
                -0.8366224892640948,
                -0.4666299871222289
            ]
        },
        {
            "positions": [
                -0.39588775664617876,
                -0.4042286646539708,
                -2.0928286528255917,
                2.7834294998856186,
                -0.8851272374659164,
                -0.5375225005532147
            ]
        },
        {
            "positions": [
                -0.40631487881843975,
                -0.2987117412003528,
                -2.050312253430035,
                2.8953462997867643,
                -0.9336319856677379,
                -0.6084150139842004
            ]
        },
        {
            "positions": [
                -0.4167420009907008,
                -0.19319481774673486,
                -2.0077958540344785,
                3.0072630996879104,
                -0.9821367338695595,
                -0.6793075274151861
            ]
        },
        {
            "positions": [
                -0.3782245429274623,
                -0.25774873287461225,
                -1.8939591704836587,
                2.968204507729052,
                -0.9039282088708049,
                -0.7345861041023694
            ]
        },
        {
            "positions": [
                -0.33970708486422385,
                -0.32230264800248964,
                -1.7801224869328387,
                2.9291459157701945,
                -0.8257196838720504,
                -0.7898646807895527
            ]
        },
        {
            "positions": [
                -0.3011896268009854,
                -0.3868565631303671,
                -1.666285803382019,
                2.8900873238113363,
                -0.747511158873296,
                -0.845143257476736
            ]
        },
        {
            "positions": [
                -0.2626721687377469,
                -0.45141047825824443,
                -1.552449119831199,
                2.8510287318524785,
                -0.6693026338745415,
                -0.9004218341639193
            ]
        },
        {
            "positions": [
                -0.22415471067450843,
                -0.5159643933861219,
                -1.4386124362803794,
                2.8119701398936203,
                -0.5910941088757871,
                -0.9557004108511027
            ]
        },
        {
            "positions": [
                -0.18563725261126995,
                -0.5805183085139993,
                -1.3247757527295594,
                2.772911547934762,
                -0.5128855838770325,
                -1.010978987538286
            ]
        },
        {
            "positions": [
                -0.14711979454803148,
                -0.6450722236418767,
                -1.2109390691787394,
                2.7338529559759044,
                -0.434677058878278,
                -1.0662575642254692
            ]
        },
        {
            "positions": [
                -0.108602336484793,
                -0.709626138769754,
                -1.0971023856279196,
                2.694794364017046,
                -0.3564685338795235,
                -1.1215361409126525
            ]
        },
        {
            "positions": [
                -0.07008487842155459,
                -0.7741800538976314,
                -0.9832657020770998,
                2.6557357720581884,
                -0.27826000888076907,
                -1.1768147175998358
            ]
        },
        {
            "positions": [
                -0.031567420358316056,
                -0.8387339690255089,
                -0.8694290185262801,
                2.6166771800993303,
                -0.20005148388201455,
                -1.232093294287019
            ]
        },
        {
            "positions": [
                0.006950037704922363,
                -0.9032878841533862,
                -0.7555923349754603,
                2.5776185881404725,
                -0.12184295888326013,
                -1.2873718709742024
            ]
        },
        {
            "positions": [
                0.04546749576816089,
                -0.9678417992812637,
                -0.6417556514246403,
                2.5385599961816143,
                -0.0436344338845055,
                -1.3426504476613859
            ]
        },
        {
            "positions": [
                0.08398495383139926,
                -1.032395714409141,
                -0.5279189678738205,
                2.499501404222756,
                0.03457409111424892,
                -1.3979290243485691
            ]
        },
        {
            "positions": [
                0.12250241189463784,
                -1.0969496295370185,
                -0.41408228432300054,
                2.4604428122638984,
                0.11278261611300344,
                -1.4532076010357524
            ]
        },
        {
            "positions": [
                0.1610198699578762,
                -1.1615035446648958,
                -0.30024560077218077,
                2.4213842203050406,
                0.19099114111175797,
                -1.5084861777229357
            ]
        },
        {
            "positions": [
                0.1995373280211148,
                -1.2260574597927731,
                -0.18640891722136077,
                2.3823256283461824,
                0.2691996661105125,
                -1.5637647544101192
            ]
        },
        {
            "positions": [
                0.23805478608435315,
                -1.2906113749206507,
                -0.07257223367054122,
                2.3432670363873243,
                0.3474081911092668,
                -1.6190433310973025
            ]
        },
        {
            "positions": [
                0.27657224414759163,
                -1.355165290048528,
                0.041264449880278775,
                2.3042084444284665,
                0.4256167161080213,
                -1.6743219077844858
            ]
        },
        {
            "positions": [
                0.3150897022108302,
                -1.4197192051764056,
                0.15510113343109877,
                2.2651498524696083,
                0.5038252411067761,
                -1.729600484471669
            ]
        },
        {
            "positions": [
                0.3536071602740687,
                -1.484273120304283,
                0.2689378169819183,
                2.22609126051075,
                0.5820337661055304,
                -1.7848790611588523
            ]
        },
        {
            "positions": [
                0.39212461833730705,
                -1.5488270354321603,
                0.3827745005327383,
                2.1870326685518924,
                0.6602422911042849,
                -1.8401576378460356
            ]
        },
        {
            "positions": [
                0.4306420764005455,
                -1.6133809505600376,
                0.49661118408355787,
                2.1479740765930346,
                0.7384508161030392,
                -1.8954362145332189
            ]
        },
        {
            "positions": [
                0.4691595344637841,
                -1.6779348656879152,
                0.6104478676343783,
                2.108915484634176,
                0.816659341101794,
                -1.9507147912204024
            ]
        },
        {
            "positions": [
                0.5076769925270226,
                -1.7424887808157925,
                0.7242845511851979,
                2.0698568926753182,
                0.8948678661005485,
                -2.0059933679075854
            ]
        },
        {
            "positions": [
                0.546194450590261,
                -1.8070426959436698,
                0.8381212347360179,
                2.0307983007164605,
                0.9730763910993028,
                -2.061271944594769
            ]
        },
        {
            "positions": [
                0.5847119086534993,
                -1.8715966110715472,
                0.9519579182868374,
                1.9917397087576023,
                1.0512849160980573,
                -2.116550521281952
            ]
        },
        {
            "positions": [
                0.6232293667167379,
                -1.9361505261994247,
                1.0657946018376574,
                1.9526811167987443,
                1.129493441096812,
                -2.1718290979691357
            ]
        },
        {
            "positions": [
                0.6617468247799765,
                -2.000704441327302,
                1.1796312853884774,
                1.9136225248398864,
                1.2077019660955663,
                -2.2271076746563185
            ]
        },
        {
            "positions": [
                0.7002642828432148,
                -2.065258356455179,
                1.293467968939297,
                1.8745639328810284,
                1.2859104910943207,
                -2.2823862513435023
            ]
        },
        {
            "positions": [
                0.7387817409064532,
                -2.1298122715830567,
                1.407304652490117,
                1.8355053409221704,
                1.3641190160930754,
                -2.337664828030685
            ]
        },
        {
            "positions": [
                0.7772991989696918,
                -2.1943661867109343,
                1.521141336040937,
                1.7964467489633122,
                1.4423275410918297,
                -2.392943404717869
            ]
        },
        {
            "positions": [
                0.8158166570329304,
                -2.2589201018388114,
                1.634978019591757,
                1.7573881570044543,
                1.5205360660905844,
                -2.448221981405052
            ]
        },
        {
            "positions": [
                0.8543341150961687,
                -2.323474016966689,
                1.7488147031425765,
                1.7183295650455963,
                1.5987445910893388,
                -2.5035005580922354
            ]
        },
        {
            "positions": [
                0.8155412748717343,
                -2.3200568299775948,
                1.5848623474056045,
                1.6942329773237805,
                1.5450824413664719,
                -2.3926638109678735
            ]
        },
        {
            "positions": [
                0.7767484346472998,
                -2.3166396429885,
                1.4209099916686327,
                1.6701363896019648,
                1.4914202916436052,
                -2.2818270638435116
            ]
        },
        {
            "positions": [
                0.7379555944228654,
                -2.313222455999406,
                1.2569576359316608,
                1.6460398018801492,
                1.4377581419207384,
                -2.1709903167191498
            ]
        },
        {
            "positions": [
                0.699162754198431,
                -2.3098052690103112,
                1.093005280194689,
                1.6219432141583334,
                1.3840959921978715,
                -2.060153569594788
            ]
        },
        {
            "positions": [
                0.6603699139739965,
                -2.306388082021217,
                0.9290529244577171,
                1.5978466264365176,
                1.3304338424750046,
                -1.9493168224704258
            ]
        },
        {
            "positions": [
                0.6215770737495621,
                -2.3029708950321224,
                0.7651005687207452,
                1.5737500387147019,
                1.276771692752138,
                -1.8384800753460637
            ]
        },
        {
            "positions": [
                0.5827842335251276,
                -2.299553708043028,
                0.6011482129837733,
                1.5496534509928863,
                1.223109543029271,
                -1.7276433282217019
            ]
        },
        {
            "positions": [
                0.5439913933006932,
                -2.296136521053934,
                0.43719585724680154,
                1.5255568632710705,
                1.1694473933064042,
                -1.61680658109734
            ]
        },
        {
            "positions": [
                0.5051985530762587,
                -2.2927193340648393,
                0.27324350150982957,
                1.5014602755492548,
                1.1157852435835376,
                -1.5059698339729781
            ]
        },
        {
            "positions": [
                0.4664057128518243,
                -2.289302147075745,
                0.10929114577285781,
                1.477363687827439,
                1.0621230938606707,
                -1.3951330868486163
            ]
        },
        {
            "positions": [
                0.42761287262738984,
                -2.2858849600866504,
                -0.054661209964114166,
                1.4532671001056232,
                1.0084609441378038,
                -1.2842963397242542
            ]
        },
        {
            "positions": [
                0.38882003240295543,
                -2.282467773097556,
                -0.21861356570108614,
                1.4291705123838077,
                0.9547987944149371,
                -1.1734595925998923
            ]
        },
        {
            "positions": [
                0.35002719217852096,
                -2.2790505861084616,
                -0.3825659214380579,
                1.4050739246619919,
                0.9011366446920703,
                -1.0626228454755304
            ]
        },
        {
            "positions": [
                0.31123435195408644,
                -2.2756333991193674,
                -0.5465182771750299,
                1.380977336940176,
                0.8474744949692035,
                -0.9517860983511683
            ]
        },
        {
            "positions": [
                0.27244151172965203,
                -2.2722162121302727,
                -0.7104706329120019,
                1.3568807492183603,
                0.7938123452463367,
                -0.8409493512268065
            ]
        },
        {
            "positions": [
                0.23364867150521762,
                -2.2687990251411785,
                -0.8744229886489734,
                1.3327841614965448,
                0.74015019552347,
                -0.7301126041024446
            ]
        },
        {
            "positions": [
                0.1948558312807832,
                -2.2653818381520843,
                -1.0383753443859454,
                1.308687573774729,
                0.6864880458006032,
                -0.6192758569780827
            ]
        },
        {
            "positions": [
                0.1560629910563487,
                -2.2619646511629896,
                -1.2023277001229173,
                1.2845909860529132,
                0.6328258960777363,
                -0.5084391098537206
            ]
        },
        {
            "positions": [
                0.11727015083191428,
                -2.2585474641738954,
                -1.3662800558598893,
                1.2604943983310974,
                0.5791637463548696,
                -0.39760236272935856
            ]
        },
        {
            "positions": [
                0.07847731060747987,
                -2.2551302771848007,
                -1.5302324115968609,
                1.2363978106092817,
                0.5255015966320027,
                -0.28676561560499714
            ]
        },
        {
            "positions": [
                0.039684470383045456,
                -2.2517130901957065,
                -1.6941847673338328,
                1.212301222887466,
                0.47183944690913604,
                -0.17592886848063527
            ]
        },
        {
            "positions": [
                0.0008916301586109343,
                -2.248295903206612,
                -1.8581371230708048,
                1.1882046351656501,
                0.41817729718626917,
                -0.06509212135627296
            ]
        },
        {
            "positions": [
                -0.037901210065823435,
                -2.2448787162175177,
                -2.022089478807777,
                1.1641080474438346,
                0.3645151474634024,
                0.04574462576808902
            ]
        },
        {
            "positions": [
                0.04060937011667359,
                -2.2173104807807533,
                -1.8856421054929509,
                1.116913319797728,
                0.3695980474638003,
                -0.04611341357395837
            ]
        },
        {
            "positions": [
                0.11911995029917062,
                -2.189742245343989,
                -1.749194732178125,
                1.069718592151621,
                0.37468094746419817,
                -0.13797145291600577
            ]
        },
        {
            "positions": [
                0.19763053048166762,
                -2.162174009907224,
                -1.612747358863299,
                1.0225238645055144,
                0.37976384746459607,
                -0.22982949225805316
            ]
        },
        {
            "positions": [
                0.2761411106641647,
                -2.13460577447046,
                -1.476299985548473,
                0.9753291368594077,
                0.384846747464994,
                -0.32168753160010055
            ]
        },
        {
            "positions": [
                0.35465169084666176,
                -2.1070375390336955,
                -1.339852612233647,
                0.9281344092133009,
                0.3899296474653919,
                -0.41354557094214794
            ]
        },
        {
            "positions": [
                0.4331622710291587,
                -2.079469303596931,
                -1.2034052389188212,
                0.8809396815671942,
                0.39501254746578973,
                -0.5054036102841953
            ]
        },
        {
            "positions": [
                0.5116728512116557,
                -2.0519010681601664,
                -1.066957865603995,
                0.8337449539210875,
                0.40009544746618764,
                -0.5972616496262427
            ]
        },
        {
            "positions": [
                0.5901834313941527,
                -2.024332832723402,
                -0.9305104922891692,
                0.7865502262749807,
                0.40517834746658554,
                -0.6891196889682901
            ]
        },
        {
            "positions": [
                0.6686940115766499,
                -1.9967645972866377,
                -0.794063118974343,
                0.739355498628874,
                0.41026124746698345,
                -0.7809777283103376
            ]
        },
        {
            "positions": [
                0.7472045917591469,
                -1.9691963618498733,
                -0.6576157456595171,
                0.6921607709827673,
                0.4153441474673813,
                -0.8728357676523849
            ]
        },
        {
            "positions": [
                0.8257151719416438,
                -1.9416281264131088,
                -0.5211683723446914,
                0.6449660433366605,
                0.4204270474677792,
                -0.9646938069944323
            ]
        },
        {
            "positions": [
                0.9042257521241408,
                -1.9140598909763444,
                -0.38472099902986545,
                0.5977713156905539,
                0.42550994746817705,
                -1.0565518463364798
            ]
        },
        {
            "positions": [
                0.9827363323066379,
                -1.8864916555395799,
                -0.2482736257150393,
                0.550576588044447,
                0.43059284746857496,
                -1.148409885678527
            ]
        },
        {
            "positions": [
                1.061246912489135,
                -1.8589234201028155,
                -0.11182625240021338,
                0.5033818603983403,
                0.43567574746897286,
                -1.2402679250205746
            ]
        },
        {
            "positions": [
                1.139757492671632,
                -1.8313551846660512,
                0.024621120914612327,
                0.45618713275223366,
                0.44075864746937077,
                -1.3321259643626218
            ]
        },
        {
            "positions": [
                1.218268072854129,
                -1.8037869492292866,
                0.16106849422943847,
                0.4089924051061269,
                0.4458415474697686,
                -1.4239840037046694
            ]
        },
        {
            "positions": [
                1.296778653036626,
                -1.7762187137925223,
                0.2975158675442642,
                0.36179767746002023,
                0.4509244474701665,
                -1.5158420430467165
            ]
        },
        {
            "positions": [
                1.3752892332191233,
                -1.7486504783557577,
                0.43396324085909077,
                0.31460294981391335,
                0.45600734747056443,
                -1.6077000823887642
            ]
        },
        {
            "positions": [
                1.4537998134016203,
                -1.7210822429189934,
                0.5704106141739165,
                0.2674082221678066,
                0.46109024747096233,
                -1.6995581217308113
            ]
        },
        {
            "positions": [
                1.5323103935841174,
                -1.693514007482229,
                0.7068579874887426,
                0.22021349452169992,
                0.4661731474713602,
                -1.791416161072859
            ]
        },
        {
            "positions": [
                1.6108209737666142,
                -1.6659457720454645,
                0.8433053608035683,
                0.17301876687559314,
                0.4712560474717581,
                -1.8832742004149061
            ]
        },
        {
            "positions": [
                1.6893315539491112,
                -1.6383775366087,
                0.979752734118394,
                0.12582403922948648,
                0.476338947472156,
                -1.9751322397569537
            ]
        },
        {
            "positions": [
                1.7678421341316082,
                -1.6108093011719355,
                1.1162001074332202,
                0.07862931158337982,
                0.48142184747255384,
                -2.066990279099001
            ]
        },
        {
            "positions": [
                1.8463527143141052,
                -1.5832410657351712,
                1.2526474807480459,
                0.031434583937273164,
                0.48650474747295175,
                -2.1588483184410485
            ]
        },
        {
            "positions": [
                1.9248632944966024,
                -1.5556728302984066,
                1.3890948540628725,
                -0.015760143708833718,
                0.49158764747334965,
                -2.250706357783096
            ]
        },
        {
            "positions": [
                2.003373874679099,
                -1.528104594861642,
                1.5255422273776982,
                -0.0629548713549406,
                0.4966705474737475,
                -2.3425643971251433
            ]
        },
        {
            "positions": [
                2.0818844548615965,
                -1.5005363594248777,
                1.6619896006925243,
                -0.11014959900104726,
                0.5017534474741454,
                -2.434422436467191
            ]
        },
        {
            "positions": [
                2.1603950350440932,
                -1.4729681239881134,
                1.7984369740073498,
                -0.15734432664715398,
                0.5068363474745433,
                -2.526280475809238
            ]
        },
        {
            "positions": [
                2.2271572679114096,
                -1.4074777984566202,
                1.8022449887701413,
                -0.24650736323690436,
                0.5853410190643747,
                -2.6073045770489407
            ]
        },
        {
            "positions": [
                2.293919500778726,
                -1.3419874729251269,
                1.806053003532933,
                -0.3356703998266548,
                0.6638456906542063,
                -2.6883286782886437
            ]
        },
        {
            "positions": [
                2.360681733646042,
                -1.2764971473936337,
                1.8098610182957244,
                -0.4248334364164052,
                0.7423503622440377,
                -2.7693527795283464
            ]
        },
        {
            "positions": [
                2.4274439665133585,
                -1.2110068218621404,
                1.8136690330585161,
                -0.5139964730061556,
                0.8208550338338692,
                -2.8503768807680494
            ]
        },
        {
            "positions": [
                2.4942061993806752,
                -1.1455164963306472,
                1.8174770478213076,
                -0.603159509595906,
                0.8993597054237007,
                -2.931400982007752
            ]
        },
        {
            "positions": [
                2.5609684322479915,
                -1.080026170799154,
                1.8212850625840993,
                -0.6923225461856564,
                0.9778643770135322,
                -3.0124250832474546
            ]
        },
        {
            "positions": [
                2.627730665115308,
                -1.0145358452676607,
                1.8250930773468907,
                -0.7814855827754068,
                1.0563690486033637,
                -3.0934491844871577
            ]
        }
    ]
}