{
    "goal": {
        "global_pose": {
            "orientation": {
                "w": 0.7047431493862688,
                "x": -0.7094548369677653,
                "y": 0.0024358444001904,
                "z": -0.0022348060817251984
            },
            "position": {
                "x": -0.39052492380142206,
                "y": 0.3671506643295288,
                "z": 0.19426114857196808
            }
        },
        "name": "move_to_magneteinheit_D"
    },
    "id": "BKPIECE_move_to_magneteinheit_D_29",
    "joint_names": [
        "shoulder_pan_joint",
        "shoulder_lift_joint",
        "elbow_joint",
        "wrist_1_joint",
        "wrist_2_joint",
        "wrist_3_joint"
    ],
    "metrics": {
        "cart_traj_len": 3.7221424347562384,
        "distance_elbow_joint": 4.04078884545043,
        "distance_shoulder_lift_joint": 1.6322476280057665,
        "distance_shoulder_pan_joint": 4.518941017119069,
        "distance_wrist_1_joint": 2.825899495521588,
        "distance_wrist_2_joint": 1.8857611134474959,
        "distance_wrist_3_joint": 4.909811643882379,
        "smoothness": 0.41703122436891593,
        "time": 0.965908294,
        "traj_len": 4.451230138223221,
        "weighted_distance": 5.860438007534978
    },
    "planner": "BKPIECE",
    "start": {
        "state": {
            "elbow_joint": 0.7495348899011973,
            "shoulder_lift_joint": -0.6476975780737697,
            "shoulder_pan_joint": -2.711696901376276,
            "wrist_1_joint": -0.07506478080974305,
            "wrist_2_joint": 0.4329665971545858,
            "wrist_3_joint": 3.1361499051832524
        }
    },
    "waypoints": [
        {
            "positions": [
                -2.711696901376276,
                -0.6476975780737697,
                0.7495348899011973,
                -0.07506478080974305,
                0.4329665971545858,
                3.1361499051832524
            ]
        },
        {
            "positions": [
                -2.712314008427216,
                -0.6647138910748207,
                0.7739999303928071,
                -0.00011531256420928282,
                0.35070614659740085,
                2.947609669731693
            ]
        },
        {
            "positions": [
                -2.7129311154781557,
                -0.6817302040758717,
                0.7984649708844169,
                0.07483415568132448,
                0.26844569604021584,
                2.759069434280134
            ]
        },
        {
            "positions": [
                -2.7135482225290954,
                -0.6987465170769227,
                0.8229300113760267,
                0.14978362392685826,
                0.18618524548303084,
                2.5705291988285746
            ]
        },
        {
            "positions": [
                -2.7141653295800356,
                -0.7157628300779737,
                0.8473950518676366,
                0.224733092172392,
                0.10392479492584589,
                2.3819889633770153
            ]
        },
        {
            "positions": [
                -2.7147824366309754,
                -0.7327791430790247,
                0.8718600923592464,
                0.2996825604179258,
                0.02166434436866088,
                2.193448727925456
            ]
        },
        {
            "positions": [
                -2.715399543681915,
                -0.7497954560800757,
                0.8963251328508562,
                0.37463202866345957,
                -0.060596106188524124,
                2.0049084924738967
            ]
        },
        {
            "positions": [
                -2.716016650732855,
                -0.7668117690811267,
                0.920790173342466,
                0.44958149690899324,
                -0.14285655674570902,
                1.8163682570223374
            ]
        },
        {
            "positions": [
                -2.7166337577837947,
                -0.7838280820821777,
                0.9452552138340758,
                0.5245309651545271,
                -0.22511700730289402,
                1.627828021570778
            ]
        },
        {
            "positions": [
                -2.7172508648347344,
                -0.8008443950832287,
                0.9697202543256856,
                0.5994804334000607,
                -0.30737745786007903,
                1.4392877861192188
            ]
        },
        {
            "positions": [
                -2.7178679718856746,
                -0.8178607080842797,
                0.9941852948172956,
                0.6744299016455946,
                -0.38963790841726403,
                1.2507475506676595
            ]
        },
        {
            "positions": [
                -2.7184850789366144,
                -0.8348770210853307,
                1.0186503353089054,
                0.7493793698911284,
                -0.47189835897444893,
                1.0622073152161002
            ]
        },
        {
            "positions": [
                -2.719102185987554,
                -0.8518933340863817,
                1.0431153758005152,
                0.8243288381366622,
                -0.5541588095316341,
                0.8736670797645409
            ]
        },
        {
            "positions": [
                -2.719719293038494,
                -0.8689096470874327,
                1.067580416292125,
                0.899278306382196,
                -0.636419260088819,
                0.6851268443129819
            ]
        },
        {
            "positions": [
                -2.5842695730566665,
                -0.8806122674565511,
                0.9297139656390025,
                0.946551039857992,
                -0.619319795289115,
                0.7194226316448171
            ]
        },
        {
            "positions": [
                -2.448819853074839,
                -0.8923148878256695,
                0.7918475149858801,
                0.993823773333788,
                -0.6022203304894109,
                0.7537184189766523
            ]
        },
        {
            "positions": [
                -2.3133701330930116,
                -0.904017508194788,
                0.6539810643327577,
                1.041096506809584,
                -0.5851208656897069,
                0.7880142063084874
            ]
        },
        {
            "positions": [
                -2.1779204131111842,
                -0.9157201285639064,
                0.5161146136796352,
                1.0883692402853802,
                -0.5680214008900029,
                0.8223099936403226
            ]
        },
        {
            "positions": [
                -2.042470693129357,
                -0.9274227489330248,
                0.37824816302651276,
                1.1356419737611763,
                -0.5509219360902988,
                0.8566057809721579
            ]
        },
        {
            "positions": [
                -1.9070209731475294,
                -0.9391253693021432,
                0.24038171237339034,
                1.1829147072369723,
                -0.5338224712905948,
                0.890901568303993
            ]
        },
        {
            "positions": [
                -1.771571253165702,
                -0.9508279896712617,
                0.10251526172026793,
                1.2301874407127682,
                -0.5167230064908908,
                0.9251973556358282
            ]
        },
        {
            "positions": [
                -1.6361215331838745,
                -0.9625306100403801,
                -0.035351188932854605,
                1.2774601741885643,
                -0.4996235416911866,
                0.9594931429676634
            ]
        },
        {
            "positions": [
                -1.5006718132020473,
                -0.9742332304094985,
                -0.17321763958597702,
                1.3247329076643604,
                -0.4825240768914826,
                0.9937889302994986
            ]
        },
        {
            "positions": [
                -1.3652220932202197,
                -0.9859358507786169,
                -0.31108409023909944,
                1.3720056411401564,
                -0.46542461209177854,
                1.0280847176313337
            ]
        },
        {
            "positions": [
                -1.2297723732383925,
                -0.9976384711477353,
                -0.44895054089222186,
                1.4192783746159525,
                -0.4483251472920745,
                1.062380504963169
            ]
        },
        {
            "positions": [
                -1.094322653256565,
                -1.0093410915168537,
                -0.5868169915453443,
                1.4665511080917486,
                -0.4312256824923705,
                1.0966762922950042
            ]
        },
        {
            "positions": [
                -0.9588729332747377,
                -1.021043711885972,
                -0.7246834421984667,
                1.5138238415675445,
                -0.41412621769266644,
                1.1309720796268392
            ]
        },
        {
            "positions": [
                -0.8234232132929102,
                -1.0327463322550907,
                -0.8625498928515891,
                1.5610965750433405,
                -0.3970267528929624,
                1.1652678669586745
            ]
        },
        {
            "positions": [
                -0.687973493311083,
                -1.0444489526242091,
                -1.0004163435047115,
                1.6083693085191366,
                -0.3799272880932584,
                1.1995636542905097
            ]
        },
        {
            "positions": [
                -0.5525237733292552,
                -1.0561515729933275,
                -1.1382827941578342,
                1.6556420419949327,
                -0.3628278232935543,
                1.233859441622345
            ]
        },
        {
            "positions": [
                -0.4170740533474282,
                -1.067854193362446,
                -1.2761492448109564,
                1.7029147754707288,
                -0.34572835849385025,
                1.2681552289541802
            ]
        },
        {
            "positions": [
                -0.2816243333656008,
                -1.0795568137315643,
                -1.414015695464079,
                1.7501875089465249,
                -0.3286288936941462,
                1.3024510162860152
            ]
        },
        {
            "positions": [
                -0.14617461338377336,
                -1.0912594341006827,
                -1.5518821461172012,
                1.797460242422321,
                -0.3115294288944422,
                1.3367468036178503
            ]
        },
        {
            "positions": [
                -0.01072489340194549,
                -1.1029620544698011,
                -1.6897485967703239,
                1.844732975898117,
                -0.29442996409473815,
                1.3710425909496857
            ]
        },
        {
            "positions": [
                0.12472482657988149,
                -1.1146646748389197,
                -1.827615047423446,
                1.892005709373913,
                -0.2773304992950341,
                1.4053383782815208
            ]
        },
        {
            "positions": [
                0.2601745465617089,
                -1.1263672952080381,
                -1.9654814980765687,
                1.9392784428497092,
                -0.2602310344953301,
                1.439634165613356
            ]
        },
        {
            "positions": [
                0.39562426654353633,
                -1.1380699155771565,
                -2.1033479487296907,
                1.9865511763255048,
                -0.24313156969562605,
                1.4739299529451912
            ]
        },
        {
            "positions": [
                0.5310739865253638,
                -1.149772535946275,
                -2.2412143993828133,
                2.0338239098013013,
                -0.22603210489592196,
                1.5082257402770263
            ]
        },
        {
            "positions": [
                0.6665237065071912,
                -1.1614751563153933,
                -2.379080850035936,
                2.081096643277097,
                -0.20893264009621793,
                1.5425215276088617
            ]
        },
        {
            "positions": [
                0.8019734264890186,
                -1.1731777766845117,
                -2.5169473006890586,
                2.128369376752893,
                -0.1918331752965139,
                1.5768173149406968
            ]
        },
        {
            "positions": [
                0.7258791260329156,
                -1.2583137327918212,
                -2.5063153312984188,
                2.0804874276791274,
                -0.16323400826483808,
                1.4562713062957435
            ]
        },
        {
            "positions": [
                0.6497848255768126,
                -1.343449688899131,
                -2.495683361907779,
                2.0326054786053622,
                -0.1346348412331623,
                1.3357252976507905
            ]
        },
        {
            "positions": [
                0.5736905251207096,
                -1.4285856450064405,
                -2.485051392517139,
                1.9847235295315966,
                -0.1060356742014865,
                1.2151792890058373
            ]
        },
        {
            "positions": [
                0.4975962246646067,
                -1.51372160111375,
                -2.4744194231264993,
                1.9368415804578312,
                -0.07743650716981071,
                1.0946332803608843
            ]
        },
        {
            "positions": [
                0.4215019242085037,
                -1.5988575572210597,
                -2.4637874537358595,
                1.8889596313840658,
                -0.04883734013813493,
                0.974087271715931
            ]
        },
        {
            "positions": [
                0.3454076237524007,
                -1.6839935133283692,
                -2.4531554843452197,
                1.8410776823103003,
                -0.020238173106459117,
                0.8535412630709779
            ]
        },
        {
            "positions": [
                0.26931332329629776,
                -1.7691294694356787,
                -2.44252351495458,
                1.793195733236535,
                0.008360993925216637,
                0.7329952544260249
            ]
        },
        {
            "positions": [
                0.19321902284019477,
                -1.8542654255429882,
                -2.43189154556394,
                1.7453137841627695,
                0.036960160956892474,
                0.6124492457810716
            ]
        },
        {
            "positions": [
                0.11712472238409188,
                -1.9394013816502977,
                -2.4212595761733002,
                1.697431835089004,
                0.06555932798856823,
                0.4919032371361185
            ]
        },
        {
            "positions": [
                0.04103042192798878,
                -2.0245373377576077,
                -2.4106276067826604,
                1.6495498860152384,
                0.09415849502024404,
                0.37135722849116526
            ]
        },
        {
            "positions": [
                -0.0350638785281141,
                -2.109673293864917,
                -2.3999956373920206,
                1.6016679369414732,
                0.12275766205191985,
                0.25081121984621224
            ]
        },
        {
            "positions": [
                -0.1111581789842172,
                -2.1948092499722267,
                -2.389363668001381,
                1.5537859878677076,
                0.15135682908359566,
                0.130265211201259
            ]
        },
        {
            "positions": [
                -0.18725247944032009,
                -2.279945206079536,
                -2.378731698610741,
                1.5059040387939422,
                0.1799559961152714,
                0.009719202556306025
            ]
        }
    ]
}