{
    "goal": {
        "global_pose": {
            "orientation": {
                "w": -0.4816463035849501,
                "x": 0.5182115481033762,
                "y": 0.4908360881923453,
                "z": -0.5084816262002911
            },
            "position": {
                "x": -0.8240239810943604,
                "y": -0.300875300988555,
                "z": 0.16403168439865112
            }
        },
        "name": "move_to_storage_C"
    },
    "id": "BKPIECE_move_to_storage_C_1",
    "joint_names": [
        "shoulder_pan_joint",
        "shoulder_lift_joint",
        "elbow_joint",
        "wrist_1_joint",
        "wrist_2_joint",
        "wrist_3_joint"
    ],
    "metrics": {
        "cart_traj_len": 0.577649380204929,
        "distance_elbow_joint": 0.2616615496857504,
        "distance_shoulder_lift_joint": 0.1906213850475963,
        "distance_shoulder_pan_joint": 0.4944088097771,
        "distance_wrist_1_joint": 0.0857234449164459,
        "distance_wrist_2_joint": 1.0737599087615588,
        "distance_wrist_3_joint": 0.0650128953977771,
        "smoothness": 2.5376526478085547e-16,
        "time": 0.786786967,
        "traj_len": 1.473495162389829,
        "weighted_distance": 1.8602949062070209
    },
    "planner": "BKPIECE",
    "start": {
        "state": {
            "elbow_joint": 2.010868315001653,
            "shoulder_lift_joint": -1.1634956873357014,
            "shoulder_pan_joint": -2.4736205022346103,
            "wrist_1_joint": -0.8367026794713948,
            "wrist_2_joint": 0.6746043897044093,
            "wrist_3_joint": 3.1335220948105738
        }
    },
    "waypoints": [
        {
            "positions": [
                -2.4736205022346103,
                -1.1634956873357014,
                2.010868315001653,
                -0.8367026794713948,
                0.6746043897044093,
                3.1335220948105738
            ]
        },
        {
            "positions": [
                -2.556021970530794,
                -1.1317254564944355,
                1.9672580567206948,
                -0.8224154386519871,
                0.8535643744980024,
                3.14435757737687
            ]
        },
        {
            "positions": [
                -2.638423438826977,
                -1.0999552256531693,
                1.9236477984397362,
                -0.8081281978325795,
                1.0325243592915956,
                3.155193059943166
            ]
        },
        {
            "positions": [
                -2.72082490712316,
                -1.0681849948119033,
                1.8800375401587779,
                -0.7938409570131718,
                1.2114843440851888,
                3.166028542509462
            ]
        },
        {
            "positions": [
                -2.8032263754193436,
                -1.0364147639706371,
                1.8364272818778196,
                -0.7795537161937641,
                1.3904443288787818,
                3.1768640250757585
            ]
        },
        {
            "positions": [
                -2.885627843715527,
                -1.0046445331293712,
                1.792817023596861,
                -0.7652664753743565,
                1.569404313672375,
                3.187699507642055
            ]
        },
        {
            "positions": [
                -2.9680293120117103,
                -0.9728743022881051,
                1.7492067653159027,
                -0.7509792345549489,
                1.7483642984659682,
                3.198534990208351
            ]
        }
    ]
}