{
    "goal": {
        "global_pose": {
            "orientation": {
                "w": 0.005598929693374612,
                "x": 0.007748599140229565,
                "y": 0.7110244013736278,
                "z": -0.7031023480610252
            },
            "position": {
                "x": -0.8858502320852131,
                "y": -0.7141253447532654,
                "z": 0.3711530566215515
            }
        },
        "name": "move_to_auspresseinheit_C"
    },
    "id": "BKPIECE_move_to_auspresseinheit_C_127",
    "joint_names": [
        "shoulder_pan_joint",
        "shoulder_lift_joint",
        "elbow_joint",
        "wrist_1_joint",
        "wrist_2_joint",
        "wrist_3_joint"
    ],
    "metrics": {
        "cart_traj_len": 0.49440742216837924,
        "distance_elbow_joint": 1.0176822630336249,
        "distance_shoulder_lift_joint": 0.3327229029514973,
        "distance_shoulder_pan_joint": 0.255984310386808,
        "distance_wrist_1_joint": 0.7115200115694321,
        "distance_wrist_2_joint": 1.313022418361684,
        "distance_wrist_3_joint": 0.08171458725997915,
        "smoothness": 6.459479416000911e-16,
        "time": 0.956451107,
        "traj_len": 1.92682290145281,
        "weighted_distance": 2.4291187904287637
    },
    "planner": "BKPIECE",
    "start": {
        "state": {
            "elbow_joint": 1.752795957773711,
            "shoulder_lift_joint": -0.9740617694225064,
            "shoulder_pan_joint": -2.967991417825858,
            "wrist_1_joint": -0.7595177689806859,
            "wrist_2_joint": 1.7443932448377395,
            "wrist_3_joint": 3.199131542505932
        }
    },
    "waypoints": [
        {
            "positions": [
                -2.967991417825858,
                -0.9740617694225064,
                1.752795957773711,
                -0.7595177689806859,
                1.7443932448377395,
                3.199131542505932
            ]
        },
        {
            "positions": [
                -2.942392986787177,
                -0.9407894791273567,
                1.6510277314703485,
                -0.6883657678237427,
                1.613091003001571,
                3.190960083779934
            ]
        },
        {
            "positions": [
                -2.9167945557484964,
                -0.907517188832207,
                1.5492595051669862,
                -0.6172137666667995,
                1.4817887611654026,
                3.182788625053936
            ]
        },
        {
            "positions": [
                -2.8911961247098157,
                -0.8742448985370572,
                1.4474912788636236,
                -0.5460617655098563,
                1.3504865193292344,
                3.1746171663279386
            ]
        },
        {
            "positions": [
                -2.865597693671135,
                -0.8409726082419076,
                1.345723052560261,
                -0.47490976435291304,
                1.2191842774930657,
                3.1664457076019406
            ]
        },
        {
            "positions": [
                -2.839999262632454,
                -0.8077003179467578,
                1.2439548262568987,
                -0.40375776319596984,
                1.0878820356568975,
                3.1582742488759425
            ]
        },
        {
            "positions": [
                -2.814400831593773,
                -0.774428027651608,
                1.1421865999535363,
                -0.33260576203902664,
                0.9565797938207291,
                3.1501027901499445
            ]
        },
        {
            "positions": [
                -2.788802400555092,
                -0.7411557373564583,
                1.0404183736501738,
                -0.26145376088208344,
                0.8252775519845607,
                3.1419313314239465
            ]
        },
        {
            "positions": [
                -2.7632039695164115,
                -0.7078834470613086,
                0.9386501473468112,
                -0.19030175972514018,
                0.6939753101483921,
                3.133759872697949
            ]
        },
        {
            "positions": [
                -2.7376055384777307,
                -0.6746111567661588,
                0.8368819210434487,
                -0.11914975856819698,
                0.5626730683122239,
                3.125588413971951
            ]
        },
        {
            "positions": [
                -2.71200710743905,
                -0.6413388664710091,
                0.7351136947400864,
                -0.047997757411253804,
                0.4313708264760555,
                3.117416955245953
            ]
        }
    ]
}