{
    "goal": {
        "global_pose": {
            "orientation": {
                "w": 0.7047431493862688,
                "x": -0.7094548369677653,
                "y": 0.0024358444001904,
                "z": -0.0022348060817251984
            },
            "position": {
                "x": -0.39052492380142206,
                "y": 0.3671506643295288,
                "z": 0.19426114857196808
            }
        },
        "name": "move_to_magneteinheit_D"
    },
    "id": "BKPIECE_move_to_magneteinheit_D_26",
    "joint_names": [
        "shoulder_pan_joint",
        "shoulder_lift_joint",
        "elbow_joint",
        "wrist_1_joint",
        "wrist_2_joint",
        "wrist_3_joint"
    ],
    "metrics": {
        "cart_traj_len": 5.177480264028691,
        "distance_elbow_joint": 4.801956229709048,
        "distance_shoulder_lift_joint": 2.871926565757585,
        "distance_shoulder_pan_joint": 4.226345833414821,
        "distance_wrist_1_joint": 2.4380338917557682,
        "distance_wrist_2_joint": 4.582408673594788,
        "distance_wrist_3_joint": 11.929343081101047,
        "smoothness": 0.5780463161490592,
        "time": 1.474863445,
        "traj_len": 5.554278915874953,
        "weighted_distance": 7.856789611723462
    },
    "planner": "BKPIECE",
    "start": {
        "state": {
            "elbow_joint": 0.7495348899011973,
            "shoulder_lift_joint": -0.6476975780737697,
            "shoulder_pan_joint": -2.711696901376276,
            "wrist_1_joint": -0.07506478080974305,
            "wrist_2_joint": 0.4329665971545858,
            "wrist_3_joint": 3.1361499051832524
        }
    },
    "waypoints": [
        {
            "positions": [
                -2.711696901376276,
                -0.6476975780737697,
                0.7495348899011973,
                -0.07506478080974305,
                0.4329665971545858,
                3.1361499051832524
            ]
        },
        {
            "positions": [
                -2.7667740206705016,
                -0.6684930586053488,
                0.7500050664313632,
                -0.08999605730827596,
                0.4694367275182979,
                2.956716779006748
            ]
        },
        {
            "positions": [
                -2.8218511399647275,
                -0.689288539136928,
                0.7504752429615291,
                -0.10492733380680888,
                0.50590685788201,
                2.7772836528302443
            ]
        },
        {
            "positions": [
                -2.8769282592589533,
                -0.7100840196685072,
                0.7509454194916949,
                -0.1198586103053418,
                0.5423769882457221,
                2.5978505266537404
            ]
        },
        {
            "positions": [
                -2.9320053785531788,
                -0.7308795002000863,
                0.7514155960218608,
                -0.13478988680387471,
                0.5788471186094342,
                2.418417400477236
            ]
        },
        {
            "positions": [
                -2.8597205662516116,
                -0.7371111498014169,
                0.5755507203383651,
                -0.12728841451866985,
                0.5599057556364592,
                2.311256839462427
            ]
        },
        {
            "positions": [
                -2.787435753950044,
                -0.7433427994027475,
                0.39968584465486934,
                -0.11978694223346495,
                0.5409643926634842,
                2.2040962784476177
            ]
        },
        {
            "positions": [
                -2.715150941648477,
                -0.7495744490040781,
                0.2238209689713736,
                -0.11228546994826007,
                0.5220230296905093,
                2.096935717432808
            ]
        },
        {
            "positions": [
                -2.64286612934691,
                -0.7558060986054087,
                0.047956093287877866,
                -0.10478399766305518,
                0.5030816667175343,
                1.9897751564179988
            ]
        },
        {
            "positions": [
                -2.570581317045342,
                -0.7620377482067392,
                -0.12790878239561787,
                -0.0972825253778503,
                0.4841403037445593,
                1.8826145954031897
            ]
        },
        {
            "positions": [
                -2.498296504743775,
                -0.7682693978080698,
                -0.3037736580791136,
                -0.08978105309264542,
                0.4651989407715843,
                1.7754540343883805
            ]
        },
        {
            "positions": [
                -2.4260116924422075,
                -0.7745010474094004,
                -0.47963853376260934,
                -0.08227958080744054,
                0.4462575777986093,
                1.668293473373571
            ]
        },
        {
            "positions": [
                -2.3537268801406404,
                -0.780732697010731,
                -0.6555034094461051,
                -0.07477810852223565,
                0.4273162148256343,
                1.5611329123587618
            ]
        },
        {
            "positions": [
                -2.281442067839073,
                -0.7869643466120616,
                -0.8313682851296008,
                -0.06727663623703077,
                0.40837485185265937,
                1.4539723513439524
            ]
        },
        {
            "positions": [
                -2.209157255537506,
                -0.7931959962133922,
                -1.0072331608130964,
                -0.05977516395182589,
                0.38943348887968443,
                1.3468117903291432
            ]
        },
        {
            "positions": [
                -2.1368724432359385,
                -0.7994276458147228,
                -1.1830980364965922,
                -0.05227369166662099,
                0.37049212590670944,
                1.2396512293143338
            ]
        },
        {
            "positions": [
                -2.0645876309343714,
                -0.8056592954160534,
                -1.358962912180088,
                -0.04477221938141612,
                0.35155076293373444,
                1.1324906682995246
            ]
        },
        {
            "positions": [
                -1.9923028186328038,
                -0.811890945017384,
                -1.5348277878635836,
                -0.037270747096211226,
                0.33260939996075944,
                1.0253301072847152
            ]
        },
        {
            "positions": [
                -1.9200180063312366,
                -0.8181225946187145,
                -1.7106926635470794,
                -0.029769274811006358,
                0.3136680369877845,
                0.918169546269906
            ]
        },
        {
            "positions": [
                -1.8477331940296693,
                -0.8243542442200451,
                -1.8865575392305751,
                -0.02226780252580146,
                0.2947266740148095,
                0.8110089852550968
            ]
        },
        {
            "positions": [
                -1.775448381728102,
                -0.8305858938213757,
                -2.062422414914071,
                -0.014766330240596592,
                0.2757853110418345,
                0.7038484242402876
            ]
        },
        {
            "positions": [
                -1.7031635694265346,
                -0.8368175434227063,
                -2.2382872905975666,
                -0.007264857955391696,
                0.2568439480688595,
                0.5966878632254782
            ]
        },
        {
            "positions": [
                -1.6308787571249674,
                -0.8430491930240369,
                -2.4141521662810623,
                0.00023661432981317287,
                0.23790258509588458,
                0.489527302210669
            ]
        },
        {
            "positions": [
                -1.5585939448234,
                -0.8492808426253675,
                -2.590017041964558,
                0.007738086615018069,
                0.21896122212290958,
                0.3823667411958598
            ]
        },
        {
            "positions": [
                -1.4870916066106044,
                -0.8176829151266901,
                -2.55970989080558,
                -0.06856390204223553,
                0.14361887063926654,
                0.4842684586343499
            ]
        },
        {
            "positions": [
                -1.4155892683978084,
                -0.7860849876280128,
                -2.5294027396466023,
                -0.14486589069948913,
                0.06827651915562352,
                0.58617017607284
            ]
        },
        {
            "positions": [
                -1.3440869301850127,
                -0.7544870601293354,
                -2.4990955884876245,
                -0.22116787935674273,
                -0.007065832328019522,
                0.6880718935113302
            ]
        },
        {
            "positions": [
                -1.272584591972217,
                -0.7228891326306581,
                -2.4687884373286466,
                -0.29746986801399633,
                -0.08240818381166254,
                0.7899736109498203
            ]
        },
        {
            "positions": [
                -1.201082253759421,
                -0.6912912051319807,
                -2.4384812861696687,
                -0.37377185667124996,
                -0.15775053529530558,
                0.8918753283883106
            ]
        },
        {
            "positions": [
                -1.1295799155466253,
                -0.6596932776333034,
                -2.408174135010691,
                -0.45007384532850353,
                -0.23309288677894863,
                0.9937770458268007
            ]
        },
        {
            "positions": [
                -1.0580775773338296,
                -0.628095350134626,
                -2.377866983851713,
                -0.5263758339857572,
                -0.30843523826259167,
                1.095678763265291
            ]
        },
        {
            "positions": [
                -0.9865752391210337,
                -0.5964974226359487,
                -2.3475598326927356,
                -0.6026778226430107,
                -0.38377758974623466,
                1.197580480703781
            ]
        },
        {
            "positions": [
                -0.9150729009082378,
                -0.5648994951372712,
                -2.3172526815337577,
                -0.6789798113002644,
                -0.45911994122987776,
                1.2994821981422713
            ]
        },
        {
            "positions": [
                -0.8435705626954421,
                -0.5333015676385939,
                -2.28694553037478,
                -0.755281799957518,
                -0.5344622927135207,
                1.4013839155807615
            ]
        },
        {
            "positions": [
                -0.7720682244826462,
                -0.5017036401399166,
                -2.256638379215802,
                -0.8315837886147716,
                -0.6098046441971638,
                1.5032856330192514
            ]
        },
        {
            "positions": [
                -0.7005658862698505,
                -0.4701057126412393,
                -2.226331228056824,
                -0.9078857772720251,
                -0.6851469956808068,
                1.6051873504577416
            ]
        },
        {
            "positions": [
                -0.6290635480570546,
                -0.4385077851425619,
                -2.1960240768978463,
                -0.9841877659292788,
                -0.7604893471644499,
                1.7070890678962318
            ]
        },
        {
            "positions": [
                -0.5575612098442588,
                -0.40690985764388454,
                -2.1657169257388684,
                -1.0604897545865324,
                -0.8358316986480929,
                1.808990785334722
            ]
        },
        {
            "positions": [
                -0.4860588716314631,
                -0.3753119301452072,
                -2.1354097745798906,
                -1.136791743243786,
                -0.911174050131736,
                1.9108925027732122
            ]
        },
        {
            "positions": [
                -0.4145565334186674,
                -0.34371400264652985,
                -2.1051026234209127,
                -1.2130937319010395,
                -0.9865164016153789,
                2.012794220211702
            ]
        },
        {
            "positions": [
                -0.34305419520587144,
                -0.31211607514785256,
                -2.074795472261935,
                -1.289395720558293,
                -1.061858753099022,
                2.1146959376501924
            ]
        },
        {
            "positions": [
                -0.2715518569930755,
                -0.28051814764917504,
                -2.044488321102957,
                -1.365697709215547,
                -1.137201104582665,
                2.216597655088683
            ]
        },
        {
            "positions": [
                -0.20004951878027977,
                -0.24892022015049775,
                -2.014181169943979,
                -1.4419996978728005,
                -1.2125434560663082,
                2.3184993725271728
            ]
        },
        {
            "positions": [
                -0.12854718056748404,
                -0.21732229265182035,
                -1.9838740187850015,
                -1.518301686530054,
                -1.287885807549951,
                2.4204010899656634
            ]
        },
        {
            "positions": [
                -0.0570448423546881,
                -0.18572436515314306,
                -1.9535668676260236,
                -1.5946036751873076,
                -1.3632281590335942,
                2.522302807404153
            ]
        },
        {
            "positions": [
                0.014457495858107627,
                -0.15412643765446576,
                -1.9232597164670457,
                -1.6709056638445612,
                -1.4385705105172373,
                2.624204524842643
            ]
        },
        {
            "positions": [
                0.08595983407090335,
                -0.12252851015578836,
                -1.892952565308068,
                -1.7472076525018148,
                -1.5139128620008802,
                2.7261062422811335
            ]
        },
        {
            "positions": [
                0.15746217228369908,
                -0.09093058265711107,
                -1.8626454141490902,
                -1.8235096411590683,
                -1.5892552134845233,
                2.8280079597196233
            ]
        },
        {
            "positions": [
                0.22896451049649502,
                -0.059332655158433556,
                -1.8323382629901124,
                -1.8998116298163221,
                -1.6645975649681664,
                2.929909677158114
            ]
        },
        {
            "positions": [
                0.30046684870929097,
                -0.027734727659756264,
                -1.8020311118311345,
                -1.9761136184735757,
                -1.7399399164518095,
                3.0318113945966036
            ]
        },
        {
            "positions": [
                0.3719691869220867,
                0.0038631998389211386,
                -1.7717239606721567,
                -2.0524156071308295,
                -1.8152822679354523,
                3.1337131120350943
            ]
        },
        {
            "positions": [
                0.4434715251348824,
                0.03546112733759843,
                -1.7414168095131788,
                -2.128717595788083,
                -1.8906246194190957,
                3.2356148294735845
            ]
        },
        {
            "positions": [
                0.4252725969465854,
                -0.026730388664939604,
                -1.7625263300589362,
                -2.1295899784408,
                -1.8224104120748108,
                3.0137952618678554
            ]
        },
        {
            "positions": [
                0.40707366875828843,
                -0.08892190466747764,
                -1.7836358506046939,
                -2.1304623610935174,
                -1.7541962047305257,
                2.7919756942621263
            ]
        },
        {
            "positions": [
                0.38887474056999144,
                -0.15111342067001568,
                -1.8047453711504513,
                -2.131334743746235,
                -1.6859819973862407,
                2.5701561266563973
            ]
        },
        {
            "positions": [
                0.37067581238169445,
                -0.2133049366725537,
                -1.825854891696209,
                -2.1322071263989524,
                -1.6177677900419558,
                2.348336559050668
            ]
        },
        {
            "positions": [
                0.3524768841933975,
                -0.27549645267509176,
                -1.8469644122419664,
                -2.1330795090516697,
                -1.549553582697671,
                2.126516991444939
            ]
        },
        {
            "positions": [
                0.3342779560051005,
                -0.3376879686776298,
                -1.868073932787724,
                -2.133951891704387,
                -1.481339375353386,
                1.90469742383921
            ]
        },
        {
            "positions": [
                0.3160790278168035,
                -0.3998794846801678,
                -1.8891834533334815,
                -2.1348242743571046,
                -1.4131251680091008,
                1.682877856233481
            ]
        },
        {
            "positions": [
                0.29788009962850653,
                -0.46207100068270585,
                -1.9102929738792391,
                -2.135696657009822,
                -1.344910960664816,
                1.4610582886277519
            ]
        },
        {
            "positions": [
                0.27968117144020954,
                -0.5242625166852439,
                -1.9314024944249966,
                -2.136569039662539,
                -1.2766967533205311,
                1.2392387210220228
            ]
        },
        {
            "positions": [
                0.2614822432519126,
                -0.586454032687782,
                -1.9525120149707542,
                -2.1374414223152565,
                -1.208482545976246,
                1.0174191534162937
            ]
        },
        {
            "positions": [
                0.24328331506361559,
                -0.64864554869032,
                -1.9736215355165116,
                -2.1383138049679737,
                -1.140268338631961,
                0.7955995858105647
            ]
        },
        {
            "positions": [
                0.2250843868753186,
                -0.710837064692858,
                -1.9947310560622693,
                -2.1391861876206915,
                -1.0720541312876761,
                0.5737800182048356
            ]
        },
        {
            "positions": [
                0.2068854586870216,
                -0.773028580695396,
                -2.015840576608027,
                -2.1400585702734087,
                -1.0038399239433913,
                0.3519604505991065
            ]
        },
        {
            "positions": [
                0.18868653049872464,
                -0.8352200966979341,
                -2.036950097153784,
                -2.140930952926126,
                -0.9356257165991062,
                0.13014088299337745
            ]
        },
        {
            "positions": [
                0.1704876023104276,
                -0.8974116127004722,
                -2.058059617699542,
                -2.1418033355788433,
                -0.8674115092548211,
                -0.09167868461235207
            ]
        },
        {
            "positions": [
                0.15228867412213065,
                -0.9596031287030101,
                -2.0791691382452995,
                -2.142675718231561,
                -0.7991973019105363,
                -0.3134982522180807
            ]
        },
        {
            "positions": [
                0.13408974593383366,
                -1.0217946447055484,
                -2.100278658791057,
                -2.1435481008842783,
                -0.7309830945662512,
                -0.5353178198238102
            ]
        },
        {
            "positions": [
                0.11589081774553667,
                -1.0839861607080863,
                -2.1213881793368143,
                -2.1444204835369955,
                -0.6627688872219664,
                -0.7571373874295388
            ]
        },
        {
            "positions": [
                0.09769188955723968,
                -1.1461776767106244,
                -2.142497699882572,
                -2.145292866189713,
                -0.5945546798776813,
                -0.9789569550352684
            ]
        },
        {
            "positions": [
                0.07949296136894274,
                -1.2083691927131623,
                -2.1636072204283296,
                -2.14616524884243,
                -0.5263404725333964,
                -1.200776522640997
            ]
        },
        {
            "positions": [
                0.06129403318064569,
                -1.2705607087157005,
                -2.1847167409740873,
                -2.147037631495148,
                -0.45812626518911137,
                -1.4225960902467265
            ]
        },
        {
            "positions": [
                0.043095104992348754,
                -1.3327522247182384,
                -2.2058262615198445,
                -2.147910014147865,
                -0.3899120578448265,
                -1.6444156578524551
            ]
        },
        {
            "positions": [
                0.024896176804051706,
                -1.3949437407207765,
                -2.226935782065602,
                -2.1487823968005824,
                -0.32169785050054145,
                -1.8662352254581847
            ]
        },
        {
            "positions": [
                0.0066972486157547695,
                -1.4571352567233145,
                -2.24804530261136,
                -2.1496547794532996,
                -0.2534836431562566,
                -2.0880547930639133
            ]
        },
        {
            "positions": [
                -0.011501679572542223,
                -1.5193267727258526,
                -2.269154823157117,
                -2.1505271621060174,
                -0.18526943581197153,
                -2.309874360669643
            ]
        },
        {
            "positions": [
                -0.029700607760839215,
                -1.5815182887283905,
                -2.2902643437028747,
                -2.1513995447587346,
                -0.11705522846768668,
                -2.5316939282753714
            ]
        },
        {
            "positions": [
                -0.047899535949136214,
                -1.6437098047309286,
                -2.3113738642486323,
                -2.152271927411452,
                -0.04884102112340166,
                -2.753513495881101
            ]
        },
        {
            "positions": [
                -0.09429599977108355,
                -1.6791866044557602,
                -2.32473573038701,
                -2.177528860183543,
                -0.09059862639530603,
                -2.8645746637081784
            ]
        },
        {
            "positions": [
                -0.1406924635930309,
                -1.714663404180592,
                -2.338097596525388,
                -2.202785792955635,
                -0.1323562316672104,
                -2.975635831535256
            ]
        },
        {
            "positions": [
                -0.18708892741497823,
                -1.7501402039054235,
                -2.3514594626637657,
                -2.228042725727726,
                -0.17411383693911478,
                -3.086696999362333
            ]
        }
    ]
}