{
    "goal": {
        "global_pose": {
            "orientation": {
                "w": 0.5084816217422485,
                "x": -0.49083608388900757,
                "y": 0.5182115435600281,
                "z": -0.4816462993621826
            },
            "position": {
                "x": 0.5540239810943604,
                "y": 0.030875300988554955,
                "z": 0.16403168439865112
            }
        },
        "name": "move_to_storage_A"
    },
    "id": "BKPIECE_move_to_storage_A_148",
    "joint_names": [
        "shoulder_pan_joint",
        "shoulder_lift_joint",
        "elbow_joint",
        "wrist_1_joint",
        "wrist_2_joint",
        "wrist_3_joint"
    ],
    "metrics": {
        "cart_traj_len": 0.352862885286656,
        "distance_elbow_joint": 0.4490215105626678,
        "distance_shoulder_lift_joint": 0.2331628286048566,
        "distance_shoulder_pan_joint": 0.4619968107244122,
        "distance_wrist_1_joint": 0.24516259004556973,
        "distance_wrist_2_joint": 1.0947481850765577,
        "distance_wrist_3_joint": 0.08858901648185968,
        "smoothness": 4.440892133664971e-16,
        "time": 0.7313470120000001,
        "traj_len": 1.6039578989162788,
        "weighted_distance": 2.022317915062261
    },
    "planner": "BKPIECE",
    "start": {
        "state": {
            "elbow_joint": 1.9715474177455299,
            "shoulder_lift_joint": -1.139484666580328,
            "shoulder_pan_joint": 0.12281154398918248,
            "wrist_1_joint": -0.7804687475355282,
            "wrist_2_joint": 0.12958649657246987,
            "wrist_3_joint": -3.1924925159053466
        }
    },
    "waypoints": [
        {
            "positions": [
                0.12281154398918248,
                -1.139484666580328,
                1.9715474177455299,
                -0.7804687475355282,
                0.12958649657246987,
                -3.1924925159053466
            ]
        },
        {
            "positions": [
                0.05681199959998075,
                -1.1727936420953076,
                2.035693347825911,
                -0.8154919746848953,
                0.2859790944405496,
                -3.1798369421222237
            ]
        },
        {
            "positions": [
                -0.009187544789220986,
                -1.206102617610287,
                2.099839277906292,
                -0.8505152018342624,
                0.44237169230862927,
                -3.167181368339101
            ]
        },
        {
            "positions": [
                -0.07518708917842273,
                -1.2394115931252665,
                2.163985207986673,
                -0.8855384289836294,
                0.598764290176709,
                -3.154525794555978
            ]
        },
        {
            "positions": [
                -0.14118663356762445,
                -1.272720568640246,
                2.228131138067054,
                -0.9205616561329966,
                0.7551568880447886,
                -3.1418702207728555
            ]
        },
        {
            "positions": [
                -0.2071861779568262,
                -1.3060295441552257,
                2.2922770681474356,
                -0.9555848832823637,
                0.9115494859128684,
                -3.1292146469897326
            ]
        },
        {
            "positions": [
                -0.27318572234602795,
                -1.339338519670205,
                2.3564229982278166,
                -0.9906081104317308,
                1.067942083780948,
                -3.1165590732066097
            ]
        },
        {
            "positions": [
                -0.3391852667352297,
                -1.3726474951851846,
                2.4205689283081977,
                -1.025631337581098,
                1.2243346816490277,
                -3.103903499423487
            ]
        }
    ]
}