{
    "goal": {
        "global_pose": {
            "orientation": {
                "w": 0.005598929693374612,
                "x": 0.007748599140229565,
                "y": 0.7110244013736278,
                "z": -0.7031023480610252
            },
            "position": {
                "x": -0.8858502320852131,
                "y": -0.7141253447532654,
                "z": 0.3711530566215515
            }
        },
        "name": "move_to_auspresseinheit_C"
    },
    "id": "BKPIECE_move_to_auspresseinheit_C_73",
    "joint_names": [
        "shoulder_pan_joint",
        "shoulder_lift_joint",
        "elbow_joint",
        "wrist_1_joint",
        "wrist_2_joint",
        "wrist_3_joint"
    ],
    "metrics": {
        "cart_traj_len": 0.4924891779599182,
        "distance_elbow_joint": 0.9937271919252693,
        "distance_shoulder_lift_joint": 0.32169700528608525,
        "distance_shoulder_pan_joint": 0.25672739804955835,
        "distance_wrist_1_joint": 0.6738294052990822,
        "distance_wrist_2_joint": 1.301700234867744,
        "distance_wrist_3_joint": 0.058571199907226035,
        "smoothness": 8.074349282788172e-16,
        "time": 0.473894384,
        "traj_len": 1.8990135426939339,
        "weighted_distance": 2.3872420227778
    },
    "planner": "BKPIECE",
    "start": {
        "state": {
            "elbow_joint": 1.752795957773711,
            "shoulder_lift_joint": -0.9740617694225064,
            "shoulder_pan_joint": -2.967991417825858,
            "wrist_1_joint": -0.7595177689806859,
            "wrist_2_joint": 1.7443932448377395,
            "wrist_3_joint": 3.199131542505932
        }
    },
    "waypoints": [
        {
            "positions": [
                -2.967991417825858,
                -0.9740617694225064,
                1.752795957773711,
                -0.7595177689806859,
                1.7443932448377395,
                3.199131542505932
            ]
        },
        {
            "positions": [
                -2.9423186780209023,
                -0.9418920688938979,
                1.6534232385811842,
                -0.6921348284507777,
                1.614223221350965,
                3.1932744225152097
            ]
        },
        {
            "positions": [
                -2.916645938215946,
                -0.9097223683652894,
                1.5540505193886571,
                -0.6247518879208694,
                1.4840531978641907,
                3.1874173025244867
            ]
        },
        {
            "positions": [
                -2.8909731984109905,
                -0.8775526678366808,
                1.4546778001961305,
                -0.5573689473909612,
                1.3538831743774162,
                3.1815601825337643
            ]
        },
        {
            "positions": [
                -2.8653004586060344,
                -0.8453829673080724,
                1.3553050810036034,
                -0.48998600686105304,
                1.2237131508906418,
                3.175703062543042
            ]
        },
        {
            "positions": [
                -2.839627718801079,
                -0.8132132667794638,
                1.2559323618110765,
                -0.4226030663311448,
                1.0935431274038674,
                3.1698459425523193
            ]
        },
        {
            "positions": [
                -2.813954978996123,
                -0.7810435662508552,
                1.1565596426185496,
                -0.3552201258012366,
                0.9633731039170931,
                3.1639888225615964
            ]
        },
        {
            "positions": [
                -2.788282239191167,
                -0.7488738657222468,
                1.0571869234260227,
                -0.2878371852713284,
                0.8332030804303188,
                3.158131702570874
            ]
        },
        {
            "positions": [
                -2.7626094993862114,
                -0.7167041651936382,
                0.9578142042334956,
                -0.22045424474142017,
                0.7030330569435443,
                3.1522745825801515
            ]
        },
        {
            "positions": [
                -2.7369367595812553,
                -0.6845344646650298,
                0.8584414850409687,
                -0.15307130421151194,
                0.5728630334567699,
                3.1464174625894286
            ]
        },
        {
            "positions": [
                -2.7112640197762996,
                -0.6523647641364212,
                0.7590687658484419,
                -0.08568836368160368,
                0.4426930099699955,
                3.140560342598706
            ]
        }
    ]
}