{
    "goal": {
        "global_pose": {
            "orientation": {
                "w": 0.7031023480610252,
                "x": -0.7110244013736278,
                "y": 0.0077485991402295624,
                "z": 0.005598929693374583
            },
            "position": {
                "x": -0.8841497679147869,
                "y": 0.44412534475326537,
                "z": 0.3711530566215515
            }
        },
        "name": "move_to_auspresseinheit_D"
    },
    "id": "BKPIECE_move_to_auspresseinheit_D_150",
    "joint_names": [
        "shoulder_pan_joint",
        "shoulder_lift_joint",
        "elbow_joint",
        "wrist_1_joint",
        "wrist_2_joint",
        "wrist_3_joint"
    ],
    "metrics": {
        "cart_traj_len": 3.5720700186277576,
        "distance_elbow_joint": 3.0046008393398145,
        "distance_shoulder_lift_joint": 1.2400062522846653,
        "distance_shoulder_pan_joint": 2.7960625143903446,
        "distance_wrist_1_joint": 2.7262796988142637,
        "distance_wrist_2_joint": 1.2137161889701478,
        "distance_wrist_3_joint": 6.245138258318901,
        "smoothness": 0.0633231375069258,
        "time": 1.661005091,
        "traj_len": 4.150398023336816,
        "weighted_distance": 5.801385710030004
    },
    "planner": "BKPIECE",
    "start": {
        "state": {
            "elbow_joint": 1.8268400409724999,
            "shoulder_lift_joint": -1.0144045787793008,
            "shoulder_pan_joint": 2.6280239544362485,
            "wrist_1_joint": -0.790705565816056,
            "wrist_2_joint": 1.0573557467365533,
            "wrist_3_joint": 3.1851377467193758
        }
    },
    "waypoints": [
        {
            "positions": [
                2.6280239544362485,
                -1.0144045787793008,
                1.8268400409724999,
                -0.790705565816056,
                1.0573557467365533,
                3.1851377467193758
            ]
        },
        {
            "positions": [
                2.6015463369395864,
                -1.065033489305162,
                1.7798975982377265,
                -0.7568540924863592,
                0.9765260491748761,
                3.054468185995986
            ]
        },
        {
            "positions": [
                2.575068719442924,
                -1.1156623998310233,
                1.7329551555029532,
                -0.7230026191566623,
                0.8956963516131988,
                2.9237986252725965
            ]
        },
        {
            "positions": [
                2.5485911019462617,
                -1.1662913103568846,
                1.6860127127681797,
                -0.6891511458269655,
                0.8148666540515216,
                2.793129064549207
            ]
        },
        {
            "positions": [
                2.5221134844495996,
                -1.2169202208827459,
                1.6390702700334063,
                -0.6552996724972687,
                0.7340369564898443,
                2.6624595038258168
            ]
        },
        {
            "positions": [
                2.495635866952937,
                -1.267549131408607,
                1.592127827298633,
                -0.6214481991675719,
                0.653207258928167,
                2.531789943102427
            ]
        },
        {
            "positions": [
                2.469158249456275,
                -1.3181780419344682,
                1.5451853845638597,
                -0.587596725837875,
                0.5723775613664899,
                2.4011203823790375
            ]
        },
        {
            "positions": [
                2.442680631959613,
                -1.3688069524603295,
                1.4982429418290861,
                -0.5537452525081782,
                0.4915478638048125,
                2.270450821655648
            ]
        },
        {
            "positions": [
                2.4162030144629503,
                -1.4194358629861907,
                1.4513004990943128,
                -0.5198937791784815,
                0.4107181662431353,
                2.139781260932258
            ]
        },
        {
            "positions": [
                2.389725396966288,
                -1.470064773512052,
                1.4043580563595395,
                -0.48604230584878455,
                0.32988846868145805,
                2.0091117002088685
            ]
        },
        {
            "positions": [
                2.3186763981629444,
                -1.4918521639996052,
                1.3326325326171269,
                -0.5533094291500898,
                0.3163815544893732,
                1.8683030276586354
            ]
        },
        {
            "positions": [
                2.2476273993596,
                -1.5136395544871584,
                1.2609070088747143,
                -0.6205765524513952,
                0.3028746402972884,
                1.7274943551084023
            ]
        },
        {
            "positions": [
                2.1765784005562563,
                -1.5354269449747115,
                1.1891814851323017,
                -0.6878436757527006,
                0.28936772610520356,
                1.5866856825581692
            ]
        },
        {
            "positions": [
                2.105529401752912,
                -1.5572143354622647,
                1.1174559613898891,
                -0.7551107990540059,
                0.27586081191311873,
                1.4458770100079361
            ]
        },
        {
            "positions": [
                2.0344804029495682,
                -1.579001725949818,
                1.0457304376474765,
                -0.8223779223553113,
                0.2623538977210339,
                1.3050683374577026
            ]
        },
        {
            "positions": [
                1.9634314041462242,
                -1.600789116437371,
                0.9740049139050639,
                -0.8896450456566165,
                0.24884698352894907,
                1.1642596649074697
            ]
        },
        {
            "positions": [
                1.8923824053428802,
                -1.6225765069249243,
                0.9022793901626512,
                -0.956912168957922,
                0.23534006933686424,
                1.0234509923572364
            ]
        },
        {
            "positions": [
                1.8213334065395363,
                -1.6443638974124775,
                0.8305538664202387,
                -1.0241792922592272,
                0.22183315514477941,
                0.8826423198070035
            ]
        },
        {
            "positions": [
                1.750284407736192,
                -1.6661512879000306,
                0.7588283426778261,
                -1.0914464155605326,
                0.20832624095269459,
                0.7418336472567701
            ]
        },
        {
            "positions": [
                1.6792354089328483,
                -1.6879386783875838,
                0.6871028189354135,
                -1.158713538861838,
                0.19481932676060976,
                0.6010249747065368
            ]
        },
        {
            "positions": [
                1.608186410129504,
                -1.709726068875137,
                0.6153772951930008,
                -1.2259806621631433,
                0.18131241256852493,
                0.4602163021563037
            ]
        },
        {
            "positions": [
                1.5371374113261602,
                -1.73151345936269,
                0.5436517714505883,
                -1.2932477854644486,
                0.16780549837644013,
                0.31940762960607083
            ]
        },
        {
            "positions": [
                1.4660884125228162,
                -1.7533008498502431,
                0.4719262477081757,
                -1.360514908765754,
                0.1542985841843553,
                0.1785989570558375
            ]
        },
        {
            "positions": [
                1.3950394137194722,
                -1.7750882403377963,
                0.400200723965763,
                -1.4277820320670593,
                0.14079166999227047,
                0.0377902845056044
            ]
        },
        {
            "positions": [
                1.3239904149161281,
                -1.7968756308253495,
                0.3284752002233504,
                -1.4950491553683647,
                0.12728475580018564,
                -0.10301838804462893
            ]
        },
        {
            "positions": [
                1.2529414161127843,
                -1.8186630213129027,
                0.2567496764809378,
                -1.56231627866967,
                0.11377784160810081,
                -0.2438270605948616
            ]
        },
        {
            "positions": [
                1.1818924173094403,
                -1.8404504118004559,
                0.18502415273852524,
                -1.6295834019709754,
                0.10027092741601598,
                -0.38463573314509514
            ]
        },
        {
            "positions": [
                1.1108434185060962,
                -1.862237802288009,
                0.11329862899611265,
                -1.6968505252722808,
                0.08676401322393115,
                -0.5254444056953282
            ]
        },
        {
            "positions": [
                1.0397944197027522,
                -1.8840251927755622,
                0.04157310525370006,
                -1.764117648573586,
                0.0732570990318463,
                -0.6662530782455613
            ]
        },
        {
            "positions": [
                0.9687454208994082,
                -1.9058125832631154,
                -0.03015241848871253,
                -1.8313847718748915,
                0.05975018483976147,
                -0.8070617507957949
            ]
        },
        {
            "positions": [
                0.8976964220960642,
                -1.9275999737506686,
                -0.10187794223112534,
                -1.8986518951761968,
                0.04624327064767664,
                -0.947870423346028
            ]
        },
        {
            "positions": [
                0.8266474232927201,
                -1.9493873642382218,
                -0.17360346597353793,
                -1.9659190184775022,
                0.03273635645559181,
                -1.088679095896261
            ]
        },
        {
            "positions": [
                0.7555984244893763,
                -1.9711747547257747,
                -0.2453289897159503,
                -2.033186141778807,
                0.019229442263507035,
                -1.2294877684464938
            ]
        },
        {
            "positions": [
                0.6845494256860323,
                -1.992962145213328,
                -0.3170545134583629,
                -2.1004532650801124,
                0.005722528071422206,
                -1.3702964409967269
            ]
        },
        {
            "positions": [
                0.6135004268826882,
                -2.014749535700881,
                -0.3887800372007755,
                -2.167720388381418,
                -0.007784386120662623,
                -1.51110511354696
            ]
        },
        {
            "positions": [
                0.5424514280793442,
                -2.0365369261884343,
                -0.46050556094318806,
                -2.234987511682723,
                -0.021291300312747452,
                -1.6519137860971935
            ]
        },
        {
            "positions": [
                0.4714024292760004,
                -2.0583243166759875,
                -0.5322310846856007,
                -2.3022546349840285,
                -0.03479821450483228,
                -1.7927224586474266
            ]
        },
        {
            "positions": [
                0.40035343047265637,
                -2.0801117071635407,
                -0.6039566084280135,
                -2.3695217582853343,
                -0.04830512869691711,
                -1.9335311311976597
            ]
        },
        {
            "positions": [
                0.32930443166931234,
                -2.101899097651094,
                -0.6756821321704258,
                -2.4367888815866396,
                -0.06181204288900194,
                -2.0743398037478933
            ]
        },
        {
            "positions": [
                0.2582554328659681,
                -2.123686488138647,
                -0.7474076559128386,
                -2.5040560048879446,
                -0.07531895708108677,
                -2.2151484762981264
            ]
        },
        {
            "positions": [
                0.18720643406262427,
                -2.1454738786262,
                -0.8191331796552515,
                -2.57132312818925,
                -0.08882587127317165,
                -2.3559571488483595
            ]
        },
        {
            "positions": [
                0.11615743525928046,
                -2.1672612691137534,
                -0.8908587033976638,
                -2.6385902514905553,
                -0.10233278546525643,
                -2.4967658213985917
            ]
        },
        {
            "positions": [
                0.04510843645593621,
                -2.1890486596013066,
                -0.9625842271400762,
                -2.7058573747918606,
                -0.11583969965734126,
                -2.6375744939488257
            ]
        },
        {
            "positions": [
                -0.025940562347407603,
                -2.2108360500888597,
                -1.034309750882489,
                -2.773124498093166,
                -0.12934661384942608,
                -2.778383166499059
            ]
        },
        {
            "positions": [
                -0.09698956115075186,
                -2.232623440576413,
                -1.1060352746249014,
                -2.8403916213944713,
                -0.1428535280415109,
                -2.919191839049292
            ]
        },
        {
            "positions": [
                -0.16803855995409556,
                -2.254410831063966,
                -1.1777607983673142,
                -2.9076587446957767,
                -0.15636044223359574,
                -3.0600005115995246
            ]
        }
    ]
}