{
    "goal": {
        "global_pose": {
            "orientation": {
                "w": 0.5084816262002911,
                "x": -0.4908360881923452,
                "y": 0.5182115481033761,
                "z": -0.48164630358495003
            },
            "position": {
                "x": 0.5540239810943604,
                "y": -0.46912469901144505,
                "z": 0.16403168439865112
            }
        },
        "name": "move_to_storage_B"
    },
    "id": "BKPIECE_move_to_storage_B_40",
    "joint_names": [
        "shoulder_pan_joint",
        "shoulder_lift_joint",
        "elbow_joint",
        "wrist_1_joint",
        "wrist_2_joint",
        "wrist_3_joint"
    ],
    "metrics": {
        "cart_traj_len": 0.788896232613035,
        "distance_elbow_joint": 0.5200626081047652,
        "distance_shoulder_lift_joint": 0.45972166379277546,
        "distance_shoulder_pan_joint": 0.45300691349348476,
        "distance_wrist_1_joint": 2.9916679934040635,
        "distance_wrist_2_joint": 2.7197000756862764,
        "distance_wrist_3_joint": 3.395244832318065,
        "smoothness": 0.21135967435148495,
        "time": 0.574897335,
        "traj_len": 3.2464448380958872,
        "weighted_distance": 4.800131437838542
    },
    "planner": "BKPIECE",
    "start": {
        "state": {
            "elbow_joint": 1.6649325706314817,
            "shoulder_lift_joint": -0.6616388048112454,
            "shoulder_pan_joint": -0.9139837860083814,
            "wrist_1_joint": 2.146757197745094,
            "wrist_2_joint": -2.234196043158733,
            "wrist_3_joint": 0.005471033829999897
        }
    },
    "waypoints": [
        {
            "positions": [
                -0.9139837860083814,
                -0.6616388048112454,
                1.6649325706314817,
                2.146757197745094,
                -2.234196043158733,
                0.005471033829999897
            ]
        },
        {
            "positions": [
                -0.886493691421092,
                -0.6821202932722854,
                1.6655989559830355,
                2.1397422471910215,
                -2.196417949374868,
                0.038344303513006474
            ]
        },
        {
            "positions": [
                -0.8500754326438428,
                -0.7227744788842434,
                1.6376440241133898,
                2.068719178181407,
                -2.0879520695156466,
                0.07092173743387362
            ]
        },
        {
            "positions": [
                -0.8136571738665935,
                -0.7634286644962014,
                1.609689092243744,
                1.9976961091717929,
                -1.979486189656425,
                0.10349917135474077
            ]
        },
        {
            "positions": [
                -0.7772389150893443,
                -0.8040828501081594,
                1.5817341603740982,
                1.9266730401621786,
                -1.8710203097972036,
                0.13607660527560791
            ]
        },
        {
            "positions": [
                -0.7904165001966129,
                -0.8173027508788203,
                1.5998813031717762,
                1.8111903803362974,
                -1.7728317955336723,
                4.9969405922195564e-05
            ]
        },
        {
            "positions": [
                -0.8035940853038815,
                -0.8305226516494811,
                1.6180284459694543,
                1.6957077205104163,
                -1.6746432812701413,
                -0.13597666646376352
            ]
        },
        {
            "positions": [
                -0.8167716704111503,
                -0.8437425524201421,
                1.6361755887671325,
                1.5802250606845352,
                -1.5764547670066102,
                -0.27200330233344927
            ]
        },
        {
            "positions": [
                -0.8299492555184189,
                -0.856962453190803,
                1.6543227315648106,
                1.464742400858654,
                -1.478266252743079,
                -0.40802993820313493
            ]
        },
        {
            "positions": [
                -0.8431268406256875,
                -0.8701823539614638,
                1.6724698743624886,
                1.3492597410327727,
                -1.3800777384795477,
                -0.5440565740728207
            ]
        },
        {
            "positions": [
                -0.8563044257329562,
                -0.8834022547321247,
                1.6906170171601667,
                1.2337770812068916,
                -1.2818892242160167,
                -0.6800832099425064
            ]
        },
        {
            "positions": [
                -0.8694820108402248,
                -0.8966221555027857,
                1.7087641599578447,
                1.1182944213810102,
                -1.1837007099524857,
                -0.8161098458121921
            ]
        },
        {
            "positions": [
                -0.8826595959474935,
                -0.9098420562734465,
                1.726911302755523,
                1.0028117615551293,
                -1.0855121956889544,
                -0.9521364816818778
            ]
        },
        {
            "positions": [
                -0.8958371810547622,
                -0.9230619570441074,
                1.745058445553201,
                0.887329101729248,
                -0.9873236814254233,
                -1.0881631175515636
            ]
        },
        {
            "positions": [
                -0.9090147661620308,
                -0.9362818578147684,
                1.763205588350879,
                0.7718464419033668,
                -0.8891351671618921,
                -1.2241897534212494
            ]
        },
        {
            "positions": [
                -0.9221923512692994,
                -0.9495017585854292,
                1.781352731148557,
                0.6563637820774857,
                -0.7909466528983611,
                -1.360216389290935
            ]
        },
        {
            "positions": [
                -0.9353699363765682,
                -0.9627216593560901,
                1.7994998739462353,
                0.5408811222516046,
                -0.6927581386348298,
                -1.4962430251606207
            ]
        },
        {
            "positions": [
                -0.9485475214838368,
                -0.9759415601267509,
                1.8176470167439134,
                0.42539846242572343,
                -0.5945696243712988,
                -1.6322696610303062
            ]
        },
        {
            "positions": [
                -0.9617251065911054,
                -0.989161460897412,
                1.8357941595415914,
                0.3099158025998421,
                -0.49638111010776753,
                -1.7682962968999922
            ]
        },
        {
            "positions": [
                -0.9749026916983741,
                -1.0023813616680728,
                1.8539413023392695,
                0.19443314277396118,
                -0.3981925958442365,
                -1.904322932769678
            ]
        },
        {
            "positions": [
                -0.9880802768056427,
                -1.0156012624387336,
                1.8720884451369475,
                0.07895048294808005,
                -0.30000408158070524,
                -2.0403495686393636
            ]
        },
        {
            "positions": [
                -1.0012578619129113,
                -1.0288211632093947,
                1.8902355879346255,
                -0.0365321768778013,
                -0.20181556731717398,
                -2.1763762045090496
            ]
        },
        {
            "positions": [
                -1.01443544702018,
                -1.0420410639800555,
                1.9083827307323038,
                -0.15201483670368265,
                -0.10362705305364295,
                -2.312402840378735
            ]
        },
        {
            "positions": [
                -1.0276130321274488,
                -1.0552609647507163,
                1.9265298735299818,
                -0.26749749652956334,
                -0.005438538790111913,
                -2.4484294762484207
            ]
        },
        {
            "positions": [
                -1.0407906172347174,
                -1.0684808655213773,
                1.9446770163276599,
                -0.3829801563554449,
                0.09274997547341934,
                -2.5844561121181067
            ]
        },
        {
            "positions": [
                -1.053968202341986,
                -1.0817007662920382,
                1.9628241591253381,
                -0.49846281618132604,
                0.1909384897369506,
                -2.720482747987792
            ]
        },
        {
            "positions": [
                -1.0671457874492547,
                -1.094920667062699,
                1.9809713019230162,
                -0.6139454760072072,
                0.2891270040004814,
                -2.8565093838574778
            ]
        },
        {
            "positions": [
                -1.0803233725565233,
                -1.10814056783336,
                1.9991184447206942,
                -0.7294281358330883,
                0.38731551826401267,
                -2.9925360197271638
            ]
        },
        {
            "positions": [
                -1.093500957663792,
                -1.1213604686040208,
                2.0172655875183723,
                -0.8449107956589692,
                0.48550403252754387,
                -3.1285626555968493
            ]
        }
    ]
}