{
    "goal": {
        "global_pose": {
            "orientation": {
                "w": 0.7047431468963623,
                "x": -0.7094548344612122,
                "y": 0.0024358443915843964,
                "z": -0.0022348060738295317
            },
            "position": {
                "x": 0.6094750761985779,
                "y": 0.3671506643295288,
                "z": 0.19426114857196808
            }
        },
        "name": "move_to_magneteinheit_A"
    },
    "id": "BKPIECE_move_to_magneteinheit_A_13",
    "joint_names": [
        "shoulder_pan_joint",
        "shoulder_lift_joint",
        "elbow_joint",
        "wrist_1_joint",
        "wrist_2_joint",
        "wrist_3_joint"
    ],
    "metrics": {
        "cart_traj_len": 1.0540507246587907,
        "distance_elbow_joint": 0.3869043015627682,
        "distance_shoulder_lift_joint": 0.3643272816077583,
        "distance_shoulder_pan_joint": 1.242398342916567,
        "distance_wrist_1_joint": 2.239392041280241,
        "distance_wrist_2_joint": 1.6946975119030676,
        "distance_wrist_3_joint": 1.1997916149814434,
        "smoothness": 3.7396986388757647e-16,
        "time": 1.275947487,
        "traj_len": 2.669739892620973,
        "weighted_distance": 3.6689486065353987
    },
    "planner": "BKPIECE",
    "start": {
        "state": {
            "elbow_joint": 1.5739458966750683,
            "shoulder_lift_joint": -1.4977259741207325,
            "shoulder_pan_joint": -1.1188672016454206,
            "wrist_1_joint": 1.494575848278785,
            "wrist_2_joint": -1.5706037134824402,
            "wrist_3_joint": -2.0226957942261072
        }
    },
    "waypoints": [
        {
            "positions": [
                -1.1188672016454206,
                -1.4977259741207325,
                1.5739458966750683,
                1.494575848278785,
                -1.5706037134824402,
                -2.0226957942261072
            ]
        },
        {
            "positions": [
                -1.0498450714833891,
                -1.4774855695869682,
                1.595440580095222,
                1.3701651793187717,
                -1.4764538517100476,
                -2.0893508839472985
            ]
        },
        {
            "positions": [
                -0.9808229413213576,
                -1.457245165053204,
                1.616935263515376,
                1.2457545103587582,
                -1.382303989937655,
                -2.15600597366849
            ]
        },
        {
            "positions": [
                -0.9118008111593261,
                -1.4370047605194394,
                1.6384299469355297,
                1.1213438413987449,
                -1.2881541281652624,
                -2.222661063389681
            ]
        },
        {
            "positions": [
                -0.8427786809972946,
                -1.416764355985675,
                1.6599246303556836,
                0.9969331724387314,
                -1.1940042663928696,
                -2.2893161531108723
            ]
        },
        {
            "positions": [
                -0.7737565508352631,
                -1.3965239514519108,
                1.6814193137758373,
                0.872522503478718,
                -1.099854404620477,
                -2.3559712428320636
            ]
        },
        {
            "positions": [
                -0.7047344206732317,
                -1.3762835469181465,
                1.702913997195991,
                0.7481118345187047,
                -1.0057045428480844,
                -2.422626332553255
            ]
        },
        {
            "positions": [
                -0.6357122905112,
                -1.356043142384382,
                1.724408680616145,
                0.6237011655586913,
                -0.9115546810756917,
                -2.489281422274446
            ]
        },
        {
            "positions": [
                -0.5666901603491686,
                -1.3358027378506176,
                1.7459033640362986,
                0.49929049659867786,
                -0.8174048193032991,
                -2.555936511995638
            ]
        },
        {
            "positions": [
                -0.4976680301871371,
                -1.3155623333168533,
                1.7673980474564526,
                0.37487982763866445,
                -0.7232549575309064,
                -2.622591601716829
            ]
        },
        {
            "positions": [
                -0.4286459000251056,
                -1.295321928783089,
                1.7888927308766063,
                0.25046915867865094,
                -0.6291050957585137,
                -2.6892466914380204
            ]
        },
        {
            "positions": [
                -0.3596237698630741,
                -1.2750815242493245,
                1.81038741429676,
                0.12605848971863765,
                -0.534955233986121,
                -2.7559017811592117
            ]
        },
        {
            "positions": [
                -0.2906016397010427,
                -1.2548411197155602,
                1.831882097716914,
                0.001647820758624352,
                -0.4408053722137286,
                -2.822556870880403
            ]
        },
        {
            "positions": [
                -0.22157950953901118,
                -1.234600715181796,
                1.8533767811370676,
                -0.12276284820138916,
                -0.3466555104413358,
                -2.8892119606015942
            ]
        },
        {
            "positions": [
                -0.15255737937697955,
                -1.2143603106480316,
                1.8748714645572213,
                -0.24717351716140246,
                -0.2525056486689432,
                -2.9558670503227855
            ]
        },
        {
            "positions": [
                -0.08353524921494815,
                -1.1941199061142673,
                1.8963661479773752,
                -0.37158418612141597,
                -0.1583557868965504,
                -3.022522140043977
            ]
        },
        {
            "positions": [
                -0.014513119052916634,
                -1.1738795015805028,
                1.917860831397529,
                -0.49599485508142926,
                -0.06420592512415801,
                -3.089177229765168
            ]
        },
        {
            "positions": [
                0.05450901110911488,
                -1.1536390970467385,
                1.9393555148176826,
                -0.6204055240414428,
                0.029943936648234803,
                -3.1558323194863593
            ]
        },
        {
            "positions": [
                0.12353114127114646,
                -1.1333986925129742,
                1.9608501982378366,
                -0.744816193001456,
                0.12409379842062741,
                -3.2224874092075506
            ]
        }
    ]
}