{
    "goal": {
        "global_pose": {
            "orientation": {
                "w": 0.005598929693374612,
                "x": 0.007748599140229565,
                "y": 0.7110244013736278,
                "z": -0.7031023480610252
            },
            "position": {
                "x": 0.1141497679147869,
                "y": -0.7141253447532654,
                "z": 0.3711530566215515
            }
        },
        "name": "move_to_auspresseinheit_B"
    },
    "id": "BKPIECE_move_to_auspresseinheit_B_133",
    "joint_names": [
        "shoulder_pan_joint",
        "shoulder_lift_joint",
        "elbow_joint",
        "wrist_1_joint",
        "wrist_2_joint",
        "wrist_3_joint"
    ],
    "metrics": {
        "cart_traj_len": 0.5642684765573269,
        "distance_elbow_joint": 0.06081899678247282,
        "distance_shoulder_lift_joint": 0.2950193976776416,
        "distance_shoulder_pan_joint": 0.5775091622665782,
        "distance_wrist_1_joint": 0.3190171703247501,
        "distance_wrist_2_joint": 0.987064250927514,
        "distance_wrist_3_joint": 0.0018302966701528867,
        "smoothness": 0.0,
        "time": 1.309741201,
        "traj_len": 1.4970835897334223,
        "weighted_distance": 1.8844100639833357
    },
    "planner": "BKPIECE",
    "start": {
        "state": {
            "elbow_joint": 2.019306165916698,
            "shoulder_lift_joint": -1.1220205098164344,
            "shoulder_pan_joint": -1.095207207618794,
            "wrist_1_joint": -0.8559671824921639,
            "wrist_2_joint": 0.47596387242952726,
            "wrist_3_joint": 3.159081874673826
        }
    },
    "waypoints": [
        {
            "positions": [
                -1.095207207618794,
                -1.1220205098164344,
                2.019306165916698,
                -0.8559671824921639,
                0.47596387242952726,
                3.159081874673826
            ]
        },
        {
            "positions": [
                -1.1914587346632237,
                -1.1711904094293746,
                2.0091696664529524,
                -0.8027976541047055,
                0.6404745809174462,
                3.1593869241188512
            ]
        },
        {
            "positions": [
                -1.2877102617076535,
                -1.220360309042315,
                1.999033166989207,
                -0.7496281257172471,
                0.8049852894053653,
                3.1596919735638767
            ]
        },
        {
            "positions": [
                -1.383961788752083,
                -1.2695302086552553,
                1.9888966675254616,
                -0.6964585973297888,
                0.9694959978932842,
                3.159997023008902
            ]
        },
        {
            "positions": [
                -1.4802133157965127,
                -1.3187001082681955,
                1.9787601680617162,
                -0.6432890689423305,
                1.1340067063812032,
                3.160302072453928
            ]
        },
        {
            "positions": [
                -1.5764648428409425,
                -1.3678700078811357,
                1.9686236685979706,
                -0.590119540554872,
                1.2985174148691223,
                3.1606071218989533
            ]
        },
        {
            "positions": [
                -1.6727163698853722,
                -1.417039907494076,
                1.9584871691342252,
                -0.5369500121674138,
                1.4630281233570412,
                3.1609121713439787
            ]
        }
    ]
}