{
    "goal": {
        "global_pose": {
            "orientation": {
                "w": -0.00223480608172531,
                "x": 0.0024358444001904467,
                "y": 0.7094548369677653,
                "z": -0.704743149386269
            },
            "position": {
                "x": -0.37947507619857795,
                "y": -0.6371506643295288,
                "z": 0.19426114857196808
            }
        },
        "name": "move_to_magneteinheit_C"
    },
    "id": "BKPIECE_move_to_magneteinheit_C_15",
    "joint_names": [
        "shoulder_pan_joint",
        "shoulder_lift_joint",
        "elbow_joint",
        "wrist_1_joint",
        "wrist_2_joint",
        "wrist_3_joint"
    ],
    "metrics": {
        "cart_traj_len": 1.626245728564431,
        "distance_elbow_joint": 1.0169710296471939,
        "distance_shoulder_lift_joint": 0.39560646755807105,
        "distance_shoulder_pan_joint": 2.1135199471013952,
        "distance_wrist_1_joint": 0.7156384638879775,
        "distance_wrist_2_joint": 2.6412200610181795,
        "distance_wrist_3_joint": 6.269876584298192,
        "smoothness": 0.7690787684719904,
        "time": 0.789496415,
        "traj_len": 3.626683409605946,
        "weighted_distance": 5.389753635094424
    },
    "planner": "BKPIECE",
    "start": {
        "state": {
            "elbow_joint": 1.9565354006590394,
            "shoulder_lift_joint": -1.4165861576513559,
            "shoulder_pan_joint": -1.6717766223277177,
            "wrist_1_joint": -0.5286633288215096,
            "wrist_2_joint": 1.4727565892594296,
            "wrist_3_joint": 3.1593482883155493
        }
    },
    "waypoints": [
        {
            "positions": [
                -1.6717766223277177,
                -1.4165861576513559,
                1.9565354006590394,
                -0.5286633288215096,
                1.4727565892594296,
                3.1593482883155493
            ]
        },
        {
            "positions": [
                -1.5644593848870865,
                -1.4344764444632492,
                2.021533470586033,
                -0.527690304069899,
                1.4008940325900177,
                3.1169217486223797
            ]
        },
        {
            "positions": [
                -1.457142147446455,
                -1.4523667312751423,
                2.0865315405130263,
                -0.5267172793182886,
                1.3290314759206057,
                3.07449520892921
            ]
        },
        {
            "positions": [
                -1.3498249100058235,
                -1.4702570180870356,
                2.1515296104400194,
                -0.5257442545666781,
                1.257168919251194,
                3.0320686692360406
            ]
        },
        {
            "positions": [
                -1.2425076725651922,
                -1.4881473048989289,
                2.216527680367013,
                -0.5247712298150675,
                1.185306362581782,
                2.989642129542871
            ]
        },
        {
            "positions": [
                -1.3096371226171624,
                -1.4761825532982051,
                2.186524766363269,
                -0.5127288291970957,
                1.1006255459692469,
                2.813121515726558
            ]
        },
        {
            "positions": [
                -1.3767665726691325,
                -1.4642178016974812,
                2.1565218523595258,
                -0.5006864285791239,
                1.0159447293567119,
                2.6366009019102457
            ]
        },
        {
            "positions": [
                -1.4438960227211024,
                -1.4522530500967572,
                2.126518938355782,
                -0.48864402796115214,
                0.9312639127441767,
                2.4600802880939328
            ]
        },
        {
            "positions": [
                -1.5110254727730725,
                -1.4402882984960335,
                2.0965160243520384,
                -0.47660162734318035,
                0.8465830961316416,
                2.28355967427762
            ]
        },
        {
            "positions": [
                -1.5781549228250427,
                -1.4283235468953097,
                2.0665131103482945,
                -0.4645592267252086,
                0.7619022795191066,
                2.1070390604613074
            ]
        },
        {
            "positions": [
                -1.6452843728770126,
                -1.4163587952945857,
                2.0365101963445507,
                -0.4525168261072368,
                0.6772214629065716,
                1.9305184466449945
            ]
        },
        {
            "positions": [
                -1.7124138229289827,
                -1.4043940436938618,
                2.006507282340807,
                -0.440474425489265,
                0.5925406462940365,
                1.7539978328286818
            ]
        },
        {
            "positions": [
                -1.7795432729809528,
                -1.392429292093138,
                1.9765043683370633,
                -0.4284320248712932,
                0.5078598296815015,
                1.5774772190123691
            ]
        },
        {
            "positions": [
                -1.846672723032923,
                -1.3804645404924143,
                1.9465014543333197,
                -0.41638962425332143,
                0.42317901306896644,
                1.4009566051960565
            ]
        },
        {
            "positions": [
                -1.913802173084893,
                -1.3684997888916903,
                1.916498540329576,
                -0.40434722363534964,
                0.3384981964564313,
                1.2244359913797438
            ]
        },
        {
            "positions": [
                -1.980931623136863,
                -1.3565350372909664,
                1.8864956263258323,
                -0.3923048230173779,
                0.2538173798438963,
                1.047915377563431
            ]
        },
        {
            "positions": [
                -2.0480610731888333,
                -1.3445702856902426,
                1.8564927123220887,
                -0.3802624223994061,
                0.16913656323136128,
                0.871394763747118
            ]
        },
        {
            "positions": [
                -2.1151905232408033,
                -1.3326055340895189,
                1.8264897983183448,
                -0.3682200217814343,
                0.08445574661882627,
                0.6948741499308055
            ]
        },
        {
            "positions": [
                -2.182319973292773,
                -1.320640782488795,
                1.7964868843146014,
                -0.3561776211634625,
                -0.00022506999370897063,
                0.5183535361144926
            ]
        },
        {
            "positions": [
                -2.2494494233447435,
                -1.308676030888071,
                1.7664839703108575,
                -0.3441352205454907,
                -0.08490588660624399,
                0.3418329222981802
            ]
        },
        {
            "positions": [
                -2.3165788733967134,
                -1.2967112792873472,
                1.7364810563071138,
                -0.33209281992751893,
                -0.16958670321877897,
                0.1653123084818675
            ]
        },
        {
            "positions": [
                -2.419802881853191,
                -1.2864698447251335,
                1.75468868240961,
                -0.35754037921025617,
                -0.2103900963428641,
                0.09292166906095226
            ]
        },
        {
            "positions": [
                -2.5230268903096684,
                -1.2762284101629198,
                1.772896308512106,
                -0.3829879384929934,
                -0.2511934894669492,
                0.020531029640036995
            ]
        },
        {
            "positions": [
                -2.5452861478676208,
                -1.2682710766870275,
                1.7936611581713096,
                -0.4373197105688447,
                -0.1752010757445297,
                0.20484339852255712
            ]
        },
        {
            "positions": [
                -2.5675454054255735,
                -1.2603137432111353,
                1.8144260078305132,
                -0.49165148264469605,
                -0.09920866202211023,
                0.38915576740507724
            ]
        },
        {
            "positions": [
                -2.589804662983526,
                -1.252356409735243,
                1.8351908574897169,
                -0.5459832547205474,
                -0.023216248299690767,
                0.5734681362875973
            ]
        },
        {
            "positions": [
                -2.6120639205414786,
                -1.2443990762593509,
                1.8559557071489206,
                -0.6003150267963988,
                0.05277616542272873,
                0.7577805051701174
            ]
        },
        {
            "positions": [
                -2.634323178099431,
                -1.2364417427834584,
                1.876720556808124,
                -0.6546467988722501,
                0.12876857914514822,
                0.9420928740526375
            ]
        },
        {
            "positions": [
                -2.6565824356573833,
                -1.2284844093075662,
                1.8974854064673277,
                -0.7089785709481015,
                0.20476099286756766,
                1.1264052429351576
            ]
        },
        {
            "positions": [
                -2.678841693215336,
                -1.220527075831674,
                1.9182502561265313,
                -0.7633103430239527,
                0.28075340658998715,
                1.3107176118176778
            ]
        },
        {
            "positions": [
                -2.7011009507732884,
                -1.2125697423557817,
                1.939015105785735,
                -0.8176421150998041,
                0.35674582031240665,
                1.4950299807001979
            ]
        },
        {
            "positions": [
                -2.6634913309181596,
                -1.20449178272789,
                1.9514147851858517,
                -0.823228558403421,
                0.40830093239781423,
                1.7711233764606178
            ]
        },
        {
            "positions": [
                -2.6258817110630304,
                -1.196413823099998,
                1.9638144645859683,
                -0.828815001707038,
                0.4598560444832218,
                2.0472167722210375
            ]
        },
        {
            "positions": [
                -2.5882720912079016,
                -1.1883358634721062,
                1.976214143986085,
                -0.8344014450106549,
                0.5114111565686295,
                2.3233101679814574
            ]
        },
        {
            "positions": [
                -2.550662471352773,
                -1.1802579038442145,
                1.9886138233862014,
                -0.8399878883142718,
                0.5629662686540371,
                2.5994035637418773
            ]
        },
        {
            "positions": [
                -2.5130528514976436,
                -1.1721799442163228,
                2.0010135027863183,
                -0.8455743316178889,
                0.6145213807394447,
                2.8754969595022972
            ]
        },
        {
            "positions": [
                -2.475443231642515,
                -1.1641019845884308,
                2.0134131821864347,
                -0.8511607749215058,
                0.6660764928248523,
                3.151590355262717
            ]
        }
    ]
}