{
    "goal": {
        "global_pose": {
            "orientation": {
                "w": 0.5084816262002911,
                "x": -0.4908360881923452,
                "y": 0.5182115481033761,
                "z": -0.48164630358495003
            },
            "position": {
                "x": 0.5540239810943604,
                "y": -0.46912469901144505,
                "z": 0.16403168439865112
            }
        },
        "name": "move_to_storage_B"
    },
    "id": "BKPIECE_move_to_storage_B_94",
    "joint_names": [
        "shoulder_pan_joint",
        "shoulder_lift_joint",
        "elbow_joint",
        "wrist_1_joint",
        "wrist_2_joint",
        "wrist_3_joint"
    ],
    "metrics": {
        "cart_traj_len": 0.7525895320825585,
        "distance_elbow_joint": 0.44823810676143494,
        "distance_shoulder_lift_joint": 0.4580539454948145,
        "distance_shoulder_pan_joint": 0.3714203493636995,
        "distance_wrist_1_joint": 2.98448150747073,
        "distance_wrist_2_joint": 2.7015415247976495,
        "distance_wrist_3_joint": 3.142204353802473,
        "smoothness": 0.05006452293741825,
        "time": 1.7627235239999999,
        "traj_len": 3.178984081069108,
        "weighted_distance": 4.698549938817733
    },
    "planner": "BKPIECE",
    "start": {
        "state": {
            "elbow_joint": 1.6649325706314817,
            "shoulder_lift_joint": -0.6616388048112454,
            "shoulder_pan_joint": -0.9139837860083814,
            "wrist_1_joint": 2.146757197745094,
            "wrist_2_joint": -2.234196043158733,
            "wrist_3_joint": 0.005471033829999897
        }
    },
    "waypoints": [
        {
            "positions": [
                -0.9139837860083814,
                -0.6616388048112454,
                1.6649325706314817,
                2.146757197745094,
                -2.234196043158733,
                0.005471033829999897
            ]
        },
        {
            "positions": [
                -0.9003978218452307,
                -0.6907112502996509,
                1.7218235211438782,
                2.0562553123492,
                -2.1419024852858803,
                -0.07359981535142185
            ]
        },
        {
            "positions": [
                -0.8868118576820798,
                -0.7197836957880563,
                1.7787144716562748,
                1.9657534269533061,
                -2.0496089274130274,
                -0.15267066453284361
            ]
        },
        {
            "positions": [
                -0.8732258935189291,
                -0.7488561412764618,
                1.8356054221686713,
                1.875251541557412,
                -1.9573153695401748,
                -0.23174151371426538
            ]
        },
        {
            "positions": [
                -0.8596399293557783,
                -0.7779285867648672,
                1.892496372681068,
                1.7847496561615181,
                -1.8650218116673223,
                -0.3108123628956871
            ]
        },
        {
            "positions": [
                -0.8460539651926275,
                -0.8070010322532727,
                1.9493873231934644,
                1.694247770765624,
                -1.7727282537944695,
                -0.38988321207710885
            ]
        },
        {
            "positions": [
                -0.8324680010294767,
                -0.8360734777416782,
                2.006278273705861,
                1.60374588536973,
                -1.6804346959216168,
                -0.4689540612585306
            ]
        },
        {
            "positions": [
                -0.818882036866326,
                -0.8651459232300837,
                2.0631692242182575,
                1.513243999973836,
                -1.5881411380487642,
                -0.5480249104399524
            ]
        },
        {
            "positions": [
                -0.8326979668774082,
                -0.8778732645838825,
                2.060669151559525,
                1.3956955844888626,
                -1.4853668070643802,
                -0.6774603309165784
            ]
        },
        {
            "positions": [
                -0.8465138968884904,
                -0.8906006059376813,
                2.0581690789007916,
                1.278147169003889,
                -1.3825924760799961,
                -0.8068957513932045
            ]
        },
        {
            "positions": [
                -0.8603298268995726,
                -0.9033279472914801,
                2.055669006242059,
                1.1605987535189155,
                -1.279818145095612,
                -0.9363311718698304
            ]
        },
        {
            "positions": [
                -0.8741457569106548,
                -0.9160552886452789,
                2.0531689335833256,
                1.043050338033942,
                -1.177043814111228,
                -1.0657665923464563
            ]
        },
        {
            "positions": [
                -0.887961686921737,
                -0.9287826299990777,
                2.050668860924593,
                0.9255019225489685,
                -1.074269483126844,
                -1.1952020128230825
            ]
        },
        {
            "positions": [
                -0.9017776169328192,
                -0.9415099713528765,
                2.0481687882658597,
                0.8079535070639949,
                -0.9714951521424599,
                -1.3246374332997086
            ]
        },
        {
            "positions": [
                -0.9155935469439014,
                -0.9542373127066753,
                2.045668715607127,
                0.6904050915790214,
                -0.8687208211580758,
                -1.4540728537763346
            ]
        },
        {
            "positions": [
                -0.9294094769549837,
                -0.9669646540604742,
                2.0431686429483937,
                0.5728566760940479,
                -0.7659464901736917,
                -1.5835082742529605
            ]
        },
        {
            "positions": [
                -0.9432254069660658,
                -0.979691995414273,
                2.040668570289661,
                0.45530826060907437,
                -0.6631721591893076,
                -1.7129436947295866
            ]
        },
        {
            "positions": [
                -0.957041336977148,
                -0.9924193367680718,
                2.0381684976309282,
                0.33775984512410084,
                -0.5603978282049236,
                -1.8423791152062126
            ]
        },
        {
            "positions": [
                -0.9708572669882303,
                -1.0051466781218705,
                2.035668424972195,
                0.22021142963912732,
                -0.4576234972205393,
                -1.9718145356828387
            ]
        },
        {
            "positions": [
                -0.9846731969993124,
                -1.0178740194756695,
                2.0331683523134623,
                0.1026630141541538,
                -0.3548491662361555,
                -2.1012499561594646
            ]
        },
        {
            "positions": [
                -0.9984891270103946,
                -1.0306013608294682,
                2.030668279654729,
                -0.014885401330819725,
                -0.2520748352517712,
                -2.2306853766360906
            ]
        },
        {
            "positions": [
                -1.0123050570214769,
                -1.043328702183267,
                2.0281682069959963,
                -0.13243381681579325,
                -0.1493005042673874,
                -2.3601207971127165
            ]
        },
        {
            "positions": [
                -1.0261209870325592,
                -1.0560560435370658,
                2.025668134337263,
                -0.24998223230076677,
                -0.046526173283003125,
                -2.4895562175893424
            ]
        },
        {
            "positions": [
                -1.0399369170436412,
                -1.0687833848908646,
                2.0231680616785304,
                -0.3675306477857403,
                0.05624815770138092,
                -2.6189916380659684
            ]
        },
        {
            "positions": [
                -1.0537528470547235,
                -1.0815107262446635,
                2.020667989019797,
                -0.4850790632707138,
                0.15902248868576474,
                -2.7484270585425943
            ]
        },
        {
            "positions": [
                -1.0675687770658058,
                -1.0942380675984622,
                2.0181679163610644,
                -0.6026274787556873,
                0.261796819670149,
                -2.877862479019221
            ]
        },
        {
            "positions": [
                -1.0813847070768878,
                -1.1069654089522611,
                2.015667843702331,
                -0.7201758942406606,
                0.3645711506545328,
                -3.007297899495847
            ]
        },
        {
            "positions": [
                -1.09520063708797,
                -1.1196927503060599,
                2.0131677710435985,
                -0.8377243097256346,
                0.4673454816389171,
                -3.136733319972473
            ]
        }
    ]
}