{
    "goal": {
        "global_pose": {
            "orientation": {
                "w": 0.005598929693374612,
                "x": 0.007748599140229565,
                "y": 0.7110244013736278,
                "z": -0.7031023480610252
            },
            "position": {
                "x": 0.1141497679147869,
                "y": -0.7141253447532654,
                "z": 0.3711530566215515
            }
        },
        "name": "move_to_auspresseinheit_B"
    },
    "id": "BKPIECE_move_to_auspresseinheit_B_127",
    "joint_names": [
        "shoulder_pan_joint",
        "shoulder_lift_joint",
        "elbow_joint",
        "wrist_1_joint",
        "wrist_2_joint",
        "wrist_3_joint"
    ],
    "metrics": {
        "cart_traj_len": 0.5646550045442187,
        "distance_elbow_joint": 0.06394447309259887,
        "distance_shoulder_lift_joint": 0.2947412034766781,
        "distance_shoulder_pan_joint": 0.5759740804629814,
        "distance_wrist_1_joint": 0.3361119438106255,
        "distance_wrist_2_joint": 1.0029071003590624,
        "distance_wrist_3_joint": 0.0026662380901236737,
        "smoothness": 3.806478935924272e-16,
        "time": 0.910074807,
        "traj_len": 1.5087561231995283,
        "weighted_distance": 1.9028128020491153
    },
    "planner": "BKPIECE",
    "start": {
        "state": {
            "elbow_joint": 2.019306165916698,
            "shoulder_lift_joint": -1.1220205098164344,
            "shoulder_pan_joint": -1.095207207618794,
            "wrist_1_joint": -0.8559671824921639,
            "wrist_2_joint": 0.47596387242952726,
            "wrist_3_joint": 3.159081874673826
        }
    },
    "waypoints": [
        {
            "positions": [
                -1.095207207618794,
                -1.1220205098164344,
                2.019306165916698,
                -0.8559671824921639,
                0.47596387242952726,
                3.159081874673826
            ]
        },
        {
            "positions": [
                -1.1912028876959575,
                -1.171144043729214,
                2.0086487537345983,
                -0.799948525190393,
                0.6431150558227043,
                3.1595262476888464
            ]
        },
        {
            "positions": [
                -1.287198567773121,
                -1.2202675776419938,
                1.9979913415524984,
                -0.743929867888622,
                0.8102662392158814,
                3.159970620703867
            ]
        },
        {
            "positions": [
                -1.3831942478502848,
                -1.2693911115547736,
                1.9873339293703984,
                -0.6879112105868511,
                0.9774174226090584,
                3.160414993718888
            ]
        },
        {
            "positions": [
                -1.479189927927448,
                -1.3185146454675531,
                1.9766765171882987,
                -0.6318925532850802,
                1.1445686060022355,
                3.1608593667339084
            ]
        },
        {
            "positions": [
                -1.5751856080046118,
                -1.3676381793803327,
                1.966019105006199,
                -0.5758738959833093,
                1.3117197893954127,
                3.161303739748929
            ]
        },
        {
            "positions": [
                -1.6711812880817754,
                -1.4167617132931125,
                1.955361692824099,
                -0.5198552386815384,
                1.4788709727885896,
                3.1617481127639495
            ]
        }
    ]
}