{
    "goal": {
        "global_pose": {
            "orientation": {
                "w": 0.005598929693374612,
                "x": 0.007748599140229565,
                "y": 0.7110244013736278,
                "z": -0.7031023480610252
            },
            "position": {
                "x": 0.1141497679147869,
                "y": -0.7141253447532654,
                "z": 0.3711530566215515
            }
        },
        "name": "move_to_auspresseinheit_B"
    },
    "id": "BKPIECE_move_to_auspresseinheit_B_64",
    "joint_names": [
        "shoulder_pan_joint",
        "shoulder_lift_joint",
        "elbow_joint",
        "wrist_1_joint",
        "wrist_2_joint",
        "wrist_3_joint"
    ],
    "metrics": {
        "cart_traj_len": 0.5639827169705491,
        "distance_elbow_joint": 0.062415076483189225,
        "distance_shoulder_lift_joint": 0.2947696257780468,
        "distance_shoulder_pan_joint": 0.5762820733377476,
        "distance_wrist_1_joint": 0.32937629374588395,
        "distance_wrist_2_joint": 0.9952907262664965,
        "distance_wrist_3_joint": 0.007104451751997587,
        "smoothness": 0.0,
        "time": 1.4395331599999999,
        "traj_len": 1.505070844632691,
        "weighted_distance": 1.89845046574298
    },
    "planner": "BKPIECE",
    "start": {
        "state": {
            "elbow_joint": 2.019306165916698,
            "shoulder_lift_joint": -1.1220205098164344,
            "shoulder_pan_joint": -1.095207207618794,
            "wrist_1_joint": -0.8559671824921639,
            "wrist_2_joint": 0.47596387242952726,
            "wrist_3_joint": 3.159081874673826
        }
    },
    "waypoints": [
        {
            "positions": [
                -1.095207207618794,
                -1.1220205098164344,
                2.019306165916698,
                -0.8559671824921639,
                0.47596387242952726,
                3.159081874673826
            ]
        },
        {
            "positions": [
                -1.191254219841752,
                -1.1711487807794423,
                2.0089036531695,
                -0.8010711335345165,
                0.64184566014061,
                3.1578977993818262
            ]
        },
        {
            "positions": [
                -1.28730123206471,
                -1.22027705174245,
                1.9985011404223016,
                -0.7461750845768692,
                0.8077274478516927,
                3.1567137240898266
            ]
        },
        {
            "positions": [
                -1.3833482442876677,
                -1.2694053227054578,
                1.9880986276751034,
                -0.6912790356192219,
                0.9736092355627755,
                3.155529648797827
            ]
        },
        {
            "positions": [
                -1.4793952565106256,
                -1.3185335936684657,
                1.977696114927905,
                -0.6363829866615746,
                1.1394910232738582,
                3.1543455735058274
            ]
        },
        {
            "positions": [
                -1.5754422687335836,
                -1.3676618646314733,
                1.967293602180707,
                -0.5814869377039272,
                1.305372810984941,
                3.153161498213828
            ]
        },
        {
            "positions": [
                -1.6714892809565416,
                -1.4167901355944812,
                1.9568910894335088,
                -0.5265908887462799,
                1.4712545986960237,
                3.1519774229218283
            ]
        }
    ]
}