{
    "goal": {
        "global_pose": {
            "orientation": {
                "w": 0.005598929693374612,
                "x": 0.007748599140229565,
                "y": 0.7110244013736278,
                "z": -0.7031023480610252
            },
            "position": {
                "x": -0.8858502320852131,
                "y": -0.7141253447532654,
                "z": 0.3711530566215515
            }
        },
        "name": "move_to_auspresseinheit_C"
    },
    "id": "BKPIECE_move_to_auspresseinheit_C_145",
    "joint_names": [
        "shoulder_pan_joint",
        "shoulder_lift_joint",
        "elbow_joint",
        "wrist_1_joint",
        "wrist_2_joint",
        "wrist_3_joint"
    ],
    "metrics": {
        "cart_traj_len": 0.4935945908814935,
        "distance_elbow_joint": 0.9961574058345609,
        "distance_shoulder_lift_joint": 0.32271888934709503,
        "distance_shoulder_pan_joint": 0.2566371853948004,
        "distance_wrist_1_joint": 0.6657708915256321,
        "distance_wrist_2_joint": 1.3161908236527156,
        "distance_wrist_3_joint": 0.04590183438939688,
        "smoothness": 3.2297397080004555e-16,
        "time": 0.236209277,
        "traj_len": 1.8982563130789796,
        "weighted_distance": 2.3826754739370912
    },
    "planner": "BKPIECE",
    "start": {
        "state": {
            "elbow_joint": 1.752795957773711,
            "shoulder_lift_joint": -0.9740617694225064,
            "shoulder_pan_joint": -2.967991417825858,
            "wrist_1_joint": -0.7595177689806859,
            "wrist_2_joint": 1.7443932448377395,
            "wrist_3_joint": 3.199131542505932
        }
    },
    "waypoints": [
        {
            "positions": [
                -2.967991417825858,
                -0.9740617694225064,
                1.752795957773711,
                -0.7595177689806859,
                1.7443932448377395,
                3.199131542505932
            ]
        },
        {
            "positions": [
                -2.942327699286378,
                -0.9417898804877969,
                1.653180217190255,
                -0.6929406798281227,
                1.6127741624724679,
                3.194541359066992
            ]
        },
        {
            "positions": [
                -2.9166639807468977,
                -0.9095179915530874,
                1.5535644766067989,
                -0.6263635906755595,
                1.4811550801071964,
                3.1899511756280527
            ]
        },
        {
            "positions": [
                -2.891000262207418,
                -0.877246102618378,
                1.4539487360233427,
                -0.5597865015229962,
                1.3495359977419248,
                3.1853609921891133
            ]
        },
        {
            "positions": [
                -2.865336543667938,
                -0.8449742136836684,
                1.3543329954398868,
                -0.4932094123704331,
                1.2179169153766534,
                3.1807708087501734
            ]
        },
        {
            "positions": [
                -2.8396728251284578,
                -0.8127023247489589,
                1.2547172548564307,
                -0.42663232321786987,
                1.0862978330113817,
                3.1761806253112335
            ]
        },
        {
            "positions": [
                -2.8140091065889776,
                -0.7804304358142494,
                1.1551015142729746,
                -0.36005523406530665,
                0.9546787506461102,
                3.171590441872294
            ]
        },
        {
            "positions": [
                -2.7883453880494975,
                -0.74815854687954,
                1.0554857736895185,
                -0.2934781449127435,
                0.8230596682808387,
                3.1670002584333545
            ]
        },
        {
            "positions": [
                -2.762681669510018,
                -0.7158866579448304,
                0.9558700331060623,
                -0.22690105576018027,
                0.691440585915567,
                3.1624100749944146
            ]
        },
        {
            "positions": [
                -2.7370179509705377,
                -0.6836147690101209,
                0.8562542925226063,
                -0.16032396660761705,
                0.5598215035502954,
                3.1578198915554747
            ]
        },
        {
            "positions": [
                -2.7113542324310576,
                -0.6513428800754114,
                0.7566385519391502,
                -0.09374687745505388,
                0.4282024211850239,
                3.1532297081165352
            ]
        }
    ]
}