{
    "goal": {
        "global_pose": {
            "orientation": {
                "w": 0.005598929693374612,
                "x": 0.007748599140229565,
                "y": 0.7110244013736278,
                "z": -0.7031023480610252
            },
            "position": {
                "x": -0.8858502320852131,
                "y": -0.7141253447532654,
                "z": 0.3711530566215515
            }
        },
        "name": "move_to_auspresseinheit_C"
    },
    "id": "BKPIECE_move_to_auspresseinheit_C_147",
    "joint_names": [
        "shoulder_pan_joint",
        "shoulder_lift_joint",
        "elbow_joint",
        "wrist_1_joint",
        "wrist_2_joint",
        "wrist_3_joint"
    ],
    "metrics": {
        "cart_traj_len": 0.4939198089675305,
        "distance_elbow_joint": 1.016761243749241,
        "distance_shoulder_lift_joint": 0.3327648913972465,
        "distance_shoulder_pan_joint": 0.2560684036224763,
        "distance_wrist_1_joint": 0.7136794991080383,
        "distance_wrist_2_joint": 1.3114598245436204,
        "distance_wrist_3_joint": 0.07664745749602009,
        "smoothness": 3.2297397335745243e-16,
        "time": 0.31772203200000004,
        "traj_len": 1.9254561329504867,
        "weighted_distance": 2.4260699822058602
    },
    "planner": "BKPIECE",
    "start": {
        "state": {
            "elbow_joint": 1.752795957773711,
            "shoulder_lift_joint": -0.9740617694225064,
            "shoulder_pan_joint": -2.967991417825858,
            "wrist_1_joint": -0.7595177689806859,
            "wrist_2_joint": 1.7443932448377395,
            "wrist_3_joint": 3.199131542505932
        }
    },
    "waypoints": [
        {
            "positions": [
                -2.967991417825858,
                -0.9740617694225064,
                1.752795957773711,
                -0.7595177689806859,
                1.7443932448377395,
                3.199131542505932
            ]
        },
        {
            "positions": [
                -2.9423845774636104,
                -0.9407852802827817,
                1.651119833398787,
                -0.688149819069882,
                1.6132472623833776,
                3.19146679675633
            ]
        },
        {
            "positions": [
                -2.916777737101363,
                -0.9075087911430572,
                1.5494437090238629,
                -0.6167818691590783,
                1.4821012799290154,
                3.183802051006728
            ]
        },
        {
            "positions": [
                -2.891170896739115,
                -0.8742323020033325,
                1.4477675846489388,
                -0.5454139192482744,
                1.3509552974746533,
                3.176137305257126
            ]
        },
        {
            "positions": [
                -2.8655640563768676,
                -0.8409558128636079,
                1.3460914602740146,
                -0.47404596933747056,
                1.2198093150202913,
                3.1684725595075243
            ]
        },
        {
            "positions": [
                -2.8399572160146196,
                -0.8076793237238832,
                1.2444153358990906,
                -0.40267801942666676,
                1.0886633325659294,
                3.160807813757922
            ]
        },
        {
            "positions": [
                -2.814350375652372,
                -0.7744028345841585,
                1.1427392115241664,
                -0.33131006951586295,
                0.9575173501115672,
                3.15314306800832
            ]
        },
        {
            "positions": [
                -2.7887435352901244,
                -0.7411263454444339,
                1.0410630871492423,
                -0.25994211960505914,
                0.8263713676572053,
                3.145478322258718
            ]
        },
        {
            "positions": [
                -2.763136694927877,
                -0.7078498563047092,
                0.9393869627743182,
                -0.18857416969425522,
                0.6952253852028432,
                3.137813576509116
            ]
        },
        {
            "positions": [
                -2.7375298545656293,
                -0.6745733671649845,
                0.8377108383993942,
                -0.11720621978345147,
                0.564079402748481,
                3.1301488307595142
            ]
        },
        {
            "positions": [
                -2.7119230142033817,
                -0.6412968780252599,
                0.73603471402447,
                -0.04583826987264763,
                0.43293342029411913,
                3.122484085009912
            ]
        }
    ]
}