{
    "goal": {
        "global_pose": {
            "orientation": {
                "w": 0.5084816262002911,
                "x": -0.4908360881923452,
                "y": 0.5182115481033761,
                "z": -0.48164630358495003
            },
            "position": {
                "x": 0.5540239810943604,
                "y": -0.46912469901144505,
                "z": 0.16403168439865112
            }
        },
        "name": "move_to_storage_B"
    },
    "id": "BKPIECE_move_to_storage_B_18",
    "joint_names": [
        "shoulder_pan_joint",
        "shoulder_lift_joint",
        "elbow_joint",
        "wrist_1_joint",
        "wrist_2_joint",
        "wrist_3_joint"
    ],
    "metrics": {
        "cart_traj_len": 1.0292129701377841,
        "distance_elbow_joint": 0.4958081868904738,
        "distance_shoulder_lift_joint": 0.4601183563253408,
        "distance_shoulder_pan_joint": 0.5141769386013381,
        "distance_wrist_1_joint": 3.5820822871912172,
        "distance_wrist_2_joint": 3.145059451952631,
        "distance_wrist_3_joint": 3.123594321279542,
        "smoothness": 0.3308485434665102,
        "time": 2.5890363670000003,
        "traj_len": 3.3646455299541644,
        "weighted_distance": 4.929013078086066
    },
    "planner": "BKPIECE",
    "start": {
        "state": {
            "elbow_joint": 1.6649325706314817,
            "shoulder_lift_joint": -0.6616388048112454,
            "shoulder_pan_joint": -0.9139837860083814,
            "wrist_1_joint": 2.146757197745094,
            "wrist_2_joint": -2.234196043158733,
            "wrist_3_joint": 0.005471033829999897
        }
    },
    "waypoints": [
        {
            "positions": [
                -0.9139837860083814,
                -0.6616388048112454,
                1.6649325706314817,
                2.146757197745094,
                -2.234196043158733,
                0.005471033829999897
            ]
        },
        {
            "positions": [
                -0.9837140486592391,
                -0.7131905910900826,
                1.749828882316074,
                2.2051757731558386,
                -2.2788519418509154,
                -0.04634403460332146
            ]
        },
        {
            "positions": [
                -1.0534443113100966,
                -0.7647423773689198,
                1.834725194000666,
                2.263594348566583,
                -2.323507840543098,
                -0.09815910303664281
            ]
        },
        {
            "positions": [
                -1.1231745739609544,
                -0.8162941636477571,
                1.9196215056852581,
                2.322012923977328,
                -2.368163739235281,
                -0.14997417146996417
            ]
        },
        {
            "positions": [
                -1.1929048366118122,
                -0.8678459499265943,
                2.0045178173698504,
                2.3804314993880724,
                -2.4128196379274636,
                -0.20178923990328554
            ]
        },
        {
            "positions": [
                -1.2626350992626698,
                -0.9193977362054315,
                2.0894141290544423,
                2.438850074798817,
                -2.457475536619646,
                -0.25360430833660685
            ]
        },
        {
            "positions": [
                -1.2560140742487877,
                -0.9274921132026777,
                2.0865610639157417,
                2.307250498393317,
                -2.3406043382799773,
                -0.36818506750112423
            ]
        },
        {
            "positions": [
                -1.249393049234906,
                -0.9355864901999239,
                2.0837079987770415,
                2.1756509219878173,
                -2.223733139940309,
                -0.48276582666564166
            ]
        },
        {
            "positions": [
                -1.2427720242210238,
                -0.94368086719717,
                2.080854933638341,
                2.0440513455823175,
                -2.10686194160064,
                -0.597346585830159
            ]
        },
        {
            "positions": [
                -1.2361509992071418,
                -0.9517752441944163,
                2.07800186849964,
                1.9124517691768177,
                -1.9899907432609711,
                -0.7119273449946765
            ]
        },
        {
            "positions": [
                -1.22952997419326,
                -0.9598696211916624,
                2.0751488033609395,
                1.780852192771318,
                -1.8731195449213025,
                -0.8265081041591938
            ]
        },
        {
            "positions": [
                -1.2229089491793779,
                -0.9679639981889087,
                2.0722957382222393,
                1.6492526163658183,
                -1.7562483465816339,
                -0.9410888633237112
            ]
        },
        {
            "positions": [
                -1.216287924165496,
                -0.9760583751861548,
                2.0694426730835387,
                1.5176530399603183,
                -1.639377148241965,
                -1.0556696224882287
            ]
        },
        {
            "positions": [
                -1.209666899151614,
                -0.984152752183401,
                2.066589607944838,
                1.3860534635548187,
                -1.5225059499022964,
                -1.170250381652746
            ]
        },
        {
            "positions": [
                -1.203045874137732,
                -0.9922471291806472,
                2.063736542806138,
                1.2544538871493192,
                -1.4056347515626277,
                -1.2848311408172635
            ]
        },
        {
            "positions": [
                -1.19642484912385,
                -1.0003415061778933,
                2.060883477667437,
                1.1228543107438191,
                -1.2887635532229589,
                -1.3994118999817808
            ]
        },
        {
            "positions": [
                -1.189803824109968,
                -1.0084358831751397,
                2.0580304125287365,
                0.9912547343383196,
                -1.1718923548832902,
                -1.5139926591462982
            ]
        },
        {
            "positions": [
                -1.183182799096086,
                -1.0165302601723858,
                2.055177347390036,
                0.8596551579328198,
                -1.0550211565436216,
                -1.6285734183108156
            ]
        },
        {
            "positions": [
                -1.176561774082204,
                -1.024624637169632,
                2.0523242822513357,
                0.72805558152732,
                -0.9381499582039527,
                -1.7431541774753332
            ]
        },
        {
            "positions": [
                -1.169940749068322,
                -1.032719014166878,
                2.049471217112635,
                0.59645600512182,
                -0.8212787598642839,
                -1.8577349366398506
            ]
        },
        {
            "positions": [
                -1.16331972405444,
                -1.0408133911641244,
                2.0466181519739344,
                0.4648564287163206,
                -0.7044075615246155,
                -1.972315695804368
            ]
        },
        {
            "positions": [
                -1.156698699040558,
                -1.0489077681613705,
                2.0437650868352337,
                0.3332568523108206,
                -0.5875363631849466,
                -2.086896454968885
            ]
        },
        {
            "positions": [
                -1.150077674026676,
                -1.0570021451586167,
                2.0409120216965335,
                0.2016572759053208,
                -0.47066516484527776,
                -2.201477214133403
            ]
        },
        {
            "positions": [
                -1.1434566490127942,
                -1.0650965221558628,
                2.038058956557833,
                0.07005769949982144,
                -0.35379396650560935,
                -2.3160579732979203
            ]
        },
        {
            "positions": [
                -1.1368356239989121,
                -1.0731908991531092,
                2.035205891419132,
                -0.061541876905678805,
                -0.2369227681659405,
                -2.4306387324624374
            ]
        },
        {
            "positions": [
                -1.13021459898503,
                -1.0812852761503553,
                2.032352826280432,
                -0.1931414533111786,
                -0.12005156982627163,
                -2.5452194916269546
            ]
        },
        {
            "positions": [
                -1.1235935739711482,
                -1.0893796531476014,
                2.0294997611417314,
                -0.32474102971667795,
                -0.0031803714866032173,
                -2.6598002507914726
            ]
        },
        {
            "positions": [
                -1.1169725489572662,
                -1.0974740301448476,
                2.0266466960030307,
                -0.45634060612217775,
                0.11369082685306564,
                -2.77438100995599
            ]
        },
        {
            "positions": [
                -1.110351523943384,
                -1.1055684071420937,
                2.02379363086433,
                -0.5879401825276775,
                0.2305620251927345,
                -2.888961769120507
            ]
        },
        {
            "positions": [
                -1.1037304989295023,
                -1.11366278413934,
                2.02094056572563,
                -0.7195397589331773,
                0.3474332235324029,
                -3.003542528285024
            ]
        },
        {
            "positions": [
                -1.0971094739156202,
                -1.1217571611365862,
                2.018087500586929,
                -0.8511393353386774,
                0.46430442187207177,
                -3.1181232874495417
            ]
        }
    ]
}