{
    "goal": {
        "global_pose": {
            "orientation": {
                "w": 0.005598929693374612,
                "x": 0.007748599140229565,
                "y": 0.7110244013736278,
                "z": -0.7031023480610252
            },
            "position": {
                "x": 0.1141497679147869,
                "y": -0.7141253447532654,
                "z": 0.3711530566215515
            }
        },
        "name": "move_to_auspresseinheit_B"
    },
    "id": "BKPIECE_move_to_auspresseinheit_B_120",
    "joint_names": [
        "shoulder_pan_joint",
        "shoulder_lift_joint",
        "elbow_joint",
        "wrist_1_joint",
        "wrist_2_joint",
        "wrist_3_joint"
    ],
    "metrics": {
        "cart_traj_len": 0.5646296937429311,
        "distance_elbow_joint": 0.06483809389437778,
        "distance_shoulder_lift_joint": 0.2931077714801855,
        "distance_shoulder_pan_joint": 0.5783336011126974,
        "distance_wrist_1_joint": 0.33333023460998534,
        "distance_wrist_2_joint": 0.9853563423837539,
        "distance_wrist_3_joint": 0.0007483294841121868,
        "smoothness": 5.075305255429287e-16,
        "time": 0.787864652,
        "traj_len": 1.501903583112149,
        "weighted_distance": 1.8910043915673689
    },
    "planner": "BKPIECE",
    "start": {
        "state": {
            "elbow_joint": 2.019306165916698,
            "shoulder_lift_joint": -1.1220205098164344,
            "shoulder_pan_joint": -1.095207207618794,
            "wrist_1_joint": -0.8559671824921639,
            "wrist_2_joint": 0.47596387242952726,
            "wrist_3_joint": 3.159081874673826
        }
    },
    "waypoints": [
        {
            "positions": [
                -1.095207207618794,
                -1.1220205098164344,
                2.019306165916698,
                -0.8559671824921639,
                0.47596387242952726,
                3.159081874673826
            ]
        },
        {
            "positions": [
                -1.1915961411375768,
                -1.170871805063132,
                2.0084998169343016,
                -0.8004121433904996,
                0.6401899294934863,
                3.1592065962545113
            ]
        },
        {
            "positions": [
                -1.2879850746563597,
                -1.2197231003098297,
                1.9976934679519054,
                -0.7448571042888354,
                0.8044159865574452,
                3.1593313178351967
            ]
        },
        {
            "positions": [
                -1.3843740081751426,
                -1.2685743955565272,
                1.9868871189695092,
                -0.6893020651871712,
                0.9686420436214043,
                3.1594560394158817
            ]
        },
        {
            "positions": [
                -1.4807629416939254,
                -1.3174256908032247,
                1.9760807699871128,
                -0.6337470260855069,
                1.1328681006853631,
                3.159580760996567
            ]
        },
        {
            "positions": [
                -1.5771518752127085,
                -1.3662769860499224,
                1.9652744210047164,
                -0.5781919869838428,
                1.2970941577493222,
                3.1597054825772526
            ]
        },
        {
            "positions": [
                -1.6735408087314914,
                -1.41512828129662,
                1.9544680720223202,
                -0.5226369478821785,
                1.4613202148132811,
                3.159830204157938
            ]
        }
    ]
}