{
    "goal": {
        "global_pose": {
            "orientation": {
                "w": 0.005598929693374612,
                "x": 0.007748599140229565,
                "y": 0.7110244013736278,
                "z": -0.7031023480610252
            },
            "position": {
                "x": -0.8858502320852131,
                "y": -0.7141253447532654,
                "z": 0.3711530566215515
            }
        },
        "name": "move_to_auspresseinheit_C"
    },
    "id": "BKPIECE_move_to_auspresseinheit_C_63",
    "joint_names": [
        "shoulder_pan_joint",
        "shoulder_lift_joint",
        "elbow_joint",
        "wrist_1_joint",
        "wrist_2_joint",
        "wrist_3_joint"
    ],
    "metrics": {
        "cart_traj_len": 0.4931837001837025,
        "distance_elbow_joint": 1.009180528447955,
        "distance_shoulder_lift_joint": 0.32851185646306824,
        "distance_shoulder_pan_joint": 0.2563076449283237,
        "distance_wrist_1_joint": 0.7082142988159748,
        "distance_wrist_2_joint": 1.305420921563697,
        "distance_wrist_3_joint": 0.07169063443091339,
        "smoothness": 1.6148698667872622e-16,
        "time": 0.612968742,
        "traj_len": 1.9181568978188233,
        "weighted_distance": 2.4158523079632643
    },
    "planner": "BKPIECE",
    "start": {
        "state": {
            "elbow_joint": 1.752795957773711,
            "shoulder_lift_joint": -0.9740617694225064,
            "shoulder_pan_joint": -2.967991417825858,
            "wrist_1_joint": -0.7595177689806859,
            "wrist_2_joint": 1.7443932448377395,
            "wrist_3_joint": 3.199131542505932
        }
    },
    "waypoints": [
        {
            "positions": [
                -2.967991417825858,
                -0.9740617694225064,
                1.752795957773711,
                -0.7595177689806859,
                1.7443932448377395,
                3.199131542505932
            ]
        },
        {
            "positions": [
                -2.9423606533330258,
                -0.9412105837761996,
                1.6518779049289156,
                -0.6886963390990885,
                1.6138511526813697,
                3.1919624790628407
            ]
        },
        {
            "positions": [
                -2.916729888840193,
                -0.9083593981298927,
                1.5509598520841201,
                -0.6178749092174909,
                1.4833090605250001,
                3.1847934156197493
            ]
        },
        {
            "positions": [
                -2.891099124347361,
                -0.875508212483586,
                1.4500417992393246,
                -0.5470534793358934,
                1.3527669683686305,
                3.1776243521766583
            ]
        },
        {
            "positions": [
                -2.8654683598545283,
                -0.8426570268372792,
                1.3491237463945291,
                -0.476232049454296,
                1.2222248762122607,
                3.170455288733567
            ]
        },
        {
            "positions": [
                -2.839837595361696,
                -0.8098058411909723,
                1.2482056935497337,
                -0.4054106195726985,
                1.091682784055891,
                3.1632862252904754
            ]
        },
        {
            "positions": [
                -2.814206830868864,
                -0.7769546555446655,
                1.1472876407049382,
                -0.3345891896911011,
                0.9611406918995213,
                3.156117161847384
            ]
        },
        {
            "positions": [
                -2.7885760663760313,
                -0.7441034698983586,
                1.0463695878601427,
                -0.2637677598095036,
                0.8305985997431518,
                3.1489480984042926
            ]
        },
        {
            "positions": [
                -2.762945301883199,
                -0.7112522842520519,
                0.9454515350153472,
                -0.19294632992790606,
                0.700056507586782,
                3.1417790349612016
            ]
        },
        {
            "positions": [
                -2.7373145373903665,
                -0.6784010986057449,
                0.8445334821705517,
                -0.1221249000463086,
                0.5695144154304121,
                3.13460997151811
            ]
        },
        {
            "positions": [
                -2.7116837728975343,
                -0.6455499129594382,
                0.7436154293257562,
                -0.05130347016471117,
                0.43897232327404256,
                3.1274409080750187
            ]
        }
    ]
}