{
    "goal": {
        "global_pose": {
            "orientation": {
                "w": -0.00223480608172531,
                "x": 0.0024358444001904467,
                "y": 0.7094548369677653,
                "z": -0.704743149386269
            },
            "position": {
                "x": -0.37947507619857795,
                "y": -0.6371506643295288,
                "z": 0.19426114857196808
            }
        },
        "name": "move_to_magneteinheit_C"
    },
    "id": "BKPIECE_move_to_magneteinheit_C_107",
    "joint_names": [
        "shoulder_pan_joint",
        "shoulder_lift_joint",
        "elbow_joint",
        "wrist_1_joint",
        "wrist_2_joint",
        "wrist_3_joint"
    ],
    "metrics": {
        "cart_traj_len": 5.4877247700839344,
        "distance_elbow_joint": 9.83641018362556,
        "distance_shoulder_lift_joint": 2.736129644074426,
        "distance_shoulder_pan_joint": 1.3158707457294843,
        "distance_wrist_1_joint": 2.1611962103455316,
        "distance_wrist_2_joint": 1.94477482930015,
        "distance_wrist_3_joint": 7.022710809494956,
        "smoothness": 0.6277909269986574,
        "time": 1.242723897,
        "traj_len": 5.0017089502059315,
        "weighted_distance": 6.570272831565349
    },
    "planner": "BKPIECE",
    "start": {
        "state": {
            "elbow_joint": 1.9565354006590394,
            "shoulder_lift_joint": -1.4165861576513559,
            "shoulder_pan_joint": -1.6717766223277177,
            "wrist_1_joint": -0.5286633288215096,
            "wrist_2_joint": 1.4727565892594296,
            "wrist_3_joint": 3.1593482883155493
        }
    },
    "waypoints": [
        {
            "positions": [
                -1.6717766223277177,
                -1.4165861576513559,
                1.9565354006590394,
                -0.5286633288215096,
                1.4727565892594296,
                3.1593482883155493
            ]
        },
        {
            "positions": [
                -1.6933592380078923,
                -1.4897689938908951,
                1.8815451932040326,
                -0.5904148845542743,
                1.4196692494083472,
                3.107151942362793
            ]
        },
        {
            "positions": [
                -1.714941853688067,
                -1.5629518301304346,
                1.8065549857490257,
                -0.6521664402870391,
                1.3665819095572644,
                3.054955596410037
            ]
        },
        {
            "positions": [
                -1.7365244693682413,
                -1.6361346663699738,
                1.7315647782940187,
                -0.7139179960198037,
                1.313494569706182,
                3.002759250457281
            ]
        },
        {
            "positions": [
                -1.758107085048416,
                -1.7093175026095133,
                1.6565745708390118,
                -0.7756695517525685,
                1.2604072298550992,
                2.9505629045045247
            ]
        },
        {
            "positions": [
                -1.7796897007285906,
                -1.7825003388490526,
                1.581584363384005,
                -0.8374211074853332,
                1.2073198900040167,
                2.8983665585517686
            ]
        },
        {
            "positions": [
                -1.8103503714918043,
                -1.737356603431975,
                1.436831920606133,
                -0.8675985187957375,
                1.171907890628653,
                2.7934004937753913
            ]
        },
        {
            "positions": [
                -1.8410110422550183,
                -1.6922128680148971,
                1.2920794778282612,
                -0.8977759301061419,
                1.1364958912532892,
                2.688434428999014
            ]
        },
        {
            "positions": [
                -1.871671713018232,
                -1.6470691325978195,
                1.1473270350503895,
                -0.9279533414165462,
                1.1010838918779255,
                2.583468364222637
            ]
        },
        {
            "positions": [
                -1.902332383781446,
                -1.601925397180742,
                1.0025745922725176,
                -0.9581307527269506,
                1.0656718925025617,
                2.47850229944626
            ]
        },
        {
            "positions": [
                -1.9329930545446599,
                -1.5567816617636643,
                0.8578221494946456,
                -0.9883081640373549,
                1.030259893127198,
                2.3735362346698827
            ]
        },
        {
            "positions": [
                -1.9636537253078736,
                -1.5116379263465864,
                0.7130697067167738,
                -1.0184855753477593,
                0.9948478937518344,
                2.2685701698935055
            ]
        },
        {
            "positions": [
                -1.9943143960710876,
                -1.4664941909295088,
                0.568317263938902,
                -1.0486629866581636,
                0.9594358943764706,
                2.163604105117128
            ]
        },
        {
            "positions": [
                -2.0249750668343016,
                -1.4213504555124312,
                0.4235648211610301,
                -1.078840397968568,
                0.9240238950011068,
                2.058638040340751
            ]
        },
        {
            "positions": [
                -2.055635737597515,
                -1.3762067200953534,
                0.2788123783831582,
                -1.1090178092789724,
                0.888611895625743,
                1.9536719755643737
            ]
        },
        {
            "positions": [
                -2.086296408360729,
                -1.3310629846782758,
                0.13405993560528628,
                -1.1391952205893765,
                0.8531998962503793,
                1.8487059107879966
            ]
        },
        {
            "positions": [
                -2.116957079123943,
                -1.2859192492611982,
                -0.01069250717258563,
                -1.169372631899781,
                0.8177878968750156,
                1.7437398460116194
            ]
        },
        {
            "positions": [
                -2.147617749887157,
                -1.2407755138441203,
                -0.15544494995045732,
                -1.1995500432101853,
                0.7823758974996519,
                1.6387737812352423
            ]
        },
        {
            "positions": [
                -2.1782784206503707,
                -1.1956317784270427,
                -0.30019739272832924,
                -1.2297274545205896,
                0.7469638981242881,
                1.533807716458865
            ]
        },
        {
            "positions": [
                -2.2089390914135847,
                -1.150488043009965,
                -0.44494983550620093,
                -1.2599048658309941,
                0.7115518987489244,
                1.428841651682488
            ]
        },
        {
            "positions": [
                -2.2395997621767987,
                -1.1053443075928873,
                -0.5897022782840731,
                -1.2900822771413984,
                0.6761398993735606,
                1.3238755869061107
            ]
        },
        {
            "positions": [
                -2.2702604329400122,
                -1.0602005721758099,
                -0.7344547210619448,
                -1.3202596884518027,
                0.6407278999981969,
                1.2189095221297335
            ]
        },
        {
            "positions": [
                -2.3009211037032262,
                -1.015056836758732,
                -0.8792071638398165,
                -1.350437099762207,
                0.6053159006228331,
                1.1139434573533564
            ]
        },
        {
            "positions": [
                -2.33158177446644,
                -0.9699131013416543,
                -1.0239596066176886,
                -1.3806145110726114,
                0.5699039012474694,
                1.008977392576979
            ]
        },
        {
            "positions": [
                -2.362242445229654,
                -0.9247693659245767,
                -1.1687120493955603,
                -1.4107919223830159,
                0.5344919018721056,
                0.9040113278006019
            ]
        },
        {
            "positions": [
                -2.3929031159928678,
                -0.8796256305074991,
                -1.3134644921734324,
                -1.44096933369342,
                0.49907990249674195,
                0.7990452630242246
            ]
        },
        {
            "positions": [
                -2.4235637867560818,
                -0.8344818950904214,
                -1.4582169349513041,
                -1.4711467450038245,
                0.4636679031213782,
                0.6940791982478478
            ]
        },
        {
            "positions": [
                -2.4542244575192957,
                -0.7893381596733436,
                -1.6029693777291762,
                -1.501324156314229,
                0.4282559037460144,
                0.5891131334714701
            ]
        },
        {
            "positions": [
                -2.4848851282825093,
                -0.7441944242562659,
                -1.747721820507048,
                -1.531501567624633,
                0.39284390437065064,
                0.4841470686950933
            ]
        },
        {
            "positions": [
                -2.5155457990457233,
                -0.6990506888391883,
                -1.8924742632849196,
                -1.5616789789350376,
                0.357431904995287,
                0.379181003918716
            ]
        },
        {
            "positions": [
                -2.5462064698089373,
                -0.6539069534221107,
                -2.0372267060627913,
                -1.5918563902454417,
                0.3220199056199232,
                0.27421493914233874
            ]
        },
        {
            "positions": [
                -2.5768671405721513,
                -0.6087632180050329,
                -2.1819791488406635,
                -1.6220338015558462,
                0.28660790624455945,
                0.16924887436596148
            ]
        },
        {
            "positions": [
                -2.607527811335365,
                -0.5636194825879552,
                -2.326731591618535,
                -1.6522112128662505,
                0.2511959068691957,
                0.06428280958958421
            ]
        },
        {
            "positions": [
                -2.638188482098579,
                -0.5184757471708776,
                -2.471484034396407,
                -1.6823886241766548,
                0.21578390749383203,
                -0.04068325518679261
            ]
        },
        {
            "positions": [
                -2.6688491528617924,
                -0.4733320117538,
                -2.6162364771742785,
                -1.7125660354870593,
                0.18037190811846826,
                -0.14564931996316988
            ]
        },
        {
            "positions": [
                -2.6995098236250064,
                -0.4281882763367222,
                -2.760988919952151,
                -1.7427434467974636,
                0.14495990874310438,
                -0.25061538473954714
            ]
        },
        {
            "positions": [
                -2.7301704943882203,
                -0.38304454091964457,
                -2.905741362730023,
                -1.772920858107868,
                0.10954790936774073,
                -0.3555814495159244
            ]
        },
        {
            "positions": [
                -2.7241674253355574,
                -0.4155246743238995,
                -2.722467127987464,
                -1.7420552196435601,
                0.13097608288076254,
                -0.2425297950985937
            ]
        },
        {
            "positions": [
                -2.718164356282895,
                -0.44800480772815443,
                -2.539192893244906,
                -1.7111895811792526,
                0.15240425639378433,
                -0.129478140681263
            ]
        },
        {
            "positions": [
                -2.712161287230232,
                -0.4804849411324093,
                -2.3559186585023473,
                -1.6803239427149448,
                0.17383242990680614,
                -0.016426486263932283
            ]
        },
        {
            "positions": [
                -2.706158218177569,
                -0.5129650745366643,
                -2.1726444237597886,
                -1.6494583042506372,
                0.19526060341982793,
                0.09662516815339839
            ]
        },
        {
            "positions": [
                -2.7001551491249067,
                -0.5454452079409191,
                -1.9893701890172302,
                -1.6185926657863294,
                0.21668877693284974,
                0.20967682257072906
            ]
        },
        {
            "positions": [
                -2.694152080072244,
                -0.577925341345174,
                -1.8060959542746717,
                -1.5877270273220216,
                0.23811695044587156,
                0.32272847698805984
            ]
        },
        {
            "positions": [
                -2.688149011019581,
                -0.610405474749429,
                -1.622821719532113,
                -1.556861388857714,
                0.25954512395889334,
                0.4357801314053905
            ]
        },
        {
            "positions": [
                -2.6821459419669185,
                -0.6428856081536839,
                -1.4395474847895546,
                -1.5259957503934063,
                0.28097329747191513,
                0.5488317858227212
            ]
        },
        {
            "positions": [
                -2.6761428729142556,
                -0.6753657415579388,
                -1.2562732500469962,
                -1.4951301119290987,
                0.30240147098493697,
                0.661883440240052
            ]
        },
        {
            "positions": [
                -2.6701398038615927,
                -0.7078458749621936,
                -1.0729990153044375,
                -1.464264473464791,
                0.32382964449795876,
                0.7749350946573825
            ]
        },
        {
            "positions": [
                -2.66413673480893,
                -0.7403260083664487,
                -0.8897247805618793,
                -1.4333988350004834,
                0.34525781801098054,
                0.8879867490747133
            ]
        },
        {
            "positions": [
                -2.6581336657562673,
                -0.7728061417707035,
                -0.7064505458193207,
                -1.4025331965361756,
                0.3666859915240024,
                1.001038403492044
            ]
        },
        {
            "positions": [
                -2.6521305967036044,
                -0.8052862751749585,
                -0.523176311076762,
                -1.3716675580718678,
                0.3881141650370242,
                1.1140900579093747
            ]
        },
        {
            "positions": [
                -2.646127527650942,
                -0.8377664085792134,
                -0.33990207633420333,
                -1.3408019196075602,
                0.40954233855004596,
                1.2271417123267054
            ]
        },
        {
            "positions": [
                -2.640124458598279,
                -0.8702465419834684,
                -0.15662784159164467,
                -1.3099362811432524,
                0.4309705120630678,
                1.3401933667440362
            ]
        },
        {
            "positions": [
                -2.634121389545616,
                -0.9027266753877232,
                0.02664639315091355,
                -1.2790706426789449,
                0.4523986855760896,
                1.4532450211613668
            ]
        },
        {
            "positions": [
                -2.6281183204929537,
                -0.9352068087919782,
                0.2099206278934722,
                -1.248205004214637,
                0.47382685908911143,
                1.5662966755786978
            ]
        },
        {
            "positions": [
                -2.622115251440291,
                -0.9676869421962331,
                0.39319486263603043,
                -1.2173393657503295,
                0.4952550326021332,
                1.6793483299960283
            ]
        },
        {
            "positions": [
                -2.616112182387628,
                -1.000167075600488,
                0.5764690973785895,
                -1.1864737272860215,
                0.5166832061151551,
                1.792399984413359
            ]
        },
        {
            "positions": [
                -2.6101091133349654,
                -1.0326472090047427,
                0.7597433321211478,
                -1.155608088821714,
                0.5381113796281768,
                1.9054516388306895
            ]
        },
        {
            "positions": [
                -2.6041060442823025,
                -1.065127342408998,
                0.9430175668637064,
                -1.1247424503574064,
                0.5595395531411986,
                2.0185032932480205
            ]
        },
        {
            "positions": [
                -2.5981029752296396,
                -1.0976074758132528,
                1.1262918016062642,
                -1.0938768118930986,
                0.5809677266542204,
                2.131554947665351
            ]
        },
        {
            "positions": [
                -2.592099906176977,
                -1.1300876092175076,
                1.3095660363488237,
                -1.0630111734287908,
                0.6023959001672423,
                2.244606602082682
            ]
        },
        {
            "positions": [
                -2.5860968371243143,
                -1.1625677426217624,
                1.4928402710913815,
                -1.0321455349644832,
                0.623824073680264,
                2.3576582565000126
            ]
        },
        {
            "positions": [
                -2.5800937680716514,
                -1.1950478760260175,
                1.6761145058339402,
                -1.0012798965001755,
                0.6452522471932859,
                2.470709910917343
            ]
        },
        {
            "positions": [
                -2.574090699018989,
                -1.2275280094302725,
                1.8593887405764988,
                -0.9704142580358679,
                0.6666804207063076,
                2.5837615653346737
            ]
        },
        {
            "positions": [
                -2.568087629966326,
                -1.2600081428345273,
                2.042662975319057,
                -0.9395486195715601,
                0.6881085942193295,
                2.6968132197520047
            ]
        },
        {
            "positions": [
                -2.5203906253427824,
                -1.213110111318308,
                2.0297984342253494,
                -0.8977653983101272,
                0.6866058619408923,
                2.9245064209497835
            ]
        },
        {
            "positions": [
                -2.4726936207192387,
                -1.1662120798020887,
                2.0169338931316414,
                -0.8559821770486944,
                0.6851031296624553,
                3.1521996221475623
            ]
        }
    ]
}