{
    "goal": {
        "global_pose": {
            "orientation": {
                "w": 0.7031023502349854,
                "x": -0.7110244035720825,
                "y": 0.007748599164187908,
                "z": 0.005598929710686207
            },
            "position": {
                "x": 0.11585023208521307,
                "y": 0.44412534475326537,
                "z": 0.3711530566215515
            }
        },
        "name": "move_to_auspresseinheit_A"
    },
    "id": "BKPIECE_move_to_auspresseinheit_A_148",
    "joint_names": [
        "shoulder_pan_joint",
        "shoulder_lift_joint",
        "elbow_joint",
        "wrist_1_joint",
        "wrist_2_joint",
        "wrist_3_joint"
    ],
    "metrics": {
        "cart_traj_len": 1.7984086445522809,
        "distance_elbow_joint": 1.100001951028625,
        "distance_shoulder_lift_joint": 0.6738842297287926,
        "distance_shoulder_pan_joint": 2.2949593082785937,
        "distance_wrist_1_joint": 0.9309612592109451,
        "distance_wrist_2_joint": 2.837327024241347,
        "distance_wrist_3_joint": 3.20919825322066,
        "smoothness": 0.6906316337479876,
        "time": 0.175405477,
        "traj_len": 3.323602266473676,
        "weighted_distance": 4.607929775463443
    },
    "planner": "BKPIECE",
    "start": {
        "state": {
            "elbow_joint": 2.4225747245308327,
            "shoulder_lift_joint": -1.373653427065438,
            "shoulder_pan_joint": -0.33786330853087027,
            "wrist_1_joint": -1.0288602302712604,
            "wrist_2_joint": 1.23302299562683,
            "wrist_3_joint": -3.094021725338297
        }
    },
    "waypoints": [
        {
            "positions": [
                -0.33786330853087027,
                -1.373653427065438,
                2.4225747245308327,
                -1.0288602302712604,
                1.23302299562683,
                -3.094021725338297
            ]
        },
        {
            "positions": [
                -0.41582272508400475,
                -1.4141895596139735,
                2.4056759991019305,
                -0.9982562085570965,
                1.253628092339877,
                -2.8959270977238765
            ]
        },
        {
            "positions": [
                -0.4937821416371393,
                -1.454725692162509,
                2.388777273673028,
                -0.9676521868429327,
                1.274233189052924,
                -2.6978324701094554
            ]
        },
        {
            "positions": [
                -0.5717415581902738,
                -1.4952618247110445,
                2.3718785482441254,
                -0.937048165128769,
                1.2948382857659708,
                -2.4997378424950347
            ]
        },
        {
            "positions": [
                -0.6497009747434084,
                -1.5357979572595801,
                2.3549798228152232,
                -0.9064441434146051,
                1.315443382479018,
                -2.301643214880614
            ]
        },
        {
            "positions": [
                -0.7276603912965429,
                -1.5763340898081157,
                2.338081097386321,
                -0.8758401217004412,
                1.336048479192065,
                -2.1035485872661934
            ]
        },
        {
            "positions": [
                -0.8056198078496773,
                -1.6168702223566513,
                2.3211823719574185,
                -0.8452360999862775,
                1.356653575905112,
                -1.9054539596517726
            ]
        },
        {
            "positions": [
                -0.8835792244028118,
                -1.6574063549051867,
                2.304283646528516,
                -0.8146320782721137,
                1.3772586726181588,
                -1.7073593320373517
            ]
        },
        {
            "positions": [
                -0.9615386409559463,
                -1.6979424874537223,
                2.2873849210996138,
                -0.7840280565579498,
                1.397863769331206,
                -1.509264704422931
            ]
        },
        {
            "positions": [
                -0.8357880539396184,
                -1.7028190563962862,
                2.248376628941954,
                -0.8010415061702791,
                1.246565597477735,
                -1.5631469030364888
            ]
        },
        {
            "positions": [
                -0.7100374669232905,
                -1.70769562533885,
                2.2093683367842942,
                -0.8180549557826085,
                1.095267425624264,
                -1.6170291016500467
            ]
        },
        {
            "positions": [
                -0.5842868799069626,
                -1.7125721942814138,
                2.1703600446266345,
                -0.8350684053949378,
                0.9439692537707931,
                -1.6709113002636042
            ]
        },
        {
            "positions": [
                -0.4585362928906347,
                -1.7174487632239777,
                2.1313517524689747,
                -0.8520818550072672,
                0.792671081917322,
                -1.724793498877162
            ]
        },
        {
            "positions": [
                -0.3327857058743068,
                -1.7223253321665415,
                2.092343460311315,
                -0.8690953046195965,
                0.6413729100638511,
                -1.7786756974907199
            ]
        },
        {
            "positions": [
                -0.20703511885797887,
                -1.7272019011091053,
                2.053335168153655,
                -0.8861087542319258,
                0.4900747382103803,
                -1.8325578961042777
            ]
        },
        {
            "positions": [
                -0.08128453184165085,
                -1.7320784700516692,
                2.014326875995995,
                -0.9031222038442551,
                0.3387765663569091,
                -1.8864400947178355
            ]
        },
        {
            "positions": [
                0.044466055174676944,
                -1.736955038994233,
                1.9753185838383351,
                -0.9201356534565845,
                0.18747839450343817,
                -1.940322293331393
            ]
        },
        {
            "positions": [
                0.17021664219100496,
                -1.7418316079367968,
                1.9363102916806754,
                -0.9371491030689139,
                0.03618022264996723,
                -1.9942044919449509
            ]
        },
        {
            "positions": [
                0.29596722920733276,
                -1.7467081768793606,
                1.8973019995230156,
                -0.9541625526812432,
                -0.11511794920350371,
                -2.0480866905585087
            ]
        },
        {
            "positions": [
                0.4217178162236608,
                -1.7515847458219245,
                1.8582937073653558,
                -0.9711760022935725,
                -0.26641612105697454,
                -2.1019688891720665
            ]
        },
        {
            "positions": [
                0.44383375473111547,
                -1.7283155560209842,
                1.9260622590542855,
                -0.9676122948114153,
                -0.2697239067303888,
                -2.3065838880086607
            ]
        },
        {
            "positions": [
                0.4659496932385701,
                -1.705046366220044,
                1.9938308107432152,
                -0.9640485873292582,
                -0.27303169240380304,
                -2.5111988868452553
            ]
        },
        {
            "positions": [
                0.4880656317460248,
                -1.6817771764191036,
                2.061599362432145,
                -0.9604848798471011,
                -0.2763394780772173,
                -2.7158138856818494
            ]
        },
        {
            "positions": [
                0.5144148860054167,
                -1.6975092301295018,
                2.1095282932696486,
                -0.9134284358486199,
                -0.18271189862075282,
                -2.8051154307681108
            ]
        },
        {
            "positions": [
                0.5407641402648086,
                -1.7132412838399,
                2.157457224107152,
                -0.8663719918501387,
                -0.08908431916428833,
                -2.8944169758543716
            ]
        },
        {
            "positions": [
                0.5689276727036021,
                -1.7456881561980149,
                2.196883460294044,
                -0.8006758036303757,
                0.04608698820498133,
                -2.9342984693333474
            ]
        },
        {
            "positions": [
                0.5970912051423958,
                -1.7781350285561297,
                2.236309696480936,
                -0.7349796154106126,
                0.181258295574251,
                -2.9741799628123227
            ]
        },
        {
            "positions": [
                0.6252547375811894,
                -1.8105819009142445,
                2.275735932667828,
                -0.6692834271908497,
                0.3164296029435207,
                -3.0140614562912984
            ]
        },
        {
            "positions": [
                0.653418270019983,
                -1.8430287732723591,
                2.31516216885472,
                -0.6035872389710866,
                0.4516009103127903,
                -3.053942949770274
            ]
        },
        {
            "positions": [
                0.6815818024587765,
                -1.875475645630474,
                2.354588405041612,
                -0.5378910507513236,
                0.58677221768206,
                -3.0938244432492494
            ]
        },
        {
            "positions": [
                0.7097453348975702,
                -1.9079225179885888,
                2.394014641228504,
                -0.47219486253156057,
                0.7219435250513297,
                -3.133705936728225
            ]
        }
    ]
}