{
    "goal": {
        "global_pose": {
            "orientation": {
                "w": 0.7031023480610252,
                "x": -0.7110244013736278,
                "y": 0.0077485991402295624,
                "z": 0.005598929693374583
            },
            "position": {
                "x": -0.8841497679147869,
                "y": 0.44412534475326537,
                "z": 0.3711530566215515
            }
        },
        "name": "move_to_auspresseinheit_D"
    },
    "id": "BKPIECE_move_to_auspresseinheit_D_23",
    "joint_names": [
        "shoulder_pan_joint",
        "shoulder_lift_joint",
        "elbow_joint",
        "wrist_1_joint",
        "wrist_2_joint",
        "wrist_3_joint"
    ],
    "metrics": {
        "cart_traj_len": 3.690227400012628,
        "distance_elbow_joint": 3.1986788084872773,
        "distance_shoulder_lift_joint": 1.3903083029825396,
        "distance_shoulder_pan_joint": 2.7969383122676206,
        "distance_wrist_1_joint": 1.3179745943652126,
        "distance_wrist_2_joint": 0.8924828547917498,
        "distance_wrist_3_joint": 3.0612181058872823,
        "smoothness": 2.691449763376163e-16,
        "time": 0.882921556,
        "traj_len": 3.557752236845855,
        "weighted_distance": 4.581538457735919
    },
    "planner": "BKPIECE",
    "start": {
        "state": {
            "elbow_joint": 1.8268400409724999,
            "shoulder_lift_joint": -1.0144045787793008,
            "shoulder_pan_joint": 2.6280239544362485,
            "wrist_1_joint": -0.790705565816056,
            "wrist_2_joint": 1.0573557467365533,
            "wrist_3_joint": 3.1851377467193758
        }
    },
    "waypoints": [
        {
            "positions": [
                2.6280239544362485,
                -1.0144045787793008,
                1.8268400409724999,
                -0.790705565816056,
                1.0573557467365533,
                3.1851377467193758
            ]
        },
        {
            "positions": [
                2.5714063044853246,
                -1.0331547267598027,
                1.7155813409586758,
                -0.781802003784428,
                0.9979291315023722,
                3.0463304332714967
            ]
        },
        {
            "positions": [
                2.5147886545344007,
                -1.0519048747403046,
                1.6043226409448517,
                -0.7728984417528,
                0.938502516268191,
                2.9075231198236176
            ]
        },
        {
            "positions": [
                2.4581710045834764,
                -1.0706550227208063,
                1.4930639409310278,
                -0.763994879721172,
                0.8790759010340099,
                2.768715806375738
            ]
        },
        {
            "positions": [
                2.4015533546325525,
                -1.0894051707013082,
                1.3818052409172037,
                -0.755091317689544,
                0.8196492857998288,
                2.629908492927859
            ]
        },
        {
            "positions": [
                2.3449357046816286,
                -1.10815531868181,
                1.2705465409033796,
                -0.746187755657916,
                0.7602226705656476,
                2.4911011794799798
            ]
        },
        {
            "positions": [
                2.2740684318287205,
                -1.1362155657006228,
                1.1646375130277984,
                -0.7239903078298633,
                0.7141861809245189,
                2.3689430629434307
            ]
        },
        {
            "positions": [
                2.2032011589758125,
                -1.1642758127194353,
                1.0587284851522174,
                -0.7017928600018105,
                0.6681496912833902,
                2.246784946406882
            ]
        },
        {
            "positions": [
                2.132333886122904,
                -1.1923360597382477,
                0.9528194572766362,
                -0.6795954121737577,
                0.6221132016422616,
                2.1246268298703335
            ]
        },
        {
            "positions": [
                2.061466613269996,
                -1.2203963067570605,
                0.8469104294010552,
                -0.6573979643457051,
                0.5760767120011329,
                2.0024687133337844
            ]
        },
        {
            "positions": [
                1.9905993404170879,
                -1.2484565537758732,
                0.741001401525474,
                -0.6352005165176524,
                0.5300402223600041,
                1.8803105967972356
            ]
        },
        {
            "positions": [
                1.9197320675641798,
                -1.2765168007946857,
                0.6350923736498929,
                -0.6130030686895996,
                0.4840037327188755,
                1.7581524802606867
            ]
        },
        {
            "positions": [
                1.8202727139739154,
                -1.3302404236978835,
                0.5395242240706228,
                -0.5587043973925161,
                0.46880702601534824,
                1.680331868859325
            ]
        },
        {
            "positions": [
                1.720813360383651,
                -1.3839640466010814,
                0.44395607449135277,
                -0.5044057260954324,
                0.453610319311821,
                1.6025112574579634
            ]
        },
        {
            "positions": [
                1.6213540067933867,
                -1.437687669504279,
                0.34838792491208276,
                -0.45010705479834884,
                0.43841361260829376,
                1.5246906460566017
            ]
        },
        {
            "positions": [
                1.5218946532031223,
                -1.491411292407477,
                0.2528197753328127,
                -0.39580838350126524,
                0.4232169059047665,
                1.4468700346552401
            ]
        },
        {
            "positions": [
                1.422435299612858,
                -1.5451349153106748,
                0.15725162575354262,
                -0.34150971220418164,
                0.4080201992012392,
                1.3690494232538784
            ]
        },
        {
            "positions": [
                1.3229759460225936,
                -1.5988585382138727,
                0.06168347617427261,
                -0.28721104090709804,
                0.392823492497712,
                1.2912288118525166
            ]
        },
        {
            "positions": [
                1.2235165924323292,
                -1.6525821611170706,
                -0.033884673404997456,
                -0.23291236961001444,
                0.37762678579418474,
                1.213408200451155
            ]
        },
        {
            "positions": [
                1.1240572388420649,
                -1.7063057840202684,
                -0.12945282298426752,
                -0.17861369831293084,
                0.3624300790906575,
                1.1355875890497933
            ]
        },
        {
            "positions": [
                1.0245978852518005,
                -1.7600294069234663,
                -0.2250209725635376,
                -0.12431502701584723,
                0.34723337238713026,
                1.0577669776484315
            ]
        },
        {
            "positions": [
                0.9251385316615361,
                -1.813753029826664,
                -0.32058912214280766,
                -0.07001635571876363,
                0.332036665683603,
                0.9799463662470699
            ]
        },
        {
            "positions": [
                0.8256791780712716,
                -1.867476652729862,
                -0.4161572717220777,
                -0.015717684421679978,
                0.3168399589800758,
                0.9021257548457081
            ]
        },
        {
            "positions": [
                0.7262198244810074,
                -1.9212002756330597,
                -0.5117254213013477,
                0.03858098687540357,
                0.30164325227654853,
                0.8243051434443465
            ]
        },
        {
            "positions": [
                0.6267604708907428,
                -1.9749238985362578,
                -0.6072935708806179,
                0.09287965817248722,
                0.2864465455730213,
                0.7464845320429847
            ]
        },
        {
            "positions": [
                0.5273011173004787,
                -2.0286475214394555,
                -0.7028617204598878,
                0.14717832946957077,
                0.27124983886949405,
                0.6686639206416232
            ]
        },
        {
            "positions": [
                0.4278417637102141,
                -2.0823711443426536,
                -0.798429870039158,
                0.20147700076665442,
                0.2560531321659668,
                0.5908433092402614
            ]
        },
        {
            "positions": [
                0.32838241011994995,
                -2.1360947672458512,
                -0.893998019618428,
                0.25577567206373797,
                0.24085642546243954,
                0.5130226978388999
            ]
        },
        {
            "positions": [
                0.22892305652968536,
                -2.189818390149049,
                -0.9895661691976981,
                0.3100743433608216,
                0.22565971875891228,
                0.4352020864375381
            ]
        },
        {
            "positions": [
                0.12946370293942122,
                -2.243542013052247,
                -1.085134318776968,
                0.36437301465790517,
                0.2104630120553851,
                0.35738147503617634
            ]
        },
        {
            "positions": [
                0.030004349349156634,
                -2.2972656359554446,
                -1.1807024683562384,
                0.41867168595498894,
                0.1952663053518578,
                0.2795608636348146
            ]
        },
        {
            "positions": [
                -0.06945500424110751,
                -2.3509892588586423,
                -1.2762706179355083,
                0.47297035725207237,
                0.18006959864833055,
                0.20174025223345304
            ]
        },
        {
            "positions": [
                -0.16891435783137213,
                -2.4047128817618404,
                -1.3718387675147785,
                0.5272690285491561,
                0.1648728919448033,
                0.1239196408320914
            ]
        }
    ]
}