{
    "goal": {
        "global_pose": {
            "orientation": {
                "w": 0.7047431468963623,
                "x": -0.7094548344612122,
                "y": 0.0024358443915843964,
                "z": -0.0022348060738295317
            },
            "position": {
                "x": 0.6094750761985779,
                "y": 0.3671506643295288,
                "z": 0.19426114857196808
            }
        },
        "name": "move_to_magneteinheit_A"
    },
    "id": "BKPIECE_move_to_magneteinheit_A_139",
    "joint_names": [
        "shoulder_pan_joint",
        "shoulder_lift_joint",
        "elbow_joint",
        "wrist_1_joint",
        "wrist_2_joint",
        "wrist_3_joint"
    ],
    "metrics": {
        "cart_traj_len": 1.0532303493145494,
        "distance_elbow_joint": 0.3925564873236256,
        "distance_shoulder_lift_joint": 0.3606272586432935,
        "distance_shoulder_pan_joint": 1.242218741632371,
        "distance_wrist_1_joint": 2.2559945753043724,
        "distance_wrist_2_joint": 1.6915996485522289,
        "distance_wrist_3_joint": 1.1857756295620256,
        "smoothness": 4.674623298594705e-16,
        "time": 1.6484040420000001,
        "traj_len": 2.6699760937165555,
        "weighted_distance": 3.6671402787456286
    },
    "planner": "BKPIECE",
    "start": {
        "state": {
            "elbow_joint": 1.5739458966750683,
            "shoulder_lift_joint": -1.4977259741207325,
            "shoulder_pan_joint": -1.1188672016454206,
            "wrist_1_joint": 1.494575848278785,
            "wrist_2_joint": -1.5706037134824402,
            "wrist_3_joint": -2.0226957942261072
        }
    },
    "waypoints": [
        {
            "positions": [
                -1.1188672016454206,
                -1.4977259741207325,
                1.5739458966750683,
                1.494575848278785,
                -1.5706037134824402,
                -2.0226957942261072
            ]
        },
        {
            "positions": [
                -1.0498550493325112,
                -1.4776911264183272,
                1.5957545904152697,
                1.369242816317431,
                -1.4766259552295387,
                -2.0885722180906643
            ]
        },
        {
            "positions": [
                -0.9808428970196017,
                -1.4576562787159222,
                1.6175632841554712,
                1.243909784356077,
                -1.382648196976637,
                -2.1544486419552213
            ]
        },
        {
            "positions": [
                -0.9118307447066922,
                -1.437621431013517,
                1.6393719778956726,
                1.118576752394723,
                -1.2886704387237353,
                -2.220325065819778
            ]
        },
        {
            "positions": [
                -0.8428185923937827,
                -1.4175865833111116,
                1.6611806716358741,
                0.993243720433369,
                -1.1946926804708338,
                -2.286201489684335
            ]
        },
        {
            "positions": [
                -0.7738064400808732,
                -1.3975517356087066,
                1.6829893653760755,
                0.8679106884720148,
                -1.1007149222179322,
                -2.352077913548892
            ]
        },
        {
            "positions": [
                -0.7047942877679637,
                -1.3775168879063013,
                1.7047980591162768,
                0.7425776565106609,
                -1.0067371639650307,
                -2.417954337413449
            ]
        },
        {
            "positions": [
                -0.6357821354550541,
                -1.357482040203896,
                1.7266067528564784,
                0.6172446245493068,
                -0.912759405712129,
                -2.483830761278006
            ]
        },
        {
            "positions": [
                -0.5667699831421447,
                -1.337447192501491,
                1.7484154465966797,
                0.4919115925879529,
                -0.8187816474592274,
                -2.5497071851425632
            ]
        },
        {
            "positions": [
                -0.4977578308292352,
                -1.3174123447990858,
                1.770224140336881,
                0.36657856062659877,
                -0.7248038892063258,
                -2.6155836090071203
            ]
        },
        {
            "positions": [
                -0.4287456785163257,
                -1.2973774970966805,
                1.7920328340770826,
                0.24124552866524462,
                -0.6308261309534241,
                -2.6814600328716773
            ]
        },
        {
            "positions": [
                -0.35973352620341614,
                -1.2773426493942754,
                1.813841527817284,
                0.1159124967038907,
                -0.5368483727005224,
                -2.747336456736234
            ]
        },
        {
            "positions": [
                -0.2907213738905068,
                -1.2573078016918702,
                1.8356502215574855,
                -0.009420535257463225,
                -0.4428706144476211,
                -2.813212880600791
            ]
        },
        {
            "positions": [
                -0.2217092215775972,
                -1.237272953989465,
                1.8574589152976868,
                -0.13475356721881737,
                -0.3488928561947193,
                -2.879089304465348
            ]
        },
        {
            "positions": [
                -0.15269706926468773,
                -1.2172381062870599,
                1.8792676090378881,
                -0.2600865991801713,
                -0.25491509794181777,
                -2.944965728329905
            ]
        },
        {
            "positions": [
                -0.08368491695177815,
                -1.1972032585846546,
                1.9010763027780897,
                -0.38541963114152544,
                -0.160937339688916,
                -3.0108421521944617
            ]
        },
        {
            "positions": [
                -0.014672764638868685,
                -1.1771684108822495,
                1.922884996518291,
                -0.5107526631028791,
                -0.06695958143601466,
                -3.0767185760590188
            ]
        },
        {
            "positions": [
                0.054339387674040784,
                -1.1571335631798443,
                1.9446936902584926,
                -0.6360856950642335,
                0.02701817681688712,
                -3.142594999923576
            ]
        },
        {
            "positions": [
                0.12335153998695032,
                -1.137098715477439,
                1.966502383998694,
                -0.7614187270255874,
                0.12099593506978862,
                -3.208471423788133
            ]
        }
    ]
}