{
    "goal": {
        "global_pose": {
            "orientation": {
                "w": -0.4816463035849501,
                "x": 0.5182115481033762,
                "y": 0.4908360881923453,
                "z": -0.5084816262002911
            },
            "position": {
                "x": -0.8240239810943604,
                "y": -0.300875300988555,
                "z": 0.16403168439865112
            }
        },
        "name": "move_to_storage_C"
    },
    "id": "BKPIECE_move_to_storage_C_111",
    "joint_names": [
        "shoulder_pan_joint",
        "shoulder_lift_joint",
        "elbow_joint",
        "wrist_1_joint",
        "wrist_2_joint",
        "wrist_3_joint"
    ],
    "metrics": {
        "cart_traj_len": 0.575780469352937,
        "distance_elbow_joint": 0.25876535196134753,
        "distance_shoulder_lift_joint": 0.18924992731055712,
        "distance_shoulder_pan_joint": 0.4944296736496816,
        "distance_wrist_1_joint": 0.08597696172808278,
        "distance_wrist_2_joint": 1.0646516188822557,
        "distance_wrist_3_joint": 0.07484226547270456,
        "smoothness": 0.0,
        "time": 2.092651661,
        "traj_len": 1.472384392407305,
        "weighted_distance": 1.86231815503162
    },
    "planner": "BKPIECE",
    "start": {
        "state": {
            "elbow_joint": 2.010868315001653,
            "shoulder_lift_joint": -1.1634956873357014,
            "shoulder_pan_joint": -2.4736205022346103,
            "wrist_1_joint": -0.8367026794713948,
            "wrist_2_joint": 0.6746043897044093,
            "wrist_3_joint": 3.1335220948105738
        }
    },
    "waypoints": [
        {
            "positions": [
                -2.4736205022346103,
                -1.1634956873357014,
                2.010868315001653,
                -0.8367026794713948,
                0.6746043897044093,
                3.1335220948105738
            ]
        },
        {
            "positions": [
                -2.5560254478428908,
                -1.131954032783942,
                1.9677407563414284,
                -0.8223731858500476,
                0.8520463261847853,
                3.1459958057226913
            ]
        },
        {
            "positions": [
                -2.638430393451171,
                -1.1004123782321824,
                1.924613197681204,
                -0.8080436922287005,
                1.0294882626651611,
                3.1584695166348085
            ]
        },
        {
            "positions": [
                -2.720835339059451,
                -1.068870723680423,
                1.8814856390209793,
                -0.7937141986073534,
                1.2069301991455372,
                3.170943227546926
            ]
        },
        {
            "positions": [
                -2.8032402846677313,
                -1.0373290691286634,
                1.8383580803607547,
                -0.7793847049860062,
                1.384372135625913,
                3.1834169384590436
            ]
        },
        {
            "positions": [
                -2.885645230276012,
                -1.0057874145769037,
                1.7952305217005302,
                -0.7650552113646591,
                1.561814072106289,
                3.1958906493711607
            ]
        },
        {
            "positions": [
                -2.968050175884292,
                -0.9742457600251443,
                1.7521029630403055,
                -0.750725717743312,
                1.7392560085866648,
                3.2083643602832783
            ]
        }
    ]
}