{
    "goal": {
        "global_pose": {
            "orientation": {
                "w": 0.7047431468963623,
                "x": -0.7094548344612122,
                "y": 0.0024358443915843964,
                "z": -0.0022348060738295317
            },
            "position": {
                "x": 0.6094750761985779,
                "y": 0.3671506643295288,
                "z": 0.19426114857196808
            }
        },
        "name": "move_to_magneteinheit_A"
    },
    "id": "BKPIECE_move_to_magneteinheit_A_106",
    "joint_names": [
        "shoulder_pan_joint",
        "shoulder_lift_joint",
        "elbow_joint",
        "wrist_1_joint",
        "wrist_2_joint",
        "wrist_3_joint"
    ],
    "metrics": {
        "cart_traj_len": 1.0531331270875495,
        "distance_elbow_joint": 0.3772395595316118,
        "distance_shoulder_lift_joint": 0.3689818818466015,
        "distance_shoulder_pan_joint": 1.2409209993434878,
        "distance_wrist_1_joint": 2.1902544496603613,
        "distance_wrist_2_joint": 1.6927094767356783,
        "distance_wrist_3_joint": 1.2457958205434343,
        "smoothness": 2.8047739791568236e-16,
        "time": 0.109674488,
        "traj_len": 2.667564842259917,
        "weighted_distance": 3.6729358495819233
    },
    "planner": "BKPIECE",
    "start": {
        "state": {
            "elbow_joint": 1.5739458966750683,
            "shoulder_lift_joint": -1.4977259741207325,
            "shoulder_pan_joint": -1.1188672016454206,
            "wrist_1_joint": 1.494575848278785,
            "wrist_2_joint": -1.5706037134824402,
            "wrist_3_joint": -2.0226957942261072
        }
    },
    "waypoints": [
        {
            "positions": [
                -1.1188672016454206,
                -1.4977259741207325,
                1.5739458966750683,
                1.494575848278785,
                -1.5706037134824402,
                -2.0226957942261072
            ]
        },
        {
            "positions": [
                -1.049927146126338,
                -1.4772269806848102,
                1.59490364998238,
                1.372895045519876,
                -1.4765642981082359,
                -2.091906673145187
            ]
        },
        {
            "positions": [
                -0.9809870906072553,
                -1.4567279872488879,
                1.6158614032896919,
                1.2512142427609672,
                -1.3825248827340315,
                -2.1611175520642667
            ]
        },
        {
            "positions": [
                -0.9120470350881726,
                -1.4362289938129655,
                1.6368191565970036,
                1.1295334400020582,
                -1.2884854673598272,
                -2.2303284309833464
            ]
        },
        {
            "positions": [
                -0.84310697956909,
                -1.4157300003770432,
                1.6577769099043154,
                1.007852637243149,
                -1.1944460519856228,
                -2.2995393099024257
            ]
        },
        {
            "positions": [
                -0.7741669240500073,
                -1.395231006941121,
                1.6787346632116271,
                0.8861718344842402,
                -1.1004066366114185,
                -2.3687501888215055
            ]
        },
        {
            "positions": [
                -0.7052268685309248,
                -1.3747320135051986,
                1.6996924165189389,
                0.7644910317253313,
                -1.0063672212372141,
                -2.437961067740585
            ]
        },
        {
            "positions": [
                -0.636286813011842,
                -1.3542330200692763,
                1.7206501698262506,
                0.6428102289664223,
                -0.9123278058630098,
                -2.507171946659665
            ]
        },
        {
            "positions": [
                -0.5673467574927594,
                -1.333734026633354,
                1.7416079231335624,
                0.5211294262075133,
                -0.8182883904888054,
                -2.5763828255787447
            ]
        },
        {
            "positions": [
                -0.49840670197367676,
                -1.3132350331974316,
                1.7625656764408744,
                0.3994486234486043,
                -0.7242489751146011,
                -2.6455937044978244
            ]
        },
        {
            "positions": [
                -0.4294666464545941,
                -1.2927360397615093,
                1.7835234297481861,
                0.2777678206896954,
                -0.6302095597403967,
                -2.714804583416904
            ]
        },
        {
            "positions": [
                -0.3605265909355114,
                -1.272237046325587,
                1.8044811830554979,
                0.15608701793078628,
                -0.5361701443661924,
                -2.784015462335984
            ]
        },
        {
            "positions": [
                -0.29158653541642887,
                -1.2517380528896649,
                1.8254389363628096,
                0.034406215171877585,
                -0.442130728991988,
                -2.8532263412550636
            ]
        },
        {
            "positions": [
                -0.2226464798973462,
                -1.2312390594537426,
                1.8463966896701214,
                -0.08727458758703155,
                -0.34809131361778367,
                -2.9224372201741433
            ]
        },
        {
            "positions": [
                -0.15370642437826343,
                -1.2107400660178202,
                1.8673544429774331,
                -0.20895539034594046,
                -0.2540518982435793,
                -2.991648099093223
            ]
        },
        {
            "positions": [
                -0.08476636885918087,
                -1.190241072581898,
                1.888312196284745,
                -0.3306361931048496,
                -0.16001248286937497,
                -3.0608589780123028
            ]
        },
        {
            "positions": [
                -0.015826313340098208,
                -1.1697420791459756,
                1.9092699495920566,
                -0.4523169958637583,
                -0.06597306749517062,
                -3.130069856931382
            ]
        },
        {
            "positions": [
                0.05311374217898446,
                -1.1492430857100533,
                1.9302277028993684,
                -0.5739977986226672,
                0.028066347879033726,
                -3.199280735850462
            ]
        },
        {
            "positions": [
                0.1220537976980671,
                -1.128744092274131,
                1.9511854562066802,
                -0.6956786013815762,
                0.1221057632532381,
                -3.2684916147695415
            ]
        }
    ]
}