{
    "goal": {
        "global_pose": {
            "orientation": {
                "w": 0.7031023502349854,
                "x": -0.7110244035720825,
                "y": 0.007748599164187908,
                "z": 0.005598929710686207
            },
            "position": {
                "x": 0.11585023208521307,
                "y": 0.44412534475326537,
                "z": 0.3711530566215515
            }
        },
        "name": "move_to_auspresseinheit_A"
    },
    "id": "BKPIECE_move_to_auspresseinheit_A_79",
    "joint_names": [
        "shoulder_pan_joint",
        "shoulder_lift_joint",
        "elbow_joint",
        "wrist_1_joint",
        "wrist_2_joint",
        "wrist_3_joint"
    ],
    "metrics": {
        "cart_traj_len": 0.8011227687068952,
        "distance_elbow_joint": 0.31481368453140046,
        "distance_shoulder_lift_joint": 0.5379966054509624,
        "distance_shoulder_pan_joint": 1.049415172793771,
        "distance_wrist_1_joint": 0.6437427833464858,
        "distance_wrist_2_joint": 0.5319833402729214,
        "distance_wrist_3_joint": 0.0643043187920469,
        "smoothness": 1.5983870511272462,
        "time": 1.17260716,
        "traj_len": 1.7726409408528248,
        "weighted_distance": 2.1086940665708456
    },
    "planner": "BKPIECE",
    "start": {
        "state": {
            "elbow_joint": 2.4225747245308327,
            "shoulder_lift_joint": -1.373653427065438,
            "shoulder_pan_joint": -0.33786330853087027,
            "wrist_1_joint": -1.0288602302712604,
            "wrist_2_joint": 1.23302299562683,
            "wrist_3_joint": -3.094021725338297
        }
    },
    "waypoints": [
        {
            "positions": [
                -0.33786330853087027,
                -1.373653427065438,
                2.4225747245308327,
                -1.0288602302712604,
                1.23302299562683,
                -3.094021725338297
            ]
        },
        {
            "positions": [
                -0.34124312139440033,
                -1.3728814320072944,
                2.4164535226558614,
                -1.0288777584850015,
                1.2286774431102865,
                -3.086410017711953
            ]
        },
        {
            "positions": [
                -0.20976958102225735,
                -1.456299458255932,
                2.3910652725840933,
                -0.9582286589781878,
                1.1448912721512507,
                -3.0849867785441942
            ]
        },
        {
            "positions": [
                -0.07829604065011436,
                -1.5397174845045698,
                2.365677022512325,
                -0.887579559471374,
                1.0611051011922152,
                -3.083563539376436
            ]
        },
        {
            "positions": [
                0.05317749972202862,
                -1.6231355107532073,
                2.340288772440557,
                -0.8169304599645603,
                0.9773189302331795,
                -3.0821403002086774
            ]
        },
        {
            "positions": [
                0.1846510400941716,
                -1.706553537001845,
                2.314900522368789,
                -0.7462813604577465,
                0.8935327592741439,
                -3.0807170610409185
            ]
        },
        {
            "positions": [
                0.3161245804663146,
                -1.7899715632504827,
                2.2895122722970207,
                -0.6756322609509328,
                0.8097465883151082,
                -3.0792938218731596
            ]
        },
        {
            "positions": [
                0.4475981208384576,
                -1.8733895894991204,
                2.2641240222252526,
                -0.604983161444119,
                0.7259604173560725,
                -3.077870582705401
            ]
        },
        {
            "positions": [
                0.503785786865468,
                -1.8962156527344645,
                2.4089634658473242,
                -0.6534640708490916,
                0.7245844233226517,
                -3.1211502610165005
            ]
        },
        {
            "positions": [
                0.6042890127006544,
                -1.903160847567289,
                2.40320169654545,
                -0.5677891965056469,
                0.7128120393382802,
                -3.1235870099405263
            ]
        },
        {
            "positions": [
                0.7047922385358406,
                -1.9101060424001133,
                2.3974399272435756,
                -0.48211432216220207,
                0.7010396553539086,
                -3.126023758864552
            ]
        }
    ]
}