{
    "goal": {
        "global_pose": {
            "orientation": {
                "w": 0.7031023480610252,
                "x": -0.7110244013736278,
                "y": 0.0077485991402295624,
                "z": 0.005598929693374583
            },
            "position": {
                "x": -0.8841497679147869,
                "y": 0.44412534475326537,
                "z": 0.3711530566215515
            }
        },
        "name": "move_to_auspresseinheit_D"
    },
    "id": "BKPIECE_move_to_auspresseinheit_D_129",
    "joint_names": [
        "shoulder_pan_joint",
        "shoulder_lift_joint",
        "elbow_joint",
        "wrist_1_joint",
        "wrist_2_joint",
        "wrist_3_joint"
    ],
    "metrics": {
        "cart_traj_len": 3.7154322113787575,
        "distance_elbow_joint": 2.9966062067426975,
        "distance_shoulder_lift_joint": 1.244525837599146,
        "distance_shoulder_pan_joint": 2.7962017229065435,
        "distance_wrist_1_joint": 2.1425444529244455,
        "distance_wrist_2_joint": 1.2359984193793985,
        "distance_wrist_3_joint": 6.223203668622599,
        "smoothness": 0.02376335178023222,
        "time": 1.389364888,
        "traj_len": 4.079102880312634,
        "weighted_distance": 5.697721519846674
    },
    "planner": "BKPIECE",
    "start": {
        "state": {
            "elbow_joint": 1.8268400409724999,
            "shoulder_lift_joint": -1.0144045787793008,
            "shoulder_pan_joint": 2.6280239544362485,
            "wrist_1_joint": -0.790705565816056,
            "wrist_2_joint": 1.0573557467365533,
            "wrist_3_joint": 3.1851377467193758
        }
    },
    "waypoints": [
        {
            "positions": [
                2.6280239544362485,
                -1.0144045787793008,
                1.8268400409724999,
                -0.790705565816056,
                1.0573557467365533,
                3.1851377467193758
            ]
        },
        {
            "positions": [
                2.6091478648946564,
                -1.0525773933060047,
                1.8005676895226637,
                -0.7978854078902851,
                1.066626512617424,
                3.0658107083250594
            ]
        },
        {
            "positions": [
                2.5521585515969147,
                -1.0866013288169842,
                1.7269522189150681,
                -0.8106242672126521,
                1.030422787427848,
                2.8941233273571103
            ]
        },
        {
            "positions": [
                2.495169238299173,
                -1.1206252643279637,
                1.6533367483074723,
                -0.8233631265350192,
                0.9942190622382718,
                2.722435946389161
            ]
        },
        {
            "positions": [
                2.4381799250014318,
                -1.154649199838943,
                1.5797212776998768,
                -0.8361019858573862,
                0.9580153370486958,
                2.5507485654212125
            ]
        },
        {
            "positions": [
                2.38119061170369,
                -1.1886731353499225,
                1.506105807092281,
                -0.8488408451797532,
                0.9218116118591198,
                2.3790611844532634
            ]
        },
        {
            "positions": [
                2.3242012984059484,
                -1.222697070860902,
                1.4324903364846855,
                -0.8615797045021203,
                0.8856078866695437,
                2.2073738034853143
            ]
        },
        {
            "positions": [
                2.2871582108723727,
                -1.2414606837092736,
                1.3878109137974812,
                -0.8731152306494282,
                0.8640422790503381,
                2.109117485504001
            ]
        },
        {
            "positions": [
                2.2501151233387966,
                -1.2602242965576456,
                1.3431314911102767,
                -0.8846507567967361,
                0.8424766714311327,
                2.010861167522688
            ]
        },
        {
            "positions": [
                2.182940320788544,
                -1.2879661332193344,
                1.2733287784191525,
                -0.9415562918507296,
                0.8146272877557927,
                1.8706131928164127
            ]
        },
        {
            "positions": [
                2.1157655182382915,
                -1.3157079698810235,
                1.2035260657280282,
                -0.9984618269047231,
                0.7867779040804529,
                1.7303652181101374
            ]
        },
        {
            "positions": [
                2.048590715688039,
                -1.3434498065427123,
                1.1337233530369037,
                -1.0553673619587165,
                0.7589285204051129,
                1.590117243403862
            ]
        },
        {
            "positions": [
                1.9814159131377864,
                -1.3711916432044013,
                1.0639206403457795,
                -1.11227289701271,
                0.7310791367297731,
                1.4498692686975867
            ]
        },
        {
            "positions": [
                1.9142411105875339,
                -1.3989334798660902,
                0.9941179276546552,
                -1.1691784320667036,
                0.7032297530544331,
                1.3096212939913112
            ]
        },
        {
            "positions": [
                1.8470663080372813,
                -1.426675316527779,
                0.924315214963531,
                -1.226083967120697,
                0.6753803693790932,
                1.169373319285036
            ]
        },
        {
            "positions": [
                1.7798915054870288,
                -1.454417153189468,
                0.8545125022724066,
                -1.2829895021746904,
                0.6475309857037533,
                1.0291253445787607
            ]
        },
        {
            "positions": [
                1.7127167029367762,
                -1.482158989851157,
                0.7847097895812823,
                -1.339895037228684,
                0.6196816020284134,
                0.8888773698724854
            ]
        },
        {
            "positions": [
                1.6455419003865237,
                -1.5099008265128457,
                0.714907076890158,
                -1.3968005722826775,
                0.5918322183530735,
                0.74862939516621
            ]
        },
        {
            "positions": [
                1.5783670978362712,
                -1.5376426631745348,
                0.6451043641990336,
                -1.453706107336671,
                0.5639828346777336,
                0.6083814204599345
            ]
        },
        {
            "positions": [
                1.5111922952860184,
                -1.5653844998362239,
                0.5753016515079094,
                -1.5106116423906646,
                0.5361334510023936,
                0.4681334457536592
            ]
        },
        {
            "positions": [
                1.444017492735766,
                -1.5931263364979125,
                0.5054989388167851,
                -1.567517177444658,
                0.5082840673270538,
                0.32788547104738397
            ]
        },
        {
            "positions": [
                1.3768426901855135,
                -1.6208681731596015,
                0.4356962261256607,
                -1.6244227124986514,
                0.4804346836517138,
                0.1876374963411087
            ]
        },
        {
            "positions": [
                1.3096678876352608,
                -1.6486100098212906,
                0.36589351343453647,
                -1.681328247552645,
                0.4525852999763739,
                0.04738952163483323
            ]
        },
        {
            "positions": [
                1.2424930850850082,
                -1.6763518464829794,
                0.296090800743412,
                -1.7382337826066385,
                0.42473591630103397,
                -0.09285845307144225
            ]
        },
        {
            "positions": [
                1.1753182825347557,
                -1.7040936831446682,
                0.22628808805228795,
                -1.7951393176606318,
                0.3968865326256941,
                -0.23310642777771706
            ]
        },
        {
            "positions": [
                1.1081434799845031,
                -1.7318355198063573,
                0.15648537536116347,
                -1.8520448527146254,
                0.36903714895035417,
                -0.37335440248399276
            ]
        },
        {
            "positions": [
                1.0409686774342506,
                -1.7595773564680461,
                0.08668266267003921,
                -1.908950387768619,
                0.34118776527501427,
                -0.513602377190268
            ]
        },
        {
            "positions": [
                0.973793874883998,
                -1.787319193129735,
                0.016879949978914954,
                -1.9658559228226125,
                0.3133383815996743,
                -0.6538503518965433
            ]
        },
        {
            "positions": [
                0.9066190723337455,
                -1.815061029791424,
                -0.052922762712209526,
                -2.022761457876606,
                0.28548899792433446,
                -0.794098326602819
            ]
        },
        {
            "positions": [
                0.8394442697834927,
                -1.842802866453113,
                -0.12272547540333378,
                -2.0796669929305995,
                0.2576396142489945,
                -0.9343463013090942
            ]
        },
        {
            "positions": [
                0.7722694672332402,
                -1.870544703114802,
                -0.19252818809445804,
                -2.136572527984593,
                0.22979023057365455,
                -1.0745942760153695
            ]
        },
        {
            "positions": [
                0.7050946646829879,
                -1.8982865397764908,
                -0.2623309007855823,
                -2.193478063038586,
                0.2019408468983147,
                -1.2148422507216443
            ]
        },
        {
            "positions": [
                0.6379198621327353,
                -1.9260283764381796,
                -0.33213361347670656,
                -2.2503835980925797,
                0.17409146322297486,
                -1.35509022542792
            ]
        },
        {
            "positions": [
                0.5707450595824828,
                -1.9537702130998684,
                -0.4019363261678308,
                -2.3072891331465732,
                0.1462420795476349,
                -1.4953382001341953
            ]
        },
        {
            "positions": [
                0.5035702570322302,
                -1.9815120497615575,
                -0.4717390388589553,
                -2.364194668200567,
                0.11839269587229495,
                -1.6355861748404705
            ]
        },
        {
            "positions": [
                0.4363954544819775,
                -2.0092538864232465,
                -0.5415417515500796,
                -2.4211002032545603,
                0.090543312196955,
                -1.7758341495467458
            ]
        },
        {
            "positions": [
                0.36922065193172493,
                -2.036995723084935,
                -0.6113444642412038,
                -2.478005738308554,
                0.06269392852161515,
                -1.9160821242530215
            ]
        },
        {
            "positions": [
                0.3020458493814724,
                -2.064737559746624,
                -0.6811471769323283,
                -2.5349112733625474,
                0.034844544846275194,
                -2.056330098959297
            ]
        },
        {
            "positions": [
                0.23487104683121984,
                -2.0924793964083133,
                -0.7509498896234528,
                -2.591816808416541,
                0.006995161170935238,
                -2.1965780736655725
            ]
        },
        {
            "positions": [
                0.1676962442809673,
                -2.1202212330700023,
                -0.8207526023145768,
                -2.6487223434705345,
                -0.020854222504404607,
                -2.3368260483718477
            ]
        },
        {
            "positions": [
                0.10052144173071476,
                -2.147963069731691,
                -0.8905553150057008,
                -2.7056278785245276,
                -0.04870360617974445,
                -2.477074023078122
            ]
        },
        {
            "positions": [
                0.03334663918046221,
                -2.17570490639338,
                -0.9603580276968253,
                -2.762533413578521,
                -0.07655298985508441,
                -2.6173219977843982
            ]
        },
        {
            "positions": [
                -0.03382816336979033,
                -2.2034467430550686,
                -1.0301607403879498,
                -2.8194389486325147,
                -0.10440237353042436,
                -2.7575699724906735
            ]
        },
        {
            "positions": [
                -0.10100296592004288,
                -2.2311885797167577,
                -1.0999634530790738,
                -2.876344483686508,
                -0.1322517572057642,
                -2.8978179471969487
            ]
        },
        {
            "positions": [
                -0.16817776847029536,
                -2.2589304163784467,
                -1.169766165770198,
                -2.9332500187405017,
                -0.16010114088110414,
                -3.038065921903224
            ]
        }
    ]
}