{
    "goal": {
        "global_pose": {
            "orientation": {
                "w": -0.00223480608172531,
                "x": 0.0024358444001904467,
                "y": 0.7094548369677653,
                "z": -0.704743149386269
            },
            "position": {
                "x": 0.6205249238014221,
                "y": -0.6371506643295288,
                "z": 0.19426114857196808
            }
        },
        "name": "move_to_magneteinheit_B"
    },
    "id": "BKPIECE_move_to_magneteinheit_B_33",
    "joint_names": [
        "shoulder_pan_joint",
        "shoulder_lift_joint",
        "elbow_joint",
        "wrist_1_joint",
        "wrist_2_joint",
        "wrist_3_joint"
    ],
    "metrics": {
        "cart_traj_len": 3.5435475168318944,
        "distance_elbow_joint": 4.063654444125842,
        "distance_shoulder_lift_joint": 0.568062690538367,
        "distance_shoulder_pan_joint": 2.666334227837496,
        "distance_wrist_1_joint": 1.444901395523226,
        "distance_wrist_2_joint": 1.3993210684454294,
        "distance_wrist_3_joint": 3.392953667493517,
        "smoothness": 0.23585258926984237,
        "time": 1.488804706,
        "traj_len": 3.679025345653911,
        "weighted_distance": 4.8130403377615245
    },
    "planner": "BKPIECE",
    "start": {
        "state": {
            "elbow_joint": 2.3935871308073637,
            "shoulder_lift_joint": -1.9085141043777403,
            "shoulder_pan_joint": 0.7066247067284167,
            "wrist_1_joint": -0.46782909355067076,
            "wrist_2_joint": 0.7096259085804283,
            "wrist_3_joint": -3.1358149275257428
        }
    },
    "waypoints": [
        {
            "positions": [
                0.7066247067284167,
                -1.9085141043777403,
                2.3935871308073637,
                -0.46782909355067076,
                0.7096259085804283,
                -3.1358149275257428
            ]
        },
        {
            "positions": [
                0.7107776178781028,
                -1.9091440759286034,
                2.3825364058973726,
                -0.4339631406065712,
                0.6845537053943154,
                -3.071183428841639
            ]
        },
        {
            "positions": [
                0.7182849126687493,
                -1.9099313001465401,
                2.348682855815376,
                -0.3568264298371319,
                0.6266516493951163,
                -2.9196835892441846
            ]
        },
        {
            "positions": [
                0.7257922074593957,
                -1.9107185243644769,
                2.31482930573338,
                -0.2796897190676926,
                0.5687495933959172,
                -2.76818374964673
            ]
        },
        {
            "positions": [
                0.7332995022500421,
                -1.9115057485824136,
                2.280975755651384,
                -0.2025530082982533,
                0.5108475373967183,
                -2.616683910049276
            ]
        },
        {
            "positions": [
                0.7408067970406886,
                -1.9122929728003504,
                2.2471222055693874,
                -0.125416297528814,
                0.4529454813975192,
                -2.4651840704518215
            ]
        },
        {
            "positions": [
                0.7703529508894107,
                -1.9122344960733577,
                2.1504043859738378,
                -0.07633131940748661,
                0.40423768146797656,
                -2.319790760022019
            ]
        },
        {
            "positions": [
                0.8639545393951997,
                -1.916646250776005,
                1.9915618511058795,
                -0.06389602176128087,
                0.38280384851478866,
                -2.2173360549178764
            ]
        },
        {
            "positions": [
                0.9575561279009887,
                -1.9210580054786521,
                1.8327193162379212,
                -0.05146072411507513,
                0.36137001556160075,
                -2.1148813498137344
            ]
        },
        {
            "positions": [
                1.0511577164067776,
                -1.9254697601812991,
                1.6738767813699629,
                -0.03902542646886939,
                0.33993618260841285,
                -2.012426644709592
            ]
        },
        {
            "positions": [
                1.1447593049125666,
                -1.9298815148839463,
                1.5150342465020046,
                -0.02659012882266365,
                0.31850234965522495,
                -1.9099719396054498
            ]
        },
        {
            "positions": [
                1.2383608934183556,
                -1.9342932695865935,
                1.356191711634046,
                -0.01415483117645791,
                0.29706851670203704,
                -1.8075172345013075
            ]
        },
        {
            "positions": [
                1.3319624819241445,
                -1.9387050242892405,
                1.1973491767660878,
                -0.0017195335302521708,
                0.27563468374884914,
                -1.705062529397165
            ]
        },
        {
            "positions": [
                1.4255640704299335,
                -1.9431167789918877,
                1.0385066418981295,
                0.010715764115953569,
                0.2542008507956612,
                -1.6026078242930228
            ]
        },
        {
            "positions": [
                1.5191656589357225,
                -1.947528533694535,
                0.8796641070301712,
                0.02315106176215931,
                0.2327670178424733,
                -1.5001531191888806
            ]
        },
        {
            "positions": [
                1.6127672474415116,
                -1.9519402883971821,
                0.7208215721622127,
                0.03558635940836505,
                0.21133318488928537,
                -1.3976984140847384
            ]
        },
        {
            "positions": [
                1.7063688359473006,
                -1.9563520430998294,
                0.5619790372942544,
                0.04802165705457079,
                0.18989935193609747,
                -1.295243708980596
            ]
        },
        {
            "positions": [
                1.7999704244530894,
                -1.9607637978024763,
                0.40313650242629606,
                0.06045695470077653,
                0.1684655189829096,
                -1.1927890038764537
            ]
        },
        {
            "positions": [
                1.8935720129588784,
                -1.9651755525051235,
                0.24429396755833777,
                0.07289225234698227,
                0.14703168602972166,
                -1.0903342987723115
            ]
        },
        {
            "positions": [
                1.9871736014646673,
                -1.9695873072077708,
                0.08545143269037947,
                0.085327549993188,
                0.12559785307653376,
                -0.9878795936681692
            ]
        },
        {
            "positions": [
                2.0807751899704563,
                -1.973999061910418,
                -0.07339110217757883,
                0.09776284763939375,
                0.1041640201233458,
                -0.8854248885640268
            ]
        },
        {
            "positions": [
                2.1743767784762453,
                -1.978410816613065,
                -0.23223363704553712,
                0.11019814528559949,
                0.08273018717015795,
                -0.7829701834598846
            ]
        },
        {
            "positions": [
                2.2679783669820344,
                -1.9828225713157122,
                -0.3910761719134954,
                0.12263344293180523,
                0.06129635421697005,
                -0.6805154783557423
            ]
        },
        {
            "positions": [
                2.3615799554878234,
                -1.9872343260183594,
                -0.5499187067814542,
                0.13506874057801097,
                0.03986252126378209,
                -0.5780607732515999
            ]
        },
        {
            "positions": [
                2.4551815439936124,
                -1.9916460807210066,
                -0.7087612416494125,
                0.1475040382242167,
                0.018428688310594188,
                -0.47560606814745787
            ]
        },
        {
            "positions": [
                2.548783132499401,
                -1.9960578354236536,
                -0.8676037765173703,
                0.15993933587042244,
                -0.00300514464259366,
                -0.37315136304331564
            ]
        },
        {
            "positions": [
                2.6423847210051905,
                -2.0004695901263005,
                -1.026446311385329,
                0.17237463351662818,
                -0.02443897759578162,
                -0.27069665793917297
            ]
        },
        {
            "positions": [
                2.735986309510979,
                -2.0048813448289478,
                -1.1852888462532873,
                0.18480993116283395,
                -0.04587281054896952,
                -0.16824195283503096
            ]
        },
        {
            "positions": [
                2.829587898016768,
                -2.009293099531595,
                -1.3441313811212456,
                0.19724522880903966,
                -0.06730664350215737,
                -0.06578724773088851
            ]
        },
        {
            "positions": [
                2.923189486522557,
                -2.013704854234242,
                -1.502973915989204,
                0.20968052645524543,
                -0.08874047645534533,
                0.03666745737325394
            ]
        },
        {
            "positions": [
                3.016791075028346,
                -2.0181166089368894,
                -1.6618164508571622,
                0.22211582410145114,
                -0.11017430940853323,
                0.13912216247739606
            ]
        },
        {
            "positions": [
                2.9574297651054184,
                -2.094507147691095,
                -1.663191594600715,
                0.3479419037466351,
                -0.013587500999121871,
                0.11945273289566638
            ]
        },
        {
            "positions": [
                2.8980684551824907,
                -2.1708976864453002,
                -1.664566738344268,
                0.473767983391819,
                0.08299930741028949,
                0.09978330331393669
            ]
        },
        {
            "positions": [
                2.838707145259563,
                -2.2472882251995054,
                -1.6659418820878207,
                0.5995940630370029,
                0.17958611581970085,
                0.08011387373220699
            ]
        },
        {
            "positions": [
                2.779345835336635,
                -2.323678763953711,
                -1.6673170258313734,
                0.7254201426821869,
                0.2761729242291122,
                0.06044444415047731
            ]
        },
        {
            "positions": [
                2.7199845254137074,
                -2.4000693027079167,
                -1.6686921695749264,
                0.8512462223273709,
                0.3727597326385236,
                0.04077501456874762
            ]
        },
        {
            "positions": [
                2.6606232154907796,
                -2.476459841462122,
                -1.6700673133184791,
                0.9770723019725548,
                0.4693465410479349,
                0.02110558498701794
            ]
        }
    ]
}