{
    "goal": {
        "global_pose": {
            "orientation": {
                "w": 0.005598929693374612,
                "x": 0.007748599140229565,
                "y": 0.7110244013736278,
                "z": -0.7031023480610252
            },
            "position": {
                "x": 0.1141497679147869,
                "y": -0.7141253447532654,
                "z": 0.3711530566215515
            }
        },
        "name": "move_to_auspresseinheit_B"
    },
    "id": "BKPIECE_move_to_auspresseinheit_B_113",
    "joint_names": [
        "shoulder_pan_joint",
        "shoulder_lift_joint",
        "elbow_joint",
        "wrist_1_joint",
        "wrist_2_joint",
        "wrist_3_joint"
    ],
    "metrics": {
        "cart_traj_len": 0.5648934262522849,
        "distance_elbow_joint": 0.06134552255493131,
        "distance_shoulder_lift_joint": 0.29451642140646994,
        "distance_shoulder_pan_joint": 0.5784334617407023,
        "distance_wrist_1_joint": 0.3200687112123288,
        "distance_wrist_2_joint": 0.9866399377901867,
        "distance_wrist_3_joint": 0.005322694876055412,
        "smoothness": 2.5376526478085547e-16,
        "time": 1.802486085,
        "traj_len": 1.4987750830530493,
        "weighted_distance": 1.887771381374159
    },
    "planner": "BKPIECE",
    "start": {
        "state": {
            "elbow_joint": 2.019306165916698,
            "shoulder_lift_joint": -1.1220205098164344,
            "shoulder_pan_joint": -1.095207207618794,
            "wrist_1_joint": -0.8559671824921639,
            "wrist_2_joint": 0.47596387242952726,
            "wrist_3_joint": 3.159081874673826
        }
    },
    "waypoints": [
        {
            "positions": [
                -1.095207207618794,
                -1.1220205098164344,
                2.019306165916698,
                -0.8559671824921639,
                0.47596387242952726,
                3.159081874673826
            ]
        },
        {
            "positions": [
                -1.1916127845755777,
                -1.171106580050846,
                2.009081912157543,
                -0.8026223972901091,
                0.640403862061225,
                3.159968990486502
            ]
        },
        {
            "positions": [
                -1.2880183615323615,
                -1.2201926502852578,
                1.9988576583983875,
                -0.7492776120880542,
                0.8048438516929228,
                3.160856106299178
            ]
        },
        {
            "positions": [
                -1.384423938489145,
                -1.2692787205196694,
                1.9886334046392324,
                -0.6959328268859994,
                0.9692838413246205,
                3.1617432221118538
            ]
        },
        {
            "positions": [
                -1.4808295154459288,
                -1.318364790754081,
                1.9784091508800772,
                -0.6425880416839447,
                1.1337238309563182,
                3.1626303379245293
            ]
        },
        {
            "positions": [
                -1.5772350924027125,
                -1.3674508609884928,
                1.968184897120922,
                -0.5892432564818898,
                1.2981638205880162,
                3.1635174537372053
            ]
        },
        {
            "positions": [
                -1.6736406693594963,
                -1.4165369312229044,
                1.9579606433617667,
                -0.535898471279835,
                1.4626038102197139,
                3.1644045695498813
            ]
        }
    ]
}