{
    "goal": {
        "global_pose": {
            "orientation": {
                "w": -0.4816463035849501,
                "x": 0.5182115481033762,
                "y": 0.4908360881923453,
                "z": -0.5084816262002911
            },
            "position": {
                "x": -0.8240239810943604,
                "y": 0.19912469901144506,
                "z": 0.16403168439865112
            }
        },
        "name": "move_to_storage_D"
    },
    "id": "BKPIECE_move_to_storage_D_56",
    "joint_names": [
        "shoulder_pan_joint",
        "shoulder_lift_joint",
        "elbow_joint",
        "wrist_1_joint",
        "wrist_2_joint",
        "wrist_3_joint"
    ],
    "metrics": {
        "cart_traj_len": 5.376070969585921,
        "distance_elbow_joint": 4.850265734708675,
        "distance_shoulder_lift_joint": 1.2906947380110951,
        "distance_shoulder_pan_joint": 4.656515372372381,
        "distance_wrist_1_joint": 3.2993176775847624,
        "distance_wrist_2_joint": 2.7543244623529524,
        "distance_wrist_3_joint": 4.7327601465192775,
        "smoothness": 0.8855996457163208,
        "time": 0.597111715,
        "traj_len": 4.6458452548001565,
        "weighted_distance": 6.091226523823049
    },
    "planner": "BKPIECE",
    "start": {
        "state": {
            "elbow_joint": -2.384821997420982,
            "shoulder_lift_joint": -2.2788054674887404,
            "shoulder_pan_joint": -0.18546946417610016,
            "wrist_1_joint": 1.4845937964226739,
            "wrist_2_joint": 0.1789877726866377,
            "wrist_3_joint": 0.03710572555276528
        }
    },
    "waypoints": [
        {
            "positions": [
                -0.18546946417610016,
                -2.2788054674887404,
                -2.384821997420982,
                1.4845937964226739,
                0.1789877726866377,
                0.03710572555276528
            ]
        },
        {
            "positions": [
                -0.05256807672506009,
                -2.2804274106588873,
                -2.341688842118418,
                1.493879055141877,
                0.2781743505075547,
                -0.062087965309800784
            ]
        },
        {
            "positions": [
                0.08033331072597999,
                -2.2820493538290347,
                -2.2985556868158548,
                1.5031643138610804,
                0.3773609283284717,
                -0.16128165617236684
            ]
        },
        {
            "positions": [
                0.21323469817702007,
                -2.2836712969991817,
                -2.2554225315132914,
                1.5124495725802836,
                0.4765475061493887,
                -0.2604753470349329
            ]
        },
        {
            "positions": [
                0.34613608562806014,
                -2.285293240169329,
                -2.2122893762107276,
                1.521734831299487,
                0.5757340839703057,
                -0.359669037897499
            ]
        },
        {
            "positions": [
                0.4790374730791002,
                -2.286915183339476,
                -2.169156220908164,
                1.53102009001869,
                0.6749206617912227,
                -0.45886272876006506
            ]
        },
        {
            "positions": [
                0.6119388605301403,
                -2.288537126509623,
                -2.1260230656056005,
                1.5403053487378933,
                0.7741072396121396,
                -0.5580564196226311
            ]
        },
        {
            "positions": [
                0.7448402479811804,
                -2.2901590696797705,
                -2.082889910303037,
                1.5495906074570966,
                0.8732938174330566,
                -0.6572501104851972
            ]
        },
        {
            "positions": [
                0.8777416354322205,
                -2.2917810128499174,
                -2.0397567550004734,
                1.5588758661762998,
                0.9724803952539736,
                -0.7564438013477632
            ]
        },
        {
            "positions": [
                0.7855400396268046,
                -2.271154439959435,
                -2.071789122789034,
                1.506316020458835,
                0.8784686747348986,
                -0.6518833502351686
            ]
        },
        {
            "positions": [
                0.6933384438213887,
                -2.2505278670689517,
                -2.1038214905775945,
                1.4537561747413703,
                0.7844569542158237,
                -0.5473228991225741
            ]
        },
        {
            "positions": [
                0.6011368480159728,
                -2.229901294178469,
                -2.135853858366155,
                1.4011963290239056,
                0.6904452336967488,
                -0.44276244800997966
            ]
        },
        {
            "positions": [
                0.5089352522105568,
                -2.209274721287986,
                -2.1678862261547156,
                1.3486364833064408,
                0.5964335131776739,
                -0.33820199689738506
            ]
        },
        {
            "positions": [
                0.416733656405141,
                -2.1886481483975033,
                -2.199918593943276,
                1.296076637588976,
                0.5024217926585991,
                -0.23364154578479057
            ]
        },
        {
            "positions": [
                0.32453206059972506,
                -2.1680215755070207,
                -2.2319509617318367,
                1.2435167918715115,
                0.4084100721395242,
                -0.12908109467219608
            ]
        },
        {
            "positions": [
                0.2323304647943092,
                -2.1473950026165376,
                -2.2639833295203973,
                1.1909569461540468,
                0.3143983516204494,
                -0.024520643559601596
            ]
        },
        {
            "positions": [
                0.1401288689888932,
                -2.126768429726055,
                -2.296015697308958,
                1.138397100436582,
                0.22038663110137435,
                0.08003980755299311
            ]
        },
        {
            "positions": [
                0.04792727318347734,
                -2.106141856835572,
                -2.3280480650975184,
                1.0858372547191173,
                0.12637491058229955,
                0.1846002586655876
            ]
        },
        {
            "positions": [
                -0.04427432262193849,
                -2.0855152839450892,
                -2.360080432886079,
                1.0332774090016525,
                0.03236319006322462,
                0.28916070977818215
            ]
        },
        {
            "positions": [
                0.03304874101827979,
                -2.0709028078950054,
                -2.244907567862916,
                0.958088367661705,
                0.0663659541834395,
                0.3678253790551254
            ]
        },
        {
            "positions": [
                0.11037180465849807,
                -2.056290331844921,
                -2.129734702839753,
                0.8828993263217575,
                0.10036871830365439,
                0.4464900483320686
            ]
        },
        {
            "positions": [
                0.18769486829871634,
                -2.041677855794837,
                -2.01456183781659,
                0.80771028498181,
                0.1343714824238693,
                0.5251547176090119
            ]
        },
        {
            "positions": [
                0.26501793193893464,
                -2.027065379744753,
                -1.899388972793427,
                0.7325212436418624,
                0.16837424654408417,
                0.6038193868859552
            ]
        },
        {
            "positions": [
                0.34234099557915293,
                -2.012452903694669,
                -1.784216107770264,
                0.6573322023019149,
                0.20237701066429903,
                0.6824840561628984
            ]
        },
        {
            "positions": [
                0.4196640592193712,
                -1.9978404276445847,
                -1.669043242747101,
                0.5821431609619674,
                0.23637977478451394,
                0.7611487254398417
            ]
        },
        {
            "positions": [
                0.4969871228595895,
                -1.9832279515945006,
                -1.5538703777239382,
                0.5069541196220197,
                0.27038253890472885,
                0.839813394716785
            ]
        },
        {
            "positions": [
                0.5743101864998077,
                -1.9686154755444167,
                -1.438697512700775,
                0.43176507828207233,
                0.3043853030249437,
                0.9184780639937282
            ]
        },
        {
            "positions": [
                0.6516332501400259,
                -1.9540029994943326,
                -1.3235246476776121,
                0.3565760369421248,
                0.3383880671451586,
                0.9971427332706715
            ]
        },
        {
            "positions": [
                0.7289563137802443,
                -1.9393905234442486,
                -1.2083517826544492,
                0.2813869956021773,
                0.3723908312653735,
                1.0758074025476145
            ]
        },
        {
            "positions": [
                0.8062793774204625,
                -1.9247780473941645,
                -1.0931789176312863,
                0.20619795426222975,
                0.40639359538558834,
                1.1544720718245578
            ]
        },
        {
            "positions": [
                0.8836024410606809,
                -1.9101655713440804,
                -0.9780060526081231,
                0.13100891292228212,
                0.4403963595058033,
                1.2331367411015013
            ]
        },
        {
            "positions": [
                0.9609255047008992,
                -1.8955530952939963,
                -0.8628331875849602,
                0.05581987158233459,
                0.47439912362601816,
                1.3118014103784443
            ]
        },
        {
            "positions": [
                1.0382485683411176,
                -1.8809406192439122,
                -0.7476603225617973,
                -0.019369169757613047,
                0.5084018877462331,
                1.3904660796553876
            ]
        },
        {
            "positions": [
                1.1155716319813358,
                -1.8663281431938281,
                -0.6324874575386343,
                -0.09455821109756046,
                0.5424046518664479,
                1.4691307489323309
            ]
        },
        {
            "positions": [
                1.192894695621554,
                -1.851715667143744,
                -0.5173145925154714,
                -0.16974725243750788,
                0.5764074159866628,
                1.5477954182092741
            ]
        },
        {
            "positions": [
                1.2702177592617723,
                -1.83710319109366,
                -0.4021417274923085,
                -0.24493629377745552,
                0.6104101801068776,
                1.6264600874862174
            ]
        },
        {
            "positions": [
                1.3475408229019905,
                -1.8224907150435758,
                -0.2869688624691453,
                -0.32012533511740293,
                0.6444129442270926,
                1.7051247567631607
            ]
        },
        {
            "positions": [
                1.4248638865422087,
                -1.8078782389934918,
                -0.17179599744598262,
                -0.39531437645735057,
                0.6784157083473075,
                1.7837894260401037
            ]
        },
        {
            "positions": [
                1.5021869501824272,
                -1.793265762943408,
                -0.05662313242281947,
                -0.470503417797298,
                0.7124184724675223,
                1.862454095317047
            ]
        },
        {
            "positions": [
                1.5795100138226454,
                -1.7786532868933236,
                0.05854973260034324,
                -0.5456924591372456,
                0.7464212365877372,
                1.9411187645939902
            ]
        },
        {
            "positions": [
                1.6568330774628637,
                -1.7640408108432397,
                0.1737225976235064,
                -0.620881500477193,
                0.780424000707952,
                2.0197834338709337
            ]
        },
        {
            "positions": [
                1.7341561411030821,
                -1.7494283347931554,
                0.28889546264666954,
                -0.6960705418171409,
                0.8144267648281671,
                2.098448103147877
            ]
        },
        {
            "positions": [
                1.8114792047433004,
                -1.7348158587430715,
                0.4040683276698327,
                -0.7712595831570883,
                0.848429528948382,
                2.1771127724248203
            ]
        },
        {
            "positions": [
                1.8888022683835186,
                -1.7202033826929872,
                0.5192411926929954,
                -0.846448624497036,
                0.8824322930685968,
                2.2557774417017638
            ]
        },
        {
            "positions": [
                1.966125332023737,
                -1.7055909066429034,
                0.6344140577161586,
                -0.9216376658369834,
                0.9164350571888117,
                2.334442110978707
            ]
        },
        {
            "positions": [
                2.043448395663955,
                -1.6909784305928193,
                0.7495869227393213,
                -0.9968267071769308,
                0.9504378213090265,
                2.4131067802556503
            ]
        },
        {
            "positions": [
                2.1207714593041733,
                -1.6763659545427352,
                0.8647597877624844,
                -1.0720157485168786,
                0.9844405854292415,
                2.4917714495325933
            ]
        },
        {
            "positions": [
                2.1980945229443916,
                -1.661753478492651,
                0.9799326527856471,
                -1.147204789856826,
                1.0184433495494563,
                2.570436118809537
            ]
        },
        {
            "positions": [
                2.27541758658461,
                -1.647141002442567,
                1.0951055178088103,
                -1.2223938311967733,
                1.0524461136696712,
                2.64910078808648
            ]
        },
        {
            "positions": [
                2.325645644513661,
                -1.5567011192650573,
                1.199347069767049,
                -1.1589987011313356,
                1.0525363580965887,
                2.725338792398552
            ]
        },
        {
            "positions": [
                2.3758737024427115,
                -1.4662612360875478,
                1.3035886217252877,
                -1.0956035710658978,
                1.0526266025235065,
                2.801576796710624
            ]
        },
        {
            "positions": [
                2.4261017603717625,
                -1.375821352910038,
                1.4078301736835264,
                -1.0322084410004602,
                1.052716846950424,
                2.877814801022696
            ]
        },
        {
            "positions": [
                2.4763298183008136,
                -1.2853814697325283,
                1.5120717256417648,
                -0.9688133109350225,
                1.0528070913773417,
                2.954052805334768
            ]
        },
        {
            "positions": [
                2.5265578762298646,
                -1.1949415865550188,
                1.6163132776000038,
                -0.9054181808695848,
                1.0528973358042593,
                3.03029080964684
            ]
        },
        {
            "positions": [
                2.576785934158915,
                -1.104501703377509,
                1.7205548295582422,
                -0.8420230508041472,
                1.052987580231177,
                3.1065288139589122
            ]
        },
        {
            "positions": [
                2.6270139920879663,
                -1.0140618201999994,
                1.824796381516481,
                -0.7786279207387095,
                1.0530778246580945,
                3.1827668182709843
            ]
        }
    ]
}