{
    "goal": {
        "global_pose": {
            "orientation": {
                "w": -0.4816463035849501,
                "x": 0.5182115481033762,
                "y": 0.4908360881923453,
                "z": -0.5084816262002911
            },
            "position": {
                "x": -0.8240239810943604,
                "y": -0.300875300988555,
                "z": 0.16403168439865112
            }
        },
        "name": "move_to_storage_C"
    },
    "id": "BKPIECE_move_to_storage_C_29",
    "joint_names": [
        "shoulder_pan_joint",
        "shoulder_lift_joint",
        "elbow_joint",
        "wrist_1_joint",
        "wrist_2_joint",
        "wrist_3_joint"
    ],
    "metrics": {
        "cart_traj_len": 0.5772778805455192,
        "distance_elbow_joint": 0.25838270391153073,
        "distance_shoulder_lift_joint": 0.19023094037180255,
        "distance_shoulder_pan_joint": 0.49574286782932386,
        "distance_wrist_1_joint": 0.07848750686244532,
        "distance_wrist_2_joint": 1.064124958031126,
        "distance_wrist_3_joint": 0.057115895117382465,
        "smoothness": 0.0,
        "time": 0.7389810729999999,
        "traj_len": 1.464269398752706,
        "weighted_distance": 1.8441608192486758
    },
    "planner": "BKPIECE",
    "start": {
        "state": {
            "elbow_joint": 2.010868315001653,
            "shoulder_lift_joint": -1.1634956873357014,
            "shoulder_pan_joint": -2.4736205022346103,
            "wrist_1_joint": -0.8367026794713948,
            "wrist_2_joint": 0.6746043897044093,
            "wrist_3_joint": 3.1335220948105738
        }
    },
    "waypoints": [
        {
            "positions": [
                -2.4736205022346103,
                -1.1634956873357014,
                2.010868315001653,
                -0.8367026794713948,
                0.6746043897044093,
                3.1335220948105738
            ]
        },
        {
            "positions": [
                -2.5562443135394974,
                -1.1317905306070677,
                1.967804531016398,
                -0.8236214283276538,
                0.8519585493762636,
                3.143041410663471
            ]
        },
        {
            "positions": [
                -2.638868124844385,
                -1.100085373878434,
                1.9247407470311428,
                -0.810540177183913,
                1.029312709048118,
                3.1525607265163678
            ]
        },
        {
            "positions": [
                -2.721491936149272,
                -1.0683802171498002,
                1.8816769630458876,
                -0.7974589260401721,
                1.2066668687199722,
                3.162080042369265
            ]
        },
        {
            "positions": [
                -2.8041157474541594,
                -1.0366750604211663,
                1.8386131790606326,
                -0.7843776748964312,
                1.3840210283918266,
                3.171599358222162
            ]
        },
        {
            "positions": [
                -2.886739558759047,
                -1.0049699036925326,
                1.7955493950753776,
                -0.7712964237526904,
                1.561375188063681,
                3.181118674075059
            ]
        },
        {
            "positions": [
                -2.969363370063934,
                -0.9732647469638989,
                1.7524856110901224,
                -0.7582151726089494,
                1.7387293477355352,
                3.190637989927956
            ]
        }
    ]
}