{
    "goal": {
        "global_pose": {
            "orientation": {
                "w": 0.7047431493862688,
                "x": -0.7094548369677653,
                "y": 0.0024358444001904,
                "z": -0.0022348060817251984
            },
            "position": {
                "x": -0.39052492380142206,
                "y": 0.3671506643295288,
                "z": 0.19426114857196808
            }
        },
        "name": "move_to_magneteinheit_D"
    },
    "id": "BKPIECE_move_to_magneteinheit_D_102",
    "joint_names": [
        "shoulder_pan_joint",
        "shoulder_lift_joint",
        "elbow_joint",
        "wrist_1_joint",
        "wrist_2_joint",
        "wrist_3_joint"
    ],
    "metrics": {
        "cart_traj_len": 5.3526689183000755,
        "distance_elbow_joint": 3.1137515013870893,
        "distance_shoulder_lift_joint": 1.5958214325475573,
        "distance_shoulder_pan_joint": 4.417202548090482,
        "distance_wrist_1_joint": 3.422344655945043,
        "distance_wrist_2_joint": 2.5804925407808152,
        "distance_wrist_3_joint": 0.9728444032210692,
        "smoothness": 0.3864786029779442,
        "time": 1.315189311,
        "traj_len": 4.012786697791456,
        "weighted_distance": 4.904180164425045
    },
    "planner": "BKPIECE",
    "start": {
        "state": {
            "elbow_joint": 0.7495348899011973,
            "shoulder_lift_joint": -0.6476975780737697,
            "shoulder_pan_joint": -2.711696901376276,
            "wrist_1_joint": -0.07506478080974305,
            "wrist_2_joint": 0.4329665971545858,
            "wrist_3_joint": 3.1361499051832524
        }
    },
    "waypoints": [
        {
            "positions": [
                -2.711696901376276,
                -0.6476975780737697,
                0.7495348899011973,
                -0.07506478080974305,
                0.4329665971545858,
                3.1361499051832524
            ]
        },
        {
            "positions": [
                -2.7215886302627377,
                -0.631798827753888,
                0.7143603416837441,
                0.020687400718762364,
                0.36155337131741827,
                3.1298274352435227
            ]
        },
        {
            "positions": [
                -2.7125170637168283,
                -0.6226294956784018,
                0.6661393356337101,
                0.14087898464767207,
                0.26969233726695035,
                3.08545387353379
            ]
        },
        {
            "positions": [
                -2.7034454971709194,
                -0.6134601636029156,
                0.617918329583676,
                0.2610705685765818,
                0.1778313032164824,
                3.0410803118240577
            ]
        },
        {
            "positions": [
                -2.69437393062501,
                -0.6042908315274294,
                0.569697323533642,
                0.3812621525054915,
                0.08597026916601447,
                2.996706750114325
            ]
        },
        {
            "positions": [
                -2.681739536692575,
                -0.6561188793400935,
                0.5186688945152071,
                0.41586741997530285,
                -0.04040155937466586,
                2.9387281460149355
            ]
        },
        {
            "positions": [
                -2.6691051427601398,
                -0.7079469271527576,
                0.46764046549677235,
                0.45047268744511415,
                -0.16677338791534618,
                2.8807495419155456
            ]
        },
        {
            "positions": [
                -2.656470748827705,
                -0.7597749749654218,
                0.4166120364783375,
                0.48507795491492545,
                -0.29314521645602654,
                2.8227709378161556
            ]
        },
        {
            "positions": [
                -2.64383635489527,
                -0.8116030227780859,
                0.3655836074599027,
                0.5196832223847367,
                -0.41951704499670683,
                2.764792333716766
            ]
        },
        {
            "positions": [
                -2.6312019609628345,
                -0.8634310705907501,
                0.3145551784414678,
                0.5542884898545481,
                -0.5458888735373872,
                2.7068137296173767
            ]
        },
        {
            "positions": [
                -2.6185675670303996,
                -0.9152591184034142,
                0.263526749423033,
                0.5888937573243594,
                -0.6722607020780675,
                2.6488351255179867
            ]
        },
        {
            "positions": [
                -2.472090056422462,
                -0.9602487443823168,
                0.198455793720373,
                0.4717664140440531,
                -0.6934976701107105,
                2.649095537007417
            ]
        },
        {
            "positions": [
                -2.3256125458145243,
                -1.0052383703612193,
                0.133384838017713,
                0.3546390707637468,
                -0.7147346381433534,
                2.6493559484968476
            ]
        },
        {
            "positions": [
                -2.1791350352065866,
                -1.0502279963401218,
                0.068313882315053,
                0.2375117274834404,
                -0.7359716061759963,
                2.6496163599862785
            ]
        },
        {
            "positions": [
                -2.0326575245986493,
                -1.0952176223190244,
                0.0032429266123930045,
                0.12038438420313408,
                -0.7572085742086393,
                2.649876771475709
            ]
        },
        {
            "positions": [
                -1.8861800139907117,
                -1.1402072482979269,
                -0.06182802909026702,
                0.0032570409228277475,
                -0.7784455422412823,
                2.6501371829651394
            ]
        },
        {
            "positions": [
                -1.739702503382774,
                -1.1851968742768295,
                -0.126898984792927,
                -0.11387030235747864,
                -0.7996825102739251,
                2.65039759445457
            ]
        },
        {
            "positions": [
                -1.5932249927748363,
                -1.2301865002557322,
                -0.19196994049558708,
                -0.23099764563778502,
                -0.8209194783065681,
                2.6506580059440004
            ]
        },
        {
            "positions": [
                -1.4467474821668989,
                -1.2751761262346346,
                -0.257040896198247,
                -0.3481249889180913,
                -0.842156446339211,
                2.650918417433431
            ]
        },
        {
            "positions": [
                -1.3002699715589612,
                -1.320165752213537,
                -0.3221118519009071,
                -0.4652523321983978,
                -0.863393414371854,
                2.6511788289228617
            ]
        },
        {
            "positions": [
                -1.1537924609510237,
                -1.3651553781924397,
                -0.38718280760356705,
                -0.582379675478704,
                -0.8846303824044969,
                2.651439240412292
            ]
        },
        {
            "positions": [
                -1.007314950343086,
                -1.4101450041713421,
                -0.45225376330622713,
                -0.6995070187590103,
                -0.9058673504371398,
                2.6516996519017226
            ]
        },
        {
            "positions": [
                -0.8608374397351484,
                -1.4551346301502446,
                -0.517324719008887,
                -0.8166343620393167,
                -0.9271043184697828,
                2.651960063391153
            ]
        },
        {
            "positions": [
                -0.7143599291272109,
                -1.5001242561291472,
                -0.582395674711547,
                -0.9337617053196229,
                -0.9483412865024257,
                2.6522204748805835
            ]
        },
        {
            "positions": [
                -0.567882418519273,
                -1.54511388210805,
                -0.6474666304142072,
                -1.0508890485999296,
                -0.9695782545350686,
                2.652480886370014
            ]
        },
        {
            "positions": [
                -0.4214049079113358,
                -1.5901035080869523,
                -0.7125375861168671,
                -1.168016391880236,
                -0.9908152225677116,
                2.652741297859445
            ]
        },
        {
            "positions": [
                -0.2749273973033981,
                -1.6350931340658548,
                -0.777608541819527,
                -1.285143735160542,
                -1.0120521906003546,
                2.6530017093488754
            ]
        },
        {
            "positions": [
                -0.12844988669546042,
                -1.6800827600447574,
                -0.8426794975221871,
                -1.4022710784408483,
                -1.0332891586329975,
                2.653262120838306
            ]
        },
        {
            "positions": [
                0.018027623912477253,
                -1.72507238602366,
                -0.9077504532248472,
                -1.5193984217211551,
                -1.0545261266656405,
                2.6535225323277363
            ]
        },
        {
            "positions": [
                0.16450513452041493,
                -1.7700620120025625,
                -0.972821408927507,
                -1.636525765001461,
                -1.0757630946982832,
                2.6537829438171667
            ]
        },
        {
            "positions": [
                0.31098264512835216,
                -1.815051637981465,
                -1.0378923646301672,
                -1.7536531082817675,
                -1.0970000627309262,
                2.654043355306597
            ]
        },
        {
            "positions": [
                0.45746015573628984,
                -1.8600412639603676,
                -1.1029633203328268,
                -1.8707804515620738,
                -1.1182370307635692,
                2.654303766796028
            ]
        },
        {
            "positions": [
                0.6039376663442275,
                -1.9050308899392703,
                -1.1680342760354874,
                -1.9879077948423802,
                -1.1394739987962121,
                2.6545641782854585
            ]
        },
        {
            "positions": [
                0.7504151769521652,
                -1.9500205159181727,
                -1.2331052317381472,
                -2.1050351381226866,
                -1.160710966828855,
                2.654824589774889
            ]
        },
        {
            "positions": [
                0.6568844757532535,
                -1.9293520157571253,
                -1.3462163697129217,
                -2.1114808603590762,
                -1.0620294691491177,
                2.702778605704779
            ]
        },
        {
            "positions": [
                0.5633537745543417,
                -1.908683515596078,
                -1.4593275076876961,
                -2.1179265825954654,
                -0.9633479714693804,
                2.7507326216346693
            ]
        },
        {
            "positions": [
                0.46982307335542994,
                -1.8880150154350306,
                -1.5724386456624706,
                -2.124372304831855,
                -0.8646664737896432,
                2.7986866375645594
            ]
        },
        {
            "positions": [
                0.3762923721565182,
                -1.8673465152739832,
                -1.685549783637245,
                -2.130818027068244,
                -0.7659849761099058,
                2.8466406534944495
            ]
        },
        {
            "positions": [
                0.28276167095760646,
                -1.846678015112936,
                -1.7986609216120195,
                -2.137263749304634,
                -0.6673034784301686,
                2.8945946694243396
            ]
        },
        {
            "positions": [
                0.1892309697586947,
                -1.8260095149518887,
                -1.9117720595867937,
                -2.1437094715410234,
                -0.5686219807504312,
                2.9425486853542298
            ]
        },
        {
            "positions": [
                0.09570026855978297,
                -1.8053410147908413,
                -2.024883197561568,
                -2.1501551937774126,
                -0.4699404830706939,
                2.99050270128412
            ]
        },
        {
            "positions": [
                0.0021695673608711497,
                -1.784672514629794,
                -2.1379943355363427,
                -2.156600916013802,
                -0.3712589853909565,
                3.03845671721401
            ]
        },
        {
            "positions": [
                -0.09136113383804056,
                -1.7640040144687466,
                -2.2511054735111173,
                -2.1630466382501914,
                -0.27257748771121926,
                3.0864107331439
            ]
        },
        {
            "positions": [
                -0.1848918350369523,
                -1.7433355143076992,
                -2.3642166114858916,
                -2.169492360486581,
                -0.1738959900314819,
                3.1343647490737903
            ]
        }
    ]
}