{
    "goal": {
        "global_pose": {
            "orientation": {
                "w": -0.00223480608172531,
                "x": 0.0024358444001904467,
                "y": 0.7094548369677653,
                "z": -0.704743149386269
            },
            "position": {
                "x": 0.6205249238014221,
                "y": -0.6371506643295288,
                "z": 0.19426114857196808
            }
        },
        "name": "move_to_magneteinheit_B"
    },
    "id": "BKPIECE_move_to_magneteinheit_B_27",
    "joint_names": [
        "shoulder_pan_joint",
        "shoulder_lift_joint",
        "elbow_joint",
        "wrist_1_joint",
        "wrist_2_joint",
        "wrist_3_joint"
    ],
    "metrics": {
        "cart_traj_len": 1.453232696228793,
        "distance_elbow_joint": 0.7293548411087514,
        "distance_shoulder_lift_joint": 1.247003759490429,
        "distance_shoulder_pan_joint": 1.6213332627136547,
        "distance_wrist_1_joint": 2.6103446744619245,
        "distance_wrist_2_joint": 2.9333529208271165,
        "distance_wrist_3_joint": 3.1286532342779494,
        "smoothness": 6.106226636816849e-16,
        "time": 0.817522936,
        "traj_len": 3.5028620716322574,
        "weighted_distance": 4.906225306355668
    },
    "planner": "BKPIECE",
    "start": {
        "state": {
            "elbow_joint": 2.3935871308073637,
            "shoulder_lift_joint": -1.9085141043777403,
            "shoulder_pan_joint": 0.7066247067284167,
            "wrist_1_joint": -0.46782909355067076,
            "wrist_2_joint": 0.7096259085804283,
            "wrist_3_joint": -3.1358149275257428
        }
    },
    "waypoints": [
        {
            "positions": [
                0.7066247067284167,
                -1.9085141043777403,
                2.3935871308073637,
                -0.46782909355067076,
                0.7096259085804283,
                -3.1358149275257428
            ]
        },
        {
            "positions": [
                0.6543236337376537,
                -1.8682881766522426,
                2.3700595552877264,
                -0.38362442663254415,
                0.6150016208118116,
                -3.034890629645809
            ]
        },
        {
            "positions": [
                0.6020225607468906,
                -1.8280622489267448,
                2.3465319797680895,
                -0.2994197597144176,
                0.520377333043195,
                -2.933966331765875
            ]
        },
        {
            "positions": [
                0.5497214877561275,
                -1.7878363212012471,
                2.323004404248452,
                -0.21521509279629097,
                0.4257530452745783,
                -2.833042033885941
            ]
        },
        {
            "positions": [
                0.49742041476536447,
                -1.7476103934757494,
                2.299476828728815,
                -0.13101042587816436,
                0.33112875750596166,
                -2.7321177360060074
            ]
        },
        {
            "positions": [
                0.44511934177460144,
                -1.7073844657502517,
                2.275949253209178,
                -0.0468057589600378,
                0.236504469737345,
                -2.6311934381260738
            ]
        },
        {
            "positions": [
                0.39281826878383835,
                -1.667158538024754,
                2.252421677689541,
                0.03739890795808881,
                0.14188018196872831,
                -2.5302691402461397
            ]
        },
        {
            "positions": [
                0.3405171957930753,
                -1.6269326102992563,
                2.2288941021699036,
                0.12160357487621537,
                0.04725589420011167,
                -2.4293448423662056
            ]
        },
        {
            "positions": [
                0.2882161228023123,
                -1.5867066825737586,
                2.2053665266502667,
                0.20580824179434204,
                -0.047368393568504974,
                -2.328420544486272
            ]
        },
        {
            "positions": [
                0.23591504981154915,
                -1.5464807548482609,
                2.1818389511306293,
                0.2900129087124687,
                -0.14199268133712173,
                -2.227496246606338
            ]
        },
        {
            "positions": [
                0.18361397682078617,
                -1.5062548271227632,
                2.1583113756109924,
                0.37421757563059516,
                -0.23661696910573826,
                -2.1265719487264043
            ]
        },
        {
            "positions": [
                0.13131290383002303,
                -1.4660288993972654,
                2.134783800091355,
                0.4584222425487218,
                -0.33124125687435513,
                -2.0256476508464702
            ]
        },
        {
            "positions": [
                0.07901183083926,
                -1.4258029716717677,
                2.111256224571718,
                0.5426269094668483,
                -0.42586554464297166,
                -1.9247233529665366
            ]
        },
        {
            "positions": [
                0.02671075784849697,
                -1.38557704394627,
                2.0877286490520808,
                0.626831576384975,
                -0.5204898324115884,
                -1.8237990550866026
            ]
        },
        {
            "positions": [
                -0.025590315142266062,
                -1.3453511162207723,
                2.064201073532444,
                0.7110362433031014,
                -0.615114120180205,
                -1.722874757206669
            ]
        },
        {
            "positions": [
                -0.0778913881330292,
                -1.3051251884952746,
                2.0406734980128065,
                0.7952409102212281,
                -0.7097384079488217,
                -1.6219504593267349
            ]
        },
        {
            "positions": [
                -0.13019246112379212,
                -1.2648992607697769,
                2.0171459224931696,
                0.8794455771393548,
                -0.8043626957174382,
                -1.5210261614468013
            ]
        },
        {
            "positions": [
                -0.18249353411455516,
                -1.2246733330442792,
                1.9936183469735322,
                0.9636502440574812,
                -0.8989869834860548,
                -1.4201018635668674
            ]
        },
        {
            "positions": [
                -0.2347946071053184,
                -1.1844474053187815,
                1.970090771453895,
                1.0478549109756081,
                -0.9936112712546717,
                -1.3191775656869333
            ]
        },
        {
            "positions": [
                -0.28709568009608133,
                -1.1442214775932837,
                1.946563195934258,
                1.1320595778937346,
                -1.0882355590232882,
                -1.2182532678069995
            ]
        },
        {
            "positions": [
                -0.33939675308684436,
                -1.103995549867786,
                1.923035620414621,
                1.216264244811861,
                -1.1828598467919047,
                -1.1173289699270659
            ]
        },
        {
            "positions": [
                -0.3916978260776075,
                -1.0637696221422885,
                1.8995080448949837,
                1.3004689117299877,
                -1.2774841345605217,
                -1.0164046720471318
            ]
        },
        {
            "positions": [
                -0.44399889906837064,
                -1.0235436944167906,
                1.8759804693753466,
                1.3846735786481144,
                -1.3721084223291387,
                -0.9154803741671977
            ]
        },
        {
            "positions": [
                -0.49629997205913357,
                -0.9833177666912929,
                1.8524528938557094,
                1.468878245566241,
                -1.4667327100977552,
                -0.8145560762872641
            ]
        },
        {
            "positions": [
                -0.5486010450498967,
                -0.9430918389657952,
                1.8289253183360725,
                1.5530829124843675,
                -1.5613569978663717,
                -0.7136317784073305
            ]
        },
        {
            "positions": [
                -0.6009021180406596,
                -0.9028659112402975,
                1.8053977428164352,
                1.6372875794024941,
                -1.6559812856349883,
                -0.6127074805273964
            ]
        },
        {
            "positions": [
                -0.6532031910314228,
                -0.8626399835147998,
                1.781870167296798,
                1.7214922463206208,
                -1.7506055734036052,
                -0.5117831826474624
            ]
        },
        {
            "positions": [
                -0.7055042640221859,
                -0.822414055789302,
                1.758342591777161,
                1.8056969132387475,
                -1.8452298611722218,
                -0.41085888476752874
            ]
        },
        {
            "positions": [
                -0.7578053370129488,
                -0.7821881280638043,
                1.7348150162575238,
                1.8899015801568737,
                -1.9398541489408383,
                -0.3099345868875951
            ]
        },
        {
            "positions": [
                -0.8101064100037118,
                -0.7419622003383066,
                1.7112874407378866,
                1.9741062470750004,
                -2.034478436709455,
                -0.20901028900766105
            ]
        },
        {
            "positions": [
                -0.8624074829944751,
                -0.7017362726128089,
                1.6877598652182495,
                2.058310913993127,
                -2.129102724478072,
                -0.10808599112772699
            ]
        },
        {
            "positions": [
                -0.9147085559852381,
                -0.6615103448873111,
                1.6642322896986124,
                2.1425155809112537,
                -2.2237270122466883,
                -0.007161693247793271
            ]
        }
    ]
}