{
    "goal": {
        "global_pose": {
            "orientation": {
                "w": 0.5084816217422485,
                "x": -0.49083608388900757,
                "y": 0.5182115435600281,
                "z": -0.4816462993621826
            },
            "position": {
                "x": 0.5540239810943604,
                "y": 0.030875300988554955,
                "z": 0.16403168439865112
            }
        },
        "name": "move_to_storage_A"
    },
    "id": "BKPIECE_move_to_storage_A_5",
    "joint_names": [
        "shoulder_pan_joint",
        "shoulder_lift_joint",
        "elbow_joint",
        "wrist_1_joint",
        "wrist_2_joint",
        "wrist_3_joint"
    ],
    "metrics": {
        "cart_traj_len": 0.35389755538403933,
        "distance_elbow_joint": 0.44946903071721955,
        "distance_shoulder_lift_joint": 0.23557828688846905,
        "distance_shoulder_pan_joint": 0.4654439054285731,
        "distance_wrist_1_joint": 0.2354626372295633,
        "distance_wrist_2_joint": 1.0896861361941905,
        "distance_wrist_3_joint": 0.10481117434969223,
        "smoothness": 0.0,
        "time": 1.52876346,
        "traj_len": 1.606378277619474,
        "weighted_distance": 2.02860106796059
    },
    "planner": "BKPIECE",
    "start": {
        "state": {
            "elbow_joint": 1.9715474177455299,
            "shoulder_lift_joint": -1.139484666580328,
            "shoulder_pan_joint": 0.12281154398918248,
            "wrist_1_joint": -0.7804687475355282,
            "wrist_2_joint": 0.12958649657246987,
            "wrist_3_joint": -3.1924925159053466
        }
    },
    "waypoints": [
        {
            "positions": [
                0.12281154398918248,
                -1.139484666580328,
                1.9715474177455299,
                -0.7804687475355282,
                0.12958649657246987,
                -3.1924925159053466
            ]
        },
        {
            "positions": [
                0.05631955749938633,
                -1.173138707564395,
                2.0357572792765612,
                -0.8141062671397515,
                0.2852559446002114,
                -3.1775194909982476
            ]
        },
        {
            "positions": [
                -0.01017242899040982,
                -1.206792748548462,
                2.0999671408075926,
                -0.8477437867439749,
                0.44092539262795294,
                -3.1625464660911486
            ]
        },
        {
            "positions": [
                -0.07666441548020597,
                -1.240446789532529,
                2.164177002338624,
                -0.8813813063481981,
                0.5965948406556945,
                -3.1475734411840497
            ]
        },
        {
            "positions": [
                -0.14315640197000212,
                -1.274100830516596,
                2.2283868638696553,
                -0.9150188259524215,
                0.752264288683436,
                -3.132600416276951
            ]
        },
        {
            "positions": [
                -0.20964838845979833,
                -1.307754871500663,
                2.2925967254006867,
                -0.9486563455566448,
                0.9079337367111776,
                -3.1176273913698522
            ]
        },
        {
            "positions": [
                -0.2761403749495944,
                -1.34140891248473,
                2.356806586931718,
                -0.9822938651608681,
                1.063603184738919,
                -3.1026543664627533
            ]
        },
        {
            "positions": [
                -0.34263236143939063,
                -1.375062953468797,
                2.4210164484627494,
                -1.0159313847650915,
                1.2192726327666605,
                -3.0876813415556543
            ]
        }
    ]
}