{
    "goal": {
        "global_pose": {
            "orientation": {
                "w": 0.005598929693374612,
                "x": 0.007748599140229565,
                "y": 0.7110244013736278,
                "z": -0.7031023480610252
            },
            "position": {
                "x": 0.1141497679147869,
                "y": -0.7141253447532654,
                "z": 0.3711530566215515
            }
        },
        "name": "move_to_auspresseinheit_B"
    },
    "id": "BKPIECE_move_to_auspresseinheit_B_99",
    "joint_names": [
        "shoulder_pan_joint",
        "shoulder_lift_joint",
        "elbow_joint",
        "wrist_1_joint",
        "wrist_2_joint",
        "wrist_3_joint"
    ],
    "metrics": {
        "cart_traj_len": 0.5644554884448438,
        "distance_elbow_joint": 0.06037570025025585,
        "distance_shoulder_lift_joint": 0.29454309453248584,
        "distance_shoulder_pan_joint": 0.5771805468018241,
        "distance_wrist_1_joint": 0.3147424661105296,
        "distance_wrist_2_joint": 0.9891150895748553,
        "distance_wrist_3_joint": 0.006336246706239113,
        "smoothness": 5.075305255429287e-16,
        "time": 1.3338015529999998,
        "traj_len": 1.4974288443783197,
        "weighted_distance": 1.8864843474235489
    },
    "planner": "BKPIECE",
    "start": {
        "state": {
            "elbow_joint": 2.019306165916698,
            "shoulder_lift_joint": -1.1220205098164344,
            "shoulder_pan_joint": -1.095207207618794,
            "wrist_1_joint": -0.8559671824921639,
            "wrist_2_joint": 0.47596387242952726,
            "wrist_3_joint": 3.159081874673826
        }
    },
    "waypoints": [
        {
            "positions": [
                -1.095207207618794,
                -1.1220205098164344,
                2.019306165916698,
                -0.8559671824921639,
                0.47596387242952726,
                3.159081874673826
            ]
        },
        {
            "positions": [
                -1.191403965419098,
                -1.1711110255718487,
                2.009243549208322,
                -0.8035101048070756,
                0.6408163873586699,
                3.1580258335561195
            ]
        },
        {
            "positions": [
                -1.287600723219402,
                -1.220201541327263,
                1.999180932499946,
                -0.7510530271219873,
                0.8056689022878123,
                3.156969792438413
            ]
        },
        {
            "positions": [
                -1.383797481019706,
                -1.2692920570826773,
                1.9891183157915702,
                -0.6985959494368991,
                0.970521417216955,
                3.155913751320706
            ]
        },
        {
            "positions": [
                -1.47999423882001,
                -1.3183825728380916,
                1.979055699083194,
                -0.6461388717518108,
                1.1353739321460974,
                3.1548577102029998
            ]
        },
        {
            "positions": [
                -1.576190996620314,
                -1.367473088593506,
                1.968993082374818,
                -0.5936817940667225,
                1.30022644707524,
                3.1538016690852935
            ]
        },
        {
            "positions": [
                -1.672387754420618,
                -1.4165636043489203,
                1.9589304656664421,
                -0.5412247163816343,
                1.4650789620043825,
                3.1527456279675867
            ]
        }
    ]
}