{
    "goal": {
        "global_pose": {
            "orientation": {
                "w": 0.7031023480610252,
                "x": -0.7110244013736278,
                "y": 0.0077485991402295624,
                "z": 0.005598929693374583
            },
            "position": {
                "x": -0.8841497679147869,
                "y": 0.44412534475326537,
                "z": 0.3711530566215515
            }
        },
        "name": "move_to_auspresseinheit_D"
    },
    "id": "BKPIECE_move_to_auspresseinheit_D_28",
    "joint_names": [
        "shoulder_pan_joint",
        "shoulder_lift_joint",
        "elbow_joint",
        "wrist_1_joint",
        "wrist_2_joint",
        "wrist_3_joint"
    ],
    "metrics": {
        "cart_traj_len": 3.760020020400557,
        "distance_elbow_joint": 3.89373672176803,
        "distance_shoulder_lift_joint": 2.820774280560605,
        "distance_shoulder_pan_joint": 2.797638882503322,
        "distance_wrist_1_joint": 5.972805596737215,
        "distance_wrist_2_joint": 2.3685013649815394,
        "distance_wrist_3_joint": 4.544472733420511,
        "smoothness": 0.3237519197413334,
        "time": 1.6819581399999999,
        "traj_len": 4.732645093388182,
        "weighted_distance": 6.310957297314804
    },
    "planner": "BKPIECE",
    "start": {
        "state": {
            "elbow_joint": 1.8268400409724999,
            "shoulder_lift_joint": -1.0144045787793008,
            "shoulder_pan_joint": 2.6280239544362485,
            "wrist_1_joint": -0.790705565816056,
            "wrist_2_joint": 1.0573557467365533,
            "wrist_3_joint": 3.1851377467193758
        }
    },
    "waypoints": [
        {
            "positions": [
                2.6280239544362485,
                -1.0144045787793008,
                1.8268400409724999,
                -0.790705565816056,
                1.0573557467365533,
                3.1851377467193758
            ]
        },
        {
            "positions": [
                2.616857970727325,
                -1.1024927374151245,
                1.8458101042305806,
                -0.7056994354815045,
                0.9794607699442749,
                3.0860155277038097
            ]
        },
        {
            "positions": [
                2.605691987018402,
                -1.1905808960509483,
                1.8647801674886613,
                -0.6206933051469531,
                0.9015657931519965,
                2.9868933086882437
            ]
        },
        {
            "positions": [
                2.5945260033094786,
                -1.278669054686772,
                1.883750230746742,
                -0.5356871748124017,
                0.8236708163597181,
                2.8877710896726776
            ]
        },
        {
            "positions": [
                2.5833600196005557,
                -1.3667572133225958,
                1.9027202940048227,
                -0.4506810444778502,
                0.7457758395674396,
                2.7886488706571115
            ]
        },
        {
            "positions": [
                2.5721940358916324,
                -1.4548453719584198,
                1.9216903572629034,
                -0.3656749141432987,
                0.6678808627751613,
                2.689526651641546
            ]
        },
        {
            "positions": [
                2.561028052182709,
                -1.5429335305942433,
                1.940660420520984,
                -0.28066878380874727,
                0.5899858859828828,
                2.59040443262598
            ]
        },
        {
            "positions": [
                2.549862068473786,
                -1.6310216892300673,
                1.9596304837790648,
                -0.19566265347419576,
                0.5120909091906044,
                2.491282213610414
            ]
        },
        {
            "positions": [
                2.5386960847648625,
                -1.719109847865891,
                1.9786005470371455,
                -0.11065652313964436,
                0.4341959323983261,
                2.3921599945948477
            ]
        },
        {
            "positions": [
                2.5275301010559392,
                -1.8071980065017148,
                1.9975706102952262,
                -0.025650392805092848,
                0.3563009556060476,
                2.2930377755792817
            ]
        },
        {
            "positions": [
                2.516364117347016,
                -1.8952861651375386,
                2.016540673553307,
                0.05935573752945855,
                0.2784059788137693,
                2.1939155565637156
            ]
        },
        {
            "positions": [
                2.5051981336380926,
                -1.9833743237733623,
                2.0355107368113874,
                0.14436186786401006,
                0.20051100202149075,
                2.0947933375481496
            ]
        },
        {
            "positions": [
                2.4940321499291698,
                -2.071462482409186,
                2.0544808000694683,
                0.22936799819856146,
                0.12261602522921244,
                1.9956711185325835
            ]
        },
        {
            "positions": [
                2.4828661662202465,
                -2.15955064104501,
                2.073450863327549,
                0.314374128533113,
                0.04472104843693403,
                1.8965488995170177
            ]
        },
        {
            "positions": [
                2.471700182511323,
                -2.247638799680834,
                2.0924209265856297,
                0.3993802588676645,
                -0.033173928355344495,
                1.7974266805014514
            ]
        },
        {
            "positions": [
                2.4605341988024,
                -2.3357269583166573,
                2.11139098984371,
                0.484386389202216,
                -0.1110689051476228,
                1.6983044614858855
            ]
        },
        {
            "positions": [
                2.4493682150934766,
                -2.4238151169524813,
                2.130361053101791,
                0.5693925195367673,
                -0.1889638819399011,
                1.5991822424703195
            ]
        },
        {
            "positions": [
                2.4382022313845533,
                -2.5119032755883053,
                2.1493311163598716,
                0.6543986498713188,
                -0.2668588587321796,
                1.5000600234547534
            ]
        },
        {
            "positions": [
                2.42703624767563,
                -2.599991434224129,
                2.1683011796179525,
                0.7394047802058703,
                -0.34475383552445815,
                1.4009378044391874
            ]
        },
        {
            "positions": [
                2.415870263966707,
                -2.688079592859953,
                2.187271242876033,
                0.8244109105404218,
                -0.42264881231673646,
                1.3018155854236213
            ]
        },
        {
            "positions": [
                2.404704280257784,
                -2.7761677514957763,
                2.206241306134114,
                0.9094170408749731,
                -0.5005437891090148,
                1.2026933664080555
            ]
        },
        {
            "positions": [
                2.3935382965488605,
                -2.8642559101316003,
                2.2252113693921944,
                0.9944231712095246,
                -0.5784387659012933,
                1.1035711473924894
            ]
        },
        {
            "positions": [
                2.3823723128399372,
                -2.952344068767424,
                2.244181432650275,
                1.0794293015440761,
                -0.6563337426935718,
                1.0044489283769233
            ]
        },
        {
            "positions": [
                2.371206329131014,
                -3.040432227403248,
                2.263151495908356,
                1.1644354318786276,
                -0.7342287194858501,
                0.9053267093613574
            ]
        },
        {
            "positions": [
                2.2986114360682115,
                -3.017725180776486,
                2.164367916856008,
                1.0496450147631267,
                -0.7177453795213035,
                0.9700313292488572
            ]
        },
        {
            "positions": [
                2.226016543005409,
                -2.9950181341497246,
                2.06558433780366,
                0.9348545976476257,
                -0.7012620395567568,
                1.034735949136357
            ]
        },
        {
            "positions": [
                2.153421649942606,
                -2.972311087522963,
                1.9668007587513123,
                0.8200641805321247,
                -0.6847786995922102,
                1.0994405690238567
            ]
        },
        {
            "positions": [
                2.080826756879804,
                -2.949604040896201,
                1.8680171796989646,
                0.7052737634166237,
                -0.6682953596276635,
                1.1641451889113563
            ]
        },
        {
            "positions": [
                2.0082318638170014,
                -2.9268969942694394,
                1.7692336006466167,
                0.5904833463011228,
                -0.6518120196631169,
                1.2288498087988562
            ]
        },
        {
            "positions": [
                1.935636970754199,
                -2.904189947642678,
                1.6704500215942688,
                0.47569292918562167,
                -0.6353286796985702,
                1.293554428686356
            ]
        },
        {
            "positions": [
                1.8630420776913963,
                -2.881482901015916,
                1.571666442541921,
                0.3609025120701207,
                -0.6188453397340236,
                1.3582590485738557
            ]
        },
        {
            "positions": [
                1.7904471846285939,
                -2.8587758543891546,
                1.4728828634895734,
                0.24611209495461972,
                -0.6023619997694769,
                1.4229636684613554
            ]
        },
        {
            "positions": [
                1.7178522915657912,
                -2.836068807762393,
                1.3740992844372255,
                0.13132167783911886,
                -0.5858786598049304,
                1.4876682883488552
            ]
        },
        {
            "positions": [
                1.6452573985029888,
                -2.8133617611356314,
                1.2753157053848776,
                0.01653126072361788,
                -0.5693953198403836,
                1.5523729082363549
            ]
        },
        {
            "positions": [
                1.5726625054401864,
                -2.7906547145088694,
                1.1765321263325297,
                -0.09825915639188332,
                -0.552911979875837,
                1.6170775281238547
            ]
        },
        {
            "positions": [
                1.5000676123773837,
                -2.7679476678821078,
                1.077748547280182,
                -0.2130495735073843,
                -0.5364286399112903,
                1.6817821480113544
            ]
        },
        {
            "positions": [
                1.427472719314581,
                -2.745240621255346,
                0.9789649682278341,
                -0.32783999062288527,
                -0.5199452999467437,
                1.7464867678988543
            ]
        },
        {
            "positions": [
                1.3548778262517787,
                -2.7225335746285846,
                0.8801813891754862,
                -0.44263040773838624,
                -0.503461959982197,
                1.8111913877863541
            ]
        },
        {
            "positions": [
                1.2822829331889762,
                -2.699826528001823,
                0.7813978101231385,
                -0.557420824853887,
                -0.4869786200176504,
                1.8758960076738536
            ]
        },
        {
            "positions": [
                1.2096880401261738,
                -2.6771194813750614,
                0.6826142310707908,
                -0.6722112419693882,
                -0.47049528005310376,
                1.9406006275613534
            ]
        },
        {
            "positions": [
                1.1370931470633712,
                -2.6544124347483,
                0.5838306520184429,
                -0.7870016590848892,
                -0.4540119400885571,
                2.0053052474488533
            ]
        },
        {
            "positions": [
                1.0644982540005687,
                -2.6317053881215378,
                0.48504707296609517,
                -0.9017920762003899,
                -0.4375286001240105,
                2.0700098673363527
            ]
        },
        {
            "positions": [
                0.9919033609377663,
                -2.608998341494776,
                0.38626349391374726,
                -1.016582493315891,
                -0.42104526015946386,
                2.1347144872238526
            ]
        },
        {
            "positions": [
                0.9193084678749637,
                -2.5862912948680146,
                0.28747991486139934,
                -1.1313729104313919,
                -0.40456192019491716,
                2.1994191071113525
            ]
        },
        {
            "positions": [
                0.8467135748121613,
                -2.563584248241253,
                0.18869633580905143,
                -1.2461633275468929,
                -0.3880785802303705,
                2.2641237269988523
            ]
        },
        {
            "positions": [
                0.7741186817493586,
                -2.5408772016144914,
                0.08991275675670352,
                -1.3609537446623943,
                -0.37159524026582386,
                2.328828346886352
            ]
        },
        {
            "positions": [
                0.7015237886865562,
                -2.51817015498773,
                -0.008870822295643954,
                -1.4757441617778952,
                -0.3551119003012772,
                2.3935329667738516
            ]
        },
        {
            "positions": [
                0.6289288956237535,
                -2.495463108360968,
                -0.10765440134799187,
                -1.5905345788933962,
                -0.33862856033673056,
                2.4582375866613515
            ]
        },
        {
            "positions": [
                0.5563340025609511,
                -2.4727560617342066,
                -0.20643798040033978,
                -1.7053249960088972,
                -0.3221452203721839,
                2.5229422065488514
            ]
        },
        {
            "positions": [
                0.48373910949814847,
                -2.4500490151074445,
                -0.3052215594526877,
                -1.8201154131243982,
                -0.30566188040763725,
                2.5876468264363512
            ]
        },
        {
            "positions": [
                0.41114421643534604,
                -2.427341968480683,
                -0.4040051385050356,
                -1.9349058302398991,
                -0.2891785404430906,
                2.6523514463238507
            ]
        },
        {
            "positions": [
                0.3385493233725434,
                -2.4046349218539214,
                -0.5027887175573835,
                -2.0496962473554,
                -0.27269520047854395,
                2.7170560662113505
            ]
        },
        {
            "positions": [
                0.265954430309741,
                -2.3819278752271598,
                -0.6015722966097314,
                -2.164486664470901,
                -0.2562118605139973,
                2.7817606860988504
            ]
        },
        {
            "positions": [
                0.19335953724693855,
                -2.359220828600398,
                -0.7003558756620789,
                -2.2792770815864016,
                -0.2397285205494507,
                2.84646530598635
            ]
        },
        {
            "positions": [
                0.12076464418413613,
                -2.3365137819736366,
                -0.7991394547144268,
                -2.394067498701903,
                -0.22324518058490406,
                2.9111699258738497
            ]
        },
        {
            "positions": [
                0.048169751121333704,
                -2.3138067353468745,
                -0.8979230337667743,
                -2.508857915817404,
                -0.2067618406203574,
                2.9758745457613496
            ]
        },
        {
            "positions": [
                -0.02442514194146872,
                -2.291099688720113,
                -0.9967066128191222,
                -2.623648332932905,
                -0.19027850065581076,
                3.040579165648849
            ]
        },
        {
            "positions": [
                -0.09702003500427159,
                -2.2683926420933513,
                -1.0954901918714701,
                -2.738438750048406,
                -0.1737951606912641,
                3.105283785536349
            ]
        },
        {
            "positions": [
                -0.16961492806707415,
                -2.2456855954665897,
                -1.194273770923818,
                -2.853229167163907,
                -0.15731182072671748,
                3.1699884054238487
            ]
        }
    ]
}