{
    "goal": {
        "global_pose": {
            "orientation": {
                "w": 0.7047431468963623,
                "x": -0.7094548344612122,
                "y": 0.0024358443915843964,
                "z": -0.0022348060738295317
            },
            "position": {
                "x": 0.6094750761985779,
                "y": 0.3671506643295288,
                "z": 0.19426114857196808
            }
        },
        "name": "move_to_magneteinheit_A"
    },
    "id": "BKPIECE_move_to_magneteinheit_A_149",
    "joint_names": [
        "shoulder_pan_joint",
        "shoulder_lift_joint",
        "elbow_joint",
        "wrist_1_joint",
        "wrist_2_joint",
        "wrist_3_joint"
    ],
    "metrics": {
        "cart_traj_len": 1.0548522271010543,
        "distance_elbow_joint": 0.3757993806255284,
        "distance_shoulder_lift_joint": 0.37130034246571175,
        "distance_shoulder_pan_joint": 1.242571625854299,
        "distance_wrist_1_joint": 2.186047250025577,
        "distance_wrist_2_joint": 1.697556777617094,
        "distance_wrist_3_joint": 1.250393867970283,
        "smoothness": 1.8698493194378823e-16,
        "time": 0.777082101,
        "traj_len": 2.669020278034338,
        "weighted_distance": 3.6753314147355103
    },
    "planner": "BKPIECE",
    "start": {
        "state": {
            "elbow_joint": 1.5739458966750683,
            "shoulder_lift_joint": -1.4977259741207325,
            "shoulder_pan_joint": -1.1188672016454206,
            "wrist_1_joint": 1.494575848278785,
            "wrist_2_joint": -1.5706037134824402,
            "wrist_3_joint": -2.0226957942261072
        }
    },
    "waypoints": [
        {
            "positions": [
                -1.1188672016454206,
                -1.4977259741207325,
                1.5739458966750683,
                1.494575848278785,
                -1.5706037134824402,
                -2.0226957942261072
            ]
        },
        {
            "positions": [
                -1.0498354446535152,
                -1.477098177317082,
                1.5948236400431532,
                1.3731287788329196,
                -1.476295003614824,
                -2.0921621202244562
            ]
        },
        {
            "positions": [
                -0.9808036876616096,
                -1.4564703805134311,
                1.6157013834112381,
                1.2516817093870543,
                -1.3819862937472076,
                -2.1616284462228053
            ]
        },
        {
            "positions": [
                -0.9117719306697042,
                -1.4358425837097806,
                1.636579126779323,
                1.130234639941189,
                -1.2876775838795913,
                -2.2310947722211543
            ]
        },
        {
            "positions": [
                -0.8427401736777986,
                -1.4152147869061298,
                1.657456870147408,
                1.0087875704953235,
                -1.193368874011975,
                -2.3005610982195033
            ]
        },
        {
            "positions": [
                -0.7737084166858932,
                -1.3945869901024792,
                1.6783346135154928,
                0.887340501049458,
                -1.0990601641443585,
                -2.3700274242178527
            ]
        },
        {
            "positions": [
                -0.7046766596939877,
                -1.3739591932988287,
                1.6992123568835777,
                0.7658934316035927,
                -1.0047514542767422,
                -2.4394937502162017
            ]
        },
        {
            "positions": [
                -0.6356449027020822,
                -1.3533313964951779,
                1.7200901002516626,
                0.6444463621577272,
                -0.9104427444091259,
                -2.5089600762145507
            ]
        },
        {
            "positions": [
                -0.5666131457101767,
                -1.3327035996915273,
                1.7409678436197475,
                0.522999292711862,
                -0.8161340345415097,
                -2.5784264022128998
            ]
        },
        {
            "positions": [
                -0.4975813887182712,
                -1.3120758028878767,
                1.7618455869878327,
                0.4015522232659965,
                -0.7218253246738933,
                -2.6478927282112488
            ]
        },
        {
            "positions": [
                -0.4285496317263656,
                -1.291448006084226,
                1.7827233303559176,
                0.2801051538201311,
                -0.6275166148062769,
                -2.717359054209598
            ]
        },
        {
            "positions": [
                -0.3595178747344602,
                -1.2708202092805754,
                1.8036010737240025,
                0.15865808437426554,
                -0.5332079049386604,
                -2.786825380207947
            ]
        },
        {
            "positions": [
                -0.29048611774255473,
                -1.2501924124769246,
                1.8244788170920874,
                0.0372110149284004,
                -0.43889919507104436,
                -2.856291706206296
            ]
        },
        {
            "positions": [
                -0.22145436075064917,
                -1.229564615673274,
                1.8453565604601723,
                -0.08423605451746496,
                -0.34459048520342805,
                -2.9257580322046453
            ]
        },
        {
            "positions": [
                -0.15242260375874372,
                -1.2089368188696232,
                1.8662343038282572,
                -0.20568312396333055,
                -0.25028177533581153,
                -2.995224358202994
            ]
        },
        {
            "positions": [
                -0.08339084676683806,
                -1.1883090220659727,
                1.887112047196342,
                -0.3271301934091959,
                -0.15597306546819523,
                -3.0646906842013433
            ]
        },
        {
            "positions": [
                -0.014359089774932832,
                -1.167681225262322,
                1.907989790564427,
                -0.44857726285506105,
                -0.061664355600579146,
                -3.134157010199692
            ]
        },
        {
            "positions": [
                0.05467266721697284,
                -1.1470534284586713,
                1.9288675339325119,
                -0.5700243323009266,
                0.03264435426703738,
                -3.2036233361980413
            ]
        },
        {
            "positions": [
                0.12370442420887823,
                -1.1264256316550207,
                1.9497452773005968,
                -0.6914714017467921,
                0.12695306413465357,
                -3.2730896621963903
            ]
        }
    ]
}