{
    "goal": {
        "global_pose": {
            "orientation": {
                "w": 0.7031023502349854,
                "x": -0.7110244035720825,
                "y": 0.007748599164187908,
                "z": 0.005598929710686207
            },
            "position": {
                "x": 0.11585023208521307,
                "y": 0.44412534475326537,
                "z": 0.3711530566215515
            }
        },
        "name": "move_to_auspresseinheit_A"
    },
    "id": "BKPIECE_move_to_auspresseinheit_A_20",
    "joint_names": [
        "shoulder_pan_joint",
        "shoulder_lift_joint",
        "elbow_joint",
        "wrist_1_joint",
        "wrist_2_joint",
        "wrist_3_joint"
    ],
    "metrics": {
        "cart_traj_len": 0.7012602557883922,
        "distance_elbow_joint": 0.23861924424300218,
        "distance_shoulder_lift_joint": 0.5340897629125185,
        "distance_shoulder_pan_joint": 1.044821207434725,
        "distance_wrist_1_joint": 0.9360541691695303,
        "distance_wrist_2_joint": 0.7843868972181539,
        "distance_wrist_3_joint": 1.006639028601374,
        "smoothness": 1.1034861929460633,
        "time": 0.686260464,
        "traj_len": 2.131809163499234,
        "weighted_distance": 2.877208618291301
    },
    "planner": "BKPIECE",
    "start": {
        "state": {
            "elbow_joint": 2.4225747245308327,
            "shoulder_lift_joint": -1.373653427065438,
            "shoulder_pan_joint": -0.33786330853087027,
            "wrist_1_joint": -1.0288602302712604,
            "wrist_2_joint": 1.23302299562683,
            "wrist_3_joint": -3.094021725338297
        }
    },
    "waypoints": [
        {
            "positions": [
                -0.33786330853087027,
                -1.373653427065438,
                2.4225747245308327,
                -1.0288602302712604,
                1.23302299562683,
                -3.094021725338297
            ]
        },
        {
            "positions": [
                -0.2601649393206523,
                -1.4267786088240373,
                2.405755668709002,
                -0.9349611924215128,
                1.151329509486493,
                -3.0334478483404337
            ]
        },
        {
            "positions": [
                -0.18246657011043432,
                -1.4799037905826369,
                2.3889366128871714,
                -0.8410621545717651,
                1.0696360233461562,
                -2.97287397134257
            ]
        },
        {
            "positions": [
                -0.10476820090021635,
                -1.5330289723412363,
                2.372117557065341,
                -0.7471631167220176,
                0.9879425372058194,
                -2.9123000943447064
            ]
        },
        {
            "positions": [
                -0.02706983168999838,
                -1.5861541540998356,
                2.3552985012435106,
                -0.65326407887227,
                0.9062490510654825,
                -2.851726217346843
            ]
        },
        {
            "positions": [
                0.05062853752021962,
                -1.639279335858435,
                2.33847944542168,
                -0.5593650410225224,
                0.8245555649251456,
                -2.791152340348979
            ]
        },
        {
            "positions": [
                0.12832690673043756,
                -1.6924045176170344,
                2.3216603895998498,
                -0.46546600317277487,
                0.7428620787848088,
                -2.7305784633511156
            ]
        },
        {
            "positions": [
                0.2060252759406555,
                -1.745529699375634,
                2.304841333778019,
                -0.37156696532302724,
                0.6611685926444719,
                -2.6700045863532518
            ]
        },
        {
            "positions": [
                0.28372364515087356,
                -1.7986548811342333,
                2.2880222779561885,
                -0.2776679274732796,
                0.579475106504135,
                -2.6094307093553883
            ]
        },
        {
            "positions": [
                0.38953220858911886,
                -1.825926958345164,
                2.314038977373278,
                -0.323883394066167,
                0.6121848585279998,
                -2.739942712510005
            ]
        },
        {
            "positions": [
                0.4953407720273642,
                -1.853199035556095,
                2.3400556767903673,
                -0.3700988606590544,
                0.6448946105518645,
                -2.870454715664621
            ]
        },
        {
            "positions": [
                0.6011493354656096,
                -1.8804711127670257,
                2.366072376207457,
                -0.41631432725194184,
                0.6776043625757293,
                -3.000966718819237
            ]
        },
        {
            "positions": [
                0.7069578989038549,
                -1.9077431899779564,
                2.3920890756245465,
                -0.46252979384482923,
                0.710314114599594,
                -3.1314787219738536
            ]
        }
    ]
}