{
    "goal": {
        "global_pose": {
            "orientation": {
                "w": -0.4816463035849501,
                "x": 0.5182115481033762,
                "y": 0.4908360881923453,
                "z": -0.5084816262002911
            },
            "position": {
                "x": -0.8240239810943604,
                "y": 0.19912469901144506,
                "z": 0.16403168439865112
            }
        },
        "name": "move_to_storage_D"
    },
    "id": "BKPIECE_move_to_storage_D_70",
    "joint_names": [
        "shoulder_pan_joint",
        "shoulder_lift_joint",
        "elbow_joint",
        "wrist_1_joint",
        "wrist_2_joint",
        "wrist_3_joint"
    ],
    "metrics": {
        "cart_traj_len": 3.9703558138611386,
        "distance_elbow_joint": 4.213703783752137,
        "distance_shoulder_lift_joint": 1.3027372894856568,
        "distance_shoulder_pan_joint": 2.8132226925758905,
        "distance_wrist_1_joint": 2.9228952358637414,
        "distance_wrist_2_joint": 1.2448773415434575,
        "distance_wrist_3_joint": 3.348840718210381,
        "smoothness": 0.44045228223396027,
        "time": 0.717984588,
        "traj_len": 3.9807382558303512,
        "weighted_distance": 5.168339295678954
    },
    "planner": "BKPIECE",
    "start": {
        "state": {
            "elbow_joint": -2.384821997420982,
            "shoulder_lift_joint": -2.2788054674887404,
            "shoulder_pan_joint": -0.18546946417610016,
            "wrist_1_joint": 1.4845937964226739,
            "wrist_2_joint": 0.1789877726866377,
            "wrist_3_joint": 0.03710572555276528
        }
    },
    "waypoints": [
        {
            "positions": [
                -0.18546946417610016,
                -2.2788054674887404,
                -2.384821997420982,
                1.4845937964226739,
                0.1789877726866377,
                0.03710572555276528
            ]
        },
        {
            "positions": [
                -0.10405941396784157,
                -2.2463831089005977,
                -2.378818961844698,
                1.4924638217279984,
                0.1393029070603481,
                0.142951912133984
            ]
        },
        {
            "positions": [
                -0.034878947388113576,
                -2.2200215991491823,
                -2.2658516400198376,
                1.4158834242762965,
                0.1682711133936143,
                0.06927197988576943
            ]
        },
        {
            "positions": [
                0.03430151919161442,
                -2.1936600893977665,
                -2.1528843181949773,
                1.3393030268245947,
                0.19723931972688052,
                -0.00440795236244515
            ]
        },
        {
            "positions": [
                0.10348198577134243,
                -2.167298579646351,
                -2.039916996370117,
                1.2627226293728926,
                0.22620752606014677,
                -0.07808788461065977
            ]
        },
        {
            "positions": [
                0.17266245235107042,
                -2.1409370698949353,
                -1.926949674545257,
                1.1861422319211907,
                0.25517573239341296,
                -0.1517678168588743
            ]
        },
        {
            "positions": [
                0.2418429189307984,
                -2.11457556014352,
                -1.8139823527203967,
                1.1095618344694889,
                0.2841439387266792,
                -0.22544774910708892
            ]
        },
        {
            "positions": [
                0.31102338551052644,
                -2.088214050392104,
                -1.7010150308955363,
                1.032981437017787,
                0.31311214505994545,
                -0.29912768135530354
            ]
        },
        {
            "positions": [
                0.38020385209025437,
                -2.0618525406406887,
                -1.588047709070676,
                0.9564010395660851,
                0.34208035139321163,
                -0.37280761360351805
            ]
        },
        {
            "positions": [
                0.4493843186699824,
                -2.035491030889273,
                -1.4750803872458158,
                0.8798206421143832,
                0.3710485577264778,
                -0.4464875458517326
            ]
        },
        {
            "positions": [
                0.5185647852497104,
                -2.0091295211378575,
                -1.3621130654209554,
                0.8032402446626813,
                0.40001676405974407,
                -0.5201674780999472
            ]
        },
        {
            "positions": [
                0.5877452518294384,
                -1.9827680113864419,
                -1.249145743596095,
                0.7266598472109793,
                0.4289849703930103,
                -0.5938474103481619
            ]
        },
        {
            "positions": [
                0.6569257184091665,
                -1.9564065016350263,
                -1.136178421771235,
                0.6500794497592775,
                0.45795317672627656,
                -0.6675273425963764
            ]
        },
        {
            "positions": [
                0.7261061849888945,
                -1.9300449918836107,
                -1.0232110999463746,
                0.5734990523075755,
                0.48692138305954275,
                -0.741207274844591
            ]
        },
        {
            "positions": [
                0.7952866515686223,
                -1.9036834821321953,
                -0.9102437781215145,
                0.4969186548558737,
                0.5158895893928089,
                -0.8148872070928055
            ]
        },
        {
            "positions": [
                0.8644671181483503,
                -1.8773219723807797,
                -0.7972764562966541,
                0.42033825740417186,
                0.5448577957260752,
                -0.8885671393410202
            ]
        },
        {
            "positions": [
                0.9336475847280784,
                -1.850960462629364,
                -0.684309134471794,
                0.34375785995247,
                0.5738260020593414,
                -0.9622470715892348
            ]
        },
        {
            "positions": [
                1.0028280513078065,
                -1.8245989528779485,
                -0.5713418126469336,
                0.2671774625007679,
                0.6027942083926077,
                -1.0359270038374493
            ]
        },
        {
            "positions": [
                1.0720085178875345,
                -1.7982374431265329,
                -0.45837449082207327,
                0.19059706504906604,
                0.6317624147258738,
                -1.109606936085664
            ]
        },
        {
            "positions": [
                1.1411889844672625,
                -1.7718759333751173,
                -0.3454071689972129,
                0.11401666759736417,
                0.66073062105914,
                -1.1832868683338786
            ]
        },
        {
            "positions": [
                1.2103694510469905,
                -1.7455144236237017,
                -0.23243984717235255,
                0.03743627014566209,
                0.6896988273924063,
                -1.256966800582093
            ]
        },
        {
            "positions": [
                1.2795499176267184,
                -1.719152913872286,
                -0.1194725253474922,
                -0.03914412730603978,
                0.7186670337256725,
                -1.3306467328303078
            ]
        },
        {
            "positions": [
                1.3487303842064464,
                -1.6927914041208707,
                -0.006505203522631842,
                -0.11572452475774164,
                0.7476352400589388,
                -1.4043266650785224
            ]
        },
        {
            "positions": [
                1.4179108507861744,
                -1.6664298943694549,
                0.10646211830222807,
                -0.1923049222094435,
                0.776603446392205,
                -1.478006597326737
            ]
        },
        {
            "positions": [
                1.4870913173659024,
                -1.6400683846180395,
                0.21942944012708843,
                -0.2688853196611456,
                0.8055716527254713,
                -1.5516865295749516
            ]
        },
        {
            "positions": [
                1.5562717839456304,
                -1.6137068748666237,
                0.3323967619519488,
                -0.34546571711284746,
                0.8345398590587374,
                -1.6253664618231662
            ]
        },
        {
            "positions": [
                1.6254522505253584,
                -1.5873453651152083,
                0.44536408377680914,
                -0.4220461145645493,
                0.8635080653920036,
                -1.6990463940713807
            ]
        },
        {
            "positions": [
                1.6946327171050863,
                -1.560983855363793,
                0.558331405601669,
                -0.49862651201625097,
                0.8924762717252698,
                -1.7727263263195951
            ]
        },
        {
            "positions": [
                1.7638131836848143,
                -1.534622345612377,
                0.6712987274265294,
                -0.575206909467953,
                0.921444478058536,
                -1.8464062585678096
            ]
        },
        {
            "positions": [
                1.8329936502645423,
                -1.5082608358609617,
                0.7842660492513898,
                -0.6517873069196547,
                0.9504126843918023,
                -1.9200861908160243
            ]
        },
        {
            "positions": [
                1.9021741168442703,
                -1.4818993261095459,
                0.8972333710762501,
                -0.7283677043713568,
                0.9793808907250685,
                -1.9937661230642387
            ]
        },
        {
            "positions": [
                1.9713545834239983,
                -1.4555378163581305,
                1.01020069290111,
                -0.8049481018230584,
                1.0083490970583346,
                -2.0674460553124536
            ]
        },
        {
            "positions": [
                2.0405350500037263,
                -1.4291763066067147,
                1.1231680147259704,
                -0.8815284992747605,
                1.037317303391601,
                -2.141125987560668
            ]
        },
        {
            "positions": [
                2.1097155165834542,
                -1.4028147968552993,
                1.2361353365508307,
                -0.9581088967264626,
                1.0662855097248671,
                -2.2148059198088825
            ]
        },
        {
            "positions": [
                2.1788959831631822,
                -1.3764532871038837,
                1.349102658375691,
                -1.0346892941781642,
                1.0952537160581333,
                -2.2884858520570974
            ]
        },
        {
            "positions": [
                2.24807644974291,
                -1.350091777352468,
                1.4620699802005515,
                -1.1112696916298663,
                1.1242219223913996,
                -2.362165784305312
            ]
        },
        {
            "positions": [
                2.300658660405899,
                -1.3689754161051444,
                1.569498414876661,
                -1.1021835172683636,
                1.200894240906856,
                -2.3916325864446857
            ]
        },
        {
            "positions": [
                2.3551744217382145,
                -1.3097854226723598,
                1.6127289767857436,
                -1.0518159301285221,
                1.1769607172284127,
                -2.5097009252864346
            ]
        },
        {
            "positions": [
                2.4096901830705297,
                -1.250595429239575,
                1.655959538694826,
                -1.0014483429886807,
                1.1530271935499692,
                -2.627769264128183
            ]
        },
        {
            "positions": [
                2.4642059444028446,
                -1.1914054358067903,
                1.6991901006039085,
                -0.9510807558488391,
                1.129093669871526,
                -2.745837602969932
            ]
        },
        {
            "positions": [
                2.51872170573516,
                -1.1322154423740056,
                1.7424206625129908,
                -0.9007131687089976,
                1.1051601461930827,
                -2.863905941811681
            ]
        },
        {
            "positions": [
                2.573237467067475,
                -1.0730254489412208,
                1.7856512244220732,
                -0.8503455815691561,
                1.0812266225146392,
                -2.9819742806534295
            ]
        },
        {
            "positions": [
                2.6277532283997904,
                -1.0138354555084361,
                1.8288817863311557,
                -0.7999779944293146,
                1.057293098836196,
                -3.1000426194951785
            ]
        }
    ]
}