{
    "goal": {
        "global_pose": {
            "orientation": {
                "w": 0.7047431468963623,
                "x": -0.7094548344612122,
                "y": 0.0024358443915843964,
                "z": -0.0022348060738295317
            },
            "position": {
                "x": 0.6094750761985779,
                "y": 0.3671506643295288,
                "z": 0.19426114857196808
            }
        },
        "name": "move_to_magneteinheit_A"
    },
    "id": "BKPIECE_move_to_magneteinheit_A_46",
    "joint_names": [
        "shoulder_pan_joint",
        "shoulder_lift_joint",
        "elbow_joint",
        "wrist_1_joint",
        "wrist_2_joint",
        "wrist_3_joint"
    ],
    "metrics": {
        "cart_traj_len": 1.0530096010191012,
        "distance_elbow_joint": 0.37743992155979456,
        "distance_shoulder_lift_joint": 0.3688884340032408,
        "distance_shoulder_pan_joint": 1.2408668306466233,
        "distance_wrist_1_joint": 2.187116188553396,
        "distance_wrist_2_joint": 1.692634703820174,
        "distance_wrist_3_joint": 1.2544874644835247,
        "smoothness": 0.0,
        "time": 1.203878239,
        "traj_len": 2.6686014207945616,
        "weighted_distance": 3.675616868555178
    },
    "planner": "BKPIECE",
    "start": {
        "state": {
            "elbow_joint": 1.5739458966750683,
            "shoulder_lift_joint": -1.4977259741207325,
            "shoulder_pan_joint": -1.1188672016454206,
            "wrist_1_joint": 1.494575848278785,
            "wrist_2_joint": -1.5706037134824402,
            "wrist_3_joint": -2.0226957942261072
        }
    },
    "waypoints": [
        {
            "positions": [
                -1.1188672016454206,
                -1.4977259741207325,
                1.5739458966750683,
                1.494575848278785,
                -1.5706037134824402,
                -2.0226957942261072
            ]
        },
        {
            "positions": [
                -1.049930155498386,
                -1.4772321722316635,
                1.5949147812061681,
                1.3730693933591518,
                -1.4765684521590972,
                -2.09238954225297
            ]
        },
        {
            "positions": [
                -0.9809931093513514,
                -1.4567383703425947,
                1.6158836657372677,
                1.2515629384395188,
                -1.3825331908357543,
                -2.162083290279832
            ]
        },
        {
            "positions": [
                -0.9120560632043168,
                -1.4362445684535257,
                1.6368525502683675,
                1.1300564835198856,
                -1.2884979295124113,
                -2.231777038306695
            ]
        },
        {
            "positions": [
                -0.8431190170572822,
                -1.4157507665644569,
                1.657821434799467,
                1.0085500286002524,
                -1.1944626681890682,
                -2.301470786333557
            ]
        },
        {
            "positions": [
                -0.7741819709102475,
                -1.3952569646753878,
                1.6787903193305669,
                0.8870435736806194,
                -1.1004274068657252,
                -2.3711645343604197
            ]
        },
        {
            "positions": [
                -0.7052449247632129,
                -1.3747631627863188,
                1.6997592038616665,
                0.7655371187609863,
                -1.0063921455423823,
                -2.440858282387282
            ]
        },
        {
            "positions": [
                -0.6363078786161782,
                -1.35426936089725,
                1.7207280883927663,
                0.6440306638413532,
                -0.9123568842190393,
                -2.5105520304141447
            ]
        },
        {
            "positions": [
                -0.5673708324691437,
                -1.333775559008181,
                1.7416969729238658,
                0.5225242089217201,
                -0.8183216228956963,
                -2.580245778441007
            ]
        },
        {
            "positions": [
                -0.498433786322109,
                -1.3132817571191122,
                1.7626658574549656,
                0.40101775400208695,
                -0.7242863615723533,
                -2.6499395264678696
            ]
        },
        {
            "positions": [
                -0.42949674017507433,
                -1.2927879552300432,
                1.7836347419860654,
                0.27951129908245376,
                -0.6302511002490102,
                -2.7196332744947322
            ]
        },
        {
            "positions": [
                -0.36055969402803967,
                -1.2722941533409742,
                1.804603626517165,
                0.15800484416282057,
                -0.5362158389256673,
                -2.7893270225215945
            ]
        },
        {
            "positions": [
                -0.2916226478810051,
                -1.2518003514519054,
                1.8255725110482648,
                0.0364983892431876,
                -0.44218057760232443,
                -2.859020770548457
            ]
        },
        {
            "positions": [
                -0.22268560173397045,
                -1.2313065495628364,
                1.8465413955793644,
                -0.08500806567644559,
                -0.3481453162789814,
                -2.9287145185753194
            ]
        },
        {
            "positions": [
                -0.1537485555869359,
                -1.2108127476737676,
                1.8675102801104642,
                -0.20651452059607855,
                -0.2541100549556383,
                -2.998408266602182
            ]
        },
        {
            "positions": [
                -0.08481150943990112,
                -1.1903189457846985,
                1.8884791646415637,
                -0.32802097551571174,
                -0.16007479363229526,
                -3.0681020146290443
            ]
        },
        {
            "positions": [
                -0.01587446329286668,
                -1.1698251438956295,
                1.9094480491726635,
                -0.4495274304353447,
                -0.06603953230895243,
                -3.137795762655907
            ]
        },
        {
            "positions": [
                0.05306258285416798,
                -1.1493313420065607,
                1.9304169337037633,
                -0.5710338853549779,
                0.027995729014390625,
                -3.2074895106827697
            ]
        },
        {
            "positions": [
                0.12199962900120273,
                -1.1288375401174917,
                1.951385818234863,
                -0.6925403402746112,
                0.12203099033773368,
                -3.277183258709632
            ]
        }
    ]
}