{
    "goal": {
        "global_pose": {
            "orientation": {
                "w": 0.7031023480610252,
                "x": -0.7110244013736278,
                "y": 0.0077485991402295624,
                "z": 0.005598929693374583
            },
            "position": {
                "x": -0.8841497679147869,
                "y": 0.44412534475326537,
                "z": 0.3711530566215515
            }
        },
        "name": "move_to_auspresseinheit_D"
    },
    "id": "BKPIECE_move_to_auspresseinheit_D_61",
    "joint_names": [
        "shoulder_pan_joint",
        "shoulder_lift_joint",
        "elbow_joint",
        "wrist_1_joint",
        "wrist_2_joint",
        "wrist_3_joint"
    ],
    "metrics": {
        "cart_traj_len": 3.36720980849415,
        "distance_elbow_joint": 3.2043954834101207,
        "distance_shoulder_lift_joint": 1.3867232703569643,
        "distance_shoulder_pan_joint": 2.7964717055588117,
        "distance_wrist_1_joint": 1.3009667435624386,
        "distance_wrist_2_joint": 0.9992920775634149,
        "distance_wrist_3_joint": 3.045993480354702,
        "smoothness": 0.006938632401972282,
        "time": 1.06453252,
        "traj_len": 3.5684510310226276,
        "weighted_distance": 4.596312494015361
    },
    "planner": "BKPIECE",
    "start": {
        "state": {
            "elbow_joint": 1.8268400409724999,
            "shoulder_lift_joint": -1.0144045787793008,
            "shoulder_pan_joint": 2.6280239544362485,
            "wrist_1_joint": -0.790705565816056,
            "wrist_2_joint": 1.0573557467365533,
            "wrist_3_joint": 3.1851377467193758
        }
    },
    "waypoints": [
        {
            "positions": [
                2.6280239544362485,
                -1.0144045787793008,
                1.8268400409724999,
                -0.790705565816056,
                1.0573557467365533,
                3.1851377467193758
            ]
        },
        {
            "positions": [
                2.588552329315533,
                -1.0827598099901348,
                1.7676451854804511,
                -0.7500594840488389,
                0.9898171039320366,
                3.085367902317703
            ]
        },
        {
            "positions": [
                2.549080704194817,
                -1.1511150412009687,
                1.7084503299884026,
                -0.7094134022816219,
                0.9222784611275199,
                2.98559805791603
            ]
        },
        {
            "positions": [
                2.5096090790741017,
                -1.2194702724118027,
                1.649255474496354,
                -0.6687673205144049,
                0.854739818323003,
                2.8858282135143574
            ]
        },
        {
            "positions": [
                2.4701374539533862,
                -1.2878255036226367,
                1.5900606190043054,
                -0.6281212387471878,
                0.7872011755184863,
                2.7860583691126846
            ]
        },
        {
            "positions": [
                2.4306658288326703,
                -1.356180734833471,
                1.5308657635122567,
                -0.5874751569799708,
                0.7196625327139696,
                2.6862885247110118
            ]
        },
        {
            "positions": [
                2.391194203711955,
                -1.4245359660443049,
                1.471670908020208,
                -0.5468290752127537,
                0.6521238899094528,
                2.586518680309339
            ]
        },
        {
            "positions": [
                2.3517225785912395,
                -1.4928911972551389,
                1.4124760525281594,
                -0.5061829934455366,
                0.5845852471049361,
                2.486748835907666
            ]
        },
        {
            "positions": [
                2.3122509534705236,
                -1.5612464284659728,
                1.3532811970361107,
                -0.4655369116783196,
                0.5170466043004194,
                2.386978991505993
            ]
        },
        {
            "positions": [
                2.272779328349808,
                -1.629601659676807,
                1.294086341544062,
                -0.4248908299111025,
                0.44950796149590255,
                2.28720914710432
            ]
        },
        {
            "positions": [
                2.2333077032290922,
                -1.697956890887641,
                1.2348914860520135,
                -0.3842447481438855,
                0.38196931869138584,
                2.1874393027026473
            ]
        },
        {
            "positions": [
                2.1938360781083768,
                -1.766312122098475,
                1.175696630559965,
                -0.3435986663766684,
                0.3144306758868691,
                2.087669458300975
            ]
        },
        {
            "positions": [
                2.1543644529876613,
                -1.834667353309309,
                1.1165017750679163,
                -0.3029525846094514,
                0.2468920330823524,
                1.987899613899302
            ]
        },
        {
            "positions": [
                2.1148928278669454,
                -1.903022584520143,
                1.0573069195758675,
                -0.26230650284223433,
                0.1793533902778356,
                1.888129769497629
            ]
        },
        {
            "positions": [
                2.07542120274623,
                -1.971377815730977,
                0.9981120640838189,
                -0.22166042107501727,
                0.11181474747331882,
                1.788359925095956
            ]
        },
        {
            "positions": [
                1.9573228367531357,
                -1.9939962385417815,
                0.8730769321616378,
                -0.18313823166336463,
                0.11464375159438099,
                1.7015591009522044
            ]
        },
        {
            "positions": [
                1.8392244707600411,
                -2.016614661352586,
                0.7480418002394569,
                -0.14461604225171198,
                0.11747275571544316,
                1.6147582768084527
            ]
        },
        {
            "positions": [
                1.7211261047669468,
                -2.0392330841633908,
                0.6230066683172759,
                -0.10609385284005932,
                0.12030175983650535,
                1.527957452664701
            ]
        },
        {
            "positions": [
                1.6030277387738525,
                -2.0618515069741954,
                0.49797153639509484,
                -0.06757166342840668,
                0.12313076395756752,
                1.4411566285209494
            ]
        },
        {
            "positions": [
                1.484929372780758,
                -2.084469929785,
                0.3729364044729139,
                -0.029049474016754007,
                0.12595976807862969,
                1.3543558043771977
            ]
        },
        {
            "positions": [
                1.3668310067876637,
                -2.1070883525958046,
                0.2479012725507328,
                0.009472715394898634,
                0.12878877219969187,
                1.267554980233446
            ]
        },
        {
            "positions": [
                1.2487326407945694,
                -2.1297067754066092,
                0.12286614062855183,
                0.047994904806551275,
                0.13161777632075403,
                1.1807541560896944
            ]
        },
        {
            "positions": [
                1.130634274801475,
                -2.152325198217414,
                -0.002168991293629241,
                0.08651709421820392,
                0.1344467804418162,
                1.0939533319459427
            ]
        },
        {
            "positions": [
                1.0125359088083805,
                -2.1749436210282185,
                -0.1272041232158102,
                0.1250392836298566,
                0.13727578456287837,
                1.0071525078021908
            ]
        },
        {
            "positions": [
                0.8944375428152862,
                -2.1975620438390235,
                -0.25223925513799117,
                0.16356147304150925,
                0.14010478868394055,
                0.9203516836584391
            ]
        },
        {
            "positions": [
                0.7763391768221917,
                -2.220180466649828,
                -0.37727438706017236,
                0.20208366245316195,
                0.1429337928050027,
                0.8335508595146873
            ]
        },
        {
            "positions": [
                0.6582408108290976,
                -2.2427988894606328,
                -0.5023095189823533,
                0.24060585186481454,
                0.1457627969260649,
                0.7467500353709358
            ]
        },
        {
            "positions": [
                0.540142444836003,
                -2.2654173122714374,
                -0.6273446509045345,
                0.2791280412764672,
                0.14859180104712705,
                0.6599492112271841
            ]
        },
        {
            "positions": [
                0.42204407884290873,
                -2.288035735082242,
                -0.7523797828267152,
                0.3176502306881198,
                0.15142080516818923,
                0.5731483870834324
            ]
        },
        {
            "positions": [
                0.3039457128498142,
                -2.3106541578930466,
                -0.8774149147488964,
                0.35617242009977257,
                0.15424980928925142,
                0.4863475629396805
            ]
        },
        {
            "positions": [
                0.18584734685671989,
                -2.3332725807038512,
                -1.0024500466710773,
                0.3946946095114251,
                0.15707881341031357,
                0.39954673879592906
            ]
        },
        {
            "positions": [
                0.06774898086362535,
                -2.355891003514656,
                -1.1274851785932585,
                0.43321679892307785,
                0.15990781753137576,
                0.31274591465217716
            ]
        },
        {
            "positions": [
                -0.05034938512946896,
                -2.3785094263254605,
                -1.2525203105154392,
                0.4717389883347305,
                0.1627368216524379,
                0.22594509050842548
            ]
        },
        {
            "positions": [
                -0.1684477511225632,
                -2.401127849136265,
                -1.3775554424376206,
                0.5102611777463831,
                0.1655658257735001,
                0.13914426636467378
            ]
        }
    ]
}