{
    "goal": {
        "global_pose": {
            "orientation": {
                "w": 0.7031023502349854,
                "x": -0.7110244035720825,
                "y": 0.007748599164187908,
                "z": 0.005598929710686207
            },
            "position": {
                "x": 0.11585023208521307,
                "y": 0.44412534475326537,
                "z": 0.3711530566215515
            }
        },
        "name": "move_to_auspresseinheit_A"
    },
    "id": "BKPIECE_move_to_auspresseinheit_A_16",
    "joint_names": [
        "shoulder_pan_joint",
        "shoulder_lift_joint",
        "elbow_joint",
        "wrist_1_joint",
        "wrist_2_joint",
        "wrist_3_joint"
    ],
    "metrics": {
        "cart_traj_len": 4.922948086444762,
        "distance_elbow_joint": 1.2547689028745785,
        "distance_shoulder_lift_joint": 3.393655813652103,
        "distance_shoulder_pan_joint": 7.378240392504843,
        "distance_wrist_1_joint": 7.811891189709884,
        "distance_wrist_2_joint": 7.700625176221136,
        "distance_wrist_3_joint": 9.682807945444011,
        "smoothness": 0.3560038576719395,
        "time": 1.2153059179999999,
        "traj_len": 6.100982660228314,
        "weighted_distance": 8.491179051063847
    },
    "planner": "BKPIECE",
    "start": {
        "state": {
            "elbow_joint": 2.4225747245308327,
            "shoulder_lift_joint": -1.373653427065438,
            "shoulder_pan_joint": -0.33786330853087027,
            "wrist_1_joint": -1.0288602302712604,
            "wrist_2_joint": 1.23302299562683,
            "wrist_3_joint": -3.094021725338297
        }
    },
    "waypoints": [
        {
            "positions": [
                -0.33786330853087027,
                -1.373653427065438,
                2.4225747245308327,
                -1.0288602302712604,
                1.23302299562683,
                -3.094021725338297
            ]
        },
        {
            "positions": [
                -0.3842989589088894,
                -1.3581551635416138,
                2.398107548084278,
                -0.9768541260510507,
                1.18345640805419,
                -2.9011066865241006
            ]
        },
        {
            "positions": [
                -0.43073460928690843,
                -1.3426569000177895,
                2.3736403716377237,
                -0.9248480218308409,
                1.13388982048155,
                -2.708191647709904
            ]
        },
        {
            "positions": [
                -0.47717025966492754,
                -1.3271586364939654,
                2.349173195191169,
                -0.8728419176106312,
                1.08432323290891,
                -2.5152766088957077
            ]
        },
        {
            "positions": [
                -0.5236059100429467,
                -1.311660372970141,
                2.3247060187446147,
                -0.8208358133904214,
                1.03475664533627,
                -2.3223615700815112
            ]
        },
        {
            "positions": [
                -0.5700415604209658,
                -1.296162109446317,
                2.30023884229806,
                -0.7688297091702117,
                0.9851900577636301,
                -2.1294465312673148
            ]
        },
        {
            "positions": [
                -0.6164772107989849,
                -1.2806638459224926,
                2.2757716658515057,
                -0.7168236049500021,
                0.9356234701909902,
                -1.9365314924531185
            ]
        },
        {
            "positions": [
                -0.662912861177004,
                -1.2651655823986685,
                2.251304489404951,
                -0.6648175007297923,
                0.8860568826183501,
                -1.743616453638922
            ]
        },
        {
            "positions": [
                -0.7093485115550231,
                -1.2496673188748442,
                2.2268373129583967,
                -0.6128113965095825,
                0.8364902950457103,
                -1.5507014148247256
            ]
        },
        {
            "positions": [
                -0.7557841619330421,
                -1.23416905535102,
                2.202370136511842,
                -0.5608052922893728,
                0.7869237074730703,
                -1.3577863760105293
            ]
        },
        {
            "positions": [
                -0.8022198123110613,
                -1.2186707918271957,
                2.1779029600652877,
                -0.508799188069163,
                0.7373571199004303,
                -1.1648713371963326
            ]
        },
        {
            "positions": [
                -0.8486554626890803,
                -1.2031725283033716,
                2.153435783618733,
                -0.45679308384895334,
                0.6877905323277903,
                -0.9719562983821364
            ]
        },
        {
            "positions": [
                -0.8950911130670993,
                -1.1876742647795475,
                2.1289686071721787,
                -0.40478697962874366,
                0.6382239447551504,
                -0.7790412595679399
            ]
        },
        {
            "positions": [
                -0.9415267634451185,
                -1.1721760012557232,
                2.104501430725624,
                -0.35278087540853387,
                0.5886573571825103,
                -0.5861262207537434
            ]
        },
        {
            "positions": [
                -0.9879624138231378,
                -1.156677737731899,
                2.0800342542790697,
                -0.3007747711883241,
                0.5390907696098703,
                -0.39321118193954696
            ]
        },
        {
            "positions": [
                -1.0343980642011568,
                -1.1411794742080748,
                2.055567077832515,
                -0.2487686669681145,
                0.48952418203723047,
                -0.2002961431253505
            ]
        },
        {
            "positions": [
                -1.0808337145791758,
                -1.1256812106842506,
                2.0310999013859607,
                -0.1967625627479047,
                0.4399575944645905,
                -0.007381104311154019
            ]
        },
        {
            "positions": [
                -1.127269364957195,
                -1.1101829471604265,
                2.006632724939406,
                -0.14475645852769492,
                0.3903910068919505,
                0.18553393450304245
            ]
        },
        {
            "positions": [
                -1.173705015335214,
                -1.0946846836366022,
                1.9821655484928515,
                -0.09275035430748524,
                0.3408244193193106,
                0.3784489733172385
            ]
        },
        {
            "positions": [
                -1.2201406657132332,
                -1.0791864201127779,
                1.957698372046297,
                -0.04074425008727556,
                0.29125783174667064,
                0.5713640121314354
            ]
        },
        {
            "positions": [
                -1.2665763160912522,
                -1.0636881565889538,
                1.9332311955997425,
                0.011261854132934346,
                0.24169124417403065,
                0.7642790509456319
            ]
        },
        {
            "positions": [
                -1.3130119664692712,
                -1.0481898930651297,
                1.908764019153188,
                0.06326795835314392,
                0.19212465660139078,
                0.9571940897598279
            ]
        },
        {
            "positions": [
                -1.3594476168472904,
                -1.0326916295413053,
                1.8842968427066336,
                0.11527406257335371,
                0.14255806902875068,
                1.1501091285740244
            ]
        },
        {
            "positions": [
                -1.4058832672253094,
                -1.0171933660174812,
                1.859829666260079,
                0.1672801667935635,
                0.0929914814561108,
                1.3430241673882208
            ]
        },
        {
            "positions": [
                -1.4523189176033284,
                -1.001695102493657,
                1.8353624898135246,
                0.21928627101377307,
                0.04342489388347093,
                1.5359392062024173
            ]
        },
        {
            "positions": [
                -1.4987545679813477,
                -0.9861968389698328,
                1.81089531336697,
                0.27129237523398286,
                -0.00614169368916917,
                1.7288542450166138
            ]
        },
        {
            "positions": [
                -1.3879778812475112,
                -1.037923119064374,
                1.8101663263798922,
                0.34701639915407906,
                -0.08186366562279325,
                1.6560744754882775
            ]
        },
        {
            "positions": [
                -1.2772011945136748,
                -1.0896493991589153,
                1.8094373393928143,
                0.42274042307417525,
                -0.15758563755641733,
                1.5832947059599414
            ]
        },
        {
            "positions": [
                -1.1664245077798385,
                -1.1413756792534566,
                1.8087083524057364,
                0.49846444699427145,
                -0.2333076094900414,
                1.510514936431605
            ]
        },
        {
            "positions": [
                -1.055647821046002,
                -1.193101959347998,
                1.8079793654186584,
                0.5741884709143676,
                -0.3090295814236655,
                1.4377351669032687
            ]
        },
        {
            "positions": [
                -0.9448711343121656,
                -1.2448282394425392,
                1.8072503784315805,
                0.6499124948344639,
                -0.38475155335728956,
                1.3649553973749327
            ]
        },
        {
            "positions": [
                -0.8340944475783293,
                -1.2965545195370805,
                1.8065213914445026,
                0.72563651875456,
                -0.4604735252909136,
                1.2921756278465963
            ]
        },
        {
            "positions": [
                -0.7233177608444928,
                -1.348280799631622,
                1.8057924044574247,
                0.8013605426746563,
                -0.5361954972245377,
                1.21939585831826
            ]
        },
        {
            "positions": [
                -0.6125410741106565,
                -1.4000070797261632,
                1.8050634174703468,
                0.8770845665947524,
                -0.6119174691581618,
                1.1466160887899237
            ]
        },
        {
            "positions": [
                -0.50176438737682,
                -1.4517333598207045,
                1.804334430483269,
                0.9528085905148487,
                -0.6876394410917859,
                1.0738363192615874
            ]
        },
        {
            "positions": [
                -0.3909877006429836,
                -1.5034596399152458,
                1.803605443496191,
                1.028532614434945,
                -0.7633614130254099,
                1.0010565497332513
            ]
        },
        {
            "positions": [
                -0.28021101390914716,
                -1.5551859200097873,
                1.802876456509113,
                1.1042566383550412,
                -0.8390833849590341,
                0.9282767802049149
            ]
        },
        {
            "positions": [
                -0.16943432717531093,
                -1.6069122001043283,
                1.8021474695220352,
                1.1799806622751372,
                -0.9148053568926581,
                0.8554970106765788
            ]
        },
        {
            "positions": [
                -0.05865764044147448,
                -1.6586384801988698,
                1.8014184825349573,
                1.2557046861952337,
                -0.9905273288262822,
                0.7827172411482425
            ]
        },
        {
            "positions": [
                0.05211904629236197,
                -1.7103647602934111,
                1.8006894955478794,
                1.3314287101153297,
                -1.0662493007599063,
                0.7099374716199063
            ]
        },
        {
            "positions": [
                0.16289573302619842,
                -1.7620910403879524,
                1.7999605085608015,
                1.407152734035426,
                -1.1419712726935305,
                0.63715770209157
            ]
        },
        {
            "positions": [
                0.27367241976003465,
                -1.8138173204824937,
                1.7992315215737236,
                1.482876757955522,
                -1.2176932446271544,
                0.5643779325632339
            ]
        },
        {
            "positions": [
                0.3844491064938711,
                -1.865543600577035,
                1.7985025345866457,
                1.5586007818756182,
                -1.2934152165607786,
                0.49159816303489734
            ]
        },
        {
            "positions": [
                0.49522579322770754,
                -1.9172698806715762,
                1.7977735475995678,
                1.6343248057957145,
                -1.3691371884944026,
                0.41881839350656125
            ]
        },
        {
            "positions": [
                0.606002479961544,
                -1.9689961607661175,
                1.7970445606124898,
                1.7100488297158107,
                -1.4448591604280268,
                0.34603862397822494
            ]
        },
        {
            "positions": [
                0.7167791666953804,
                -2.0207224408606588,
                1.796315573625412,
                1.7857728536359068,
                -1.5205811323616507,
                0.27325885444988884
            ]
        },
        {
            "positions": [
                0.8275558534292169,
                -2.0724487209552,
                1.795586586638334,
                1.8614968775560032,
                -1.596303104295275,
                0.2004790849215523
            ]
        },
        {
            "positions": [
                0.9383325401630533,
                -2.1241750010497418,
                1.7948575996512561,
                1.9372209014760995,
                -1.672025076228899,
                0.127699315393216
            ]
        },
        {
            "positions": [
                1.0491092268968898,
                -2.1759012811442826,
                1.7941286126641782,
                2.0129449253961953,
                -1.747747048162523,
                0.054919545864879904
            ]
        },
        {
            "positions": [
                1.1598859136307258,
                -2.227627561238824,
                1.7933996256771003,
                2.0886689493162915,
                -1.823469020096147,
                -0.017860223663456187
            ]
        },
        {
            "positions": [
                1.2706626003645627,
                -2.279353841333365,
                1.7926706386900224,
                2.164392973236388,
                -1.8991909920297714,
                -0.09063999319179272
            ]
        },
        {
            "positions": [
                1.3814392870983987,
                -2.331080121427907,
                1.7919416517029445,
                2.240116997156484,
                -1.9749129639633953,
                -0.16341976272012881
            ]
        },
        {
            "positions": [
                1.4922159738322351,
                -2.3828064015224477,
                1.7912126647158666,
                2.3158410210765803,
                -2.0506349358970195,
                -0.23619953224846513
            ]
        },
        {
            "positions": [
                1.6029926605660716,
                -2.4345326816169894,
                1.7904836777287887,
                2.3915650449966765,
                -2.1263569078306435,
                -0.3089793017768012
            ]
        },
        {
            "positions": [
                1.713769347299908,
                -2.4862589617115303,
                1.7897546907417108,
                2.467289068916773,
                -2.202078879764268,
                -0.38175907130513753
            ]
        },
        {
            "positions": [
                1.8245460340337445,
                -2.537985241806072,
                1.7890257037546329,
                2.543013092836869,
                -2.277800851697892,
                -0.45453884083347385
            ]
        },
        {
            "positions": [
                1.935322720767581,
                -2.589711521900613,
                1.788296716767555,
                2.6187371167569653,
                -2.3535228236315158,
                -0.5273186103618102
            ]
        },
        {
            "positions": [
                2.046099407501417,
                -2.6414378019951545,
                1.787567729780477,
                2.694461140677061,
                -2.4292447955651397,
                -0.600098379890146
            ]
        },
        {
            "positions": [
                2.156876094235254,
                -2.693164082089696,
                1.7868387427933992,
                2.770185164597158,
                -2.504966767498764,
                -0.6728781494184828
            ]
        },
        {
            "positions": [
                2.26765278096909,
                -2.744890362184237,
                1.7861097558063213,
                2.8459091885172536,
                -2.580688739432388,
                -0.7456579189468191
            ]
        },
        {
            "positions": [
                2.3784294677029263,
                -2.796616642278778,
                1.7853807688192433,
                2.92163321243735,
                -2.656410711366012,
                -0.818437688475155
            ]
        },
        {
            "positions": [
                2.4892061544367627,
                -2.8483429223733197,
                1.7846517818321654,
                2.997357236357446,
                -2.732132683299636,
                -0.8912174580034913
            ]
        },
        {
            "positions": [
                2.599982841170599,
                -2.900069202467861,
                1.7839227948450875,
                3.0730812602775424,
                -2.8078546552332604,
                -0.9639972275318276
            ]
        },
        {
            "positions": [
                2.710759527904435,
                -2.951795482562402,
                1.7831938078580096,
                3.1488052841976386,
                -2.8835766271668843,
                -1.036776997060164
            ]
        },
        {
            "positions": [
                2.6499160419296297,
                -2.920262131593798,
                1.8018419286520022,
                3.03867723343276,
                -2.7749697922145384,
                -1.100240655636295
            ]
        },
        {
            "positions": [
                2.5890725559548238,
                -2.8887287806251947,
                1.8204900494459948,
                2.9285491826678816,
                -2.666362957262192,
                -1.163704314212426
            ]
        },
        {
            "positions": [
                2.5282290699800183,
                -2.8571954296565907,
                1.8391381702399874,
                2.818421131903003,
                -2.557756122309846,
                -1.2271679727885572
            ]
        },
        {
            "positions": [
                2.4673855840052124,
                -2.8256620786879867,
                1.85778629103398,
                2.708293081138125,
                -2.4491492873575,
                -1.2906316313646882
            ]
        },
        {
            "positions": [
                2.406542098030407,
                -2.7941287277193827,
                1.8764344118279725,
                2.598165030373246,
                -2.340542452405154,
                -1.3540952899408192
            ]
        },
        {
            "positions": [
                2.3456986120556014,
                -2.762595376750779,
                1.8950825326219651,
                2.488036979608368,
                -2.2319356174528076,
                -1.4175589485169504
            ]
        },
        {
            "positions": [
                2.2848551260807954,
                -2.731062025782175,
                1.9137306534159577,
                2.3779089288434894,
                -2.1233287825004616,
                -1.4810226070930814
            ]
        },
        {
            "positions": [
                2.22401164010599,
                -2.699528674813571,
                1.9323787742099503,
                2.267780878078611,
                -2.0147219475481153,
                -1.5444862656692124
            ]
        },
        {
            "positions": [
                2.1631681541311845,
                -2.667995323844967,
                1.9510268950039429,
                2.1576528273137323,
                -1.9061151125957694,
                -1.6079499242453434
            ]
        },
        {
            "positions": [
                2.1023246681563785,
                -2.6364619728763636,
                1.9696750157979355,
                2.047524776548854,
                -1.7975082776434232,
                -1.6714135828214745
            ]
        },
        {
            "positions": [
                2.041481182181573,
                -2.6049286219077596,
                1.988323136591928,
                1.9373967257839755,
                -1.6889014426910771,
                -1.7348772413976055
            ]
        },
        {
            "positions": [
                1.9806376962067673,
                -2.5733952709391557,
                2.0069712573859206,
                1.827268675019097,
                -1.580294607738731,
                -1.7983408999737367
            ]
        },
        {
            "positions": [
                1.9197942102319616,
                -2.541861919970552,
                2.0256193781799134,
                1.7171406242542184,
                -1.4716877727863849,
                -1.8618045585498677
            ]
        },
        {
            "positions": [
                1.8589507242571561,
                -2.510328569001948,
                2.044267498973906,
                1.60701257348934,
                -1.3630809378340387,
                -1.925268217125999
            ]
        },
        {
            "positions": [
                1.7981072382823504,
                -2.478795218033344,
                2.0629156197678986,
                1.4968845227244616,
                -1.2544741028816928,
                -1.98873187570213
            ]
        },
        {
            "positions": [
                1.7372637523075447,
                -2.44726186706474,
                2.081563740561891,
                1.386756471959583,
                -1.1458672679293465,
                -2.052195534278261
            ]
        },
        {
            "positions": [
                1.6764202663327392,
                -2.4157285160961366,
                2.100211861355884,
                1.2766284211947045,
                -1.0372604329770005,
                -2.115659192854392
            ]
        },
        {
            "positions": [
                1.6155767803579335,
                -2.3841951651275326,
                2.118859982149876,
                1.1665003704298262,
                -0.9286535980246544,
                -2.179122851430523
            ]
        },
        {
            "positions": [
                1.5547332943831278,
                -2.3526618141589286,
                2.137508102943869,
                1.0563723196649475,
                -0.8200467630723081,
                -2.242586510006654
            ]
        },
        {
            "positions": [
                1.493889808408322,
                -2.321128463190325,
                2.1561562237378613,
                0.946244268900069,
                -0.7114399281199622,
                -2.306050168582785
            ]
        },
        {
            "positions": [
                1.4330463224335166,
                -2.289595112221721,
                2.174804344531854,
                0.8361162181351909,
                -0.6028330931676162,
                -2.369513827158916
            ]
        },
        {
            "positions": [
                1.3722028364587109,
                -2.258061761253117,
                2.1934524653258465,
                0.7259881673703124,
                -0.4942262582152699,
                -2.432977485735047
            ]
        },
        {
            "positions": [
                1.3113593504839052,
                -2.226528410284513,
                2.2121005861198393,
                0.6158601166054334,
                -0.38561942326292353,
                -2.4964411443111785
            ]
        },
        {
            "positions": [
                1.2505158645090995,
                -2.194995059315909,
                2.2307487069138316,
                0.5057320658405553,
                -0.2770125883105776,
                -2.5599048028873095
            ]
        },
        {
            "positions": [
                1.189672378534294,
                -2.1634617083473056,
                2.2493968277078245,
                0.3956040150756768,
                -0.1684057533582317,
                -2.6233684614634405
            ]
        },
        {
            "positions": [
                1.1288288925594883,
                -2.1319283573787016,
                2.268044948501817,
                0.28547596431079825,
                -0.05979891840588536,
                -2.6868321200395715
            ]
        },
        {
            "positions": [
                1.0679854065846826,
                -2.1003950064100976,
                2.2866930692958096,
                0.17534791354591972,
                0.048807916546460994,
                -2.750295778615703
            ]
        },
        {
            "positions": [
                1.0071419206098768,
                -2.068861655441494,
                2.305341190089802,
                0.0652198627810412,
                0.1574147514988069,
                -2.813759437191834
            ]
        },
        {
            "positions": [
                0.9462984346350714,
                -2.03732830447289,
                2.323989310883795,
                -0.04490818798383689,
                0.2660215864511528,
                -2.877223095767965
            ]
        },
        {
            "positions": [
                0.8854549486602656,
                -2.005794953504286,
                2.3426374316777876,
                -0.15503623874871542,
                0.3746284214034987,
                -2.940686754344096
            ]
        },
        {
            "positions": [
                0.8246114626854599,
                -1.974261602535682,
                2.36128555247178,
                -0.2651642895135944,
                0.4832352563558455,
                -3.004150412920227
            ]
        },
        {
            "positions": [
                0.7637679767106542,
                -1.9427282515670783,
                2.3799336732657723,
                -0.37529234027847247,
                0.5918420913081914,
                -3.067614071496358
            ]
        },
        {
            "positions": [
                0.7029244907358488,
                -1.9111949005984745,
                2.398581794059765,
                -0.4854203910433511,
                0.7004489262605371,
                -3.131077730072489
            ]
        }
    ]
}