{
    "goal": {
        "global_pose": {
            "orientation": {
                "w": -0.00223480608172531,
                "x": 0.0024358444001904467,
                "y": 0.7094548369677653,
                "z": -0.704743149386269
            },
            "position": {
                "x": 0.6205249238014221,
                "y": -0.6371506643295288,
                "z": 0.19426114857196808
            }
        },
        "name": "move_to_magneteinheit_B"
    },
    "id": "BKPIECE_move_to_magneteinheit_B_115",
    "joint_names": [
        "shoulder_pan_joint",
        "shoulder_lift_joint",
        "elbow_joint",
        "wrist_1_joint",
        "wrist_2_joint",
        "wrist_3_joint"
    ],
    "metrics": {
        "cart_traj_len": 3.262126890095268,
        "distance_elbow_joint": 5.032028246439371,
        "distance_shoulder_lift_joint": 2.0364957380027695,
        "distance_shoulder_pan_joint": 2.7178706778730524,
        "distance_wrist_1_joint": 2.4701796578283304,
        "distance_wrist_2_joint": 1.6514260556111457,
        "distance_wrist_3_joint": 7.547868049077553,
        "smoothness": 0.46224361771674866,
        "time": 1.703915959,
        "traj_len": 4.632047973071115,
        "weighted_distance": 6.377555192738577
    },
    "planner": "BKPIECE",
    "start": {
        "state": {
            "elbow_joint": 2.3935871308073637,
            "shoulder_lift_joint": -1.9085141043777403,
            "shoulder_pan_joint": 0.7066247067284167,
            "wrist_1_joint": -0.46782909355067076,
            "wrist_2_joint": 0.7096259085804283,
            "wrist_3_joint": -3.1358149275257428
        }
    },
    "waypoints": [
        {
            "positions": [
                0.7066247067284167,
                -1.9085141043777403,
                2.3935871308073637,
                -0.46782909355067076,
                0.7096259085804283,
                -3.1358149275257428
            ]
        },
        {
            "positions": [
                0.7502991880871481,
                -1.9289888238197315,
                2.39011579771947,
                -0.4328854376845119,
                0.6840362526680592,
                -3.062625033365312
            ]
        },
        {
            "positions": [
                0.7939736694458797,
                -1.9494635432617224,
                2.3866444646315763,
                -0.397941781818353,
                0.6584465967556903,
                -2.989435139204881
            ]
        },
        {
            "positions": [
                0.8777725261468897,
                -1.9618411840287364,
                2.3365090056198436,
                -0.35678786471061047,
                0.6395486068996254,
                -2.9237223240347303
            ]
        },
        {
            "positions": [
                0.933282408127858,
                -1.9430939075193916,
                2.221451843578864,
                -0.3090372594209345,
                0.6171692546622921,
                -2.7922904369015127
            ]
        },
        {
            "positions": [
                0.9887922901088264,
                -1.9243466310100465,
                2.1063946815378842,
                -0.2612866541312585,
                0.5947899024249589,
                -2.660858549768295
            ]
        },
        {
            "positions": [
                1.0443021720897947,
                -1.9055993545007017,
                1.9913375194969045,
                -0.21353604884158253,
                0.5724105501876255,
                -2.5294266626350774
            ]
        },
        {
            "positions": [
                1.099812054070763,
                -1.886852077991357,
                1.8762803574559248,
                -0.16578544355190658,
                0.5500311979502922,
                -2.39799477550186
            ]
        },
        {
            "positions": [
                1.1553219360517313,
                -1.868104801482012,
                1.7612231954149453,
                -0.1180348382622306,
                0.5276518457129589,
                -2.266562888368642
            ]
        },
        {
            "positions": [
                1.2108318180326996,
                -1.849357524972667,
                1.6461660333739654,
                -0.0702842329725546,
                0.5052724934756256,
                -2.135131001235424
            ]
        },
        {
            "positions": [
                1.266341700013668,
                -1.8306102484633222,
                1.5311088713329857,
                -0.022533627682878643,
                0.4828931412382923,
                -2.0036991141022065
            ]
        },
        {
            "positions": [
                1.3218515819946361,
                -1.8118629719539774,
                1.416051709292006,
                0.02521697760679731,
                0.46051378900095896,
                -1.872267226968989
            ]
        },
        {
            "positions": [
                1.3773614639756047,
                -1.7931156954446323,
                1.3009945472510263,
                0.07296758289647332,
                0.4381344367636257,
                -1.7408353398357712
            ]
        },
        {
            "positions": [
                1.4328713459565727,
                -1.7743684189352875,
                1.1859373852100468,
                0.12071818818614927,
                0.4157550845262924,
                -1.6094034527025536
            ]
        },
        {
            "positions": [
                1.4883812279375412,
                -1.7556211424259427,
                1.0708802231690668,
                0.16846879347582527,
                0.39337573228895906,
                -1.477971565569336
            ]
        },
        {
            "positions": [
                1.5438911099185095,
                -1.7368738659165976,
                0.9558230611280871,
                0.21621939876550128,
                0.3709963800516258,
                -1.346539678436118
            ]
        },
        {
            "positions": [
                1.5994009918994778,
                -1.7181265894072528,
                0.8407658990871076,
                0.2639700040551772,
                0.3486170278142925,
                -1.2151077913029007
            ]
        },
        {
            "positions": [
                1.6549108738804463,
                -1.699379312897908,
                0.7257087370461277,
                0.3117206093448532,
                0.32623767557695915,
                -1.0836759041696828
            ]
        },
        {
            "positions": [
                1.7104207558614144,
                -1.6806320363885632,
                0.610651575005148,
                0.3594712146345292,
                0.3038583233396258,
                -0.952244017036465
            ]
        },
        {
            "positions": [
                1.765930637842383,
                -1.6618847598792184,
                0.4955944129641685,
                0.4072218199242051,
                0.28147897110229253,
                -0.8208121299032478
            ]
        },
        {
            "positions": [
                1.821440519823351,
                -1.6431374833698733,
                0.3805372509231886,
                0.4549724252138811,
                0.25909961886495925,
                -0.6893802427700297
            ]
        },
        {
            "positions": [
                1.8769504018043195,
                -1.6243902068605285,
                0.26548008888220886,
                0.502723030503557,
                0.2367202666276259,
                -0.5579483556368121
            ]
        },
        {
            "positions": [
                1.9324602837852876,
                -1.6056429303511837,
                0.15042292684122938,
                0.5504736357932329,
                0.21434091439029263,
                -0.4265164685035945
            ]
        },
        {
            "positions": [
                1.987970165766256,
                -1.5868956538418386,
                0.03536576480024989,
                0.5982242410829091,
                0.19196156215295934,
                -0.29508458137037685
            ]
        },
        {
            "positions": [
                2.043480047747224,
                -1.5681483773324938,
                -0.07969139724073004,
                0.645974846372585,
                0.169582209915626,
                -0.16365269423715922
            ]
        },
        {
            "positions": [
                2.0989899297281926,
                -1.549401100823149,
                -0.19474855928170998,
                0.6937254516622611,
                0.14720285767829266,
                -0.032220807103941596
            ]
        },
        {
            "positions": [
                2.154499811709161,
                -1.530653824313804,
                -0.30980572132268946,
                0.741476056951937,
                0.12482350544095933,
                0.09921108002927648
            ]
        },
        {
            "positions": [
                2.2100096936901292,
                -1.511906547804459,
                -0.4248628833636694,
                0.7892266622416131,
                0.1024441532036261,
                0.2306429671624941
            ]
        },
        {
            "positions": [
                2.2655195756710977,
                -1.4931592712951143,
                -0.5399200454046493,
                0.836977267531289,
                0.08006480096629276,
                0.36207485429571173
            ]
        },
        {
            "positions": [
                2.321029457652066,
                -1.4744119947857695,
                -0.6549772074456284,
                0.8847278728209649,
                0.05768544872895953,
                0.4935067414289289
            ]
        },
        {
            "positions": [
                2.3765393396330343,
                -1.4556647182764246,
                -0.7700343694866083,
                0.932478478110641,
                0.03530609649162619,
                0.624938628562147
            ]
        },
        {
            "positions": [
                2.432049221614003,
                -1.4369174417670796,
                -0.8850915315275882,
                0.9802290834003169,
                0.012926744254292855,
                0.7563705156953646
            ]
        },
        {
            "positions": [
                2.487559103594971,
                -1.4181701652577345,
                -1.0001486935685677,
                1.027979688689993,
                -0.009452607983040484,
                0.8878024028285822
            ]
        },
        {
            "positions": [
                2.5430689855759394,
                -1.39942288874839,
                -1.1152058556095477,
                1.075730293979669,
                -0.03183196022037382,
                1.0192342899618003
            ]
        },
        {
            "positions": [
                2.5985788675569075,
                -1.380675612239045,
                -1.2302630176505271,
                1.1234808992693448,
                -0.05421131245770705,
                1.150666177095017
            ]
        },
        {
            "positions": [
                2.654088749537876,
                -1.3619283357297,
                -1.3453201796915066,
                1.1712315045590207,
                -0.07659066469504039,
                1.2820980642282347
            ]
        },
        {
            "positions": [
                2.709598631518844,
                -1.3431810592203552,
                -1.4603773417324866,
                1.2189821098486968,
                -0.09897001693237373,
                1.4135299513614532
            ]
        },
        {
            "positions": [
                2.7651085134998126,
                -1.3244337827110102,
                -1.5754345037734665,
                1.2667327151383727,
                -0.12134936916970696,
                1.5449618384946708
            ]
        },
        {
            "positions": [
                2.820618395480781,
                -1.3056865062016654,
                -1.690491665814446,
                1.3144833204280488,
                -0.1437287214070403,
                1.6763937256278885
            ]
        },
        {
            "positions": [
                2.876128277461749,
                -1.2869392296923206,
                -1.805548827855426,
                1.3622339257177247,
                -0.16610807364437363,
                1.807825612761106
            ]
        },
        {
            "positions": [
                2.9316381594427177,
                -1.2681919531829755,
                -1.920605989896405,
                1.4099845310074006,
                -0.18848742588170686,
                1.9392574998943237
            ]
        },
        {
            "positions": [
                2.9871480414236857,
                -1.249444676673631,
                -2.035663151937385,
                1.4577351362970765,
                -0.2108667781190402,
                2.0706893870275414
            ]
        },
        {
            "positions": [
                3.0426579234046542,
                -1.2306974001642859,
                -2.150720313978365,
                1.5054857415867526,
                -0.23324613035637354,
                2.2021212741607594
            ]
        },
        {
            "positions": [
                3.015383819033453,
                -1.3201277483419518,
                -2.115883113860247,
                1.4699953971088309,
                -0.18263512916534907,
                2.0442689993471133
            ]
        },
        {
            "positions": [
                2.988109714662252,
                -1.4095580965196177,
                -2.0810459137421295,
                1.434505052630909,
                -0.1320241279743246,
                1.8864167245334666
            ]
        },
        {
            "positions": [
                2.960835610291051,
                -1.4989884446972837,
                -2.046208713624012,
                1.3990147081529873,
                -0.08141312678330012,
                1.7285644497198203
            ]
        },
        {
            "positions": [
                2.93356150591985,
                -1.5884187928749494,
                -2.0113715135058943,
                1.3635243636750656,
                -0.03080212559227566,
                1.5707121749061739
            ]
        },
        {
            "positions": [
                2.906287401548649,
                -1.6778491410526153,
                -1.9765343133877766,
                1.3280340191971438,
                0.019808875598748832,
                1.4128599000925275
            ]
        },
        {
            "positions": [
                2.879013297177448,
                -1.7672794892302812,
                -1.941697113269659,
                1.292543674719222,
                0.0704198767897733,
                1.255007625278881
            ]
        },
        {
            "positions": [
                2.8517391928062468,
                -1.8567098374079472,
                -1.9068599131515414,
                1.2570533302413,
                0.12103087798079776,
                1.0971553504652347
            ]
        },
        {
            "positions": [
                2.8244650884350455,
                -1.9461401855856129,
                -1.8720227130334237,
                1.2215629857633785,
                0.17164187917182222,
                0.9393030756515883
            ]
        },
        {
            "positions": [
                2.7971909840638447,
                -2.035570533763279,
                -1.837185512915306,
                1.1860726412854565,
                0.22225288036284674,
                0.7814508008379419
            ]
        },
        {
            "positions": [
                2.7699168796926434,
                -2.1250008819409447,
                -1.8023483127971884,
                1.1505822968075348,
                0.2728638815538712,
                0.6235985260242956
            ]
        },
        {
            "positions": [
                2.7426427753214426,
                -2.2144312301186106,
                -1.7675111126790708,
                1.115091952329613,
                0.32347488274489566,
                0.46574625121064916
            ]
        },
        {
            "positions": [
                2.7153686709502414,
                -2.3038615782962766,
                -1.7326739125609532,
                1.0796016078516912,
                0.3740858839359201,
                0.3078939763970028
            ]
        },
        {
            "positions": [
                2.68809456657904,
                -2.3932919264739425,
                -1.6978367124428355,
                1.0441112633737695,
                0.4246968851269446,
                0.15004170158335617
            ]
        },
        {
            "positions": [
                2.6608204622078393,
                -2.4827222746516084,
                -1.6629995123247179,
                1.0086209188958477,
                0.47530788631796905,
                -0.007810573230290023
            ]
        }
    ]
}