{
    "goal": {
        "global_pose": {
            "orientation": {
                "w": -0.00223480608172531,
                "x": 0.0024358444001904467,
                "y": 0.7094548369677653,
                "z": -0.704743149386269
            },
            "position": {
                "x": 0.6205249238014221,
                "y": -0.6371506643295288,
                "z": 0.19426114857196808
            }
        },
        "name": "move_to_magneteinheit_B"
    },
    "id": "BKPIECE_move_to_magneteinheit_B_133",
    "joint_names": [
        "shoulder_pan_joint",
        "shoulder_lift_joint",
        "elbow_joint",
        "wrist_1_joint",
        "wrist_2_joint",
        "wrist_3_joint"
    ],
    "metrics": {
        "cart_traj_len": 1.4529296996280159,
        "distance_elbow_joint": 0.7288130176520886,
        "distance_shoulder_lift_joint": 1.2473725877631883,
        "distance_shoulder_pan_joint": 1.622112046799112,
        "distance_wrist_1_joint": 2.6073844011244813,
        "distance_wrist_2_joint": 2.9352587692388963,
        "distance_wrist_3_joint": 3.131004874483476,
        "smoothness": 3.8857805856418593e-16,
        "time": 0.648199337,
        "traj_len": 3.503133696715164,
        "weighted_distance": 4.906791071198321
    },
    "planner": "BKPIECE",
    "start": {
        "state": {
            "elbow_joint": 2.3935871308073637,
            "shoulder_lift_joint": -1.9085141043777403,
            "shoulder_pan_joint": 0.7066247067284167,
            "wrist_1_joint": -0.46782909355067076,
            "wrist_2_joint": 0.7096259085804283,
            "wrist_3_joint": -3.1358149275257428
        }
    },
    "waypoints": [
        {
            "positions": [
                0.7066247067284167,
                -1.9085141043777403,
                2.3935871308073637,
                -0.46782909355067076,
                0.7096259085804283,
                -3.1358149275257428
            ]
        },
        {
            "positions": [
                0.6542985116703809,
                -1.8682762789660246,
                2.370077033463748,
                -0.3837199193208488,
                0.6149401418307865,
                -3.03481477028434
            ]
        },
        {
            "positions": [
                0.601972316612345,
                -1.8280384535543088,
                2.3465669361201322,
                -0.2996107450910268,
                0.5202543750811447,
                -2.9338146130429377
            ]
        },
        {
            "positions": [
                0.5496461215543091,
                -1.787800628142593,
                2.3230568387765165,
                -0.2155015708612048,
                0.42556860833150284,
                -2.8328144558015356
            ]
        },
        {
            "positions": [
                0.4973199264962732,
                -1.7475628027308772,
                2.2995467414329007,
                -0.13139239663138286,
                0.33088284158186104,
                -2.731814298560133
            ]
        },
        {
            "positions": [
                0.4449937314382374,
                -1.7073249773191614,
                2.276036644089285,
                -0.047283222401560854,
                0.23619707483221924,
                -2.6308141413187305
            ]
        },
        {
            "positions": [
                0.3926675363802015,
                -1.6670871519074457,
                2.252526546745669,
                0.03682595182826115,
                0.1415113080825774,
                -2.529813984077328
            ]
        },
        {
            "positions": [
                0.34034134132216565,
                -1.62684932649573,
                2.2290164494020535,
                0.12093512605808304,
                0.046825541332935594,
                -2.428813826835926
            ]
        },
        {
            "positions": [
                0.2880151462641298,
                -1.5866115010840143,
                2.2055063520584377,
                0.20504430028790505,
                -0.047860225416706204,
                -2.327813669594523
            ]
        },
        {
            "positions": [
                0.23568895120609384,
                -1.5463736756722986,
                2.181996254714822,
                0.28915347451772705,
                -0.1425459921663481,
                -2.2268135123531207
            ]
        },
        {
            "positions": [
                0.18336275614805808,
                -1.5061358502605828,
                2.158486157371206,
                0.37326264874754905,
                -0.2372317589159898,
                -2.125813355111718
            ]
        },
        {
            "positions": [
                0.13103656109002215,
                -1.465898024848867,
                2.1349760600275904,
                0.45737182297737106,
                -0.3319175256656318,
                -2.0248131978703157
            ]
        },
        {
            "positions": [
                0.07871036603198633,
                -1.4256601994371514,
                2.1114659626839747,
                0.541480997207193,
                -0.4266032924152735,
                -1.9238130406289133
            ]
        },
        {
            "positions": [
                0.026384170973950405,
                -1.3854223740254354,
                2.087955865340359,
                0.6255901714370149,
                -0.5212890591649154,
                -1.8228128833875108
            ]
        },
        {
            "positions": [
                -0.025942024084085413,
                -1.34518454861372,
                2.064445767996743,
                0.7096993456668368,
                -0.6159748259145571,
                -1.7218127261461085
            ]
        },
        {
            "positions": [
                -0.07826821914212134,
                -1.304946723202004,
                2.0409356706531274,
                0.7938085198966589,
                -0.710660592664199,
                -1.620812568904706
            ]
        },
        {
            "positions": [
                -0.13059441420015716,
                -1.2647088977902883,
                2.0174255733095117,
                0.8779176941264808,
                -0.8053463594138407,
                -1.5198124116633034
            ]
        },
        {
            "positions": [
                -0.18292060925819298,
                -1.2244710723785726,
                1.993915475965896,
                0.9620268683563027,
                -0.9000321261634824,
                -1.418812254421901
            ]
        },
        {
            "positions": [
                -0.23524680431622902,
                -1.1842332469668566,
                1.97040537862228,
                1.0461360425861248,
                -0.9947178929131245,
                -1.3178120971804983
            ]
        },
        {
            "positions": [
                -0.28757299937426484,
                -1.143995421555141,
                1.9468952812786642,
                1.1302452168159467,
                -1.089403659662766,
                -1.216811939939096
            ]
        },
        {
            "positions": [
                -0.33989919443230054,
                -1.1037575961434252,
                1.9233851839350486,
                1.2143543910457688,
                -1.1840894264124078,
                -1.1158117826976937
            ]
        },
        {
            "positions": [
                -0.39222538949033636,
                -1.0635197707317094,
                1.899875086591433,
                1.2984635652755907,
                -1.27877519316205,
                -1.0148116254562911
            ]
        },
        {
            "positions": [
                -0.4445515845483724,
                -1.0232819453199937,
                1.876364989247817,
                1.3825727395054128,
                -1.373460959911692,
                -0.9138114682148886
            ]
        },
        {
            "positions": [
                -0.4968777796064082,
                -0.983044119908278,
                1.8528548919042012,
                1.4666819137352347,
                -1.4681467266613337,
                -0.812811310973486
            ]
        },
        {
            "positions": [
                -0.549203974664444,
                -0.9428062944965623,
                1.8293447945605856,
                1.5507910879650568,
                -1.5628324934109754,
                -0.7118111537320839
            ]
        },
        {
            "positions": [
                -0.6015301697224799,
                -0.9025684690848466,
                1.8058346972169699,
                1.6349002621948787,
                -1.657518260160617,
                -0.6108109964906814
            ]
        },
        {
            "positions": [
                -0.6538563647805159,
                -0.8623306436731306,
                1.782324599873354,
                1.7190094364247006,
                -1.7522040269102592,
                -0.5098108392492788
            ]
        },
        {
            "positions": [
                -0.7061825598385517,
                -0.8220928182614149,
                1.7588145025297381,
                1.8031186106545225,
                -1.846889793659901,
                -0.4088106820078763
            ]
        },
        {
            "positions": [
                -0.7585087548965875,
                -0.7818549928496994,
                1.7353044051861224,
                1.8872277848843444,
                -1.9415755604095426,
                -0.3078105247664742
            ]
        },
        {
            "positions": [
                -0.8108349499546234,
                -0.7416171674379837,
                1.7117943078425066,
                1.9713369591141663,
                -2.0362613271591843,
                -0.20681036752507165
            ]
        },
        {
            "positions": [
                -0.8631611450126594,
                -0.7013793420262677,
                1.6882842104988909,
                2.0554461333439886,
                -2.1309470939088264,
                -0.1058102102836691
            ]
        },
        {
            "positions": [
                -0.9154873400706952,
                -0.6611415166145521,
                1.6647741131552751,
                2.1395553075738105,
                -2.225632860658468,
                -0.004810053042266507
            ]
        }
    ]
}