{
    "goal": {
        "global_pose": {
            "orientation": {
                "w": 0.005598929693374612,
                "x": 0.007748599140229565,
                "y": 0.7110244013736278,
                "z": -0.7031023480610252
            },
            "position": {
                "x": -0.8858502320852131,
                "y": -0.7141253447532654,
                "z": 0.3711530566215515
            }
        },
        "name": "move_to_auspresseinheit_C"
    },
    "id": "BKPIECE_move_to_auspresseinheit_C_128",
    "joint_names": [
        "shoulder_pan_joint",
        "shoulder_lift_joint",
        "elbow_joint",
        "wrist_1_joint",
        "wrist_2_joint",
        "wrist_3_joint"
    ],
    "metrics": {
        "cart_traj_len": 0.49380963107162895,
        "distance_elbow_joint": 1.0134462089054173,
        "distance_shoulder_lift_joint": 0.33217508420372444,
        "distance_shoulder_pan_joint": 0.25591053578634293,
        "distance_wrist_1_joint": 0.698231062339123,
        "distance_wrist_2_joint": 1.3216830091689913,
        "distance_wrist_3_joint": 0.07564639226318626,
        "smoothness": 3.2297397080004555e-16,
        "time": 0.884264632,
        "traj_len": 1.9227824350837994,
        "weighted_distance": 2.4224572542567744
    },
    "planner": "BKPIECE",
    "start": {
        "state": {
            "elbow_joint": 1.752795957773711,
            "shoulder_lift_joint": -0.9740617694225064,
            "shoulder_pan_joint": -2.967991417825858,
            "wrist_1_joint": -0.7595177689806859,
            "wrist_2_joint": 1.7443932448377395,
            "wrist_3_joint": 3.199131542505932
        }
    },
    "waypoints": [
        {
            "positions": [
                -2.967991417825858,
                -0.9740617694225064,
                1.752795957773711,
                -0.7595177689806859,
                1.7443932448377395,
                3.199131542505932
            ]
        },
        {
            "positions": [
                -2.9424003642472236,
                -0.940844261002134,
                1.6514513368831694,
                -0.6896946627467736,
                1.6122249439208405,
                3.1915669032796137
            ]
        },
        {
            "positions": [
                -2.9168093106685893,
                -0.9076267525817615,
                1.5501067159926276,
                -0.6198715565128613,
                1.4800566430039412,
                3.184002264053295
            ]
        },
        {
            "positions": [
                -2.891218257089955,
                -0.8744092441613891,
                1.4487620951020859,
                -0.550048450278949,
                1.347888342087042,
                3.1764376248269763
            ]
        },
        {
            "positions": [
                -2.8656272035113206,
                -0.8411917357410167,
                1.3474174742115441,
                -0.4802253440450367,
                1.215720041170143,
                3.1688729856006574
            ]
        },
        {
            "positions": [
                -2.8400361499326863,
                -0.8079742273206443,
                1.2460728533210026,
                -0.4104022378111244,
                1.083551740253244,
                3.161308346374339
            ]
        },
        {
            "positions": [
                -2.8144450963540524,
                -0.7747567189002718,
                1.1447282324304608,
                -0.3405791315772121,
                0.9513834393363447,
                3.1537437071480205
            ]
        },
        {
            "positions": [
                -2.788854042775418,
                -0.7415392104798993,
                1.043383611539919,
                -0.27075602534329984,
                0.8192151384194457,
                3.1461790679217017
            ]
        },
        {
            "positions": [
                -2.7632629891967837,
                -0.7083217020595269,
                0.9420389906493772,
                -0.2009329191093875,
                0.6870468375025465,
                3.138614428695383
            ]
        },
        {
            "positions": [
                -2.7376719356181494,
                -0.6751041936391544,
                0.8406943697588356,
                -0.13110981287547518,
                0.5548785365856472,
                3.1310497894690643
            ]
        },
        {
            "positions": [
                -2.712080882039515,
                -0.641886685218782,
                0.7393497488682939,
                -0.061286706641562924,
                0.4227102356687482,
                3.123485150242746
            ]
        }
    ]
}