{
    "goal": {
        "global_pose": {
            "orientation": {
                "w": -0.00223480608172531,
                "x": 0.0024358444001904467,
                "y": 0.7094548369677653,
                "z": -0.704743149386269
            },
            "position": {
                "x": 0.6205249238014221,
                "y": -0.6371506643295288,
                "z": 0.19426114857196808
            }
        },
        "name": "move_to_magneteinheit_B"
    },
    "id": "BKPIECE_move_to_magneteinheit_B_47",
    "joint_names": [
        "shoulder_pan_joint",
        "shoulder_lift_joint",
        "elbow_joint",
        "wrist_1_joint",
        "wrist_2_joint",
        "wrist_3_joint"
    ],
    "metrics": {
        "cart_traj_len": 1.451855962401804,
        "distance_elbow_joint": 0.729441820008546,
        "distance_shoulder_lift_joint": 1.2479927244855586,
        "distance_shoulder_pan_joint": 1.6213168430421678,
        "distance_wrist_1_joint": 2.602655832759296,
        "distance_wrist_2_joint": 2.935286570193158,
        "distance_wrist_3_joint": 3.1278925165216975,
        "smoothness": 4.1633363361671726e-16,
        "time": 0.735801837,
        "traj_len": 3.502083138220797,
        "weighted_distance": 4.9049274962028
    },
    "planner": "BKPIECE",
    "start": {
        "state": {
            "elbow_joint": 2.3935871308073637,
            "shoulder_lift_joint": -1.9085141043777403,
            "shoulder_pan_joint": 0.7066247067284167,
            "wrist_1_joint": -0.46782909355067076,
            "wrist_2_joint": 0.7096259085804283,
            "wrist_3_joint": -3.1358149275257428
        }
    },
    "waypoints": [
        {
            "positions": [
                0.7066247067284167,
                -1.9085141043777403,
                2.3935871308073637,
                -0.46782909355067076,
                0.7096259085804283,
                -3.1358149275257428
            ]
        },
        {
            "positions": [
                0.6543241634044759,
                -1.8682562745556255,
                2.3700567495167655,
                -0.38387245378424184,
                0.6149392450258103,
                -3.0349151689282685
            ]
        },
        {
            "positions": [
                0.6020236200805349,
                -1.8279984447335107,
                2.3465263682261672,
                -0.299915814017813,
                0.5202525814711922,
                -2.9340154103307947
            ]
        },
        {
            "positions": [
                0.549723076756594,
                -1.787740614911396,
                2.322995986935569,
                -0.21595917425138406,
                0.4255659179165743,
                -2.8331156517333205
            ]
        },
        {
            "positions": [
                0.4974225334326531,
                -1.7474827850892811,
                2.2994656056449707,
                -0.13200253448495514,
                0.3308792543619563,
                -2.7322158931358462
            ]
        },
        {
            "positions": [
                0.44512199010871223,
                -1.7072249552671663,
                2.2759352243543725,
                -0.048045894718526216,
                0.2361925908073383,
                -2.6313161345383724
            ]
        },
        {
            "positions": [
                0.3928214467847713,
                -1.6669671254450515,
                2.252404843063774,
                0.03591074504790265,
                0.14150592725272026,
                -2.530416375940898
            ]
        },
        {
            "positions": [
                0.3405209034608304,
                -1.6267092956229368,
                2.228874461773176,
                0.11986738481433162,
                0.0468192636981023,
                -2.429516617343424
            ]
        },
        {
            "positions": [
                0.2882203601368895,
                -1.586451465800822,
                2.2053440804825777,
                0.2038240245807605,
                -0.04786739985651567,
                -2.3286168587459497
            ]
        },
        {
            "positions": [
                0.2359198168129486,
                -1.5461936359787072,
                2.1818136991919794,
                0.28778066434718946,
                -0.14255406341113375,
                -2.2277171001484755
            ]
        },
        {
            "positions": [
                0.18361927348900775,
                -1.5059358061565924,
                2.158283317901381,
                0.3717373041136183,
                -0.2372407269657517,
                -2.1268173415510017
            ]
        },
        {
            "positions": [
                0.1313187301650668,
                -1.4656779763344776,
                2.134752936610783,
                0.4556939438800473,
                -0.3319273905203698,
                -2.0259175829535274
            ]
        },
        {
            "positions": [
                0.07901818684112594,
                -1.4254201465123628,
                2.1112225553201847,
                0.539650583646476,
                -0.42661405407498776,
                -1.9250178243560534
            ]
        },
        {
            "positions": [
                0.026717643517184975,
                -1.385162316690248,
                2.0876921740295864,
                0.6236072234129051,
                -0.5213007176296057,
                -1.8241180657585792
            ]
        },
        {
            "positions": [
                -0.025582899806755877,
                -1.344904486868133,
                2.064161792738988,
                0.707563863179334,
                -0.6159873811842237,
                -1.7232183071611051
            ]
        },
        {
            "positions": [
                -0.07788344313069673,
                -1.3046466570460185,
                2.04063141144839,
                0.7915205029457628,
                -0.7106740447388419,
                -1.6223185485636311
            ]
        },
        {
            "positions": [
                -0.1301839864546377,
                -1.2643888272239034,
                2.0171010301577916,
                0.8754771427121917,
                -0.8053607082934596,
                -1.5214187899661569
            ]
        },
        {
            "positions": [
                -0.18248452977857854,
                -1.2241309974017889,
                1.9935706488671934,
                0.9594337824786205,
                -0.9000473718480776,
                -1.4205190313686828
            ]
        },
        {
            "positions": [
                -0.2347850731025195,
                -1.1838731675796739,
                1.9700402675765951,
                1.0433904222450496,
                -0.9947340354026958,
                -1.3196192727712086
            ]
        },
        {
            "positions": [
                -0.28708561642646035,
                -1.1436153377575593,
                1.9465098862859969,
                1.1273470620114785,
                -1.0894206989573139,
                -1.2187195141737346
            ]
        },
        {
            "positions": [
                -0.3393861597504012,
                -1.1033575079354443,
                1.9229795049953986,
                1.2113037017779074,
                -1.1841073625119316,
                -1.1178197555762606
            ]
        },
        {
            "positions": [
                -0.39168670307434217,
                -1.0630996781133297,
                1.8994491237048003,
                1.2952603415443362,
                -1.2787940260665498,
                -1.0169199969787863
            ]
        },
        {
            "positions": [
                -0.44398724639828313,
                -1.0228418482912147,
                1.875918742414202,
                1.3792169813107653,
                -1.373480689621168,
                -0.9160202383813121
            ]
        },
        {
            "positions": [
                -0.49628778972222387,
                -0.9825840184690999,
                1.8523883611236038,
                1.4631736210771942,
                -1.4681673531757857,
                -0.8151204797838383
            ]
        },
        {
            "positions": [
                -0.5485883330461648,
                -0.9423261886469853,
                1.8288579798330056,
                1.5471302608436228,
                -1.562854016730404,
                -0.714220721186364
            ]
        },
        {
            "positions": [
                -0.6008888763701056,
                -0.9020683588248704,
                1.8053275985424073,
                1.6310869006100517,
                -1.6575406802850217,
                -0.6133209625888902
            ]
        },
        {
            "positions": [
                -0.6531894196940468,
                -0.8618105290027556,
                1.781797217251809,
                1.715043540376481,
                -1.7522273438396399,
                -0.5124212039914156
            ]
        },
        {
            "positions": [
                -0.7054899630179875,
                -0.8215526991806408,
                1.7582668359612108,
                1.7990001801429099,
                -1.846914007394258,
                -0.41152144539394175
            ]
        },
        {
            "positions": [
                -0.7577905063419285,
                -0.781294869358526,
                1.7347364546706125,
                1.8829568199093387,
                -1.9416006709488758,
                -0.3106216867964675
            ]
        },
        {
            "positions": [
                -0.8100910496658692,
                -0.7410370395364112,
                1.7112060733800143,
                1.9669134596757671,
                -2.0362873345034935,
                -0.2097219281989937
            ]
        },
        {
            "positions": [
                -0.8623915929898102,
                -0.7007792097142964,
                1.687675692089416,
                2.0508700994421964,
                -2.130973998058112,
                -0.10882216960151947
            ]
        },
        {
            "positions": [
                -0.9146921363137511,
                -0.6605213798921817,
                1.6641453107988178,
                2.1348267392086253,
                -2.22566066161273,
                -0.007922411004045248
            ]
        }
    ]
}