{
    "goal": {
        "global_pose": {
            "orientation": {
                "w": 0.7031023502349854,
                "x": -0.7110244035720825,
                "y": 0.007748599164187908,
                "z": 0.005598929710686207
            },
            "position": {
                "x": 0.11585023208521307,
                "y": 0.44412534475326537,
                "z": 0.3711530566215515
            }
        },
        "name": "move_to_auspresseinheit_A"
    },
    "id": "BKPIECE_move_to_auspresseinheit_A_12",
    "joint_names": [
        "shoulder_pan_joint",
        "shoulder_lift_joint",
        "elbow_joint",
        "wrist_1_joint",
        "wrist_2_joint",
        "wrist_3_joint"
    ],
    "metrics": {
        "cart_traj_len": 2.182574252819812,
        "distance_elbow_joint": 1.7906367823072333,
        "distance_shoulder_lift_joint": 0.5432557888128664,
        "distance_shoulder_pan_joint": 1.9533893986594235,
        "distance_wrist_1_joint": 1.702994912322152,
        "distance_wrist_2_joint": 0.5980177764475224,
        "distance_wrist_3_joint": 1.9659910433621124,
        "smoothness": 0.3334692286518563,
        "time": 0.614604161,
        "traj_len": 2.9247710511955134,
        "weighted_distance": 3.845423315761895
    },
    "planner": "BKPIECE",
    "start": {
        "state": {
            "elbow_joint": 2.4225747245308327,
            "shoulder_lift_joint": -1.373653427065438,
            "shoulder_pan_joint": -0.33786330853087027,
            "wrist_1_joint": -1.0288602302712604,
            "wrist_2_joint": 1.23302299562683,
            "wrist_3_joint": -3.094021725338297
        }
    },
    "waypoints": [
        {
            "positions": [
                -0.33786330853087027,
                -1.373653427065438,
                2.4225747245308327,
                -1.0288602302712604,
                1.23302299562683,
                -3.094021725338297
            ]
        },
        {
            "positions": [
                -0.30318253120992544,
                -1.4082067558577354,
                2.301746996046269,
                -1.0077201033634686,
                1.1872221756441803,
                -2.9562071673023502
            ]
        },
        {
            "positions": [
                -0.2685017538889807,
                -1.4427600846500328,
                2.1809192675617055,
                -0.986579976455677,
                1.1414213556615307,
                -2.818392609266403
            ]
        },
        {
            "positions": [
                -0.23382097656803588,
                -1.4773134134423302,
                2.060091539077142,
                -0.9654398495478852,
                1.095620535678881,
                -2.680578051230456
            ]
        },
        {
            "positions": [
                -0.1991401992470911,
                -1.511866742234628,
                1.9392638105925786,
                -0.9442997226400934,
                1.0498197156962314,
                -2.542763493194509
            ]
        },
        {
            "positions": [
                -0.1644594219261463,
                -1.5464200710269254,
                1.8184360821080148,
                -0.9231595957323017,
                1.0040188957135816,
                -2.4049489351585622
            ]
        },
        {
            "positions": [
                -0.1297786446052015,
                -1.5809733998192228,
                1.6976083536234514,
                -0.90201946882451,
                0.958218075730932,
                -2.2671343771226153
            ]
        },
        {
            "positions": [
                -0.0950978672842567,
                -1.6155267286115202,
                1.5767806251388878,
                -0.8808793419167182,
                0.9124172557482824,
                -2.129319819086668
            ]
        },
        {
            "positions": [
                0.10176030187440327,
                -1.6230865493667879,
                1.5661293120903552,
                -0.7697978341534619,
                0.8862484599427762,
                -2.1371021337849276
            ]
        },
        {
            "positions": [
                0.29861847103306327,
                -1.6306463701220555,
                1.5554779990418226,
                -0.6587163263902057,
                0.8600796641372701,
                -2.1448844484831873
            ]
        },
        {
            "positions": [
                0.4954766401917232,
                -1.638206190877323,
                1.5448266859932898,
                -0.5476348186269495,
                0.833910868331764,
                -2.152666763181447
            ]
        },
        {
            "positions": [
                0.6923348093503832,
                -1.6457660116325905,
                1.5341753729447571,
                -0.4365533108636932,
                0.8077420725262578,
                -2.160449077879707
            ]
        },
        {
            "positions": [
                0.8891929785090432,
                -1.6533258323878581,
                1.5235240598962245,
                -0.3254718031004369,
                0.7815732767207517,
                -2.1682313925779666
            ]
        },
        {
            "positions": [
                1.0860511476677033,
                -1.6608856531431258,
                1.512872746847692,
                -0.21439029533718068,
                0.7554044809152456,
                -2.1760137072762262
            ]
        },
        {
            "positions": [
                1.1240778932115916,
                -1.7131583451211574,
                1.5993434708912702,
                -0.09072778138103926,
                0.7403908632946907,
                -2.242398850747347
            ]
        },
        {
            "positions": [
                1.1621046387554799,
                -1.765431037099189,
                1.6858141949348486,
                0.03293473257510215,
                0.7253772456741359,
                -2.3087839942184676
            ]
        },
        {
            "positions": [
                1.130845684791793,
                -1.795003452621985,
                1.7890586673384954,
                0.05635971702118533,
                0.7397298355132408,
                -2.451563148435909
            ]
        },
        {
            "positions": [
                1.0995867308281058,
                -1.8245758681447806,
                1.8923031397421421,
                0.07978470146726852,
                0.7540824253523456,
                -2.5943423026533505
            ]
        },
        {
            "positions": [
                1.0683277768644188,
                -1.8541482836675764,
                1.995547612145789,
                0.1032096859133517,
                0.7684350151914505,
                -2.737121456870792
            ]
        },
        {
            "positions": [
                1.003048924694259,
                -1.8736441945651172,
                2.097548014359712,
                0.02828770369385583,
                0.7679448404794941,
                -2.868144985327239
            ]
        },
        {
            "positions": [
                0.9377700725240995,
                -1.8931401054626582,
                2.1995484165736348,
                -0.04663427852564003,
                0.7674546657675377,
                -2.999168513783686
            ]
        },
        {
            "positions": [
                0.8724912203539398,
                -1.912636016360199,
                2.3015488187875577,
                -0.1215562607451359,
                0.7669644910555813,
                -3.130192042240133
            ]
        },
        {
            "positions": [
                0.790587203868173,
                -1.9104994166011462,
                2.347678185129671,
                -0.29463578548466207,
                0.7440426246347591,
                -3.1304004992186423
            ]
        },
        {
            "positions": [
                0.7086831873824063,
                -1.9083628168420936,
                2.3938075514717845,
                -0.4677153102241883,
                0.7211207582139368,
                -3.1306089561971513
            ]
        }
    ]
}