{
    "goal": {
        "global_pose": {
            "orientation": {
                "w": 0.7031023480610252,
                "x": -0.7110244013736278,
                "y": 0.0077485991402295624,
                "z": 0.005598929693374583
            },
            "position": {
                "x": -0.8841497679147869,
                "y": 0.44412534475326537,
                "z": 0.3711530566215515
            }
        },
        "name": "move_to_auspresseinheit_D"
    },
    "id": "BKPIECE_move_to_auspresseinheit_D_75",
    "joint_names": [
        "shoulder_pan_joint",
        "shoulder_lift_joint",
        "elbow_joint",
        "wrist_1_joint",
        "wrist_2_joint",
        "wrist_3_joint"
    ],
    "metrics": {
        "cart_traj_len": 3.591580987684647,
        "distance_elbow_joint": 3.0236378040923015,
        "distance_shoulder_lift_joint": 1.2295255657518513,
        "distance_shoulder_pan_joint": 2.7979681403808723,
        "distance_wrist_1_joint": 2.0658990907676498,
        "distance_wrist_2_joint": 1.2305576811970873,
        "distance_wrist_3_joint": 4.114583094168365,
        "smoothness": 0.16883626987052514,
        "time": 0.46452379499999996,
        "traj_len": 3.8029161674112832,
        "weighted_distance": 5.097822509332744
    },
    "planner": "BKPIECE",
    "start": {
        "state": {
            "elbow_joint": 1.8268400409724999,
            "shoulder_lift_joint": -1.0144045787793008,
            "shoulder_pan_joint": 2.6280239544362485,
            "wrist_1_joint": -0.790705565816056,
            "wrist_2_joint": 1.0573557467365533,
            "wrist_3_joint": 3.1851377467193758
        }
    },
    "waypoints": [
        {
            "positions": [
                2.6280239544362485,
                -1.0144045787793008,
                1.8268400409724999,
                -0.790705565816056,
                1.0573557467365533,
                3.1851377467193758
            ]
        },
        {
            "positions": [
                2.605469605649952,
                -1.0471192827081366,
                1.786753956997879,
                -0.8540990443240213,
                1.0279752886615559,
                2.9788659791470833
            ]
        },
        {
            "positions": [
                2.582915256863655,
                -1.0798339866369722,
                1.7466678730232583,
                -0.9174925228319867,
                0.9985948305865584,
                2.7725942115747912
            ]
        },
        {
            "positions": [
                2.5603609080773584,
                -1.112548690565808,
                1.7065817890486374,
                -0.980886001339952,
                0.9692143725115608,
                2.5663224440024988
            ]
        },
        {
            "positions": [
                2.5378065592910617,
                -1.1452633944946438,
                1.6664957050740168,
                -1.0442794798479174,
                0.9398339144365634,
                2.3600506764302063
            ]
        },
        {
            "positions": [
                2.515252210504765,
                -1.1779780984234796,
                1.626409621099396,
                -1.1076729583558826,
                0.9104534563615659,
                2.1537789088579142
            ]
        },
        {
            "positions": [
                2.492697861718468,
                -1.2106928023523151,
                1.586323537124775,
                -1.171066436863848,
                0.8810729982865685,
                1.947507141285622
            ]
        },
        {
            "positions": [
                2.470143512932171,
                -1.243407506281151,
                1.5462374531501544,
                -1.2344599153718132,
                0.851692540211571,
                1.7412353737133297
            ]
        },
        {
            "positions": [
                2.4475891641458745,
                -1.2761222102099867,
                1.5061513691755335,
                -1.2978533938797785,
                0.8223120821365735,
                1.5349636061410372
            ]
        },
        {
            "positions": [
                2.4250348153595778,
                -1.3088369141388223,
                1.4660652852009126,
                -1.361246872387744,
                0.792931624061576,
                1.328691838568745
            ]
        },
        {
            "positions": [
                2.402480466573281,
                -1.341551618067658,
                1.425979201226292,
                -1.4246403508957093,
                0.7635511659865786,
                1.122420070996453
            ]
        },
        {
            "positions": [
                2.307205479442988,
                -1.3749730449737134,
                1.3288393136579182,
                -1.4776760659211907,
                0.7288566067107596,
                1.1984150864944323
            ]
        },
        {
            "positions": [
                2.2119304923126957,
                -1.4083944718797687,
                1.2316994260895442,
                -1.530711780946672,
                0.6941620474349406,
                1.2744101019924117
            ]
        },
        {
            "positions": [
                2.1166555051824028,
                -1.441815898785824,
                1.1345595385211704,
                -1.5837474959721534,
                0.6594674881591217,
                1.3504051174903908
            ]
        },
        {
            "positions": [
                2.0213805180521103,
                -1.4752373256918794,
                1.0374196509527964,
                -1.6367832109976346,
                0.6247729288833027,
                1.4264001329883702
            ]
        },
        {
            "positions": [
                1.9261055309218174,
                -1.5086587525979347,
                0.9402797633844227,
                -1.689818926023116,
                0.5900783696074837,
                1.5023951484863496
            ]
        },
        {
            "positions": [
                1.8308305437915244,
                -1.54208017950399,
                0.8431398758160489,
                -1.7428546410485972,
                0.5553838103316647,
                1.578390163984329
            ]
        },
        {
            "positions": [
                1.735555556661232,
                -1.5755016064100453,
                0.745999988247675,
                -1.7958903560740787,
                0.5206892510558458,
                1.6543851794823081
            ]
        },
        {
            "positions": [
                1.640280569530939,
                -1.6089230333161009,
                0.6488601006793011,
                -1.84892607109956,
                0.4859946917800268,
                1.7303801949802877
            ]
        },
        {
            "positions": [
                1.5450055824006463,
                -1.642344460222156,
                0.5517202131109273,
                -1.9019617861250413,
                0.45130013250420786,
                1.8063752104782669
            ]
        },
        {
            "positions": [
                1.4497305952703536,
                -1.6757658871282115,
                0.45458032554255345,
                -1.9549975011505227,
                0.41660557322838887,
                1.8823702259762463
            ]
        },
        {
            "positions": [
                1.3544556081400607,
                -1.7091873140342668,
                0.35744043797417957,
                -2.008033216176004,
                0.3819110139525699,
                1.9583652414742256
            ]
        },
        {
            "positions": [
                1.259180621009768,
                -1.7426087409403221,
                0.2603005504058058,
                -2.0610689312014854,
                0.34721645467675094,
                2.034360256972205
            ]
        },
        {
            "positions": [
                1.1639056338794753,
                -1.7760301678463775,
                0.16316066283743202,
                -2.114104646226967,
                0.31252189540093195,
                2.1103552724701844
            ]
        },
        {
            "positions": [
                1.0686306467491826,
                -1.8094515947524328,
                0.06602077526905803,
                -2.1671403612524482,
                0.277827336125113,
                2.1863502879681636
            ]
        },
        {
            "positions": [
                0.9733556596188897,
                -1.842873021658488,
                -0.031119112299315965,
                -2.2201760762779292,
                0.24313277684929402,
                2.2623453034661427
            ]
        },
        {
            "positions": [
                0.878080672488597,
                -1.8762944485645434,
                -0.12825899986768974,
                -2.2732117913034107,
                0.20843821757347503,
                2.3383403189641223
            ]
        },
        {
            "positions": [
                0.7828056853583041,
                -1.909715875470599,
                -0.22539888743606373,
                -2.326247506328892,
                0.17374365829765603,
                2.414335334462102
            ]
        },
        {
            "positions": [
                0.6875306982280116,
                -1.943137302376654,
                -0.3225387750044373,
                -2.3792832213543735,
                0.13904909902183715,
                2.4903303499600806
            ]
        },
        {
            "positions": [
                0.5922557110977187,
                -1.9765587292827096,
                -0.4196786625728113,
                -2.432318936379855,
                0.10435453974601805,
                2.5663253654580602
            ]
        },
        {
            "positions": [
                0.496980723967426,
                -2.0099801561887647,
                -0.516818550141185,
                -2.485354651405336,
                0.06965998047019917,
                2.64232038095604
            ]
        },
        {
            "positions": [
                0.4017057368371333,
                -2.0434015830948202,
                -0.613958437709559,
                -2.538390366430818,
                0.034965421194380175,
                2.718315396454019
            ]
        },
        {
            "positions": [
                0.30643074970684037,
                -2.0768230100008753,
                -0.7110983252779328,
                -2.591426081456299,
                0.0002708619185611827,
                2.794310411951998
            ]
        },
        {
            "positions": [
                0.21115576257654745,
                -2.110244436906931,
                -0.8082382128463066,
                -2.6444617964817803,
                -0.03442369735725781,
                2.8703054274499777
            ]
        },
        {
            "positions": [
                0.11588077544625497,
                -2.143665863812986,
                -0.9053781004146804,
                -2.6974975115072617,
                -0.06911825663307669,
                2.946300442947957
            ]
        },
        {
            "positions": [
                0.020605788315962048,
                -2.1770872907190415,
                -1.0025179879830546,
                -2.7505332265327427,
                -0.10381281590889568,
                3.022295458445936
            ]
        },
        {
            "positions": [
                -0.07466919881433043,
                -2.2105087176250966,
                -1.099657875551428,
                -2.803568941558224,
                -0.13850737518471468,
                3.0982904739439157
            ]
        },
        {
            "positions": [
                -0.16994418594462318,
                -2.243930144531152,
                -1.1967977631198021,
                -2.8566046565837055,
                -0.1732019344605337,
                3.174285489441895
            ]
        }
    ]
}