{
    "goal": {
        "global_pose": {
            "orientation": {
                "w": 0.7031023480610252,
                "x": -0.7110244013736278,
                "y": 0.0077485991402295624,
                "z": 0.005598929693374583
            },
            "position": {
                "x": -0.8841497679147869,
                "y": 0.44412534475326537,
                "z": 0.3711530566215515
            }
        },
        "name": "move_to_auspresseinheit_D"
    },
    "id": "BKPIECE_move_to_auspresseinheit_D_13",
    "joint_names": [
        "shoulder_pan_joint",
        "shoulder_lift_joint",
        "elbow_joint",
        "wrist_1_joint",
        "wrist_2_joint",
        "wrist_3_joint"
    ],
    "metrics": {
        "cart_traj_len": 2.608189174883237,
        "distance_elbow_joint": 0.8910312373819105,
        "distance_shoulder_lift_joint": 1.9334995548312741,
        "distance_shoulder_pan_joint": 1.1216187844429308,
        "distance_wrist_1_joint": 3.4396857042791025,
        "distance_wrist_2_joint": 3.650511874001539,
        "distance_wrist_3_joint": 5.516316387226253,
        "smoothness": 0.4226991044290547,
        "time": 1.602073777,
        "traj_len": 4.068496471936901,
        "weighted_distance": 5.8885901449240095
    },
    "planner": "BKPIECE",
    "start": {
        "state": {
            "elbow_joint": 1.8268400409724999,
            "shoulder_lift_joint": -1.0144045787793008,
            "shoulder_pan_joint": 2.6280239544362485,
            "wrist_1_joint": -0.790705565816056,
            "wrist_2_joint": 1.0573557467365533,
            "wrist_3_joint": 3.1851377467193758
        }
    },
    "waypoints": [
        {
            "positions": [
                2.6280239544362485,
                -1.0144045787793008,
                1.8268400409724999,
                -0.790705565816056,
                1.0573557467365533,
                3.1851377467193758
            ]
        },
        {
            "positions": [
                2.631973559905991,
                -1.0500427457089743,
                1.8085304413260264,
                -0.6815274803028456,
                0.9693572074113037,
                3.0559054847560314
            ]
        },
        {
            "positions": [
                2.6359231653757327,
                -1.0856809126386475,
                1.7902208416795529,
                -0.5723493947896352,
                0.881358668086054,
                2.9266732227926866
            ]
        },
        {
            "positions": [
                2.639872770845475,
                -1.121319079568321,
                1.7719112420330794,
                -0.46317130927642475,
                0.7933601287608044,
                2.7974409608293422
            ]
        },
        {
            "positions": [
                2.643822376315217,
                -1.1569572464979945,
                1.7536016423866059,
                -0.3539932237632143,
                0.7053615894355547,
                2.668208698865998
            ]
        },
        {
            "positions": [
                2.647771981784959,
                -1.1925954134276677,
                1.7352920427401324,
                -0.2448151382500039,
                0.6173630501103051,
                2.538976436902653
            ]
        },
        {
            "positions": [
                2.651721587254701,
                -1.2282335803573412,
                1.7169824430936589,
                -0.1356370527367935,
                0.5293645107850555,
                2.4097441749393087
            ]
        },
        {
            "positions": [
                2.6556711927244434,
                -1.2638717472870147,
                1.6986728434471854,
                -0.026458967223582985,
                0.44136597145980583,
                2.280511912975964
            ]
        },
        {
            "positions": [
                2.6596207981941853,
                -1.299509914216688,
                1.680363243800712,
                0.08271911828962741,
                0.35336743213455624,
                2.1512796510126195
            ]
        },
        {
            "positions": [
                2.6635704036639276,
                -1.3351480811463614,
                1.6620536441542384,
                0.1918972038028378,
                0.26536889280930664,
                2.022047389049275
            ]
        },
        {
            "positions": [
                2.6675200091336695,
                -1.3707862480760347,
                1.643744044507765,
                0.3010752893160482,
                0.17737035348405705,
                1.8928151270859306
            ]
        },
        {
            "positions": [
                2.671469614603412,
                -1.4064244150057081,
                1.6254344448612914,
                0.4102533748292587,
                0.08937181415880735,
                1.763582865122586
            ]
        },
        {
            "positions": [
                2.6754192200731537,
                -1.4420625819353816,
                1.607124845214818,
                0.519431460342469,
                0.0013732748335577583,
                1.6343506031592416
            ]
        },
        {
            "positions": [
                2.679368825542896,
                -1.4777007488650549,
                1.5888152455683444,
                0.6286095458556793,
                -0.08662526449169183,
                1.5051183411958973
            ]
        },
        {
            "positions": [
                2.683318431012638,
                -1.5133389157947283,
                1.570505645921871,
                0.73778763136889,
                -0.17462380381694165,
                1.3758860792325525
            ]
        },
        {
            "positions": [
                2.68726803648238,
                -1.5489770827244018,
                1.5521960462753974,
                0.8469657168821003,
                -0.26262234314219124,
                1.2466538172692079
            ]
        },
        {
            "positions": [
                2.691217641952122,
                -1.584615249654075,
                1.533886446628924,
                0.9561438023953108,
                -0.35062088246744083,
                1.1174215553058637
            ]
        },
        {
            "positions": [
                2.6951672474218644,
                -1.6202534165837486,
                1.5155768469824504,
                1.0653218879085211,
                -0.4386194217926904,
                0.9881892933425189
            ]
        },
        {
            "positions": [
                2.6991168528916063,
                -1.655891583513422,
                1.497267247335977,
                1.1744999734217316,
                -0.52661796111794,
                0.8589570313791746
            ]
        },
        {
            "positions": [
                2.7030664583613486,
                -1.6915297504430953,
                1.4789576476895034,
                1.2836780589349421,
                -0.6146165004431896,
                0.7297247694158298
            ]
        },
        {
            "positions": [
                2.7070160638310905,
                -1.7271679173727688,
                1.46064804804303,
                1.3928561444481524,
                -0.7026150397684392,
                0.6004925074524854
            ]
        },
        {
            "positions": [
                2.710965669300833,
                -1.7628060843024422,
                1.4423384483965564,
                1.5020342299613627,
                -0.7906135790936888,
                0.471260245489141
            ]
        },
        {
            "positions": [
                2.7149152747705747,
                -1.7984442512321155,
                1.424028848750083,
                1.6112123154745734,
                -0.8786121184189386,
                0.3420279835257962
            ]
        },
        {
            "positions": [
                2.718864880240317,
                -1.834082418161789,
                1.4057192491036095,
                1.7203904009877835,
                -0.9666106577441882,
                0.2127957215624518
            ]
        },
        {
            "positions": [
                2.7539322963311657,
                -1.7727298545920323,
                1.3852547176163992,
                1.7869778422495115,
                -1.0440007581958148,
                0.10781932996287659
            ]
        },
        {
            "positions": [
                2.788999712422014,
                -1.7113772910222755,
                1.364790186129189,
                1.8535652835112397,
                -1.1213908586474415,
                0.0028429383633013783
            ]
        },
        {
            "positions": [
                2.8240671285128625,
                -1.6500247274525188,
                1.3443256546419788,
                1.9201527247729677,
                -1.1987809590990681,
                -0.10213345323627382
            ]
        },
        {
            "positions": [
                2.8591345446037106,
                -1.5886721638827623,
                1.3238611231547686,
                1.986740166034696,
                -1.2761710595506948,
                -0.20710984483584904
            ]
        },
        {
            "positions": [
                2.8942019606945593,
                -1.5273196003130056,
                1.3033965916675583,
                2.053327607296424,
                -1.3535611600023216,
                -0.31208623643542427
            ]
        },
        {
            "positions": [
                2.9292693767854074,
                -1.465967036743249,
                1.282932060180348,
                2.119915048558152,
                -1.430951260453948,
                -0.41706262803499944
            ]
        },
        {
            "positions": [
                2.964336792876256,
                -1.4046144731734922,
                1.262467528693138,
                2.18650248981988,
                -1.508341360905575,
                -0.5220390196345746
            ]
        },
        {
            "positions": [
                2.9994042089671042,
                -1.3432619096037355,
                1.2420029972059277,
                2.2530899310816084,
                -1.5857314613572016,
                -0.6270154112341499
            ]
        },
        {
            "positions": [
                3.034471625057953,
                -1.281909346033979,
                1.2215384657187174,
                2.319677372343336,
                -1.6631215618088282,
                -0.7319918028337251
            ]
        },
        {
            "positions": [
                3.069539041148801,
                -1.220556782464222,
                1.201073934231507,
                2.3862648136050644,
                -1.7405116622604548,
                -0.8369681944333003
            ]
        },
        {
            "positions": [
                3.1046064572396497,
                -1.1592042188944656,
                1.180609402744297,
                2.4528522548667926,
                -1.8179017627120815,
                -0.9419445860328755
            ]
        },
        {
            "positions": [
                3.139673873330498,
                -1.0978516553247086,
                1.1601448712570868,
                2.5194396961285204,
                -1.8952918631637081,
                -1.0469209776324506
            ]
        },
        {
            "positions": [
                3.1747412894213465,
                -1.0364990917549521,
                1.1396803397698765,
                2.5860271373902486,
                -1.9726819636153348,
                -1.1518973692320258
            ]
        },
        {
            "positions": [
                3.1028786082391173,
                -0.9969692931247085,
                1.1651642817922874,
                2.5781580122561487,
                -2.050241234071541,
                -1.0044872103226694
            ]
        },
        {
            "positions": [
                3.031015927056888,
                -0.9574394944944649,
                1.1906482238146983,
                2.5702888871220493,
                -2.1278005045277473,
                -0.8570770514133128
            ]
        },
        {
            "positions": [
                2.959153245874659,
                -0.9179096958642212,
                1.2161321658371091,
                2.5624197619879494,
                -2.2053597749839535,
                -0.7096668925039564
            ]
        },
        {
            "positions": [
                2.88729056469243,
                -0.8783798972339776,
                1.24161610785952,
                2.5545506368538495,
                -2.2829190454401598,
                -0.5622567335945999
            ]
        },
        {
            "positions": [
                2.815427883510201,
                -0.8388500986037339,
                1.267100049881931,
                2.54668151171975,
                -2.3604783158963656,
                -0.41484657468524344
            ]
        },
        {
            "positions": [
                2.743565202327972,
                -0.7993202999734904,
                1.2925839919043418,
                2.5388123865856502,
                -2.438037586352572,
                -0.26743641577588706
            ]
        },
        {
            "positions": [
                2.671702521145743,
                -0.7597905013432468,
                1.3180679339267527,
                2.530943261451551,
                -2.515596856808778,
                -0.12002625686653046
            ]
        },
        {
            "positions": [
                2.5998398399635136,
                -0.7202607027130031,
                1.3435518759491636,
                2.523074136317451,
                -2.5931561272649843,
                0.027383902042825876
            ]
        }
    ]
}