{
    "goal": {
        "global_pose": {
            "orientation": {
                "w": -0.00223480608172531,
                "x": 0.0024358444001904467,
                "y": 0.7094548369677653,
                "z": -0.704743149386269
            },
            "position": {
                "x": -0.37947507619857795,
                "y": -0.6371506643295288,
                "z": 0.19426114857196808
            }
        },
        "name": "move_to_magneteinheit_C"
    },
    "id": "BKPIECE_move_to_magneteinheit_C_75",
    "joint_names": [
        "shoulder_pan_joint",
        "shoulder_lift_joint",
        "elbow_joint",
        "wrist_1_joint",
        "wrist_2_joint",
        "wrist_3_joint"
    ],
    "metrics": {
        "cart_traj_len": 2.541783066362765,
        "distance_elbow_joint": 1.9349921848699343,
        "distance_shoulder_lift_joint": 0.36486137817553543,
        "distance_shoulder_pan_joint": 1.771319800744346,
        "distance_wrist_1_joint": 1.769515947456913,
        "distance_wrist_2_joint": 1.4851570430395338,
        "distance_wrist_3_joint": 6.127483461024449,
        "smoothness": 0.30131114718093344,
        "time": 0.825440003,
        "traj_len": 3.6678781080225,
        "weighted_distance": 5.381725534422586
    },
    "planner": "BKPIECE",
    "start": {
        "state": {
            "elbow_joint": 1.9565354006590394,
            "shoulder_lift_joint": -1.4165861576513559,
            "shoulder_pan_joint": -1.6717766223277177,
            "wrist_1_joint": -0.5286633288215096,
            "wrist_2_joint": 1.4727565892594296,
            "wrist_3_joint": 3.1593482883155493
        }
    },
    "waypoints": [
        {
            "positions": [
                -1.6717766223277177,
                -1.4165861576513559,
                1.9565354006590394,
                -0.5286633288215096,
                1.4727565892594296,
                3.1593482883155493
            ]
        },
        {
            "positions": [
                -1.6140089139671037,
                -1.3978832154087264,
                1.9353578188107792,
                -0.4793974932717573,
                1.3965865095027004,
                3.039771127117416
            ]
        },
        {
            "positions": [
                -1.5562412056064898,
                -1.3791802731660967,
                1.9141802369625187,
                -0.430131657722005,
                1.320416429745971,
                2.920193965919283
            ]
        },
        {
            "positions": [
                -1.4984734972458758,
                -1.3604773309234672,
                1.8930026551142585,
                -0.38086582217225273,
                1.244246349989242,
                2.80061680472115
            ]
        },
        {
            "positions": [
                -1.440705788885262,
                -1.3417743886808375,
                1.871825073265998,
                -0.33159998662250045,
                1.1680762702325127,
                2.6810396435230173
            ]
        },
        {
            "positions": [
                -1.3829380805246478,
                -1.323071446438208,
                1.8506474914177378,
                -0.2823341510727482,
                1.0919061904757834,
                2.561462482324884
            ]
        },
        {
            "positions": [
                -1.325170372164034,
                -1.3043685041955784,
                1.8294699095694775,
                -0.2330683155229959,
                1.0157361107190541,
                2.441885321126751
            ]
        },
        {
            "positions": [
                -1.26740266380342,
                -1.285665561952949,
                1.808292327721217,
                -0.18380247997324362,
                0.9395660309623248,
                2.322308159928618
            ]
        },
        {
            "positions": [
                -1.2537818907271072,
                -1.2800987709704517,
                1.7343204558975818,
                -0.15265612438891102,
                0.8874927013038313,
                2.209477940381284
            ]
        },
        {
            "positions": [
                -1.2401611176507945,
                -1.2745319799879542,
                1.6603485840739465,
                -0.12150976880457844,
                0.8354193716453377,
                2.0966477208339502
            ]
        },
        {
            "positions": [
                -1.2497297851064753,
                -1.2742691418974725,
                1.5272449680814724,
                -0.09149571950462175,
                0.7760801817895895,
                1.933648043747516
            ]
        },
        {
            "positions": [
                -1.2592984525621558,
                -1.274006303806991,
                1.3941413520889985,
                -0.061481670204665065,
                0.7167409919338413,
                1.7706483666610817
            ]
        },
        {
            "positions": [
                -1.2688671200178363,
                -1.2737434657165094,
                1.2610377360965246,
                -0.03146762090470838,
                0.6574018020780932,
                1.6076486895746473
            ]
        },
        {
            "positions": [
                -1.278435787473517,
                -1.2734806276260278,
                1.1279341201040505,
                -0.0014535716047517008,
                0.5980626122223449,
                1.4446490124882132
            ]
        },
        {
            "positions": [
                -1.3174074230577157,
                -1.275391255921848,
                1.0748490447345707,
                -0.01975583699188652,
                0.5828527950832298,
                1.3326119609740283
            ]
        },
        {
            "positions": [
                -1.3884724348394355,
                -1.2790670281226317,
                1.0467073476795865,
                -0.07295603426662857,
                0.5862011656696895,
                1.2035051041181837
            ]
        },
        {
            "positions": [
                -1.4595374466211553,
                -1.2827428003234151,
                1.0185656506246026,
                -0.12615623154137062,
                0.589549536256149,
                1.074398247262339
            ]
        },
        {
            "positions": [
                -1.5673422910540233,
                -1.288385186831944,
                1.0436903151464358,
                -0.2259893978664993,
                0.6246306478718704,
                0.9536368387445687
            ]
        },
        {
            "positions": [
                -1.6751471354868914,
                -1.294027573340473,
                1.0688149796682689,
                -0.325822564191628,
                0.6597117594875918,
                0.8328754302267984
            ]
        },
        {
            "positions": [
                -1.7829519799197595,
                -1.2996699598490018,
                1.0939396441901021,
                -0.42565573051675665,
                0.6947928711033131,
                0.7121140217090282
            ]
        },
        {
            "positions": [
                -1.8907568243526276,
                -1.3053123463575305,
                1.1190643087119354,
                -0.5254888968418854,
                0.7298739827190344,
                0.5913526131912579
            ]
        },
        {
            "positions": [
                -1.9985616687854957,
                -1.3109547328660593,
                1.1441889732337684,
                -0.625322063167014,
                0.7649550943347558,
                0.4705912046734876
            ]
        },
        {
            "positions": [
                -2.1063665132183638,
                -1.3165971193745882,
                1.1693136377556017,
                -0.7251552294921426,
                0.8000362059504771,
                0.3498297961557173
            ]
        },
        {
            "positions": [
                -2.2141713576512316,
                -1.3222395058831171,
                1.1944383022774347,
                -0.8249883958172715,
                0.8351173175661984,
                0.229068387637947
            ]
        },
        {
            "positions": [
                -2.3219762020841,
                -1.327881892391646,
                1.219562966799268,
                -0.9248215621424001,
                0.8701984291819198,
                0.10830697912017674
            ]
        },
        {
            "positions": [
                -2.357269270473615,
                -1.3294410962591496,
                1.2367124382616832,
                -0.957960692280424,
                0.883283697978127,
                0.08437936054015863
            ]
        },
        {
            "positions": [
                -2.397783934811465,
                -1.3255875777539121,
                1.3438400254529637,
                -0.9866557586355572,
                0.898278719952599,
                0.2605592572675323
            ]
        },
        {
            "positions": [
                -2.438298599149315,
                -1.3217340592486744,
                1.4509676126442443,
                -1.0153508249906904,
                0.913273741927071,
                0.43673915399490604
            ]
        },
        {
            "positions": [
                -2.478813263487165,
                -1.3178805407434369,
                1.5580951998355248,
                -1.0440458913458235,
                0.928268763901543,
                0.6129190507222797
            ]
        },
        {
            "positions": [
                -2.489267525463684,
                -1.3156742707720823,
                1.5924389667041303,
                -1.0491424358715262,
                0.9300215274743862,
                0.684355794790568
            ]
        },
        {
            "positions": [
                -2.4946288310851146,
                -1.3015638012332815,
                1.651243951075623,
                -1.0338946661967054,
                0.9094799750978148,
                0.9373654188445797
            ]
        },
        {
            "positions": [
                -2.499990136706545,
                -1.2874533316944805,
                1.7100489354471158,
                -1.0186468965218844,
                0.8889384227212433,
                1.1903750428985913
            ]
        },
        {
            "positions": [
                -2.5053514423279757,
                -1.2733428621556797,
                1.7688539198186084,
                -1.0033991268470634,
                0.868396870344672,
                1.443384666952603
            ]
        },
        {
            "positions": [
                -2.5107127479494062,
                -1.259232392616879,
                1.8276589041901012,
                -0.9881513571722427,
                0.8478553179681007,
                1.6963942910066145
            ]
        },
        {
            "positions": [
                -2.516074053570837,
                -1.2451219230780781,
                1.8864638885615939,
                -0.9729035874974218,
                0.8273137655915292,
                1.9494039150606266
            ]
        },
        {
            "positions": [
                -2.5214353591922674,
                -1.231011453539277,
                1.9452688729330867,
                -0.9576558178226009,
                0.8067722132149578,
                2.2024135391146378
            ]
        },
        {
            "positions": [
                -2.526796664813698,
                -1.2169009840004763,
                2.0040738573045793,
                -0.94240804814778,
                0.7862306608383864,
                2.45542316316865
            ]
        },
        {
            "positions": [
                -2.5091070818455248,
                -1.1991492282476723,
                2.0079119333564197,
                -0.9131137353979019,
                0.7514661108929936,
                2.682580073375506
            ]
        },
        {
            "positions": [
                -2.4914174988773516,
                -1.1813974724948682,
                2.0117500094082597,
                -0.8838194226480236,
                0.7167015609476007,
                2.9097369835823614
            ]
        },
        {
            "positions": [
                -2.4737279159091785,
                -1.1636457167420642,
                2.0155880854601,
                -0.8545251098981455,
                0.6819370110022079,
                3.1368938937892175
            ]
        }
    ]
}