{
    "goal": {
        "global_pose": {
            "orientation": {
                "w": 0.005598929693374612,
                "x": 0.007748599140229565,
                "y": 0.7110244013736278,
                "z": -0.7031023480610252
            },
            "position": {
                "x": 0.1141497679147869,
                "y": -0.7141253447532654,
                "z": 0.3711530566215515
            }
        },
        "name": "move_to_auspresseinheit_B"
    },
    "id": "BKPIECE_move_to_auspresseinheit_B_52",
    "joint_names": [
        "shoulder_pan_joint",
        "shoulder_lift_joint",
        "elbow_joint",
        "wrist_1_joint",
        "wrist_2_joint",
        "wrist_3_joint"
    ],
    "metrics": {
        "cart_traj_len": 0.563835240992668,
        "distance_elbow_joint": 0.06484549375023274,
        "distance_shoulder_lift_joint": 0.2933135289680948,
        "distance_shoulder_pan_joint": 0.5766594449421663,
        "distance_wrist_1_joint": 0.337638495367905,
        "distance_wrist_2_joint": 0.9919557298283148,
        "distance_wrist_3_joint": 0.005894192859404956,
        "smoothness": 7.612957943425664e-16,
        "time": 0.61199093,
        "traj_len": 1.5067537574919527,
        "weighted_distance": 1.9004445523695628
    },
    "planner": "BKPIECE",
    "start": {
        "state": {
            "elbow_joint": 2.019306165916698,
            "shoulder_lift_joint": -1.1220205098164344,
            "shoulder_pan_joint": -1.095207207618794,
            "wrist_1_joint": -0.8559671824921639,
            "wrist_2_joint": 0.47596387242952726,
            "wrist_3_joint": 3.159081874673826
        }
    },
    "waypoints": [
        {
            "positions": [
                -1.095207207618794,
                -1.1220205098164344,
                2.019306165916698,
                -0.8559671824921639,
                0.47596387242952726,
                3.159081874673826
            ]
        },
        {
            "positions": [
                -1.191317115109155,
                -1.1709060979777837,
                2.0084985836249927,
                -0.7996940999308464,
                0.6412898274009131,
                3.160064240150393
            ]
        },
        {
            "positions": [
                -1.2874270225995161,
                -1.2197916861391327,
                1.9976910013332871,
                -0.7434210173695288,
                0.8066157823722988,
                3.161046605626961
            ]
        },
        {
            "positions": [
                -1.383536930089877,
                -1.2686772743004817,
                1.9868834190415816,
                -0.6871479348082113,
                0.9719417373436847,
                3.1620289711035285
            ]
        },
        {
            "positions": [
                -1.479646837580238,
                -1.317562862461831,
                1.976075836749876,
                -0.6308748522468939,
                1.1372676923150704,
                3.163011336580096
            ]
        },
        {
            "positions": [
                -1.5757567450705992,
                -1.3664484506231802,
                1.9652682544581708,
                -0.5746017696855763,
                1.3025936472864563,
                3.163993702056663
            ]
        },
        {
            "positions": [
                -1.6718666525609602,
                -1.4153340387845292,
                1.9544606721664652,
                -0.5183286871242588,
                1.467919602257842,
                3.164976067533231
            ]
        }
    ]
}