{
    "goal": {
        "global_pose": {
            "orientation": {
                "w": 0.5084816217422485,
                "x": -0.49083608388900757,
                "y": 0.5182115435600281,
                "z": -0.4816462993621826
            },
            "position": {
                "x": 0.5540239810943604,
                "y": 0.030875300988554955,
                "z": 0.16403168439865112
            }
        },
        "name": "move_to_storage_A"
    },
    "id": "BKPIECE_move_to_storage_A_114",
    "joint_names": [
        "shoulder_pan_joint",
        "shoulder_lift_joint",
        "elbow_joint",
        "wrist_1_joint",
        "wrist_2_joint",
        "wrist_3_joint"
    ],
    "metrics": {
        "cart_traj_len": 0.3527540187320684,
        "distance_elbow_joint": 0.449146804683314,
        "distance_shoulder_lift_joint": 0.23479784444225338,
        "distance_shoulder_pan_joint": 0.4589436036100652,
        "distance_wrist_1_joint": 0.23843705429524842,
        "distance_wrist_2_joint": 1.1084270438134824,
        "distance_wrist_3_joint": 0.10096666873592319,
        "smoothness": 6.661338165333112e-16,
        "time": 1.14520096,
        "traj_len": 1.6095710669555063,
        "weighted_distance": 2.034580166806131
    },
    "planner": "BKPIECE",
    "start": {
        "state": {
            "elbow_joint": 1.9715474177455299,
            "shoulder_lift_joint": -1.139484666580328,
            "shoulder_pan_joint": 0.12281154398918248,
            "wrist_1_joint": -0.7804687475355282,
            "wrist_2_joint": 0.12958649657246987,
            "wrist_3_joint": -3.1924925159053466
        }
    },
    "waypoints": [
        {
            "positions": [
                0.12281154398918248,
                -1.139484666580328,
                1.9715474177455299,
                -0.7804687475355282,
                0.12958649657246987,
                -3.1924925159053466
            ]
        },
        {
            "positions": [
                0.057248172044887455,
                -1.1730272157863642,
                2.0357112469860033,
                -0.8145311838634208,
                0.2879332171172531,
                -3.178068706085929
            ]
        },
        {
            "positions": [
                -0.008315199899407572,
                -1.2065697649924003,
                2.0998750762264766,
                -0.8485936201913135,
                0.44627993766203633,
                -3.1636448962665114
            ]
        },
        {
            "positions": [
                -0.07387857184370258,
                -1.2401123141984365,
                2.16403890546695,
                -0.8826560565192061,
                0.6046266582068196,
                -3.1492210864470938
            ]
        },
        {
            "positions": [
                -0.13944194378799762,
                -1.2736548634044729,
                2.2282027347074234,
                -0.9167184928470987,
                0.7629733787516029,
                -3.134797276627676
            ]
        },
        {
            "positions": [
                -0.2050053157322927,
                -1.307197412610509,
                2.292366563947897,
                -0.9507809291749914,
                0.9213200992963861,
                -3.1203734668082586
            ]
        },
        {
            "positions": [
                -0.27056868767658765,
                -1.3407399618165452,
                2.3565303931883705,
                -0.984843365502884,
                1.0796668198411692,
                -3.105949656988841
            ]
        },
        {
            "positions": [
                -0.3361320596208827,
                -1.3742825110225814,
                2.420694222428844,
                -1.0189058018307766,
                1.2380135403859525,
                -3.0915258471694234
            ]
        }
    ]
}