{
    "goal": {
        "global_pose": {
            "orientation": {
                "w": 0.7047431493862688,
                "x": -0.7094548369677653,
                "y": 0.0024358444001904,
                "z": -0.0022348060817251984
            },
            "position": {
                "x": -0.39052492380142206,
                "y": 0.3671506643295288,
                "z": 0.19426114857196808
            }
        },
        "name": "move_to_magneteinheit_D"
    },
    "id": "BKPIECE_move_to_magneteinheit_D_47",
    "joint_names": [
        "shoulder_pan_joint",
        "shoulder_lift_joint",
        "elbow_joint",
        "wrist_1_joint",
        "wrist_2_joint",
        "wrist_3_joint"
    ],
    "metrics": {
        "cart_traj_len": 5.4366756910285305,
        "distance_elbow_joint": 3.11756863738984,
        "distance_shoulder_lift_joint": 1.49175185589693,
        "distance_shoulder_pan_joint": 5.310213445257327,
        "distance_wrist_1_joint": 3.3157625776208497,
        "distance_wrist_2_joint": 4.613961261540804,
        "distance_wrist_3_joint": 3.7928597307296723,
        "smoothness": 0.6382727042650354,
        "time": 0.433086503,
        "traj_len": 4.652108931273581,
        "weighted_distance": 6.095700190220677
    },
    "planner": "BKPIECE",
    "start": {
        "state": {
            "elbow_joint": 0.7495348899011973,
            "shoulder_lift_joint": -0.6476975780737697,
            "shoulder_pan_joint": -2.711696901376276,
            "wrist_1_joint": -0.07506478080974305,
            "wrist_2_joint": 0.4329665971545858,
            "wrist_3_joint": 3.1361499051832524
        }
    },
    "waypoints": [
        {
            "positions": [
                -2.711696901376276,
                -0.6476975780737697,
                0.7495348899011973,
                -0.07506478080974305,
                0.4329665971545858,
                3.1361499051832524
            ]
        },
        {
            "positions": [
                -2.721346458575177,
                -0.6929898591564427,
                0.7272854093141434,
                -0.02318491561560923,
                0.4287170077818347,
                2.9548824397833617
            ]
        },
        {
            "positions": [
                -2.7309960157740774,
                -0.7382821402391158,
                0.7050359287270895,
                0.028694949578524587,
                0.42446741840908353,
                2.7736149743834706
            ]
        },
        {
            "positions": [
                -2.740645572972978,
                -0.7835744213217888,
                0.6827864481400356,
                0.0805748147726584,
                0.4202178290363324,
                2.59234750898358
            ]
        },
        {
            "positions": [
                -2.6269829951630523,
                -0.8292547901252451,
                0.6091775043185649,
                0.02524282189252456,
                0.4347694541948391,
                2.5131894211278034
            ]
        },
        {
            "positions": [
                -2.5133204173531265,
                -0.8749351589287012,
                0.5355685604970941,
                -0.030089170987609284,
                0.44932107935334575,
                2.434031333272027
            ]
        },
        {
            "positions": [
                -2.3996578395432007,
                -0.9206155277321575,
                0.46195961667562335,
                -0.08542116386774315,
                0.4638727045118524,
                2.3548732454162504
            ]
        },
        {
            "positions": [
                -2.2859952617332753,
                -0.9662958965356138,
                0.38835067285415265,
                -0.14075315674787697,
                0.4784243296703591,
                2.275715157560474
            ]
        },
        {
            "positions": [
                -2.1723326839233494,
                -1.01197626533907,
                0.3147417290326819,
                -0.1960851496280108,
                0.49297595482886575,
                2.1965570697046974
            ]
        },
        {
            "positions": [
                -2.0586701061134236,
                -1.0576566341425262,
                0.24113278521121106,
                -0.25141714250814473,
                0.5075275799873724,
                2.117398981848921
            ]
        },
        {
            "positions": [
                -1.9450075283034978,
                -1.1033370029459824,
                0.1675238413897403,
                -0.3067491353882785,
                0.5220792051458791,
                2.0382408939931445
            ]
        },
        {
            "positions": [
                -1.831344950493572,
                -1.1490173717494387,
                0.09391489756826965,
                -0.3620811282684123,
                0.5366308303043857,
                1.959082806137368
            ]
        },
        {
            "positions": [
                -1.7176823726836463,
                -1.194697740552895,
                0.020305953746798888,
                -0.41741312114854623,
                0.5511824554628925,
                1.8799247182815915
            ]
        },
        {
            "positions": [
                -1.6040197948737207,
                -1.240378109356351,
                -0.053302990074671874,
                -0.47274511402868,
                0.5657340806213991,
                1.800766630425815
            ]
        },
        {
            "positions": [
                -1.4903572170637949,
                -1.2860584781598074,
                -0.12691193389614264,
                -0.5280771069088139,
                0.5802857057799058,
                1.7216085425700385
            ]
        },
        {
            "positions": [
                -1.376694639253869,
                -1.3317388469632636,
                -0.2005208777176135,
                -0.5834090997889478,
                0.5948373309384125,
                1.642450454714262
            ]
        },
        {
            "positions": [
                -1.2630320614439432,
                -1.3774192157667198,
                -0.27412982153908416,
                -0.6387410926690816,
                0.6093889560969191,
                1.5632923668584855
            ]
        },
        {
            "positions": [
                -1.1493694836340176,
                -1.423099584570176,
                -0.34773876536055504,
                -0.6940730855492155,
                0.6239405812554257,
                1.484134279002709
            ]
        },
        {
            "positions": [
                -1.0357069058240918,
                -1.4687799533736323,
                -0.4213477091820257,
                -0.7494050784293493,
                0.6384922064139325,
                1.4049761911469325
            ]
        },
        {
            "positions": [
                -0.9537200890913964,
                -1.4613969871039962,
                -0.48813114912840666,
                -0.8186449461663331,
                0.542031513009492,
                1.4748917809492286
            ]
        },
        {
            "positions": [
                -0.8717332723587011,
                -1.45401402083436,
                -0.5549145890747876,
                -0.887884813903317,
                0.4455708196050516,
                1.5448073707515246
            ]
        },
        {
            "positions": [
                -0.7897464556260058,
                -1.4466310545647239,
                -0.6216980290211686,
                -0.9571246816403007,
                0.34911012620061127,
                1.6147229605538205
            ]
        },
        {
            "positions": [
                -0.7077596388933105,
                -1.4392480882950878,
                -0.6884814689675496,
                -1.0263645493772846,
                0.25264943279617086,
                1.6846385503561165
            ]
        },
        {
            "positions": [
                -0.6257728221606151,
                -1.4318651220254515,
                -0.7552649089139305,
                -1.0956044171142683,
                0.15618873939173045,
                1.7545541401584126
            ]
        },
        {
            "positions": [
                -0.5437860054279198,
                -1.4244821557558154,
                -0.8220483488603114,
                -1.1648442848512521,
                0.05972804598729009,
                1.8244697299607084
            ]
        },
        {
            "positions": [
                -0.4617991886952244,
                -1.4170991894861793,
                -0.8888317888066924,
                -1.234084152588236,
                -0.03673264741715032,
                1.8943853197630045
            ]
        },
        {
            "positions": [
                -0.37981237196252915,
                -1.409716223216543,
                -0.9556152287530734,
                -1.3033240203252197,
                -0.13319334082159073,
                1.9643009095653006
            ]
        },
        {
            "positions": [
                -0.2978255552298338,
                -1.402333256946907,
                -1.0223986686994544,
                -1.3725638880622035,
                -0.22965403422603115,
                2.0342164993675964
            ]
        },
        {
            "positions": [
                -0.21583873849713842,
                -1.3949502906772708,
                -1.0891821086458353,
                -1.4418037557991874,
                -0.32611472763047156,
                2.1041320891698927
            ]
        },
        {
            "positions": [
                -0.13385192176444316,
                -1.3875673244076345,
                -1.1559655485922162,
                -1.511043623536171,
                -0.42257542103491197,
                2.1740476789721885
            ]
        },
        {
            "positions": [
                -0.051865105031747794,
                -1.3801843581379984,
                -1.2227489885385974,
                -1.580283491273155,
                -0.5190361144393523,
                2.2439632687744844
            ]
        },
        {
            "positions": [
                0.030121711700947573,
                -1.3728013918683624,
                -1.289532428484978,
                -1.6495233590101388,
                -0.6154968078437928,
                2.3138788585767807
            ]
        },
        {
            "positions": [
                0.11210852843364294,
                -1.365418425598726,
                -1.3563158684313592,
                -1.7187632267471225,
                -0.7119575012482331,
                2.3837944483790765
            ]
        },
        {
            "positions": [
                0.1940953451663383,
                -1.35803545932909,
                -1.4230993083777403,
                -1.7880030944841065,
                -0.8084181946526738,
                2.453710038181373
            ]
        },
        {
            "positions": [
                0.27608216189903345,
                -1.350652493059454,
                -1.489882748324121,
                -1.8572429622210902,
                -0.9048788880571139,
                2.5236256279836686
            ]
        },
        {
            "positions": [
                0.35806897863172904,
                -1.3432695267898176,
                -1.5566661882705022,
                -1.926482829958074,
                -1.0013395814615544,
                2.5935412177859645
            ]
        },
        {
            "positions": [
                0.4400557953644242,
                -1.3358865605201815,
                -1.623449628216883,
                -1.9957226976950577,
                -1.0978002748659947,
                2.6634568075882603
            ]
        },
        {
            "positions": [
                0.5220426120971196,
                -1.3285035942505454,
                -1.690233068163264,
                -2.064962565432042,
                -1.1942609682704353,
                2.7333723973905566
            ]
        },
        {
            "positions": [
                0.6040294288298149,
                -1.3211206279809091,
                -1.757016508109645,
                -2.1342024331690252,
                -1.2907216616748756,
                2.8032879871928524
            ]
        },
        {
            "positions": [
                0.6860162455625103,
                -1.313737661711273,
                -1.823799948056026,
                -2.2034423009060093,
                -1.3871823550793163,
                2.8732035769951487
            ]
        },
        {
            "positions": [
                0.7680030622952054,
                -1.306354695441637,
                -1.890583388002407,
                -2.272682168642993,
                -1.4836430484837564,
                2.9431191667974446
            ]
        },
        {
            "positions": [
                0.849989879027901,
                -1.2989717291720007,
                -1.957366827948788,
                -2.3419220363799766,
                -1.580103741888197,
                3.0130347565997404
            ]
        },
        {
            "positions": [
                0.9319766957605962,
                -1.2915887629023646,
                -2.024150267895169,
                -2.4111619041169607,
                -1.676564435292637,
                3.0829503464020362
            ]
        },
        {
            "positions": [
                1.0139635124932915,
                -1.2842057966327285,
                -2.09093370784155,
                -2.480401771853945,
                -1.773025128697078,
                3.152865936204333
            ]
        },
        {
            "positions": [
                1.095950329225987,
                -1.2768228303630922,
                -2.1577171477879307,
                -2.549641639590928,
                -1.869485822101518,
                3.222781526006629
            ]
        },
        {
            "positions": [
                1.1779371459586825,
                -1.269439864093456,
                -2.224500587734312,
                -2.618881507327912,
                -1.9659465155059583,
                3.2926971158089247
            ]
        },
        {
            "positions": [
                1.0643803080646024,
                -1.3087173133698637,
                -2.2364616843805063,
                -2.5804926189997555,
                -1.8177382326622036,
                3.2782000248063112
            ]
        },
        {
            "positions": [
                0.9508234701705225,
                -1.3479947626462714,
                -2.2484227810267003,
                -2.5421037306715992,
                -1.6695299498184486,
                3.263702933803698
            ]
        },
        {
            "positions": [
                0.8372666322764424,
                -1.3872722119226788,
                -2.2603838776728944,
                -2.5037148423434425,
                -1.5213216669746938,
                3.2492058428010844
            ]
        },
        {
            "positions": [
                0.7237097943823625,
                -1.4265496611990864,
                -2.272344974319089,
                -2.4653259540152863,
                -1.373113384130939,
                3.234708751798471
            ]
        },
        {
            "positions": [
                0.6101529564882824,
                -1.465827110475494,
                -2.2843060709652834,
                -2.4269370656871296,
                -1.224905101287184,
                3.2202116607958575
            ]
        },
        {
            "positions": [
                0.4965961185942024,
                -1.5051045597519017,
                -2.2962671676114774,
                -2.388548177358973,
                -1.0766968184434296,
                3.205714569793244
            ]
        },
        {
            "positions": [
                0.3830392807001223,
                -1.5443820090283094,
                -2.3082282642576715,
                -2.3501592890308167,
                -0.9284885355996746,
                3.191217478790631
            ]
        },
        {
            "positions": [
                0.2694824428060424,
                -1.5836594583047168,
                -2.320189360903866,
                -2.31177040070266,
                -0.7802802527559198,
                3.1767203877880177
            ]
        },
        {
            "positions": [
                0.1559256049119624,
                -1.6229369075811246,
                -2.3321504575500605,
                -2.273381512374504,
                -0.6320719699121651,
                3.1622232967854043
            ]
        },
        {
            "positions": [
                0.04236876701788228,
                -1.662214356857532,
                -2.3441115541962545,
                -2.234992624046347,
                -0.4838636870684101,
                3.147726205782791
            ]
        },
        {
            "positions": [
                -0.0711880708761976,
                -1.7014918061339397,
                -2.3560726508424485,
                -2.196603735718191,
                -0.33565540422465556,
                3.1332291147801774
            ]
        },
        {
            "positions": [
                -0.18474490877027777,
                -1.7407692554103473,
                -2.368033747488643,
                -2.158214847390034,
                -0.18744712138090053,
                3.118732023777564
            ]
        }
    ]
}