{
    "goal": {
        "global_pose": {
            "orientation": {
                "w": 0.005598929693374612,
                "x": 0.007748599140229565,
                "y": 0.7110244013736278,
                "z": -0.7031023480610252
            },
            "position": {
                "x": -0.8858502320852131,
                "y": -0.7141253447532654,
                "z": 0.3711530566215515
            }
        },
        "name": "move_to_auspresseinheit_C"
    },
    "id": "BKPIECE_move_to_auspresseinheit_C_80",
    "joint_names": [
        "shoulder_pan_joint",
        "shoulder_lift_joint",
        "elbow_joint",
        "wrist_1_joint",
        "wrist_2_joint",
        "wrist_3_joint"
    ],
    "metrics": {
        "cart_traj_len": 0.49342126710795764,
        "distance_elbow_joint": 1.0099521721752813,
        "distance_shoulder_lift_joint": 0.3298984722804793,
        "distance_shoulder_pan_joint": 0.2566054284528225,
        "distance_wrist_1_joint": 0.7035922819432797,
        "distance_wrist_2_joint": 1.3020623772045465,
        "distance_wrist_3_joint": 0.07796400604384734,
        "smoothness": 3.2297397335745243e-16,
        "time": 0.655234761,
        "traj_len": 1.9183520891901615,
        "weighted_distance": 2.416952090823436
    },
    "planner": "BKPIECE",
    "start": {
        "state": {
            "elbow_joint": 1.752795957773711,
            "shoulder_lift_joint": -0.9740617694225064,
            "shoulder_pan_joint": -2.967991417825858,
            "wrist_1_joint": -0.7595177689806859,
            "wrist_2_joint": 1.7443932448377395,
            "wrist_3_joint": 3.199131542505932
        }
    },
    "waypoints": [
        {
            "positions": [
                -2.967991417825858,
                -0.9740617694225064,
                1.752795957773711,
                -0.7595177689806859,
                1.7443932448377395,
                3.199131542505932
            ]
        },
        {
            "positions": [
                -2.9423308749805757,
                -0.9410719221944586,
                1.651800740556183,
                -0.689158540786358,
                1.6141870071172848,
                3.1913351419015474
            ]
        },
        {
            "positions": [
                -2.9166703321352934,
                -0.9080820749664106,
                1.5508055233386548,
                -0.6187993125920299,
                1.48398076939683,
                3.1835387412971627
            ]
        },
        {
            "positions": [
                -2.891009789290011,
                -0.8750922277383626,
                1.4498103061211267,
                -0.548440084397702,
                1.3537745316763756,
                3.175742340692778
            ]
        },
        {
            "positions": [
                -2.8653492464447288,
                -0.8421023805103147,
                1.3488150889035986,
                -0.478080856203374,
                1.2235682939559207,
                3.1679459400883934
            ]
        },
        {
            "positions": [
                -2.839688703599447,
                -0.8091125332822668,
                1.2478198716860704,
                -0.40772162800904604,
                1.0933620562354662,
                3.1601495394840082
            ]
        },
        {
            "positions": [
                -2.8140281607541646,
                -0.7761226860542189,
                1.1468246544685423,
                -0.3373623998147181,
                0.9631558185150116,
                3.1523531388796235
            ]
        },
        {
            "positions": [
                -2.7883676179088823,
                -0.743132838826171,
                1.0458294372510142,
                -0.2670031716203901,
                0.8329495807945569,
                3.144556738275239
            ]
        },
        {
            "positions": [
                -2.7627070750636,
                -0.710142991598123,
                0.944834220033486,
                -0.19664394342606206,
                0.7027433430741021,
                3.136760337670854
            ]
        },
        {
            "positions": [
                -2.7370465322183177,
                -0.6771531443700751,
                0.8438390028159579,
                -0.12628471523173412,
                0.5725371053536477,
                3.1289639370664695
            ]
        },
        {
            "positions": [
                -2.7113859893730354,
                -0.6441632971420271,
                0.7428437855984297,
                -0.05592548703740621,
                0.44233086763319296,
                3.121167536462085
            ]
        }
    ]
}