{
    "goal": {
        "global_pose": {
            "orientation": {
                "w": 0.005598929693374612,
                "x": 0.007748599140229565,
                "y": 0.7110244013736278,
                "z": -0.7031023480610252
            },
            "position": {
                "x": 0.1141497679147869,
                "y": -0.7141253447532654,
                "z": 0.3711530566215515
            }
        },
        "name": "move_to_auspresseinheit_B"
    },
    "id": "BKPIECE_move_to_auspresseinheit_B_29",
    "joint_names": [
        "shoulder_pan_joint",
        "shoulder_lift_joint",
        "elbow_joint",
        "wrist_1_joint",
        "wrist_2_joint",
        "wrist_3_joint"
    ],
    "metrics": {
        "cart_traj_len": 0.5655944875692979,
        "distance_elbow_joint": 0.06463760593955992,
        "distance_shoulder_lift_joint": 0.29479660420053744,
        "distance_shoulder_pan_joint": 0.5776456804708132,
        "distance_wrist_1_joint": 0.3319463940924835,
        "distance_wrist_2_joint": 0.9944576678853945,
        "distance_wrist_3_joint": 0.007497044899726024,
        "smoothness": 6.344131583732827e-16,
        "time": 0.88882956,
        "traj_len": 1.5069774376176024,
        "weighted_distance": 1.9006259887904942
    },
    "planner": "BKPIECE",
    "start": {
        "state": {
            "elbow_joint": 2.019306165916698,
            "shoulder_lift_joint": -1.1220205098164344,
            "shoulder_pan_joint": -1.095207207618794,
            "wrist_1_joint": -0.8559671824921639,
            "wrist_2_joint": 0.47596387242952726,
            "wrist_3_joint": 3.159081874673826
        }
    },
    "waypoints": [
        {
            "positions": [
                -1.095207207618794,
                -1.1220205098164344,
                2.019306165916698,
                -0.8559671824921639,
                0.47596387242952726,
                3.159081874673826
            ]
        },
        {
            "positions": [
                -1.1914814876972628,
                -1.1711532771831907,
                2.008533231593438,
                -0.80064278347675,
                0.641706817077093,
                3.1578323671905384
            ]
        },
        {
            "positions": [
                -1.2877557677757316,
                -1.2202860445499468,
                1.997760297270178,
                -0.745318384461336,
                0.8074497617246588,
                3.1565828597072505
            ]
        },
        {
            "positions": [
                -1.3840300478542007,
                -1.2694188119167031,
                1.986987362946918,
                -0.689993985445922,
                0.9731927063722245,
                3.1553333522239626
            ]
        },
        {
            "positions": [
                -1.4803043279326693,
                -1.3185515792834595,
                1.976214428623658,
                -0.6346695864305082,
                1.13893565101979,
                3.154083844740675
            ]
        },
        {
            "positions": [
                -1.5765786080111384,
                -1.3676843466502155,
                1.9654414943003982,
                -0.5793451874150943,
                1.3046785956673561,
                3.1528343372573877
            ]
        },
        {
            "positions": [
                -1.6728528880896072,
                -1.4168171140169719,
                1.954668559977138,
                -0.5240207883996804,
                1.4704215403149217,
                3.1515848297741
            ]
        }
    ]
}