{
    "goal": {
        "global_pose": {
            "orientation": {
                "w": -0.00223480608172531,
                "x": 0.0024358444001904467,
                "y": 0.7094548369677653,
                "z": -0.704743149386269
            },
            "position": {
                "x": 0.6205249238014221,
                "y": -0.6371506643295288,
                "z": 0.19426114857196808
            }
        },
        "name": "move_to_magneteinheit_B"
    },
    "id": "BKPIECE_move_to_magneteinheit_B_44",
    "joint_names": [
        "shoulder_pan_joint",
        "shoulder_lift_joint",
        "elbow_joint",
        "wrist_1_joint",
        "wrist_2_joint",
        "wrist_3_joint"
    ],
    "metrics": {
        "cart_traj_len": 1.4536809095688064,
        "distance_elbow_joint": 0.731333566697181,
        "distance_shoulder_lift_joint": 1.248781881588076,
        "distance_shoulder_pan_joint": 1.6221191890235498,
        "distance_wrist_1_joint": 2.605042993133702,
        "distance_wrist_2_joint": 2.9385068550292255,
        "distance_wrist_3_joint": 3.133499363824253,
        "smoothness": 4.718447868532788e-16,
        "time": 0.833229351,
        "traj_len": 3.5041809098983436,
        "weighted_distance": 4.908139405630958
    },
    "planner": "BKPIECE",
    "start": {
        "state": {
            "elbow_joint": 2.3935871308073637,
            "shoulder_lift_joint": -1.9085141043777403,
            "shoulder_pan_joint": 0.7066247067284167,
            "wrist_1_joint": -0.46782909355067076,
            "wrist_2_joint": 0.7096259085804283,
            "wrist_3_joint": -3.1358149275257428
        }
    },
    "waypoints": [
        {
            "positions": [
                0.7066247067284167,
                -1.9085141043777403,
                2.3935871308073637,
                -0.46782909355067076,
                0.7096259085804283,
                -3.1358149275257428
            ]
        },
        {
            "positions": [
                0.6542982812760442,
                -1.8682308178748992,
                2.3699957254300354,
                -0.3837954486108739,
                0.6148353648698082,
                -3.0347343028862506
            ]
        },
        {
            "positions": [
                0.6019718558236715,
                -1.827947531372058,
                2.3464043200527067,
                -0.2997618036710771,
                0.5200448211591879,
                -2.933653678246759
            ]
        },
        {
            "positions": [
                0.549645430371299,
                -1.7876642448692168,
                2.3228129146753784,
                -0.21572815873128026,
                0.42525427744856775,
                -2.8325730536072666
            ]
        },
        {
            "positions": [
                0.49731900491892644,
                -1.7473809583663757,
                2.29922150929805,
                -0.1316945137914834,
                0.3304637337379476,
                -2.7314924289677744
            ]
        },
        {
            "positions": [
                0.44499257946655385,
                -1.7070976718635344,
                2.275630103920722,
                -0.04766086885168658,
                0.2356731900273274,
                -2.6304118043282827
            ]
        },
        {
            "positions": [
                0.39266615401418126,
                -1.6668143853606934,
                2.252038698543393,
                0.03637277608811024,
                0.14088264631670722,
                -2.5293311796887905
            ]
        },
        {
            "positions": [
                0.3403397285618087,
                -1.626531098857852,
                2.228447293166065,
                0.12040642102790705,
                0.04609210260608709,
                -2.4282505550492983
            ]
        },
        {
            "positions": [
                0.2880133031094361,
                -1.586247812355011,
                2.2048558877887365,
                0.20444006596770398,
                -0.04869844110453314,
                -2.3271699304098066
            ]
        },
        {
            "positions": [
                0.23568687765706353,
                -1.54596452585217,
                2.181264482411408,
                0.2884737109075008,
                -0.14348898481515338,
                -2.2260893057703144
            ]
        },
        {
            "positions": [
                0.183360452204691,
                -1.5056812393493286,
                2.1576730770340795,
                0.3725073558472976,
                -0.2382795285257735,
                -2.125008681130822
            ]
        },
        {
            "positions": [
                0.13103402675231834,
                -1.4653979528464876,
                2.1340816716567512,
                0.45654100078709453,
                -0.3330700722363936,
                -2.0239280564913305
            ]
        },
        {
            "positions": [
                0.0787076012999458,
                -1.4251146663436463,
                2.110490266279423,
                0.5405746457268912,
                -0.42786061594701386,
                -1.9228474318518385
            ]
        },
        {
            "positions": [
                0.02638117584757327,
                -1.3848313798408052,
                2.086898860902094,
                0.6246082906666881,
                -0.5226511596576341,
                -1.8217668072123463
            ]
        },
        {
            "positions": [
                -0.02594524960479927,
                -1.344548093337964,
                2.063307455524766,
                0.7086419356064848,
                -0.6174417033682541,
                -1.7206861825728543
            ]
        },
        {
            "positions": [
                -0.07827167505717192,
                -1.3042648068351228,
                2.0397160501474376,
                0.7926755805462817,
                -0.7122322470788743,
                -1.6196055579333621
            ]
        },
        {
            "positions": [
                -0.13059810050954446,
                -1.2639815203322817,
                2.016124644770109,
                0.8767092254860787,
                -0.8070227907894946,
                -1.5185249332938704
            ]
        },
        {
            "positions": [
                -0.182924525961917,
                -1.2236982338294404,
                1.9925332393927806,
                0.9607428704258754,
                -0.9018133345001146,
                -1.4174443086543784
            ]
        },
        {
            "positions": [
                -0.23525095141428964,
                -1.1834149473265994,
                1.9689418340154523,
                1.0447765153656723,
                -0.996603878210735,
                -1.316363684014886
            ]
        },
        {
            "positions": [
                -0.2875773768666622,
                -1.1431316608237583,
                1.9453504286381238,
                1.1288101603054692,
                -1.091394421921355,
                -1.215283059375394
            ]
        },
        {
            "positions": [
                -0.3399038023190347,
                -1.1028483743209172,
                1.9217590232607953,
                1.212843805245266,
                -1.1861849656319752,
                -1.114202434735902
            ]
        },
        {
            "positions": [
                -0.39223022777140726,
                -1.062565087818076,
                1.898167617883467,
                1.2968774501850626,
                -1.2809755093425954,
                -1.0131218100964103
            ]
        },
        {
            "positions": [
                -0.44455665322378,
                -1.0222818013152346,
                1.8745762125061385,
                1.3809110951248598,
                -1.3757660530532156,
                -0.9120411854569181
            ]
        },
        {
            "positions": [
                -0.49688307867615256,
                -0.9819985148123935,
                1.85098480712881,
                1.4649447400646565,
                -1.4705565967638359,
                -0.810960560817426
            ]
        },
        {
            "positions": [
                -0.5492095041285251,
                -0.9417152283095525,
                1.8273934017514817,
                1.5489783850044532,
                -1.5653471404744561,
                -0.7098799361779342
            ]
        },
        {
            "positions": [
                -0.6015359295808976,
                -0.9014319418067114,
                1.8038019963741534,
                1.63301202994425,
                -1.660137684185076,
                -0.608799311538442
            ]
        },
        {
            "positions": [
                -0.6538623550332702,
                -0.8611486553038701,
                1.7802105909968249,
                1.717045674884047,
                -1.7549282278956966,
                -0.5077186868989498
            ]
        },
        {
            "positions": [
                -0.7061887804856427,
                -0.820865368801029,
                1.7566191856194964,
                1.801079319823844,
                -1.8497187716063168,
                -0.4066380622594581
            ]
        },
        {
            "positions": [
                -0.7585152059380152,
                -0.7805820822981877,
                1.733027780242168,
                1.8851129647636404,
                -1.9445093153169366,
                -0.3055574376199659
            ]
        },
        {
            "positions": [
                -0.8108416313903878,
                -0.7402987957953466,
                1.7094363748648398,
                1.9691466097034374,
                -2.039299859027557,
                -0.20447681298047415
            ]
        },
        {
            "positions": [
                -0.8631680568427605,
                -0.7000155092925053,
                1.685844969487511,
                2.0531802546432343,
                -2.134090402738177,
                -0.10339618834098152
            ]
        },
        {
            "positions": [
                -0.9154944822951331,
                -0.6597322227896641,
                1.6622535641101828,
                2.137213899583031,
                -2.2288809464487973,
                -0.0023155637014896624
            ]
        }
    ]
}