{
    "goal": {
        "global_pose": {
            "orientation": {
                "w": 0.7031023480610252,
                "x": -0.7110244013736278,
                "y": 0.0077485991402295624,
                "z": 0.005598929693374583
            },
            "position": {
                "x": -0.8841497679147869,
                "y": 0.44412534475326537,
                "z": 0.3711530566215515
            }
        },
        "name": "move_to_auspresseinheit_D"
    },
    "id": "BKPIECE_move_to_auspresseinheit_D_32",
    "joint_names": [
        "shoulder_pan_joint",
        "shoulder_lift_joint",
        "elbow_joint",
        "wrist_1_joint",
        "wrist_2_joint",
        "wrist_3_joint"
    ],
    "metrics": {
        "cart_traj_len": 3.778459310924153,
        "distance_elbow_joint": 3.014766994476841,
        "distance_shoulder_lift_joint": 1.2345163136807695,
        "distance_shoulder_pan_joint": 2.7977131083652003,
        "distance_wrist_1_joint": 2.0858163309820728,
        "distance_wrist_2_joint": 1.2250777634902694,
        "distance_wrist_3_joint": 1.1265447690115349,
        "smoothness": 0.06103962100537085,
        "time": 1.195591226,
        "traj_len": 3.3888693217659913,
        "weighted_distance": 4.12897310629436
    },
    "planner": "BKPIECE",
    "start": {
        "state": {
            "elbow_joint": 1.8268400409724999,
            "shoulder_lift_joint": -1.0144045787793008,
            "shoulder_pan_joint": 2.6280239544362485,
            "wrist_1_joint": -0.790705565816056,
            "wrist_2_joint": 1.0573557467365533,
            "wrist_3_joint": 3.1851377467193758
        }
    },
    "waypoints": [
        {
            "positions": [
                2.6280239544362485,
                -1.0144045787793008,
                1.8268400409724999,
                -0.790705565816056,
                1.0573557467365533,
                3.1851377467193758
            ]
        },
        {
            "positions": [
                2.5699239969983694,
                -1.0368102484997552,
                1.7032527077789719,
                -0.8069360113741748,
                1.0233648349566316,
                3.0437461880505787
            ]
        },
        {
            "positions": [
                2.51182403956049,
                -1.0592159182202097,
                1.5796653745854436,
                -0.8231664569322936,
                0.9893739231767097,
                2.9023546293817812
            ]
        },
        {
            "positions": [
                2.4537240821226107,
                -1.0816215879406639,
                1.4560780413919154,
                -0.8393969024904125,
                0.9553830113967878,
                2.760963070712984
            ]
        },
        {
            "positions": [
                2.3956241246847316,
                -1.1040272576611183,
                1.3324907081983874,
                -0.8556273480485314,
                0.9213920996168661,
                2.619571512044187
            ]
        },
        {
            "positions": [
                2.2930115935401845,
                -1.1498230030530765,
                1.2316740017302783,
                -0.9364631299985152,
                0.8778275349620428,
                2.642010653417641
            ]
        },
        {
            "positions": [
                2.190399062395637,
                -1.1956187484450345,
                1.1308572952621692,
                -1.0172989119484992,
                0.8342629703072195,
                2.664449794791095
            ]
        },
        {
            "positions": [
                2.0877865312510897,
                -1.2414144938369924,
                1.03004058879406,
                -1.098134693898483,
                0.7906984056523962,
                2.6868889361645487
            ]
        },
        {
            "positions": [
                1.9851740001065423,
                -1.2872102392289506,
                0.9292238823259509,
                -1.178970475848467,
                0.7471338409975729,
                2.7093280775380024
            ]
        },
        {
            "positions": [
                1.882561468961995,
                -1.3330059846209088,
                0.8284071758578416,
                -1.2598062577984508,
                0.7035692763427496,
                2.7317672189114566
            ]
        },
        {
            "positions": [
                1.7799489378174478,
                -1.3788017300128668,
                0.7275904693897326,
                -1.3406420397484347,
                0.6600047116879263,
                2.7542063602849103
            ]
        },
        {
            "positions": [
                1.6773364066729002,
                -1.424597475404825,
                0.6267737629216233,
                -1.4214778216984187,
                0.6164401470331029,
                2.776645501658364
            ]
        },
        {
            "positions": [
                1.574723875528353,
                -1.470393220796783,
                0.5259570564535142,
                -1.5023136036484026,
                0.5728755823782796,
                2.799084643031818
            ]
        },
        {
            "positions": [
                1.4721113443838059,
                -1.516188966188741,
                0.4251403499854052,
                -1.5831493855983865,
                0.5293110177234563,
                2.821523784405272
            ]
        },
        {
            "positions": [
                1.3694988132392585,
                -1.561984711580699,
                0.3243236435172958,
                -1.6639851675483706,
                0.48574645306863307,
                2.8439629257787256
            ]
        },
        {
            "positions": [
                1.266886282094711,
                -1.607780456972657,
                0.2235069370491869,
                -1.7448209494983544,
                0.4421818884138098,
                2.8664020671521797
            ]
        },
        {
            "positions": [
                1.164273750950164,
                -1.6535762023646152,
                0.12269023058107775,
                -1.8256567314483383,
                0.3986173237589865,
                2.8888412085256334
            ]
        },
        {
            "positions": [
                1.0616612198056163,
                -1.6993719477565734,
                0.02187352411296839,
                -1.9064925133983222,
                0.35505275910416323,
                2.911280349899087
            ]
        },
        {
            "positions": [
                0.959048688661069,
                -1.7451676931485314,
                -0.07894318235514075,
                -1.987328295348306,
                0.31148819444933984,
                2.933719491272541
            ]
        },
        {
            "positions": [
                0.8564361575165218,
                -1.7909634385404893,
                -0.17975988882324967,
                -2.06816407729829,
                0.26792362979451667,
                2.956158632645995
            ]
        },
        {
            "positions": [
                0.7538236263719744,
                -1.8367591839324477,
                -0.28057659529135903,
                -2.1489998592482737,
                0.22435906513969328,
                2.9785977740194487
            ]
        },
        {
            "positions": [
                0.651211095227427,
                -1.8825549293244057,
                -0.3813933017594682,
                -2.2298356411982576,
                0.18079450048487,
                3.001036915392903
            ]
        },
        {
            "positions": [
                0.5485985640828799,
                -1.9283506747163637,
                -0.4822100082275771,
                -2.3106714231482415,
                0.13722993583004672,
                3.0234760567663566
            ]
        },
        {
            "positions": [
                0.4459860329383325,
                -1.9741464201083219,
                -0.5830267146956865,
                -2.3915072050982253,
                0.09366537117522344,
                3.0459151981398103
            ]
        },
        {
            "positions": [
                0.34337350179378534,
                -2.01994216550028,
                -0.6838434211637958,
                -2.4723429870482097,
                0.050100806520400054,
                3.068354339513264
            ]
        },
        {
            "positions": [
                0.24076097064923818,
                -2.065737910892238,
                -0.7846601276319047,
                -2.553178768998193,
                0.006536241865576886,
                3.090793480886718
            ]
        },
        {
            "positions": [
                0.13814843950469058,
                -2.111533656284196,
                -0.8854768341000137,
                -2.6340145509481774,
                -0.037028322789246504,
                3.113232622260172
            ]
        },
        {
            "positions": [
                0.035535908360142976,
                -2.1573294016761544,
                -0.986293540568123,
                -2.7148503328981612,
                -0.08059288744406978,
                3.135671763633626
            ]
        },
        {
            "positions": [
                -0.06707662278440374,
                -2.2031251470681124,
                -1.087110247036232,
                -2.795686114848145,
                -0.12415745209889306,
                3.1581109050070797
            ]
        },
        {
            "positions": [
                -0.16968915392895145,
                -2.2489208924600703,
                -1.1879269535043413,
                -2.876521896798129,
                -0.16772201675371642,
                3.1805500463805334
            ]
        }
    ]
}