{
    "goal": {
        "global_pose": {
            "orientation": {
                "w": 0.7047431468963623,
                "x": -0.7094548344612122,
                "y": 0.0024358443915843964,
                "z": -0.0022348060738295317
            },
            "position": {
                "x": 0.6094750761985779,
                "y": 0.3671506643295288,
                "z": 0.19426114857196808
            }
        },
        "name": "move_to_magneteinheit_A"
    },
    "id": "BKPIECE_move_to_magneteinheit_A_150",
    "joint_names": [
        "shoulder_pan_joint",
        "shoulder_lift_joint",
        "elbow_joint",
        "wrist_1_joint",
        "wrist_2_joint",
        "wrist_3_joint"
    ],
    "metrics": {
        "cart_traj_len": 1.0532754258813752,
        "distance_elbow_joint": 0.3794545493089705,
        "distance_shoulder_lift_joint": 0.36876376298665137,
        "distance_shoulder_pan_joint": 1.2403373313600083,
        "distance_wrist_1_joint": 2.1987274104472867,
        "distance_wrist_2_joint": 1.693083274525816,
        "distance_wrist_3_joint": 1.231491329786894,
        "smoothness": 2.8047739791568236e-16,
        "time": 1.107129307,
        "traj_len": 2.666806640612631,
        "weighted_distance": 3.6696935843422294
    },
    "planner": "BKPIECE",
    "start": {
        "state": {
            "elbow_joint": 1.5739458966750683,
            "shoulder_lift_joint": -1.4977259741207325,
            "shoulder_pan_joint": -1.1188672016454206,
            "wrist_1_joint": 1.494575848278785,
            "wrist_2_joint": -1.5706037134824402,
            "wrist_3_joint": -2.0226957942261072
        }
    },
    "waypoints": [
        {
            "positions": [
                -1.1188672016454206,
                -1.4977259741207325,
                1.5739458966750683,
                1.494575848278785,
                -1.5706037134824402,
                -2.0226957942261072
            ]
        },
        {
            "positions": [
                -1.0499595721254202,
                -1.4772390983992518,
                1.595026704970011,
                1.372424325476158,
                -1.4765435315643394,
                -2.091111979214268
            ]
        },
        {
            "positions": [
                -0.9810519426054197,
                -1.4567522226777712,
                1.616107513264954,
                1.250272802673531,
                -1.3824833496462385,
                -2.159528164202429
            ]
        },
        {
            "positions": [
                -0.9121443130854192,
                -1.4362653469562905,
                1.6371883215598968,
                1.128121279870904,
                -1.2884231677281375,
                -2.2279443491905897
            ]
        },
        {
            "positions": [
                -0.8432366835654188,
                -1.41577847123481,
                1.6582691298548395,
                1.0059697570682768,
                -1.1943629858100366,
                -2.29636053417875
            ]
        },
        {
            "positions": [
                -0.7743290540454183,
                -1.3952915955133294,
                1.6793499381497823,
                0.8838182342656498,
                -1.1003028038919358,
                -2.364776719166911
            ]
        },
        {
            "positions": [
                -0.7054214245254179,
                -1.3748047197918487,
                1.7004307464447252,
                0.7616667114630228,
                -1.006242621973835,
                -2.4331929041550717
            ]
        },
        {
            "positions": [
                -0.6365137950054174,
                -1.354317844070368,
                1.721511554739668,
                0.6395151886603957,
                -0.912182440055734,
                -2.5016090891432325
            ]
        },
        {
            "positions": [
                -0.567606165485417,
                -1.3338309683488874,
                1.7425923630346107,
                0.5173636658577687,
                -0.8181222581376332,
                -2.5700252741313934
            ]
        },
        {
            "positions": [
                -0.49869853596541647,
                -1.313344092627407,
                1.7636731713295535,
                0.39521214305514163,
                -0.7240620762195322,
                -2.638441459119554
            ]
        },
        {
            "positions": [
                -0.42979090644541595,
                -1.2928572169059263,
                1.7847539796244964,
                0.27306062025251454,
                -0.6300018943014313,
                -2.706857644107715
            ]
        },
        {
            "positions": [
                -0.36088327692541544,
                -1.2723703411844456,
                1.8058347879194392,
                0.15090909744988745,
                -0.5359417123833303,
                -2.775273829095876
            ]
        },
        {
            "positions": [
                -0.29197564740541515,
                -1.251883465462965,
                1.826915596214382,
                0.028757574647260586,
                -0.4418815304652297,
                -2.8436900140840367
            ]
        },
        {
            "positions": [
                -0.22306801788541464,
                -1.2313965897414842,
                1.847996404509325,
                -0.0933939481553665,
                -0.34782134854712865,
                -2.9121061990721975
            ]
        },
        {
            "positions": [
                -0.15416038836541412,
                -1.2109097140200036,
                1.8690772128042676,
                -0.2155454709579936,
                -0.2537611666290278,
                -2.9805223840603583
            ]
        },
        {
            "positions": [
                -0.08525275884541372,
                -1.190422838298523,
                1.8901580210992104,
                -0.3376969937606207,
                -0.15970098471092675,
                -3.048938569048519
            ]
        },
        {
            "positions": [
                -0.01634512932541332,
                -1.1699359625770425,
                1.9112388293941531,
                -0.45984851656324754,
                -0.06564080279282614,
                -3.1173547540366795
            ]
        },
        {
            "positions": [
                0.0525625001945873,
                -1.1494490868555618,
                1.932319637689096,
                -0.5820000393658746,
                0.028419379125274924,
                -3.1857709390248403
            ]
        },
        {
            "positions": [
                0.12147012971458773,
                -1.1289622111340811,
                1.9534004459840388,
                -0.7041515621685015,
                0.12247956104337576,
                -3.254187124013001
            ]
        }
    ]
}