{
    "goal": {
        "global_pose": {
            "orientation": {
                "w": 0.005598929693374612,
                "x": 0.007748599140229565,
                "y": 0.7110244013736278,
                "z": -0.7031023480610252
            },
            "position": {
                "x": -0.8858502320852131,
                "y": -0.7141253447532654,
                "z": 0.3711530566215515
            }
        },
        "name": "move_to_auspresseinheit_C"
    },
    "id": "BKPIECE_move_to_auspresseinheit_C_101",
    "joint_names": [
        "shoulder_pan_joint",
        "shoulder_lift_joint",
        "elbow_joint",
        "wrist_1_joint",
        "wrist_2_joint",
        "wrist_3_joint"
    ],
    "metrics": {
        "cart_traj_len": 0.4939607916009488,
        "distance_elbow_joint": 1.0124734336141885,
        "distance_shoulder_lift_joint": 0.33029746191210696,
        "distance_shoulder_pan_joint": 0.2559124964750197,
        "distance_wrist_1_joint": 0.7016745367819821,
        "distance_wrist_2_joint": 1.314612204242031,
        "distance_wrist_3_joint": 0.0648495578056556,
        "smoothness": 4.844609574787718e-16,
        "time": 1.0830684179999999,
        "traj_len": 1.918285612423495,
        "weighted_distance": 2.4136705548741126
    },
    "planner": "BKPIECE",
    "start": {
        "state": {
            "elbow_joint": 1.752795957773711,
            "shoulder_lift_joint": -0.9740617694225064,
            "shoulder_pan_joint": -2.967991417825858,
            "wrist_1_joint": -0.7595177689806859,
            "wrist_2_joint": 1.7443932448377395,
            "wrist_3_joint": 3.199131542505932
        }
    },
    "waypoints": [
        {
            "positions": [
                -2.967991417825858,
                -0.9740617694225064,
                1.752795957773711,
                -0.7595177689806859,
                1.7443932448377395,
                3.199131542505932
            ]
        },
        {
            "positions": [
                -2.942400168178356,
                -0.9410320232312958,
                1.6515486144122922,
                -0.6893503153024877,
                1.6129320244135363,
                3.1926465867253664
            ]
        },
        {
            "positions": [
                -2.916808918530854,
                -0.9080022770400851,
                1.5503012710508735,
                -0.6191828616242895,
                1.4814708039893332,
                3.186161630944801
            ]
        },
        {
            "positions": [
                -2.891217668883352,
                -0.8749725308488744,
                1.4490539276894545,
                -0.5490154079460913,
                1.3500095835651302,
                3.1796766751642354
            ]
        },
        {
            "positions": [
                -2.8656264192358503,
                -0.8419427846576637,
                1.3478065843280356,
                -0.47884795426789306,
                1.218548363140927,
                3.17319171938367
            ]
        },
        {
            "positions": [
                -2.840035169588348,
                -0.8089130384664529,
                1.2465592409666169,
                -0.40868050058969485,
                1.0870871427167241,
                3.1667067636031043
            ]
        },
        {
            "positions": [
                -2.814443919940846,
                -0.7758832922752423,
                1.1453118976051981,
                -0.33851304691149664,
                0.955625922292521,
                3.1602218078225386
            ]
        },
        {
            "positions": [
                -2.7888526702933443,
                -0.7428535460840315,
                1.0440645542437792,
                -0.2683455932332985,
                0.8241647018683179,
                3.1537368520419733
            ]
        },
        {
            "positions": [
                -2.763261420645842,
                -0.7098237998928209,
                0.9428172108823603,
                -0.19817813955510022,
                0.6927034814441146,
                3.1472518962614076
            ]
        },
        {
            "positions": [
                -2.7376701709983404,
                -0.6767940537016102,
                0.8415698675209414,
                -0.128010685876902,
                0.5612422610199117,
                3.1407669404808423
            ]
        },
        {
            "positions": [
                -2.7120789213508383,
                -0.6437643075103995,
                0.7403225241595227,
                -0.05784323219870374,
                0.4297810405957085,
                3.1342819847002765
            ]
        }
    ]
}