{
    "goal": {
        "global_pose": {
            "orientation": {
                "w": -0.4816463035849501,
                "x": 0.5182115481033762,
                "y": 0.4908360881923453,
                "z": -0.5084816262002911
            },
            "position": {
                "x": -0.8240239810943604,
                "y": -0.300875300988555,
                "z": 0.16403168439865112
            }
        },
        "name": "move_to_storage_C"
    },
    "id": "BKPIECE_move_to_storage_C_4",
    "joint_names": [
        "shoulder_pan_joint",
        "shoulder_lift_joint",
        "elbow_joint",
        "wrist_1_joint",
        "wrist_2_joint",
        "wrist_3_joint"
    ],
    "metrics": {
        "cart_traj_len": 0.5768457974501566,
        "distance_elbow_joint": 0.26219849552598173,
        "distance_shoulder_lift_joint": 0.18919453727935676,
        "distance_shoulder_pan_joint": 0.4942318012467357,
        "distance_wrist_1_joint": 0.09145137699714967,
        "distance_wrist_2_joint": 1.0700323821533786,
        "distance_wrist_3_joint": 0.06856094664817336,
        "smoothness": 0.0,
        "time": 0.874354371,
        "traj_len": 1.4750150981772274,
        "weighted_distance": 1.863940769525054
    },
    "planner": "BKPIECE",
    "start": {
        "state": {
            "elbow_joint": 2.010868315001653,
            "shoulder_lift_joint": -1.1634956873357014,
            "shoulder_pan_joint": -2.4736205022346103,
            "wrist_1_joint": -0.8367026794713948,
            "wrist_2_joint": 0.6746043897044093,
            "wrist_3_joint": 3.1335220948105738
        }
    },
    "waypoints": [
        {
            "positions": [
                -2.4736205022346103,
                -1.1634956873357014,
                2.010868315001653,
                -0.8367026794713948,
                0.6746043897044093,
                3.1335220948105738
            ]
        },
        {
            "positions": [
                -2.555992469109066,
                -1.1319632644558086,
                1.9671685657473228,
                -0.8214607833052031,
                0.8529431200633057,
                3.144948919251936
            ]
        },
        {
            "positions": [
                -2.6383644359835223,
                -1.1004308415759159,
                1.9234688164929925,
                -0.8062188871390116,
                1.031281850422202,
                3.156375743693298
            ]
        },
        {
            "positions": [
                -2.720736402857978,
                -1.068898418696023,
                1.8797690672386622,
                -0.7909769909728199,
                1.2096205807810985,
                3.16780256813466
            ]
        },
        {
            "positions": [
                -2.803108369732434,
                -1.0373659958161303,
                1.836069317984332,
                -0.7757350948066283,
                1.387959311139995,
                3.1792293925760227
            ]
        },
        {
            "positions": [
                -2.88548033660689,
                -1.0058335729362375,
                1.7923695687300016,
                -0.7604931986404367,
                1.5662980414988916,
                3.190656217017385
            ]
        },
        {
            "positions": [
                -2.967852303481346,
                -0.9743011500563447,
                1.7486698194756713,
                -0.7452513024742451,
                1.7446367718577878,
                3.202083041458747
            ]
        }
    ]
}