{
    "goal": {
        "global_pose": {
            "orientation": {
                "w": 0.7047431493862688,
                "x": -0.7094548369677653,
                "y": 0.0024358444001904,
                "z": -0.0022348060817251984
            },
            "position": {
                "x": -0.39052492380142206,
                "y": 0.3671506643295288,
                "z": 0.19426114857196808
            }
        },
        "name": "move_to_magneteinheit_D"
    },
    "id": "BKPIECE_move_to_magneteinheit_D_66",
    "joint_names": [
        "shoulder_pan_joint",
        "shoulder_lift_joint",
        "elbow_joint",
        "wrist_1_joint",
        "wrist_2_joint",
        "wrist_3_joint"
    ],
    "metrics": {
        "cart_traj_len": 6.709447895136805,
        "distance_elbow_joint": 3.9802294229958433,
        "distance_shoulder_lift_joint": 3.275966143229764,
        "distance_shoulder_pan_joint": 6.0935545159880355,
        "distance_wrist_1_joint": 4.500938338360357,
        "distance_wrist_2_joint": 1.4170317293478343,
        "distance_wrist_3_joint": 6.281122569401222,
        "smoothness": 0.3966792079647994,
        "time": 1.372134242,
        "traj_len": 5.054586305457951,
        "weighted_distance": 6.635439542775872
    },
    "planner": "BKPIECE",
    "start": {
        "state": {
            "elbow_joint": 0.7495348899011973,
            "shoulder_lift_joint": -0.6476975780737697,
            "shoulder_pan_joint": -2.711696901376276,
            "wrist_1_joint": -0.07506478080974305,
            "wrist_2_joint": 0.4329665971545858,
            "wrist_3_joint": 3.1361499051832524
        }
    },
    "waypoints": [
        {
            "positions": [
                -2.711696901376276,
                -0.6476975780737697,
                0.7495348899011973,
                -0.07506478080974305,
                0.4329665971545858,
                3.1361499051832524
            ]
        },
        {
            "positions": [
                -2.713263448385626,
                -0.7853721311024199,
                0.729351289597142,
                -0.033020601847716796,
                0.5124299189940275,
                3.111861937962118
            ]
        },
        {
            "positions": [
                -2.7148299953949753,
                -0.92304668413107,
                0.7091676892930867,
                0.009023577114309456,
                0.5918932408334692,
                3.087573970740983
            ]
        },
        {
            "positions": [
                -2.6168760103532422,
                -0.9664699725047744,
                0.7190246419410181,
                -0.06586257497733267,
                0.5689035759402865,
                2.9473448977026293
            ]
        },
        {
            "positions": [
                -2.518922025311509,
                -1.0098932608784787,
                0.7288815945889495,
                -0.1407487270689748,
                0.545913911047104,
                2.807115824664275
            ]
        },
        {
            "positions": [
                -2.420968040269776,
                -1.053316549252183,
                0.7387385472368809,
                -0.21563487916061688,
                0.5229242461539214,
                2.6668867516259214
            ]
        },
        {
            "positions": [
                -2.323014055228043,
                -1.0967398376258872,
                0.7485954998848123,
                -0.29052103125225903,
                0.49993458126073875,
                2.526657678587567
            ]
        },
        {
            "positions": [
                -2.2250600701863106,
                -1.1401631259995917,
                0.7584524525327437,
                -0.3654071833439011,
                0.47694491636755615,
                2.3864286055492134
            ]
        },
        {
            "positions": [
                -2.1271060851445776,
                -1.183586414373296,
                0.7683094051806751,
                -0.4402933354355432,
                0.45395525147437354,
                2.2461995325108592
            ]
        },
        {
            "positions": [
                -2.0291521001028445,
                -1.2270097027470002,
                0.7781663578286065,
                -0.5151794875271853,
                0.43096558658119094,
                2.1059704594725055
            ]
        },
        {
            "positions": [
                -1.9311981150611115,
                -1.2704329911207046,
                0.788023310476538,
                -0.5900656396188275,
                0.40797592168800834,
                1.9657413864341515
            ]
        },
        {
            "positions": [
                -1.8332441300193785,
                -1.3138562794944089,
                0.7978802631244695,
                -0.6649517917104696,
                0.38498625679482573,
                1.8255123133957973
            ]
        },
        {
            "positions": [
                -1.7352901449776457,
                -1.357279567868113,
                0.8077372157724008,
                -0.7398379438021117,
                0.36199659190164313,
                1.6852832403574436
            ]
        },
        {
            "positions": [
                -1.6373361599359126,
                -1.4007028562418176,
                0.8175941684203323,
                -0.8147240958937538,
                0.3390069270084605,
                1.5450541673190896
            ]
        },
        {
            "positions": [
                -1.5393821748941798,
                -1.4441261446155218,
                0.8274511210682636,
                -0.8896102479853959,
                0.3160172621152779,
                1.4048250942807359
            ]
        },
        {
            "positions": [
                -1.4414281898524466,
                -1.4875494329892263,
                0.8373080737161951,
                -0.9644964000770381,
                0.2930275972220953,
                1.2645960212423817
            ]
        },
        {
            "positions": [
                -1.3434742048107138,
                -1.5309727213629305,
                0.8471650263641264,
                -1.0393825521686801,
                0.2700379323289127,
                1.1243669482040277
            ]
        },
        {
            "positions": [
                -1.245520219768981,
                -1.5743960097366347,
                0.8570219790120579,
                -1.1142687042603223,
                0.2470482674357301,
                0.9841378751656742
            ]
        },
        {
            "positions": [
                -1.1475662347272477,
                -1.617819298110339,
                0.8668789316599893,
                -1.1891548563519645,
                0.2240586025425475,
                0.84390880212732
            ]
        },
        {
            "positions": [
                -1.049612249685515,
                -1.6612425864840432,
                0.8767358843079207,
                -1.2640410084436065,
                0.2010689376493649,
                0.7036797290889658
            ]
        },
        {
            "positions": [
                -0.9516582646437817,
                -1.704665874857748,
                0.8865928369558521,
                -1.3389271605352486,
                0.1780792727561823,
                0.5634506560506116
            ]
        },
        {
            "positions": [
                -0.8537042796020489,
                -1.7480891632314521,
                0.8964497896037835,
                -1.4138133126268908,
                0.1550896078629997,
                0.4232215830122579
            ]
        },
        {
            "positions": [
                -0.7557502945603161,
                -1.7915124516051564,
                0.9063067422517149,
                -1.4886994647185328,
                0.13209994296981709,
                0.2829925099739041
            ]
        },
        {
            "positions": [
                -0.657796309518583,
                -1.8349357399788606,
                0.9161636948996463,
                -1.5635856168101752,
                0.10911027807663448,
                0.14276343693554994
            ]
        },
        {
            "positions": [
                -0.55984232447685,
                -1.8783590283525649,
                0.9260206475475777,
                -1.6384717689018171,
                0.08612061318345188,
                0.00253436389719619
            ]
        },
        {
            "positions": [
                -0.461888339435117,
                -1.921782316726269,
                0.9358776001955091,
                -1.713357920993459,
                0.06313094829026933,
                -0.13769470914115756
            ]
        },
        {
            "positions": [
                -0.3639343543933844,
                -1.9652056050999736,
                0.9457345528434405,
                -1.7882440730851012,
                0.04014128339708667,
                -0.2779237821795113
            ]
        },
        {
            "positions": [
                -0.2659803693516509,
                -2.008628893473678,
                0.955591505491372,
                -1.8631302251767436,
                0.01715161850390401,
                -0.41815285521786594
            ]
        },
        {
            "positions": [
                -0.1680263843099179,
                -2.0520521818473823,
                0.9654484581393035,
                -1.9380163772683856,
                -0.0058380463892785395,
                -0.5583819282562197
            ]
        },
        {
            "positions": [
                -0.07007239926818531,
                -2.0954754702210865,
                0.9753054107872348,
                -2.0129025293600273,
                -0.0288277112824612,
                -0.6986110012945734
            ]
        },
        {
            "positions": [
                0.027881585773547712,
                -2.1388987585947907,
                0.9851623634351662,
                -2.08778868145167,
                -0.05181737617564375,
                -0.8388400743329276
            ]
        },
        {
            "positions": [
                0.12583557081528074,
                -2.182322046968495,
                0.9950193160830976,
                -2.1626748335433117,
                -0.0748070410688263,
                -0.9790691473712809
            ]
        },
        {
            "positions": [
                0.22378955585701332,
                -2.225745335342199,
                1.0048762687310289,
                -2.2375609856349543,
                -0.09779670596200896,
                -1.1192982204096347
            ]
        },
        {
            "positions": [
                0.3217435408987468,
                -2.269168623715904,
                1.0147332213789604,
                -2.312447137726596,
                -0.12078637085519162,
                -1.2595272934479893
            ]
        },
        {
            "positions": [
                0.4196975259404798,
                -2.312591912089608,
                1.024590174026892,
                -2.3873332898182387,
                -0.14377603574837416,
                -1.399756366486343
            ]
        },
        {
            "positions": [
                0.5176515109822128,
                -2.3560152004633124,
                1.0344471266748232,
                -2.4622194419098804,
                -0.16676570064155682,
                -1.5399854395246977
            ]
        },
        {
            "positions": [
                0.6156054960239454,
                -2.3994384888370166,
                1.0443040793227547,
                -2.537105594001522,
                -0.18975536553473937,
                -1.6802145125630514
            ]
        },
        {
            "positions": [
                0.7135594810656785,
                -2.4428617772107213,
                1.054161031970686,
                -2.6119917460931648,
                -0.21274503042792192,
                -1.8204435856014052
            ]
        },
        {
            "positions": [
                0.8115134661074119,
                -2.4862850655844255,
                1.0640179846186175,
                -2.6868778981848065,
                -0.23573469532110458,
                -1.9606726586397598
            ]
        },
        {
            "positions": [
                0.9094674511491445,
                -2.5297083539581298,
                1.0738749372665488,
                -2.761764050276449,
                -0.25872436021428724,
                -2.1009017316781136
            ]
        },
        {
            "positions": [
                1.0074214361908775,
                -2.573131642331834,
                1.0837318899144803,
                -2.836650202368091,
                -0.2817140251074698,
                -2.2411308047164673
            ]
        },
        {
            "positions": [
                1.1053754212326106,
                -2.6165549307055382,
                1.0935888425624116,
                -2.9115363544597335,
                -0.30470369000065234,
                -2.381359877754821
            ]
        },
        {
            "positions": [
                1.2033294062743431,
                -2.6599782190792425,
                1.1034457952103431,
                -2.986422506551375,
                -0.327693354893835,
                -2.521588950793175
            ]
        },
        {
            "positions": [
                1.3012833913160762,
                -2.7034015074529467,
                1.1133027478582744,
                -3.061308658643017,
                -0.35068301978701755,
                -2.6618180238315285
            ]
        },
        {
            "positions": [
                1.3992373763578092,
                -2.7468247958266514,
                1.123159700506206,
                -3.1361948107346596,
                -0.3736726846802002,
                -2.802047096869883
            ]
        },
        {
            "positions": [
                1.4971913613995422,
                -2.7902480842003556,
                1.1330166531541375,
                -3.2110809628263013,
                -0.39666234957338287,
                -2.942276169908237
            ]
        },
        {
            "positions": [
                1.5951453464412753,
                -2.83367137257406,
                1.1428736058020688,
                -3.2859671149179435,
                -0.4196520144665654,
                -3.0825052429465907
            ]
        },
        {
            "positions": [
                1.5061230424346213,
                -2.779171755137586,
                0.9675657905081312,
                -3.2298741504977406,
                -0.4073240229481197,
                -3.0856286140101594
            ]
        },
        {
            "positions": [
                1.4171007384279672,
                -2.7246721377011127,
                0.7922579752141936,
                -3.1737811860775382,
                -0.394996031429674,
                -3.0887519850737286
            ]
        },
        {
            "positions": [
                1.3280784344213132,
                -2.670172520264639,
                0.6169501599202561,
                -3.1176882216573354,
                -0.3826680399112282,
                -3.0918753561372974
            ]
        },
        {
            "positions": [
                1.239056130414659,
                -2.615672902828165,
                0.4416423446263186,
                -3.061595257237133,
                -0.3703400483927825,
                -3.094998727200866
            ]
        },
        {
            "positions": [
                1.150033826408005,
                -2.5611732853916913,
                0.2663345293323811,
                -3.00550229281693,
                -0.3580120568743368,
                -3.098122098264435
            ]
        },
        {
            "positions": [
                1.061011522401351,
                -2.5066736679552175,
                0.09102671403844353,
                -2.9494093283967278,
                -0.345684065355891,
                -3.101245469328004
            ]
        },
        {
            "positions": [
                0.971989218394697,
                -2.452174050518744,
                -0.08428110125549382,
                -2.893316363976525,
                -0.3333560738374453,
                -3.104368840391573
            ]
        },
        {
            "positions": [
                0.8829669143880429,
                -2.3976744330822704,
                -0.2595889165494316,
                -2.837223399556322,
                -0.3210280823189996,
                -3.1074922114551415
            ]
        },
        {
            "positions": [
                0.7939446103813889,
                -2.3431748156457965,
                -0.43489673184336897,
                -2.7811304351361197,
                -0.3087000908005539,
                -3.1106155825187107
            ]
        },
        {
            "positions": [
                0.7049223063747349,
                -2.288675198209323,
                -0.6102045471373065,
                -2.7250374707159173,
                -0.29637209928210817,
                -3.1137389535822795
            ]
        },
        {
            "positions": [
                0.6159000023680807,
                -2.2341755807728494,
                -0.7855123624312443,
                -2.6689445062957144,
                -0.2840441077636624,
                -3.1168623246458482
            ]
        },
        {
            "positions": [
                0.5268776983614267,
                -2.1796759633363756,
                -0.9608201777251817,
                -2.6128515418755116,
                -0.2717161162452167,
                -3.1199856957094174
            ]
        },
        {
            "positions": [
                0.4378553943547727,
                -2.125176345899902,
                -1.136127993019119,
                -2.556758577455309,
                -0.259388124726771,
                -3.123109066772986
            ]
        },
        {
            "positions": [
                0.3488330903481187,
                -2.070676728463428,
                -1.3114358083130564,
                -2.500665613035107,
                -0.24706013320832523,
                -3.126232437836555
            ]
        },
        {
            "positions": [
                0.2598107863414647,
                -2.0161771110269546,
                -1.4867436236069942,
                -2.444572648614904,
                -0.2347321416898795,
                -3.129355808900124
            ]
        },
        {
            "positions": [
                0.17078848233481048,
                -1.9616774935904808,
                -1.662051438900932,
                -2.388479684194701,
                -0.22240415017143378,
                -3.132479179963693
            ]
        },
        {
            "positions": [
                0.08176617832815669,
                -1.907177876154007,
                -1.8373592541948693,
                -2.3323867197744987,
                -0.21007615865298807,
                -3.1356025510272616
            ]
        },
        {
            "positions": [
                -0.007256125678497538,
                -1.8526782587175334,
                -2.0126670694888067,
                -2.276293755354296,
                -0.19774816713454232,
                -3.1387259220908303
            ]
        },
        {
            "positions": [
                -0.09627842968515132,
                -1.7981786412810599,
                -2.187974884782744,
                -2.2202007909340935,
                -0.1854201756160966,
                -3.1418492931543995
            ]
        },
        {
            "positions": [
                -0.18530073369180564,
                -1.743679023844586,
                -2.363282700076682,
                -2.1641078265138907,
                -0.17309218409765087,
                -3.1449726642179683
            ]
        }
    ]
}