{
    "goal": {
        "global_pose": {
            "orientation": {
                "w": 0.7047431493862688,
                "x": -0.7094548369677653,
                "y": 0.0024358444001904,
                "z": -0.0022348060817251984
            },
            "position": {
                "x": -0.39052492380142206,
                "y": 0.3671506643295288,
                "z": 0.19426114857196808
            }
        },
        "name": "move_to_magneteinheit_D"
    },
    "id": "BKPIECE_move_to_magneteinheit_D_65",
    "joint_names": [
        "shoulder_pan_joint",
        "shoulder_lift_joint",
        "elbow_joint",
        "wrist_1_joint",
        "wrist_2_joint",
        "wrist_3_joint"
    ],
    "metrics": {
        "cart_traj_len": 4.27654591786375,
        "distance_elbow_joint": 3.129964827648947,
        "distance_shoulder_lift_joint": 1.6305896981283134,
        "distance_shoulder_pan_joint": 2.907206508553778,
        "distance_wrist_1_joint": 1.5762873713877146,
        "distance_wrist_2_joint": 0.43865160821811394,
        "distance_wrist_3_joint": 3.8583444837868726,
        "smoothness": 0.05427066034762359,
        "time": 0.607814512,
        "traj_len": 3.6798158238862637,
        "weighted_distance": 4.824175830637116
    },
    "planner": "BKPIECE",
    "start": {
        "state": {
            "elbow_joint": 0.7495348899011973,
            "shoulder_lift_joint": -0.6476975780737697,
            "shoulder_pan_joint": -2.711696901376276,
            "wrist_1_joint": -0.07506478080974305,
            "wrist_2_joint": 0.4329665971545858,
            "wrist_3_joint": 3.1361499051832524
        }
    },
    "waypoints": [
        {
            "positions": [
                -2.711696901376276,
                -0.6476975780737697,
                0.7495348899011973,
                -0.07506478080974305,
                0.4329665971545858,
                3.1361499051832524
            ]
        },
        {
            "positions": [
                -2.731791080869179,
                -0.6723723956644174,
                0.5620254158916451,
                -0.04497562749710715,
                0.36429200341926926,
                3.120378301314206
            ]
        },
        {
            "positions": [
                -2.7406168172766003,
                -0.6885108576376608,
                0.44862328549849034,
                -0.025339150353012745,
                0.32388635412463185,
                3.106842266120207
            ]
        },
        {
            "positions": [
                -2.6428792821083813,
                -0.735002367708713,
                0.3644984857032739,
                0.004081098395309131,
                0.3214558948498976,
                2.9777791843710357
            ]
        },
        {
            "positions": [
                -2.545141746940162,
                -0.7814938777797651,
                0.28037368590805756,
                0.03350134714363101,
                0.3190254355751634,
                2.848716102621865
            ]
        },
        {
            "positions": [
                -2.447404211771943,
                -0.8279853878508172,
                0.1962488861128412,
                0.06292159589195288,
                0.31659497630042915,
                2.7196530208726934
            ]
        },
        {
            "positions": [
                -2.3496666766037233,
                -0.8744768979218694,
                0.11212408631762477,
                0.09234184464027476,
                0.3141645170256949,
                2.590589939123522
            ]
        },
        {
            "positions": [
                -2.2519291414355043,
                -0.9209684079929216,
                0.027999286522408406,
                0.12176209338859663,
                0.3117340577509607,
                2.461526857374351
            ]
        },
        {
            "positions": [
                -2.1541916062672852,
                -0.9674599180639737,
                -0.05612551327280796,
                0.15118234213691853,
                0.30930359847622646,
                2.33246377562518
            ]
        },
        {
            "positions": [
                -2.0564540710990658,
                -1.0139514281350257,
                -0.14025031306802432,
                0.18060259088524036,
                0.3068731392014923,
                2.2034006938760085
            ]
        },
        {
            "positions": [
                -1.9587165359308465,
                -1.060442938206078,
                -0.2243751128632408,
                0.21002283963356227,
                0.30444267992675805,
                2.074337612126837
            ]
        },
        {
            "positions": [
                -1.8609790007626272,
                -1.1069344482771302,
                -0.30849991265845705,
                0.23944308838188413,
                0.3020122206520238,
                1.9452745303776662
            ]
        },
        {
            "positions": [
                -1.7632414655944082,
                -1.1534259583481823,
                -0.39262471245367353,
                0.268863337130206,
                0.2995817613772896,
                1.8162114486284948
            ]
        },
        {
            "positions": [
                -1.665503930426189,
                -1.1999174684192344,
                -0.4767495122488899,
                0.2982835858785278,
                0.29715130210255536,
                1.6871483668793237
            ]
        },
        {
            "positions": [
                -1.5677663952579697,
                -1.2464089784902865,
                -0.5608743120441062,
                0.32770383462684977,
                0.29472084282782113,
                1.5580852851301523
            ]
        },
        {
            "positions": [
                -1.4700288600897504,
                -1.2929004885613387,
                -0.6449991118393226,
                0.3571240833751716,
                0.2922903835530869,
                1.4290222033809812
            ]
        },
        {
            "positions": [
                -1.3722913249215312,
                -1.3393919986323908,
                -0.7291239116345389,
                0.38654433212349343,
                0.28985992427835267,
                1.29995912163181
            ]
        },
        {
            "positions": [
                -1.2745537897533121,
                -1.385883508703443,
                -0.8132487114297553,
                0.4159645808718153,
                0.28742946500361843,
                1.170896039882639
            ]
        },
        {
            "positions": [
                -1.1768162545850926,
                -1.4323750187744952,
                -0.8973735112249719,
                0.44538482962013726,
                0.2849990057288842,
                1.0418329581334675
            ]
        },
        {
            "positions": [
                -1.0790787194168736,
                -1.4788665288455474,
                -0.981498311020188,
                0.47480507836845914,
                0.28256854645414997,
                0.9127698763842962
            ]
        },
        {
            "positions": [
                -0.9813411842486544,
                -1.5253580389165995,
                -1.0656231108154044,
                0.504225327116781,
                0.28013808717941574,
                0.7837067946351253
            ]
        },
        {
            "positions": [
                -0.8836036490804351,
                -1.5718495489876514,
                -1.1497479106106208,
                0.5336455758651029,
                0.2777076279046815,
                0.6546437128859539
            ]
        },
        {
            "positions": [
                -0.7858661139122158,
                -1.6183410590587037,
                -1.2338727104058373,
                0.5630658246134248,
                0.27527716862994733,
                0.5255806311367826
            ]
        },
        {
            "positions": [
                -0.6881285787439966,
                -1.6648325691297559,
                -1.3179975102010537,
                0.5924860733617466,
                0.2728467093552131,
                0.3965175493876112
            ]
        },
        {
            "positions": [
                -0.5903910435757775,
                -1.711324079200808,
                -1.40212230999627,
                0.6219063221100685,
                0.27041625008047887,
                0.2674544676384403
            ]
        },
        {
            "positions": [
                -0.49265350840755806,
                -1.75781558927186,
                -1.4862471097914862,
                0.6513265708583904,
                0.26798579080574464,
                0.13839138588926891
            ]
        },
        {
            "positions": [
                -0.394915973239339,
                -1.8043070993429122,
                -1.5703719095867028,
                0.6807468196067124,
                0.2655553315310104,
                0.009328304140097554
            ]
        },
        {
            "positions": [
                -0.29717843807111954,
                -1.8507986094139643,
                -1.6544967093819192,
                0.7101670683550342,
                0.2631248722562762,
                -0.1197347776090738
            ]
        },
        {
            "positions": [
                -0.19944090290290042,
                -1.8972901194850165,
                -1.7386215091771358,
                0.739587317103356,
                0.26069441298154195,
                -0.24879785935824472
            ]
        },
        {
            "positions": [
                -0.15339846458286932,
                -1.9324412518404652,
                -1.8065206130506768,
                0.7971603784386633,
                0.2326312438299571,
                -0.29487720744112567
            ]
        },
        {
            "positions": [
                -0.10735602626283823,
                -1.967592384195914,
                -1.874419716924218,
                0.8547334397739705,
                0.20456807467837224,
                -0.34095655552400667
            ]
        },
        {
            "positions": [
                -0.08648456102368124,
                -1.999058378601601,
                -1.9289877428795759,
                0.9212833079221774,
                0.1797243842600242,
                -0.3435493572679474
            ]
        },
        {
            "positions": [
                -0.06561309578452426,
                -2.030524373007288,
                -1.983555768834934,
                0.9878331760703843,
                0.1548806938416762,
                -0.3461421590118881
            ]
        },
        {
            "positions": [
                -0.04474163054536728,
                -2.061990367412975,
                -2.038123794790292,
                1.0543830442185913,
                0.13003700342332813,
                -0.3487349607558288
            ]
        },
        {
            "positions": [
                -0.023870165306210292,
                -2.093456361818662,
                -2.0926918207456495,
                1.1209329123667982,
                0.10519331300498011,
                -0.35132776249976955
            ]
        },
        {
            "positions": [
                -0.0250045221990443,
                -2.1536943229661634,
                -2.176203926215003,
                1.2421571781174305,
                0.09944908747199259,
                -0.2812797845042516
            ]
        },
        {
            "positions": [
                -0.02613887909187831,
                -2.213932284113665,
                -2.2597160316843565,
                1.3633814438680627,
                0.09370486193900508,
                -0.21123180650873366
            ]
        },
        {
            "positions": [
                -0.02727323598471232,
                -2.2741702452611663,
                -2.34322813715371,
                1.484605709618695,
                0.08796063640601756,
                -0.1411838285132157
            ]
        },
        {
            "positions": [
                -0.10634167098699303,
                -2.276228760731625,
                -2.36182903745073,
                1.4929141500983332,
                0.13478346014079035,
                -0.060822387454567126
            ]
        },
        {
            "positions": [
                -0.18541010598927374,
                -2.278287276202083,
                -2.38042993774775,
                1.5012225905779715,
                0.18160628387556316,
                0.019539053604081456
            ]
        }
    ]
}