{
    "goal": {
        "global_pose": {
            "orientation": {
                "w": -0.00223480608172531,
                "x": 0.0024358444001904467,
                "y": 0.7094548369677653,
                "z": -0.704743149386269
            },
            "position": {
                "x": -0.37947507619857795,
                "y": -0.6371506643295288,
                "z": 0.19426114857196808
            }
        },
        "name": "move_to_magneteinheit_C"
    },
    "id": "BKPIECE_move_to_magneteinheit_C_49",
    "joint_names": [
        "shoulder_pan_joint",
        "shoulder_lift_joint",
        "elbow_joint",
        "wrist_1_joint",
        "wrist_2_joint",
        "wrist_3_joint"
    ],
    "metrics": {
        "cart_traj_len": 1.4064020743404873,
        "distance_elbow_joint": 1.0652801272514432,
        "distance_shoulder_lift_joint": 1.1614302538762689,
        "distance_shoulder_pan_joint": 2.2577117220798484,
        "distance_wrist_1_joint": 5.149741365908837,
        "distance_wrist_2_joint": 1.9158948694874947,
        "distance_wrist_3_joint": 5.119518012392559,
        "smoothness": 0.9662555593670679,
        "time": 0.7921796769999999,
        "traj_len": 4.082839251182497,
        "weighted_distance": 5.828743313200359
    },
    "planner": "BKPIECE",
    "start": {
        "state": {
            "elbow_joint": 1.9565354006590394,
            "shoulder_lift_joint": -1.4165861576513559,
            "shoulder_pan_joint": -1.6717766223277177,
            "wrist_1_joint": -0.5286633288215096,
            "wrist_2_joint": 1.4727565892594296,
            "wrist_3_joint": 3.1593482883155493
        }
    },
    "waypoints": [
        {
            "positions": [
                -1.6717766223277177,
                -1.4165861576513559,
                1.9565354006590394,
                -0.5286633288215096,
                1.4727565892594296,
                3.1593482883155493
            ]
        },
        {
            "positions": [
                -1.6262206618694717,
                -1.466933054713717,
                2.012467742573273,
                -0.6009606658233574,
                1.5342966278444892,
                3.0681739091206124
            ]
        },
        {
            "positions": [
                -1.5806647014112256,
                -1.5172799517760778,
                2.0684000844875063,
                -0.6732580028252052,
                1.5958366664295485,
                2.9769995299256755
            ]
        },
        {
            "positions": [
                -1.5351087409529796,
                -1.5676268488384388,
                2.12433242640174,
                -0.7455553398270529,
                1.657376705014608,
                2.8858251507307386
            ]
        },
        {
            "positions": [
                -1.4895527804947335,
                -1.6179737459008,
                2.1802647683159733,
                -0.8178526768289007,
                1.7189167435996673,
                2.7946507715358018
            ]
        },
        {
            "positions": [
                -1.4439968200364874,
                -1.668320642963161,
                2.236197110230207,
                -0.8901500138307485,
                1.7804567821847268,
                2.7034763923408645
            ]
        },
        {
            "positions": [
                -1.3984408595782416,
                -1.7186675400255218,
                2.29212945214444,
                -0.9624473508325964,
                1.841996820769786,
                2.6123020131459276
            ]
        },
        {
            "positions": [
                -1.3528848991199955,
                -1.7690144370878829,
                2.348061794058674,
                -1.0347446878344442,
                1.9035368593548456,
                2.5211276339509907
            ]
        },
        {
            "positions": [
                -1.3073289386617495,
                -1.8193613341502437,
                2.403994135972907,
                -1.107042024836292,
                1.965076897939905,
                2.429953254756054
            ]
        },
        {
            "positions": [
                -1.2617729782035034,
                -1.8697082312126048,
                2.459926477887141,
                -1.1793393618381398,
                2.0266169365249644,
                2.338778875561117
            ]
        },
        {
            "positions": [
                -1.3382893045468671,
                -1.8377693037564304,
                2.4345444317591514,
                -1.058126409326094,
                1.9773013383510716,
                2.2510508338342
            ]
        },
        {
            "positions": [
                -1.4148056308902308,
                -1.8058303763002561,
                2.4091623856311615,
                -0.9369134568140481,
                1.927985740177179,
                2.163322792107283
            ]
        },
        {
            "positions": [
                -1.4913219572335943,
                -1.7738914488440818,
                2.383780339503172,
                -0.8157005043020022,
                1.878670142003286,
                2.075594750380366
            ]
        },
        {
            "positions": [
                -1.567838283576958,
                -1.7419525213879075,
                2.358398293375182,
                -0.6944875517899565,
                1.8293545438293932,
                1.9878667086534492
            ]
        },
        {
            "positions": [
                -1.6443546099203217,
                -1.7100135939317331,
                2.3330162472471927,
                -0.5732745992779106,
                1.7800389456555004,
                1.9001386669265323
            ]
        },
        {
            "positions": [
                -1.7208709362636854,
                -1.6780746664755588,
                2.307634201119203,
                -0.4520616467658648,
                1.7307233474816077,
                1.8124106251996155
            ]
        },
        {
            "positions": [
                -1.797387262607049,
                -1.6461357390193845,
                2.2822521549912134,
                -0.3308486942538189,
                1.6814077493077149,
                1.7246825834726984
            ]
        },
        {
            "positions": [
                -1.8739035889504128,
                -1.6141968115632102,
                2.2568701088632235,
                -0.20963574174177302,
                1.632092151133822,
                1.6369545417457814
            ]
        },
        {
            "positions": [
                -1.9504199152937765,
                -1.5822578841070358,
                2.231488062735234,
                -0.08842278922972713,
                1.5827765529599294,
                1.5492265000188645
            ]
        },
        {
            "positions": [
                -2.02693624163714,
                -1.5503189566508615,
                2.206106016607244,
                0.03279016328231865,
                1.5334609547860365,
                1.4614984582919477
            ]
        },
        {
            "positions": [
                -2.103452567980504,
                -1.5183800291946872,
                2.1807239704792547,
                0.15400311579436465,
                1.4841453566121436,
                1.3737704165650304
            ]
        },
        {
            "positions": [
                -2.179968894323867,
                -1.4864411017385128,
                2.155341924351265,
                0.2752160683064102,
                1.434829758438251,
                1.2860423748381138
            ]
        },
        {
            "positions": [
                -2.256485220667231,
                -1.4545021742823385,
                2.1299598782232754,
                0.3964290208184562,
                1.3855141602643581,
                1.1983143331111967
            ]
        },
        {
            "positions": [
                -2.3330015470105945,
                -1.4225632468261642,
                2.1045778320952855,
                0.517641973330502,
                1.3361985620904653,
                1.1105862913842799
            ]
        },
        {
            "positions": [
                -2.409517873353958,
                -1.3906243193699899,
                2.079195785967296,
                0.638854925842548,
                1.2868829639165726,
                1.0228582496573628
            ]
        },
        {
            "positions": [
                -2.486034199697322,
                -1.3586853919138155,
                2.053813739839306,
                0.7600678783545938,
                1.2375673657426796,
                0.9351302079304458
            ]
        },
        {
            "positions": [
                -2.5625505260406856,
                -1.3267464644576412,
                2.0284316937113167,
                0.8812808308666396,
                1.188251767568787,
                0.8474021662035292
            ]
        },
        {
            "positions": [
                -2.6390668523840493,
                -1.294807537001467,
                2.003049647583327,
                1.0024937833786856,
                1.1389361693948943,
                0.7596741244766121
            ]
        },
        {
            "positions": [
                -2.715583178727413,
                -1.2628686095452926,
                1.9776676014553374,
                1.1237067358907311,
                1.0896205712210014,
                0.6719460827496953
            ]
        },
        {
            "positions": [
                -2.7920995050707766,
                -1.2309296820891182,
                1.9522855553273477,
                1.2449196884027771,
                1.0403049730471086,
                0.5842180410227782
            ]
        },
        {
            "positions": [
                -2.7694293942787507,
                -1.2259632798611515,
                1.9561604215747441,
                1.0967192396419707,
                1.0134676474225297,
                0.7659600242441917
            ]
        },
        {
            "positions": [
                -2.746759283486725,
                -1.220996877633185,
                1.9600352878221403,
                0.9485187908811645,
                0.9866303217979507,
                0.9477020074656053
            ]
        },
        {
            "positions": [
                -2.724089172694699,
                -1.2160304754052182,
                1.9639101540695367,
                0.8003183421203581,
                0.9597929961733718,
                1.1294439906870188
            ]
        },
        {
            "positions": [
                -2.7014190619026737,
                -1.2110640731772515,
                1.9677850203169331,
                0.6521178933595518,
                0.9329556705487929,
                1.3111859739084326
            ]
        },
        {
            "positions": [
                -2.6787489511106477,
                -1.2060976709492848,
                1.9716598865643293,
                0.5039174445987454,
                0.906118344924214,
                1.4929279571298462
            ]
        },
        {
            "positions": [
                -2.656078840318622,
                -1.2011312687213183,
                1.9755347528117257,
                0.35571699583793914,
                0.879281019299635,
                1.6746699403512597
            ]
        },
        {
            "positions": [
                -2.633408729526596,
                -1.1961648664933515,
                1.9794096190591222,
                0.20751654707713274,
                0.8524436936750561,
                1.8564119235726733
            ]
        },
        {
            "positions": [
                -2.6107386187345702,
                -1.1911984642653848,
                1.9832844853065184,
                0.05931609831632656,
                0.8256063680504772,
                2.038153906794087
            ]
        },
        {
            "positions": [
                -2.5880685079425447,
                -1.1862320620374183,
                1.9871593515539148,
                -0.08888435044448006,
                0.7987690424258982,
                2.2198958900155006
            ]
        },
        {
            "positions": [
                -2.5653983971505188,
                -1.1812656598094515,
                1.991034217801311,
                -0.23708479920528625,
                0.7719317168013193,
                2.401637873236914
            ]
        },
        {
            "positions": [
                -2.5427282863584932,
                -1.1762992575814848,
                1.9949090840487074,
                -0.38528524796609265,
                0.7450943911767404,
                2.5833798564583272
            ]
        },
        {
            "positions": [
                -2.5200581755664673,
                -1.171332855353518,
                1.9987839502961038,
                -0.5334856967268988,
                0.7182570655521614,
                2.7651218396797415
            ]
        },
        {
            "positions": [
                -2.4973880647744418,
                -1.1663664531255515,
                2.0026588165435,
                -0.6816861454877055,
                0.6914197399275825,
                2.946863822901155
            ]
        },
        {
            "positions": [
                -2.474717953982416,
                -1.1614000508975848,
                2.0065336827908964,
                -0.8298865942485115,
                0.6645824143030036,
                3.1286058061225686
            ]
        }
    ]
}