{
    "goal": {
        "global_pose": {
            "orientation": {
                "w": -0.4816463035849501,
                "x": 0.5182115481033762,
                "y": 0.4908360881923453,
                "z": -0.5084816262002911
            },
            "position": {
                "x": -0.8240239810943604,
                "y": -0.300875300988555,
                "z": 0.16403168439865112
            }
        },
        "name": "move_to_storage_C"
    },
    "id": "BKPIECE_move_to_storage_C_22",
    "joint_names": [
        "shoulder_pan_joint",
        "shoulder_lift_joint",
        "elbow_joint",
        "wrist_1_joint",
        "wrist_2_joint",
        "wrist_3_joint"
    ],
    "metrics": {
        "cart_traj_len": 0.5763308660637153,
        "distance_elbow_joint": 0.25390415872986627,
        "distance_shoulder_lift_joint": 0.18841580314766337,
        "distance_shoulder_pan_joint": 0.4951948204646719,
        "distance_wrist_1_joint": 0.06706051059796914,
        "distance_wrist_2_joint": 1.0662237700544677,
        "distance_wrist_3_joint": 0.058448272117001654,
        "smoothness": 0.0,
        "time": 0.637472555,
        "traj_len": 1.4591940704072368,
        "weighted_distance": 1.8383221045284963
    },
    "planner": "BKPIECE",
    "start": {
        "state": {
            "elbow_joint": 2.010868315001653,
            "shoulder_lift_joint": -1.1634956873357014,
            "shoulder_pan_joint": -2.4736205022346103,
            "wrist_1_joint": -0.8367026794713948,
            "wrist_2_joint": 0.6746043897044093,
            "wrist_3_joint": 3.1335220948105738
        }
    },
    "waypoints": [
        {
            "positions": [
                -2.4736205022346103,
                -1.1634956873357014,
                2.010868315001653,
                -0.8367026794713948,
                0.6746043897044093,
                3.1335220948105738
            ]
        },
        {
            "positions": [
                -2.5561529723120557,
                -1.1320930534777576,
                1.968550955213342,
                -0.8255259277050666,
                0.8523083513801539,
                3.1432634734967406
            ]
        },
        {
            "positions": [
                -2.6386854423895008,
                -1.1006904196198137,
                1.926233595425031,
                -0.8143491759387383,
                1.0300123130558985,
                3.1530048521829075
            ]
        },
        {
            "positions": [
                -2.721217912466946,
                -1.0692877857618697,
                1.88391623563672,
                -0.8031724241724102,
                1.2077162747316432,
                3.1627462308690744
            ]
        },
        {
            "positions": [
                -2.8037503825443917,
                -1.0378851519039258,
                1.841598875848409,
                -0.791995672406082,
                1.3854202364073878,
                3.1724876095552417
            ]
        },
        {
            "positions": [
                -2.8862828526218367,
                -1.006482518045982,
                1.799281516060098,
                -0.7808189206397538,
                1.5631241980831323,
                3.1822289882414085
            ]
        },
        {
            "positions": [
                -2.968815322699282,
                -0.975079884188038,
                1.7569641562717868,
                -0.7696421688734256,
                1.7408281597588768,
                3.1919703669275754
            ]
        }
    ]
}