{
    "goal": {
        "global_pose": {
            "orientation": {
                "w": 0.005598929693374612,
                "x": 0.007748599140229565,
                "y": 0.7110244013736278,
                "z": -0.7031023480610252
            },
            "position": {
                "x": -0.8858502320852131,
                "y": -0.7141253447532654,
                "z": 0.3711530566215515
            }
        },
        "name": "move_to_auspresseinheit_C"
    },
    "id": "BKPIECE_move_to_auspresseinheit_C_107",
    "joint_names": [
        "shoulder_pan_joint",
        "shoulder_lift_joint",
        "elbow_joint",
        "wrist_1_joint",
        "wrist_2_joint",
        "wrist_3_joint"
    ],
    "metrics": {
        "cart_traj_len": 0.4928764066419469,
        "distance_elbow_joint": 0.9893145093897788,
        "distance_shoulder_lift_joint": 0.31985927834148686,
        "distance_shoulder_pan_joint": 0.2568605781692983,
        "distance_wrist_1_joint": 0.6555138358069582,
        "distance_wrist_2_joint": 1.3047532679420872,
        "distance_wrist_3_joint": 0.046905358223348514,
        "smoothness": 8.074349282788172e-16,
        "time": 1.4474260030000001,
        "traj_len": 1.8902927889279368,
        "weighted_distance": 2.3721898423331766
    },
    "planner": "BKPIECE",
    "start": {
        "state": {
            "elbow_joint": 1.752795957773711,
            "shoulder_lift_joint": -0.9740617694225064,
            "shoulder_pan_joint": -2.967991417825858,
            "wrist_1_joint": -0.7595177689806859,
            "wrist_2_joint": 1.7443932448377395,
            "wrist_3_joint": 3.199131542505932
        }
    },
    "waypoints": [
        {
            "positions": [
                -2.967991417825858,
                -0.9740617694225064,
                1.752795957773711,
                -0.7595177689806859,
                1.7443932448377395,
                3.199131542505932
            ]
        },
        {
            "positions": [
                -2.942305360008928,
                -0.9420758415883578,
                1.6538645068347333,
                -0.6939663853999901,
                1.6139179180435308,
                3.194441006683597
            ]
        },
        {
            "positions": [
                -2.9166193021919984,
                -0.9100899137542091,
                1.5549330558957553,
                -0.6284150018192942,
                1.483442591249322,
                3.1897504708612625
            ]
        },
        {
            "positions": [
                -2.8909332443750686,
                -0.8781039859200603,
                1.4560016049567774,
                -0.5628636182385984,
                1.3529672644551134,
                3.1850599350389275
            ]
        },
        {
            "positions": [
                -2.865247186558139,
                -0.8461180580859117,
                1.3570701540177996,
                -0.4973122346579026,
                1.2224919376609047,
                3.180369399216593
            ]
        },
        {
            "positions": [
                -2.8395611287412086,
                -0.814132130251763,
                1.2581387030788216,
                -0.4317608510772068,
                1.092016610866696,
                3.175678863394258
            ]
        },
        {
            "positions": [
                -2.813875070924279,
                -0.7821462024176143,
                1.159207252139844,
                -0.366209467496511,
                0.9615412840724872,
                3.170988327571923
            ]
        },
        {
            "positions": [
                -2.788189013107349,
                -0.7501602745834657,
                1.060275801200866,
                -0.30065808391581517,
                0.8310659572782785,
                3.1662977917495883
            ]
        },
        {
            "positions": [
                -2.7625029552904192,
                -0.7181743467493169,
                0.961344350261888,
                -0.23510670033511927,
                0.7005906304840697,
                3.1616072559272532
            ]
        },
        {
            "positions": [
                -2.7368168974734894,
                -0.6861884189151682,
                0.8624128993229101,
                -0.16955531675442348,
                0.570115303689861,
                3.1569167201049186
            ]
        },
        {
            "positions": [
                -2.7111308396565597,
                -0.6542024910810196,
                0.7634814483839323,
                -0.10400393317372765,
                0.43963997689565226,
                3.1522261842825836
            ]
        }
    ]
}