{
    "goal": {
        "global_pose": {
            "orientation": {
                "w": 0.5084816217422485,
                "x": -0.49083608388900757,
                "y": 0.5182115435600281,
                "z": -0.4816462993621826
            },
            "position": {
                "x": 0.5540239810943604,
                "y": 0.030875300988554955,
                "z": 0.16403168439865112
            }
        },
        "name": "move_to_storage_A"
    },
    "id": "BKPIECE_move_to_storage_A_78",
    "joint_names": [
        "shoulder_pan_joint",
        "shoulder_lift_joint",
        "elbow_joint",
        "wrist_1_joint",
        "wrist_2_joint",
        "wrist_3_joint"
    ],
    "metrics": {
        "cart_traj_len": 0.3527572229463129,
        "distance_elbow_joint": 0.4495566751011646,
        "distance_shoulder_lift_joint": 0.23210802978526757,
        "distance_shoulder_pan_joint": 0.4619539534461579,
        "distance_wrist_1_joint": 0.24810880130515323,
        "distance_wrist_2_joint": 1.0937570596985866,
        "distance_wrist_3_joint": 0.10671277513073063,
        "smoothness": 4.440892098500626e-16,
        "time": 1.312034564,
        "traj_len": 1.6100302153894692,
        "weighted_distance": 2.036538412535413
    },
    "planner": "BKPIECE",
    "start": {
        "state": {
            "elbow_joint": 1.9715474177455299,
            "shoulder_lift_joint": -1.139484666580328,
            "shoulder_pan_joint": 0.12281154398918248,
            "wrist_1_joint": -0.7804687475355282,
            "wrist_2_joint": 0.12958649657246987,
            "wrist_3_joint": -3.1924925159053466
        }
    },
    "waypoints": [
        {
            "positions": [
                0.12281154398918248,
                -1.139484666580328,
                1.9715474177455299,
                -0.7804687475355282,
                0.12958649657246987,
                -3.1924925159053466
            ]
        },
        {
            "positions": [
                0.05681812206830278,
                -1.172642956549652,
                2.0357697999028392,
                -0.815912862007693,
                0.2858375051008394,
                -3.1772478337438135
            ]
        },
        {
            "positions": [
                -0.009175299852576924,
                -1.2058012465189758,
                2.099992182060148,
                -0.8513569764798576,
                0.44208851362920887,
                -3.162003151582281
            ]
        },
        {
            "positions": [
                -0.07516872177345663,
                -1.2389595364882997,
                2.1642145642174575,
                -0.8868010909520224,
                0.5983395221575784,
                -3.1467584694207478
            ]
        },
        {
            "positions": [
                -0.14116214369433633,
                -1.2721178264576238,
                2.228436946374767,
                -0.9222452054241872,
                0.754590530685948,
                -3.1315137872592147
            ]
        },
        {
            "positions": [
                -0.20715556561521603,
                -1.3052761164269477,
                2.292659328532076,
                -0.9576893198963519,
                0.9108415392143175,
                -3.1162691050976816
            ]
        },
        {
            "positions": [
                -0.27314898753609573,
                -1.3384344063962716,
                2.356881710689385,
                -0.9931334343685166,
                1.067092547742687,
                -3.101024422936149
            ]
        },
        {
            "positions": [
                -0.33914240945697544,
                -1.3715926963655956,
                2.4211040928466945,
                -1.0285775488406814,
                1.2233435562710564,
                -3.085779740774616
            ]
        }
    ]
}