{
    "goal": {
        "global_pose": {
            "orientation": {
                "w": 0.7047431468963623,
                "x": -0.7094548344612122,
                "y": 0.0024358443915843964,
                "z": -0.0022348060738295317
            },
            "position": {
                "x": 0.6094750761985779,
                "y": 0.3671506643295288,
                "z": 0.19426114857196808
            }
        },
        "name": "move_to_magneteinheit_A"
    },
    "id": "BKPIECE_move_to_magneteinheit_A_62",
    "joint_names": [
        "shoulder_pan_joint",
        "shoulder_lift_joint",
        "elbow_joint",
        "wrist_1_joint",
        "wrist_2_joint",
        "wrist_3_joint"
    ],
    "metrics": {
        "cart_traj_len": 1.0530887768866286,
        "distance_elbow_joint": 0.3800760065278226,
        "distance_shoulder_lift_joint": 0.36726921246035094,
        "distance_shoulder_pan_joint": 1.241323522774627,
        "distance_wrist_1_joint": 2.19505383036847,
        "distance_wrist_2_joint": 1.6969437461349102,
        "distance_wrist_3_joint": 1.2483005935952147,
        "smoothness": 1.8698493194378823e-16,
        "time": 0.691191273,
        "traj_len": 2.6700125302817206,
        "weighted_distance": 3.6766242227830688
    },
    "planner": "BKPIECE",
    "start": {
        "state": {
            "elbow_joint": 1.5739458966750683,
            "shoulder_lift_joint": -1.4977259741207325,
            "shoulder_pan_joint": -1.1188672016454206,
            "wrist_1_joint": 1.494575848278785,
            "wrist_2_joint": -1.5706037134824402,
            "wrist_3_joint": -2.0226957942261072
        }
    },
    "waypoints": [
        {
            "positions": [
                -1.1188672016454206,
                -1.4977259741207325,
                1.5739458966750683,
                1.494575848278785,
                -1.5706037134824402,
                -2.0226957942261072
            ]
        },
        {
            "positions": [
                -1.049904783713497,
                -1.4773221289840464,
                1.5950612303710585,
                1.3726284132583144,
                -1.4763290609193898,
                -2.092045827203619
            ]
        },
        {
            "positions": [
                -0.9809423657815732,
                -1.4569182838473602,
                1.6161765640670487,
                1.2506809782378439,
                -1.382054408356339,
                -2.161395860181131
            ]
        },
        {
            "positions": [
                -0.9119799478496495,
                -1.436514438710674,
                1.6372918977630389,
                1.1287335432173733,
                -1.2877797557932884,
                -2.230745893158643
            ]
        },
        {
            "positions": [
                -0.8430175299177257,
                -1.416110593573988,
                1.658407231459029,
                1.0067861081969027,
                -1.193505103230238,
                -2.300095926136155
            ]
        },
        {
            "positions": [
                -0.774055111985802,
                -1.3957067484373016,
                1.679522565155019,
                0.8848386731764322,
                -1.0992304506671875,
                -2.369445959113667
            ]
        },
        {
            "positions": [
                -0.7050926940538783,
                -1.3753029033006154,
                1.7006378988510091,
                0.7628912381559616,
                -1.0049557981041368,
                -2.438795992091179
            ]
        },
        {
            "positions": [
                -0.6361302761219545,
                -1.3548990581639293,
                1.7217532325469993,
                0.640943803135491,
                -0.9106811455410863,
                -2.5081460250686907
            ]
        },
        {
            "positions": [
                -0.5671678581900308,
                -1.3344952130272432,
                1.7428685662429895,
                0.5189963681150205,
                -0.8164064929780357,
                -2.5774960580462025
            ]
        },
        {
            "positions": [
                -0.4982054402581071,
                -1.314091367890557,
                1.7639838999389796,
                0.3970489330945499,
                -0.7221318404149851,
                -2.646846091023715
            ]
        },
        {
            "positions": [
                -0.4292430223261834,
                -1.2936875227538709,
                1.7850992336349698,
                0.27510149807407935,
                -0.6278571878519346,
                -2.7161961240012267
            ]
        },
        {
            "positions": [
                -0.3602806043942596,
                -1.2732836776171848,
                1.80621456733096,
                0.1531540630536088,
                -0.5335825352888839,
                -2.7855461569787385
            ]
        },
        {
            "positions": [
                -0.291318186462336,
                -1.2528798324804986,
                1.8273299010269501,
                0.03120662803313823,
                -0.43930788272583343,
                -2.8548961899562504
            ]
        },
        {
            "positions": [
                -0.22235576853041217,
                -1.2324759873438125,
                1.84844523472294,
                -0.09074080698733233,
                -0.345033230162783,
                -2.9242462229337622
            ]
        },
        {
            "positions": [
                -0.15339335059848846,
                -1.2120721422071261,
                1.8695605684189305,
                -0.2126882420078029,
                -0.2507585775997323,
                -2.993596255911274
            ]
        },
        {
            "positions": [
                -0.08443093266656465,
                -1.19166829707044,
                1.8906759021149204,
                -0.33463567702827346,
                -0.15648392503668163,
                -3.062946288888786
            ]
        },
        {
            "positions": [
                -0.015468514734640948,
                -1.1712644519337538,
                1.9117912358109106,
                -0.456583112048744,
                -0.06220927247363117,
                -3.1322963218662982
            ]
        },
        {
            "positions": [
                0.053493903197282755,
                -1.1508606067970677,
                1.9329065695069008,
                -0.5785305470692144,
                0.03206538008941928,
                -3.20164635484381
            ]
        },
        {
            "positions": [
                0.12245632112920635,
                -1.1304567616603816,
                1.954021903202891,
                -0.700477982089685,
                0.12634003265246999,
                -3.270996387821322
            ]
        }
    ]
}