{
    "goal": {
        "global_pose": {
            "orientation": {
                "w": -0.00223480608172531,
                "x": 0.0024358444001904467,
                "y": 0.7094548369677653,
                "z": -0.704743149386269
            },
            "position": {
                "x": 0.6205249238014221,
                "y": -0.6371506643295288,
                "z": 0.19426114857196808
            }
        },
        "name": "move_to_magneteinheit_B"
    },
    "id": "BKPIECE_move_to_magneteinheit_B_9",
    "joint_names": [
        "shoulder_pan_joint",
        "shoulder_lift_joint",
        "elbow_joint",
        "wrist_1_joint",
        "wrist_2_joint",
        "wrist_3_joint"
    ],
    "metrics": {
        "cart_traj_len": 1.4538815652880472,
        "distance_elbow_joint": 0.7330872755190694,
        "distance_shoulder_lift_joint": 1.2497093062704345,
        "distance_shoulder_pan_joint": 1.6206410758149286,
        "distance_wrist_1_joint": 2.60559178417936,
        "distance_wrist_2_joint": 2.9440236768414736,
        "distance_wrist_3_joint": 3.129108184232048,
        "smoothness": 4.037174644193617e-16,
        "time": 0.964212627,
        "traj_len": 3.5045914601929447,
        "weighted_distance": 4.908155777106329
    },
    "planner": "BKPIECE",
    "start": {
        "state": {
            "elbow_joint": 2.3935871308073637,
            "shoulder_lift_joint": -1.9085141043777403,
            "shoulder_pan_joint": 0.7066247067284167,
            "wrist_1_joint": -0.46782909355067076,
            "wrist_2_joint": 0.7096259085804283,
            "wrist_3_joint": -3.1358149275257428
        }
    },
    "waypoints": [
        {
            "positions": [
                0.7066247067284167,
                -1.9085141043777403,
                2.3935871308073637,
                -0.46782909355067076,
                0.7096259085804283,
                -3.1358149275257428
            ]
        },
        {
            "positions": [
                0.6559796731092002,
                -1.8694606885567893,
                2.370678153447393,
                -0.38640435029506576,
                0.6176251686791322,
                -3.038030296768491
            ]
        },
        {
            "positions": [
                0.6053346394899837,
                -1.830407272735838,
                2.347769176087422,
                -0.30497960703946075,
                0.5256244287778362,
                -2.94024566601124
            ]
        },
        {
            "positions": [
                0.5546896058707671,
                -1.791353856914887,
                2.324860198727451,
                -0.22355486378385575,
                0.4336236888765401,
                -2.8424610352539883
            ]
        },
        {
            "positions": [
                0.5040445722515506,
                -1.752300441093936,
                2.30195122136748,
                -0.14213012052825075,
                0.3416229489752441,
                -2.7446764044967367
            ]
        },
        {
            "positions": [
                0.4533995386323341,
                -1.713247025272985,
                2.2790422440075093,
                -0.060705377272645744,
                0.24962220907394805,
                -2.646891773739485
            ]
        },
        {
            "positions": [
                0.4027545050131176,
                -1.6741936094520338,
                2.256133266647538,
                0.02071936598295926,
                0.15762146917265196,
                -2.549107142982234
            ]
        },
        {
            "positions": [
                0.3521094713939011,
                -1.6351401936310828,
                2.233224289287567,
                0.10214410923856426,
                0.06562072927135598,
                -2.451322512224982
            ]
        },
        {
            "positions": [
                0.30146443777468457,
                -1.5960867778101315,
                2.2103153119275962,
                0.18356885249416927,
                -0.02638001062994011,
                -2.353537881467731
            ]
        },
        {
            "positions": [
                0.25081940415546805,
                -1.5570333619891805,
                2.1874063345676253,
                0.26499359574977427,
                -0.1183807505312362,
                -2.2557532507104794
            ]
        },
        {
            "positions": [
                0.20017437053625153,
                -1.5179799461682295,
                2.1644973572076545,
                0.34641833900537927,
                -0.21038149043253218,
                -2.1579686199532278
            ]
        },
        {
            "positions": [
                0.14952933691703507,
                -1.4789265303472785,
                2.1415883798476836,
                0.4278430822609843,
                -0.3023822303338283,
                -2.060183989195976
            ]
        },
        {
            "positions": [
                0.0988843032978185,
                -1.4398731145263273,
                2.1186794024877127,
                0.5092678255165892,
                -0.39438297023512436,
                -1.962399358438725
            ]
        },
        {
            "positions": [
                0.048239269678601926,
                -1.4008196987053763,
                2.095770425127742,
                0.5906925687721942,
                -0.48638371013642046,
                -1.8646147276814733
            ]
        },
        {
            "positions": [
                -0.002405763940614536,
                -1.361766282884425,
                2.072861447767771,
                0.6721173120277992,
                -0.5783844500377163,
                -1.7668300969242219
            ]
        },
        {
            "positions": [
                -0.053050797559831,
                -1.322712867063474,
                2.0499524704078,
                0.7535420552834042,
                -0.6703851899390124,
                -1.6690454661669702
            ]
        },
        {
            "positions": [
                -0.10369583117904757,
                -1.283659451242523,
                2.027043493047829,
                0.8349667985390092,
                -0.7623859298403085,
                -1.5712608354097188
            ]
        },
        {
            "positions": [
                -0.15434086479826414,
                -1.244606035421572,
                2.0041345156878583,
                0.9163915417946142,
                -0.8543866697416046,
                -1.4734762046524674
            ]
        },
        {
            "positions": [
                -0.2049858984174806,
                -1.205552619600621,
                1.9812255383278872,
                0.9978162850502192,
                -0.9463874096429007,
                -1.3756915738952158
            ]
        },
        {
            "positions": [
                -0.25563093203669707,
                -1.1664992037796698,
                1.9583165609679163,
                1.0792410283058242,
                -1.0383881495441964,
                -1.2779069431379644
            ]
        },
        {
            "positions": [
                -0.30627596565591364,
                -1.1274457879587187,
                1.9354075836079454,
                1.1606657715614292,
                -1.1303888894454928,
                -1.1801223123807127
            ]
        },
        {
            "positions": [
                -0.3569209992751302,
                -1.0883923721377675,
                1.9124986062479745,
                1.2420905148170343,
                -1.2223896293467886,
                -1.0823376816234616
            ]
        },
        {
            "positions": [
                -0.40756603289434656,
                -1.0493389563168165,
                1.8895896288880034,
                1.3235152580726393,
                -1.314390369248085,
                -0.9845530508662099
            ]
        },
        {
            "positions": [
                -0.45821106651356314,
                -1.0102855404958655,
                1.8666806515280325,
                1.4049400013282443,
                -1.4063911091493808,
                -0.8867684201089583
            ]
        },
        {
            "positions": [
                -0.5088561001327797,
                -0.9712321246749144,
                1.8437716741680616,
                1.4863647445838493,
                -1.4983918490506771,
                -0.7889837893517071
            ]
        },
        {
            "positions": [
                -0.5595011337519963,
                -0.9321787088539633,
                1.8208626968080908,
                1.567789487839454,
                -1.590392588951973,
                -0.6911991585944555
            ]
        },
        {
            "positions": [
                -0.6101461673712129,
                -0.8931252930330122,
                1.7979537194481199,
                1.6492142310950593,
                -1.6823933288532693,
                -0.5934145278372038
            ]
        },
        {
            "positions": [
                -0.6607912009904292,
                -0.8540718772120612,
                1.775044742088149,
                1.7306389743506645,
                -1.7743940687545652,
                -0.4956298970799522
            ]
        },
        {
            "positions": [
                -0.7114362346096458,
                -0.81501846139111,
                1.7521357647281781,
                1.8120637176062693,
                -1.866394808655861,
                -0.397845266322701
            ]
        },
        {
            "positions": [
                -0.7620812682288624,
                -0.775965045570159,
                1.7292267873682072,
                1.893488460861874,
                -1.9583955485571574,
                -0.3000606355654494
            ]
        },
        {
            "positions": [
                -0.8127263018480787,
                -0.736911629749208,
                1.7063178100082363,
                1.9749132041174793,
                -2.0503962884584532,
                -0.20227600480819774
            ]
        },
        {
            "positions": [
                -0.8633713354672953,
                -0.6978582139282568,
                1.6834088326482652,
                2.0563379473730845,
                -2.1423970283597495,
                -0.10449137405094655
            ]
        },
        {
            "positions": [
                -0.9140163690865117,
                -0.6588047981073059,
                1.6604998552882944,
                2.1377626906286893,
                -2.2343977682610454,
                -0.006706743293694818
            ]
        }
    ]
}