{
    "goal": {
        "global_pose": {
            "orientation": {
                "w": 0.5084816262002911,
                "x": -0.4908360881923452,
                "y": 0.5182115481033761,
                "z": -0.48164630358495003
            },
            "position": {
                "x": 0.5540239810943604,
                "y": -0.46912469901144505,
                "z": 0.16403168439865112
            }
        },
        "name": "move_to_storage_B"
    },
    "id": "BKPIECE_move_to_storage_B_95",
    "joint_names": [
        "shoulder_pan_joint",
        "shoulder_lift_joint",
        "elbow_joint",
        "wrist_1_joint",
        "wrist_2_joint",
        "wrist_3_joint"
    ],
    "metrics": {
        "cart_traj_len": 0.8773697690548254,
        "distance_elbow_joint": 0.5201866518459057,
        "distance_shoulder_lift_joint": 0.4574622472233161,
        "distance_shoulder_pan_joint": 0.3993953100231501,
        "distance_wrist_1_joint": 2.982022658515245,
        "distance_wrist_2_joint": 2.703624623686435,
        "distance_wrist_3_joint": 3.1370108196402273,
        "smoothness": 0.04839083495947428,
        "time": 0.938901646,
        "traj_len": 3.1936972791631764,
        "weighted_distance": 4.707374133465112
    },
    "planner": "BKPIECE",
    "start": {
        "state": {
            "elbow_joint": 1.6649325706314817,
            "shoulder_lift_joint": -0.6616388048112454,
            "shoulder_pan_joint": -0.9139837860083814,
            "wrist_1_joint": 2.146757197745094,
            "wrist_2_joint": -2.234196043158733,
            "wrist_3_joint": 0.005471033829999897
        }
    },
    "waypoints": [
        {
            "positions": [
                -0.9139837860083814,
                -0.6616388048112454,
                1.6649325706314817,
                2.146757197745094,
                -2.234196043158733,
                0.005471033829999897
            ]
        },
        {
            "positions": [
                -0.9070235184061013,
                -0.6662129639857535,
                1.6594878716853216,
                2.1334285496038805,
                -2.2218638968437743,
                0.00423346827579161
            ]
        },
        {
            "positions": [
                -0.8506706409454718,
                -0.7082796325760388,
                1.607624023889464,
                2.0222994383785347,
                -2.1093897283937597,
                0.005019751126700143
            ]
        },
        {
            "positions": [
                -0.843057155397384,
                -0.7509012966918844,
                1.6028018706751366,
                1.9044741848207765,
                -1.9776620730716543,
                0.08045390936858048
            ]
        },
        {
            "positions": [
                -0.8354436698492962,
                -0.7935229608077301,
                1.5979797174608092,
                1.786648931263018,
                -1.8459344177495491,
                0.1558880676104608
            ]
        },
        {
            "positions": [
                -0.8278301843012084,
                -0.8361446249235758,
                1.5931575642464817,
                1.6688236777052599,
                -1.7142067624274437,
                0.23132222585234116
            ]
        },
        {
            "positions": [
                -0.8202166987531204,
                -0.8787662890394214,
                1.5883354110321544,
                1.5509984241475017,
                -1.5824791071053386,
                0.3067563840942215
            ]
        },
        {
            "positions": [
                -0.8126032132050326,
                -0.9213879531552671,
                1.583513257817827,
                1.4331731705897433,
                -1.450751451783233,
                0.3821905423361019
            ]
        },
        {
            "positions": [
                -0.8049897276569448,
                -0.9640096172711128,
                1.5786911046034997,
                1.315347917031985,
                -1.3190237964611278,
                0.4576247005779822
            ]
        },
        {
            "positions": [
                -0.8202740040607192,
                -0.9721723243639259,
                1.6015303249097061,
                1.2021577392529252,
                -1.2248947239880315,
                0.5988027017244995
            ]
        },
        {
            "positions": [
                -0.8355582804644935,
                -0.980335031456739,
                1.6243695452159128,
                1.0889675614738656,
                -1.1307656515149351,
                0.7399807028710168
            ]
        },
        {
            "positions": [
                -0.8508425568682679,
                -0.988497738549552,
                1.6472087655221193,
                0.9757773836948058,
                -1.0366365790418388,
                0.8811587040175339
            ]
        },
        {
            "positions": [
                -0.8661268332720423,
                -0.9966604456423651,
                1.6700479858283257,
                0.8625872059157462,
                -0.9425075065687425,
                1.0223367051640513
            ]
        },
        {
            "positions": [
                -0.8814111096758167,
                -1.0048231527351783,
                1.6928872061345324,
                0.7493970281366864,
                -0.8483784340956462,
                1.1635147063105684
            ]
        },
        {
            "positions": [
                -0.8966953860795911,
                -1.0129858598279913,
                1.7157264264407388,
                0.6362068503576267,
                -0.7542493616225499,
                1.3046927074570858
            ]
        },
        {
            "positions": [
                -0.9119796624833655,
                -1.0211485669208045,
                1.7385656467469452,
                0.523016672578567,
                -0.6601202891494535,
                1.4458707086036031
            ]
        },
        {
            "positions": [
                -0.9272639388871399,
                -1.0293112740136174,
                1.7614048670531517,
                0.4098264947995073,
                -0.5659912166763572,
                1.5870487097501202
            ]
        },
        {
            "positions": [
                -0.9425482152909144,
                -1.0374739811064306,
                1.7842440873593584,
                0.29663631702044757,
                -0.4718621442032608,
                1.7282267108966374
            ]
        },
        {
            "positions": [
                -0.9578324916946888,
                -1.0456366881992436,
                1.8070833076655648,
                0.18344613924138775,
                -0.37773307173016446,
                1.869404712043155
            ]
        },
        {
            "positions": [
                -0.9731167680984631,
                -1.0537993952920568,
                1.8299225279717715,
                0.07025596146232793,
                -0.28360399925706803,
                2.010582713189672
            ]
        },
        {
            "positions": [
                -0.9884010445022375,
                -1.0619621023848698,
                1.852761748277978,
                -0.042934216316731666,
                -0.18947492678397193,
                2.151760714336189
            ]
        },
        {
            "positions": [
                -1.003685320906012,
                -1.070124809477683,
                1.8756009685841843,
                -0.15612439409579149,
                -0.09534585431087539,
                2.292938715482707
            ]
        },
        {
            "positions": [
                -1.0189695973097863,
                -1.078287516570496,
                1.8984401888903908,
                -0.2693145718748511,
                -0.0012167818377792905,
                2.434116716629224
            ]
        },
        {
            "positions": [
                -1.0342538737135607,
                -1.0864502236633091,
                1.9212794091965975,
                -0.3825047496539109,
                0.09291229063531725,
                2.5752947177757415
            ]
        },
        {
            "positions": [
                -1.049538150117335,
                -1.094612930756122,
                1.944118629502804,
                -0.4956949274329705,
                0.18704136310841335,
                2.7164727189222586
            ]
        },
        {
            "positions": [
                -1.0648224265211095,
                -1.1027756378489353,
                1.9669578498090106,
                -0.6088851052120303,
                0.2811704355815099,
                2.8576507200687757
            ]
        },
        {
            "positions": [
                -1.0801067029248839,
                -1.1109383449417483,
                1.989797070115217,
                -0.7220752829910899,
                0.3752995080546062,
                2.998828721215293
            ]
        },
        {
            "positions": [
                -1.0953909793286583,
                -1.1191010520345614,
                2.0126362904214234,
                -0.8352654607701497,
                0.4694285805277025,
                3.1400067223618104
            ]
        }
    ]
}