{
    "goal": {
        "global_pose": {
            "orientation": {
                "w": -0.4816463035849501,
                "x": 0.5182115481033762,
                "y": 0.4908360881923453,
                "z": -0.5084816262002911
            },
            "position": {
                "x": -0.8240239810943604,
                "y": 0.19912469901144506,
                "z": 0.16403168439865112
            }
        },
        "name": "move_to_storage_D"
    },
    "id": "BKPIECE_move_to_storage_D_119",
    "joint_names": [
        "shoulder_pan_joint",
        "shoulder_lift_joint",
        "elbow_joint",
        "wrist_1_joint",
        "wrist_2_joint",
        "wrist_3_joint"
    ],
    "metrics": {
        "cart_traj_len": 4.311289361292509,
        "distance_elbow_joint": 4.209443281407747,
        "distance_shoulder_lift_joint": 1.2647548711412184,
        "distance_shoulder_pan_joint": 3.0578833312278864,
        "distance_wrist_1_joint": 2.6891150327535387,
        "distance_wrist_2_joint": 1.792375254572521,
        "distance_wrist_3_joint": 3.136908671770091,
        "smoothness": 0.1522365116578383,
        "time": 0.913695165,
        "traj_len": 4.018766034851121,
        "weighted_distance": 5.187078953875606
    },
    "planner": "BKPIECE",
    "start": {
        "state": {
            "elbow_joint": -2.384821997420982,
            "shoulder_lift_joint": -2.2788054674887404,
            "shoulder_pan_joint": -0.18546946417610016,
            "wrist_1_joint": 1.4845937964226739,
            "wrist_2_joint": 0.1789877726866377,
            "wrist_3_joint": 0.03710572555276528
        }
    },
    "waypoints": [
        {
            "positions": [
                -0.18546946417610016,
                -2.2788054674887404,
                -2.384821997420982,
                1.4845937964226739,
                0.1789877726866377,
                0.03710572555276528
            ]
        },
        {
            "positions": [
                -0.09373115357492655,
                -2.2519733406540614,
                -2.289458479593374,
                1.4071959085046009,
                0.22061025092169467,
                0.09277190212665873
            ]
        },
        {
            "positions": [
                -0.001992842973752934,
                -2.2251412138193825,
                -2.1940949617657663,
                1.3297980205865276,
                0.26223272915675166,
                0.14843807870055217
            ]
        },
        {
            "positions": [
                0.0897454676274207,
                -2.1983090869847035,
                -2.0987314439381586,
                1.2524001326684546,
                0.3038552073918086,
                0.20410425527444562
            ]
        },
        {
            "positions": [
                0.1814837782285943,
                -2.1714769601500246,
                -2.003367926110551,
                1.1750022447503814,
                0.3454776856268656,
                0.25977043184833903
            ]
        },
        {
            "positions": [
                0.2732220888297679,
                -2.1446448333153456,
                -1.9080044082829433,
                1.0976043568323084,
                0.3871001638619226,
                0.3154366084222325
            ]
        },
        {
            "positions": [
                0.36496039943094155,
                -2.1178127064806667,
                -1.8126408904553355,
                1.0202064689142354,
                0.4287226420969795,
                0.3711027849961259
            ]
        },
        {
            "positions": [
                0.4566987100321151,
                -2.0909805796459877,
                -1.717277372627728,
                0.9428085809961623,
                0.47034512033203646,
                0.42676896157001937
            ]
        },
        {
            "positions": [
                0.5484370206332887,
                -2.0641484528113088,
                -1.6219138548001202,
                0.8654106930780892,
                0.5119675985670935,
                0.4824351381439128
            ]
        },
        {
            "positions": [
                0.6401753312344625,
                -2.0373163259766294,
                -1.5265503369725124,
                0.788012805160016,
                0.5535900768021504,
                0.5381013147178063
            ]
        },
        {
            "positions": [
                0.731913641835636,
                -2.0104841991419504,
                -1.4311868191449046,
                0.7106149172419429,
                0.5952125550372074,
                0.5937674912916997
            ]
        },
        {
            "positions": [
                0.8236519524368096,
                -1.9836520723072715,
                -1.3358233013172969,
                0.6332170293238699,
                0.6368350332722644,
                0.6494336678655931
            ]
        },
        {
            "positions": [
                0.9153902630379833,
                -1.9568199454725925,
                -1.240459783489689,
                0.5558191414057968,
                0.6784575115073214,
                0.7050998444394866
            ]
        },
        {
            "positions": [
                1.0071285736391569,
                -1.9299878186379136,
                -1.1450962656620813,
                0.4784212534877237,
                0.7200799897423783,
                0.7607660210133801
            ]
        },
        {
            "positions": [
                1.0988668842403304,
                -1.9031556918032346,
                -1.0497327478344738,
                0.4010233655696507,
                0.7617024679774352,
                0.8164321975872735
            ]
        },
        {
            "positions": [
                1.1906051948415042,
                -1.8763235649685557,
                -0.954369230006866,
                0.32362547765157745,
                0.8033249462124923,
                0.8720983741611669
            ]
        },
        {
            "positions": [
                1.2823435054426777,
                -1.8494914381338767,
                -0.8590057121792583,
                0.24622758973350445,
                0.8449474244475492,
                0.9277645507350604
            ]
        },
        {
            "positions": [
                1.3740818160438513,
                -1.8226593112991978,
                -0.7636421943516505,
                0.16882970181543144,
                0.8865699026826062,
                0.9834307273089539
            ]
        },
        {
            "positions": [
                1.465820126645025,
                -1.7958271844645188,
                -0.6682786765240427,
                0.09143181389735822,
                0.9281923809176632,
                1.0390969038828475
            ]
        },
        {
            "positions": [
                1.5575584372461986,
                -1.7689950576298399,
                -0.5729151586964352,
                0.014033925979285211,
                0.9698148591527201,
                1.0947630804567408
            ]
        },
        {
            "positions": [
                1.6492967478473721,
                -1.742162930795161,
                -0.4775516408688274,
                -0.06336396193878802,
                1.0114373373877772,
                1.1504292570306343
            ]
        },
        {
            "positions": [
                1.741035058448546,
                -1.715330803960482,
                -0.38218812304121963,
                -0.14076184985686102,
                1.0530598156228341,
                1.2060954336045278
            ]
        },
        {
            "positions": [
                1.8327733690497192,
                -1.6884986771258028,
                -0.28682460521361186,
                -0.21815973777493403,
                1.094682293857891,
                1.261761610178421
            ]
        },
        {
            "positions": [
                1.9245116796508932,
                -1.6616665502911239,
                -0.1914610873860041,
                -0.29555762569300725,
                1.136304772092948,
                1.3174277867523145
            ]
        },
        {
            "positions": [
                2.0162499902520667,
                -1.634834423456445,
                -0.09609756955839632,
                -0.37295551361108026,
                1.1779272503280052,
                1.373093963326208
            ]
        },
        {
            "positions": [
                2.1079883008532403,
                -1.608002296621766,
                -0.0007340517307885541,
                -0.45035340152915326,
                1.219549728563062,
                1.4287601399001015
            ]
        },
        {
            "positions": [
                2.199726611454414,
                -1.581170169787087,
                0.09462946609681921,
                -0.5277512894472265,
                1.261172206798119,
                1.484426316473995
            ]
        },
        {
            "positions": [
                2.2914649220555874,
                -1.5543380429524079,
                0.18999298392442654,
                -0.6051491773652997,
                1.302794685033176,
                1.5400924930478883
            ]
        },
        {
            "positions": [
                2.383203232656761,
                -1.527505916117729,
                0.2853565017520343,
                -0.6825470652833725,
                1.344417163268233,
                1.5957586696217818
            ]
        },
        {
            "positions": [
                2.474941543257935,
                -1.50067378928305,
                0.3807200195796421,
                -0.7599449532014457,
                1.38603964150329,
                1.6514248461956753
            ]
        },
        {
            "positions": [
                2.5666798538591085,
                -1.473841662448371,
                0.47608353740724985,
                -0.837342841119519,
                1.427662119738347,
                1.7070910227695686
            ]
        },
        {
            "positions": [
                2.658418164460282,
                -1.447009535613692,
                0.5714470552348576,
                -0.9147407290375917,
                1.469284597973404,
                1.762757199343462
            ]
        },
        {
            "positions": [
                2.7501564750614556,
                -1.420177408779013,
                0.6668105730624654,
                -0.992138616955665,
                1.5109070762084609,
                1.8184233759173556
            ]
        },
        {
            "positions": [
                2.7379307358624225,
                -1.379564727535864,
                0.7825916441548955,
                -0.9709003550181449,
                1.464861481103391,
                1.9539824780579056
            ]
        },
        {
            "positions": [
                2.7257049966633895,
                -1.338952046292715,
                0.8983727152473255,
                -0.9496620930806249,
                1.4188158859983213,
                2.0895415801984556
            ]
        },
        {
            "positions": [
                2.7134792574643565,
                -1.2983393650495658,
                1.0141537863397556,
                -0.9284238311431048,
                1.3727702908932515,
                2.225100682339006
            ]
        },
        {
            "positions": [
                2.7012535182653235,
                -1.2577266838064167,
                1.1299348574321857,
                -0.9071855692055847,
                1.3267246957881818,
                2.360659784479556
            ]
        },
        {
            "positions": [
                2.68902777906629,
                -1.2171140025632674,
                1.245715928524616,
                -0.8859473072680646,
                1.2806791006831122,
                2.496218886620106
            ]
        },
        {
            "positions": [
                2.676802039867257,
                -1.1765013213201185,
                1.3614969996170458,
                -0.8647090453305446,
                1.2346335055780424,
                2.631777988760656
            ]
        },
        {
            "positions": [
                2.664576300668224,
                -1.1358886400769692,
                1.4772780707094761,
                -0.8434707833930245,
                1.1885879104729726,
                2.767337090901206
            ]
        },
        {
            "positions": [
                2.652350561469191,
                -1.0952759588338201,
                1.5930591418019062,
                -0.8222325214555044,
                1.1425423153679028,
                2.902896193041756
            ]
        },
        {
            "positions": [
                2.640124822270158,
                -1.054663277590671,
                1.7088402128943363,
                -0.8009942595179844,
                1.096496720262833,
                3.0384552951823065
            ]
        },
        {
            "positions": [
                2.627899083071125,
                -1.014050596347522,
                1.8246212839867664,
                -0.7797559975804643,
                1.0504511251577633,
                3.1740143973228565
            ]
        }
    ]
}