{
    "goal": {
        "global_pose": {
            "orientation": {
                "w": 0.7047431493862688,
                "x": -0.7094548369677653,
                "y": 0.0024358444001904,
                "z": -0.0022348060817251984
            },
            "position": {
                "x": -0.39052492380142206,
                "y": 0.3671506643295288,
                "z": 0.19426114857196808
            }
        },
        "name": "move_to_magneteinheit_D"
    },
    "id": "BKPIECE_move_to_magneteinheit_D_76",
    "joint_names": [
        "shoulder_pan_joint",
        "shoulder_lift_joint",
        "elbow_joint",
        "wrist_1_joint",
        "wrist_2_joint",
        "wrist_3_joint"
    ],
    "metrics": {
        "cart_traj_len": 4.756262626872207,
        "distance_elbow_joint": 3.2780430082824847,
        "distance_shoulder_lift_joint": 1.1961181035596355,
        "distance_shoulder_pan_joint": 3.2607173572876205,
        "distance_wrist_1_joint": 2.478042731743396,
        "distance_wrist_2_joint": 1.8583553670784039,
        "distance_wrist_3_joint": 6.191453802097542,
        "smoothness": 0.5193929080064125,
        "time": 1.004357557,
        "traj_len": 4.2734915900290575,
        "weighted_distance": 5.914561359311945
    },
    "planner": "BKPIECE",
    "start": {
        "state": {
            "elbow_joint": 0.7495348899011973,
            "shoulder_lift_joint": -0.6476975780737697,
            "shoulder_pan_joint": -2.711696901376276,
            "wrist_1_joint": -0.07506478080974305,
            "wrist_2_joint": 0.4329665971545858,
            "wrist_3_joint": 3.1361499051832524
        }
    },
    "waypoints": [
        {
            "positions": [
                -2.711696901376276,
                -0.6476975780737697,
                0.7495348899011973,
                -0.07506478080974305,
                0.4329665971545858,
                3.1361499051832524
            ]
        },
        {
            "positions": [
                -2.782665550833521,
                -0.6329254594293111,
                0.7803509536306066,
                -0.11625981956919446,
                0.5354452326809798,
                3.0213724385044882
            ]
        },
        {
            "positions": [
                -2.8536342002907658,
                -0.6181533407848526,
                0.8111670173600157,
                -0.15745485832864586,
                0.6379238682073737,
                2.9065949718257236
            ]
        },
        {
            "positions": [
                -2.9246028497480108,
                -0.603381222140394,
                0.841983081089425,
                -0.19864989708809727,
                0.7404025037337676,
                2.7918175051469594
            ]
        },
        {
            "positions": [
                -2.845539672697557,
                -0.6776968640007206,
                0.7873652464718468,
                -0.16332414808256973,
                0.6834929219762644,
                2.7568875910408224
            ]
        },
        {
            "positions": [
                -2.7664764956471024,
                -0.7520125058610472,
                0.7327474118542686,
                -0.1279983990770422,
                0.6265833402187614,
                2.721957676934686
            ]
        },
        {
            "positions": [
                -2.687413318596648,
                -0.8263281477213736,
                0.6781295772366904,
                -0.09267265007151465,
                0.5696737584612583,
                2.687027762828549
            ]
        },
        {
            "positions": [
                -2.608350141546194,
                -0.9006437895817002,
                0.6235117426191122,
                -0.0573469010659871,
                0.5127641767037552,
                2.652097848722412
            ]
        },
        {
            "positions": [
                -2.528244148153525,
                -0.9200205709618916,
                0.5526307888661489,
                -0.11313774521406927,
                0.5237669638993793,
                2.5030776123837923
            ]
        },
        {
            "positions": [
                -2.448138154760856,
                -0.939397352342083,
                0.4817498351131856,
                -0.16892858936215147,
                0.5347697510950032,
                2.354057376045173
            ]
        },
        {
            "positions": [
                -2.3680321613681867,
                -0.9587741337222744,
                0.41086888136022226,
                -0.22471943351023363,
                0.5457725382906273,
                2.205037139706553
            ]
        },
        {
            "positions": [
                -2.287926167975518,
                -0.9781509151024658,
                0.339987927607259,
                -0.2805102776583158,
                0.5567753254862514,
                2.0560169033679334
            ]
        },
        {
            "positions": [
                -2.207820174582849,
                -0.9975276964826572,
                0.2691069738542956,
                -0.33630112180639804,
                0.5677781126818755,
                1.906996667029314
            ]
        },
        {
            "positions": [
                -2.12771418119018,
                -1.0169044778628487,
                0.19822602010133233,
                -0.39209196595448015,
                0.5787808998774995,
                1.7579764306906944
            ]
        },
        {
            "positions": [
                -2.0476081877975107,
                -1.03628125924304,
                0.127345066348369,
                -0.44788281010256237,
                0.5897836870731236,
                1.6089561943520747
            ]
        },
        {
            "positions": [
                -1.9675021944048419,
                -1.0556580406232314,
                0.056464112595405735,
                -0.5036736542506445,
                0.6007864742687477,
                1.4599359580134552
            ]
        },
        {
            "positions": [
                -1.8873962010121728,
                -1.0750348220034227,
                -0.014416841157557703,
                -0.5594644983987267,
                0.6117892614643716,
                1.3109157216748357
            ]
        },
        {
            "positions": [
                -1.8072902076195037,
                -1.0944116033836142,
                -0.08529779491052103,
                -0.6152553425468089,
                0.6227920486599957,
                1.161895485336216
            ]
        },
        {
            "positions": [
                -1.7271842142268348,
                -1.1137883847638055,
                -0.15617874866348425,
                -0.671046186694891,
                0.6337948358556198,
                1.0128752489975967
            ]
        },
        {
            "positions": [
                -1.6470782208341657,
                -1.133165166143997,
                -0.22705970241644757,
                -0.7268370308429731,
                0.6447976230512438,
                0.863855012658977
            ]
        },
        {
            "positions": [
                -1.5669722274414966,
                -1.1525419475241883,
                -0.2979406561694109,
                -0.7826278749910554,
                0.6558004102468679,
                0.7148347763203573
            ]
        },
        {
            "positions": [
                -1.4868662340488277,
                -1.1719187289043798,
                -0.3688216099223742,
                -0.8384187191391376,
                0.666803197442492,
                0.5658145399817376
            ]
        },
        {
            "positions": [
                -1.4067602406561586,
                -1.1912955102845713,
                -0.43970256367533767,
                -0.8942095632872198,
                0.6778059846381159,
                0.4167943036431181
            ]
        },
        {
            "positions": [
                -1.3266542472634897,
                -1.2106722916647625,
                -0.5105835174283008,
                -0.9500004074353019,
                0.68880877183374,
                0.2677740673044986
            ]
        },
        {
            "positions": [
                -1.2465482538708206,
                -1.2300490730449538,
                -0.5814644711812641,
                -1.005791251583384,
                0.6998115590293641,
                0.11875383096587955
            ]
        },
        {
            "positions": [
                -1.1664422604781515,
                -1.2494258544251453,
                -0.6523454249342276,
                -1.0615820957314663,
                0.7108143462249881,
                -0.03026640537274039
            ]
        },
        {
            "positions": [
                -1.0863362670854826,
                -1.2688026358053368,
                -0.7232263786871908,
                -1.1173729398795484,
                0.7218171334206122,
                -0.17928664171135988
            ]
        },
        {
            "positions": [
                -1.0062302736928133,
                -1.288179417185528,
                -0.7941073324401543,
                -1.1731637840276308,
                0.7328199206162362,
                -0.3283068780499798
            ]
        },
        {
            "positions": [
                -0.9261242803001444,
                -1.3075561985657196,
                -0.8649882861931174,
                -1.2289546281757129,
                0.7438227078118602,
                -0.4773271143885993
            ]
        },
        {
            "positions": [
                -0.8460182869074755,
                -1.3269329799459109,
                -0.9358692399460807,
                -1.284745472323795,
                0.7548254950074843,
                -0.6263473507272184
            ]
        },
        {
            "positions": [
                -0.7659122935148064,
                -1.3463097613261024,
                -1.0067501936990442,
                -1.340536316471877,
                0.7658282822031084,
                -0.7753675870658383
            ]
        },
        {
            "positions": [
                -0.6858063001221373,
                -1.3656865427062936,
                -1.0776311474520073,
                -1.3963271606199592,
                0.7768310693987324,
                -0.9243878234044578
            ]
        },
        {
            "positions": [
                -0.6057003067294686,
                -1.3850633240864851,
                -1.1485121012049708,
                -1.4521180047680413,
                0.7878338565943565,
                -1.0734080597430773
            ]
        },
        {
            "positions": [
                -0.5255943133367991,
                -1.4044401054666764,
                -1.219393054957934,
                -1.5079088489161236,
                0.7988366437899805,
                -1.2224282960816972
            ]
        },
        {
            "positions": [
                -0.4454883199441304,
                -1.423816886846868,
                -1.2902740087108975,
                -1.5636996930642058,
                0.8098394309856045,
                -1.3714485324203167
            ]
        },
        {
            "positions": [
                -0.3653823265514613,
                -1.4431936682270594,
                -1.3611549624638606,
                -1.619490537212288,
                0.8208422181812287,
                -1.5204687687589367
            ]
        },
        {
            "positions": [
                -0.2852763331587921,
                -1.4625704496072507,
                -1.4320359162168241,
                -1.6752813813603702,
                0.8318450053768527,
                -1.6694890050975557
            ]
        },
        {
            "positions": [
                -0.2517038246529892,
                -1.4724821275265156,
                -1.4942111930266802,
                -1.7250149808967226,
                0.7896126254047026,
                -1.7601569442402683
            ]
        },
        {
            "positions": [
                -0.21813131614718634,
                -1.4823938054457808,
                -1.5563864698365364,
                -1.774748580433075,
                0.7473802454325523,
                -1.8508248833829806
            ]
        },
        {
            "positions": [
                -0.18455880764138344,
                -1.4923054833650458,
                -1.6185617466463924,
                -1.8244821799694273,
                0.7051478654604022,
                -1.941492822525693
            ]
        },
        {
            "positions": [
                -0.16268969029687655,
                -1.5100637337679894,
                -1.6986527526289283,
                -1.8795503557157318,
                0.6220986663964702,
                -2.053013819431673
            ]
        },
        {
            "positions": [
                -0.14082057295236963,
                -1.5278219841709333,
                -1.778743758611464,
                -1.9346185314620366,
                0.5390494673325382,
                -2.164534816337653
            ]
        },
        {
            "positions": [
                -0.11895145560786274,
                -1.545580234573877,
                -1.858834764594,
                -1.989686707208341,
                0.4560002682686062,
                -2.2760558132436333
            ]
        },
        {
            "positions": [
                -0.09708233826335584,
                -1.5633384849768206,
                -1.9389257705765357,
                -2.0447548829546456,
                0.3729510692046742,
                -2.3875768101496133
            ]
        },
        {
            "positions": [
                -0.07521322091884894,
                -1.5810967353797643,
                -2.019016776559072,
                -2.0998230587009505,
                0.28990187014074215,
                -2.4990978070555934
            ]
        },
        {
            "positions": [
                -0.05334410357434205,
                -1.5988549857827081,
                -2.0991077825416076,
                -2.154891234447255,
                0.20685267107681016,
                -2.6106188039615734
            ]
        },
        {
            "positions": [
                -0.03147498622983513,
                -1.6166132361856518,
                -2.1791987885241433,
                -2.2099594101935596,
                0.1238034720128781,
                -2.7221398008675535
            ]
        },
        {
            "positions": [
                -0.03186038345716319,
                -1.6334210226674424,
                -2.2270825836992265,
                -2.238695786519073,
                0.06351611065630124,
                -2.7944228527949937
            ]
        },
        {
            "positions": [
                -0.03224578068449124,
                -1.6502288091492332,
                -2.2749663788743097,
                -2.2674321628445857,
                0.003228749299724368,
                -2.8667059047224335
            ]
        },
        {
            "positions": [
                -0.10920215615601875,
                -1.7027058894579437,
                -2.309289057439571,
                -2.268966841676752,
                -0.08456327505976763,
                -2.9610049008183594
            ]
        },
        {
            "positions": [
                -0.18615853162754625,
                -1.7551829697666539,
                -2.3436117360048323,
                -2.270501520508919,
                -0.17235529941925964,
                -3.0553038969142854
            ]
        }
    ]
}