{
    "goal": {
        "global_pose": {
            "orientation": {
                "w": -0.00223480608172531,
                "x": 0.0024358444001904467,
                "y": 0.7094548369677653,
                "z": -0.704743149386269
            },
            "position": {
                "x": -0.37947507619857795,
                "y": -0.6371506643295288,
                "z": 0.19426114857196808
            }
        },
        "name": "move_to_magneteinheit_C"
    },
    "id": "BKPIECE_move_to_magneteinheit_C_1",
    "joint_names": [
        "shoulder_pan_joint",
        "shoulder_lift_joint",
        "elbow_joint",
        "wrist_1_joint",
        "wrist_2_joint",
        "wrist_3_joint"
    ],
    "metrics": {
        "cart_traj_len": 1.8909984637772241,
        "distance_elbow_joint": 1.3987500234065031,
        "distance_shoulder_lift_joint": 1.5324234524748659,
        "distance_shoulder_pan_joint": 2.1095780819223022,
        "distance_wrist_1_joint": 8.450876570795922,
        "distance_wrist_2_joint": 4.3986715357843975,
        "distance_wrist_3_joint": 12.03130297744546,
        "smoothness": 0.4825189759260973,
        "time": 2.152239895,
        "traj_len": 5.470064226481207,
        "weighted_distance": 8.175191539242409
    },
    "planner": "BKPIECE",
    "start": {
        "state": {
            "elbow_joint": 1.9565354006590394,
            "shoulder_lift_joint": -1.4165861576513559,
            "shoulder_pan_joint": -1.6717766223277177,
            "wrist_1_joint": -0.5286633288215096,
            "wrist_2_joint": 1.4727565892594296,
            "wrist_3_joint": 3.1593482883155493
        }
    },
    "waypoints": [
        {
            "positions": [
                -1.6717766223277177,
                -1.4165861576513559,
                1.9565354006590394,
                -0.5286633288215096,
                1.4727565892594296,
                3.1593482883155493
            ]
        },
        {
            "positions": [
                -1.6017405312788782,
                -1.4194338417129777,
                1.930717149909099,
                -0.49141042912375216,
                1.4685645126934679,
                3.0867812093546227
            ]
        },
        {
            "positions": [
                -1.5317044402300386,
                -1.4222815257745998,
                1.9048988991591584,
                -0.45415752942599474,
                1.4643724361275061,
                3.0142141303936962
            ]
        },
        {
            "positions": [
                -1.5388518152478874,
                -1.4457769908586486,
                1.9182653106509004,
                -0.5189562504271842,
                1.3898075820979847,
                2.8071407505623247
            ]
        },
        {
            "positions": [
                -1.5459991902657364,
                -1.4692724559426973,
                1.9316317221426424,
                -0.5837549714283736,
                1.3152427280684633,
                2.600067370730953
            ]
        },
        {
            "positions": [
                -1.5531465652835852,
                -1.4927679210267462,
                1.9449981336343845,
                -0.6485536924295631,
                1.240677874038942,
                2.3929939908995816
            ]
        },
        {
            "positions": [
                -1.560293940301434,
                -1.5162633861107948,
                1.9583645451261267,
                -0.7133524134307525,
                1.1661130200094205,
                2.1859206110682097
            ]
        },
        {
            "positions": [
                -1.5674413153192828,
                -1.5397588511948437,
                1.9717309566178687,
                -0.778151134431942,
                1.0915481659798991,
                1.9788472312368381
            ]
        },
        {
            "positions": [
                -1.5745886903371318,
                -1.5632543162788923,
                1.9850973681096107,
                -0.8429498554331314,
                1.0169833119503777,
                1.7717738514054666
            ]
        },
        {
            "positions": [
                -1.5817360653549806,
                -1.5867497813629412,
                1.9984637796013527,
                -0.9077485764343208,
                0.9424184579208563,
                1.564700471574095
            ]
        },
        {
            "positions": [
                -1.5888834403728294,
                -1.6102452464469899,
                2.011830191093095,
                -0.9725472974355103,
                0.8678536038913349,
                1.3576270917427233
            ]
        },
        {
            "positions": [
                -1.5960308153906781,
                -1.6337407115310387,
                2.025196602584837,
                -1.0373460184366996,
                0.7932887498618135,
                1.1505537119113518
            ]
        },
        {
            "positions": [
                -1.6031781904085272,
                -1.6572361766150874,
                2.038563014076579,
                -1.1021447394378892,
                0.7187238958322921,
                0.94348033207998
            ]
        },
        {
            "positions": [
                -1.610325565426376,
                -1.6807316416991362,
                2.051929425568321,
                -1.1669434604390787,
                0.6441590418027707,
                0.7364069522486085
            ]
        },
        {
            "positions": [
                -1.6174729404442247,
                -1.704227106783185,
                2.065295837060063,
                -1.231742181440268,
                0.5695941877732493,
                0.529333572417237
            ]
        },
        {
            "positions": [
                -1.6246203154620735,
                -1.7277225718672338,
                2.078662248551805,
                -1.2965409024414574,
                0.49502933374372793,
                0.32226019258586547
            ]
        },
        {
            "positions": [
                -1.6317676904799225,
                -1.7512180369512824,
                2.092028660043547,
                -1.361339623442647,
                0.42046447971420653,
                0.11518681275449394
            ]
        },
        {
            "positions": [
                -1.6389150654977713,
                -1.7747135020353313,
                2.105395071535289,
                -1.4261383444438365,
                0.34589962568468513,
                -0.09188656707687803
            ]
        },
        {
            "positions": [
                -1.6460624405156201,
                -1.79820896711938,
                2.118761483027031,
                -1.4909370654450258,
                0.27133477165516373,
                -0.29895994690824956
            ]
        },
        {
            "positions": [
                -1.653209815533469,
                -1.8217044322034288,
                2.132127894518773,
                -1.5557357864462154,
                0.19676991762564233,
                -0.5060333267396211
            ]
        },
        {
            "positions": [
                -1.660357190551318,
                -1.8451998972874775,
                2.145494306010515,
                -1.6205345074474047,
                0.12220506359612093,
                -0.7131067065709926
            ]
        },
        {
            "positions": [
                -1.6675045655691667,
                -1.8686953623715263,
                2.158860717502257,
                -1.6853332284485942,
                0.047640209566599534,
                -0.9201800864023646
            ]
        },
        {
            "positions": [
                -1.6746519405870155,
                -1.892190827455575,
                2.172227128993999,
                -1.7501319494497836,
                -0.026924644462921865,
                -1.1272534662337361
            ]
        },
        {
            "positions": [
                -1.6817993156048643,
                -1.9156862925396239,
                2.1855935404857414,
                -1.8149306704509731,
                -0.10148949849244326,
                -1.334326846065108
            ]
        },
        {
            "positions": [
                -1.6889466906227133,
                -1.9391817576236727,
                2.1989599519774834,
                -1.8797293914521624,
                -0.17605435252196466,
                -1.5414002258964792
            ]
        },
        {
            "positions": [
                -1.696094065640562,
                -1.9626772227077214,
                2.2123263634692254,
                -1.944528112453352,
                -0.25061920655148606,
                -1.7484736057278512
            ]
        },
        {
            "positions": [
                -1.7032414406584109,
                -1.98617268779177,
                2.2256927749609674,
                -2.0093268334545415,
                -0.32518406058100746,
                -1.9555469855592222
            ]
        },
        {
            "positions": [
                -1.7103888156762599,
                -2.009668152875819,
                2.2390591864527094,
                -2.0741255544557307,
                -0.39974891461052886,
                -2.162620365390594
            ]
        },
        {
            "positions": [
                -1.7175361906941087,
                -2.0331636179598678,
                2.2524255979444514,
                -2.13892427545692,
                -0.47431376864005026,
                -2.3696937452219653
            ]
        },
        {
            "positions": [
                -1.7246835657119575,
                -2.0566590830439164,
                2.2657920094361934,
                -2.2037229964581098,
                -0.5488786226695717,
                -2.5767671250533377
            ]
        },
        {
            "positions": [
                -1.7795669927403976,
                -2.019694116628366,
                2.238875976139398,
                -2.030088073576655,
                -0.47040074904756246,
                -2.5895485424130635
            ]
        },
        {
            "positions": [
                -1.8344504197688376,
                -1.982729150212815,
                2.211959942842602,
                -1.8564531506952,
                -0.3919228754255533,
                -2.602329959772789
            ]
        },
        {
            "positions": [
                -1.8893338467972778,
                -1.9457641837972643,
                2.1850439095458065,
                -1.6828182278137453,
                -0.3134450018035442,
                -2.6151113771325147
            ]
        },
        {
            "positions": [
                -1.944217273825718,
                -1.9087992173817137,
                2.158127876249011,
                -1.5091833049322905,
                -0.23496712818153498,
                -2.62789279449224
            ]
        },
        {
            "positions": [
                -1.9991007008541581,
                -1.8718342509661632,
                2.1312118429522156,
                -1.3355483820508356,
                -0.15648925455952578,
                -2.640674211851966
            ]
        },
        {
            "positions": [
                -2.053984127882598,
                -1.8348692845506125,
                2.1042958096554196,
                -1.1619134591693807,
                -0.07801138093751664,
                -2.6534556292116913
            ]
        },
        {
            "positions": [
                -2.108867554911038,
                -1.7979043181350618,
                2.077379776358624,
                -0.9882785362879258,
                0.0004664926844926143,
                -2.666237046571417
            ]
        },
        {
            "positions": [
                -2.1637509819394785,
                -1.760939351719511,
                2.0504637430618287,
                -0.8146436134064712,
                0.0789443663065017,
                -2.6790184639311425
            ]
        },
        {
            "positions": [
                -2.2186344089679184,
                -1.7239743853039604,
                2.023547709765033,
                -0.6410086905250163,
                0.1574222399285109,
                -2.6917998812908683
            ]
        },
        {
            "positions": [
                -2.2735178359963584,
                -1.6870094188884097,
                1.9966316764682375,
                -0.4673737676435614,
                0.2359001135505201,
                -2.7045812986505937
            ]
        },
        {
            "positions": [
                -2.3284012630247988,
                -1.650044452472859,
                1.9697156431714418,
                -0.29373884476210654,
                0.3143779871725293,
                -2.7173627160103195
            ]
        },
        {
            "positions": [
                -2.3832846900532387,
                -1.6130794860573086,
                1.9427996098746463,
                -0.12010392188065167,
                0.3928558607945384,
                -2.730144133370045
            ]
        },
        {
            "positions": [
                -2.4381681170816787,
                -1.5761145196417579,
                1.9158835765778506,
                0.05353100100080299,
                0.4713337344165476,
                -2.7429255507297707
            ]
        },
        {
            "positions": [
                -2.493051544110119,
                -1.5391495532262072,
                1.8889675432810549,
                0.2271659238822581,
                0.5498116080385569,
                -2.755706968089496
            ]
        },
        {
            "positions": [
                -2.547934971138559,
                -1.5021845868106565,
                1.8620515099842594,
                0.40080084676371275,
                0.628289481660566,
                -2.768488385449222
            ]
        },
        {
            "positions": [
                -2.602818398166999,
                -1.4652196203951058,
                1.835135476687464,
                0.5744357696451674,
                0.7067673552825751,
                -2.7812698028089473
            ]
        },
        {
            "positions": [
                -2.6577018251954394,
                -1.4282546539795553,
                1.8082194433906682,
                0.7480706925266221,
                0.7852452289045841,
                -2.794051220168673
            ]
        },
        {
            "positions": [
                -2.7125852522238794,
                -1.3912896875640044,
                1.7813034100938725,
                0.9217056154080772,
                0.8637231025265935,
                -2.8068326375283985
            ]
        },
        {
            "positions": [
                -2.7674686792523193,
                -1.354324721148454,
                1.754387376797077,
                1.0953405382895318,
                0.9422009761486025,
                -2.8196140548881243
            ]
        },
        {
            "positions": [
                -2.8223521062807597,
                -1.317359754732903,
                1.7274713435002815,
                1.268975461170987,
                1.0206788497706119,
                -2.8323954722478497
            ]
        },
        {
            "positions": [
                -2.8772355333091997,
                -1.2803947883173525,
                1.7005553102034858,
                1.4426103840524416,
                1.099156723392621,
                -2.8451768896075755
            ]
        },
        {
            "positions": [
                -2.9321189603376396,
                -1.2434298219018018,
                1.6736392769066901,
                1.6162453069338967,
                1.1776345970146302,
                -2.8579583069673014
            ]
        },
        {
            "positions": [
                -2.98700238736608,
                -1.2064648554862512,
                1.6467232436098946,
                1.7898802298153513,
                1.2561124706366393,
                -2.8707397243270267
            ]
        },
        {
            "positions": [
                -2.967225158416519,
                -1.204843459350688,
                1.660844460756175,
                1.688603226811704,
                1.2341107310001325,
                -2.6399237641423006
            ]
        },
        {
            "positions": [
                -2.9474479294669584,
                -1.203222063215125,
                1.6749656779024553,
                1.5873262238080565,
                1.2121089913636256,
                -2.4091078039575744
            ]
        },
        {
            "positions": [
                -2.9276707005173974,
                -1.2016006670795618,
                1.6890868950487357,
                1.4860492208044092,
                1.1901072517271187,
                -2.178291843772848
            ]
        },
        {
            "positions": [
                -2.907893471567837,
                -1.199979270943999,
                1.703208112195016,
                1.3847722178007618,
                1.1681055120906119,
                -1.9474758835881216
            ]
        },
        {
            "positions": [
                -2.888116242618276,
                -1.1983578748084358,
                1.7173293293412963,
                1.2834952147971144,
                1.146103772454105,
                -1.7166599234033955
            ]
        },
        {
            "positions": [
                -2.8683390136687152,
                -1.1967364786728727,
                1.7314505464875767,
                1.182218211793467,
                1.1241020328175981,
                -1.4858439632186693
            ]
        },
        {
            "positions": [
                -2.8485617847191542,
                -1.1951150825373096,
                1.7455717636338568,
                1.0809412087898196,
                1.1021002931810915,
                -1.2550280030339431
            ]
        },
        {
            "positions": [
                -2.828784555769593,
                -1.1934936864017465,
                1.7596929807801371,
                0.9796642057861722,
                1.0800985535445846,
                -1.0242120428492167
            ]
        },
        {
            "positions": [
                -2.8090073268200326,
                -1.1918722902661834,
                1.7738141979264175,
                0.8783872027825248,
                1.0580968139080777,
                -0.7933960826644908
            ]
        },
        {
            "positions": [
                -2.7892300978704716,
                -1.1902508941306205,
                1.7879354150726978,
                0.7771101997788774,
                1.0360950742715709,
                -0.5625801224797642
            ]
        },
        {
            "positions": [
                -2.769452868920911,
                -1.1886294979950573,
                1.8020566322189782,
                0.67583319677523,
                1.014093334635064,
                -0.331764162295038
            ]
        },
        {
            "positions": [
                -2.74967563997135,
                -1.1870081018594942,
                1.8161778493652585,
                0.5745561937715826,
                0.9920915949985571,
                -0.10094820211031186
            ]
        },
        {
            "positions": [
                -2.7298984110217894,
                -1.1853867057239311,
                1.8302990665115388,
                0.47327919076793523,
                0.9700898553620503,
                0.1298677580744143
            ]
        },
        {
            "positions": [
                -2.7101211820722284,
                -1.183765309588368,
                1.8444202836578192,
                0.37200218776428784,
                0.9480881157255434,
                0.3606837182591405
            ]
        },
        {
            "positions": [
                -2.6903439531226674,
                -1.182143913452805,
                1.8585415008040995,
                0.27072518476064067,
                0.9260863760890365,
                0.5914996784438666
            ]
        },
        {
            "positions": [
                -2.670566724173107,
                -1.1805225173172418,
                1.8726627179503799,
                0.16944818175699305,
                0.9040846364525297,
                0.8223156386285932
            ]
        },
        {
            "positions": [
                -2.650789495223546,
                -1.178901121181679,
                1.8867839350966602,
                0.06817117875334566,
                0.8820828968160228,
                1.0531315988133194
            ]
        },
        {
            "positions": [
                -2.631012266273985,
                -1.1772797250461158,
                1.9009051522429403,
                -0.03310582425030173,
                0.860081157179516,
                1.2839475589980451
            ]
        },
        {
            "positions": [
                -2.611235037324424,
                -1.1756583289105527,
                1.9150263693892207,
                -0.1343828272539489,
                0.8380794175430092,
                1.5147635191827713
            ]
        },
        {
            "positions": [
                -2.591457808374863,
                -1.1740369327749896,
                1.929147586535501,
                -0.23565983025759651,
                0.8160776779065023,
                1.7455794793674984
            ]
        },
        {
            "positions": [
                -2.5716805794253026,
                -1.1724155366394264,
                1.9432688036817813,
                -0.33693683326124413,
                0.7940759382699955,
                1.9763954395522245
            ]
        },
        {
            "positions": [
                -2.5519033504757416,
                -1.1707941405038633,
                1.9573900208280617,
                -0.4382138362648913,
                0.7720741986334887,
                2.2072113997369507
            ]
        },
        {
            "positions": [
                -2.532126121526181,
                -1.1691727443683004,
                1.971511237974342,
                -0.5394908392685385,
                0.7500724589969818,
                2.438027359921677
            ]
        },
        {
            "positions": [
                -2.51234889257662,
                -1.1675513482327373,
                1.9856324551206224,
                -0.6407678422721861,
                0.7280707193604748,
                2.668843320106403
            ]
        },
        {
            "positions": [
                -2.492571663627059,
                -1.1659299520971742,
                1.9997536722669027,
                -0.7420448452758337,
                0.7060689797239681,
                2.899659280291129
            ]
        },
        {
            "positions": [
                -2.4727944346774984,
                -1.164308555961611,
                2.013874889413183,
                -0.8433218482794808,
                0.6840672400874612,
                3.130475240475856
            ]
        }
    ]
}