{
    "goal": {
        "global_pose": {
            "orientation": {
                "w": 0.005598929693374612,
                "x": 0.007748599140229565,
                "y": 0.7110244013736278,
                "z": -0.7031023480610252
            },
            "position": {
                "x": 0.1141497679147869,
                "y": -0.7141253447532654,
                "z": 0.3711530566215515
            }
        },
        "name": "move_to_auspresseinheit_B"
    },
    "id": "BKPIECE_move_to_auspresseinheit_B_126",
    "joint_names": [
        "shoulder_pan_joint",
        "shoulder_lift_joint",
        "elbow_joint",
        "wrist_1_joint",
        "wrist_2_joint",
        "wrist_3_joint"
    ],
    "metrics": {
        "cart_traj_len": 0.5642557759866905,
        "distance_elbow_joint": 0.06628127260134509,
        "distance_shoulder_lift_joint": 0.293233932449914,
        "distance_shoulder_pan_joint": 0.5757578255963631,
        "distance_wrist_1_joint": 0.3375845308564941,
        "distance_wrist_2_joint": 0.9950445472161029,
        "distance_wrist_3_joint": 0.004919949885251906,
        "smoothness": 0.0,
        "time": 0.713715745,
        "traj_len": 1.5075881594803904,
        "weighted_distance": 1.901391868197761
    },
    "planner": "BKPIECE",
    "start": {
        "state": {
            "elbow_joint": 2.019306165916698,
            "shoulder_lift_joint": -1.1220205098164344,
            "shoulder_pan_joint": -1.095207207618794,
            "wrist_1_joint": -0.8559671824921639,
            "wrist_2_joint": 0.47596387242952726,
            "wrist_3_joint": 3.159081874673826
        }
    },
    "waypoints": [
        {
            "positions": [
                -1.095207207618794,
                -1.1220205098164344,
                2.019306165916698,
                -0.8559671824921639,
                0.47596387242952726,
                3.159081874673826
            ]
        },
        {
            "positions": [
                -1.1911668452181878,
                -1.17089283189142,
                2.0082592871498073,
                -0.7997030940160815,
                0.6418046302988778,
                3.1582618830262836
            ]
        },
        {
            "positions": [
                -1.2871264828175817,
                -1.2197651539664058,
                1.9972124083829164,
                -0.7434390055399992,
                0.8076453881682282,
                3.157441891378742
            ]
        },
        {
            "positions": [
                -1.3830861204169755,
                -1.2686374760413914,
                1.9861655296160254,
                -0.6871749170639168,
                0.9734861460375788,
                3.1566218997312
            ]
        },
        {
            "positions": [
                -1.4790457580163694,
                -1.317509798116377,
                1.9751186508491345,
                -0.6309108285878344,
                1.1393269039069291,
                3.155801908083658
            ]
        },
        {
            "positions": [
                -1.5750053956157632,
                -1.3663821201913628,
                1.9640717720822438,
                -0.5746467401117521,
                1.3051676617762797,
                3.1549819164361157
            ]
        },
        {
            "positions": [
                -1.670965033215157,
                -1.4152544422663484,
                1.953024893315353,
                -0.5183826516356698,
                1.4710084196456301,
                3.154161924788574
            ]
        }
    ]
}