{
    "goal": {
        "global_pose": {
            "orientation": {
                "w": 0.5084816262002911,
                "x": -0.4908360881923452,
                "y": 0.5182115481033761,
                "z": -0.48164630358495003
            },
            "position": {
                "x": 0.5540239810943604,
                "y": -0.46912469901144505,
                "z": 0.16403168439865112
            }
        },
        "name": "move_to_storage_B"
    },
    "id": "BKPIECE_move_to_storage_B_59",
    "joint_names": [
        "shoulder_pan_joint",
        "shoulder_lift_joint",
        "elbow_joint",
        "wrist_1_joint",
        "wrist_2_joint",
        "wrist_3_joint"
    ],
    "metrics": {
        "cart_traj_len": 1.1504969773989744,
        "distance_elbow_joint": 0.4705185764905486,
        "distance_shoulder_lift_joint": 0.4592596324011393,
        "distance_shoulder_pan_joint": 1.1796449356237897,
        "distance_wrist_1_joint": 2.986359963928189,
        "distance_wrist_2_joint": 2.709129392793682,
        "distance_wrist_3_joint": 3.1304260625914884,
        "smoothness": 0.11587533215051232,
        "time": 1.083800934,
        "traj_len": 3.306862344251547,
        "weighted_distance": 4.7845250595783995
    },
    "planner": "BKPIECE",
    "start": {
        "state": {
            "elbow_joint": 1.6649325706314817,
            "shoulder_lift_joint": -0.6616388048112454,
            "shoulder_pan_joint": -0.9139837860083814,
            "wrist_1_joint": 2.146757197745094,
            "wrist_2_joint": -2.234196043158733,
            "wrist_3_joint": 0.005471033829999897
        }
    },
    "waypoints": [
        {
            "positions": [
                -0.9139837860083814,
                -0.6616388048112454,
                1.6649325706314817,
                2.146757197745094,
                -2.234196043158733,
                0.005471033829999897
            ]
        },
        {
            "positions": [
                -0.8515793665244903,
                -0.6696208176929673,
                1.657522069719988,
                2.08305376533218,
                -2.095621770079565,
                0.09050036550705454
            ]
        },
        {
            "positions": [
                -0.7891749470405992,
                -0.6776028305746893,
                1.6501115688084942,
                2.0193503329192657,
                -1.9570474970003966,
                0.17552969718410916
            ]
        },
        {
            "positions": [
                -0.7267705275567082,
                -0.6855848434564111,
                1.6427010678970004,
                1.9556469005063515,
                -1.8184732239212285,
                0.26055902886116383
            ]
        },
        {
            "positions": [
                -0.6643661080728172,
                -0.6935668563381331,
                1.6352905669855065,
                1.8919434680934373,
                -1.6798989508420603,
                0.34558836053821845
            ]
        },
        {
            "positions": [
                -0.6019616885889261,
                -0.701548869219855,
                1.6278800660740127,
                1.828240035680523,
                -1.5413246777628922,
                0.4306176922152731
            ]
        },
        {
            "positions": [
                -0.539557269105035,
                -0.7095308821015769,
                1.620469565162519,
                1.7645366032676089,
                -1.402750404683724,
                0.5156470238923277
            ]
        },
        {
            "positions": [
                -0.4771528496211439,
                -0.7175128949832988,
                1.6130590642510252,
                1.7008331708546947,
                -1.2641761316045559,
                0.6006763555693824
            ]
        },
        {
            "positions": [
                -0.4147484301372528,
                -0.7254949078650208,
                1.6056485633395314,
                1.6371297384417804,
                -1.1256018585253877,
                0.685705687246437
            ]
        },
        {
            "positions": [
                -0.44714888631595096,
                -0.7443236473577524,
                1.625231161872798,
                1.5191900953644055,
                -1.0493858962320384,
                0.8023814686357251
            ]
        },
        {
            "positions": [
                -0.4795493424946491,
                -0.763152386850484,
                1.6448137604060646,
                1.4012504522870306,
                -0.973169933938689,
                0.9190572500250133
            ]
        },
        {
            "positions": [
                -0.5119497986733472,
                -0.7819811263432156,
                1.6643963589393311,
                1.2833108092096555,
                -0.8969539716453396,
                1.0357330314143014
            ]
        },
        {
            "positions": [
                -0.5443502548520454,
                -0.8008098658359473,
                1.6839789574725978,
                1.1653711661322805,
                -0.8207380093519903,
                1.1524088128035896
            ]
        },
        {
            "positions": [
                -0.5767507110307435,
                -0.8196386053286788,
                1.7035615560058643,
                1.0474315230549056,
                -0.7445220470586409,
                1.2690845941928777
            ]
        },
        {
            "positions": [
                -0.6091511672094416,
                -0.8384673448214105,
                1.723144154539131,
                0.9294918799775306,
                -0.6683060847652916,
                1.3857603755821657
            ]
        },
        {
            "positions": [
                -0.6415516233881398,
                -0.8572960843141421,
                1.7427267530723975,
                0.8115522369001557,
                -0.5920901224719423,
                1.502436156971454
            ]
        },
        {
            "positions": [
                -0.6739520795668379,
                -0.8761248238068737,
                1.762309351605664,
                0.6936125938227807,
                -0.5158741601785929,
                1.6191119383607422
            ]
        },
        {
            "positions": [
                -0.706352535745536,
                -0.8949535632996053,
                1.7818919501389308,
                0.5756729507454057,
                -0.4396581978852435,
                1.73578771975003
            ]
        },
        {
            "positions": [
                -0.7387529919242343,
                -0.913782302792337,
                1.8014745486721973,
                0.4577333076680308,
                -0.36344223559189415,
                1.8524635011393182
            ]
        },
        {
            "positions": [
                -0.7711534481029324,
                -0.9326110422850685,
                1.821057147205464,
                0.33979366459065563,
                -0.2872262732985448,
                1.9691392825286065
            ]
        },
        {
            "positions": [
                -0.8035539042816305,
                -0.9514397817778002,
                1.8406397457387305,
                0.2218540215132807,
                -0.21101031100519552,
                2.0858150639178947
            ]
        },
        {
            "positions": [
                -0.8359543604603288,
                -0.9702685212705318,
                1.860222344271997,
                0.10391437843590579,
                -0.13479434871184603,
                2.202490845307183
            ]
        },
        {
            "positions": [
                -0.8683548166390268,
                -0.9890972607632633,
                1.8798049428052637,
                -0.014025264641469137,
                -0.058578386418496775,
                2.319166626696471
            ]
        },
        {
            "positions": [
                -0.900755272817725,
                -1.007926000255995,
                1.8993875413385304,
                -0.13196490771884428,
                0.017637575874852596,
                2.435842408085759
            ]
        },
        {
            "positions": [
                -0.9331557289964231,
                -1.0267547397487267,
                1.9189701398717969,
                -0.24990455079621898,
                0.09385353816820197,
                2.5525181894750473
            ]
        },
        {
            "positions": [
                -0.9655561851751213,
                -1.0455834792414582,
                1.9385527384050634,
                -0.36784419387359435,
                0.17006950046155134,
                2.6691939708643355
            ]
        },
        {
            "positions": [
                -0.9979566413538193,
                -1.0644122187341898,
                1.95813533693833,
                -0.48578383695096905,
                0.2462854627549007,
                2.7858697522536233
            ]
        },
        {
            "positions": [
                -1.0303570975325176,
                -1.0832409582269213,
                1.9777179354715966,
                -0.6037234800283442,
                0.3225014250482501,
                2.902545533642912
            ]
        },
        {
            "positions": [
                -1.0627575537112157,
                -1.1020696977196531,
                1.997300534004863,
                -0.7216631231057189,
                0.39871738734159945,
                3.0192213150322
            ]
        },
        {
            "positions": [
                -1.0951580098899139,
                -1.1208984372123847,
                2.01688313253813,
                -0.839602766183094,
                0.47493334963494876,
                3.135897096421488
            ]
        }
    ]
}