{
    "goal": {
        "global_pose": {
            "orientation": {
                "w": 0.005598929693374612,
                "x": 0.007748599140229565,
                "y": 0.7110244013736278,
                "z": -0.7031023480610252
            },
            "position": {
                "x": -0.8858502320852131,
                "y": -0.7141253447532654,
                "z": 0.3711530566215515
            }
        },
        "name": "move_to_auspresseinheit_C"
    },
    "id": "BKPIECE_move_to_auspresseinheit_C_13",
    "joint_names": [
        "shoulder_pan_joint",
        "shoulder_lift_joint",
        "elbow_joint",
        "wrist_1_joint",
        "wrist_2_joint",
        "wrist_3_joint"
    ],
    "metrics": {
        "cart_traj_len": 0.4929050917365815,
        "distance_elbow_joint": 1.0079407576613315,
        "distance_shoulder_lift_joint": 0.3285770590890631,
        "distance_shoulder_pan_joint": 0.25568015630664975,
        "distance_wrist_1_joint": 0.6984820026864492,
        "distance_wrist_2_joint": 1.3156120005130125,
        "distance_wrist_3_joint": 0.07407749233462368,
        "smoothness": 4.844609574787718e-16,
        "time": 0.9298101999999999,
        "traj_len": 1.9184289063166062,
        "weighted_distance": 2.4171508965018793
    },
    "planner": "BKPIECE",
    "start": {
        "state": {
            "elbow_joint": 1.752795957773711,
            "shoulder_lift_joint": -0.9740617694225064,
            "shoulder_pan_joint": -2.967991417825858,
            "wrist_1_joint": -0.7595177689806859,
            "wrist_2_joint": 1.7443932448377395,
            "wrist_3_joint": 3.199131542505932
        }
    },
    "waypoints": [
        {
            "positions": [
                -2.967991417825858,
                -0.9740617694225064,
                1.752795957773711,
                -0.7595177689806859,
                1.7443932448377395,
                3.199131542505932
            ]
        },
        {
            "positions": [
                -2.942423402195193,
                -0.9412040635136001,
                1.652001882007578,
                -0.689669568712041,
                1.6128320447864382,
                3.1917237932724696
            ]
        },
        {
            "positions": [
                -2.916855386564528,
                -0.9083463576046938,
                1.5512078062414447,
                -0.6198213684433961,
                1.481270844735137,
                3.1843160440390075
            ]
        },
        {
            "positions": [
                -2.891287370933863,
                -0.8754886516957875,
                1.4504137304753117,
                -0.5499731681747512,
                1.3497096446838357,
                3.176908294805545
            ]
        },
        {
            "positions": [
                -2.865719355303198,
                -0.8426309457868812,
                1.3496196547091786,
                -0.4801249679061062,
                1.2181484446325346,
                3.169500545572083
            ]
        },
        {
            "positions": [
                -2.8401513396725333,
                -0.8097732398779749,
                1.2488255789430454,
                -0.4102767676374613,
                1.0865872445812332,
                3.1620927963386203
            ]
        },
        {
            "positions": [
                -2.8145833240418683,
                -0.7769155339690685,
                1.1480315031769122,
                -0.3404285673688164,
                0.955026044529932,
                3.1546850471051577
            ]
        },
        {
            "positions": [
                -2.7890153084112033,
                -0.7440578280601623,
                1.0472374274107792,
                -0.27058036710017147,
                0.8234648444786308,
                3.1472772978716956
            ]
        },
        {
            "positions": [
                -2.7634472927805382,
                -0.7112001221512559,
                0.9464433516446459,
                -0.2007321668315265,
                0.6919036444273294,
                3.139869548638233
            ]
        },
        {
            "positions": [
                -2.7378792771498732,
                -0.6783424162423497,
                0.8456492758785127,
                -0.1308839665628816,
                0.5603424443760281,
                3.132461799404771
            ]
        },
        {
            "positions": [
                -2.712311261519208,
                -0.6454847103334433,
                0.7448552001123796,
                -0.061035766294236724,
                0.4287812443247269,
                3.1250540501713084
            ]
        }
    ]
}