{
    "goal": {
        "global_pose": {
            "orientation": {
                "w": -0.4816463035849501,
                "x": 0.5182115481033762,
                "y": 0.4908360881923453,
                "z": -0.5084816262002911
            },
            "position": {
                "x": -0.8240239810943604,
                "y": -0.300875300988555,
                "z": 0.16403168439865112
            }
        },
        "name": "move_to_storage_C"
    },
    "id": "BKPIECE_move_to_storage_C_110",
    "joint_names": [
        "shoulder_pan_joint",
        "shoulder_lift_joint",
        "elbow_joint",
        "wrist_1_joint",
        "wrist_2_joint",
        "wrist_3_joint"
    ],
    "metrics": {
        "cart_traj_len": 0.5772394347044262,
        "distance_elbow_joint": 0.26036528757463295,
        "distance_shoulder_lift_joint": 0.19032196308100324,
        "distance_shoulder_pan_joint": 0.49517721943731896,
        "distance_wrist_1_joint": 0.08673987467797084,
        "distance_wrist_2_joint": 1.0683982102389393,
        "distance_wrist_3_joint": 0.06593236589692975,
        "smoothness": 0.0,
        "time": 1.174516612,
        "traj_len": 1.4720512630023437,
        "weighted_distance": 1.8584772631424806
    },
    "planner": "BKPIECE",
    "start": {
        "state": {
            "elbow_joint": 2.010868315001653,
            "shoulder_lift_joint": -1.1634956873357014,
            "shoulder_pan_joint": -2.4736205022346103,
            "wrist_1_joint": -0.8367026794713948,
            "wrist_2_joint": 0.6746043897044093,
            "wrist_3_joint": 3.1335220948105738
        }
    },
    "waypoints": [
        {
            "positions": [
                -2.4736205022346103,
                -1.1634956873357014,
                2.010868315001653,
                -0.8367026794713948,
                0.6746043897044093,
                3.1335220948105738
            ]
        },
        {
            "positions": [
                -2.556150038807497,
                -1.1317753601555343,
                1.9674741004058809,
                -0.822246033691733,
                0.8526707580775659,
                3.144510822460062
            ]
        },
        {
            "positions": [
                -2.638679575380383,
                -1.100055032975367,
                1.9240798858101087,
                -0.8077893879120711,
                1.0307371264507224,
                3.15549955010955
            ]
        },
        {
            "positions": [
                -2.7212091119532698,
                -1.0683347057951997,
                1.8806856712143367,
                -0.7933327421324093,
                1.2088034948238788,
                3.1664882777590386
            ]
        },
        {
            "positions": [
                -2.8037386485261564,
                -1.0366143786150326,
                1.8372914566185645,
                -0.7788760963527476,
                1.3868698631970355,
                3.177477005408527
            ]
        },
        {
            "positions": [
                -2.8862681850990426,
                -1.0048940514348654,
                1.7938972420227923,
                -0.7644194505730857,
                1.5649362315701922,
                3.188465733058015
            ]
        },
        {
            "positions": [
                -2.9687977216719292,
                -0.9731737242546982,
                1.7505030274270201,
                -0.7499628047934239,
                1.7430025999433487,
                3.1994544607075035
            ]
        }
    ]
}