{
    "goal": {
        "global_pose": {
            "orientation": {
                "w": 0.005598929693374612,
                "x": 0.007748599140229565,
                "y": 0.7110244013736278,
                "z": -0.7031023480610252
            },
            "position": {
                "x": -0.8858502320852131,
                "y": -0.7141253447532654,
                "z": 0.3711530566215515
            }
        },
        "name": "move_to_auspresseinheit_C"
    },
    "id": "BKPIECE_move_to_auspresseinheit_C_104",
    "joint_names": [
        "shoulder_pan_joint",
        "shoulder_lift_joint",
        "elbow_joint",
        "wrist_1_joint",
        "wrist_2_joint",
        "wrist_3_joint"
    ],
    "metrics": {
        "cart_traj_len": 0.4939515879762065,
        "distance_elbow_joint": 1.0189996362772957,
        "distance_shoulder_lift_joint": 0.33372320132405475,
        "distance_shoulder_pan_joint": 0.2556972707527678,
        "distance_wrist_1_joint": 0.7172360210106387,
        "distance_wrist_2_joint": 1.3214589667028822,
        "distance_wrist_3_joint": 0.08368139898146199,
        "smoothness": 1.1304089041936764e-15,
        "time": 1.076767794,
        "traj_len": 1.9315269853276968,
        "weighted_distance": 2.436566083800221
    },
    "planner": "BKPIECE",
    "start": {
        "state": {
            "elbow_joint": 1.752795957773711,
            "shoulder_lift_joint": -0.9740617694225064,
            "shoulder_pan_joint": -2.967991417825858,
            "wrist_1_joint": -0.7595177689806859,
            "wrist_2_joint": 1.7443932448377395,
            "wrist_3_joint": 3.199131542505932
        }
    },
    "waypoints": [
        {
            "positions": [
                -2.967991417825858,
                -0.9740617694225064,
                1.752795957773711,
                -0.7595177689806859,
                1.7443932448377395,
                3.199131542505932
            ]
        },
        {
            "positions": [
                -2.942421690750581,
                -0.940689449290101,
                1.6508959941459815,
                -0.687794166879622,
                1.6122473481674513,
                3.190763402607786
            ]
        },
        {
            "positions": [
                -2.9168519636753043,
                -0.9073171291576955,
                1.548996030518252,
                -0.6160705647785581,
                1.480101451497163,
                3.18239526270964
            ]
        },
        {
            "positions": [
                -2.8912822366000275,
                -0.87394480902529,
                1.4470960668905224,
                -0.5443469626774943,
                1.347955554826875,
                3.1740271228114936
            ]
        },
        {
            "positions": [
                -2.8657125095247507,
                -0.8405724888928845,
                1.3451961032627928,
                -0.47262336057643045,
                1.2158096581565867,
                3.1656589829133472
            ]
        },
        {
            "positions": [
                -2.8401427824494743,
                -0.8072001687604791,
                1.2432961396350632,
                -0.4008997584753666,
                1.0836637614862985,
                3.1572908430152014
            ]
        },
        {
            "positions": [
                -2.8145730553741974,
                -0.7738278486280736,
                1.1413961760073337,
                -0.3291761563743027,
                0.9515178648160102,
                3.148922703117055
            ]
        },
        {
            "positions": [
                -2.7890033282989206,
                -0.7404555284956681,
                1.039496212379604,
                -0.2574525542732389,
                0.819371968145722,
                3.1405545632189087
            ]
        },
        {
            "positions": [
                -2.763433601223644,
                -0.7070832083632625,
                0.9375962487518745,
                -0.185728952172175,
                0.6872260714754337,
                3.1321864233207624
            ]
        },
        {
            "positions": [
                -2.737863874148367,
                -0.6737108882308571,
                0.835696285124145,
                -0.11400535007111112,
                0.5550801748051455,
                3.1238182834226165
            ]
        },
        {
            "positions": [
                -2.71229414707309,
                -0.6403385680984517,
                0.7337963214964155,
                -0.04228174797004726,
                0.4229342781348573,
                3.11545014352447
            ]
        }
    ]
}