{
    "goal": {
        "global_pose": {
            "orientation": {
                "w": 0.7047431493862688,
                "x": -0.7094548369677653,
                "y": 0.0024358444001904,
                "z": -0.0022348060817251984
            },
            "position": {
                "x": -0.39052492380142206,
                "y": 0.3671506643295288,
                "z": 0.19426114857196808
            }
        },
        "name": "move_to_magneteinheit_D"
    },
    "id": "BKPIECE_move_to_magneteinheit_D_49",
    "joint_names": [
        "shoulder_pan_joint",
        "shoulder_lift_joint",
        "elbow_joint",
        "wrist_1_joint",
        "wrist_2_joint",
        "wrist_3_joint"
    ],
    "metrics": {
        "cart_traj_len": 7.984502392108586,
        "distance_elbow_joint": 10.259684515977161,
        "distance_shoulder_lift_joint": 2.43502525556808,
        "distance_shoulder_pan_joint": 8.23796473802884,
        "distance_wrist_1_joint": 8.273917337696032,
        "distance_wrist_2_joint": 7.259260586041896,
        "distance_wrist_3_joint": 5.5196781676119695,
        "smoothness": 0.5217557607678411,
        "time": 0.916209936,
        "traj_len": 6.4796242638693204,
        "weighted_distance": 8.279979762045672
    },
    "planner": "BKPIECE",
    "start": {
        "state": {
            "elbow_joint": 0.7495348899011973,
            "shoulder_lift_joint": -0.6476975780737697,
            "shoulder_pan_joint": -2.711696901376276,
            "wrist_1_joint": -0.07506478080974305,
            "wrist_2_joint": 0.4329665971545858,
            "wrist_3_joint": 3.1361499051832524
        }
    },
    "waypoints": [
        {
            "positions": [
                -2.711696901376276,
                -0.6476975780737697,
                0.7495348899011973,
                -0.07506478080974305,
                0.4329665971545858,
                3.1361499051832524
            ]
        },
        {
            "positions": [
                -2.7447642062791155,
                -0.7186527994431796,
                0.7688669564883511,
                -0.18402498846800014,
                0.3689952547062836,
                3.090918435037642
            ]
        },
        {
            "positions": [
                -2.777831511181955,
                -0.7896080208125894,
                0.7881990230755048,
                -0.2929851961262573,
                0.3050239122579814,
                3.045686964892032
            ]
        },
        {
            "positions": [
                -2.8108988160847943,
                -0.8605632421819993,
                0.8075310896626586,
                -0.4019454037845144,
                0.2410525698096792,
                3.0004554947464217
            ]
        },
        {
            "positions": [
                -2.714359507646866,
                -0.9084290987730498,
                0.7251479734731542,
                -0.35733845463132846,
                0.24088944035247664,
                2.8882773210421004
            ]
        },
        {
            "positions": [
                -2.617820199208937,
                -0.9562949553641003,
                0.6427648572836497,
                -0.31273150547814255,
                0.24072631089527408,
                2.776099147337779
            ]
        },
        {
            "positions": [
                -2.5212808907710085,
                -1.0041608119551506,
                0.5603817410941454,
                -0.26812455632495663,
                0.2405631814380715,
                2.663920973633458
            ]
        },
        {
            "positions": [
                -2.4247415823330796,
                -1.0520266685462012,
                0.47799862490464096,
                -0.22351760717177072,
                0.24040005198086897,
                2.551742799929136
            ]
        },
        {
            "positions": [
                -2.328202273895151,
                -1.0998925251372516,
                0.39561550871513657,
                -0.1789106580185848,
                0.2402369225236664,
                2.439564626224815
            ]
        },
        {
            "positions": [
                -2.231662965457222,
                -1.147758381728302,
                0.3132323925256322,
                -0.13430370886539889,
                0.24007379306646384,
                2.3273864525204937
            ]
        },
        {
            "positions": [
                -2.1351236570192937,
                -1.1956242383193525,
                0.23084927633612773,
                -0.08969675971221297,
                0.23991066360926128,
                2.2152082788161724
            ]
        },
        {
            "positions": [
                -2.038584348581365,
                -1.2434900949104029,
                0.14846616014662328,
                -0.045089810559027055,
                0.2397475341520587,
                2.103030105111851
            ]
        },
        {
            "positions": [
                -1.9420450401434364,
                -1.2913559515014534,
                0.06608304395711884,
                -0.00048286140584113957,
                0.23958440469485615,
                1.9908519314075297
            ]
        },
        {
            "positions": [
                -1.8455057317055077,
                -1.3392218080925038,
                -0.0163000722323855,
                0.044124087747344776,
                0.23942127523765358,
                1.8786737577032084
            ]
        },
        {
            "positions": [
                -1.748966423267579,
                -1.3870876646835542,
                -0.09868318842188994,
                0.08873103690053069,
                0.23925814578045101,
                1.7664955839988872
            ]
        },
        {
            "positions": [
                -1.6524271148296503,
                -1.4349535212746045,
                -0.18106630461139428,
                0.1333379860537166,
                0.23909501632324848,
                1.654317410294566
            ]
        },
        {
            "positions": [
                -1.5558878063917216,
                -1.4828193778656553,
                -0.26344942080089884,
                0.17794493520690258,
                0.2389318868660459,
                1.5421392365902444
            ]
        },
        {
            "positions": [
                -1.459348497953793,
                -1.5306852344567057,
                -0.34583253699040317,
                0.22255188436008844,
                0.23876875740884335,
                1.4299610628859232
            ]
        },
        {
            "positions": [
                -1.3628091895158645,
                -1.578551091047756,
                -0.4282156531799075,
                0.2671588335132743,
                0.23860562795164078,
                1.317782889181602
            ]
        },
        {
            "positions": [
                -1.2662698810779356,
                -1.6264169476388064,
                -0.5105987693694121,
                0.31176578266646027,
                0.23844249849443822,
                1.2056047154772804
            ]
        },
        {
            "positions": [
                -1.1697305726400071,
                -1.674282804229857,
                -0.5929818855589164,
                0.3563727318196461,
                0.23827936903723565,
                1.0934265417729594
            ]
        },
        {
            "positions": [
                -1.0731912642020782,
                -1.7221486608209076,
                -0.675365001748421,
                0.4009796809728321,
                0.23811623958003308,
                0.9812483680686377
            ]
        },
        {
            "positions": [
                -0.9766519557641498,
                -1.770014517411958,
                -0.7577481179379253,
                0.44558663012601807,
                0.23795311012283055,
                0.8690701943643164
            ]
        },
        {
            "positions": [
                -0.8801126473262211,
                -1.8178803740030083,
                -0.8401312341274296,
                0.49019357927920393,
                0.23778998066562798,
                0.7568920206599952
            ]
        },
        {
            "positions": [
                -0.7835733388882922,
                -1.8657462305940589,
                -0.9225143503169342,
                0.5348005284323899,
                0.23762685120842542,
                0.6447138469556739
            ]
        },
        {
            "positions": [
                -0.6870340304503637,
                -1.9136120871851092,
                -1.0048974665064385,
                0.5794074775855758,
                0.23746372175122285,
                0.5325356732513526
            ]
        },
        {
            "positions": [
                -0.6055969135117768,
                -1.9321954450730028,
                -0.9172176405414011,
                0.503953261354068,
                0.1494702212085143,
                0.48952402649135696
            ]
        },
        {
            "positions": [
                -0.52415979657319,
                -1.9507788029608961,
                -0.8295378145763637,
                0.42849904512256026,
                0.061476720665805756,
                0.44651237973136126
            ]
        },
        {
            "positions": [
                -0.4427226796346031,
                -1.9693621608487897,
                -0.7418579886113263,
                0.35304482889105254,
                -0.02651677987690279,
                0.40350073297136557
            ]
        },
        {
            "positions": [
                -0.36128556269601625,
                -1.9879455187366832,
                -0.6541781626462888,
                0.27759061265954477,
                -0.11451028041961134,
                0.3604890862113698
            ]
        },
        {
            "positions": [
                -0.2798484457574294,
                -2.006528876624577,
                -0.5664983366812515,
                0.20213639642803705,
                -0.20250378096231988,
                0.31747743945137413
            ]
        },
        {
            "positions": [
                -0.19841132881884255,
                -2.0251122345124704,
                -0.47881851071621406,
                0.12668218019652933,
                -0.2904972815050284,
                0.27446579269137844
            ]
        },
        {
            "positions": [
                -0.1169742118802557,
                -2.0436955924003635,
                -0.39113868475117675,
                0.051227963965021606,
                -0.3784907820477369,
                0.23145414593138275
            ]
        },
        {
            "positions": [
                -0.03553709494166879,
                -2.062278950288257,
                -0.3034588587861392,
                -0.024226252266486226,
                -0.4664842825904455,
                0.188442499171387
            ]
        },
        {
            "positions": [
                0.04590002199691812,
                -2.0808623081761506,
                -0.2157790328211019,
                -0.09968046849799395,
                -0.5544777831331541,
                0.1454308524113913
            ]
        },
        {
            "positions": [
                0.1273371389355049,
                -2.099445666064044,
                -0.12809920685606446,
                -0.17513468472950167,
                -0.6424712836758626,
                0.10241920565139562
            ]
        },
        {
            "positions": [
                0.20877425587409182,
                -2.1180290239519377,
                -0.040419380891026924,
                -0.2505889009610095,
                -0.7304647842185712,
                0.05940755889139987
            ]
        },
        {
            "positions": [
                0.2902113728126786,
                -2.1366123818398313,
                0.04726044507401039,
                -0.3260431171925171,
                -0.8184582847612797,
                0.016395912131404233
            ]
        },
        {
            "positions": [
                0.3716484897512655,
                -2.1551957397277244,
                0.1349402710390477,
                -0.40149733342402494,
                -0.9064517853039883,
                -0.02661573462859146
            ]
        },
        {
            "positions": [
                0.4530856066898523,
                -2.173779097615618,
                0.22262009700408503,
                -0.47695154965553255,
                -0.9944452858466967,
                -0.06962738138858715
            ]
        },
        {
            "positions": [
                0.5345227236284393,
                -2.1923624555035115,
                0.31029992296912257,
                -0.5524057658870403,
                -1.0824387863894054,
                -0.11263902814858295
            ]
        },
        {
            "positions": [
                0.6159598405670261,
                -2.210945813391405,
                0.3979797489341601,
                -0.6278599821185482,
                -1.170432286932114,
                -0.15565067490857865
            ]
        },
        {
            "positions": [
                0.6973969575056129,
                -2.2295291712792986,
                0.4856595748991974,
                -0.7033141983500559,
                -1.2584257874748226,
                -0.19866232166857434
            ]
        },
        {
            "positions": [
                0.7788340744441999,
                -2.248112529167192,
                0.5733394008642347,
                -0.7787684145815637,
                -1.3464192880175312,
                -0.24167396842857003
            ]
        },
        {
            "positions": [
                0.8602711913827865,
                -2.2666958870550853,
                0.661019226829272,
                -0.8542226308130714,
                -1.4344127885602396,
                -0.2846856151885657
            ]
        },
        {
            "positions": [
                0.9417083083213735,
                -2.285279244942979,
                0.7486990527943096,
                -0.9296768470445791,
                -1.5224062891029482,
                -0.3276972619485614
            ]
        },
        {
            "positions": [
                1.0231454252599606,
                -2.3038626028308724,
                0.8363788787593471,
                -1.0051310632760868,
                -1.6103997896456568,
                -0.3707089087085571
            ]
        },
        {
            "positions": [
                1.1045825421985473,
                -2.322445960718766,
                0.9240587047243847,
                -1.0805852795075948,
                -1.6983932901883654,
                -0.4137205554685529
            ]
        },
        {
            "positions": [
                1.186019659137134,
                -2.3410293186066595,
                1.0117385306894215,
                -1.1560394957391023,
                -1.7863867907310738,
                -0.4567322022285485
            ]
        },
        {
            "positions": [
                1.267456776075721,
                -2.359612676494553,
                1.0994183566544593,
                -1.23149371197061,
                -1.8743802912737824,
                -0.4997438489885442
            ]
        },
        {
            "positions": [
                1.3488938930143077,
                -2.378196034382446,
                1.1870981826194966,
                -1.306947928202118,
                -1.962373791816491,
                -0.5427554957485399
            ]
        },
        {
            "positions": [
                1.4303310099528947,
                -2.3967793922703398,
                1.274778008584534,
                -1.3824021444336256,
                -2.0503672923591996,
                -0.5857671425085356
            ]
        },
        {
            "positions": [
                1.5117681268914818,
                -2.4153627501582333,
                1.3624578345495717,
                -1.4578563606651334,
                -2.138360792901908,
                -0.6287787892685315
            ]
        },
        {
            "positions": [
                1.5932052438300683,
                -2.433946108046127,
                1.4501376605146086,
                -1.5333105768966409,
                -2.2263542934446163,
                -0.671790436028527
            ]
        },
        {
            "positions": [
                1.6746423607686554,
                -2.4525294659340204,
                1.5378174864796463,
                -1.6087647931281488,
                -2.314347793987325,
                -0.7148020827885226
            ]
        },
        {
            "positions": [
                1.7560794777072424,
                -2.4711128238219136,
                1.6254973124446837,
                -1.6842190093596563,
                -2.4023412945300335,
                -0.7578137295485186
            ]
        },
        {
            "positions": [
                1.837516594645829,
                -2.4896961817098076,
                1.713177138409721,
                -1.7596732255911642,
                -2.490334795072742,
                -0.8008253763085142
            ]
        },
        {
            "positions": [
                1.918953711584416,
                -2.5082795395977007,
                1.8008569643747587,
                -1.8351274418226722,
                -2.5783282956154507,
                -0.8438370230685099
            ]
        },
        {
            "positions": [
                2.0003908285230025,
                -2.5268628974855942,
                1.8885367903397956,
                -1.9105816580541797,
                -2.6663217961581593,
                -0.8868486698285054
            ]
        },
        {
            "positions": [
                2.0818279454615896,
                -2.545446255373488,
                1.9762166163048334,
                -1.9860358742856876,
                -2.754315296700868,
                -0.9298603165885013
            ]
        },
        {
            "positions": [
                2.1632650624001766,
                -2.5640296132613813,
                2.0638964422698707,
                -2.061490090517195,
                -2.8423087972435765,
                -0.972871963348497
            ]
        },
        {
            "positions": [
                2.2447021793387636,
                -2.582612971149275,
                2.151576268234908,
                -2.136944306748703,
                -2.930302297786285,
                -1.0158836101084927
            ]
        },
        {
            "positions": [
                2.32613929627735,
                -2.601196329037168,
                2.2392560941999458,
                -2.212398522980211,
                -3.0182957983289938,
                -1.0588952568684884
            ]
        },
        {
            "positions": [
                2.4075764132159367,
                -2.6197796869250616,
                2.3269359201649826,
                -2.2878527392117185,
                -3.106289298871702,
                -1.101906903628484
            ]
        },
        {
            "positions": [
                2.4890135301545238,
                -2.638363044812955,
                2.4146157461300204,
                -2.363306955443226,
                -3.1942827994144105,
                -1.1449185503884798
            ]
        },
        {
            "positions": [
                2.5704506470931108,
                -2.6569464027008487,
                2.5022955720950577,
                -2.438761171674734,
                -3.282276299957119,
                -1.1879301971484755
            ]
        },
        {
            "positions": [
                2.507238312833333,
                -2.647414070732758,
                2.389117808663386,
                -2.3471765115934304,
                -3.198751515091958,
                -1.1607986558236976
            ]
        },
        {
            "positions": [
                2.4440259785735554,
                -2.6378817387646665,
                2.2759400452317147,
                -2.2555918515121274,
                -3.115226730226797,
                -1.1336671144989194
            ]
        },
        {
            "positions": [
                2.3808136443137777,
                -2.6283494067965756,
                2.1627622818000436,
                -2.164007191430824,
                -3.031701945361636,
                -1.1065355731741415
            ]
        },
        {
            "positions": [
                2.317601310054,
                -2.6188170748284842,
                2.049584518368372,
                -2.072422531349521,
                -2.948177160496475,
                -1.0794040318493636
            ]
        },
        {
            "positions": [
                2.2543889757942224,
                -2.6092847428603934,
                1.9364067549367006,
                -1.9808378712682175,
                -2.864652375631314,
                -1.0522724905245855
            ]
        },
        {
            "positions": [
                2.1911766415344447,
                -2.5997524108923025,
                1.823228991505029,
                -1.8892532111869142,
                -2.781127590766153,
                -1.0251409491998076
            ]
        },
        {
            "positions": [
                2.127964307274667,
                -2.590220078924211,
                1.7100512280733575,
                -1.7976685511056107,
                -2.697602805900992,
                -0.9980094078750297
            ]
        },
        {
            "positions": [
                2.0647519730148893,
                -2.5806877469561202,
                1.596873464641686,
                -1.7060838910243077,
                -2.614078021035831,
                -0.9708778665502517
            ]
        },
        {
            "positions": [
                2.0015396387551116,
                -2.5711554149880294,
                1.4836957012100147,
                -1.6144992309430042,
                -2.53055323617067,
                -0.9437463252254736
            ]
        },
        {
            "positions": [
                1.938327304495334,
                -2.561623083019938,
                1.3705179377783432,
                -1.5229145708617011,
                -2.447028451305509,
                -0.9166147839006957
            ]
        },
        {
            "positions": [
                1.8751149702355563,
                -2.552090751051847,
                1.2573401743466717,
                -1.4313299107803976,
                -2.363503666440348,
                -0.8894832425759176
            ]
        },
        {
            "positions": [
                1.8119026359757786,
                -2.542558419083756,
                1.1441624109150004,
                -1.3397452506990943,
                -2.279978881575187,
                -0.8623517012511397
            ]
        },
        {
            "positions": [
                1.748690301716001,
                -2.533026087115665,
                1.0309846474833286,
                -1.248160590617791,
                -2.196454096710026,
                -0.8352201599263617
            ]
        },
        {
            "positions": [
                1.6854779674562232,
                -2.523493755147574,
                0.9178068840516573,
                -1.1565759305364878,
                -2.1129293118448653,
                -0.8080886186015838
            ]
        },
        {
            "positions": [
                1.6222656331964456,
                -2.5139614231794827,
                0.8046291206199858,
                -1.0649912704551843,
                -2.029404526979704,
                -0.7809570772768057
            ]
        },
        {
            "positions": [
                1.5590532989366679,
                -2.504429091211392,
                0.6914513571883145,
                -0.9734066103738812,
                -1.9458797421145433,
                -0.7538255359520278
            ]
        },
        {
            "positions": [
                1.4958409646768902,
                -2.494896759243301,
                0.578273593756643,
                -0.8818219502925777,
                -1.8623549572493823,
                -0.7266939946272497
            ]
        },
        {
            "positions": [
                1.4326286304171125,
                -2.4853644272752096,
                0.4650958303249717,
                -0.7902372902112746,
                -1.7788301723842213,
                -0.6995624533024718
            ]
        },
        {
            "positions": [
                1.3694162961573348,
                -2.4758320953071187,
                0.3519180668933002,
                -0.6986526301299711,
                -1.6953053875190602,
                -0.6724309119776938
            ]
        },
        {
            "positions": [
                1.3062039618975572,
                -2.4662997633390273,
                0.23874030346162867,
                -0.6070679700486681,
                -1.6117806026538992,
                -0.6452993706529159
            ]
        },
        {
            "positions": [
                1.2429916276377795,
                -2.4567674313709364,
                0.12556254002995715,
                -0.5154833099673646,
                -1.5282558177887382,
                -0.6181678293281379
            ]
        },
        {
            "positions": [
                1.1797792933780018,
                -2.4472350994028456,
                0.01238477659828563,
                -0.4238986498860613,
                -1.4447310329235772,
                -0.5910362880033598
            ]
        },
        {
            "positions": [
                1.116566959118224,
                -2.4377027674347542,
                -0.10079298683338589,
                -0.3323139898047578,
                -1.361206248058416,
                -0.5639047466785818
            ]
        },
        {
            "positions": [
                1.0533546248584464,
                -2.4281704354666633,
                -0.21397075026505696,
                -0.24072932972345473,
                -1.2776814631932552,
                -0.5367732053538039
            ]
        },
        {
            "positions": [
                0.9901422905986688,
                -2.418638103498572,
                -0.3271485136967285,
                -0.14914466964215123,
                -1.1941566783280941,
                -0.5096416640290259
            ]
        },
        {
            "positions": [
                0.9269299563388911,
                -2.409105771530481,
                -0.44032627712840045,
                -0.05756000956084817,
                -1.1106318934629331,
                -0.48251012270424787
            ]
        },
        {
            "positions": [
                0.8637176220791132,
                -2.39957343956239,
                -0.553504040560072,
                0.034024650520455335,
                -1.027107108597772,
                -0.45537858137946996
            ]
        },
        {
            "positions": [
                0.8005052878193357,
                -2.390041107594299,
                -0.666681803991743,
                0.1256093106017584,
                -0.9435823237326115,
                -0.42824704005469205
            ]
        },
        {
            "positions": [
                0.737292953559558,
                -2.380508775626208,
                -0.7798595674234146,
                0.2171939706830619,
                -0.8600575388674501,
                -0.40111549872991403
            ]
        },
        {
            "positions": [
                0.6740806192997804,
                -2.370976443658117,
                -0.8930373308550861,
                0.3087786307643654,
                -0.776532754002289,
                -0.373983957405136
            ]
        },
        {
            "positions": [
                0.6108682850400025,
                -2.3614441116900258,
                -1.0062150942867576,
                0.40036329084566846,
                -0.693007969137128,
                -0.346852416080358
            ]
        },
        {
            "positions": [
                0.547655950780225,
                -2.351911779721935,
                -1.1193928577184287,
                0.4919479509269715,
                -0.6094831842719675,
                -0.3197208747555801
            ]
        },
        {
            "positions": [
                0.4844436165204473,
                -2.342379447753844,
                -1.2325706211501002,
                0.583532611008275,
                -0.5259583994068064,
                -0.29258933343080207
            ]
        },
        {
            "positions": [
                0.42123128226066964,
                -2.3328471157857527,
                -1.3457483845817717,
                0.6751172710895785,
                -0.4424336145416454,
                -0.26545779210602405
            ]
        },
        {
            "positions": [
                0.35801894800089196,
                -2.3233147838176618,
                -1.4589261480134432,
                0.7667019311708816,
                -0.35890882967648396,
                -0.23832625078124603
            ]
        },
        {
            "positions": [
                0.2948066137411143,
                -2.3137824518495704,
                -1.5721039114451143,
                0.8582865912521846,
                -0.2753840448113234,
                -0.21119470945646812
            ]
        },
        {
            "positions": [
                0.2315942794813366,
                -2.3042501198814795,
                -1.6852816748767863,
                0.9498712513334882,
                -0.19185925994616237,
                -0.1840631681316902
            ]
        },
        {
            "positions": [
                0.16838194522155892,
                -2.294717787913388,
                -1.7984594383084573,
                1.0414559114147917,
                -0.10833447508100136,
                -0.15693162680691208
            ]
        },
        {
            "positions": [
                0.10516961096178123,
                -2.2851854559452973,
                -1.9116372017401293,
                1.1330405714960952,
                -0.02480969021584034,
                -0.12980008548213418
            ]
        },
        {
            "positions": [
                0.041957276702003554,
                -2.2756531239772064,
                -2.0248149651718004,
                1.2246252315773978,
                0.058715094649320676,
                -0.10266854415735627
            ]
        },
        {
            "positions": [
                -0.021255057557774126,
                -2.266120792009115,
                -2.1379927286034714,
                1.3162098916587013,
                0.1422398795144817,
                -0.07553700283257814
            ]
        },
        {
            "positions": [
                -0.08446739181755183,
                -2.256588460041024,
                -2.251170492035144,
                1.4077945517400048,
                0.22576466437964282,
                -0.04840546150780031
            ]
        },
        {
            "positions": [
                -0.16441816771537926,
                -2.2763294801867584,
                -2.351801187284143,
                1.4857987635287415,
                0.19727912620645138,
                -0.0037779422824916736
            ]
        },
        {
            "positions": [
                -0.18696271304931716,
                -2.2820069483222007,
                -2.379771149350041,
                1.5087540124161214,
                0.1897879397862148,
                0.0076678681317794975
            ]
        }
    ]
}