{
    "goal": {
        "global_pose": {
            "orientation": {
                "w": -0.00223480608172531,
                "x": 0.0024358444001904467,
                "y": 0.7094548369677653,
                "z": -0.704743149386269
            },
            "position": {
                "x": -0.37947507619857795,
                "y": -0.6371506643295288,
                "z": 0.19426114857196808
            }
        },
        "name": "move_to_magneteinheit_C"
    },
    "id": "BKPIECE_move_to_magneteinheit_C_73",
    "joint_names": [
        "shoulder_pan_joint",
        "shoulder_lift_joint",
        "elbow_joint",
        "wrist_1_joint",
        "wrist_2_joint",
        "wrist_3_joint"
    ],
    "metrics": {
        "cart_traj_len": 2.1648542748182202,
        "distance_elbow_joint": 0.5197421250132521,
        "distance_shoulder_lift_joint": 1.3007793208349039,
        "distance_shoulder_pan_joint": 2.0095639125209663,
        "distance_wrist_1_joint": 3.354650805788752,
        "distance_wrist_2_joint": 4.843644709528778,
        "distance_wrist_3_joint": 13.429421953842214,
        "smoothness": 0.7929495965909064,
        "time": 0.903560061,
        "traj_len": 5.045572596596828,
        "weighted_distance": 7.779135057995251
    },
    "planner": "BKPIECE",
    "start": {
        "state": {
            "elbow_joint": 1.9565354006590394,
            "shoulder_lift_joint": -1.4165861576513559,
            "shoulder_pan_joint": -1.6717766223277177,
            "wrist_1_joint": -0.5286633288215096,
            "wrist_2_joint": 1.4727565892594296,
            "wrist_3_joint": 3.1593482883155493
        }
    },
    "waypoints": [
        {
            "positions": [
                -1.6717766223277177,
                -1.4165861576513559,
                1.9565354006590394,
                -0.5286633288215096,
                1.4727565892594296,
                3.1593482883155493
            ]
        },
        {
            "positions": [
                -1.7292937965306674,
                -1.3991077013030693,
                1.9354439614889178,
                -0.5175137672683063,
                1.297848536905116,
                3.053619956150958
            ]
        },
        {
            "positions": [
                -1.7868109707336173,
                -1.381629244954783,
                1.9143525223187963,
                -0.5063642057151032,
                1.1229404845508024,
                2.947891623986367
            ]
        },
        {
            "positions": [
                -1.844328144936567,
                -1.3641507886064963,
                1.893261083148675,
                -0.4952146441619,
                0.9480324321964887,
                2.8421632918217754
            ]
        },
        {
            "positions": [
                -1.9018453191395168,
                -1.34667233225821,
                1.8721696439785533,
                -0.4840650826086968,
                0.7731243798421751,
                2.7364349596571844
            ]
        },
        {
            "positions": [
                -1.9593624933424665,
                -1.3291938759099233,
                1.8510782048084318,
                -0.47291552105549356,
                0.5982163274878612,
                2.630706627492593
            ]
        },
        {
            "positions": [
                -2.016879667545416,
                -1.311715419561637,
                1.8299867656383102,
                -0.4617659595022904,
                0.42330827513354774,
                2.524978295328002
            ]
        },
        {
            "positions": [
                -2.0743968417483662,
                -1.2942369632133504,
                1.8088953264681886,
                -0.4506163979490872,
                0.2484002227792339,
                2.4192499631634106
            ]
        },
        {
            "positions": [
                -2.131914015951316,
                -1.276758506865064,
                1.7878038872980673,
                -0.439466836395884,
                0.07349217042492051,
                2.3135216309988196
            ]
        },
        {
            "positions": [
                -2.1894311901542656,
                -1.2592800505167774,
                1.7667124481279457,
                -0.4283172748426808,
                -0.10141588192939342,
                2.207793298834228
            ]
        },
        {
            "positions": [
                -2.296065900012056,
                -1.2333456195854788,
                1.8280149340485823,
                -0.48025191707016646,
                -0.10375666559052976,
                2.273420088276097
            ]
        },
        {
            "positions": [
                -2.402700609869846,
                -1.20741118865418,
                1.889317419969219,
                -0.5321865592976521,
                -0.10609744925166611,
                2.339046877717965
            ]
        },
        {
            "positions": [
                -2.5093353197276365,
                -1.1814767577228815,
                1.9506199058898557,
                -0.5841212015251378,
                -0.10843823291280245,
                2.404673667159834
            ]
        },
        {
            "positions": [
                -2.5303771294413897,
                -1.2008268962972208,
                1.9543372048209138,
                -0.6458343605769661,
                -0.03357897264180597,
                2.1904775031984953
            ]
        },
        {
            "positions": [
                -2.5514189391551434,
                -1.2201770348715604,
                1.958054503751972,
                -0.7075475196287944,
                0.04128028762919052,
                1.9762813392371565
            ]
        },
        {
            "positions": [
                -2.5724607488688966,
                -1.2395271734458997,
                1.9617718026830302,
                -0.7692606786806225,
                0.11613954790018698,
                1.7620851752758178
            ]
        },
        {
            "positions": [
                -2.59350255858265,
                -1.258877312020239,
                1.9654891016140883,
                -0.8309738377324508,
                0.19099880817118348,
                1.5478890113144792
            ]
        },
        {
            "positions": [
                -2.6145443682964036,
                -1.2782274505945785,
                1.9692064005451464,
                -0.892686996784279,
                0.2658580684421799,
                1.3336928473531404
            ]
        },
        {
            "positions": [
                -2.635586178010157,
                -1.2975775891689179,
                1.9729236994762047,
                -0.9544001558361073,
                0.3407173287131764,
                1.1194966833918016
            ]
        },
        {
            "positions": [
                -2.65662798772391,
                -1.3169277277432572,
                1.9766409984072628,
                -1.0161133148879355,
                0.4155765889841729,
                0.9053005194304631
            ]
        },
        {
            "positions": [
                -2.6776697974376638,
                -1.3362778663175967,
                1.980358297338321,
                -1.0778264739397638,
                0.4904358492551694,
                0.6911043554691243
            ]
        },
        {
            "positions": [
                -2.698711607151417,
                -1.355628004891936,
                1.9840755962693792,
                -1.139539632991592,
                0.5652951095261659,
                0.4769081915077855
            ]
        },
        {
            "positions": [
                -2.7197534168651702,
                -1.3749781434662753,
                1.9877928952004373,
                -1.2012527920434204,
                0.6401543697971623,
                0.26271202754644696
            ]
        },
        {
            "positions": [
                -2.740795226578924,
                -1.3943282820406149,
                1.9915101941314954,
                -1.2629659510952487,
                0.7150136300681589,
                0.0485158635851084
            ]
        },
        {
            "positions": [
                -2.761837036292677,
                -1.4136784206149542,
                1.9952274930625538,
                -1.324679110147077,
                0.7898728903391553,
                -0.1656803003762306
            ]
        },
        {
            "positions": [
                -2.7828788460064304,
                -1.4330285591892935,
                1.9989447919936119,
                -1.3863922691989052,
                0.8647321506101519,
                -0.37987646433756916
            ]
        },
        {
            "positions": [
                -2.803920655720184,
                -1.452378697763633,
                2.00266209092467,
                -1.4481054282507333,
                0.9395914108811483,
                -0.5940726282989077
            ]
        },
        {
            "positions": [
                -2.8249624654339374,
                -1.4717288363379724,
                2.006379389855728,
                -1.5098185873025618,
                1.0144506711521448,
                -0.8082687922602467
            ]
        },
        {
            "positions": [
                -2.8460042751476906,
                -1.4910789749123117,
                2.010096688786786,
                -1.5715317463543899,
                1.0893099314231414,
                -1.0224649562215853
            ]
        },
        {
            "positions": [
                -2.8670460848614443,
                -1.5104291134866512,
                2.0138139877178447,
                -1.6332449054062181,
                1.164169191694138,
                -1.2366611201829243
            ]
        },
        {
            "positions": [
                -2.8880878945751975,
                -1.5297792520609905,
                2.017531286648903,
                -1.6949580644580464,
                1.2390284519651342,
                -1.4508572841442628
            ]
        },
        {
            "positions": [
                -2.909129704288951,
                -1.5491293906353298,
                2.021248585579961,
                -1.7566712235098747,
                1.3138877122361308,
                -1.6650534481056019
            ]
        },
        {
            "positions": [
                -2.9301715140027045,
                -1.5684795292096694,
                2.024965884511019,
                -1.8183843825617028,
                1.388746972507127,
                -1.87924961206694
            ]
        },
        {
            "positions": [
                -2.9512133237164577,
                -1.5878296677840087,
                2.028683183442077,
                -1.8800975416135313,
                1.4636062327781239,
                -2.093445776028279
            ]
        },
        {
            "positions": [
                -2.972255133430211,
                -1.607179806358348,
                2.032400482373135,
                -1.9418107006653593,
                1.5384654930491202,
                -2.307641939989617
            ]
        },
        {
            "positions": [
                -2.9932969431439647,
                -1.6265299449326875,
                2.0361177813041933,
                -2.0035238597171876,
                1.6133247533201167,
                -2.521838103950956
            ]
        },
        {
            "positions": [
                -3.014338752857718,
                -1.6458800835070269,
                2.039835080235252,
                -2.065237018769016,
                1.688184013591113,
                -2.736034267912295
            ]
        },
        {
            "positions": [
                -3.035380562571471,
                -1.6652302220813662,
                2.04355237916631,
                -2.126950177820844,
                1.7630432738621098,
                -2.950230431873634
            ]
        },
        {
            "positions": [
                -3.0564223722852244,
                -1.6845803606557057,
                2.047269678097368,
                -2.1886633368726724,
                1.8379025341331061,
                -3.164426595834972
            ]
        },
        {
            "positions": [
                -3.077464181998978,
                -1.703930499230045,
                2.050986977028426,
                -2.2503764959245007,
                1.9127617944041027,
                -3.3786227597963108
            ]
        },
        {
            "positions": [
                -3.0550983911526925,
                -1.6838113814745166,
                2.049296434673549,
                -2.1973303651567933,
                1.8667895773655976,
                -3.1379675683489356
            ]
        },
        {
            "positions": [
                -3.0327326003064075,
                -1.6636922637189884,
                2.047605892318672,
                -2.1442842343890858,
                1.8208173603270927,
                -2.8973123769015605
            ]
        },
        {
            "positions": [
                -3.010366809460122,
                -1.64357314596346,
                2.045915349963795,
                -2.0912381036213783,
                1.7748451432885877,
                -2.6566571854541854
            ]
        },
        {
            "positions": [
                -2.9880010186138364,
                -1.6234540282079315,
                2.0442248076089182,
                -2.0381919728536704,
                1.7288729262500826,
                -2.4160019940068103
            ]
        },
        {
            "positions": [
                -2.9656352277675513,
                -1.603334910452403,
                2.0425342652540412,
                -1.985145842085963,
                1.6829007092115775,
                -2.175346802559435
            ]
        },
        {
            "positions": [
                -2.9432694369212657,
                -1.5832157926968748,
                2.0408437228991643,
                -1.9320997113182554,
                1.6369284921730727,
                -1.9346916111120598
            ]
        },
        {
            "positions": [
                -2.92090364607498,
                -1.5630966749413464,
                2.0391531805442873,
                -1.879053580550548,
                1.5909562751345676,
                -1.6940364196646847
            ]
        },
        {
            "positions": [
                -2.8985378552286947,
                -1.542977557185818,
                2.0374626381894103,
                -1.8260074497828405,
                1.5449840580960625,
                -1.4533812282173095
            ]
        },
        {
            "positions": [
                -2.8761720643824096,
                -1.5228584394302898,
                2.0357720958345333,
                -1.772961319015133,
                1.4990118410575577,
                -1.2127260367699342
            ]
        },
        {
            "positions": [
                -2.853806273536124,
                -1.5027393216747613,
                2.0340815534796564,
                -1.7199151882474253,
                1.4530396240190526,
                -0.972070845322559
            ]
        },
        {
            "positions": [
                -2.8314404826898385,
                -1.4826202039192329,
                2.0323910111247794,
                -1.6668690574797178,
                1.4070674069805476,
                -0.7314156538751839
            ]
        },
        {
            "positions": [
                -2.8090746918435534,
                -1.4625010861637047,
                2.0307004687699024,
                -1.61382292671201,
                1.3610951899420427,
                -0.4907604624278088
            ]
        },
        {
            "positions": [
                -2.786708900997268,
                -1.4423819684081762,
                2.0290099264150254,
                -1.5607767959443026,
                1.3151229729035376,
                -0.25010527098043367
            ]
        },
        {
            "positions": [
                -2.7643431101509823,
                -1.4222628506526478,
                2.027319384060149,
                -1.5077306651765952,
                1.2691507558650326,
                -0.009450079533058542
            ]
        },
        {
            "positions": [
                -2.741977319304697,
                -1.4021437328971196,
                2.025628841705272,
                -1.4546845344088877,
                1.2231785388265277,
                0.23120511191431703
            ]
        },
        {
            "positions": [
                -2.7196115284584117,
                -1.3820246151415911,
                2.023938299350395,
                -1.4016384036411802,
                1.1772063217880226,
                0.4718603033616917
            ]
        },
        {
            "positions": [
                -2.697245737612126,
                -1.3619054973860627,
                2.022247756995518,
                -1.3485922728734725,
                1.1312341047495176,
                0.7125154948090677
            ]
        },
        {
            "positions": [
                -2.6748799467658406,
                -1.3417863796305345,
                2.020557214640641,
                -1.295546142105765,
                1.0852618877110127,
                0.9531706862564424
            ]
        },
        {
            "positions": [
                -2.6525141559195555,
                -1.3216672618750058,
                2.018866672285764,
                -1.2425000113380573,
                1.0392896706725074,
                1.193825877703818
            ]
        },
        {
            "positions": [
                -2.63014836507327,
                -1.3015481441194776,
                2.017176129930887,
                -1.1894538805703498,
                0.9933174536340026,
                1.4344810691511927
            ]
        },
        {
            "positions": [
                -2.6077825742269845,
                -1.2814290263639492,
                2.01548558757601,
                -1.1364077498026424,
                0.9473452365954975,
                1.6751362605985682
            ]
        },
        {
            "positions": [
                -2.5854167833806994,
                -1.261309908608421,
                2.013795045221133,
                -1.0833616190349349,
                0.9013730195569927,
                1.915791452045943
            ]
        },
        {
            "positions": [
                -2.563050992534414,
                -1.2411907908528925,
                2.012104502866256,
                -1.0303154882672272,
                0.8554008025184876,
                2.1564466434933185
            ]
        },
        {
            "positions": [
                -2.5406852016881283,
                -1.221071673097364,
                2.010413960511379,
                -0.9772693574995197,
                0.8094285854799825,
                2.397101834940693
            ]
        },
        {
            "positions": [
                -2.518319410841843,
                -1.2009525553418356,
                2.008723418156502,
                -0.9242232267318122,
                0.7634563684414775,
                2.6377570263880687
            ]
        },
        {
            "positions": [
                -2.4959536199955576,
                -1.1808334375863074,
                2.007032875801625,
                -0.8711770959641048,
                0.7174841514029726,
                2.8784122178354434
            ]
        },
        {
            "positions": [
                -2.473587829149272,
                -1.160714319830779,
                2.005342333446748,
                -0.8181309651963969,
                0.6715119343644675,
                3.119067409282819
            ]
        }
    ]
}