{
    "goal": {
        "global_pose": {
            "orientation": {
                "w": -0.00223480608172531,
                "x": 0.0024358444001904467,
                "y": 0.7094548369677653,
                "z": -0.704743149386269
            },
            "position": {
                "x": 0.6205249238014221,
                "y": -0.6371506643295288,
                "z": 0.19426114857196808
            }
        },
        "name": "move_to_magneteinheit_B"
    },
    "id": "BKPIECE_move_to_magneteinheit_B_72",
    "joint_names": [
        "shoulder_pan_joint",
        "shoulder_lift_joint",
        "elbow_joint",
        "wrist_1_joint",
        "wrist_2_joint",
        "wrist_3_joint"
    ],
    "metrics": {
        "cart_traj_len": 1.4529152300517225,
        "distance_elbow_joint": 0.7265332040638575,
        "distance_shoulder_lift_joint": 1.246506948014222,
        "distance_shoulder_pan_joint": 1.620814054057987,
        "distance_wrist_1_joint": 2.6152046741366717,
        "distance_wrist_2_joint": 2.9394504078245696,
        "distance_wrist_3_joint": 3.1330544964632137,
        "smoothness": 5.273559369583415e-16,
        "time": 1.261666431,
        "traj_len": 3.504506211231551,
        "weighted_distance": 4.909412170458719
    },
    "planner": "BKPIECE",
    "start": {
        "state": {
            "elbow_joint": 2.3935871308073637,
            "shoulder_lift_joint": -1.9085141043777403,
            "shoulder_pan_joint": 0.7066247067284167,
            "wrist_1_joint": -0.46782909355067076,
            "wrist_2_joint": 0.7096259085804283,
            "wrist_3_joint": -3.1358149275257428
        }
    },
    "waypoints": [
        {
            "positions": [
                0.7066247067284167,
                -1.9085141043777403,
                2.3935871308073637,
                -0.46782909355067076,
                0.7096259085804283,
                -3.1358149275257428
            ]
        },
        {
            "positions": [
                0.6543403824039655,
                -1.8683042028288943,
                2.370150575837562,
                -0.3834676524494878,
                0.6148049276828615,
                -3.034748653446284
            ]
        },
        {
            "positions": [
                0.6020560580795143,
                -1.8280943012800486,
                2.34671402086776,
                -0.29910621134830484,
                0.5199839467852948,
                -2.9336823793668256
            ]
        },
        {
            "positions": [
                0.5497717337550632,
                -1.7878843997312026,
                2.323277465897958,
                -0.2147447702471219,
                0.425162965887728,
                -2.832616105287367
            ]
        },
        {
            "positions": [
                0.497487409430612,
                -1.7476744981823569,
                2.299840910928156,
                -0.13038332914593892,
                0.33034198499016126,
                -2.731549831207909
            ]
        },
        {
            "positions": [
                0.44520308510616075,
                -1.707464596633511,
                2.2764043559583547,
                -0.04602188804475599,
                0.23552100409259452,
                -2.6304835571284504
            ]
        },
        {
            "positions": [
                0.39291876078170956,
                -1.6672546950846652,
                2.2529678009885528,
                0.038339553056426945,
                0.14070002319502772,
                -2.529417283048992
            ]
        },
        {
            "positions": [
                0.3406344364572584,
                -1.6270447935358192,
                2.229531246018751,
                0.12270099415760988,
                0.04587904229746098,
                -2.4283510089695333
            ]
        },
        {
            "positions": [
                0.2883501121328072,
                -1.5868348919869733,
                2.206094691048949,
                0.20706243525879292,
                -0.04894193860010576,
                -2.3272847348900747
            ]
        },
        {
            "positions": [
                0.23606578780835596,
                -1.5466249904381275,
                2.182658136079147,
                0.29142387635997585,
                -0.14376291949767261,
                -2.226218460810616
            ]
        },
        {
            "positions": [
                0.18378146348390478,
                -1.5064150888892816,
                2.159221581109345,
                0.3757853174611588,
                -0.23858390039523925,
                -2.1251521867311576
            ]
        },
        {
            "positions": [
                0.1314971391594536,
                -1.4662051873404356,
                2.1357850261395432,
                0.46014675856234183,
                -0.3334048812928062,
                -2.0240859126516995
            ]
        },
        {
            "positions": [
                0.07921281483500242,
                -1.4259952857915899,
                2.1123484711697413,
                0.5445081996635246,
                -0.42822586219037284,
                -1.9230196385722407
            ]
        },
        {
            "positions": [
                0.02692849051055124,
                -1.3857853842427441,
                2.0889119161999394,
                0.6288696407647076,
                -0.5230468430879397,
                -1.8219533644927821
            ]
        },
        {
            "positions": [
                -0.02535583381389994,
                -1.3455754826938982,
                2.065475361230138,
                0.7132310818658905,
                -0.6178678239855063,
                -1.7208870904133238
            ]
        },
        {
            "positions": [
                -0.07764015813835123,
                -1.3053655811450522,
                2.042038806260336,
                0.7975925229670735,
                -0.7126888048830732,
                -1.6198208163338652
            ]
        },
        {
            "positions": [
                -0.1299244824628023,
                -1.2651556795962065,
                2.018602251290534,
                0.8819539640682565,
                -0.8075097857806398,
                -1.5187545422544066
            ]
        },
        {
            "positions": [
                -0.18220880678725349,
                -1.2249457780473607,
                1.9951656963207323,
                0.9663154051694394,
                -0.9023307666782064,
                -1.4176882681749483
            ]
        },
        {
            "positions": [
                -0.23449313111170478,
                -1.1847358764985145,
                1.9717291413509304,
                1.0506768462706224,
                -0.9971517475757735,
                -1.3166219940954895
            ]
        },
        {
            "positions": [
                -0.28677745543615596,
                -1.1445259749496688,
                1.9482925863811285,
                1.1350382873718055,
                -1.09197272847334,
                -1.2155557200160312
            ]
        },
        {
            "positions": [
                -0.33906177976060714,
                -1.104316073400823,
                1.9248560314113266,
                1.2193997284729883,
                -1.1867937093709067,
                -1.1144894459365728
            ]
        },
        {
            "positions": [
                -0.3913461040850582,
                -1.064106171851977,
                1.9014194764415249,
                1.303761169574171,
                -1.2816146902684737,
                -1.0134231718571143
            ]
        },
        {
            "positions": [
                -0.4436304284095095,
                -1.0238962703031311,
                1.877982921471723,
                1.3881226106753544,
                -1.3764356711660408,
                -0.9123568977776557
            ]
        },
        {
            "positions": [
                -0.4959147527339608,
                -0.9836863687542853,
                1.854546366501921,
                1.4724840517765372,
                -1.4712566520636075,
                -0.8112906236981972
            ]
        },
        {
            "positions": [
                -0.5481990770584119,
                -0.9434764672054394,
                1.8311098115321194,
                1.55684549287772,
                -1.566077632961174,
                -0.7102243496187386
            ]
        },
        {
            "positions": [
                -0.6004834013828629,
                -0.9032665656565937,
                1.8076732565623175,
                1.641206933978903,
                -1.6608986138587407,
                -0.6091580755392805
            ]
        },
        {
            "positions": [
                -0.6527677257073142,
                -0.8630566641077477,
                1.7842367015925156,
                1.725568375080086,
                -1.7557195947563078,
                -0.5080918014598215
            ]
        },
        {
            "positions": [
                -0.7050520500317655,
                -0.8228467625589018,
                1.7608001466227137,
                1.8099298161812691,
                -1.8505405756538744,
                -0.4070255273803629
            ]
        },
        {
            "positions": [
                -0.7573363743562166,
                -0.782636861010056,
                1.7373635916529118,
                1.8942912572824517,
                -1.945361556551441,
                -0.3059592533009048
            ]
        },
        {
            "positions": [
                -0.8096206986806679,
                -0.7424269594612101,
                1.7139270366831099,
                1.9786526983836348,
                -2.0401825374490077,
                -0.20489297922144623
            ]
        },
        {
            "positions": [
                -0.8619050230051192,
                -0.7022170579123641,
                1.690490481713308,
                2.063014139484818,
                -2.1350035183465748,
                -0.10382670514198766
            ]
        },
        {
            "positions": [
                -0.9141893473295702,
                -0.6620071563635184,
                1.6670539267435063,
                2.147375580586001,
                -2.2298244992441414,
                -0.0027604310625292004
            ]
        }
    ]
}