{
    "goal": {
        "global_pose": {
            "orientation": {
                "w": 0.5084816262002911,
                "x": -0.4908360881923452,
                "y": 0.5182115481033761,
                "z": -0.48164630358495003
            },
            "position": {
                "x": 0.5540239810943604,
                "y": -0.46912469901144505,
                "z": 0.16403168439865112
            }
        },
        "name": "move_to_storage_B"
    },
    "id": "BKPIECE_move_to_storage_B_141",
    "joint_names": [
        "shoulder_pan_joint",
        "shoulder_lift_joint",
        "elbow_joint",
        "wrist_1_joint",
        "wrist_2_joint",
        "wrist_3_joint"
    ],
    "metrics": {
        "cart_traj_len": 1.1000472243621089,
        "distance_elbow_joint": 1.111864906963359,
        "distance_shoulder_lift_joint": 0.461459937235595,
        "distance_shoulder_pan_joint": 0.7058017000589522,
        "distance_wrist_1_joint": 3.1849319580970676,
        "distance_wrist_2_joint": 2.8550394764903624,
        "distance_wrist_3_joint": 3.3551172266054206,
        "smoothness": 0.71034026289601,
        "time": 1.2109995960000002,
        "traj_len": 3.4167550695727016,
        "weighted_distance": 4.942106948787028
    },
    "planner": "BKPIECE",
    "start": {
        "state": {
            "elbow_joint": 1.6649325706314817,
            "shoulder_lift_joint": -0.6616388048112454,
            "shoulder_pan_joint": -0.9139837860083814,
            "wrist_1_joint": 2.146757197745094,
            "wrist_2_joint": -2.234196043158733,
            "wrist_3_joint": 0.005471033829999897
        }
    },
    "waypoints": [
        {
            "positions": [
                -0.9139837860083814,
                -0.6616388048112454,
                1.6649325706314817,
                2.146757197745094,
                -2.234196043158733,
                0.005471033829999897
            ]
        },
        {
            "positions": [
                -0.7825746765611472,
                -0.7728572906720061,
                1.67825281121861,
                2.1984697387373524,
                -2.268067652589375,
                -0.034107498238676835
            ]
        },
        {
            "positions": [
                -0.6511655671139129,
                -0.8840757765327669,
                1.6915730518057381,
                2.250182279729611,
                -2.3019392620200163,
                -0.07368603030735356
            ]
        },
        {
            "positions": [
                -0.6610701298372531,
                -0.8865176424957992,
                1.6536571297963403,
                2.1418762363526427,
                -2.1847589511198486,
                0.026643930535036234
            ]
        },
        {
            "positions": [
                -0.6709746925605932,
                -0.8889595084588316,
                1.6157412077869424,
                2.0335701929756738,
                -2.067578640219681,
                0.12697389137742604
            ]
        },
        {
            "positions": [
                -0.6808792552839333,
                -0.891401374421864,
                1.5778252857775443,
                1.9252641495987053,
                -1.9503983293195137,
                0.22730385221981586
            ]
        },
        {
            "positions": [
                -0.6907838180072734,
                -0.8938432403848964,
                1.5399093637681465,
                1.8169581062217366,
                -1.833218018419346,
                0.3276338130622056
            ]
        },
        {
            "positions": [
                -0.7006883807306136,
                -0.8962851063479287,
                1.5019934417587486,
                1.708652062844768,
                -1.7160377075191784,
                0.4279637739045955
            ]
        },
        {
            "positions": [
                -0.7105929434539536,
                -0.8987269723109611,
                1.4640775197493507,
                1.6003460194677994,
                -1.598857396619011,
                0.5282937347469853
            ]
        },
        {
            "positions": [
                -0.7204975061772938,
                -0.9011688382739934,
                1.4261615977399527,
                1.4920399760908305,
                -1.4816770857188433,
                0.628623695589375
            ]
        },
        {
            "positions": [
                -0.7304020689006339,
                -0.9036107042370258,
                1.3882456757305548,
                1.383733932713862,
                -1.3644967748186758,
                0.7289536564317648
            ]
        },
        {
            "positions": [
                -0.740306631623974,
                -0.9060525702000581,
                1.350329753721157,
                1.2754278893368933,
                -1.2473164639185081,
                0.8292836172741547
            ]
        },
        {
            "positions": [
                -0.784564350998524,
                -1.0068630727450025,
                1.311104358365136,
                1.1880912787495068,
                -1.1632756921222795,
                0.7937994710858254
            ]
        },
        {
            "positions": [
                -0.8008582824343067,
                -1.0129807395503625,
                1.3481967653308466,
                1.0818062326899045,
                -1.0765055506627352,
                0.9168261220699427
            ]
        },
        {
            "positions": [
                -0.8171522138700895,
                -1.0190984063557222,
                1.3852891722965572,
                0.9755211866303021,
                -0.9897354092031909,
                1.03985277305406
            ]
        },
        {
            "positions": [
                -0.8334461453058722,
                -1.0252160731610822,
                1.4223815792622676,
                0.8692361405706996,
                -0.9029652677436465,
                1.1628794240381775
            ]
        },
        {
            "positions": [
                -0.8497400767416551,
                -1.0313337399664422,
                1.4594739862279782,
                0.7629510945110973,
                -0.8161951262841022,
                1.2859060750222948
            ]
        },
        {
            "positions": [
                -0.8660340081774378,
                -1.037451406771802,
                1.4965663931936888,
                0.6566660484514949,
                -0.7294249848245578,
                1.408932726006412
            ]
        },
        {
            "positions": [
                -0.8823279396132206,
                -1.0435690735771619,
                1.5336588001593994,
                0.5503810023918925,
                -0.6426548433650134,
                1.5319593769905295
            ]
        },
        {
            "positions": [
                -0.8986218710490034,
                -1.0496867403825216,
                1.57075120712511,
                0.44409595633229004,
                -0.5558847019054691,
                1.6549860279746467
            ]
        },
        {
            "positions": [
                -0.9149158024847861,
                -1.0558044071878816,
                1.6078436140908205,
                0.3378109102726877,
                -0.4691145604459248,
                1.7780126789587642
            ]
        },
        {
            "positions": [
                -0.9312097339205689,
                -1.0619220739932416,
                1.6449360210565311,
                0.2315258642130853,
                -0.3823444189863805,
                1.9010393299428814
            ]
        },
        {
            "positions": [
                -0.9475036653563517,
                -1.0680397407986013,
                1.6820284280222415,
                0.12524081815348298,
                -0.29557427752683607,
                2.0240659809269985
            ]
        },
        {
            "positions": [
                -0.9637975967921345,
                -1.0741574076039613,
                1.719120834987952,
                0.01895577209388044,
                -0.20880413606729165,
                2.147092631911116
            ]
        },
        {
            "positions": [
                -0.9800915282279172,
                -1.0802750744093212,
                1.7562132419536627,
                -0.08732927396572188,
                -0.12203399460774733,
                2.2701192828952337
            ]
        },
        {
            "positions": [
                -0.9963854596637001,
                -1.086392741214681,
                1.7933056489193733,
                -0.19361432002532442,
                -0.03526385314820302,
                2.3931459338793513
            ]
        },
        {
            "positions": [
                -1.0126793910994827,
                -1.092510408020041,
                1.8303980558850839,
                -0.29989936608492673,
                0.0515062883113413,
                2.516172584863468
            ]
        },
        {
            "positions": [
                -1.0289733225352655,
                -1.0986280748254007,
                1.8674904628507942,
                -0.40618441214452927,
                0.1382764297708856,
                2.6391992358475855
            ]
        },
        {
            "positions": [
                -1.0452672539710484,
                -1.1047457416307607,
                1.904582869816505,
                -0.5124694582041314,
                0.22504657123042993,
                2.762225886831703
            ]
        },
        {
            "positions": [
                -1.061561185406831,
                -1.1108634084361206,
                1.9416752767822154,
                -0.6187545042637339,
                0.31181671268997446,
                2.8852525378158203
            ]
        },
        {
            "positions": [
                -1.0778551168426138,
                -1.1169810752414804,
                1.978767683747926,
                -0.7250395503233362,
                0.39858685414951855,
                3.0082791887999374
            ]
        },
        {
            "positions": [
                -1.0941490482783967,
                -1.1230987420468403,
                2.0158600907136366,
                -0.8313245963829389,
                0.48535699560906304,
                3.131305839784055
            ]
        }
    ]
}