{
    "goal": {
        "global_pose": {
            "orientation": {
                "w": 0.7031023502349854,
                "x": -0.7110244035720825,
                "y": 0.007748599164187908,
                "z": 0.005598929710686207
            },
            "position": {
                "x": 0.11585023208521307,
                "y": 0.44412534475326537,
                "z": 0.3711530566215515
            }
        },
        "name": "move_to_auspresseinheit_A"
    },
    "id": "BKPIECE_move_to_auspresseinheit_A_72",
    "joint_names": [
        "shoulder_pan_joint",
        "shoulder_lift_joint",
        "elbow_joint",
        "wrist_1_joint",
        "wrist_2_joint",
        "wrist_3_joint"
    ],
    "metrics": {
        "cart_traj_len": 2.1343839728521252,
        "distance_elbow_joint": 0.3859875571160516,
        "distance_shoulder_lift_joint": 0.5369033210518324,
        "distance_shoulder_pan_joint": 5.156078926300419,
        "distance_wrist_1_joint": 6.683134518729654,
        "distance_wrist_2_joint": 1.3976039125486617,
        "distance_wrist_3_joint": 9.739667864896093,
        "smoothness": 0.5446398757835531,
        "time": 0.9908625200000001,
        "traj_len": 4.888698814678882,
        "weighted_distance": 7.173524256717422
    },
    "planner": "BKPIECE",
    "start": {
        "state": {
            "elbow_joint": 2.4225747245308327,
            "shoulder_lift_joint": -1.373653427065438,
            "shoulder_pan_joint": -0.33786330853087027,
            "wrist_1_joint": -1.0288602302712604,
            "wrist_2_joint": 1.23302299562683,
            "wrist_3_joint": -3.094021725338297
        }
    },
    "waypoints": [
        {
            "positions": [
                -0.33786330853087027,
                -1.373653427065438,
                2.4225747245308327,
                -1.0288602302712604,
                1.23302299562683,
                -3.094021725338297
            ]
        },
        {
            "positions": [
                -0.4041767319321658,
                -1.3903746303618512,
                2.415901210182472,
                -0.9121865287139408,
                1.2019691320858354,
                -2.9374481241273687
            ]
        },
        {
            "positions": [
                -0.47049015533346134,
                -1.4070958336582642,
                2.4092276958341117,
                -0.7955128271566211,
                1.1709152685448407,
                -2.7808745229164407
            ]
        },
        {
            "positions": [
                -0.5368035787347569,
                -1.4238170369546774,
                2.402554181485751,
                -0.6788391255993014,
                1.1398614050038463,
                -2.6243009217055127
            ]
        },
        {
            "positions": [
                -0.6031170021360523,
                -1.4405382402510907,
                2.3958806671373907,
                -0.5621654240419818,
                1.1088075414628515,
                -2.467727320494584
            ]
        },
        {
            "positions": [
                -0.669430425537348,
                -1.457259443547504,
                2.38920715278903,
                -0.44549172248466207,
                1.077753677921857,
                -2.3111537192836558
            ]
        },
        {
            "positions": [
                -0.7357438489386434,
                -1.473980646843917,
                2.3825336384406697,
                -0.32881802092734247,
                1.0466998143808626,
                -2.1545801180727278
            ]
        },
        {
            "positions": [
                -0.8020572723399391,
                -1.4907018501403302,
                2.375860124092309,
                -0.21214431937002276,
                1.0156459508398679,
                -1.9980065168617995
            ]
        },
        {
            "positions": [
                -0.8683706957412345,
                -1.5074230534367434,
                2.3691866097439482,
                -0.09547061781270316,
                0.9845920872988733,
                -1.8414329156508713
            ]
        },
        {
            "positions": [
                -0.9346841191425301,
                -1.5241442567331567,
                2.3625130953955877,
                0.021203083744616658,
                0.9535382237578787,
                -1.6848593144399429
            ]
        },
        {
            "positions": [
                -1.0009975425438256,
                -1.5408654600295697,
                2.3558395810472272,
                0.13787678530193626,
                0.9224843602168842,
                -1.5282857132290149
            ]
        },
        {
            "positions": [
                -1.0673109659451212,
                -1.557586663325983,
                2.3491660666988667,
                0.25455048685925585,
                0.8914304966758895,
                -1.3717121120180864
            ]
        },
        {
            "positions": [
                -1.1336243893464166,
                -1.5743078666223962,
                2.3424925523505062,
                0.37122418841657545,
                0.860376633134895,
                -1.2151385108071584
            ]
        },
        {
            "positions": [
                -1.1999378127477123,
                -1.5910290699188094,
                2.3358190380021457,
                0.48789788997389527,
                0.8293227695939004,
                -1.05856490959623
            ]
        },
        {
            "positions": [
                -1.2662512361490077,
                -1.6077502732152225,
                2.3291455236537852,
                0.6045715915312149,
                0.7982689060529058,
                -0.901991308385302
            ]
        },
        {
            "positions": [
                -1.3325646595503033,
                -1.6244714765116357,
                2.3224720093054247,
                0.7212452930885347,
                0.7672150425119113,
                -0.7454177071743735
            ]
        },
        {
            "positions": [
                -1.3988780829515988,
                -1.641192679808049,
                2.3157984949570642,
                0.8379189946458541,
                0.7361611789709166,
                -0.5888441059634455
            ]
        },
        {
            "positions": [
                -1.4651915063528942,
                -1.6579138831044622,
                2.3091249806087037,
                0.9545926962031737,
                0.7051073154299221,
                -0.4322705047525175
            ]
        },
        {
            "positions": [
                -1.53150492975419,
                -1.6746350864008752,
                2.3024514662603432,
                1.0712663977604937,
                0.6740534518889275,
                -0.2756969035415886
            ]
        },
        {
            "positions": [
                -1.5978183531554855,
                -1.6913562896972885,
                2.2957779519119828,
                1.187940099317813,
                0.6429995883479329,
                -0.1191233023306606
            ]
        },
        {
            "positions": [
                -1.664131776556781,
                -1.7080774929937017,
                2.2891044375636223,
                1.304613800875133,
                0.6119457248069383,
                0.03745029888026741
            ]
        },
        {
            "positions": [
                -1.7304451999580763,
                -1.7247986962901147,
                2.2824309232152618,
                1.4212875024324523,
                0.5808918612659438,
                0.1940239000911954
            ]
        },
        {
            "positions": [
                -1.7967586233593722,
                -1.7415198995865282,
                2.2757574088669013,
                1.537961203989772,
                0.5498379977249491,
                0.3505975013021243
            ]
        },
        {
            "positions": [
                -1.8630720467606676,
                -1.7582411028829412,
                2.2690838945185403,
                1.654634905547092,
                0.5187841341839546,
                0.5071711025130523
            ]
        },
        {
            "positions": [
                -1.929385470161963,
                -1.7749623061793545,
                2.26241038017018,
                1.7713086071044113,
                0.48773027064296004,
                0.6637447037239803
            ]
        },
        {
            "positions": [
                -1.9956988935632585,
                -1.7916835094757677,
                2.2557368658218193,
                1.8879823086617311,
                0.45667640710196544,
                0.8203183049349083
            ]
        },
        {
            "positions": [
                -2.0620123169645543,
                -1.8084047127721807,
                2.249063351473459,
                2.004656010219051,
                0.42562254356097085,
                0.9768919061458372
            ]
        },
        {
            "positions": [
                -2.1283257403658498,
                -1.825125916068594,
                2.2423898371250983,
                2.1213297117763705,
                0.39456868001997625,
                1.1334655073567652
            ]
        },
        {
            "positions": [
                -2.194639163767145,
                -1.8418471193650072,
                2.235716322776738,
                2.23800341333369,
                0.36351481647898176,
                1.2900391085676932
            ]
        },
        {
            "positions": [
                -2.2609525871684406,
                -1.8585683226614202,
                2.2290428084283773,
                2.3546771148910093,
                0.33246095293798716,
                1.4466127097786212
            ]
        },
        {
            "positions": [
                -2.3272660105697365,
                -1.8752895259578337,
                2.222369294080017,
                2.4713508164483295,
                0.30140708939699257,
                1.6031863109895501
            ]
        },
        {
            "positions": [
                -2.393579433971032,
                -1.8920107292542467,
                2.2156957797316563,
                2.5880245180056494,
                0.27035322585599797,
                1.7597599122004781
            ]
        },
        {
            "positions": [
                -2.29023400727569,
                -1.8926289298830141,
                2.2216660668088855,
                2.4858161923238913,
                0.2848510306152589,
                1.5968970379552339
            ]
        },
        {
            "positions": [
                -2.186888580580348,
                -1.8932471305117817,
                2.2276363538861146,
                2.383607866642133,
                0.2993488353745199,
                1.4340341637099896
            ]
        },
        {
            "positions": [
                -2.083543153885006,
                -1.8938653311405491,
                2.2336066409633437,
                2.2813995409603747,
                0.31384664013378083,
                1.2711712894647456
            ]
        },
        {
            "positions": [
                -1.9801977271896642,
                -1.8944835317693165,
                2.239576928040573,
                2.1791912152786166,
                0.3283444448930418,
                1.1083084152195013
            ]
        },
        {
            "positions": [
                -1.8768523004943223,
                -1.8951017323980839,
                2.245547215117802,
                2.0769828895968585,
                0.34284224965230276,
                0.9454455409742571
            ]
        },
        {
            "positions": [
                -1.7735068737989803,
                -1.8957199330268515,
                2.2515175021950316,
                1.9747745639151002,
                0.3573400544115637,
                0.7825826667290129
            ]
        },
        {
            "positions": [
                -1.6701614471036383,
                -1.8963381336556189,
                2.2574877892722607,
                1.872566238233342,
                0.3718378591708247,
                0.6197197924837687
            ]
        },
        {
            "positions": [
                -1.5668160204082966,
                -1.8969563342843863,
                2.26345807634949,
                1.7703579125515838,
                0.3863356639300856,
                0.4568569182385245
            ]
        },
        {
            "positions": [
                -1.4634705937129546,
                -1.8975745349131539,
                2.269428363426719,
                1.6681495868698257,
                0.40083346868934655,
                0.29399404399328044
            ]
        },
        {
            "positions": [
                -1.3601251670176127,
                -1.8981927355419212,
                2.275398650503948,
                1.5659412611880676,
                0.41533127344860754,
                0.13113116974803618
            ]
        },
        {
            "positions": [
                -1.256779740322271,
                -1.8988109361706886,
                2.281368937581177,
                1.4637329355063093,
                0.4298290782078685,
                -0.03173170449720786
            ]
        },
        {
            "positions": [
                -1.1534343136269287,
                -1.8994291367994562,
                2.2873392246584063,
                1.361524609824551,
                0.44432688296712947,
                -0.19459457874245234
            ]
        },
        {
            "positions": [
                -1.0500888869315868,
                -1.9000473374282236,
                2.2933095117356355,
                1.259316284142793,
                0.4588246877263904,
                -0.3574574529876964
            ]
        },
        {
            "positions": [
                -0.946743460236245,
                -1.900665538056991,
                2.2992797988128646,
                1.1571079584610346,
                0.4733224924856514,
                -0.5203203272329406
            ]
        },
        {
            "positions": [
                -0.843398033540903,
                -1.9012837386857586,
                2.305250085890094,
                1.0548996327792766,
                0.4878202972449123,
                -0.6831832014781849
            ]
        },
        {
            "positions": [
                -0.7400526068455611,
                -1.901901939314526,
                2.3112203729673233,
                0.9526913070975185,
                0.5023181020041733,
                -0.8460460757234292
            ]
        },
        {
            "positions": [
                -0.6367071801502193,
                -1.9025201399432934,
                2.3171906600445524,
                0.8504829814157602,
                0.5168159067634343,
                -1.0089089499686734
            ]
        },
        {
            "positions": [
                -0.5333617534548774,
                -1.9031383405720608,
                2.3231609471217816,
                0.7482746557340021,
                0.5313137115226951,
                -1.1717718242139172
            ]
        },
        {
            "positions": [
                -0.4300163267595354,
                -1.9037565412008284,
                2.3291312341990107,
                0.646066330052244,
                0.5458115162819561,
                -1.3346346984591615
            ]
        },
        {
            "positions": [
                -0.3266709000641934,
                -1.9043747418295958,
                2.33510152127624,
                0.5438580043704859,
                0.5603093210412171,
                -1.4974975727044058
            ]
        },
        {
            "positions": [
                -0.22332547336885167,
                -1.9049929424583631,
                2.341071808353469,
                0.4416496786887274,
                0.5748071258004781,
                -1.66036044694965
            ]
        },
        {
            "positions": [
                -0.11998004667350992,
                -1.9056111430871308,
                2.347042095430698,
                0.3394413530069693,
                0.589304930559739,
                -1.8232233211948938
            ]
        },
        {
            "positions": [
                -0.016634619978167287,
                -1.9062293437158981,
                2.353012382507927,
                0.2372330273252108,
                0.6038027353190001,
                -1.986086195440139
            ]
        },
        {
            "positions": [
                0.08671080671717446,
                -1.9068475443446655,
                2.3589826695851563,
                0.1350247016434527,
                0.618300540078261,
                -2.148949069685383
            ]
        },
        {
            "positions": [
                0.1900562334125162,
                -1.907465744973433,
                2.3649529566623855,
                0.03281637596169462,
                0.6327983448375218,
                -2.311811943930627
            ]
        },
        {
            "positions": [
                0.2934016601078584,
                -1.9080839456022005,
                2.370923243739615,
                -0.06939194972006346,
                0.6472961495967828,
                -2.474674818175871
            ]
        },
        {
            "positions": [
                0.39674708680320014,
                -1.908702146230968,
                2.376893530816844,
                -0.17160027540182154,
                0.6617939543560438,
                -2.6375376924211156
            ]
        },
        {
            "positions": [
                0.5000925134985419,
                -1.9093203468597353,
                2.3828638178940733,
                -0.27380860108358007,
                0.6762917591153048,
                -2.8004005666663594
            ]
        },
        {
            "positions": [
                0.6034379401938841,
                -1.909938547488503,
                2.3888341049713024,
                -0.37601692676533816,
                0.6907895638745658,
                -2.963263440911604
            ]
        },
        {
            "positions": [
                0.7067833668892257,
                -1.9105567481172703,
                2.3948043920485316,
                -0.47822525244709635,
                0.7052873686338267,
                -3.126126315156848
            ]
        }
    ]
}