{
    "goal": {
        "global_pose": {
            "orientation": {
                "w": 0.5084816217422485,
                "x": -0.49083608388900757,
                "y": 0.5182115435600281,
                "z": -0.4816462993621826
            },
            "position": {
                "x": 0.5540239810943604,
                "y": 0.030875300988554955,
                "z": 0.16403168439865112
            }
        },
        "name": "move_to_storage_A"
    },
    "id": "BKPIECE_move_to_storage_A_42",
    "joint_names": [
        "shoulder_pan_joint",
        "shoulder_lift_joint",
        "elbow_joint",
        "wrist_1_joint",
        "wrist_2_joint",
        "wrist_3_joint"
    ],
    "metrics": {
        "cart_traj_len": 0.35244108632724325,
        "distance_elbow_joint": 0.44928044561467795,
        "distance_shoulder_lift_joint": 0.2343035630007697,
        "distance_shoulder_pan_joint": 0.4615989044747276,
        "distance_wrist_1_joint": 0.2456839743701701,
        "distance_wrist_2_joint": 1.0937668149598085,
        "distance_wrist_3_joint": 0.10679855178938613,
        "smoothness": 6.661338165333112e-16,
        "time": 1.449542349,
        "traj_len": 1.6097926121738604,
        "weighted_distance": 2.035799633342705
    },
    "planner": "BKPIECE",
    "start": {
        "state": {
            "elbow_joint": 1.9715474177455299,
            "shoulder_lift_joint": -1.139484666580328,
            "shoulder_pan_joint": 0.12281154398918248,
            "wrist_1_joint": -0.7804687475355282,
            "wrist_2_joint": 0.12958649657246987,
            "wrist_3_joint": -3.1924925159053466
        }
    },
    "waypoints": [
        {
            "positions": [
                0.12281154398918248,
                -1.139484666580328,
                1.9715474177455299,
                -0.7804687475355282,
                0.12958649657246987,
                -3.1924925159053466
            ]
        },
        {
            "positions": [
                0.05686884334993568,
                -1.1729566041518664,
                2.035730338547627,
                -0.8155664581598382,
                0.2858388987095854,
                -3.1772355799354344
            ]
        },
        {
            "positions": [
                -0.009073857289311121,
                -1.206428541723405,
                2.0999132593497234,
                -0.8506641687841482,
                0.4420913008467009,
                -3.1619786439655218
            ]
        },
        {
            "positions": [
                -0.07501655792855791,
                -1.2399004792949435,
                2.1640961801518204,
                -0.8857618794084582,
                0.5983437029838165,
                -3.1467217079956096
            ]
        },
        {
            "positions": [
                -0.14095925856780472,
                -1.2733724168664822,
                2.2282791009539173,
                -0.9208595900327683,
                0.754596105120932,
                -3.1314647720256974
            ]
        },
        {
            "positions": [
                -0.20690195920705157,
                -1.3068443544380206,
                2.2924620217560143,
                -0.9559573006570783,
                0.9108485072580476,
                -3.116207836055785
            ]
        },
        {
            "positions": [
                -0.2728446598462983,
                -1.3403162920095593,
                2.356644942558111,
                -0.9910550112813883,
                1.067100909395163,
                -3.1009509000858726
            ]
        },
        {
            "positions": [
                -0.33878736048554514,
                -1.3737882295810977,
                2.420827863360208,
                -1.0261527219056983,
                1.2233533115322786,
                -3.0856939641159604
            ]
        }
    ]
}