{
    "goal": {
        "global_pose": {
            "orientation": {
                "w": 0.7031023502349854,
                "x": -0.7110244035720825,
                "y": 0.007748599164187908,
                "z": 0.005598929710686207
            },
            "position": {
                "x": 0.11585023208521307,
                "y": 0.44412534475326537,
                "z": 0.3711530566215515
            }
        },
        "name": "move_to_auspresseinheit_A"
    },
    "id": "BKPIECE_move_to_auspresseinheit_A_116",
    "joint_names": [
        "shoulder_pan_joint",
        "shoulder_lift_joint",
        "elbow_joint",
        "wrist_1_joint",
        "wrist_2_joint",
        "wrist_3_joint"
    ],
    "metrics": {
        "cart_traj_len": 0.7272225391902317,
        "distance_elbow_joint": 0.07170253815634142,
        "distance_shoulder_lift_joint": 0.5802970203968785,
        "distance_shoulder_pan_joint": 1.0628742902398778,
        "distance_wrist_1_joint": 0.7104659688530687,
        "distance_wrist_2_joint": 0.6256522874858554,
        "distance_wrist_3_joint": 0.032653124113075194,
        "smoothness": 2.670834530057063,
        "time": 1.893071036,
        "traj_len": 1.756031101445842,
        "weighted_distance": 2.117798322270129
    },
    "planner": "BKPIECE",
    "start": {
        "state": {
            "elbow_joint": 2.4225747245308327,
            "shoulder_lift_joint": -1.373653427065438,
            "shoulder_pan_joint": -0.33786330853087027,
            "wrist_1_joint": -1.0288602302712604,
            "wrist_2_joint": 1.23302299562683,
            "wrist_3_joint": -3.094021725338297
        }
    },
    "waypoints": [
        {
            "positions": [
                -0.33786330853087027,
                -1.373653427065438,
                2.4225747245308327,
                -1.0288602302712604,
                1.23302299562683,
                -3.094021725338297
            ]
        },
        {
            "positions": [
                -0.20632157292245176,
                -1.4433715166272647,
                2.4163405216665574,
                -0.9494547970429392,
                1.1605768954953737,
                -3.0968899090659017
            ]
        },
        {
            "positions": [
                -0.07477983731403326,
                -1.5130896061890915,
                2.410106318802282,
                -0.870049363814618,
                1.0881307953639174,
                -3.0997580927935062
            ]
        },
        {
            "positions": [
                0.056761898294385216,
                -1.5828076957509183,
                2.4038721159380074,
                -0.7906439305862967,
                1.0156846952324612,
                -3.102626276521111
            ]
        },
        {
            "positions": [
                0.18830363390280375,
                -1.652525785312745,
                2.397637913073732,
                -0.7112384973579755,
                0.9432385951010048,
                -3.1054944602487153
            ]
        },
        {
            "positions": [
                0.3198453695112223,
                -1.7222438748745719,
                2.391403710209457,
                -0.6318330641296543,
                0.8707924949695486,
                -3.10836264397632
            ]
        },
        {
            "positions": [
                0.4513871051196407,
                -1.7919619644363987,
                2.385169507345182,
                -0.5524276309013331,
                0.7983463948380922,
                -3.1112308277039245
            ]
        },
        {
            "positions": [
                0.5829288407280593,
                -1.8616800539982254,
                2.378935304480907,
                -0.4730221976730118,
                0.725900294706636,
                -3.114099011431529
            ]
        },
        {
            "positions": [
                0.7144705763364777,
                -1.9313981435600522,
                2.3727011016166317,
                -0.39361676444469057,
                0.6534541945751797,
                -3.1169671951591336
            ]
        },
        {
            "positions": [
                0.7039301709639476,
                -1.908845839657788,
                2.394530016858772,
                -0.4688392674711895,
                0.699537681009385,
                -3.1266748494513723
            ]
        }
    ]
}