{
    "goal": {
        "global_pose": {
            "orientation": {
                "w": 0.5084816217422485,
                "x": -0.49083608388900757,
                "y": 0.5182115435600281,
                "z": -0.4816462993621826
            },
            "position": {
                "x": 0.5540239810943604,
                "y": 0.030875300988554955,
                "z": 0.16403168439865112
            }
        },
        "name": "move_to_storage_A"
    },
    "id": "BKPIECE_move_to_storage_A_94",
    "joint_names": [
        "shoulder_pan_joint",
        "shoulder_lift_joint",
        "elbow_joint",
        "wrist_1_joint",
        "wrist_2_joint",
        "wrist_3_joint"
    ],
    "metrics": {
        "cart_traj_len": 0.3535976977964544,
        "distance_elbow_joint": 0.4489952168064959,
        "distance_shoulder_lift_joint": 0.2363394583311862,
        "distance_shoulder_pan_joint": 0.46311692052447845,
        "distance_wrist_1_joint": 0.2361333382749261,
        "distance_wrist_2_joint": 1.0974263140704408,
        "distance_wrist_3_joint": 0.10021498091609349,
        "smoothness": 1.7763568410139506e-15,
        "time": 1.422654693,
        "traj_len": 1.60693068578692,
        "weighted_distance": 2.02884593872999
    },
    "planner": "BKPIECE",
    "start": {
        "state": {
            "elbow_joint": 1.9715474177455299,
            "shoulder_lift_joint": -1.139484666580328,
            "shoulder_pan_joint": 0.12281154398918248,
            "wrist_1_joint": -0.7804687475355282,
            "wrist_2_joint": 0.12958649657246987,
            "wrist_3_joint": -3.1924925159053466
        }
    },
    "waypoints": [
        {
            "positions": [
                0.12281154398918248,
                -1.139484666580328,
                1.9715474177455299,
                -0.7804687475355282,
                0.12958649657246987,
                -3.1924925159053466
            ]
        },
        {
            "positions": [
                0.05665198391425699,
                -1.173247446341926,
                2.0356895915750295,
                -0.8142020815748033,
                0.2863616842968186,
                -3.1781760900601905
            ]
        },
        {
            "positions": [
                -0.009507576160668496,
                -1.207010226103524,
                2.0998317654045286,
                -0.8479354156140785,
                0.44313687202116725,
                -3.163859664215034
            ]
        },
        {
            "positions": [
                -0.07566713623559398,
                -1.240773005865122,
                2.1639739392340283,
                -0.8816687496533536,
                0.599912059745516,
                -3.149543238369878
            ]
        },
        {
            "positions": [
                -0.14182669631051947,
                -1.27453578562672,
                2.2281161130635274,
                -0.9154020836926289,
                0.7566872474698647,
                -3.1352268125247216
            ]
        },
        {
            "positions": [
                -0.207986256385445,
                -1.3082985653883181,
                2.292258286893027,
                -0.949135417731904,
                0.9134624351942134,
                -3.1209103866795656
            ]
        },
        {
            "positions": [
                -0.27414581646037045,
                -1.3420613451499162,
                2.356400460722526,
                -0.9828687517711792,
                1.0702376229185622,
                -3.106593960834409
            ]
        },
        {
            "positions": [
                -0.34030537653529597,
                -1.3758241249115142,
                2.420542634552026,
                -1.0166020858104543,
                1.2270128106429108,
                -3.092277534989253
            ]
        }
    ]
}