{
    "goal": {
        "global_pose": {
            "orientation": {
                "w": 0.7031023480610252,
                "x": -0.7110244013736278,
                "y": 0.0077485991402295624,
                "z": 0.005598929693374583
            },
            "position": {
                "x": -0.8841497679147869,
                "y": 0.44412534475326537,
                "z": 0.3711530566215515
            }
        },
        "name": "move_to_auspresseinheit_D"
    },
    "id": "BKPIECE_move_to_auspresseinheit_D_50",
    "joint_names": [
        "shoulder_pan_joint",
        "shoulder_lift_joint",
        "elbow_joint",
        "wrist_1_joint",
        "wrist_2_joint",
        "wrist_3_joint"
    ],
    "metrics": {
        "cart_traj_len": 3.620032665003665,
        "distance_elbow_joint": 3.0197617877698386,
        "distance_shoulder_lift_joint": 1.2323772768444852,
        "distance_shoulder_pan_joint": 2.7963770809266517,
        "distance_wrist_1_joint": 2.069648957431334,
        "distance_wrist_2_joint": 1.2212239684219368,
        "distance_wrist_3_joint": 1.839576843448112,
        "smoothness": 0.10774475906496916,
        "time": 1.8029010550000002,
        "traj_len": 3.4898375198341767,
        "weighted_distance": 4.375956184377519
    },
    "planner": "BKPIECE",
    "start": {
        "state": {
            "elbow_joint": 1.8268400409724999,
            "shoulder_lift_joint": -1.0144045787793008,
            "shoulder_pan_joint": 2.6280239544362485,
            "wrist_1_joint": -0.790705565816056,
            "wrist_2_joint": 1.0573557467365533,
            "wrist_3_joint": 3.1851377467193758
        }
    },
    "waypoints": [
        {
            "positions": [
                2.6280239544362485,
                -1.0144045787793008,
                1.8268400409724999,
                -0.790705565816056,
                1.0573557467365533,
                3.1851377467193758
            ]
        },
        {
            "positions": [
                2.5638952890432534,
                -1.0712918699317917,
                1.753602608840526,
                -0.8282134274198212,
                1.0005144804581125,
                3.0822610786233415
            ]
        },
        {
            "positions": [
                2.4997666236502583,
                -1.1281791610842826,
                1.6803651767085523,
                -0.8657212890235864,
                0.9436732141796716,
                2.9793844105273077
            ]
        },
        {
            "positions": [
                2.4356379582572636,
                -1.1850664522367738,
                1.6071277445765788,
                -0.9032291506273514,
                0.8868319479012309,
                2.8765077424312735
            ]
        },
        {
            "positions": [
                2.3715092928642685,
                -1.2419537433892647,
                1.533890312444605,
                -0.9407370122311166,
                0.82999068162279,
                2.7736310743352393
            ]
        },
        {
            "positions": [
                2.3073806274712734,
                -1.2988410345417556,
                1.4606528803126313,
                -0.9782448738348818,
                0.7731494153443492,
                2.6707544062392055
            ]
        },
        {
            "positions": [
                2.2432519620782783,
                -1.3557283256942465,
                1.3874154481806578,
                -1.0157527354386469,
                0.7163081490659085,
                2.567877738143171
            ]
        },
        {
            "positions": [
                2.179123296685283,
                -1.4126156168467374,
                1.3141780160486838,
                -1.053260597042412,
                0.6594668827874676,
                2.465001070047137
            ]
        },
        {
            "positions": [
                2.1149946312922885,
                -1.4695029079992286,
                1.2409405839167102,
                -1.0907684586461772,
                0.6026256165090267,
                2.362124401951103
            ]
        },
        {
            "positions": [
                2.0508659658992934,
                -1.5263901991517195,
                1.1677031517847365,
                -1.1282763202499424,
                0.5457843502305859,
                2.259247733855069
            ]
        },
        {
            "positions": [
                1.9499923707906708,
                -1.5591352744459044,
                1.0604020200310058,
                -1.2070071476589173,
                0.5135274151434964,
                2.30077895342706
            ]
        },
        {
            "positions": [
                1.8491187756820482,
                -1.591880349740089,
                0.953100888277275,
                -1.2857379750678923,
                0.4812704800564068,
                2.3423101729990514
            ]
        },
        {
            "positions": [
                1.7482451805734258,
                -1.624625425034274,
                0.8457997565235443,
                -1.3644688024768672,
                0.44901354496931734,
                2.383841392571042
            ]
        },
        {
            "positions": [
                1.6473715854648032,
                -1.657370500328459,
                0.7384986247698135,
                -1.443199629885842,
                0.41675660988222774,
                2.4253726121430335
            ]
        },
        {
            "positions": [
                1.5464979903561806,
                -1.6901155756226436,
                0.6311974930160829,
                -1.521930457294817,
                0.38449967479513825,
                2.4669038317150247
            ]
        },
        {
            "positions": [
                1.4456243952475583,
                -1.7228606509168285,
                0.5238963612623522,
                -1.6006612847037918,
                0.3522427397080487,
                2.508435051287016
            ]
        },
        {
            "positions": [
                1.3447508001389354,
                -1.7556057262110134,
                0.4165952295086215,
                -1.6793921121127666,
                0.31998580462095916,
                2.5499662708590067
            ]
        },
        {
            "positions": [
                1.243877205030313,
                -1.788350801505198,
                0.3092940977548907,
                -1.7581229395217417,
                0.2877288695338696,
                2.591497490430998
            ]
        },
        {
            "positions": [
                1.1430036099216903,
                -1.821095876799383,
                0.2019929660011599,
                -1.8368537669307166,
                0.25547193444678,
                2.633028710002989
            ]
        },
        {
            "positions": [
                1.0421300148130679,
                -1.853840952093568,
                0.09469183424742922,
                -1.9155845943396914,
                0.22321499935969052,
                2.6745599295749805
            ]
        },
        {
            "positions": [
                0.9412564197044453,
                -1.8865860273877528,
                -0.012609297506301465,
                -1.9943154217486665,
                0.19095806427260098,
                2.7160911491469717
            ]
        },
        {
            "positions": [
                0.8403828245958229,
                -1.9193311026819375,
                -0.11991042926003215,
                -2.0730462491576414,
                0.1587011291855115,
                2.7576223687189625
            ]
        },
        {
            "positions": [
                0.7395092294872001,
                -1.9520761779761224,
                -0.22721156101376305,
                -2.151777076566616,
                0.1264441940984219,
                2.7991535882909537
            ]
        },
        {
            "positions": [
                0.6386356343785777,
                -1.9848212532703071,
                -0.3345126927674935,
                -2.230507903975591,
                0.09418725901133235,
                2.840684807862945
            ]
        },
        {
            "positions": [
                0.5377620392699551,
                -2.017566328564492,
                -0.4418138245212242,
                -2.309238731384566,
                0.06193032392424286,
                2.8822160274349358
            ]
        },
        {
            "positions": [
                0.43688844416133255,
                -2.050311403858677,
                -0.5491149562749551,
                -2.3879695587935412,
                0.029673388837153314,
                2.9237472470069275
            ]
        },
        {
            "positions": [
                0.33601484905270995,
                -2.083056479152862,
                -0.6564160880286858,
                -2.4667003862025156,
                -0.002583546249936286,
                2.9652784665789182
            ]
        },
        {
            "positions": [
                0.23514125394408736,
                -2.1158015544470468,
                -0.7637172197824167,
                -2.545431213611491,
                -0.034840481337025886,
                3.0068096861509095
            ]
        },
        {
            "positions": [
                0.13426765883546476,
                -2.1485466297412312,
                -0.8710183515361474,
                -2.6241620410204654,
                -0.06709741642411537,
                3.0483409057229007
            ]
        },
        {
            "positions": [
                0.03339406372684239,
                -2.181291705035416,
                -0.9783194832898781,
                -2.7028928684294407,
                -0.09935435151120486,
                3.0898721252948915
            ]
        },
        {
            "positions": [
                -0.06747953138178042,
                -2.214036780329601,
                -1.0856206150436087,
                -2.7816236958384155,
                -0.13161128659829446,
                3.1314033448668828
            ]
        },
        {
            "positions": [
                -0.16835312649040293,
                -2.246781855623786,
                -1.1929217467973396,
                -2.8603545232473904,
                -0.1638682216853839,
                3.172934564438874
            ]
        }
    ]
}