{
    "goal": {
        "global_pose": {
            "orientation": {
                "w": 0.005598929693374612,
                "x": 0.007748599140229565,
                "y": 0.7110244013736278,
                "z": -0.7031023480610252
            },
            "position": {
                "x": -0.8858502320852131,
                "y": -0.7141253447532654,
                "z": 0.3711530566215515
            }
        },
        "name": "move_to_auspresseinheit_C"
    },
    "id": "BKPIECE_move_to_auspresseinheit_C_59",
    "joint_names": [
        "shoulder_pan_joint",
        "shoulder_lift_joint",
        "elbow_joint",
        "wrist_1_joint",
        "wrist_2_joint",
        "wrist_3_joint"
    ],
    "metrics": {
        "cart_traj_len": 0.49231271432591983,
        "distance_elbow_joint": 0.9895942957448969,
        "distance_shoulder_lift_joint": 0.3199684915996518,
        "distance_shoulder_pan_joint": 0.2562033490048039,
        "distance_wrist_1_joint": 0.6578916056828144,
        "distance_wrist_2_joint": 1.3134253752383986,
        "distance_wrist_3_joint": 0.050429025927540394,
        "smoothness": 4.844609574787718e-16,
        "time": 1.252060748,
        "traj_len": 1.8940728980686319,
        "weighted_distance": 2.3790097048928573
    },
    "planner": "BKPIECE",
    "start": {
        "state": {
            "elbow_joint": 1.752795957773711,
            "shoulder_lift_joint": -0.9740617694225064,
            "shoulder_pan_joint": -2.967991417825858,
            "wrist_1_joint": -0.7595177689806859,
            "wrist_2_joint": 1.7443932448377395,
            "wrist_3_joint": 3.199131542505932
        }
    },
    "waypoints": [
        {
            "positions": [
                -2.967991417825858,
                -0.9740617694225064,
                1.752795957773711,
                -0.7595177689806859,
                1.7443932448377395,
                3.199131542505932
            ]
        },
        {
            "positions": [
                -2.9423710829253777,
                -0.9420649202625413,
                1.6538365281992213,
                -0.6937286084124045,
                1.6130507073138995,
                3.1940886399131783
            ]
        },
        {
            "positions": [
                -2.916750748024897,
                -0.910068071102576,
                1.5548770986247318,
                -0.627939447844123,
                1.4817081697900598,
                3.189045737320424
            ]
        },
        {
            "positions": [
                -2.891130413124417,
                -0.8780712219426109,
                1.455917669050242,
                -0.5621502872758416,
                1.3503656322662199,
                3.18400283472767
            ]
        },
        {
            "positions": [
                -2.865510078223936,
                -0.8460743727826457,
                1.3569582394757522,
                -0.49636112670756016,
                1.2190230947423801,
                3.178959932134916
            ]
        },
        {
            "positions": [
                -2.839889743323456,
                -0.8140775236226805,
                1.2579988099012627,
                -0.43057196613927873,
                1.0876805572185402,
                3.173917029542162
            ]
        },
        {
            "positions": [
                -2.814269408422976,
                -0.7820806744627153,
                1.1590393803267731,
                -0.3647828055709973,
                0.9563380196947003,
                3.168874126949408
            ]
        },
        {
            "positions": [
                -2.788649073522495,
                -0.7500838253027502,
                1.0600799507522833,
                -0.2989936450027159,
                0.8249954821708605,
                3.1638312243566538
            ]
        },
        {
            "positions": [
                -2.763028738622015,
                -0.718086976142785,
                0.9611205211777936,
                -0.23320448443443442,
                0.6936529446470205,
                3.1587883217639
            ]
        },
        {
            "positions": [
                -2.7374084037215343,
                -0.6860901269828198,
                0.8621610916033039,
                -0.167415323866153,
                0.5623104071231806,
                3.1537454191711456
            ]
        },
        {
            "positions": [
                -2.711788068821054,
                -0.6540932778228546,
                0.7632016620288142,
                -0.10162616329787158,
                0.4309678695993409,
                3.1487025165783917
            ]
        }
    ]
}