{
    "goal": {
        "global_pose": {
            "orientation": {
                "w": 0.7031023480610252,
                "x": -0.7110244013736278,
                "y": 0.0077485991402295624,
                "z": 0.005598929693374583
            },
            "position": {
                "x": -0.8841497679147869,
                "y": 0.44412534475326537,
                "z": 0.3711530566215515
            }
        },
        "name": "move_to_auspresseinheit_D"
    },
    "id": "BKPIECE_move_to_auspresseinheit_D_34",
    "joint_names": [
        "shoulder_pan_joint",
        "shoulder_lift_joint",
        "elbow_joint",
        "wrist_1_joint",
        "wrist_2_joint",
        "wrist_3_joint"
    ],
    "metrics": {
        "cart_traj_len": 3.522473395401114,
        "distance_elbow_joint": 3.022852153628734,
        "distance_shoulder_lift_joint": 1.2305001815771055,
        "distance_shoulder_pan_joint": 2.796929854016089,
        "distance_wrist_1_joint": 3.531441962530567,
        "distance_wrist_2_joint": 1.214134366553741,
        "distance_wrist_3_joint": 0.4950048961715594,
        "smoothness": 0.2057461582936777,
        "time": 1.036689638,
        "traj_len": 3.505832770466639,
        "weighted_distance": 4.245756650575398
    },
    "planner": "BKPIECE",
    "start": {
        "state": {
            "elbow_joint": 1.8268400409724999,
            "shoulder_lift_joint": -1.0144045787793008,
            "shoulder_pan_joint": 2.6280239544362485,
            "wrist_1_joint": -0.790705565816056,
            "wrist_2_joint": 1.0573557467365533,
            "wrist_3_joint": 3.1851377467193758
        }
    },
    "waypoints": [
        {
            "positions": [
                2.6280239544362485,
                -1.0144045787793008,
                1.8268400409724999,
                -0.790705565816056,
                1.0573557467365533,
                3.1851377467193758
            ]
        },
        {
            "positions": [
                2.561048091876638,
                -1.0794669667801198,
                1.8229730190258873,
                -0.6954669316031129,
                0.9640344647244301,
                3.1619948431902087
            ]
        },
        {
            "positions": [
                2.4940722293170268,
                -1.1445293547809388,
                1.819105997079275,
                -0.6002282973901699,
                0.8707131827123069,
                3.1388519396610413
            ]
        },
        {
            "positions": [
                2.427096366757416,
                -1.2095917427817575,
                1.8152389751326623,
                -0.5049896631772268,
                0.7773919007001837,
                3.115709036131874
            ]
        },
        {
            "positions": [
                2.360120504197805,
                -1.2746541307825765,
                1.8113719531860497,
                -0.4097510289642838,
                0.6840706186880605,
                3.092566132602707
            ]
        },
        {
            "positions": [
                2.2931446416381944,
                -1.3397165187833955,
                1.8075049312394371,
                -0.3145123947513407,
                0.5907493366759373,
                3.06942322907354
            ]
        },
        {
            "positions": [
                2.2261687790785833,
                -1.4047789067842145,
                1.8036379092928247,
                -0.21927376053839764,
                0.4974280546638141,
                3.0462803255443727
            ]
        },
        {
            "positions": [
                2.1591929165189727,
                -1.4698412947850334,
                1.7997708873462122,
                -0.12403512632545456,
                0.404106772651691,
                3.0231374220152056
            ]
        },
        {
            "positions": [
                2.0713887982140333,
                -1.5294510874034044,
                1.773111998628023,
                -0.05654322685114592,
                0.31887439678645657,
                2.991562897649434
            ]
        },
        {
            "positions": [
                1.9676648173338709,
                -1.5664869764966127,
                1.65979194038399,
                -0.13671961132662366,
                0.2830068032786288,
                2.980156271674675
            ]
        },
        {
            "positions": [
                1.8639408364537087,
                -1.6035228655898213,
                1.546471882139957,
                -0.2168959958021014,
                0.247139209770801,
                2.968749645699915
            ]
        },
        {
            "positions": [
                1.7602168555735462,
                -1.6405587546830296,
                1.433151823895924,
                -0.2970723802775791,
                0.21127161626297325,
                2.957343019725156
            ]
        },
        {
            "positions": [
                1.656492874693384,
                -1.6775946437762381,
                1.319831765651891,
                -0.3772487647530569,
                0.17540402275514547,
                2.9459363937503964
            ]
        },
        {
            "positions": [
                1.5527688938132216,
                -1.7146305328694464,
                1.206511707407858,
                -0.4574251492285346,
                0.1395364292473177,
                2.9345297677756372
            ]
        },
        {
            "positions": [
                1.4666851541435684,
                -1.7411442442437943,
                1.0863855164046534,
                -0.5772450342879479,
                0.12472067679409249,
                2.9467496136370284
            ]
        },
        {
            "positions": [
                1.3806014144739154,
                -1.7676579556181424,
                0.9662593254014487,
                -0.6970649193473613,
                0.10990492434086727,
                2.9589694594984195
            ]
        },
        {
            "positions": [
                1.2945176748042622,
                -1.7941716669924905,
                0.8461331343982441,
                -0.8168848044067747,
                0.09508917188764204,
                2.97118930535981
            ]
        },
        {
            "positions": [
                1.2084339351346092,
                -1.8206853783668384,
                0.7260069433950394,
                -0.936704689466188,
                0.08027341943441682,
                2.9834091512212013
            ]
        },
        {
            "positions": [
                1.122350195464956,
                -1.8471990897411863,
                0.6058807523918348,
                -1.0565245745256013,
                0.0654576669811916,
                2.9956289970825924
            ]
        },
        {
            "positions": [
                1.0362664557953027,
                -1.8737128011155344,
                0.48575456138863016,
                -1.1763444595850148,
                0.050641914527966375,
                3.0078488429439836
            ]
        },
        {
            "positions": [
                0.9501827161256498,
                -1.9002265124898825,
                0.3656283703854256,
                -1.296164344644428,
                0.03582616207474115,
                3.0200686888053747
            ]
        },
        {
            "positions": [
                0.8640989764559965,
                -1.9267402238642304,
                0.24550217938222085,
                -1.4159842297038414,
                0.02101040962151593,
                3.0322885346667654
            ]
        },
        {
            "positions": [
                0.7780152367863434,
                -1.9532539352385783,
                0.1253759883790162,
                -1.5358041147632548,
                0.006194657168290707,
                3.0445083805281565
            ]
        },
        {
            "positions": [
                0.6919314971166903,
                -1.9797676466129264,
                0.00524979737581166,
                -1.655623999822668,
                -0.008621095284934516,
                3.0567282263895477
            ]
        },
        {
            "positions": [
                0.6058477574470371,
                -2.0062813579872745,
                -0.1148763936273931,
                -1.7754438848820815,
                -0.02343684773815974,
                3.068948072250939
            ]
        },
        {
            "positions": [
                0.5197640177773841,
                -2.0327950693616224,
                -0.23500258463059764,
                -1.8952637699414947,
                -0.03825260019138496,
                3.08116791811233
            ]
        },
        {
            "positions": [
                0.4336802781077309,
                -2.0593087807359702,
                -0.3551287756338022,
                -2.0150836550009084,
                -0.053068352644610184,
                3.0933877639737206
            ]
        },
        {
            "positions": [
                0.3475965384380779,
                -2.085822492110318,
                -0.4752549666370067,
                -2.1349035400603213,
                -0.0678841050978354,
                3.1056076098351117
            ]
        },
        {
            "positions": [
                0.2615127987684247,
                -2.1123362034846664,
                -0.5953811576402115,
                -2.254723425119735,
                -0.08269985755106063,
                3.117827455696503
            ]
        },
        {
            "positions": [
                0.1754290590987715,
                -2.1388499148590143,
                -0.7155073486434163,
                -2.374543310179148,
                -0.09751561000428585,
                3.130047301557894
            ]
        },
        {
            "positions": [
                0.0893453194291185,
                -2.165363626233362,
                -0.8356335396466208,
                -2.494363195238561,
                -0.11233136245751105,
                3.142267147419285
            ]
        },
        {
            "positions": [
                0.003261579759465283,
                -2.1918773376077105,
                -0.9557597306498256,
                -2.614183080297975,
                -0.1271471149107363,
                3.154486993280676
            ]
        },
        {
            "positions": [
                -0.08282215991018771,
                -2.2183910489820584,
                -1.0758859216530299,
                -2.734002965357388,
                -0.1419628673639615,
                3.166706839142067
            ]
        },
        {
            "positions": [
                -0.168905899579841,
                -2.2449047603564063,
                -1.1960121126562349,
                -2.8538228504168015,
                -0.15677861981718677,
                3.178926685003458
            ]
        }
    ]
}