{
    "goal": {
        "global_pose": {
            "orientation": {
                "w": 0.5084816217422485,
                "x": -0.49083608388900757,
                "y": 0.5182115435600281,
                "z": -0.4816462993621826
            },
            "position": {
                "x": 0.5540239810943604,
                "y": 0.030875300988554955,
                "z": 0.16403168439865112
            }
        },
        "name": "move_to_storage_A"
    },
    "id": "BKPIECE_move_to_storage_A_141",
    "joint_names": [
        "shoulder_pan_joint",
        "shoulder_lift_joint",
        "elbow_joint",
        "wrist_1_joint",
        "wrist_2_joint",
        "wrist_3_joint"
    ],
    "metrics": {
        "cart_traj_len": 0.35329817624819776,
        "distance_elbow_joint": 0.447219669837585,
        "distance_shoulder_lift_joint": 0.2331626267933491,
        "distance_shoulder_pan_joint": 0.4596463881006301,
        "distance_wrist_1_joint": 0.2369135802362078,
        "distance_wrist_2_joint": 1.10807274065774,
        "distance_wrist_3_joint": 0.10459353880563205,
        "smoothness": 0.0,
        "time": 0.520903838,
        "traj_len": 1.6092260700197296,
        "weighted_distance": 2.0356281445628412
    },
    "planner": "BKPIECE",
    "start": {
        "state": {
            "elbow_joint": 1.9715474177455299,
            "shoulder_lift_joint": -1.139484666580328,
            "shoulder_pan_joint": 0.12281154398918248,
            "wrist_1_joint": -0.7804687475355282,
            "wrist_2_joint": 0.12958649657246987,
            "wrist_3_joint": -3.1924925159053466
        }
    },
    "waypoints": [
        {
            "positions": [
                0.12281154398918248,
                -1.139484666580328,
                1.9715474177455299,
                -0.7804687475355282,
                0.12958649657246987,
                -3.1924925159053466
            ]
        },
        {
            "positions": [
                0.05714777426052105,
                -1.1727936132650922,
                2.035435942008042,
                -0.8143135447121294,
                0.28788260238071844,
                -3.177550581790256
            ]
        },
        {
            "positions": [
                -0.008515995468140386,
                -1.2061025599498563,
                2.0993244662705544,
                -0.8481583418887304,
                0.446178708188967,
                -3.162608647675166
            ]
        },
        {
            "positions": [
                -0.07417976519680183,
                -1.2394115066346205,
                2.1632129905330664,
                -0.8820031390653316,
                0.6044748139972156,
                -3.1476667135600755
            ]
        },
        {
            "positions": [
                -0.13984353492546325,
                -1.2727204533193845,
                2.2271015147955784,
                -0.9158479362419326,
                0.7627709198054642,
                -3.1327247794449855
            ]
        },
        {
            "positions": [
                -0.2055073046541247,
                -1.3060294000041488,
                2.290990039058091,
                -0.9496927334185338,
                0.9210670256137128,
                -3.117782845329895
            ]
        },
        {
            "positions": [
                -0.27117107438278615,
                -1.3393383466889128,
                2.354878563320603,
                -0.9835375305951348,
                1.0793631314219612,
                -3.102840911214805
            ]
        },
        {
            "positions": [
                -0.3368348441114476,
                -1.372647293373677,
                2.418767087583115,
                -1.017382327771736,
                1.2376592372302098,
                -3.0878989770997145
            ]
        }
    ]
}