{
    "goal": {
        "global_pose": {
            "orientation": {
                "w": 0.5084816262002911,
                "x": -0.4908360881923452,
                "y": 0.5182115481033761,
                "z": -0.48164630358495003
            },
            "position": {
                "x": 0.5540239810943604,
                "y": -0.46912469901144505,
                "z": 0.16403168439865112
            }
        },
        "name": "move_to_storage_B"
    },
    "id": "BKPIECE_move_to_storage_B_102",
    "joint_names": [
        "shoulder_pan_joint",
        "shoulder_lift_joint",
        "elbow_joint",
        "wrist_1_joint",
        "wrist_2_joint",
        "wrist_3_joint"
    ],
    "metrics": {
        "cart_traj_len": 0.7517602055285536,
        "distance_elbow_joint": 0.3517049053465937,
        "distance_shoulder_lift_joint": 0.46047463288849944,
        "distance_shoulder_pan_joint": 0.484670401178409,
        "distance_wrist_1_joint": 3.0941932553493405,
        "distance_wrist_2_joint": 2.834847775409508,
        "distance_wrist_3_joint": 3.12376818983921,
        "smoothness": 0.25626707840181273,
        "time": 1.570832976,
        "traj_len": 3.217088615504951,
        "weighted_distance": 4.746181261861879
    },
    "planner": "BKPIECE",
    "start": {
        "state": {
            "elbow_joint": 1.6649325706314817,
            "shoulder_lift_joint": -0.6616388048112454,
            "shoulder_pan_joint": -0.9139837860083814,
            "wrist_1_joint": 2.146757197745094,
            "wrist_2_joint": -2.234196043158733,
            "wrist_3_joint": 0.005471033829999897
        }
    },
    "waypoints": [
        {
            "positions": [
                -0.9139837860083814,
                -0.6616388048112454,
                1.6649325706314817,
                2.146757197745094,
                -2.234196043158733,
                0.005471033829999897
            ]
        },
        {
            "positions": [
                -0.8382435150012315,
                -0.727692860431686,
                1.685021485463549,
                2.1710745284788473,
                -2.2672129216958727,
                -0.058104490130450416
            ]
        },
        {
            "positions": [
                -0.7625032439940816,
                -0.7937469160521267,
                1.7051104002956163,
                2.195391859212601,
                -2.3002298002330126,
                -0.12168001409090073
            ]
        },
        {
            "positions": [
                -0.775830838360646,
                -0.8068815769180314,
                1.7175714833229148,
                2.0735695154573275,
                -2.1894772394996034,
                -0.2415446997676331
            ]
        },
        {
            "positions": [
                -0.7891584327272104,
                -0.8200162377839361,
                1.730032566350213,
                1.9517471717020543,
                -2.078724678766194,
                -0.3614093854443654
            ]
        },
        {
            "positions": [
                -0.8024860270937748,
                -0.8331508986498408,
                1.7424936493775114,
                1.829924827946781,
                -1.9679721180327852,
                -0.48127407112109777
            ]
        },
        {
            "positions": [
                -0.8158136214603391,
                -0.8462855595157456,
                1.7549547324048098,
                1.7081024841915076,
                -1.8572195572993762,
                -0.6011387567978301
            ]
        },
        {
            "positions": [
                -0.8291412158269035,
                -0.8594202203816503,
                1.7674158154321082,
                1.586280140436234,
                -1.746466996565967,
                -0.7210034424745626
            ]
        },
        {
            "positions": [
                -0.8424688101934679,
                -0.872554881247555,
                1.7798768984594064,
                1.4644577966809609,
                -1.6357144358325577,
                -0.8408681281512949
            ]
        },
        {
            "positions": [
                -0.8557964045600323,
                -0.8856895421134597,
                1.7923379814867049,
                1.3426354529256874,
                -1.5249618750991485,
                -0.9607328138280273
            ]
        },
        {
            "positions": [
                -0.8691239989265966,
                -0.8988242029793645,
                1.8047990645140033,
                1.2208131091704142,
                -1.4142093143657395,
                -1.0805974995047596
            ]
        },
        {
            "positions": [
                -0.8824515932931609,
                -0.9119588638452691,
                1.8172601475413015,
                1.098990765415141,
                -1.3034567536323305,
                -1.2004621851814918
            ]
        },
        {
            "positions": [
                -0.8957791876597254,
                -0.9250935247111739,
                1.8297212305686,
                0.9771684216598673,
                -1.1927041928989213,
                -1.3203268708582243
            ]
        },
        {
            "positions": [
                -0.9091067820262897,
                -0.9382281855770787,
                1.8421823135958983,
                0.855346077904594,
                -1.081951632165512,
                -1.4401915565349566
            ]
        },
        {
            "positions": [
                -0.9224343763928541,
                -0.9513628464429833,
                1.8546433966231968,
                0.7335237341493208,
                -0.971199071432103,
                -1.5600562422116888
            ]
        },
        {
            "positions": [
                -0.9357619707594185,
                -0.9644975073088882,
                1.867104479650495,
                0.6117013903940474,
                -0.8604465106986938,
                -1.6799209278884213
            ]
        },
        {
            "positions": [
                -0.9490895651259829,
                -0.9776321681747928,
                1.8795655626777934,
                0.4898790466387739,
                -0.7496939499652846,
                -1.7997856135651538
            ]
        },
        {
            "positions": [
                -0.9624171594925472,
                -0.9907668290406976,
                1.8920266457050918,
                0.3680567028835009,
                -0.6389413892318756,
                -1.9196502992418858
            ]
        },
        {
            "positions": [
                -0.9757447538591115,
                -1.0039014899066023,
                1.90448772873239,
                0.24623435912822722,
                -0.5281888284984664,
                -2.0395149849186183
            ]
        },
        {
            "positions": [
                -0.989072348225676,
                -1.017036150772507,
                1.9169488117596885,
                0.12441201537295399,
                -0.41743626776505716,
                -2.159379670595351
            ]
        },
        {
            "positions": [
                -1.0023999425922403,
                -1.0301708116384116,
                1.9294098947869869,
                0.0025896716176809775,
                -0.3066837070316484,
                -2.279244356272083
            ]
        },
        {
            "positions": [
                -1.0157275369588046,
                -1.0433054725043165,
                1.9418709778142853,
                -0.11923267213759292,
                -0.19593114629823916,
                -2.3991090419488157
            ]
        },
        {
            "positions": [
                -1.029055131325369,
                -1.0564401333702211,
                1.9543320608415837,
                -0.24105501589286638,
                -0.08517858556482993,
                -2.518973727625548
            ]
        },
        {
            "positions": [
                -1.0423827256919334,
                -1.069574794236126,
                1.966793143868882,
                -0.3628773596481394,
                0.025573975168579288,
                -2.63883841330228
            ]
        },
        {
            "positions": [
                -1.0557103200584979,
                -1.0827094551020306,
                1.9792542268961804,
                -0.48469970340341284,
                0.1363265359019885,
                -2.7587030989790127
            ]
        },
        {
            "positions": [
                -1.0690379144250621,
                -1.0958441159679353,
                1.9917153099234786,
                -0.6065220471586863,
                0.24707909663539773,
                -2.878567784655745
            ]
        },
        {
            "positions": [
                -1.0823655087916264,
                -1.10897877683384,
                2.004176392950777,
                -0.7283443909139593,
                0.3578316573688065,
                -2.998432470332477
            ]
        },
        {
            "positions": [
                -1.095693103158191,
                -1.1221134376997448,
                2.0166374759780754,
                -0.8501667346692326,
                0.4685842181022158,
                -3.1182971560092096
            ]
        }
    ]
}