{
    "goal": {
        "global_pose": {
            "orientation": {
                "w": -0.00223480608172531,
                "x": 0.0024358444001904467,
                "y": 0.7094548369677653,
                "z": -0.704743149386269
            },
            "position": {
                "x": 0.6205249238014221,
                "y": -0.6371506643295288,
                "z": 0.19426114857196808
            }
        },
        "name": "move_to_magneteinheit_B"
    },
    "id": "BKPIECE_move_to_magneteinheit_B_46",
    "joint_names": [
        "shoulder_pan_joint",
        "shoulder_lift_joint",
        "elbow_joint",
        "wrist_1_joint",
        "wrist_2_joint",
        "wrist_3_joint"
    ],
    "metrics": {
        "cart_traj_len": 3.563339200112872,
        "distance_elbow_joint": 4.080759323836681,
        "distance_shoulder_lift_joint": 1.1073331099449357,
        "distance_shoulder_pan_joint": 3.3647944347260665,
        "distance_wrist_1_joint": 2.3150603388546465,
        "distance_wrist_2_joint": 0.6001853316613581,
        "distance_wrist_3_joint": 4.351812069964435,
        "smoothness": 0.9193941860451927,
        "time": 1.089984234,
        "traj_len": 3.977429397109159,
        "weighted_distance": 5.238207176070168
    },
    "planner": "BKPIECE",
    "start": {
        "state": {
            "elbow_joint": 2.3935871308073637,
            "shoulder_lift_joint": -1.9085141043777403,
            "shoulder_pan_joint": 0.7066247067284167,
            "wrist_1_joint": -0.46782909355067076,
            "wrist_2_joint": 0.7096259085804283,
            "wrist_3_joint": -3.1358149275257428
        }
    },
    "waypoints": [
        {
            "positions": [
                0.7066247067284167,
                -1.9085141043777403,
                2.3935871308073637,
                -0.46782909355067076,
                0.7096259085804283,
                -3.1358149275257428
            ]
        },
        {
            "positions": [
                0.6027751562929065,
                -1.8935492718046527,
                2.3868225954697952,
                -0.4085381614637858,
                0.6763087870939755,
                -3.004442355836779
            ]
        },
        {
            "positions": [
                0.49892560585739626,
                -1.8785844392315652,
                2.3800580601322268,
                -0.3492472293769009,
                0.6429916656075225,
                -2.873069784147815
            ]
        },
        {
            "positions": [
                0.395076055421886,
                -1.8636196066584776,
                2.3732935247946583,
                -0.28995629729001593,
                0.6096745441210697,
                -2.7416972124588517
            ]
        },
        {
            "positions": [
                0.4144362586817982,
                -1.9314969903870665,
                2.3038423968411363,
                -0.23648425796760936,
                0.5696669939335898,
                -2.8462863347005944
            ]
        },
        {
            "positions": [
                0.43379646194171034,
                -1.9993743741156553,
                2.2343912688876144,
                -0.18301221864520276,
                0.52965944374611,
                -2.950875456942337
            ]
        },
        {
            "positions": [
                0.45315666520162246,
                -2.067251757844244,
                2.164940140934092,
                -0.12954017932279618,
                0.48965189355863004,
                -3.0554645791840804
            ]
        },
        {
            "positions": [
                0.4725168684615346,
                -2.135129141572833,
                2.09548901298057,
                -0.07606814000038958,
                0.44964434337115017,
                -3.160053701425823
            ]
        },
        {
            "positions": [
                0.4918770717214468,
                -2.2030065253014217,
                2.026037885027048,
                -0.02259610067798301,
                0.4096367931836703,
                -3.264642823667566
            ]
        },
        {
            "positions": [
                0.5802231244392726,
                -2.195347464279185,
                1.8983900789659132,
                0.02731074383459841,
                0.4057625896536168,
                -3.1491933117432134
            ]
        },
        {
            "positions": [
                0.6685691771570985,
                -2.1876884032569484,
                1.7707422729047781,
                0.07721758834717983,
                0.40188838612356326,
                -3.0337437998188608
            ]
        },
        {
            "positions": [
                0.7569152298749243,
                -2.1800293422347115,
                1.6430944668436431,
                0.12712443285976124,
                0.39801418259350974,
                -2.918294287894508
            ]
        },
        {
            "positions": [
                0.8452612825927501,
                -2.172370281212475,
                1.5154466607825081,
                0.17703127737234267,
                0.3941399790634562,
                -2.8028447759701556
            ]
        },
        {
            "positions": [
                0.933607335310576,
                -2.164711220190238,
                1.387798854721373,
                0.2269381218849241,
                0.3902657755334027,
                -2.687395264045803
            ]
        },
        {
            "positions": [
                1.0219533880284017,
                -2.1570521591680016,
                1.260151048660238,
                0.2768449663975055,
                0.38639157200334917,
                -2.571945752121451
            ]
        },
        {
            "positions": [
                1.1102994407462279,
                -2.1493930981457647,
                1.132503242599103,
                0.3267518109100869,
                0.38251736847329565,
                -2.4564962401970982
            ]
        },
        {
            "positions": [
                1.1986454934640536,
                -2.1417340371235283,
                1.004855436537968,
                0.37665865542266835,
                0.37864316494324207,
                -2.3410467282727456
            ]
        },
        {
            "positions": [
                1.2869915461818795,
                -2.1340749761012914,
                0.877207630476833,
                0.4265654999352498,
                0.37476896141318855,
                -2.225597216348393
            ]
        },
        {
            "positions": [
                1.3753375988997054,
                -2.126415915079055,
                0.749559824415698,
                0.4764723444478312,
                0.37089475788313503,
                -2.1101477044240404
            ]
        },
        {
            "positions": [
                1.4636836516175311,
                -2.118756854056818,
                0.6219120183545632,
                0.5263791889604126,
                0.3670205543530815,
                -1.9946981924996878
            ]
        },
        {
            "positions": [
                1.5520297043353568,
                -2.1110977930345816,
                0.4942642122934282,
                0.576286033472994,
                0.363146350823028,
                -1.8792486805753352
            ]
        },
        {
            "positions": [
                1.640375757053183,
                -2.1034387320123447,
                0.36661640623229297,
                0.6261928779855754,
                0.35927214729297446,
                -1.7637991686509826
            ]
        },
        {
            "positions": [
                1.7287218097710086,
                -2.095779670990108,
                0.23896860017115795,
                0.6760997224981569,
                0.35539794376292094,
                -1.64834965672663
            ]
        },
        {
            "positions": [
                1.8170678624888348,
                -2.0881206099678713,
                0.11132079411002294,
                0.7260065670107383,
                0.3515237402328674,
                -1.5329001448022774
            ]
        },
        {
            "positions": [
                1.9054139152066605,
                -2.080461548945635,
                -0.01632701195111208,
                0.7759134115233197,
                0.3476495367028139,
                -1.4174506328779248
            ]
        },
        {
            "positions": [
                1.9937599679244862,
                -2.072802487923398,
                -0.14397481801224687,
                0.825820256035901,
                0.3437753331727604,
                -1.3020011209535725
            ]
        },
        {
            "positions": [
                2.0821060206423123,
                -2.0651434269011615,
                -0.2716226240733821,
                0.8757271005484826,
                0.33990112964270686,
                -1.1865516090292196
            ]
        },
        {
            "positions": [
                2.170452073360138,
                -2.0574843658789246,
                -0.3992704301345169,
                0.9256339450610639,
                0.33602692611265333,
                -1.071102097104867
            ]
        },
        {
            "positions": [
                2.2587981260779637,
                -2.049825304856688,
                -0.5269182361956521,
                0.9755407895736454,
                0.33215272258259976,
                -0.9556525851805144
            ]
        },
        {
            "positions": [
                2.34714417879579,
                -2.0421662438344512,
                -0.6545660422567869,
                1.0254476340862269,
                0.32827851905254624,
                -0.8402030732561618
            ]
        },
        {
            "positions": [
                2.4354902315136155,
                -2.0345071828122148,
                -0.7822138483179217,
                1.075354478598808,
                0.3244043155224927,
                -0.7247535613318097
            ]
        },
        {
            "positions": [
                2.5238362842314412,
                -2.026848121789978,
                -0.909861654379057,
                1.1252613231113897,
                0.3205301119924392,
                -0.6093040494074566
            ]
        },
        {
            "positions": [
                2.612182336949267,
                -2.0191890607677414,
                -1.0375094604401918,
                1.175168167623971,
                0.31665590846238567,
                -0.4938545374831045
            ]
        },
        {
            "positions": [
                2.7005283896670926,
                -2.0115299997455045,
                -1.165157266501327,
                1.2250750121365526,
                0.31278170493233215,
                -0.3784050255587519
            ]
        },
        {
            "positions": [
                2.7888744423849188,
                -2.003870938723268,
                -1.2928050725624622,
                1.2749818566491338,
                0.30890750140227863,
                -0.2629555136343993
            ]
        },
        {
            "positions": [
                2.8772204951027445,
                -1.9962118777010311,
                -1.420452878623597,
                1.3248887011617154,
                0.3050332978722251,
                -0.14750600171004669
            ]
        },
        {
            "positions": [
                2.9655665478205706,
                -1.9885528166787945,
                -1.5481006846847323,
                1.3747955456742966,
                0.3011590943421716,
                -0.03205648978569409
            ]
        },
        {
            "positions": [
                3.0539126005383963,
                -1.9808937556565578,
                -1.6757484907458673,
                1.4247023901868783,
                0.29728489081211806,
                0.08339302213865873
            ]
        },
        {
            "positions": [
                2.975030752877791,
                -2.081081540444131,
                -1.6734637502891767,
                1.340196619163459,
                0.33485375359072767,
                0.06605044256213713
            ]
        },
        {
            "positions": [
                2.8961489052171863,
                -2.1812693252317037,
                -1.6711790098324864,
                1.2556908481400393,
                0.3724226163693372,
                0.04870786298561553
            ]
        },
        {
            "positions": [
                2.817267057556581,
                -2.281457110019277,
                -1.6688942693757958,
                1.17118507711662,
                0.40999147914794676,
                0.03136528340909394
            ]
        },
        {
            "positions": [
                2.7383852098959762,
                -2.3816448948068496,
                -1.6666095289191054,
                1.0866793060932003,
                0.44756034192655636,
                0.014022703832572328
            ]
        },
        {
            "positions": [
                2.659503362235371,
                -2.4818326795944228,
                -1.6643247884624148,
                1.002173535069781,
                0.4851292047051659,
                -0.0033198757439492576
            ]
        }
    ]
}