{
    "goal": {
        "global_pose": {
            "orientation": {
                "w": 0.7031023480610252,
                "x": -0.7110244013736278,
                "y": 0.0077485991402295624,
                "z": 0.005598929693374583
            },
            "position": {
                "x": -0.8841497679147869,
                "y": 0.44412534475326537,
                "z": 0.3711530566215515
            }
        },
        "name": "move_to_auspresseinheit_D"
    },
    "id": "BKPIECE_move_to_auspresseinheit_D_132",
    "joint_names": [
        "shoulder_pan_joint",
        "shoulder_lift_joint",
        "elbow_joint",
        "wrist_1_joint",
        "wrist_2_joint",
        "wrist_3_joint"
    ],
    "metrics": {
        "cart_traj_len": 3.526500658039874,
        "distance_elbow_joint": 3.1966295377861327,
        "distance_shoulder_lift_joint": 1.4467857345958703,
        "distance_shoulder_pan_joint": 2.796571447656458,
        "distance_wrist_1_joint": 1.3129275321482154,
        "distance_wrist_2_joint": 0.8965427278515581,
        "distance_wrist_3_joint": 3.0552408970612954,
        "smoothness": 0.005752661007385676,
        "time": 0.58115748,
        "traj_len": 3.564365003349058,
        "weighted_distance": 4.5852644341653725
    },
    "planner": "BKPIECE",
    "start": {
        "state": {
            "elbow_joint": 1.8268400409724999,
            "shoulder_lift_joint": -1.0144045787793008,
            "shoulder_pan_joint": 2.6280239544362485,
            "wrist_1_joint": -0.790705565816056,
            "wrist_2_joint": 1.0573557467365533,
            "wrist_3_joint": 3.1851377467193758
        }
    },
    "waypoints": [
        {
            "positions": [
                2.6280239544362485,
                -1.0144045787793008,
                1.8268400409724999,
                -0.790705565816056,
                1.0573557467365533,
                3.1851377467193758
            ]
        },
        {
            "positions": [
                2.6030114599196543,
                -1.0120503027017251,
                1.7468789056636551,
                -0.7071057435571791,
                1.0152459948694246,
                3.030429354649925
            ]
        },
        {
            "positions": [
                2.57799896540306,
                -1.0096960266241493,
                1.6669177703548101,
                -0.6235059212983023,
                0.9731362430022956,
                2.875720962580474
            ]
        },
        {
            "positions": [
                2.552986470886466,
                -1.0073417505465736,
                1.5869566350459654,
                -0.5399060990394253,
                0.9310264911351669,
                2.721012570511023
            ]
        },
        {
            "positions": [
                2.527973976369872,
                -1.004987474468998,
                1.5069954997371207,
                -0.4563062767805485,
                0.888916739268038,
                2.566304178441572
            ]
        },
        {
            "positions": [
                2.5029614818532777,
                -1.0026331983914223,
                1.4270343644282757,
                -0.3727064545216716,
                0.8468069874009092,
                2.4115957863721205
            ]
        },
        {
            "positions": [
                2.477948987336684,
                -1.0002789223138464,
                1.347073229119431,
                -0.28910663226279476,
                0.8046972355337805,
                2.2568873943026695
            ]
        },
        {
            "positions": [
                2.45293649282009,
                -0.9979246462362708,
                1.267112093810586,
                -0.2055068100039178,
                0.7625874836666515,
                2.1021790022332185
            ]
        },
        {
            "positions": [
                2.4279239983034957,
                -0.995570370158695,
                1.1871509585017415,
                -0.12190698774504105,
                0.7204777317995228,
                1.9474706101637678
            ]
        },
        {
            "positions": [
                2.4029115037869015,
                -0.9932160940811193,
                1.1071898231928965,
                -0.038307165486164196,
                0.678367979932394,
                1.7927622180943166
            ]
        },
        {
            "positions": [
                2.3778990092703074,
                -0.9908618180035436,
                1.0272286878840515,
                0.04529265677271277,
                0.6362582280652651,
                1.6380538260248656
            ]
        },
        {
            "positions": [
                2.3528865147537132,
                -0.9885075419259679,
                0.9472675525752069,
                0.1288924790315895,
                0.5941484761981364,
                1.4833454339554146
            ]
        },
        {
            "positions": [
                2.327874020237119,
                -0.9861532658483921,
                0.867306417266362,
                0.2124923012904664,
                0.5520387243310075,
                1.3286370418859637
            ]
        },
        {
            "positions": [
                2.2089968053105795,
                -1.053702524022914,
                0.76077804040541,
                0.22724133295911847,
                0.5334089288335784,
                1.2715541755893978
            ]
        },
        {
            "positions": [
                2.09011959038404,
                -1.1212517821974362,
                0.6542496635444579,
                0.24199036462777057,
                0.5147791333361492,
                1.2144713092928319
            ]
        },
        {
            "positions": [
                1.9712423754575008,
                -1.188801040371958,
                0.5477212866835057,
                0.2567393962964226,
                0.49614933783872,
                1.1573884429962662
            ]
        },
        {
            "positions": [
                1.8523651605309612,
                -1.25635029854648,
                0.4411929098225537,
                0.2714884279650747,
                0.47751954234129085,
                1.1003055766997003
            ]
        },
        {
            "positions": [
                1.7334879456044217,
                -1.3238995567210021,
                0.3346645329616016,
                0.2862374596337268,
                0.45888974684386163,
                1.0432227104031344
            ]
        },
        {
            "positions": [
                1.6146107306778823,
                -1.391448814895524,
                0.22813615610064952,
                0.30098649130237887,
                0.4402599513464325,
                0.9861398441065685
            ]
        },
        {
            "positions": [
                1.495733515751343,
                -1.458998073070046,
                0.12160777923969746,
                0.31573552297103097,
                0.4216301558490033,
                0.9290569778100027
            ]
        },
        {
            "positions": [
                1.3768563008248034,
                -1.526547331244568,
                0.015079402378745388,
                0.33048455463968307,
                0.40300036035157416,
                0.871974111513437
            ]
        },
        {
            "positions": [
                1.257979085898264,
                -1.59409658941909,
                -0.09144897448220679,
                0.3452335863083351,
                0.38437056485414495,
                0.8148912452168711
            ]
        },
        {
            "positions": [
                1.1391018709717244,
                -1.661645847593612,
                -0.19797735134315886,
                0.3599826179769872,
                0.3657407693567158,
                0.7578083789203052
            ]
        },
        {
            "positions": [
                1.0202246560451849,
                -1.729195105768134,
                -0.30450572820411104,
                0.3747316496456393,
                0.3471109738592866,
                0.7007255126237393
            ]
        },
        {
            "positions": [
                0.9013474411186455,
                -1.796744363942656,
                -0.411034105065063,
                0.38948068131429137,
                0.3284811783618574,
                0.6436426463271735
            ]
        },
        {
            "positions": [
                0.7824702261921059,
                -1.8642936221171782,
                -0.5175624819260152,
                0.4042297129829435,
                0.30985138286442826,
                0.5865597800306076
            ]
        },
        {
            "positions": [
                0.6635930112655666,
                -1.9318428802917,
                -0.6240908587869671,
                0.41897874465159557,
                0.2912215873669991,
                0.5294769137340418
            ]
        },
        {
            "positions": [
                0.544715796339027,
                -1.9993921384662219,
                -0.7306192356479193,
                0.4337277763202476,
                0.2725917918695699,
                0.47239404743747593
            ]
        },
        {
            "positions": [
                0.42583858141248765,
                -2.0669413966407437,
                -0.8371476125088713,
                0.4484768079888997,
                0.25396199637214073,
                0.41531118114091015
            ]
        },
        {
            "positions": [
                0.3069613664859481,
                -2.134490654815266,
                -0.9436759893698237,
                0.4632258396575518,
                0.23533220087471152,
                0.35822831484434414
            ]
        },
        {
            "positions": [
                0.18808415155940894,
                -2.202039912989788,
                -1.0502043662307756,
                0.47797487132620387,
                0.21670240537728236,
                0.30114544854777847
            ]
        },
        {
            "positions": [
                0.06920693663286892,
                -2.26958917116431,
                -1.1567327430917276,
                0.492723902994856,
                0.1980726098798532,
                0.24406258225121258
            ]
        },
        {
            "positions": [
                -0.04967027829367021,
                -2.337138429338832,
                -1.2632611199526798,
                0.5074729346635081,
                0.17944281438242404,
                0.18697971595464669
            ]
        },
        {
            "positions": [
                -0.16854749322020965,
                -2.404687687513354,
                -1.3697894968136317,
                0.5222219663321601,
                0.16081301888499483,
                0.12989684965808077
            ]
        }
    ]
}