{
    "goal": {
        "global_pose": {
            "orientation": {
                "w": -0.4816463035849501,
                "x": 0.5182115481033762,
                "y": 0.4908360881923453,
                "z": -0.5084816262002911
            },
            "position": {
                "x": -0.8240239810943604,
                "y": -0.300875300988555,
                "z": 0.16403168439865112
            }
        },
        "name": "move_to_storage_C"
    },
    "id": "BKPIECE_move_to_storage_C_144",
    "joint_names": [
        "shoulder_pan_joint",
        "shoulder_lift_joint",
        "elbow_joint",
        "wrist_1_joint",
        "wrist_2_joint",
        "wrist_3_joint"
    ],
    "metrics": {
        "cart_traj_len": 0.5770848838157676,
        "distance_elbow_joint": 0.2598079217606204,
        "distance_shoulder_lift_joint": 0.18924011191584156,
        "distance_shoulder_pan_joint": 0.49430126915585015,
        "distance_wrist_1_joint": 0.08399996890208872,
        "distance_wrist_2_joint": 1.0745684329375798,
        "distance_wrist_3_joint": 0.06460000231506058,
        "smoothness": 0.0,
        "time": 0.300188339,
        "traj_len": 1.471909544430989,
        "weighted_distance": 1.8585709869296978
    },
    "planner": "BKPIECE",
    "start": {
        "state": {
            "elbow_joint": 2.010868315001653,
            "shoulder_lift_joint": -1.1634956873357014,
            "shoulder_pan_joint": -2.4736205022346103,
            "wrist_1_joint": -0.8367026794713948,
            "wrist_2_joint": 0.6746043897044093,
            "wrist_3_joint": 3.1335220948105738
        }
    },
    "waypoints": [
        {
            "positions": [
                -2.4736205022346103,
                -1.1634956873357014,
                2.010868315001653,
                -0.8367026794713948,
                0.6746043897044093,
                3.1335220948105738
            ]
        },
        {
            "positions": [
                -2.5560040470939187,
                -1.1319556686830612,
                1.9675669947082164,
                -0.82270268465438,
                0.8536991285273392,
                3.1442887618630837
            ]
        },
        {
            "positions": [
                -2.638387591953227,
                -1.100415650030421,
                1.9242656744147797,
                -0.8087026898373652,
                1.0327938673502692,
                3.155055428915594
            ]
        },
        {
            "positions": [
                -2.7207711368125356,
                -1.0688756313777805,
                1.880964354121343,
                -0.7947026950203504,
                1.2118886061731993,
                3.165822095968104
            ]
        },
        {
            "positions": [
                -2.8031546816718436,
                -1.0373356127251403,
                1.837663033827906,
                -0.7807027002033357,
                1.390983344996129,
                3.176588763020614
            ]
        },
        {
            "positions": [
                -2.885538226531152,
                -1.0057955940725,
                1.7943617135344694,
                -0.7667027053863208,
                1.5700780838190591,
                3.1873554300731244
            ]
        },
        {
            "positions": [
                -2.9679217713904604,
                -0.9742555754198599,
                1.7510603932410327,
                -0.752702710569306,
                1.7491728226419891,
                3.1981220971256343
            ]
        }
    ]
}