{
    "goal": {
        "global_pose": {
            "orientation": {
                "w": -0.00223480608172531,
                "x": 0.0024358444001904467,
                "y": 0.7094548369677653,
                "z": -0.704743149386269
            },
            "position": {
                "x": 0.6205249238014221,
                "y": -0.6371506643295288,
                "z": 0.19426114857196808
            }
        },
        "name": "move_to_magneteinheit_B"
    },
    "id": "BKPIECE_move_to_magneteinheit_B_94",
    "joint_names": [
        "shoulder_pan_joint",
        "shoulder_lift_joint",
        "elbow_joint",
        "wrist_1_joint",
        "wrist_2_joint",
        "wrist_3_joint"
    ],
    "metrics": {
        "cart_traj_len": 1.4526484214215531,
        "distance_elbow_joint": 0.7318772729480736,
        "distance_shoulder_lift_joint": 1.2489078070467563,
        "distance_shoulder_pan_joint": 1.620158860933492,
        "distance_wrist_1_joint": 2.6041968712483383,
        "distance_wrist_2_joint": 2.939461554580133,
        "distance_wrist_3_joint": 3.1308307571818697,
        "smoothness": 3.053113318408425e-16,
        "time": 1.369915387,
        "traj_len": 3.5036314195329763,
        "weighted_distance": 4.907214389460773
    },
    "planner": "BKPIECE",
    "start": {
        "state": {
            "elbow_joint": 2.3935871308073637,
            "shoulder_lift_joint": -1.9085141043777403,
            "shoulder_pan_joint": 0.7066247067284167,
            "wrist_1_joint": -0.46782909355067076,
            "wrist_2_joint": 0.7096259085804283,
            "wrist_3_joint": -3.1358149275257428
        }
    },
    "waypoints": [
        {
            "positions": [
                0.7066247067284167,
                -1.9085141043777403,
                2.3935871308073637,
                -0.46782909355067076,
                0.7096259085804283,
                -3.1358149275257428
            ]
        },
        {
            "positions": [
                0.654361517666046,
                -1.8682267557633288,
                2.369978186518716,
                -0.3838227428652405,
                0.6148045681101014,
                -3.034820386971489
            ]
        },
        {
            "positions": [
                0.6020983286036753,
                -1.8279394071489172,
                2.3463692422300686,
                -0.29981639217981026,
                0.5199832276397746,
                -2.933825846417235
            ]
        },
        {
            "positions": [
                0.5498351395413046,
                -1.7876520585345057,
                2.322760297941421,
                -0.21581004149438,
                0.4251618871694477,
                -2.8328313058629813
            ]
        },
        {
            "positions": [
                0.4975719504789339,
                -1.7473647099200944,
                2.2991513536527735,
                -0.13180369080894971,
                0.33034054669912083,
                -2.7318367653087274
            ]
        },
        {
            "positions": [
                0.44530876141656317,
                -1.7070773613056829,
                2.275542409364126,
                -0.04779734012351944,
                0.23551920622879396,
                -2.6308422247544736
            ]
        },
        {
            "positions": [
                0.39304557235419246,
                -1.6667900126912714,
                2.2519334650754788,
                0.03620901056191078,
                0.1406978657584671,
                -2.5298476842002198
            ]
        },
        {
            "positions": [
                0.34078238329182176,
                -1.6265026640768598,
                2.228324520786831,
                0.12021536124734106,
                0.045876525288140235,
                -2.4288531436459655
            ]
        },
        {
            "positions": [
                0.28851919422945105,
                -1.5862153154624483,
                2.2047155764981836,
                0.20422171193277133,
                -0.04894481518218663,
                -2.3278586030917117
            ]
        },
        {
            "positions": [
                0.23625600516708029,
                -1.5459279668480368,
                2.181106632209536,
                0.2882280626182017,
                -0.1437661556525136,
                -2.226864062537458
            ]
        },
        {
            "positions": [
                0.18399281610470963,
                -1.5056406182336253,
                2.1574976879208885,
                0.3722344133036319,
                -0.23858749612284036,
                -2.125869521983204
            ]
        },
        {
            "positions": [
                0.13172962704233881,
                -1.4653532696192137,
                2.133888743632241,
                0.45624076398906227,
                -0.33340883659316745,
                -2.02487498142895
            ]
        },
        {
            "positions": [
                0.07946643797996822,
                -1.4250659210048022,
                2.1102797993435933,
                0.5402471146744923,
                -0.4282301770634941,
                -1.9238804408746966
            ]
        },
        {
            "positions": [
                0.0272032489175974,
                -1.384778572390391,
                2.0866708550549458,
                0.6242534653599228,
                -0.5230515175338212,
                -1.8228859003204425
            ]
        },
        {
            "positions": [
                -0.025059940144773196,
                -1.3444912237759794,
                2.063061910766298,
                0.7082598160453528,
                -0.6178728580041478,
                -1.7218913597661887
            ]
        },
        {
            "positions": [
                -0.07732312920714401,
                -1.3042038751615679,
                2.0394529664776506,
                0.7922661667307833,
                -0.7126941984744749,
                -1.6208968192119348
            ]
        },
        {
            "positions": [
                -0.1295863182695146,
                -1.2639165265471564,
                2.015844022189003,
                0.8762725174162134,
                -0.8075155389448015,
                -1.519902278657681
            ]
        },
        {
            "positions": [
                -0.18184950733188532,
                -1.2236291779327448,
                1.9922350779003557,
                0.9602788681016436,
                -0.9023368794151284,
                -1.4189077381034272
            ]
        },
        {
            "positions": [
                -0.23411269639425614,
                -1.1833418293183333,
                1.9686261336117081,
                1.0442852187870741,
                -0.9971582198854555,
                -1.3179131975491731
            ]
        },
        {
            "positions": [
                -0.28637588545662684,
                -1.1430544807039218,
                1.9450171893230606,
                1.1282915694725044,
                -1.0919795603557825,
                -1.2169186569949193
            ]
        },
        {
            "positions": [
                -0.33863907451899744,
                -1.1027671320895105,
                1.921408245034413,
                1.2122979201579345,
                -1.1868009008261091,
                -1.1159241164406657
            ]
        },
        {
            "positions": [
                -0.39090226358136804,
                -1.062479783475099,
                1.8977993007457656,
                1.2963042708433647,
                -1.2816222412964358,
                -1.0149295758864119
            ]
        },
        {
            "positions": [
                -0.4431654526437391,
                -1.0221924348606874,
                1.874190356457118,
                1.3803106215287952,
                -1.3764435817667633,
                -0.9139350353321576
            ]
        },
        {
            "positions": [
                -0.4954286417061097,
                -0.9819050862462759,
                1.8505814121684705,
                1.4643169722142253,
                -1.47126492223709,
                -0.8129404947779038
            ]
        },
        {
            "positions": [
                -0.5476918307684803,
                -0.9416177376318644,
                1.826972467879823,
                1.5483233228996554,
                -1.5660862627074166,
                -0.7119459542236504
            ]
        },
        {
            "positions": [
                -0.5999550198308511,
                -0.9013303890174531,
                1.8033635235911754,
                1.6323296735850858,
                -1.6609076031777437,
                -0.6109514136693965
            ]
        },
        {
            "positions": [
                -0.6522182088932219,
                -0.8610430404030414,
                1.7797545793025278,
                1.7163360242705163,
                -1.7557289436480708,
                -0.5099568731151423
            ]
        },
        {
            "positions": [
                -0.7044813979555925,
                -0.8207556917886298,
                1.7561456350138802,
                1.8003423749559464,
                -1.8505502841183974,
                -0.40896233256088843
            ]
        },
        {
            "positions": [
                -0.7567445870179631,
                -0.7804683431742185,
                1.7325366907252326,
                1.8843487256413765,
                -1.945371624588724,
                -0.3079677920066346
            ]
        },
        {
            "positions": [
                -0.8090077760803339,
                -0.740180994559807,
                1.7089277464365853,
                1.968355076326807,
                -2.040192965059051,
                -0.2069732514523812
            ]
        },
        {
            "positions": [
                -0.8612709651427047,
                -0.6998936459453955,
                1.6853188021479375,
                2.0523614270122374,
                -2.135014305529378,
                -0.10597871089812694
            ]
        },
        {
            "positions": [
                -0.9135341542050753,
                -0.659606297330984,
                1.6617098578592902,
                2.1363677776976675,
                -2.229835645999705,
                -0.00498417034387326
            ]
        }
    ]
}