{
    "goal": {
        "global_pose": {
            "orientation": {
                "w": 0.7047431493862688,
                "x": -0.7094548369677653,
                "y": 0.0024358444001904,
                "z": -0.0022348060817251984
            },
            "position": {
                "x": -0.39052492380142206,
                "y": 0.3671506643295288,
                "z": 0.19426114857196808
            }
        },
        "name": "move_to_magneteinheit_D"
    },
    "id": "BKPIECE_move_to_magneteinheit_D_112",
    "joint_names": [
        "shoulder_pan_joint",
        "shoulder_lift_joint",
        "elbow_joint",
        "wrist_1_joint",
        "wrist_2_joint",
        "wrist_3_joint"
    ],
    "metrics": {
        "cart_traj_len": 4.1673078309956395,
        "distance_elbow_joint": 3.1355326259536636,
        "distance_shoulder_lift_joint": 2.16508797858983,
        "distance_shoulder_pan_joint": 2.9449407199015476,
        "distance_wrist_1_joint": 4.171474531135125,
        "distance_wrist_2_joint": 2.5054502099343248,
        "distance_wrist_3_joint": 3.35905960739193,
        "smoothness": 0.35811643699709916,
        "time": 0.552078815,
        "traj_len": 4.275692420287784,
        "weighted_distance": 5.628195947971227
    },
    "planner": "BKPIECE",
    "start": {
        "state": {
            "elbow_joint": 0.7495348899011973,
            "shoulder_lift_joint": -0.6476975780737697,
            "shoulder_pan_joint": -2.711696901376276,
            "wrist_1_joint": -0.07506478080974305,
            "wrist_2_joint": 0.4329665971545858,
            "wrist_3_joint": 3.1361499051832524
        }
    },
    "waypoints": [
        {
            "positions": [
                -2.711696901376276,
                -0.6476975780737697,
                0.7495348899011973,
                -0.07506478080974305,
                0.4329665971545858,
                3.1361499051832524
            ]
        },
        {
            "positions": [
                -2.7209831580197794,
                -0.6285314311978603,
                0.6806794995455523,
                -0.005745711180860258,
                0.4904419327710223,
                3.0328867336380156
            ]
        },
        {
            "positions": [
                -2.730269414663282,
                -0.6093652843219509,
                0.6118241091899073,
                0.06357335844802253,
                0.5479172683874588,
                2.929623562092779
            ]
        },
        {
            "positions": [
                -2.7395556713067855,
                -0.5901991374460416,
                0.5429687188342622,
                0.13289242807690532,
                0.6053926040038953,
                2.8263603905475416
            ]
        },
        {
            "positions": [
                -2.7488419279502887,
                -0.5710329905701321,
                0.4741133284786172,
                0.2022114977057881,
                0.6628679396203319,
                2.723097219002305
            ]
        },
        {
            "positions": [
                -2.738013515149659,
                -0.5472877745849206,
                0.3820843523841157,
                0.24122253928392268,
                0.7248419886636289,
                2.5755327212309926
            ]
        },
        {
            "positions": [
                -2.7271851023490292,
                -0.523542558599709,
                0.2900553762896142,
                0.28023358086205724,
                0.786816037706926,
                2.427968223459681
            ]
        },
        {
            "positions": [
                -2.716356689548399,
                -0.4997973426144975,
                0.19802640019511275,
                0.3192446224401918,
                0.8487900867502229,
                2.2804037256883687
            ]
        },
        {
            "positions": [
                -2.7055282767477693,
                -0.4760521266292859,
                0.10599742410061125,
                0.3582556640183263,
                0.91076413579352,
                2.1328392279170565
            ]
        },
        {
            "positions": [
                -2.6946998639471396,
                -0.45230691064407436,
                0.013968448006109746,
                0.39726670559646093,
                0.9727381848368171,
                1.9852747301457445
            ]
        },
        {
            "positions": [
                -2.6838714511465094,
                -0.42856169465886285,
                -0.0780605280883917,
                0.43627774717459544,
                1.034712233880114,
                1.8377102323744325
            ]
        },
        {
            "positions": [
                -2.6730430383458796,
                -0.4048164786736513,
                -0.17008950418289326,
                0.47528878875273,
                1.096686282923411,
                1.6901457346031203
            ]
        },
        {
            "positions": [
                -2.66221462554525,
                -0.3810712626884397,
                -0.2621184802773947,
                0.5142998303308646,
                1.1586603319667081,
                1.5425812368318084
            ]
        },
        {
            "positions": [
                -2.6328087490008762,
                -0.4076176702793466,
                -0.3150636529358948,
                0.6042684089103721,
                1.1884533052619817,
                1.415152705723234
            ]
        },
        {
            "positions": [
                -2.6034028724565026,
                -0.4341640778702534,
                -0.36800882559439485,
                0.6942369874898797,
                1.2182462785572552,
                1.2877241746146597
            ]
        },
        {
            "positions": [
                -2.573996995912129,
                -0.4607104854611603,
                -0.4209539982528949,
                0.7842055660693874,
                1.2480392518525287,
                1.1602956435060854
            ]
        },
        {
            "positions": [
                -2.4706557984580573,
                -0.5126435831232681,
                -0.4859040079406451,
                0.7279085322476869,
                1.1896743692207914,
                1.108221206140776
            ]
        },
        {
            "positions": [
                -2.3673146010039856,
                -0.5645766807853759,
                -0.5508540176283953,
                0.6716114984259864,
                1.131309486589054,
                1.0561467687754662
            ]
        },
        {
            "positions": [
                -2.2639734035499135,
                -0.6165097784474838,
                -0.6158040273161455,
                0.6153144646042861,
                1.0729446039573167,
                1.0040723314101567
            ]
        },
        {
            "positions": [
                -2.160632206095842,
                -0.6684428761095916,
                -0.6807540370038956,
                0.5590174307825855,
                1.0145797213255794,
                0.9519978940448471
            ]
        },
        {
            "positions": [
                -2.05729100864177,
                -0.7203759737716995,
                -0.7457040466916458,
                0.5027203969608851,
                0.9562148386938419,
                0.8999234566795375
            ]
        },
        {
            "positions": [
                -1.9539498111876985,
                -0.7723090714338072,
                -0.810654056379396,
                0.4464233631391846,
                0.8978499560621046,
                0.8478490193142281
            ]
        },
        {
            "positions": [
                -1.8506086137336264,
                -0.8242421690959152,
                -0.8756040660671461,
                0.3901263293174841,
                0.8394850734303672,
                0.7957745819489184
            ]
        },
        {
            "positions": [
                -1.7472674162795547,
                -0.8761752667580229,
                -0.9405540757548962,
                0.33382929549578366,
                0.7811201907986298,
                0.7437001445836089
            ]
        },
        {
            "positions": [
                -1.643926218825483,
                -0.9281083644201309,
                -1.0055040854426465,
                0.2775322616740832,
                0.7227553081668925,
                0.6916257072182993
            ]
        },
        {
            "positions": [
                -1.5405850213714114,
                -0.9800414620822386,
                -1.0704540951303967,
                0.2212352278523827,
                0.6643904255351551,
                0.6395512698529897
            ]
        },
        {
            "positions": [
                -1.4372438239173395,
                -1.0319745597443466,
                -1.135404104818147,
                0.16493819403068222,
                0.6060255429034178,
                0.5874768324876801
            ]
        },
        {
            "positions": [
                -1.3339026264632678,
                -1.0839076574064543,
                -1.2003541145058971,
                0.10864116020898185,
                0.5476606602716805,
                0.5354023951223706
            ]
        },
        {
            "positions": [
                -1.2305614290091962,
                -1.135840755068562,
                -1.2653041241936471,
                0.052344126387281364,
                0.48929577763994314,
                0.48332795775706106
            ]
        },
        {
            "positions": [
                -1.127220231555124,
                -1.18777385273067,
                -1.3302541338813973,
                -0.003952907434419228,
                0.4309308950082057,
                0.43125352039175147
            ]
        },
        {
            "positions": [
                -1.0238790341010524,
                -1.2397069503927778,
                -1.3952041435691476,
                -0.0602499412561196,
                0.37256601237646836,
                0.3791790830264419
            ]
        },
        {
            "positions": [
                -0.9205378366469807,
                -1.2916400480548857,
                -1.4601541532568976,
                -0.11654697507782008,
                0.314201129744731,
                0.3271046456611324
            ]
        },
        {
            "positions": [
                -0.8171966391929091,
                -1.3435731457169935,
                -1.5251041629446478,
                -0.17284400889952045,
                0.2558362471129938,
                0.2750302082958228
            ]
        },
        {
            "positions": [
                -0.7138554417388372,
                -1.3955062433791015,
                -1.590054172632398,
                -0.22914104272122104,
                0.19747136448125624,
                0.22295577093051322
            ]
        },
        {
            "positions": [
                -0.6105142442847655,
                -1.4474393410412092,
                -1.6550041823201482,
                -0.2854380765429214,
                0.1391064818495189,
                0.17088133356520363
            ]
        },
        {
            "positions": [
                -0.5071730468306939,
                -1.4993724387033172,
                -1.7199541920078982,
                -0.341735110364622,
                0.08074159921778157,
                0.11880689619989404
            ]
        },
        {
            "positions": [
                -0.4038318493766222,
                -1.551305536365425,
                -1.7849042016956485,
                -0.3980321441863224,
                0.022376716586044232,
                0.06673245883458456
            ]
        },
        {
            "positions": [
                -0.3004906519225501,
                -1.6032386340275329,
                -1.8498542113833987,
                -0.45432917800802297,
                -0.035988166045693104,
                0.014658021469274862
            ]
        },
        {
            "positions": [
                -0.19714945446847823,
                -1.6551717316896406,
                -1.914804221071149,
                -0.5106262118297233,
                -0.09435304867743045,
                -0.037416415896034685
            ]
        },
        {
            "positions": [
                -0.16452375239462042,
                -1.7162934271823156,
                -1.968817893501045,
                -0.3595561671492542,
                -0.1040500958839975,
                -0.05280088770700274
            ]
        },
        {
            "positions": [
                -0.13189805032076257,
                -1.7774151226749904,
                -2.0228315659309413,
                -0.20848612246878512,
                -0.11374714309056452,
                -0.0681853595179708
            ]
        },
        {
            "positions": [
                -0.09927234824690474,
                -1.8385368181676651,
                -2.0768452383608373,
                -0.05741607778831603,
                -0.12344419029713156,
                -0.08356983132893886
            ]
        },
        {
            "positions": [
                -0.06664664617304691,
                -1.89965851366034,
                -2.1308589107907334,
                0.09365396689215313,
                -0.1331412375036986,
                -0.09895430313990691
            ]
        },
        {
            "positions": [
                -0.05601255519432623,
                -1.9637390118384561,
                -2.1809764015847333,
                0.2918453460759489,
                -0.11988185461133023,
                -0.1012286977944132
            ]
        },
        {
            "positions": [
                -0.04537846421560554,
                -2.027819510016572,
                -2.2310938923787336,
                0.49003672525974473,
                -0.10662247171896186,
                -0.10350309244891948
            ]
        },
        {
            "positions": [
                -0.034744373236884854,
                -2.0919000081946884,
                -2.2812113831727334,
                0.6882281044435405,
                -0.09336308882659347,
                -0.10577748710342574
            ]
        },
        {
            "positions": [
                -0.024110282258164167,
                -2.155980506372804,
                -2.3313288739667337,
                0.8864194836273364,
                -0.0801037059342251,
                -0.10805188175793203
            ]
        },
        {
            "positions": [
                -0.013476191279443477,
                -2.2200610045509204,
                -2.3814463647607336,
                1.0846108628111322,
                -0.06684432304185672,
                -0.1103262764124383
            ]
        },
        {
            "positions": [
                -0.07095284349834045,
                -2.2398849783315935,
                -2.379929240996823,
                1.2253226400498078,
                0.014122394097581092,
                -0.07279846781369143
            ]
        },
        {
            "positions": [
                -0.12842949571723744,
                -2.2597089521122666,
                -2.3784121172329127,
                1.3660344172884837,
                0.09508911123701891,
                -0.035270659214944544
            ]
        },
        {
            "positions": [
                -0.1859061479361344,
                -2.2795329258929398,
                -2.3768949934690022,
                1.5067461945271594,
                0.17605582837645672,
                0.0022571493838023484
            ]
        }
    ]
}