{
    "goal": {
        "global_pose": {
            "orientation": {
                "w": 0.7031023480610252,
                "x": -0.7110244013736278,
                "y": 0.0077485991402295624,
                "z": 0.005598929693374583
            },
            "position": {
                "x": -0.8841497679147869,
                "y": 0.44412534475326537,
                "z": 0.3711530566215515
            }
        },
        "name": "move_to_auspresseinheit_D"
    },
    "id": "BKPIECE_move_to_auspresseinheit_D_64",
    "joint_names": [
        "shoulder_pan_joint",
        "shoulder_lift_joint",
        "elbow_joint",
        "wrist_1_joint",
        "wrist_2_joint",
        "wrist_3_joint"
    ],
    "metrics": {
        "cart_traj_len": 3.6473822754249885,
        "distance_elbow_joint": 3.004671102085853,
        "distance_shoulder_lift_joint": 1.2396949647052509,
        "distance_shoulder_pan_joint": 2.7976111319570394,
        "distance_wrist_1_joint": 2.23062984643849,
        "distance_wrist_2_joint": 1.2711427184076112,
        "distance_wrist_3_joint": 6.251919538292347,
        "smoothness": 0.03313055904415133,
        "time": 1.185797241,
        "traj_len": 4.09825198125818,
        "weighted_distance": 5.727240255421227
    },
    "planner": "BKPIECE",
    "start": {
        "state": {
            "elbow_joint": 1.8268400409724999,
            "shoulder_lift_joint": -1.0144045787793008,
            "shoulder_pan_joint": 2.6280239544362485,
            "wrist_1_joint": -0.790705565816056,
            "wrist_2_joint": 1.0573557467365533,
            "wrist_3_joint": 3.1851377467193758
        }
    },
    "waypoints": [
        {
            "positions": [
                2.6280239544362485,
                -1.0144045787793008,
                1.8268400409724999,
                -0.790705565816056,
                1.0573557467365533,
                3.1851377467193758
            ]
        },
        {
            "positions": [
                2.5807414826698323,
                -1.0874668582331257,
                1.7683551070412153,
                -0.7791636851876524,
                1.0629983603939055,
                3.0136567843164532
            ]
        },
        {
            "positions": [
                2.5334590109034165,
                -1.1605291376869507,
                1.7098701731099308,
                -0.7676218045592489,
                1.068640974051258,
                2.842175821913531
            ]
        },
        {
            "positions": [
                2.4861765391370003,
                -1.2335914171407758,
                1.6513852391786465,
                -0.7560799239308452,
                1.07428358770861,
                2.6706948595106086
            ]
        },
        {
            "positions": [
                2.4388940673705846,
                -1.3066536965946007,
                1.592900305247362,
                -0.7445380433024417,
                1.0799262013659625,
                2.499213897107686
            ]
        },
        {
            "positions": [
                2.3916115956041684,
                -1.3797159760484257,
                1.5344153713160775,
                -0.7329961626740381,
                1.0855688150233147,
                2.327732934704764
            ]
        },
        {
            "positions": [
                2.3242116278903535,
                -1.4027260699283237,
                1.4630404651995135,
                -0.7901782796028927,
                1.0528601400201345,
                2.18577202085535
            ]
        },
        {
            "positions": [
                2.256811660176539,
                -1.4257361638082218,
                1.3916655590829496,
                -0.8473603965317471,
                1.020151465016954,
                2.043811107005936
            ]
        },
        {
            "positions": [
                2.1894116924627243,
                -1.4487462576881198,
                1.3202906529663856,
                -0.9045425134606017,
                0.9874427900137739,
                1.9018501931565217
            ]
        },
        {
            "positions": [
                2.1220117247489094,
                -1.4717563515680179,
                1.2489157468498218,
                -0.9617246303894562,
                0.9547341150105937,
                1.7598892793071075
            ]
        },
        {
            "positions": [
                2.054611757035095,
                -1.494766445447916,
                1.1775408407332577,
                -1.0189067473183107,
                0.9220254400074135,
                1.6179283654576935
            ]
        },
        {
            "positions": [
                1.9872117893212802,
                -1.517776539327814,
                1.1061659346166937,
                -1.0760888642471653,
                0.8893167650042332,
                1.4759674516082795
            ]
        },
        {
            "positions": [
                1.9198118216074653,
                -1.540786633207712,
                1.0347910285001298,
                -1.1332709811760198,
                0.8566080900010529,
                1.3340065377588655
            ]
        },
        {
            "positions": [
                1.8524118538936507,
                -1.56379672708761,
                0.9634161223835658,
                -1.1904530981048742,
                0.8238994149978727,
                1.1920456239094512
            ]
        },
        {
            "positions": [
                1.785011886179836,
                -1.5868068209675081,
                0.8920412162670018,
                -1.2476352150337289,
                0.7911907399946925,
                1.0500847100600372
            ]
        },
        {
            "positions": [
                1.7176119184660212,
                -1.6098169148474062,
                0.8206663101504379,
                -1.3048173319625833,
                0.7584820649915122,
                0.908123796210623
            ]
        },
        {
            "positions": [
                1.6502119507522066,
                -1.6328270087273042,
                0.7492914040338738,
                -1.3619994488914378,
                0.7257733899883319,
                0.7661628823612088
            ]
        },
        {
            "positions": [
                1.582811983038392,
                -1.6558371026072023,
                0.6779164979173099,
                -1.4191815658202924,
                0.6930647149851517,
                0.6242019685117948
            ]
        },
        {
            "positions": [
                1.5154120153245771,
                -1.6788471964871003,
                0.6065415918007458,
                -1.476363682749147,
                0.6603560399819713,
                0.48224105466238054
            ]
        },
        {
            "positions": [
                1.4480120476107625,
                -1.7018572903669984,
                0.535166685684182,
                -1.5335457996780013,
                0.6276473649787911,
                0.34028014081296676
            ]
        },
        {
            "positions": [
                1.3806120798969477,
                -1.7248673842468965,
                0.46379177956761786,
                -1.590727916606856,
                0.5949386899756108,
                0.19831922696355253
            ]
        },
        {
            "positions": [
                1.313212112183133,
                -1.7478774781267945,
                0.392416873451054,
                -1.6479100335357104,
                0.5622300149724306,
                0.056358313114138525
            ]
        },
        {
            "positions": [
                1.2458121444693184,
                -1.7708875720066926,
                0.32104196733449,
                -1.705092150464565,
                0.5295213399692503,
                -0.08560260073527592
            ]
        },
        {
            "positions": [
                1.1784121767555038,
                -1.7938976658865906,
                0.24966706121792615,
                -1.7622742673934195,
                0.49681266496607013,
                -0.22756351458468949
            ]
        },
        {
            "positions": [
                1.111012209041689,
                -1.8169077597664887,
                0.1782921551013621,
                -1.8194563843222742,
                0.4641039899628898,
                -0.36952442843410394
            ]
        },
        {
            "positions": [
                1.0436122413278743,
                -1.8399178536463867,
                0.10691724898479826,
                -1.8766385012511284,
                0.4313953149597096,
                -0.5114853422835179
            ]
        },
        {
            "positions": [
                0.9762122736140595,
                -1.8629279475262848,
                0.03554234286823399,
                -1.933820618179983,
                0.3986866399565292,
                -0.6534462561329324
            ]
        },
        {
            "positions": [
                0.9088123059002449,
                -1.8859380414061828,
                -0.03583256324832984,
                -1.9910027351088377,
                0.365977964953349,
                -0.7954071699823464
            ]
        },
        {
            "positions": [
                0.8414123381864302,
                -1.9089481352860809,
                -0.10720746936489367,
                -2.048184852037692,
                0.3332692899501688,
                -0.9373680838317604
            ]
        },
        {
            "positions": [
                0.7740123704726156,
                -1.931958229165979,
                -0.17858237548145772,
                -2.1053669689665466,
                0.3005606149469886,
                -1.0793289976811744
            ]
        },
        {
            "positions": [
                0.7066124027588006,
                -1.954968323045877,
                -0.24995728159802177,
                -2.1625490858954013,
                0.2678519399438082,
                -1.2212899115305889
            ]
        },
        {
            "positions": [
                0.6392124350449859,
                -1.977978416925775,
                -0.3213321877145858,
                -2.219731202824256,
                0.23514326494062798,
                -1.3632508253800029
            ]
        },
        {
            "positions": [
                0.5718124673311713,
                -2.000988510805673,
                -0.39270709383114966,
                -2.27691331975311,
                0.20243458993744778,
                -1.5052117392294169
            ]
        },
        {
            "positions": [
                0.5044124996173567,
                -2.023998604685571,
                -0.4640819999477135,
                -2.334095436681965,
                0.16972591493426759,
                -1.6471726530788304
            ]
        },
        {
            "positions": [
                0.43701253190354183,
                -2.0470086985654694,
                -0.5354569060642778,
                -2.3912775536108195,
                0.13701723993108716,
                -1.7891335669282449
            ]
        },
        {
            "positions": [
                0.369612564189727,
                -2.0700187924453672,
                -0.6068318121808418,
                -2.4484596705396737,
                0.10430856492790697,
                -1.9310944807776589
            ]
        },
        {
            "positions": [
                0.3022125964759126,
                -2.093028886325265,
                -0.6782067182974054,
                -2.5056417874685284,
                0.07159988992472677,
                -2.073055394627073
            ]
        },
        {
            "positions": [
                0.23481262876209774,
                -2.1160389802051633,
                -0.7495816244139695,
                -2.5628239043973826,
                0.03889121492154657,
                -2.215016308476487
            ]
        },
        {
            "positions": [
                0.1674126610482829,
                -2.1390490740850616,
                -0.8209565305305335,
                -2.6200060213262377,
                0.006182539918366148,
                -2.356977222325902
            ]
        },
        {
            "positions": [
                0.1000126933344685,
                -2.1620591679649594,
                -0.8923314366470976,
                -2.677188138255092,
                -0.02652613508481405,
                -2.498938136175316
            ]
        },
        {
            "positions": [
                0.03261272562065365,
                -2.1850692618448573,
                -0.9637063427636612,
                -2.7343702551839466,
                -0.05923481008799425,
                -2.64089905002473
            ]
        },
        {
            "positions": [
                -0.03478724209316075,
                -2.2080793557247556,
                -1.0350812488802252,
                -2.791552372112801,
                -0.09194348509117445,
                -2.782859963874143
            ]
        },
        {
            "positions": [
                -0.1021872098069756,
                -2.231089449604654,
                -1.1064561549967893,
                -2.8487344890416555,
                -0.12465216009435487,
                -2.924820877723558
            ]
        },
        {
            "positions": [
                -0.1695871775207904,
                -2.2540995434845517,
                -1.1778310611133533,
                -2.90591660597051,
                -0.157360835097535,
                -3.066781791572972
            ]
        }
    ]
}