{
    "goal": {
        "global_pose": {
            "orientation": {
                "w": 0.005598929693374612,
                "x": 0.007748599140229565,
                "y": 0.7110244013736278,
                "z": -0.7031023480610252
            },
            "position": {
                "x": 0.1141497679147869,
                "y": -0.7141253447532654,
                "z": 0.3711530566215515
            }
        },
        "name": "move_to_auspresseinheit_B"
    },
    "id": "BKPIECE_move_to_auspresseinheit_B_16",
    "joint_names": [
        "shoulder_pan_joint",
        "shoulder_lift_joint",
        "elbow_joint",
        "wrist_1_joint",
        "wrist_2_joint",
        "wrist_3_joint"
    ],
    "metrics": {
        "cart_traj_len": 0.5648161671738371,
        "distance_elbow_joint": 0.06219869618987994,
        "distance_shoulder_lift_joint": 0.2935796106559514,
        "distance_shoulder_pan_joint": 0.57714003485163,
        "distance_wrist_1_joint": 0.3196368058843436,
        "distance_wrist_2_joint": 0.9910803094807883,
        "distance_wrist_3_joint": 0.007760093397698675,
        "smoothness": 2.5376526478085547e-16,
        "time": 1.4149707610000002,
        "traj_len": 1.500465111377233,
        "weighted_distance": 1.8914631512722686
    },
    "planner": "BKPIECE",
    "start": {
        "state": {
            "elbow_joint": 2.019306165916698,
            "shoulder_lift_joint": -1.1220205098164344,
            "shoulder_pan_joint": -1.095207207618794,
            "wrist_1_joint": -0.8559671824921639,
            "wrist_2_joint": 0.47596387242952726,
            "wrist_3_joint": 3.159081874673826
        }
    },
    "waypoints": [
        {
            "positions": [
                -1.095207207618794,
                -1.1220205098164344,
                2.019306165916698,
                -0.8559671824921639,
                0.47596387242952726,
                3.159081874673826
            ]
        },
        {
            "positions": [
                -1.191397213427399,
                -1.1709504449257597,
                2.008939716551718,
                -0.8026943815114399,
                0.6411439240096586,
                3.160375223573442
            ]
        },
        {
            "positions": [
                -1.287587219236004,
                -1.2198803800350848,
                1.998573267186738,
                -0.749421580530716,
                0.80632397558979,
                3.161668572473059
            ]
        },
        {
            "positions": [
                -1.383777225044609,
                -1.2688103151444101,
                1.988206817821758,
                -0.6961487795499921,
                0.9715040271699213,
                3.162961921372675
            ]
        },
        {
            "positions": [
                -1.479967230853214,
                -1.3177402502537354,
                1.977840368456778,
                -0.6428759785692681,
                1.1366840787500527,
                3.1642552702722915
            ]
        },
        {
            "positions": [
                -1.576157236661819,
                -1.3666701853630605,
                1.967473919091798,
                -0.5896031775885442,
                1.301864130330184,
                3.165548619171908
            ]
        },
        {
            "positions": [
                -1.672347242470424,
                -1.4156001204723858,
                1.957107469726818,
                -0.5363303766078202,
                1.4670441819103155,
                3.1668419680715245
            ]
        }
    ]
}