{
    "goal": {
        "global_pose": {
            "orientation": {
                "w": 0.5084816217422485,
                "x": -0.49083608388900757,
                "y": 0.5182115435600281,
                "z": -0.4816462993621826
            },
            "position": {
                "x": 0.5540239810943604,
                "y": 0.030875300988554955,
                "z": 0.16403168439865112
            }
        },
        "name": "move_to_storage_A"
    },
    "id": "BKPIECE_move_to_storage_A_110",
    "joint_names": [
        "shoulder_pan_joint",
        "shoulder_lift_joint",
        "elbow_joint",
        "wrist_1_joint",
        "wrist_2_joint",
        "wrist_3_joint"
    ],
    "metrics": {
        "cart_traj_len": 0.35297129303046637,
        "distance_elbow_joint": 0.4507355851275938,
        "distance_shoulder_lift_joint": 0.23588281723696625,
        "distance_shoulder_pan_joint": 0.4610309225114799,
        "distance_wrist_1_joint": 0.24824031876321018,
        "distance_wrist_2_joint": 1.1012636919029473,
        "distance_wrist_3_joint": 0.10894633020347921,
        "smoothness": 1.1102230263833737e-15,
        "time": 1.396905962,
        "traj_len": 1.6143418676803487,
        "weighted_distance": 2.0429136880492025
    },
    "planner": "BKPIECE",
    "start": {
        "state": {
            "elbow_joint": 1.9715474177455299,
            "shoulder_lift_joint": -1.139484666580328,
            "shoulder_pan_joint": 0.12281154398918248,
            "wrist_1_joint": -0.7804687475355282,
            "wrist_2_joint": 0.12958649657246987,
            "wrist_3_joint": -3.1924925159053466
        }
    },
    "waypoints": [
        {
            "positions": [
                0.12281154398918248,
                -1.139484666580328,
                1.9715474177455299,
                -0.7804687475355282,
                0.12958649657246987,
                -3.1924925159053466
            ]
        },
        {
            "positions": [
                0.056949983630399645,
                -1.1731822118998947,
                2.0359382156209005,
                -0.8159316502159868,
                0.2869098811300338,
                -3.1769287544477067
            ]
        },
        {
            "positions": [
                -0.008911576728383191,
                -1.2068797572194612,
                2.100329013496271,
                -0.8513945528964454,
                0.4442332656875977,
                -3.161364992990067
            ]
        },
        {
            "positions": [
                -0.07477313708716604,
                -1.2405773025390279,
                2.1647198113716417,
                -0.886857455576904,
                0.6015566502451616,
                -3.145801231532427
            ]
        },
        {
            "positions": [
                -0.14063469744594886,
                -1.2742748478585944,
                2.229110609247012,
                -0.9223203582573626,
                0.7588800348027256,
                -3.130237470074787
            ]
        },
        {
            "positions": [
                -0.20649625780473174,
                -1.307972393178161,
                2.2935014071223825,
                -0.9577832609378212,
                0.9162034193602896,
                -3.114673708617147
            ]
        },
        {
            "positions": [
                -0.27235781816351456,
                -1.3416699384977275,
                2.357892204997753,
                -0.9932461636182798,
                1.0735268039178534,
                -3.099109947159507
            ]
        },
        {
            "positions": [
                -0.33821937852229744,
                -1.3753674838172942,
                2.4222830028731237,
                -1.0287090662987384,
                1.2308501884754173,
                -3.0835461857018673
            ]
        }
    ]
}