{
    "goal": {
        "global_pose": {
            "orientation": {
                "w": -0.00223480608172531,
                "x": 0.0024358444001904467,
                "y": 0.7094548369677653,
                "z": -0.704743149386269
            },
            "position": {
                "x": -0.37947507619857795,
                "y": -0.6371506643295288,
                "z": 0.19426114857196808
            }
        },
        "name": "move_to_magneteinheit_C"
    },
    "id": "BKPIECE_move_to_magneteinheit_C_129",
    "joint_names": [
        "shoulder_pan_joint",
        "shoulder_lift_joint",
        "elbow_joint",
        "wrist_1_joint",
        "wrist_2_joint",
        "wrist_3_joint"
    ],
    "metrics": {
        "cart_traj_len": 1.2969201112444577,
        "distance_elbow_joint": 1.5834505887129482,
        "distance_shoulder_lift_joint": 1.122310550420485,
        "distance_shoulder_pan_joint": 0.8021810249365444,
        "distance_wrist_1_joint": 0.28680560906696473,
        "distance_wrist_2_joint": 0.9916221621613095,
        "distance_wrist_3_joint": 0.21272891495082646,
        "smoothness": 1.3056344989320392,
        "time": 1.927915864,
        "traj_len": 2.235866465209646,
        "weighted_distance": 2.5890122540032534
    },
    "planner": "BKPIECE",
    "start": {
        "state": {
            "elbow_joint": 1.9565354006590394,
            "shoulder_lift_joint": -1.4165861576513559,
            "shoulder_pan_joint": -1.6717766223277177,
            "wrist_1_joint": -0.5286633288215096,
            "wrist_2_joint": 1.4727565892594296,
            "wrist_3_joint": 3.1593482883155493
        }
    },
    "waypoints": [
        {
            "positions": [
                -1.6717766223277177,
                -1.4165861576513559,
                1.9565354006590394,
                -0.5286633288215096,
                1.4727565892594296,
                3.1593482883155493
            ]
        },
        {
            "positions": [
                -1.6734986243553422,
                -1.4785329863160104,
                2.0730138598170043,
                -0.5675941656902324,
                1.3442536532549976,
                3.1716321846857873
            ]
        },
        {
            "positions": [
                -1.675220626382967,
                -1.5404798149806649,
                2.1894923189749687,
                -0.606525002558955,
                1.2157507172505657,
                3.183916081056025
            ]
        },
        {
            "positions": [
                -1.6769426284105915,
                -1.6024266436453194,
                2.3059707781329335,
                -0.6454558394276778,
                1.0872477812461336,
                3.196199977426263
            ]
        },
        {
            "positions": [
                -1.6786646304382162,
                -1.6643734723099741,
                2.422449237290898,
                -0.6843866762964005,
                0.9587448452417017,
                3.2084838737965007
            ]
        },
        {
            "positions": [
                -1.6803866324658407,
                -1.7263203009746286,
                2.5389276964488627,
                -0.7233175131651233,
                0.8302419092372696,
                3.2207677701667388
            ]
        },
        {
            "positions": [
                -1.6821086344934655,
                -1.7882671296392831,
                2.655406155606827,
                -0.762248350033846,
                0.7017389732328376,
                3.2330516665369764
            ]
        },
        {
            "positions": [
                -1.68383063652109,
                -1.8502139583039376,
                2.771884614764792,
                -0.8011791869025687,
                0.5732360372284055,
                3.2453355629072145
            ]
        },
        {
            "positions": [
                -1.7967059237701146,
                -1.7518307083370943,
                2.662155846963764,
                -0.8032205799005553,
                0.5863934101041606,
                3.227229614284477
            ]
        },
        {
            "positions": [
                -1.9095812110191392,
                -1.653447458370251,
                2.552427079162736,
                -0.8052619728985417,
                0.5995507829799157,
                3.20912366566174
            ]
        },
        {
            "positions": [
                -2.0224564982681636,
                -1.5550642084034076,
                2.442698311361708,
                -0.8073033658965283,
                0.6127081558556707,
                3.1910177170390024
            ]
        },
        {
            "positions": [
                -2.1353317855171885,
                -1.4566809584365643,
                2.3329695435606803,
                -0.8093447588945147,
                0.6258655287314258,
                3.1729117684162653
            ]
        },
        {
            "positions": [
                -2.248207072766213,
                -1.358297708469721,
                2.223240775759652,
                -0.8113861518925013,
                0.6390229016071809,
                3.154805819793528
            ]
        },
        {
            "positions": [
                -2.3610823600152377,
                -1.2599144585028776,
                2.1135120079586245,
                -0.8134275448904877,
                0.6521802744829359,
                3.1366998711707907
            ]
        },
        {
            "positions": [
                -2.473957647264262,
                -1.1615312085360343,
                2.0037832401575963,
                -0.8154689378884743,
                0.6653376473586909,
                3.1185939225480532
            ]
        }
    ]
}