{
    "goal": {
        "global_pose": {
            "orientation": {
                "w": -0.4816463035849501,
                "x": 0.5182115481033762,
                "y": 0.4908360881923453,
                "z": -0.5084816262002911
            },
            "position": {
                "x": -0.8240239810943604,
                "y": 0.19912469901144506,
                "z": 0.16403168439865112
            }
        },
        "name": "move_to_storage_D"
    },
    "id": "BKPIECE_move_to_storage_D_15",
    "joint_names": [
        "shoulder_pan_joint",
        "shoulder_lift_joint",
        "elbow_joint",
        "wrist_1_joint",
        "wrist_2_joint",
        "wrist_3_joint"
    ],
    "metrics": {
        "cart_traj_len": 7.0169042348797435,
        "distance_elbow_joint": 5.632481352103893,
        "distance_shoulder_lift_joint": 2.0033467119707966,
        "distance_shoulder_pan_joint": 4.7401057629501935,
        "distance_wrist_1_joint": 5.866199774460808,
        "distance_wrist_2_joint": 5.0718810343920016,
        "distance_wrist_3_joint": 4.1943369820849545,
        "smoothness": 0.3243175872676326,
        "time": 1.507183474,
        "traj_len": 5.244840475930857,
        "weighted_distance": 6.843617931400421
    },
    "planner": "BKPIECE",
    "start": {
        "state": {
            "elbow_joint": -2.384821997420982,
            "shoulder_lift_joint": -2.2788054674887404,
            "shoulder_pan_joint": -0.18546946417610016,
            "wrist_1_joint": 1.4845937964226739,
            "wrist_2_joint": 0.1789877726866377,
            "wrist_3_joint": 0.03710572555276528
        }
    },
    "waypoints": [
        {
            "positions": [
                -0.18546946417610016,
                -2.2788054674887404,
                -2.384821997420982,
                1.4845937964226739,
                0.1789877726866377,
                0.03710572555276528
            ]
        },
        {
            "positions": [
                -0.07141632955451002,
                -2.2752001907996116,
                -2.3977851475219216,
                1.4341610543605527,
                0.2185331043198086,
                -0.008759829943361198
            ]
        },
        {
            "positions": [
                0.04263680506708012,
                -2.2715949141104828,
                -2.410748297622862,
                1.3837283122984316,
                0.2580784359529795,
                -0.05462538543948767
            ]
        },
        {
            "positions": [
                0.020471311059870594,
                -2.236546996808723,
                -2.3610099054209073,
                1.238481042740613,
                0.373681469875349,
                -0.07206462321450408
            ]
        },
        {
            "positions": [
                -0.001694182947338932,
                -2.2014990795069624,
                -2.311271513218953,
                1.0932337731827944,
                0.4892845037977185,
                -0.08950386098952047
            ]
        },
        {
            "positions": [
                -0.02385967695454845,
                -2.1664511622052025,
                -2.2615331210169987,
                0.9479865036249759,
                0.604887537720088,
                -0.10694309876453686
            ]
        },
        {
            "positions": [
                -0.04602517096175798,
                -2.131403244903442,
                -2.2117947288150446,
                0.8027392340671573,
                0.7204905716424574,
                -0.12438233653955327
            ]
        },
        {
            "positions": [
                -0.06819066496896752,
                -2.096355327601682,
                -2.16205633661309,
                0.6574919645093388,
                0.8360936055648268,
                -0.14182157431456968
            ]
        },
        {
            "positions": [
                -0.09035615897617702,
                -2.0613074102999223,
                -2.1123179444111355,
                0.5122446949515203,
                0.9516966394871963,
                -0.15926081208958606
            ]
        },
        {
            "positions": [
                -0.11252165298338657,
                -2.026259492998162,
                -2.0625795522091814,
                0.3669974253937016,
                1.0672996734095659,
                -0.17670004986460247
            ]
        },
        {
            "positions": [
                -0.13468714699059608,
                -1.991211575696402,
                -2.012841160007227,
                0.22175015583588298,
                1.1829027073319351,
                -0.19413928763961888
            ]
        },
        {
            "positions": [
                -0.1568526409978056,
                -1.9561636583946418,
                -1.9631027678052726,
                0.07650288627806456,
                1.2985057412543046,
                -0.21157852541463526
            ]
        },
        {
            "positions": [
                -0.17901813500501515,
                -1.9211157410928816,
                -1.9133643756033183,
                -0.06874438327975407,
                1.414108775176674,
                -0.2290177631896517
            ]
        },
        {
            "positions": [
                -0.20118362901222467,
                -1.8860678237911217,
                -1.863625983401364,
                -0.2139916528375727,
                1.5297118090990436,
                -0.24645700096466808
            ]
        },
        {
            "positions": [
                -0.22334912301943416,
                -1.8510199064893615,
                -1.8138875911994097,
                -0.3592389223953911,
                1.645314843021413,
                -0.2638962387396845
            ]
        },
        {
            "positions": [
                -0.24551461702664373,
                -1.8159719891876014,
                -1.7641491989974551,
                -0.5044861919532098,
                1.7609178769437825,
                -0.2813354765147009
            ]
        },
        {
            "positions": [
                -0.26768011103385325,
                -1.7809240718858412,
                -1.7144108067955008,
                -0.6497334615110284,
                1.8765209108661522,
                -0.2987747142897173
            ]
        },
        {
            "positions": [
                -0.28984560504106277,
                -1.745876154584081,
                -1.6646724145935465,
                -0.7949807310688466,
                1.9921239447885215,
                -0.3162139520647337
            ]
        },
        {
            "positions": [
                -0.3120110990482723,
                -1.7108282372823211,
                -1.614934022391592,
                -0.9402280006266657,
                2.107726978710891,
                -0.3336531898397501
            ]
        },
        {
            "positions": [
                -0.33417659305548186,
                -1.675780319980561,
                -1.565195630189638,
                -1.0854752701844843,
                2.2233300126332605,
                -0.35109242761476656
            ]
        },
        {
            "positions": [
                -0.3563420870626913,
                -1.6407324026788008,
                -1.5154572379876834,
                -1.2307225397423025,
                2.3389330465556295,
                -0.3685316653897829
            ]
        },
        {
            "positions": [
                -0.37850758106990084,
                -1.605684485377041,
                -1.465718845785729,
                -1.3759698093001211,
                2.4545360804779994,
                -0.3859709031647993
            ]
        },
        {
            "positions": [
                -0.4006730750771104,
                -1.5706365680752805,
                -1.4159804535837748,
                -1.5212170788579398,
                2.5701391144003685,
                -0.40341014093981575
            ]
        },
        {
            "positions": [
                -0.4228385690843199,
                -1.5355886507735206,
                -1.3662420613818205,
                -1.666464348415758,
                2.6857421483227384,
                -0.4208493787148321
            ]
        },
        {
            "positions": [
                -0.44500406309152946,
                -1.5005407334717606,
                -1.3165036691798662,
                -1.811711617973577,
                2.8013451822451074,
                -0.4382886164898485
            ]
        },
        {
            "positions": [
                -0.467169557098739,
                -1.4654928161700003,
                -1.2667652769779116,
                -1.9569588875313957,
                2.9169482161674773,
                -0.45572785426486495
            ]
        },
        {
            "positions": [
                -0.48933505110594844,
                -1.4304448988682403,
                -1.2170268847759573,
                -2.102206157089214,
                3.0325512500898464,
                -0.4731670920398813
            ]
        },
        {
            "positions": [
                -0.511500545113158,
                -1.3953969815664802,
                -1.167288492574003,
                -2.2474534266470325,
                3.148154284012216,
                -0.4906063298148977
            ]
        },
        {
            "positions": [
                -0.314397019845296,
                -1.4159361683932654,
                -1.2053506732488626,
                -2.2660130684621826,
                3.1119144485774393,
                -0.4230974048229169
            ]
        },
        {
            "positions": [
                -0.11729349457743393,
                -1.4364753552200507,
                -1.2434128539237221,
                -2.2845727102773323,
                3.0756746131426627,
                -0.35558847983093606
            ]
        },
        {
            "positions": [
                0.07981003069042814,
                -1.457014542046836,
                -1.2814750345985817,
                -2.3031323520924825,
                3.039434777707886,
                -0.2880795548389552
            ]
        },
        {
            "positions": [
                0.27691355595829015,
                -1.4775537288736211,
                -1.3195372152734413,
                -2.321691993907632,
                3.0031949422731095,
                -0.2205706298469744
            ]
        },
        {
            "positions": [
                0.47401708122615227,
                -1.4980929157004066,
                -1.3575993959483008,
                -2.3402516357227823,
                2.9669551068383324,
                -0.15306170485499349
            ]
        },
        {
            "positions": [
                0.6711206064940143,
                -1.5186321025271918,
                -1.3956615766231604,
                -2.3588112775379324,
                2.930715271403556,
                -0.08555277986301268
            ]
        },
        {
            "positions": [
                0.8682241317618764,
                -1.539171289353977,
                -1.43372375729802,
                -2.377370919353082,
                2.894475435968779,
                -0.018043854871031828
            ]
        },
        {
            "positions": [
                1.0653276570297383,
                -1.5597104761807623,
                -1.4717859379728795,
                -2.395930561168232,
                2.8582356005340026,
                0.04946507012094892
            ]
        },
        {
            "positions": [
                1.2624311822976004,
                -1.5802496630075475,
                -1.509848118647739,
                -2.414490202983382,
                2.821995765099226,
                0.11697399511292983
            ]
        },
        {
            "positions": [
                1.4595347075654626,
                -1.6007888498343328,
                -1.5479102993225986,
                -2.433049844798532,
                2.7857559296644494,
                0.18448292010491074
            ]
        },
        {
            "positions": [
                1.6566382328333247,
                -1.621328036661118,
                -1.5859724799974582,
                -2.451609486613682,
                2.749516094229673,
                0.25199184509689154
            ]
        },
        {
            "positions": [
                1.8537417581011866,
                -1.6418672234879033,
                -1.6240346606723175,
                -2.470169128428832,
                2.713276258794896,
                0.31950077008887234
            ]
        },
        {
            "positions": [
                2.0508452833690485,
                -1.6624064103146887,
                -1.662096841347177,
                -2.488728770243982,
                2.6770364233601196,
                0.38700969508085314
            ]
        },
        {
            "positions": [
                2.247948808636911,
                -1.6829455971414737,
                -1.7001590220220368,
                -2.507288412059132,
                2.640796587925343,
                0.45451862007283406
            ]
        },
        {
            "positions": [
                2.4450523339047727,
                -1.7034847839682592,
                -1.7382212026968964,
                -2.525848053874282,
                2.604556752490566,
                0.5220275450648149
            ]
        },
        {
            "positions": [
                2.6421558591726346,
                -1.7240239707950444,
                -1.7762833833717557,
                -2.544407695689432,
                2.5683169170557894,
                0.5895364700567955
            ]
        },
        {
            "positions": [
                2.8392593844404965,
                -1.7445631576218297,
                -1.8143455640466153,
                -2.5629673375045816,
                2.5320770816210127,
                0.6570453950487765
            ]
        },
        {
            "positions": [
                3.036362909708359,
                -1.765102344448615,
                -1.8524077447214748,
                -2.5815269793197317,
                2.495837246186236,
                0.7245543200407574
            ]
        },
        {
            "positions": [
                3.021177773089646,
                -1.7373159421091187,
                -1.7161864115842274,
                -2.514857386774606,
                2.4421188208069604,
                0.815349293257855
            ]
        },
        {
            "positions": [
                3.005992636470933,
                -1.7095295397696222,
                -1.5799650784469796,
                -2.4481877942294794,
                2.388400395427685,
                0.9061442664749526
            ]
        },
        {
            "positions": [
                2.99080749985222,
                -1.681743137430126,
                -1.4437437453097322,
                -2.3815182016843535,
                2.3346819700484094,
                0.9969392396920502
            ]
        },
        {
            "positions": [
                2.975622363233507,
                -1.6539567350906295,
                -1.3075224121724847,
                -2.3148486091392275,
                2.2809635446691336,
                1.0877342129091478
            ]
        },
        {
            "positions": [
                2.9604372266147942,
                -1.6261703327511332,
                -1.171301079035237,
                -2.248179016594101,
                2.227245119289858,
                1.1785291861262455
            ]
        },
        {
            "positions": [
                2.9452520899960812,
                -1.5983839304116367,
                -1.0350797458979892,
                -2.181509424048975,
                2.1735266939105826,
                1.269324159343343
            ]
        },
        {
            "positions": [
                2.9300669533773682,
                -1.5705975280721405,
                -0.8988584127607417,
                -2.1148398315038492,
                2.119808268531307,
                1.3601191325604405
            ]
        },
        {
            "positions": [
                2.914881816758655,
                -1.542811125732644,
                -0.7626370796234943,
                -2.048170238958723,
                2.066089843152031,
                1.4509141057775383
            ]
        },
        {
            "positions": [
                2.899696680139942,
                -1.5150247233931478,
                -0.6264157464862465,
                -1.981500646413597,
                2.012371417772756,
                1.5417090789946357
            ]
        },
        {
            "positions": [
                2.884511543521229,
                -1.4872383210536513,
                -0.49019441334899905,
                -1.914831053868471,
                1.9586529923934801,
                1.6325040522117336
            ]
        },
        {
            "positions": [
                2.869326406902516,
                -1.459451918714155,
                -0.35397308021175133,
                -1.8481614613233448,
                1.9049345670142044,
                1.723299025428831
            ]
        },
        {
            "positions": [
                2.854141270283803,
                -1.4316655163746586,
                -0.21775174707450384,
                -1.7814918687782186,
                1.8512161416349289,
                1.8140939986459286
            ]
        },
        {
            "positions": [
                2.83895613366509,
                -1.4038791140351623,
                -0.08153041393725635,
                -1.7148222762330927,
                1.7974977162556534,
                1.9048889718630262
            ]
        },
        {
            "positions": [
                2.8237709970463776,
                -1.3760927116956658,
                0.05469091919999136,
                -1.6481526836879665,
                1.7437792908763776,
                1.9956839450801238
            ]
        },
        {
            "positions": [
                2.8085858604276646,
                -1.3483063093561696,
                0.1909122523372393,
                -1.5814830911428404,
                1.6900608654971019,
                2.086478918297222
            ]
        },
        {
            "positions": [
                2.7934007238089515,
                -1.3205199070166733,
                0.32713358547448634,
                -1.5148134985977144,
                1.6363424401178264,
                2.177273891514319
            ]
        },
        {
            "positions": [
                2.7782155871902385,
                -1.2927335046771768,
                0.4633549186117343,
                -1.448143906052588,
                1.5826240147385509,
                2.2680688647314167
            ]
        },
        {
            "positions": [
                2.7630304505715255,
                -1.2649471023376804,
                0.5995762517489818,
                -1.381474313507462,
                1.5289055893592751,
                2.3588638379485145
            ]
        },
        {
            "positions": [
                2.7478453139528125,
                -1.2371606999981841,
                0.7357975848862293,
                -1.314804720962336,
                1.4751871639799994,
                2.449658811165612
            ]
        },
        {
            "positions": [
                2.7326601773340995,
                -1.2093742976586879,
                0.8720189180234768,
                -1.24813512841721,
                1.4214687386007239,
                2.5404537843827093
            ]
        },
        {
            "positions": [
                2.7174750407153865,
                -1.1815878953191914,
                1.0082402511607247,
                -1.1814655358720838,
                1.3677503132214484,
                2.631248757599807
            ]
        },
        {
            "positions": [
                2.7022899040966735,
                -1.153801492979695,
                1.1444615842979722,
                -1.1147959433269579,
                1.3140318878421728,
                2.722043730816905
            ]
        },
        {
            "positions": [
                2.687104767477961,
                -1.1260150906401987,
                1.2806829174352197,
                -1.0481263507818317,
                1.260313462462897,
                2.8128387040340024
            ]
        },
        {
            "positions": [
                2.671919630859248,
                -1.0982286883007024,
                1.4169042505724672,
                -0.9814567582367055,
                1.2065950370836216,
                2.9036336772510998
            ]
        },
        {
            "positions": [
                2.656734494240535,
                -1.070442285961206,
                1.553125583709715,
                -0.9147871656915794,
                1.1528766117043459,
                2.9944286504681976
            ]
        },
        {
            "positions": [
                2.641549357621822,
                -1.0426558836217095,
                1.6893469168469621,
                -0.8481175731464534,
                1.0991581863250703,
                3.085223623685295
            ]
        },
        {
            "positions": [
                2.626364221003109,
                -1.0148694812822132,
                1.8255682499842103,
                -0.7814479806013274,
                1.0454397609457946,
                3.176018596902393
            ]
        }
    ]
}