{
    "goal": {
        "global_pose": {
            "orientation": {
                "w": 0.7031023502349854,
                "x": -0.7110244035720825,
                "y": 0.007748599164187908,
                "z": 0.005598929710686207
            },
            "position": {
                "x": 0.11585023208521307,
                "y": 0.44412534475326537,
                "z": 0.3711530566215515
            }
        },
        "name": "move_to_auspresseinheit_A"
    },
    "id": "BKPIECE_move_to_auspresseinheit_A_137",
    "joint_names": [
        "shoulder_pan_joint",
        "shoulder_lift_joint",
        "elbow_joint",
        "wrist_1_joint",
        "wrist_2_joint",
        "wrist_3_joint"
    ],
    "metrics": {
        "cart_traj_len": 2.1978451245315935,
        "distance_elbow_joint": 3.042228906996591,
        "distance_shoulder_lift_joint": 0.6762786343874181,
        "distance_shoulder_pan_joint": 1.0440374641363896,
        "distance_wrist_1_joint": 2.0403891908807457,
        "distance_wrist_2_joint": 1.0382561985005663,
        "distance_wrist_3_joint": 3.7050278072721583,
        "smoothness": 0.9463184268492395,
        "time": 0.643673929,
        "traj_len": 3.3979726605983553,
        "weighted_distance": 4.694136683789629
    },
    "planner": "BKPIECE",
    "start": {
        "state": {
            "elbow_joint": 2.4225747245308327,
            "shoulder_lift_joint": -1.373653427065438,
            "shoulder_pan_joint": -0.33786330853087027,
            "wrist_1_joint": -1.0288602302712604,
            "wrist_2_joint": 1.23302299562683,
            "wrist_3_joint": -3.094021725338297
        }
    },
    "waypoints": [
        {
            "positions": [
                -0.33786330853087027,
                -1.373653427065438,
                2.4225747245308327,
                -1.0288602302712604,
                1.23302299562683,
                -3.094021725338297
            ]
        },
        {
            "positions": [
                -0.32666891002748316,
                -1.4039069592526205,
                2.3260015473464306,
                -0.9424148534090625,
                1.223922466615809,
                -2.9409738156406515
            ]
        },
        {
            "positions": [
                -0.315474511524096,
                -1.434160491439803,
                2.229428370162028,
                -0.8559694765468646,
                1.2148219376047882,
                -2.7879259059430064
            ]
        },
        {
            "positions": [
                -0.3042801130207089,
                -1.4644140236269856,
                2.132855192977626,
                -0.7695240996846666,
                1.205721408593767,
                -2.634877996245361
            ]
        },
        {
            "positions": [
                -0.2930857145173218,
                -1.4946675558141682,
                2.0362820157932235,
                -0.6830787228224687,
                1.1966208795827462,
                -2.4818300865477156
            ]
        },
        {
            "positions": [
                -0.2818913160139347,
                -1.5249210880013506,
                1.9397088386088215,
                -0.5966333459602707,
                1.1875203505717253,
                -2.32878217685007
            ]
        },
        {
            "positions": [
                -0.27069691751054753,
                -1.5551746201885333,
                1.8431356614244192,
                -0.5101879690980728,
                1.1784198215607042,
                -2.175734267152425
            ]
        },
        {
            "positions": [
                -0.2595025190071604,
                -1.5854281523757159,
                1.746562484240017,
                -0.42374259223587485,
                1.1693192925496834,
                -2.0226863574547793
            ]
        },
        {
            "positions": [
                -0.24830812050377332,
                -1.6156816845628983,
                1.6499893070556149,
                -0.3372972153736771,
                1.1602187635386625,
                -1.869638447757134
            ]
        },
        {
            "positions": [
                -0.2371137220003862,
                -1.645935216750081,
                1.5534161298712124,
                -0.2508518385114791,
                1.1511182345276416,
                -1.7165905380594886
            ]
        },
        {
            "positions": [
                -0.22591932349699906,
                -1.6761887489372636,
                1.4568429526868103,
                -0.16440646164928108,
                1.1420177055166207,
                -1.563542628361843
            ]
        },
        {
            "positions": [
                -0.21472492499361195,
                -1.706442281124446,
                1.360269775502408,
                -0.0779610847870833,
                1.1329171765055996,
                -1.4104947186641976
            ]
        },
        {
            "positions": [
                -0.20353052649022482,
                -1.7366958133116286,
                1.2636965983180057,
                0.008484292075114697,
                1.1238166474945788,
                -1.2574468089665523
            ]
        },
        {
            "positions": [
                -0.11484854523080268,
                -1.7601018174509022,
                1.3456482165301717,
                -0.06646765719600996,
                1.011022854806607,
                -1.2695950089313546
            ]
        },
        {
            "positions": [
                -0.026166563971380535,
                -1.7835078215901758,
                1.4275998347423378,
                -0.1414196064671346,
                0.8982290621186352,
                -1.2817432088961567
            ]
        },
        {
            "positions": [
                0.06251541728804164,
                -1.8069138257294495,
                1.5095514529545038,
                -0.21637155573825928,
                0.7854352694306634,
                -1.2938914088609588
            ]
        },
        {
            "positions": [
                0.15119739854746375,
                -1.8303198298687233,
                1.5915030711666698,
                -0.2913235050093839,
                0.6726414767426916,
                -1.306039608825761
            ]
        },
        {
            "positions": [
                0.23987937980688598,
                -1.853725834007997,
                1.6734546893788358,
                -0.3662754542805086,
                0.5598476840547197,
                -1.3181878087905634
            ]
        },
        {
            "positions": [
                0.32856136106630807,
                -1.8771318381472706,
                1.7554063075910018,
                -0.44122740355163326,
                0.447053891366748,
                -1.3303360087553655
            ]
        },
        {
            "positions": [
                0.3402086745421736,
                -1.8885371293841815,
                1.8683478386010102,
                -0.47419948634355596,
                0.45796592921523943,
                -1.5207341069343077
            ]
        },
        {
            "positions": [
                0.351855988018039,
                -1.8999424206210924,
                1.9812893696110185,
                -0.5071715691354787,
                0.46887796706373086,
                -1.7111322051132498
            ]
        },
        {
            "positions": [
                0.36350330149390453,
                -1.9113477118580033,
                2.0942309006210267,
                -0.5401436519274014,
                0.4797900049122223,
                -1.901530303292192
            ]
        },
        {
            "positions": [
                0.37515061496977004,
                -1.9227530030949143,
                2.2071724316310353,
                -0.5731157347193241,
                0.4907020427607137,
                -2.091928401471134
            ]
        },
        {
            "positions": [
                0.3867979284456355,
                -1.9341582943318254,
                2.3201139626410434,
                -0.606087817511247,
                0.5016140806092051,
                -2.2823264996500763
            ]
        },
        {
            "positions": [
                0.398445241921501,
                -1.9455635855687363,
                2.433055493651052,
                -0.6390599003031696,
                0.5125261184576966,
                -2.4727245978290187
            ]
        },
        {
            "positions": [
                0.4100925553973665,
                -1.9569688768056472,
                2.54599702466106,
                -0.6720319830950924,
                0.523438156306188,
                -2.6631226960079606
            ]
        },
        {
            "positions": [
                0.42173986887323195,
                -1.9683741680425582,
                2.6589385556710683,
                -0.705004065887015,
                0.5343501941546793,
                -2.8535207941869025
            ]
        },
        {
            "positions": [
                0.43338718234909746,
                -1.979779459279469,
                2.771880086681077,
                -0.7379761486789378,
                0.5452622320031708,
                -3.043918892365845
            ]
        },
        {
            "positions": [
                0.501583925663203,
                -1.9622413087361223,
                2.6780882635759036,
                -0.6738300917338582,
                0.5837819204041862,
                -3.0644140942411253
            ]
        },
        {
            "positions": [
                0.5697806689773086,
                -1.9447031581927756,
                2.5842964404707303,
                -0.6096840347887786,
                0.6223016088052016,
                -3.0849092961164053
            ]
        },
        {
            "positions": [
                0.6379774122914141,
                -1.9271650076494289,
                2.4905046173655574,
                -0.5455379778436991,
                0.6608212972062169,
                -3.1054044979916853
            ]
        },
        {
            "positions": [
                0.7061741556055197,
                -1.9096268571060822,
                2.396712794260384,
                -0.48139192089861943,
                0.6993409856072322,
                -3.1258996998669657
            ]
        }
    ]
}