{
    "goal": {
        "global_pose": {
            "orientation": {
                "w": 0.7047431468963623,
                "x": -0.7094548344612122,
                "y": 0.0024358443915843964,
                "z": -0.0022348060738295317
            },
            "position": {
                "x": 0.6094750761985779,
                "y": 0.3671506643295288,
                "z": 0.19426114857196808
            }
        },
        "name": "move_to_magneteinheit_A"
    },
    "id": "BKPIECE_move_to_magneteinheit_A_11",
    "joint_names": [
        "shoulder_pan_joint",
        "shoulder_lift_joint",
        "elbow_joint",
        "wrist_1_joint",
        "wrist_2_joint",
        "wrist_3_joint"
    ],
    "metrics": {
        "cart_traj_len": 1.0523997241502934,
        "distance_elbow_joint": 0.3961736224821064,
        "distance_shoulder_lift_joint": 0.3580726842119768,
        "distance_shoulder_pan_joint": 1.2409702052196663,
        "distance_wrist_1_joint": 2.2783457308745025,
        "distance_wrist_2_joint": 1.6899379669760413,
        "distance_wrist_3_joint": 1.1643954375689,
        "smoothness": 4.2071609555499764e-16,
        "time": 1.621108432,
        "traj_len": 2.6698119123513533,
        "weighted_distance": 3.6640101283049886
    },
    "planner": "BKPIECE",
    "start": {
        "state": {
            "elbow_joint": 1.5739458966750683,
            "shoulder_lift_joint": -1.4977259741207325,
            "shoulder_pan_joint": -1.1188672016454206,
            "wrist_1_joint": 1.494575848278785,
            "wrist_2_joint": -1.5706037134824402,
            "wrist_3_joint": -2.0226957942261072
        }
    },
    "waypoints": [
        {
            "positions": [
                -1.1188672016454206,
                -1.4977259741207325,
                1.5739458966750683,
                1.494575848278785,
                -1.5706037134824402,
                -2.0226957942261072
            ]
        },
        {
            "positions": [
                -1.0499244124665503,
                -1.4778330472200671,
                1.5959555423685188,
                1.3680010854524238,
                -1.47671827087266,
                -2.0873844296466015
            ]
        },
        {
            "positions": [
                -0.98098162328768,
                -1.4579401203194018,
                1.617965188061969,
                1.2414263226260625,
                -1.3828328282628801,
                -2.1520730650670963
            ]
        },
        {
            "positions": [
                -0.9120388341088096,
                -1.4380471934187364,
                1.6399748337554194,
                1.1148515597997013,
                -1.2889473856531,
                -2.2167617004875906
            ]
        },
        {
            "positions": [
                -0.8430960449299393,
                -1.418154266518071,
                1.6619844794488698,
                0.98827679697334,
                -1.19506194304332,
                -2.281450335908085
            ]
        },
        {
            "positions": [
                -0.7741532557510689,
                -1.3982613396174055,
                1.68399412514232,
                0.8617020341469787,
                -1.1011765004335399,
                -2.3461389713285796
            ]
        },
        {
            "positions": [
                -0.7052104665721985,
                -1.3783684127167402,
                1.7060037708357705,
                0.7351272713206175,
                -1.00729105782376,
                -2.410827606749074
            ]
        },
        {
            "positions": [
                -0.6362676773933282,
                -1.3584754858160748,
                1.728013416529221,
                0.6085525084942562,
                -0.9134056152139797,
                -2.4755162421695682
            ]
        },
        {
            "positions": [
                -0.5673248882144579,
                -1.3385825589154094,
                1.7500230622226711,
                0.4819777456678951,
                -0.8195201726041997,
                -2.540204877590063
            ]
        },
        {
            "positions": [
                -0.4983820990355875,
                -1.318689632014744,
                1.7720327079161216,
                0.3554029828415337,
                -0.7256347299944196,
                -2.6048935130105573
            ]
        },
        {
            "positions": [
                -0.4294393098567171,
                -1.2987967051140787,
                1.794042353609572,
                0.22882822001517233,
                -0.6317492873846394,
                -2.6695821484310516
            ]
        },
        {
            "positions": [
                -0.36049652067784677,
                -1.2789037782134134,
                1.8160519993030222,
                0.10225345718881118,
                -0.5378638447748594,
                -2.7342707838515463
            ]
        },
        {
            "positions": [
                -0.29155373149897645,
                -1.259010851312748,
                1.8380616449964726,
                -0.024321305637549973,
                -0.44397840216507944,
                -2.7989594192720406
            ]
        },
        {
            "positions": [
                -0.22261094232010614,
                -1.2391179244120827,
                1.860071290689923,
                -0.15089606846391135,
                -0.3500929595552993,
                -2.863648054692535
            ]
        },
        {
            "positions": [
                -0.15366815314123572,
                -1.219224997511417,
                1.8820809363833733,
                -0.2774708312902725,
                -0.25620751694551913,
                -2.9283366901130297
            ]
        },
        {
            "positions": [
                -0.0847253639623653,
                -1.1993320706107518,
                1.9040905820768237,
                -0.4040455941166339,
                -0.1623220743357392,
                -2.993025325533524
            ]
        },
        {
            "positions": [
                -0.015782574783495207,
                -1.1794391437100864,
                1.9261002277702741,
                -0.5306203569429948,
                -0.06843663172595926,
                -3.0577139609540183
            ]
        },
        {
            "positions": [
                0.05316021439537533,
                -1.159546216809421,
                1.9481098734637243,
                -0.6571951197693562,
                0.025448810883820894,
                -3.1224025963745126
            ]
        },
        {
            "positions": [
                0.12210300357424574,
                -1.1396532899087557,
                1.9701195191571748,
                -0.7837698825957174,
                0.11933425349360109,
                -3.1870912317950073
            ]
        }
    ]
}