{
    "goal": {
        "global_pose": {
            "orientation": {
                "w": -0.00223480608172531,
                "x": 0.0024358444001904467,
                "y": 0.7094548369677653,
                "z": -0.704743149386269
            },
            "position": {
                "x": 0.6205249238014221,
                "y": -0.6371506643295288,
                "z": 0.19426114857196808
            }
        },
        "name": "move_to_magneteinheit_B"
    },
    "id": "BKPIECE_move_to_magneteinheit_B_112",
    "joint_names": [
        "shoulder_pan_joint",
        "shoulder_lift_joint",
        "elbow_joint",
        "wrist_1_joint",
        "wrist_2_joint",
        "wrist_3_joint"
    ],
    "metrics": {
        "cart_traj_len": 1.4522846970099255,
        "distance_elbow_joint": 0.7255944516199997,
        "distance_shoulder_lift_joint": 1.2445332782030225,
        "distance_shoulder_pan_joint": 1.621695804604133,
        "distance_wrist_1_joint": 2.6142995223192123,
        "distance_wrist_2_joint": 2.9336568267930008,
        "distance_wrist_3_joint": 3.137409409795868,
        "smoothness": 3.8857805862404154e-16,
        "time": 1.065266846,
        "traj_len": 3.5038820318805306,
        "weighted_distance": 4.909171463907039
    },
    "planner": "BKPIECE",
    "start": {
        "state": {
            "elbow_joint": 2.3935871308073637,
            "shoulder_lift_joint": -1.9085141043777403,
            "shoulder_pan_joint": 0.7066247067284167,
            "wrist_1_joint": -0.46782909355067076,
            "wrist_2_joint": 0.7096259085804283,
            "wrist_3_joint": -3.1358149275257428
        }
    },
    "waypoints": [
        {
            "positions": [
                0.7066247067284167,
                -1.9085141043777403,
                2.3935871308073637,
                -0.46782909355067076,
                0.7096259085804283,
                -3.1358149275257428
            ]
        },
        {
            "positions": [
                0.6543119388379608,
                -1.8683678695969976,
                2.3701808581744603,
                -0.3834968508952123,
                0.6149918173935573,
                -3.0346081723710374
            ]
        },
        {
            "positions": [
                0.6019991709475049,
                -1.828221634816255,
                2.3467745855415574,
                -0.2991646082397539,
                0.5203577262066863,
                -2.933401417216332
            ]
        },
        {
            "positions": [
                0.549686403057049,
                -1.7880754000355124,
                2.323368312908654,
                -0.21483236558429541,
                0.4257236350198153,
                -2.8321946620616263
            ]
        },
        {
            "positions": [
                0.4973736351665931,
                -1.7479291652547697,
                2.299962040275751,
                -0.13050012292883695,
                0.3310895438329443,
                -2.730987906906921
            ]
        },
        {
            "positions": [
                0.4450608672761372,
                -1.707782930474027,
                2.2765557676428476,
                -0.04616788027337848,
                0.23645545264607332,
                -2.6297811517522156
            ]
        },
        {
            "positions": [
                0.3927480993856813,
                -1.6676366956932842,
                2.2531494950099447,
                0.03816436238207993,
                0.14182136145920232,
                -2.5285743965975103
            ]
        },
        {
            "positions": [
                0.3404353314952254,
                -1.6274904609125416,
                2.2297432223770413,
                0.1224966050375384,
                0.04718727027233138,
                -2.427367641442805
            ]
        },
        {
            "positions": [
                0.2881225636047695,
                -1.587344226131799,
                2.206336949744138,
                0.20682884769299686,
                -0.04744682091453967,
                -2.3261608862880996
            ]
        },
        {
            "positions": [
                0.23580979571431354,
                -1.5471979913510563,
                2.182930677111235,
                0.29116109034845544,
                -0.14208091210141072,
                -2.2249541311333942
            ]
        },
        {
            "positions": [
                0.18349702782385768,
                -1.5070517565703136,
                2.1595244044783315,
                0.3754933330039138,
                -0.23671500328828166,
                -2.123747375978689
            ]
        },
        {
            "positions": [
                0.13118425993340177,
                -1.466905521789571,
                2.1361181318454285,
                0.4598255756593724,
                -0.3313490944751526,
                -2.022540620823983
            ]
        },
        {
            "positions": [
                0.07887149204294586,
                -1.4267592870088284,
                2.112711859212525,
                0.5441578183148306,
                -0.42598318566202364,
                -1.9213338656692778
            ]
        },
        {
            "positions": [
                0.026558724152489943,
                -1.3866130522280855,
                2.0893055865796217,
                0.6284900609702893,
                -0.5206172768488947,
                -1.8201271105145724
            ]
        },
        {
            "positions": [
                -0.02575404373796586,
                -1.346466817447343,
                2.0658993139467188,
                0.7128223036257475,
                -0.6152513680357655,
                -1.718920355359867
            ]
        },
        {
            "positions": [
                -0.07806681162842188,
                -1.3063205826666002,
                2.0424930413138154,
                0.7971545462812062,
                -0.7098854592226366,
                -1.6177136002051615
            ]
        },
        {
            "positions": [
                -0.1303795795188777,
                -1.2661743478858578,
                2.0190867686809124,
                0.8814867889366644,
                -0.8045195504095076,
                -1.5165068450504562
            ]
        },
        {
            "positions": [
                -0.1826923474093336,
                -1.226028113105115,
                1.995680496048009,
                0.9658190315921229,
                -0.8991536415963785,
                -1.4153000898957508
            ]
        },
        {
            "positions": [
                -0.23500511529978962,
                -1.1858818783243723,
                1.9722742234151058,
                1.0501512742475816,
                -0.9937877327832497,
                -1.3140933347410453
            ]
        },
        {
            "positions": [
                -0.2873178831902454,
                -1.1457356435436297,
                1.9488679507822027,
                1.13448351690304,
                -1.0884218239701204,
                -1.21288657958634
            ]
        },
        {
            "positions": [
                -0.33963065108070134,
                -1.105589408762887,
                1.9254616781492995,
                1.2188157595584983,
                -1.1830559151569915,
                -1.1116798244316346
            ]
        },
        {
            "positions": [
                -0.39194341897115714,
                -1.0654431739821444,
                1.9020554055163963,
                1.3031480022139568,
                -1.2776900063438625,
                -1.0104730692769293
            ]
        },
        {
            "positions": [
                -0.44425618686161317,
                -1.0252969392014015,
                1.878649132883493,
                1.3874802448694155,
                -1.3723240975307336,
                -0.9092663141222235
            ]
        },
        {
            "positions": [
                -0.49656895475206897,
                -0.985150704420659,
                1.85524286025059,
                1.4718124875248737,
                -1.4669581887176046,
                -0.8080595589675181
            ]
        },
        {
            "positions": [
                -0.548881722642525,
                -0.9450044696399165,
                1.8318365876176865,
                1.556144730180332,
                -1.5615922799044757,
                -0.7068528038128128
            ]
        },
        {
            "positions": [
                -0.6011944905329808,
                -0.9048582348591738,
                1.8084303149847833,
                1.6404769728357906,
                -1.6562263710913463,
                -0.6056460486581074
            ]
        },
        {
            "positions": [
                -0.6535072584234368,
                -0.864712000078431,
                1.7850240423518802,
                1.7248092154912493,
                -1.7508604622782178,
                -0.5044392935034021
            ]
        },
        {
            "positions": [
                -0.7058200263138926,
                -0.8245657652976883,
                1.7616177697189768,
                1.8091414581467076,
                -1.8454945534650888,
                -0.40323253834869677
            ]
        },
        {
            "positions": [
                -0.7581327942043484,
                -0.7844195305169457,
                1.7382114970860738,
                1.8934737008021658,
                -1.9401286446519594,
                -0.3020257831939914
            ]
        },
        {
            "positions": [
                -0.8104455620948045,
                -0.744273295736203,
                1.7148052244531704,
                1.9778059434576245,
                -2.0347627358388305,
                -0.20081902803928608
            ]
        },
        {
            "positions": [
                -0.8627583299852605,
                -0.7041270609554604,
                1.6913989518202672,
                2.062138186113083,
                -2.1293968270257015,
                -0.0996122728845803
            ]
        },
        {
            "positions": [
                -0.9150710978757162,
                -0.6639808261747177,
                1.667992679187364,
                2.1464704287685414,
                -2.2240309182125726,
                0.001594482270125146
            ]
        }
    ]
}