{
    "goal": {
        "global_pose": {
            "orientation": {
                "w": 0.7047431468963623,
                "x": -0.7094548344612122,
                "y": 0.0024358443915843964,
                "z": -0.0022348060738295317
            },
            "position": {
                "x": 0.6094750761985779,
                "y": 0.3671506643295288,
                "z": 0.19426114857196808
            }
        },
        "name": "move_to_magneteinheit_A"
    },
    "id": "BKPIECE_move_to_magneteinheit_A_19",
    "joint_names": [
        "shoulder_pan_joint",
        "shoulder_lift_joint",
        "elbow_joint",
        "wrist_1_joint",
        "wrist_2_joint",
        "wrist_3_joint"
    ],
    "metrics": {
        "cart_traj_len": 1.0536019585150525,
        "distance_elbow_joint": 0.37909317171903334,
        "distance_shoulder_lift_joint": 0.3680594771885637,
        "distance_shoulder_pan_joint": 1.2419851803081172,
        "distance_wrist_1_joint": 2.194283647648054,
        "distance_wrist_2_joint": 1.6961745142269626,
        "distance_wrist_3_joint": 1.2362362677774228,
        "smoothness": 9.349246597189412e-17,
        "time": 1.621033732,
        "traj_len": 2.667551734993748,
        "weighted_distance": 3.6713434811112426
    },
    "planner": "BKPIECE",
    "start": {
        "state": {
            "elbow_joint": 1.5739458966750683,
            "shoulder_lift_joint": -1.4977259741207325,
            "shoulder_pan_joint": -1.1188672016454206,
            "wrist_1_joint": 1.494575848278785,
            "wrist_2_joint": -1.5706037134824402,
            "wrist_3_joint": -2.0226957942261072
        }
    },
    "waypoints": [
        {
            "positions": [
                -1.1188672016454206,
                -1.4977259741207325,
                1.5739458966750683,
                1.494575848278785,
                -1.5706037134824402,
                -2.0226957942261072
            ]
        },
        {
            "positions": [
                -1.0498680249616363,
                -1.4772782253880345,
                1.5950066284372368,
                1.3726712011872264,
                -1.4763717960253868,
                -2.0913755868804085
            ]
        },
        {
            "positions": [
                -0.980868848277852,
                -1.4568304766553366,
                1.6160673601994053,
                1.2507665540956678,
                -1.3821398785683332,
                -2.1600553795347097
            ]
        },
        {
            "positions": [
                -0.9118696715940677,
                -1.4363827279226387,
                1.6371280919615738,
                1.1288619070041093,
                -1.2879079611112798,
                -2.228735172189011
            ]
        },
        {
            "positions": [
                -0.8428704949102834,
                -1.4159349791899405,
                1.6581888237237423,
                1.006957259912551,
                -1.1936760436542264,
                -2.297414964843312
            ]
        },
        {
            "positions": [
                -0.7738713182264991,
                -1.3954872304572425,
                1.679249555485911,
                0.8850526128209922,
                -1.0994441261971728,
                -2.3660947574976134
            ]
        },
        {
            "positions": [
                -0.7048721415427149,
                -1.3750394817245446,
                1.7003102872480795,
                0.7631479657294338,
                -1.0052122087401194,
                -2.4347745501519147
            ]
        },
        {
            "positions": [
                -0.6358729648589305,
                -1.3545917329918467,
                1.721371019010248,
                0.6412433186378751,
                -0.9109802912830658,
                -2.503454342806216
            ]
        },
        {
            "positions": [
                -0.5668737881751463,
                -1.3341439842591487,
                1.7424317507724165,
                0.5193386715463166,
                -0.8167483738260124,
                -2.5721341354605176
            ]
        },
        {
            "positions": [
                -0.49787461149136203,
                -1.3136962355264505,
                1.763492482534585,
                0.39743402445475806,
                -0.7225164563689589,
                -2.6408139281148184
            ]
        },
        {
            "positions": [
                -0.4288754348075777,
                -1.2932484867937526,
                1.7845532142967535,
                0.2755293773631995,
                -0.6282845389119054,
                -2.70949372076912
            ]
        },
        {
            "positions": [
                -0.3598762581237934,
                -1.2728007380610546,
                1.805613946058922,
                0.15362473027164092,
                -0.5340526214548518,
                -2.7781735134234213
            ]
        },
        {
            "positions": [
                -0.29087708144000923,
                -1.2523529893283567,
                1.8266746778210905,
                0.03172008318008257,
                -0.4398207039977986,
                -2.8468533060777226
            ]
        },
        {
            "positions": [
                -0.22187790475622493,
                -1.2319052405956588,
                1.847735409583259,
                -0.090184563911476,
                -0.345588786540745,
                -2.915533098732024
            ]
        },
        {
            "positions": [
                -0.15287872807244052,
                -1.2114574918629608,
                1.8687961413454275,
                -0.2120892110030348,
                -0.25135686908369137,
                -2.984212891386325
            ]
        },
        {
            "positions": [
                -0.08387955138865633,
                -1.1910097431302629,
                1.8898568731075962,
                -0.33399385809459337,
                -0.15712495162663798,
                -3.0528926840406263
            ]
        },
        {
            "positions": [
                -0.014880374704872024,
                -1.170561994397565,
                1.9109176048697647,
                -0.4558985051861517,
                -0.06289303416958458,
                -3.1215724766949275
            ]
        },
        {
            "positions": [
                0.05411880197891228,
                -1.1501142456648668,
                1.9319783366319332,
                -0.5778031522777101,
                0.03133888328746881,
                -3.190252269349229
            ]
        },
        {
            "positions": [
                0.12311797866269662,
                -1.1296664969321688,
                1.9530390683941017,
                -0.6997077993692691,
                0.1255708007445224,
                -3.25893206200353
            ]
        }
    ]
}