{
    "goal": {
        "global_pose": {
            "orientation": {
                "w": 0.7047431468963623,
                "x": -0.7094548344612122,
                "y": 0.0024358443915843964,
                "z": -0.0022348060738295317
            },
            "position": {
                "x": 0.6094750761985779,
                "y": 0.3671506643295288,
                "z": 0.19426114857196808
            }
        },
        "name": "move_to_magneteinheit_A"
    },
    "id": "BKPIECE_move_to_magneteinheit_A_65",
    "joint_names": [
        "shoulder_pan_joint",
        "shoulder_lift_joint",
        "elbow_joint",
        "wrist_1_joint",
        "wrist_2_joint",
        "wrist_3_joint"
    ],
    "metrics": {
        "cart_traj_len": 1.0534783522205038,
        "distance_elbow_joint": 0.3801879241636743,
        "distance_shoulder_lift_joint": 0.3676447707023882,
        "distance_shoulder_pan_joint": 1.241272213729903,
        "distance_wrist_1_joint": 2.1958731204655493,
        "distance_wrist_2_joint": 1.7040393743089643,
        "distance_wrist_3_joint": 1.234878522751976,
        "smoothness": 9.349246597189412e-17,
        "time": 1.066626221,
        "traj_len": 2.6690627430096985,
        "weighted_distance": 3.673358880697735
    },
    "planner": "BKPIECE",
    "start": {
        "state": {
            "elbow_joint": 1.5739458966750683,
            "shoulder_lift_joint": -1.4977259741207325,
            "shoulder_pan_joint": -1.1188672016454206,
            "wrist_1_joint": 1.494575848278785,
            "wrist_2_joint": -1.5706037134824402,
            "wrist_3_joint": -2.0226957942261072
        }
    },
    "waypoints": [
        {
            "positions": [
                -1.1188672016454206,
                -1.4977259741207325,
                1.5739458966750683,
                1.494575848278785,
                -1.5706037134824402,
                -2.0226957942261072
            ]
        },
        {
            "positions": [
                -1.0499076342159817,
                -1.4773012646372665,
                1.5950674480174947,
                1.3725828971418101,
                -1.4759348593541644,
                -2.091300156601217
            ]
        },
        {
            "positions": [
                -0.9809480667865426,
                -1.4568765551538005,
                1.616188999359921,
                1.250589946004835,
                -1.3812660052258887,
                -2.159904518976327
            ]
        },
        {
            "positions": [
                -0.9119884993571035,
                -1.4364518456703346,
                1.6373105507023473,
                1.12859699486786,
                -1.2865971510976129,
                -2.2285088813514364
            ]
        },
        {
            "positions": [
                -0.8430289319276645,
                -1.4160271361868684,
                1.6584321020447736,
                1.0066040437308852,
                -1.191928296969337,
                -2.2971132437265465
            ]
        },
        {
            "positions": [
                -0.7740693644982253,
                -1.3956024267034024,
                1.6795536533872002,
                0.8846110925939101,
                -1.0972594428410611,
                -2.365717606101656
            ]
        },
        {
            "positions": [
                -0.7051097970687863,
                -1.3751777172199364,
                1.7006752047296265,
                0.7626181414569353,
                -1.0025905887127855,
                -2.434321968476766
            ]
        },
        {
            "positions": [
                -0.6361502296393473,
                -1.3547530077364704,
                1.7217967560720528,
                0.6406251903199602,
                -0.9079217345845096,
                -2.5029263308518757
            ]
        },
        {
            "positions": [
                -0.5671906622099082,
                -1.3343282982530045,
                1.7429183074144792,
                0.5186322391829854,
                -0.8132528804562339,
                -2.5715306932269852
            ]
        },
        {
            "positions": [
                -0.4982310947804691,
                -1.3139035887695383,
                1.7640398587569055,
                0.39663928804601034,
                -0.718584026327958,
                -2.6401350556020953
            ]
        },
        {
            "positions": [
                -0.42927152735103,
                -1.2934788792860723,
                1.7851614100993318,
                0.2746463369090353,
                -0.6239151721996822,
                -2.7087394179772053
            ]
        },
        {
            "positions": [
                -0.36031195992159093,
                -1.2730541698026063,
                1.8062829614417582,
                0.15265338577206022,
                -0.5292463180714064,
                -2.777343780352315
            ]
        },
        {
            "positions": [
                -0.29135239249215195,
                -1.2526294603191404,
                1.8274045127841845,
                0.03066043463508561,
                -0.4345774639431308,
                -2.8459481427274245
            ]
        },
        {
            "positions": [
                -0.22239282506271285,
                -1.2322047508356744,
                1.8485260641266108,
                -0.09133251650188945,
                -0.33990860981485493,
                -2.9145525051025345
            ]
        },
        {
            "positions": [
                -0.15343325763327387,
                -1.2117800413522084,
                1.8696476154690371,
                -0.2133254676388645,
                -0.24523975568657908,
                -2.983156867477644
            ]
        },
        {
            "positions": [
                -0.08447369020383477,
                -1.1913553318687424,
                1.8907691668114637,
                -0.33531841877583957,
                -0.15057090155830322,
                -3.051761229852754
            ]
        },
        {
            "positions": [
                -0.015514122774395789,
                -1.1709306223852765,
                1.91189071815389,
                -0.4573113699128142,
                -0.05590204743002758,
                -3.1203655922278637
            ]
        },
        {
            "positions": [
                0.05344544465504342,
                -1.1505059129018103,
                1.9330122694963163,
                -0.5793043210497892,
                0.03876680669824828,
                -3.1889699546029737
            ]
        },
        {
            "positions": [
                0.12240501208448251,
                -1.1300812034183443,
                1.9541338208387427,
                -0.7012972721867643,
                0.1334356608265241,
                -3.2575743169780833
            ]
        }
    ]
}