{
    "goal": {
        "global_pose": {
            "orientation": {
                "w": -0.4816463035849501,
                "x": 0.5182115481033762,
                "y": 0.4908360881923453,
                "z": -0.5084816262002911
            },
            "position": {
                "x": -0.8240239810943604,
                "y": 0.19912469901144506,
                "z": 0.16403168439865112
            }
        },
        "name": "move_to_storage_D"
    },
    "id": "BKPIECE_move_to_storage_D_136",
    "joint_names": [
        "shoulder_pan_joint",
        "shoulder_lift_joint",
        "elbow_joint",
        "wrist_1_joint",
        "wrist_2_joint",
        "wrist_3_joint"
    ],
    "metrics": {
        "cart_traj_len": 3.821655319269273,
        "distance_elbow_joint": 4.210842390996728,
        "distance_shoulder_lift_joint": 1.2654163008528458,
        "distance_shoulder_pan_joint": 2.8127218772835554,
        "distance_wrist_1_joint": 2.2782104887513963,
        "distance_wrist_2_joint": 0.870013424699101,
        "distance_wrist_3_joint": 3.126958389235367,
        "smoothness": 3.416070853270337e-16,
        "time": 1.024326126,
        "traj_len": 3.8163022511089184,
        "weighted_distance": 4.895539149444138
    },
    "planner": "BKPIECE",
    "start": {
        "state": {
            "elbow_joint": -2.384821997420982,
            "shoulder_lift_joint": -2.2788054674887404,
            "shoulder_pan_joint": -0.18546946417610016,
            "wrist_1_joint": 1.4845937964226739,
            "wrist_2_joint": 0.1789877726866377,
            "wrist_3_joint": 0.03710572555276528
        }
    },
    "waypoints": [
        {
            "positions": [
                -0.18546946417610016,
                -2.2788054674887404,
                -2.384821997420982,
                1.4845937964226739,
                0.1789877726866377,
                0.03710572555276528
            ]
        },
        {
            "positions": [
                -0.09658225690004135,
                -2.2459745868158754,
                -2.2502154615446077,
                1.4102434562514448,
                0.18013224381536944,
                -0.002623847543842185
            ]
        },
        {
            "positions": [
                -0.007695049623982542,
                -2.2131437061430104,
                -2.115608925668233,
                1.3358931160802159,
                0.18127671494410114,
                -0.04235342064044965
            ]
        },
        {
            "positions": [
                0.08119215765207627,
                -2.1803128254701454,
                -1.981002389791859,
                1.2615427759089868,
                0.18242118607283286,
                -0.08208299373705712
            ]
        },
        {
            "positions": [
                0.16164574444681973,
                -2.1519758213443247,
                -1.8713483393506827,
                1.1991406423702153,
                0.20848782515233827,
                -0.162687965781795
            ]
        },
        {
            "positions": [
                0.2420993312415632,
                -2.123638817218504,
                -1.7616942889095062,
                1.136738508831444,
                0.23455446423184365,
                -0.24329293782653288
            ]
        },
        {
            "positions": [
                0.3225529180363066,
                -2.0953018130926835,
                -1.65204023846833,
                1.0743363752926725,
                0.260621103311349,
                -0.32389790987127076
            ]
        },
        {
            "positions": [
                0.4030065048310501,
                -2.066964808966863,
                -1.5423861880271534,
                1.011934241753901,
                0.2866877423908544,
                -0.40450288191600864
            ]
        },
        {
            "positions": [
                0.48346009162579356,
                -2.0386278048410422,
                -1.432732137585977,
                0.9495321082151296,
                0.31275438147035983,
                -0.48510785396074657
            ]
        },
        {
            "positions": [
                0.563913678420537,
                -2.0102908007152216,
                -1.323078087144801,
                0.8871299746763581,
                0.3388210205498652,
                -0.5657128260054843
            ]
        },
        {
            "positions": [
                0.6443672652152805,
                -1.9819537965894007,
                -1.2134240367036244,
                0.8247278411375867,
                0.36488765962937064,
                -0.6463177980502223
            ]
        },
        {
            "positions": [
                0.7248208520100239,
                -1.95361679246358,
                -1.103769986262448,
                0.7623257075988152,
                0.390954298708876,
                -0.7269227700949601
            ]
        },
        {
            "positions": [
                0.8052744388047675,
                -1.9252797883377593,
                -0.9941159358212717,
                0.6999235740600438,
                0.4170209377883814,
                -0.807527742139698
            ]
        },
        {
            "positions": [
                0.8857280255995108,
                -1.8969427842119386,
                -0.8844618853800952,
                0.6375214405212724,
                0.4430875768678868,
                -0.888132714184436
            ]
        },
        {
            "positions": [
                0.9661816123942542,
                -1.868605780086118,
                -0.7748078349389189,
                0.575119306982501,
                0.46915421594739215,
                -0.9687376862291737
            ]
        },
        {
            "positions": [
                1.0466351991889977,
                -1.8402687759602974,
                -0.6651537844977427,
                0.5127171734437296,
                0.49522085502689756,
                -1.0493426582739116
            ]
        },
        {
            "positions": [
                1.127088785983741,
                -1.8119317718344767,
                -0.5554997340565662,
                0.45031503990495814,
                0.521287494106403,
                -1.1299476303186495
            ]
        },
        {
            "positions": [
                1.2075423727784846,
                -1.783594767708656,
                -0.4458456836153897,
                0.3879129063661867,
                0.5473541331859084,
                -1.2105526023633875
            ]
        },
        {
            "positions": [
                1.2879959595732282,
                -1.7552577635828353,
                -0.3361916331742134,
                0.32551077282741514,
                0.5734207722654138,
                -1.2911575744081254
            ]
        },
        {
            "positions": [
                1.3684495463679716,
                -1.7269207594570146,
                -0.22653758273303715,
                0.2631086392886438,
                0.5994874113449191,
                -1.371762546452863
            ]
        },
        {
            "positions": [
                1.448903133162715,
                -1.698583755331194,
                -0.11688353229186088,
                0.20070650574987248,
                0.6255540504244245,
                -1.4523675184976008
            ]
        },
        {
            "positions": [
                1.5293567199574585,
                -1.6702467512053734,
                -0.007229481850684394,
                0.1383043722111008,
                0.6516206895039299,
                -1.532972490542339
            ]
        },
        {
            "positions": [
                1.6098103067522018,
                -1.6419097470795527,
                0.1024245685904921,
                0.07590223867232959,
                0.6776873285834353,
                -1.6135774625870767
            ]
        },
        {
            "positions": [
                1.6902638935469454,
                -1.6135727429537319,
                0.21207861903166858,
                0.013500105133557927,
                0.7037539676629407,
                -1.6941824346318148
            ]
        },
        {
            "positions": [
                1.7707174803416887,
                -1.5852357388279112,
                0.3217326694728446,
                -0.048902028405213294,
                0.7298206067424461,
                -1.7747874066765525
            ]
        },
        {
            "positions": [
                1.851171067136432,
                -1.5568987347020906,
                0.4313867199140211,
                -0.11130416194398474,
                0.7558872458219514,
                -1.8553923787212903
            ]
        },
        {
            "positions": [
                1.9316246539311757,
                -1.52856173057627,
                0.5410407703551976,
                -0.17370629548275618,
                0.7819538849014569,
                -1.9359973507660284
            ]
        },
        {
            "positions": [
                2.012078240725919,
                -1.5002247264504494,
                0.6506948207963736,
                -0.23610842902152762,
                0.8080205239809622,
                -2.0166023228107663
            ]
        },
        {
            "positions": [
                2.092531827520663,
                -1.4718877223246287,
                0.7603488712375501,
                -0.29851056256029906,
                0.8340871630604676,
                -2.097207294855504
            ]
        },
        {
            "positions": [
                2.172985414315406,
                -1.443550718198808,
                0.8700029216787266,
                -0.3609126960990705,
                0.8601538021399731,
                -2.177812266900242
            ]
        },
        {
            "positions": [
                2.2534390011101495,
                -1.4152137140729875,
                0.9796569721199027,
                -0.42331482963784195,
                0.8862204412194784,
                -2.25841723894498
            ]
        },
        {
            "positions": [
                2.3338925879048933,
                -1.3868767099471666,
                1.0893110225610796,
                -0.4857169631766134,
                0.9122870802989839,
                -2.339022210989718
            ]
        },
        {
            "positions": [
                2.4143461746996366,
                -1.358539705821346,
                1.1989650730022556,
                -0.5481190967153848,
                0.9383537193784892,
                -2.419627183034456
            ]
        },
        {
            "positions": [
                2.4498305477676063,
                -1.301014615957104,
                1.3034742930978374,
                -0.589035362650941,
                0.9567949657130308,
                -2.5313314298091467
            ]
        },
        {
            "positions": [
                2.485314920835576,
                -1.2434895260928622,
                1.4079835131934189,
                -0.6299516285864973,
                0.9752362120475724,
                -2.643035676583838
            ]
        },
        {
            "positions": [
                2.520799293903546,
                -1.1859644362286201,
                1.5124927332890006,
                -0.6708678945220535,
                0.993677458382114,
                -2.754739923358529
            ]
        },
        {
            "positions": [
                2.556283666971516,
                -1.1284393463643783,
                1.617001953384582,
                -0.7117841604576097,
                1.0121187047166555,
                -2.86644417013322
            ]
        },
        {
            "positions": [
                2.5917680400394856,
                -1.0709142565001364,
                1.721511173480164,
                -0.752700426393166,
                1.0305599510511971,
                -2.9781484169079113
            ]
        },
        {
            "positions": [
                2.6272524131074553,
                -1.0133891666358945,
                1.8260203935757455,
                -0.7936166923287222,
                1.0490011973857387,
                -3.0898526636826023
            ]
        }
    ]
}