{
    "goal": {
        "global_pose": {
            "orientation": {
                "w": 0.7047431468963623,
                "x": -0.7094548344612122,
                "y": 0.0024358443915843964,
                "z": -0.0022348060738295317
            },
            "position": {
                "x": 0.6094750761985779,
                "y": 0.3671506643295288,
                "z": 0.19426114857196808
            }
        },
        "name": "move_to_magneteinheit_A"
    },
    "id": "BKPIECE_move_to_magneteinheit_A_96",
    "joint_names": [
        "shoulder_pan_joint",
        "shoulder_lift_joint",
        "elbow_joint",
        "wrist_1_joint",
        "wrist_2_joint",
        "wrist_3_joint"
    ],
    "metrics": {
        "cart_traj_len": 1.0538797012381846,
        "distance_elbow_joint": 0.3850824380892661,
        "distance_shoulder_lift_joint": 0.3659621798711721,
        "distance_shoulder_pan_joint": 1.2419215551265768,
        "distance_wrist_1_joint": 2.213927572798008,
        "distance_wrist_2_joint": 1.6985324433837898,
        "distance_wrist_3_joint": 1.2248414951843816,
        "smoothness": 9.349246597189412e-17,
        "time": 1.089835565,
        "traj_len": 2.670256108401064,
        "weighted_distance": 3.6732016948438537
    },
    "planner": "BKPIECE",
    "start": {
        "state": {
            "elbow_joint": 1.5739458966750683,
            "shoulder_lift_joint": -1.4977259741207325,
            "shoulder_pan_joint": -1.1188672016454206,
            "wrist_1_joint": 1.494575848278785,
            "wrist_2_joint": -1.5706037134824402,
            "wrist_3_joint": -2.0226957942261072
        }
    },
    "waypoints": [
        {
            "positions": [
                -1.1188672016454206,
                -1.4977259741207325,
                1.5739458966750683,
                1.494575848278785,
                -1.5706037134824402,
                -2.0226957942261072
            ]
        },
        {
            "positions": [
                -1.049871559693944,
                -1.4773947419056674,
                1.5953393654578054,
                1.371579872012229,
                -1.4762407999611185,
                -2.090742543958573
            ]
        },
        {
            "positions": [
                -0.9808759177424677,
                -1.4570635096906022,
                1.6167328342405423,
                1.248583895745673,
                -1.381877886439797,
                -2.1587892936910387
            ]
        },
        {
            "positions": [
                -0.9118802757909912,
                -1.4367322774755371,
                1.6381263030232793,
                1.125587919479117,
                -1.2875149729184754,
                -2.2268360434235044
            ]
        },
        {
            "positions": [
                -0.8428846338395147,
                -1.416401045260472,
                1.6595197718060164,
                1.002591943212561,
                -1.1931520593971536,
                -2.2948827931559697
            ]
        },
        {
            "positions": [
                -0.7738889918880382,
                -1.396069813045407,
                1.6809132405887535,
                0.879595966946005,
                -1.0987891458758319,
                -2.3629295428884354
            ]
        },
        {
            "positions": [
                -0.7048933499365617,
                -1.3757385808303417,
                1.7023067093714903,
                0.7565999906794489,
                -1.0044262323545103,
                -2.430976292620901
            ]
        },
        {
            "positions": [
                -0.6358977079850852,
                -1.3554073486152767,
                1.7237001781542274,
                0.6336040144128929,
                -0.9100633188331886,
                -2.499023042353367
            ]
        },
        {
            "positions": [
                -0.5669020660336088,
                -1.3350761164002116,
                1.7450936469369644,
                0.5106080381463369,
                -0.8157004053118669,
                -2.5670697920858325
            ]
        },
        {
            "positions": [
                -0.49790642408213226,
                -1.3147448841851466,
                1.7664871157197015,
                0.3876120618797809,
                -0.7213374917905453,
                -2.635116541818298
            ]
        },
        {
            "positions": [
                -0.4289107821306557,
                -1.2944136519700813,
                1.7878805845024384,
                0.2646160856132249,
                -0.6269745782692236,
                -2.703163291550764
            ]
        },
        {
            "positions": [
                -0.35991514017917925,
                -1.2740824197550162,
                1.8092740532851754,
                0.1416201093466689,
                -0.532611664747902,
                -2.7712100412832292
            ]
        },
        {
            "positions": [
                -0.2909194982277028,
                -1.2537511875399512,
                1.8306675220679125,
                0.018624133080112903,
                -0.43824875122658047,
                -2.839256791015695
            ]
        },
        {
            "positions": [
                -0.22192385627622635,
                -1.233419955324886,
                1.8520609908506493,
                -0.1043718431864431,
                -0.3438858377052587,
                -2.9073035407481607
            ]
        },
        {
            "positions": [
                -0.1529282143247498,
                -1.2130887231098209,
                1.8734544596333864,
                -0.2273678194529991,
                -0.24952292418393696,
                -2.9753502904806264
            ]
        },
        {
            "positions": [
                -0.08393257237327334,
                -1.1927574908947558,
                1.8948479284161235,
                -0.3503637957195551,
                -0.1551600106626152,
                -3.043397040213092
            ]
        },
        {
            "positions": [
                -0.014936930421797001,
                -1.1724262586796907,
                1.9162413971988603,
                -0.4733597719861111,
                -0.060797097141293666,
                -3.1114437899455574
            ]
        },
        {
            "positions": [
                0.05405871152967956,
                -1.1520950264646255,
                1.9376348659815974,
                -0.5963557482526671,
                0.03356581638002787,
                -3.179490539678023
            ]
        },
        {
            "positions": [
                0.12305435348115601,
                -1.1317637942495604,
                1.9590283347643345,
                -0.7193517245192234,
                0.1279287299013496,
                -3.247537289410489
            ]
        }
    ]
}