{
    "goal": {
        "global_pose": {
            "orientation": {
                "w": 0.7047431468963623,
                "x": -0.7094548344612122,
                "y": 0.0024358443915843964,
                "z": -0.0022348060738295317
            },
            "position": {
                "x": 0.6094750761985779,
                "y": 0.3671506643295288,
                "z": 0.19426114857196808
            }
        },
        "name": "move_to_magneteinheit_A"
    },
    "id": "BKPIECE_move_to_magneteinheit_A_32",
    "joint_names": [
        "shoulder_pan_joint",
        "shoulder_lift_joint",
        "elbow_joint",
        "wrist_1_joint",
        "wrist_2_joint",
        "wrist_3_joint"
    ],
    "metrics": {
        "cart_traj_len": 1.0541818357438846,
        "distance_elbow_joint": 0.383018259896442,
        "distance_shoulder_lift_joint": 0.36776592798415253,
        "distance_shoulder_pan_joint": 1.2416272366824515,
        "distance_wrist_1_joint": 2.2099564722331526,
        "distance_wrist_2_joint": 1.6956770058411113,
        "distance_wrist_3_joint": 1.220815552536814,
        "smoothness": 6.077010274987859e-16,
        "time": 0.541886316,
        "traj_len": 2.6681192730412415,
        "weighted_distance": 3.669621920351198
    },
    "planner": "BKPIECE",
    "start": {
        "state": {
            "elbow_joint": 1.5739458966750683,
            "shoulder_lift_joint": -1.4977259741207325,
            "shoulder_pan_joint": -1.1188672016454206,
            "wrist_1_joint": 1.494575848278785,
            "wrist_2_joint": -1.5706037134824402,
            "wrist_3_joint": -2.0226957942261072
        }
    },
    "waypoints": [
        {
            "positions": [
                -1.1188672016454206,
                -1.4977259741207325,
                1.5739458966750683,
                1.494575848278785,
                -1.5706037134824402,
                -2.0226957942261072
            ]
        },
        {
            "positions": [
                -1.0498879107186179,
                -1.4772945336771686,
                1.5952246888915373,
                1.3718004887102766,
                -1.4763994353801562,
                -2.0905188804781525
            ]
        },
        {
            "positions": [
                -0.9809086197918149,
                -1.4568630932336044,
                1.6165034811080063,
                1.249025129141768,
                -1.3821951572778723,
                -2.1583419667301977
            ]
        },
        {
            "positions": [
                -0.9119293288650121,
                -1.4364316527900405,
                1.6377822733244753,
                1.1262497695732596,
                -1.2879908791755883,
                -2.226165052982243
            ]
        },
        {
            "positions": [
                -0.8429500379382092,
                -1.4160002123464763,
                1.6590610655409443,
                1.003474410004751,
                -1.1937866010733045,
                -2.2939881392342882
            ]
        },
        {
            "positions": [
                -0.7739707470114063,
                -1.3955687719029124,
                1.6803398577574133,
                0.8806990504362425,
                -1.0995823229710204,
                -2.3618112254863335
            ]
        },
        {
            "positions": [
                -0.7049914560846036,
                -1.3751373314593482,
                1.7016186499738823,
                0.7579236908677341,
                -1.0053780448687366,
                -2.4296343117383787
            ]
        },
        {
            "positions": [
                -0.6360121651578006,
                -1.3547058910157843,
                1.7228974421903513,
                0.6351483312992257,
                -0.9111737667664525,
                -2.497457397990424
            ]
        },
        {
            "positions": [
                -0.5670328742309978,
                -1.3342744505722202,
                1.7441762344068203,
                0.5123729717307172,
                -0.8169694886641686,
                -2.565280484242469
            ]
        },
        {
            "positions": [
                -0.4980535833041949,
                -1.3138430101286562,
                1.7654550266232893,
                0.3895976121622087,
                -0.7227652105618846,
                -2.633103570494514
            ]
        },
        {
            "positions": [
                -0.42907429237739203,
                -1.2934115696850923,
                1.7867338188397583,
                0.26682225259370007,
                -0.6285609324596005,
                -2.7009266567465593
            ]
        },
        {
            "positions": [
                -0.36009500145058915,
                -1.2729801292415281,
                1.8080126110562273,
                0.1440468930251917,
                -0.5343566543573166,
                -2.7687497429986045
            ]
        },
        {
            "positions": [
                -0.2911157105237864,
                -1.2525486887979642,
                1.8292914032726963,
                0.02127153345668331,
                -0.4401523762550328,
                -2.83657282925065
            ]
        },
        {
            "positions": [
                -0.2221364195969835,
                -1.2321172483544,
                1.8505701954891653,
                -0.10150382611182529,
                -0.34594809815274874,
                -2.904395915502695
            ]
        },
        {
            "positions": [
                -0.1531571286701806,
                -1.2116858079108361,
                1.8718489877056343,
                -0.22427918568033367,
                -0.2517438200504647,
                -2.9722190017547403
            ]
        },
        {
            "positions": [
                -0.08417783774337773,
                -1.191254367467272,
                1.8931277799221033,
                -0.34705454524884227,
                -0.15753954194818087,
                -3.0400420880067855
            ]
        },
        {
            "positions": [
                -0.015198546816574954,
                -1.170822927023708,
                1.9144065721385723,
                -0.46982990481735065,
                -0.06333526384589705,
                -3.107865174258831
            ]
        },
        {
            "positions": [
                0.05378074411022782,
                -1.1503914865801441,
                1.9356853643550413,
                -0.592605264385859,
                0.030869014256386995,
                -3.175688260510876
            ]
        },
        {
            "positions": [
                0.1227600350370308,
                -1.12996004613658,
                1.9569641565715103,
                -0.7153806239543675,
                0.12507329235867098,
                -3.2435113467629213
            ]
        }
    ]
}