{
    "goal": {
        "global_pose": {
            "orientation": {
                "w": 0.7031023502349854,
                "x": -0.7110244035720825,
                "y": 0.007748599164187908,
                "z": 0.005598929710686207
            },
            "position": {
                "x": 0.11585023208521307,
                "y": 0.44412534475326537,
                "z": 0.3711530566215515
            }
        },
        "name": "move_to_auspresseinheit_A"
    },
    "id": "BKPIECE_move_to_auspresseinheit_A_96",
    "joint_names": [
        "shoulder_pan_joint",
        "shoulder_lift_joint",
        "elbow_joint",
        "wrist_1_joint",
        "wrist_2_joint",
        "wrist_3_joint"
    ],
    "metrics": {
        "cart_traj_len": 1.2755144854375309,
        "distance_elbow_joint": 0.37846377852771695,
        "distance_shoulder_lift_joint": 3.1139185245985326,
        "distance_shoulder_pan_joint": 1.040599582664316,
        "distance_wrist_1_joint": 3.7975781133292763,
        "distance_wrist_2_joint": 2.6075263194438234,
        "distance_wrist_3_joint": 9.918183846510022,
        "smoothness": 0.6003683982515854,
        "time": 0.769979913,
        "traj_len": 4.566866558711092,
        "weighted_distance": 6.86277948726803
    },
    "planner": "BKPIECE",
    "start": {
        "state": {
            "elbow_joint": 2.4225747245308327,
            "shoulder_lift_joint": -1.373653427065438,
            "shoulder_pan_joint": -0.33786330853087027,
            "wrist_1_joint": -1.0288602302712604,
            "wrist_2_joint": 1.23302299562683,
            "wrist_3_joint": -3.094021725338297
        }
    },
    "waypoints": [
        {
            "positions": [
                -0.33786330853087027,
                -1.373653427065438,
                2.4225747245308327,
                -1.0288602302712604,
                1.23302299562683,
                -3.094021725338297
            ]
        },
        {
            "positions": [
                -0.3327265451474184,
                -1.4388241374634427,
                2.4288175285685925,
                -0.95108702738004,
                1.176897258998013,
                -2.9174840294787394
            ]
        },
        {
            "positions": [
                -0.3275897817639665,
                -1.5039948478614478,
                2.4350603326063527,
                -0.8733138244888196,
                1.1207715223691956,
                -2.7409463336191817
            ]
        },
        {
            "positions": [
                -0.32245301838051466,
                -1.5691655582594526,
                2.4413031366441125,
                -0.7955406215975991,
                1.0646457857403786,
                -2.564408637759624
            ]
        },
        {
            "positions": [
                -0.3173162549970628,
                -1.6343362686574574,
                2.4475459406818727,
                -0.7177674187063787,
                1.0085200491115613,
                -2.3878709419000663
            ]
        },
        {
            "positions": [
                -0.3121794916136109,
                -1.6995069790554624,
                2.4537887447196325,
                -0.6399942158151583,
                0.9523943124827443,
                -2.2113332460405086
            ]
        },
        {
            "positions": [
                -0.3070427282301591,
                -1.7646776894534673,
                2.4600315487573927,
                -0.5622210129239379,
                0.8962685758539272,
                -2.0347955501809514
            ]
        },
        {
            "positions": [
                -0.30190596484670723,
                -1.8298483998514723,
                2.4662743527951525,
                -0.4844478100327174,
                0.84014283922511,
                -1.8582578543213935
            ]
        },
        {
            "positions": [
                -0.29676920146325536,
                -1.8950191102494771,
                2.4725171568329123,
                -0.40667460714149706,
                0.784017102596293,
                -1.6817201584618358
            ]
        },
        {
            "positions": [
                -0.2916324380798035,
                -1.9601898206474822,
                2.4787599608706725,
                -0.3289014042502765,
                0.7278913659674757,
                -1.505182462602278
            ]
        },
        {
            "positions": [
                -0.2864956746963516,
                -2.0253605310454867,
                2.4850027649084323,
                -0.2511282013590561,
                0.6717656293386586,
                -1.3286447667427204
            ]
        },
        {
            "positions": [
                -0.28135891131289975,
                -2.090531241443492,
                2.4912455689461925,
                -0.17335499846783575,
                0.6156398927098415,
                -1.1521070708831629
            ]
        },
        {
            "positions": [
                -0.2762221479294479,
                -2.155701951841497,
                2.4974883729839523,
                -0.09558179557661539,
                0.5595141560810244,
                -0.9755693750236052
            ]
        },
        {
            "positions": [
                -0.271085384545996,
                -2.2208726622395014,
                2.5037311770217126,
                -0.01780859268539481,
                0.5033884194522072,
                -0.7990316791640475
            ]
        },
        {
            "positions": [
                -0.26594862116254414,
                -2.2860433726375065,
                2.5099739810594723,
                0.05996461020582555,
                0.4472626828233901,
                -0.6224939833044898
            ]
        },
        {
            "positions": [
                -0.2608118577790923,
                -2.3512140830355115,
                2.516216785097232,
                0.1377378130970459,
                0.39113694619457295,
                -0.4459562874449321
            ]
        },
        {
            "positions": [
                -0.25567509439564046,
                -2.416384793433516,
                2.5224595891349924,
                0.21551101598826627,
                0.3350112095657559,
                -0.2694185915853744
            ]
        },
        {
            "positions": [
                -0.2505383310121886,
                -2.481555503831521,
                2.528702393172752,
                0.29328421887948664,
                0.27888547293693877,
                -0.09288089572581715
            ]
        },
        {
            "positions": [
                -0.24540156762873672,
                -2.546726214229526,
                2.5349451972105124,
                0.37105742177070744,
                0.22275973630812151,
                0.083656800133741
            ]
        },
        {
            "positions": [
                -0.24026480424528485,
                -2.611896924627531,
                2.541188001248272,
                0.4488306246619278,
                0.16663399967930448,
                0.2601944959932987
            ]
        },
        {
            "positions": [
                -0.23512804086183298,
                -2.6770676350255362,
                2.5474308052860324,
                0.5266038275531482,
                0.11050826305048722,
                0.4367321918528564
            ]
        },
        {
            "positions": [
                -0.2299912774783811,
                -2.742238345423541,
                2.553673609323792,
                0.6043770304443685,
                0.054382526421670185,
                0.6132698877124141
            ]
        },
        {
            "positions": [
                -0.22485451409492926,
                -2.807409055821546,
                2.559916413361552,
                0.6821502333355889,
                -0.0017432102071468503,
                0.7898075835719713
            ]
        },
        {
            "positions": [
                -0.2197177507114774,
                -2.872579766219551,
                2.566159217399312,
                0.7599234362268092,
                -0.05786894683596411,
                0.9663452794315295
            ]
        },
        {
            "positions": [
                -0.21458098732802555,
                -2.9377504766175555,
                2.572402021437072,
                0.8376966391180296,
                -0.11399468346478114,
                1.1428829752910867
            ]
        },
        {
            "positions": [
                -0.20944422394457365,
                -3.0029211870155605,
                2.578644825474832,
                0.9154698420092504,
                -0.1701204200935984,
                1.3194206711506449
            ]
        },
        {
            "positions": [
                -0.20430746056112178,
                -3.0680918974135656,
                2.584887629512592,
                0.9932430449004708,
                -0.22624615672241544,
                1.4959583670102021
            ]
        },
        {
            "positions": [
                -0.19917069717766994,
                -3.13326260781157,
                2.591130433550352,
                1.0710162477916911,
                -0.2823718933512327,
                1.6724960628697603
            ]
        },
        {
            "positions": [
                -0.19403393379421807,
                -3.198433318209575,
                2.597373237588112,
                1.1487894506829117,
                -0.33849762998004973,
                1.8490337587293175
            ]
        },
        {
            "positions": [
                -0.15954277195084637,
                -3.1488510630767137,
                2.589539958146941,
                1.0864845109761767,
                -0.2986512571401672,
                1.6576826678661478
            ]
        },
        {
            "positions": [
                -0.1250516101074747,
                -3.0992688079438526,
                2.5817066787057708,
                1.024179571269442,
                -0.25880488430028464,
                1.4663315770029781
            ]
        },
        {
            "positions": [
                -0.090560448264103,
                -3.049686552810991,
                2.5738733992646,
                0.9618746315627069,
                -0.21895851146040213,
                1.2749804861398086
            ]
        },
        {
            "positions": [
                -0.056069286420731335,
                -3.00010429767813,
                2.5660401198234295,
                0.899569691855972,
                -0.17911213862051958,
                1.0836293952766387
            ]
        },
        {
            "positions": [
                -0.021578124577359636,
                -2.9505220425452685,
                2.5582068403822587,
                0.8372647521492371,
                -0.13926576578063704,
                0.8922783044134692
            ]
        },
        {
            "positions": [
                0.012913037266012062,
                -2.900939787412407,
                2.550373560941088,
                0.7749598124425021,
                -0.0994193929407545,
                0.7009272135502995
            ]
        },
        {
            "positions": [
                0.047404199109383705,
                -2.851357532279546,
                2.5425402814999174,
                0.7126548727357672,
                -0.05957302010087201,
                0.50957612268713
            ]
        },
        {
            "positions": [
                0.0818953609527554,
                -2.8017752771466844,
                2.5347070020587465,
                0.6503499330290323,
                -0.01972664726098944,
                0.3182250318239601
            ]
        },
        {
            "positions": [
                0.1163865227961271,
                -2.7521930220138233,
                2.5268737226175757,
                0.5880449933222973,
                0.020119725578893077,
                0.12687394096079063
            ]
        },
        {
            "positions": [
                0.1508776846394988,
                -2.702610766880962,
                2.5190404431764053,
                0.5257400536155624,
                0.05996609841877565,
                -0.06447714990237907
            ]
        },
        {
            "positions": [
                0.18536884648287044,
                -2.6530285117481007,
                2.5112071637352344,
                0.4634351139088275,
                0.09981247125865816,
                -0.25582824076554855
            ]
        },
        {
            "positions": [
                0.2198600083262422,
                -2.603446256615239,
                2.503373884294064,
                0.4011301742020925,
                0.13965884409854074,
                -0.4471793316287185
            ]
        },
        {
            "positions": [
                0.25435117016961384,
                -2.5538640014823777,
                2.495540604852893,
                0.3388252344953576,
                0.17950521693842325,
                -0.638530422491888
            ]
        },
        {
            "positions": [
                0.2888423320129855,
                -2.5042817463495166,
                2.4877073254117223,
                0.2765202947886227,
                0.2193515897783057,
                -0.8298815133550574
            ]
        },
        {
            "positions": [
                0.3233334938563571,
                -2.454699491216655,
                2.479874045970552,
                0.21421535508188783,
                0.2591979626181883,
                -1.021232604218227
            ]
        },
        {
            "positions": [
                0.3578246556997289,
                -2.4051172360837936,
                2.472040766529381,
                0.15191041537515282,
                0.29904433545807085,
                -1.2125836950813973
            ]
        },
        {
            "positions": [
                0.39231581754310063,
                -2.3555349809509325,
                2.4642074870882107,
                0.08960547566841792,
                0.3388907082979534,
                -1.4039347859445668
            ]
        },
        {
            "positions": [
                0.4268069793864723,
                -2.305952725818071,
                2.45637420764704,
                0.027300535961682915,
                0.3787370811378359,
                -1.5952858768077363
            ]
        },
        {
            "positions": [
                0.4612981412298439,
                -2.25637047068521,
                2.448540928205869,
                -0.03500440374505187,
                0.41858345397771846,
                -1.7866369676709057
            ]
        },
        {
            "positions": [
                0.49578930307321567,
                -2.2067882155523484,
                2.4407076487646986,
                -0.09730934345178688,
                0.458429826817601,
                -1.9779880585340757
            ]
        },
        {
            "positions": [
                0.5302804649165873,
                -2.1572059604194873,
                2.4328743693235277,
                -0.15961428315852189,
                0.4982761996574836,
                -2.169339149397245
            ]
        },
        {
            "positions": [
                0.564771626759959,
                -2.107623705286626,
                2.425041089882357,
                -0.22191922286525667,
                0.5381225724973661,
                -2.3606902402604146
            ]
        },
        {
            "positions": [
                0.5992627886033307,
                -2.0580414501537643,
                2.4172078104411865,
                -0.2842241625719917,
                0.5779689453372486,
                -2.552041331123584
            ]
        },
        {
            "positions": [
                0.6337539504467025,
                -2.0084591950209028,
                2.4093745310000156,
                -0.3465291022787267,
                0.6178153181771312,
                -2.7433924219867545
            ]
        },
        {
            "positions": [
                0.6682451122900741,
                -1.9588769398880417,
                2.4015412515588452,
                -0.4088340419854617,
                0.6576616910170138,
                -2.934743512849924
            ]
        },
        {
            "positions": [
                0.7027362741334457,
                -1.9092946847551804,
                2.3937079721176744,
                -0.47113898169219653,
                0.6975080638568962,
                -3.1260946037130934
            ]
        }
    ]
}