{
    "goal": {
        "global_pose": {
            "orientation": {
                "w": 0.5084816217422485,
                "x": -0.49083608388900757,
                "y": 0.5182115435600281,
                "z": -0.4816462993621826
            },
            "position": {
                "x": 0.5540239810943604,
                "y": 0.030875300988554955,
                "z": 0.16403168439865112
            }
        },
        "name": "move_to_storage_A"
    },
    "id": "BKPIECE_move_to_storage_A_63",
    "joint_names": [
        "shoulder_pan_joint",
        "shoulder_lift_joint",
        "elbow_joint",
        "wrist_1_joint",
        "wrist_2_joint",
        "wrist_3_joint"
    ],
    "metrics": {
        "cart_traj_len": 0.3525443119409476,
        "distance_elbow_joint": 0.4483291251608015,
        "distance_shoulder_lift_joint": 0.23590331607021509,
        "distance_shoulder_pan_joint": 0.4613068568396294,
        "distance_wrist_1_joint": 0.23427036587732875,
        "distance_wrist_2_joint": 1.0970084165243885,
        "distance_wrist_3_joint": 0.0865111152320095,
        "smoothness": 8.881784213138256e-16,
        "time": 1.531552075,
        "traj_len": 1.6010400356344536,
        "weighted_distance": 2.0168366836633322
    },
    "planner": "BKPIECE",
    "start": {
        "state": {
            "elbow_joint": 1.9715474177455299,
            "shoulder_lift_joint": -1.139484666580328,
            "shoulder_pan_joint": 0.12281154398918248,
            "wrist_1_joint": -0.7804687475355282,
            "wrist_2_joint": 0.12958649657246987,
            "wrist_3_joint": -3.1924925159053466
        }
    },
    "waypoints": [
        {
            "positions": [
                0.12281154398918248,
                -1.139484666580328,
                1.9715474177455299,
                -0.7804687475355282,
                0.12958649657246987,
                -3.1924925159053466
            ]
        },
        {
            "positions": [
                0.056910564440664,
                -1.1731851403046445,
                2.0355944356256446,
                -0.8139359426608609,
                0.28630198464738255,
                -3.1801337851579166
            ]
        },
        {
            "positions": [
                -0.008990415107854477,
                -1.2068856140289608,
                2.099641453505759,
                -0.8474031377861936,
                0.4430174727222952,
                -3.1677750544104866
            ]
        },
        {
            "positions": [
                -0.07489139465637296,
                -1.2405860877532773,
                2.1636884713858735,
                -0.8808703329115262,
                0.5997329607972078,
                -3.1554163236630566
            ]
        },
        {
            "positions": [
                -0.14079237420489144,
                -1.2742865614775938,
                2.2277354892659877,
                -0.9143375280368589,
                0.7564484488721205,
                -3.143057592915627
            ]
        },
        {
            "positions": [
                -0.20669335375340997,
                -1.3079870352019103,
                2.2917825071461024,
                -0.9478047231621916,
                0.9131639369470331,
                -3.130698862168197
            ]
        },
        {
            "positions": [
                -0.2725943333019284,
                -1.3416875089262266,
                2.3558295250262167,
                -0.9812719182875242,
                1.0698794250219457,
                -3.118340131420767
            ]
        },
        {
            "positions": [
                -0.33849531285044693,
                -1.375387982650543,
                2.4198765429063314,
                -1.014739113412857,
                1.2265949130968583,
                -3.105981400673337
            ]
        }
    ]
}