{
    "goal": {
        "global_pose": {
            "orientation": {
                "w": 0.7031023480610252,
                "x": -0.7110244013736278,
                "y": 0.0077485991402295624,
                "z": 0.005598929693374583
            },
            "position": {
                "x": -0.8841497679147869,
                "y": 0.44412534475326537,
                "z": 0.3711530566215515
            }
        },
        "name": "move_to_auspresseinheit_D"
    },
    "id": "BKPIECE_move_to_auspresseinheit_D_116",
    "joint_names": [
        "shoulder_pan_joint",
        "shoulder_lift_joint",
        "elbow_joint",
        "wrist_1_joint",
        "wrist_2_joint",
        "wrist_3_joint"
    ],
    "metrics": {
        "cart_traj_len": 4.115418503574883,
        "distance_elbow_joint": 3.0213476801883328,
        "distance_shoulder_lift_joint": 1.2305351417649777,
        "distance_shoulder_pan_joint": 2.7966545027789764,
        "distance_wrist_1_joint": 2.0715700772226127,
        "distance_wrist_2_joint": 2.7129062761714957,
        "distance_wrist_3_joint": 2.16388181691623,
        "smoothness": 0.23456252179372158,
        "time": 1.535454889,
        "traj_len": 3.7412425068475077,
        "weighted_distance": 4.807196218407273
    },
    "planner": "BKPIECE",
    "start": {
        "state": {
            "elbow_joint": 1.8268400409724999,
            "shoulder_lift_joint": -1.0144045787793008,
            "shoulder_pan_joint": 2.6280239544362485,
            "wrist_1_joint": -0.790705565816056,
            "wrist_2_joint": 1.0573557467365533,
            "wrist_3_joint": 3.1851377467193758
        }
    },
    "waypoints": [
        {
            "positions": [
                2.6280239544362485,
                -1.0144045787793008,
                1.8268400409724999,
                -0.790705565816056,
                1.0573557467365533,
                3.1851377467193758
            ]
        },
        {
            "positions": [
                2.6081890736372233,
                -1.0975662373044055,
                1.7839120583412422,
                -0.8873150504063948,
                1.1106592948713228,
                3.107768301034074
            ]
        },
        {
            "positions": [
                2.588354192838198,
                -1.1807278958295102,
                1.7409840757099846,
                -0.9839245349967336,
                1.1639628430060922,
                3.0303988553487726
            ]
        },
        {
            "positions": [
                2.5685193120391734,
                -1.263889554354615,
                1.6980560930787272,
                -1.0805340195870725,
                1.2172663911408617,
                2.953029409663471
            ]
        },
        {
            "positions": [
                2.548684431240148,
                -1.3470512128797194,
                1.6551281104474695,
                -1.1771435041774112,
                1.270569939275631,
                2.8756599639781695
            ]
        },
        {
            "positions": [
                2.528849550441123,
                -1.4302128714048241,
                1.612200127816212,
                -1.27375298876775,
                1.3238734874104006,
                2.798290518292868
            ]
        },
        {
            "positions": [
                2.509014669642098,
                -1.5133745299299288,
                1.5692721451849543,
                -1.3703624733580888,
                1.37717703554517,
                2.7209210726075663
            ]
        },
        {
            "positions": [
                2.4891797888430727,
                -1.5965361884550335,
                1.5263441625536966,
                -1.4669719579484277,
                1.4304805836799392,
                2.6435516269222648
            ]
        },
        {
            "positions": [
                2.469344908044048,
                -1.679697846980138,
                1.483416179922439,
                -1.5635814425387664,
                1.4837841318147087,
                2.5661821812369627
            ]
        },
        {
            "positions": [
                2.4495100272450228,
                -1.762859505505243,
                1.4404881972911814,
                -1.6601909271291053,
                1.5370876799494781,
                2.488812735551661
            ]
        },
        {
            "positions": [
                2.4296751464459976,
                -1.8460211640303474,
                1.397560214659924,
                -1.756800411719444,
                1.5903912280842478,
                2.4114432898663596
            ]
        },
        {
            "positions": [
                2.4098402656469724,
                -1.9291828225554521,
                1.3546322320286661,
                -1.8534098963097827,
                1.643694776219017,
                2.334073844181058
            ]
        },
        {
            "positions": [
                2.3900053848479477,
                -2.012344481080557,
                1.3117042493974087,
                -1.9500193809001216,
                1.6969983243537865,
                2.2567043984957564
            ]
        },
        {
            "positions": [
                2.3701705040489225,
                -2.0955061396056616,
                1.268776266766151,
                -2.0466288654904607,
                1.750301872488556,
                2.179334952810455
            ]
        },
        {
            "positions": [
                2.3503356232498973,
                -2.1786677981307663,
                1.2258482841348934,
                -2.143238350080799,
                1.8036054206233254,
                2.1019655071251533
            ]
        },
        {
            "positions": [
                2.2408153549197833,
                -2.1815491860617886,
                1.1206154179022532,
                -2.1745008410789675,
                1.7180986118283375,
                2.1489528800521973
            ]
        },
        {
            "positions": [
                2.131295086589669,
                -2.184430573992811,
                1.0153825516696129,
                -2.2057633320771357,
                1.6325918030333495,
                2.195940252979241
            ]
        },
        {
            "positions": [
                2.021774818259555,
                -2.1873119619238333,
                0.9101496854369726,
                -2.237025823075304,
                1.5470849942383615,
                2.242927625906285
            ]
        },
        {
            "positions": [
                1.9122545499294408,
                -2.190193349854855,
                0.8049168192043324,
                -2.268288314073472,
                1.4615781854433736,
                2.2899149988333285
            ]
        },
        {
            "positions": [
                1.8027342815993266,
                -2.1930747377858775,
                0.6996839529716922,
                -2.2995508050716404,
                1.3760713766483856,
                2.3369023717603725
            ]
        },
        {
            "positions": [
                1.6932140132692126,
                -2.1959561257169,
                0.5944510867390519,
                -2.3308132960698087,
                1.2905645678533977,
                2.383889744687416
            ]
        },
        {
            "positions": [
                1.5836937449390982,
                -2.198837513647922,
                0.4892182205064116,
                -2.362075787067977,
                1.2050577590584095,
                2.43087711761446
            ]
        },
        {
            "positions": [
                1.4741734766089842,
                -2.2017189015789445,
                0.38398535427377145,
                -2.393338278066145,
                1.1195509502634216,
                2.4778644905415037
            ]
        },
        {
            "positions": [
                1.36465320827887,
                -2.204600289509967,
                0.27875248804113106,
                -2.4246007690643134,
                1.0340441414684336,
                2.5248518634685477
            ]
        },
        {
            "positions": [
                1.2551329399487559,
                -2.207481677440989,
                0.1735196218084909,
                -2.4558632600624817,
                0.9485373326734458,
                2.5718392363955913
            ]
        },
        {
            "positions": [
                1.1456126716186417,
                -2.2103630653720114,
                0.06828675557585062,
                -2.48712575106065,
                0.8630305238784578,
                2.6188266093226353
            ]
        },
        {
            "positions": [
                1.0360924032885277,
                -2.2132444533030333,
                -0.036946110656789655,
                -2.518388242058818,
                0.77752371508347,
                2.665813982249679
            ]
        },
        {
            "positions": [
                0.9265721349584135,
                -2.2161258412340556,
                -0.1421789768894297,
                -2.5496507330569864,
                0.692016906288482,
                2.712801355176723
            ]
        },
        {
            "positions": [
                0.8170518666282993,
                -2.219007229165078,
                -0.2474118431220702,
                -2.5809132240551547,
                0.6065100974934938,
                2.759788728103767
            ]
        },
        {
            "positions": [
                0.7075315982981851,
                -2.2218886170961003,
                -0.3526447093547105,
                -2.612175715053323,
                0.5210032886985059,
                2.8067761010308105
            ]
        },
        {
            "positions": [
                0.5980113299680712,
                -2.2247700050271226,
                -0.45787757558735054,
                -2.643438206051491,
                0.4354964799035179,
                2.853763473957854
            ]
        },
        {
            "positions": [
                0.48849106163795697,
                -2.227651392958145,
                -0.5631104418199908,
                -2.6747006970496594,
                0.3499896711085302,
                2.900750846884898
            ]
        },
        {
            "positions": [
                0.3789707933078428,
                -2.2305327808891673,
                -0.6683433080526313,
                -2.7059631880478276,
                0.264482862313542,
                2.947738219811942
            ]
        },
        {
            "positions": [
                0.2694505249777288,
                -2.2334141688201896,
                -0.7735761742852714,
                -2.737225679045996,
                0.17897605351855406,
                2.9947255927389858
            ]
        },
        {
            "positions": [
                0.1599302566476144,
                -2.2362955567512115,
                -0.8788090405179116,
                -2.768488170044164,
                0.0934692447235661,
                3.0417129656660293
            ]
        },
        {
            "positions": [
                0.05040998831750043,
                -2.239176944682234,
                -0.9840419067505519,
                -2.7997506610423324,
                0.00796243592857837,
                3.0887003385930734
            ]
        },
        {
            "positions": [
                -0.05911028001261398,
                -2.242058332613256,
                -1.0892747729831922,
                -2.8310131520405006,
                -0.0775443728664098,
                3.1356877115201174
            ]
        },
        {
            "positions": [
                -0.16863054834272784,
                -2.2449397205442785,
                -1.1945076392158325,
                -2.862275643038669,
                -0.1630511816613977,
                3.182675084447161
            ]
        }
    ]
}