{
    "goal": {
        "global_pose": {
            "orientation": {
                "w": 0.7031023480610252,
                "x": -0.7110244013736278,
                "y": 0.0077485991402295624,
                "z": 0.005598929693374583
            },
            "position": {
                "x": -0.8841497679147869,
                "y": 0.44412534475326537,
                "z": 0.3711530566215515
            }
        },
        "name": "move_to_auspresseinheit_D"
    },
    "id": "BKPIECE_move_to_auspresseinheit_D_72",
    "joint_names": [
        "shoulder_pan_joint",
        "shoulder_lift_joint",
        "elbow_joint",
        "wrist_1_joint",
        "wrist_2_joint",
        "wrist_3_joint"
    ],
    "metrics": {
        "cart_traj_len": 3.7468188083945155,
        "distance_elbow_joint": 3.0060228493587333,
        "distance_shoulder_lift_joint": 1.3406501692579627,
        "distance_shoulder_pan_joint": 2.7965586327579235,
        "distance_wrist_1_joint": 5.1293017144360125,
        "distance_wrist_2_joint": 1.2180672837553057,
        "distance_wrist_3_joint": 6.246439189091918,
        "smoothness": 0.1681194997117424,
        "time": 0.612429436,
        "traj_len": 4.442638837296799,
        "weighted_distance": 6.211061681792656
    },
    "planner": "BKPIECE",
    "start": {
        "state": {
            "elbow_joint": 1.8268400409724999,
            "shoulder_lift_joint": -1.0144045787793008,
            "shoulder_pan_joint": 2.6280239544362485,
            "wrist_1_joint": -0.790705565816056,
            "wrist_2_joint": 1.0573557467365533,
            "wrist_3_joint": 3.1851377467193758
        }
    },
    "waypoints": [
        {
            "positions": [
                2.6280239544362485,
                -1.0144045787793008,
                1.8268400409724999,
                -0.790705565816056,
                1.0573557467365533,
                3.1851377467193758
            ]
        },
        {
            "positions": [
                2.5969206686595365,
                -1.0105158687831284,
                1.7414662273365908,
                -0.6747656834912957,
                1.0076162009437621,
                3.1034859784760593
            ]
        },
        {
            "positions": [
                2.5658173828828246,
                -1.0066271587869562,
                1.656092413700682,
                -0.5588258011665355,
                0.9578766551509709,
                3.0218342102327433
            ]
        },
        {
            "positions": [
                2.534714097106112,
                -1.0027384487907838,
                1.570718600064773,
                -0.44288591884177525,
                0.9081371093581796,
                2.940182441989427
            ]
        },
        {
            "positions": [
                2.5036108113294,
                -0.9988497387946115,
                1.4853447864288642,
                -0.326946036517015,
                0.8583975635653884,
                2.8585306737461105
            ]
        },
        {
            "positions": [
                2.4725075255526883,
                -0.9949610287984391,
                1.3999709727929552,
                -0.21100615419225477,
                0.8086580177725973,
                2.7768789055027945
            ]
        },
        {
            "positions": [
                2.4414042397759763,
                -0.9910723188022668,
                1.3145971591570462,
                -0.0950662718674945,
                0.758918471979806,
                2.695227137259478
            ]
        },
        {
            "positions": [
                2.410300953999264,
                -0.9871836088060945,
                1.2292233455211377,
                0.020873610457265657,
                0.7091789261870148,
                2.613575369016162
            ]
        },
        {
            "positions": [
                2.379197668222552,
                -0.9832948988099222,
                1.1438495318852286,
                0.13681349278202604,
                0.6594393803942236,
                2.5319236007728456
            ]
        },
        {
            "positions": [
                2.34809438244584,
                -0.9794061888137497,
                1.0584757182493196,
                0.2527533751067861,
                0.6096998346014324,
                2.4502718325295296
            ]
        },
        {
            "positions": [
                2.316991096669128,
                -0.9755174788175774,
                0.9731019046134107,
                0.36869325743154646,
                0.5599602888086411,
                2.368620064286213
            ]
        },
        {
            "positions": [
                2.285887810892416,
                -0.9716287688214051,
                0.8877280909775018,
                0.4846331397563066,
                0.51022074301585,
                2.2869682960428968
            ]
        },
        {
            "positions": [
                2.2547845251157037,
                -0.9677400588252327,
                0.8023542773415928,
                0.600573022081067,
                0.4604811972230587,
                2.2053165277995808
            ]
        },
        {
            "positions": [
                2.2236812393389918,
                -0.9638513488290604,
                0.716980463705684,
                0.7165129044058272,
                0.41074165143026753,
                2.1236647595562643
            ]
        },
        {
            "positions": [
                2.1607281888742373,
                -0.9978012682845268,
                0.667081430229581,
                0.6211949242949291,
                0.3957034096289775,
                1.9872182805581378
            ]
        },
        {
            "positions": [
                2.097775138409483,
                -1.0317511877399932,
                0.6171823967534779,
                0.5258769441840309,
                0.3806651678276875,
                1.8507718015600112
            ]
        },
        {
            "positions": [
                2.0348220879447285,
                -1.0657011071954596,
                0.5672833632773748,
                0.4305589640731327,
                0.36562692602639746,
                1.7143253225618849
            ]
        },
        {
            "positions": [
                1.971869037479974,
                -1.0996510266509258,
                0.5173843298012718,
                0.33524098396223456,
                0.35058868422510747,
                1.5778788435637583
            ]
        },
        {
            "positions": [
                1.9089159870152197,
                -1.1336009461063923,
                0.46748529632516866,
                0.2399230038513364,
                0.33555044242381743,
                1.4414323645656317
            ]
        },
        {
            "positions": [
                1.8459629365504655,
                -1.1675508655618587,
                0.41758626284906564,
                0.14460502374043827,
                0.3205122006225274,
                1.3049858855675052
            ]
        },
        {
            "positions": [
                1.783009886085711,
                -1.2015007850173252,
                0.36768722937296255,
                0.04928704362954017,
                0.3054739588212374,
                1.1685394065693786
            ]
        },
        {
            "positions": [
                1.7200568356209567,
                -1.2354507044727914,
                0.3177881958968595,
                -0.04603093648135803,
                0.29043571701994736,
                1.0320929275712523
            ]
        },
        {
            "positions": [
                1.6571037851562023,
                -1.2694006239282578,
                0.26788916242075644,
                -0.14134891659225612,
                0.2753974752186573,
                0.8956464485731257
            ]
        },
        {
            "positions": [
                1.5941507346914479,
                -1.3033505433837242,
                0.21799012894465336,
                -0.23666689670315433,
                0.26035923341736733,
                0.7591999695749991
            ]
        },
        {
            "positions": [
                1.5311976842266934,
                -1.3373004628391907,
                0.16809109546855028,
                -0.33198487681405253,
                0.2453209916160773,
                0.6227534905768723
            ]
        },
        {
            "positions": [
                1.4682446337619393,
                -1.371250382294657,
                0.11819206199244725,
                -0.4273028569249506,
                0.23028274981478727,
                0.486307011578746
            ]
        },
        {
            "positions": [
                1.4052915832971848,
                -1.4052003017501233,
                0.06829302851634411,
                -0.5226208370358489,
                0.21524450801349723,
                0.34986053258061944
            ]
        },
        {
            "positions": [
                1.3423385328324304,
                -1.4391502212055898,
                0.018393995040241085,
                -0.6179388171467468,
                0.20020626621220725,
                0.2134140535824931
            ]
        },
        {
            "positions": [
                1.279385482367676,
                -1.4731001406610562,
                -0.031505038435862054,
                -0.7132567972576451,
                0.1851680244109172,
                0.07696757458436654
            ]
        },
        {
            "positions": [
                1.2164324319029216,
                -1.5070500601165224,
                -0.08140407191196497,
                -0.8085747773685432,
                0.1701297826096272,
                -0.0594789044137598
            ]
        },
        {
            "positions": [
                1.1534793814381672,
                -1.5409999795719889,
                -0.1313031053880681,
                -0.9038927574794415,
                0.15509154080833715,
                -0.1959253834118866
            ]
        },
        {
            "positions": [
                1.0905263309734128,
                -1.5749498990274553,
                -0.18120213886417114,
                -0.9992107375903394,
                0.14005329900704716,
                -0.33237186241001293
            ]
        },
        {
            "positions": [
                1.0275732805086584,
                -1.6088998184829215,
                -0.23110117234027427,
                -1.0945287177012377,
                0.12501505720575712,
                -0.4688183414081397
            ]
        },
        {
            "positions": [
                0.964620230043904,
                -1.642849737938388,
                -0.2810002058163773,
                -1.1898466978121358,
                0.10997681540446713,
                -0.6052648204062661
            ]
        },
        {
            "positions": [
                0.9016671795791495,
                -1.6767996573938544,
                -0.33089923929248055,
                -1.2851646779230343,
                0.09493857360317703,
                -0.7417112994043928
            ]
        },
        {
            "positions": [
                0.8387141291143951,
                -1.7107495768493208,
                -0.38079827276858347,
                -1.3804826580339322,
                0.07990033180188705,
                -0.8781577784025196
            ]
        },
        {
            "positions": [
                0.7757610786496407,
                -1.7446994963047873,
                -0.4306973062446866,
                -1.47580063814483,
                0.06486209000059706,
                -1.014604257400646
            ]
        },
        {
            "positions": [
                0.7128080281848865,
                -1.7786494157602535,
                -0.4805963397207895,
                -1.5711186182557284,
                0.04982384819930702,
                -1.1510507363987723
            ]
        },
        {
            "positions": [
                0.6498549777201319,
                -1.81259933521572,
                -0.5304953731968929,
                -1.6664365983666267,
                0.03478560639801698,
                -1.287497215396899
            ]
        },
        {
            "positions": [
                0.5869019272553777,
                -1.8465492546711864,
                -0.5803944066729958,
                -1.761754578477525,
                0.019747364596726935,
                -1.4239436943950254
            ]
        },
        {
            "positions": [
                0.5239488767906233,
                -1.8804991741266526,
                -0.6302934401490987,
                -1.857072558588423,
                0.0047091227954369486,
                -1.5603901733931518
            ]
        },
        {
            "positions": [
                0.4609958263258689,
                -1.914449093582119,
                -0.6801924736252019,
                -1.9523905386993208,
                -0.010329119005853038,
                -1.6968366523912781
            ]
        },
        {
            "positions": [
                0.3980427758611145,
                -1.9483990130375854,
                -0.730091507101305,
                -2.0477085188102198,
                -0.025367360807143136,
                -1.8332831313894054
            ]
        },
        {
            "positions": [
                0.33508972539636006,
                -1.9823489324930517,
                -0.7799905405774081,
                -2.1430264989211176,
                -0.04040560260843312,
                -1.9697296103875312
            ]
        },
        {
            "positions": [
                0.27213667493160565,
                -2.0162988519485183,
                -0.829889574053511,
                -2.2383444790320155,
                -0.05544384440972311,
                -2.106176089385658
            ]
        },
        {
            "positions": [
                0.20918362446685146,
                -2.0502487714039845,
                -0.879788607529614,
                -2.3336624591429134,
                -0.07048208621101315,
                -2.242622568383784
            ]
        },
        {
            "positions": [
                0.14623057400209705,
                -2.084198690859451,
                -0.9296876410057173,
                -2.428980439253812,
                -0.08552032801230319,
                -2.3790690473819116
            ]
        },
        {
            "positions": [
                0.08327752353734263,
                -2.1181486103149174,
                -0.9795866744818202,
                -2.52429841936471,
                -0.10055856981359323,
                -2.5155155263800375
            ]
        },
        {
            "positions": [
                0.020324473072588223,
                -2.1520985297703836,
                -1.0294857079579234,
                -2.619616399475608,
                -0.11559681161488322,
                -2.6519620053781643
            ]
        },
        {
            "positions": [
                -0.04262857739216619,
                -2.18604844922585,
                -1.0793847414340263,
                -2.7149343795865057,
                -0.1306350534161732,
                -2.78840848437629
            ]
        },
        {
            "positions": [
                -0.1055816278569206,
                -2.2199983686813165,
                -1.1292837749101297,
                -2.8102523596974045,
                -0.1456732952174633,
                -2.924854963374417
            ]
        },
        {
            "positions": [
                -0.16853467832167512,
                -2.2539482881367827,
                -1.1791828083862326,
                -2.9055703398083024,
                -0.1607115370187533,
                -3.0613014423725438
            ]
        }
    ]
}