{
    "goal": {
        "global_pose": {
            "orientation": {
                "w": 0.005598929693374612,
                "x": 0.007748599140229565,
                "y": 0.7110244013736278,
                "z": -0.7031023480610252
            },
            "position": {
                "x": 0.1141497679147869,
                "y": -0.7141253447532654,
                "z": 0.3711530566215515
            }
        },
        "name": "move_to_auspresseinheit_B"
    },
    "id": "BKPIECE_move_to_auspresseinheit_B_123",
    "joint_names": [
        "shoulder_pan_joint",
        "shoulder_lift_joint",
        "elbow_joint",
        "wrist_1_joint",
        "wrist_2_joint",
        "wrist_3_joint"
    ],
    "metrics": {
        "cart_traj_len": 0.5652398670066541,
        "distance_elbow_joint": 0.06277657198910047,
        "distance_shoulder_lift_joint": 0.2952786477766327,
        "distance_shoulder_pan_joint": 0.5773451627065722,
        "distance_wrist_1_joint": 0.3313860313454814,
        "distance_wrist_2_joint": 0.9994271206491916,
        "distance_wrist_3_joint": 0.008048440026823034,
        "smoothness": 3.806478935924272e-16,
        "time": 0.501269267,
        "traj_len": 1.5080656399818282,
        "weighted_distance": 1.9029377306002737
    },
    "planner": "BKPIECE",
    "start": {
        "state": {
            "elbow_joint": 2.019306165916698,
            "shoulder_lift_joint": -1.1220205098164344,
            "shoulder_pan_joint": -1.095207207618794,
            "wrist_1_joint": -0.8559671824921639,
            "wrist_2_joint": 0.47596387242952726,
            "wrist_3_joint": 3.159081874673826
        }
    },
    "waypoints": [
        {
            "positions": [
                -1.095207207618794,
                -1.1220205098164344,
                2.019306165916698,
                -0.8559671824921639,
                0.47596387242952726,
                3.159081874673826
            ]
        },
        {
            "positions": [
                -1.1914314014032228,
                -1.1712336177792064,
                2.0088434039185143,
                -0.8007361772679169,
                0.6425350592043926,
                3.1577404680026886
            ]
        },
        {
            "positions": [
                -1.2876555951876514,
                -1.2204467257419787,
                1.9983806419203312,
                -0.7455051720436701,
                0.8091062459792577,
                3.1563990613315513
            ]
        },
        {
            "positions": [
                -1.38387978897208,
                -1.2696598337047509,
                1.9879178799221477,
                -0.6902741668194232,
                0.9756774327541231,
                3.155057654660414
            ]
        },
        {
            "positions": [
                -1.4801039827565088,
                -1.318872941667523,
                1.9774551179239643,
                -0.6350431615951763,
                1.1422486195289883,
                3.1537162479892773
            ]
        },
        {
            "positions": [
                -1.5763281765409376,
                -1.368086049630295,
                1.966992355925781,
                -0.5798121563709293,
                1.3088198063038536,
                3.15237484131814
            ]
        },
        {
            "positions": [
                -1.6725523703253662,
                -1.4172991575930671,
                1.9565295939275975,
                -0.5245811511466825,
                1.4753909930787188,
                3.151033434647003
            ]
        }
    ]
}