{
    "goal": {
        "global_pose": {
            "orientation": {
                "w": 0.005598929693374612,
                "x": 0.007748599140229565,
                "y": 0.7110244013736278,
                "z": -0.7031023480610252
            },
            "position": {
                "x": -0.8858502320852131,
                "y": -0.7141253447532654,
                "z": 0.3711530566215515
            }
        },
        "name": "move_to_auspresseinheit_C"
    },
    "id": "BKPIECE_move_to_auspresseinheit_C_134",
    "joint_names": [
        "shoulder_pan_joint",
        "shoulder_lift_joint",
        "elbow_joint",
        "wrist_1_joint",
        "wrist_2_joint",
        "wrist_3_joint"
    ],
    "metrics": {
        "cart_traj_len": 0.49466506246585795,
        "distance_elbow_joint": 1.0198114432123762,
        "distance_shoulder_lift_joint": 0.33421710983611697,
        "distance_shoulder_pan_joint": 0.2565361690285122,
        "distance_wrist_1_joint": 0.7175228861518329,
        "distance_wrist_2_joint": 1.3198440665449565,
        "distance_wrist_3_joint": 0.08084790790810947,
        "smoothness": 3.2297397335745243e-16,
        "time": 1.054211575,
        "traj_len": 1.9310048116672065,
        "weighted_distance": 2.4347160719876375
    },
    "planner": "BKPIECE",
    "start": {
        "state": {
            "elbow_joint": 1.752795957773711,
            "shoulder_lift_joint": -0.9740617694225064,
            "shoulder_pan_joint": -2.967991417825858,
            "wrist_1_joint": -0.7595177689806859,
            "wrist_2_joint": 1.7443932448377395,
            "wrist_3_joint": 3.199131542505932
        }
    },
    "waypoints": [
        {
            "positions": [
                -2.967991417825858,
                -0.9740617694225064,
                1.752795957773711,
                -0.7595177689806859,
                1.7443932448377395,
                3.199131542505932
            ]
        },
        {
            "positions": [
                -2.942337800923007,
                -0.9406400584388948,
                1.6508148134524734,
                -0.6877654803655027,
                1.6124088381832438,
                3.1910467517151213
            ]
        },
        {
            "positions": [
                -2.9166841840201556,
                -0.9072183474552831,
                1.5488336691312359,
                -0.6160131917503193,
                1.4804244315287483,
                3.18296196092431
            ]
        },
        {
            "positions": [
                -2.8910305671173044,
                -0.8737966364716714,
                1.4468525248099984,
                -0.544260903135136,
                1.3484400248742525,
                3.1748771701334992
            ]
        },
        {
            "positions": [
                -2.8653769502144533,
                -0.8403749254880597,
                1.3448713804887606,
                -0.47250861451995274,
                1.216455618219757,
                3.1667923793426884
            ]
        },
        {
            "positions": [
                -2.8397233333116016,
                -0.806953214504448,
                1.242890236167523,
                -0.40075632590476945,
                1.0844712115652613,
                3.158707588551877
            ]
        },
        {
            "positions": [
                -2.8140697164087505,
                -0.7735315035208363,
                1.1409090918462854,
                -0.32900403728958616,
                0.9524868049107656,
                3.1506227977610664
            ]
        },
        {
            "positions": [
                -2.7884160995058993,
                -0.7401097925372246,
                1.038927947525048,
                -0.2572517486744029,
                0.82050239825627,
                3.1425380069702555
            ]
        },
        {
            "positions": [
                -2.762762482603048,
                -0.7066880815536128,
                0.9369468032038102,
                -0.18549946005921958,
                0.6885179916017743,
                3.1344532161794447
            ]
        },
        {
            "positions": [
                -2.737108865700197,
                -0.6732663705700012,
                0.8349656588825726,
                -0.11374717144403623,
                0.5565335849472786,
                3.1263684253886335
            ]
        },
        {
            "positions": [
                -2.711455248797346,
                -0.6398446595863895,
                0.732984514561335,
                -0.04199488282885303,
                0.42454917829278294,
                3.1182836345978227
            ]
        }
    ]
}