{
    "goal": {
        "global_pose": {
            "orientation": {
                "w": 0.005598929693374612,
                "x": 0.007748599140229565,
                "y": 0.7110244013736278,
                "z": -0.7031023480610252
            },
            "position": {
                "x": -0.8858502320852131,
                "y": -0.7141253447532654,
                "z": 0.3711530566215515
            }
        },
        "name": "move_to_auspresseinheit_C"
    },
    "id": "BKPIECE_move_to_auspresseinheit_C_69",
    "joint_names": [
        "shoulder_pan_joint",
        "shoulder_lift_joint",
        "elbow_joint",
        "wrist_1_joint",
        "wrist_2_joint",
        "wrist_3_joint"
    ],
    "metrics": {
        "cart_traj_len": 0.49395086114316056,
        "distance_elbow_joint": 1.0152549390977108,
        "distance_shoulder_lift_joint": 0.33194726754635207,
        "distance_shoulder_pan_joint": 0.2562739512619032,
        "distance_wrist_1_joint": 0.7118032856431888,
        "distance_wrist_2_joint": 1.3133862903791331,
        "distance_wrist_3_joint": 0.08904676581404436,
        "smoothness": 1.6148698667872622e-16,
        "time": 0.238158779,
        "traj_len": 1.9281370541904772,
        "weighted_distance": 2.433309599576828
    },
    "planner": "BKPIECE",
    "start": {
        "state": {
            "elbow_joint": 1.752795957773711,
            "shoulder_lift_joint": -0.9740617694225064,
            "shoulder_pan_joint": -2.967991417825858,
            "wrist_1_joint": -0.7595177689806859,
            "wrist_2_joint": 1.7443932448377395,
            "wrist_3_joint": 3.199131542505932
        }
    },
    "waypoints": [
        {
            "positions": [
                -2.967991417825858,
                -0.9740617694225064,
                1.752795957773711,
                -0.7595177689806859,
                1.7443932448377395,
                3.199131542505932
            ]
        },
        {
            "positions": [
                -2.9423640226996675,
                -0.9408670426678712,
                1.65127046386394,
                -0.688337440416367,
                1.6130546157998262,
                3.1902268659245276
            ]
        },
        {
            "positions": [
                -2.9167366275734774,
                -0.907672315913236,
                1.549744969954169,
                -0.6171571118520481,
                1.481715986761913,
                3.181322189343123
            ]
        },
        {
            "positions": [
                -2.891109232447287,
                -0.8744775891586009,
                1.4482194760443978,
                -0.5459767832877293,
                1.3503773577239997,
                3.1724175127617187
            ]
        },
        {
            "positions": [
                -2.865481837321097,
                -0.8412828624039657,
                1.3466939821346267,
                -0.47479645472341037,
                1.2190387286860862,
                3.163512836180314
            ]
        },
        {
            "positions": [
                -2.8398544421949063,
                -0.8080881356493304,
                1.2451684882248557,
                -0.4036161261590915,
                1.087700099648173,
                3.1546081595989097
            ]
        },
        {
            "positions": [
                -2.814227047068716,
                -0.7748934088946953,
                1.1436429943150848,
                -0.3324357975947726,
                0.9563614706102597,
                3.1457034830175057
            ]
        },
        {
            "positions": [
                -2.788599651942526,
                -0.74169868214006,
                1.0421175004053136,
                -0.26125546903045377,
                0.8250228415723464,
                3.136798806436101
            ]
        },
        {
            "positions": [
                -2.7629722568163353,
                -0.7085039553854248,
                0.9405920064955424,
                -0.19007514046613483,
                0.6936842125344329,
                3.1278941298546967
            ]
        },
        {
            "positions": [
                -2.7373448616901452,
                -0.6753092286307896,
                0.8390665125857714,
                -0.11889481190181594,
                0.5623455834965196,
                3.1189894532732922
            ]
        },
        {
            "positions": [
                -2.7117174665639547,
                -0.6421145018761544,
                0.7375410186760003,
                -0.0477144833374971,
                0.4310069544586064,
                3.1100847766918878
            ]
        }
    ]
}