{
    "goal": {
        "global_pose": {
            "orientation": {
                "w": 0.5084816262002911,
                "x": -0.4908360881923452,
                "y": 0.5182115481033761,
                "z": -0.48164630358495003
            },
            "position": {
                "x": 0.5540239810943604,
                "y": -0.46912469901144505,
                "z": 0.16403168439865112
            }
        },
        "name": "move_to_storage_B"
    },
    "id": "BKPIECE_move_to_storage_B_122",
    "joint_names": [
        "shoulder_pan_joint",
        "shoulder_lift_joint",
        "elbow_joint",
        "wrist_1_joint",
        "wrist_2_joint",
        "wrist_3_joint"
    ],
    "metrics": {
        "cart_traj_len": 0.6698387242710496,
        "distance_elbow_joint": 0.3532637041836313,
        "distance_shoulder_lift_joint": 0.46012598382386094,
        "distance_shoulder_pan_joint": 0.3521821784322291,
        "distance_wrist_1_joint": 2.9996214904844596,
        "distance_wrist_2_joint": 2.7102757175105334,
        "distance_wrist_3_joint": 3.2548656428664904,
        "smoothness": 0.3101907735688882,
        "time": 1.102572594,
        "traj_len": 3.182818674901416,
        "weighted_distance": 4.727574770538186
    },
    "planner": "BKPIECE",
    "start": {
        "state": {
            "elbow_joint": 1.6649325706314817,
            "shoulder_lift_joint": -0.6616388048112454,
            "shoulder_pan_joint": -0.9139837860083814,
            "wrist_1_joint": 2.146757197745094,
            "wrist_2_joint": -2.234196043158733,
            "wrist_3_joint": 0.005471033829999897
        }
    },
    "waypoints": [
        {
            "positions": [
                -0.9139837860083814,
                -0.6616388048112454,
                1.6649325706314817,
                2.146757197745094,
                -2.234196043158733,
                0.005471033829999897
            ]
        },
        {
            "positions": [
                -0.8279881076623344,
                -0.7047252659057467,
                1.6650838829262735,
                2.1477500436732324,
                -2.193926025099209,
                0.06613060898990678
            ]
        },
        {
            "positions": [
                -0.8386355676657817,
                -0.7214068468149211,
                1.679208378601827,
                2.0278048978909795,
                -2.087125797121169,
                -0.061637633718356566
            ]
        },
        {
            "positions": [
                -0.849283027669229,
                -0.7380884277240954,
                1.6933328742773808,
                1.9078597521087266,
                -1.9803255691431283,
                -0.1894058764266199
            ]
        },
        {
            "positions": [
                -0.8599304876726763,
                -0.7547700086332698,
                1.7074573699529343,
                1.787914606326474,
                -1.873525341165088,
                -0.31717411913488325
            ]
        },
        {
            "positions": [
                -0.8705779476761236,
                -0.7714515895424442,
                1.7215818656284878,
                1.667969460544221,
                -1.7667251131870476,
                -0.4449423618431466
            ]
        },
        {
            "positions": [
                -0.8812254076795709,
                -0.7881331704516186,
                1.7357063613040413,
                1.5480243147619681,
                -1.6599248852090072,
                -0.57271060455141
            ]
        },
        {
            "positions": [
                -0.8918728676830181,
                -0.8048147513607931,
                1.749830856979595,
                1.4280791689797154,
                -1.553124657230967,
                -0.7004788472596732
            ]
        },
        {
            "positions": [
                -0.9025203276864655,
                -0.8214963322699674,
                1.7639553526551486,
                1.3081340231974625,
                -1.4463244292529263,
                -0.8282470899679367
            ]
        },
        {
            "positions": [
                -0.9131677876899127,
                -0.8381779131791418,
                1.778079848330702,
                1.1881888774152096,
                -1.339524201274886,
                -0.9560153326762
            ]
        },
        {
            "positions": [
                -0.92381524769336,
                -0.8548594940883162,
                1.7922043440062558,
                1.0682437316329567,
                -1.2327239732968458,
                -1.0837835753844631
            ]
        },
        {
            "positions": [
                -0.9344627076968073,
                -0.8715410749974906,
                1.8063288396818094,
                0.9482985858507038,
                -1.1259237453188053,
                -1.2115518180927267
            ]
        },
        {
            "positions": [
                -0.9451101677002546,
                -0.8882226559066649,
                1.8204533353573629,
                0.8283534400684511,
                -1.019123517340765,
                -1.3393200608009899
            ]
        },
        {
            "positions": [
                -0.9557576277037019,
                -0.9049042368158393,
                1.8345778310329164,
                0.7084082942861982,
                -0.9123232893627247,
                -1.4670883035092532
            ]
        },
        {
            "positions": [
                -0.9664050877071492,
                -0.9215858177250137,
                1.8487023267084701,
                0.5884631485039453,
                -0.805523061384684,
                -1.5948565462175166
            ]
        },
        {
            "positions": [
                -0.9770525477105965,
                -0.9382673986341881,
                1.8628268223840236,
                0.4685180027216924,
                -0.6987228334066435,
                -1.7226247889257802
            ]
        },
        {
            "positions": [
                -0.9877000077140438,
                -0.9549489795433624,
                1.8769513180595772,
                0.34857285693943973,
                -0.5919226054286033,
                -1.8503930316340431
            ]
        },
        {
            "positions": [
                -0.998347467717491,
                -0.9716305604525368,
                1.8910758137351307,
                0.22862771115718683,
                -0.48512237745056286,
                -1.9781612743423067
            ]
        },
        {
            "positions": [
                -1.0089949277209382,
                -0.9883121413617113,
                1.9052003094106844,
                0.10868256537493393,
                -0.3783221494725224,
                -2.10592951705057
            ]
        },
        {
            "positions": [
                -1.0196423877243856,
                -1.0049937222708856,
                1.919324805086238,
                -0.011262580407318978,
                -0.2715219214944822,
                -2.233697759758833
            ]
        },
        {
            "positions": [
                -1.0302898477278328,
                -1.02167530318006,
                1.9334493007617914,
                -0.13120772618957188,
                -0.16472169351644173,
                -2.361466002467097
            ]
        },
        {
            "positions": [
                -1.0409373077312802,
                -1.0383568840892345,
                1.9475737964373452,
                -0.2511528719718248,
                -0.057921465538401495,
                -2.48923424517536
            ]
        },
        {
            "positions": [
                -1.0515847677347274,
                -1.0550384649984088,
                1.9616982921128987,
                -0.37109801775407725,
                0.048878762439638734,
                -2.617002487883623
            ]
        },
        {
            "positions": [
                -1.0622322277381748,
                -1.071720045907583,
                1.9758227877884522,
                -0.49104316353633015,
                0.1556789904176794,
                -2.7447707305918865
            ]
        },
        {
            "positions": [
                -1.072879687741622,
                -1.0884016268167576,
                1.989947283464006,
                -0.6109883093185835,
                0.2624792183957201,
                -2.87253897330015
            ]
        },
        {
            "positions": [
                -1.0835271477450692,
                -1.105083207725932,
                2.0040717791395593,
                -0.730933455100836,
                0.36927944637375987,
                -3.000307216008413
            ]
        },
        {
            "positions": [
                -1.0941746077485166,
                -1.1217647886351063,
                2.018196274815113,
                -0.8508786008830886,
                0.4760796743518007,
                -3.1280754587166766
            ]
        }
    ]
}