{
    "goal": {
        "global_pose": {
            "orientation": {
                "w": 0.005598929693374612,
                "x": 0.007748599140229565,
                "y": 0.7110244013736278,
                "z": -0.7031023480610252
            },
            "position": {
                "x": -0.8858502320852131,
                "y": -0.7141253447532654,
                "z": 0.3711530566215515
            }
        },
        "name": "move_to_auspresseinheit_C"
    },
    "id": "BKPIECE_move_to_auspresseinheit_C_89",
    "joint_names": [
        "shoulder_pan_joint",
        "shoulder_lift_joint",
        "elbow_joint",
        "wrist_1_joint",
        "wrist_2_joint",
        "wrist_3_joint"
    ],
    "metrics": {
        "cart_traj_len": 0.49316154403644186,
        "distance_elbow_joint": 1.011420209753069,
        "distance_shoulder_lift_joint": 0.3306804203985083,
        "distance_shoulder_pan_joint": 0.25532752777160717,
        "distance_wrist_1_joint": 0.6986872019558227,
        "distance_wrist_2_joint": 1.3209358397924975,
        "distance_wrist_3_joint": 0.06978095593472489,
        "smoothness": 6.459479416000911e-16,
        "time": 1.3316165899999999,
        "traj_len": 1.9201125372243757,
        "weighted_distance": 2.41785382296449
    },
    "planner": "BKPIECE",
    "start": {
        "state": {
            "elbow_joint": 1.752795957773711,
            "shoulder_lift_joint": -0.9740617694225064,
            "shoulder_pan_joint": -2.967991417825858,
            "wrist_1_joint": -0.7595177689806859,
            "wrist_2_joint": 1.7443932448377395,
            "wrist_3_joint": 3.199131542505932
        }
    },
    "waypoints": [
        {
            "positions": [
                -2.967991417825858,
                -0.9740617694225064,
                1.752795957773711,
                -0.7595177689806859,
                1.7443932448377395,
                3.199131542505932
            ]
        },
        {
            "positions": [
                -2.9424586650486972,
                -0.9409937273826556,
                1.6516539367984042,
                -0.6896490487851037,
                1.6122996608584899,
                3.1921534469124597
            ]
        },
        {
            "positions": [
                -2.9169259122715365,
                -0.9079256853428048,
                1.5505119158230973,
                -0.6197803285895214,
                1.48020607687924,
                3.1851753513189873
            ]
        },
        {
            "positions": [
                -2.891393159494376,
                -0.8748576433029539,
                1.4493698948477904,
                -0.549911608393939,
                1.3481124928999901,
                3.1781972557255145
            ]
        },
        {
            "positions": [
                -2.865860406717215,
                -0.8417896012631031,
                1.3482278738724836,
                -0.48004288819835683,
                1.2160189089207405,
                3.171219160132042
            ]
        },
        {
            "positions": [
                -2.8403276539400544,
                -0.8087215592232523,
                1.2470858528971767,
                -0.41017416800277456,
                1.0839253249414909,
                3.1642410645385697
            ]
        },
        {
            "positions": [
                -2.8147949011628937,
                -0.7756535171834015,
                1.1459438319218698,
                -0.3403054478071923,
                0.951831740962241,
                3.1572629689450973
            ]
        },
        {
            "positions": [
                -2.789262148385733,
                -0.7425854751435507,
                1.0448018109465629,
                -0.2704367276116101,
                0.8197381569829914,
                3.150284873351625
            ]
        },
        {
            "positions": [
                -2.7637293956085722,
                -0.7095174331036997,
                0.943659789971256,
                -0.20056800741602776,
                0.6876445730037415,
                3.143306777758152
            ]
        },
        {
            "positions": [
                -2.7381966428314115,
                -0.6764493910638489,
                0.8425177689959491,
                -0.13069928722044544,
                0.5555509890244916,
                3.1363286821646796
            ]
        },
        {
            "positions": [
                -2.712663890054251,
                -0.6433813490239981,
                0.7413757480206421,
                -0.06083056702486321,
                0.42345740504524204,
                3.1293505865712072
            ]
        }
    ]
}