{
    "goal": {
        "global_pose": {
            "orientation": {
                "w": 0.005598929693374612,
                "x": 0.007748599140229565,
                "y": 0.7110244013736278,
                "z": -0.7031023480610252
            },
            "position": {
                "x": 0.1141497679147869,
                "y": -0.7141253447532654,
                "z": 0.3711530566215515
            }
        },
        "name": "move_to_auspresseinheit_B"
    },
    "id": "BKPIECE_move_to_auspresseinheit_B_128",
    "joint_names": [
        "shoulder_pan_joint",
        "shoulder_lift_joint",
        "elbow_joint",
        "wrist_1_joint",
        "wrist_2_joint",
        "wrist_3_joint"
    ],
    "metrics": {
        "cart_traj_len": 0.5647106497945479,
        "distance_elbow_joint": 0.060683032982534524,
        "distance_shoulder_lift_joint": 0.29523512535109697,
        "distance_shoulder_pan_joint": 0.5783197582826833,
        "distance_wrist_1_joint": 0.3186687863942329,
        "distance_wrist_2_joint": 0.9860163162601905,
        "distance_wrist_3_joint": 0.007743112549607911,
        "smoothness": 2.5376526478085547e-16,
        "time": 0.533291072,
        "traj_len": 1.4988882986468157,
        "weighted_distance": 1.8886072803984382
    },
    "planner": "BKPIECE",
    "start": {
        "state": {
            "elbow_joint": 2.019306165916698,
            "shoulder_lift_joint": -1.1220205098164344,
            "shoulder_pan_joint": -1.095207207618794,
            "wrist_1_joint": -0.8559671824921639,
            "wrist_2_joint": 0.47596387242952726,
            "wrist_3_joint": 3.159081874673826
        }
    },
    "waypoints": [
        {
            "positions": [
                -1.095207207618794,
                -1.1220205098164344,
                2.019306165916698,
                -0.8559671824921639,
                0.47596387242952726,
                3.159081874673826
            ]
        },
        {
            "positions": [
                -1.1915938339992411,
                -1.1712263640416172,
                2.0091923270862755,
                -0.8028557180931251,
                0.640299925139559,
                3.157791355915558
            ]
        },
        {
            "positions": [
                -1.2879804603796885,
                -1.2204322182668002,
                1.9990784882558532,
                -0.7497442536940863,
                0.8046359778495907,
                3.15650083715729
            ]
        },
        {
            "positions": [
                -1.3843670867601356,
                -1.269638072491983,
                1.9889646494254307,
                -0.6966327892950475,
                0.9689720305596226,
                3.155210318399022
            ]
        },
        {
            "positions": [
                -1.4807537131405828,
                -1.3188439267171657,
                1.9788508105950082,
                -0.6435213248960086,
                1.1333080832696543,
                3.1539197996407538
            ]
        },
        {
            "positions": [
                -1.5771403395210302,
                -1.3680497809423486,
                1.968736971764586,
                -0.5904098604969698,
                1.297644135979686,
                3.152629280882486
            ]
        },
        {
            "positions": [
                -1.6735269659014773,
                -1.4172556351675314,
                1.9586231329341635,
                -0.537298396097931,
                1.4619801886897177,
                3.151338762124218
            ]
        }
    ]
}