{
    "goal": {
        "global_pose": {
            "orientation": {
                "w": 0.7031023502349854,
                "x": -0.7110244035720825,
                "y": 0.007748599164187908,
                "z": 0.005598929710686207
            },
            "position": {
                "x": 0.11585023208521307,
                "y": 0.44412534475326537,
                "z": 0.3711530566215515
            }
        },
        "name": "move_to_auspresseinheit_A"
    },
    "id": "BKPIECE_move_to_auspresseinheit_A_121",
    "joint_names": [
        "shoulder_pan_joint",
        "shoulder_lift_joint",
        "elbow_joint",
        "wrist_1_joint",
        "wrist_2_joint",
        "wrist_3_joint"
    ],
    "metrics": {
        "cart_traj_len": 0.7213538656194515,
        "distance_elbow_joint": 0.25171049822767166,
        "distance_shoulder_lift_joint": 0.5357731033471662,
        "distance_shoulder_pan_joint": 1.0454884429166986,
        "distance_wrist_1_joint": 1.0553201405740817,
        "distance_wrist_2_joint": 0.5546921173515768,
        "distance_wrist_3_joint": 1.2145353837710422,
        "smoothness": 0.5604423618474367,
        "time": 0.498665041,
        "traj_len": 2.158128746434799,
        "weighted_distance": 2.949000290209545
    },
    "planner": "BKPIECE",
    "start": {
        "state": {
            "elbow_joint": 2.4225747245308327,
            "shoulder_lift_joint": -1.373653427065438,
            "shoulder_pan_joint": -0.33786330853087027,
            "wrist_1_joint": -1.0288602302712604,
            "wrist_2_joint": 1.23302299562683,
            "wrist_3_joint": -3.094021725338297
        }
    },
    "waypoints": [
        {
            "positions": [
                -0.33786330853087027,
                -1.373653427065438,
                2.4225747245308327,
                -1.0288602302712604,
                1.23302299562683,
                -3.094021725338297
            ]
        },
        {
            "positions": [
                -0.321017339338576,
                -1.4059464763474812,
                2.3944611767023276,
                -0.9256580950805484,
                1.1802077446036212,
                -2.9757635449295052
            ]
        },
        {
            "positions": [
                -0.30417137014628176,
                -1.4382395256295244,
                2.366347628873823,
                -0.8224559598898364,
                1.1273924935804125,
                -2.8575053645207134
            ]
        },
        {
            "positions": [
                -0.2873254009539875,
                -1.4705325749115676,
                2.338234081045318,
                -0.7192538246991245,
                1.0745772425572038,
                -2.739247184111922
            ]
        },
        {
            "positions": [
                -0.27047943176169326,
                -1.5028256241936109,
                2.3101205332168133,
                -0.6160516895084125,
                1.021761991533995,
                -2.62098900370313
            ]
        },
        {
            "positions": [
                -0.253633462569399,
                -1.5351186734756541,
                2.2820069853883083,
                -0.5128495543177005,
                0.9689467405107862,
                -2.502730823294338
            ]
        },
        {
            "positions": [
                -0.12766890029918748,
                -1.5941064793519417,
                2.284096929315326,
                -0.45469626150866377,
                0.9144114101223435,
                -2.5211138962616726
            ]
        },
        {
            "positions": [
                -0.0017043380289759602,
                -1.6530942852282293,
                2.286186873242343,
                -0.396542968699627,
                0.8598760797339007,
                -2.539496969229007
            ]
        },
        {
            "positions": [
                0.1242602242412355,
                -1.712082091104517,
                2.288276817169361,
                -0.3383896758905902,
                0.805340749345458,
                -2.557880042196341
            ]
        },
        {
            "positions": [
                0.2502247865114471,
                -1.7710698969808045,
                2.290366761096378,
                -0.28023638308155346,
                0.7508054189570151,
                -2.5762631151636755
            ]
        },
        {
            "positions": [
                0.37618934878165855,
                -1.8300577028570921,
                2.2924567050233957,
                -0.2220830902725167,
                0.6962700885685724,
                -2.59464618813101
            ]
        },
        {
            "positions": [
                0.459048295182701,
                -1.84989990974597,
                2.317629964885911,
                -0.2842188404163512,
                0.7007548911419023,
                -2.7274784673536128
            ]
        },
        {
            "positions": [
                0.5419072415837435,
                -1.869742116634848,
                2.3428032247484256,
                -0.34635459056018575,
                0.7052396937152321,
                -2.8603107465762156
            ]
        },
        {
            "positions": [
                0.6247661879847859,
                -1.8895843235237262,
                2.3679764846109403,
                -0.40849034070402024,
                0.7097244962885618,
                -2.9931430257988185
            ]
        },
        {
            "positions": [
                0.7076251343858284,
                -1.9094265304126041,
                2.3931497444734555,
                -0.4706260908478548,
                0.7142092988618917,
                -3.1259753050214214
            ]
        }
    ]
}