{
    "goal": {
        "global_pose": {
            "orientation": {
                "w": 0.7047431493862688,
                "x": -0.7094548369677653,
                "y": 0.0024358444001904,
                "z": -0.0022348060817251984
            },
            "position": {
                "x": -0.39052492380142206,
                "y": 0.3671506643295288,
                "z": 0.19426114857196808
            }
        },
        "name": "move_to_magneteinheit_D"
    },
    "id": "BKPIECE_move_to_magneteinheit_D_75",
    "joint_names": [
        "shoulder_pan_joint",
        "shoulder_lift_joint",
        "elbow_joint",
        "wrist_1_joint",
        "wrist_2_joint",
        "wrist_3_joint"
    ],
    "metrics": {
        "cart_traj_len": 4.809845440340366,
        "distance_elbow_joint": 3.11099401786426,
        "distance_shoulder_lift_joint": 1.2446760057499748,
        "distance_shoulder_pan_joint": 5.922604280103476,
        "distance_wrist_1_joint": 2.60718123149505,
        "distance_wrist_2_joint": 2.5182031549439605,
        "distance_wrist_3_joint": 6.2540870351577125,
        "smoothness": 0.3284171696305349,
        "time": 1.722708259,
        "traj_len": 4.653788319779321,
        "weighted_distance": 6.2682776088865815
    },
    "planner": "BKPIECE",
    "start": {
        "state": {
            "elbow_joint": 0.7495348899011973,
            "shoulder_lift_joint": -0.6476975780737697,
            "shoulder_pan_joint": -2.711696901376276,
            "wrist_1_joint": -0.07506478080974305,
            "wrist_2_joint": 0.4329665971545858,
            "wrist_3_joint": 3.1361499051832524
        }
    },
    "waypoints": [
        {
            "positions": [
                -2.711696901376276,
                -0.6476975780737697,
                0.7495348899011973,
                -0.07506478080974305,
                0.4329665971545858,
                3.1361499051832524
            ]
        },
        {
            "positions": [
                -2.7454573685559875,
                -0.6800204448751246,
                0.6250159703221787,
                -0.12209778536892618,
                0.315543138249059,
                3.1361377309008702
            ]
        },
        {
            "positions": [
                -2.7792178357356994,
                -0.7123433116764796,
                0.50049705074316,
                -0.16913078992810932,
                0.1981196793435322,
                3.136125556618488
            ]
        },
        {
            "positions": [
                -2.812978302915411,
                -0.7446661784778346,
                0.37597813116414136,
                -0.21616379448729245,
                0.0806962204380054,
                3.1361133823361054
            ]
        },
        {
            "positions": [
                -2.8467387700951226,
                -0.7769890452791894,
                0.2514592115851227,
                -0.2631967990464756,
                -0.03672723846752139,
                3.136101208053723
            ]
        },
        {
            "positions": [
                -2.7411501447044766,
                -0.7751464141515585,
                0.19799960416770718,
                -0.31756048666017306,
                -0.013003707232600296,
                2.9833000442535345
            ]
        },
        {
            "positions": [
                -2.6355615193138306,
                -0.7733037830239277,
                0.14453999675029164,
                -0.3719241742738706,
                0.010719824002320799,
                2.8304988804533453
            ]
        },
        {
            "positions": [
                -2.5299728939231843,
                -0.7714611518962967,
                0.09108038933287613,
                -0.42628786188756806,
                0.03444335523724189,
                2.6776977166531566
            ]
        },
        {
            "positions": [
                -2.4243842685325383,
                -0.7696185207686658,
                0.03762078191546059,
                -0.48065154950126554,
                0.05816688647216299,
                2.5248965528529674
            ]
        },
        {
            "positions": [
                -2.3187956431418923,
                -0.7677758896410349,
                -0.015838825501954923,
                -0.535015237114963,
                0.08189041770708408,
                2.3720953890527787
            ]
        },
        {
            "positions": [
                -2.2132070177512464,
                -0.765933258513404,
                -0.06929843291937043,
                -0.5893789247286605,
                0.10561394894200517,
                2.21929422525259
            ]
        },
        {
            "positions": [
                -2.1076183923606004,
                -0.764090627385773,
                -0.12275804033678595,
                -0.643742612342358,
                0.12933748017692626,
                2.066493061452401
            ]
        },
        {
            "positions": [
                -2.002029766969954,
                -0.7622479962581422,
                -0.1762176477542015,
                -0.6981062999560554,
                0.15306101141184736,
                1.913691897652212
            ]
        },
        {
            "positions": [
                -1.896441141579308,
                -0.7604053651305113,
                -0.22967725517161702,
                -0.7524699875697529,
                0.17678454264676846,
                1.7608907338520232
            ]
        },
        {
            "positions": [
                -1.7908525161886621,
                -0.7585627340028804,
                -0.28313686258903253,
                -0.8068336751834504,
                0.20050807388168956,
                1.6080895700518343
            ]
        },
        {
            "positions": [
                -1.685263890798016,
                -0.7567201028752495,
                -0.33659647000644816,
                -0.8611973627971481,
                0.22423160511661067,
                1.4552884062516454
            ]
        },
        {
            "positions": [
                -1.57967526540737,
                -0.7548774717476185,
                -0.39005607742386356,
                -0.9155610504108453,
                0.2479551363515317,
                1.3024872424514566
            ]
        },
        {
            "positions": [
                -1.474086640016724,
                -0.7530348406199877,
                -0.4435156848412792,
                -0.969924738024543,
                0.2716786675864528,
                1.1496860786512675
            ]
        },
        {
            "positions": [
                -1.3684980146260781,
                -0.7511922094923568,
                -0.4969752922586946,
                -1.0242884256382403,
                0.2954021988213739,
                0.996884914851079
            ]
        },
        {
            "positions": [
                -1.262909389235432,
                -0.7493495783647258,
                -0.5504348996761101,
                -1.078652113251938,
                0.319125730056295,
                0.8440837510508898
            ]
        },
        {
            "positions": [
                -1.1573207638447858,
                -0.747506947237095,
                -0.6038945070935258,
                -1.1330158008656355,
                0.3428492612912161,
                0.6912825872507007
            ]
        },
        {
            "positions": [
                -1.0517321384541398,
                -0.745664316109464,
                -0.6573541145109412,
                -1.1873794884793327,
                0.36657279252613717,
                0.538481423450512
            ]
        },
        {
            "positions": [
                -0.9461435130634939,
                -0.7438216849818331,
                -0.7108137219283568,
                -1.2417431760930304,
                0.3902963237610583,
                0.38568025965032326
            ]
        },
        {
            "positions": [
                -0.8405548876728477,
                -0.7419790538542023,
                -0.7642733293457722,
                -1.296106863706728,
                0.4140198549959794,
                0.23287909585013455
            ]
        },
        {
            "positions": [
                -0.7349662622822017,
                -0.7401364227265713,
                -0.8177329367631878,
                -1.3504705513204254,
                0.4377433862309005,
                0.0800779320499454
            ]
        },
        {
            "positions": [
                -0.6293776368915558,
                -0.7382937915989404,
                -0.8711925441806034,
                -1.4048342389341228,
                0.4614669174658216,
                -0.07272323175024376
            ]
        },
        {
            "positions": [
                -0.5237890115009094,
                -0.7364511604713095,
                -0.9246521515980191,
                -1.4591979265478205,
                0.48519044870074274,
                -0.22552439555043247
            ]
        },
        {
            "positions": [
                -0.4182003861102639,
                -0.7346085293436786,
                -0.9781117590154342,
                -1.5135616141615178,
                0.5089139799356638,
                -0.3783255593506212
            ]
        },
        {
            "positions": [
                -0.3126117607196175,
                -0.7327658982160477,
                -1.0315713664328499,
                -1.5679253017752153,
                0.5326375111705849,
                -0.5311267231508099
            ]
        },
        {
            "positions": [
                -0.20702313532897154,
                -0.7309232670884168,
                -1.0850309738502655,
                -1.6222889893889127,
                0.556361042405506,
                -0.683927886950999
            ]
        },
        {
            "positions": [
                -0.10143450993832559,
                -0.7290806359607859,
                -1.138490581267681,
                -1.6766526770026104,
                0.5800845736404271,
                -0.8367290507511882
            ]
        },
        {
            "positions": [
                0.004154115452320806,
                -0.7272380048331549,
                -1.1919501886850965,
                -1.731016364616308,
                0.6038081048753482,
                -0.9895302145513774
            ]
        },
        {
            "positions": [
                0.10974274084296631,
                -0.7253953737055241,
                -1.245409796102512,
                -1.7853800522300052,
                0.6275316361102693,
                -1.1423313783515652
            ]
        },
        {
            "positions": [
                0.2153313662336127,
                -0.7235527425778931,
                -1.2988694035199275,
                -1.8397437398437027,
                0.6512551673451904,
                -1.2951325421517548
            ]
        },
        {
            "positions": [
                0.32091999162425866,
                -0.7217101114502622,
                -1.352329010937343,
                -1.8941074274574003,
                0.6749786985801115,
                -1.4479337059519435
            ]
        },
        {
            "positions": [
                0.4265086170149046,
                -0.7198674803226314,
                -1.4057886183547585,
                -1.9484711150710978,
                0.6987022298150326,
                -1.6007348697521322
            ]
        },
        {
            "positions": [
                0.532097242405551,
                -0.7180248491950004,
                -1.4592482257721742,
                -2.002834802684795,
                0.7224257610499537,
                -1.7535360335523218
            ]
        },
        {
            "positions": [
                0.6376858677961965,
                -0.7161822180673696,
                -1.5127078331895896,
                -2.0571984902984926,
                0.7461492922848747,
                -1.9063371973525096
            ]
        },
        {
            "positions": [
                0.7432744931868429,
                -0.7143395869397386,
                -1.566167440607005,
                -2.11156217791219,
                0.7698728235197958,
                -2.059138361152699
            ]
        },
        {
            "positions": [
                0.8488631185774889,
                -0.7124969558121077,
                -1.6196270480244206,
                -2.1659258655258875,
                0.7935963547547169,
                -2.211939524952888
            ]
        },
        {
            "positions": [
                0.9544517439681348,
                -0.7106543246844769,
                -1.6730866554418362,
                -2.220289553139585,
                0.817319885989638,
                -2.3647406887530766
            ]
        },
        {
            "positions": [
                1.0600403693587812,
                -0.7088116935568459,
                -1.7265462628592518,
                -2.2746532407532825,
                0.8410434172245592,
                -2.5175418525532662
            ]
        },
        {
            "positions": [
                1.1656289947494272,
                -0.706969062429215,
                -1.780005870276667,
                -2.32901692836698,
                0.8647669484594802,
                -2.670343016353454
            ]
        },
        {
            "positions": [
                1.2712176201400731,
                -0.7051264313015841,
                -1.8334654776940826,
                -2.3833806159806774,
                0.8884904796944013,
                -2.8231441801536437
            ]
        },
        {
            "positions": [
                1.3768062455307186,
                -0.7032838001739532,
                -1.8869250851114983,
                -2.437744303594375,
                0.9122140109293224,
                -2.975945343953833
            ]
        },
        {
            "positions": [
                1.2464714625508195,
                -0.7900904079605631,
                -1.926469588682462,
                -2.41736916120184,
                0.8205833384355715,
                -2.9877779927888852
            ]
        },
        {
            "positions": [
                1.1161366795709202,
                -0.8768970157471729,
                -1.9660140922534257,
                -2.396994018809305,
                0.7289526659418206,
                -2.999610641623937
            ]
        },
        {
            "positions": [
                0.9858018965910211,
                -0.9637036235337829,
                -2.0055585958243896,
                -2.3766188764167704,
                0.6373219934480697,
                -3.0114432904589896
            ]
        },
        {
            "positions": [
                0.8554671136111219,
                -1.0505102313203927,
                -2.0451030993953534,
                -2.3562437340242353,
                0.5456913209543188,
                -3.023275939294042
            ]
        },
        {
            "positions": [
                0.7251323306312227,
                -1.1373168391070028,
                -2.0846476029663172,
                -2.3358685916317006,
                0.45406064846056793,
                -3.035108588129094
            ]
        },
        {
            "positions": [
                0.5947975476513235,
                -1.2241234468936126,
                -2.1241921065372806,
                -2.315493449239166,
                0.36242997596681703,
                -3.0469412369641464
            ]
        },
        {
            "positions": [
                0.46446276467142433,
                -1.3109300546802225,
                -2.1637366101082445,
                -2.2951183068466308,
                0.27079930347306613,
                -3.058773885799199
            ]
        },
        {
            "positions": [
                0.33412798169152524,
                -1.3977366624668324,
                -2.2032811136792083,
                -2.274743164454096,
                0.17916863097931524,
                -3.070606534634251
            ]
        },
        {
            "positions": [
                0.20379319871162593,
                -1.4845432702534422,
                -2.242825617250172,
                -2.254368022061561,
                0.08753795848556434,
                -3.0824391834693032
            ]
        },
        {
            "positions": [
                0.07345841573172684,
                -1.5713498780400523,
                -2.2823701208211356,
                -2.2339928796690263,
                -0.00409271400818656,
                -3.0942718323043557
            ]
        },
        {
            "positions": [
                -0.056876367248172244,
                -1.658156485826662,
                -2.3219146243920994,
                -2.213617737276491,
                -0.09572338650193735,
                -3.1061044811394076
            ]
        },
        {
            "positions": [
                -0.1872111502280715,
                -1.744963093613272,
                -2.3614591279630632,
                -2.1932425948839565,
                -0.18735405899568824,
                -3.11793712997446
            ]
        }
    ]
}