{
    "goal": {
        "global_pose": {
            "orientation": {
                "w": -0.00223480608172531,
                "x": 0.0024358444001904467,
                "y": 0.7094548369677653,
                "z": -0.704743149386269
            },
            "position": {
                "x": 0.6205249238014221,
                "y": -0.6371506643295288,
                "z": 0.19426114857196808
            }
        },
        "name": "move_to_magneteinheit_B"
    },
    "id": "BKPIECE_move_to_magneteinheit_B_75",
    "joint_names": [
        "shoulder_pan_joint",
        "shoulder_lift_joint",
        "elbow_joint",
        "wrist_1_joint",
        "wrist_2_joint",
        "wrist_3_joint"
    ],
    "metrics": {
        "cart_traj_len": 1.4525164370768784,
        "distance_elbow_joint": 0.7310080569464221,
        "distance_shoulder_lift_joint": 1.248508235447864,
        "distance_shoulder_pan_joint": 1.6202954131443437,
        "distance_wrist_1_joint": 2.605153293514624,
        "distance_wrist_2_joint": 2.940811075304535,
        "distance_wrist_3_joint": 3.12599951541745,
        "smoothness": 5.8286709019490305e-16,
        "time": 0.434245012,
        "traj_len": 3.503109417328445,
        "weighted_distance": 4.906092028226672
    },
    "planner": "BKPIECE",
    "start": {
        "state": {
            "elbow_joint": 2.3935871308073637,
            "shoulder_lift_joint": -1.9085141043777403,
            "shoulder_pan_joint": 0.7066247067284167,
            "wrist_1_joint": -0.46782909355067076,
            "wrist_2_joint": 0.7096259085804283,
            "wrist_3_joint": -3.1358149275257428
        }
    },
    "waypoints": [
        {
            "positions": [
                0.7066247067284167,
                -1.9085141043777403,
                2.3935871308073637,
                -0.46782909355067076,
                0.7096259085804283,
                -3.1358149275257428
            ]
        },
        {
            "positions": [
                0.6543571127560185,
                -1.8682396451697447,
                2.370006225744576,
                -0.38379189053407,
                0.6147610351835078,
                -3.0349762334800188
            ]
        },
        {
            "positions": [
                0.6020895187836204,
                -1.827965185961749,
                2.346425320681788,
                -0.2997546875174692,
                0.5198961617865874,
                -2.9341375394342943
            ]
        },
        {
            "positions": [
                0.5498219248112222,
                -1.7876907267537534,
                2.3228444156190005,
                -0.21571748450086842,
                0.4250312883896668,
                -2.8332988453885704
            ]
        },
        {
            "positions": [
                0.49755433083882394,
                -1.7474162675457579,
                2.2992635105562127,
                -0.13168028148426764,
                0.33016641499274635,
                -2.732460151342846
            ]
        },
        {
            "positions": [
                0.4452867368664258,
                -1.7071418083377623,
                2.2756826054934245,
                -0.047643078467666855,
                0.23530154159582584,
                -2.631621457297122
            ]
        },
        {
            "positions": [
                0.3930191428940276,
                -1.6668673491297665,
                2.2521017004306367,
                0.036394124548933926,
                0.14043666819890532,
                -2.5307827632513975
            ]
        },
        {
            "positions": [
                0.34075154892162945,
                -1.626592889921771,
                2.228520795367849,
                0.12043132756553471,
                0.04557179480198492,
                -2.4299440692056735
            ]
        },
        {
            "positions": [
                0.28848395494923124,
                -1.5863184307137754,
                2.204939890305061,
                0.2044685305821355,
                -0.04929307859493559,
                -2.3291053751599495
            ]
        },
        {
            "positions": [
                0.23621636097683302,
                -1.5460439715057797,
                2.1813589852422735,
                0.28850573359873627,
                -0.1441579519918561,
                -2.228266681114225
            ]
        },
        {
            "positions": [
                0.18394876700443485,
                -1.505769512297784,
                2.1577780801794857,
                0.37254293661533705,
                -0.23902282538877662,
                -2.1274279870685007
            ]
        },
        {
            "positions": [
                0.13168117303203664,
                -1.4654950530897886,
                2.134197175116698,
                0.45658013963193783,
                -0.333887698785697,
                -2.0265892930227767
            ]
        },
        {
            "positions": [
                0.07941357905963853,
                -1.425220593881793,
                2.11061627005391,
                0.5406173426485386,
                -0.42875257218261764,
                -1.9257505989770525
            ]
        },
        {
            "positions": [
                0.02714598508724031,
                -1.3849461346737972,
                2.087035364991122,
                0.6246545456651393,
                -0.523617445579538,
                -1.8249119049313283
            ]
        },
        {
            "positions": [
                -0.025121608885157798,
                -1.3446716754658017,
                2.0634544599283346,
                0.7086917486817401,
                -0.6184823189764584,
                -1.7240732108856043
            ]
        },
        {
            "positions": [
                -0.07738920285755602,
                -1.3043972162578061,
                2.0398735548655464,
                0.7927289516983409,
                -0.7133471923733791,
                -1.6232345168398798
            ]
        },
        {
            "positions": [
                -0.12965679682995424,
                -1.2641227570498104,
                2.0162926498027587,
                0.8767661547149417,
                -0.8082120657702995,
                -1.5223958227941559
            ]
        },
        {
            "positions": [
                -0.18192439080235234,
                -1.223848297841815,
                1.992711744739971,
                0.9608033577315422,
                -0.9030769391672199,
                -1.4215571287484317
            ]
        },
        {
            "positions": [
                -0.23419198477475067,
                -1.1835738386338193,
                1.9691308396771832,
                1.0448405607481432,
                -0.9979418125641405,
                -1.3207184347027072
            ]
        },
        {
            "positions": [
                -0.2864595787471488,
                -1.1432993794258235,
                1.9455499346143954,
                1.128877763764744,
                -1.0928066859610608,
                -1.2198797406569832
            ]
        },
        {
            "positions": [
                -0.338727172719547,
                -1.1030249202178282,
                1.9219690295516076,
                1.2129149667813448,
                -1.1876715593579816,
                -1.119041046611259
            ]
        },
        {
            "positions": [
                -0.390994766691945,
                -1.0627504610098324,
                1.8983881244888199,
                1.2969521697979454,
                -1.282536432754902,
                -1.018202352565535
            ]
        },
        {
            "positions": [
                -0.44326236066434344,
                -1.0224760018018366,
                1.874807219426032,
                1.3809893728145464,
                -1.3774013061518224,
                -0.9173636585198106
            ]
        },
        {
            "positions": [
                -0.49552995463674143,
                -0.9822015425938412,
                1.8512263143632441,
                1.4650265758311471,
                -1.4722661795487428,
                -0.8165249644740866
            ]
        },
        {
            "positions": [
                -0.5477975486091397,
                -0.9419270833858455,
                1.8276454093004562,
                1.549063778847748,
                -1.5671310529456637,
                -0.7156862704283622
            ]
        },
        {
            "positions": [
                -0.6000651425815379,
                -0.90165262417785,
                1.8040645042376684,
                1.6331009818643487,
                -1.661995926342584,
                -0.6148475763826382
            ]
        },
        {
            "positions": [
                -0.6523327365539361,
                -0.8613781649698542,
                1.7804835991748806,
                1.7171381848809495,
                -1.7568607997395045,
                -0.5140088823369138
            ]
        },
        {
            "positions": [
                -0.7046003305263343,
                -0.8211037057618586,
                1.7569026941120929,
                1.8011753878975503,
                -1.8517256731364249,
                -0.4131701882911898
            ]
        },
        {
            "positions": [
                -0.7568679244987323,
                -0.7808292465538631,
                1.7333217890493051,
                1.885212590914151,
                -1.9465905465333453,
                -0.3123314942454658
            ]
        },
        {
            "positions": [
                -0.8091355184711305,
                -0.7405547873458675,
                1.7097408839865174,
                1.9692497939307518,
                -2.0414554199302657,
                -0.21149280019974137
            ]
        },
        {
            "positions": [
                -0.8614031124435287,
                -0.7002803281378718,
                1.6861599789237294,
                2.0532869969473526,
                -2.1363202933271865,
                -0.11065410615401694
            ]
        },
        {
            "positions": [
                -0.913670706415927,
                -0.6600058689298763,
                1.6625790738609416,
                2.1373241999639534,
                -2.231185166724107,
                -0.009815412108293063
            ]
        }
    ]
}