{
    "goal": {
        "global_pose": {
            "orientation": {
                "w": 0.5084816262002911,
                "x": -0.4908360881923452,
                "y": 0.5182115481033761,
                "z": -0.48164630358495003
            },
            "position": {
                "x": 0.5540239810943604,
                "y": -0.46912469901144505,
                "z": 0.16403168439865112
            }
        },
        "name": "move_to_storage_B"
    },
    "id": "BKPIECE_move_to_storage_B_11",
    "joint_names": [
        "shoulder_pan_joint",
        "shoulder_lift_joint",
        "elbow_joint",
        "wrist_1_joint",
        "wrist_2_joint",
        "wrist_3_joint"
    ],
    "metrics": {
        "cart_traj_len": 2.371250312841554,
        "distance_elbow_joint": 2.0565392827641826,
        "distance_shoulder_lift_joint": 0.6807556249588584,
        "distance_shoulder_pan_joint": 1.8686671239617387,
        "distance_wrist_1_joint": 2.9778730412760677,
        "distance_wrist_2_joint": 2.7029943536896455,
        "distance_wrist_3_joint": 3.1290402779708337,
        "smoothness": 0.048092695840844885,
        "time": 1.659554156,
        "traj_len": 3.6627680386043187,
        "weighted_distance": 5.035356755536662
    },
    "planner": "BKPIECE",
    "start": {
        "state": {
            "elbow_joint": 1.6649325706314817,
            "shoulder_lift_joint": -0.6616388048112454,
            "shoulder_pan_joint": -0.9139837860083814,
            "wrist_1_joint": 2.146757197745094,
            "wrist_2_joint": -2.234196043158733,
            "wrist_3_joint": 0.005471033829999897
        }
    },
    "waypoints": [
        {
            "positions": [
                -0.9139837860083814,
                -0.6616388048112454,
                1.6649325706314817,
                2.146757197745094,
                -2.234196043158733,
                0.005471033829999897
            ]
        },
        {
            "positions": [
                -0.835758616012601,
                -0.7093534858033614,
                1.5846220297250673,
                2.0751020715016186,
                -2.1686857125451446,
                0.02414746786266732
            ]
        },
        {
            "positions": [
                -0.7575334460168207,
                -0.7570681667954774,
                1.5043114888186528,
                2.003446945258143,
                -2.103175381931556,
                0.042823901895334734
            ]
        },
        {
            "positions": [
                -0.6793082760210404,
                -0.8047828477875935,
                1.4240009479122386,
                1.9317918190146675,
                -2.0376650513179677,
                0.06150033592800215
            ]
        },
        {
            "positions": [
                -0.60108310602526,
                -0.8524975287797094,
                1.3436904070058242,
                1.860136692771192,
                -1.9721547207043792,
                0.08017676996066958
            ]
        },
        {
            "positions": [
                -0.5228579360294797,
                -0.9002122097718255,
                1.2633798660994098,
                1.7884815665277163,
                -1.9066443900907908,
                0.098853203993337
            ]
        },
        {
            "positions": [
                -0.4446327660336994,
                -0.9479268907639415,
                1.1830693251929953,
                1.7168264402842408,
                -1.8411340594772023,
                0.11752963802600441
            ]
        },
        {
            "positions": [
                -0.36640759603791906,
                -0.9956415717560575,
                1.1027587842865811,
                1.6451713140407653,
                -1.7756237288636139,
                0.1362060720586718
            ]
        },
        {
            "positions": [
                -0.28818242604213873,
                -1.0433562527481737,
                1.0224482433801665,
                1.5735161877972899,
                -1.7101133982500256,
                0.15488250609133924
            ]
        },
        {
            "positions": [
                -0.2099572560463584,
                -1.0910709337402895,
                0.9421377024737522,
                1.5018610615538142,
                -1.644603067636437,
                0.17355894012400666
            ]
        },
        {
            "positions": [
                -0.13173208605057807,
                -1.1387856147324056,
                0.8618271615673379,
                1.4302059353103387,
                -1.5790927370228487,
                0.19223537415667408
            ]
        },
        {
            "positions": [
                -0.08640000056626604,
                -1.1847491887029138,
                0.81868883921338,
                1.3164496034576934,
                -1.5013572033503926,
                0.257745267588284
            ]
        },
        {
            "positions": [
                -0.07830635525130519,
                -1.20778823812908,
                0.8144534191769774,
                1.2271569539208682,
                -1.4361808390141935,
                0.3299144212304973
            ]
        },
        {
            "positions": [
                -0.07021270993634436,
                -1.2308272875552464,
                0.8102179991405748,
                1.137864304384043,
                -1.3710044746779946,
                0.40208357487271057
            ]
        },
        {
            "positions": [
                -0.1147734076706792,
                -1.225976542241557,
                0.8624712474568041,
                1.052256471865999,
                -1.291013049234129,
                0.5208847808261072
            ]
        },
        {
            "positions": [
                -0.15933410540501403,
                -1.2211257969278675,
                0.9147244957730335,
                0.9666486393479548,
                -1.2110216237902636,
                0.6396859867795038
            ]
        },
        {
            "positions": [
                -0.20389480313934888,
                -1.216275051614178,
                0.9669777440892628,
                0.8810408068299107,
                -1.131030198346398,
                0.7584871927329004
            ]
        },
        {
            "positions": [
                -0.24845550087368368,
                -1.2114243063004886,
                1.0192309924054923,
                0.7954329743118665,
                -1.0510387729025326,
                0.8772883986862972
            ]
        },
        {
            "positions": [
                -0.29301619860801853,
                -1.2065735609867991,
                1.0714842407217215,
                0.7098251417938224,
                -0.9710473474586669,
                0.9960896046396939
            ]
        },
        {
            "positions": [
                -0.3375768963423534,
                -1.2017228156731097,
                1.123737489037951,
                0.6242173092757782,
                -0.8910559220148015,
                1.1148908105930904
            ]
        },
        {
            "positions": [
                -0.38213759407668824,
                -1.1968720703594202,
                1.1759907373541805,
                0.5386094767577341,
                -0.8110644965709359,
                1.233692016546487
            ]
        },
        {
            "positions": [
                -0.42669829181102303,
                -1.1920213250457308,
                1.2282439856704097,
                0.45300164423969,
                -0.7310730711270704,
                1.3524932224998838
            ]
        },
        {
            "positions": [
                -0.4712589895453579,
                -1.1871705797320413,
                1.2804972339866392,
                0.36739381172164587,
                -0.6510816456832049,
                1.4712944284532803
            ]
        },
        {
            "positions": [
                -0.5158196872796926,
                -1.1823198344183519,
                1.3327504823028686,
                0.2817859792036017,
                -0.5710902202393394,
                1.590095634406677
            ]
        },
        {
            "positions": [
                -0.5603803850140275,
                -1.1774690891046624,
                1.3850037306190979,
                0.19617814668555755,
                -0.4910987947954738,
                1.7088968403600737
            ]
        },
        {
            "positions": [
                -0.6049410827483623,
                -1.172618343790973,
                1.4372569789353271,
                0.1105703141675134,
                -0.4111073693516084,
                1.8276980463134702
            ]
        },
        {
            "positions": [
                -0.6495017804826971,
                -1.1677675984772835,
                1.4895102272515566,
                0.024962481649469348,
                -0.3311159439077429,
                1.946499252266867
            ]
        },
        {
            "positions": [
                -0.694062478217032,
                -1.162916853163594,
                1.541763475567786,
                -0.06064535086857492,
                -0.2511245184638773,
                2.0653004582202636
            ]
        },
        {
            "positions": [
                -0.7386231759513668,
                -1.1580661078499046,
                1.5940167238840153,
                -0.14625318338661897,
                -0.17113309302001167,
                2.1841016641736606
            ]
        },
        {
            "positions": [
                -0.7831838736857016,
                -1.1532153625362151,
                1.6462699722002447,
                -0.23186101590466301,
                -0.09114166757614628,
                2.302902870127057
            ]
        },
        {
            "positions": [
                -0.8277445714200364,
                -1.1483646172225257,
                1.6985232205164742,
                -0.31746884842270706,
                -0.011150242132280885,
                2.4217040760804536
            ]
        },
        {
            "positions": [
                -0.8723052691543713,
                -1.1435138719088362,
                1.7507764688327034,
                -0.40307668094075133,
                0.06884118331158473,
                2.54050528203385
            ]
        },
        {
            "positions": [
                -0.9168659668887061,
                -1.1386631265951468,
                1.803029717148933,
                -0.4886845134587954,
                0.14883260875545035,
                2.659306487987247
            ]
        },
        {
            "positions": [
                -0.9614266646230409,
                -1.1338123812814573,
                1.8552829654651624,
                -0.5742923459768396,
                0.22882403419931574,
                2.7781076939406435
            ]
        },
        {
            "positions": [
                -1.0059873623573758,
                -1.1289616359677679,
                1.9075362137813916,
                -0.6599001784948837,
                0.30881545964318113,
                2.89690889989404
            ]
        },
        {
            "positions": [
                -1.0505480600917108,
                -1.1241108906540784,
                1.9597894620976213,
                -0.745508011012928,
                0.38880688508704697,
                3.015710105847437
            ]
        },
        {
            "positions": [
                -1.0951087578260454,
                -1.119260145340389,
                2.0120427104138505,
                -0.831115843530972,
                0.4687983105309123,
                3.1345113118008334
            ]
        }
    ]
}