{
    "goal": {
        "global_pose": {
            "orientation": {
                "w": -0.00223480608172531,
                "x": 0.0024358444001904467,
                "y": 0.7094548369677653,
                "z": -0.704743149386269
            },
            "position": {
                "x": -0.37947507619857795,
                "y": -0.6371506643295288,
                "z": 0.19426114857196808
            }
        },
        "name": "move_to_magneteinheit_C"
    },
    "id": "BKPIECE_move_to_magneteinheit_C_13",
    "joint_names": [
        "shoulder_pan_joint",
        "shoulder_lift_joint",
        "elbow_joint",
        "wrist_1_joint",
        "wrist_2_joint",
        "wrist_3_joint"
    ],
    "metrics": {
        "cart_traj_len": 1.1081492196935026,
        "distance_elbow_joint": 1.1491829676795118,
        "distance_shoulder_lift_joint": 0.3422134973173754,
        "distance_shoulder_pan_joint": 1.9088335524137539,
        "distance_wrist_1_joint": 0.642934220657418,
        "distance_wrist_2_joint": 4.260565191122148,
        "distance_wrist_3_joint": 7.548868059558151,
        "smoothness": 0.8434446124842193,
        "time": 1.23105445,
        "traj_len": 3.9815320529600617,
        "weighted_distance": 5.987807029259064
    },
    "planner": "BKPIECE",
    "start": {
        "state": {
            "elbow_joint": 1.9565354006590394,
            "shoulder_lift_joint": -1.4165861576513559,
            "shoulder_pan_joint": -1.6717766223277177,
            "wrist_1_joint": -0.5286633288215096,
            "wrist_2_joint": 1.4727565892594296,
            "wrist_3_joint": 3.1593482883155493
        }
    },
    "waypoints": [
        {
            "positions": [
                -1.6717766223277177,
                -1.4165861576513559,
                1.9565354006590394,
                -0.5286633288215096,
                1.4727565892594296,
                3.1593482883155493
            ]
        },
        {
            "positions": [
                -1.67572415112559,
                -1.431470909440532,
                1.9782235726167676,
                -0.6064599025027022,
                1.5278078979824312,
                2.9374696020877975
            ]
        },
        {
            "positions": [
                -1.6796716799234623,
                -1.446355661229708,
                1.9999117445744958,
                -0.684256476183895,
                1.5828592067054328,
                2.715590915860046
            ]
        },
        {
            "positions": [
                -1.6836192087213346,
                -1.461240413018884,
                2.021599916532224,
                -0.7620530498650876,
                1.6379105154284344,
                2.4937122296322944
            ]
        },
        {
            "positions": [
                -1.7507481413833803,
                -1.454869997349387,
                2.048401904999007,
                -0.7740595072912616,
                1.5115863952009667,
                2.337424146801151
            ]
        },
        {
            "positions": [
                -1.817877074045426,
                -1.44849958167989,
                2.0752038934657895,
                -0.7860659647174355,
                1.385262274973499,
                2.1811360639700084
            ]
        },
        {
            "positions": [
                -1.8850060067074714,
                -1.442129166010393,
                2.1020058819325724,
                -0.7980724221436095,
                1.2589381547460314,
                2.024847981138865
            ]
        },
        {
            "positions": [
                -1.952134939369517,
                -1.435758750340896,
                2.128807870399355,
                -0.8100788795697834,
                1.1326140345185638,
                1.8685598983077223
            ]
        },
        {
            "positions": [
                -2.019263872031563,
                -1.429388334671399,
                2.155609858866138,
                -0.8220853369959574,
                1.0062899142910964,
                1.712271815476579
            ]
        },
        {
            "positions": [
                -2.086392804693608,
                -1.4230179190019019,
                2.1824118473329204,
                -0.8340917944221313,
                0.8799657940636286,
                1.5559837326454362
            ]
        },
        {
            "positions": [
                -2.153521737355654,
                -1.4166475033324049,
                2.2092138357997033,
                -0.8460982518483053,
                0.7536416738361611,
                1.3996956498142932
            ]
        },
        {
            "positions": [
                -2.2206506700176996,
                -1.4102770876629078,
                2.236015824266486,
                -0.8581047092744793,
                0.6273175536086935,
                1.24340756698315
            ]
        },
        {
            "positions": [
                -2.2877796026797452,
                -1.4039066719934108,
                2.2628178127332688,
                -0.8701111667006532,
                0.5009934333812258,
                1.0871194841520069
            ]
        },
        {
            "positions": [
                -2.354908535341791,
                -1.3975362563239138,
                2.2896198012000513,
                -0.8821176241268271,
                0.3746693131537582,
                0.9308314013208638
            ]
        },
        {
            "positions": [
                -2.4220374680038366,
                -1.3911658406544167,
                2.316421789666834,
                -0.8941240815530012,
                0.24834519292629054,
                0.7745433184897206
            ]
        },
        {
            "positions": [
                -2.4891664006658822,
                -1.38479542498492,
                2.343223778133617,
                -0.9061305389791752,
                0.1220210726988229,
                0.6182552356585778
            ]
        },
        {
            "positions": [
                -2.556295333327928,
                -1.3784250093154229,
                2.3700257666003997,
                -0.9181369964053491,
                -0.004303047528644743,
                0.4619671528274347
            ]
        },
        {
            "positions": [
                -2.623424265989973,
                -1.3720545936459259,
                2.3968277550671826,
                -0.930143453831523,
                -0.13062716775611216,
                0.3056790699962919
            ]
        },
        {
            "positions": [
                -2.690553198652019,
                -1.3656841779764288,
                2.423629743533965,
                -0.942149911257697,
                -0.25695128798358,
                0.14939098716514865
            ]
        },
        {
            "positions": [
                -2.7576821313140645,
                -1.3593137623069318,
                2.450431732000748,
                -0.954156368683871,
                -0.38327540821104744,
                -0.0068970956659946125
            ]
        },
        {
            "positions": [
                -2.82481106397611,
                -1.3529433466374348,
                2.4772337204675305,
                -0.9661628261100449,
                -0.5095995284385153,
                -0.16318517849713743
            ]
        },
        {
            "positions": [
                -2.891939996638156,
                -1.3465729309679377,
                2.5040357089343135,
                -0.9781692835362189,
                -0.6359236486659827,
                -0.3194732613282807
            ]
        },
        {
            "positions": [
                -2.9590689293002015,
                -1.3402025152984407,
                2.530837697401096,
                -0.9901757409623928,
                -0.7622477688934501,
                -0.4757613441594235
            ]
        },
        {
            "positions": [
                -3.026197861962247,
                -1.3338320996289437,
                2.557639685867879,
                -1.0021821983885668,
                -0.888571889120918,
                -0.6320494269905668
            ]
        },
        {
            "positions": [
                -2.995397177918957,
                -1.3243792702645043,
                2.5271908701750636,
                -0.9927702344391023,
                -0.8014091746540408,
                -0.4233010745321202
            ]
        },
        {
            "positions": [
                -2.964596493875667,
                -1.3149264409000652,
                2.4967420544822487,
                -0.9833582704896379,
                -0.7142464601871635,
                -0.21455272207367354
            ]
        },
        {
            "positions": [
                -2.933795809832376,
                -1.3054736115356258,
                2.4662932387894334,
                -0.9739463065401733,
                -0.6270837457202864,
                -0.005804369615226901
            ]
        },
        {
            "positions": [
                -2.902995125789086,
                -1.2960207821711867,
                2.4358444230966185,
                -0.9645343425907089,
                -0.5399210312534091,
                0.20294398284321968
            ]
        },
        {
            "positions": [
                -2.872194441745796,
                -1.2865679528067473,
                2.405395607403803,
                -0.9551223786412444,
                -0.45275831678653183,
                0.4116923353016664
            ]
        },
        {
            "positions": [
                -2.8413937577025057,
                -1.2771151234423082,
                2.3749467917109883,
                -0.9457104146917799,
                -0.3655956023196547,
                0.620440687760113
            ]
        },
        {
            "positions": [
                -2.8105930736592155,
                -1.2676622940778688,
                2.344497976018173,
                -0.9362984507423154,
                -0.2784328878527774,
                0.8291890402185598
            ]
        },
        {
            "positions": [
                -2.7797923896159253,
                -1.2582094647134296,
                2.314049160325358,
                -0.9268864867928509,
                -0.19127017338590024,
                1.0379373926770061
            ]
        },
        {
            "positions": [
                -2.748991705572635,
                -1.2487566353489903,
                2.283600344632543,
                -0.9174745228433865,
                -0.10410745891902295,
                1.246685745135453
            ]
        },
        {
            "positions": [
                -2.7181910215293446,
                -1.239303805984551,
                2.2531515289397275,
                -0.908062558893922,
                -0.016944744452145666,
                1.4554340975938995
            ]
        },
        {
            "positions": [
                -2.6873903374860544,
                -1.2298509766201118,
                2.2227027132469126,
                -0.8986505949444574,
                0.07021797001473162,
                1.6641824500523463
            ]
        },
        {
            "positions": [
                -2.656589653442764,
                -1.2203981472556724,
                2.1922538975540973,
                -0.889238630994993,
                0.15738068448160858,
                1.8729308025107927
            ]
        },
        {
            "positions": [
                -2.625788969399474,
                -1.2109453178912333,
                2.1618050818612824,
                -0.8798266670455285,
                0.24454339894848598,
                2.0816791549692395
            ]
        },
        {
            "positions": [
                -2.594988285356184,
                -1.201492488526794,
                2.131356266168467,
                -0.8704147030960641,
                0.33170611341536316,
                2.2904275074276863
            ]
        },
        {
            "positions": [
                -2.5641876013128932,
                -1.1920396591623548,
                2.100907450475652,
                -0.8610027391465995,
                0.41886882788224056,
                2.4991758598861327
            ]
        },
        {
            "positions": [
                -2.533386917269603,
                -1.1825868297979154,
                2.070458634782837,
                -0.851590775197135,
                0.5060315423491175,
                2.707924212344579
            ]
        },
        {
            "positions": [
                -2.502586233226313,
                -1.1731340004334763,
                2.040009819090022,
                -0.8421788112476706,
                0.5931942568159949,
                2.916672564803026
            ]
        },
        {
            "positions": [
                -2.4717855491830227,
                -1.163681171069037,
                2.0095610033972067,
                -0.832766847298206,
                0.680356971282872,
                3.1254209172614726
            ]
        }
    ]
}