{
    "goal": {
        "global_pose": {
            "orientation": {
                "w": 0.005598929693374612,
                "x": 0.007748599140229565,
                "y": 0.7110244013736278,
                "z": -0.7031023480610252
            },
            "position": {
                "x": 0.1141497679147869,
                "y": -0.7141253447532654,
                "z": 0.3711530566215515
            }
        },
        "name": "move_to_auspresseinheit_B"
    },
    "id": "BKPIECE_move_to_auspresseinheit_B_66",
    "joint_names": [
        "shoulder_pan_joint",
        "shoulder_lift_joint",
        "elbow_joint",
        "wrist_1_joint",
        "wrist_2_joint",
        "wrist_3_joint"
    ],
    "metrics": {
        "cart_traj_len": 0.5642147548100476,
        "distance_elbow_joint": 0.0629126119231469,
        "distance_shoulder_lift_joint": 0.29481151026614016,
        "distance_shoulder_pan_joint": 0.5749715599874234,
        "distance_wrist_1_joint": 0.3291398433205265,
        "distance_wrist_2_joint": 1.0025746429431674,
        "distance_wrist_3_joint": 0.0031806804087830542,
        "smoothness": 5.075305255429287e-16,
        "time": 0.383138721,
        "traj_len": 1.5058522002006662,
        "weighted_distance": 1.8988593144123256
    },
    "planner": "BKPIECE",
    "start": {
        "state": {
            "elbow_joint": 2.019306165916698,
            "shoulder_lift_joint": -1.1220205098164344,
            "shoulder_pan_joint": -1.095207207618794,
            "wrist_1_joint": -0.8559671824921639,
            "wrist_2_joint": 0.47596387242952726,
            "wrist_3_joint": 3.159081874673826
        }
    },
    "waypoints": [
        {
            "positions": [
                -1.095207207618794,
                -1.1220205098164344,
                2.019306165916698,
                -0.8559671824921639,
                0.47596387242952726,
                3.159081874673826
            ]
        },
        {
            "positions": [
                -1.1910358009500313,
                -1.1711557615274577,
                2.0088207305961734,
                -0.8011105419387428,
                0.6430596462533885,
                3.158551761272362
            ]
        },
        {
            "positions": [
                -1.2868643942812685,
                -1.2202910132384812,
                1.998335295275649,
                -0.7462539013853217,
                0.8101554200772497,
                3.158021647870898
            ]
        },
        {
            "positions": [
                -1.3826929876125056,
                -1.2694262649495045,
                1.9878498599551246,
                -0.6913972608319006,
                0.977251193901111,
                3.1574915344694343
            ]
        },
        {
            "positions": [
                -1.4785215809437429,
                -1.3185615166605278,
                1.9773644246346,
                -0.6365406202784796,
                1.1443469677249722,
                3.1569614210679706
            ]
        },
        {
            "positions": [
                -1.5743501742749801,
                -1.3676967683715513,
                1.9668789893140755,
                -0.5816839797250584,
                1.3114427415488334,
                3.1564313076665065
            ]
        },
        {
            "positions": [
                -1.6701787676062174,
                -1.4168320200825746,
                1.956393553993551,
                -0.5268273391716374,
                1.4785385153726947,
                3.155901194265043
            ]
        }
    ]
}