{
    "goal": {
        "global_pose": {
            "orientation": {
                "w": -0.00223480608172531,
                "x": 0.0024358444001904467,
                "y": 0.7094548369677653,
                "z": -0.704743149386269
            },
            "position": {
                "x": -0.37947507619857795,
                "y": -0.6371506643295288,
                "z": 0.19426114857196808
            }
        },
        "name": "move_to_magneteinheit_C"
    },
    "id": "BKPIECE_move_to_magneteinheit_C_108",
    "joint_names": [
        "shoulder_pan_joint",
        "shoulder_lift_joint",
        "elbow_joint",
        "wrist_1_joint",
        "wrist_2_joint",
        "wrist_3_joint"
    ],
    "metrics": {
        "cart_traj_len": 1.3556770110487175,
        "distance_elbow_joint": 1.38765892360417,
        "distance_shoulder_lift_joint": 0.9282477964626543,
        "distance_shoulder_pan_joint": 2.1296837062121785,
        "distance_wrist_1_joint": 5.152942530380278,
        "distance_wrist_2_joint": 4.092610586359634,
        "distance_wrist_3_joint": 11.732721040406688,
        "smoothness": 0.5277357111028896,
        "time": 1.357967638,
        "traj_len": 5.042208304247814,
        "weighted_distance": 7.6246219434788305
    },
    "planner": "BKPIECE",
    "start": {
        "state": {
            "elbow_joint": 1.9565354006590394,
            "shoulder_lift_joint": -1.4165861576513559,
            "shoulder_pan_joint": -1.6717766223277177,
            "wrist_1_joint": -0.5286633288215096,
            "wrist_2_joint": 1.4727565892594296,
            "wrist_3_joint": 3.1593482883155493
        }
    },
    "waypoints": [
        {
            "positions": [
                -1.6717766223277177,
                -1.4165861576513559,
                1.9565354006590394,
                -0.5286633288215096,
                1.4727565892594296,
                3.1593482883155493
            ]
        },
        {
            "positions": [
                -1.7040009859384413,
                -1.3986912273740857,
                1.9362933725780058,
                -0.3941272917471954,
                1.3961776316023238,
                3.103200114903945
            ]
        },
        {
            "positions": [
                -1.7362253495491646,
                -1.3807962970968157,
                1.9160513444969722,
                -0.2595912546728813,
                1.319598673945218,
                3.0470519414923416
            ]
        },
        {
            "positions": [
                -1.768449713159888,
                -1.3629013668195455,
                1.8958093164159384,
                -0.1250552175985672,
                1.2430197162881118,
                2.9909037680807375
            ]
        },
        {
            "positions": [
                -1.8006740767706115,
                -1.3450064365422754,
                1.8755672883349048,
                0.009480819475746968,
                1.166440758631006,
                2.9347555946691335
            ]
        },
        {
            "positions": [
                -1.8052047454811317,
                -1.3435742024830728,
                1.8734991446923273,
                0.024205176198486805,
                1.1564705904376813,
                2.9258223159716072
            ]
        },
        {
            "positions": [
                -1.8482097103836392,
                -1.3544262862471028,
                1.8966810203066753,
                0.08467201085955912,
                1.087619204708167,
                2.7435525213449763
            ]
        },
        {
            "positions": [
                -1.891214675286147,
                -1.3652783700111328,
                1.9198628959210233,
                0.14513884552063144,
                1.0187678189786529,
                2.5612827267183453
            ]
        },
        {
            "positions": [
                -1.9342196401886544,
                -1.3761304537751629,
                1.9430447715353714,
                0.20560568018170378,
                0.9499164332491385,
                2.379012932091714
            ]
        },
        {
            "positions": [
                -1.9772246050911622,
                -1.3869825375391929,
                1.9662266471497194,
                0.26607251484277605,
                0.8810650475196244,
                2.196743137465083
            ]
        },
        {
            "positions": [
                -2.0202295699936696,
                -1.3978346213032227,
                1.9894085227640674,
                0.32653934950384844,
                0.8122136617901101,
                2.014473342838452
            ]
        },
        {
            "positions": [
                -2.063234534896177,
                -1.4086867050672527,
                2.0125903983784155,
                0.3870061841649207,
                0.7433622760605959,
                1.8322035482118209
            ]
        },
        {
            "positions": [
                -2.1062394997986846,
                -1.4195387888312827,
                2.0357722739927633,
                0.4474730188259931,
                0.6745108903310817,
                1.64993375358519
            ]
        },
        {
            "positions": [
                -2.1492444647011926,
                -1.4303908725953127,
                2.0589541496071115,
                0.5079398534870654,
                0.6056595046015675,
                1.4676639589585587
            ]
        },
        {
            "positions": [
                -2.1922494296037,
                -1.4412429563593427,
                2.0821360252214594,
                0.5684066881481378,
                0.5368081188720532,
                1.2853941643319275
            ]
        },
        {
            "positions": [
                -2.2352543945062076,
                -1.4520950401233728,
                2.1053179008358076,
                0.62887352280921,
                0.46795673314253905,
                1.1031243697052966
            ]
        },
        {
            "positions": [
                -2.278259359408715,
                -1.4629471238874028,
                2.1284997764501554,
                0.6893403574702824,
                0.3991053474130247,
                0.9208545750786654
            ]
        },
        {
            "positions": [
                -2.3212643243112225,
                -1.4737992076514328,
                2.1516816520645037,
                0.7498071921313547,
                0.3302539616835105,
                0.7385847804520345
            ]
        },
        {
            "positions": [
                -2.3642692892137305,
                -1.4846512914154628,
                2.1748635276788515,
                0.8102740267924271,
                0.2614025759539963,
                0.5563149858254031
            ]
        },
        {
            "positions": [
                -2.407274254116238,
                -1.4955033751794928,
                2.1980454032931998,
                0.8707408614534994,
                0.19255119022448208,
                0.37404519119877255
            ]
        },
        {
            "positions": [
                -2.4502792190187455,
                -1.5063554589435229,
                2.2212272789075476,
                0.9312076961145718,
                0.12369980449496776,
                0.19177539657214115
            ]
        },
        {
            "positions": [
                -2.493284183921253,
                -1.5172075427075526,
                2.244409154521896,
                0.9916745307756439,
                0.054848418765453655,
                0.0095056019455102
            ]
        },
        {
            "positions": [
                -2.5362891488237604,
                -1.5280596264715827,
                2.2675910301362436,
                1.0521413654367162,
                -0.014002966964060448,
                -0.17276419268112075
            ]
        },
        {
            "positions": [
                -2.5792941137262684,
                -1.5389117102356127,
                2.290772905750592,
                1.1126082000977886,
                -0.082854352693575,
                -0.35503398730775215
            ]
        },
        {
            "positions": [
                -2.622299078628776,
                -1.5497637939996427,
                2.3139547813649397,
                1.173075034758861,
                -0.1517057384230891,
                -0.5373037819343831
            ]
        },
        {
            "positions": [
                -2.6653040435312834,
                -1.5606158777636727,
                2.337136656979288,
                1.2335418694199332,
                -0.2205571241526032,
                -0.7195735765610141
            ]
        },
        {
            "positions": [
                -2.708309008433791,
                -1.5714679615277027,
                2.3603185325936358,
                1.2940087040810055,
                -0.2894085098821175,
                -0.901843371187645
            ]
        },
        {
            "positions": [
                -2.7513139733362983,
                -1.5823200452917328,
                2.383500408207984,
                1.354475538742078,
                -0.35825989561163185,
                -1.0841131658142764
            ]
        },
        {
            "positions": [
                -2.7943189382388063,
                -1.5931721290557628,
                2.406682283822332,
                1.41494237340315,
                -0.42711128134114595,
                -1.2663829604409074
            ]
        },
        {
            "positions": [
                -2.8373239031413133,
                -1.6040242128197928,
                2.42986415943668,
                1.4754092080642225,
                -0.4959626670706603,
                -1.4486527550675383
            ]
        },
        {
            "positions": [
                -2.8803288680438213,
                -1.6148762965838226,
                2.453046035051028,
                1.5358760427252947,
                -0.5648140528001744,
                -1.6309225496941693
            ]
        },
        {
            "positions": [
                -2.9233338329463288,
                -1.6257283803478528,
                2.476227910665376,
                1.5963428773863673,
                -0.6336654385296887,
                -1.8131923443208011
            ]
        },
        {
            "positions": [
                -2.9663387978488363,
                -1.6365804641118826,
                2.499409786279724,
                1.6568097120474394,
                -0.702516824259203,
                -1.995462138947432
            ]
        },
        {
            "positions": [
                -3.009343762751344,
                -1.6474325478759126,
                2.5225916618940722,
                1.7172765467085118,
                -0.7713682099887171,
                -2.177731933574062
            ]
        },
        {
            "positions": [
                -3.0523487276538512,
                -1.6582846316399427,
                2.54577353750842,
                1.777743381369584,
                -0.8402195957182312,
                -2.360001728200693
            ]
        },
        {
            "positions": [
                -3.095353692556359,
                -1.6691367154039727,
                2.568955413122768,
                1.8382102160306566,
                -0.9090709814477458,
                -2.542271522827325
            ]
        },
        {
            "positions": [
                -3.1383586574588667,
                -1.6799887991680027,
                2.592137288737116,
                1.8986770506917288,
                -0.9779223671772601,
                -2.7245413174539554
            ]
        },
        {
            "positions": [
                -3.1169682809723818,
                -1.663252629987053,
                2.5732345621696107,
                1.8107544006637597,
                -0.924956830728133,
                -2.5358693356914657
            ]
        },
        {
            "positions": [
                -3.095577904485897,
                -1.6465164608061034,
                2.554331835602105,
                1.7228317506357906,
                -0.8719912942790058,
                -2.3471973539289754
            ]
        },
        {
            "positions": [
                -3.0741875279994124,
                -1.6297802916251536,
                2.5354291090345997,
                1.6349091006078216,
                -0.8190257578298787,
                -2.158525372166485
            ]
        },
        {
            "positions": [
                -3.0527971515129275,
                -1.6130441224442038,
                2.5165263824670943,
                1.5469864505798525,
                -0.7660602213807516,
                -1.9698533904039954
            ]
        },
        {
            "positions": [
                -3.0314067750264426,
                -1.596307953263254,
                2.497623655899589,
                1.4590638005518837,
                -0.7130946849316244,
                -1.7811814086415056
            ]
        },
        {
            "positions": [
                -3.0100163985399577,
                -1.5795717840823045,
                2.4787209293320833,
                1.3711411505239146,
                -0.6601291484824974,
                -1.5925094268790154
            ]
        },
        {
            "positions": [
                -2.988626022053473,
                -1.5628356149013547,
                2.459818202764578,
                1.2832185004959455,
                -0.6071636120333701,
                -1.4038374451165254
            ]
        },
        {
            "positions": [
                -2.967235645566988,
                -1.546099445720405,
                2.4409154761970724,
                1.1952958504679765,
                -0.554198075584243,
                -1.2151654633540354
            ]
        },
        {
            "positions": [
                -2.945845269080503,
                -1.5293632765394551,
                2.422012749629567,
                1.1073732004400074,
                -0.5012325391351158,
                -1.0264934815915454
            ]
        },
        {
            "positions": [
                -2.9244548925940186,
                -1.5126271073585056,
                2.4031100230620615,
                1.0194505504120386,
                -0.44826700268598874,
                -0.8378214998290556
            ]
        },
        {
            "positions": [
                -2.9030645161075337,
                -1.4958909381775558,
                2.384207296494556,
                0.9315279003840693,
                -0.3953014662368616,
                -0.6491495180665652
            ]
        },
        {
            "positions": [
                -2.881674139621049,
                -1.479154768996606,
                2.3653045699270505,
                0.8436052503561005,
                -0.3423359297877345,
                -0.4604775363040754
            ]
        },
        {
            "positions": [
                -2.860283763134564,
                -1.4624185998156563,
                2.346401843359545,
                0.7556826003281312,
                -0.28937039333860737,
                -0.27180555454158517
            ]
        },
        {
            "positions": [
                -2.838893386648079,
                -1.4456824306347067,
                2.3274991167920396,
                0.6677599503001623,
                -0.2364048568894802,
                -0.08313357277909539
            ]
        },
        {
            "positions": [
                -2.817503010161594,
                -1.428946261453757,
                2.308596390224534,
                0.5798373002721933,
                -0.18343932044035305,
                0.1055384089833944
            ]
        },
        {
            "positions": [
                -2.7961126336751096,
                -1.4122100922728071,
                2.2896936636570286,
                0.4919146502442242,
                -0.130473783991226,
                0.2942103907458846
            ]
        },
        {
            "positions": [
                -2.7747222571886248,
                -1.3954739230918576,
                2.2707909370895236,
                0.40399200021625536,
                -0.07750824754209884,
                0.4828823725083744
            ]
        },
        {
            "positions": [
                -2.75333188070214,
                -1.3787377539109076,
                2.2518882105220177,
                0.3160693501882861,
                -0.02454271109297157,
                0.6715543542708646
            ]
        },
        {
            "positions": [
                -2.731941504215655,
                -1.362001584729958,
                2.2329854839545127,
                0.22814670016031702,
                0.028422825356155368,
                0.8602263360333544
            ]
        },
        {
            "positions": [
                -2.71055112772917,
                -1.3452654155490082,
                2.214082757387007,
                0.14022405013234818,
                0.08138836180528264,
                1.0488983177958442
            ]
        },
        {
            "positions": [
                -2.689160751242685,
                -1.3285292463680585,
                2.1951800308195017,
                0.052301400104379114,
                0.1343538982544097,
                1.2375702995583344
            ]
        },
        {
            "positions": [
                -2.6677703747562003,
                -1.311793077187109,
                2.1762773042519963,
                -0.03562124992359017,
                0.18731943470353696,
                1.426242281320825
            ]
        },
        {
            "positions": [
                -2.646379998269716,
                -1.2950569080061591,
                2.157374577684491,
                -0.12354389995155923,
                0.240284971152664,
                1.6149142630833144
            ]
        },
        {
            "positions": [
                -2.624989621783231,
                -1.2783207388252094,
                2.1384718511169853,
                -0.21146654997952785,
                0.29325050760179106,
                1.8035862448458047
            ]
        },
        {
            "positions": [
                -2.603599245296746,
                -1.2615845696442598,
                2.11956912454948,
                -0.2993892000074969,
                0.3462160440509181,
                1.992258226608294
            ]
        },
        {
            "positions": [
                -2.582208868810261,
                -1.24484840046331,
                2.1006663979819744,
                -0.3873118500354664,
                0.3991815805000454,
                2.180930208370785
            ]
        },
        {
            "positions": [
                -2.5608184923237762,
                -1.2281122312823602,
                2.081763671414469,
                -0.47523450006343504,
                0.4521471169491724,
                2.3696021901332744
            ]
        },
        {
            "positions": [
                -2.5394281158372918,
                -1.2113760621014105,
                2.0628609448469635,
                -0.5631571500914041,
                0.5051126533982997,
                2.5582741718957647
            ]
        },
        {
            "positions": [
                -2.518037739350807,
                -1.1946398929204607,
                2.043958218279458,
                -0.6510798001193732,
                0.5580781898474267,
                2.746946153658254
            ]
        },
        {
            "positions": [
                -2.496647362864322,
                -1.1779037237395111,
                2.0250554917119525,
                -0.7390024501473422,
                0.611043726296554,
                2.9356181354207442
            ]
        },
        {
            "positions": [
                -2.475256986377837,
                -1.1611675545585614,
                2.006152765144447,
                -0.8269251001753113,
                0.6640092627456811,
                3.1242901171832345
            ]
        }
    ]
}