{
    "goal": {
        "global_pose": {
            "orientation": {
                "w": 0.005598929693374612,
                "x": 0.007748599140229565,
                "y": 0.7110244013736278,
                "z": -0.7031023480610252
            },
            "position": {
                "x": -0.8858502320852131,
                "y": -0.7141253447532654,
                "z": 0.3711530566215515
            }
        },
        "name": "move_to_auspresseinheit_C"
    },
    "id": "BKPIECE_move_to_auspresseinheit_C_112",
    "joint_names": [
        "shoulder_pan_joint",
        "shoulder_lift_joint",
        "elbow_joint",
        "wrist_1_joint",
        "wrist_2_joint",
        "wrist_3_joint"
    ],
    "metrics": {
        "cart_traj_len": 0.4930262627537893,
        "distance_elbow_joint": 0.9984506187594949,
        "distance_shoulder_lift_joint": 0.323970469044648,
        "distance_shoulder_pan_joint": 0.2554215325791924,
        "distance_wrist_1_joint": 0.6668540680545548,
        "distance_wrist_2_joint": 1.3214833278196314,
        "distance_wrist_3_joint": 0.04207832813620005,
        "smoothness": 6.459479427736914e-16,
        "time": 1.889757313,
        "traj_len": 1.8995416142832253,
        "weighted_distance": 2.3834329016232676
    },
    "planner": "BKPIECE",
    "start": {
        "state": {
            "elbow_joint": 1.752795957773711,
            "shoulder_lift_joint": -0.9740617694225064,
            "shoulder_pan_joint": -2.967991417825858,
            "wrist_1_joint": -0.7595177689806859,
            "wrist_2_joint": 1.7443932448377395,
            "wrist_3_joint": 3.199131542505932
        }
    },
    "waypoints": [
        {
            "positions": [
                -2.967991417825858,
                -0.9740617694225064,
                1.752795957773711,
                -0.7595177689806859,
                1.7443932448377395,
                3.199131542505932
            ]
        },
        {
            "positions": [
                -2.9424492645679385,
                -0.9416647225180417,
                1.6529508958977617,
                -0.6928323621752304,
                1.6122449120557762,
                3.194923709692312
            ]
        },
        {
            "positions": [
                -2.9169071113100196,
                -0.9092676756135768,
                1.553105834021812,
                -0.6261469553697749,
                1.4800965792738132,
                3.1907158768786923
            ]
        },
        {
            "positions": [
                -2.8913649580521,
                -0.876870628709112,
                1.4532607721458626,
                -0.5594615485643195,
                1.3479482464918502,
                3.186508044065072
            ]
        },
        {
            "positions": [
                -2.865822804794181,
                -0.8444735818046473,
                1.3534157102699131,
                -0.492776141758864,
                1.215799913709887,
                3.182300211251452
            ]
        },
        {
            "positions": [
                -2.8402806515362617,
                -0.8120765349001824,
                1.2535706483939637,
                -0.4260907349534085,
                1.0836515809279237,
                3.178092378437832
            ]
        },
        {
            "positions": [
                -2.8147384982783423,
                -0.7796794879957176,
                1.1537255865180143,
                -0.359405328147953,
                0.9515032481459607,
                3.173884545624212
            ]
        },
        {
            "positions": [
                -2.7891963450204234,
                -0.7472824410912529,
                1.0538805246420648,
                -0.2927199213424976,
                0.8193549153639976,
                3.1696767128105923
            ]
        },
        {
            "positions": [
                -2.763654191762504,
                -0.7148853941867881,
                0.9540354627661152,
                -0.22603451453704204,
                0.6872065825820344,
                3.165468879996972
            ]
        },
        {
            "positions": [
                -2.738112038504585,
                -0.6824883472823232,
                0.8541904008901656,
                -0.1593491077315865,
                0.5550582498000711,
                3.161261047183352
            ]
        },
        {
            "positions": [
                -2.7125698852466655,
                -0.6500913003778584,
                0.7543453390142162,
                -0.09266370092613103,
                0.4229099170181081,
                3.157053214369732
            ]
        }
    ]
}