{
    "goal": {
        "global_pose": {
            "orientation": {
                "w": 0.005598929693374612,
                "x": 0.007748599140229565,
                "y": 0.7110244013736278,
                "z": -0.7031023480610252
            },
            "position": {
                "x": -0.8858502320852131,
                "y": -0.7141253447532654,
                "z": 0.3711530566215515
            }
        },
        "name": "move_to_auspresseinheit_C"
    },
    "id": "BKPIECE_move_to_auspresseinheit_C_115",
    "joint_names": [
        "shoulder_pan_joint",
        "shoulder_lift_joint",
        "elbow_joint",
        "wrist_1_joint",
        "wrist_2_joint",
        "wrist_3_joint"
    ],
    "metrics": {
        "cart_traj_len": 0.4917743616234146,
        "distance_elbow_joint": 0.9866214364912129,
        "distance_shoulder_lift_joint": 0.3184165099490942,
        "distance_shoulder_pan_joint": 0.25609526665217164,
        "distance_wrist_1_joint": 0.6561168642184984,
        "distance_wrist_2_joint": 1.302959998632698,
        "distance_wrist_3_joint": 0.047480570003046285,
        "smoothness": 0.0,
        "time": 0.7601775789999999,
        "traj_len": 1.8888331440195347,
        "weighted_distance": 2.3710184834378687
    },
    "planner": "BKPIECE",
    "start": {
        "state": {
            "elbow_joint": 1.752795957773711,
            "shoulder_lift_joint": -0.9740617694225064,
            "shoulder_pan_joint": -2.967991417825858,
            "wrist_1_joint": -0.7595177689806859,
            "wrist_2_joint": 1.7443932448377395,
            "wrist_3_joint": 3.199131542505932
        }
    },
    "waypoints": [
        {
            "positions": [
                -2.967991417825858,
                -0.9740617694225064,
                1.752795957773711,
                -0.7595177689806859,
                1.7443932448377395,
                3.199131542505932
            ]
        },
        {
            "positions": [
                -2.942381891160641,
                -0.942220118427597,
                1.6541338141245898,
                -0.6939060825588361,
                1.6140972449744697,
                3.1943834855056275
            ]
        },
        {
            "positions": [
                -2.9167723644954235,
                -0.9103784674326876,
                1.5554716704754685,
                -0.6282943961369862,
                1.4838012451112,
                3.189635428505323
            ]
        },
        {
            "positions": [
                -2.8911628378302066,
                -0.8785368164377781,
                1.4568095268263472,
                -0.5626827097151363,
                1.3535052452479301,
                3.184887371505018
            ]
        },
        {
            "positions": [
                -2.865553311164989,
                -0.8466951654428687,
                1.358147383177226,
                -0.49707102329328656,
                1.2232092453846604,
                3.1801393145047134
            ]
        },
        {
            "positions": [
                -2.839943784499772,
                -0.8148535144479594,
                1.2594852395281046,
                -0.4314593368714367,
                1.0929132455213906,
                3.175391257504409
            ]
        },
        {
            "positions": [
                -2.814334257834555,
                -0.78301186345305,
                1.1608230958789834,
                -0.3658476504495869,
                0.9626172456581207,
                3.1706432005041045
            ]
        },
        {
            "positions": [
                -2.7887247311693377,
                -0.7511702124581405,
                1.062160952229862,
                -0.3002359640277371,
                0.8323212457948509,
                3.1658951435038
            ]
        },
        {
            "positions": [
                -2.7631152045041207,
                -0.719328561463231,
                0.9634988085807408,
                -0.23462427760588722,
                0.702025245931581,
                3.161147086503495
            ]
        },
        {
            "positions": [
                -2.7375056778389033,
                -0.6874869104683217,
                0.8648366649316195,
                -0.16901259118403733,
                0.5717292460683112,
                3.1563990295031905
            ]
        },
        {
            "positions": [
                -2.7118961511736863,
                -0.6556452594734122,
                0.7661745212824982,
                -0.10340090476218756,
                0.44143324620504143,
                3.151650972502886
            ]
        }
    ]
}