{
    "goal": {
        "global_pose": {
            "orientation": {
                "w": -0.00223480608172531,
                "x": 0.0024358444001904467,
                "y": 0.7094548369677653,
                "z": -0.704743149386269
            },
            "position": {
                "x": -0.37947507619857795,
                "y": -0.6371506643295288,
                "z": 0.19426114857196808
            }
        },
        "name": "move_to_magneteinheit_C"
    },
    "id": "BKPIECE_move_to_magneteinheit_C_86",
    "joint_names": [
        "shoulder_pan_joint",
        "shoulder_lift_joint",
        "elbow_joint",
        "wrist_1_joint",
        "wrist_2_joint",
        "wrist_3_joint"
    ],
    "metrics": {
        "cart_traj_len": 4.048526805347557,
        "distance_elbow_joint": 0.4321277637504042,
        "distance_shoulder_lift_joint": 2.844465112061018,
        "distance_shoulder_pan_joint": 6.3356515647961125,
        "distance_wrist_1_joint": 1.5309343466003715,
        "distance_wrist_2_joint": 5.097406243033078,
        "distance_wrist_3_joint": 2.685588070929866,
        "smoothness": 0.6754340240046264,
        "time": 0.718519895,
        "traj_len": 4.3504221750504675,
        "weighted_distance": 5.561087108890135
    },
    "planner": "BKPIECE",
    "start": {
        "state": {
            "elbow_joint": 1.9565354006590394,
            "shoulder_lift_joint": -1.4165861576513559,
            "shoulder_pan_joint": -1.6717766223277177,
            "wrist_1_joint": -0.5286633288215096,
            "wrist_2_joint": 1.4727565892594296,
            "wrist_3_joint": 3.1593482883155493
        }
    },
    "waypoints": [
        {
            "positions": [
                -1.6717766223277177,
                -1.4165861576513559,
                1.9565354006590394,
                -0.5286633288215096,
                1.4727565892594296,
                3.1593482883155493
            ]
        },
        {
            "positions": [
                -1.5611005286521913,
                -1.468378785084079,
                1.9661840731719302,
                -0.5650819943932851,
                1.3549283920635362,
                3.1046992265498603
            ]
        },
        {
            "positions": [
                -1.450424434976665,
                -1.5201714125168022,
                1.9758327456848213,
                -0.6015006599650605,
                1.2371001948676426,
                3.050050164784172
            ]
        },
        {
            "positions": [
                -1.3397483413011386,
                -1.5719640399495254,
                1.985481418197712,
                -0.6379193255368361,
                1.1192719976717491,
                2.995401103018483
            ]
        },
        {
            "positions": [
                -1.2290722476256124,
                -1.6237566673822488,
                1.9951300907106029,
                -0.6743379911086115,
                1.0014438004758555,
                2.940752041252794
            ]
        },
        {
            "positions": [
                -1.118396153950086,
                -1.675549294814972,
                2.0047787632234937,
                -0.710756656680387,
                0.883615603279962,
                2.8861029794871054
            ]
        },
        {
            "positions": [
                -1.0077200602745597,
                -1.7273419222476951,
                2.0144274357363847,
                -0.7471753222521624,
                0.7657874060840686,
                2.8314539177214164
            ]
        },
        {
            "positions": [
                -0.8970439665990332,
                -1.7791345496804183,
                2.0240761082492753,
                -0.783593987823938,
                0.6479592088881749,
                2.7768048559557275
            ]
        },
        {
            "positions": [
                -0.786367872923507,
                -1.8309271771131415,
                2.0337247807621663,
                -0.8200126533957135,
                0.5301310116922815,
                2.722155794190039
            ]
        },
        {
            "positions": [
                -0.6756917792479806,
                -1.8827198045458646,
                2.0433734532750574,
                -0.8564313189674889,
                0.41230281449638806,
                2.66750673242435
            ]
        },
        {
            "positions": [
                -0.5650156855724542,
                -1.9345124319785878,
                2.053022125787948,
                -0.8928499845392645,
                0.2944746173004944,
                2.612857670658661
            ]
        },
        {
            "positions": [
                -0.45433959189692796,
                -1.9863050594113112,
                2.062670798300839,
                -0.9292686501110399,
                0.17664642010460097,
                2.558208608892972
            ]
        },
        {
            "positions": [
                -0.34366349822140174,
                -2.0380976868440346,
                2.07231947081373,
                -0.9656873156828154,
                0.05881822290870753,
                2.5035595471272836
            ]
        },
        {
            "positions": [
                -0.23298740454587508,
                -2.0898903142767575,
                2.0819681433266206,
                -1.002105981254591,
                -0.05900997428718613,
                2.4489104853615946
            ]
        },
        {
            "positions": [
                -0.12231131087034863,
                -2.141682941709481,
                2.0916168158395116,
                -1.0385246468263665,
                -0.1768381714830798,
                2.3942614235959057
            ]
        },
        {
            "positions": [
                -0.011635217194822634,
                -2.193475569142204,
                2.1012654883524027,
                -1.0749433123981418,
                -0.294666368678973,
                2.339612361830217
            ]
        },
        {
            "positions": [
                0.09904087648070381,
                -2.2452681965749273,
                2.1109141608652933,
                -1.1113619779699173,
                -0.41249456587486666,
                2.284963300064528
            ]
        },
        {
            "positions": [
                0.20971697015623025,
                -2.2970608240076507,
                2.1205628333781843,
                -1.1477806435416928,
                -0.5303227630707603,
                2.2303142382988392
            ]
        },
        {
            "positions": [
                0.3203930638317565,
                -2.3488534514403736,
                2.130211505891075,
                -1.1841993091134682,
                -0.6481509602666535,
                2.1756651765331507
            ]
        },
        {
            "positions": [
                0.4310691575072827,
                -2.4006460788730966,
                2.139860178403966,
                -1.220617974685244,
                -0.7659791574625472,
                2.1210161147674618
            ]
        },
        {
            "positions": [
                0.5417452511828094,
                -2.45243870630582,
                2.149508850916857,
                -1.2570366402570192,
                -0.8838073546584408,
                2.0663670530017733
            ]
        },
        {
            "positions": [
                0.6524213448583356,
                -2.5042313337385433,
                2.1591575234297475,
                -1.2934553058287948,
                -1.001635551854334,
                2.0117179912360843
            ]
        },
        {
            "positions": [
                0.7630974385338618,
                -2.5560239611712667,
                2.1688061959426386,
                -1.3298739714005703,
                -1.1194637490502277,
                1.9570689294703953
            ]
        },
        {
            "positions": [
                0.8737735322093885,
                -2.6078165886039897,
                2.1784548684555296,
                -1.3662926369723456,
                -1.2372919462461214,
                1.9024198677047064
            ]
        },
        {
            "positions": [
                0.9844496258849142,
                -2.6596092160367126,
                2.18810354096842,
                -1.4027113025441211,
                -1.3551201434420146,
                1.8477708059390179
            ]
        },
        {
            "positions": [
                1.095125719560441,
                -2.711401843469436,
                2.1977522134813112,
                -1.4391299681158967,
                -1.4729483406379082,
                1.793121744173329
            ]
        },
        {
            "positions": [
                0.9464278352726095,
                -2.6468331173759805,
                2.1897975905259726,
                -1.4132771469781473,
                -1.3832941192572523,
                1.8480951411228141
            ]
        },
        {
            "positions": [
                0.7977299509847782,
                -2.5822643912825245,
                2.1818429675706335,
                -1.387424325840398,
                -1.2936398978765966,
                1.9030685380722994
            ]
        },
        {
            "positions": [
                0.6490320666969468,
                -2.517695665189069,
                2.173888344615295,
                -1.3615715047026486,
                -1.2039856764959407,
                1.9580419350217846
            ]
        },
        {
            "positions": [
                0.5003341824091154,
                -2.453126939095613,
                2.1659337216599557,
                -1.3357186835648993,
                -1.114331455115285,
                2.01301533197127
            ]
        },
        {
            "positions": [
                0.35163629812128405,
                -2.3885582130021574,
                2.157979098704617,
                -1.30986586242715,
                -1.024677233734629,
                2.067988728920755
            ]
        },
        {
            "positions": [
                0.20293841383345268,
                -2.323989486908702,
                2.1500244757492784,
                -1.2840130412894006,
                -0.9350230123539731,
                2.1229621258702402
            ]
        },
        {
            "positions": [
                0.0542405295456212,
                -2.259420760815246,
                2.1420698527939392,
                -1.2581602201516513,
                -0.8453687909733172,
                2.1779355228197255
            ]
        },
        {
            "positions": [
                -0.09445735474221006,
                -2.1948520347217904,
                2.1341152298386006,
                -1.232307399013902,
                -0.7557145695926615,
                2.2329089197692107
            ]
        },
        {
            "positions": [
                -0.24315523903004133,
                -2.130283308628335,
                2.1261606068832615,
                -1.2064545778761526,
                -0.6660603482120055,
                2.287882316718696
            ]
        },
        {
            "positions": [
                -0.3918531233178728,
                -2.065714582534879,
                2.118205983927923,
                -1.1806017567384033,
                -0.5764061268313496,
                2.3428557136681816
            ]
        },
        {
            "positions": [
                -0.5405510076057041,
                -2.0011458564414233,
                2.1102513609725837,
                -1.154748935600654,
                -0.4867519054506939,
                2.397829110617667
            ]
        },
        {
            "positions": [
                -0.6892488918935356,
                -1.9365771303479673,
                2.102296738017245,
                -1.1288961144629046,
                -0.397097684070038,
                2.452802507567152
            ]
        },
        {
            "positions": [
                -0.8379467761813668,
                -1.8720084042545118,
                2.0943421150619064,
                -1.1030432933251553,
                -0.3074434626893823,
                2.5077759045166372
            ]
        },
        {
            "positions": [
                -0.9866446604691985,
                -1.8074396781610558,
                2.0863874921065673,
                -1.0771904721874057,
                -0.21778924130872612,
                2.5627493014661225
            ]
        },
        {
            "positions": [
                -1.1353425447570298,
                -1.7428709520676002,
                2.0784328691512286,
                -1.0513376510496566,
                -0.12813501992807041,
                2.6177226984156077
            ]
        },
        {
            "positions": [
                -1.284040429044861,
                -1.6783022259741447,
                2.0704782461958895,
                -1.0254848299119073,
                -0.03848079854741471,
                2.672696095365093
            ]
        },
        {
            "positions": [
                -1.4327383133326927,
                -1.6137334998806887,
                2.062523623240551,
                -0.9996320087741577,
                0.051173422833241444,
                2.727669492314578
            ]
        },
        {
            "positions": [
                -1.5814361976205236,
                -1.5491647737872332,
                2.0545690002852117,
                -0.9737791876364084,
                0.14082764421389715,
                2.7826428892640633
            ]
        },
        {
            "positions": [
                -1.7301340819083548,
                -1.4845960476937774,
                2.046614377329873,
                -0.947926366498659,
                0.23048186559455286,
                2.8376162862135486
            ]
        },
        {
            "positions": [
                -1.8788319661961865,
                -1.4200273216003216,
                2.0386597543745344,
                -0.9220735453609097,
                0.320136086975209,
                2.8925896831630338
            ]
        },
        {
            "positions": [
                -2.027529850484018,
                -1.3554585955068659,
                2.0307051314191953,
                -0.8962207242231603,
                0.4097903083558647,
                2.947563080112519
            ]
        },
        {
            "positions": [
                -2.176227734771849,
                -1.2908898694134103,
                2.0227505084638566,
                -0.870367903085411,
                0.4994445297365204,
                3.002536477062004
            ]
        },
        {
            "positions": [
                -2.3249256190596808,
                -1.2263211433199546,
                2.0147958855085175,
                -0.8445150819476617,
                0.5890987511171764,
                3.0575098740114894
            ]
        },
        {
            "positions": [
                -2.473623503347512,
                -1.1617524172264988,
                2.006841262553179,
                -0.8186622608099123,
                0.6787529724978324,
                3.1124832709609747
            ]
        }
    ]
}