{
    "goal": {
        "global_pose": {
            "orientation": {
                "w": 0.7031023502349854,
                "x": -0.7110244035720825,
                "y": 0.007748599164187908,
                "z": 0.005598929710686207
            },
            "position": {
                "x": 0.11585023208521307,
                "y": 0.44412534475326537,
                "z": 0.3711530566215515
            }
        },
        "name": "move_to_auspresseinheit_A"
    },
    "id": "BKPIECE_move_to_auspresseinheit_A_102",
    "joint_names": [
        "shoulder_pan_joint",
        "shoulder_lift_joint",
        "elbow_joint",
        "wrist_1_joint",
        "wrist_2_joint",
        "wrist_3_joint"
    ],
    "metrics": {
        "cart_traj_len": 1.0392658424770242,
        "distance_elbow_joint": 0.9490649916549376,
        "distance_shoulder_lift_joint": 0.5864242710386602,
        "distance_shoulder_pan_joint": 1.0449303351482442,
        "distance_wrist_1_joint": 2.759899275755493,
        "distance_wrist_2_joint": 1.392051185283395,
        "distance_wrist_3_joint": 1.3431807790586086,
        "smoothness": 1.0715761876959362,
        "time": 0.447770581,
        "traj_len": 2.8417513680720448,
        "weighted_distance": 3.8618470784192684
    },
    "planner": "BKPIECE",
    "start": {
        "state": {
            "elbow_joint": 2.4225747245308327,
            "shoulder_lift_joint": -1.373653427065438,
            "shoulder_pan_joint": -0.33786330853087027,
            "wrist_1_joint": -1.0288602302712604,
            "wrist_2_joint": 1.23302299562683,
            "wrist_3_joint": -3.094021725338297
        }
    },
    "waypoints": [
        {
            "positions": [
                -0.33786330853087027,
                -1.373653427065438,
                2.4225747245308327,
                -1.0288602302712604,
                1.23302299562683,
                -3.094021725338297
            ]
        },
        {
            "positions": [
                -0.3267174554850209,
                -1.4295615700988125,
                2.3735520235392173,
                -0.8625273434338294,
                1.2763782173086042,
                -3.029012046454696
            ]
        },
        {
            "positions": [
                -0.3155716024391716,
                -1.485469713132187,
                2.324529322547602,
                -0.6961944565963986,
                1.3197334389903785,
                -2.9640023675710947
            ]
        },
        {
            "positions": [
                -0.30442574939332223,
                -1.5413778561655616,
                2.275506621555987,
                -0.5298615697589677,
                1.363088660672153,
                -2.898992688687494
            ]
        },
        {
            "positions": [
                -0.29327989634747287,
                -1.5972859991989363,
                2.226483920564372,
                -0.3635286829215367,
                1.4064438823539274,
                -2.8339830098038927
            ]
        },
        {
            "positions": [
                -0.2821340433016235,
                -1.6531941422323109,
                2.1774612195727565,
                -0.19719579608410587,
                1.4497991040357017,
                -2.7689733309202915
            ]
        },
        {
            "positions": [
                -0.2709881902557742,
                -1.7091022852656854,
                2.128438518581141,
                -0.030862909246675008,
                1.493154325717476,
                -2.7039636520366903
            ]
        },
        {
            "positions": [
                -0.25984233720992483,
                -1.76501042829906,
                2.079415817589526,
                0.13546997759075596,
                1.5365095473992503,
                -2.6389539731530895
            ]
        },
        {
            "positions": [
                -0.24869648416407547,
                -1.8209185713324345,
                2.030393116597911,
                0.30180286442818693,
                1.5798647690810248,
                -2.573944294269488
            ]
        },
        {
            "positions": [
                -0.23755063111822616,
                -1.876826714365809,
                1.9813704156062957,
                0.4681357512656177,
                1.623219990762799,
                -2.508934615385887
            ]
        },
        {
            "positions": [
                -0.2264047780723768,
                -1.9327348573991836,
                1.9323477146146804,
                0.6344686381030487,
                1.6665752124445734,
                -2.443924936502286
            ]
        },
        {
            "positions": [
                -0.14154370491876309,
                -1.9302491446078278,
                1.9740602584091154,
                0.5347804192502138,
                1.5794389425840596,
                -2.5069325719770674
            ]
        },
        {
            "positions": [
                -0.05668263176514937,
                -1.9277634318164718,
                2.0157728022035504,
                0.43509220039737906,
                1.4923026727235458,
                -2.569940207451849
            ]
        },
        {
            "positions": [
                0.028178441388464315,
                -1.925277719025116,
                2.0574853459979856,
                0.33540398154454426,
                1.4051664028630322,
                -2.6329478429266304
            ]
        },
        {
            "positions": [
                0.11303951454207806,
                -1.9227920062337602,
                2.0991978897924204,
                0.2357157626917094,
                1.3180301330025181,
                -2.6959554784014124
            ]
        },
        {
            "positions": [
                0.19790058769569174,
                -1.9203062934424042,
                2.1409104335868556,
                0.13602754383887466,
                1.2308938631420046,
                -2.758963113876194
            ]
        },
        {
            "positions": [
                0.28276166084930543,
                -1.9178205806510484,
                2.1826229773812904,
                0.03633932498603987,
                1.1437575932814907,
                -2.8219707493509754
            ]
        },
        {
            "positions": [
                0.3676227340029191,
                -1.9153348678596924,
                2.2243355211757256,
                -0.06334889386679499,
                1.056621323420977,
                -2.884978384825757
            ]
        },
        {
            "positions": [
                0.4524838071565329,
                -1.9128491550683366,
                2.2660480649701604,
                -0.16303711271962984,
                0.9694850535604631,
                -2.9479860203005384
            ]
        },
        {
            "positions": [
                0.5373448803101466,
                -1.9103634422769808,
                2.3077606087645957,
                -0.2627253315724646,
                0.8823487836999493,
                -3.0109936557753203
            ]
        },
        {
            "positions": [
                0.6222059534637603,
                -1.9078777294856248,
                2.3494731525590304,
                -0.3624135504252993,
                0.7952125138394356,
                -3.074001291250102
            ]
        },
        {
            "positions": [
                0.707067026617374,
                -1.905392016694269,
                2.3911856963534657,
                -0.46210176927813407,
                0.7080762439789218,
                -3.1370089267248833
            ]
        }
    ]
}