{
    "goal": {
        "global_pose": {
            "orientation": {
                "w": 0.5084816217422485,
                "x": -0.49083608388900757,
                "y": 0.5182115435600281,
                "z": -0.4816462993621826
            },
            "position": {
                "x": 0.5540239810943604,
                "y": 0.030875300988554955,
                "z": 0.16403168439865112
            }
        },
        "name": "move_to_storage_A"
    },
    "id": "BKPIECE_move_to_storage_A_84",
    "joint_names": [
        "shoulder_pan_joint",
        "shoulder_lift_joint",
        "elbow_joint",
        "wrist_1_joint",
        "wrist_2_joint",
        "wrist_3_joint"
    ],
    "metrics": {
        "cart_traj_len": 0.3539622132906701,
        "distance_elbow_joint": 0.4506132518987549,
        "distance_shoulder_lift_joint": 0.23399777757700346,
        "distance_shoulder_pan_joint": 0.4631558850337098,
        "distance_wrist_1_joint": 0.2473363888586314,
        "distance_wrist_2_joint": 1.0989263309225152,
        "distance_wrist_3_joint": 0.10439232425475398,
        "smoothness": 0.0,
        "time": 1.733001,
        "traj_len": 1.6119621455063295,
        "weighted_distance": 2.0380062136401897
    },
    "planner": "BKPIECE",
    "start": {
        "state": {
            "elbow_joint": 1.9715474177455299,
            "shoulder_lift_joint": -1.139484666580328,
            "shoulder_pan_joint": 0.12281154398918248,
            "wrist_1_joint": -0.7804687475355282,
            "wrist_2_joint": 0.12958649657246987,
            "wrist_3_joint": -3.1924925159053466
        }
    },
    "waypoints": [
        {
            "positions": [
                0.12281154398918248,
                -1.139484666580328,
                1.9715474177455299,
                -0.7804687475355282,
                0.12958649657246987,
                -3.1924925159053466
            ]
        },
        {
            "positions": [
                0.05664641755579537,
                -1.1729129205198998,
                2.035920739445352,
                -0.8158025173724756,
                0.2865759724185435,
                -3.177579326726096
            ]
        },
        {
            "positions": [
                -0.009518708877591736,
                -1.2063411744594719,
                2.100294061145174,
                -0.8511362872094229,
                0.4435654482646171,
                -3.1626661375468452
            ]
        },
        {
            "positions": [
                -0.07568383531097886,
                -1.2397694283990437,
                2.1646673828449963,
                -0.8864700570463702,
                0.6005549241106908,
                -3.147752948367595
            ]
        },
        {
            "positions": [
                -0.14184896174436595,
                -1.2731976823386157,
                2.2290407045448184,
                -0.9218038268833175,
                0.7575443999567644,
                -3.1328397591883443
            ]
        },
        {
            "positions": [
                -0.20801408817775308,
                -1.3066259362781876,
                2.2934140262446405,
                -0.9571375967202649,
                0.9145338758028381,
                -3.117926570009094
            ]
        },
        {
            "positions": [
                -0.2741792146111402,
                -1.3400541902177596,
                2.3577873479444627,
                -0.9924713665572122,
                1.0715233516489115,
                -3.103013380829843
            ]
        },
        {
            "positions": [
                -0.3403443410445273,
                -1.3734824441573315,
                2.422160669644285,
                -1.0278051363941596,
                1.2285128274949852,
                -3.0881001916505926
            ]
        }
    ]
}