{
    "goal": {
        "global_pose": {
            "orientation": {
                "w": 0.7031023480610252,
                "x": -0.7110244013736278,
                "y": 0.0077485991402295624,
                "z": 0.005598929693374583
            },
            "position": {
                "x": -0.8841497679147869,
                "y": 0.44412534475326537,
                "z": 0.3711530566215515
            }
        },
        "name": "move_to_auspresseinheit_D"
    },
    "id": "BKPIECE_move_to_auspresseinheit_D_98",
    "joint_names": [
        "shoulder_pan_joint",
        "shoulder_lift_joint",
        "elbow_joint",
        "wrist_1_joint",
        "wrist_2_joint",
        "wrist_3_joint"
    ],
    "metrics": {
        "cart_traj_len": 6.833211047066678,
        "distance_elbow_joint": 3.3004210728134207,
        "distance_shoulder_lift_joint": 4.3743077852312915,
        "distance_shoulder_pan_joint": 1.0166730253209444,
        "distance_wrist_1_joint": 3.346412334102485,
        "distance_wrist_2_joint": 3.653322386294512,
        "distance_wrist_3_joint": 3.1354679145756803,
        "smoothness": 0.23246519344091915,
        "time": 0.846108391,
        "traj_len": 4.338963530422713,
        "weighted_distance": 5.665445707787402
    },
    "planner": "BKPIECE",
    "start": {
        "state": {
            "elbow_joint": 1.8268400409724999,
            "shoulder_lift_joint": -1.0144045787793008,
            "shoulder_pan_joint": 2.6280239544362485,
            "wrist_1_joint": -0.790705565816056,
            "wrist_2_joint": 1.0573557467365533,
            "wrist_3_joint": 3.1851377467193758
        }
    },
    "waypoints": [
        {
            "positions": [
                2.6280239544362485,
                -1.0144045787793008,
                1.8268400409724999,
                -0.790705565816056,
                1.0573557467365533,
                3.1851377467193758
            ]
        },
        {
            "positions": [
                2.642562416760408,
                -1.074523029238144,
                1.7713348639863054,
                -0.6971398853801255,
                0.9654975672216444,
                3.111541834342243
            ]
        },
        {
            "positions": [
                2.657100879084567,
                -1.1346414796969873,
                1.715829687000111,
                -0.603574204944195,
                0.8736393877067354,
                3.0379459219651106
            ]
        },
        {
            "positions": [
                2.6716393414087265,
                -1.1947599301558305,
                1.6603245100139166,
                -0.5100085245082644,
                0.7817812081918265,
                2.964350009587978
            ]
        },
        {
            "positions": [
                2.686177803732886,
                -1.2548783806146737,
                1.604819333027722,
                -0.4164428440723339,
                0.6899230286769176,
                2.890754097210846
            ]
        },
        {
            "positions": [
                2.700716266057045,
                -1.314996831073517,
                1.5493141560415278,
                -0.32287716363640334,
                0.5980648491620086,
                2.8171581848337133
            ]
        },
        {
            "positions": [
                2.715254728381204,
                -1.3751152815323602,
                1.4938089790553333,
                -0.2293114832004728,
                0.5062066696470997,
                2.7435622724565807
            ]
        },
        {
            "positions": [
                2.7297931907053634,
                -1.4352337319912034,
                1.438303802069139,
                -0.1357458027645423,
                0.4143484901321909,
                2.669966360079448
            ]
        },
        {
            "positions": [
                2.7443316530295228,
                -1.4953521824500466,
                1.3827986250829445,
                -0.04218012232861179,
                0.32249031061728195,
                2.5963704477023155
            ]
        },
        {
            "positions": [
                2.758870115353682,
                -1.5554706329088899,
                1.32729344809675,
                0.05138555810731882,
                0.23063213110237302,
                2.522774535325183
            ]
        },
        {
            "positions": [
                2.7734085776778414,
                -1.615589083367733,
                1.2717882711105557,
                0.14495123854324932,
                0.13877395158746408,
                2.4491786229480503
            ]
        },
        {
            "positions": [
                2.7879470400020008,
                -1.6757075338265766,
                1.216283094124361,
                0.23851691897917981,
                0.04691577207255504,
                2.375582710570918
            ]
        },
        {
            "positions": [
                2.80248550232616,
                -1.7358259842854198,
                1.1607779171381667,
                0.3320825994151104,
                -0.04494240744235389,
                2.3019867981937856
            ]
        },
        {
            "positions": [
                2.8170239646503195,
                -1.7959444347442628,
                1.1052727401519724,
                0.4256482798510408,
                -0.1368005869572626,
                2.228390885816653
            ]
        },
        {
            "positions": [
                2.831562426974479,
                -1.856062885203106,
                1.049767563165778,
                0.5192139602869714,
                -0.22865876647217154,
                2.1547949734395204
            ]
        },
        {
            "positions": [
                2.846100889298638,
                -1.9161813356619495,
                0.9942623861795835,
                0.612779640722902,
                -0.32051694598708047,
                2.081199061062388
            ]
        },
        {
            "positions": [
                2.8606393516227975,
                -1.9762997861207927,
                0.938757209193389,
                0.7063453211588324,
                -0.4123751255019894,
                2.0076031486852557
            ]
        },
        {
            "positions": [
                2.875177813946957,
                -2.036418236579636,
                0.8832520322071946,
                0.799911001594763,
                -0.5042333050168983,
                1.9340072363081229
            ]
        },
        {
            "positions": [
                2.8897162762711157,
                -2.096536687038479,
                0.8277468552210002,
                0.8934766820306936,
                -0.5960914845318073,
                1.8604113239309903
            ]
        },
        {
            "positions": [
                2.904254738595275,
                -2.1566551374973226,
                0.7722416782348058,
                0.987042362466624,
                -0.6879496640467162,
                1.7868154115538577
            ]
        },
        {
            "positions": [
                2.9187932009194344,
                -2.2167735879561654,
                0.7167365012486113,
                1.0806080429025546,
                -0.7798078435616251,
                1.7132194991767253
            ]
        },
        {
            "positions": [
                2.9333316632435937,
                -2.276892038415009,
                0.6612313242624168,
                1.1741737233384852,
                -0.8716660230765341,
                1.6396235867995927
            ]
        },
        {
            "positions": [
                2.947870125567753,
                -2.3370104888738523,
                0.6057261472762223,
                1.2677394037744156,
                -0.9635242025914432,
                1.5660276744224602
            ]
        },
        {
            "positions": [
                2.9624085878919124,
                -2.3971289393326956,
                0.550220970290028,
                1.3613050842103462,
                -1.0553823821063522,
                1.4924317620453276
            ]
        },
        {
            "positions": [
                2.9769470502160718,
                -2.457247389791539,
                0.49471579330383353,
                1.4548707646462768,
                -1.147240561621261,
                1.4188358496681952
            ]
        },
        {
            "positions": [
                2.991485512540231,
                -2.517365840250382,
                0.439210616317639,
                1.5484364450822075,
                -1.23909874113617,
                1.3452399372910626
            ]
        },
        {
            "positions": [
                3.0060239748643904,
                -2.577484290709225,
                0.38370543933144496,
                1.6420021255181376,
                -1.3309569206510785,
                1.2716440249139302
            ]
        },
        {
            "positions": [
                3.0205624371885498,
                -2.6376027411680685,
                0.32820026234525046,
                1.7355678059540682,
                -1.4228151001659874,
                1.1980481125367977
            ]
        },
        {
            "positions": [
                3.0351008995127087,
                -2.6977211916269113,
                0.27269508535905596,
                1.8291334863899988,
                -1.5146732796808964,
                1.124452200159665
            ]
        },
        {
            "positions": [
                3.049639361836868,
                -2.757839642085755,
                0.21718990837286167,
                1.9226991668259295,
                -1.6065314591958053,
                1.0508562877825325
            ]
        },
        {
            "positions": [
                3.0641778241610274,
                -2.817958092544598,
                0.16168473138666717,
                2.0162648472618603,
                -1.6983896387107142,
                0.9772603754054003
            ]
        },
        {
            "positions": [
                3.0787162864851867,
                -2.8780765430034414,
                0.10617955440047266,
                2.10983052769779,
                -1.7902478182256232,
                0.9036644630282678
            ]
        },
        {
            "positions": [
                3.093254748809346,
                -2.9381949934622846,
                0.05067437741427816,
                2.2033962081337206,
                -1.882105997740532,
                0.8300685506511352
            ]
        },
        {
            "positions": [
                3.1077932111335054,
                -2.998313443921128,
                -0.004830799571916122,
                2.2969618885696512,
                -1.973964177255441,
                0.7564726382740026
            ]
        },
        {
            "positions": [
                3.1223316734576647,
                -3.058431894379971,
                -0.06033597655811063,
                2.390527569005582,
                -2.06582235677035,
                0.68287672589687
            ]
        },
        {
            "positions": [
                3.087507319704363,
                -2.9030798630712633,
                0.033880360460743386,
                2.401539515624305,
                -2.1011653089561904,
                0.6406629329799916
            ]
        },
        {
            "positions": [
                3.052682965951061,
                -2.747727831762555,
                0.1280966974795974,
                2.412551462243028,
                -2.136508261142031,
                0.5984491400631131
            ]
        },
        {
            "positions": [
                3.017858612197759,
                -2.592375800453847,
                0.2223130344984514,
                2.4235634088617513,
                -2.1718512133278716,
                0.5562353471462347
            ]
        },
        {
            "positions": [
                2.9830342584444574,
                -2.437023769145139,
                0.3165293715173054,
                2.4345753554804745,
                -2.2071941655137124,
                0.5140215542293562
            ]
        },
        {
            "positions": [
                2.948209904691155,
                -2.2816717378364313,
                0.41074570853615944,
                2.4455873020991974,
                -2.2425371176995528,
                0.4718077613124778
            ]
        },
        {
            "positions": [
                2.9133855509378535,
                -2.126319706527723,
                0.5049620455550135,
                2.4565992487179207,
                -2.2778800698853936,
                0.4295939683955994
            ]
        },
        {
            "positions": [
                2.8785611971845517,
                -1.970967675219015,
                0.5991783825738675,
                2.467611195336644,
                -2.313223022071234,
                0.38738017547872095
            ]
        },
        {
            "positions": [
                2.8437368434312496,
                -1.8156156439103073,
                0.6933947195927215,
                2.478623141955367,
                -2.348565974257075,
                0.3451663825618425
            ]
        },
        {
            "positions": [
                2.808912489677948,
                -1.6602636126015993,
                0.7876110566115755,
                2.48963508857409,
                -2.383908926442915,
                0.3029525896449641
            ]
        },
        {
            "positions": [
                2.774088135924646,
                -1.5049115812928913,
                0.8818273936304295,
                2.5006470351928134,
                -2.419251878628756,
                0.26073879672808564
            ]
        },
        {
            "positions": [
                2.739263782171344,
                -1.3495595499841833,
                0.9760437306492835,
                2.5116589818115362,
                -2.4545948308145964,
                0.21852500381120726
            ]
        },
        {
            "positions": [
                2.704439428418042,
                -1.194207518675475,
                1.0702600676681375,
                2.5226709284302595,
                -2.489937783000437,
                0.17631121089432877
            ]
        },
        {
            "positions": [
                2.6696150746647405,
                -1.0388554873667672,
                1.1644764046869915,
                2.533682875048983,
                -2.5252807351862776,
                0.13409741797745034
            ]
        },
        {
            "positions": [
                2.6347907209114383,
                -0.883503456058059,
                1.2586927417058456,
                2.5446948216677057,
                -2.560623687372118,
                0.0918836250605719
            ]
        },
        {
            "positions": [
                2.5999663671581366,
                -0.7281514247493512,
                1.3529090787246996,
                2.555706768286429,
                -2.595966639557959,
                0.04966983214369349
            ]
        }
    ]
}