{
    "goal": {
        "global_pose": {
            "orientation": {
                "w": -0.4816463035849501,
                "x": 0.5182115481033762,
                "y": 0.4908360881923453,
                "z": -0.5084816262002911
            },
            "position": {
                "x": -0.8240239810943604,
                "y": -0.300875300988555,
                "z": 0.16403168439865112
            }
        },
        "name": "move_to_storage_C"
    },
    "id": "BKPIECE_move_to_storage_C_18",
    "joint_names": [
        "shoulder_pan_joint",
        "shoulder_lift_joint",
        "elbow_joint",
        "wrist_1_joint",
        "wrist_2_joint",
        "wrist_3_joint"
    ],
    "metrics": {
        "cart_traj_len": 0.5771727689777177,
        "distance_elbow_joint": 0.2597684224641905,
        "distance_shoulder_lift_joint": 0.1899612699044616,
        "distance_shoulder_pan_joint": 0.49522850311039246,
        "distance_wrist_1_joint": 0.08669564428141008,
        "distance_wrist_2_joint": 1.0696025158362596,
        "distance_wrist_3_joint": 0.05764778765993306,
        "smoothness": 0.0,
        "time": 1.123494096,
        "traj_len": 1.4693209803363754,
        "weighted_distance": 1.8521603274809078
    },
    "planner": "BKPIECE",
    "start": {
        "state": {
            "elbow_joint": 2.010868315001653,
            "shoulder_lift_joint": -1.1634956873357014,
            "shoulder_pan_joint": -2.4736205022346103,
            "wrist_1_joint": -0.8367026794713948,
            "wrist_2_joint": 0.6746043897044093,
            "wrist_3_joint": 3.1335220948105738
        }
    },
    "waypoints": [
        {
            "positions": [
                -2.4736205022346103,
                -1.1634956873357014,
                2.010868315001653,
                -0.8367026794713948,
                0.6746043897044093,
                3.1335220948105738
            ]
        },
        {
            "positions": [
                -2.5561585860863425,
                -1.1318354756849578,
                1.967573577924288,
                -0.8222534054244931,
                0.8528714756771192,
                3.1431300594205624
            ]
        },
        {
            "positions": [
                -2.6386966699380743,
                -1.1001752640342142,
                1.924278840846923,
                -0.8078041313775914,
                1.0311385616498292,
                3.1527380240305516
            ]
        },
        {
            "positions": [
                -2.7212347537898065,
                -1.0685150523834706,
                1.8809841037695578,
                -0.7933548573306897,
                1.209405647622539,
                3.1623459886405403
            ]
        },
        {
            "positions": [
                -2.8037728376415387,
                -1.036854840732727,
                1.8376893666921927,
                -0.778905583283788,
                1.387672733595249,
                3.171953953250529
            ]
        },
        {
            "positions": [
                -2.8863109214932705,
                -1.0051946290819833,
                1.7943946296148277,
                -0.7644563092368863,
                1.565939819567959,
                3.181561917860518
            ]
        },
        {
            "positions": [
                -2.9688490053450027,
                -0.9735344174312398,
                1.7510998925374626,
                -0.7500070351899847,
                1.744206905540669,
                3.191169882470507
            ]
        }
    ]
}