{
    "goal": {
        "global_pose": {
            "orientation": {
                "w": 0.005598929693374612,
                "x": 0.007748599140229565,
                "y": 0.7110244013736278,
                "z": -0.7031023480610252
            },
            "position": {
                "x": -0.8858502320852131,
                "y": -0.7141253447532654,
                "z": 0.3711530566215515
            }
        },
        "name": "move_to_auspresseinheit_C"
    },
    "id": "BKPIECE_move_to_auspresseinheit_C_131",
    "joint_names": [
        "shoulder_pan_joint",
        "shoulder_lift_joint",
        "elbow_joint",
        "wrist_1_joint",
        "wrist_2_joint",
        "wrist_3_joint"
    ],
    "metrics": {
        "cart_traj_len": 0.49217715779439986,
        "distance_elbow_joint": 0.9875685478232917,
        "distance_shoulder_lift_joint": 0.3192510105459234,
        "distance_shoulder_pan_joint": 0.25691372372597154,
        "distance_wrist_1_joint": 0.6594114103437225,
        "distance_wrist_2_joint": 1.3024684597667395,
        "distance_wrist_3_joint": 0.05746348369269505,
        "smoothness": 1.6148698540002276e-15,
        "time": 0.663654521,
        "traj_len": 1.8929016445389717,
        "weighted_distance": 2.379050960655151
    },
    "planner": "BKPIECE",
    "start": {
        "state": {
            "elbow_joint": 1.752795957773711,
            "shoulder_lift_joint": -0.9740617694225064,
            "shoulder_pan_joint": -2.967991417825858,
            "wrist_1_joint": -0.7595177689806859,
            "wrist_2_joint": 1.7443932448377395,
            "wrist_3_joint": 3.199131542505932
        }
    },
    "waypoints": [
        {
            "positions": [
                -2.967991417825858,
                -0.9740617694225064,
                1.752795957773711,
                -0.7595177689806859,
                1.7443932448377395,
                3.199131542505932
            ]
        },
        {
            "positions": [
                -2.9423000454532606,
                -0.9421366683679141,
                1.654039102991382,
                -0.6935766279463137,
                1.6141463988610656,
                3.1933851941366624
            ]
        },
        {
            "positions": [
                -2.9166086730806637,
                -0.9102115673133218,
                1.5552822482090527,
                -0.6276354869119414,
                1.4838995528843917,
                3.187638845767393
            ]
        },
        {
            "positions": [
                -2.8909173007080664,
                -0.8782864662587294,
                1.4565253934267237,
                -0.5616943458775692,
                1.3536527069077176,
                3.1818924973981235
            ]
        },
        {
            "positions": [
                -2.8652259283354695,
                -0.8463613652041371,
                1.3577685386443945,
                -0.4957532048431969,
                1.2234058609310436,
                3.1761461490288543
            ]
        },
        {
            "positions": [
                -2.839534555962872,
                -0.8144362641495447,
                1.2590116838620653,
                -0.42981206380882464,
                1.0931590149543697,
                3.1703998006595846
            ]
        },
        {
            "positions": [
                -2.813843183590275,
                -0.7825111630949524,
                1.160254829079736,
                -0.3638709227744524,
                0.9629121689776958,
                3.164653452290315
            ]
        },
        {
            "positions": [
                -2.788151811217678,
                -0.75058606204036,
                1.0614979742974069,
                -0.29792978174008017,
                0.8326653230010219,
                3.1589071039210457
            ]
        },
        {
            "positions": [
                -2.7624604388450806,
                -0.7186609609857677,
                0.9627411195150777,
                -0.2319886407057079,
                0.7024184770243478,
                3.153160755551776
            ]
        },
        {
            "positions": [
                -2.7367690664724837,
                -0.6867358599311754,
                0.8639842647327486,
                -0.16604749967133559,
                0.5721716310476739,
                3.1474144071825068
            ]
        },
        {
            "positions": [
                -2.7110776940998864,
                -0.654810758876583,
                0.7652274099504194,
                -0.10010635863696343,
                0.44192478507099986,
                3.141668058813237
            ]
        }
    ]
}