{
    "goal": {
        "global_pose": {
            "orientation": {
                "w": 0.5084816217422485,
                "x": -0.49083608388900757,
                "y": 0.5182115435600281,
                "z": -0.4816462993621826
            },
            "position": {
                "x": 0.5540239810943604,
                "y": 0.030875300988554955,
                "z": 0.16403168439865112
            }
        },
        "name": "move_to_storage_A"
    },
    "id": "BKPIECE_move_to_storage_A_80",
    "joint_names": [
        "shoulder_pan_joint",
        "shoulder_lift_joint",
        "elbow_joint",
        "wrist_1_joint",
        "wrist_2_joint",
        "wrist_3_joint"
    ],
    "metrics": {
        "cart_traj_len": 0.35366446952177627,
        "distance_elbow_joint": 0.44881587609150575,
        "distance_shoulder_lift_joint": 0.23623998565129556,
        "distance_shoulder_pan_joint": 0.46303394349544397,
        "distance_wrist_1_joint": 0.23397149743192458,
        "distance_wrist_2_joint": 1.0983803374681171,
        "distance_wrist_3_joint": 0.10116167947407062,
        "smoothness": 2.2204460668324854e-16,
        "time": 1.71541449,
        "traj_len": 1.6067368545011835,
        "weighted_distance": 2.028861383500741
    },
    "planner": "BKPIECE",
    "start": {
        "state": {
            "elbow_joint": 1.9715474177455299,
            "shoulder_lift_joint": -1.139484666580328,
            "shoulder_pan_joint": 0.12281154398918248,
            "wrist_1_joint": -0.7804687475355282,
            "wrist_2_joint": 0.12958649657246987,
            "wrist_3_joint": -3.1924925159053466
        }
    },
    "waypoints": [
        {
            "positions": [
                0.12281154398918248,
                -1.139484666580328,
                1.9715474177455299,
                -0.7804687475355282,
                0.12958649657246987,
                -3.1924925159053466
            ]
        },
        {
            "positions": [
                0.056663837775547635,
                -1.1732332359590845,
                2.035663971472888,
                -0.8138932471686603,
                0.2864979733536295,
                -3.1780408474090507
            ]
        },
        {
            "positions": [
                -0.009483868438087212,
                -1.206981805337841,
                2.099780525200246,
                -0.8473177468017924,
                0.44340945013478905,
                -3.163589178912755
            ]
        },
        {
            "positions": [
                -0.07563157465172207,
                -1.2407303747165974,
                2.163897078927604,
                -0.8807422464349244,
                0.6003209269159487,
                -3.149137510416459
            ]
        },
        {
            "positions": [
                -0.1417792808653569,
                -1.2744789440953541,
                2.2280136326549616,
                -0.9141667460680565,
                0.7572324036971083,
                -3.1346858419201635
            ]
        },
        {
            "positions": [
                -0.20792698707899177,
                -1.3082275134741106,
                2.2921301863823196,
                -0.9475912457011886,
                0.914143880478268,
                -3.1202341734238677
            ]
        },
        {
            "positions": [
                -0.2740746932926266,
                -1.341976082852867,
                2.3562467401096776,
                -0.9810157453343207,
                1.0710553572594275,
                -3.105782504927572
            ]
        },
        {
            "positions": [
                -0.3402223995062615,
                -1.3757246522316235,
                2.4203632938370356,
                -1.0144402449674528,
                1.2279668340405872,
                -3.091330836431276
            ]
        }
    ]
}