{
    "goal": {
        "global_pose": {
            "orientation": {
                "w": -0.00223480608172531,
                "x": 0.0024358444001904467,
                "y": 0.7094548369677653,
                "z": -0.704743149386269
            },
            "position": {
                "x": 0.6205249238014221,
                "y": -0.6371506643295288,
                "z": 0.19426114857196808
            }
        },
        "name": "move_to_magneteinheit_B"
    },
    "id": "BKPIECE_move_to_magneteinheit_B_78",
    "joint_names": [
        "shoulder_pan_joint",
        "shoulder_lift_joint",
        "elbow_joint",
        "wrist_1_joint",
        "wrist_2_joint",
        "wrist_3_joint"
    ],
    "metrics": {
        "cart_traj_len": 3.841795067764945,
        "distance_elbow_joint": 5.042000082950276,
        "distance_shoulder_lift_joint": 1.2526018351232084,
        "distance_shoulder_pan_joint": 3.8344671142469133,
        "distance_wrist_1_joint": 2.458615955980524,
        "distance_wrist_2_joint": 1.4429836124097735,
        "distance_wrist_3_joint": 3.25410617689958,
        "smoothness": 0.7041894169754429,
        "time": 1.634855444,
        "traj_len": 4.15749621498448,
        "weighted_distance": 5.262564650415207
    },
    "planner": "BKPIECE",
    "start": {
        "state": {
            "elbow_joint": 2.3935871308073637,
            "shoulder_lift_joint": -1.9085141043777403,
            "shoulder_pan_joint": 0.7066247067284167,
            "wrist_1_joint": -0.46782909355067076,
            "wrist_2_joint": 0.7096259085804283,
            "wrist_3_joint": -3.1358149275257428
        }
    },
    "waypoints": [
        {
            "positions": [
                0.7066247067284167,
                -1.9085141043777403,
                2.3935871308073637,
                -0.46782909355067076,
                0.7096259085804283,
                -3.1358149275257428
            ]
        },
        {
            "positions": [
                0.5650324613961465,
                -1.9723238427888412,
                2.425057096160208,
                -0.4842965000615499,
                0.694112211950054,
                -3.039875738049413
            ]
        },
        {
            "positions": [
                0.4234402160638763,
                -2.036133581199942,
                2.456527061513052,
                -0.5007639065724291,
                0.6785985153196796,
                -2.9439365485730837
            ]
        },
        {
            "positions": [
                0.28184797073160606,
                -2.099943319611043,
                2.487997026865896,
                -0.5172313130833082,
                0.6630848186893054,
                -2.847997359096754
            ]
        },
        {
            "positions": [
                0.14025572539933584,
                -2.163753058022144,
                2.5194669922187405,
                -0.5336987195941874,
                0.6475711220589311,
                -2.7520581696204243
            ]
        },
        {
            "positions": [
                0.21074412545943114,
                -2.151519334316962,
                2.3795616673920916,
                -0.47812095659451515,
                0.6273823172771823,
                -2.6677056082151345
            ]
        },
        {
            "positions": [
                0.28123252551952643,
                -2.13928561061178,
                2.239656342565443,
                -0.42254319359484294,
                0.6071935124954335,
                -2.5833530468098447
            ]
        },
        {
            "positions": [
                0.35172092557962176,
                -2.127051886906598,
                2.0997510177387944,
                -0.3669654305951707,
                0.5870047077136846,
                -2.4990004854045553
            ]
        },
        {
            "positions": [
                0.422209325639717,
                -2.114818163201416,
                1.959845692912146,
                -0.3113876675954985,
                0.5668159029319358,
                -2.4146479239992655
            ]
        },
        {
            "positions": [
                0.49269772569981235,
                -2.1025844394962343,
                1.819940368085497,
                -0.25580990459582625,
                0.5466270981501871,
                -2.3302953625939757
            ]
        },
        {
            "positions": [
                0.5631861257599076,
                -2.090350715791052,
                1.6800350432588484,
                -0.20023214159615405,
                0.5264382933684383,
                -2.245942801188686
            ]
        },
        {
            "positions": [
                0.6336745258200029,
                -2.0781169920858704,
                1.5401297184321998,
                -0.14465437859648184,
                0.5062494885866895,
                -2.161590239783396
            ]
        },
        {
            "positions": [
                0.7041629258800982,
                -2.0658832683806887,
                1.4002243936055512,
                -0.08907661559680963,
                0.4860606838049407,
                -2.077237678378107
            ]
        },
        {
            "positions": [
                0.7746513259401936,
                -2.0536495446755065,
                1.2603190687789023,
                -0.03349885259713736,
                0.4658718790231918,
                -1.992885116972817
            ]
        },
        {
            "positions": [
                0.8451397260002889,
                -2.041415820970325,
                1.1204137439522537,
                0.022078910402534846,
                0.44568307424144304,
                -1.9085325555675272
            ]
        },
        {
            "positions": [
                0.9156281260603841,
                -2.0291820972651426,
                0.980508419125605,
                0.07765667340220705,
                0.42549426945969426,
                -1.8241799941622376
            ]
        },
        {
            "positions": [
                0.9861165261204794,
                -2.016948373559961,
                0.8406030942989564,
                0.13323443640187926,
                0.4053054646779455,
                -1.7398274327569478
            ]
        },
        {
            "positions": [
                1.0566049261805748,
                -2.0047146498547788,
                0.7006977694723076,
                0.18881219940155147,
                0.38511665989619664,
                -1.655474871351658
            ]
        },
        {
            "positions": [
                1.12709332624067,
                -1.992480926149597,
                0.5607924446456589,
                0.24438996240122368,
                0.36492785511444786,
                -1.5711223099463685
            ]
        },
        {
            "positions": [
                1.1975817263007653,
                -1.980247202444415,
                0.4208871198190103,
                0.2999677254008959,
                0.3447390503326991,
                -1.486769748541079
            ]
        },
        {
            "positions": [
                1.2680701263608607,
                -1.9680134787392332,
                0.28098179499236187,
                0.3555454884005681,
                0.3245502455509503,
                -1.4024171871357891
            ]
        },
        {
            "positions": [
                1.338558526420956,
                -1.9557797550340514,
                0.141076470165713,
                0.4111232514002403,
                0.30436144076920146,
                -1.3180646257304995
            ]
        },
        {
            "positions": [
                1.4090469264810515,
                -1.9435460313288693,
                0.0011711453390641502,
                0.46670101439991263,
                0.2841726359874526,
                -1.2337120643252095
            ]
        },
        {
            "positions": [
                1.4795353265411464,
                -1.9313123076236876,
                -0.1387341794875847,
                0.5222787773995847,
                0.26398383120570384,
                -1.14935950291992
            ]
        },
        {
            "positions": [
                1.5500237266012418,
                -1.9190785839185056,
                -0.2786395043142331,
                0.577856540399257,
                0.24379502642395506,
                -1.0650069415146302
            ]
        },
        {
            "positions": [
                1.6205121266613371,
                -1.9068448602133237,
                -0.418544829140882,
                0.6334343033989291,
                0.22360622164220623,
                -0.9806543801093406
            ]
        },
        {
            "positions": [
                1.6910005267214325,
                -1.8946111365081417,
                -0.5584501539675304,
                0.6890120663986015,
                0.20341741686045745,
                -0.896301818704051
            ]
        },
        {
            "positions": [
                1.761488926781528,
                -1.8823774128029598,
                -0.6983554787941793,
                0.7445898293982736,
                0.18322861207870866,
                -0.8119492572987612
            ]
        },
        {
            "positions": [
                1.8319773268416228,
                -1.870143689097778,
                -0.8382608036208277,
                0.8001675923979459,
                0.16303980729695988,
                -0.7275966958934714
            ]
        },
        {
            "positions": [
                1.9024657269017182,
                -1.857909965392596,
                -0.978166128447477,
                0.8557453553976182,
                0.142851002515211,
                -0.6432441344881816
            ]
        },
        {
            "positions": [
                1.9729541269618136,
                -1.8456762416874142,
                -1.1180714532741254,
                0.9113231183972903,
                0.12266219773346221,
                -0.5588915730828918
            ]
        },
        {
            "positions": [
                2.043442527021909,
                -1.8334425179822322,
                -1.2579767781007742,
                0.9669008813969626,
                0.10247339295171343,
                -0.4745390116776025
            ]
        },
        {
            "positions": [
                2.1139309270820044,
                -1.8212087942770503,
                -1.3978821029274227,
                1.0224786443966347,
                0.08228458816996465,
                -0.3901864502723127
            ]
        },
        {
            "positions": [
                2.245466089664954,
                -1.8940723058531364,
                -1.4886205600655231,
                1.0787568626359036,
                0.051313515915661315,
                -0.39735892051103655
            ]
        },
        {
            "positions": [
                2.377001252247904,
                -1.9669358174292224,
                -1.5793590172036236,
                1.1350350808751728,
                0.020342443661357977,
                -0.40453139074976047
            ]
        },
        {
            "positions": [
                2.5085364148308535,
                -2.0397993290053087,
                -1.6700974743417238,
                1.1913132991144417,
                -0.01062862859294536,
                -0.4117038609884843
            ]
        },
        {
            "positions": [
                2.6400715774138037,
                -2.1126628405813945,
                -1.7608359314798243,
                1.2475915173537109,
                -0.04159970084724869,
                -0.41887633122720824
            ]
        },
        {
            "positions": [
                2.7716067399967534,
                -2.185526352157481,
                -1.8515743886179248,
                1.3038697355929798,
                -0.07257077310155205,
                -0.4260488014659321
            ]
        },
        {
            "positions": [
                2.903141902579703,
                -2.2583898637335666,
                -1.9423128457560253,
                1.3601479538322487,
                -0.10354184535585537,
                -0.43322127170465596
            ]
        },
        {
            "positions": [
                3.034677065162653,
                -2.331253375309653,
                -2.0330513028941257,
                1.4164261720715179,
                -0.1345129176101587,
                -0.4403937419433799
            ]
        },
        {
            "positions": [
                2.9812946661405793,
                -2.3519353805526686,
                -1.9811081705475495,
                1.3531945380327606,
                -0.048963662435989194,
                -0.3749265408040821
            ]
        },
        {
            "positions": [
                2.9279122671185056,
                -2.372617385795684,
                -1.929165038200973,
                1.2899629039940033,
                0.03658559273818032,
                -0.30945933966478434
            ]
        },
        {
            "positions": [
                2.874529868096432,
                -2.3932993910386995,
                -1.8772219058543969,
                1.226731269955246,
                0.12213484791234985,
                -0.2439921385254866
            ]
        },
        {
            "positions": [
                2.8211474690743583,
                -2.413981396281715,
                -1.8252787735078206,
                1.1634996359164886,
                0.20768410308651936,
                -0.17852493738618885
            ]
        },
        {
            "positions": [
                2.7677650700522847,
                -2.434663401524731,
                -1.7733356411612444,
                1.1002680018777313,
                0.2932333582606889,
                -0.11305773624689108
            ]
        },
        {
            "positions": [
                2.714382671030211,
                -2.455345406767746,
                -1.721392508814668,
                1.037036367838974,
                0.3787826134348584,
                -0.04759053510759331
            ]
        },
        {
            "positions": [
                2.6610002720081374,
                -2.4760274120107617,
                -1.6694493764680918,
                0.9738047338002167,
                0.464331868609028,
                0.017876666031704444
            ]
        }
    ]
}