{
    "goal": {
        "global_pose": {
            "orientation": {
                "w": 0.7047431468963623,
                "x": -0.7094548344612122,
                "y": 0.0024358443915843964,
                "z": -0.0022348060738295317
            },
            "position": {
                "x": 0.6094750761985779,
                "y": 0.3671506643295288,
                "z": 0.19426114857196808
            }
        },
        "name": "move_to_magneteinheit_A"
    },
    "id": "BKPIECE_move_to_magneteinheit_A_118",
    "joint_names": [
        "shoulder_pan_joint",
        "shoulder_lift_joint",
        "elbow_joint",
        "wrist_1_joint",
        "wrist_2_joint",
        "wrist_3_joint"
    ],
    "metrics": {
        "cart_traj_len": 1.0534313134155113,
        "distance_elbow_joint": 0.37974869421913193,
        "distance_shoulder_lift_joint": 0.368848970536527,
        "distance_shoulder_pan_joint": 1.2405004852097952,
        "distance_wrist_1_joint": 2.1986213955651506,
        "distance_wrist_2_joint": 1.693264030253276,
        "distance_wrist_3_joint": 1.2356877259047612,
        "smoothness": 3.7396986388757647e-16,
        "time": 1.042366059,
        "traj_len": 2.6677089986894447,
        "weighted_distance": 3.6715027140554573
    },
    "planner": "BKPIECE",
    "start": {
        "state": {
            "elbow_joint": 1.5739458966750683,
            "shoulder_lift_joint": -1.4977259741207325,
            "shoulder_pan_joint": -1.1188672016454206,
            "wrist_1_joint": 1.494575848278785,
            "wrist_2_joint": -1.5706037134824402,
            "wrist_3_joint": -2.0226957942261072
        }
    },
    "waypoints": [
        {
            "positions": [
                -1.1188672016454206,
                -1.4977259741207325,
                1.5739458966750683,
                1.494575848278785,
                -1.5706037134824402,
                -2.0226957942261072
            ]
        },
        {
            "positions": [
                -1.0499505080226543,
                -1.477234364646481,
                1.595043046353909,
                1.3724302151918322,
                -1.4765334895794804,
                -2.0913451123319273
            ]
        },
        {
            "positions": [
                -0.9810338143998878,
                -1.4567427551722294,
                1.6161401960327497,
                1.2502845821048794,
                -1.3824632656765208,
                -2.1599944304377474
            ]
        },
        {
            "positions": [
                -0.9121171207771215,
                -1.436251145697978,
                1.6372373457115903,
                1.1281389490179266,
                -1.288393041773561,
                -2.2286437485435675
            ]
        },
        {
            "positions": [
                -0.8432004271543551,
                -1.4157595362237265,
                1.658334495390431,
                1.0059933159309737,
                -1.1943228178706011,
                -2.2972930666493876
            ]
        },
        {
            "positions": [
                -0.7742837335315886,
                -1.395267926749475,
                1.6794316450692717,
                0.8838476828440209,
                -1.1002525939676413,
                -2.3659423847552077
            ]
        },
        {
            "positions": [
                -0.7053670399088223,
                -1.3747763172752234,
                1.7005287947481122,
                0.7617020497570681,
                -1.0061823700646815,
                -2.4345917028610278
            ]
        },
        {
            "positions": [
                -0.6364503462860558,
                -1.3542847078009719,
                1.721625944426953,
                0.6395564166701153,
                -0.9121121461617218,
                -2.503241020966848
            ]
        },
        {
            "positions": [
                -0.5675336526632895,
                -1.3337930983267205,
                1.7427230941057936,
                0.5174107835831625,
                -0.818041922258762,
                -2.5718903390726675
            ]
        },
        {
            "positions": [
                -0.49861695904052306,
                -1.313301488852469,
                1.7638202437846342,
                0.3952651504962097,
                -0.7239716983558022,
                -2.640539657178488
            ]
        },
        {
            "positions": [
                -0.42970026541775663,
                -1.2928098793782175,
                1.784917393463475,
                0.2731195174092569,
                -0.6299014744528424,
                -2.7091889752843077
            ]
        },
        {
            "positions": [
                -0.3607835717949902,
                -1.272318269903966,
                1.8060145431423156,
                0.15097388432230407,
                -0.5358312505498826,
                -2.777838293390128
            ]
        },
        {
            "positions": [
                -0.2918668781722239,
                -1.2518266604297146,
                1.8271116928211564,
                0.028828251235351265,
                -0.44176102664692296,
                -2.846487611495948
            ]
        },
        {
            "positions": [
                -0.22295018454945748,
                -1.231335050955463,
                1.848208842499997,
                -0.09331738185160154,
                -0.34769080274396313,
                -2.915136929601768
            ]
        },
        {
            "positions": [
                -0.15403349092669105,
                -1.2108434414812115,
                1.8693059921788375,
                -0.21546301493855435,
                -0.2536205788410033,
                -2.983786247707588
            ]
        },
        {
            "positions": [
                -0.08511679730392463,
                -1.19035183200696,
                1.8904031418576783,
                -0.33760864802550716,
                -0.15955035493804348,
                -3.0524355658134086
            ]
        },
        {
            "positions": [
                -0.016200103681158318,
                -1.1698602225327086,
                1.911500291536519,
                -0.45975428111246,
                -0.06548013103508388,
                -3.1210848839192282
            ]
        },
        {
            "positions": [
                0.052716589941607994,
                -1.149368613058457,
                1.9325974412153597,
                -0.5818999141994128,
                0.02859009286787595,
                -3.1897342020250483
            ]
        },
        {
            "positions": [
                0.1216332835643745,
                -1.1288770035842055,
                1.9536945908942003,
                -0.7040455472863657,
                0.1226603167708357,
                -3.2583835201308684
            ]
        }
    ]
}