{
    "goal": {
        "global_pose": {
            "orientation": {
                "w": 0.005598929693374612,
                "x": 0.007748599140229565,
                "y": 0.7110244013736278,
                "z": -0.7031023480610252
            },
            "position": {
                "x": 0.1141497679147869,
                "y": -0.7141253447532654,
                "z": 0.3711530566215515
            }
        },
        "name": "move_to_auspresseinheit_B"
    },
    "id": "BKPIECE_move_to_auspresseinheit_B_70",
    "joint_names": [
        "shoulder_pan_joint",
        "shoulder_lift_joint",
        "elbow_joint",
        "wrist_1_joint",
        "wrist_2_joint",
        "wrist_3_joint"
    ],
    "metrics": {
        "cart_traj_len": 0.5646804832028347,
        "distance_elbow_joint": 0.06666454997845728,
        "distance_shoulder_lift_joint": 0.2934737424548115,
        "distance_shoulder_pan_joint": 0.5751135007646007,
        "distance_wrist_1_joint": 0.33798807076410087,
        "distance_wrist_2_joint": 1.0008533055352034,
        "distance_wrist_3_joint": 0.008326380437932102,
        "smoothness": 0.0,
        "time": 2.280415585,
        "traj_len": 1.5107678676537655,
        "weighted_distance": 1.9073315619236928
    },
    "planner": "BKPIECE",
    "start": {
        "state": {
            "elbow_joint": 2.019306165916698,
            "shoulder_lift_joint": -1.1220205098164344,
            "shoulder_pan_joint": -1.095207207618794,
            "wrist_1_joint": -0.8559671824921639,
            "wrist_2_joint": 0.47596387242952726,
            "wrist_3_joint": 3.159081874673826
        }
    },
    "waypoints": [
        {
            "positions": [
                -1.095207207618794,
                -1.1220205098164344,
                2.019306165916698,
                -0.8559671824921639,
                0.47596387242952726,
                3.159081874673826
            ]
        },
        {
            "positions": [
                -1.1910594577462275,
                -1.1709328002255697,
                2.008195407586955,
                -0.7996358373648137,
                0.6427727566853945,
                3.1576941446008373
            ]
        },
        {
            "positions": [
                -1.286911707873661,
                -1.219845090634705,
                1.9970846492572123,
                -0.7433044922374635,
                0.8095816409412617,
                3.1563064145278483
            ]
        },
        {
            "positions": [
                -1.3827639580010942,
                -1.2687573810438402,
                1.9859738909274693,
                -0.6869731471101135,
                0.976390525197129,
                3.15491868445486
            ]
        },
        {
            "positions": [
                -1.4786162081285277,
                -1.3176696714529754,
                1.9748631325977264,
                -0.6306418019827633,
                1.143199409452996,
                3.1535309543818713
            ]
        },
        {
            "positions": [
                -1.5744684582559612,
                -1.3665819618621107,
                1.9637523742679837,
                -0.5743104568554132,
                1.3100082937088635,
                3.1521432243088823
            ]
        },
        {
            "positions": [
                -1.6703207083833946,
                -1.415494252271246,
                1.9526416159382407,
                -0.517979111728063,
                1.4768171779647306,
                3.1507554942358937
            ]
        }
    ]
}