{
    "goal": {
        "global_pose": {
            "orientation": {
                "w": 0.5084816262002911,
                "x": -0.4908360881923452,
                "y": 0.5182115481033761,
                "z": -0.48164630358495003
            },
            "position": {
                "x": 0.5540239810943604,
                "y": -0.46912469901144505,
                "z": 0.16403168439865112
            }
        },
        "name": "move_to_storage_B"
    },
    "id": "BKPIECE_move_to_storage_B_45",
    "joint_names": [
        "shoulder_pan_joint",
        "shoulder_lift_joint",
        "elbow_joint",
        "wrist_1_joint",
        "wrist_2_joint",
        "wrist_3_joint"
    ],
    "metrics": {
        "cart_traj_len": 4.4040423641817865,
        "distance_elbow_joint": 1.8359115357550613,
        "distance_shoulder_lift_joint": 1.6897949836871984,
        "distance_shoulder_pan_joint": 4.886543127285367,
        "distance_wrist_1_joint": 2.982895397702748,
        "distance_wrist_2_joint": 2.699489576777954,
        "distance_wrist_3_joint": 3.142389018286315,
        "smoothness": 0.323750780076447,
        "time": 2.339897283,
        "traj_len": 4.1517494673323725,
        "weighted_distance": 5.404089807779657
    },
    "planner": "BKPIECE",
    "start": {
        "state": {
            "elbow_joint": 1.6649325706314817,
            "shoulder_lift_joint": -0.6616388048112454,
            "shoulder_pan_joint": -0.9139837860083814,
            "wrist_1_joint": 2.146757197745094,
            "wrist_2_joint": -2.234196043158733,
            "wrist_3_joint": 0.005471033829999897
        }
    },
    "waypoints": [
        {
            "positions": [
                -0.9139837860083814,
                -0.6616388048112454,
                1.6649325706314817,
                2.146757197745094,
                -2.234196043158733,
                0.005471033829999897
            ]
        },
        {
            "positions": [
                -0.7902015025830229,
                -0.7182004935152572,
                1.6258369208646721,
                2.1021517997761285,
                -2.183659647390036,
                -0.06913691802405945
            ]
        },
        {
            "positions": [
                -0.6664192191576643,
                -0.7747621822192691,
                1.5867412710978626,
                2.057546401807163,
                -2.133123251621339,
                -0.14374486987811882
            ]
        },
        {
            "positions": [
                -0.5426369357323058,
                -0.8313238709232809,
                1.547645621331053,
                2.012941003838198,
                -2.082586855852642,
                -0.21835282173217818
            ]
        },
        {
            "positions": [
                -0.4188546523069473,
                -0.8878855596272927,
                1.5085499715642436,
                1.968335605869232,
                -2.0320504600839455,
                -0.2929607735862375
            ]
        },
        {
            "positions": [
                -0.2950723688815887,
                -0.9444472483313044,
                1.469454321797434,
                1.9237302079002667,
                -1.9815140643152487,
                -0.36756872544029684
            ]
        },
        {
            "positions": [
                -0.17129008545623026,
                -1.0010089370353163,
                1.4303586720306245,
                1.8791248099313012,
                -1.9309776685465518,
                -0.4421766772943562
            ]
        },
        {
            "positions": [
                -0.04750780203087168,
                -1.0575706257393283,
                1.391263022263815,
                1.8345194119623356,
                -1.880441272777855,
                -0.5167846291484156
            ]
        },
        {
            "positions": [
                0.07627448139448678,
                -1.11413231444334,
                1.3521673724970054,
                1.78991401399337,
                -1.8299048770091582,
                -0.5913925810024749
            ]
        },
        {
            "positions": [
                0.20005676481984536,
                -1.1706940031473518,
                1.313071722730196,
                1.7453086160244047,
                -1.7793684812404613,
                -0.6660005328565343
            ]
        },
        {
            "positions": [
                0.32383904824520393,
                -1.2272556918513637,
                1.2739760729633864,
                1.7007032180554391,
                -1.7288320854717645,
                -0.7406084847105936
            ]
        },
        {
            "positions": [
                0.4476213316705625,
                -1.2838173805553756,
                1.2348804231965769,
                1.6560978200864738,
                -1.6782956897030674,
                -0.815216436564653
            ]
        },
        {
            "positions": [
                0.5714036150959209,
                -1.3403790692593873,
                1.1957847734297673,
                1.6114924221175082,
                -1.6277592939343708,
                -0.8898243884187124
            ]
        },
        {
            "positions": [
                0.6951858985212794,
                -1.3969407579633992,
                1.1566891236629577,
                1.5668870241485426,
                -1.5772228981656737,
                -0.9644323402727718
            ]
        },
        {
            "positions": [
                0.818968181946638,
                -1.453502446667411,
                1.1175934738961484,
                1.522281626179577,
                -1.5266865023969771,
                -1.0390402921268311
            ]
        },
        {
            "positions": [
                0.9427504653719966,
                -1.5100641353714228,
                1.0784978241293386,
                1.4776762282106115,
                -1.47615010662828,
                -1.1136482439808906
            ]
        },
        {
            "positions": [
                1.0665327487973548,
                -1.5666258240754347,
                1.0394021743625292,
                1.4330708302416462,
                -1.4256137108595834,
                -1.1882561958349498
            ]
        },
        {
            "positions": [
                1.1903150322227134,
                -1.6231875127794466,
                1.0003065245957194,
                1.3884654322726808,
                -1.3750773150908864,
                -1.2628641476890092
            ]
        },
        {
            "positions": [
                1.314097315648072,
                -1.6797492014834583,
                0.9612108748289101,
                1.3438600343037153,
                -1.3245409193221898,
                -1.3374720995430684
            ]
        },
        {
            "positions": [
                1.4378795990734305,
                -1.7363108901874702,
                0.9221152250621005,
                1.2992546363347497,
                -1.2740045235534927,
                -1.4120800513971279
            ]
        },
        {
            "positions": [
                1.3364924093852883,
                -1.7117059742550313,
                0.9658389926695278,
                1.2138389228830535,
                -1.2044326012665842,
                -1.4810735687194954
            ]
        },
        {
            "positions": [
                1.2351052196971462,
                -1.6871010583225923,
                1.009562760276955,
                1.1284232094313575,
                -1.1348606789796756,
                -1.5500670860418628
            ]
        },
        {
            "positions": [
                1.1337180300090042,
                -1.6624961423901534,
                1.0532865278843822,
                1.0430074959796614,
                -1.0652887566927671,
                -1.6190606033642303
            ]
        },
        {
            "positions": [
                1.0323308403208618,
                -1.6378912264577143,
                1.0970102954918093,
                0.9575917825279653,
                -0.9957168344058585,
                -1.6880541206865978
            ]
        },
        {
            "positions": [
                0.9309436506327197,
                -1.6132863105252755,
                1.1407340630992366,
                0.8721760690762692,
                -0.92614491211895,
                -1.7570476380089652
            ]
        },
        {
            "positions": [
                0.8295564609445776,
                -1.5886813945928366,
                1.1844578307066638,
                0.7867603556245731,
                -0.8565729898320414,
                -1.8260411553313327
            ]
        },
        {
            "positions": [
                0.7281692712564353,
                -1.5640764786603976,
                1.228181598314091,
                0.701344642172877,
                -0.7870010675451329,
                -1.8950346726537004
            ]
        },
        {
            "positions": [
                0.6267820815682932,
                -1.5394715627279587,
                1.2719053659215183,
                0.6159289287211809,
                -0.7174291452582243,
                -1.9640281899760677
            ]
        },
        {
            "positions": [
                0.525394891880151,
                -1.5148666467955196,
                1.3156291335289454,
                0.5305132152694848,
                -0.6478572229713158,
                -2.033021707298435
            ]
        },
        {
            "positions": [
                0.4240077021920088,
                -1.4902617308630808,
                1.3593529011363725,
                0.44509750181778873,
                -0.5782853006844072,
                -2.1020152246208026
            ]
        },
        {
            "positions": [
                0.3226205125038666,
                -1.4656568149306417,
                1.4030766687437999,
                0.35968178836609266,
                -0.5087133783974986,
                -2.1710087419431705
            ]
        },
        {
            "positions": [
                0.2212333228157246,
                -1.4410518989982029,
                1.446800436351227,
                0.2742660749143966,
                -0.4391414561105902,
                -2.2400022592655375
            ]
        },
        {
            "positions": [
                0.11984613312758219,
                -1.416446983065764,
                1.4905242039586541,
                0.1888503614627004,
                -0.3695695338236815,
                -2.3089957765879054
            ]
        },
        {
            "positions": [
                0.01845894343943999,
                -1.391842067133325,
                1.5342479715660815,
                0.10343464801100422,
                -0.29999761153677296,
                -2.377989293910273
            ]
        },
        {
            "positions": [
                -0.08292824624870199,
                -1.367237151200886,
                1.5779717391735084,
                0.018018934559308253,
                -0.23042568924986462,
                -2.4469828112326404
            ]
        },
        {
            "positions": [
                -0.18431543593684419,
                -1.342632235268447,
                1.6216955067809358,
                -0.06739677889238793,
                -0.16085376696295595,
                -2.5159763285550074
            ]
        },
        {
            "positions": [
                -0.2857026256249866,
                -1.3180273193360081,
                1.6654192743883631,
                -0.15281249234408412,
                -0.09128184467604727,
                -2.5849698458773753
            ]
        },
        {
            "positions": [
                -0.3870898153131286,
                -1.2934224034035693,
                1.70914304199579,
                -0.23822820579578008,
                -0.021709922389138825,
                -2.6539633631997424
            ]
        },
        {
            "positions": [
                -0.4884770050012708,
                -1.2688174874711304,
                1.7528668096032174,
                -0.32364391924747604,
                0.047861999897769625,
                -2.7229568805221103
            ]
        },
        {
            "positions": [
                -0.589864194689413,
                -1.2442125715386914,
                1.7965905772106447,
                -0.4090596326991722,
                0.1174339221846783,
                -2.7919503978444777
            ]
        },
        {
            "positions": [
                -0.691251384377555,
                -1.2196076556062523,
                1.8403143448180717,
                -0.4944753461508682,
                0.18700584447158675,
                -2.860943915166845
            ]
        },
        {
            "positions": [
                -0.7926385740656974,
                -1.1950027396738134,
                1.884038112425499,
                -0.5798910596025644,
                0.2565777667584954,
                -2.9299374324892127
            ]
        },
        {
            "positions": [
                -0.8940257637538394,
                -1.1703978237413746,
                1.9277618800329264,
                -0.6653067730542606,
                0.32614968904540387,
                -2.99893094981158
            ]
        },
        {
            "positions": [
                -0.9954129534419813,
                -1.1457929078089357,
                1.9714856476403535,
                -0.7507224865059565,
                0.3957216113323123,
                -3.0679244671339476
            ]
        },
        {
            "positions": [
                -1.096800143130124,
                -1.1211879918764966,
                2.0152094152477806,
                -0.8361381999576526,
                0.46529353361922104,
                -3.136917984456315
            ]
        }
    ]
}