{
    "goal": {
        "global_pose": {
            "orientation": {
                "w": 0.7031023502349854,
                "x": -0.7110244035720825,
                "y": 0.007748599164187908,
                "z": 0.005598929710686207
            },
            "position": {
                "x": 0.11585023208521307,
                "y": 0.44412534475326537,
                "z": 0.3711530566215515
            }
        },
        "name": "move_to_auspresseinheit_A"
    },
    "id": "BKPIECE_move_to_auspresseinheit_A_77",
    "joint_names": [
        "shoulder_pan_joint",
        "shoulder_lift_joint",
        "elbow_joint",
        "wrist_1_joint",
        "wrist_2_joint",
        "wrist_3_joint"
    ],
    "metrics": {
        "cart_traj_len": 2.453340378597096,
        "distance_elbow_joint": 0.2934077863119793,
        "distance_shoulder_lift_joint": 2.671797680032626,
        "distance_shoulder_pan_joint": 3.023943659341258,
        "distance_wrist_1_joint": 3.1602326614369773,
        "distance_wrist_2_joint": 5.157944421610879,
        "distance_wrist_3_joint": 0.7797965702807956,
        "smoothness": 0.8853561067974883,
        "time": 0.9280923299999999,
        "traj_len": 3.884214563977448,
        "weighted_distance": 4.996488066894983
    },
    "planner": "BKPIECE",
    "start": {
        "state": {
            "elbow_joint": 2.4225747245308327,
            "shoulder_lift_joint": -1.373653427065438,
            "shoulder_pan_joint": -0.33786330853087027,
            "wrist_1_joint": -1.0288602302712604,
            "wrist_2_joint": 1.23302299562683,
            "wrist_3_joint": -3.094021725338297
        }
    },
    "waypoints": [
        {
            "positions": [
                -0.33786330853087027,
                -1.373653427065438,
                2.4225747245308327,
                -1.0288602302712604,
                1.23302299562683,
                -3.094021725338297
            ]
        },
        {
            "positions": [
                -0.24946513259347436,
                -1.4433431975620288,
                2.4283110245410153,
                -0.9477905606535811,
                1.1094281748453552,
                -3.0779632254438063
            ]
        },
        {
            "positions": [
                -0.16106695665607845,
                -1.5130329680586196,
                2.434047324551198,
                -0.8667208910359019,
                0.9858333540638805,
                -3.0619047255493155
            ]
        },
        {
            "positions": [
                -0.07266878071868255,
                -1.5827227385552105,
                2.43978362456138,
                -0.7856512214182227,
                0.8622385332824059,
                -3.0458462256548247
            ]
        },
        {
            "positions": [
                0.01572939521871336,
                -1.6524125090518014,
                2.445519924571563,
                -0.7045815518005434,
                0.7386437125009311,
                -3.029787725760334
            ]
        },
        {
            "positions": [
                0.10412757115610927,
                -1.7221022795483922,
                2.4512562245817455,
                -0.6235118821828642,
                0.6150488917194563,
                -3.013729225865843
            ]
        },
        {
            "positions": [
                0.19252574709350517,
                -1.791792050044983,
                2.456992524591928,
                -0.542442212565185,
                0.49145407093798166,
                -2.9976707259713518
            ]
        },
        {
            "positions": [
                0.28092392303090113,
                -1.8614818205415742,
                2.462728824602111,
                -0.46137254294750574,
                0.3678592501565069,
                -2.981612226076861
            ]
        },
        {
            "positions": [
                0.369322098968297,
                -1.931171591038165,
                2.4684651246122935,
                -0.3803028733298265,
                0.24426442937503223,
                -2.96555372618237
            ]
        },
        {
            "positions": [
                0.45772027490569295,
                -2.000861361534756,
                2.4742014246224757,
                -0.29923320371214723,
                0.12066960859355746,
                -2.9494952262878793
            ]
        },
        {
            "positions": [
                0.5461184508430887,
                -2.0705511320313468,
                2.4799377246326584,
                -0.2181635340944681,
                -0.002925212187917303,
                -2.9334367263933885
            ]
        },
        {
            "positions": [
                0.6345166267804847,
                -2.1402409025279376,
                2.485674024642841,
                -0.13709386447678873,
                -0.12652003296939207,
                -2.9173782264988977
            ]
        },
        {
            "positions": [
                0.7229148027178807,
                -2.2099306730245285,
                2.4914103246530237,
                -0.05602419485910959,
                -0.2501148537508666,
                -2.901319726604407
            ]
        },
        {
            "positions": [
                0.8113129786552764,
                -2.2796204435211194,
                2.4971466246632064,
                0.025045474758569553,
                -0.3737096745323414,
                -2.885261226709916
            ]
        },
        {
            "positions": [
                0.8997111545926726,
                -2.3493102140177102,
                2.502882924673389,
                0.10611514437624892,
                -0.49730449531381615,
                -2.869202726815425
            ]
        },
        {
            "positions": [
                0.9881093305300683,
                -2.418999984514301,
                2.5086192246835712,
                0.18718481399392828,
                -0.6208993160952909,
                -2.8531442269209344
            ]
        },
        {
            "positions": [
                1.0765075064674643,
                -2.488689755010892,
                2.514355524693754,
                0.2682544836116074,
                -0.7444941368767655,
                -2.8370857270264436
            ]
        },
        {
            "positions": [
                1.16490568240486,
                -2.5583795255074824,
                2.5200918247039366,
                0.34932415322928656,
                -0.86808895765824,
                -2.8210272271319523
            ]
        },
        {
            "positions": [
                1.2533038583422562,
                -2.6280692960040737,
                2.525828124714119,
                0.4303938228469659,
                -0.991683778439715,
                -2.8049687272374615
            ]
        },
        {
            "positions": [
                1.341702034279652,
                -2.6977590665006645,
                2.531564424724302,
                0.5114634924646451,
                -1.1152785992211895,
                -2.7889102273429707
            ]
        },
        {
            "positions": [
                1.430100210217048,
                -2.7674488369972554,
                2.537300724734484,
                0.5925331620823242,
                -1.2388734200026645,
                -2.77285172744848
            ]
        },
        {
            "positions": [
                1.5184983861544437,
                -2.8371386074938463,
                2.5430370247446668,
                0.6736028317000036,
                -1.362468240784139,
                -2.756793227553989
            ]
        },
        {
            "positions": [
                1.6068965620918398,
                -2.906828377990437,
                2.5487733247548494,
                0.7546725013176829,
                -1.486063061565614,
                -2.740734727659498
            ]
        },
        {
            "positions": [
                1.6952947380292356,
                -2.976518148487028,
                2.554509624765032,
                0.8357421709353621,
                -1.6096578823470886,
                -2.7246762277650074
            ]
        },
        {
            "positions": [
                1.6333706372304135,
                -2.9097098385738382,
                2.5444175693851707,
                0.7547652796709647,
                -1.4649539108697784,
                -2.7503294198092263
            ]
        },
        {
            "positions": [
                1.5714465364315915,
                -2.8429015286606485,
                2.5343255140053094,
                0.6737883884065675,
                -1.3202499393924685,
                -2.7759826118534456
            ]
        },
        {
            "positions": [
                1.5095224356327694,
                -2.7760932187474587,
                2.5242334586254485,
                0.5928114971421702,
                -1.1755459679151583,
                -2.801635803897665
            ]
        },
        {
            "positions": [
                1.4475983348339474,
                -2.709284908834269,
                2.514141403245587,
                0.511834605877773,
                -1.0308419964378484,
                -2.827288995941884
            ]
        },
        {
            "positions": [
                1.3856742340351254,
                -2.6424765989210792,
                2.5040493478657257,
                0.43085771461337563,
                -0.8861380249605382,
                -2.8529421879861028
            ]
        },
        {
            "positions": [
                1.3237501332363033,
                -2.5756682890078895,
                2.493957292485865,
                0.3498808233489783,
                -0.741434053483228,
                -2.878595380030322
            ]
        },
        {
            "positions": [
                1.2618260324374815,
                -2.5088599790946997,
                2.4838652371060035,
                0.2689039320845811,
                -0.596730082005918,
                -2.9042485720745415
            ]
        },
        {
            "positions": [
                1.1999019316386594,
                -2.4420516691815104,
                2.473773181726142,
                0.18792704082018374,
                -0.45202611052860786,
                -2.9299017641187604
            ]
        },
        {
            "positions": [
                1.1379778308398374,
                -2.37524335926832,
                2.463681126346281,
                0.10695014955578641,
                -0.3073221390512977,
                -2.9555549561629793
            ]
        },
        {
            "positions": [
                1.0760537300410153,
                -2.308435049355131,
                2.4535890709664194,
                0.02597325829138919,
                -0.16261816757398773,
                -2.9812081482071986
            ]
        },
        {
            "positions": [
                1.0141296292421933,
                -2.241626739441941,
                2.4434970155865585,
                -0.05500363297300814,
                -0.017914196096677548,
                -3.006861340251418
            ]
        },
        {
            "positions": [
                0.9522055284433713,
                -2.1748184295287514,
                2.433404960206697,
                -0.13598052423740548,
                0.12678977538063263,
                -3.032514532295637
            ]
        },
        {
            "positions": [
                0.8902814276445492,
                -2.1080101196155616,
                2.423312904826836,
                -0.2169574155018028,
                0.2714937468579426,
                -3.0581677243398557
            ]
        },
        {
            "positions": [
                0.8283573268457273,
                -2.041201809702372,
                2.413220849446975,
                -0.2979343067661999,
                0.41619771833525254,
                -3.083820916384075
            ]
        },
        {
            "positions": [
                0.7664332260469052,
                -1.974393499789182,
                2.4031287940671135,
                -0.37891119803059725,
                0.5609016898125629,
                -3.1094741084282944
            ]
        },
        {
            "positions": [
                0.7045091252480832,
                -1.9075851898759923,
                2.393036738687252,
                -0.45988808929499464,
                0.705605661289873,
                -3.1351273004725133
            ]
        }
    ]
}