{
    "goal": {
        "global_pose": {
            "orientation": {
                "w": 0.7047431493862688,
                "x": -0.7094548369677653,
                "y": 0.0024358444001904,
                "z": -0.0022348060817251984
            },
            "position": {
                "x": -0.39052492380142206,
                "y": 0.3671506643295288,
                "z": 0.19426114857196808
            }
        },
        "name": "move_to_magneteinheit_D"
    },
    "id": "BKPIECE_move_to_magneteinheit_D_17",
    "joint_names": [
        "shoulder_pan_joint",
        "shoulder_lift_joint",
        "elbow_joint",
        "wrist_1_joint",
        "wrist_2_joint",
        "wrist_3_joint"
    ],
    "metrics": {
        "cart_traj_len": 4.678747859197229,
        "distance_elbow_joint": 3.1740719592153437,
        "distance_shoulder_lift_joint": 1.1874919197460028,
        "distance_shoulder_pan_joint": 3.9628038169111997,
        "distance_wrist_1_joint": 6.371308808087527,
        "distance_wrist_2_joint": 1.0109292600996629,
        "distance_wrist_3_joint": 3.589951150514069,
        "smoothness": 0.5451450657357894,
        "time": 0.552245289,
        "traj_len": 4.392784642407796,
        "weighted_distance": 5.818822671622596
    },
    "planner": "BKPIECE",
    "start": {
        "state": {
            "elbow_joint": 0.7495348899011973,
            "shoulder_lift_joint": -0.6476975780737697,
            "shoulder_pan_joint": -2.711696901376276,
            "wrist_1_joint": -0.07506478080974305,
            "wrist_2_joint": 0.4329665971545858,
            "wrist_3_joint": 3.1361499051832524
        }
    },
    "waypoints": [
        {
            "positions": [
                -2.711696901376276,
                -0.6476975780737697,
                0.7495348899011973,
                -0.07506478080974305,
                0.4329665971545858,
                3.1361499051832524
            ]
        },
        {
            "positions": [
                -2.7242221869711267,
                -0.6750973472012787,
                0.7456826848576068,
                0.087686363674635,
                0.44993465129317795,
                2.987723133869097
            ]
        },
        {
            "positions": [
                -2.7367474725659773,
                -0.7024971163287876,
                0.7418304798140164,
                0.25043750815901306,
                0.4669027054317701,
                2.8392963625549412
            ]
        },
        {
            "positions": [
                -2.749272758160828,
                -0.7298968854562966,
                0.7379782747704259,
                0.4131886526433911,
                0.48387075957036224,
                2.6908695912407854
            ]
        },
        {
            "positions": [
                -2.7617980437556784,
                -0.7572966545838056,
                0.7341260697268354,
                0.5759397971277691,
                0.5008388137089543,
                2.54244281992663
            ]
        },
        {
            "positions": [
                -2.774323329350529,
                -0.7846964237113145,
                0.730273864683245,
                0.7386909416121472,
                0.5178068678475465,
                2.3940160486124746
            ]
        },
        {
            "positions": [
                -2.78684861494538,
                -0.8120961928388235,
                0.7264216596396544,
                0.9014420860965253,
                0.5347749219861386,
                2.245589277298319
            ]
        },
        {
            "positions": [
                -2.7993739005402305,
                -0.8394959619663325,
                0.7225694545960639,
                1.0641932305809034,
                0.5517429761247308,
                2.097162505984163
            ]
        },
        {
            "positions": [
                -2.811899186135081,
                -0.8668957310938413,
                0.7187172495524735,
                1.2269443750652813,
                0.5687110302633229,
                1.9487357346700076
            ]
        },
        {
            "positions": [
                -2.8244244717299316,
                -0.8942955002213503,
                0.714865044508883,
                1.3896955195496594,
                0.5856790844019151,
                1.800308963355852
            ]
        },
        {
            "positions": [
                -2.836949757324782,
                -0.9216952693488594,
                0.7110128394652925,
                1.5524466640340375,
                0.6026471385405072,
                1.6518821920416964
            ]
        },
        {
            "positions": [
                -2.8494750429196327,
                -0.9490950384763682,
                0.7071606344217021,
                1.7151978085184154,
                0.6196151926790994,
                1.5034554207275408
            ]
        },
        {
            "positions": [
                -2.8620003285144833,
                -0.9764948076038772,
                0.7033084293781116,
                1.8779489530027935,
                0.6365832468176915,
                1.3550286494133852
            ]
        },
        {
            "positions": [
                -2.747705320273513,
                -0.9996168670409344,
                0.6208220389667318,
                1.7466220249228677,
                0.6133177749348491,
                1.3622379362068262
            ]
        },
        {
            "positions": [
                -2.6334103120325425,
                -1.0227389264779916,
                0.5383356485553522,
                1.6152950968429418,
                0.5900523030520067,
                1.369447223000267
            ]
        },
        {
            "positions": [
                -2.519115303791572,
                -1.0458609859150487,
                0.4558492581439725,
                1.4839681687630157,
                0.5667868311691643,
                1.376656509793708
            ]
        },
        {
            "positions": [
                -2.4048202955506017,
                -1.068983045352106,
                0.37336286773259286,
                1.3526412406830899,
                0.5435213592863218,
                1.383865796587149
            ]
        },
        {
            "positions": [
                -2.290525287309631,
                -1.0921051047891632,
                0.2908764773212132,
                1.221314312603164,
                0.5202558874034795,
                1.39107508338059
            ]
        },
        {
            "positions": [
                -2.176230279068661,
                -1.1152271642262204,
                0.20839008690983346,
                1.089987384523238,
                0.49699041552063705,
                1.3982843701740308
            ]
        },
        {
            "positions": [
                -2.06193527082769,
                -1.1383492236632775,
                0.1259036964984538,
                0.9586604564433121,
                0.4737249436377946,
                1.4054936569674719
            ]
        },
        {
            "positions": [
                -1.9476402625867197,
                -1.1614712831003349,
                0.04341730608707417,
                0.8273335283633863,
                0.4504594717549522,
                1.4127029437609129
            ]
        },
        {
            "positions": [
                -1.8333452543457494,
                -1.184593342537392,
                -0.03906908432430556,
                0.6960066002834602,
                0.4271939998721098,
                1.419912230554354
            ]
        },
        {
            "positions": [
                -1.719050246104779,
                -1.2077154019744492,
                -0.12155547473568518,
                0.5646796722035345,
                0.40392852798926737,
                1.4271215173477947
            ]
        },
        {
            "positions": [
                -1.6047552378638086,
                -1.2308374614115065,
                -0.2040418651470649,
                0.43335274412360847,
                0.380663056106425,
                1.4343308041412357
            ]
        },
        {
            "positions": [
                -1.4904602296228382,
                -1.2539595208485637,
                -0.28652825555844463,
                0.3020258160436826,
                0.35739758422358253,
                1.4415400909346767
            ]
        },
        {
            "positions": [
                -1.3761652213818678,
                -1.2770815802856208,
                -0.36901464596982425,
                0.17069888796375676,
                0.33413211234074014,
                1.4487493777281177
            ]
        },
        {
            "positions": [
                -1.2618702131408972,
                -1.3002036397226782,
                -0.451501036381204,
                0.03937195988383069,
                0.3108666404578977,
                1.4559586645215585
            ]
        },
        {
            "positions": [
                -1.1475752048999268,
                -1.3233256991597353,
                -0.5339874267925837,
                -0.09195496819609517,
                0.2876011685750553,
                1.4631679513149995
            ]
        },
        {
            "positions": [
                -1.0332801966589564,
                -1.3464477585967924,
                -0.6164738172039632,
                -0.22328189627602102,
                0.2643356966922129,
                1.4703772381084406
            ]
        },
        {
            "positions": [
                -0.9189851884179863,
                -1.3695698180338496,
                -0.6989602076153429,
                -0.35460882435594687,
                0.24107022480937051,
                1.4775865249018816
            ]
        },
        {
            "positions": [
                -0.8046901801770154,
                -1.392691877470907,
                -0.7814465980267227,
                -0.48593575243587317,
                0.21780475292652807,
                1.4847958116953224
            ]
        },
        {
            "positions": [
                -0.690395171936045,
                -1.415813936907964,
                -0.8639329884381024,
                -0.617262680515799,
                0.19453928104368567,
                1.4920050984887634
            ]
        },
        {
            "positions": [
                -0.5761001636950747,
                -1.4389359963450212,
                -0.9464193788494819,
                -0.7485896085957244,
                0.17127380916084323,
                1.4992143852822044
            ]
        },
        {
            "positions": [
                -0.4618051554541043,
                -1.4620580557820784,
                -1.0289057692608616,
                -0.8799165366756503,
                0.14800833727800083,
                1.5064236720756452
            ]
        },
        {
            "positions": [
                -0.3475101472131339,
                -1.4851801152191357,
                -1.1113921596722414,
                -1.0112434647555766,
                0.12474286539515844,
                1.5136329588690862
            ]
        },
        {
            "positions": [
                -0.2332151389721634,
                -1.5083021746561929,
                -1.193878550083621,
                -1.1425703928355022,
                0.10147739351231604,
                1.5208422456625272
            ]
        },
        {
            "positions": [
                -0.17717739719533382,
                -1.5335706581266328,
                -1.2938146731200015,
                -1.2543371638071574,
                0.09359855580675217,
                1.6147266508320377
            ]
        },
        {
            "positions": [
                -0.12113965541850427,
                -1.558839141597073,
                -1.3937507961563822,
                -1.3661039347788129,
                0.0857197181011883,
                1.7086110560015484
            ]
        },
        {
            "positions": [
                -0.06510191364167472,
                -1.584107625067513,
                -1.4936869191927626,
                -1.477870705750468,
                0.07784088039562442,
                1.8024954611710589
            ]
        },
        {
            "positions": [
                -0.00906417186484515,
                -1.6093761085379532,
                -1.5936230422291433,
                -1.5896374767221233,
                0.06996204269006055,
                1.8963798663405695
            ]
        },
        {
            "positions": [
                0.04697356991198437,
                -1.6346445920083932,
                -1.6935591652655237,
                -1.7014042476937785,
                0.06208320498449668,
                1.99026427151008
            ]
        },
        {
            "positions": [
                0.10301131168881394,
                -1.6599130754788334,
                -1.7934952883019042,
                -1.8131710186654337,
                0.05420436727893282,
                2.0841486766795905
            ]
        },
        {
            "positions": [
                0.15904905346564352,
                -1.6851815589492734,
                -1.8934314113382849,
                -1.9249377896370892,
                0.04632552957336894,
                2.178033081849101
            ]
        },
        {
            "positions": [
                0.2150867952424731,
                -1.7104500424197135,
                -1.9933675343746655,
                -2.0367045606087446,
                0.03844669186780507,
                2.2719174870186114
            ]
        },
        {
            "positions": [
                0.2711245370193027,
                -1.7357185258901535,
                -2.093303657411046,
                -2.1484713315804,
                0.030567854162241198,
                2.3658018921881223
            ]
        },
        {
            "positions": [
                0.32716227879613213,
                -1.7609870093605937,
                -2.1932397804474264,
                -2.260238102552055,
                0.022689016456677327,
                2.4596862973576328
            ]
        },
        {
            "positions": [
                0.38320002057296176,
                -1.7862554928310337,
                -2.293175903483807,
                -2.3720048735237103,
                0.014810178751113456,
                2.5535707025271432
            ]
        },
        {
            "positions": [
                0.2188313364977267,
                -1.7720206795863285,
                -2.2817657160587324,
                -2.3332665727247086,
                0.009988589894746264,
                2.6449096620794936
            ]
        },
        {
            "positions": [
                0.05446265242249165,
                -1.7577858663416235,
                -2.270355528633658,
                -2.2945282719257074,
                0.005167001038379072,
                2.7362486216318436
            ]
        },
        {
            "positions": [
                -0.10990603165274344,
                -1.7435510530969183,
                -2.2589453412085834,
                -2.2557899711267058,
                0.0003454121820118776,
                2.827587581184194
            ]
        },
        {
            "positions": [
                -0.1470030258826641,
                -1.74666583572423,
                -2.307510642986141,
                -2.229726798450966,
                -0.08519197571842674,
                2.9957230626708906
            ]
        },
        {
            "positions": [
                -0.18410002011258472,
                -1.7497806183515416,
                -2.3560759447636985,
                -2.2036636257752265,
                -0.17072936361886537,
                3.163858544157587
            ]
        }
    ]
}