{
    "goal": {
        "global_pose": {
            "orientation": {
                "w": 0.7031023502349854,
                "x": -0.7110244035720825,
                "y": 0.007748599164187908,
                "z": 0.005598929710686207
            },
            "position": {
                "x": 0.11585023208521307,
                "y": 0.44412534475326537,
                "z": 0.3711530566215515
            }
        },
        "name": "move_to_auspresseinheit_A"
    },
    "id": "BKPIECE_move_to_auspresseinheit_A_76",
    "joint_names": [
        "shoulder_pan_joint",
        "shoulder_lift_joint",
        "elbow_joint",
        "wrist_1_joint",
        "wrist_2_joint",
        "wrist_3_joint"
    ],
    "metrics": {
        "cart_traj_len": 1.2759214123950362,
        "distance_elbow_joint": 0.17265790026262096,
        "distance_shoulder_lift_joint": 1.7391290628858236,
        "distance_shoulder_pan_joint": 3.6834928011212815,
        "distance_wrist_1_joint": 1.2952351910613125,
        "distance_wrist_2_joint": 0.6487823125183099,
        "distance_wrist_3_joint": 9.77374513119971,
        "smoothness": 0.6796509025678616,
        "time": 1.1844249629999999,
        "traj_len": 4.160894422963536,
        "weighted_distance": 6.229329832737074
    },
    "planner": "BKPIECE",
    "start": {
        "state": {
            "elbow_joint": 2.4225747245308327,
            "shoulder_lift_joint": -1.373653427065438,
            "shoulder_pan_joint": -0.33786330853087027,
            "wrist_1_joint": -1.0288602302712604,
            "wrist_2_joint": 1.23302299562683,
            "wrist_3_joint": -3.094021725338297
        }
    },
    "waypoints": [
        {
            "positions": [
                -0.33786330853087027,
                -1.373653427065438,
                2.4225747245308327,
                -1.0288602302712604,
                1.23302299562683,
                -3.094021725338297
            ]
        },
        {
            "positions": [
                -0.39525427361855536,
                -1.423004181414338,
                2.4256085068684725,
                -0.9881917211600536,
                1.2073749893191739,
                -2.882524825952166
            ]
        },
        {
            "positions": [
                -0.4526452387062404,
                -1.4723549357632377,
                2.428642289206113,
                -0.9475232120488467,
                1.1817269830115176,
                -2.671027926566035
            ]
        },
        {
            "positions": [
                -0.5100362037939254,
                -1.5217056901121377,
                2.4316760715437526,
                -0.9068547029376399,
                1.1560789767038615,
                -2.459531027179904
            ]
        },
        {
            "positions": [
                -0.5674271688816106,
                -1.5710564444610378,
                2.4347098538813925,
                -0.866186193826433,
                1.1304309703962052,
                -2.248034127793773
            ]
        },
        {
            "positions": [
                -0.6248181339692956,
                -1.6204071988099378,
                2.437743636219033,
                -0.8255176847152262,
                1.1047829640885491,
                -2.0365372284076417
            ]
        },
        {
            "positions": [
                -0.6822090990569807,
                -1.6697579531588378,
                2.4407774185566726,
                -0.7848491756040193,
                1.0791349577808929,
                -1.8250403290215107
            ]
        },
        {
            "positions": [
                -0.7396000641446658,
                -1.7191087075077376,
                2.4438112008943125,
                -0.7441806664928126,
                1.0534869514732368,
                -1.6135434296353797
            ]
        },
        {
            "positions": [
                -0.7969910292323509,
                -1.7684594618566376,
                2.4468449832319523,
                -0.7035121573816057,
                1.0278389451655805,
                -1.4020465302492486
            ]
        },
        {
            "positions": [
                -0.8543819943200359,
                -1.8178102162055376,
                2.4498787655695926,
                -0.6628436482703988,
                1.0021909388579244,
                -1.1905496308631174
            ]
        },
        {
            "positions": [
                -0.9117729594077211,
                -1.8671609705544374,
                2.4529125479072325,
                -0.6221751391591921,
                0.9765429325502684,
                -0.9790527314769863
            ]
        },
        {
            "positions": [
                -0.9691639244954062,
                -1.9165117249033374,
                2.4559463302448723,
                -0.5815066300479852,
                0.9508949262426121,
                -0.7675558320908555
            ]
        },
        {
            "positions": [
                -1.0265548895830912,
                -1.9658624792522374,
                2.4589801125825126,
                -0.5408381209367783,
                0.925246919934956,
                -0.5560589327047243
            ]
        },
        {
            "positions": [
                -1.083945854670776,
                -2.0152132336011372,
                2.4620138949201524,
                -0.5001696118255715,
                0.8995989136272998,
                -0.3445620333185935
            ]
        },
        {
            "positions": [
                -1.1413368197584615,
                -2.0645639879500375,
                2.4650476772577923,
                -0.4595011027143646,
                0.8739509073196436,
                -0.13306513393246222
            ]
        },
        {
            "positions": [
                -1.1987277848461464,
                -2.1139147422989373,
                2.4680814595954326,
                -0.41883259360315783,
                0.8483029010119875,
                0.07843176545366903
            ]
        },
        {
            "positions": [
                -1.2561187499338315,
                -2.163265496647837,
                2.4711152419330724,
                -0.37816408449195105,
                0.8226548947043313,
                0.28992866483979984
            ]
        },
        {
            "positions": [
                -1.3135097150215165,
                -2.2126162509967373,
                2.4741490242707123,
                -0.33749557538074415,
                0.7970068883966752,
                0.5014255642259307
            ]
        },
        {
            "positions": [
                -1.3709006801092016,
                -2.261967005345637,
                2.477182806608352,
                -0.29682706626953725,
                0.7713588820890189,
                0.7129224636120624
            ]
        },
        {
            "positions": [
                -1.4282916451968866,
                -2.3113177596945373,
                2.4802165889459924,
                -0.25615855715833047,
                0.7457108757813629,
                0.9244193629981932
            ]
        },
        {
            "positions": [
                -1.4856826102845717,
                -2.360668514043437,
                2.4832503712836322,
                -0.21549004804712368,
                0.7200628694737067,
                1.1359162623843244
            ]
        },
        {
            "positions": [
                -1.5430735753722566,
                -2.410019268392337,
                2.486284153621272,
                -0.1748215389359168,
                0.6944148631660505,
                1.3474131617704548
            ]
        },
        {
            "positions": [
                -1.600464540459942,
                -2.459370022741237,
                2.4893179359589124,
                -0.1341530298247099,
                0.6687668568583943,
                1.558910061156586
            ]
        },
        {
            "positions": [
                -1.657855505547627,
                -2.508720777090137,
                2.492351718296552,
                -0.0934845207135031,
                0.6431188505507381,
                1.7704069605427173
            ]
        },
        {
            "positions": [
                -1.5504236599065122,
                -2.4812634265055404,
                2.487675313455784,
                -0.1098417698727556,
                0.6457951308890207,
                1.5472562130282312
            ]
        },
        {
            "positions": [
                -1.4429918142653975,
                -2.453806075920944,
                2.482998908615016,
                -0.1261990190320081,
                0.6484714112273035,
                1.3241054655137452
            ]
        },
        {
            "positions": [
                -1.3355599686242827,
                -2.4263487253363474,
                2.4783225037742476,
                -0.14255626819126055,
                0.651147691565586,
                1.1009547179992594
            ]
        },
        {
            "positions": [
                -1.228128122983168,
                -2.398891374751751,
                2.473646098933479,
                -0.15891351735051307,
                0.6538239719038687,
                0.8778039704847732
            ]
        },
        {
            "positions": [
                -1.120696277342053,
                -2.3714340241671543,
                2.468969694092711,
                -0.17527076650976553,
                0.6565002522421514,
                0.6546532229702873
            ]
        },
        {
            "positions": [
                -1.0132644317009385,
                -2.3439766735825573,
                2.464293289251943,
                -0.191628015669018,
                0.659176532580434,
                0.4315024754558012
            ]
        },
        {
            "positions": [
                -0.9058325860598236,
                -2.316519322997961,
                2.4596168844111745,
                -0.2079852648282705,
                0.6618528129187167,
                0.20835172794131518
            ]
        },
        {
            "positions": [
                -0.7984007404187088,
                -2.2890619724133643,
                2.454940479570406,
                -0.224342513987523,
                0.6645290932569993,
                -0.014799019573170868
            ]
        },
        {
            "positions": [
                -0.690968894777594,
                -2.2616046218287678,
                2.450264074729638,
                -0.2406997631467755,
                0.6672053735952819,
                -0.23794976708765692
            ]
        },
        {
            "positions": [
                -0.5835370491364793,
                -2.2341472712441712,
                2.44558766988887,
                -0.25705701230602795,
                0.6698816539335646,
                -0.46110051460214274
            ]
        },
        {
            "positions": [
                -0.47610520349536456,
                -2.2066899206595747,
                2.4409112650481015,
                -0.2734142614652805,
                0.6725579342718472,
                -0.684251262116629
            ]
        },
        {
            "positions": [
                -0.3686733578542498,
                -2.179232570074978,
                2.436234860207333,
                -0.2897715106245329,
                0.6752342146101298,
                -0.9074020096311148
            ]
        },
        {
            "positions": [
                -0.26124151221313485,
                -2.1517752194903816,
                2.4315584553665652,
                -0.3061287597837854,
                0.6779104949484125,
                -1.130552757145601
            ]
        },
        {
            "positions": [
                -0.15380966657202033,
                -2.124317868905785,
                2.426882050525797,
                -0.3224860089430379,
                0.6805867752866951,
                -1.353703504660087
            ]
        },
        {
            "positions": [
                -0.04637782093090559,
                -2.0968605183211886,
                2.4222056456850285,
                -0.3388432581022904,
                0.6832630556249777,
                -1.5768542521745728
            ]
        },
        {
            "positions": [
                0.061054024710209376,
                -2.069403167736592,
                2.41752924084426,
                -0.3552005072615429,
                0.6859393359632604,
                -1.800004999689059
            ]
        },
        {
            "positions": [
                0.1684858703513239,
                -2.041945817151995,
                2.412852836003492,
                -0.37155775642079536,
                0.688615616301543,
                -2.0231557472035453
            ]
        },
        {
            "positions": [
                0.27591771599243886,
                -2.0144884665673986,
                2.408176431162724,
                -0.3879150055800479,
                0.6912918966398257,
                -2.246306494718031
            ]
        },
        {
            "positions": [
                0.3833495616335534,
                -1.987031115982802,
                2.4035000263219555,
                -0.40427225473930034,
                0.6939681769781083,
                -2.4694572422325174
            ]
        },
        {
            "positions": [
                0.49078140727466835,
                -1.9595737653982055,
                2.398823621481187,
                -0.4206295038985528,
                0.6966444573163909,
                -2.6926079897470028
            ]
        },
        {
            "positions": [
                0.5982132529157833,
                -1.932116414813609,
                2.394147216640419,
                -0.4369867530578053,
                0.6993207376546736,
                -2.915758737261489
            ]
        },
        {
            "positions": [
                0.7056450985568978,
                -1.9046590642290124,
                2.389470811799651,
                -0.4533440022170578,
                0.7019970179929562,
                -3.1389094847759758
            ]
        }
    ]
}