{
    "goal": {
        "global_pose": {
            "orientation": {
                "w": 0.005598929693374612,
                "x": 0.007748599140229565,
                "y": 0.7110244013736278,
                "z": -0.7031023480610252
            },
            "position": {
                "x": 0.1141497679147869,
                "y": -0.7141253447532654,
                "z": 0.3711530566215515
            }
        },
        "name": "move_to_auspresseinheit_B"
    },
    "id": "BKPIECE_move_to_auspresseinheit_B_134",
    "joint_names": [
        "shoulder_pan_joint",
        "shoulder_lift_joint",
        "elbow_joint",
        "wrist_1_joint",
        "wrist_2_joint",
        "wrist_3_joint"
    ],
    "metrics": {
        "cart_traj_len": 0.5647363943060282,
        "distance_elbow_joint": 0.06089560095760982,
        "distance_shoulder_lift_joint": 0.2955026727654495,
        "distance_shoulder_pan_joint": 0.5769432498951033,
        "distance_wrist_1_joint": 0.31676534500752984,
        "distance_wrist_2_joint": 0.9911704530140077,
        "distance_wrist_3_joint": 0.0025785426067632677,
        "smoothness": 0.0,
        "time": 0.820784047,
        "traj_len": 1.4979505546734388,
        "weighted_distance": 1.8859874727795853
    },
    "planner": "BKPIECE",
    "start": {
        "state": {
            "elbow_joint": 2.019306165916698,
            "shoulder_lift_joint": -1.1220205098164344,
            "shoulder_pan_joint": -1.095207207618794,
            "wrist_1_joint": -0.8559671824921639,
            "wrist_2_joint": 0.47596387242952726,
            "wrist_3_joint": 3.159081874673826
        }
    },
    "waypoints": [
        {
            "positions": [
                -1.095207207618794,
                -1.1220205098164344,
                2.019306165916698,
                -0.8559671824921639,
                0.47596387242952726,
                3.159081874673826
            ]
        },
        {
            "positions": [
                -1.1913644159346446,
                -1.1712709552773426,
                2.0091568990904296,
                -0.8031729583242422,
                0.6411589479318619,
                3.1586521175726987
            ]
        },
        {
            "positions": [
                -1.287521624250495,
                -1.220521400738251,
                1.9990076322641614,
                -0.7503787341563206,
                0.8063540234341965,
                3.1582223604715716
            ]
        },
        {
            "positions": [
                -1.3836788325663456,
                -1.2697718461991592,
                1.988858365437893,
                -0.6975845099883989,
                0.9715490989365312,
                3.157792603370444
            ]
        },
        {
            "positions": [
                -1.479836040882196,
                -1.3190222916600673,
                1.9787090986116247,
                -0.6447902858204773,
                1.1367441744388658,
                3.157362846269317
            ]
        },
        {
            "positions": [
                -1.5759932491980466,
                -1.3682727371209757,
                1.9685598317853565,
                -0.5919960616525557,
                1.3019392499412004,
                3.1569330891681897
            ]
        },
        {
            "positions": [
                -1.6721504575138972,
                -1.417523182581884,
                1.9584105649590882,
                -0.539201837484634,
                1.467134325443535,
                3.1565033320670626
            ]
        }
    ]
}