{
    "goal": {
        "global_pose": {
            "orientation": {
                "w": 0.7031023502349854,
                "x": -0.7110244035720825,
                "y": 0.007748599164187908,
                "z": 0.005598929710686207
            },
            "position": {
                "x": 0.11585023208521307,
                "y": 0.44412534475326537,
                "z": 0.3711530566215515
            }
        },
        "name": "move_to_auspresseinheit_A"
    },
    "id": "BKPIECE_move_to_auspresseinheit_A_106",
    "joint_names": [
        "shoulder_pan_joint",
        "shoulder_lift_joint",
        "elbow_joint",
        "wrist_1_joint",
        "wrist_2_joint",
        "wrist_3_joint"
    ],
    "metrics": {
        "cart_traj_len": 3.300616536419133,
        "distance_elbow_joint": 1.9907580719438926,
        "distance_shoulder_lift_joint": 1.1915895440843758,
        "distance_shoulder_pan_joint": 3.482849809673725,
        "distance_wrist_1_joint": 3.9765353348397907,
        "distance_wrist_2_joint": 3.7929500941787664,
        "distance_wrist_3_joint": 2.274315672912769,
        "smoothness": 0.6640552762594234,
        "time": 1.8655249779999998,
        "traj_len": 4.087664189685023,
        "weighted_distance": 5.387681811547284
    },
    "planner": "BKPIECE",
    "start": {
        "state": {
            "elbow_joint": 2.4225747245308327,
            "shoulder_lift_joint": -1.373653427065438,
            "shoulder_pan_joint": -0.33786330853087027,
            "wrist_1_joint": -1.0288602302712604,
            "wrist_2_joint": 1.23302299562683,
            "wrist_3_joint": -3.094021725338297
        }
    },
    "waypoints": [
        {
            "positions": [
                -0.33786330853087027,
                -1.373653427065438,
                2.4225747245308327,
                -1.0288602302712604,
                1.23302299562683,
                -3.094021725338297
            ]
        },
        {
            "positions": [
                -0.2785306344134684,
                -1.4144560993528543,
                2.336998841942158,
                -0.9951284941716896,
                1.1633111500384057,
                -2.9970960145581556
            ]
        },
        {
            "positions": [
                -0.21919796029606659,
                -1.4552587716402707,
                2.2514229593534836,
                -0.9613967580721188,
                1.0935993044499817,
                -2.9001703037780144
            ]
        },
        {
            "positions": [
                -0.15986528617866474,
                -1.4960614439276871,
                2.165847076764809,
                -0.927665021972548,
                1.0238874588615574,
                -2.803244592997873
            ]
        },
        {
            "positions": [
                -0.1005326120612629,
                -1.5368641162151038,
                2.0802711941761345,
                -0.893933285872977,
                0.9541756132731334,
                -2.7063188822177313
            ]
        },
        {
            "positions": [
                -0.041199937943861065,
                -1.5776667885025202,
                1.9946953115874602,
                -0.8602015497734062,
                0.8844637676847091,
                -2.60939317143759
            ]
        },
        {
            "positions": [
                0.018132736173540775,
                -1.6184694607899366,
                1.9091194289987858,
                -0.8264698136738354,
                0.8147519220962851,
                -2.5124674606574486
            ]
        },
        {
            "positions": [
                0.07746541029094262,
                -1.659272133077353,
                1.8235435464101113,
                -0.7927380775742646,
                0.7450400765078609,
                -2.415541749877307
            ]
        },
        {
            "positions": [
                0.13679808440834446,
                -1.7000748053647694,
                1.7379676638214367,
                -0.7590063414746937,
                0.6753282309194367,
                -2.318616039097166
            ]
        },
        {
            "positions": [
                0.1961307585257463,
                -1.740877477652186,
                1.6523917812327622,
                -0.7252746053751229,
                0.6056163853310126,
                -2.2216903283170244
            ]
        },
        {
            "positions": [
                0.25546343264314814,
                -1.7816801499396024,
                1.5668158986440877,
                -0.6915428692755521,
                0.5359045397425884,
                -2.1247646175368833
            ]
        },
        {
            "positions": [
                0.31479610676055,
                -1.8224828222270189,
                1.4812400160554131,
                -0.6578111331759813,
                0.46619269415416426,
                -2.0278389067567417
            ]
        },
        {
            "positions": [
                0.4298858945111,
                -1.8521038087632644,
                1.4763002522052133,
                -0.5221976440359289,
                0.36669872226133327,
                -2.024093064805627
            ]
        },
        {
            "positions": [
                0.54497568226165,
                -1.8817247952995102,
                1.4713604883550138,
                -0.38658415489587655,
                0.2672047503685022,
                -2.020347222854512
            ]
        },
        {
            "positions": [
                0.6600654700122001,
                -1.9113457818357558,
                1.4664207245048142,
                -0.25097066575582416,
                0.16771077847567123,
                -2.0166013809033965
            ]
        },
        {
            "positions": [
                0.7751552577627501,
                -1.9409667683720013,
                1.4614809606546144,
                -0.11535717661577183,
                0.06821680658284024,
                -2.0128555389522815
            ]
        },
        {
            "positions": [
                0.8902450455133002,
                -1.9705877549082471,
                1.4565411968044146,
                0.020256312524280617,
                -0.031277165309990806,
                -2.0091096970011666
            ]
        },
        {
            "positions": [
                1.00533483326385,
                -2.0002087414444927,
                1.451601432954215,
                0.15586980166433295,
                -0.1307711372028218,
                -2.0053638550500517
            ]
        },
        {
            "positions": [
                1.1204246210144002,
                -2.0298297279807382,
                1.4466616691040155,
                0.2914832908043854,
                -0.23026510909565284,
                -2.0016180130989367
            ]
        },
        {
            "positions": [
                1.2355144087649501,
                -2.059450714516984,
                1.4417219052538157,
                0.4270967799444376,
                -0.3297590809884838,
                -1.9978721711478216
            ]
        },
        {
            "positions": [
                1.3506041965155002,
                -2.0890717010532294,
                1.436782141403616,
                0.5627102690844903,
                -0.42925305288131493,
                -1.9941263291967066
            ]
        },
        {
            "positions": [
                1.4656939842660504,
                -2.1186926875894754,
                1.4318423775534164,
                0.6983237582245425,
                -0.5287470247741459,
                -1.9903804872455915
            ]
        },
        {
            "positions": [
                1.5807837720166003,
                -2.1483136741257205,
                1.4269026137032168,
                0.833937247364595,
                -0.6282409966669769,
                -1.9866346452944765
            ]
        },
        {
            "positions": [
                1.6958735597671504,
                -2.1779346606619665,
                1.421962849853017,
                0.9695507365046472,
                -0.7277349685598078,
                -1.9828888033433616
            ]
        },
        {
            "positions": [
                1.8109633475177005,
                -2.207555647198212,
                1.4170230860028172,
                1.1051642256446998,
                -0.827228940452639,
                -1.9791429613922464
            ]
        },
        {
            "positions": [
                1.9260531352682504,
                -2.2371766337344576,
                1.4120833221526177,
                1.240777714784752,
                -0.92672291234547,
                -1.9753971194411315
            ]
        },
        {
            "positions": [
                1.8439155096210287,
                -2.2198345590171735,
                1.4707499746879407,
                1.1423403398324907,
                -0.8188271774165673,
                -1.9906034940624087
            ]
        },
        {
            "positions": [
                1.7617778839738072,
                -2.2024924842998894,
                1.5294166272232639,
                1.0439029648802294,
                -0.7109314424876647,
                -2.0058098686836856
            ]
        },
        {
            "positions": [
                1.6796402583265855,
                -2.1851504095826058,
                1.5880832797585869,
                0.9454655899279681,
                -0.603035707558762,
                -2.0210162433049628
            ]
        },
        {
            "positions": [
                1.597502632679364,
                -2.1678083348653217,
                1.6467499322939099,
                0.8470282149757069,
                -0.4951399726298593,
                -2.03622261792624
            ]
        },
        {
            "positions": [
                1.5153650070321423,
                -2.1504662601480375,
                1.705416584829233,
                0.7485908400234456,
                -0.3872442377009566,
                -2.051428992547517
            ]
        },
        {
            "positions": [
                1.4332273813849208,
                -2.133124185430754,
                1.764083237364556,
                0.6501534650711842,
                -0.2793485027720539,
                -2.066635367168794
            ]
        },
        {
            "positions": [
                1.351089755737699,
                -2.1157821107134698,
                1.822749889899879,
                0.5517160901189229,
                -0.17145276784315122,
                -2.081841741790071
            ]
        },
        {
            "positions": [
                1.2689521300904776,
                -2.0984400359961857,
                1.8814165424352023,
                0.4532787151666616,
                -0.06355703291424863,
                -2.097048116411348
            ]
        },
        {
            "positions": [
                1.1868145044432556,
                -2.0810979612789016,
                1.9400831949705255,
                0.35484134021440017,
                0.044338702014654174,
                -2.1122544910326253
            ]
        },
        {
            "positions": [
                1.1046768787960342,
                -2.0637558865616175,
                1.9987498475058483,
                0.25640396526213893,
                0.15223443694355676,
                -2.1274608656539025
            ]
        },
        {
            "positions": [
                1.0225392531488127,
                -2.046413811844334,
                2.0574165000411715,
                0.1579665903098777,
                0.26013017187245946,
                -2.1426672402751796
            ]
        },
        {
            "positions": [
                0.9404016275015911,
                -2.0290717371270497,
                2.1160831525764943,
                0.05952921535761635,
                0.36802590680136216,
                -2.1578736148964563
            ]
        },
        {
            "positions": [
                0.8582640018543692,
                -2.0117296624097656,
                2.1747498051118175,
                -0.038908159594645,
                0.47592164173026485,
                -2.1730799895177335
            ]
        },
        {
            "positions": [
                0.7761263762071478,
                -1.9943875876924817,
                2.2334164576471407,
                -0.13734553454690634,
                0.5838173766591676,
                -2.1882863641390107
            ]
        },
        {
            "positions": [
                0.7623250548444475,
                -1.9773321294178057,
                2.2652031644613717,
                -0.20310036263733017,
                0.6083501560995335,
                -2.3768467286025556
            ]
        },
        {
            "positions": [
                0.7485237334817471,
                -1.9602766711431296,
                2.2969898712756027,
                -0.268855190727754,
                0.6328829355398994,
                -2.5654070930661006
            ]
        },
        {
            "positions": [
                0.7347224121190468,
                -1.9432212128684536,
                2.3287765780898333,
                -0.33461001881817787,
                0.6574157149802654,
                -2.753967457529645
            ]
        },
        {
            "positions": [
                0.7209210907563464,
                -1.9261657545937776,
                2.3605632849040643,
                -0.4003648469086017,
                0.6819484944206313,
                -2.94252782199319
            ]
        },
        {
            "positions": [
                0.7071197693936461,
                -1.9091102963191016,
                2.3923499917182953,
                -0.4661196749990255,
                0.7064812738609972,
                -3.131088186456735
            ]
        }
    ]
}