{
    "goal": {
        "global_pose": {
            "orientation": {
                "w": 0.7047431493862688,
                "x": -0.7094548369677653,
                "y": 0.0024358444001904,
                "z": -0.0022348060817251984
            },
            "position": {
                "x": -0.39052492380142206,
                "y": 0.3671506643295288,
                "z": 0.19426114857196808
            }
        },
        "name": "move_to_magneteinheit_D"
    },
    "id": "BKPIECE_move_to_magneteinheit_D_10",
    "joint_names": [
        "shoulder_pan_joint",
        "shoulder_lift_joint",
        "elbow_joint",
        "wrist_1_joint",
        "wrist_2_joint",
        "wrist_3_joint"
    ],
    "metrics": {
        "cart_traj_len": 5.438257405129596,
        "distance_elbow_joint": 3.0957451080050586,
        "distance_shoulder_lift_joint": 1.4028428856630413,
        "distance_shoulder_pan_joint": 5.183265574117408,
        "distance_wrist_1_joint": 2.409337168427896,
        "distance_wrist_2_joint": 3.432809879908736,
        "distance_wrist_3_joint": 6.577015340106653,
        "smoothness": 0.4583914701762438,
        "time": 1.3493169800000002,
        "traj_len": 4.701171764169947,
        "weighted_distance": 6.41070929654268
    },
    "planner": "BKPIECE",
    "start": {
        "state": {
            "elbow_joint": 0.7495348899011973,
            "shoulder_lift_joint": -0.6476975780737697,
            "shoulder_pan_joint": -2.711696901376276,
            "wrist_1_joint": -0.07506478080974305,
            "wrist_2_joint": 0.4329665971545858,
            "wrist_3_joint": 3.1361499051832524
        }
    },
    "waypoints": [
        {
            "positions": [
                -2.711696901376276,
                -0.6476975780737697,
                0.7495348899011973,
                -0.07506478080974305,
                0.4329665971545858,
                3.1361499051832524
            ]
        },
        {
            "positions": [
                -2.719579221276424,
                -0.6294498149526264,
                0.6935494924401684,
                -0.10396946446386211,
                0.5337643296772415,
                3.0056225752438257
            ]
        },
        {
            "positions": [
                -2.7274615411765715,
                -0.6112020518314831,
                0.6375640949791396,
                -0.13287414811798118,
                0.6345620621998973,
                2.875095245304399
            ]
        },
        {
            "positions": [
                -2.7195156433922363,
                -0.5999788165448292,
                0.5628091267271356,
                -0.13780784353818787,
                0.7039186592246252,
                2.6935988351913083
            ]
        },
        {
            "positions": [
                -2.7115697456079006,
                -0.5887555812581753,
                0.48805415847513156,
                -0.14274153895839456,
                0.773275256249353,
                2.5121024250782176
            ]
        },
        {
            "positions": [
                -2.7036238478235655,
                -0.5775323459715213,
                0.4132991902231275,
                -0.14767523437860125,
                0.842631853274081,
                2.3306060149651273
            ]
        },
        {
            "positions": [
                -2.6956779500392303,
                -0.5663091106848673,
                0.3385442219711235,
                -0.1526089297988079,
                0.9119884502988088,
                2.1491096048520366
            ]
        },
        {
            "positions": [
                -2.6877320522548946,
                -0.5550858753982134,
                0.2637892537191195,
                -0.1575426252190146,
                0.9813450473235367,
                1.967613194738946
            ]
        },
        {
            "positions": [
                -2.6797861544705595,
                -0.5438626401115594,
                0.18903428546711543,
                -0.1624763206392213,
                1.0507016443482646,
                1.7861167846258554
            ]
        },
        {
            "positions": [
                -2.671840256686224,
                -0.5326394048249055,
                0.11427931721511142,
                -0.16741001605942799,
                1.1200582413729925,
                1.604620374512765
            ]
        },
        {
            "positions": [
                -2.6638943589018886,
                -0.5214161695382515,
                0.039524348963107414,
                -0.17234371147963468,
                1.1894148383977203,
                1.4231239643996743
            ]
        },
        {
            "positions": [
                -2.5415868648069173,
                -0.5560169818701244,
                -0.00692885244896773,
                -0.16892289759296594,
                1.1259683543961685,
                1.305963103873276
            ]
        },
        {
            "positions": [
                -2.4192793707119455,
                -0.5906177942019972,
                -0.053382053861042875,
                -0.1655020837062972,
                1.0625218703946164,
                1.188802243346878
            ]
        },
        {
            "positions": [
                -2.296971876616974,
                -0.62521860653387,
                -0.09983525527311801,
                -0.16208126981962848,
                0.9990753863930646,
                1.0716413828204798
            ]
        },
        {
            "positions": [
                -2.1746643825220024,
                -0.6598194188657428,
                -0.14628845668519316,
                -0.15866045593295974,
                0.9356289023915126,
                0.9544805222940815
            ]
        },
        {
            "positions": [
                -2.052356888427031,
                -0.6944202311976156,
                -0.19274165809726831,
                -0.155239642046291,
                0.8721824183899607,
                0.8373196617676834
            ]
        },
        {
            "positions": [
                -1.9300493943320594,
                -0.7290210435294885,
                -0.23919485950934344,
                -0.15181882815962228,
                0.8087359343884089,
                0.7201588012412852
            ]
        },
        {
            "positions": [
                -1.807741900237088,
                -0.7636218558613612,
                -0.2856480609214186,
                -0.14839801427295354,
                0.7452894503868568,
                0.602997940714887
            ]
        },
        {
            "positions": [
                -1.6854344061421165,
                -0.7982226681932341,
                -0.33210126233349374,
                -0.1449772003862848,
                0.681842966385305,
                0.4858370801884887
            ]
        },
        {
            "positions": [
                -1.563126912047145,
                -0.8328234805251069,
                -0.37855446374556895,
                -0.14155638649961608,
                0.618396482383753,
                0.3686762196620905
            ]
        },
        {
            "positions": [
                -1.4408194179521734,
                -0.8674242928569798,
                -0.42500766515764404,
                -0.13813557261294734,
                0.554949998382201,
                0.25151535913569245
            ]
        },
        {
            "positions": [
                -1.3185119238572018,
                -0.9020251051888526,
                -0.4714608665697192,
                -0.13471475872627858,
                0.4915035143806491,
                0.13435449860929416
            ]
        },
        {
            "positions": [
                -1.1962044297622303,
                -0.9366259175207254,
                -0.5179140679817943,
                -0.13129394483960988,
                0.42805703037909726,
                0.01719363808289609
            ]
        },
        {
            "positions": [
                -1.0738969356672587,
                -0.9712267298525983,
                -0.5643672693938695,
                -0.12787313095294112,
                0.3646105463775453,
                -0.0999672224435022
            ]
        },
        {
            "positions": [
                -0.9515894415722874,
                -1.0058275421844711,
                -0.6108204708059446,
                -0.1244523170662724,
                0.30116406237599336,
                -0.21712808296990027
            ]
        },
        {
            "positions": [
                -0.8292819474773157,
                -1.0404283545163437,
                -0.6572736722180198,
                -0.12103150317960366,
                0.2377175783744414,
                -0.33428894349629856
            ]
        },
        {
            "positions": [
                -0.7069744533823443,
                -1.0750291668482168,
                -0.7037268736300949,
                -0.11761068929293493,
                0.17427109437288957,
                -0.45144980402269685
            ]
        },
        {
            "positions": [
                -0.584666959287373,
                -1.1096299791800894,
                -0.75018007504217,
                -0.1141898754062662,
                0.11082461037133773,
                -0.5686106645490949
            ]
        },
        {
            "positions": [
                -0.46235946519240123,
                -1.1442307915119625,
                -0.7966332764542453,
                -0.11076906151959745,
                0.04737812636978567,
                -0.6857715250754932
            ]
        },
        {
            "positions": [
                -0.34005197109742946,
                -1.1788316038438351,
                -0.8430864778663204,
                -0.10734824763292873,
                -0.016068357631766172,
                -0.8029323856018915
            ]
        },
        {
            "positions": [
                -0.21774447700245814,
                -1.213432416175708,
                -0.8895396792783955,
                -0.10392743374626,
                -0.07951484163331823,
                -0.9200932461282894
            ]
        },
        {
            "positions": [
                -0.09543698290748681,
                -1.2480332285075808,
                -0.9359928806904706,
                -0.10050661985959126,
                -0.14296132563487007,
                -1.0372541066546876
            ]
        },
        {
            "positions": [
                0.026870511187484958,
                -1.2826340408394536,
                -0.9824460821025458,
                -0.09708580597292252,
                -0.20640780963642213,
                -1.154414967181086
            ]
        },
        {
            "positions": [
                0.14917800528245628,
                -1.3172348531713265,
                -1.028899283514621,
                -0.09366499208625378,
                -0.269854293637974,
                -1.2715758277074842
            ]
        },
        {
            "positions": [
                0.27148549937742805,
                -1.3518356655031991,
                -1.075352484926696,
                -0.09024417819958507,
                -0.3333007776395258,
                -1.388736688233882
            ]
        },
        {
            "positions": [
                0.3937929934723994,
                -1.3864364778350722,
                -1.121805686338771,
                -0.08682336431291633,
                -0.39674726164107765,
                -1.5058975487602804
            ]
        },
        {
            "positions": [
                0.5161004875673711,
                -1.4210372901669448,
                -1.1682588877508464,
                -0.08340255042624758,
                -0.4601937456426297,
                -1.6230584092866787
            ]
        },
        {
            "positions": [
                0.6384079816623425,
                -1.4556381024988179,
                -1.2147120891629215,
                -0.07998173653957885,
                -0.5236402296441816,
                -1.740219269813077
            ]
        },
        {
            "positions": [
                0.7607154757573138,
                -1.4902389148306905,
                -1.2611652905749966,
                -0.07656092265291012,
                -0.5870867136457336,
                -1.8573801303394748
            ]
        },
        {
            "positions": [
                0.8830229698522856,
                -1.5248397271625633,
                -1.3076184919870717,
                -0.0731401087662414,
                -0.6505331976472855,
                -1.974540990865873
            ]
        },
        {
            "positions": [
                1.0053304639472573,
                -1.5594405394944362,
                -1.354071693399147,
                -0.06971929487957265,
                -0.7139796816488375,
                -2.0917018513922714
            ]
        },
        {
            "positions": [
                1.1276379580422287,
                -1.594041351826309,
                -1.400524894811222,
                -0.06629848099290392,
                -0.7774261656503894,
                -2.2088627119186697
            ]
        },
        {
            "positions": [
                1.057456790713239,
                -1.5925653783700142,
                -1.4586656346677853,
                -0.2128032149825307,
                -0.7338583097056784,
                -2.2783297455213507
            ]
        },
        {
            "positions": [
                0.9872756233842495,
                -1.5910894049137192,
                -1.5168063745243487,
                -0.35930794897215745,
                -0.6902904537609675,
                -2.3477967791240317
            ]
        },
        {
            "positions": [
                0.9170944560552597,
                -1.5896134314574244,
                -1.574947114380912,
                -0.5058126829617843,
                -0.6467225978162565,
                -2.4172638127267128
            ]
        },
        {
            "positions": [
                0.8469132887262701,
                -1.5881374580011296,
                -1.6330878542374752,
                -0.652317416951411,
                -0.6031547418715457,
                -2.486730846329394
            ]
        },
        {
            "positions": [
                0.7767321213972805,
                -1.5866614845448346,
                -1.6912285940940384,
                -0.7988221509410378,
                -0.5595868859268347,
                -2.556197879932075
            ]
        },
        {
            "positions": [
                0.7065509540682908,
                -1.5851855110885398,
                -1.7493693339506018,
                -0.9453268849306646,
                -0.5160190299821238,
                -2.625664913534756
            ]
        },
        {
            "positions": [
                0.6363697867393012,
                -1.583709537632245,
                -1.807510073807165,
                -1.0918316189202915,
                -0.4724511740374129,
                -2.695131947137437
            ]
        },
        {
            "positions": [
                0.5661886194103116,
                -1.58223356417595,
                -1.8656508136637282,
                -1.238336352909918,
                -0.42888331809270197,
                -2.764598980740118
            ]
        },
        {
            "positions": [
                0.496007452081322,
                -1.5807575907196552,
                -1.9237915535202914,
                -1.3848410868995449,
                -0.38531546214799106,
                -2.834066014342799
            ]
        },
        {
            "positions": [
                0.4258262847523324,
                -1.5792816172633604,
                -1.9819322933768548,
                -1.5313458208891717,
                -0.34174760620328015,
                -2.90353304794548
            ]
        },
        {
            "positions": [
                0.3556451174233428,
                -1.5778056438070653,
                -2.040073033233418,
                -1.6778505548787983,
                -0.29817975025856924,
                -2.973000081548161
            ]
        },
        {
            "positions": [
                0.285463950094353,
                -1.5763296703507705,
                -2.0982137730899812,
                -1.8243552888684254,
                -0.2546118943138582,
                -3.0424671151508424
            ]
        },
        {
            "positions": [
                0.2152827827653634,
                -1.5748536968944757,
                -2.1563545129465447,
                -1.9708600228580522,
                -0.2110440383691473,
                -3.1119341487535235
            ]
        },
        {
            "positions": [
                0.1451016154363738,
                -1.5733777234381807,
                -2.2144952528031077,
                -2.117364756847679,
                -0.1674761824244364,
                -3.1814011823562045
            ]
        },
        {
            "positions": [
                0.0749204481073843,
                -1.571901749981886,
                -2.272635992659671,
                -2.2638694908373056,
                -0.1239083264797255,
                -3.2508682159588855
            ]
        },
        {
            "positions": [
                -0.0549215144743499,
                -1.6628000964794072,
                -2.309423105381766,
                -2.25964849212387,
                -0.15190972420313847,
                -3.155869606476629
            ]
        },
        {
            "positions": [
                -0.1847634770560841,
                -1.7536984429769285,
                -2.346210218103861,
                -2.255427493410434,
                -0.17991112192655143,
                -3.0608709969943724
            ]
        }
    ]
}