{
    "goal": {
        "global_pose": {
            "orientation": {
                "w": 0.5084816262002911,
                "x": -0.4908360881923452,
                "y": 0.5182115481033761,
                "z": -0.48164630358495003
            },
            "position": {
                "x": 0.5540239810943604,
                "y": -0.46912469901144505,
                "z": 0.16403168439865112
            }
        },
        "name": "move_to_storage_B"
    },
    "id": "BKPIECE_move_to_storage_B_147",
    "joint_names": [
        "shoulder_pan_joint",
        "shoulder_lift_joint",
        "elbow_joint",
        "wrist_1_joint",
        "wrist_2_joint",
        "wrist_3_joint"
    ],
    "metrics": {
        "cart_traj_len": 7.725004886293581,
        "distance_elbow_joint": 7.974115718382112,
        "distance_shoulder_lift_joint": 0.9932091659425313,
        "distance_shoulder_pan_joint": 7.868110099066376,
        "distance_wrist_1_joint": 2.9803052701483734,
        "distance_wrist_2_joint": 2.704811814133656,
        "distance_wrist_3_joint": 6.875135463524776,
        "smoothness": 0.3142495578890152,
        "time": 1.779358601,
        "traj_len": 5.4217790005862305,
        "weighted_distance": 6.987923550134857
    },
    "planner": "BKPIECE",
    "start": {
        "state": {
            "elbow_joint": 1.6649325706314817,
            "shoulder_lift_joint": -0.6616388048112454,
            "shoulder_pan_joint": -0.9139837860083814,
            "wrist_1_joint": 2.146757197745094,
            "wrist_2_joint": -2.234196043158733,
            "wrist_3_joint": 0.005471033829999897
        }
    },
    "waypoints": [
        {
            "positions": [
                -0.9139837860083814,
                -0.6616388048112454,
                1.6649325706314817,
                2.146757197745094,
                -2.234196043158733,
                0.005471033829999897
            ]
        },
        {
            "positions": [
                -0.7975406998813606,
                -0.6836332735476357,
                1.5494037617382423,
                2.1408867709181063,
                -2.1599548960222017,
                0.061970532189479156
            ]
        },
        {
            "positions": [
                -0.6810976137543397,
                -0.7056277422840259,
                1.4338749528450032,
                2.1350163440911185,
                -2.08571374888567,
                0.11847003054895842
            ]
        },
        {
            "positions": [
                -0.5646545276273189,
                -0.7276222110204162,
                1.3183461439517639,
                2.1291459172641303,
                -2.011472601749139,
                0.17496952890843767
            ]
        },
        {
            "positions": [
                -0.4482114415002981,
                -0.7496166797568066,
                1.2028173350585245,
                2.1232754904371425,
                -1.9372314546126075,
                0.23146902726791693
            ]
        },
        {
            "positions": [
                -0.3317683553732773,
                -0.7716111484931968,
                1.0872885261652852,
                2.1174050636101547,
                -1.862990307476076,
                0.2879685256273962
            ]
        },
        {
            "positions": [
                -0.2153252692462565,
                -0.7936056172295871,
                0.9717597172720459,
                2.111534636783167,
                -1.788749160339545,
                0.3444680239868755
            ]
        },
        {
            "positions": [
                -0.09888218311923569,
                -0.8156000859659774,
                0.8562309083788067,
                2.105664209956179,
                -1.7145080132030135,
                0.40096752234635474
            ]
        },
        {
            "positions": [
                0.017560903007785122,
                -0.8375945547023678,
                0.7407020994855674,
                2.099793783129191,
                -1.640266866066482,
                0.457467020705834
            ]
        },
        {
            "positions": [
                0.13400398913480582,
                -0.859589023438758,
                0.6251732905923282,
                2.093923356302203,
                -1.566025718929951,
                0.5139665190653132
            ]
        },
        {
            "positions": [
                0.25044707526182675,
                -0.8815834921751483,
                0.5096444816990888,
                2.0880529294752153,
                -1.4917845717934193,
                0.5704660174247925
            ]
        },
        {
            "positions": [
                0.36689016138884745,
                -0.9035779609115385,
                0.3941156728058497,
                2.0821825026482275,
                -1.417543424656888,
                0.6269655157842717
            ]
        },
        {
            "positions": [
                0.48333324751586837,
                -0.9255724296479289,
                0.2785868639126101,
                2.0763120758212392,
                -1.3433022775203567,
                0.683465014143751
            ]
        },
        {
            "positions": [
                0.5997763336428891,
                -0.9475668983843191,
                0.16305805501937098,
                2.0704416489942514,
                -1.2690611303838253,
                0.7399645125032303
            ]
        },
        {
            "positions": [
                0.71621941976991,
                -0.9695613671207095,
                0.04752924612613163,
                2.0645712221672636,
                -1.194819983247294,
                0.7964640108627096
            ]
        },
        {
            "positions": [
                0.8326625058969307,
                -0.9915558358570997,
                -0.0679995627671075,
                2.058700795340276,
                -1.1205788361107627,
                0.8529635092221888
            ]
        },
        {
            "positions": [
                0.9491055920239516,
                -1.01355030459349,
                -0.18352837166034686,
                2.052830368513288,
                -1.0463376889742313,
                0.9094630075816681
            ]
        },
        {
            "positions": [
                1.0655486781509724,
                -1.0355447733298804,
                -0.2990571805535862,
                2.0469599416863,
                -0.9720965418377001,
                0.9659625059411474
            ]
        },
        {
            "positions": [
                1.181991764277993,
                -1.0575392420662706,
                -0.41458598944682534,
                2.041089514859312,
                -0.8978553947011687,
                1.0224620043006265
            ]
        },
        {
            "positions": [
                1.2984348504050143,
                -1.0795337108026608,
                -0.5301147983400647,
                2.035219088032324,
                -0.8236142475646373,
                1.078961502660106
            ]
        },
        {
            "positions": [
                1.4148779365320348,
                -1.1015281795390512,
                -0.645643607233304,
                2.0293486612053364,
                -0.7493731004281059,
                1.1354610010195851
            ]
        },
        {
            "positions": [
                1.5313210226590557,
                -1.1235226482754415,
                -0.7611724161265434,
                2.0234782343783486,
                -0.6751319532915747,
                1.1919604993790645
            ]
        },
        {
            "positions": [
                1.6477641087860762,
                -1.1455171170118317,
                -0.8767012250197823,
                2.0176078075513604,
                -0.6008908061550433,
                1.2484599977385435
            ]
        },
        {
            "positions": [
                1.7642071949130975,
                -1.1675115857482221,
                -0.9922300339130221,
                2.0117373807243726,
                -0.5266496590185119,
                1.304959496098023
            ]
        },
        {
            "positions": [
                1.880650281040118,
                -1.1895060544846123,
                -1.1077588428062615,
                2.005866953897385,
                -0.4524085118819805,
                1.3614589944575022
            ]
        },
        {
            "positions": [
                1.997093367167139,
                -1.2115005232210025,
                -1.2232876516995004,
                1.9999965270703968,
                -0.3781673647454493,
                1.4179584928169815
            ]
        },
        {
            "positions": [
                2.1135364532941594,
                -1.233494991957393,
                -1.3388164605927397,
                1.994126100243409,
                -0.3039262176089179,
                1.4744579911764606
            ]
        },
        {
            "positions": [
                2.2299795394211808,
                -1.2554894606937832,
                -1.454345269485979,
                1.988255673416421,
                -0.2296850704723865,
                1.5309574895359401
            ]
        },
        {
            "positions": [
                2.3464226255482012,
                -1.2774839294301734,
                -1.5698740783792184,
                1.9823852465894332,
                -0.15544392333585533,
                1.5874569878954192
            ]
        },
        {
            "positions": [
                2.462865711675222,
                -1.2994783981665639,
                -1.6854028872724578,
                1.9765148197624454,
                -0.0812027761993237,
                1.6439564862548985
            ]
        },
        {
            "positions": [
                2.5793087978022426,
                -1.321472866902954,
                -1.8009316961656967,
                1.9706443929354573,
                -0.006961629062792518,
                1.7004559846143776
            ]
        },
        {
            "positions": [
                2.695751883929264,
                -1.3434673356393443,
                -1.9164605050589365,
                1.9647739661084695,
                0.06727951807373911,
                1.7569554829738572
            ]
        },
        {
            "positions": [
                2.8121949700562845,
                -1.3654618043757347,
                -2.0319893139521756,
                1.9589035392814815,
                0.1415206652102703,
                1.8134549813333363
            ]
        },
        {
            "positions": [
                2.9286380561833054,
                -1.387456273112125,
                -2.1475181228454145,
                1.9530331124544937,
                0.21576181234680147,
                1.8699544796928156
            ]
        },
        {
            "positions": [
                2.8327930976862894,
                -1.381089804120657,
                -2.0484308603476715,
                1.8866859413864516,
                0.221829763742709,
                1.7506532411770548
            ]
        },
        {
            "positions": [
                2.736948139189273,
                -1.3747233351291892,
                -1.9493435978499283,
                1.8203387703184093,
                0.22789771513861648,
                1.6313520026612938
            ]
        },
        {
            "positions": [
                2.641103180692257,
                -1.3683568661377212,
                -1.8502563353521853,
                1.7539915992503672,
                0.233965666534524,
                1.512050764145533
            ]
        },
        {
            "positions": [
                2.5452582221952404,
                -1.3619903971462533,
                -1.751169072854442,
                1.6876444281823249,
                0.24003361793043151,
                1.392749525629772
            ]
        },
        {
            "positions": [
                2.4494132636982244,
                -1.3556239281547855,
                -1.652081810356699,
                1.6212972571142827,
                0.246101569326339,
                1.2734482871140111
            ]
        },
        {
            "positions": [
                2.3535683052012084,
                -1.3492574591633175,
                -1.552994547858956,
                1.5549500860462406,
                0.2521695207222465,
                1.1541470485982503
            ]
        },
        {
            "positions": [
                2.257723346704192,
                -1.3428909901718495,
                -1.453907285361213,
                1.4886029149781983,
                0.258237472118154,
                1.0348458100824893
            ]
        },
        {
            "positions": [
                2.161878388207176,
                -1.3365245211803818,
                -1.3548200228634697,
                1.422255743910156,
                0.26430542351406155,
                0.9155445715667285
            ]
        },
        {
            "positions": [
                2.0660334297101595,
                -1.3301580521889138,
                -1.2557327603657267,
                1.355908572842114,
                0.27037337490996904,
                0.7962433330509675
            ]
        },
        {
            "positions": [
                1.9701884712131434,
                -1.323791583197446,
                -1.1566454978679834,
                1.2895614017740717,
                0.27644132630587653,
                0.6769420945352067
            ]
        },
        {
            "positions": [
                1.874343512716127,
                -1.317425114205978,
                -1.0575582353702404,
                1.2232142307060294,
                0.2825092777017841,
                0.5576408560194457
            ]
        },
        {
            "positions": [
                1.778498554219111,
                -1.31105864521451,
                -0.9584709728724974,
                1.1568670596379873,
                0.28857722909769157,
                0.4383396175036849
            ]
        },
        {
            "positions": [
                1.6826535957220947,
                -1.3046921762230423,
                -0.8593837103747541,
                1.0905198885699452,
                0.2946451804935991,
                0.31903837898792387
            ]
        },
        {
            "positions": [
                1.5868086372250785,
                -1.2983257072315744,
                -0.7602964478770111,
                1.0241727175019029,
                0.30071313188950655,
                0.19973714047216307
            ]
        },
        {
            "positions": [
                1.4909636787280622,
                -1.2919592382401064,
                -0.6612091853792679,
                0.9578255464338606,
                0.3067810832854141,
                0.08043590195640204
            ]
        },
        {
            "positions": [
                1.3951187202310462,
                -1.2855927692486386,
                -0.5621219228815248,
                0.8914783753658184,
                0.3128490346813216,
                -0.03886533655935853
            ]
        },
        {
            "positions": [
                1.2992737617340298,
                -1.2792263002571707,
                -0.4630346603837816,
                0.8251312042977763,
                0.3189169860772291,
                -0.15816657507511955
            ]
        },
        {
            "positions": [
                1.2034288032370137,
                -1.2728598312657027,
                -0.3639473978860388,
                0.7587840332297342,
                0.3249849374731366,
                -0.2774678135908806
            ]
        },
        {
            "positions": [
                1.1075838447399975,
                -1.266493362274235,
                -0.26486013538829556,
                0.6924368621616919,
                0.3310528888690441,
                -0.3967690521066416
            ]
        },
        {
            "positions": [
                1.0117388862429813,
                -1.260126893282767,
                -0.16577287289055254,
                0.6260896910936498,
                0.3371208402649516,
                -0.5160702906224022
            ]
        },
        {
            "positions": [
                0.915893927745965,
                -1.2537604242912992,
                -0.06668561039280929,
                0.5597425200256074,
                0.34318879166085914,
                -0.6353715291381632
            ]
        },
        {
            "positions": [
                0.8200489692489485,
                -1.2473939552998312,
                0.03240165210493373,
                0.4933953489575651,
                0.3492567430567667,
                -0.7546727676539242
            ]
        },
        {
            "positions": [
                0.7242040107519325,
                -1.2410274863083632,
                0.1314889146026772,
                0.42704817788952276,
                0.3553246944526742,
                -0.8739740061696852
            ]
        },
        {
            "positions": [
                0.6283590522549165,
                -1.2346610173168955,
                0.23057617710041978,
                0.3607010068214809,
                0.36139264584858166,
                -0.9932752446854458
            ]
        },
        {
            "positions": [
                0.5325140937579,
                -1.2282945483254275,
                0.32966343959816324,
                0.29435383575343854,
                0.3674605972444892,
                -1.1125764832012068
            ]
        },
        {
            "positions": [
                0.436669135260884,
                -1.2219280793339595,
                0.42875070209590627,
                0.22800666468539643,
                0.3735285486403967,
                -1.2318777217169679
            ]
        },
        {
            "positions": [
                0.34082417676386756,
                -1.2155616103424918,
                0.5278379645936497,
                0.1616594936173541,
                0.3795965000363042,
                -1.3511789602327289
            ]
        },
        {
            "positions": [
                0.24497921826685154,
                -1.2091951413510238,
                0.6269252270913923,
                0.09531232254931199,
                0.3856644514322117,
                -1.4704801987484895
            ]
        },
        {
            "positions": [
                0.14913425976983552,
                -1.2028286723595558,
                0.7260124895891353,
                0.02896515148126988,
                0.39173240282811916,
                -1.5897814372642505
            ]
        },
        {
            "positions": [
                0.053289301272819056,
                -1.196462203368088,
                0.8250997520868788,
                -0.03738201958677245,
                0.3978003542240267,
                -1.7090826757800115
            ]
        },
        {
            "positions": [
                -0.04255565722419741,
                -1.19009573437662,
                0.9241870145846218,
                -0.10372919065481456,
                0.40386830561993425,
                -1.8283839142957725
            ]
        },
        {
            "positions": [
                -0.13840061572121298,
                -1.183729265385152,
                1.0232742770823648,
                -0.1700763617228569,
                0.4099362570158417,
                -1.9476851528115326
            ]
        },
        {
            "positions": [
                -0.23424557421822945,
                -1.1773627963936844,
                1.1223615395801079,
                -0.23642353279089878,
                0.41600420841174923,
                -2.0669863913272937
            ]
        },
        {
            "positions": [
                -0.3300905327152459,
                -1.1709963274022164,
                1.2214488020778513,
                -0.3027707038589411,
                0.4220721598076568,
                -2.1862876298430547
            ]
        },
        {
            "positions": [
                -0.42593549121226193,
                -1.1646298584107484,
                1.3205360645755944,
                -0.36911787492698345,
                0.42814011120356427,
                -2.3055888683588157
            ]
        },
        {
            "positions": [
                -0.521780449709278,
                -1.1582633894192806,
                1.419623327073337,
                -0.43546504599502533,
                0.43420806259947176,
                -2.4248901068745767
            ]
        },
        {
            "positions": [
                -0.6176254082062944,
                -1.1518969204278127,
                1.5187105895710804,
                -0.5018122170630677,
                0.44027601399537925,
                -2.5441913453903378
            ]
        },
        {
            "positions": [
                -0.7134703667033104,
                -1.145530451436345,
                1.6177978520688234,
                -0.56815938813111,
                0.44634396539128673,
                -2.6634925839060988
            ]
        },
        {
            "positions": [
                -0.8093153252003269,
                -1.139163982444877,
                1.716885114566567,
                -0.6345065591991523,
                0.4524119167871943,
                -2.78279382242186
            ]
        },
        {
            "positions": [
                -0.9051602836973429,
                -1.132797513453409,
                1.8159723770643095,
                -0.7008537302671942,
                0.45847986818310177,
                -2.90209506093762
            ]
        },
        {
            "positions": [
                -1.001005242194359,
                -1.1264310444619412,
                1.9150596395620525,
                -0.7672009013352366,
                0.46454781957900926,
                -3.021396299453381
            ]
        },
        {
            "positions": [
                -1.096850200691375,
                -1.1200645754704732,
                2.014146902059796,
                -0.8335480724032788,
                0.4706157709749168,
                -3.140697537969142
            ]
        }
    ]
}