{
    "goal": {
        "global_pose": {
            "orientation": {
                "w": 0.5084816217422485,
                "x": -0.49083608388900757,
                "y": 0.5182115435600281,
                "z": -0.4816462993621826
            },
            "position": {
                "x": 0.5540239810943604,
                "y": 0.030875300988554955,
                "z": 0.16403168439865112
            }
        },
        "name": "move_to_storage_A"
    },
    "id": "BKPIECE_move_to_storage_A_69",
    "joint_names": [
        "shoulder_pan_joint",
        "shoulder_lift_joint",
        "elbow_joint",
        "wrist_1_joint",
        "wrist_2_joint",
        "wrist_3_joint"
    ],
    "metrics": {
        "cart_traj_len": 0.35352391612115597,
        "distance_elbow_joint": 0.4502276189106045,
        "distance_shoulder_lift_joint": 0.2350290494592706,
        "distance_shoulder_pan_joint": 0.4643645621889625,
        "distance_wrist_1_joint": 0.24608997395536936,
        "distance_wrist_2_joint": 1.0906615843316523,
        "distance_wrist_3_joint": 0.10287653240617489,
        "smoothness": 0.0,
        "time": 1.630509243,
        "traj_len": 1.6091144525023802,
        "weighted_distance": 2.0326716272805614
    },
    "planner": "BKPIECE",
    "start": {
        "state": {
            "elbow_joint": 1.9715474177455299,
            "shoulder_lift_joint": -1.139484666580328,
            "shoulder_pan_joint": 0.12281154398918248,
            "wrist_1_joint": -0.7804687475355282,
            "wrist_2_joint": 0.12958649657246987,
            "wrist_3_joint": -3.1924925159053466
        }
    },
    "waypoints": [
        {
            "positions": [
                0.12281154398918248,
                -1.139484666580328,
                1.9715474177455299,
                -0.7804687475355282,
                0.12958649657246987,
                -3.1924925159053466
            ]
        },
        {
            "positions": [
                0.056473749390759276,
                -1.1730602450745096,
                2.0358656490184734,
                -0.8156244581005809,
                0.2853952943341345,
                -3.17779586841875
            ]
        },
        {
            "positions": [
                -0.00986404520766393,
                -1.206635823568691,
                2.100183880291417,
                -0.8507801686656338,
                0.44120409209579914,
                -3.163099220932154
            ]
        },
        {
            "positions": [
                -0.07620183980608713,
                -1.2402114020628725,
                2.1645021115643606,
                -0.8859358792306865,
                0.5970128898574638,
                -3.148402573445557
            ]
        },
        {
            "positions": [
                -0.14253963440451034,
                -1.273786980557054,
                2.2288203428373037,
                -0.9210915897957392,
                0.7528216876191285,
                -3.133705925958961
            ]
        },
        {
            "positions": [
                -0.2088774290029336,
                -1.3073625590512357,
                2.2931385741102472,
                -0.9562473003607921,
                0.9086304853807932,
                -3.1190092784723644
            ]
        },
        {
            "positions": [
                -0.27521522360135675,
                -1.340938137545417,
                2.357456805383191,
                -0.9914030109258447,
                1.0644392831424576,
                -3.1043126309857683
            ]
        },
        {
            "positions": [
                -0.34155301819978,
                -1.3745137160395986,
                2.4217750366561344,
                -1.0265587214908976,
                1.2202480809041223,
                -3.0896159834991717
            ]
        }
    ]
}