{
    "goal": {
        "global_pose": {
            "orientation": {
                "w": -0.00223480608172531,
                "x": 0.0024358444001904467,
                "y": 0.7094548369677653,
                "z": -0.704743149386269
            },
            "position": {
                "x": -0.37947507619857795,
                "y": -0.6371506643295288,
                "z": 0.19426114857196808
            }
        },
        "name": "move_to_magneteinheit_C"
    },
    "id": "BKPIECE_move_to_magneteinheit_C_27",
    "joint_names": [
        "shoulder_pan_joint",
        "shoulder_lift_joint",
        "elbow_joint",
        "wrist_1_joint",
        "wrist_2_joint",
        "wrist_3_joint"
    ],
    "metrics": {
        "cart_traj_len": 1.4946332555967692,
        "distance_elbow_joint": 1.1176928755894702,
        "distance_shoulder_lift_joint": 1.2833163673698786,
        "distance_shoulder_pan_joint": 1.2267046110769226,
        "distance_wrist_1_joint": 2.054682933846366,
        "distance_wrist_2_joint": 2.3700999207100706,
        "distance_wrist_3_joint": 1.782236712298674,
        "smoothness": 0.580432416568981,
        "time": 0.56786346,
        "traj_len": 3.1360378538677405,
        "weighted_distance": 4.221846716786999
    },
    "planner": "BKPIECE",
    "start": {
        "state": {
            "elbow_joint": 1.9565354006590394,
            "shoulder_lift_joint": -1.4165861576513559,
            "shoulder_pan_joint": -1.6717766223277177,
            "wrist_1_joint": -0.5286633288215096,
            "wrist_2_joint": 1.4727565892594296,
            "wrist_3_joint": 3.1593482883155493
        }
    },
    "waypoints": [
        {
            "positions": [
                -1.6717766223277177,
                -1.4165861576513559,
                1.9565354006590394,
                -0.5286633288215096,
                1.4727565892594296,
                3.1593482883155493
            ]
        },
        {
            "positions": [
                -1.698404599277799,
                -1.4901421098469034,
                1.92719210954512,
                -0.43406973218978306,
                1.4159257158595064,
                3.0984767347342324
            ]
        },
        {
            "positions": [
                -1.72503257622788,
                -1.5636980620424512,
                1.897848818431201,
                -0.33947613555805656,
                1.3590948424595835,
                3.037605181152916
            ]
        },
        {
            "positions": [
                -1.7516605531779612,
                -1.6372540142379988,
                1.8685055273172817,
                -0.24488253892633,
                1.3022639690596602,
                2.976733627571599
            ]
        },
        {
            "positions": [
                -1.7782885301280422,
                -1.7108099664335465,
                1.8391622362033626,
                -0.1502889422946035,
                1.2454330956597373,
                2.915862073990282
            ]
        },
        {
            "positions": [
                -1.8049165070781235,
                -1.784365918629094,
                1.8098189450894433,
                -0.05569534566287693,
                1.188602222259814,
                2.854990520408965
            ]
        },
        {
            "positions": [
                -1.8315444840282045,
                -1.8579218708246419,
                1.7804756539755242,
                0.03889825096884958,
                1.131771348859891,
                2.7941189668276487
            ]
        },
        {
            "positions": [
                -1.8581724609782857,
                -1.9314778230201894,
                1.751132362861605,
                0.13349184760057614,
                1.0749404754599678,
                2.733247413246332
            ]
        },
        {
            "positions": [
                -1.9308603509406614,
                -1.8726696758291939,
                1.7146762862624623,
                0.15262941640279287,
                0.9435281848682084,
                2.687779451401276
            ]
        },
        {
            "positions": [
                -2.0035482409030374,
                -1.8138615286381983,
                1.6782202096633196,
                0.17176698520500958,
                0.812115894276449,
                2.6423114895562194
            ]
        },
        {
            "positions": [
                -2.0762361308654134,
                -1.7550533814472027,
                1.6417641330641772,
                0.19090455400722628,
                0.6807036036846896,
                2.5968435277111634
            ]
        },
        {
            "positions": [
                -2.148924020827789,
                -1.696245234256207,
                1.6053080564650346,
                0.210042122809443,
                0.5492913130929302,
                2.551375565866107
            ]
        },
        {
            "positions": [
                -2.221611910790165,
                -1.6374370870652113,
                1.568851979865892,
                0.22917969161165974,
                0.4178790225011708,
                2.505907604021051
            ]
        },
        {
            "positions": [
                -2.294299800752541,
                -1.578628939874216,
                1.5323959032667493,
                0.24831726041387644,
                0.2864667319094114,
                2.4604396421759946
            ]
        },
        {
            "positions": [
                -2.3669876907149163,
                -1.5198207926832201,
                1.4959398266676067,
                0.2674548292160932,
                0.155054441317652,
                2.4149716803309387
            ]
        },
        {
            "positions": [
                -2.4396755806772923,
                -1.4610126454922245,
                1.4594837500684643,
                0.2865923980183099,
                0.023642150725892597,
                2.3695037184858823
            ]
        },
        {
            "positions": [
                -2.5123634706396683,
                -1.402204498301229,
                1.4230276734693217,
                0.3057299668205266,
                -0.10777013986586684,
                2.3240357566408263
            ]
        },
        {
            "positions": [
                -2.5989382605395055,
                -1.3336092997099873,
                1.4234287620149861,
                0.32910976572685524,
                -0.09552407580226831,
                2.286707617078304
            ]
        },
        {
            "positions": [
                -2.6855130504393427,
                -1.2650141011187457,
                1.4238298505606508,
                0.3524895646331839,
                -0.08327801173866978,
                2.249379477515781
            ]
        },
        {
            "positions": [
                -2.664216232142813,
                -1.2548180031087854,
                1.4821681476914932,
                0.23513656059401672,
                -0.006769905392912057,
                2.3366062676656716
            ]
        },
        {
            "positions": [
                -2.642919413846283,
                -1.2446219050988254,
                1.5405064448223356,
                0.11778355655484951,
                0.06973820095284566,
                2.4238330578155622
            ]
        },
        {
            "positions": [
                -2.6216225955497534,
                -1.2344258070888654,
                1.5988447419531777,
                0.00043055251568235864,
                0.14624630729860338,
                2.5110598479654525
            ]
        },
        {
            "positions": [
                -2.600325777253224,
                -1.2242297090789052,
                1.65718303908402,
                -0.1169224515234849,
                0.2227544136443611,
                2.598286638115343
            ]
        },
        {
            "positions": [
                -2.5790289589566937,
                -1.214033611068945,
                1.7155213362148625,
                -0.23427545556265206,
                0.2992625199901188,
                2.6855134282652338
            ]
        },
        {
            "positions": [
                -2.557732140660164,
                -1.203837513058985,
                1.7738596333457048,
                -0.3516284596018192,
                0.37577062633587655,
                2.7727402184151244
            ]
        },
        {
            "positions": [
                -2.5364353223636344,
                -1.1936414150490249,
                1.8321979304765472,
                -0.46898146364098636,
                0.4522787326816342,
                2.8599670085650146
            ]
        },
        {
            "positions": [
                -2.515138504067105,
                -1.1834453170390646,
                1.8905362276073894,
                -0.5863344676801537,
                0.528786839027392,
                2.9471937987149053
            ]
        },
        {
            "positions": [
                -2.4938416857705747,
                -1.1732492190291044,
                1.948874524738232,
                -0.7036874717193208,
                0.6052949453731498,
                3.034420588864796
            ]
        },
        {
            "positions": [
                -2.472544867474045,
                -1.1630531210191444,
                2.007212821869074,
                -0.821040475758488,
                0.6818030517189074,
                3.1216473790146866
            ]
        }
    ]
}