{
    "goal": {
        "global_pose": {
            "orientation": {
                "w": -0.4816463035849501,
                "x": 0.5182115481033762,
                "y": 0.4908360881923453,
                "z": -0.5084816262002911
            },
            "position": {
                "x": -0.8240239810943604,
                "y": -0.300875300988555,
                "z": 0.16403168439865112
            }
        },
        "name": "move_to_storage_C"
    },
    "id": "BKPIECE_move_to_storage_C_139",
    "joint_names": [
        "shoulder_pan_joint",
        "shoulder_lift_joint",
        "elbow_joint",
        "wrist_1_joint",
        "wrist_2_joint",
        "wrist_3_joint"
    ],
    "metrics": {
        "cart_traj_len": 0.5765461448304826,
        "distance_elbow_joint": 0.25791355522915427,
        "distance_shoulder_lift_joint": 0.18816989042948806,
        "distance_shoulder_pan_joint": 0.49581846666634544,
        "distance_wrist_1_joint": 0.08362203680301661,
        "distance_wrist_2_joint": 1.062566719889658,
        "distance_wrist_3_joint": 0.06413420251851676,
        "smoothness": 0.0,
        "time": 0.29584769299999997,
        "traj_len": 1.4670463085861263,
        "weighted_distance": 1.8511299341931369
    },
    "planner": "BKPIECE",
    "start": {
        "state": {
            "elbow_joint": 2.010868315001653,
            "shoulder_lift_joint": -1.1634956873357014,
            "shoulder_pan_joint": -2.4736205022346103,
            "wrist_1_joint": -0.8367026794713948,
            "wrist_2_joint": 0.6746043897044093,
            "wrist_3_joint": 3.1335220948105738
        }
    },
    "waypoints": [
        {
            "positions": [
                -2.4736205022346103,
                -1.1634956873357014,
                2.010868315001653,
                -0.8367026794713948,
                0.6746043897044093,
                3.1335220948105738
            ]
        },
        {
            "positions": [
                -2.556256913345668,
                -1.1321340389307868,
                1.9678827224634607,
                -0.8227656733375587,
                0.8516988430193523,
                3.14421112856366
            ]
        },
        {
            "positions": [
                -2.6388933244567254,
                -1.1007723905258722,
                1.9248971299252684,
                -0.8088286672037226,
                1.0287932963342952,
                3.154900162316746
            ]
        },
        {
            "positions": [
                -2.721529735567783,
                -1.0694107421209573,
                1.8819115373870758,
                -0.7948916610698864,
                1.2058877496492384,
                3.165589196069832
            ]
        },
        {
            "positions": [
                -2.8041661466788406,
                -1.0380490937160427,
                1.8389259448488835,
                -0.7809546549360503,
                1.3829822029641812,
                3.1762782298229184
            ]
        },
        {
            "positions": [
                -2.886802557789898,
                -1.006687445311128,
                1.7959403523106912,
                -0.7670176488022142,
                1.5600766562791244,
                3.1869672635760042
            ]
        },
        {
            "positions": [
                -2.9694389689009557,
                -0.9753257969062133,
                1.7529547597724988,
                -0.7530806426683782,
                1.7371711095940674,
                3.1976562973290905
            ]
        }
    ]
}