{
    "goal": {
        "global_pose": {
            "orientation": {
                "w": 0.5084816217422485,
                "x": -0.49083608388900757,
                "y": 0.5182115435600281,
                "z": -0.4816462993621826
            },
            "position": {
                "x": 0.5540239810943604,
                "y": 0.030875300988554955,
                "z": 0.16403168439865112
            }
        },
        "name": "move_to_storage_A"
    },
    "id": "BKPIECE_move_to_storage_A_118",
    "joint_names": [
        "shoulder_pan_joint",
        "shoulder_lift_joint",
        "elbow_joint",
        "wrist_1_joint",
        "wrist_2_joint",
        "wrist_3_joint"
    ],
    "metrics": {
        "cart_traj_len": 0.3528576506256933,
        "distance_elbow_joint": 0.44808736374193936,
        "distance_shoulder_lift_joint": 0.2344819110163412,
        "distance_shoulder_pan_joint": 0.4625841627946324,
        "distance_wrist_1_joint": 0.23492455423332326,
        "distance_wrist_2_joint": 1.0931651377648763,
        "distance_wrist_3_joint": 0.0866366117774593,
        "smoothness": 0.0,
        "time": 2.2656510279999997,
        "traj_len": 1.5999624187238184,
        "weighted_distance": 2.0152525044970644
    },
    "planner": "BKPIECE",
    "start": {
        "state": {
            "elbow_joint": 1.9715474177455299,
            "shoulder_lift_joint": -1.139484666580328,
            "shoulder_pan_joint": 0.12281154398918248,
            "wrist_1_joint": -0.7804687475355282,
            "wrist_2_joint": 0.12958649657246987,
            "wrist_3_joint": -3.1924925159053466
        }
    },
    "waypoints": [
        {
            "positions": [
                0.12281154398918248,
                -1.139484666580328,
                1.9715474177455299,
                -0.7804687475355282,
                0.12958649657246987,
                -3.1924925159053466
            ]
        },
        {
            "positions": [
                0.05672809216137786,
                -1.1729820824398054,
                2.0355598982800926,
                -0.8140293981402886,
                0.28575294482459507,
                -3.1801158570799952
            ]
        },
        {
            "positions": [
                -0.009355359666426755,
                -1.2064794982992826,
                2.0995723788146554,
                -0.8475900487450492,
                0.44191939307672023,
                -3.167739198254644
            ]
        },
        {
            "positions": [
                -0.07543881149423137,
                -1.23997691415876,
                2.163584859349218,
                -0.8811506993498096,
                0.5980858413288455,
                -3.1553625394292926
            ]
        },
        {
            "positions": [
                -0.141522263322036,
                -1.2734743300182372,
                2.227597339883781,
                -0.91471134995457,
                0.7542522895809707,
                -3.1429858806039412
            ]
        },
        {
            "positions": [
                -0.20760571514984066,
                -1.3069717458777146,
                2.2916098204183437,
                -0.9482720005593306,
                0.9104187378330959,
                -3.13060922177859
            ]
        },
        {
            "positions": [
                -0.2736891669776452,
                -1.3404691617371918,
                2.3556223009529065,
                -0.9818326511640909,
                1.066585186085221,
                -3.1182325629532386
            ]
        },
        {
            "positions": [
                -0.3397726188054499,
                -1.3739665775966692,
                2.4196347814874692,
                -1.0153933017688515,
                1.2227516343373461,
                -3.1058559041278873
            ]
        }
    ]
}