{
    "goal": {
        "global_pose": {
            "orientation": {
                "w": 0.7031023502349854,
                "x": -0.7110244035720825,
                "y": 0.007748599164187908,
                "z": 0.005598929710686207
            },
            "position": {
                "x": 0.11585023208521307,
                "y": 0.44412534475326537,
                "z": 0.3711530566215515
            }
        },
        "name": "move_to_auspresseinheit_A"
    },
    "id": "BKPIECE_move_to_auspresseinheit_A_130",
    "joint_names": [
        "shoulder_pan_joint",
        "shoulder_lift_joint",
        "elbow_joint",
        "wrist_1_joint",
        "wrist_2_joint",
        "wrist_3_joint"
    ],
    "metrics": {
        "cart_traj_len": 2.2339903982232423,
        "distance_elbow_joint": 0.30904129975664896,
        "distance_shoulder_lift_joint": 2.2669224580121954,
        "distance_shoulder_pan_joint": 6.088978397219574,
        "distance_wrist_1_joint": 2.457316397737098,
        "distance_wrist_2_joint": 0.8710577354926848,
        "distance_wrist_3_joint": 8.036269225889008,
        "smoothness": 0.620979839767523,
        "time": 1.106695984,
        "traj_len": 4.475442493665539,
        "weighted_distance": 6.279370836247452
    },
    "planner": "BKPIECE",
    "start": {
        "state": {
            "elbow_joint": 2.4225747245308327,
            "shoulder_lift_joint": -1.373653427065438,
            "shoulder_pan_joint": -0.33786330853087027,
            "wrist_1_joint": -1.0288602302712604,
            "wrist_2_joint": 1.23302299562683,
            "wrist_3_joint": -3.094021725338297
        }
    },
    "waypoints": [
        {
            "positions": [
                -0.33786330853087027,
                -1.373653427065438,
                2.4225747245308327,
                -1.0288602302712604,
                1.23302299562683,
                -3.094021725338297
            ]
        },
        {
            "positions": [
                -0.4430122922259587,
                -1.4319883152766661,
                2.428336136421999,
                -1.0680988778854665,
                1.2401302945008443,
                -2.9274824204063075
            ]
        },
        {
            "positions": [
                -0.5481612759210471,
                -1.4903232034878944,
                2.434097548313165,
                -1.107337525499673,
                1.2472375933748585,
                -2.7609431154743183
            ]
        },
        {
            "positions": [
                -0.6533102596161355,
                -1.5486580916991224,
                2.4398589602043312,
                -1.146576173113879,
                1.254344892248873,
                -2.5944038105423286
            ]
        },
        {
            "positions": [
                -0.758459243311224,
                -1.6069929799103506,
                2.4456203720954974,
                -1.1858148207280852,
                1.261452191122887,
                -2.427864505610339
            ]
        },
        {
            "positions": [
                -0.8636082270063126,
                -1.6653278681215788,
                2.4513817839866636,
                -1.2250534683422916,
                1.2685594899969015,
                -2.2613252006783493
            ]
        },
        {
            "positions": [
                -0.9687572107014009,
                -1.723662756332807,
                2.45714319587783,
                -1.2642921159564977,
                1.275666788870916,
                -2.0947858957463596
            ]
        },
        {
            "positions": [
                -1.0739061943964894,
                -1.7819976445440353,
                2.4629046077689956,
                -1.303530763570704,
                1.28277408774493,
                -1.9282465908143702
            ]
        },
        {
            "positions": [
                -1.1790551780915777,
                -1.8403325327552633,
                2.4686660196601617,
                -1.3427694111849102,
                1.2898813866189445,
                -1.7617072858823808
            ]
        },
        {
            "positions": [
                -1.2842041617866662,
                -1.8986674209664915,
                2.474427431551328,
                -1.3820080587991166,
                1.2969886854929586,
                -1.5951679809503911
            ]
        },
        {
            "positions": [
                -1.3893531454817547,
                -1.9570023091777198,
                2.480188843442494,
                -1.4212467064133227,
                1.304095984366973,
                -1.4286286760184017
            ]
        },
        {
            "positions": [
                -1.494502129176843,
                -2.015337197388948,
                2.4859502553336603,
                -1.4604853540275289,
                1.3112032832409872,
                -1.2620893710864123
            ]
        },
        {
            "positions": [
                -1.5996511128719315,
                -2.073672085600176,
                2.4917116672248265,
                -1.4997240016417352,
                1.3183105821150016,
                -1.0955500661544226
            ]
        },
        {
            "positions": [
                -1.7048000965670198,
                -2.1320069738114045,
                2.4974730791159927,
                -1.5389626492559412,
                1.325417880989016,
                -0.9290107612224334
            ]
        },
        {
            "positions": [
                -1.8099490802621085,
                -2.1903418620226325,
                2.503234491007159,
                -1.5782012968701475,
                1.3325251798630302,
                -0.7624714562904433
            ]
        },
        {
            "positions": [
                -1.9150980639571968,
                -2.2486767502338605,
                2.508995902898325,
                -1.617439944484354,
                1.3396324787370446,
                -0.5959321513584541
            ]
        },
        {
            "positions": [
                -2.020247047652285,
                -2.307011638445089,
                2.5147573147894913,
                -1.65667859209856,
                1.3467397776110588,
                -0.42939284642646447
            ]
        },
        {
            "positions": [
                -2.125396031347374,
                -2.365346526656317,
                2.5205187266806575,
                -1.6959172397127662,
                1.3538470764850732,
                -0.2628535414944748
            ]
        },
        {
            "positions": [
                -2.230545015042462,
                -2.423681414867545,
                2.526280138571823,
                -1.7351558873269726,
                1.3609543753590874,
                -0.09631423656248517
            ]
        },
        {
            "positions": [
                -2.3356939987375505,
                -2.4820163030787734,
                2.5320415504629894,
                -1.7743945349411787,
                1.3680616742331018,
                0.07022506836950404
            ]
        },
        {
            "positions": [
                -2.440842982432639,
                -2.540351191290002,
                2.5378029623541556,
                -1.8136331825553849,
                1.3751689731071162,
                0.2367643733014937
            ]
        },
        {
            "positions": [
                -2.5459919661277275,
                -2.59868607950123,
                2.543564374245322,
                -1.8528718301695912,
                1.3822762719811303,
                0.40330367823348334
            ]
        },
        {
            "positions": [
                -2.651140949822816,
                -2.657020967712458,
                2.549325786136488,
                -1.8921104777837974,
                1.3893835708551447,
                0.5698429831654725
            ]
        },
        {
            "positions": [
                -2.7562899335179045,
                -2.7153558559236863,
                2.555087198027654,
                -1.9313491253980037,
                1.396490869729159,
                0.7363822880974626
            ]
        },
        {
            "positions": [
                -2.861438917212993,
                -2.7736907441349143,
                2.5608486099188204,
                -1.9705877730122099,
                1.4035981686031733,
                0.9029215930294519
            ]
        },
        {
            "positions": [
                -2.7341031033366554,
                -2.742730560529817,
                2.554749773691368,
                -1.9164595996194904,
                1.3785809342275896,
                0.758659953475121
            ]
        },
        {
            "positions": [
                -2.6067672894603175,
                -2.71177037692472,
                2.548650937463916,
                -1.8623314262267707,
                1.353563699852006,
                0.6143983139207901
            ]
        },
        {
            "positions": [
                -2.47943147558398,
                -2.680810193319623,
                2.542552101236464,
                -1.8082032528340513,
                1.3285464654764225,
                0.4701366743664593
            ]
        },
        {
            "positions": [
                -2.3520956617076423,
                -2.649850009714526,
                2.5364532650090115,
                -1.7540750794413316,
                1.3035292311008388,
                0.32587503481212843
            ]
        },
        {
            "positions": [
                -2.224759847831305,
                -2.6188898261094287,
                2.5303544287815596,
                -1.699946906048612,
                1.2785119967252552,
                0.18161339525779752
            ]
        },
        {
            "positions": [
                -2.097424033954967,
                -2.5879296425043314,
                2.5242555925541073,
                -1.6458187326558924,
                1.2534947623496715,
                0.037351755703466716
            ]
        },
        {
            "positions": [
                -1.9700882200786296,
                -2.5569694588992347,
                2.518156756326655,
                -1.591690559263173,
                1.228477527974088,
                -0.1069098838508642
            ]
        },
        {
            "positions": [
                -1.842752406202292,
                -2.5260092752941374,
                2.512057920099203,
                -1.5375623858704532,
                1.2034602935985044,
                -0.251171523405195
            ]
        },
        {
            "positions": [
                -1.7154165923259541,
                -2.49504909168904,
                2.5059590838717507,
                -1.4834342124777338,
                1.1784430592229207,
                -0.395433162959526
            ]
        },
        {
            "positions": [
                -1.5880807784496167,
                -2.464088908083943,
                2.4998602476442984,
                -1.4293060390850143,
                1.153425824847337,
                -0.5396948025138568
            ]
        },
        {
            "positions": [
                -1.460744964573279,
                -2.433128724478846,
                2.4937614114168465,
                -1.3751778656922946,
                1.1284085904717536,
                -0.6839564420681876
            ]
        },
        {
            "positions": [
                -1.3334091506969414,
                -2.402168540873749,
                2.487662575189394,
                -1.321049692299575,
                1.10339135609617,
                -0.8282180816225184
            ]
        },
        {
            "positions": [
                -1.2060733368206038,
                -2.3712083572686518,
                2.481563738961942,
                -1.2669215189068554,
                1.0783741217205862,
                -0.9724797211768494
            ]
        },
        {
            "positions": [
                -1.0787375229442662,
                -2.3402481736635545,
                2.4754649027344895,
                -1.212793345514136,
                1.0533568873450025,
                -1.1167413607311802
            ]
        },
        {
            "positions": [
                -0.9514017090679285,
                -2.3092879900584578,
                2.4693660665070376,
                -1.1586651721214163,
                1.0283396529694189,
                -1.2610030002855108
            ]
        },
        {
            "positions": [
                -0.8240658951915911,
                -2.2783278064533605,
                2.4632672302795853,
                -1.1045369987286968,
                1.0033224185938354,
                -1.4052646398398418
            ]
        },
        {
            "positions": [
                -0.6967300813152533,
                -2.2473676228482633,
                2.457168394052133,
                -1.0504088253359773,
                0.9783051842182517,
                -1.5495262793941724
            ]
        },
        {
            "positions": [
                -0.5693942674389154,
                -2.216407439243166,
                2.451069557824681,
                -0.9962806519432575,
                0.9532879498426681,
                -1.693787918948504
            ]
        },
        {
            "positions": [
                -0.442058453562578,
                -2.185447255638069,
                2.4449707215972287,
                -0.942152478550538,
                0.9282707154670844,
                -1.838049558502835
            ]
        },
        {
            "positions": [
                -0.3147226396862406,
                -2.154487072032972,
                2.4388718853697764,
                -0.8880243051578185,
                0.9032534810915008,
                -1.9823111980571655
            ]
        },
        {
            "positions": [
                -0.18738682580990274,
                -2.123526888427875,
                2.4327730491423245,
                -0.8338961317650988,
                0.8782362467159173,
                -2.1265728376114965
            ]
        },
        {
            "positions": [
                -0.060051011933565324,
                -2.0925667048227776,
                2.426674212914872,
                -0.7797679583723793,
                0.8532190123403336,
                -2.270834477165827
            ]
        },
        {
            "positions": [
                0.06728480194277209,
                -2.061606521217681,
                2.42057537668742,
                -0.7256397849796599,
                0.82820177796475,
                -2.4150961167201577
            ]
        },
        {
            "positions": [
                0.19462061581910994,
                -2.0306463376125836,
                2.414476540459968,
                -0.6715116115869402,
                0.8031845435891664,
                -2.5593577562744887
            ]
        },
        {
            "positions": [
                0.3219564296954478,
                -1.9996861540074864,
                2.4083777042325156,
                -0.6173834381942205,
                0.7781673092135827,
                -2.70361939582882
            ]
        },
        {
            "positions": [
                0.4492922435717852,
                -1.9687259704023892,
                2.4022788680050633,
                -0.563255264801501,
                0.7531500748379991,
                -2.8478810353831507
            ]
        },
        {
            "positions": [
                0.5766280574481231,
                -1.937765786797292,
                2.3961800317776114,
                -0.5091270914087813,
                0.7281328404624154,
                -2.9921426749374818
            ]
        },
        {
            "positions": [
                0.7039638713244604,
                -1.906805603192195,
                2.390081195550159,
                -0.4549989180160618,
                0.7031156060868319,
                -3.1364043144918123
            ]
        }
    ]
}