{
    "goal": {
        "global_pose": {
            "orientation": {
                "w": 0.5084816262002911,
                "x": -0.4908360881923452,
                "y": 0.5182115481033761,
                "z": -0.48164630358495003
            },
            "position": {
                "x": 0.5540239810943604,
                "y": -0.46912469901144505,
                "z": 0.16403168439865112
            }
        },
        "name": "move_to_storage_B"
    },
    "id": "BKPIECE_move_to_storage_B_55",
    "joint_names": [
        "shoulder_pan_joint",
        "shoulder_lift_joint",
        "elbow_joint",
        "wrist_1_joint",
        "wrist_2_joint",
        "wrist_3_joint"
    ],
    "metrics": {
        "cart_traj_len": 0.6901035334630855,
        "distance_elbow_joint": 0.40774836778961965,
        "distance_shoulder_lift_joint": 0.4585543569155546,
        "distance_shoulder_pan_joint": 0.31745489684604966,
        "distance_wrist_1_joint": 3.020495838452202,
        "distance_wrist_2_joint": 2.7014540235254474,
        "distance_wrist_3_joint": 3.14202160150822,
        "smoothness": 0.14198019477850893,
        "time": 0.97628447,
        "traj_len": 3.1698153077170117,
        "weighted_distance": 4.696139068429638
    },
    "planner": "BKPIECE",
    "start": {
        "state": {
            "elbow_joint": 1.6649325706314817,
            "shoulder_lift_joint": -0.6616388048112454,
            "shoulder_pan_joint": -0.9139837860083814,
            "wrist_1_joint": 2.146757197745094,
            "wrist_2_joint": -2.234196043158733,
            "wrist_3_joint": 0.005471033829999897
        }
    },
    "waypoints": [
        {
            "positions": [
                -0.9139837860083814,
                -0.6616388048112454,
                1.6649325706314817,
                2.146757197745094,
                -2.234196043158733,
                0.005471033829999897
            ]
        },
        {
            "positions": [
                -0.8455536109403382,
                -0.738583504714395,
                1.6360292461889265,
                2.163245514260662,
                -2.108745027501744,
                -0.003990789884510019
            ]
        },
        {
            "positions": [
                -0.8555145998114585,
                -0.7538478909948912,
                1.6511830479228091,
                2.0430852133831965,
                -2.0057049071870057,
                -0.12929318099625842
            ]
        },
        {
            "positions": [
                -0.8654755886825787,
                -0.7691122772753874,
                1.6663368496566917,
                1.9229249125057313,
                -1.902664786872267,
                -0.2545955721080068
            ]
        },
        {
            "positions": [
                -0.875436577553699,
                -0.7843766635558836,
                1.6814906513905743,
                1.8027646116282658,
                -1.7996246665575288,
                -0.3798979632197552
            ]
        },
        {
            "positions": [
                -0.8853975664248193,
                -0.7996410498363798,
                1.6966444531244569,
                1.6826043107508004,
                -1.6965845462427904,
                -0.5052003543315037
            ]
        },
        {
            "positions": [
                -0.8953585552959396,
                -0.814905436116876,
                1.7117982548583395,
                1.5624440098733352,
                -1.593544425928052,
                -0.6305027454432521
            ]
        },
        {
            "positions": [
                -0.9053195441670597,
                -0.8301698223973722,
                1.726952056592222,
                1.4422837089958698,
                -1.4905043056133138,
                -0.7558051365550005
            ]
        },
        {
            "positions": [
                -0.91528053303818,
                -0.8454342086778684,
                1.7421058583261047,
                1.3221234081184043,
                -1.3874641852985752,
                -0.8811075276667489
            ]
        },
        {
            "positions": [
                -0.9252415219093003,
                -0.8606985949583646,
                1.7572596600599872,
                1.201963107240939,
                -1.284424064983837,
                -1.0064099187784972
            ]
        },
        {
            "positions": [
                -0.9352025107804205,
                -0.8759629812388607,
                1.7724134617938698,
                1.0818028063634737,
                -1.1813839446690988,
                -1.1317123098902455
            ]
        },
        {
            "positions": [
                -0.9451634996515408,
                -0.891227367519357,
                1.7875672635277524,
                0.9616425054860083,
                -1.0783438243543604,
                -1.257014701001994
            ]
        },
        {
            "positions": [
                -0.9551244885226611,
                -0.9064917537998531,
                1.802721065261635,
                0.8414822046085428,
                -0.975303704039622,
                -1.3823170921137424
            ]
        },
        {
            "positions": [
                -0.9650854773937814,
                -0.9217561400803493,
                1.8178748669955174,
                0.7213219037310776,
                -0.8722635837248838,
                -1.5076194832254908
            ]
        },
        {
            "positions": [
                -0.9750464662649017,
                -0.9370205263608455,
                1.8330286687294,
                0.6011616028536122,
                -0.7692234634101451,
                -1.6329218743372391
            ]
        },
        {
            "positions": [
                -0.9850074551360218,
                -0.9522849126413417,
                1.8481824704632825,
                0.48100130197614677,
                -0.6661833430954067,
                -1.7582242654489877
            ]
        },
        {
            "positions": [
                -0.9949684440071421,
                -0.9675492989218379,
                1.8633362721971651,
                0.36084100109868156,
                -0.5631432227806685,
                -1.8835266565607358
            ]
        },
        {
            "positions": [
                -1.0049294328782623,
                -0.9828136852023341,
                1.8784900739310477,
                0.24068070022121613,
                -0.4601031024659301,
                -2.0088290476724846
            ]
        },
        {
            "positions": [
                -1.0148904217493826,
                -0.9980780714828303,
                1.8936438756649303,
                0.12052039934375047,
                -0.3570629821511917,
                -2.134131438784233
            ]
        },
        {
            "positions": [
                -1.024851410620503,
                -1.0133424577633265,
                1.908797677398813,
                0.0003600984662854856,
                -0.2540228618364535,
                -2.2594338298959813
            ]
        },
        {
            "positions": [
                -1.0348123994916232,
                -1.0286068440438227,
                1.9239514791326955,
                -0.11980020241117995,
                -0.1509827415217151,
                -2.3847362210077296
            ]
        },
        {
            "positions": [
                -1.0447733883627435,
                -1.043871230324319,
                1.939105280866578,
                -0.23996050328864538,
                -0.0479426212069769,
                -2.5100386121194784
            ]
        },
        {
            "positions": [
                -1.0547343772338635,
                -1.0591356166048151,
                1.9542590826004607,
                -0.36012080416611036,
                0.055097499107761294,
                -2.6353410032312263
            ]
        },
        {
            "positions": [
                -1.0646953661049838,
                -1.0744000028853113,
                1.9694128843343433,
                -0.48028110504357624,
                0.15813761942249993,
                -2.760643394342975
            ]
        },
        {
            "positions": [
                -1.0746563549761041,
                -1.0896643891658075,
                1.9845666860682258,
                -0.6004414059210417,
                0.26117773973723857,
                -2.8859457854547235
            ]
        },
        {
            "positions": [
                -1.0846173438472244,
                -1.1049287754463037,
                1.9997204878021084,
                -0.7206017067985067,
                0.3642178600519763,
                -3.011248176566472
            ]
        },
        {
            "positions": [
                -1.0945783327183447,
                -1.1201931617268,
                2.014874289535991,
                -0.8407620076759721,
                0.46725798036671473,
                -3.13655056767822
            ]
        }
    ]
}