{
    "goal": {
        "global_pose": {
            "orientation": {
                "w": -0.4816463035849501,
                "x": 0.5182115481033762,
                "y": 0.4908360881923453,
                "z": -0.5084816262002911
            },
            "position": {
                "x": -0.8240239810943604,
                "y": 0.19912469901144506,
                "z": 0.16403168439865112
            }
        },
        "name": "move_to_storage_D"
    },
    "id": "BKPIECE_move_to_storage_D_1",
    "joint_names": [
        "shoulder_pan_joint",
        "shoulder_lift_joint",
        "elbow_joint",
        "wrist_1_joint",
        "wrist_2_joint",
        "wrist_3_joint"
    ],
    "metrics": {
        "cart_traj_len": 0.6966523209553425,
        "distance_elbow_joint": 0.5550520153449388,
        "distance_shoulder_lift_joint": 0.18949165165156323,
        "distance_shoulder_pan_joint": 0.2555924132463616,
        "distance_wrist_1_joint": 4.1750887037728734,
        "distance_wrist_2_joint": 1.7791273698930876,
        "distance_wrist_3_joint": 3.2182257794618345,
        "smoothness": 0.2841613738124893,
        "time": 0.497416362,
        "traj_len": 3.1894479041631416,
        "weighted_distance": 4.750078479979072
    },
    "planner": "BKPIECE",
    "start": {
        "state": {
            "elbow_joint": -2.384821997420982,
            "shoulder_lift_joint": -2.2788054674887404,
            "shoulder_pan_joint": -0.18546946417610016,
            "wrist_1_joint": 1.4845937964226739,
            "wrist_2_joint": 0.1789877726866377,
            "wrist_3_joint": 0.03710572555276528
        }
    },
    "waypoints": [
        {
            "positions": [
                -0.18546946417610016,
                -2.2788054674887404,
                -2.384821997420982,
                1.4845937964226739,
                0.1789877726866377,
                0.03710572555276528
            ]
        },
        {
            "positions": [
                -0.0936880154274365,
                -2.2070097152297574,
                -2.336512372127955,
                1.534186467984021,
                0.08804981797472237,
                0.04331594196087754
            ]
        },
        {
            "positions": [
                -0.03784584232447149,
                -2.1572837142723724,
                -2.2093311494815415,
                1.5972176075088595,
                0.03687088580718949,
                0.06501366894366317
            ]
        },
        {
            "positions": [
                0.017996330778493524,
                -2.1075577133149874,
                -2.082149926835128,
                1.6602487470336982,
                -0.014308046360343392,
                0.0867113959264488
            ]
        },
        {
            "positions": [
                0.015729956070155798,
                -2.1083509262488054,
                -2.071176885758646,
                1.486360322983183,
                -0.08325724422321756,
                -0.05105469577303601
            ]
        },
        {
            "positions": [
                0.013463581361818074,
                -2.109144139182623,
                -2.060203844682164,
                1.3124718989326678,
                -0.15220644208609174,
                -0.18882078747252082
            ]
        },
        {
            "positions": [
                0.011197206653480347,
                -2.109937352116441,
                -2.049230803605682,
                1.1385834748821526,
                -0.22115563994896595,
                -0.3265868791720056
            ]
        },
        {
            "positions": [
                0.008930831945142622,
                -2.110730565050259,
                -2.0382577625292,
                0.9646950508316375,
                -0.2901048378118401,
                -0.4643529708714904
            ]
        },
        {
            "positions": [
                0.0066644572368048955,
                -2.1115237779840768,
                -2.0272847214527183,
                0.7908066267811223,
                -0.3590540356747143,
                -0.6021190625709752
            ]
        },
        {
            "positions": [
                0.00439808252846717,
                -2.1123169909178943,
                -2.016311680376236,
                0.616918202730607,
                -0.4280032335375885,
                -0.73988515427046
            ]
        },
        {
            "positions": [
                0.0021317078201294436,
                -2.113110203851712,
                -2.0053386392997545,
                0.44302977868009186,
                -0.4969524314004627,
                -0.8776512459699449
            ]
        },
        {
            "positions": [
                -0.0001346668882082798,
                -2.11390341678553,
                -1.9943655982232724,
                0.2691413546295769,
                -0.5659016292633369,
                -1.0154173376694298
            ]
        },
        {
            "positions": [
                -0.00240104159654601,
                -2.114696629719348,
                -1.9833925571467905,
                0.09525293057906148,
                -0.6348508271262111,
                -1.1531834293689147
            ]
        },
        {
            "positions": [
                -0.0046674163048837335,
                -2.1154898426531656,
                -1.9724195160703084,
                -0.07863549347145349,
                -0.7038000249890852,
                -1.2909495210683994
            ]
        },
        {
            "positions": [
                -0.00693379101322146,
                -2.1162830555869836,
                -1.9614464749938265,
                -0.2525239175219689,
                -0.7727492228519595,
                -1.4287156127678844
            ]
        },
        {
            "positions": [
                -0.009200165721559184,
                -2.1170762685208016,
                -1.9504734339173446,
                -0.4264123415724841,
                -0.8416984207148337,
                -1.566481704467369
            ]
        },
        {
            "positions": [
                -0.011466540429896907,
                -2.1178694814546195,
                -1.9395003928408627,
                -0.600300765622999,
                -0.9106476185777078,
                -1.7042477961668536
            ]
        },
        {
            "positions": [
                -0.013732915138234637,
                -2.118662694388437,
                -1.9285273517643806,
                -0.7741891896735145,
                -0.979596816440582,
                -1.8420138878663388
            ]
        },
        {
            "positions": [
                -0.01599928984657236,
                -2.119455907322255,
                -1.9175543106878987,
                -0.9480776137240294,
                -1.0485460143034562,
                -1.9797799795658237
            ]
        },
        {
            "positions": [
                -0.018265664554910084,
                -2.120249120256073,
                -1.9065812696114168,
                -1.1219660377745444,
                -1.1174952121663302,
                -2.1175460712653082
            ]
        },
        {
            "positions": [
                -0.020532039263247814,
                -2.121042333189891,
                -1.895608228534935,
                -1.2958544618250598,
                -1.1864444100292044,
                -2.2553121629647928
            ]
        },
        {
            "positions": [
                -0.022798413971585545,
                -2.1218355461237084,
                -1.8846351874584528,
                -1.4697428858755752,
                -1.2553936078920787,
                -2.393078254664278
            ]
        },
        {
            "positions": [
                -0.025064788679923268,
                -2.1226287590575263,
                -1.873662146381971,
                -1.6436313099260902,
                -1.324342805754953,
                -2.5308443463637627
            ]
        },
        {
            "positions": [
                -0.02733116338826099,
                -2.1234219719913443,
                -1.862689105305489,
                -1.8175197339766052,
                -1.393292003617827,
                -2.6686104380632476
            ]
        },
        {
            "positions": [
                -0.029597538096598715,
                -2.1242151849251623,
                -1.8517160642290071,
                -1.9914081580271206,
                -1.4622412014807011,
                -2.806376529762732
            ]
        },
        {
            "positions": [
                -0.031863912804936445,
                -2.1250083978589798,
                -1.840743023152525,
                -2.165296582077636,
                -1.5311903993435754,
                -2.9441426214622175
            ]
        },
        {
            "positions": [
                -0.03413028751327417,
                -2.1258016107927977,
                -1.8297699820760431,
                -2.339185006128151,
                -1.6001395972064496,
                -3.081908713161702
            ]
        }
    ]
}