{
    "goal": {
        "global_pose": {
            "orientation": {
                "w": -0.4816463035849501,
                "x": 0.5182115481033762,
                "y": 0.4908360881923453,
                "z": -0.5084816262002911
            },
            "position": {
                "x": -0.8240239810943604,
                "y": -0.300875300988555,
                "z": 0.16403168439865112
            }
        },
        "name": "move_to_storage_C"
    },
    "id": "BKPIECE_move_to_storage_C_88",
    "joint_names": [
        "shoulder_pan_joint",
        "shoulder_lift_joint",
        "elbow_joint",
        "wrist_1_joint",
        "wrist_2_joint",
        "wrist_3_joint"
    ],
    "metrics": {
        "cart_traj_len": 0.5760491794306573,
        "distance_elbow_joint": 0.2591845802637778,
        "distance_shoulder_lift_joint": 0.18800958194550033,
        "distance_shoulder_pan_joint": 0.49507764844901603,
        "distance_wrist_1_joint": 0.08776627633239509,
        "distance_wrist_2_joint": 1.0624633201233107,
        "distance_wrist_3_joint": 0.058611792307325494,
        "smoothness": 2.5376526478085547e-16,
        "time": 0.785264061,
        "traj_len": 1.4666673785904305,
        "weighted_distance": 1.8489365539389615
    },
    "planner": "BKPIECE",
    "start": {
        "state": {
            "elbow_joint": 2.010868315001653,
            "shoulder_lift_joint": -1.1634956873357014,
            "shoulder_pan_joint": -2.4736205022346103,
            "wrist_1_joint": -0.8367026794713948,
            "wrist_2_joint": 0.6746043897044093,
            "wrist_3_joint": 3.1335220948105738
        }
    },
    "waypoints": [
        {
            "positions": [
                -2.4736205022346103,
                -1.1634956873357014,
                2.010868315001653,
                -0.8367026794713948,
                0.6746043897044093,
                3.1335220948105738
            ]
        },
        {
            "positions": [
                -2.5561334436427794,
                -1.1321607570114514,
                1.96767088495769,
                -0.8220749667493289,
                0.8516816097249611,
                3.1432907268617947
            ]
        },
        {
            "positions": [
                -2.638646385050949,
                -1.1008258266872013,
                1.9244734549137272,
                -0.807447254027263,
                1.0287588297455128,
                3.1530593589130156
            ]
        },
        {
            "positions": [
                -2.7211593264591185,
                -1.0694908963629512,
                1.8812760248697642,
                -0.7928195413051973,
                1.2058360497660647,
                3.1628279909642365
            ]
        },
        {
            "positions": [
                -2.8036722678672876,
                -1.0381559660387012,
                1.8380785948258012,
                -0.7781918285831314,
                1.3829132697866164,
                3.1725966230154574
            ]
        },
        {
            "positions": [
                -2.8861852092754567,
                -1.0068210357144511,
                1.7948811647818383,
                -0.7635641158610655,
                1.5599904898071681,
                3.1823652550666783
            ]
        },
        {
            "positions": [
                -2.9686981506836263,
                -0.9754861053902011,
                1.7516837347378753,
                -0.7489364031389997,
                1.7370677098277199,
                3.1921338871178992
            ]
        }
    ]
}