{
    "goal": {
        "global_pose": {
            "orientation": {
                "w": 0.7031023502349854,
                "x": -0.7110244035720825,
                "y": 0.007748599164187908,
                "z": 0.005598929710686207
            },
            "position": {
                "x": 0.11585023208521307,
                "y": 0.44412534475326537,
                "z": 0.3711530566215515
            }
        },
        "name": "move_to_auspresseinheit_A"
    },
    "id": "BKPIECE_move_to_auspresseinheit_A_99",
    "joint_names": [
        "shoulder_pan_joint",
        "shoulder_lift_joint",
        "elbow_joint",
        "wrist_1_joint",
        "wrist_2_joint",
        "wrist_3_joint"
    ],
    "metrics": {
        "cart_traj_len": 1.7893021184941005,
        "distance_elbow_joint": 0.9007647252407889,
        "distance_shoulder_lift_joint": 1.1748818991260668,
        "distance_shoulder_pan_joint": 3.845804530674843,
        "distance_wrist_1_joint": 7.327937130728981,
        "distance_wrist_2_joint": 7.163147577030129,
        "distance_wrist_3_joint": 3.1744091677461195,
        "smoothness": 0.5513364105354417,
        "time": 1.627245541,
        "traj_len": 4.856639273257479,
        "weighted_distance": 6.665346808216229
    },
    "planner": "BKPIECE",
    "start": {
        "state": {
            "elbow_joint": 2.4225747245308327,
            "shoulder_lift_joint": -1.373653427065438,
            "shoulder_pan_joint": -0.33786330853087027,
            "wrist_1_joint": -1.0288602302712604,
            "wrist_2_joint": 1.23302299562683,
            "wrist_3_joint": -3.094021725338297
        }
    },
    "waypoints": [
        {
            "positions": [
                -0.33786330853087027,
                -1.373653427065438,
                2.4225747245308327,
                -1.0288602302712604,
                1.23302299562683,
                -3.094021725338297
            ]
        },
        {
            "positions": [
                -0.3830570004018755,
                -1.401254974472524,
                2.4367081164053643,
                -0.9018784077362506,
                1.1089912783343308,
                -3.043178720534088
            ]
        },
        {
            "positions": [
                -0.4282506922728807,
                -1.42885652187961,
                2.4508415082798956,
                -0.7748965852012408,
                0.9849595610418317,
                -2.9923357157298787
            ]
        },
        {
            "positions": [
                -0.4734443841438859,
                -1.456458069286696,
                2.464974900154427,
                -0.6479147626662309,
                0.8609278437493326,
                -2.9414927109256697
            ]
        },
        {
            "positions": [
                -0.5186380760148912,
                -1.484059616693782,
                2.479108292028959,
                -0.5209329401312212,
                0.7368961264568334,
                -2.89064970612146
            ]
        },
        {
            "positions": [
                -0.5638317678858964,
                -1.5116611641008681,
                2.49324168390349,
                -0.3939511175962114,
                0.6128644091643344,
                -2.839806701317251
            ]
        },
        {
            "positions": [
                -0.6090254597569016,
                -1.5392627115079542,
                2.5073750757780218,
                -0.2669692950612015,
                0.4888326918718353,
                -2.7889636965130418
            ]
        },
        {
            "positions": [
                -0.6542191516279068,
                -1.5668642589150403,
                2.521508467652553,
                -0.1399874725261917,
                0.36480097457933625,
                -2.7381206917088328
            ]
        },
        {
            "positions": [
                -0.699412843498912,
                -1.5944658063221264,
                2.5356418595270847,
                -0.013005649991181922,
                0.24076925728683707,
                -2.6872776869046238
            ]
        },
        {
            "positions": [
                -0.7446065353699173,
                -1.6220673537292125,
                2.5497752514016163,
                0.11397617254382797,
                0.116737539994338,
                -2.6364346821004143
            ]
        },
        {
            "positions": [
                -0.7898002272409225,
                -1.6496689011362984,
                2.5639086432761475,
                0.24095799507883764,
                -0.007294177298161175,
                -2.5855916772962053
            ]
        },
        {
            "positions": [
                -0.8349939191119278,
                -1.6772704485433845,
                2.578042035150679,
                0.36793981761384753,
                -0.13132589459066035,
                -2.534748672491996
            ]
        },
        {
            "positions": [
                -0.880187610982933,
                -1.7048719959504706,
                2.592175427025211,
                0.4949216401488574,
                -0.2553576118831593,
                -2.483905667687787
            ]
        },
        {
            "positions": [
                -0.9253813028539382,
                -1.7324735433575567,
                2.606308818899742,
                0.6219034626838673,
                -0.3793893291756585,
                -2.4330626628835774
            ]
        },
        {
            "positions": [
                -0.9705749947249434,
                -1.7600750907646427,
                2.6204422107742738,
                0.748885285218877,
                -0.5034210464681574,
                -2.3822196580793684
            ]
        },
        {
            "positions": [
                -1.0157686865959485,
                -1.7876766381717288,
                2.6345756026488054,
                0.8758671077538869,
                -0.6274527637606566,
                -2.331376653275159
            ]
        },
        {
            "positions": [
                -1.0609623784669537,
                -1.8152781855788147,
                2.6487089945233366,
                1.0028489302888965,
                -0.7514844810531558,
                -2.28053364847095
            ]
        },
        {
            "positions": [
                -1.106156070337959,
                -1.8428797329859008,
                2.6628423863978683,
                1.1298307528239062,
                -0.8755161983456548,
                -2.229690643666741
            ]
        },
        {
            "positions": [
                -1.1513497622089643,
                -1.870481280392987,
                2.6769757782724,
                1.2568125753589163,
                -0.9995479156381539,
                -2.1788476388625315
            ]
        },
        {
            "positions": [
                -1.1965434540799695,
                -1.898082827800073,
                2.691109170146931,
                1.383794397893926,
                -1.123579632930653,
                -2.1280046340583225
            ]
        },
        {
            "positions": [
                -1.2417371459509747,
                -1.925684375207159,
                2.705242562021463,
                1.5107762204289357,
                -1.2476113502231523,
                -2.077161629254113
            ]
        },
        {
            "positions": [
                -1.28693083782198,
                -1.9532859226142452,
                2.7193759538959945,
                1.6377580429639453,
                -1.371643067515651,
                -2.026318624449904
            ]
        },
        {
            "positions": [
                -1.3321245296929851,
                -1.9808874700213313,
                2.7335093457705257,
                1.7647398654989555,
                -1.4956747848081506,
                -1.9754756196456948
            ]
        },
        {
            "positions": [
                -1.3773182215639903,
                -2.0084890174284173,
                2.7476427376450574,
                1.8917216880339651,
                -1.6197065021006494,
                -1.9246326148414856
            ]
        },
        {
            "positions": [
                -1.4225119134349955,
                -2.0360905648355034,
                2.761776129519589,
                2.018703510568975,
                -1.7437382193931485,
                -1.8737896100372764
            ]
        },
        {
            "positions": [
                -1.4677056053060007,
                -2.063692112242589,
                2.7759095213941203,
                2.1456853331039847,
                -1.8677699366856477,
                -1.8229466052330674
            ]
        },
        {
            "positions": [
                -1.512899297177006,
                -2.0912936596496756,
                2.790042913268652,
                2.2726671556389952,
                -1.991801653978147,
                -1.772103600428858
            ]
        },
        {
            "positions": [
                -1.5580929890480113,
                -2.1188952070567613,
                2.804176305143183,
                2.399648978174005,
                -2.115833371270646,
                -1.7212605956246487
            ]
        },
        {
            "positions": [
                -1.6032866809190163,
                -2.1464967544638474,
                2.818309697017715,
                2.5266308007090146,
                -2.239865088563145,
                -1.6704175908204397
            ]
        },
        {
            "positions": [
                -1.6484803727900215,
                -2.1740983018709334,
                2.8324430888922465,
                2.6536126232440242,
                -2.363896805855644,
                -1.6195745860162305
            ]
        },
        {
            "positions": [
                -1.6936740646610269,
                -2.2016998492780195,
                2.8465764807667777,
                2.780594445779034,
                -2.487928523148143,
                -1.5687315812120213
            ]
        },
        {
            "positions": [
                -1.738867756532032,
                -2.2293013966851056,
                2.8607098726413094,
                2.907576268314044,
                -2.6119602404406423,
                -1.517888576407812
            ]
        },
        {
            "positions": [
                -1.6573744204429095,
                -2.218660265701559,
                2.8452888867369657,
                2.794526247242588,
                -2.5013547624085537,
                -1.5711644437016665
            ]
        },
        {
            "positions": [
                -1.575881084353787,
                -2.2080191347180125,
                2.829867900832622,
                2.6814762261711325,
                -2.390749284376465,
                -1.624440310995521
            ]
        },
        {
            "positions": [
                -1.4943877482646641,
                -2.1973780037344657,
                2.8144469149282783,
                2.5684262050996765,
                -2.280143806344376,
                -1.6777161782893755
            ]
        },
        {
            "positions": [
                -1.4128944121755416,
                -2.186736872750919,
                2.7990259290239345,
                2.4553761840282204,
                -2.1695383283122873,
                -1.73099204558323
            ]
        },
        {
            "positions": [
                -1.331401076086419,
                -2.1760957417673725,
                2.783604943119591,
                2.342326162956765,
                -2.0589328502801987,
                -1.7842679128770844
            ]
        },
        {
            "positions": [
                -1.2499077399972964,
                -2.1654546107838257,
                2.768183957215247,
                2.229276141885309,
                -1.94832737224811,
                -1.837543780170939
            ]
        },
        {
            "positions": [
                -1.1684144039081739,
                -2.1548134798002794,
                2.7527629713109034,
                2.1162261208138533,
                -1.8377218942160214,
                -1.8908196474647934
            ]
        },
        {
            "positions": [
                -1.086921067819051,
                -2.1441723488167326,
                2.7373419854065593,
                2.0031760997423973,
                -1.7271164161839327,
                -1.9440955147586478
            ]
        },
        {
            "positions": [
                -1.0054277317299287,
                -2.1335312178331858,
                2.7219209995022156,
                1.8901260786709415,
                -1.6165109381518439,
                -1.9973713820525023
            ]
        },
        {
            "positions": [
                -0.9239343956408059,
                -2.1228900868496394,
                2.706500013597872,
                1.7770760575994857,
                -1.5059054601197552,
                -2.0506472493463566
            ]
        },
        {
            "positions": [
                -0.8424410595516834,
                -2.1122489558660926,
                2.691079027693528,
                1.6640260365280297,
                -1.3952999820876666,
                -2.1039231166402113
            ]
        },
        {
            "positions": [
                -0.7609477234625607,
                -2.101607824882546,
                2.6756580417891844,
                1.5509760154565737,
                -1.2846945040555777,
                -2.157198983934066
            ]
        },
        {
            "positions": [
                -0.679454387373438,
                -2.0909666938989995,
                2.6602370558848407,
                1.437925994385118,
                -1.1740890260234889,
                -2.21047485122792
            ]
        },
        {
            "positions": [
                -0.5979610512843154,
                -2.0803255629154527,
                2.644816069980497,
                1.3248759733136621,
                -1.0634835479914002,
                -2.2637507185217745
            ]
        },
        {
            "positions": [
                -0.5164677151951929,
                -2.069684431931906,
                2.6293950840761533,
                1.2118259522422064,
                -0.9528780699593116,
                -2.317026585815629
            ]
        },
        {
            "positions": [
                -0.4349743791060703,
                -2.0590433009483595,
                2.6139740981718096,
                1.0987759311707506,
                -0.8422725919272229,
                -2.3703024531094834
            ]
        },
        {
            "positions": [
                -0.3534810430169477,
                -2.0484021699648127,
                2.598553112267466,
                0.9857259100992948,
                -0.7316671138951343,
                -2.423578320403338
            ]
        },
        {
            "positions": [
                -0.27198770692782515,
                -2.0377610389812664,
                2.583132126363122,
                0.872675889027839,
                -0.6210616358630454,
                -2.4768541876971923
            ]
        },
        {
            "positions": [
                -0.19049437083870258,
                -2.0271199079977196,
                2.5677111404587785,
                0.759625867956383,
                -0.5104561578309568,
                -2.530130054991047
            ]
        },
        {
            "positions": [
                -0.10900103474957978,
                -2.0164787770141728,
                2.5522901545544348,
                0.6465758468849274,
                -0.3998506797988681,
                -2.5834059222849013
            ]
        },
        {
            "positions": [
                -0.027507698660457214,
                -2.0058376460306264,
                2.536869168650091,
                0.5335258258134714,
                -0.2892452017667795,
                -2.6366817895787555
            ]
        },
        {
            "positions": [
                0.053985637428665356,
                -1.9951965150470796,
                2.5214481827457473,
                0.4204758047420154,
                -0.17863972373469084,
                -2.6899576568726102
            ]
        },
        {
            "positions": [
                0.13547897351778815,
                -1.984555384063533,
                2.506027196841403,
                0.3074257836705594,
                -0.06803424570260175,
                -2.743233524166465
            ]
        },
        {
            "positions": [
                0.21697230960691072,
                -1.9739142530799865,
                2.4906062109370595,
                0.19437576259910339,
                0.0425712323294869,
                -2.7965093914603196
            ]
        },
        {
            "positions": [
                0.2984656456960333,
                -1.9632731220964397,
                2.4751852250327158,
                0.08132574152764782,
                0.15317671036157554,
                -2.8497852587541734
            ]
        },
        {
            "positions": [
                0.3799589817851561,
                -1.952631991112893,
                2.459764239128372,
                -0.03172427954380819,
                0.26378218839366463,
                -2.903061126048028
            ]
        },
        {
            "positions": [
                0.46145231787427843,
                -1.9419908601293465,
                2.4443432532240283,
                -0.14477430061526375,
                0.3743876664257533,
                -2.956336993341883
            ]
        },
        {
            "positions": [
                0.5429456539634012,
                -1.9313497291457997,
                2.4289222673196846,
                -0.25782432168671976,
                0.4849931444578419,
                -3.009612860635737
            ]
        },
        {
            "positions": [
                0.6244389900525236,
                -1.9207085981622531,
                2.413501281415341,
                -0.3708743427581753,
                0.5955986224899306,
                -3.0628887279295913
            ]
        },
        {
            "positions": [
                0.7059323261416466,
                -1.9100674671787066,
                2.398080295510997,
                -0.4839243638296312,
                0.7062041005220192,
                -3.116164595223446
            ]
        }
    ]
}