{
    "goal": {
        "global_pose": {
            "orientation": {
                "w": 0.5084816262002911,
                "x": -0.4908360881923452,
                "y": 0.5182115481033761,
                "z": -0.48164630358495003
            },
            "position": {
                "x": 0.5540239810943604,
                "y": -0.46912469901144505,
                "z": 0.16403168439865112
            }
        },
        "name": "move_to_storage_B"
    },
    "id": "BKPIECE_move_to_storage_B_126",
    "joint_names": [
        "shoulder_pan_joint",
        "shoulder_lift_joint",
        "elbow_joint",
        "wrist_1_joint",
        "wrist_2_joint",
        "wrist_3_joint"
    ],
    "metrics": {
        "cart_traj_len": 0.8446973058108274,
        "distance_elbow_joint": 0.34930693883424513,
        "distance_shoulder_lift_joint": 0.45765871108528655,
        "distance_shoulder_pan_joint": 0.657220662926561,
        "distance_wrist_1_joint": 2.980419783758591,
        "distance_wrist_2_joint": 2.7107545716183954,
        "distance_wrist_3_joint": 3.2731665359541204,
        "smoothness": 0.11977149260695685,
        "time": 1.547612365,
        "traj_len": 3.229323025678478,
        "weighted_distance": 4.760885908259347
    },
    "planner": "BKPIECE",
    "start": {
        "state": {
            "elbow_joint": 1.6649325706314817,
            "shoulder_lift_joint": -0.6616388048112454,
            "shoulder_pan_joint": -0.9139837860083814,
            "wrist_1_joint": 2.146757197745094,
            "wrist_2_joint": -2.234196043158733,
            "wrist_3_joint": 0.005471033829999897
        }
    },
    "waypoints": [
        {
            "positions": [
                -0.9139837860083814,
                -0.6616388048112454,
                1.6649325706314817,
                2.146757197745094,
                -2.234196043158733,
                0.005471033829999897
            ]
        },
        {
            "positions": [
                -0.834531784843127,
                -0.7266269361333944,
                1.7148709319092255,
                2.101624776892188,
                -2.1315022195107023,
                0.02672014894301824
            ]
        },
        {
            "positions": [
                -0.7550797836778727,
                -0.7916150674555433,
                1.7648092931869694,
                2.0564923560392816,
                -2.0288083958626713,
                0.04796926405603658
            ]
        },
        {
            "positions": [
                -0.6756277825126182,
                -0.8566031987776924,
                1.8147476544647132,
                2.0113599351863756,
                -1.9261145722146407,
                0.06921837916905493
            ]
        },
        {
            "positions": [
                -0.6930804766555682,
                -0.8675487953243107,
                1.8230598150897555,
                1.8928173301363809,
                -1.8260031930198781,
                -0.06450742043990612
            ]
        },
        {
            "positions": [
                -0.7105331707985181,
                -0.878494391870929,
                1.8313719757147977,
                1.7742747250863862,
                -1.7258918138251154,
                -0.19823322004886718
            ]
        },
        {
            "positions": [
                -0.727985864941468,
                -0.8894399884175473,
                1.83968413633984,
                1.6557321200363915,
                -1.6257804346303528,
                -0.33195901965782826
            ]
        },
        {
            "positions": [
                -0.7454385590844179,
                -0.9003855849641657,
                1.8479962969648822,
                1.5371895149863968,
                -1.52566905543559,
                -0.4656848192667893
            ]
        },
        {
            "positions": [
                -0.7628912532273678,
                -0.911331181510784,
                1.8563084575899245,
                1.418646909936402,
                -1.4255576762408275,
                -0.5994106188757504
            ]
        },
        {
            "positions": [
                -0.7803439473703178,
                -0.9222767780574023,
                1.8646206182149667,
                1.3001043048864074,
                -1.325446297046065,
                -0.7331364184847114
            ]
        },
        {
            "positions": [
                -0.7977966415132676,
                -0.9332223746040206,
                1.8729327788400087,
                1.1815616998364127,
                -1.2253349178513022,
                -0.8668622180936726
            ]
        },
        {
            "positions": [
                -0.8152493356562175,
                -0.9441679711506389,
                1.881244939465051,
                1.0630190947864182,
                -1.1252235386565397,
                -1.0005880177026336
            ]
        },
        {
            "positions": [
                -0.8327020297991674,
                -0.9551135676972572,
                1.8895571000900933,
                0.9444764897364235,
                -1.025112159461777,
                -1.1343138173115945
            ]
        },
        {
            "positions": [
                -0.8501547239421173,
                -0.9660591642438756,
                1.8978692607151355,
                0.8259338846864288,
                -0.9250007802670144,
                -1.268039616920556
            ]
        },
        {
            "positions": [
                -0.8676074180850673,
                -0.9770047607904938,
                1.9061814213401778,
                0.7073912796364341,
                -0.8248894010722518,
                -1.4017654165295168
            ]
        },
        {
            "positions": [
                -0.8850601122280172,
                -0.9879503573371122,
                1.91449358196522,
                0.5888486745864394,
                -0.7247780218774891,
                -1.5354912161384777
            ]
        },
        {
            "positions": [
                -0.9025128063709671,
                -0.9988959538837305,
                1.9228057425902623,
                0.47030606953644494,
                -0.6246666426827265,
                -1.6692170157474386
            ]
        },
        {
            "positions": [
                -0.919965500513917,
                -1.0098415504303488,
                1.9311179032153045,
                0.35176346448645,
                -0.5245552634879638,
                -1.8029428153564
            ]
        },
        {
            "positions": [
                -0.9374181946568669,
                -1.0207871469769672,
                1.9394300638403468,
                0.23322085943645532,
                -0.42444388429320123,
                -1.936668614965361
            ]
        },
        {
            "positions": [
                -0.9548708887998167,
                -1.0317327435235855,
                1.947742224465389,
                0.11467825438646084,
                -0.3243325050984387,
                -2.070394414574322
            ]
        },
        {
            "positions": [
                -0.9723235829427668,
                -1.0426783400702038,
                1.9560543850904313,
                -0.0038643506635342995,
                -0.22422112590367593,
                -2.204120214183283
            ]
        },
        {
            "positions": [
                -0.9897762770857166,
                -1.053623936616822,
                1.9643665457154733,
                -0.12240695571352855,
                -0.12410974670891317,
                -2.337846013792244
            ]
        },
        {
            "positions": [
                -1.0072289712286666,
                -1.0645695331634404,
                1.9726787063405156,
                -0.24094956076352325,
                -0.02399836751415063,
                -2.471571813401205
            ]
        },
        {
            "positions": [
                -1.0246816653716164,
                -1.0755151297100587,
                1.9809908669655578,
                -0.35949216581351795,
                0.07611301168061191,
                -2.6052976130101664
            ]
        },
        {
            "positions": [
                -1.0421343595145665,
                -1.086460726256677,
                1.9893030275906,
                -0.47803477086351265,
                0.17622439087537467,
                -2.7390234126191273
            ]
        },
        {
            "positions": [
                -1.0595870536575163,
                -1.0974063228032953,
                1.9976151882156423,
                -0.5965773759135073,
                0.276335770070137,
                -2.872749212228088
            ]
        },
        {
            "positions": [
                -1.077039747800466,
                -1.1083519193499136,
                2.0059273488406846,
                -0.715119980963502,
                0.37644714926489975,
                -3.0064750118370496
            ]
        },
        {
            "positions": [
                -1.094492441943416,
                -1.119297515896532,
                2.014239509465727,
                -0.8336625860134969,
                0.4765585284596624,
                -3.1402008114460105
            ]
        }
    ]
}