{
    "goal": {
        "global_pose": {
            "orientation": {
                "w": 0.7047431493862688,
                "x": -0.7094548369677653,
                "y": 0.0024358444001904,
                "z": -0.0022348060817251984
            },
            "position": {
                "x": -0.39052492380142206,
                "y": 0.3671506643295288,
                "z": 0.19426114857196808
            }
        },
        "name": "move_to_magneteinheit_D"
    },
    "id": "BKPIECE_move_to_magneteinheit_D_23",
    "joint_names": [
        "shoulder_pan_joint",
        "shoulder_lift_joint",
        "elbow_joint",
        "wrist_1_joint",
        "wrist_2_joint",
        "wrist_3_joint"
    ],
    "metrics": {
        "cart_traj_len": 4.031611461580235,
        "distance_elbow_joint": 3.1961126205671926,
        "distance_shoulder_lift_joint": 1.6352620418044226,
        "distance_shoulder_pan_joint": 2.857948590665256,
        "distance_wrist_1_joint": 1.5907304961922466,
        "distance_wrist_2_joint": 1.1044555408450276,
        "distance_wrist_3_joint": 3.155344703280098,
        "smoothness": 0.2819857052793596,
        "time": 1.376439786,
        "traj_len": 3.679654058923779,
        "weighted_distance": 4.7482343494136545
    },
    "planner": "BKPIECE",
    "start": {
        "state": {
            "elbow_joint": 0.7495348899011973,
            "shoulder_lift_joint": -0.6476975780737697,
            "shoulder_pan_joint": -2.711696901376276,
            "wrist_1_joint": -0.07506478080974305,
            "wrist_2_joint": 0.4329665971545858,
            "wrist_3_joint": 3.1361499051832524
        }
    },
    "waypoints": [
        {
            "positions": [
                -2.711696901376276,
                -0.6476975780737697,
                0.7495348899011973,
                -0.07506478080974305,
                0.4329665971545858,
                3.1361499051832524
            ]
        },
        {
            "positions": [
                -2.7208471123734483,
                -0.6966048510002116,
                0.7593168634629114,
                -0.027302960795281314,
                0.451702952568411,
                2.951196264531016
            ]
        },
        {
            "positions": [
                -2.7299973233706205,
                -0.7455121239266536,
                0.7690988370246256,
                0.02045885921918042,
                0.4704393079822361,
                2.7662426238787803
            ]
        },
        {
            "positions": [
                -2.7391475343677927,
                -0.7944193968530955,
                0.7788808105863396,
                0.06822067923364217,
                0.4891756633960613,
                2.581288983226544
            ]
        },
        {
            "positions": [
                -2.6364030172664985,
                -0.8345542773240663,
                0.6820886545791709,
                0.07340604507889739,
                0.48059925574628404,
                2.459381282112827
            ]
        },
        {
            "positions": [
                -2.5336585001652043,
                -0.8746891577950371,
                0.585296498572002,
                0.07859141092415263,
                0.47202284809650685,
                2.3374735809991103
            ]
        },
        {
            "positions": [
                -2.4229872675564774,
                -0.9009896235060543,
                0.47663568600618433,
                0.10579991474825613,
                0.4764646253550857,
                2.2311051668460604
            ]
        },
        {
            "positions": [
                -2.3123160349477505,
                -0.9272900892170713,
                0.3679748734403666,
                0.13300841857235962,
                0.48090640261366463,
                2.1247367526930105
            ]
        },
        {
            "positions": [
                -2.2016448023390236,
                -0.9535905549280885,
                0.2593140608745489,
                0.16021692239646312,
                0.4853481798722435,
                2.0183683385399607
            ]
        },
        {
            "positions": [
                -2.0909735697302967,
                -0.9798910206391056,
                0.15065324830873117,
                0.18742542622056663,
                0.4897899571308224,
                1.9119999243869108
            ]
        },
        {
            "positions": [
                -1.9803023371215698,
                -1.0061914863501227,
                0.04199243574291345,
                0.21463393004467013,
                0.49423173438940127,
                1.805631510233861
            ]
        },
        {
            "positions": [
                -1.8696311045128429,
                -1.03249195206114,
                -0.06666837682290427,
                0.24184243386877363,
                0.4986735116479802,
                1.6992630960808113
            ]
        },
        {
            "positions": [
                -1.758959871904116,
                -1.058792417772157,
                -0.175329189388722,
                0.26905093769287713,
                0.5031152889065591,
                1.5928946819277612
            ]
        },
        {
            "positions": [
                -1.648288639295389,
                -1.0850928834831741,
                -0.2839900019545397,
                0.29625944151698064,
                0.507557066165138,
                1.4865262677747113
            ]
        },
        {
            "positions": [
                -1.5376174066866621,
                -1.1113933491941914,
                -0.39265081452035755,
                0.3234679453410842,
                0.5119988434237168,
                1.3801578536216614
            ]
        },
        {
            "positions": [
                -1.4269461740779352,
                -1.1376938149052085,
                -0.5013116270861752,
                0.35067644916518764,
                0.5164406206822957,
                1.2737894394686118
            ]
        },
        {
            "positions": [
                -1.3162749414692083,
                -1.1639942806162256,
                -0.6099724396519929,
                0.37788495298929115,
                0.5208823979408745,
                1.167421025315562
            ]
        },
        {
            "positions": [
                -1.2056037088604814,
                -1.1902947463272426,
                -0.7186332522178106,
                0.40509345681339465,
                0.5253241751994535,
                1.0610526111625123
            ]
        },
        {
            "positions": [
                -1.0949324762517545,
                -1.2165952120382597,
                -0.8272940647836283,
                0.43230196063749815,
                0.5297659524580324,
                0.9546841970094622
            ]
        },
        {
            "positions": [
                -0.9842612436430276,
                -1.242895677749277,
                -0.935954877349446,
                0.45951046446160165,
                0.5342077297166112,
                0.8483157828564123
            ]
        },
        {
            "positions": [
                -0.8735900110343009,
                -1.269196143460294,
                -1.0446156899152634,
                0.4867189682857051,
                0.5386495069751901,
                0.7419473687033626
            ]
        },
        {
            "positions": [
                -0.7629187784255738,
                -1.2954966091713112,
                -1.1532765024810816,
                0.5139274721098087,
                0.5430912842337691,
                0.6355789545503125
            ]
        },
        {
            "positions": [
                -0.6522475458168469,
                -1.3217970748823284,
                -1.2619373150468993,
                0.5411359759339122,
                0.5475330614923479,
                0.5292105403972629
            ]
        },
        {
            "positions": [
                -0.5415763132081197,
                -1.3480975405933455,
                -1.370598127612717,
                0.5683444797580157,
                0.5519748387509268,
                0.4228421262442128
            ]
        },
        {
            "positions": [
                -0.43090508059939303,
                -1.3743980063043626,
                -1.4792589401785348,
                0.5955529835821193,
                0.5564166160095056,
                0.31647371209116315
            ]
        },
        {
            "positions": [
                -0.3202338479906661,
                -1.40069847201538,
                -1.5879197527443525,
                0.6227614874062227,
                0.5608583932680846,
                0.21010529793811328
            ]
        },
        {
            "positions": [
                -0.2095626153819392,
                -1.426998937726397,
                -1.6965805653101702,
                0.6499699912303263,
                0.5653001705266635,
                0.1037368837850634
            ]
        },
        {
            "positions": [
                -0.09889138277321208,
                -1.453299403437414,
                -1.8052413778759877,
                0.6771784950544297,
                0.5697419477852423,
                -0.0026315303679863566
            ]
        },
        {
            "positions": [
                -0.08848007308723647,
                -1.544452600724822,
                -1.9203701951833652,
                0.7047249976797154,
                0.436501887153791,
                -0.004144206172289338
            ]
        },
        {
            "positions": [
                -0.07806876340126087,
                -1.6356057980122298,
                -2.0354990124907424,
                0.7322715003050012,
                0.3032618265223397,
                -0.005656881976592321
            ]
        },
        {
            "positions": [
                -0.06765745371528527,
                -1.7267589952996378,
                -2.15062782979812,
                0.7598180029302869,
                0.17002176589088835,
                -0.007169557780895302
            ]
        },
        {
            "positions": [
                -0.05724614402930966,
                -1.8179121925870456,
                -2.2657566471054977,
                0.7873645055555727,
                0.036781705259437025,
                -0.008682233585198285
            ]
        },
        {
            "positions": [
                -0.046834834343334054,
                -1.9090653898744536,
                -2.380885464412875,
                0.8149110081808584,
                -0.09645835537201428,
                -0.010194909389501267
            ]
        },
        {
            "positions": [
                -0.08138114875565444,
                -2.0025389473753883,
                -2.3791353581921664,
                0.9900996849812698,
                -0.029664791257512924,
                -0.00794493721266544
            ]
        },
        {
            "positions": [
                -0.11592746316797481,
                -2.096012504876323,
                -2.3773852519714573,
                1.165288361781681,
                0.03712877285698843,
                -0.005694965035829614
            ]
        },
        {
            "positions": [
                -0.1504737775802952,
                -2.1894860623772576,
                -2.3756351457507483,
                1.3404770385820923,
                0.10392233697148978,
                -0.0034449928589937884
            ]
        },
        {
            "positions": [
                -0.18502009199261557,
                -2.2829596198781923,
                -2.3738850395300397,
                1.5156657153825037,
                0.17071590108599113,
                -0.0011950206821579618
            ]
        }
    ]
}