{
    "goal": {
        "global_pose": {
            "orientation": {
                "w": 0.5084816262002911,
                "x": -0.4908360881923452,
                "y": 0.5182115481033761,
                "z": -0.48164630358495003
            },
            "position": {
                "x": 0.5540239810943604,
                "y": -0.46912469901144505,
                "z": 0.16403168439865112
            }
        },
        "name": "move_to_storage_B"
    },
    "id": "BKPIECE_move_to_storage_B_17",
    "joint_names": [
        "shoulder_pan_joint",
        "shoulder_lift_joint",
        "elbow_joint",
        "wrist_1_joint",
        "wrist_2_joint",
        "wrist_3_joint"
    ],
    "metrics": {
        "cart_traj_len": 0.7782057801133587,
        "distance_elbow_joint": 0.4365981905718288,
        "distance_shoulder_lift_joint": 0.45874442710999785,
        "distance_shoulder_pan_joint": 0.24485136657501327,
        "distance_wrist_1_joint": 2.9828073550008307,
        "distance_wrist_2_joint": 2.7031613862261987,
        "distance_wrist_3_joint": 3.7009478883557465,
        "smoothness": 0.3737333514414552,
        "time": 1.723048075,
        "traj_len": 3.2445509109643536,
        "weighted_distance": 4.859524167218241
    },
    "planner": "BKPIECE",
    "start": {
        "state": {
            "elbow_joint": 1.6649325706314817,
            "shoulder_lift_joint": -0.6616388048112454,
            "shoulder_pan_joint": -0.9139837860083814,
            "wrist_1_joint": 2.146757197745094,
            "wrist_2_joint": -2.234196043158733,
            "wrist_3_joint": 0.005471033829999897
        }
    },
    "waypoints": [
        {
            "positions": [
                -0.9139837860083814,
                -0.6616388048112454,
                1.6649325706314817,
                2.146757197745094,
                -2.234196043158733,
                0.005471033829999897
            ]
        },
        {
            "positions": [
                -0.8983409754689231,
                -0.7574475149609603,
                1.696412161631494,
                2.121419675218932,
                -2.2000870554293694,
                -0.13625333118656177
            ]
        },
        {
            "positions": [
                -0.8826981649294647,
                -0.8532562251106753,
                1.7278917526315063,
                2.0960821526927695,
                -2.1659780677000064,
                -0.2779776962031234
            ]
        },
        {
            "positions": [
                -0.9017715730182299,
                -0.8715280870077882,
                1.7210869150322399,
                1.9852153666812824,
                -2.06134595599764,
                -0.19256918961186723
            ]
        },
        {
            "positions": [
                -0.9208449811069951,
                -0.8897999489049009,
                1.7142820774329735,
                1.8743485806697953,
                -1.9567138442952734,
                -0.10716068302061105
            ]
        },
        {
            "positions": [
                -0.9399183891957602,
                -0.9080718108020136,
                1.707477239833707,
                1.7634817946583081,
                -1.8520817325929069,
                -0.02175217642935484
            ]
        },
        {
            "positions": [
                -0.9589917972845253,
                -0.9263436726991264,
                1.7006724022344404,
                1.652615008646821,
                -1.7474496208905403,
                0.06365633016190131
            ]
        },
        {
            "positions": [
                -0.9780652053732906,
                -0.9446155345962393,
                1.693867564635174,
                1.5417482226353336,
                -1.6428175091881738,
                0.14906483675315757
            ]
        },
        {
            "positions": [
                -0.9971386134620557,
                -0.962887396493352,
                1.6870627270359075,
                1.4308814366238465,
                -1.5381853974858073,
                0.23447334334441375
            ]
        },
        {
            "positions": [
                -1.0139658058038807,
                -0.9780278735286835,
                1.6843947634796814,
                1.3270193087498725,
                -1.443338521070145,
                0.3229735890997212
            ]
        },
        {
            "positions": [
                -1.0259554339573604,
                -0.9900726373713462,
                1.6910916279165662,
                1.2144597849241707,
                -1.3438270050945187,
                0.4421090612198201
            ]
        },
        {
            "positions": [
                -1.029861460427816,
                -0.9973121148463405,
                1.7090608031934047,
                1.1005425659141759,
                -1.2431163190855195,
                0.5919653057142467
            ]
        },
        {
            "positions": [
                -1.0337674868982716,
                -1.0045515923213348,
                1.7270299784702434,
                0.986625346904181,
                -1.1424056330765204,
                0.7418215502086734
            ]
        },
        {
            "positions": [
                -1.0376735133687274,
                -1.011791069796329,
                1.744999153747082,
                0.8727081278941862,
                -1.0416949470675214,
                0.8916777947030999
            ]
        },
        {
            "positions": [
                -1.041579539839183,
                -1.0190305472713233,
                1.7629683290239206,
                0.7587909088841913,
                -0.9409842610585222,
                1.0415340391975265
            ]
        },
        {
            "positions": [
                -1.0454855663096385,
                -1.0262700247463177,
                1.7809375043007591,
                0.6448736898741965,
                -0.8402735750495229,
                1.1913902836919532
            ]
        },
        {
            "positions": [
                -1.049391592780094,
                -1.0335095022213119,
                1.7989066795775976,
                0.5309564708642016,
                -0.7395628890405239,
                1.34124652818638
            ]
        },
        {
            "positions": [
                -1.0532976192505497,
                -1.040748979696306,
                1.8168758548544364,
                0.41703925185420676,
                -0.6388522030315247,
                1.4911027726808066
            ]
        },
        {
            "positions": [
                -1.0572036457210052,
                -1.0479884571713005,
                1.8348450301312749,
                0.3031220328442119,
                -0.5381415170225257,
                1.6409590171752328
            ]
        },
        {
            "positions": [
                -1.0611096721914608,
                -1.0552279346462947,
                1.8528142054081136,
                0.18920481383421706,
                -0.4374308310135264,
                1.7908152616696595
            ]
        },
        {
            "positions": [
                -1.0650156986619166,
                -1.062467412121289,
                1.870783380684952,
                0.0752875948242222,
                -0.3367201450045272,
                1.9406715061640862
            ]
        },
        {
            "positions": [
                -1.0689217251323722,
                -1.0697068895962834,
                1.8887525559617906,
                -0.03862962418577265,
                -0.23600945899552794,
                2.090527750658513
            ]
        },
        {
            "positions": [
                -1.0728277516028277,
                -1.0769463670712776,
                1.9067217312386293,
                -0.1525468431957675,
                -0.13529877298652915,
                2.2403839951529396
            ]
        },
        {
            "positions": [
                -1.0767337780732833,
                -1.0841858445462718,
                1.9246909065154678,
                -0.26646406220576235,
                -0.03458808697752991,
                2.3902402396473663
            ]
        },
        {
            "positions": [
                -1.0806398045437389,
                -1.0914253220212662,
                1.9426600817923063,
                -0.3803812812157572,
                0.06612259903146933,
                2.540096484141793
            ]
        },
        {
            "positions": [
                -1.0845458310141947,
                -1.0986647994962604,
                1.960629257069145,
                -0.49429850022575206,
                0.16683328504046857,
                2.6899527286362197
            ]
        },
        {
            "positions": [
                -1.0884518574846502,
                -1.1059042769712546,
                1.9785984323459835,
                -0.6082157192357469,
                0.26754397104946737,
                2.839808973130646
            ]
        },
        {
            "positions": [
                -1.0923578839551058,
                -1.113143754446249,
                1.996567607622822,
                -0.7221329382457418,
                0.3682546570584666,
                2.9896652176250726
            ]
        },
        {
            "positions": [
                -1.0962639104255614,
                -1.1203832319212432,
                2.0145367828996608,
                -0.8360501572557366,
                0.4689653430674658,
                3.1395214621194993
            ]
        }
    ]
}