{
    "goal": {
        "global_pose": {
            "orientation": {
                "w": -0.00223480608172531,
                "x": 0.0024358444001904467,
                "y": 0.7094548369677653,
                "z": -0.704743149386269
            },
            "position": {
                "x": -0.37947507619857795,
                "y": -0.6371506643295288,
                "z": 0.19426114857196808
            }
        },
        "name": "move_to_magneteinheit_C"
    },
    "id": "BKPIECE_move_to_magneteinheit_C_50",
    "joint_names": [
        "shoulder_pan_joint",
        "shoulder_lift_joint",
        "elbow_joint",
        "wrist_1_joint",
        "wrist_2_joint",
        "wrist_3_joint"
    ],
    "metrics": {
        "cart_traj_len": 0.6540329039173918,
        "distance_elbow_joint": 0.24873652656936018,
        "distance_shoulder_lift_joint": 0.25292044921970014,
        "distance_shoulder_pan_joint": 1.0035782213090116,
        "distance_wrist_1_joint": 1.6334473424731455,
        "distance_wrist_2_joint": 2.2356834177331284,
        "distance_wrist_3_joint": 1.666265395379407,
        "smoothness": 1.0943650902683377,
        "time": 1.03664969,
        "traj_len": 2.65341880461486,
        "weighted_distance": 3.7738962497197566
    },
    "planner": "BKPIECE",
    "start": {
        "state": {
            "elbow_joint": 1.9565354006590394,
            "shoulder_lift_joint": -1.4165861576513559,
            "shoulder_pan_joint": -1.6717766223277177,
            "wrist_1_joint": -0.5286633288215096,
            "wrist_2_joint": 1.4727565892594296,
            "wrist_3_joint": 3.1593482883155493
        }
    },
    "waypoints": [
        {
            "positions": [
                -1.6717766223277177,
                -1.4165861576513559,
                1.9565354006590394,
                -0.5286633288215096,
                1.4727565892594296,
                3.1593482883155493
            ]
        },
        {
            "positions": [
                -1.7435906797291525,
                -1.4140902958854593,
                1.9702189294608992,
                -0.6166825643653697,
                1.3344040172748104,
                3.081886973808029
            ]
        },
        {
            "positions": [
                -1.8154047371305875,
                -1.4115944341195625,
                1.9839024582627591,
                -0.7047017999092299,
                1.1960514452901911,
                3.0044256593005083
            ]
        },
        {
            "positions": [
                -1.8872187945320222,
                -1.409098572353666,
                1.9975859870646189,
                -0.79272103545309,
                1.057698873305572,
                2.9269643447929883
            ]
        },
        {
            "positions": [
                -1.9590328519334572,
                -1.4066027105877694,
                2.011269515866479,
                -0.8807402709969502,
                0.9193463013209527,
                2.849503030285468
            ]
        },
        {
            "positions": [
                -2.030846909334892,
                -1.4041068488218726,
                2.0249530446683384,
                -0.9687595065408103,
                0.7809937293363336,
                2.7720417157779473
            ]
        },
        {
            "positions": [
                -2.1026609667363267,
                -1.401610987055976,
                2.0386365734701983,
                -1.0567787420846706,
                0.6426411573517145,
                2.694580401270427
            ]
        },
        {
            "positions": [
                -2.1744750241377617,
                -1.3991151252900793,
                2.052320102272058,
                -1.1447979776285306,
                0.5042885853670952,
                2.6171190867629064
            ]
        },
        {
            "positions": [
                -2.2462890815391967,
                -1.3966192635241828,
                2.066003631073918,
                -1.2328172131723907,
                0.36593601338247583,
                2.539657772255386
            ]
        },
        {
            "positions": [
                -2.3181031389406317,
                -1.3941234017582862,
                2.079687159875778,
                -1.320836448716251,
                0.22758344139785658,
                2.462196457747866
            ]
        },
        {
            "positions": [
                -2.3899171963420662,
                -1.3916275399923894,
                2.0933706886776373,
                -1.4088556842601112,
                0.08923086941323755,
                2.3847351432403454
            ]
        },
        {
            "positions": [
                -2.461731253743501,
                -1.3891316782264929,
                2.1070542174794973,
                -1.4968749198039712,
                -0.049121702571381785,
                2.307273828732825
            ]
        },
        {
            "positions": [
                -2.499532812766821,
                -1.3433666677864418,
                2.093797494454222,
                -1.4285586864631923,
                0.02565180669282765,
                2.4160610891468797
            ]
        },
        {
            "positions": [
                -2.5373343717901404,
                -1.2976016573463907,
                2.0805407714289466,
                -1.3602424531224133,
                0.10042531595703708,
                2.524848349560934
            ]
        },
        {
            "positions": [
                -2.57513593081346,
                -1.2518366469063396,
                2.067284048403671,
                -1.2919262197816344,
                0.17519882522124652,
                2.6336356099749887
            ]
        },
        {
            "positions": [
                -2.574875105037451,
                -1.2379395486025233,
                2.0640757951510906,
                -1.234937798980039,
                0.24703184702719025,
                2.707887615667145
            ]
        },
        {
            "positions": [
                -2.574614279261443,
                -1.2240424502987068,
                2.0608675418985096,
                -1.1779493781784438,
                0.318864868833134,
                2.7821396213593013
            ]
        },
        {
            "positions": [
                -2.5496899639436297,
                -1.208948264831944,
                2.047859783356531,
                -1.0913718257121547,
                0.40531950745758427,
                2.866970907151853
            ]
        },
        {
            "positions": [
                -2.5247656486258165,
                -1.1938540793651813,
                2.034852024814552,
                -1.0047942732458657,
                0.4917741460820346,
                2.9518021929444043
            ]
        },
        {
            "positions": [
                -2.499841333308004,
                -1.1787598938984185,
                2.0218442662725735,
                -0.9182167207795766,
                0.5782287847064849,
                3.036633478736956
            ]
        },
        {
            "positions": [
                -2.4749170179901907,
                -1.1636657084316557,
                2.008836507730595,
                -0.8316391683132875,
                0.6646834233309352,
                3.1214647645295077
            ]
        }
    ]
}