{
    "goal": {
        "global_pose": {
            "orientation": {
                "w": 0.7047431468963623,
                "x": -0.7094548344612122,
                "y": 0.0024358443915843964,
                "z": -0.0022348060738295317
            },
            "position": {
                "x": 0.6094750761985779,
                "y": 0.3671506643295288,
                "z": 0.19426114857196808
            }
        },
        "name": "move_to_magneteinheit_A"
    },
    "id": "BKPIECE_move_to_magneteinheit_A_18",
    "joint_names": [
        "shoulder_pan_joint",
        "shoulder_lift_joint",
        "elbow_joint",
        "wrist_1_joint",
        "wrist_2_joint",
        "wrist_3_joint"
    ],
    "metrics": {
        "cart_traj_len": 1.0534857699071167,
        "distance_elbow_joint": 0.38536716163814533,
        "distance_shoulder_lift_joint": 0.3662969061645762,
        "distance_shoulder_pan_joint": 1.2405435088142551,
        "distance_wrist_1_joint": 2.221912873248752,
        "distance_wrist_2_joint": 1.6922477578628474,
        "distance_wrist_3_joint": 1.2086877254351354,
        "smoothness": 0.0,
        "time": 1.056437552,
        "traj_len": 2.6674062182509273,
        "weighted_distance": 3.666959505523013
    },
    "planner": "BKPIECE",
    "start": {
        "state": {
            "elbow_joint": 1.5739458966750683,
            "shoulder_lift_joint": -1.4977259741207325,
            "shoulder_pan_joint": -1.1188672016454206,
            "wrist_1_joint": 1.494575848278785,
            "wrist_2_joint": -1.5706037134824402,
            "wrist_3_joint": -2.0226957942261072
        }
    },
    "waypoints": [
        {
            "positions": [
                -1.1188672016454206,
                -1.4977259741207325,
                1.5739458966750683,
                1.494575848278785,
                -1.5706037134824402,
                -2.0226957942261072
            ]
        },
        {
            "positions": [
                -1.0499481178224064,
                -1.4773761460004782,
                1.595355183432743,
                1.37113624420941,
                -1.4765899491567265,
                -2.089845112305837
            ]
        },
        {
            "positions": [
                -0.9810290339993923,
                -1.457026317880224,
                1.6167644701904178,
                1.2476966401400347,
                -1.3825761848310127,
                -2.156994430385567
            ]
        },
        {
            "positions": [
                -0.9121099501763781,
                -1.4366764897599698,
                1.6381737569480925,
                1.1242570360706596,
                -1.288562420505299,
                -2.2241437484652966
            ]
        },
        {
            "positions": [
                -0.8431908663533639,
                -1.4163266616397157,
                1.6595830437057673,
                1.0008174320012846,
                -1.1945486561795853,
                -2.291293066545026
            ]
        },
        {
            "positions": [
                -0.7742717825303498,
                -1.3959768335194613,
                1.680992330463442,
                0.8773778279319093,
                -1.1005348918538715,
                -2.358442384624756
            ]
        },
        {
            "positions": [
                -0.7053526987073356,
                -1.375627005399207,
                1.7024016172211167,
                0.7539382238625343,
                -1.0065211275281578,
                -2.4255917027044855
            ]
        },
        {
            "positions": [
                -0.6364336148843215,
                -1.355277177278953,
                1.7238109039787914,
                0.6304986197931591,
                -0.912507363202444,
                -2.4927410207842153
            ]
        },
        {
            "positions": [
                -0.5675145310613072,
                -1.3349273491586986,
                1.7452201907364662,
                0.5070590157237841,
                -0.8184935988767302,
                -2.559890338863945
            ]
        },
        {
            "positions": [
                -0.4985954472382931,
                -1.3145775210384443,
                1.7666294774941411,
                0.38361941165440894,
                -0.7244798345510165,
                -2.627039656943675
            ]
        },
        {
            "positions": [
                -0.42967636341527893,
                -1.2942276929181902,
                1.7880387642518158,
                0.2601798075850337,
                -0.6304660702253028,
                -2.6941889750234047
            ]
        },
        {
            "positions": [
                -0.36075727959226467,
                -1.2738778647979359,
                1.8094480510094906,
                0.13674020351565863,
                -0.5364523058995889,
                -2.7613382931031345
            ]
        },
        {
            "positions": [
                -0.29183819576925063,
                -1.2535280366776818,
                1.8308573377671653,
                0.01330059944628359,
                -0.4424385415738754,
                -2.8284876111828643
            ]
        },
        {
            "positions": [
                -0.22291911194623637,
                -1.2331782085574274,
                1.85226662452484,
                -0.11013900462309145,
                -0.34842477724816145,
                -2.8956369292625936
            ]
        },
        {
            "positions": [
                -0.15400002812322222,
                -1.2128283804371733,
                1.8736759112825148,
                -0.23357860869246672,
                -0.2544110129224477,
                -2.962786247342324
            ]
        },
        {
            "positions": [
                -0.08508094430020807,
                -1.192478552316919,
                1.8950851980401895,
                -0.35701821276184176,
                -0.160397248596734,
                -3.0299355654220532
            ]
        },
        {
            "positions": [
                -0.016161860477193812,
                -1.1721287241966647,
                1.9164944847978642,
                -0.4804578168312168,
                -0.06638348427102025,
                -3.097084883501783
            ]
        },
        {
            "positions": [
                0.052757223345820226,
                -1.1517788960764106,
                1.937903771555539,
                -0.6038974209005918,
                0.02763028005469348,
                -3.164234201581513
            ]
        },
        {
            "positions": [
                0.12167630716883442,
                -1.1314290679561563,
                1.9593130583132137,
                -0.7273370249699671,
                0.1216440443804072,
                -3.2313835196612426
            ]
        }
    ]
}