{
    "goal": {
        "global_pose": {
            "orientation": {
                "w": 0.005598929693374612,
                "x": 0.007748599140229565,
                "y": 0.7110244013736278,
                "z": -0.7031023480610252
            },
            "position": {
                "x": -0.8858502320852131,
                "y": -0.7141253447532654,
                "z": 0.3711530566215515
            }
        },
        "name": "move_to_auspresseinheit_C"
    },
    "id": "BKPIECE_move_to_auspresseinheit_C_123",
    "joint_names": [
        "shoulder_pan_joint",
        "shoulder_lift_joint",
        "elbow_joint",
        "wrist_1_joint",
        "wrist_2_joint",
        "wrist_3_joint"
    ],
    "metrics": {
        "cart_traj_len": 0.4935233653075106,
        "distance_elbow_joint": 1.009949273373657,
        "distance_shoulder_lift_joint": 0.32992146937679356,
        "distance_shoulder_pan_joint": 0.2562087284516452,
        "distance_wrist_1_joint": 0.6984494196747333,
        "distance_wrist_2_joint": 1.312109445924801,
        "distance_wrist_3_joint": 0.07904701066560493,
        "smoothness": 0.0,
        "time": 1.379730784,
        "traj_len": 1.919813883548933,
        "weighted_distance": 2.4195739778725467
    },
    "planner": "BKPIECE",
    "start": {
        "state": {
            "elbow_joint": 1.752795957773711,
            "shoulder_lift_joint": -0.9740617694225064,
            "shoulder_pan_joint": -2.967991417825858,
            "wrist_1_joint": -0.7595177689806859,
            "wrist_2_joint": 1.7443932448377395,
            "wrist_3_joint": 3.199131542505932
        }
    },
    "waypoints": [
        {
            "positions": [
                -2.967991417825858,
                -0.9740617694225064,
                1.752795957773711,
                -0.7595177689806859,
                1.7443932448377395,
                3.199131542505932
            ]
        },
        {
            "positions": [
                -2.9423705449806934,
                -0.9410696224848271,
                1.6518010304363453,
                -0.6896728270132125,
                1.6131823002452594,
                3.191226841439372
            ]
        },
        {
            "positions": [
                -2.916749672135529,
                -0.9080774755471477,
                1.5508061030989797,
                -0.6198278850457393,
                1.4819713556527794,
                3.183322140372811
            ]
        },
        {
            "positions": [
                -2.8911287992903643,
                -0.8750853286094684,
                1.4498111757616141,
                -0.5499829430782659,
                1.3507604110602993,
                3.1754174393062504
            ]
        },
        {
            "positions": [
                -2.8655079264451997,
                -0.842093181671789,
                1.3488162484242483,
                -0.4801380011107926,
                1.219549466467819,
                3.16751273823969
            ]
        },
        {
            "positions": [
                -2.8398870536000356,
                -0.8091010347341097,
                1.2478213210868825,
                -0.41029305914331926,
                1.088338521875339,
                3.15960803717313
            ]
        },
        {
            "positions": [
                -2.814266180754871,
                -0.7761088877964303,
                1.146826393749517,
                -0.34044811717584594,
                0.9571275772828589,
                3.151703336106569
            ]
        },
        {
            "positions": [
                -2.7886453079097064,
                -0.7431167408587509,
                1.0458314664121513,
                -0.2706031752083726,
                0.8259166326903788,
                3.143798635040009
            ]
        },
        {
            "positions": [
                -2.763024435064542,
                -0.7101245939210716,
                0.9448365390747855,
                -0.20075823324089925,
                0.6947056880978986,
                3.135893933973448
            ]
        },
        {
            "positions": [
                -2.7374035622193773,
                -0.6771324469833921,
                0.8438416117374198,
                -0.13091329127342588,
                0.5634947435054185,
                3.127989232906888
            ]
        },
        {
            "positions": [
                -2.7117826893742127,
                -0.6441403000457129,
                0.7428466844000541,
                -0.06106834930595258,
                0.4322837989129384,
                3.120084531840327
            ]
        }
    ]
}