{
    "goal": {
        "global_pose": {
            "orientation": {
                "w": 0.7031023480610252,
                "x": -0.7110244013736278,
                "y": 0.0077485991402295624,
                "z": 0.005598929693374583
            },
            "position": {
                "x": -0.8841497679147869,
                "y": 0.44412534475326537,
                "z": 0.3711530566215515
            }
        },
        "name": "move_to_auspresseinheit_D"
    },
    "id": "BKPIECE_move_to_auspresseinheit_D_138",
    "joint_names": [
        "shoulder_pan_joint",
        "shoulder_lift_joint",
        "elbow_joint",
        "wrist_1_joint",
        "wrist_2_joint",
        "wrist_3_joint"
    ],
    "metrics": {
        "cart_traj_len": 3.674274007428581,
        "distance_elbow_joint": 3.2004967475161363,
        "distance_shoulder_lift_joint": 1.3880311411646349,
        "distance_shoulder_pan_joint": 2.797227447665614,
        "distance_wrist_1_joint": 1.2980123234313186,
        "distance_wrist_2_joint": 0.8973160818913724,
        "distance_wrist_3_joint": 3.042726016550253,
        "smoothness": 5.747036849387618e-16,
        "time": 1.1491082179999998,
        "traj_len": 3.5530001067012824,
        "weighted_distance": 4.572153780948593
    },
    "planner": "BKPIECE",
    "start": {
        "state": {
            "elbow_joint": 1.8268400409724999,
            "shoulder_lift_joint": -1.0144045787793008,
            "shoulder_pan_joint": 2.6280239544362485,
            "wrist_1_joint": -0.790705565816056,
            "wrist_2_joint": 1.0573557467365533,
            "wrist_3_joint": 3.1851377467193758
        }
    },
    "waypoints": [
        {
            "positions": [
                2.6280239544362485,
                -1.0144045787793008,
                1.8268400409724999,
                -0.790705565816056,
                1.0573557467365533,
                3.1851377467193758
            ]
        },
        {
            "positions": [
                2.578537282086996,
                -1.0372499349566924,
                1.7338516456378208,
                -0.760441428003221,
                1.0137956807651443,
                3.0707759931210923
            ]
        },
        {
            "positions": [
                2.5290506097377428,
                -1.0600952911340842,
                1.6408632503031417,
                -0.730177290190386,
                0.9702356147937353,
                2.9564142395228084
            ]
        },
        {
            "positions": [
                2.47956393738849,
                -1.0829406473114758,
                1.5478748549684629,
                -0.6999131523775511,
                0.9266755488223263,
                2.842052485924525
            ]
        },
        {
            "positions": [
                2.430077265039237,
                -1.1057860034888676,
                1.4548864596337838,
                -0.6696490145647161,
                0.8831154828509173,
                2.727690732326241
            ]
        },
        {
            "positions": [
                2.3805905926899844,
                -1.1286313596662592,
                1.3618980642991048,
                -0.6393848767518812,
                0.8395554168795083,
                2.6133289787279574
            ]
        },
        {
            "positions": [
                2.2895265181928646,
                -1.174124372533319,
                1.2641996796261497,
                -0.5984316040959118,
                0.8152869971639966,
                2.5250819341365704
            ]
        },
        {
            "positions": [
                2.198462443695745,
                -1.219617385400379,
                1.1665012949531948,
                -0.5574783314399423,
                0.7910185774484849,
                2.4368348895451835
            ]
        },
        {
            "positions": [
                2.1073983691986253,
                -1.2651103982674388,
                1.0688029102802397,
                -0.5165250587839729,
                0.7667501577329732,
                2.3485878449537965
            ]
        },
        {
            "positions": [
                2.016334294701506,
                -1.3106034111344986,
                0.9711045256072848,
                -0.47557178612800344,
                0.7424817380174615,
                2.2603408003624095
            ]
        },
        {
            "positions": [
                1.925270220204386,
                -1.3560964240015585,
                0.8734061409343297,
                -0.43461851347203406,
                0.7182133183019498,
                2.1720937557710225
            ]
        },
        {
            "positions": [
                1.8342061457072667,
                -1.4015894368686184,
                0.7757077562613747,
                -0.39366524081606463,
                0.6939448985864382,
                2.0838467111796355
            ]
        },
        {
            "positions": [
                1.7431420712101469,
                -1.4470824497356782,
                0.6780093715884197,
                -0.3527119681600952,
                0.6696764788709264,
                1.9955996665882487
            ]
        },
        {
            "positions": [
                1.6520779967130275,
                -1.492575462602738,
                0.5803109869154647,
                -0.31175869550412577,
                0.6454080591554148,
                1.907352621996862
            ]
        },
        {
            "positions": [
                1.5610139222159076,
                -1.5380684754697982,
                0.48261260224250957,
                -0.27080542284815634,
                0.621139639439903,
                1.8191055774054747
            ]
        },
        {
            "positions": [
                1.469949847718788,
                -1.583561488336858,
                0.3849142175695546,
                -0.2298521501921869,
                0.5968712197243913,
                1.730858532814088
            ]
        },
        {
            "positions": [
                1.3788857732216684,
                -1.629054501203918,
                0.2872158328965997,
                -0.18889887753621754,
                0.5726028000088796,
                1.642611488222701
            ]
        },
        {
            "positions": [
                1.2878216987245488,
                -1.6745475140709778,
                0.18951744822364458,
                -0.1479456048802481,
                0.548334380293368,
                1.554364443631314
            ]
        },
        {
            "positions": [
                1.1967576242274292,
                -1.7200405269380377,
                0.09181906355068947,
                -0.10699233222427862,
                0.5240659605778563,
                1.466117399039927
            ]
        },
        {
            "positions": [
                1.1056935497303095,
                -1.7655335398050975,
                -0.005879321122265413,
                -0.06603905956830924,
                0.49979754086234457,
                1.37787035444854
            ]
        },
        {
            "positions": [
                1.01462947523319,
                -1.8110265526721574,
                -0.1035777057952203,
                -0.02508578691233987,
                0.4755291211468329,
                1.289623309857153
            ]
        },
        {
            "positions": [
                0.9235654007360703,
                -1.8565195655392173,
                -0.2012760904681754,
                0.015867485743629617,
                0.4512607014313212,
                1.2013762652657662
            ]
        },
        {
            "positions": [
                0.8325013262389507,
                -1.9020125784062771,
                -0.2989744751411303,
                0.05682075839959899,
                0.4269922817158095,
                1.1131292206743792
            ]
        },
        {
            "positions": [
                0.7414372517418308,
                -1.947505591273337,
                -0.3966728598140856,
                0.09777403105556848,
                0.40272386200029775,
                1.024882176082992
            ]
        },
        {
            "positions": [
                0.6503731772447112,
                -1.9929986041403969,
                -0.4943712444870405,
                0.13872730371153785,
                0.37845544228478606,
                0.936635131491605
            ]
        },
        {
            "positions": [
                0.5593091027475916,
                -2.0384916170074567,
                -0.5920696291599956,
                0.17968057636750734,
                0.35418702256927437,
                0.8483880869002183
            ]
        },
        {
            "positions": [
                0.4682450282504722,
                -2.0839846298745166,
                -0.6897680138329507,
                0.2206338490234767,
                0.32991860285376273,
                0.7601410423088313
            ]
        },
        {
            "positions": [
                0.37718095375335237,
                -2.1294776427415765,
                -0.7874663985059054,
                0.2615871216794461,
                0.305650183138251,
                0.6718939977174443
            ]
        },
        {
            "positions": [
                0.28611687925623297,
                -2.1749706556086363,
                -0.8851647831788605,
                0.3025403943354156,
                0.28138176342273935,
                0.5836469531260575
            ]
        },
        {
            "positions": [
                0.19505280475911313,
                -2.220463668475696,
                -0.9828631678518156,
                0.34349366699138495,
                0.2571133437072276,
                0.49539990853467053
            ]
        },
        {
            "positions": [
                0.10398873026199329,
                -2.265956681342756,
                -1.0805615525247707,
                0.38444693964735455,
                0.23284492399171586,
                0.40715286394328354
            ]
        },
        {
            "positions": [
                0.012924655764873894,
                -2.311449694209816,
                -1.1782599371977258,
                0.4254002123033239,
                0.20857650427620422,
                0.31890581935189655
            ]
        },
        {
            "positions": [
                -0.07813941873224595,
                -2.356942707076876,
                -1.2759583218706805,
                0.4663534849592933,
                0.18430808456069248,
                0.23065877476050956
            ]
        },
        {
            "positions": [
                -0.16920349322936537,
                -2.4024357199439357,
                -1.3736567065436358,
                0.5073067576152626,
                0.1600396648451808,
                0.14241173016912245
            ]
        }
    ]
}