{
    "goal": {
        "global_pose": {
            "orientation": {
                "w": -0.4816463035849501,
                "x": 0.5182115481033762,
                "y": 0.4908360881923453,
                "z": -0.5084816262002911
            },
            "position": {
                "x": -0.8240239810943604,
                "y": 0.19912469901144506,
                "z": 0.16403168439865112
            }
        },
        "name": "move_to_storage_D"
    },
    "id": "BKPIECE_move_to_storage_D_118",
    "joint_names": [
        "shoulder_pan_joint",
        "shoulder_lift_joint",
        "elbow_joint",
        "wrist_1_joint",
        "wrist_2_joint",
        "wrist_3_joint"
    ],
    "metrics": {
        "cart_traj_len": 4.507641327110427,
        "distance_elbow_joint": 4.811029920930603,
        "distance_shoulder_lift_joint": 1.9878831222548108,
        "distance_shoulder_pan_joint": 3.062053747411745,
        "distance_wrist_1_joint": 4.86648349656138,
        "distance_wrist_2_joint": 7.505409184354772,
        "distance_wrist_3_joint": 4.169088162369486,
        "smoothness": 0.37558635451251193,
        "time": 1.0184556790000001,
        "traj_len": 5.138282556835774,
        "weighted_distance": 6.863819391529609
    },
    "planner": "BKPIECE",
    "start": {
        "state": {
            "elbow_joint": -2.384821997420982,
            "shoulder_lift_joint": -2.2788054674887404,
            "shoulder_pan_joint": -0.18546946417610016,
            "wrist_1_joint": 1.4845937964226739,
            "wrist_2_joint": 0.1789877726866377,
            "wrist_3_joint": 0.03710572555276528
        }
    },
    "waypoints": [
        {
            "positions": [
                -0.18546946417610016,
                -2.2788054674887404,
                -2.384821997420982,
                1.4845937964226739,
                0.1789877726866377,
                0.03710572555276528
            ]
        },
        {
            "positions": [
                -0.06814270062564,
                -2.1941000366691785,
                -2.4274946363865535,
                1.469768572628128,
                0.22884372048166918,
                -0.035764570540331574
            ]
        },
        {
            "positions": [
                0.049184062924820166,
                -2.1093946058496162,
                -2.4701672753521255,
                1.4549433488335823,
                0.2786996682767007,
                -0.10863486663342842
            ]
        },
        {
            "positions": [
                0.16651082647528032,
                -2.0246891750300544,
                -2.512839914317697,
                1.4401181250390365,
                0.3285556160717321,
                -0.18150516272652528
            ]
        },
        {
            "positions": [
                0.2838375900257405,
                -1.9399837442104926,
                -2.5555125532832688,
                1.4252929012444908,
                0.37841156386676356,
                -0.25437545881962215
            ]
        },
        {
            "positions": [
                0.40116435357620067,
                -1.8552783133909305,
                -2.5981851922488404,
                1.410467677449945,
                0.4282675116617951,
                -0.327245754912719
            ]
        },
        {
            "positions": [
                0.5184911171266608,
                -1.7705728825713685,
                -2.6408578312144124,
                1.3956424536553993,
                0.47812345945682655,
                -0.4001160510058159
            ]
        },
        {
            "positions": [
                0.6358178806771211,
                -1.6858674517518066,
                -2.683530470179984,
                1.3808172298608534,
                0.527979407251858,
                -0.47298634709891274
            ]
        },
        {
            "positions": [
                0.6980498132605757,
                -1.6965182479135958,
                -2.591016208896673,
                1.2786912829564998,
                0.4304149300487822,
                -0.4432636899948378
            ]
        },
        {
            "positions": [
                0.7602817458440303,
                -1.7071690440753848,
                -2.4985019476133616,
                1.1765653360521462,
                0.33285045284570636,
                -0.4135410328907629
            ]
        },
        {
            "positions": [
                0.8225136784274849,
                -1.717819840237174,
                -2.4059876863300507,
                1.0744393891477926,
                0.23528597564263048,
                -0.3838183757866879
            ]
        },
        {
            "positions": [
                0.8847456110109394,
                -1.7284706363989633,
                -2.3134734250467397,
                0.972313442243439,
                0.13772149843955472,
                -0.354095718682613
            ]
        },
        {
            "positions": [
                0.946977543594394,
                -1.7391214325607525,
                -2.2209591637634283,
                0.8701874953390853,
                0.04015702123647885,
                -0.32437306157853807
            ]
        },
        {
            "positions": [
                1.0092094761778485,
                -1.7497722287225415,
                -2.1284449024801173,
                0.7680615484347317,
                -0.05740745596659702,
                -0.2946504044744631
            ]
        },
        {
            "positions": [
                1.0714414087613031,
                -1.7604230248843307,
                -2.0359306411968063,
                0.6659356015303781,
                -0.15497193316967273,
                -0.26492774737038827
            ]
        },
        {
            "positions": [
                1.1336733413447577,
                -1.7710738210461199,
                -1.9434163799134951,
                0.5638096546260245,
                -0.25253641037274854,
                -0.2352050902663133
            ]
        },
        {
            "positions": [
                1.1959052739282123,
                -1.7817246172079089,
                -1.850902118630184,
                0.4616837077216709,
                -0.35010088757582447,
                -0.20548243316223835
            ]
        },
        {
            "positions": [
                1.258137206511667,
                -1.792375413369698,
                -1.758387857346873,
                0.3595577608173173,
                -0.4476653647789003,
                -0.17575977605816345
            ]
        },
        {
            "positions": [
                1.3203691390951215,
                -1.8030262095314873,
                -1.6658735960635618,
                0.25743181391296366,
                -0.5452298419819761,
                -0.1460371189540885
            ]
        },
        {
            "positions": [
                1.3826010716785762,
                -1.8136770056932763,
                -1.5733593347802506,
                0.15530586700861004,
                -0.642794319185052,
                -0.11631446185001354
            ]
        },
        {
            "positions": [
                1.4448330042620305,
                -1.8243278018550655,
                -1.4808450734969396,
                0.05317992010425643,
                -0.7403587963881275,
                -0.0865918047459387
            ]
        },
        {
            "positions": [
                1.5070649368454851,
                -1.8349785980168547,
                -1.3883308122136284,
                -0.04894602680009719,
                -0.8379232735912034,
                -0.05686914764186374
            ]
        },
        {
            "positions": [
                1.5692968694289398,
                -1.845629394178644,
                -1.2958165509303172,
                -0.1510719737044508,
                -0.9354877507942794,
                -0.02714649053778878
            ]
        },
        {
            "positions": [
                1.6315288020123944,
                -1.856280190340433,
                -1.2033022896470063,
                -0.2531979206088044,
                -1.033052227997355,
                0.00257616656628612
            ]
        },
        {
            "positions": [
                1.693760734595849,
                -1.8669309865022221,
                -1.110788028363695,
                -0.35532386751315803,
                -1.130616705200431,
                0.032298823670361076
            ]
        },
        {
            "positions": [
                1.7559926671793036,
                -1.8775817826640113,
                -1.0182737670803839,
                -0.45744981441751165,
                -1.228181182403507,
                0.06202148077443603
            ]
        },
        {
            "positions": [
                1.8182245997627582,
                -1.8882325788258003,
                -0.9257595057970729,
                -0.5595757613218653,
                -1.3257456596065826,
                0.09174413787851099
            ]
        },
        {
            "positions": [
                1.8804565323462128,
                -1.8988833749875895,
                -0.8332452445137617,
                -0.6617017082262189,
                -1.4233101368096586,
                0.12146679498258584
            ]
        },
        {
            "positions": [
                1.9426884649296674,
                -1.9095341711493787,
                -0.7407309832304505,
                -0.7638276551305725,
                -1.5208746140127343,
                0.1511894520866608
            ]
        },
        {
            "positions": [
                2.0049203975131222,
                -1.920184967311168,
                -0.6482167219471395,
                -0.8659536020349261,
                -1.6184390912158102,
                0.18091210919073575
            ]
        },
        {
            "positions": [
                2.067152330096577,
                -1.930835763472957,
                -0.5557024606638281,
                -0.9680795489392797,
                -1.7160035684188861,
                0.2106347662948107
            ]
        },
        {
            "positions": [
                2.1293842626800314,
                -1.9414865596347461,
                -0.46318819938051714,
                -1.0702054958436333,
                -1.813568045621962,
                0.24035742339888566
            ]
        },
        {
            "positions": [
                2.191616195263486,
                -1.9521373557965354,
                -0.37067393809720617,
                -1.172331442747987,
                -1.911132522825038,
                0.2700800805029606
            ]
        },
        {
            "positions": [
                2.2538481278469398,
                -1.9627881519583243,
                -0.2781596768138952,
                -1.2744573896523406,
                -2.0086970000281132,
                0.29980273760703535
            ]
        },
        {
            "positions": [
                2.3160800604303944,
                -1.9734389481201136,
                -0.18564541553058422,
                -1.3765833365566942,
                -2.1062614772311887,
                0.3295253947111103
            ]
        },
        {
            "positions": [
                2.378311993013849,
                -1.9840897442819028,
                -0.09313115424727281,
                -1.4787092834610478,
                -2.203825954434265,
                0.35924805181518527
            ]
        },
        {
            "positions": [
                2.4405439255973036,
                -1.9947405404436918,
                -0.0006168929639618348,
                -1.5808352303654014,
                -2.3013904316373406,
                0.3889707089192602
            ]
        },
        {
            "positions": [
                2.502775858180758,
                -2.005391336605481,
                0.09189736831934958,
                -1.682961177269755,
                -2.398954908840417,
                0.4186933660233352
            ]
        },
        {
            "positions": [
                2.565007790764213,
                -2.01604213276727,
                0.18441162960266055,
                -1.7850871241741086,
                -2.4965193860434924,
                0.44841602312741013
            ]
        },
        {
            "positions": [
                2.6272397233476674,
                -2.026692928929059,
                0.2769258908859715,
                -1.8872130710784623,
                -2.594083863246568,
                0.478138680231485
            ]
        },
        {
            "positions": [
                2.689471655931122,
                -2.0373437250908486,
                0.36944015216928294,
                -1.9893390179828159,
                -2.6916483404496443,
                0.5078613373355599
            ]
        },
        {
            "positions": [
                2.7517035885145766,
                -2.0479945212526376,
                0.4619544134525939,
                -2.0914649648871695,
                -2.7892128176527198,
                0.5375839944396348
            ]
        },
        {
            "positions": [
                2.7470783775989815,
                -2.0097420013631173,
                0.512577989917002,
                -2.0436714561741494,
                -2.647019287101424,
                0.6356738369647925
            ]
        },
        {
            "positions": [
                2.7424531666833865,
                -1.971489481473597,
                0.5632015663814102,
                -1.9958779474611295,
                -2.504825756550129,
                0.7337636794899502
            ]
        },
        {
            "positions": [
                2.7378279557677914,
                -1.933236961584077,
                0.6138251428458182,
                -1.9480844387481095,
                -2.3626322259988335,
                0.831853522015108
            ]
        },
        {
            "positions": [
                2.7332027448521963,
                -1.8949844416945567,
                0.6644487193102264,
                -1.9002909300350896,
                -2.2204386954475384,
                0.9299433645402657
            ]
        },
        {
            "positions": [
                2.7285775339366007,
                -1.8567319218050364,
                0.7150722957746345,
                -1.8524974213220695,
                -2.078245164896243,
                1.0280332070654237
            ]
        },
        {
            "positions": [
                2.7239523230210057,
                -1.8184794019155162,
                0.7656958722390426,
                -1.8047039126090496,
                -1.9360516343449472,
                1.1261230495905812
            ]
        },
        {
            "positions": [
                2.7193271121054106,
                -1.780226882025996,
                0.8163194487034507,
                -1.7569104038960297,
                -1.793858103793652,
                1.2242128921157391
            ]
        },
        {
            "positions": [
                2.7147019011898155,
                -1.7419743621364758,
                0.8669430251678589,
                -1.7091168951830098,
                -1.6516645732423565,
                1.3223027346408966
            ]
        },
        {
            "positions": [
                2.7100766902742204,
                -1.7037218422469556,
                0.917566601632267,
                -1.6613233864699897,
                -1.5094710426910611,
                1.4203925771660546
            ]
        },
        {
            "positions": [
                2.7054514793586253,
                -1.6654693223574353,
                0.9681901780966751,
                -1.6135298777569698,
                -1.3672775121397658,
                1.5184824196912123
            ]
        },
        {
            "positions": [
                2.70082626844303,
                -1.627216802467915,
                1.0188137545610831,
                -1.5657363690439499,
                -1.2250839815884704,
                1.61657226221637
            ]
        },
        {
            "positions": [
                2.696201057527435,
                -1.588964282578395,
                1.0694373310254912,
                -1.5179428603309297,
                -1.0828904510371749,
                1.7146621047415278
            ]
        },
        {
            "positions": [
                2.69157584661184,
                -1.5507117626888747,
                1.1200609074898993,
                -1.4701493516179098,
                -0.9406969204858795,
                1.8127519472666855
            ]
        },
        {
            "positions": [
                2.6869506356962445,
                -1.5124592427993544,
                1.1706844839543076,
                -1.42235584290489,
                -0.7985033899345841,
                1.9108417897918433
            ]
        },
        {
            "positions": [
                2.6823254247806494,
                -1.4742067229098341,
                1.2213080604187159,
                -1.3745623341918698,
                -0.6563098593832883,
                2.008931632317001
            ]
        },
        {
            "positions": [
                2.6777002138650543,
                -1.435954203020314,
                1.271931636883124,
                -1.32676882547885,
                -0.5141163288319932,
                2.107021474842159
            ]
        },
        {
            "positions": [
                2.673075002949459,
                -1.3977016831307938,
                1.322555213347532,
                -1.2789753167658298,
                -0.37192279828069763,
                2.205111317367317
            ]
        },
        {
            "positions": [
                2.668449792033864,
                -1.3594491632412735,
                1.37317878981194,
                -1.2311818080528099,
                -0.2297292677294025,
                2.3032011598924744
            ]
        },
        {
            "positions": [
                2.663824581118269,
                -1.3211966433517532,
                1.4238023662763482,
                -1.1833882993397897,
                -0.08753573717810692,
                2.401291002417632
            ]
        },
        {
            "positions": [
                2.659199370202674,
                -1.282944123462233,
                1.4744259427407562,
                -1.13559479062677,
                0.05465779337318821,
                2.49938084494279
            ]
        },
        {
            "positions": [
                2.654574159287079,
                -1.2446916035727127,
                1.5250495192051645,
                -1.08780128191375,
                0.1968513239244838,
                2.597470687467948
            ]
        },
        {
            "positions": [
                2.6499489483714838,
                -1.2064390836831926,
                1.5756730956695726,
                -1.04000777320073,
                0.3390448544757789,
                2.6955605299931054
            ]
        },
        {
            "positions": [
                2.6453237374558882,
                -1.1681865637936724,
                1.6262966721339807,
                -0.9922142644877099,
                0.48123838502707494,
                2.7936503725182633
            ]
        },
        {
            "positions": [
                2.640698526540293,
                -1.1299340439041523,
                1.6769202485983887,
                -0.94442075577469,
                0.6234319155783701,
                2.891740215043421
            ]
        },
        {
            "positions": [
                2.636073315624698,
                -1.091681524014632,
                1.727543825062797,
                -0.8966272470616701,
                0.7656254461296657,
                2.989830057568579
            ]
        },
        {
            "positions": [
                2.631448104709103,
                -1.0534290041251118,
                1.7781674015272049,
                -0.8488337383486502,
                0.9078189766809608,
                3.0879199000937363
            ]
        },
        {
            "positions": [
                2.626822893793508,
                -1.0151764842355915,
                1.8287909779916132,
                -0.8010402296356299,
                1.0500125072322564,
                3.1860097426188942
            ]
        }
    ]
}