{
    "goal": {
        "global_pose": {
            "orientation": {
                "w": 0.005598929693374612,
                "x": 0.007748599140229565,
                "y": 0.7110244013736278,
                "z": -0.7031023480610252
            },
            "position": {
                "x": 0.1141497679147869,
                "y": -0.7141253447532654,
                "z": 0.3711530566215515
            }
        },
        "name": "move_to_auspresseinheit_B"
    },
    "id": "BKPIECE_move_to_auspresseinheit_B_43",
    "joint_names": [
        "shoulder_pan_joint",
        "shoulder_lift_joint",
        "elbow_joint",
        "wrist_1_joint",
        "wrist_2_joint",
        "wrist_3_joint"
    ],
    "metrics": {
        "cart_traj_len": 0.5643691611556532,
        "distance_elbow_joint": 0.06342727937968551,
        "distance_shoulder_lift_joint": 0.2950711275965865,
        "distance_shoulder_pan_joint": 0.5772888839521644,
        "distance_wrist_1_joint": 0.3299376131553825,
        "distance_wrist_2_joint": 0.9887150092883807,
        "distance_wrist_3_joint": 0.00834222795957773,
        "smoothness": 7.612957903237841e-16,
        "time": 1.287125617,
        "traj_len": 1.5042546796775396,
        "weighted_distance": 1.896870902221523
    },
    "planner": "BKPIECE",
    "start": {
        "state": {
            "elbow_joint": 2.019306165916698,
            "shoulder_lift_joint": -1.1220205098164344,
            "shoulder_pan_joint": -1.095207207618794,
            "wrist_1_joint": -0.8559671824921639,
            "wrist_2_joint": 0.47596387242952726,
            "wrist_3_joint": 3.159081874673826
        }
    },
    "waypoints": [
        {
            "positions": [
                -1.095207207618794,
                -1.1220205098164344,
                2.019306165916698,
                -0.8559671824921639,
                0.47596387242952726,
                3.159081874673826
            ]
        },
        {
            "positions": [
                -1.1914220216108213,
                -1.1711990310825322,
                2.0087349526867504,
                -0.8009775802996001,
                0.6407497073109241,
                3.1576915033472295
            ]
        },
        {
            "positions": [
                -1.2876368356028487,
                -1.22037755234863,
                1.9981637394568028,
                -0.7459879781070363,
                0.8055355421923208,
                3.156301132020633
            ]
        },
        {
            "positions": [
                -1.383851649594876,
                -1.2695560736147278,
                1.9875925262268552,
                -0.6909983759144727,
                0.9703213770737176,
                3.1549107606940368
            ]
        },
        {
            "positions": [
                -1.4800664635869034,
                -1.3187345948808253,
                1.9770213129969076,
                -0.6360087737219089,
                1.1351072119551144,
                3.153520389367441
            ]
        },
        {
            "positions": [
                -1.576281277578931,
                -1.3679131161469231,
                1.96645009976696,
                -0.5810191715293451,
                1.2998930468365113,
                3.1521300180408445
            ]
        },
        {
            "positions": [
                -1.6724960915709584,
                -1.417091637413021,
                1.9558788865370125,
                -0.5260295693367814,
                1.464678881717908,
                3.150739646714248
            ]
        }
    ]
}