{
    "goal": {
        "global_pose": {
            "orientation": {
                "w": 0.005598929693374612,
                "x": 0.007748599140229565,
                "y": 0.7110244013736278,
                "z": -0.7031023480610252
            },
            "position": {
                "x": 0.1141497679147869,
                "y": -0.7141253447532654,
                "z": 0.3711530566215515
            }
        },
        "name": "move_to_auspresseinheit_B"
    },
    "id": "BKPIECE_move_to_auspresseinheit_B_21",
    "joint_names": [
        "shoulder_pan_joint",
        "shoulder_lift_joint",
        "elbow_joint",
        "wrist_1_joint",
        "wrist_2_joint",
        "wrist_3_joint"
    ],
    "metrics": {
        "cart_traj_len": 0.5654118852775543,
        "distance_elbow_joint": 0.06139593522282838,
        "distance_shoulder_lift_joint": 0.2952787961847627,
        "distance_shoulder_pan_joint": 0.5785699156956725,
        "distance_wrist_1_joint": 0.31890224337356243,
        "distance_wrist_2_joint": 0.9877906083300227,
        "distance_wrist_3_joint": 0.0010643088858435235,
        "smoothness": 0.0,
        "time": 1.184447874,
        "traj_len": 1.4976654525269295,
        "weighted_distance": 1.8846281535538953
    },
    "planner": "BKPIECE",
    "start": {
        "state": {
            "elbow_joint": 2.019306165916698,
            "shoulder_lift_joint": -1.1220205098164344,
            "shoulder_pan_joint": -1.095207207618794,
            "wrist_1_joint": -0.8559671824921639,
            "wrist_2_joint": 0.47596387242952726,
            "wrist_3_joint": 3.159081874673826
        }
    },
    "waypoints": [
        {
            "positions": [
                -1.095207207618794,
                -1.1220205098164344,
                2.019306165916698,
                -0.8559671824921639,
                0.47596387242952726,
                3.159081874673826
            ]
        },
        {
            "positions": [
                -1.191635526901406,
                -1.171233642513895,
                2.0090735100462265,
                -0.8028168085965701,
                0.640595640484531,
                3.1589044898595184
            ]
        },
        {
            "positions": [
                -1.2880638461840181,
                -1.2204467752113553,
                1.9988408541757552,
                -0.7496664347009764,
                0.8052274085395348,
                3.1587271050452115
            ]
        },
        {
            "positions": [
                -1.3844921654666302,
                -1.2696599079088158,
                1.988608198305284,
                -0.6965160608053826,
                0.9698591765945386,
                3.158549720230904
            ]
        },
        {
            "positions": [
                -1.4809204847492423,
                -1.3188730406062763,
                1.9783755424348124,
                -0.6433656869097889,
                1.1344909446495424,
                3.1583723354165967
            ]
        },
        {
            "positions": [
                -1.5773488040318544,
                -1.3680861733037366,
                1.9681428865643409,
                -0.5902153130141952,
                1.2991227127045462,
                3.1581949506022897
            ]
        },
        {
            "positions": [
                -1.6737771233144665,
                -1.4172993060011971,
                1.9579102306938696,
                -0.5370649391186014,
                1.46375448075955,
                3.1580175657879823
            ]
        }
    ]
}