{
    "goal": {
        "global_pose": {
            "orientation": {
                "w": -0.4816463035849501,
                "x": 0.5182115481033762,
                "y": 0.4908360881923453,
                "z": -0.5084816262002911
            },
            "position": {
                "x": -0.8240239810943604,
                "y": -0.300875300988555,
                "z": 0.16403168439865112
            }
        },
        "name": "move_to_storage_C"
    },
    "id": "BKPIECE_move_to_storage_C_98",
    "joint_names": [
        "shoulder_pan_joint",
        "shoulder_lift_joint",
        "elbow_joint",
        "wrist_1_joint",
        "wrist_2_joint",
        "wrist_3_joint"
    ],
    "metrics": {
        "cart_traj_len": 0.576645757448454,
        "distance_elbow_joint": 0.25577684489774,
        "distance_shoulder_lift_joint": 0.1906292647634864,
        "distance_shoulder_pan_joint": 0.4945676245304145,
        "distance_wrist_1_joint": 0.06443106051616954,
        "distance_wrist_2_joint": 1.0648297112061722,
        "distance_wrist_3_joint": 0.060848456353471914,
        "smoothness": 0.0,
        "time": 0.7980753819999999,
        "traj_len": 1.4598229215447518,
        "weighted_distance": 1.8390325300811676
    },
    "planner": "BKPIECE",
    "start": {
        "state": {
            "elbow_joint": 2.010868315001653,
            "shoulder_lift_joint": -1.1634956873357014,
            "shoulder_pan_joint": -2.4736205022346103,
            "wrist_1_joint": -0.8367026794713948,
            "wrist_2_joint": 0.6746043897044093,
            "wrist_3_joint": 3.1335220948105738
        }
    },
    "waypoints": [
        {
            "positions": [
                -2.4736205022346103,
                -1.1634956873357014,
                2.010868315001653,
                -0.8367026794713948,
                0.6746043897044093,
                3.1335220948105738
            ]
        },
        {
            "positions": [
                -2.556048439656346,
                -1.1317241432084537,
                1.9682388408520297,
                -0.8259641693853665,
                0.8520760082387713,
                3.143663504202819
            ]
        },
        {
            "positions": [
                -2.638476377078082,
                -1.099952599081206,
                1.9256093667024063,
                -0.8152256592993382,
                1.0295476267731334,
                3.1538049135950645
            ]
        },
        {
            "positions": [
                -2.7209043144998173,
                -1.0681810549539583,
                1.882979892552783,
                -0.80448714921331,
                1.2070192453074955,
                3.16394632298731
            ]
        },
        {
            "positions": [
                -2.803332251921553,
                -1.0364095108267104,
                1.8403504184031598,
                -0.7937486391272818,
                1.3844908638418574,
                3.174087732379555
            ]
        },
        {
            "positions": [
                -2.885760189343289,
                -1.0046379666994627,
                1.7977209442535365,
                -0.7830101290412534,
                1.5619624823762195,
                3.1842291417718003
            ]
        },
        {
            "positions": [
                -2.9681881267650247,
                -0.972866422572215,
                1.755091470103913,
                -0.7722716189552252,
                1.7394341009105816,
                3.1943705511640457
            ]
        }
    ]
}