{
    "goal": {
        "global_pose": {
            "orientation": {
                "w": 0.7047431493862688,
                "x": -0.7094548369677653,
                "y": 0.0024358444001904,
                "z": -0.0022348060817251984
            },
            "position": {
                "x": -0.39052492380142206,
                "y": 0.3671506643295288,
                "z": 0.19426114857196808
            }
        },
        "name": "move_to_magneteinheit_D"
    },
    "id": "BKPIECE_move_to_magneteinheit_D_128",
    "joint_names": [
        "shoulder_pan_joint",
        "shoulder_lift_joint",
        "elbow_joint",
        "wrist_1_joint",
        "wrist_2_joint",
        "wrist_3_joint"
    ],
    "metrics": {
        "cart_traj_len": 7.584282814647242,
        "distance_elbow_joint": 3.9220730101507466,
        "distance_shoulder_lift_joint": 1.63173408418707,
        "distance_shoulder_pan_joint": 7.7966128507177155,
        "distance_wrist_1_joint": 3.568786961849036,
        "distance_wrist_2_joint": 6.311986867845737,
        "distance_wrist_3_joint": 3.1071148187953828,
        "smoothness": 0.5373727688234831,
        "time": 1.667857642,
        "traj_len": 5.132086183370821,
        "weighted_distance": 6.5140856657578015
    },
    "planner": "BKPIECE",
    "start": {
        "state": {
            "elbow_joint": 0.7495348899011973,
            "shoulder_lift_joint": -0.6476975780737697,
            "shoulder_pan_joint": -2.711696901376276,
            "wrist_1_joint": -0.07506478080974305,
            "wrist_2_joint": 0.4329665971545858,
            "wrist_3_joint": 3.1361499051832524
        }
    },
    "waypoints": [
        {
            "positions": [
                -2.711696901376276,
                -0.6476975780737697,
                0.7495348899011973,
                -0.07506478080974305,
                0.4329665971545858,
                3.1361499051832524
            ]
        },
        {
            "positions": [
                -2.7781347130564655,
                -0.7238394074027131,
                0.6547444894018573,
                -0.054374149998166296,
                0.3452173530344387,
                3.123822033372081
            ]
        },
        {
            "positions": [
                -2.8445725247366545,
                -0.7999812367316564,
                0.5599540889025172,
                -0.03368351918658954,
                0.2574681089142916,
                3.1114941615609095
            ]
        },
        {
            "positions": [
                -2.911010336416844,
                -0.8761230660605999,
                0.465163688403177,
                -0.012992888375012779,
                0.1697188647941445,
                3.0991662897497383
            ]
        },
        {
            "positions": [
                -2.7546090302979875,
                -0.9011756483591343,
                0.4771535190503591,
                -0.043246717061558755,
                0.26151887083435005,
                3.020532725240118
            ]
        },
        {
            "positions": [
                -2.5982077241791313,
                -0.9262282306576689,
                0.48914334969754114,
                -0.07350054574810473,
                0.35331887687455565,
                2.941899160730497
            ]
        },
        {
            "positions": [
                -2.4418064180602754,
                -0.9512808129562034,
                0.5011331803447232,
                -0.1037543744346507,
                0.4451188829147612,
                2.863265596220877
            ]
        },
        {
            "positions": [
                -2.285405111941419,
                -0.9763333952547378,
                0.5131230109919054,
                -0.13400820312119668,
                0.5369188889549668,
                2.784632031711256
            ]
        },
        {
            "positions": [
                -2.129003805822563,
                -1.0013859775532723,
                0.5251128416390874,
                -0.16426203180774265,
                0.6287188949951723,
                2.7059984672016357
            ]
        },
        {
            "positions": [
                -1.9726024997037068,
                -1.0264385598518069,
                0.5371026722862695,
                -0.19451586049428862,
                0.7205189010353779,
                2.6273649026920154
            ]
        },
        {
            "positions": [
                -1.8162011935848505,
                -1.0514911421503415,
                0.5490925029334516,
                -0.2247696891808346,
                0.8123189070755834,
                2.5487313381823946
            ]
        },
        {
            "positions": [
                -1.6597998874659945,
                -1.0765437244488758,
                0.5610823335806336,
                -0.2550235178673806,
                0.904118913115789,
                2.4700977736727743
            ]
        },
        {
            "positions": [
                -1.5033985813471384,
                -1.1015963067474104,
                0.5730721642278157,
                -0.2852773465539265,
                0.9959189191559945,
                2.3914642091631535
            ]
        },
        {
            "positions": [
                -1.3469972752282822,
                -1.126648889045945,
                0.5850619948749978,
                -0.31553117524047253,
                1.0877189251962,
                2.312830644653533
            ]
        },
        {
            "positions": [
                -1.1905959691094261,
                -1.1517014713444793,
                0.5970518255221798,
                -0.3457850039270185,
                1.1795189312364056,
                2.234197080143913
            ]
        },
        {
            "positions": [
                -1.0341946629905698,
                -1.1767540536430139,
                0.6090416561693619,
                -0.37603883261356447,
                1.2713189372766114,
                2.155563515634292
            ]
        },
        {
            "positions": [
                -0.8777933568717136,
                -1.2018066359415482,
                0.6210314868165441,
                -0.40629266130011044,
                1.3631189433168167,
                2.0769299511246717
            ]
        },
        {
            "positions": [
                -0.7213920507528573,
                -1.226859218240083,
                0.6330213174637261,
                -0.4365464899866564,
                1.4549189493570225,
                1.9982963866150512
            ]
        },
        {
            "positions": [
                -0.5649907446340015,
                -1.2519118005386174,
                0.6450111481109082,
                -0.4668003186732024,
                1.5467189553972278,
                1.9196628221054306
            ]
        },
        {
            "positions": [
                -0.4085894385151452,
                -1.276964382837152,
                0.6570009787580903,
                -0.4970541473597484,
                1.6385189614374336,
                1.84102925759581
            ]
        },
        {
            "positions": [
                -0.2521881323962889,
                -1.3020169651356863,
                0.6689908094052723,
                -0.5273079760462943,
                1.730318967477639,
                1.7623956930861897
            ]
        },
        {
            "positions": [
                -0.09578682627743307,
                -1.327069547434221,
                0.6809806400524544,
                -0.5575618047328402,
                1.8221189735178445,
                1.6837621285765692
            ]
        },
        {
            "positions": [
                0.06061447984142365,
                -1.3521221297327555,
                0.6929704706996365,
                -0.5878156334193864,
                1.9139189795580502,
                1.6051285640669486
            ]
        },
        {
            "positions": [
                0.21701578596027948,
                -1.37717471203129,
                0.7049603013468186,
                -0.6180694621059323,
                2.005718985598256,
                1.526494999557328
            ]
        },
        {
            "positions": [
                0.37341709207913576,
                -1.4022272943298244,
                0.7169501319940006,
                -0.6483232907924782,
                2.097518991638461,
                1.4478614350477077
            ]
        },
        {
            "positions": [
                0.5298183981979916,
                -1.4272798766283588,
                0.7289399626411828,
                -0.6785771194790242,
                2.1893189976786664,
                1.3692278705380871
            ]
        },
        {
            "positions": [
                0.6862197043168483,
                -1.4523324589268936,
                0.7409297932883648,
                -0.7088309481655702,
                2.281119003718872,
                1.2905943060284664
            ]
        },
        {
            "positions": [
                0.8426210104357041,
                -1.477385041225428,
                0.7529196239355469,
                -0.7390847768521162,
                2.372919009759078,
                1.211960741518846
            ]
        },
        {
            "positions": [
                0.9990223165545604,
                -1.5024376235239623,
                0.764909454582729,
                -0.7693386055386622,
                2.4647190157992833,
                1.1333271770092255
            ]
        },
        {
            "positions": [
                1.1554236226734167,
                -1.5274902058224968,
                0.776899285229911,
                -0.7995924342252081,
                2.5565190218394886,
                1.0546936124996051
            ]
        },
        {
            "positions": [
                1.311824928792273,
                -1.5525427881210314,
                0.7888891158770932,
                -0.8298462629117541,
                2.6483190278796944,
                0.9760600479899844
            ]
        },
        {
            "positions": [
                1.4682262349111292,
                -1.577595370419566,
                0.8008789465242752,
                -0.8601000915983,
                2.7401190339199,
                0.897426483480364
            ]
        },
        {
            "positions": [
                1.6246275410299846,
                -1.6026479527181006,
                0.8128687771714573,
                -0.8903539202848461,
                2.8319190399601055,
                0.8187929189707437
            ]
        },
        {
            "positions": [
                1.781028847148841,
                -1.627700535016635,
                0.8248586078186393,
                -0.920607748971392,
                2.923719046000311,
                0.7401593544611229
            ]
        },
        {
            "positions": [
                1.937430153267698,
                -1.6527531173151695,
                0.8368484384658215,
                -0.950861577657938,
                3.0155190520405166,
                0.6615257899515021
            ]
        },
        {
            "positions": [
                2.0938314593865535,
                -1.677805699613704,
                0.8488382691130035,
                -0.981115406344484,
                3.1073190580807224,
                0.5828922254418818
            ]
        },
        {
            "positions": [
                2.2502327655054097,
                -1.7028582819122384,
                0.8608280997601856,
                -1.01136923503103,
                3.1991190641209277,
                0.5042586609322615
            ]
        },
        {
            "positions": [
                2.171650303771381,
                -1.7214574232138062,
                0.7562462482345172,
                -0.9304550826839884,
                3.101721033922266,
                0.4889288682050229
            ]
        },
        {
            "positions": [
                2.093067842037352,
                -1.740056564515374,
                0.6516643967088489,
                -0.8495409303369468,
                3.004323003723604,
                0.47359907547778435
            ]
        },
        {
            "positions": [
                2.0144853803033227,
                -1.7586557058169419,
                0.5470825451831807,
                -0.7686267779899052,
                2.906924973524942,
                0.4582692827505458
            ]
        },
        {
            "positions": [
                1.935902918569294,
                -1.7772548471185097,
                0.4425006936575123,
                -0.6877126256428636,
                2.80952694332628,
                0.4429394900233073
            ]
        },
        {
            "positions": [
                1.857320456835265,
                -1.7958539884200773,
                0.337918842131844,
                -0.606798473295822,
                2.7121289131276183,
                0.42760969729606874
            ]
        },
        {
            "positions": [
                1.778737995101236,
                -1.814453129721645,
                0.23333699060617574,
                -0.5258843209487806,
                2.6147308829289564,
                0.4122799045688302
            ]
        },
        {
            "positions": [
                1.7001555333672072,
                -1.8330522710232129,
                0.1287551390805074,
                -0.444970168601739,
                2.5173328527302945,
                0.3969501118415916
            ]
        },
        {
            "positions": [
                1.6215730716331782,
                -1.8516514123247807,
                0.02417328755483905,
                -0.3640560162546974,
                2.4199348225316326,
                0.38162031911435307
            ]
        },
        {
            "positions": [
                1.542990609899149,
                -1.8702505536263485,
                -0.0804085639708294,
                -0.28314186390765583,
                2.3225367923329707,
                0.36629052638711457
            ]
        },
        {
            "positions": [
                1.4644081481651203,
                -1.8888496949279163,
                -0.18499041549649764,
                -0.20222771156061425,
                2.225138762134309,
                0.350960733659876
            ]
        },
        {
            "positions": [
                1.3858256864310912,
                -1.9074488362294841,
                -0.2895722670221661,
                -0.12131355921357267,
                2.127740731935647,
                0.33563094093263746
            ]
        },
        {
            "positions": [
                1.3072432246970624,
                -1.9260479775310517,
                -0.3941541185478341,
                -0.04039940686653121,
                2.030342701736985,
                0.3203011482053989
            ]
        },
        {
            "positions": [
                1.2286607629630333,
                -1.9446471188326195,
                -0.49873597007350257,
                0.04051474548051037,
                1.9329446715383234,
                0.30497135547816034
            ]
        },
        {
            "positions": [
                1.1500783012290046,
                -1.9632462601341873,
                -0.6033178215991708,
                0.12142889782755195,
                1.8355466413396615,
                0.2896415627509218
            ]
        },
        {
            "positions": [
                1.0714958394949754,
                -1.9818454014357552,
                -0.7078996731248393,
                0.20234305017459353,
                1.7381486111409996,
                0.27431177002368323
            ]
        },
        {
            "positions": [
                0.9929133777609467,
                -2.000444542737323,
                -0.8124815246505075,
                0.2832572025216351,
                1.6407505809423377,
                0.2589819772964447
            ]
        },
        {
            "positions": [
                0.9143309160269177,
                -2.019043684038891,
                -0.9170633761761757,
                0.36417135486867647,
                1.543352550743676,
                0.24365218456920618
            ]
        },
        {
            "positions": [
                0.8357484542928886,
                -2.0376428253404586,
                -1.0216452277018444,
                0.44508550721571827,
                1.445954520545014,
                0.22832239184196762
            ]
        },
        {
            "positions": [
                0.7571659925588596,
                -2.0562419666420264,
                -1.1262270792275126,
                0.5259996595627598,
                1.348556490346352,
                0.21299259911472906
            ]
        },
        {
            "positions": [
                0.6785835308248309,
                -2.074841107943594,
                -1.2308089307531809,
                0.6069138119098014,
                1.2511584601476904,
                0.1976628063874905
            ]
        },
        {
            "positions": [
                0.600001069090802,
                -2.093440249245162,
                -1.335390782278849,
                0.6878279642568428,
                1.1537604299490285,
                0.182333013660252
            ]
        },
        {
            "positions": [
                0.5214186073567728,
                -2.11203939054673,
                -1.4399726338045178,
                0.7687421166038846,
                1.0563623997503662,
                0.1670032209330134
            ]
        },
        {
            "positions": [
                0.44283614562274387,
                -2.130638531848297,
                -1.544554485330186,
                0.8496562689509262,
                0.9589643695517047,
                0.1516734282057749
            ]
        },
        {
            "positions": [
                0.36425368388871493,
                -2.149237673149865,
                -1.6491363368558538,
                0.9305704212979675,
                0.8615663393530428,
                0.13634363547853634
            ]
        },
        {
            "positions": [
                0.2856712221546862,
                -2.167836814451433,
                -1.753718188381522,
                1.011484573645009,
                0.7641683091543809,
                0.12101384275129778
            ]
        },
        {
            "positions": [
                0.20708876042065683,
                -2.1864359557530006,
                -1.8583000399071907,
                1.0923987259920507,
                0.666770278955719,
                0.10568405002405923
            ]
        },
        {
            "positions": [
                0.1285062986866281,
                -2.2050350970545685,
                -1.962881891432859,
                1.1733128783390923,
                0.5693722487570572,
                0.09035425729682067
            ]
        },
        {
            "positions": [
                0.04992383695259939,
                -2.2236342383561363,
                -2.067463742958527,
                1.2542270306861338,
                0.4719742185583953,
                0.07502446456958217
            ]
        },
        {
            "positions": [
                -0.028658624781429776,
                -2.242233379657704,
                -2.1720455944841954,
                1.3351411830331754,
                0.3745761883597334,
                0.059694671842343616
            ]
        },
        {
            "positions": [
                -0.10724108651545894,
                -2.260832520959272,
                -2.276627446009864,
                1.416055335380217,
                0.2771781581610715,
                0.04436487911510506
            ]
        },
        {
            "positions": [
                -0.18582354824948746,
                -2.2794316622608397,
                -2.3812092975355323,
                1.4969694877272586,
                0.1797801279624095,
                0.029035086387866508
            ]
        }
    ]
}