{
    "goal": {
        "global_pose": {
            "orientation": {
                "w": 0.005598929693374612,
                "x": 0.007748599140229565,
                "y": 0.7110244013736278,
                "z": -0.7031023480610252
            },
            "position": {
                "x": -0.8858502320852131,
                "y": -0.7141253447532654,
                "z": 0.3711530566215515
            }
        },
        "name": "move_to_auspresseinheit_C"
    },
    "id": "BKPIECE_move_to_auspresseinheit_C_102",
    "joint_names": [
        "shoulder_pan_joint",
        "shoulder_lift_joint",
        "elbow_joint",
        "wrist_1_joint",
        "wrist_2_joint",
        "wrist_3_joint"
    ],
    "metrics": {
        "cart_traj_len": 0.4924297639300274,
        "distance_elbow_joint": 0.9928942088222181,
        "distance_shoulder_lift_joint": 0.3211489754633937,
        "distance_shoulder_pan_joint": 0.255576481441274,
        "distance_wrist_1_joint": 0.6617675513318222,
        "distance_wrist_2_joint": 1.317700531278106,
        "distance_wrist_3_joint": 0.037250505314596616,
        "smoothness": 4.844609574787718e-16,
        "time": 0.85577378,
        "traj_len": 1.8937629877182125,
        "weighted_distance": 2.374933124719627
    },
    "planner": "BKPIECE",
    "start": {
        "state": {
            "elbow_joint": 1.752795957773711,
            "shoulder_lift_joint": -0.9740617694225064,
            "shoulder_pan_joint": -2.967991417825858,
            "wrist_1_joint": -0.7595177689806859,
            "wrist_2_joint": 1.7443932448377395,
            "wrist_3_joint": 3.199131542505932
        }
    },
    "waypoints": [
        {
            "positions": [
                -2.967991417825858,
                -0.9740617694225064,
                1.752795957773711,
                -0.7595177689806859,
                1.7443932448377395,
                3.199131542505932
            ]
        },
        {
            "positions": [
                -2.9424337696817306,
                -0.9419468718761671,
                1.6535065368914892,
                -0.6933410138475037,
                1.612623191709929,
                3.1954064919744725
            ]
        },
        {
            "positions": [
                -2.9168761215376033,
                -0.9098319743298277,
                1.5542171160092675,
                -0.6271642587143215,
                1.4808531385821182,
                3.191681441443013
            ]
        },
        {
            "positions": [
                -2.8913184733934756,
                -0.8777170767834883,
                1.4549276951270458,
                -0.5609875035811392,
                1.3490830854543077,
                3.187956390911553
            ]
        },
        {
            "positions": [
                -2.8657608252493483,
                -0.845602179237149,
                1.3556382742448239,
                -0.494810748447957,
                1.217313032326497,
                3.1842313403800935
            ]
        },
        {
            "positions": [
                -2.840203177105221,
                -0.8134872816908096,
                1.256348853362602,
                -0.4286339933147748,
                1.0855429791986864,
                3.180506289848634
            ]
        },
        {
            "positions": [
                -2.8146455289610937,
                -0.7813723841444702,
                1.1570594324803802,
                -0.3624572381815926,
                0.9537729260708759,
                3.176781239317174
            ]
        },
        {
            "positions": [
                -2.7890878808169663,
                -0.7492574865981309,
                1.0577700115981585,
                -0.2962804830484104,
                0.8220028729430653,
                3.1730561887857145
            ]
        },
        {
            "positions": [
                -2.7635302326728386,
                -0.7171425890517915,
                0.9584805907159366,
                -0.23010372791522815,
                0.6902328198152545,
                3.169331138254255
            ]
        },
        {
            "positions": [
                -2.7379725845287113,
                -0.6850276915054521,
                0.8591911698337148,
                -0.16392697278204593,
                0.558462766687444,
                3.165606087722795
            ]
        },
        {
            "positions": [
                -2.712414936384584,
                -0.6529127939591127,
                0.759901748951493,
                -0.09775021764886374,
                0.4266927135596335,
                3.1618810371913355
            ]
        }
    ]
}