{
    "goal": {
        "global_pose": {
            "orientation": {
                "w": 0.7031023480610252,
                "x": -0.7110244013736278,
                "y": 0.0077485991402295624,
                "z": 0.005598929693374583
            },
            "position": {
                "x": -0.8841497679147869,
                "y": 0.44412534475326537,
                "z": 0.3711530566215515
            }
        },
        "name": "move_to_auspresseinheit_D"
    },
    "id": "BKPIECE_move_to_auspresseinheit_D_124",
    "joint_names": [
        "shoulder_pan_joint",
        "shoulder_lift_joint",
        "elbow_joint",
        "wrist_1_joint",
        "wrist_2_joint",
        "wrist_3_joint"
    ],
    "metrics": {
        "cart_traj_len": 3.3997562337401503,
        "distance_elbow_joint": 3.202014208176056,
        "distance_shoulder_lift_joint": 1.3875015227578906,
        "distance_shoulder_pan_joint": 2.87897406004222,
        "distance_wrist_1_joint": 1.294306735009823,
        "distance_wrist_2_joint": 1.0267295027060228,
        "distance_wrist_3_joint": 3.0432893459808783,
        "smoothness": 0.01675263644683854,
        "time": 1.0660241400000001,
        "traj_len": 3.582291916451378,
        "weighted_distance": 4.6087341325303735
    },
    "planner": "BKPIECE",
    "start": {
        "state": {
            "elbow_joint": 1.8268400409724999,
            "shoulder_lift_joint": -1.0144045787793008,
            "shoulder_pan_joint": 2.6280239544362485,
            "wrist_1_joint": -0.790705565816056,
            "wrist_2_joint": 1.0573557467365533,
            "wrist_3_joint": 3.1851377467193758
        }
    },
    "waypoints": [
        {
            "positions": [
                2.6280239544362485,
                -1.0144045787793008,
                1.8268400409724999,
                -0.790705565816056,
                1.0573557467365533,
                3.1851377467193758
            ]
        },
        {
            "positions": [
                2.6321121143791726,
                -1.0657918348382343,
                1.7958624174544724,
                -0.788504379434757,
                0.9612286826691789,
                3.0064292788451024
            ]
        },
        {
            "positions": [
                2.6362002743220962,
                -1.1171790908971677,
                1.7648847939364452,
                -0.7863031930534582,
                0.8651016186018047,
                2.8277208109708285
            ]
        },
        {
            "positions": [
                2.6402884342650204,
                -1.1685663469561012,
                1.7339071704184177,
                -0.7841020066721592,
                0.7689745545344304,
                2.6490123430965555
            ]
        },
        {
            "positions": [
                2.644376594207944,
                -1.2199536030150346,
                1.7029295469003902,
                -0.7819008202908603,
                0.672847490467056,
                2.4703038752222817
            ]
        },
        {
            "positions": [
                2.648464754150868,
                -1.2713408590739683,
                1.671951923382363,
                -0.7796996339095614,
                0.5767204263996818,
                2.2915954073480083
            ]
        },
        {
            "positions": [
                2.6525529140937922,
                -1.3227281151329016,
                1.6409742998643355,
                -0.7774984475282625,
                0.48059336233230754,
                2.112886939473735
            ]
        },
        {
            "positions": [
                2.656641074036716,
                -1.3741153711918352,
                1.609996676346308,
                -0.7752972611469635,
                0.3844662982649333,
                1.9341784715994614
            ]
        },
        {
            "positions": [
                2.66072923397964,
                -1.4255026272507687,
                1.5790190528282806,
                -0.7730960747656646,
                0.2883392341975588,
                1.7554700037251876
            ]
        },
        {
            "positions": [
                2.6648173939225637,
                -1.4768898833097022,
                1.5480414293102533,
                -0.7708948883843657,
                0.19221217013018455,
                1.5767615358509142
            ]
        },
        {
            "positions": [
                2.668905553865488,
                -1.5282771393686356,
                1.5170638057922259,
                -0.7686937020030667,
                0.09608510606281023,
                1.3980530679766408
            ]
        },
        {
            "positions": [
                2.550651701339947,
                -1.5646783461256588,
                1.3965538902507348,
                -0.7156814157031987,
                0.09881255864748857,
                1.3457112068417183
            ]
        },
        {
            "positions": [
                2.4323978488144062,
                -1.601079552882682,
                1.276043974709244,
                -0.6626691294033307,
                0.10154001123216692,
                1.2933693457067956
            ]
        },
        {
            "positions": [
                2.3141439962888652,
                -1.6374807596397052,
                1.1555340591677532,
                -0.6096568431034626,
                0.10426746381684526,
                1.2410274845718732
            ]
        },
        {
            "positions": [
                2.1958901437633243,
                -1.6738819663967281,
                1.0350241436262622,
                -0.5566445568035945,
                0.1069949164015236,
                1.1886856234369505
            ]
        },
        {
            "positions": [
                2.0776362912377833,
                -1.7102831731537513,
                0.9145142280847712,
                -0.5036322705037264,
                0.10972236898620195,
                1.136343762302028
            ]
        },
        {
            "positions": [
                1.9593824387122427,
                -1.7466843799107745,
                0.7940043125432803,
                -0.45061998420385835,
                0.11244982157088029,
                1.0840019011671056
            ]
        },
        {
            "positions": [
                1.8411285861867017,
                -1.7830855866677977,
                0.6734943970017894,
                -0.39760769790399025,
                0.11517727415555865,
                1.031660040032183
            ]
        },
        {
            "positions": [
                1.722874733661161,
                -1.819486793424821,
                0.5529844814602984,
                -0.3445954116041222,
                0.11790472674023697,
                0.9793181788972605
            ]
        },
        {
            "positions": [
                1.60462088113562,
                -1.855888000181844,
                0.4324745659188076,
                -0.2915831253042541,
                0.12063217932491532,
                0.9269763177623379
            ]
        },
        {
            "positions": [
                1.4863670286100792,
                -1.8922892069388673,
                0.3119646503773166,
                -0.23857083900438603,
                0.12335963190959368,
                0.8746344566274153
            ]
        },
        {
            "positions": [
                1.3681131760845384,
                -1.9286904136958904,
                0.19145473483582576,
                -0.18555855270451804,
                0.126087084494272,
                0.8222925954924929
            ]
        },
        {
            "positions": [
                1.2498593235589974,
                -1.9650916204529136,
                0.07094481929433472,
                -0.13254626640464995,
                0.12881453707895035,
                0.7699507343575703
            ]
        },
        {
            "positions": [
                1.1316054710334567,
                -2.001492827209937,
                -0.049565096247156104,
                -0.07953398010478197,
                0.13154198966362868,
                0.7176088732226479
            ]
        },
        {
            "positions": [
                1.0133516185079157,
                -2.03789403396696,
                -0.17007501178864715,
                -0.02652169380491376,
                0.13426944224830706,
                0.6652670120877252
            ]
        },
        {
            "positions": [
                0.8950977659823749,
                -2.074295240723983,
                -0.2905849273301382,
                0.026490592494954224,
                0.13699689483298538,
                0.6129251509528028
            ]
        },
        {
            "positions": [
                0.7768439134568341,
                -2.110696447481006,
                -0.411094842871629,
                0.07950287879482232,
                0.1397243474176637,
                0.5605832898178802
            ]
        },
        {
            "positions": [
                0.6585900609312931,
                -2.1470976542380296,
                -0.5316047584131198,
                0.1325151650946904,
                0.1424518000023421,
                0.5082414286829576
            ]
        },
        {
            "positions": [
                0.5403362084057521,
                -2.1834988609950523,
                -0.6521146739546106,
                0.1855274513945585,
                0.1451792525870204,
                0.45589956754803507
            ]
        },
        {
            "positions": [
                0.4220823558802116,
                -2.2199000677520755,
                -0.7726245894961019,
                0.23853973769442638,
                0.14790670517169874,
                0.4035577064131126
            ]
        },
        {
            "positions": [
                0.3038285033546706,
                -2.2563012745090987,
                -0.8931345050375927,
                0.2915520239942947,
                0.15063415775637712,
                0.35121584527818994
            ]
        },
        {
            "positions": [
                0.1855746508291296,
                -2.292702481266122,
                -1.0136444205790835,
                0.34456431029416257,
                0.15336161034105544,
                0.2988739841432675
            ]
        },
        {
            "positions": [
                0.06732079830358906,
                -2.329103688023145,
                -1.1341543361205744,
                0.39757659659403066,
                0.15608906292573377,
                0.24653212300834504
            ]
        },
        {
            "positions": [
                -0.05093305422195238,
                -2.3655048947801682,
                -1.2546642516620656,
                0.45058888289389876,
                0.15881651551041215,
                0.19419026187342237
            ]
        },
        {
            "positions": [
                -0.16918690674749273,
                -2.4019061015371914,
                -1.3751741672035567,
                0.5036011691937669,
                0.16154396809509047,
                0.14184840073849983
            ]
        }
    ]
}