{
    "goal": {
        "global_pose": {
            "orientation": {
                "w": 0.005598929693374612,
                "x": 0.007748599140229565,
                "y": 0.7110244013736278,
                "z": -0.7031023480610252
            },
            "position": {
                "x": 0.1141497679147869,
                "y": -0.7141253447532654,
                "z": 0.3711530566215515
            }
        },
        "name": "move_to_auspresseinheit_B"
    },
    "id": "BKPIECE_move_to_auspresseinheit_B_130",
    "joint_names": [
        "shoulder_pan_joint",
        "shoulder_lift_joint",
        "elbow_joint",
        "wrist_1_joint",
        "wrist_2_joint",
        "wrist_3_joint"
    ],
    "metrics": {
        "cart_traj_len": 0.5646488773348949,
        "distance_elbow_joint": 0.06081153963528174,
        "distance_shoulder_lift_joint": 0.295121932308414,
        "distance_shoulder_pan_joint": 0.5791689946106735,
        "distance_wrist_1_joint": 0.3233824616417432,
        "distance_wrist_2_joint": 0.9845988590380996,
        "distance_wrist_3_joint": 0.006978377368014321,
        "smoothness": 0.0,
        "time": 1.077149169,
        "traj_len": 1.5000207213909502,
        "weighted_distance": 1.889973608286131
    },
    "planner": "BKPIECE",
    "start": {
        "state": {
            "elbow_joint": 2.019306165916698,
            "shoulder_lift_joint": -1.1220205098164344,
            "shoulder_pan_joint": -1.095207207618794,
            "wrist_1_joint": -0.8559671824921639,
            "wrist_2_joint": 0.47596387242952726,
            "wrist_3_joint": 3.159081874673826
        }
    },
    "waypoints": [
        {
            "positions": [
                -1.095207207618794,
                -1.1220205098164344,
                2.019306165916698,
                -0.8559671824921639,
                0.47596387242952726,
                3.159081874673826
            ]
        },
        {
            "positions": [
                -1.1917353733872396,
                -1.1712074985345033,
                2.009170909310818,
                -0.8020701055518733,
                0.6400636822692105,
                3.157918811779157
            ]
        },
        {
            "positions": [
                -1.2882635391556851,
                -1.2203944872525725,
                1.9990356527049373,
                -0.7481730286115827,
                0.8041634921088938,
                3.1567557488844877
            ]
        },
        {
            "positions": [
                -1.3847917049241307,
                -1.2695814759706414,
                1.9889003960990572,
                -0.6942759516712922,
                0.9682633019485771,
                3.1555926859898187
            ]
        },
        {
            "positions": [
                -1.4813198706925763,
                -1.3187684646887103,
                1.978765139493177,
                -0.6403788747310017,
                1.1323631117882602,
                3.1544296230951496
            ]
        },
        {
            "positions": [
                -1.577848036461022,
                -1.3679554534067795,
                1.9686298828872966,
                -0.5864817977907111,
                1.2964629216279437,
                3.1532665602004806
            ]
        },
        {
            "positions": [
                -1.6743762022294675,
                -1.4171424421248484,
                1.9584946262814162,
                -0.5325847208504206,
                1.4605627314676268,
                3.1521034973058115
            ]
        }
    ]
}