{
    "goal": {
        "global_pose": {
            "orientation": {
                "w": -0.00223480608172531,
                "x": 0.0024358444001904467,
                "y": 0.7094548369677653,
                "z": -0.704743149386269
            },
            "position": {
                "x": 0.6205249238014221,
                "y": -0.6371506643295288,
                "z": 0.19426114857196808
            }
        },
        "name": "move_to_magneteinheit_B"
    },
    "id": "BKPIECE_move_to_magneteinheit_B_77",
    "joint_names": [
        "shoulder_pan_joint",
        "shoulder_lift_joint",
        "elbow_joint",
        "wrist_1_joint",
        "wrist_2_joint",
        "wrist_3_joint"
    ],
    "metrics": {
        "cart_traj_len": 1.4525499467569953,
        "distance_elbow_joint": 0.7302043944534617,
        "distance_shoulder_lift_joint": 1.2495794142868868,
        "distance_shoulder_pan_joint": 1.6211383636847685,
        "distance_wrist_1_joint": 2.602942361813623,
        "distance_wrist_2_joint": 2.941165776699,
        "distance_wrist_3_joint": 3.132294191050306,
        "smoothness": 5.828670887488648e-16,
        "time": 1.7067183940000001,
        "traj_len": 3.5039013259491263,
        "weighted_distance": 4.907751116611485
    },
    "planner": "BKPIECE",
    "start": {
        "state": {
            "elbow_joint": 2.3935871308073637,
            "shoulder_lift_joint": -1.9085141043777403,
            "shoulder_pan_joint": 0.7066247067284167,
            "wrist_1_joint": -0.46782909355067076,
            "wrist_2_joint": 0.7096259085804283,
            "wrist_3_joint": -3.1358149275257428
        }
    },
    "waypoints": [
        {
            "positions": [
                0.7066247067284167,
                -1.9085141043777403,
                2.3935871308073637,
                -0.46782909355067076,
                0.7096259085804283,
                -3.1358149275257428
            ]
        },
        {
            "positions": [
                0.6543299208031016,
                -1.8682050910136472,
                2.3700321503411232,
                -0.38386321091152165,
                0.6147495932030412,
                -3.034773179427346
            ]
        },
        {
            "positions": [
                0.6020351348777865,
                -1.827896077649554,
                2.3464771698748823,
                -0.2998973282723725,
                0.5198732778256541,
                -2.933731431328949
            ]
        },
        {
            "positions": [
                0.5497403489524714,
                -1.787587064285461,
                2.322922189408642,
                -0.21593144563322336,
                0.424996962448267,
                -2.832689683230552
            ]
        },
        {
            "positions": [
                0.49744556302715626,
                -1.7472780509213677,
                2.299367208942401,
                -0.13196556299407425,
                0.3301206470708799,
                -2.731647935132155
            ]
        },
        {
            "positions": [
                0.44515077710184114,
                -1.7069690375572746,
                2.2758122284761604,
                -0.04799968035492508,
                0.2352443316934928,
                -2.630606187033758
            ]
        },
        {
            "positions": [
                0.39285599117652603,
                -1.6666600241931815,
                2.2522572480099194,
                0.035966202284224036,
                0.14036801631610574,
                -2.529564438935361
            ]
        },
        {
            "positions": [
                0.3405612052512109,
                -1.6263510108290884,
                2.228702267543679,
                0.1199320849233732,
                0.04549170093871857,
                -2.4285226908369637
            ]
        },
        {
            "positions": [
                0.2882664193258958,
                -1.5860419974649953,
                2.205147287077438,
                0.20389796756252226,
                -0.049384614438668484,
                -2.3274809427385668
            ]
        },
        {
            "positions": [
                0.23597163340058064,
                -1.5457329841009022,
                2.1815923066111975,
                0.28786385020167155,
                -0.14426092981605565,
                -2.22643919464017
            ]
        },
        {
            "positions": [
                0.18367684747526558,
                -1.5054239707368091,
                2.1580373261449566,
                0.3718297328408206,
                -0.2391372451934427,
                -2.125397446541773
            ]
        },
        {
            "positions": [
                0.13138206154995047,
                -1.465114957372716,
                2.134482345678716,
                0.4557956154799698,
                -0.33401356057082976,
                -2.024355698443376
            ]
        },
        {
            "positions": [
                0.07908727562463536,
                -1.424805944008623,
                2.110927365212475,
                0.5397614981191188,
                -0.4288898759482168,
                -1.9233139503449792
            ]
        },
        {
            "positions": [
                0.026792489699320243,
                -1.3844969306445296,
                2.0873723847462347,
                0.623727380758268,
                -0.5237661913256041,
                -1.822272202246582
            ]
        },
        {
            "positions": [
                -0.02550229622599487,
                -1.3441879172804367,
                2.0638174042799937,
                0.7076932633974171,
                -0.6186425067029911,
                -1.721230454148185
            ]
        },
        {
            "positions": [
                -0.07779708215130998,
                -1.3038789039163434,
                2.0402624238137532,
                0.7916591460365663,
                -0.7135188220803782,
                -1.6201887060497882
            ]
        },
        {
            "positions": [
                -0.1300918680766251,
                -1.2635698905522503,
                2.0167074433475127,
                0.8756250286757152,
                -0.8083951374577653,
                -1.5191469579513912
            ]
        },
        {
            "positions": [
                -0.1823866540019401,
                -1.2232608771881572,
                1.9931524628812718,
                0.9595909113148644,
                -0.9032714528351523,
                -1.4181052098529943
            ]
        },
        {
            "positions": [
                -0.23468143992725543,
                -1.182951863824064,
                1.969597482415031,
                1.0435567939540138,
                -0.9981477682125396,
                -1.317063461754597
            ]
        },
        {
            "positions": [
                -0.28697622585257043,
                -1.1426428504599708,
                1.9460425019487904,
                1.1275226765931627,
                -1.0930240835899268,
                -1.2160217136562002
            ]
        },
        {
            "positions": [
                -0.33927101177788554,
                -1.1023338370958777,
                1.9224875214825496,
                1.211488559232312,
                -1.1879003989673138,
                -1.1149799655578034
            ]
        },
        {
            "positions": [
                -0.39156579770320066,
                -1.0620248237317846,
                1.898932541016309,
                1.2954544418714609,
                -1.2827767143447004,
                -1.0139382174594065
            ]
        },
        {
            "positions": [
                -0.44386058362851577,
                -1.0217158103676915,
                1.8753775605500684,
                1.3794203245106103,
                -1.377653029722088,
                -0.9128964693610091
            ]
        },
        {
            "positions": [
                -0.4961553695538309,
                -0.9814067970035985,
                1.8518225800838275,
                1.4633862071497592,
                -1.472529345099475,
                -0.8118547212626122
            ]
        },
        {
            "positions": [
                -0.548450155479146,
                -0.9410977836395054,
                1.828267599617587,
                1.5473520897889084,
                -1.567405660476862,
                -0.7108129731642157
            ]
        },
        {
            "positions": [
                -0.6007449414044611,
                -0.9007887702754123,
                1.8047126191513463,
                1.6313179724280573,
                -1.662281975854249,
                -0.6097712250658187
            ]
        },
        {
            "positions": [
                -0.6530397273297762,
                -0.860479756911319,
                1.7811576386851056,
                1.7152838550672067,
                -1.7571582912316366,
                -0.5087294769674213
            ]
        },
        {
            "positions": [
                -0.7053345132550913,
                -0.8201707435472259,
                1.7576026582188646,
                1.7992497377063557,
                -1.8520346066090236,
                -0.4076877288690244
            ]
        },
        {
            "positions": [
                -0.7576292991804064,
                -0.779861730183133,
                1.7340476777526241,
                1.883215620345505,
                -1.9469109219864107,
                -0.30664598077062744
            ]
        },
        {
            "positions": [
                -0.8099240851057216,
                -0.7395527168190399,
                1.7104926972863834,
                1.967181502984654,
                -2.0417872373637973,
                -0.20560423267223094
            ]
        },
        {
            "positions": [
                -0.8622188710310367,
                -0.6992437034549466,
                1.6869377168201427,
                2.0511473856238034,
                -2.136663552741185,
                -0.10456248457383355
            ]
        },
        {
            "positions": [
                -0.9145136569563518,
                -0.6589346900908536,
                1.663382736353902,
                2.1351132682629523,
                -2.231539868118572,
                -0.003520736475436497
            ]
        }
    ]
}