{
    "goal": {
        "global_pose": {
            "orientation": {
                "w": 0.005598929693374612,
                "x": 0.007748599140229565,
                "y": 0.7110244013736278,
                "z": -0.7031023480610252
            },
            "position": {
                "x": -0.8858502320852131,
                "y": -0.7141253447532654,
                "z": 0.3711530566215515
            }
        },
        "name": "move_to_auspresseinheit_C"
    },
    "id": "BKPIECE_move_to_auspresseinheit_C_86",
    "joint_names": [
        "shoulder_pan_joint",
        "shoulder_lift_joint",
        "elbow_joint",
        "wrist_1_joint",
        "wrist_2_joint",
        "wrist_3_joint"
    ],
    "metrics": {
        "cart_traj_len": 0.4929603836461116,
        "distance_elbow_joint": 1.0014439408727254,
        "distance_shoulder_lift_joint": 0.32557271843243696,
        "distance_shoulder_pan_joint": 0.25544157324642747,
        "distance_wrist_1_joint": 0.6757275987300735,
        "distance_wrist_2_joint": 1.3220763503002884,
        "distance_wrist_3_joint": 0.05648178369126322,
        "smoothness": 1.6148698667872622e-16,
        "time": 0.5302895400000001,
        "traj_len": 1.907024898965196,
        "weighted_distance": 2.3973968135638506
    },
    "planner": "BKPIECE",
    "start": {
        "state": {
            "elbow_joint": 1.752795957773711,
            "shoulder_lift_joint": -0.9740617694225064,
            "shoulder_pan_joint": -2.967991417825858,
            "wrist_1_joint": -0.7595177689806859,
            "wrist_2_joint": 1.7443932448377395,
            "wrist_3_joint": 3.199131542505932
        }
    },
    "waypoints": [
        {
            "positions": [
                -2.967991417825858,
                -0.9740617694225064,
                1.752795957773711,
                -0.7595177689806859,
                1.7443932448377395,
                3.199131542505932
            ]
        },
        {
            "positions": [
                -2.9424472605012153,
                -0.9415044975792628,
                1.6526515636864385,
                -0.6919450091076785,
                1.6121856098077108,
                3.1934833641368057
            ]
        },
        {
            "positions": [
                -2.9169031031765726,
                -0.908947225736019,
                1.5525071695991661,
                -0.6243722492346712,
                1.4799779747776818,
                3.1878351857676797
            ]
        },
        {
            "positions": [
                -2.8913589458519295,
                -0.8763899538927753,
                1.4523627755118935,
                -0.5567994893616639,
                1.347770339747653,
                3.182187007398553
            ]
        },
        {
            "positions": [
                -2.865814788527287,
                -0.8438326820495317,
                1.352218381424621,
                -0.4892267294886565,
                1.215562704717624,
                3.1765388290294267
            ]
        },
        {
            "positions": [
                -2.8402706312026442,
                -0.811275410206288,
                1.2520739873373485,
                -0.42165396961564916,
                1.0833550696875953,
                3.1708906506603007
            ]
        },
        {
            "positions": [
                -2.8147264738780016,
                -0.7787181383630443,
                1.151929593250076,
                -0.35408120974264184,
                0.9511474346575665,
                3.1652424722911743
            ]
        },
        {
            "positions": [
                -2.789182316553359,
                -0.7461608665198006,
                1.0517851991628033,
                -0.2865084498696345,
                0.8189397996275377,
                3.159594293922048
            ]
        },
        {
            "positions": [
                -2.763638159228716,
                -0.7136035946765569,
                0.9516408050755307,
                -0.21893568999662705,
                0.6867321645975089,
                3.1539461155529214
            ]
        },
        {
            "positions": [
                -2.738094001904073,
                -0.6810463228333132,
                0.8514964109882582,
                -0.1513629301236198,
                0.5545245295674799,
                3.1482979371837954
            ]
        },
        {
            "positions": [
                -2.7125498445794305,
                -0.6484890509900695,
                0.7513520169009857,
                -0.08379017025061242,
                0.42231689453745114,
                3.142649758814669
            ]
        }
    ]
}