{
    "goal": {
        "global_pose": {
            "orientation": {
                "w": -0.00223480608172531,
                "x": 0.0024358444001904467,
                "y": 0.7094548369677653,
                "z": -0.704743149386269
            },
            "position": {
                "x": -0.37947507619857795,
                "y": -0.6371506643295288,
                "z": 0.19426114857196808
            }
        },
        "name": "move_to_magneteinheit_C"
    },
    "id": "BKPIECE_move_to_magneteinheit_C_150",
    "joint_names": [
        "shoulder_pan_joint",
        "shoulder_lift_joint",
        "elbow_joint",
        "wrist_1_joint",
        "wrist_2_joint",
        "wrist_3_joint"
    ],
    "metrics": {
        "cart_traj_len": 3.427364830752513,
        "distance_elbow_joint": 3.6710663333378526,
        "distance_shoulder_lift_joint": 0.8375617769317216,
        "distance_shoulder_pan_joint": 3.9075769210849853,
        "distance_wrist_1_joint": 6.389533205280311,
        "distance_wrist_2_joint": 0.8032622913698316,
        "distance_wrist_3_joint": 2.8786088143654704,
        "smoothness": 0.9566289453074962,
        "time": 0.958956454,
        "traj_len": 4.29972200756865,
        "weighted_distance": 5.606926294125084
    },
    "planner": "BKPIECE",
    "start": {
        "state": {
            "elbow_joint": 1.9565354006590394,
            "shoulder_lift_joint": -1.4165861576513559,
            "shoulder_pan_joint": -1.6717766223277177,
            "wrist_1_joint": -0.5286633288215096,
            "wrist_2_joint": 1.4727565892594296,
            "wrist_3_joint": 3.1593482883155493
        }
    },
    "waypoints": [
        {
            "positions": [
                -1.6717766223277177,
                -1.4165861576513559,
                1.9565354006590394,
                -0.5286633288215096,
                1.4727565892594296,
                3.1593482883155493
            ]
        },
        {
            "positions": [
                -1.5267062506216025,
                -1.4347786789290085,
                2.0474134932690617,
                -0.49057668318079134,
                1.4633493323608697,
                3.118619810747202
            ]
        },
        {
            "positions": [
                -1.3816358789154872,
                -1.4529712002066613,
                2.138291585879084,
                -0.4524900375400731,
                1.4539420754623098,
                3.077891333178855
            ]
        },
        {
            "positions": [
                -1.2365655072093718,
                -1.4711637214843138,
                2.2291696784891064,
                -0.4144033918993549,
                1.4445348185637497,
                3.0371628556105073
            ]
        },
        {
            "positions": [
                -1.0914951355032565,
                -1.4893562427619664,
                2.3200477710991287,
                -0.37631674625863665,
                1.4351275616651897,
                2.99643437804216
            ]
        },
        {
            "positions": [
                -0.946424763797141,
                -1.5075487640396192,
                2.410925863709151,
                -0.3382301006179184,
                1.4257203047666298,
                2.955705900473813
            ]
        },
        {
            "positions": [
                -0.8013543920910258,
                -1.5257412853172718,
                2.5018039563191734,
                -0.3001434549772002,
                1.4163130478680699,
                2.9149774229054657
            ]
        },
        {
            "positions": [
                -0.9037288869131342,
                -1.50200305045228,
                2.423126069987873,
                -0.17769325727848867,
                1.4089168086859096,
                2.8621737019755313
            ]
        },
        {
            "positions": [
                -1.0061033817352427,
                -1.4782648155872882,
                2.344448183656573,
                -0.055243059579777154,
                1.4015205695037496,
                2.8093699810455974
            ]
        },
        {
            "positions": [
                -1.1084778765573513,
                -1.4545265807222965,
                2.2657702973252722,
                0.06720713811893436,
                1.3941243303215893,
                2.756566260115663
            ]
        },
        {
            "positions": [
                -1.2108523713794597,
                -1.4307883458573045,
                2.187092410993972,
                0.18965733581764588,
                1.3867280911394293,
                2.7037625391857287
            ]
        },
        {
            "positions": [
                -1.313226866201568,
                -1.4070501109923128,
                2.1084145246626718,
                0.31210753351635745,
                1.379331851957269,
                2.650958818255795
            ]
        },
        {
            "positions": [
                -1.4156013610236766,
                -1.3833118761273209,
                2.0297366383313715,
                0.4345577312150689,
                1.371935612775109,
                2.5981550973258605
            ]
        },
        {
            "positions": [
                -1.5179758558457852,
                -1.3595736412623292,
                1.951058752000071,
                0.5570079289137805,
                1.3645393735929487,
                2.545351376395926
            ]
        },
        {
            "positions": [
                -1.6203503506678936,
                -1.3358354063973372,
                1.8723808656687706,
                0.6794581266124919,
                1.3571431344107887,
                2.4925476554659918
            ]
        },
        {
            "positions": [
                -1.7227248454900022,
                -1.3120971715323455,
                1.7937029793374704,
                0.8019083243112035,
                1.3497468952286285,
                2.439743934536058
            ]
        },
        {
            "positions": [
                -1.8250993403121105,
                -1.2883589366673536,
                1.7150250930061701,
                0.9243585220099151,
                1.3423506560464684,
                2.3869402136061235
            ]
        },
        {
            "positions": [
                -1.927473835134219,
                -1.2646207018023619,
                1.6363472066748697,
                1.0468087197086267,
                1.3349544168643082,
                2.334136492676189
            ]
        },
        {
            "positions": [
                -2.0298483299563275,
                -1.24088246693737,
                1.5576693203435694,
                1.169258917407338,
                1.3275581776821481,
                2.2813327717462553
            ]
        },
        {
            "positions": [
                -2.132222824778436,
                -1.2171442320723782,
                1.4789914340122692,
                1.2917091151060496,
                1.3201619384999879,
                2.228529050816321
            ]
        },
        {
            "positions": [
                -2.2345973196005446,
                -1.1934059972073863,
                1.4003135476809687,
                1.4141593128047611,
                1.3127656993178278,
                2.1757253298863866
            ]
        },
        {
            "positions": [
                -2.336971814422653,
                -1.1696677623423946,
                1.3216356613496683,
                1.5366095105034727,
                1.3053694601356676,
                2.122921608956452
            ]
        },
        {
            "positions": [
                -2.4393463092447614,
                -1.1459295274774028,
                1.242957775018368,
                1.659059708202184,
                1.2979732209535075,
                2.0701178880265183
            ]
        },
        {
            "positions": [
                -2.5417208040668697,
                -1.122191292612411,
                1.1642798886870678,
                1.7815099059008954,
                1.2905769817713473,
                2.017314167096584
            ]
        },
        {
            "positions": [
                -2.6440952988889785,
                -1.098453057747419,
                1.0856020023557673,
                1.9039601035996072,
                1.2831807425891872,
                1.9645104461666498
            ]
        },
        {
            "positions": [
                -2.746469793711087,
                -1.0747148228824273,
                1.006924116024467,
                2.0264103012983186,
                1.275784503407027,
                1.9117067252367157
            ]
        },
        {
            "positions": [
                -2.8488442885331953,
                -1.0509765880174355,
                0.9282462296931668,
                2.1488604989970304,
                1.268388264224867,
                1.8589030043067813
            ]
        },
        {
            "positions": [
                -2.9512187833553036,
                -1.0272383531524436,
                0.8495683433618664,
                2.2713106966957417,
                1.2609920250427067,
                1.8060992833768472
            ]
        },
        {
            "positions": [
                -3.0535932781774124,
                -1.0035001182874517,
                0.7708904570305659,
                2.3937608943944535,
                1.2535957858605467,
                1.7532955624469129
            ]
        },
        {
            "positions": [
                -3.155967772999521,
                -0.97976188342246,
                0.6922125706992657,
                2.516211092093165,
                1.2461995466783864,
                1.7004918415169787
            ]
        },
        {
            "positions": [
                -3.120044546160584,
                -0.9893633174946175,
                0.7614865913338873,
                2.3401764192318155,
                1.2158466388473976,
                1.7752156503362893
            ]
        },
        {
            "positions": [
                -3.0841213193216475,
                -0.9989647515667751,
                0.8307606119685089,
                2.1641417463704666,
                1.1854937310164086,
                1.8499394591555998
            ]
        },
        {
            "positions": [
                -3.0481980924827106,
                -1.0085661856389327,
                0.9000346326031304,
                1.9881070735091173,
                1.1551408231854199,
                1.9246632679749103
            ]
        },
        {
            "positions": [
                -3.0122748656437737,
                -1.0181676197110903,
                0.9693086532377521,
                1.812072400647768,
                1.124787915354431,
                1.9993870767942208
            ]
        },
        {
            "positions": [
                -2.976351638804837,
                -1.0277690537832478,
                1.0385826738723738,
                1.636037727786419,
                1.0944350075234421,
                2.0741108856135315
            ]
        },
        {
            "positions": [
                -2.9404284119659003,
                -1.0373704878554053,
                1.1078566945069952,
                1.4600030549250698,
                1.0640820996924532,
                2.148834694432842
            ]
        },
        {
            "positions": [
                -2.9045051851269634,
                -1.0469719219275628,
                1.1771307151416168,
                1.2839683820637207,
                1.0337291918614644,
                2.2235585032521525
            ]
        },
        {
            "positions": [
                -2.8685819582880265,
                -1.0565733559997206,
                1.2464047357762384,
                1.1079337092023713,
                1.0033762840304754,
                2.298282312071463
            ]
        },
        {
            "positions": [
                -2.83265873144909,
                -1.066174790071878,
                1.31567875641086,
                0.9318990363410222,
                0.9730233761994866,
                2.3730061208907736
            ]
        },
        {
            "positions": [
                -2.796735504610153,
                -1.0757762241440356,
                1.3849527770454817,
                0.7558643634796731,
                0.9426704683684978,
                2.447729929710084
            ]
        },
        {
            "positions": [
                -2.7608122777712163,
                -1.0853776582161931,
                1.4542267976801033,
                0.5798296906183238,
                0.9123175605375089,
                2.5224537385293946
            ]
        },
        {
            "positions": [
                -2.72488905093228,
                -1.0949790922883507,
                1.5235008183147247,
                0.4037950177569747,
                0.8819646527065201,
                2.597177547348705
            ]
        },
        {
            "positions": [
                -2.688965824093343,
                -1.1045805263605084,
                1.5927748389493463,
                0.22776034489562536,
                0.8516117448755312,
                2.6719013561680156
            ]
        },
        {
            "positions": [
                -2.653042597254406,
                -1.114181960432666,
                1.662048859583968,
                0.05172567203427647,
                0.8212588370445424,
                2.746625164987326
            ]
        },
        {
            "positions": [
                -2.6171193704154696,
                -1.1237833945048235,
                1.7313228802185896,
                -0.12430900082707286,
                0.7909059292135534,
                2.8213489738066366
            ]
        },
        {
            "positions": [
                -2.5811961435765327,
                -1.133384828576981,
                1.8005969008532112,
                -0.3003436736884222,
                0.7605530213825646,
                2.8960727826259474
            ]
        },
        {
            "positions": [
                -2.545272916737596,
                -1.1429862626491387,
                1.8698709214878328,
                -0.4763783465497715,
                0.7302001135515758,
                2.9707965914452577
            ]
        },
        {
            "positions": [
                -2.5093496898986594,
                -1.1525876967212962,
                1.9391449421224545,
                -0.6524130194111204,
                0.6998472057205869,
                3.045520400264568
            ]
        },
        {
            "positions": [
                -2.4734264630597225,
                -1.1621891307934538,
                2.008418962757076,
                -0.8284476922724698,
                0.669494297889598,
                3.1202442090838787
            ]
        }
    ]
}