{
    "goal": {
        "global_pose": {
            "orientation": {
                "w": 0.005598929693374612,
                "x": 0.007748599140229565,
                "y": 0.7110244013736278,
                "z": -0.7031023480610252
            },
            "position": {
                "x": -0.8858502320852131,
                "y": -0.7141253447532654,
                "z": 0.3711530566215515
            }
        },
        "name": "move_to_auspresseinheit_C"
    },
    "id": "BKPIECE_move_to_auspresseinheit_C_90",
    "joint_names": [
        "shoulder_pan_joint",
        "shoulder_lift_joint",
        "elbow_joint",
        "wrist_1_joint",
        "wrist_2_joint",
        "wrist_3_joint"
    ],
    "metrics": {
        "cart_traj_len": 0.493646826668914,
        "distance_elbow_joint": 1.0107554393326046,
        "distance_shoulder_lift_joint": 0.3301291599229631,
        "distance_shoulder_pan_joint": 0.25698321466432317,
        "distance_wrist_1_joint": 0.7078608672993006,
        "distance_wrist_2_joint": 1.3040587991251626,
        "distance_wrist_3_joint": 0.07964020555025142,
        "smoothness": 6.459479416000911e-16,
        "time": 0.295672075,
        "traj_len": 1.9207882980418758,
        "weighted_distance": 2.420873347248792
    },
    "planner": "BKPIECE",
    "start": {
        "state": {
            "elbow_joint": 1.752795957773711,
            "shoulder_lift_joint": -0.9740617694225064,
            "shoulder_pan_joint": -2.967991417825858,
            "wrist_1_joint": -0.7595177689806859,
            "wrist_2_joint": 1.7443932448377395,
            "wrist_3_joint": 3.199131542505932
        }
    },
    "waypoints": [
        {
            "positions": [
                -2.967991417825858,
                -0.9740617694225064,
                1.752795957773711,
                -0.7595177689806859,
                1.7443932448377395,
                3.199131542505932
            ]
        },
        {
            "positions": [
                -2.9422930963594256,
                -0.9410488534302102,
                1.6517204138404507,
                -0.6887316822507559,
                1.6139873649252232,
                3.191167521950907
            ]
        },
        {
            "positions": [
                -2.9165947748929932,
                -0.9080359374379138,
                1.5506448699071902,
                -0.6179455955208257,
                1.483581485012707,
                3.183203501395882
            ]
        },
        {
            "positions": [
                -2.890896453426561,
                -0.8750230214456175,
                1.4495693259739297,
                -0.5471595087908957,
                1.3531756051001906,
                3.175239480840857
            ]
        },
        {
            "positions": [
                -2.8651981319601285,
                -0.8420101054533212,
                1.3484937820406693,
                -0.4763734220609656,
                1.2227697251876744,
                3.1672754602858317
            ]
        },
        {
            "positions": [
                -2.839499810493696,
                -0.8089971894610248,
                1.2474182381074088,
                -0.4055873353310356,
                1.092363845275158,
                3.159311439730806
            ]
        },
        {
            "positions": [
                -2.8138014890272642,
                -0.7759842734687286,
                1.1463426941741484,
                -0.33480124860110555,
                0.9619579653626419,
                3.151347419175781
            ]
        },
        {
            "positions": [
                -2.788103167560832,
                -0.7429713574764323,
                1.045267150240888,
                -0.26401516187117546,
                0.8315520854501257,
                3.143383398620756
            ]
        },
        {
            "positions": [
                -2.7624048460943995,
                -0.709958441484136,
                0.9441916063076274,
                -0.19322907514124532,
                0.7011462055376094,
                3.135419378065731
            ]
        },
        {
            "positions": [
                -2.736706524627967,
                -0.6769455254918396,
                0.843116062374367,
                -0.12244298841131529,
                0.5707403256250931,
                3.127455357510706
            ]
        },
        {
            "positions": [
                -2.711008203161535,
                -0.6439326094995433,
                0.7420405184411066,
                -0.051656901681385294,
                0.4403344457125769,
                3.1194913369556807
            ]
        }
    ]
}