{
    "goal": {
        "global_pose": {
            "orientation": {
                "w": 0.7031023480610252,
                "x": -0.7110244013736278,
                "y": 0.0077485991402295624,
                "z": 0.005598929693374583
            },
            "position": {
                "x": -0.8841497679147869,
                "y": 0.44412534475326537,
                "z": 0.3711530566215515
            }
        },
        "name": "move_to_auspresseinheit_D"
    },
    "id": "BKPIECE_move_to_auspresseinheit_D_71",
    "joint_names": [
        "shoulder_pan_joint",
        "shoulder_lift_joint",
        "elbow_joint",
        "wrist_1_joint",
        "wrist_2_joint",
        "wrist_3_joint"
    ],
    "metrics": {
        "cart_traj_len": 5.600560640745262,
        "distance_elbow_joint": 7.496730772212503,
        "distance_shoulder_lift_joint": 1.0173478101511786,
        "distance_shoulder_pan_joint": 2.751485753196645,
        "distance_wrist_1_joint": 5.19855137083953,
        "distance_wrist_2_joint": 3.6542242485185623,
        "distance_wrist_3_joint": 8.54972654612424,
        "smoothness": 0.3193408264335905,
        "time": 1.7199811280000001,
        "traj_len": 5.354256857962894,
        "weighted_distance": 7.39055445908149
    },
    "planner": "BKPIECE",
    "start": {
        "state": {
            "elbow_joint": 1.8268400409724999,
            "shoulder_lift_joint": -1.0144045787793008,
            "shoulder_pan_joint": 2.6280239544362485,
            "wrist_1_joint": -0.790705565816056,
            "wrist_2_joint": 1.0573557467365533,
            "wrist_3_joint": 3.1851377467193758
        }
    },
    "waypoints": [
        {
            "positions": [
                2.6280239544362485,
                -1.0144045787793008,
                1.8268400409724999,
                -0.790705565816056,
                1.0573557467365533,
                3.1851377467193758
            ]
        },
        {
            "positions": [
                2.5883348020622092,
                -1.024724791453826,
                1.7128230743511201,
                -0.8175873748650035,
                1.02585018469421,
                3.019146944775601
            ]
        },
        {
            "positions": [
                2.5486456496881704,
                -1.0350450041283514,
                1.5988061077297404,
                -0.8444691839139511,
                0.994344622651867,
                2.8531561428318257
            ]
        },
        {
            "positions": [
                2.508956497314131,
                -1.0453652168028766,
                1.4847891411083605,
                -0.8713509929628985,
                0.9628390606095238,
                2.687165340888051
            ]
        },
        {
            "positions": [
                2.469267344940092,
                -1.0556854294774018,
                1.3707721744869807,
                -0.8982328020118461,
                0.9313334985671806,
                2.521174538944276
            ]
        },
        {
            "positions": [
                2.4295781925660527,
                -1.066005642151927,
                1.256755207865601,
                -0.9251146110607936,
                0.8998279365248375,
                2.3551837370005013
            ]
        },
        {
            "positions": [
                2.389889040192014,
                -1.0763258548264525,
                1.142738241244221,
                -0.9519964201097412,
                0.8683223744824943,
                2.1891929350567265
            ]
        },
        {
            "positions": [
                2.3501998878179746,
                -1.0866460675009777,
                1.0287212746228414,
                -0.9788782291586886,
                0.8368168124401512,
                2.0232021331129513
            ]
        },
        {
            "positions": [
                2.3105107354439354,
                -1.096966280175503,
                0.9147043080014617,
                -1.0057600382076362,
                0.8053112503978079,
                1.8572113311691765
            ]
        },
        {
            "positions": [
                2.2708215830698966,
                -1.1072864928500281,
                0.8006873413800819,
                -1.0326418472565837,
                0.7738056883554648,
                1.6912205292254017
            ]
        },
        {
            "positions": [
                2.2311324306958573,
                -1.1176067055245535,
                0.6866703747587022,
                -1.0595236563055312,
                0.7423001263131217,
                1.5252297272816266
            ]
        },
        {
            "positions": [
                2.191443278321818,
                -1.1279269181990788,
                0.5726534081373225,
                -1.0864054653544788,
                0.7107945642707785,
                1.3592389253378518
            ]
        },
        {
            "positions": [
                2.151754125947779,
                -1.138247130873604,
                0.4586364415159425,
                -1.1132872744034263,
                0.6792890022284352,
                1.1932481233940768
            ]
        },
        {
            "positions": [
                2.11206497357374,
                -1.1485673435481294,
                0.3446194748945628,
                -1.1401690834523737,
                0.647783440186092,
                1.0272573214503016
            ]
        },
        {
            "positions": [
                2.0723758211997008,
                -1.1588875562226546,
                0.23060250827318285,
                -1.1670508925013214,
                0.6162778781437489,
                0.8612665195065268
            ]
        },
        {
            "positions": [
                2.0326866688256615,
                -1.1692077688971798,
                0.11658554165180335,
                -1.1939327015502688,
                0.5847723161014058,
                0.695275717562752
            ]
        },
        {
            "positions": [
                1.9929975164516225,
                -1.179527981571705,
                0.0025685750304236254,
                -1.2208145105992163,
                0.5532667540590626,
                0.5292849156189772
            ]
        },
        {
            "positions": [
                1.9533083640775835,
                -1.1898481942462305,
                -0.11144839159095632,
                -1.2476963196481639,
                0.5217611920167194,
                0.36329411367520237
            ]
        },
        {
            "positions": [
                1.9136192117035442,
                -1.2001684069207557,
                -0.22546535821233604,
                -1.2745781286971114,
                0.49025562997437633,
                0.19730331173142757
            ]
        },
        {
            "positions": [
                1.8739300593295052,
                -1.2104886195952809,
                -0.33948232483371577,
                -1.301459937746059,
                0.4587500679320331,
                0.031312509787652765
            ]
        },
        {
            "positions": [
                1.8342409069554662,
                -1.2208088322698063,
                -0.4534992914550955,
                -1.3283417467950063,
                0.42724450588969,
                -0.13467829215612248
            ]
        },
        {
            "positions": [
                1.794551754581427,
                -1.2311290449443315,
                -0.5675162580764752,
                -1.355223555843954,
                0.39573894384734676,
                -0.3006690940998973
            ]
        },
        {
            "positions": [
                1.7548626022073877,
                -1.2414492576188567,
                -0.6815332246978549,
                -1.3821053648929014,
                0.36423338180500353,
                -0.4666598960436721
            ]
        },
        {
            "positions": [
                1.7151734498333486,
                -1.2517694702933821,
                -0.7955501913192351,
                -1.4089871739418491,
                0.3327278197626604,
                -0.6326506979874473
            ]
        },
        {
            "positions": [
                1.6754842974593096,
                -1.2620896829679074,
                -0.9095671579406148,
                -1.4358689829907965,
                0.3012222577203172,
                -0.7986414999312221
            ]
        },
        {
            "positions": [
                1.6357951450852704,
                -1.2724098956424326,
                -1.0235841245619945,
                -1.462750792039744,
                0.26971669567797407,
                -0.9646323018749974
            ]
        },
        {
            "positions": [
                1.5961059927112313,
                -1.282730108316958,
                -1.1376010911833743,
                -1.4896326010886916,
                0.23821113363563085,
                -1.1306231038187726
            ]
        },
        {
            "positions": [
                1.556416840337192,
                -1.2930503209914832,
                -1.251618057804754,
                -1.516514410137639,
                0.20670557159328773,
                -1.296613905762547
            ]
        },
        {
            "positions": [
                1.516727687963153,
                -1.3033705336660084,
                -1.3656350244261342,
                -1.5433962191865866,
                0.1752000095509445,
                -1.4626047077063222
            ]
        },
        {
            "positions": [
                1.4770385355891138,
                -1.3136907463405336,
                -1.4796519910475139,
                -1.5702780282355342,
                0.14369444750860128,
                -1.6285955096500975
            ]
        },
        {
            "positions": [
                1.4373493832150748,
                -1.3240109590150588,
                -1.5936689576688932,
                -1.5971598372844817,
                0.11218888546625827,
                -1.7945863115938718
            ]
        },
        {
            "positions": [
                1.3976602308410357,
                -1.3343311716895843,
                -1.7076859242902729,
                -1.624041646333429,
                0.08068332342391504,
                -1.9605771135376462
            ]
        },
        {
            "positions": [
                1.3579710784669965,
                -1.3446513843641095,
                -1.8217028909116526,
                -1.6509234553823766,
                0.049177761381571816,
                -2.1265679154814214
            ]
        },
        {
            "positions": [
                1.3182819260929575,
                -1.354971597038635,
                -1.9357198575330328,
                -1.6778052644313242,
                0.01767219933922881,
                -2.2925587174251967
            ]
        },
        {
            "positions": [
                1.2785927737189182,
                -1.36529180971316,
                -2.0497368241544125,
                -1.7046870734802717,
                -0.013833362703114416,
                -2.458549519368971
            ]
        },
        {
            "positions": [
                1.2389036213448792,
                -1.3756120223876853,
                -2.163753790775792,
                -1.7315688825292193,
                -0.04533892474545764,
                -2.6245403213127463
            ]
        },
        {
            "positions": [
                1.2747876939084466,
                -1.3597821596017852,
                -2.0707723409257204,
                -1.6228363956460277,
                -0.10832995662470564,
                -2.5515999655596224
            ]
        },
        {
            "positions": [
                1.310671766472014,
                -1.3439522968158852,
                -1.9777908910756488,
                -1.514103908762836,
                -0.17132098850395364,
                -2.4786596098064986
            ]
        },
        {
            "positions": [
                1.3465558390355814,
                -1.328122434029985,
                -1.8848094412255771,
                -1.4053714218796445,
                -0.23431202038320165,
                -2.4057192540533747
            ]
        },
        {
            "positions": [
                1.382439911599149,
                -1.3122925712440852,
                -1.7918279913755053,
                -1.2966389349964529,
                -0.29730305226244963,
                -2.332778898300251
            ]
        },
        {
            "positions": [
                1.4183239841627164,
                -1.296462708458185,
                -1.6988465415254335,
                -1.187906448113261,
                -0.36029408414169767,
                -2.259838542547127
            ]
        },
        {
            "positions": [
                1.4542080567262838,
                -1.280632845672285,
                -1.6058650916753618,
                -1.0791739612300697,
                -0.42328511602094565,
                -2.186898186794003
            ]
        },
        {
            "positions": [
                1.4900921292898512,
                -1.264802982886385,
                -1.5128836418252902,
                -0.9704414743468779,
                -0.4862761479001937,
                -2.113957831040879
            ]
        },
        {
            "positions": [
                1.5259762018534186,
                -1.248973120100485,
                -1.4199021919752184,
                -0.8617089874636863,
                -0.5492671797794416,
                -2.041017475287755
            ]
        },
        {
            "positions": [
                1.5618602744169863,
                -1.2331432573145849,
                -1.3269207421251465,
                -0.7529765005804947,
                -0.6122582116586897,
                -1.9680771195346314
            ]
        },
        {
            "positions": [
                1.5977443469805537,
                -1.2173133945286847,
                -1.233939292275075,
                -0.6442440136973031,
                -0.6752492435379377,
                -1.8951367637815073
            ]
        },
        {
            "positions": [
                1.633628419544121,
                -1.2014835317427848,
                -1.1409578424250033,
                -0.5355115268141115,
                -0.7382402754171856,
                -1.8221964080283835
            ]
        },
        {
            "positions": [
                1.6695124921076885,
                -1.1856536689568846,
                -1.0479763925749315,
                -0.4267790399309199,
                -0.8012313072964337,
                -1.7492560522752596
            ]
        },
        {
            "positions": [
                1.7053965646712559,
                -1.1698238061709847,
                -0.9549949427248599,
                -0.31804655304772833,
                -0.8642223391756817,
                -1.6763156965221357
            ]
        },
        {
            "positions": [
                1.7412806372348233,
                -1.1539939433850845,
                -0.862013492874788,
                -0.20931406616453652,
                -0.9272133710549297,
                -1.603375340769012
            ]
        },
        {
            "positions": [
                1.7771647097983907,
                -1.1381640805991846,
                -0.7690320430247164,
                -0.10058157928134492,
                -0.9902044029341777,
                -1.530434985015888
            ]
        },
        {
            "positions": [
                1.813048782361958,
                -1.1223342178132845,
                -0.6760505931746446,
                0.008150907601846669,
                -1.0531954348134256,
                -1.4574946292627642
            ]
        },
        {
            "positions": [
                1.8489328549255257,
                -1.1065043550273845,
                -0.5830691433245729,
                0.11688339448503826,
                -1.1161864666926737,
                -1.3845542735096403
            ]
        },
        {
            "positions": [
                1.8848169274890931,
                -1.0906744922414844,
                -0.4900876934745011,
                0.22561588136822985,
                -1.1791774985719217,
                -1.3116139177565165
            ]
        },
        {
            "positions": [
                1.9207010000526605,
                -1.0748446294555842,
                -0.3971062436244297,
                0.3343483682514212,
                -1.2421685304511696,
                -1.2386735620033926
            ]
        },
        {
            "positions": [
                1.9565850726162282,
                -1.0590147666696843,
                -0.30412479377435764,
                0.44308085513461304,
                -1.3051595623304177,
                -1.1657332062502685
            ]
        },
        {
            "positions": [
                1.9924691451797956,
                -1.0431849038837844,
                -0.21114334392428624,
                0.5518133420178044,
                -1.3681505942096657,
                -1.092792850497145
            ]
        },
        {
            "positions": [
                2.028353217743363,
                -1.0273550410978842,
                -0.1181618940742144,
                0.6605458289009962,
                -1.4311416260889136,
                -1.0198524947440208
            ]
        },
        {
            "positions": [
                2.0642372903069304,
                -1.011525178311984,
                -0.025180444224142562,
                0.7692783157841876,
                -1.4941326579681615,
                -0.9469121389908972
            ]
        },
        {
            "positions": [
                2.1001213628704978,
                -0.995695315526084,
                0.06780100562592928,
                0.8780108026673794,
                -1.5571236898474097,
                -0.8739717832377731
            ]
        },
        {
            "positions": [
                2.136005435434065,
                -0.979865452740184,
                0.16078245547600067,
                0.9867432895505708,
                -1.6201147217266576,
                -0.8010314274846495
            ]
        },
        {
            "positions": [
                2.1718895079976326,
                -0.964035589954284,
                0.2537639053260725,
                1.0954757764337626,
                -1.6831057536059058,
                -0.7280910717315254
            ]
        },
        {
            "positions": [
                2.2077735805612,
                -0.9482057271683839,
                0.34674535517614435,
                1.204208263316954,
                -1.7460967854851537,
                -0.6551507159784016
            ]
        },
        {
            "positions": [
                2.2436576531247674,
                -0.9323758643824839,
                0.4397268050262162,
                1.3129407502001462,
                -1.8090878173644018,
                -0.5822103602252775
            ]
        },
        {
            "positions": [
                2.2795417256883352,
                -0.9165460015965838,
                0.5327082548762876,
                1.4216732370833376,
                -1.8720788492436495,
                -0.5092700044721541
            ]
        },
        {
            "positions": [
                2.315425798251902,
                -0.9007161388106837,
                0.6256897047263594,
                1.5304057239665294,
                -1.9350698811228977,
                -0.4363296487190298
            ]
        },
        {
            "positions": [
                2.35130987081547,
                -0.8848862760247838,
                0.7186711545764313,
                1.6391382108497208,
                -1.9980609130021456,
                -0.36338929296590594
            ]
        },
        {
            "positions": [
                2.387193943379037,
                -0.8690564132388836,
                0.8116526044265031,
                1.7478706977329126,
                -2.0610519448813935,
                -0.2904489372127821
            ]
        },
        {
            "positions": [
                2.423078015942605,
                -0.8532265504529836,
                0.9046340542765745,
                1.856603184616104,
                -2.1240429767606415,
                -0.21750858145965823
            ]
        },
        {
            "positions": [
                2.4589620885061723,
                -0.8373966876670835,
                0.9976155041266463,
                1.9653356714992958,
                -2.18703400863989,
                -0.14456822570653438
            ]
        },
        {
            "positions": [
                2.4948461610697397,
                -0.8215668248811835,
                1.0905969539767182,
                2.074068158382487,
                -2.2500250405191378,
                -0.07162786995341053
            ]
        },
        {
            "positions": [
                2.530730233633307,
                -0.8057369620952834,
                1.18357840382679,
                2.182800645265679,
                -2.3130160723983857,
                0.0013124857997133255
            ]
        },
        {
            "positions": [
                2.5666143061968745,
                -0.7899070993093834,
                1.2765598536768614,
                2.2915331321488708,
                -2.3760071042776336,
                0.07425284155283729
            ]
        },
        {
            "positions": [
                2.5839416738235146,
                -0.7546893775771373,
                1.309471501682638,
                2.4088261518730105,
                -2.4864378030298226,
                0.053625183939568555
            ]
        },
        {
            "positions": [
                2.601269041450155,
                -0.7194716558448913,
                1.3423831496884144,
                2.5261191715971507,
                -2.5968685017820112,
                0.03299752632629982
            ]
        }
    ]
}