{
    "goal": {
        "global_pose": {
            "orientation": {
                "w": 0.005598929693374612,
                "x": 0.007748599140229565,
                "y": 0.7110244013736278,
                "z": -0.7031023480610252
            },
            "position": {
                "x": -0.8858502320852131,
                "y": -0.7141253447532654,
                "z": 0.3711530566215515
            }
        },
        "name": "move_to_auspresseinheit_C"
    },
    "id": "BKPIECE_move_to_auspresseinheit_C_17",
    "joint_names": [
        "shoulder_pan_joint",
        "shoulder_lift_joint",
        "elbow_joint",
        "wrist_1_joint",
        "wrist_2_joint",
        "wrist_3_joint"
    ],
    "metrics": {
        "cart_traj_len": 0.49280085525913897,
        "distance_elbow_joint": 0.9909072219688134,
        "distance_shoulder_lift_joint": 0.3207446746087491,
        "distance_shoulder_pan_joint": 0.2565539852456915,
        "distance_wrist_1_joint": 0.6572397093221813,
        "distance_wrist_2_joint": 1.3055835782192964,
        "distance_wrist_3_joint": 0.053307431650297055,
        "smoothness": 3.2297397080004555e-16,
        "time": 1.431126899,
        "traj_len": 1.8932344284359053,
        "weighted_distance": 2.3777667572445162
    },
    "planner": "BKPIECE",
    "start": {
        "state": {
            "elbow_joint": 1.752795957773711,
            "shoulder_lift_joint": -0.9740617694225064,
            "shoulder_pan_joint": -2.967991417825858,
            "wrist_1_joint": -0.7595177689806859,
            "wrist_2_joint": 1.7443932448377395,
            "wrist_3_joint": 3.199131542505932
        }
    },
    "waypoints": [
        {
            "positions": [
                -2.967991417825858,
                -0.9740617694225064,
                1.752795957773711,
                -0.7595177689806859,
                1.7443932448377395,
                3.199131542505932
            ]
        },
        {
            "positions": [
                -2.9423360193012886,
                -0.9419873019616315,
                1.6537052355768298,
                -0.6937937980484677,
                1.61383488701581,
                3.1938007993409023
            ]
        },
        {
            "positions": [
                -2.9166806207767197,
                -0.9099128345007567,
                1.5546145133799485,
                -0.6280698271162496,
                1.4832765291938803,
                3.1884700561758725
            ]
        },
        {
            "positions": [
                -2.8910252222521504,
                -0.8778383670398817,
                1.455523791183067,
                -0.5623458561840315,
                1.3527181713719507,
                3.183139313010843
            ]
        },
        {
            "positions": [
                -2.8653698237275815,
                -0.8457638995790068,
                1.3564330689861857,
                -0.49662188525181333,
                1.222159813550021,
                3.1778085698458134
            ]
        },
        {
            "positions": [
                -2.839714425203012,
                -0.8136894321181318,
                1.2573423467893043,
                -0.43089791431959523,
                1.0916014557280913,
                3.1724778266807836
            ]
        },
        {
            "positions": [
                -2.814059026678443,
                -0.781614964657257,
                1.158251624592423,
                -0.36517394338737713,
                0.9610430979061617,
                3.167147083515754
            ]
        },
        {
            "positions": [
                -2.788403628153874,
                -0.749540497196382,
                1.0591609023955417,
                -0.299449972455159,
                0.8304847400842321,
                3.161816340350724
            ]
        },
        {
            "positions": [
                -2.7627482296293047,
                -0.7174660297355071,
                0.9600701801986603,
                -0.23372600152294076,
                0.6999263822623023,
                3.1564855971856947
            ]
        },
        {
            "positions": [
                -2.737092831104736,
                -0.6853915622746323,
                0.860979458001779,
                -0.16800203059072272,
                0.5693680244403727,
                3.151154854020665
            ]
        },
        {
            "positions": [
                -2.7114374325801665,
                -0.6533170948137573,
                0.7618887358048977,
                -0.10227805965850452,
                0.43880966661844306,
                3.145824110855635
            ]
        }
    ]
}