{
    "goal": {
        "global_pose": {
            "orientation": {
                "w": -0.4816463035849501,
                "x": 0.5182115481033762,
                "y": 0.4908360881923453,
                "z": -0.5084816262002911
            },
            "position": {
                "x": -0.8240239810943604,
                "y": 0.19912469901144506,
                "z": 0.16403168439865112
            }
        },
        "name": "move_to_storage_D"
    },
    "id": "BKPIECE_move_to_storage_D_53",
    "joint_names": [
        "shoulder_pan_joint",
        "shoulder_lift_joint",
        "elbow_joint",
        "wrist_1_joint",
        "wrist_2_joint",
        "wrist_3_joint"
    ],
    "metrics": {
        "cart_traj_len": 0.6243180748117548,
        "distance_elbow_joint": 0.5545966922998458,
        "distance_shoulder_lift_joint": 0.15293773082834683,
        "distance_shoulder_pan_joint": 0.1523674960000416,
        "distance_wrist_1_joint": 3.968530481121568,
        "distance_wrist_2_joint": 1.7781059603512261,
        "distance_wrist_3_joint": 3.1207694707419074,
        "smoothness": 0.08465298667389673,
        "time": 1.86918941,
        "traj_len": 3.1188632274184345,
        "weighted_distance": 4.659987469328598
    },
    "planner": "BKPIECE",
    "start": {
        "state": {
            "elbow_joint": -2.384821997420982,
            "shoulder_lift_joint": -2.2788054674887404,
            "shoulder_pan_joint": -0.18546946417610016,
            "wrist_1_joint": 1.4845937964226739,
            "wrist_2_joint": 0.1789877726866377,
            "wrist_3_joint": 0.03710572555276528
        }
    },
    "waypoints": [
        {
            "positions": [
                -0.18546946417610016,
                -2.2788054674887404,
                -2.384821997420982,
                1.4845937964226739,
                0.1789877726866377,
                0.03710572555276528
            ]
        },
        {
            "positions": [
                -0.13498380891924502,
                -2.236741526702754,
                -2.3252576616219174,
                1.5087994210840956,
                0.08706576252866038,
                -0.006806342080405252
            ]
        },
        {
            "positions": [
                -0.08449815366238989,
                -2.1946775859167684,
                -2.2656933258228533,
                1.5330050457455175,
                -0.00485624762931694,
                -0.05071840971357578
            ]
        },
        {
            "positions": [
                -0.034012498405534754,
                -2.1526136451307822,
                -2.206128990023789,
                1.5572106704069393,
                -0.09677825778729429,
                -0.09463047734674633
            ]
        },
        {
            "positions": [
                -0.03405208667638154,
                -2.151450779545113,
                -2.1897853515497605,
                1.3878231222705348,
                -0.1620973851732636,
                -0.22458844551380702
            ]
        },
        {
            "positions": [
                -0.034091674947228326,
                -2.150287913959444,
                -2.173441713075732,
                1.2184355741341304,
                -0.2274165125592329,
                -0.35454641368086776
            ]
        },
        {
            "positions": [
                -0.034131263218075115,
                -2.149125048373775,
                -2.157098074601704,
                1.049048025997726,
                -0.29273563994520224,
                -0.4845043818479285
            ]
        },
        {
            "positions": [
                -0.0341708514889219,
                -2.147962182788106,
                -2.140754436127675,
                0.8796604778613215,
                -0.3580547673311715,
                -0.6144623500149892
            ]
        },
        {
            "positions": [
                -0.03421043975976869,
                -2.146799317202437,
                -2.124410797653647,
                0.7102729297249171,
                -0.4233738947171408,
                -0.7444203181820499
            ]
        },
        {
            "positions": [
                -0.03425002803061548,
                -2.1456364516167676,
                -2.1080671591796185,
                0.5408853815885126,
                -0.48869302210311016,
                -0.8743782863491106
            ]
        },
        {
            "positions": [
                -0.03428961630146226,
                -2.144473586031099,
                -2.09172352070559,
                0.37149783345210796,
                -0.5540121494890795,
                -1.0043362545161714
            ]
        },
        {
            "positions": [
                -0.03432920457230905,
                -2.1433107204454296,
                -2.075379882231562,
                0.20211028531570374,
                -0.6193312768750487,
                -1.134294222683232
            ]
        },
        {
            "positions": [
                -0.03436879284315583,
                -2.142147854859761,
                -2.0590362437575336,
                0.03272273717929908,
                -0.6846504042610181,
                -1.2642521908502928
            ]
        },
        {
            "positions": [
                -0.03440838111400262,
                -2.1409849892740915,
                -2.042692605283505,
                -0.13666481095710514,
                -0.7499695316469874,
                -1.3942101590173535
            ]
        },
        {
            "positions": [
                -0.03444796938484941,
                -2.1398221236884223,
                -2.0263489668094765,
                -0.3060523590935098,
                -0.8152886590329568,
                -1.524168127184414
            ]
        },
        {
            "positions": [
                -0.034487557655696194,
                -2.1386592581027535,
                -2.010005328335448,
                -0.475439907229914,
                -0.880607786418926,
                -1.654126095351475
            ]
        },
        {
            "positions": [
                -0.03452714592654298,
                -2.1374963925170842,
                -1.99366168986142,
                -0.6448274553663182,
                -0.9459269138048952,
                -1.7840840635185355
            ]
        },
        {
            "positions": [
                -0.03456673419738977,
                -2.136333526931415,
                -1.9773180513873916,
                -0.8142150035027234,
                -1.0112460411908646,
                -1.9140420316855964
            ]
        },
        {
            "positions": [
                -0.034606322468236556,
                -2.135170661345746,
                -1.960974412913363,
                -0.9836025516391276,
                -1.076565168576834,
                -2.043999999852657
            ]
        },
        {
            "positions": [
                -0.034645910739083345,
                -2.134007795760077,
                -1.9446307744393347,
                -1.1529900997755318,
                -1.141884295962803,
                -2.1739579680197174
            ]
        },
        {
            "positions": [
                -0.03468549900993013,
                -2.132844930174408,
                -1.9282871359653064,
                -1.322377647911936,
                -1.2072034233487725,
                -2.3039159361867783
            ]
        },
        {
            "positions": [
                -0.03472508728077692,
                -2.131682064588739,
                -1.911943497491278,
                -1.4917651960483411,
                -1.2725225507347417,
                -2.433873904353839
            ]
        },
        {
            "positions": [
                -0.03476467555162371,
                -2.1305191990030696,
                -1.8955998590172496,
                -1.6611527441847453,
                -1.3378416781207112,
                -2.5638318725208995
            ]
        },
        {
            "positions": [
                -0.03480426382247049,
                -2.129356333417401,
                -1.8792562205432213,
                -1.8305402923211496,
                -1.4031608055066804,
                -2.6937898406879603
            ]
        },
        {
            "positions": [
                -0.03484385209331728,
                -2.1281934678317316,
                -1.862912582069193,
                -1.9999278404575538,
                -1.4684799328926497,
                -2.8237478088550207
            ]
        },
        {
            "positions": [
                -0.03488344036416406,
                -2.1270306022460628,
                -1.8465689435951644,
                -2.169315388593959,
                -1.5337990602786191,
                -2.9537057770220816
            ]
        },
        {
            "positions": [
                -0.03492302863501085,
                -2.1258677366603935,
                -1.8302253051211361,
                -2.338702936730363,
                -1.5991181876645884,
                -3.0836637451891424
            ]
        }
    ]
}