{
    "goal": {
        "global_pose": {
            "orientation": {
                "w": -0.00223480608172531,
                "x": 0.0024358444001904467,
                "y": 0.7094548369677653,
                "z": -0.704743149386269
            },
            "position": {
                "x": 0.6205249238014221,
                "y": -0.6371506643295288,
                "z": 0.19426114857196808
            }
        },
        "name": "move_to_magneteinheit_B"
    },
    "id": "BKPIECE_move_to_magneteinheit_B_107",
    "joint_names": [
        "shoulder_pan_joint",
        "shoulder_lift_joint",
        "elbow_joint",
        "wrist_1_joint",
        "wrist_2_joint",
        "wrist_3_joint"
    ],
    "metrics": {
        "cart_traj_len": 1.452422709076047,
        "distance_elbow_joint": 0.7285009007907199,
        "distance_shoulder_lift_joint": 1.247388517738059,
        "distance_shoulder_pan_joint": 1.620782727814745,
        "distance_wrist_1_joint": 2.608823572325864,
        "distance_wrist_2_joint": 2.945516300256307,
        "distance_wrist_3_joint": 3.1329328757424237,
        "smoothness": 5.382899525591488e-16,
        "time": 1.0835325169999999,
        "traj_len": 3.504845915966652,
        "weighted_distance": 4.909597796025163
    },
    "planner": "BKPIECE",
    "start": {
        "state": {
            "elbow_joint": 2.3935871308073637,
            "shoulder_lift_joint": -1.9085141043777403,
            "shoulder_pan_joint": 0.7066247067284167,
            "wrist_1_joint": -0.46782909355067076,
            "wrist_2_joint": 0.7096259085804283,
            "wrist_3_joint": -3.1358149275257428
        }
    },
    "waypoints": [
        {
            "positions": [
                0.7066247067284167,
                -1.9085141043777403,
                2.3935871308073637,
                -0.46782909355067076,
                0.7096259085804283,
                -3.1358149275257428
            ]
        },
        {
            "positions": [
                0.6559752464842059,
                -1.869533213198426,
                2.3708214776576537,
                -0.3863033569154875,
                0.6175785241974187,
                -3.037910775158792
            ]
        },
        {
            "positions": [
                0.6053257862399951,
                -1.8305523220191116,
                2.3480558245079437,
                -0.30477762028030425,
                0.5255311398144091,
                -2.940006622791841
            ]
        },
        {
            "positions": [
                0.5546763259957843,
                -1.7915714308397972,
                2.3252901713582337,
                -0.223251883645121,
                0.4334837554313995,
                -2.8421024704248907
            ]
        },
        {
            "positions": [
                0.5040268657515736,
                -1.7525905396604828,
                2.3025245182085237,
                -0.14172614700993774,
                0.3414363710483899,
                -2.74419831805794
            ]
        },
        {
            "positions": [
                0.4533774055073628,
                -1.7136096484811685,
                2.2797588650588136,
                -0.06020041037475449,
                0.24938898666538034,
                -2.646294165690989
            ]
        },
        {
            "positions": [
                0.40272794526315203,
                -1.6746287573018541,
                2.2569932119091036,
                0.021325326260428767,
                0.1573416022823707,
                -2.5483900133240383
            ]
        },
        {
            "positions": [
                0.35207848501894123,
                -1.63564786612254,
                2.2342275587593936,
                0.10285106289561202,
                0.06529421789936118,
                -2.4504858609570874
            ]
        },
        {
            "positions": [
                0.30142902477473044,
                -1.5966669749432256,
                2.2114619056096836,
                0.18437679953079528,
                -0.02675316648364845,
                -2.3525817085901366
            ]
        },
        {
            "positions": [
                0.25077956453051964,
                -1.5576860837639113,
                2.1886962524599736,
                0.26590253616597853,
                -0.11880055086665808,
                -2.254677556223186
            ]
        },
        {
            "positions": [
                0.20013010428630884,
                -1.518705192584597,
                2.165930599310264,
                0.3474282728011618,
                -0.2108479352496676,
                -2.1567734038562354
            ]
        },
        {
            "positions": [
                0.14948064404209804,
                -1.4797243014052825,
                2.143164946160554,
                0.42895400943634504,
                -0.30289531963267724,
                -2.0588692514892846
            ]
        },
        {
            "positions": [
                0.09883118379788736,
                -1.4407434102259682,
                2.120399293010844,
                0.5104797460715282,
                -0.3949427040156869,
                -1.9609650991223337
            ]
        },
        {
            "positions": [
                0.04818172355367656,
                -1.4017625190466538,
                2.097633639861134,
                0.5920054827067114,
                -0.4869900883986965,
                -1.8630609467553831
            ]
        },
        {
            "positions": [
                -0.002467736690534239,
                -1.3627816278673395,
                2.074867986711424,
                0.6735312193418947,
                -0.5790374727817059,
                -1.7651567943884323
            ]
        },
        {
            "positions": [
                -0.05311719693474504,
                -1.3238007366880251,
                2.052102333561714,
                0.7550569559770781,
                -0.6710848571647156,
                -1.6672526420214817
            ]
        },
        {
            "positions": [
                -0.10376665717895583,
                -1.2848198455087108,
                2.029336680412004,
                0.8365826926122613,
                -0.7631322415477252,
                -1.5693484896545309
            ]
        },
        {
            "positions": [
                -0.15441611742316663,
                -1.2458389543293964,
                2.006571027262294,
                0.9181084292474444,
                -0.8551796259307348,
                -1.47144433728758
            ]
        },
        {
            "positions": [
                -0.20506557766737743,
                -1.206858063150082,
                1.9838053741125838,
                0.9996341658826278,
                -0.9472270103137445,
                -1.3735401849206295
            ]
        },
        {
            "positions": [
                -0.25571503791158823,
                -1.1678771719707677,
                1.9610397209628738,
                1.0811599025178111,
                -1.0392743946967538,
                -1.2756360325536786
            ]
        },
        {
            "positions": [
                -0.306364498155799,
                -1.1288962807914533,
                1.9382740678131638,
                1.1626856391529943,
                -1.1313217790797636,
                -1.177731880186728
            ]
        },
        {
            "positions": [
                -0.3570139584000097,
                -1.089915389612139,
                1.9155084146634538,
                1.2442113757881774,
                -1.223369163462773,
                -1.0798277278197772
            ]
        },
        {
            "positions": [
                -0.4076634186442206,
                -1.0509344984328246,
                1.8927427615137438,
                1.3257371124233608,
                -1.3154165478457829,
                -0.9819235754528264
            ]
        },
        {
            "positions": [
                -0.4583128788884313,
                -1.0119536072535102,
                1.8699771083640337,
                1.4072628490585442,
                -1.4074639322287923,
                -0.8840194230858756
            ]
        },
        {
            "positions": [
                -0.508962339132642,
                -0.972972716074196,
                1.8472114552143237,
                1.4887885856937273,
                -1.4995113166118021,
                -0.7861152707189247
            ]
        },
        {
            "positions": [
                -0.5596117993768529,
                -0.9339918248948816,
                1.8244458020646137,
                1.5703143223289104,
                -1.5915587009948116,
                -0.6882111183519743
            ]
        },
        {
            "positions": [
                -0.6102612596210636,
                -0.8950109337155674,
                1.8016801489149037,
                1.6518400589640936,
                -1.6836060853778214,
                -0.5903069659850235
            ]
        },
        {
            "positions": [
                -0.6609107198652745,
                -0.856030042536253,
                1.7789144957651937,
                1.7333657955992772,
                -1.7756534697608308,
                -0.4924028136180727
            ]
        },
        {
            "positions": [
                -0.7115601801094852,
                -0.8170491513569387,
                1.7561488426154837,
                1.8148915322344603,
                -1.8677008541438402,
                -0.3944986612511219
            ]
        },
        {
            "positions": [
                -0.7622096403536961,
                -0.7780682601776243,
                1.7333831894657736,
                1.8964172688696435,
                -1.95974823852685,
                -0.29659450888417105
            ]
        },
        {
            "positions": [
                -0.8128591005979068,
                -0.73908736899831,
                1.7106175363160638,
                1.977943005504827,
                -2.0517956229098595,
                -0.19869035651722067
            ]
        },
        {
            "positions": [
                -0.8635085608421177,
                -0.7001064778189956,
                1.6878518831663538,
                2.05946874214001,
                -2.1438430072928694,
                -0.10078620415026984
            ]
        },
        {
            "positions": [
                -0.9141580210863285,
                -0.6611255866396811,
                1.6650862300166438,
                2.1409944787751933,
                -2.2358903916758788,
                -0.0028820517833191128
            ]
        }
    ]
}