{
    "goal": {
        "global_pose": {
            "orientation": {
                "w": -0.4816463035849501,
                "x": 0.5182115481033762,
                "y": 0.4908360881923453,
                "z": -0.5084816262002911
            },
            "position": {
                "x": -0.8240239810943604,
                "y": -0.300875300988555,
                "z": 0.16403168439865112
            }
        },
        "name": "move_to_storage_C"
    },
    "id": "BKPIECE_move_to_storage_C_146",
    "joint_names": [
        "shoulder_pan_joint",
        "shoulder_lift_joint",
        "elbow_joint",
        "wrist_1_joint",
        "wrist_2_joint",
        "wrist_3_joint"
    ],
    "metrics": {
        "cart_traj_len": 0.5761479649074291,
        "distance_elbow_joint": 0.2594254686243953,
        "distance_shoulder_lift_joint": 0.188099474249944,
        "distance_shoulder_pan_joint": 0.49562069481882975,
        "distance_wrist_1_joint": 0.0893042049225301,
        "distance_wrist_2_joint": 1.05921172363003,
        "distance_wrist_3_joint": 0.07359437767611743,
        "smoothness": 0.0,
        "time": 0.253258407,
        "traj_len": 1.4714808676710163,
        "weighted_distance": 1.860365724213022
    },
    "planner": "BKPIECE",
    "start": {
        "state": {
            "elbow_joint": 2.010868315001653,
            "shoulder_lift_joint": -1.1634956873357014,
            "shoulder_pan_joint": -2.4736205022346103,
            "wrist_1_joint": -0.8367026794713948,
            "wrist_2_joint": 0.6746043897044093,
            "wrist_3_joint": 3.1335220948105738
        }
    },
    "waypoints": [
        {
            "positions": [
                -2.4736205022346103,
                -1.1634956873357014,
                2.010868315001653,
                -0.8367026794713948,
                0.6746043897044093,
                3.1335220948105738
            ]
        },
        {
            "positions": [
                -2.556223951371082,
                -1.1321457749607107,
                1.9676307368975872,
                -0.8218186453176397,
                0.851139676976081,
                3.1457878244232598
            ]
        },
        {
            "positions": [
                -2.6388274005075534,
                -1.1007958625857202,
                1.9243931587935212,
                -0.8069346111638848,
                1.0276749642477525,
                3.1580535540359462
            ]
        },
        {
            "positions": [
                -2.721430849644025,
                -1.0694459502107294,
                1.8811555806894553,
                -0.7920505770101297,
                1.2042102515194242,
                3.1703192836486327
            ]
        },
        {
            "positions": [
                -2.804034298780497,
                -1.0380960378357387,
                1.8379180025853896,
                -0.7771665428563747,
                1.3807455387910958,
                3.1825850132613187
            ]
        },
        {
            "positions": [
                -2.8866377479169683,
                -1.0067461254607482,
                1.7946804244813237,
                -0.7622825087026197,
                1.5572808260627675,
                3.1948507428740047
            ]
        },
        {
            "positions": [
                -2.96924119705344,
                -0.9753962130857574,
                1.7514428463772578,
                -0.7473984745488647,
                1.7338161133344394,
                3.207116472486691
            ]
        }
    ]
}