{
    "goal": {
        "global_pose": {
            "orientation": {
                "w": 0.5084816217422485,
                "x": -0.49083608388900757,
                "y": 0.5182115435600281,
                "z": -0.4816462993621826
            },
            "position": {
                "x": 0.5540239810943604,
                "y": 0.030875300988554955,
                "z": 0.16403168439865112
            }
        },
        "name": "move_to_storage_A"
    },
    "id": "BKPIECE_move_to_storage_A_87",
    "joint_names": [
        "shoulder_pan_joint",
        "shoulder_lift_joint",
        "elbow_joint",
        "wrist_1_joint",
        "wrist_2_joint",
        "wrist_3_joint"
    ],
    "metrics": {
        "cart_traj_len": 0.35284467254559115,
        "distance_elbow_joint": 0.44748443579092134,
        "distance_shoulder_lift_joint": 0.23579010242233744,
        "distance_shoulder_pan_joint": 0.46034324166985907,
        "distance_wrist_1_joint": 0.23410885563239303,
        "distance_wrist_2_joint": 1.1029690402977468,
        "distance_wrist_3_joint": 0.10406226262095197,
        "smoothness": 4.440892098500626e-16,
        "time": 1.100010298,
        "traj_len": 1.6077182397529144,
        "weighted_distance": 2.0322303903854633
    },
    "planner": "BKPIECE",
    "start": {
        "state": {
            "elbow_joint": 1.9715474177455299,
            "shoulder_lift_joint": -1.139484666580328,
            "shoulder_pan_joint": 0.12281154398918248,
            "wrist_1_joint": -0.7804687475355282,
            "wrist_2_joint": 0.12958649657246987,
            "wrist_3_joint": -3.1924925159053466
        }
    },
    "waypoints": [
        {
            "positions": [
                0.12281154398918248,
                -1.139484666580328,
                1.9715474177455299,
                -0.7804687475355282,
                0.12958649657246987,
                -3.1924925159053466
            ]
        },
        {
            "positions": [
                0.05704822375063119,
                -1.1731689669263763,
                2.0354737657156616,
                -0.8139128697687272,
                0.2871535023292908,
                -3.177626478388068
            ]
        },
        {
            "positions": [
                -0.008715096487920099,
                -1.2068532672724244,
                2.099400113685793,
                -0.8473569920019262,
                0.44472050808611174,
                -3.162760440870789
            ]
        },
        {
            "positions": [
                -0.0744784167264714,
                -1.2405375676184727,
                2.1633264616559247,
                -0.8808011142351252,
                0.6022875138429328,
                -3.14789440335351
            ]
        },
        {
            "positions": [
                -0.14024173696502268,
                -1.2742218679645207,
                2.2272528096260564,
                -0.9142452364683242,
                0.7598545195997537,
                -3.133028365836231
            ]
        },
        {
            "positions": [
                -0.20600505720357398,
                -1.307906168310569,
                2.291179157596188,
                -0.9476893587015232,
                0.9174215253565747,
                -3.1181623283189523
            ]
        },
        {
            "positions": [
                -0.2717683774421253,
                -1.3415904686566171,
                2.3551055055663195,
                -0.9811334809347222,
                1.0749885311133955,
                -3.1032962908016732
            ]
        },
        {
            "positions": [
                -0.3375316976806766,
                -1.3752747690026654,
                2.4190318535364512,
                -1.0145776031679212,
                1.2325555368702166,
                -3.0884302532843946
            ]
        }
    ]
}