{
    "goal": {
        "global_pose": {
            "orientation": {
                "w": -0.4816463035849501,
                "x": 0.5182115481033762,
                "y": 0.4908360881923453,
                "z": -0.5084816262002911
            },
            "position": {
                "x": -0.8240239810943604,
                "y": -0.300875300988555,
                "z": 0.16403168439865112
            }
        },
        "name": "move_to_storage_C"
    },
    "id": "BKPIECE_move_to_storage_C_133",
    "joint_names": [
        "shoulder_pan_joint",
        "shoulder_lift_joint",
        "elbow_joint",
        "wrist_1_joint",
        "wrist_2_joint",
        "wrist_3_joint"
    ],
    "metrics": {
        "cart_traj_len": 0.5765701261988366,
        "distance_elbow_joint": 0.25923445782319265,
        "distance_shoulder_lift_joint": 0.18893154811254664,
        "distance_shoulder_pan_joint": 0.4948234191220391,
        "distance_wrist_1_joint": 0.08749610074193337,
        "distance_wrist_2_joint": 1.069662738301349,
        "distance_wrist_3_joint": 0.05944206681428277,
        "smoothness": 0.0,
        "time": 0.951926362,
        "traj_len": 1.4695544668079994,
        "weighted_distance": 1.8535461428265527
    },
    "planner": "BKPIECE",
    "start": {
        "state": {
            "elbow_joint": 2.010868315001653,
            "shoulder_lift_joint": -1.1634956873357014,
            "shoulder_pan_joint": -2.4736205022346103,
            "wrist_1_joint": -0.8367026794713948,
            "wrist_2_joint": 0.6746043897044093,
            "wrist_3_joint": 3.1335220948105738
        }
    },
    "waypoints": [
        {
            "positions": [
                -2.4736205022346103,
                -1.1634956873357014,
                2.010868315001653,
                -0.8367026794713948,
                0.6746043897044093,
                3.1335220948105738
            ]
        },
        {
            "positions": [
                -2.5560910720882832,
                -1.1320070959836104,
                1.967662572031121,
                -0.8221199960144059,
                0.8528815127546341,
                3.1434291059462875
            ]
        },
        {
            "positions": [
                -2.6385616419419566,
                -1.1005185046315191,
                1.9244568290605888,
                -0.807537312557417,
                1.031158635804859,
                3.1533361170820013
            ]
        },
        {
            "positions": [
                -2.72103221179563,
                -1.069029913279428,
                1.8812510860900566,
                -0.7929546291004281,
                1.2094357588550837,
                3.163243128217715
            ]
        },
        {
            "positions": [
                -2.803502781649303,
                -1.037541321927337,
                1.8380453431195247,
                -0.7783719456434391,
                1.3877128819053086,
                3.173150139353429
            ]
        },
        {
            "positions": [
                -2.885973351502976,
                -1.0060527305752458,
                1.7948396001489926,
                -0.7637892621864503,
                1.5659900049555335,
                3.1830571504891427
            ]
        },
        {
            "positions": [
                -2.9684439213566494,
                -0.9745641392231548,
                1.7516338571784604,
                -0.7492065787294614,
                1.7442671280057582,
                3.1929641616248565
            ]
        }
    ]
}