{
    "goal": {
        "global_pose": {
            "orientation": {
                "w": -0.00223480608172531,
                "x": 0.0024358444001904467,
                "y": 0.7094548369677653,
                "z": -0.704743149386269
            },
            "position": {
                "x": -0.37947507619857795,
                "y": -0.6371506643295288,
                "z": 0.19426114857196808
            }
        },
        "name": "move_to_magneteinheit_C"
    },
    "id": "BKPIECE_move_to_magneteinheit_C_54",
    "joint_names": [
        "shoulder_pan_joint",
        "shoulder_lift_joint",
        "elbow_joint",
        "wrist_1_joint",
        "wrist_2_joint",
        "wrist_3_joint"
    ],
    "metrics": {
        "cart_traj_len": 4.282519956066412,
        "distance_elbow_joint": 1.5043703568916427,
        "distance_shoulder_lift_joint": 1.4541674567698555,
        "distance_shoulder_pan_joint": 7.678331451022378,
        "distance_wrist_1_joint": 5.246588540929406,
        "distance_wrist_2_joint": 2.669456398713504,
        "distance_wrist_3_joint": 1.681760622712023,
        "smoothness": 0.658786023199713,
        "time": 1.132473916,
        "traj_len": 4.498296880713725,
        "weighted_distance": 5.613754626994822
    },
    "planner": "BKPIECE",
    "start": {
        "state": {
            "elbow_joint": 1.9565354006590394,
            "shoulder_lift_joint": -1.4165861576513559,
            "shoulder_pan_joint": -1.6717766223277177,
            "wrist_1_joint": -0.5286633288215096,
            "wrist_2_joint": 1.4727565892594296,
            "wrist_3_joint": 3.1593482883155493
        }
    },
    "waypoints": [
        {
            "positions": [
                -1.6717766223277177,
                -1.4165861576513559,
                1.9565354006590394,
                -0.5286633288215096,
                1.4727565892594296,
                3.1593482883155493
            ]
        },
        {
            "positions": [
                -1.5342368656538103,
                -1.4406291854908944,
                1.987753947013034,
                -0.43004629192085847,
                1.4035267575332833,
                3.125339732760328
            ]
        },
        {
            "positions": [
                -1.396697108979903,
                -1.4646722133304328,
                2.0189724933670288,
                -0.33142925502020737,
                1.3342969258071369,
                3.091331177205106
            ]
        },
        {
            "positions": [
                -1.2591573523059958,
                -1.4887152411699713,
                2.0501910397210232,
                -0.23281221811955627,
                1.2650670940809905,
                3.0573226216498846
            ]
        },
        {
            "positions": [
                -1.1216175956320884,
                -1.5127582690095096,
                2.0814095860750177,
                -0.1341951812189051,
                1.195837262354844,
                3.0233140660946627
            ]
        },
        {
            "positions": [
                -0.984077838958181,
                -1.536801296849048,
                2.1126281324290126,
                -0.03557814431825401,
                1.126607430628698,
                2.9893055105394413
            ]
        },
        {
            "positions": [
                -0.8465380822842737,
                -1.5608443246885866,
                2.143846678783007,
                0.06303889258239703,
                1.0573775989025516,
                2.95529695498422
            ]
        },
        {
            "positions": [
                -0.7089983256103664,
                -1.584887352528125,
                2.1750652251370015,
                0.1616559294830483,
                0.9881477671764052,
                2.921288399428998
            ]
        },
        {
            "positions": [
                -0.5714585689364591,
                -1.6089303803676636,
                2.2062837714909964,
                0.26027296638369934,
                0.9189179354502588,
                2.8872798438737766
            ]
        },
        {
            "positions": [
                -0.4339188122625517,
                -1.632973408207202,
                2.237502317844991,
                0.3588900032843504,
                0.8496881037241124,
                2.8532712883185547
            ]
        },
        {
            "positions": [
                -0.2963790555886443,
                -1.6570164360467405,
                2.2687208641989853,
                0.45750704018500155,
                0.780458271997966,
                2.8192627327633333
            ]
        },
        {
            "positions": [
                -0.15883929891473714,
                -1.681059463886279,
                2.2999394105529802,
                0.5561240770856527,
                0.7112284402718198,
                2.785254177208112
            ]
        },
        {
            "positions": [
                -0.02129954224082975,
                -1.7051024917258175,
                2.3311579569069747,
                0.6547411139863036,
                0.6419986085456734,
                2.75124562165289
            ]
        },
        {
            "positions": [
                0.11624021443307764,
                -1.729145519565356,
                2.362376503260969,
                0.753358150886955,
                0.572768776819527,
                2.7172370660976686
            ]
        },
        {
            "positions": [
                0.253779971106985,
                -1.7531885474048945,
                2.393595049614964,
                0.8519751877876062,
                0.5035389450933806,
                2.6832285105424467
            ]
        },
        {
            "positions": [
                0.3913197277808922,
                -1.7772315752444328,
                2.4248135959689585,
                0.9505922246882571,
                0.4343091133672343,
                2.6492199549872253
            ]
        },
        {
            "positions": [
                0.5288594844547996,
                -1.8012746030839712,
                2.456032142322953,
                1.0492092615889081,
                0.36507928164108794,
                2.6152113994320034
            ]
        },
        {
            "positions": [
                0.666399241128707,
                -1.8253176309235097,
                2.487250688676948,
                1.1478262984895595,
                0.29584944991494155,
                2.581202843876782
            ]
        },
        {
            "positions": [
                0.8039389978026144,
                -1.8493606587630482,
                2.5184692350309423,
                1.2464433353902105,
                0.22661961818879517,
                2.5471942883215606
            ]
        },
        {
            "positions": [
                0.9414787544765217,
                -1.8734036866025867,
                2.549687781384937,
                1.3450603722908614,
                0.15738978646264878,
                2.513185732766339
            ]
        },
        {
            "positions": [
                1.0790185111504291,
                -1.8974467144421252,
                2.5809063277389317,
                1.4436774091915128,
                0.0881599547365024,
                2.4791771772111173
            ]
        },
        {
            "positions": [
                1.216558267824336,
                -1.9214897422816635,
                2.612124874092926,
                1.5422944460921637,
                0.018930123010356237,
                2.445168621655896
            ]
        },
        {
            "positions": [
                1.3540980244982435,
                -1.945532770121202,
                2.6433434204469206,
                1.640911482992815,
                -0.05029970871579015,
                2.411160066100674
            ]
        },
        {
            "positions": [
                1.4916377811721513,
                -1.9695757979607404,
                2.6745619668009155,
                1.739528519893466,
                -0.11952954044193675,
                2.3771515105454526
            ]
        },
        {
            "positions": [
                1.6291775378460582,
                -1.993618825800279,
                2.7057805131549095,
                1.838145556794117,
                -0.18875937216808292,
                2.343142954990231
            ]
        },
        {
            "positions": [
                1.7667172945199656,
                -2.0176618536398174,
                2.7369990595089044,
                1.9367625936947683,
                -0.2579892038942293,
                2.3091343994350093
            ]
        },
        {
            "positions": [
                1.609686274735718,
                -1.9860658624997658,
                2.7101877003221717,
                1.8337565707905783,
                -0.22322214442904975,
                2.339932426613953
            ]
        },
        {
            "positions": [
                1.45265525495147,
                -1.9544698713597142,
                2.6833763411354394,
                1.7307505478863885,
                -0.1884550849638702,
                2.370730453792897
            ]
        },
        {
            "positions": [
                1.2956242351672222,
                -1.9228738802196625,
                2.6565649819487067,
                1.6277445249821985,
                -0.15368802549869065,
                2.401528480971841
            ]
        },
        {
            "positions": [
                1.1385932153829743,
                -1.891277889079611,
                2.6297536227619744,
                1.5247385020780087,
                -0.1189209660335111,
                2.4323265081507848
            ]
        },
        {
            "positions": [
                0.9815621955987266,
                -1.8596818979395593,
                2.6029422635752417,
                1.4217324791738186,
                -0.08415390656833155,
                2.463124535329728
            ]
        },
        {
            "positions": [
                0.8245311758144789,
                -1.8280859067995077,
                2.5761309043885094,
                1.3187264562696286,
                -0.049386847103152,
                2.493922562508672
            ]
        },
        {
            "positions": [
                0.6675001560302309,
                -1.796489915659456,
                2.5493195452017767,
                1.2157204333654388,
                -0.014619787637972448,
                2.524720589687616
            ]
        },
        {
            "positions": [
                0.5104691362459832,
                -1.7648939245194044,
                2.5225081860150445,
                1.1127144104612487,
                0.020147271827207103,
                2.55551861686656
            ]
        },
        {
            "positions": [
                0.3534381164617355,
                -1.7332979333793528,
                2.4956968268283117,
                1.0097083875570587,
                0.05491433129238665,
                2.5863166440455037
            ]
        },
        {
            "positions": [
                0.19640709667748757,
                -1.7017019422393012,
                2.4688854676415795,
                0.9067023646528689,
                0.0896813907575662,
                2.6171146712244475
            ]
        },
        {
            "positions": [
                0.03937607689323985,
                -1.6701059510992495,
                2.4420741084548467,
                0.8036963417486789,
                0.12444845022274575,
                2.6479126984033914
            ]
        },
        {
            "positions": [
                -0.11765494289100786,
                -1.638509959959198,
                2.4152627492681145,
                0.7006903188444888,
                0.1592155096879253,
                2.6787107255823353
            ]
        },
        {
            "positions": [
                -0.2746859626752558,
                -1.6069139688191463,
                2.3884513900813817,
                0.597684295940299,
                0.19398256915310486,
                2.7095087527612787
            ]
        },
        {
            "positions": [
                -0.43171698245950374,
                -1.5753179776790946,
                2.3616400308946495,
                0.494678273036109,
                0.2287496286182844,
                2.7403067799402225
            ]
        },
        {
            "positions": [
                -0.5887480022437517,
                -1.543721986539043,
                2.3348286717079167,
                0.391672250131919,
                0.26351668808346396,
                2.7711048071191664
            ]
        },
        {
            "positions": [
                -0.7457790220279992,
                -1.5121259953989914,
                2.3080173125211845,
                0.28866622722772917,
                0.2982837475486435,
                2.8019028342981103
            ]
        },
        {
            "positions": [
                -0.9028100418122471,
                -1.4805300042589398,
                2.2812059533344518,
                0.1856602043235389,
                0.33305080701382306,
                2.832700861477054
            ]
        },
        {
            "positions": [
                -1.0598410615964946,
                -1.4489340131188881,
                2.2543945941477195,
                0.0826541814193491,
                0.3678178664790026,
                2.863498888655998
            ]
        },
        {
            "positions": [
                -1.216872081380743,
                -1.4173380219788365,
                2.2275832349609868,
                -0.020351841484840927,
                0.40258492594418216,
                2.894296915834942
            ]
        },
        {
            "positions": [
                -1.3739031011649905,
                -1.3857420308387849,
                2.2007718757742545,
                -0.12335786438903051,
                0.4373519854093617,
                2.9250949430138857
            ]
        },
        {
            "positions": [
                -1.5309341209492384,
                -1.3541460396987333,
                2.1739605165875218,
                -0.22636388729322077,
                0.47211904487454126,
                2.9558929701928296
            ]
        },
        {
            "positions": [
                -1.687965140733486,
                -1.3225500485586816,
                2.1471491574007895,
                -0.3293699101974106,
                0.5068861043397208,
                2.986690997371773
            ]
        },
        {
            "positions": [
                -1.8449961605177339,
                -1.29095405741863,
                2.1203377982140568,
                -0.43237593310160083,
                0.5416531638049004,
                3.0174890245507173
            ]
        },
        {
            "positions": [
                -2.0020271803019813,
                -1.2593580662785784,
                2.0935264390273245,
                -0.5353819560057906,
                0.5764202232700799,
                3.0482870517296607
            ]
        },
        {
            "positions": [
                -2.1590582000862297,
                -1.2277620751385268,
                2.0667150798405918,
                -0.6383879789099804,
                0.6111872827352595,
                3.0790850789086046
            ]
        },
        {
            "positions": [
                -2.3160892198704772,
                -1.1961660839984751,
                2.039903720653859,
                -0.7413940018141703,
                0.645954342200439,
                3.1098831060875485
            ]
        },
        {
            "positions": [
                -2.473120239654725,
                -1.1645700928584235,
                2.013092361467127,
                -0.8444000247183604,
                0.6807214016656186,
                3.1406811332664923
            ]
        }
    ]
}