{
    "goal": {
        "global_pose": {
            "orientation": {
                "w": 0.7047431493862688,
                "x": -0.7094548369677653,
                "y": 0.0024358444001904,
                "z": -0.0022348060817251984
            },
            "position": {
                "x": -0.39052492380142206,
                "y": 0.3671506643295288,
                "z": 0.19426114857196808
            }
        },
        "name": "move_to_magneteinheit_D"
    },
    "id": "BKPIECE_move_to_magneteinheit_D_97",
    "joint_names": [
        "shoulder_pan_joint",
        "shoulder_lift_joint",
        "elbow_joint",
        "wrist_1_joint",
        "wrist_2_joint",
        "wrist_3_joint"
    ],
    "metrics": {
        "cart_traj_len": 6.289945146313798,
        "distance_elbow_joint": 3.580769458614061,
        "distance_shoulder_lift_joint": 2.73937121991902,
        "distance_shoulder_pan_joint": 6.274894814002955,
        "distance_wrist_1_joint": 6.125749589139021,
        "distance_wrist_2_joint": 7.277877360105506,
        "distance_wrist_3_joint": 7.532168430944761,
        "smoothness": 0.48027841654470466,
        "time": 1.6605846290000001,
        "traj_len": 5.7905812206310765,
        "weighted_distance": 7.873931335988351
    },
    "planner": "BKPIECE",
    "start": {
        "state": {
            "elbow_joint": 0.7495348899011973,
            "shoulder_lift_joint": -0.6476975780737697,
            "shoulder_pan_joint": -2.711696901376276,
            "wrist_1_joint": -0.07506478080974305,
            "wrist_2_joint": 0.4329665971545858,
            "wrist_3_joint": 3.1361499051832524
        }
    },
    "waypoints": [
        {
            "positions": [
                -2.711696901376276,
                -0.6476975780737697,
                0.7495348899011973,
                -0.07506478080974305,
                0.4329665971545858,
                3.1361499051832524
            ]
        },
        {
            "positions": [
                -2.7164674832435436,
                -0.6319411826893648,
                0.7071326921845973,
                -0.09916895255161273,
                0.4689832933943125,
                2.9875542865832787
            ]
        },
        {
            "positions": [
                -2.721238065110811,
                -0.6161847873049598,
                0.6647304944679974,
                -0.12327312429348242,
                0.5049999896340391,
                2.8389586679833054
            ]
        },
        {
            "positions": [
                -2.7260086469780784,
                -0.600428391920555,
                0.6223282967513973,
                -0.1473772960353521,
                0.5410166858737658,
                2.6903630493833317
            ]
        },
        {
            "positions": [
                -2.7256970332146615,
                -0.5828821836672629,
                0.5639654906055306,
                -0.18855204238400236,
                0.5680794873000741,
                2.4484655630483405
            ]
        },
        {
            "positions": [
                -2.7253854194512446,
                -0.5653359754139708,
                0.5056026844596638,
                -0.22972678873265265,
                0.5951422887263823,
                2.206568076713349
            ]
        },
        {
            "positions": [
                -2.7250738056878276,
                -0.5477897671606787,
                0.4472398783137971,
                -0.2709015350813029,
                0.6222050901526905,
                1.9646705903783577
            ]
        },
        {
            "positions": [
                -2.7247621919244107,
                -0.5302435589073867,
                0.3888770721679303,
                -0.3120762814299532,
                0.6492678915789988,
                1.7227731040433663
            ]
        },
        {
            "positions": [
                -2.724450578160994,
                -0.5126973506540946,
                0.3305142660220636,
                -0.35325102777860345,
                0.676330693005307,
                1.480875617708375
            ]
        },
        {
            "positions": [
                -2.724138964397577,
                -0.49515114240080255,
                0.2721514598761968,
                -0.3944257741272537,
                0.7033934944316154,
                1.2389781313733836
            ]
        },
        {
            "positions": [
                -2.72382735063416,
                -0.4776049341475105,
                0.21378865373033007,
                -0.435600520475904,
                0.7304562958579235,
                0.9970806450383922
            ]
        },
        {
            "positions": [
                -2.723515736870743,
                -0.46005872589421837,
                0.15542584758446332,
                -0.4767752668245543,
                0.7575190972842318,
                0.7551831587034008
            ]
        },
        {
            "positions": [
                -2.723204123107326,
                -0.4425125176409263,
                0.09706304143859656,
                -0.5179500131732045,
                0.7845818987105401,
                0.5132856723684092
            ]
        },
        {
            "positions": [
                -2.722892509343909,
                -0.42496630938763424,
                0.03870023529272981,
                -0.5591247595218548,
                0.8116447001368483,
                0.2713881860334184
            ]
        },
        {
            "positions": [
                -2.722580895580492,
                -0.4074201011343422,
                -0.019662570853136982,
                -0.6002995058705051,
                0.8387075015631565,
                0.029490699698426687
            ]
        },
        {
            "positions": [
                -2.6703181145392323,
                -0.41993141095048686,
                -0.06997328779771292,
                -0.6131970760406183,
                0.8278057820901702,
                -0.08639288885574906
            ]
        },
        {
            "positions": [
                -2.5507356277906212,
                -0.47673095156555534,
                -0.15931087242598013,
                -0.5633396420665912,
                0.7911063503398149,
                -0.11365669854630582
            ]
        },
        {
            "positions": [
                -2.43115314104201,
                -0.5335304921806238,
                -0.24864845705424737,
                -0.5134822080925638,
                0.7544069185894597,
                -0.14092050823686258
            ]
        },
        {
            "positions": [
                -2.3115706542933987,
                -0.5903300327956923,
                -0.33798604168251456,
                -0.4636247741185367,
                0.7177074868391045,
                -0.16818431792741934
            ]
        },
        {
            "positions": [
                -2.1919881675447876,
                -0.6471295734107607,
                -0.4273236263107818,
                -0.41376734014450944,
                0.6810080550887492,
                -0.19544812761797614
            ]
        },
        {
            "positions": [
                -2.0724056807961766,
                -0.7039291140258293,
                -0.516661210939049,
                -0.36390990617048224,
                0.6443086233383939,
                -0.2227119373085329
            ]
        },
        {
            "positions": [
                -1.9528231940475655,
                -0.7607286546408977,
                -0.6059987955673163,
                -0.31405247219645505,
                0.6076091915880387,
                -0.24997574699908964
            ]
        },
        {
            "positions": [
                -1.8332407072989545,
                -0.8175281952559661,
                -0.6953363801955834,
                -0.26419503822242785,
                0.5709097598376834,
                -0.2772395566896464
            ]
        },
        {
            "positions": [
                -1.713658220550343,
                -0.8743277358710346,
                -0.7846739648238508,
                -0.21433760424840054,
                0.5342103280873283,
                -0.3045033663802032
            ]
        },
        {
            "positions": [
                -1.594075733801732,
                -0.9311272764861032,
                -0.8740115494521179,
                -0.16448017027437334,
                0.49751089633697293,
                -0.33176717607076
            ]
        },
        {
            "positions": [
                -1.474493247053121,
                -0.9879268171011715,
                -0.9633491340803851,
                -0.11462273630034614,
                0.4608114645866177,
                -0.35903098576131676
            ]
        },
        {
            "positions": [
                -1.3549107603045096,
                -1.04472635771624,
                -1.0526867187086524,
                -0.06476530232631883,
                0.4241120328362624,
                -0.3862947954518735
            ]
        },
        {
            "positions": [
                -1.2353282735558986,
                -1.1015258983313085,
                -1.1420243033369195,
                -0.014907868352291742,
                0.3874126010859072,
                -0.41355860514243026
            ]
        },
        {
            "positions": [
                -1.1157457868072875,
                -1.1583254389463769,
                -1.2313618879651866,
                0.03494956562173557,
                0.35071316933555197,
                -0.440822414832987
            ]
        },
        {
            "positions": [
                -0.9961633000586765,
                -1.2151249795614454,
                -1.3206994725934538,
                0.08480699959576266,
                0.3140137375851967,
                -0.46808622452354376
            ]
        },
        {
            "positions": [
                -0.8765808133100652,
                -1.271924520176514,
                -1.4100370572217211,
                0.13466443356978997,
                0.2773143058348414,
                -0.4953500342141005
            ]
        },
        {
            "positions": [
                -0.7569983265614539,
                -1.3287240607915825,
                -1.4993746418499885,
                0.18452186754381728,
                0.24061487408448623,
                -0.5226138439046574
            ]
        },
        {
            "positions": [
                -0.6374158398128431,
                -1.3855236014066508,
                -1.5887122264782556,
                0.23437930151784436,
                0.20391544233413095,
                -0.5498776535952141
            ]
        },
        {
            "positions": [
                -0.5178333530642316,
                -1.4423231420217193,
                -1.6780498111065227,
                0.2842367354918717,
                0.16721601058377566,
                -0.5771414632857709
            ]
        },
        {
            "positions": [
                -0.39825086631562057,
                -1.4991226826367876,
                -1.7673873957347899,
                0.33409416946589876,
                0.1305165788334205,
                -0.6044052729763276
            ]
        },
        {
            "positions": [
                -0.2786683795670094,
                -1.5559222232518561,
                -1.8567249803630572,
                0.38395160343992607,
                0.09381714708306518,
                -0.6316690826668844
            ]
        },
        {
            "positions": [
                -0.19371791757982004,
                -1.5422098788741532,
                -1.8471011843631615,
                0.3075734989678128,
                -0.03776456204453968,
                -0.698623446481645
            ]
        },
        {
            "positions": [
                -0.10876745559263065,
                -1.5284975344964502,
                -1.8374773883632658,
                0.2311953944956995,
                -0.16934627117214454,
                -0.7655778102964055
            ]
        },
        {
            "positions": [
                -0.02381699360544126,
                -1.5147851901187475,
                -1.82785359236337,
                0.15481729002358624,
                -0.30092798029974943,
                -0.832532174111166
            ]
        },
        {
            "positions": [
                0.0611334683817481,
                -1.5010728457410445,
                -1.8182297963634744,
                0.07843918555147295,
                -0.43250968942735424,
                -0.8994865379259266
            ]
        },
        {
            "positions": [
                0.14608393036893746,
                -1.4873605013633415,
                -1.8086060003635787,
                0.0020610810793597056,
                -0.564091398554959,
                -0.9664409017406872
            ]
        },
        {
            "positions": [
                0.23103439235612688,
                -1.4736481569856386,
                -1.798982204363683,
                -0.07431702339275359,
                -0.695673107682564,
                -1.0333952655554477
            ]
        },
        {
            "positions": [
                0.31598485434331625,
                -1.4599358126079358,
                -1.7893584083637872,
                -0.15069512786486694,
                -0.8272548168101689,
                -1.1003496293702084
            ]
        },
        {
            "positions": [
                0.4009353163305056,
                -1.4462234682302328,
                -1.7797346123638915,
                -0.22707323233698018,
                -0.9588365259377737,
                -1.167303993184969
            ]
        },
        {
            "positions": [
                0.48588577831769497,
                -1.4325111238525299,
                -1.7701108163639958,
                -0.3034513368090934,
                -1.0904182350653788,
                -1.2342583569997294
            ]
        },
        {
            "positions": [
                0.5708362403048843,
                -1.418798779474827,
                -1.7604870203641,
                -0.37982944128120666,
                -1.2219999441929834,
                -1.30121272081449
            ]
        },
        {
            "positions": [
                0.6557867022920738,
                -1.405086435097124,
                -1.7508632243642044,
                -0.45620754575332,
                -1.3535816533205884,
                -1.3681670846292504
            ]
        },
        {
            "positions": [
                0.7407371642792632,
                -1.3913740907194212,
                -1.7412394283643087,
                -0.5325856502254332,
                -1.4851633624481932,
                -1.435121448444011
            ]
        },
        {
            "positions": [
                0.8256876262664524,
                -1.3776617463417182,
                -1.731615632364413,
                -0.6089637546975465,
                -1.616745071575798,
                -1.5020758122587714
            ]
        },
        {
            "positions": [
                0.9106380882536419,
                -1.3639494019640153,
                -1.721991836364517,
                -0.68534185916966,
                -1.748326780703403,
                -1.5690301760735323
            ]
        },
        {
            "positions": [
                0.9955885502408314,
                -1.3502370575863123,
                -1.7123680403646213,
                -0.7617199636417732,
                -1.879908489831008,
                -1.6359845398882928
            ]
        },
        {
            "positions": [
                1.0805390122280207,
                -1.3365247132086093,
                -1.7027442443647256,
                -0.8380980681138864,
                -2.0114901989586125,
                -1.7029389037030533
            ]
        },
        {
            "positions": [
                1.1654894742152098,
                -1.3228123688309066,
                -1.6931204483648299,
                -0.9144761725859997,
                -2.1430719080862173,
                -1.7698932675178138
            ]
        },
        {
            "positions": [
                1.2504399362023992,
                -1.3091000244532036,
                -1.6834966523649342,
                -0.9908542770581129,
                -2.2746536172138225,
                -1.8368476313325743
            ]
        },
        {
            "positions": [
                1.3353903981895887,
                -1.2953876800755006,
                -1.6738728563650385,
                -1.0672323815302263,
                -2.4062353263414273,
                -1.9038019951473348
            ]
        },
        {
            "positions": [
                1.4203408601767782,
                -1.281675335697798,
                -1.6642490603651428,
                -1.1436104860023395,
                -2.5378170354690317,
                -1.9707563589620953
            ]
        },
        {
            "positions": [
                1.5052913221639672,
                -1.267962991320095,
                -1.654625264365247,
                -1.2199885904744527,
                -2.6693987445966365,
                -2.037710722776856
            ]
        },
        {
            "positions": [
                1.5902417841511571,
                -1.254250646942392,
                -1.6450014683653513,
                -1.296366694946566,
                -2.8009804537242418,
                -2.1046650865916168
            ]
        },
        {
            "positions": [
                1.6751922461383462,
                -1.240538302564689,
                -1.6353776723654556,
                -1.3727447994186792,
                -2.9325621628518466,
                -2.1716194504063773
            ]
        },
        {
            "positions": [
                1.6132128402955221,
                -1.2750452259038527,
                -1.6604830817105292,
                -1.2782857256997127,
                -2.8291999364757823,
                -2.0974728145612063
            ]
        },
        {
            "positions": [
                1.551233434452698,
                -1.3095521492430164,
                -1.6855884910556027,
                -1.1838266519807459,
                -2.7258377100997175,
                -2.0233261787160357
            ]
        },
        {
            "positions": [
                1.4892540286098739,
                -1.3440590725821802,
                -1.7106939004006763,
                -1.089367578261779,
                -2.6224754837236532,
                -1.9491795428708645
            ]
        },
        {
            "positions": [
                1.4272746227670496,
                -1.3785659959213439,
                -1.73579930974575,
                -0.9949085045428125,
                -2.519113257347589,
                -1.8750329070256937
            ]
        },
        {
            "positions": [
                1.3652952169242256,
                -1.4130729192605074,
                -1.7609047190908236,
                -0.9004494308238459,
                -2.415751030971524,
                -1.8008862711805227
            ]
        },
        {
            "positions": [
                1.3033158110814014,
                -1.447579842599671,
                -1.7860101284358971,
                -0.8059903571048791,
                -2.31238880459546,
                -1.726739635335352
            ]
        },
        {
            "positions": [
                1.2413364052385774,
                -1.4820867659388348,
                -1.8111155377809707,
                -0.7115312833859124,
                -2.2090265782193956,
                -1.652592999490181
            ]
        },
        {
            "positions": [
                1.1793569993957531,
                -1.5165936892779985,
                -1.8362209471260442,
                -0.6170722096669459,
                -2.105664351843331,
                -1.5784463636450101
            ]
        },
        {
            "positions": [
                1.117377593552929,
                -1.5511006126171623,
                -1.861326356471118,
                -0.5226131359479792,
                -2.0023021254672666,
                -1.5042997277998391
            ]
        },
        {
            "positions": [
                1.055398187710105,
                -1.585607535956326,
                -1.8864317658161913,
                -0.42815406222901253,
                -1.8989398990912023,
                -1.4301530919546683
            ]
        },
        {
            "positions": [
                0.9934187818672808,
                -1.6201144592954897,
                -1.911537175161265,
                -0.33369498851004575,
                -1.7955776727151378,
                -1.3560064561094975
            ]
        },
        {
            "positions": [
                0.9314393760244566,
                -1.6546213826346534,
                -1.9366425845063386,
                -0.23923591479107897,
                -1.6922154463390733,
                -1.2818598202643265
            ]
        },
        {
            "positions": [
                0.8694599701816326,
                -1.6891283059738171,
                -1.9617479938514122,
                -0.14477684107211242,
                -1.5888532199630088,
                -1.2077131844191555
            ]
        },
        {
            "positions": [
                0.8074805643388084,
                -1.7236352293129809,
                -1.9868534031964857,
                -0.05031776735314564,
                -1.4854909935869445,
                -1.1335665485739845
            ]
        },
        {
            "positions": [
                0.7455011584959843,
                -1.7581421526521446,
                -2.0119588125415593,
                0.04414130636582092,
                -1.38212876721088,
                -1.0594199127288138
            ]
        },
        {
            "positions": [
                0.6835217526531602,
                -1.7926490759913083,
                -2.037064221886633,
                0.13860038008478748,
                -1.2787665408348154,
                -0.985273276883643
            ]
        },
        {
            "positions": [
                0.621542346810336,
                -1.8271559993304718,
                -2.0621696312317064,
                0.23305945380375426,
                -1.1754043144587512,
                -0.911126641038472
            ]
        },
        {
            "positions": [
                0.559562940967512,
                -1.8616629226696355,
                -2.08727504057678,
                0.3275185275227208,
                -1.0720420880826866,
                -0.8369800051933012
            ]
        },
        {
            "positions": [
                0.4975835351246878,
                -1.8961698460087992,
                -2.1123804499218535,
                0.4219776012416876,
                -0.9686798617066223,
                -0.7628333693481302
            ]
        },
        {
            "positions": [
                0.43560412928186376,
                -1.930676769347963,
                -2.1374858592669272,
                0.5164366749606542,
                -0.865317635330558,
                -0.6886867335029594
            ]
        },
        {
            "positions": [
                0.37362472343903974,
                -1.9651836926871264,
                -2.162591268612001,
                0.6108957486796209,
                -0.7619554089544933,
                -0.6145400976577884
            ]
        },
        {
            "positions": [
                0.3116453175962155,
                -1.9996906160262902,
                -2.1876966779570743,
                0.7053548223985877,
                -0.658593182578429,
                -0.5403934618126176
            ]
        },
        {
            "positions": [
                0.24966591175339126,
                -2.0341975393654543,
                -2.212802087302148,
                0.7998138961175543,
                -0.5552309562023643,
                -0.4662468259674464
            ]
        },
        {
            "positions": [
                0.18768650591056701,
                -2.068704462704618,
                -2.237907496647222,
                0.8942729698365213,
                -0.4518687298263,
                -0.3921001901222756
            ]
        },
        {
            "positions": [
                0.125707100067743,
                -2.1032113860437813,
                -2.263012905992295,
                0.9887320435554878,
                -0.34850650345023526,
                -0.3179535542771046
            ]
        },
        {
            "positions": [
                0.06372769422491897,
                -2.137718309382945,
                -2.288118315337369,
                1.0831911172744544,
                -0.24514427707417097,
                -0.2438069184319338
            ]
        },
        {
            "positions": [
                0.0017482883820947315,
                -2.1722252327221088,
                -2.3132237246824423,
                1.177650190993421,
                -0.14178205069810668,
                -0.1696602825867628
            ]
        },
        {
            "positions": [
                -0.06023111746072929,
                -2.2067321560612725,
                -2.338329134027516,
                1.272109264712388,
                -0.038419824322042384,
                -0.0955136467415918
            ]
        },
        {
            "positions": [
                -0.12221052330355353,
                -2.241239079400436,
                -2.3634345433725894,
                1.3665683384313545,
                0.06494240205402235,
                -0.021367010896421235
            ]
        },
        {
            "positions": [
                -0.18418992914637766,
                -2.2757460027396,
                -2.388539952717663,
                1.461027412150321,
                0.16830462843008676,
                0.05277962494874983
            ]
        }
    ]
}