{
    "goal": {
        "global_pose": {
            "orientation": {
                "w": -0.00223480608172531,
                "x": 0.0024358444001904467,
                "y": 0.7094548369677653,
                "z": -0.704743149386269
            },
            "position": {
                "x": 0.6205249238014221,
                "y": -0.6371506643295288,
                "z": 0.19426114857196808
            }
        },
        "name": "move_to_magneteinheit_B"
    },
    "id": "BKPIECE_move_to_magneteinheit_B_5",
    "joint_names": [
        "shoulder_pan_joint",
        "shoulder_lift_joint",
        "elbow_joint",
        "wrist_1_joint",
        "wrist_2_joint",
        "wrist_3_joint"
    ],
    "metrics": {
        "cart_traj_len": 3.6875610760853537,
        "distance_elbow_joint": 4.085232854917258,
        "distance_shoulder_lift_joint": 0.5682498232913813,
        "distance_shoulder_pan_joint": 2.850795831771099,
        "distance_wrist_1_joint": 2.587172702784058,
        "distance_wrist_2_joint": 1.2704387715793206,
        "distance_wrist_3_joint": 4.089467700151246,
        "smoothness": 0.23981446679517326,
        "time": 1.230648877,
        "traj_len": 3.930821502497203,
        "weighted_distance": 5.242890858978493
    },
    "planner": "BKPIECE",
    "start": {
        "state": {
            "elbow_joint": 2.3935871308073637,
            "shoulder_lift_joint": -1.9085141043777403,
            "shoulder_pan_joint": 0.7066247067284167,
            "wrist_1_joint": -0.46782909355067076,
            "wrist_2_joint": 0.7096259085804283,
            "wrist_3_joint": -3.1358149275257428
        }
    },
    "waypoints": [
        {
            "positions": [
                0.7066247067284167,
                -1.9085141043777403,
                2.3935871308073637,
                -0.46782909355067076,
                0.7096259085804283,
                -3.1358149275257428
            ]
        },
        {
            "positions": [
                0.622359682495992,
                -1.9090627199020869,
                2.396207760006938,
                -0.5245652976155248,
                0.605500528729332,
                -3.0605448831105284
            ]
        },
        {
            "positions": [
                0.5380946582635675,
                -1.9096113354264332,
                2.398828389206512,
                -0.5813015016803789,
                0.5013751488782356,
                -2.9852748386953145
            ]
        },
        {
            "positions": [
                0.45382963403114285,
                -1.9101599509507798,
                2.401449018406086,
                -0.6380377057452329,
                0.3972497690271393,
                -2.9100047942801
            ]
        },
        {
            "positions": [
                0.3695646097987182,
                -1.9107085664751264,
                2.40406964760566,
                -0.6947739098100869,
                0.293124389176043,
                -2.834734749864886
            ]
        },
        {
            "positions": [
                0.3627190027435987,
                -1.9179052998700314,
                2.257304145306401,
                -0.6866658912420429,
                0.21487634660155028,
                -2.6948736986129864
            ]
        },
        {
            "positions": [
                0.3558733956884792,
                -1.9251020332649365,
                2.110538643007142,
                -0.6785578726739988,
                0.13662830402705756,
                -2.5550126473610875
            ]
        },
        {
            "positions": [
                0.34902778863335965,
                -1.9322987666598417,
                1.9637731407078827,
                -0.6704498541059547,
                0.058380261452564836,
                -2.4151515961091885
            ]
        },
        {
            "positions": [
                0.34218218157824015,
                -1.9394955000547467,
                1.8170076384086236,
                -0.6623418355379107,
                -0.019867781121927858,
                -2.275290544857289
            ]
        },
        {
            "positions": [
                0.4239998013886908,
                -1.9468441648946238,
                1.7003227197680422,
                -0.5938454831356352,
                -0.002179640110029017,
                -2.1799249069792777
            ]
        },
        {
            "positions": [
                0.5058174211991414,
                -1.954192829734501,
                1.5836378011274608,
                -0.5253491307333596,
                0.015508500901869823,
                -2.084559269101266
            ]
        },
        {
            "positions": [
                0.5876350410095921,
                -1.961541494574378,
                1.4669528824868792,
                -0.4568527783310841,
                0.03319664191376867,
                -1.9891936312232548
            ]
        },
        {
            "positions": [
                0.6694526608200427,
                -1.9688901594142552,
                1.3502679638462978,
                -0.3883564259288086,
                0.050884782925667504,
                -1.8938279933452433
            ]
        },
        {
            "positions": [
                0.7512702806304934,
                -1.9762388242541324,
                1.2335830452057164,
                -0.31986007352653306,
                0.06857292393756637,
                -1.7984623554672319
            ]
        },
        {
            "positions": [
                0.8330879004409439,
                -1.9835874890940095,
                1.116898126565135,
                -0.25136372112425753,
                0.0862610649494652,
                -1.7030967175892207
            ]
        },
        {
            "positions": [
                0.9149055202513947,
                -1.9909361539338866,
                1.0002132079245536,
                -0.182867368721982,
                0.10394920596136405,
                -1.6077310797112092
            ]
        },
        {
            "positions": [
                0.9967231400618453,
                -1.9982848187737638,
                0.8835282892839721,
                -0.11437101631970648,
                0.12163734697326287,
                -1.5123654418331978
            ]
        },
        {
            "positions": [
                1.078540759872296,
                -2.005633483613641,
                0.7668433706433906,
                -0.04587466391743089,
                0.13932548798516173,
                -1.4169998039551863
            ]
        },
        {
            "positions": [
                1.1603583796827466,
                -2.012982148453518,
                0.6501584520028092,
                0.022621688484844582,
                0.1570136289970606,
                -1.3216341660771749
            ]
        },
        {
            "positions": [
                1.2421759994931971,
                -2.0203308132933953,
                0.5334735333622278,
                0.09111804088712006,
                0.1747017700089594,
                -1.2262685281991637
            ]
        },
        {
            "positions": [
                1.323993619303648,
                -2.0276794781332725,
                0.4167886147216464,
                0.15961439328939564,
                0.19238991102085826,
                -1.1309028903211522
            ]
        },
        {
            "positions": [
                1.4058112391140984,
                -2.0350281429731494,
                0.300103696081065,
                0.2281107456916711,
                0.2100780520327571,
                -1.0355372524431408
            ]
        },
        {
            "positions": [
                1.4876288589245492,
                -2.0423768078130267,
                0.1834187774404834,
                0.2966070980939467,
                0.22776619304465595,
                -0.9401716145651293
            ]
        },
        {
            "positions": [
                1.569446478735,
                -2.049725472652904,
                0.06673385879990201,
                0.3651034504962223,
                0.24545433405655478,
                -0.8448059766871179
            ]
        },
        {
            "positions": [
                1.6512640985454505,
                -2.057074137492781,
                -0.04995105984067938,
                0.43359980289849775,
                0.26314247506845356,
                -0.7494403388091064
            ]
        },
        {
            "positions": [
                1.733081718355901,
                -2.064422802332658,
                -0.16663597848126055,
                0.5020961553007732,
                0.2808306160803524,
                -0.6540747009310952
            ]
        },
        {
            "positions": [
                1.8148993381663518,
                -2.0717714671725354,
                -0.2833208971218424,
                0.5705925077030489,
                0.2985187570922513,
                -0.5587090630530835
            ]
        },
        {
            "positions": [
                1.8967169579768024,
                -2.079120132012412,
                -0.40000581576242356,
                0.6390888601053242,
                0.31620689810415015,
                -0.4633434251750723
            ]
        },
        {
            "positions": [
                1.9785345777872532,
                -2.0864687968522895,
                -0.5166907344030052,
                0.7075852125075999,
                0.333895039116049,
                -0.36797778729706065
            ]
        },
        {
            "positions": [
                2.0603521975977035,
                -2.0938174616921668,
                -0.6333756530435863,
                0.7760815649098753,
                0.35158318012794787,
                -0.2726121494190492
            ]
        },
        {
            "positions": [
                2.142169817408154,
                -2.1011661265320436,
                -0.750060571684168,
                0.8445779173121508,
                0.3692713211398466,
                -0.1772465115410382
            ]
        },
        {
            "positions": [
                2.223987437218605,
                -2.108514791371921,
                -0.8667454903247496,
                0.9130742697144265,
                0.3869594621517455,
                -0.08188087366302632
            ]
        },
        {
            "positions": [
                2.3058050570290556,
                -2.115863456211798,
                -0.9834304089653307,
                0.981570622116702,
                0.40464760316364434,
                0.01348476421498468
            ]
        },
        {
            "positions": [
                2.387622676839506,
                -2.123212121051675,
                -1.100115327605912,
                1.0500669745189775,
                0.4223357441755432,
                0.10885040209299612
            ]
        },
        {
            "positions": [
                2.4694402966499567,
                -2.1305607858915523,
                -1.2168002462464935,
                1.118563326921253,
                0.44002388518744207,
                0.20421603997100757
            ]
        },
        {
            "positions": [
                2.5512579164604072,
                -2.1379094507314296,
                -1.3334851648870751,
                1.1870596793235284,
                0.4577120261993408,
                0.299581677849019
            ]
        },
        {
            "positions": [
                2.633075536270858,
                -2.1452581155713064,
                -1.4501700835276568,
                1.255556031725804,
                0.4754001672112398,
                0.39494731572703046
            ]
        },
        {
            "positions": [
                2.7148931560813088,
                -2.1526067804111837,
                -1.5668550021682381,
                1.3240523841280796,
                0.4930883082231386,
                0.49031295360504207
            ]
        },
        {
            "positions": [
                2.744022715362858,
                -2.1942450137055682,
                -1.624668981869521,
                1.3131254281049627,
                0.5023832728772892,
                0.4716033661078346
            ]
        },
        {
            "positions": [
                2.725893805629163,
                -2.2707245181027704,
                -1.6410905943801999,
                1.2268641028812954,
                0.4997596715872429,
                0.35380118369334385
            ]
        },
        {
            "positions": [
                2.707764895895468,
                -2.3472040224999726,
                -1.6575122068908787,
                1.140602777657628,
                0.49713607029719653,
                0.2359990012788531
            ]
        },
        {
            "positions": [
                2.683637419211011,
                -2.411983975084547,
                -1.6640964487020895,
                1.0616267845996155,
                0.49041265764836883,
                0.13148606793171672
            ]
        },
        {
            "positions": [
                2.6595099425265536,
                -2.4767639276691216,
                -1.6706806905133003,
                0.9826507915416031,
                0.4836892449995411,
                0.026973134584580345
            ]
        }
    ]
}