{
    "goal": {
        "global_pose": {
            "orientation": {
                "w": -0.4816463035849501,
                "x": 0.5182115481033762,
                "y": 0.4908360881923453,
                "z": -0.5084816262002911
            },
            "position": {
                "x": -0.8240239810943604,
                "y": 0.19912469901144506,
                "z": 0.16403168439865112
            }
        },
        "name": "move_to_storage_D"
    },
    "id": "BKPIECE_move_to_storage_D_114",
    "joint_names": [
        "shoulder_pan_joint",
        "shoulder_lift_joint",
        "elbow_joint",
        "wrist_1_joint",
        "wrist_2_joint",
        "wrist_3_joint"
    ],
    "metrics": {
        "cart_traj_len": 4.089770331816674,
        "distance_elbow_joint": 4.207763154885385,
        "distance_shoulder_lift_joint": 3.7109548219763537,
        "distance_shoulder_pan_joint": 2.8132431131320237,
        "distance_wrist_1_joint": 2.263639460992925,
        "distance_wrist_2_joint": 3.8265883260656945,
        "distance_wrist_3_joint": 8.756464399133188,
        "smoothness": 0.5470981029950073,
        "time": 0.953846771,
        "traj_len": 5.057534307959319,
        "weighted_distance": 7.01297439475652
    },
    "planner": "BKPIECE",
    "start": {
        "state": {
            "elbow_joint": -2.384821997420982,
            "shoulder_lift_joint": -2.2788054674887404,
            "shoulder_pan_joint": -0.18546946417610016,
            "wrist_1_joint": 1.4845937964226739,
            "wrist_2_joint": 0.1789877726866377,
            "wrist_3_joint": 0.03710572555276528
        }
    },
    "waypoints": [
        {
            "positions": [
                -0.18546946417610016,
                -2.2788054674887404,
                -2.384821997420982,
                1.4845937964226739,
                0.1789877726866377,
                0.03710572555276528
            ]
        },
        {
            "positions": [
                -0.15104068928875414,
                -2.260631145095226,
                -2.372687795477411,
                1.4702248209547502,
                0.17615747573278998,
                0.04731291988376392
            ]
        },
        {
            "positions": [
                -0.08077559328381903,
                -2.22704944273808,
                -2.2677630949990224,
                1.4082229762457026,
                0.19916509933943544,
                -0.03216977418135318
            ]
        },
        {
            "positions": [
                -0.010510497278883923,
                -2.193467740380934,
                -2.1628383945206338,
                1.346221131536655,
                0.22217272294608087,
                -0.11165246824647028
            ]
        },
        {
            "positions": [
                0.05975459872605121,
                -2.159886038023788,
                -2.057913694042245,
                1.2842192868276074,
                0.24518034655272636,
                -0.1911351623115874
            ]
        },
        {
            "positions": [
                0.1300196947309863,
                -2.126304335666642,
                -1.9529889935638567,
                1.22221744211856,
                0.2681879701593718,
                -0.2706178563767045
            ]
        },
        {
            "positions": [
                0.20028479073592143,
                -2.0927226333094957,
                -1.848064293085468,
                1.1602155974095125,
                0.2911955937660172,
                -0.35010055044182165
            ]
        },
        {
            "positions": [
                0.27054988674085656,
                -2.05914093095235,
                -1.7431395926070794,
                1.098213752700465,
                0.3142032173726627,
                -0.42958324450693874
            ]
        },
        {
            "positions": [
                0.3408149827457916,
                -2.025559228595204,
                -1.638214892128691,
                1.0362119079914174,
                0.33721084097930815,
                -0.5090659385720557
            ]
        },
        {
            "positions": [
                0.4110800787507267,
                -1.991977526238058,
                -1.5332901916503023,
                0.9742100632823698,
                0.36021846458595363,
                -0.5885486326371728
            ]
        },
        {
            "positions": [
                0.48134517475566185,
                -1.9583958238809118,
                -1.4283654911719137,
                0.9122082185733222,
                0.38322608819259907,
                -0.66803132670229
            ]
        },
        {
            "positions": [
                0.551610270760597,
                -1.9248141215237657,
                -1.323440790693525,
                0.8502063738642747,
                0.4062337117992445,
                -0.7475140207674071
            ]
        },
        {
            "positions": [
                0.6218753667655321,
                -1.8912324191666197,
                -1.2185160902151364,
                0.7882045291552271,
                0.42924133540588993,
                -0.8269967148325242
            ]
        },
        {
            "positions": [
                0.6921404627704673,
                -1.8576507168094736,
                -1.1135913897367478,
                0.7262026844461795,
                0.4522489590125355,
                -0.9064794088976413
            ]
        },
        {
            "positions": [
                0.7624055587754022,
                -1.8240690144523275,
                -1.0086666892583593,
                0.6642008397371322,
                0.4752565826191808,
                -0.9859621029627584
            ]
        },
        {
            "positions": [
                0.8326706547803373,
                -1.7904873120951814,
                -0.9037419887799709,
                0.6021989950280846,
                0.49826420622582634,
                -1.0654447970278755
            ]
        },
        {
            "positions": [
                0.9029357507852724,
                -1.7569056097380353,
                -0.7988172883015823,
                0.540197150319037,
                0.5212718298324718,
                -1.1449274910929927
            ]
        },
        {
            "positions": [
                0.9732008467902076,
                -1.7233239073808895,
                -0.6938925878231936,
                0.47819530560998946,
                0.5442794534391172,
                -1.2244101851581097
            ]
        },
        {
            "positions": [
                1.0434659427951427,
                -1.6897422050237434,
                -0.588967887344805,
                0.4161934609009418,
                0.5672870770457626,
                -1.303892879223227
            ]
        },
        {
            "positions": [
                1.0689545563159595,
                -1.742893384390841,
                -0.5098768705440107,
                0.3752589659291913,
                0.5031186911103713,
                -1.1820591137607215
            ]
        },
        {
            "positions": [
                1.094443169836776,
                -1.7960445637579383,
                -0.43078585374321643,
                0.33432447095744083,
                0.4389503051749801,
                -1.060225348298216
            ]
        },
        {
            "positions": [
                1.1199317833575928,
                -1.8491957431250359,
                -0.3516948369424221,
                0.29338997598569033,
                0.3747819192395888,
                -0.9383915828357106
            ]
        },
        {
            "positions": [
                1.1454203968784096,
                -1.9023469224921332,
                -0.2726038201416279,
                0.2524554810139399,
                0.31061353330419755,
                -0.8165578173732051
            ]
        },
        {
            "positions": [
                1.1709090103992263,
                -1.9554981018592308,
                -0.1935128033408336,
                0.2115209860421894,
                0.24644514736880624,
                -0.6947240519106995
            ]
        },
        {
            "positions": [
                1.196397623920043,
                -2.008649281226328,
                -0.11442178654003926,
                0.1705864910704389,
                0.18227676143341498,
                -0.5728902864481941
            ]
        },
        {
            "positions": [
                1.2218862374408597,
                -2.0618004605934255,
                -0.03533076973924498,
                0.12965199609868844,
                0.11810837549802367,
                -0.4510565209856885
            ]
        },
        {
            "positions": [
                1.2473748509616764,
                -2.1149516399605233,
                0.04376024706154924,
                0.08871750112693799,
                0.05393998956263246,
                -0.32922275552318314
            ]
        },
        {
            "positions": [
                1.272863464482493,
                -2.1681028193276206,
                0.12285126386234357,
                0.04778300615518749,
                -0.010228396372758852,
                -0.20738899006067757
            ]
        },
        {
            "positions": [
                1.2983520780033098,
                -2.221253998694718,
                0.2019422806631378,
                0.006848511183437045,
                -0.07439678230815017,
                -0.08555522459817211
            ]
        },
        {
            "positions": [
                1.3238406915241265,
                -2.2744051780618157,
                0.28103329746393213,
                -0.034085983788313456,
                -0.13856516824354148,
                0.03627854086433335
            ]
        },
        {
            "positions": [
                1.349329305044943,
                -2.327556357428913,
                0.36012431426472646,
                -0.07502047876006396,
                -0.20273355417893268,
                0.15811230632683881
            ]
        },
        {
            "positions": [
                1.3748179185657599,
                -2.3807075367960104,
                0.4392153310655207,
                -0.1159549737318144,
                -0.2669019401143239,
                0.2799460717893443
            ]
        },
        {
            "positions": [
                1.4003065320865766,
                -2.4338587161631082,
                0.518306347866315,
                -0.1568894687035649,
                -0.3310703260497153,
                0.40177983725184996
            ]
        },
        {
            "positions": [
                1.4257951456073932,
                -2.4870098955302056,
                0.5973973646671094,
                -0.1978239636753154,
                -0.39523871198510663,
                0.5236136027143552
            ]
        },
        {
            "positions": [
                1.45128375912821,
                -2.540161074897303,
                0.6764883814679035,
                -0.2387584586470658,
                -0.4594070979204977,
                0.6454473681768607
            ]
        },
        {
            "positions": [
                1.4767723726490267,
                -2.5933122542644003,
                0.7555793982686978,
                -0.2796929536188163,
                -0.5235754838558891,
                0.7672811336393659
            ]
        },
        {
            "positions": [
                1.5022609861698433,
                -2.646463433631498,
                0.8346704150694921,
                -0.3206274485905668,
                -0.5877438697912803,
                0.8891148991018718
            ]
        },
        {
            "positions": [
                1.52774959969066,
                -2.6996146129985954,
                0.9137614318702865,
                -0.3615619435623173,
                -0.6519122557266718,
                1.0109486645643773
            ]
        },
        {
            "positions": [
                1.5532382132114768,
                -2.7527657923656927,
                0.9928524486710806,
                -0.4024964385340677,
                -0.716080641662063,
                1.1327824300268827
            ]
        },
        {
            "positions": [
                1.5787268267322934,
                -2.80591697173279,
                1.071943465471875,
                -0.4434309335058182,
                -0.7802490275974542,
                1.2546161954893882
            ]
        },
        {
            "positions": [
                1.6042154402531104,
                -2.859068151099888,
                1.1510344822726692,
                -0.4843654284775687,
                -0.8444174135328456,
                1.3764499609518936
            ]
        },
        {
            "positions": [
                1.629704053773927,
                -2.9122193304669852,
                1.2301254990734636,
                -0.5252999234493192,
                -0.9085857994682369,
                1.498283726414399
            ]
        },
        {
            "positions": [
                1.6680913458963114,
                -2.839164929156673,
                1.2529261013192687,
                -0.5350593750308935,
                -0.8333259705726649,
                1.321634695642954
            ]
        },
        {
            "positions": [
                1.7064786380186958,
                -2.7661105278463607,
                1.275726703565074,
                -0.5448188266124678,
                -0.7580661416770929,
                1.1449856648715089
            ]
        },
        {
            "positions": [
                1.7448659301410805,
                -2.6930561265360486,
                1.2985273058108793,
                -0.5545782781940423,
                -0.6828063127815209,
                0.9683366341000638
            ]
        },
        {
            "positions": [
                1.783253222263465,
                -2.6200017252257366,
                1.3213279080566844,
                -0.5643377297756166,
                -0.6075464838859489,
                0.7916876033286188
            ]
        },
        {
            "positions": [
                1.8216405143858494,
                -2.546947323915424,
                1.3441285103024896,
                -0.5740971813571909,
                -0.5322866549903769,
                0.6150385725571736
            ]
        },
        {
            "positions": [
                1.860027806508234,
                -2.473892922605112,
                1.3669291125482947,
                -0.5838566329387652,
                -0.4570268260948049,
                0.4383895417857284
            ]
        },
        {
            "positions": [
                1.8984150986306183,
                -2.4008385212948,
                1.3897297147941001,
                -0.5936160845203395,
                -0.3817669971992329,
                0.26174051101428364
            ]
        },
        {
            "positions": [
                1.936802390753003,
                -2.3277841199844875,
                1.4125303170399053,
                -0.603375536101914,
                -0.30650716830366087,
                0.08509148024283841
            ]
        },
        {
            "positions": [
                1.9751896828753874,
                -2.2547297186741755,
                1.4353309192857104,
                -0.6131349876834883,
                -0.23124733940808895,
                -0.09155755052860659
            ]
        },
        {
            "positions": [
                2.013576974997772,
                -2.1816753173638634,
                1.4581315215315156,
                -0.6228944392650626,
                -0.1559875105125169,
                -0.2682065813000518
            ]
        },
        {
            "positions": [
                2.0519642671201566,
                -2.108620916053551,
                1.480932123777321,
                -0.6326538908466369,
                -0.08072768161694488,
                -0.4448556120714968
            ]
        },
        {
            "positions": [
                2.0903515592425412,
                -2.035566514743239,
                1.5037327260231261,
                -0.6424133424282112,
                -0.005467852721372846,
                -0.6215046428429423
            ]
        },
        {
            "positions": [
                2.1287388513649255,
                -1.9625121134329266,
                1.5265333282689313,
                -0.6521727940097857,
                0.06979197617419908,
                -0.798153673614387
            ]
        },
        {
            "positions": [
                2.1671261434873097,
                -1.8894577121226146,
                1.5493339305147364,
                -0.66193224559136,
                0.1450518050697711,
                -0.9748027043858318
            ]
        },
        {
            "positions": [
                2.2055134356096944,
                -1.8164033108123023,
                1.5721345327605416,
                -0.6716916971729343,
                0.22031163396534303,
                -1.151451735157277
            ]
        },
        {
            "positions": [
                2.243900727732079,
                -1.74334890950199,
                1.594935135006347,
                -0.6814511487545086,
                0.2955714628609152,
                -1.3281007659287223
            ]
        },
        {
            "positions": [
                2.2822880198544633,
                -1.6702945081916778,
                1.6177357372521521,
                -0.691210600336083,
                0.3708312917564871,
                -1.5047497967001675
            ]
        },
        {
            "positions": [
                2.320675311976848,
                -1.5972401068813658,
                1.6405363394979573,
                -0.7009700519176574,
                0.446091120652059,
                -1.6813988274716123
            ]
        },
        {
            "positions": [
                2.3590626040992326,
                -1.5241857055710535,
                1.6633369417437625,
                -0.7107295034992316,
                0.521350949547631,
                -1.8580478582430575
            ]
        },
        {
            "positions": [
                2.397449896221617,
                -1.4511313042607412,
                1.6861375439895678,
                -0.720488955080806,
                0.5966107784432031,
                -2.0346968890145027
            ]
        },
        {
            "positions": [
                2.4358371883440015,
                -1.378076902950429,
                1.708938146235373,
                -0.7302484066623803,
                0.671870607338775,
                -2.211345919785948
            ]
        },
        {
            "positions": [
                2.474224480466386,
                -1.305022501640117,
                1.7317387484811781,
                -0.7400078582439547,
                0.7471304362343472,
                -2.3879949505573927
            ]
        },
        {
            "positions": [
                2.5126117725887704,
                -1.2319681003298046,
                1.7545393507269833,
                -0.749767309825529,
                0.8223902651299191,
                -2.5646439813288375
            ]
        },
        {
            "positions": [
                2.550999064711155,
                -1.1589136990194924,
                1.7773399529727887,
                -0.7595267614071034,
                0.8976500940254912,
                -2.7412930121002836
            ]
        },
        {
            "positions": [
                2.58938635683354,
                -1.08585929770918,
                1.8001405552185938,
                -0.7692862129886777,
                0.9729099229210632,
                -2.917942042871728
            ]
        },
        {
            "positions": [
                2.627773648955924,
                -1.012804896398868,
                1.822941157464399,
                -0.779045664570252,
                1.048169751816635,
                -3.094591073643173
            ]
        }
    ]
}