{
    "goal": {
        "global_pose": {
            "orientation": {
                "w": -0.00223480608172531,
                "x": 0.0024358444001904467,
                "y": 0.7094548369677653,
                "z": -0.704743149386269
            },
            "position": {
                "x": -0.37947507619857795,
                "y": -0.6371506643295288,
                "z": 0.19426114857196808
            }
        },
        "name": "move_to_magneteinheit_C"
    },
    "id": "BKPIECE_move_to_magneteinheit_C_136",
    "joint_names": [
        "shoulder_pan_joint",
        "shoulder_lift_joint",
        "elbow_joint",
        "wrist_1_joint",
        "wrist_2_joint",
        "wrist_3_joint"
    ],
    "metrics": {
        "cart_traj_len": 3.6323887188453265,
        "distance_elbow_joint": 1.7672582870274418,
        "distance_shoulder_lift_joint": 2.1072170281869806,
        "distance_shoulder_pan_joint": 3.9864797167259582,
        "distance_wrist_1_joint": 2.7979537001575645,
        "distance_wrist_2_joint": 1.5674908012507724,
        "distance_wrist_3_joint": 0.8091363206517279,
        "smoothness": 1.8823980370011264,
        "time": 0.915254777,
        "traj_len": 3.610475848693694,
        "weighted_distance": 4.361106854539594
    },
    "planner": "BKPIECE",
    "start": {
        "state": {
            "elbow_joint": 1.9565354006590394,
            "shoulder_lift_joint": -1.4165861576513559,
            "shoulder_pan_joint": -1.6717766223277177,
            "wrist_1_joint": -0.5286633288215096,
            "wrist_2_joint": 1.4727565892594296,
            "wrist_3_joint": 3.1593482883155493
        }
    },
    "waypoints": [
        {
            "positions": [
                -1.6717766223277177,
                -1.4165861576513559,
                1.9565354006590394,
                -0.5286633288215096,
                1.4727565892594296,
                3.1593482883155493
            ]
        },
        {
            "positions": [
                -1.6464021118280003,
                -1.4438994374766918,
                1.9536038854045494,
                -0.4740993776068402,
                1.3581760958702445,
                3.003668707430854
            ]
        },
        {
            "positions": [
                -1.7515065325270762,
                -1.4084417774984248,
                1.957582878583795,
                -0.5086437216577897,
                1.2008276384587324,
                3.0095603510433913
            ]
        },
        {
            "positions": [
                -1.8566109532261519,
                -1.3729841175201578,
                1.9615618717630408,
                -0.5431880657087392,
                1.0434791810472202,
                3.015451994655928
            ]
        },
        {
            "positions": [
                -1.9617153739252278,
                -1.3375264575418906,
                1.9655408649422863,
                -0.5777324097596888,
                0.8861307236357081,
                3.021343638268465
            ]
        },
        {
            "positions": [
                -2.0668197946243034,
                -1.3020687975636236,
                1.969519858121532,
                -0.6122767538106383,
                0.728782266224196,
                3.0272352818810018
            ]
        },
        {
            "positions": [
                -2.1719242153233793,
                -1.2666111375853566,
                1.9734988513007776,
                -0.6468210978615878,
                0.5714338088126839,
                3.033126925493539
            ]
        },
        {
            "positions": [
                -2.131461637337982,
                -1.3169698325573957,
                1.9042041620772814,
                -0.7401914532507063,
                0.5239459496941355,
                2.946977647629388
            ]
        },
        {
            "positions": [
                -2.090999059352585,
                -1.3673285275294347,
                1.8349094728537851,
                -0.8335618086398248,
                0.4764580905755872,
                2.8608283697652364
            ]
        },
        {
            "positions": [
                -2.156307934623952,
                -1.500372294986052,
                1.8176042780422346,
                -0.9527936781207782,
                0.4811262708112621,
                2.845004097216056
            ]
        },
        {
            "positions": [
                -2.221616809895319,
                -1.6334160624426695,
                1.800299083230684,
                -1.0720255476017317,
                0.48579445104693697,
                2.829179824666876
            ]
        },
        {
            "positions": [
                -2.2869256851666853,
                -1.7664598298992868,
                1.7829938884191336,
                -1.191257417082685,
                0.49046263128261186,
                2.813355552117696
            ]
        },
        {
            "positions": [
                -2.352234560438052,
                -1.8995035973559045,
                1.765688693607583,
                -1.3104892865636386,
                0.49513081151828675,
                2.7975312795685157
            ]
        },
        {
            "positions": [
                -2.417543435709419,
                -2.0325473648125216,
                1.7483834987960325,
                -1.4297211560445922,
                0.49979899175396164,
                2.7817070070193353
            ]
        },
        {
            "positions": [
                -2.482852310980786,
                -2.1655911322691392,
                1.731078303984482,
                -1.5489530255255455,
                0.5044671719896365,
                2.7658827344701553
            ]
        },
        {
            "positions": [
                -2.3589707919097194,
                -2.1287859102890576,
                1.805111271911344,
                -1.4490302560463784,
                0.4891104806744031,
                2.783515737181891
            ]
        },
        {
            "positions": [
                -2.2350892728386533,
                -2.091980688308976,
                1.8791442398382063,
                -1.3491074865672112,
                0.47375378935916973,
                2.8011487398936272
            ]
        },
        {
            "positions": [
                -2.1112077537675873,
                -2.0551754663288944,
                1.9531772077650684,
                -1.2491847170880441,
                0.4583970980439363,
                2.818781742605363
            ]
        },
        {
            "positions": [
                -1.9873262346965208,
                -2.0183702443488127,
                2.0272101756919305,
                -1.1492619476088772,
                0.4430404067287029,
                2.836414745317099
            ]
        },
        {
            "positions": [
                -1.8634447156254546,
                -1.981565022368731,
                2.101243143618793,
                -1.04933917812971,
                0.4276837154134695,
                2.854047748028835
            ]
        },
        {
            "positions": [
                -1.7395631965543883,
                -1.9447598003886495,
                2.175276111545655,
                -0.9494164086505429,
                0.4123270240982361,
                2.8716807507405706
            ]
        },
        {
            "positions": [
                -1.615681677483322,
                -1.9079545784085679,
                2.2493090794725172,
                -0.8494936391713758,
                0.39697033278300264,
                2.889313753452307
            ]
        },
        {
            "positions": [
                -1.4918001584122558,
                -1.8711493564284862,
                2.3233420473993793,
                -0.7495708696922088,
                0.38161364146776927,
                2.9069467561640425
            ]
        },
        {
            "positions": [
                -1.3679186393411895,
                -1.8343441344484046,
                2.397375015326242,
                -0.6496481002130416,
                0.36625695015253584,
                2.9245797588757787
            ]
        },
        {
            "positions": [
                -1.2440371202701233,
                -1.797538912468323,
                2.471407983253104,
                -0.5497253307338744,
                0.3509002588373024,
                2.9422127615875144
            ]
        },
        {
            "positions": [
                -1.120155601199057,
                -1.7607336904882414,
                2.545440951179966,
                -0.4498025612547074,
                0.33554356752206904,
                2.9598457642992506
            ]
        },
        {
            "positions": [
                -0.9962740821279907,
                -1.7239284685081597,
                2.619473919106828,
                -0.3498797917755403,
                0.3201868762068356,
                2.9774787670109863
            ]
        },
        {
            "positions": [
                -1.1438967287558979,
                -1.667731189505605,
                2.55811235476302,
                -0.3968260785029586,
                0.35607716874384354,
                2.9919945968249997
            ]
        },
        {
            "positions": [
                -1.2915193753838052,
                -1.6115339105030502,
                2.496750790419212,
                -0.44377236523037694,
                0.39196746128085147,
                3.006510426639013
            ]
        },
        {
            "positions": [
                -1.4391420220117124,
                -1.5553366315004955,
                2.4353892260754035,
                -0.49071865195779524,
                0.42785775381785934,
                3.0210262564530264
            ]
        },
        {
            "positions": [
                -1.5867646686396197,
                -1.4991393524979406,
                2.3740276617315956,
                -0.5376649386852136,
                0.4637480463548673,
                3.0355420862670397
            ]
        },
        {
            "positions": [
                -1.7343873152675269,
                -1.442942073495386,
                2.3126660973877873,
                -0.5846112254126319,
                0.4996383388918752,
                3.050057916081053
            ]
        },
        {
            "positions": [
                -1.882009961895434,
                -1.3867447944928313,
                2.251304533043979,
                -0.6315575121400502,
                0.5355286314288831,
                3.0645737458950664
            ]
        },
        {
            "positions": [
                -2.0296326085233414,
                -1.3305475154902764,
                2.189942968700171,
                -0.6785037988674685,
                0.571418923965891,
                3.0790895757090797
            ]
        },
        {
            "positions": [
                -2.1772552551512483,
                -1.2743502364877217,
                2.1285814043563627,
                -0.7254500855948869,
                0.607309216502899,
                3.093605405523093
            ]
        },
        {
            "positions": [
                -2.324877901779156,
                -1.218152957485167,
                2.0672198400125543,
                -0.7723963723223052,
                0.6431995090399069,
                3.1081212353371064
            ]
        },
        {
            "positions": [
                -2.472500548407063,
                -1.1619556784826122,
                2.0058582756687464,
                -0.8193426590497235,
                0.6790898015769148,
                3.1226370651511197
            ]
        }
    ]
}