{
    "goal": {
        "global_pose": {
            "orientation": {
                "w": 0.7031023480610252,
                "x": -0.7110244013736278,
                "y": 0.0077485991402295624,
                "z": 0.005598929693374583
            },
            "position": {
                "x": -0.8841497679147869,
                "y": 0.44412534475326537,
                "z": 0.3711530566215515
            }
        },
        "name": "move_to_auspresseinheit_D"
    },
    "id": "BKPIECE_move_to_auspresseinheit_D_109",
    "joint_names": [
        "shoulder_pan_joint",
        "shoulder_lift_joint",
        "elbow_joint",
        "wrist_1_joint",
        "wrist_2_joint",
        "wrist_3_joint"
    ],
    "metrics": {
        "cart_traj_len": 3.6552692081317346,
        "distance_elbow_joint": 3.1916651007052237,
        "distance_shoulder_lift_joint": 1.3943814874277751,
        "distance_shoulder_pan_joint": 2.797885606872615,
        "distance_wrist_1_joint": 1.3347379453567942,
        "distance_wrist_2_joint": 0.8888548120484813,
        "distance_wrist_3_joint": 3.076998984919871,
        "smoothness": 2.0898315923129273e-16,
        "time": 0.895014869,
        "traj_len": 3.561533930391617,
        "weighted_distance": 4.589347956363277
    },
    "planner": "BKPIECE",
    "start": {
        "state": {
            "elbow_joint": 1.8268400409724999,
            "shoulder_lift_joint": -1.0144045787793008,
            "shoulder_pan_joint": 2.6280239544362485,
            "wrist_1_joint": -0.790705565816056,
            "wrist_2_joint": 1.0573557467365533,
            "wrist_3_joint": 3.1851377467193758
        }
    },
    "waypoints": [
        {
            "positions": [
                2.6280239544362485,
                -1.0144045787793008,
                1.8268400409724999,
                -0.790705565816056,
                1.0573557467365533,
                3.1851377467193758
            ]
        },
        {
            "positions": [
                2.5688906913719696,
                -1.0520030135855796,
                1.7403800537369531,
                -0.7659468985039071,
                1.0289530111643355,
                3.046230990656187
            ]
        },
        {
            "positions": [
                2.5097574283076907,
                -1.0896014483918581,
                1.6539200665014062,
                -0.7411882311917583,
                1.0005502755921178,
                2.9073242345929975
            ]
        },
        {
            "positions": [
                2.450624165243412,
                -1.127199883198137,
                1.5674600792658595,
                -0.7164295638796093,
                0.9721475400199,
                2.768417478529808
            ]
        },
        {
            "positions": [
                2.3914909021791333,
                -1.1647983180044157,
                1.4810000920303128,
                -0.6916708965674604,
                0.9437448044476823,
                2.629510722466619
            ]
        },
        {
            "positions": [
                2.3323576391148544,
                -1.2023967528106942,
                1.3945401047947659,
                -0.6669122292553116,
                0.9153420688754644,
                2.4906039664034303
            ]
        },
        {
            "positions": [
                2.2732243760505755,
                -1.239995187616973,
                1.3080801175592192,
                -0.6421535619431626,
                0.8869393333032467,
                2.351697210340241
            ]
        },
        {
            "positions": [
                2.1827397083288367,
                -1.2832837386758658,
                1.2090836295113694,
                -0.5982207492956108,
                0.8603305037249069,
                2.2686024529868805
            ]
        },
        {
            "positions": [
                2.0922550406070983,
                -1.3265722897347585,
                1.1100871414635196,
                -0.5542879366480589,
                0.8337216741465671,
                2.1855076956335195
            ]
        },
        {
            "positions": [
                2.0017703728853595,
                -1.3698608407936512,
                1.0110906534156698,
                -0.510355124000507,
                0.8071128445682273,
                2.102412938280159
            ]
        },
        {
            "positions": [
                1.9112857051636212,
                -1.4131493918525437,
                0.9120941653678203,
                -0.4664223113529551,
                0.7805040149898875,
                2.019318180926798
            ]
        },
        {
            "positions": [
                1.8208010374418824,
                -1.4564379429114365,
                0.8130976773199705,
                -0.4224894987054032,
                0.7538951854115477,
                1.9362234235734377
            ]
        },
        {
            "positions": [
                1.730316369720144,
                -1.4997264939703292,
                0.7141011892721207,
                -0.37855668605785137,
                0.7272863558332079,
                1.8531286662200772
            ]
        },
        {
            "positions": [
                1.6398317019984052,
                -1.543015045029222,
                0.615104701224271,
                -0.3346238734102995,
                0.7006775262548681,
                1.7700339088667165
            ]
        },
        {
            "positions": [
                1.5493470342766669,
                -1.5863035960881147,
                0.5161082131764213,
                -0.2906910607627476,
                0.6740686966765284,
                1.6869391515133558
            ]
        },
        {
            "positions": [
                1.458862366554928,
                -1.6295921471470072,
                0.41711172512857153,
                -0.2467582481151957,
                0.6474598670981885,
                1.6038443941599954
            ]
        },
        {
            "positions": [
                1.3683776988331895,
                -1.6728806982059,
                0.31811523708072176,
                -0.2028254354676438,
                0.6208510375198487,
                1.5207496368066347
            ]
        },
        {
            "positions": [
                1.277893031111451,
                -1.7161692492647926,
                0.2191187490328721,
                -0.15889262282009192,
                0.5942422079415088,
                1.437654879453274
            ]
        },
        {
            "positions": [
                1.1874083633897123,
                -1.7594578003236854,
                0.12012226098502232,
                -0.11495981017254009,
                0.5676333783631691,
                1.3545601220999135
            ]
        },
        {
            "positions": [
                1.0969236956679738,
                -1.802746351382578,
                0.02112577293717255,
                -0.0710269975249882,
                0.5410245487848293,
                1.2714653647465528
            ]
        },
        {
            "positions": [
                1.0064390279462352,
                -1.8460349024414708,
                -0.07787071511067722,
                -0.02709418487743631,
                0.5144157192064895,
                1.1883706073931921
            ]
        },
        {
            "positions": [
                0.9159543602244964,
                -1.8893234535003636,
                -0.176867203158527,
                0.01683862777011569,
                0.48780688962814966,
                1.1052758500398314
            ]
        },
        {
            "positions": [
                0.825469692502758,
                -1.9326120045592563,
                -0.27586369120637655,
                0.060771440417667466,
                0.4611980600498099,
                1.0221810926864707
            ]
        },
        {
            "positions": [
                0.7349850247810192,
                -1.975900555618149,
                -0.37486017925422654,
                0.10470425306521947,
                0.43458923047147,
                0.93908633533311
            ]
        },
        {
            "positions": [
                0.6445003570592807,
                -2.0191891066770413,
                -0.4738566673020761,
                0.14863706571277124,
                0.40798040089313026,
                0.8559915779797496
            ]
        },
        {
            "positions": [
                0.5540156893375421,
                -2.0624776577359345,
                -0.5728531553499259,
                0.19256987836032313,
                0.3813715713147905,
                0.7728968206263889
            ]
        },
        {
            "positions": [
                0.4635310216158035,
                -2.105766208794827,
                -0.6718496433977756,
                0.23650269100787502,
                0.3547627417364507,
                0.6898020632730284
            ]
        },
        {
            "positions": [
                0.37304635389406493,
                -2.14905475985372,
                -0.7708461314456256,
                0.2804355036554269,
                0.32815391215811085,
                0.6067073059196675
            ]
        },
        {
            "positions": [
                0.28256168617232635,
                -2.1923433109126123,
                -0.869842619493475,
                0.3243683163029788,
                0.3015450825797711,
                0.523612548566307
            ]
        },
        {
            "positions": [
                0.19207701845058756,
                -2.235631861971505,
                -0.9688391075413247,
                0.3683011289505307,
                0.2749362530014312,
                0.4405177912129463
            ]
        },
        {
            "positions": [
                0.1015923507288492,
                -2.2789204130303977,
                -1.0678355955891745,
                0.41223394159808247,
                0.24832742342309144,
                0.35742303385958585
            ]
        },
        {
            "positions": [
                0.011107683007110403,
                -2.3222089640892905,
                -1.1668320836370243,
                0.45616675424563446,
                0.22171859384475168,
                0.27432827650622515
            ]
        },
        {
            "positions": [
                -0.07937698471462795,
                -2.365497515148183,
                -1.265828571684874,
                0.5000995668931862,
                0.1951097642664119,
                0.19123351915286468
            ]
        },
        {
            "positions": [
                -0.16986165243636692,
                -2.408786066207076,
                -1.3648250597327238,
                0.5440323795407382,
                0.16850093468807203,
                0.10813876179950398
            ]
        }
    ]
}