{
    "goal": {
        "global_pose": {
            "orientation": {
                "w": 0.7047431493862688,
                "x": -0.7094548369677653,
                "y": 0.0024358444001904,
                "z": -0.0022348060817251984
            },
            "position": {
                "x": -0.39052492380142206,
                "y": 0.3671506643295288,
                "z": 0.19426114857196808
            }
        },
        "name": "move_to_magneteinheit_D"
    },
    "id": "BKPIECE_move_to_magneteinheit_D_73",
    "joint_names": [
        "shoulder_pan_joint",
        "shoulder_lift_joint",
        "elbow_joint",
        "wrist_1_joint",
        "wrist_2_joint",
        "wrist_3_joint"
    ],
    "metrics": {
        "cart_traj_len": 5.655271338708877,
        "distance_elbow_joint": 7.801359998953767,
        "distance_shoulder_lift_joint": 4.258798237021265,
        "distance_shoulder_pan_joint": 4.08529476451327,
        "distance_wrist_1_joint": 2.3859307862114463,
        "distance_wrist_2_joint": 1.0678757602514346,
        "distance_wrist_3_joint": 8.569536499269493,
        "smoothness": 0.5239455745732676,
        "time": 2.362124161,
        "traj_len": 5.307428383522538,
        "weighted_distance": 6.982956078282503
    },
    "planner": "BKPIECE",
    "start": {
        "state": {
            "elbow_joint": 0.7495348899011973,
            "shoulder_lift_joint": -0.6476975780737697,
            "shoulder_pan_joint": -2.711696901376276,
            "wrist_1_joint": -0.07506478080974305,
            "wrist_2_joint": 0.4329665971545858,
            "wrist_3_joint": 3.1361499051832524
        }
    },
    "waypoints": [
        {
            "positions": [
                -2.711696901376276,
                -0.6476975780737697,
                0.7495348899011973,
                -0.07506478080974305,
                0.4329665971545858,
                3.1361499051832524
            ]
        },
        {
            "positions": [
                -2.766668065848471,
                -0.6899838308925311,
                0.6847811682639035,
                -0.10627843644091536,
                0.3599598430126395,
                3.0087360801602268
            ]
        },
        {
            "positions": [
                -2.821639230320666,
                -0.7322700837112925,
                0.6200274466266096,
                -0.13749209207208768,
                0.28695308887069326,
                2.881322255137201
            ]
        },
        {
            "positions": [
                -2.8766103947928605,
                -0.7745563365300541,
                0.5552737249893158,
                -0.16870574770325997,
                0.213946334728747,
                2.753908430114176
            ]
        },
        {
            "positions": [
                -2.931581559265055,
                -0.8168425893488154,
                0.49052000335202195,
                -0.19991940333443228,
                0.14093958058680073,
                2.62649460509115
            ]
        },
        {
            "positions": [
                -2.98655272373725,
                -0.8591288421675769,
                0.4257662817147281,
                -0.2311330589656046,
                0.06793282644485449,
                2.4990807800681245
            ]
        },
        {
            "positions": [
                -3.0415238882094444,
                -0.9014150949863383,
                0.36101256007743426,
                -0.2623467145967769,
                -0.005073927697091807,
                2.3716669550450993
            ]
        },
        {
            "positions": [
                -3.0964950526816395,
                -0.9437013478050997,
                0.29625883844014045,
                -0.29356037022794923,
                -0.0780806818390381,
                2.2442531300220736
            ]
        },
        {
            "positions": [
                -3.151466217153834,
                -0.9859876006238611,
                0.23150511680284652,
                -0.3247740258591215,
                -0.15108743598098429,
                2.116839304999048
            ]
        },
        {
            "positions": [
                -3.0374878653679085,
                -1.0607141114974412,
                0.31049833858042886,
                -0.3197049862228219,
                -0.14348608457367934,
                2.0042031933922457
            ]
        },
        {
            "positions": [
                -2.9235095135819833,
                -1.1354406223710212,
                0.38949156035801114,
                -0.3146359465865223,
                -0.1358847331663744,
                1.8915670817854435
            ]
        },
        {
            "positions": [
                -2.8095311617960577,
                -1.2101671332446011,
                0.46848478213559347,
                -0.3095669069502226,
                -0.12828338175906942,
                1.7789309701786415
            ]
        },
        {
            "positions": [
                -2.695552810010132,
                -1.284893644118181,
                0.5474780039131758,
                -0.304497867313923,
                -0.12068203035176447,
                1.6662948585718393
            ]
        },
        {
            "positions": [
                -2.5815744582242064,
                -1.359620154991761,
                0.6264712256907581,
                -0.29942882767762335,
                -0.11308067894445953,
                1.5536587469650371
            ]
        },
        {
            "positions": [
                -2.467596106438281,
                -1.434346665865341,
                0.7054644474683405,
                -0.29435978804132373,
                -0.10547932753715458,
                1.4410226353582352
            ]
        },
        {
            "positions": [
                -2.3536177546523556,
                -1.509073176738921,
                0.7844576692459229,
                -0.2892907484050241,
                -0.09787797612984962,
                1.328386523751433
            ]
        },
        {
            "positions": [
                -2.23963940286643,
                -1.583799687612501,
                0.863450891023505,
                -0.2842217087687245,
                -0.09027662472254468,
                1.2157504121446308
            ]
        },
        {
            "positions": [
                -2.1256610510805043,
                -1.6585261984860808,
                0.9424441128010874,
                -0.2791526691324248,
                -0.08267527331523972,
                1.1031143005378286
            ]
        },
        {
            "positions": [
                -2.011682699294579,
                -1.733252709359661,
                1.0214373345786698,
                -0.2740836294961252,
                -0.07507392190793476,
                0.9904781889310263
            ]
        },
        {
            "positions": [
                -1.8977043475086535,
                -1.8079792202332408,
                1.100430556356252,
                -0.26901458985982557,
                -0.06747257050062982,
                0.8778420773242244
            ]
        },
        {
            "positions": [
                -1.783725995722728,
                -1.882705731106821,
                1.1794237781338344,
                -0.26394555022352595,
                -0.059871219093324865,
                0.7652059657174222
            ]
        },
        {
            "positions": [
                -1.6697476439368024,
                -1.9574322419804009,
                1.2584169999114168,
                -0.2588765105872263,
                -0.052269867686019905,
                0.65256985411062
            ]
        },
        {
            "positions": [
                -1.5557692921508768,
                -2.032158752853981,
                1.3374102216889991,
                -0.2538074709509267,
                -0.04466851627871496,
                0.5399337425038178
            ]
        },
        {
            "positions": [
                -1.4417909403649514,
                -2.106885263727561,
                1.4164034434665815,
                -0.24873843131462703,
                -0.03706716487141,
                0.42729763089701556
            ]
        },
        {
            "positions": [
                -1.327812588579026,
                -2.1816117746011408,
                1.4953966652441637,
                -0.2436693916783274,
                -0.029465813464105067,
                0.31466151929021335
            ]
        },
        {
            "positions": [
                -1.2138342367931005,
                -2.2563382854747207,
                1.5743898870217459,
                -0.23860035204202779,
                -0.02186446205680012,
                0.20202540768341137
            ]
        },
        {
            "positions": [
                -1.099855885007175,
                -2.3310647963483007,
                1.6533831087993285,
                -0.23353131240572816,
                -0.014263110649495148,
                0.08938929607660917
            ]
        },
        {
            "positions": [
                -0.9858775332212493,
                -2.4057913072218806,
                1.7323763305769107,
                -0.22846227276942854,
                -0.006661759242190202,
                -0.023246815530193032
            ]
        },
        {
            "positions": [
                -0.8718991814353236,
                -2.4805178180954606,
                1.811369552354493,
                -0.2233932331331289,
                0.0009395921651147721,
                -0.13588292713699524
            ]
        },
        {
            "positions": [
                -0.7579208296493984,
                -2.5552443289690405,
                1.8903627741320754,
                -0.21832419349682924,
                0.00854094357241969,
                -0.24851903874379744
            ]
        },
        {
            "positions": [
                -0.6439424778634728,
                -2.6299708398426205,
                1.9693559959096576,
                -0.21325515386052962,
                0.016142294979724636,
                -0.3611551503505992
            ]
        },
        {
            "positions": [
                -0.5299641260775472,
                -2.7046973507162004,
                2.0483492176872398,
                -0.20818611422423,
                0.02374364638702961,
                -0.47379126195740184
            ]
        },
        {
            "positions": [
                -0.415985774291622,
                -2.7794238615897804,
                2.127342439464822,
                -0.20311707458793038,
                0.031344997794334556,
                -0.5864273735642036
            ]
        },
        {
            "positions": [
                -0.30200742250569634,
                -2.8541503724633603,
                2.2063356612424045,
                -0.19804803495163076,
                0.0389463492016395,
                -0.6990634851710058
            ]
        },
        {
            "positions": [
                -0.1880290707197707,
                -2.9288768833369403,
                2.2853288830199867,
                -0.1929789953153311,
                0.046547700608944476,
                -0.811699596777808
            ]
        },
        {
            "positions": [
                -0.07405071893384552,
                -3.0036033942105202,
                2.364322104797569,
                -0.1879099556790315,
                0.054149052016249394,
                -0.9243357083846102
            ]
        },
        {
            "positions": [
                0.03992763285208056,
                -3.0783299050841,
                2.4433153265751515,
                -0.18284091604273184,
                0.06175040342355437,
                -1.0369718199914124
            ]
        },
        {
            "positions": [
                0.15390598463800576,
                -3.15305641595768,
                2.5223085483527337,
                -0.17777187640643222,
                0.06935175483085931,
                -1.1496079315982146
            ]
        },
        {
            "positions": [
                0.1464358573782233,
                -3.1020147986731987,
                2.3629580043562366,
                -0.23433429323574448,
                0.0612519049761415,
                -1.0469001412116559
            ]
        },
        {
            "positions": [
                0.1389657301184408,
                -3.050973181388717,
                2.2036074603597395,
                -0.29089671006505674,
                0.05315205512142367,
                -0.9441923508250972
            ]
        },
        {
            "positions": [
                0.13149560285865833,
                -2.9999315641042354,
                2.0442569163632425,
                -0.34745912689436903,
                0.04505220526670585,
                -0.8414845604385385
            ]
        },
        {
            "positions": [
                0.12402547559887585,
                -2.9488899468197536,
                1.8849063723667454,
                -0.40402154372368126,
                0.03695235541198803,
                -0.7387767700519798
            ]
        },
        {
            "positions": [
                0.11655534833909337,
                -2.897848329535272,
                1.7255558283702481,
                -0.46058396055299355,
                0.02885250555727021,
                -0.6360689796654211
            ]
        },
        {
            "positions": [
                0.1090852210793109,
                -2.8468067122507903,
                1.566205284373751,
                -0.5171463773823058,
                0.020752655702552386,
                -0.5333611892788623
            ]
        },
        {
            "positions": [
                0.10161509381952841,
                -2.795765094966309,
                1.406854740377254,
                -0.5737087942116181,
                0.01265280584783457,
                -0.4306533988923036
            ]
        },
        {
            "positions": [
                0.09414496655974594,
                -2.744723477681827,
                1.247504196380757,
                -0.6302712110409303,
                0.004552955993116753,
                -0.32794560850574495
            ]
        },
        {
            "positions": [
                0.08667483929996346,
                -2.6936818603973456,
                1.0881536523842597,
                -0.6868336278702427,
                -0.0035468938616010776,
                -0.22523781811918608
            ]
        },
        {
            "positions": [
                0.07920471204018098,
                -2.6426402431128637,
                0.9288031083877626,
                -0.7433960446995549,
                -0.011646743716318894,
                -0.12253002773262756
            ]
        },
        {
            "positions": [
                0.0717345847803985,
                -2.5915986258283823,
                0.7694525643912653,
                -0.7999584615288673,
                -0.019746593571036725,
                -0.019822237346068805
            ]
        },
        {
            "positions": [
                0.06426445752061603,
                -2.5405570085439004,
                0.6101020203947685,
                -0.8565208783581795,
                -0.02784644342575454,
                0.08288555304048995
            ]
        },
        {
            "positions": [
                0.05679433026083355,
                -2.489515391259419,
                0.4507514763982714,
                -0.9130832951874918,
                -0.03594629328047236,
                0.1855933434270487
            ]
        },
        {
            "positions": [
                0.04932420300105107,
                -2.438473773974937,
                0.29140093240177434,
                -0.969645712016804,
                -0.044046143135190174,
                0.28830113381360745
            ]
        },
        {
            "positions": [
                0.04185407574126859,
                -2.3874321566904557,
                0.13205038840527683,
                -1.0262081288461165,
                -0.052145992989908005,
                0.3910089242001662
            ]
        },
        {
            "positions": [
                0.034383948481486126,
                -2.336390539405974,
                -0.027300155591219788,
                -1.0827705456754284,
                -0.06024584284462581,
                0.4937167145867247
            ]
        },
        {
            "positions": [
                0.02691382122170366,
                -2.2853489221214924,
                -0.18665069958771685,
                -1.1393329625047408,
                -0.06834569269934362,
                0.5964245049732835
            ]
        },
        {
            "positions": [
                0.019443693961921166,
                -2.2343073048370106,
                -0.34600124358421436,
                -1.1958953793340532,
                -0.07644554255406147,
                0.6991322953598424
            ]
        },
        {
            "positions": [
                0.0119735667021387,
                -2.183265687552529,
                -0.5053517875807114,
                -1.2524577961633654,
                -0.08454539240877929,
                0.801840085746401
            ]
        },
        {
            "positions": [
                0.004503439442356205,
                -2.1322240702680473,
                -0.6647023315772085,
                -1.3090202129926776,
                -0.0926452422634971,
                0.9045478761329595
            ]
        },
        {
            "positions": [
                -0.002966687817426261,
                -2.081182452983566,
                -0.8240528755737055,
                -1.3655826298219897,
                -0.10074509211821492,
                1.007255666519518
            ]
        },
        {
            "positions": [
                -0.010436815077208755,
                -2.030140835699084,
                -0.983403419570203,
                -1.4221450466513024,
                -0.10884494197293276,
                1.109963456906077
            ]
        },
        {
            "positions": [
                -0.01790694233699122,
                -1.9790992184146026,
                -1.1427539635666997,
                -1.4787074634806145,
                -0.11694479182765058,
                1.212671247292636
            ]
        },
        {
            "positions": [
                -0.025377069596773688,
                -1.928057601130121,
                -1.3021045075631967,
                -1.5352698803099267,
                -0.1250446416823684,
                1.3153790376791945
            ]
        },
        {
            "positions": [
                -0.032847196856556155,
                -1.8770159838456393,
                -1.4614550515596938,
                -1.591832297139239,
                -0.1331444915370862,
                1.418086828065753
            ]
        },
        {
            "positions": [
                -0.04031732411633865,
                -1.8259743665611576,
                -1.6208055955561909,
                -1.6483947139685513,
                -0.14124434139180403,
                1.520794618452312
            ]
        },
        {
            "positions": [
                -0.047787451376121115,
                -1.774932749276676,
                -1.7801561395526884,
                -1.7049571307978635,
                -0.14934419124652185,
                1.6235024088388705
            ]
        },
        {
            "positions": [
                -0.05525757863590361,
                -1.7238911319921943,
                -1.939506683549185,
                -1.7615195476271759,
                -0.15744404110123966,
                1.7262101992254295
            ]
        },
        {
            "positions": [
                -0.06272770589568608,
                -1.6728495147077127,
                -2.0988572275456825,
                -1.818081964456488,
                -0.16554389095595748,
                1.828917989611988
            ]
        },
        {
            "positions": [
                -0.07019783315546857,
                -1.621807897423231,
                -2.25820777154218,
                -1.8746443812858005,
                -0.17364374081067532,
                1.931625779998547
            ]
        },
        {
            "positions": [
                -0.07766796041525102,
                -1.5707662801387494,
                -2.4175583155386766,
                -1.9312067981151126,
                -0.1817435906653931,
                2.0343335703851055
            ]
        },
        {
            "positions": [
                -0.09475798572251837,
                -1.6086255713857627,
                -2.418239579354619,
                -1.996806389781745,
                -0.17937033920449535,
                2.27313351504612
            ]
        },
        {
            "positions": [
                -0.11935099599879506,
                -1.6444949094355077,
                -2.4042571621327307,
                -2.0426907555113516,
                -0.18196460451532687,
                2.5048521922606017
            ]
        },
        {
            "positions": [
                -0.14394400627507176,
                -1.6803642474852527,
                -2.3902747449108426,
                -2.0885751212409582,
                -0.18455886982615838,
                2.7365708694750834
            ]
        },
        {
            "positions": [
                -0.1650956342904712,
                -1.711139895471213,
                -2.3782678288336436,
                -2.1277831946783845,
                -0.18692157418876232,
                2.935370800182451
            ]
        },
        {
            "positions": [
                -0.1862472623058706,
                -1.7419155434571731,
                -2.3662609127564442,
                -2.1669912681158103,
                -0.18928427855136623,
                3.1341707308898177
            ]
        }
    ]
}