{
    "goal": {
        "global_pose": {
            "orientation": {
                "w": -0.00223480608172531,
                "x": 0.0024358444001904467,
                "y": 0.7094548369677653,
                "z": -0.704743149386269
            },
            "position": {
                "x": 0.6205249238014221,
                "y": -0.6371506643295288,
                "z": 0.19426114857196808
            }
        },
        "name": "move_to_magneteinheit_B"
    },
    "id": "BKPIECE_move_to_magneteinheit_B_98",
    "joint_names": [
        "shoulder_pan_joint",
        "shoulder_lift_joint",
        "elbow_joint",
        "wrist_1_joint",
        "wrist_2_joint",
        "wrist_3_joint"
    ],
    "metrics": {
        "cart_traj_len": 3.6619981005971782,
        "distance_elbow_joint": 4.968359394539691,
        "distance_shoulder_lift_joint": 0.6348906304095656,
        "distance_shoulder_pan_joint": 2.294046844477588,
        "distance_wrist_1_joint": 2.5861618196742597,
        "distance_wrist_2_joint": 1.2047636281287413,
        "distance_wrist_3_joint": 3.154788635536362,
        "smoothness": 0.7300976945278009,
        "time": 0.6631006239999999,
        "traj_len": 3.852662839227722,
        "weighted_distance": 4.994348172849179
    },
    "planner": "BKPIECE",
    "start": {
        "state": {
            "elbow_joint": 2.3935871308073637,
            "shoulder_lift_joint": -1.9085141043777403,
            "shoulder_pan_joint": 0.7066247067284167,
            "wrist_1_joint": -0.46782909355067076,
            "wrist_2_joint": 0.7096259085804283,
            "wrist_3_joint": -3.1358149275257428
        }
    },
    "waypoints": [
        {
            "positions": [
                0.7066247067284167,
                -1.9085141043777403,
                2.3935871308073637,
                -0.46782909355067076,
                0.7096259085804283,
                -3.1358149275257428
            ]
        },
        {
            "positions": [
                0.62284326034751,
                -1.9342477355659375,
                2.4065964495931826,
                -0.4717709141555111,
                0.7467553511451679,
                -3.0736736000166855
            ]
        },
        {
            "positions": [
                0.536651661799362,
                -1.9550650626608048,
                2.322348165845313,
                -0.477003413568883,
                0.7874264326977152,
                -2.922033822220424
            ]
        },
        {
            "positions": [
                0.5722066956821137,
                -1.9498775981953855,
                2.1618405695844625,
                -0.4402695834844947,
                0.7668777488043104,
                -2.794340796404665
            ]
        },
        {
            "positions": [
                0.6077617295648654,
                -1.9446901337299662,
                2.001332973323612,
                -0.4035357534001064,
                0.7463290649109054,
                -2.666647770588906
            ]
        },
        {
            "positions": [
                0.6815303313141906,
                -1.9488628282791756,
                1.8527191283307938,
                -0.3592113789604737,
                0.7236956482232828,
                -2.5738866665690137
            ]
        },
        {
            "positions": [
                0.7552989330635158,
                -1.9530355228283847,
                1.7041052833379755,
                -0.31488700452084106,
                0.7010622315356603,
                -2.481125562549122
            ]
        },
        {
            "positions": [
                0.8290675348128409,
                -1.957208217377594,
                1.555491438345157,
                -0.2705626300812084,
                0.6784288148480376,
                -2.38836445852923
            ]
        },
        {
            "positions": [
                0.9028361365621662,
                -1.961380911926803,
                1.4068775933523388,
                -0.22623825564157574,
                0.655795398160415,
                -2.295603354509338
            ]
        },
        {
            "positions": [
                0.9766047383114913,
                -1.9655536064760124,
                1.2582637483595205,
                -0.18191388120194307,
                0.6331619814727925,
                -2.202842250489446
            ]
        },
        {
            "positions": [
                1.0503733400608164,
                -1.9697263010252215,
                1.109649903366702,
                -0.1375895067623104,
                0.6105285647851698,
                -2.110081146469554
            ]
        },
        {
            "positions": [
                1.1241419418101417,
                -1.9738989955744308,
                0.9610360583738837,
                -0.09326513232267775,
                0.5878951480975472,
                -2.0173200424496622
            ]
        },
        {
            "positions": [
                1.197910543559467,
                -1.97807169012364,
                0.8124222133810655,
                -0.04894075788304508,
                0.5652617314099246,
                -1.92455893842977
            ]
        },
        {
            "positions": [
                1.271679145308792,
                -1.9822443846728492,
                0.663808368388247,
                -0.00461638344341242,
                0.542628314722302,
                -1.831797834409878
            ]
        },
        {
            "positions": [
                1.3454477470581172,
                -1.9864170792220583,
                0.5151945233954287,
                0.039707990996220244,
                0.5199948980346794,
                -1.7390367303899863
            ]
        },
        {
            "positions": [
                1.4192163488074425,
                -1.9905897737712677,
                0.3665806784026102,
                0.08403236543585291,
                0.49736148134705677,
                -1.6462756263700942
            ]
        },
        {
            "positions": [
                1.4929849505567676,
                -1.9947624683204768,
                0.21796683340979195,
                0.12835673987548557,
                0.4747280646594342,
                -1.5535145223502023
            ]
        },
        {
            "positions": [
                1.5667535523060927,
                -1.998935162869686,
                0.06935298841697346,
                0.17268111431511823,
                0.45209464797181154,
                -1.4607534183303101
            ]
        },
        {
            "positions": [
                1.640522154055418,
                -2.0031078574188954,
                -0.07926085657584458,
                0.2170054887547509,
                0.429461231284189,
                -1.3679923143104182
            ]
        },
        {
            "positions": [
                1.7142907558047433,
                -2.0072805519681043,
                -0.22787470156866307,
                0.26132986319438356,
                0.40682781459656636,
                -1.2752312102905263
            ]
        },
        {
            "positions": [
                1.7880593575540684,
                -2.0114532465173136,
                -0.3764885465614811,
                0.3056542376340162,
                0.3841943979089438,
                -1.1824701062706344
            ]
        },
        {
            "positions": [
                1.8618279593033935,
                -2.015625941066523,
                -0.5251023915542996,
                0.3499786120736489,
                0.36156098122132113,
                -1.0897090022507423
            ]
        },
        {
            "positions": [
                1.9355965610527186,
                -2.0197986356157323,
                -0.6737162365471181,
                0.39430298651328155,
                0.33892756453369854,
                -0.9969478982308504
            ]
        },
        {
            "positions": [
                2.0093651628020437,
                -2.023971330164941,
                -0.8223300815399366,
                0.4386273609529142,
                0.31629414784607596,
                -0.9041867942109585
            ]
        },
        {
            "positions": [
                2.083133764551369,
                -2.0281440247141505,
                -0.9709439265327546,
                0.4829517353925469,
                0.29366073115845337,
                -0.8114256901910666
            ]
        },
        {
            "positions": [
                2.1569023663006943,
                -2.0323167192633598,
                -1.1195577715255731,
                0.5272761098321795,
                0.2710273144708307,
                -0.7186645861711745
            ]
        },
        {
            "positions": [
                2.195940828016811,
                -2.0290829056592807,
                -1.2607824616437637,
                0.4469126393459084,
                0.32862959010088805,
                -0.6915428705550196
            ]
        },
        {
            "positions": [
                2.234979289732927,
                -2.0258490920552017,
                -1.4020071517619546,
                0.36654916885963723,
                0.38623186573094537,
                -0.6644211549388649
            ]
        },
        {
            "positions": [
                2.2740177514490436,
                -2.0226152784511227,
                -1.5432318418801452,
                0.28618569837336605,
                0.44383414136100274,
                -0.63729943932271
            ]
        },
        {
            "positions": [
                2.31305621316516,
                -2.0193814648470436,
                -1.684456531998336,
                0.20582222788709492,
                0.50143641699106,
                -0.6101777237065552
            ]
        },
        {
            "positions": [
                2.3520946748812768,
                -2.0161476512429646,
                -1.8256812221165266,
                0.12545875740082374,
                0.5590386926211174,
                -0.5830560080904004
            ]
        },
        {
            "positions": [
                2.391133136597393,
                -2.0129138376388855,
                -1.9669059122347172,
                0.04509528691455261,
                0.6166409682511746,
                -0.5559342924742456
            ]
        },
        {
            "positions": [
                2.4301715983135095,
                -2.0096800240348065,
                -2.108130602352908,
                -0.03526818357171854,
                0.674243243881232,
                -0.5288125768580908
            ]
        },
        {
            "positions": [
                2.458990831192808,
                -2.068142706839021,
                -2.0530527243769354,
                0.09100227678466735,
                0.6483247368344609,
                -0.460339291249502
            ]
        },
        {
            "positions": [
                2.487810064072106,
                -2.1266053896432355,
                -1.997974846400963,
                0.21727273714105325,
                0.6224062297876898,
                -0.3918660056409132
            ]
        },
        {
            "positions": [
                2.516629296951404,
                -2.18506807244745,
                -1.9428969684249904,
                0.3435431974974391,
                0.5964877227409187,
                -0.32339272003232433
            ]
        },
        {
            "positions": [
                2.5454485298307024,
                -2.2435307552516646,
                -1.887819090449018,
                0.469813657853825,
                0.5705692156941475,
                -0.25491943442373555
            ]
        },
        {
            "positions": [
                2.574267762710001,
                -2.3019934380558786,
                -1.8327412124730453,
                0.5960841182102109,
                0.5446507086473764,
                -0.18644614881514676
            ]
        },
        {
            "positions": [
                2.603086995589299,
                -2.360456120860093,
                -1.7776633344970727,
                0.7223545785665968,
                0.5187322016006054,
                -0.11797286320655792
            ]
        },
        {
            "positions": [
                2.631906228468597,
                -2.4189188036643077,
                -1.7225854565211,
                0.8486250389229827,
                0.4928136945538343,
                -0.04949957759796908
            ]
        },
        {
            "positions": [
                2.6607254613478952,
                -2.477381486468522,
                -1.6675075785451277,
                0.9748954992793686,
                0.46689518750706316,
                0.018973708010619754
            ]
        }
    ]
}