{
    "goal": {
        "global_pose": {
            "orientation": {
                "w": 0.5084816262002911,
                "x": -0.4908360881923452,
                "y": 0.5182115481033761,
                "z": -0.48164630358495003
            },
            "position": {
                "x": 0.5540239810943604,
                "y": -0.46912469901144505,
                "z": 0.16403168439865112
            }
        },
        "name": "move_to_storage_B"
    },
    "id": "BKPIECE_move_to_storage_B_38",
    "joint_names": [
        "shoulder_pan_joint",
        "shoulder_lift_joint",
        "elbow_joint",
        "wrist_1_joint",
        "wrist_2_joint",
        "wrist_3_joint"
    ],
    "metrics": {
        "cart_traj_len": 0.7150203688448933,
        "distance_elbow_joint": 0.348627942567832,
        "distance_shoulder_lift_joint": 0.4587011974616253,
        "distance_shoulder_pan_joint": 0.1819516576338137,
        "distance_wrist_1_joint": 3.099076255059286,
        "distance_wrist_2_joint": 2.702788443768346,
        "distance_wrist_3_joint": 3.398912484390554,
        "smoothness": 0.23708856180998347,
        "time": 0.887260849,
        "traj_len": 3.192187021601563,
        "weighted_distance": 4.773860874438027
    },
    "planner": "BKPIECE",
    "start": {
        "state": {
            "elbow_joint": 1.6649325706314817,
            "shoulder_lift_joint": -0.6616388048112454,
            "shoulder_pan_joint": -0.9139837860083814,
            "wrist_1_joint": 2.146757197745094,
            "wrist_2_joint": -2.234196043158733,
            "wrist_3_joint": 0.005471033829999897
        }
    },
    "waypoints": [
        {
            "positions": [
                -0.9139837860083814,
                -0.6616388048112454,
                1.6649325706314817,
                2.146757197745094,
                -2.234196043158733,
                0.005471033829999897
            ]
        },
        {
            "positions": [
                -0.9292883900100958,
                -0.7328290275260282,
                1.7398746627103092,
                2.1668222549669633,
                -2.1921158764860698,
                0.04869515537738787
            ]
        },
        {
            "positions": [
                -0.9445929940118102,
                -0.8040192502408109,
                1.8148167547891367,
                2.186887312188833,
                -2.150035709813407,
                0.09191927692477585
            ]
        },
        {
            "positions": [
                -0.9598975980135246,
                -0.8752094729555937,
                1.8897588468679642,
                2.2069523694107023,
                -2.107955543140744,
                0.1351433984721638
            ]
        },
        {
            "positions": [
                -0.9655658415813858,
                -0.8854232450104802,
                1.8949172496317706,
                2.080332324269299,
                -2.0005993788178125,
                -0.0010749398506857688
            ]
        },
        {
            "positions": [
                -0.9712340851492471,
                -0.8956370170653668,
                1.9000756523955766,
                1.9537122791278958,
                -1.893243214494881,
                -0.13729327817353534
            ]
        },
        {
            "positions": [
                -0.9769023287171084,
                -0.9058507891202533,
                1.905234055159383,
                1.8270922339864926,
                -1.7858870501719495,
                -0.273511616496385
            ]
        },
        {
            "positions": [
                -0.9825705722849697,
                -0.9160645611751399,
                1.9103924579231892,
                1.7004721888450893,
                -1.678530885849018,
                -0.40972995481923447
            ]
        },
        {
            "positions": [
                -0.9882388158528309,
                -0.9262783332300264,
                1.9155508606869953,
                1.573852143703686,
                -1.5711747215260863,
                -0.5459482931420842
            ]
        },
        {
            "positions": [
                -0.9939070594206922,
                -0.9364921052849129,
                1.9207092634508016,
                1.4472320985622829,
                -1.4638185572031548,
                -0.6821666314649337
            ]
        },
        {
            "positions": [
                -0.9995753029885535,
                -0.9467058773397995,
                1.925867666214608,
                1.3206120534208794,
                -1.356462392880223,
                -0.8183849697877834
            ]
        },
        {
            "positions": [
                -1.0052435465564147,
                -0.956919649394686,
                1.931026068978414,
                1.1939920082794764,
                -1.2491062285572918,
                -0.9546033081106328
            ]
        },
        {
            "positions": [
                -1.0109117901242761,
                -0.9671334214495726,
                1.9361844717422203,
                1.0673719631380731,
                -1.14175006423436,
                -1.0908216464334826
            ]
        },
        {
            "positions": [
                -1.0165800336921373,
                -0.9773471935044591,
                1.9413428745060266,
                0.9407519179966699,
                -1.0343938999114286,
                -1.2270399847563322
            ]
        },
        {
            "positions": [
                -1.0222482772599986,
                -0.9875609655593456,
                1.9465012772698327,
                0.8141318728552667,
                -0.9270377355884971,
                -1.3632583230791817
            ]
        },
        {
            "positions": [
                -1.0279165208278598,
                -0.9977747376142322,
                1.951659680033639,
                0.6875118277138634,
                -0.8196815712655656,
                -1.4994766614020314
            ]
        },
        {
            "positions": [
                -1.033584764395721,
                -1.0079885096691188,
                1.9568180827974453,
                0.5608917825724604,
                -0.7123254069426341,
                -1.6356949997248809
            ]
        },
        {
            "positions": [
                -1.0392530079635824,
                -1.0182022817240053,
                1.9619764855612514,
                0.43427173743105674,
                -0.6049692426197024,
                -1.7719133380477308
            ]
        },
        {
            "positions": [
                -1.0449212515314437,
                -1.0284160537788918,
                1.9671348883250577,
                0.3076516922896537,
                -0.49761307829677115,
                -1.9081316763705802
            ]
        },
        {
            "positions": [
                -1.0505894950993049,
                -1.0386298258337783,
                1.972293291088864,
                0.18103164714825049,
                -0.39025691397383966,
                -2.0443500146934293
            ]
        },
        {
            "positions": [
                -1.056257738667166,
                -1.048843597888665,
                1.97745169385267,
                0.054411602006847026,
                -0.28290074965090795,
                -2.1805683530162794
            ]
        },
        {
            "positions": [
                -1.0619259822350275,
                -1.0590573699435515,
                1.9826100966164764,
                -0.07220844313455599,
                -0.17554458532797645,
                -2.3167866913391286
            ]
        },
        {
            "positions": [
                -1.0675942258028888,
                -1.069271141998438,
                1.9877684993802827,
                -0.198828488275959,
                -0.06818842100504519,
                -2.4530050296619783
            ]
        },
        {
            "positions": [
                -1.07326246937075,
                -1.0794849140533245,
                1.9929269021440887,
                -0.32544853341736246,
                0.03916774331788675,
                -2.589223367984828
            ]
        },
        {
            "positions": [
                -1.0789307129386112,
                -1.089698686108211,
                1.998085304907895,
                -0.4520685785587659,
                0.14652390764081824,
                -2.7254417063076777
            ]
        },
        {
            "positions": [
                -1.0845989565064724,
                -1.0999124581630975,
                2.003243707671701,
                -0.5786886237001689,
                0.25388007196374973,
                -2.861660044630527
            ]
        },
        {
            "positions": [
                -1.0902672000743339,
                -1.1101262302179842,
                2.0084021104355076,
                -0.7053086688415724,
                0.3612362362866812,
                -2.9978783829533766
            ]
        },
        {
            "positions": [
                -1.095935443642195,
                -1.1203400022728707,
                2.0135605131993137,
                -0.8319287139829756,
                0.4685924006096129,
                -3.1340967212762263
            ]
        }
    ]
}