{
    "goal": {
        "global_pose": {
            "orientation": {
                "w": 0.5084816262002911,
                "x": -0.4908360881923452,
                "y": 0.5182115481033761,
                "z": -0.48164630358495003
            },
            "position": {
                "x": 0.5540239810943604,
                "y": -0.46912469901144505,
                "z": 0.16403168439865112
            }
        },
        "name": "move_to_storage_B"
    },
    "id": "BKPIECE_move_to_storage_B_120",
    "joint_names": [
        "shoulder_pan_joint",
        "shoulder_lift_joint",
        "elbow_joint",
        "wrist_1_joint",
        "wrist_2_joint",
        "wrist_3_joint"
    ],
    "metrics": {
        "cart_traj_len": 1.0566786790794076,
        "distance_elbow_joint": 1.0452979731389134,
        "distance_shoulder_lift_joint": 0.45819045602141384,
        "distance_shoulder_pan_joint": 0.7714410801231043,
        "distance_wrist_1_joint": 2.9887935620428556,
        "distance_wrist_2_joint": 2.700830810473711,
        "distance_wrist_3_joint": 3.158057754821183,
        "smoothness": 0.14966416926703366,
        "time": 0.576390092,
        "traj_len": 3.3350579660061643,
        "weighted_distance": 4.809194477121934
    },
    "planner": "BKPIECE",
    "start": {
        "state": {
            "elbow_joint": 1.6649325706314817,
            "shoulder_lift_joint": -0.6616388048112454,
            "shoulder_pan_joint": -0.9139837860083814,
            "wrist_1_joint": 2.146757197745094,
            "wrist_2_joint": -2.234196043158733,
            "wrist_3_joint": 0.005471033829999897
        }
    },
    "waypoints": [
        {
            "positions": [
                -0.9139837860083814,
                -0.6616388048112454,
                1.6649325706314817,
                2.146757197745094,
                -2.234196043158733,
                0.005471033829999897
            ]
        },
        {
            "positions": [
                -0.8879947884239128,
                -0.6712064748509953,
                1.6416730658024568,
                2.1174468686349304,
                -2.2054327498726565,
                0.014522777237010157
            ]
        },
        {
            "positions": [
                -0.8431935379152148,
                -0.7081238868959411,
                1.587671126138947,
                1.9888507558597652,
                -2.0783863108747305,
                0.014907640817728291
            ]
        },
        {
            "positions": [
                -0.7983922874065168,
                -0.7450412989408869,
                1.5336691864754368,
                1.8602546430846003,
                -1.9513398718768045,
                0.015292504398446425
            ]
        },
        {
            "positions": [
                -0.7535910368978189,
                -0.7819587109858326,
                1.479667246811927,
                1.7316585303094352,
                -1.8242934328788785,
                0.01567736797916456
            ]
        },
        {
            "positions": [
                -0.7087897863891209,
                -0.8188761230307784,
                1.425665307148417,
                1.6030624175342703,
                -1.6972469938809525,
                0.016062231559882695
            ]
        },
        {
            "positions": [
                -0.663988535880423,
                -0.8557935350757242,
                1.371663367484907,
                1.4744663047591051,
                -1.5702005548830262,
                0.016447095140600828
            ]
        },
        {
            "positions": [
                -0.619187285371725,
                -0.89271094712067,
                1.3176614278213972,
                1.34587019198394,
                -1.4431541158851002,
                0.016831958721318964
            ]
        },
        {
            "positions": [
                -0.6408529480756544,
                -0.9030345068348513,
                1.349389920109071,
                1.2464198939711355,
                -1.3563455302850966,
                -0.12619971536640212
            ]
        },
        {
            "positions": [
                -0.6625186107795838,
                -0.9133580665490326,
                1.3811184123967453,
                1.1469695959583308,
                -1.2695369446850933,
                -0.26923138945412317
            ]
        },
        {
            "positions": [
                -0.6841842734835133,
                -0.923681626263214,
                1.4128469046844192,
                1.0475192979455263,
                -1.1827283590850897,
                -0.4122630635418442
            ]
        },
        {
            "positions": [
                -0.7058499361874427,
                -0.9340051859773953,
                1.4445753969720934,
                0.9480689999327218,
                -1.095919773485086,
                -0.5552947376295654
            ]
        },
        {
            "positions": [
                -0.7275155988913722,
                -0.9443287456915767,
                1.4763038892597673,
                0.8486187019199172,
                -1.0091111878850827,
                -0.6983264117172865
            ]
        },
        {
            "positions": [
                -0.7491812615953016,
                -0.954652305405758,
                1.5080323815474415,
                0.7491684039071127,
                -0.9223026022850792,
                -0.8413580858050075
            ]
        },
        {
            "positions": [
                -0.7708469242992311,
                -0.9649758651199393,
                1.5397608738351154,
                0.6497181058943081,
                -0.8354940166850757,
                -0.9843897598927286
            ]
        },
        {
            "positions": [
                -0.7925125870031606,
                -0.9752994248341207,
                1.5714893661227896,
                0.5502678078815035,
                -0.7486854310850721,
                -1.1274214339804496
            ]
        },
        {
            "positions": [
                -0.81417824970709,
                -0.985622984548302,
                1.6032178584104635,
                0.45081750986869895,
                -0.6618768454850686,
                -1.270453108068171
            ]
        },
        {
            "positions": [
                -0.8358439124110195,
                -0.9959465442624833,
                1.6349463506981374,
                0.3513672118558945,
                -0.5750682598850652,
                -1.4134847821558918
            ]
        },
        {
            "positions": [
                -0.8575095751149489,
                -1.0062701039766646,
                1.6666748429858116,
                0.2519169138430899,
                -0.4882596742850617,
                -1.556516456243613
            ]
        },
        {
            "positions": [
                -0.8791752378188784,
                -1.016593663690846,
                1.6984033352734855,
                0.15246661583028542,
                -0.4014510886850582,
                -1.6995481303313338
            ]
        },
        {
            "positions": [
                -0.9008409005228077,
                -1.0269172234050272,
                1.7301318275611597,
                0.05301631781748073,
                -0.3146425030850546,
                -1.8425798044190551
            ]
        },
        {
            "positions": [
                -0.9225065632267373,
                -1.0372407831192085,
                1.7618603198488336,
                -0.04643398019532374,
                -0.22783391748505122,
                -1.985611478506776
            ]
        },
        {
            "positions": [
                -0.9441722259306666,
                -1.0475643428333898,
                1.7935888121365078,
                -0.14588427820812822,
                -0.14102533188504784,
                -2.128643152594497
            ]
        },
        {
            "positions": [
                -0.9658378886345962,
                -1.0578879025475714,
                1.825317304424182,
                -0.2453345762209329,
                -0.054216746285044026,
                -2.271674826682218
            ]
        },
        {
            "positions": [
                -0.9875035513385255,
                -1.0682114622617527,
                1.8570457967118559,
                -0.3447848742337374,
                0.03259183931495935,
                -2.4147065007699395
            ]
        },
        {
            "positions": [
                -1.009169214042455,
                -1.078535021975934,
                1.8887742889995298,
                -0.4442351722465421,
                0.11940042491496294,
                -2.557738174857661
            ]
        },
        {
            "positions": [
                -1.0308348767463844,
                -1.0888585816901153,
                1.9205027812872038,
                -0.5436854702593465,
                0.20620901051496632,
                -2.7007698489453817
            ]
        },
        {
            "positions": [
                -1.052500539450314,
                -1.0991821414042966,
                1.952231273574878,
                -0.643135768272151,
                0.2930175961149699,
                -2.8438015230331026
            ]
        },
        {
            "positions": [
                -1.0741662021542435,
                -1.109505701118478,
                1.983959765862552,
                -0.7425860662849559,
                0.3798261817149735,
                -2.986833197120824
            ]
        },
        {
            "positions": [
                -1.0958318648581729,
                -1.1198292608326592,
                2.015688258150226,
                -0.8420363642977601,
                0.4666347673149769,
                -3.129864871208545
            ]
        }
    ]
}