{
    "goal": {
        "global_pose": {
            "orientation": {
                "w": 0.005598929693374612,
                "x": 0.007748599140229565,
                "y": 0.7110244013736278,
                "z": -0.7031023480610252
            },
            "position": {
                "x": -0.8858502320852131,
                "y": -0.7141253447532654,
                "z": 0.3711530566215515
            }
        },
        "name": "move_to_auspresseinheit_C"
    },
    "id": "BKPIECE_move_to_auspresseinheit_C_126",
    "joint_names": [
        "shoulder_pan_joint",
        "shoulder_lift_joint",
        "elbow_joint",
        "wrist_1_joint",
        "wrist_2_joint",
        "wrist_3_joint"
    ],
    "metrics": {
        "cart_traj_len": 0.49419337542976705,
        "distance_elbow_joint": 1.011869340491665,
        "distance_shoulder_lift_joint": 0.33053744763487725,
        "distance_shoulder_pan_joint": 0.25651239250492885,
        "distance_wrist_1_joint": 0.6999412860057449,
        "distance_wrist_2_joint": 1.31867969352022,
        "distance_wrist_3_joint": 0.07268212688177833,
        "smoothness": 4.844609600361787e-16,
        "time": 0.47183013,
        "traj_len": 1.9209951293637406,
        "weighted_distance": 2.4195469659274513
    },
    "planner": "BKPIECE",
    "start": {
        "state": {
            "elbow_joint": 1.752795957773711,
            "shoulder_lift_joint": -0.9740617694225064,
            "shoulder_pan_joint": -2.967991417825858,
            "wrist_1_joint": -0.7595177689806859,
            "wrist_2_joint": 1.7443932448377395,
            "wrist_3_joint": 3.199131542505932
        }
    },
    "waypoints": [
        {
            "positions": [
                -2.967991417825858,
                -0.9740617694225064,
                1.752795957773711,
                -0.7595177689806859,
                1.7443932448377395,
                3.199131542505932
            ]
        },
        {
            "positions": [
                -2.942340178575365,
                -0.9410080246590187,
                1.6516090237245447,
                -0.6895236403801114,
                1.6125252754857176,
                3.191863329817754
            ]
        },
        {
            "positions": [
                -2.9166889393248723,
                -0.907954279895531,
                1.550422089675378,
                -0.619529511779537,
                1.4806573061336954,
                3.1845951171295765
            ]
        },
        {
            "positions": [
                -2.891037700074379,
                -0.8749005351320432,
                1.4492351556262117,
                -0.5495353831789624,
                1.3487893367816735,
                3.1773269044413985
            ]
        },
        {
            "positions": [
                -2.8653864608238866,
                -0.8418467903685556,
                1.348048221577045,
                -0.4795412545783879,
                1.2169213674296513,
                3.170058691753221
            ]
        },
        {
            "positions": [
                -2.8397352215733935,
                -0.8087930456050678,
                1.2468612875278786,
                -0.40954712597781345,
                1.0850533980776293,
                3.162790479065043
            ]
        },
        {
            "positions": [
                -2.8140839823229005,
                -0.77573930084158,
                1.1456743534787122,
                -0.339552997377239,
                0.9531854287256075,
                3.155522266376865
            ]
        },
        {
            "positions": [
                -2.788432743072408,
                -0.7426855560780924,
                1.0444874194295457,
                -0.2695588687766645,
                0.8213174593735855,
                3.1482540536886874
            ]
        },
        {
            "positions": [
                -2.762781503821915,
                -0.7096318113146046,
                0.943300485380379,
                -0.19956474017608994,
                0.6894494900215633,
                3.1409858410005094
            ]
        },
        {
            "positions": [
                -2.737130264571422,
                -0.676578066551117,
                0.8421135513312126,
                -0.12957061157551553,
                0.5575815206695414,
                3.133717628312332
            ]
        },
        {
            "positions": [
                -2.711479025320929,
                -0.6435243217876292,
                0.740926617282046,
                -0.05957648297494102,
                0.4257135513175195,
                3.126449415624154
            ]
        }
    ]
}