{
    "goal": {
        "global_pose": {
            "orientation": {
                "w": -0.00223480608172531,
                "x": 0.0024358444001904467,
                "y": 0.7094548369677653,
                "z": -0.704743149386269
            },
            "position": {
                "x": 0.6205249238014221,
                "y": -0.6371506643295288,
                "z": 0.19426114857196808
            }
        },
        "name": "move_to_magneteinheit_B"
    },
    "id": "BKPIECE_move_to_magneteinheit_B_83",
    "joint_names": [
        "shoulder_pan_joint",
        "shoulder_lift_joint",
        "elbow_joint",
        "wrist_1_joint",
        "wrist_2_joint",
        "wrist_3_joint"
    ],
    "metrics": {
        "cart_traj_len": 1.4529132224783101,
        "distance_elbow_joint": 0.7319822669674032,
        "distance_shoulder_lift_joint": 1.2497873859877715,
        "distance_shoulder_pan_joint": 1.6195281541389122,
        "distance_wrist_1_joint": 2.6055677822189445,
        "distance_wrist_2_joint": 2.948330857596673,
        "distance_wrist_3_joint": 3.1319536060685573,
        "smoothness": 5.652044526163903e-16,
        "time": 0.16023369399999998,
        "traj_len": 3.5053031328229323,
        "weighted_distance": 4.909679816946416
    },
    "planner": "BKPIECE",
    "start": {
        "state": {
            "elbow_joint": 2.3935871308073637,
            "shoulder_lift_joint": -1.9085141043777403,
            "shoulder_pan_joint": 0.7066247067284167,
            "wrist_1_joint": -0.46782909355067076,
            "wrist_2_joint": 0.7096259085804283,
            "wrist_3_joint": -3.1358149275257428
        }
    },
    "waypoints": [
        {
            "positions": [
                0.7066247067284167,
                -1.9085141043777403,
                2.3935871308073637,
                -0.46782909355067076,
                0.7096259085804283,
                -3.1358149275257428
            ]
        },
        {
            "positions": [
                0.6560144519115757,
                -1.8694582485656224,
                2.3707126849646323,
                -0.38640510035632875,
                0.6174905692805323,
                -3.0379413773361
            ]
        },
        {
            "positions": [
                0.6054041970947347,
                -1.8304023927535045,
                2.3478382391219013,
                -0.30498110716198673,
                0.5253552299806362,
                -2.940067827146458
            ]
        },
        {
            "positions": [
                0.5547939422778937,
                -1.7913465369413868,
                2.32496379327917,
                -0.22355711396764472,
                0.4332198906807402,
                -2.8421942769568154
            ]
        },
        {
            "positions": [
                0.5041836874610527,
                -1.752290681129269,
                2.3020893474364383,
                -0.1421331207733027,
                0.34108455138084415,
                -2.744320726767173
            ]
        },
        {
            "positions": [
                0.4535734326442117,
                -1.713234825317151,
                2.279214901593707,
                -0.06070912757896069,
                0.2489492120809481,
                -2.6464471765775306
            ]
        },
        {
            "positions": [
                0.4029631778273707,
                -1.674178969505033,
                2.2563404557509754,
                0.020714865615381328,
                0.15681387278105208,
                -2.5485736263878884
            ]
        },
        {
            "positions": [
                0.3523529230105297,
                -1.6351231136929152,
                2.2334660099082444,
                0.10213885880972334,
                0.06467853348115604,
                -2.450700076198246
            ]
        },
        {
            "positions": [
                0.30174266819368867,
                -1.5960672578807973,
                2.210591564065513,
                0.18356285200406536,
                -0.027456805818739993,
                -2.352826526008603
            ]
        },
        {
            "positions": [
                0.25113241337684766,
                -1.5570114020686796,
                2.1877171182227815,
                0.2649868451984074,
                -0.11959214511863603,
                -2.254952975818961
            ]
        },
        {
            "positions": [
                0.20052215856000666,
                -1.5179555462565617,
                2.1648426723800505,
                0.3464108383927494,
                -0.21172748441853206,
                -2.157079425629319
            ]
        },
        {
            "positions": [
                0.14991190374316565,
                -1.4788996904444438,
                2.141968226537319,
                0.4278348315870914,
                -0.3038628237184281,
                -2.0592058754396763
            ]
        },
        {
            "positions": [
                0.09930164892632465,
                -1.439843834632326,
                2.1190937806945875,
                0.5092588247814334,
                -0.39599816301832413,
                -1.9613323252500336
            ]
        },
        {
            "positions": [
                0.04869139410948364,
                -1.4007879788202082,
                2.096219334851856,
                0.5906828179757753,
                -0.48813350231822017,
                -1.8634587750603913
            ]
        },
        {
            "positions": [
                -0.0019188607073573616,
                -1.3617321230080903,
                2.0733448890091246,
                0.6721068111701174,
                -0.5802688416181162,
                -1.7655852248707489
            ]
        },
        {
            "positions": [
                -0.052529115524198366,
                -1.3226762671959724,
                2.0504704431663936,
                0.7535308043644595,
                -0.6724041809180122,
                -1.6677116746811065
            ]
        },
        {
            "positions": [
                -0.10313937034103937,
                -1.2836204113838545,
                2.027595997323662,
                0.8349547975588014,
                -0.7645395202179083,
                -1.569838124491464
            ]
        },
        {
            "positions": [
                -0.15374962515788038,
                -1.2445645555717366,
                2.0047215514809307,
                0.9163787907531433,
                -0.8566748595178043,
                -1.4719645743018217
            ]
        },
        {
            "positions": [
                -0.20435987997472138,
                -1.2055086997596187,
                1.9818471056381994,
                0.9978027839474854,
                -0.9488101988177003,
                -1.3740910241121793
            ]
        },
        {
            "positions": [
                -0.2549701347915624,
                -1.1664528439475008,
                1.9589726597954682,
                1.0792267771418276,
                -1.0409455381175965,
                -1.276217473922537
            ]
        },
        {
            "positions": [
                -0.3055803896084034,
                -1.1273969881353831,
                1.9360982139527367,
                1.1606507703361695,
                -1.1330808774174925,
                -1.1783439237328945
            ]
        },
        {
            "positions": [
                -0.3561906444252444,
                -1.0883411323232652,
                1.9132237681100053,
                1.2420747635305114,
                -1.2252162167173886,
                -1.080470373543252
            ]
        },
        {
            "positions": [
                -0.4068008992420854,
                -1.0492852765111473,
                1.890349322267274,
                1.3234987567248535,
                -1.3173515560172846,
                -0.9825968233536098
            ]
        },
        {
            "positions": [
                -0.4574111540589264,
                -1.0102294206990297,
                1.8674748764245428,
                1.4049227499191956,
                -1.4094868953171806,
                -0.8847232731639671
            ]
        },
        {
            "positions": [
                -0.5080214088757674,
                -0.9711735648869116,
                1.8446004305818113,
                1.4863467431135375,
                -1.5016222346170767,
                -0.7868497229743245
            ]
        },
        {
            "positions": [
                -0.5586316636926084,
                -0.9321177090747937,
                1.8217259847390799,
                1.5677707363078794,
                -1.5937575739169727,
                -0.6889761727846824
            ]
        },
        {
            "positions": [
                -0.6092419185094494,
                -0.893061853262676,
                1.7988515388963486,
                1.6491947295022213,
                -1.6858929132168687,
                -0.5911026225950398
            ]
        },
        {
            "positions": [
                -0.6598521733262904,
                -0.854005997450558,
                1.7759770930536174,
                1.7306187226965637,
                -1.7780282525167648,
                -0.4932290724053976
            ]
        },
        {
            "positions": [
                -0.7104624281431314,
                -0.8149501416384402,
                1.753102647210886,
                1.8120427158909056,
                -1.8701635918166608,
                -0.395355522215755
            ]
        },
        {
            "positions": [
                -0.7610726829599724,
                -0.7758942858263222,
                1.7302282013681545,
                1.8934667090852475,
                -1.9622989311165568,
                -0.2974819720261128
            ]
        },
        {
            "positions": [
                -0.8116829377768134,
                -0.7368384300142046,
                1.7073537555254232,
                1.9748907022795898,
                -2.054434270416453,
                -0.1996084218364702
            ]
        },
        {
            "positions": [
                -0.8622931925936544,
                -0.6977825742020867,
                1.684479309682692,
                2.0563146954739318,
                -2.146569609716349,
                -0.10173487164682804
            ]
        },
        {
            "positions": [
                -0.9129034474104954,
                -0.6587267183899689,
                1.6616048638399605,
                2.1377386886682737,
                -2.238704949016245,
                -0.0038613214571855486
            ]
        }
    ]
}