{
    "goal": {
        "global_pose": {
            "orientation": {
                "w": 0.7031023480610252,
                "x": -0.7110244013736278,
                "y": 0.0077485991402295624,
                "z": 0.005598929693374583
            },
            "position": {
                "x": -0.8841497679147869,
                "y": 0.44412534475326537,
                "z": 0.3711530566215515
            }
        },
        "name": "move_to_auspresseinheit_D"
    },
    "id": "BKPIECE_move_to_auspresseinheit_D_59",
    "joint_names": [
        "shoulder_pan_joint",
        "shoulder_lift_joint",
        "elbow_joint",
        "wrist_1_joint",
        "wrist_2_joint",
        "wrist_3_joint"
    ],
    "metrics": {
        "cart_traj_len": 1.876772889581183,
        "distance_elbow_joint": 3.74187776444498,
        "distance_shoulder_lift_joint": 1.0392266355180446,
        "distance_shoulder_pan_joint": 0.20865084010106827,
        "distance_wrist_1_joint": 3.3369536435731275,
        "distance_wrist_2_joint": 4.729955675570948,
        "distance_wrist_3_joint": 3.267593746360349,
        "smoothness": 0.3333869086189832,
        "time": 0.685074667,
        "traj_len": 4.040328984818998,
        "weighted_distance": 5.561146924640033
    },
    "planner": "BKPIECE",
    "start": {
        "state": {
            "elbow_joint": 1.8268400409724999,
            "shoulder_lift_joint": -1.0144045787793008,
            "shoulder_pan_joint": 2.6280239544362485,
            "wrist_1_joint": -0.790705565816056,
            "wrist_2_joint": 1.0573557467365533,
            "wrist_3_joint": 3.1851377467193758
        }
    },
    "waypoints": [
        {
            "positions": [
                2.6280239544362485,
                -1.0144045787793008,
                1.8268400409724999,
                -0.790705565816056,
                1.0573557467365533,
                3.1851377467193758
            ]
        },
        {
            "positions": [
                2.625743953585086,
                -0.9876628706781064,
                1.7134845791491222,
                -0.7613988902925499,
                1.086984871162103,
                3.007828855185227
            ]
        },
        {
            "positions": [
                2.6234639527339234,
                -0.9609211625769122,
                1.6001291173257446,
                -0.7320922147690438,
                1.1166139955876528,
                2.8305199636510787
            ]
        },
        {
            "positions": [
                2.621183951882761,
                -0.9341794544757178,
                1.486773655502367,
                -0.7027855392455379,
                1.1462431200132026,
                2.65321107211693
            ]
        },
        {
            "positions": [
                2.6189039510315983,
                -0.9074377463745235,
                1.3734181936789893,
                -0.6734788637220318,
                1.1758722444387524,
                2.4759021805827817
            ]
        },
        {
            "positions": [
                2.616623950180436,
                -0.8806960382733291,
                1.2600627318556117,
                -0.6441721881985257,
                1.2055013688643021,
                2.298593289048633
            ]
        },
        {
            "positions": [
                2.6143439493292733,
                -0.8539543301721348,
                1.146707270032234,
                -0.6148655126750198,
                1.235130493289852,
                2.1212843975144846
            ]
        },
        {
            "positions": [
                2.6120639484781107,
                -0.8272126220709405,
                1.0333518082088562,
                -0.5855588371515137,
                1.2647596177154017,
                1.9439755059803356
            ]
        },
        {
            "positions": [
                2.609783947626948,
                -0.8004709139697461,
                0.9199963463854787,
                -0.5562521616280076,
                1.2943887421409515,
                1.7666666144461873
            ]
        },
        {
            "positions": [
                2.607503946775786,
                -0.7737292058685519,
                0.8066408845621009,
                -0.5269454861045015,
                1.3240178665665012,
                1.5893577229120386
            ]
        },
        {
            "positions": [
                2.6052239459246236,
                -0.7469874977673574,
                0.6932854227387233,
                -0.49763881058099546,
                1.353646990992051,
                1.4120488313778898
            ]
        },
        {
            "positions": [
                2.602943945073461,
                -0.7202457896661631,
                0.5799299609153454,
                -0.4683321350574894,
                1.3832761154176008,
                1.2347399398437413
            ]
        },
        {
            "positions": [
                2.6006639442222985,
                -0.6935040815649689,
                0.466574499091968,
                -0.4390254595339834,
                1.4129052398431503,
                1.057431048309593
            ]
        },
        {
            "positions": [
                2.598383943371136,
                -0.6667623734637744,
                0.3532190372685904,
                -0.40971878401047734,
                1.4425343642687,
                0.8801221567754443
            ]
        },
        {
            "positions": [
                2.5961039425199735,
                -0.6400206653625802,
                0.23986357544521253,
                -0.38041210848697127,
                1.4721634886942498,
                0.7028132652412955
            ]
        },
        {
            "positions": [
                2.593823941668811,
                -0.6132789572613858,
                0.1265081136218349,
                -0.3511054329634652,
                1.5017926131197996,
                0.5255043737071472
            ]
        },
        {
            "positions": [
                2.5915439408176484,
                -0.5865372491601915,
                0.013152651798457482,
                -0.3217987574399592,
                1.5314217375453494,
                0.3481954821729989
            ]
        },
        {
            "positions": [
                2.589263939966486,
                -0.5597955410589972,
                -0.10020281002492037,
                -0.29249208191645315,
                1.5610508619708992,
                0.17088659063885014
            ]
        },
        {
            "positions": [
                2.5869839391153233,
                -0.5330538329578028,
                -0.213558271848298,
                -0.2631854063929471,
                1.590679986396449,
                -0.006422300895298549
            ]
        },
        {
            "positions": [
                2.583321781847033,
                -0.5508880904132607,
                -0.1358946136938873,
                -0.14792371086553607,
                1.4174213607004025,
                -0.007219445468550949
            ]
        },
        {
            "positions": [
                2.579659624578743,
                -0.5687223478687184,
                -0.0582309555394766,
                -0.03266201533812507,
                1.2441627350043563,
                -0.008016590041803348
            ]
        },
        {
            "positions": [
                2.5759974673104526,
                -0.5865566053241763,
                0.019432702614934072,
                0.08259968018928593,
                1.0709041093083098,
                -0.008813734615055746
            ]
        },
        {
            "positions": [
                2.5723353100421624,
                -0.6043908627796342,
                0.0970963607693448,
                0.19786137571669693,
                0.8976454836122635,
                -0.009610879188308144
            ]
        },
        {
            "positions": [
                2.568673152773872,
                -0.6222251202350919,
                0.17476001892375548,
                0.313123071244108,
                0.7243868579162172,
                -0.010408023761560543
            ]
        },
        {
            "positions": [
                2.565010995505582,
                -0.6400593776905498,
                0.25242367707816615,
                0.42838476677151893,
                0.5511282322201707,
                -0.011205168334812943
            ]
        },
        {
            "positions": [
                2.5613488382372918,
                -0.6578936351460076,
                0.33008733523257683,
                0.54364646229893,
                0.3778696065241245,
                -0.012002312908065341
            ]
        },
        {
            "positions": [
                2.5576866809690015,
                -0.6757278926014655,
                0.4077509933869876,
                0.6589081578263409,
                0.20461098082807805,
                -0.01279945748131774
            ]
        },
        {
            "positions": [
                2.5540245237007113,
                -0.6935621500569232,
                0.4854146515413983,
                0.774169853353752,
                0.031352355132031606,
                -0.01359660205457014
            ]
        },
        {
            "positions": [
                2.550362366432421,
                -0.7113964075123811,
                0.563078309695809,
                0.889431548881163,
                -0.1419062705640146,
                -0.014393746627822538
            ]
        },
        {
            "positions": [
                2.546700209164131,
                -0.729230664967839,
                0.6407419678502198,
                1.004693244408574,
                -0.3151648962600613,
                -0.015190891201074938
            ]
        },
        {
            "positions": [
                2.5430380518958406,
                -0.7470649224232968,
                0.7184056260046303,
                1.119954939935985,
                -0.4884235219561075,
                -0.015988035774327336
            ]
        },
        {
            "positions": [
                2.5393758946275504,
                -0.7648991798787546,
                0.7960692841590411,
                1.2352166354633962,
                -0.6616821476521542,
                -0.016785180347579736
            ]
        },
        {
            "positions": [
                2.53571373735926,
                -0.7827334373342124,
                0.8737329423134517,
                1.350478330990807,
                -0.8349407733481999,
                -0.017582324920832133
            ]
        },
        {
            "positions": [
                2.53205158009097,
                -0.8005676947896703,
                0.9513966004678625,
                1.465740026518218,
                -1.0081993990442466,
                -0.018379469494084533
            ]
        },
        {
            "positions": [
                2.5283894228226798,
                -0.818401952245128,
                1.0290602586222732,
                1.581001722045629,
                -1.1814580247402928,
                -0.01917661406733693
            ]
        },
        {
            "positions": [
                2.5247272655543895,
                -0.8362362097005859,
                1.106723916776684,
                1.6962634175730402,
                -1.3547166504363395,
                -0.019973758640589333
            ]
        },
        {
            "positions": [
                2.5210651082860993,
                -0.8540704671560437,
                1.1843875749310946,
                1.811525113100451,
                -1.5279752761323857,
                -0.02077090321384173
            ]
        },
        {
            "positions": [
                2.517402951017809,
                -0.8719047246115015,
                1.2620512330855054,
                1.9267868086278621,
                -1.701233901828432,
                -0.021568047787094126
            ]
        },
        {
            "positions": [
                2.513740793749519,
                -0.8897389820669593,
                1.339714891239916,
                2.0420485041552734,
                -1.8744925275244781,
                -0.022365192360346526
            ]
        },
        {
            "positions": [
                2.5100786364812286,
                -0.9075732395224172,
                1.4173785493943267,
                2.1573101996826844,
                -2.047751153220525,
                -0.023162336933598926
            ]
        },
        {
            "positions": [
                2.532755017017741,
                -0.8617341187394341,
                1.3997428917989376,
                2.254544669201281,
                -2.1873012272940446,
                -0.00833892125675551
            ]
        },
        {
            "positions": [
                2.555431397554253,
                -0.8158949979564509,
                1.3821072342035485,
                2.351779138719878,
                -2.3268513013675642,
                0.006484494420087906
            ]
        },
        {
            "positions": [
                2.578107778090765,
                -0.7700558771734679,
                1.3644715766081597,
                2.4490136082384746,
                -2.4664013754410843,
                0.021307910096931323
            ]
        },
        {
            "positions": [
                2.600784158627277,
                -0.7242167563904848,
                1.3468359190127706,
                2.5462480777570713,
                -2.605951449514604,
                0.03613132577377474
            ]
        }
    ]
}