{
    "goal": {
        "global_pose": {
            "orientation": {
                "w": 0.5084816217422485,
                "x": -0.49083608388900757,
                "y": 0.5182115435600281,
                "z": -0.4816462993621826
            },
            "position": {
                "x": 0.5540239810943604,
                "y": 0.030875300988554955,
                "z": 0.16403168439865112
            }
        },
        "name": "move_to_storage_A"
    },
    "id": "BKPIECE_move_to_storage_A_57",
    "joint_names": [
        "shoulder_pan_joint",
        "shoulder_lift_joint",
        "elbow_joint",
        "wrist_1_joint",
        "wrist_2_joint",
        "wrist_3_joint"
    ],
    "metrics": {
        "cart_traj_len": 0.35317876833312367,
        "distance_elbow_joint": 0.4517357753117093,
        "distance_shoulder_lift_joint": 0.2342247660924155,
        "distance_shoulder_pan_joint": 0.4626011831863187,
        "distance_wrist_1_joint": 0.25231996209325713,
        "distance_wrist_2_joint": 1.0955934163974104,
        "distance_wrist_3_joint": 0.09991336754130087,
        "smoothness": 4.440892133664971e-16,
        "time": 0.552109573,
        "traj_len": 1.61133127277491,
        "weighted_distance": 2.035713286343556
    },
    "planner": "BKPIECE",
    "start": {
        "state": {
            "elbow_joint": 1.9715474177455299,
            "shoulder_lift_joint": -1.139484666580328,
            "shoulder_pan_joint": 0.12281154398918248,
            "wrist_1_joint": -0.7804687475355282,
            "wrist_2_joint": 0.12958649657246987,
            "wrist_3_joint": -3.1924925159053466
        }
    },
    "waypoints": [
        {
            "positions": [
                0.12281154398918248,
                -1.139484666580328,
                1.9715474177455299,
                -0.7804687475355282,
                0.12958649657246987,
                -3.1924925159053466
            ]
        },
        {
            "positions": [
                0.05672566067685124,
                -1.172945347450673,
                2.036081099932917,
                -0.8165144564059935,
                0.2860998417720999,
                -3.1782191776851607
            ]
        },
        {
            "positions": [
                -0.009360222635480003,
                -1.206406028321018,
                2.100614782120304,
                -0.8525601652764588,
                0.4426131869717299,
                -3.163945839464975
            ]
        },
        {
            "positions": [
                -0.07544610594781123,
                -1.239866709191363,
                2.165148464307691,
                -0.888605874146924,
                0.59912653217136,
                -3.149672501244789
            ]
        },
        {
            "positions": [
                -0.1415319892601425,
                -1.2733273900617084,
                2.229682146495078,
                -0.9246515830173894,
                0.75563987737099,
                -3.135399163024603
            ]
        },
        {
            "positions": [
                -0.20761787257247377,
                -1.3067880709320534,
                2.294215828682465,
                -0.9606972918878547,
                0.9121532225706201,
                -3.1211258248044174
            ]
        },
        {
            "positions": [
                -0.27370375588480494,
                -1.3402487518023984,
                2.358749510869852,
                -0.99674300075832,
                1.06866656777025,
                -3.1068524865842315
            ]
        },
        {
            "positions": [
                -0.33978963919713623,
                -1.3737094326727435,
                2.423283193057239,
                -1.0327887096287853,
                1.2251799129698802,
                -3.0925791483640457
            ]
        }
    ]
}