{
    "goal": {
        "global_pose": {
            "orientation": {
                "w": -0.4816463035849501,
                "x": 0.5182115481033762,
                "y": 0.4908360881923453,
                "z": -0.5084816262002911
            },
            "position": {
                "x": -0.8240239810943604,
                "y": 0.19912469901144506,
                "z": 0.16403168439865112
            }
        },
        "name": "move_to_storage_D"
    },
    "id": "BKPIECE_move_to_storage_D_127",
    "joint_names": [
        "shoulder_pan_joint",
        "shoulder_lift_joint",
        "elbow_joint",
        "wrist_1_joint",
        "wrist_2_joint",
        "wrist_3_joint"
    ],
    "metrics": {
        "cart_traj_len": 4.027203838123423,
        "distance_elbow_joint": 4.6402914974531395,
        "distance_shoulder_lift_joint": 1.2656464200073525,
        "distance_shoulder_pan_joint": 2.8141175179985263,
        "distance_wrist_1_joint": 4.854165788686809,
        "distance_wrist_2_joint": 2.6142154477172106,
        "distance_wrist_3_joint": 3.373025603208203,
        "smoothness": 0.4143802385937932,
        "time": 0.630423068,
        "traj_len": 4.422834190320868,
        "weighted_distance": 5.811703254459202
    },
    "planner": "BKPIECE",
    "start": {
        "state": {
            "elbow_joint": -2.384821997420982,
            "shoulder_lift_joint": -2.2788054674887404,
            "shoulder_pan_joint": -0.18546946417610016,
            "wrist_1_joint": 1.4845937964226739,
            "wrist_2_joint": 0.1789877726866377,
            "wrist_3_joint": 0.03710572555276528
        }
    },
    "waypoints": [
        {
            "positions": [
                -0.18546946417610016,
                -2.2788054674887404,
                -2.384821997420982,
                1.4845937964226739,
                0.1789877726866377,
                0.03710572555276528
            ]
        },
        {
            "positions": [
                -0.1186055772398813,
                -2.1869850691436414,
                -2.4279832086416078,
                1.3936361362800544,
                0.12123796474853304,
                0.043687489984554836
            ]
        },
        {
            "positions": [
                -0.051741690303662435,
                -2.0951646707985425,
                -2.471144419862233,
                1.302678476137435,
                0.06348815681042837,
                0.05026925441634439
            ]
        },
        {
            "positions": [
                0.015122196632556428,
                -2.0033442724534436,
                -2.514305631082859,
                1.2117208159948158,
                0.0057383488723237175,
                0.05685101884813394
            ]
        },
        {
            "positions": [
                0.08198608356877529,
                -1.911523874108345,
                -2.5574668423034845,
                1.1207631558521964,
                -0.052011459065780974,
                0.06343278327992351
            ]
        },
        {
            "positions": [
                0.14884997050499416,
                -1.819703475763246,
                -2.6006280535241104,
                1.029805495709577,
                -0.10976126700388561,
                0.07001454771171306
            ]
        },
        {
            "positions": [
                0.2103467275542833,
                -1.8134638207933198,
                -2.499644279889999,
                0.9435467201563373,
                -0.06113564253911552,
                0.1595302891307505
            ]
        },
        {
            "positions": [
                0.27184348460357244,
                -1.8072241658233934,
                -2.3986605062558883,
                0.8572879446030977,
                -0.01251001807434543,
                0.24904603054978794
            ]
        },
        {
            "positions": [
                0.3333402416528615,
                -1.8009845108534672,
                -2.297676732621777,
                0.7710291690498579,
                0.03611560639042466,
                0.33856177196882536
            ]
        },
        {
            "positions": [
                0.39483699870215067,
                -1.794744855883541,
                -2.1966929589876663,
                0.6847703934966183,
                0.08474123085519475,
                0.4280775133878628
            ]
        },
        {
            "positions": [
                0.4563337557514398,
                -1.7885052009136146,
                -2.095709185353555,
                0.5985116179433785,
                0.13336685531996484,
                0.5175932548069003
            ]
        },
        {
            "positions": [
                0.5178305128007289,
                -1.7822655459436885,
                -1.9947254117194442,
                0.5122528423901388,
                0.18199247978473493,
                0.6071089962259377
            ]
        },
        {
            "positions": [
                0.579327269850018,
                -1.776025890973762,
                -1.893741638085333,
                0.425994066836899,
                0.23061810424950502,
                0.6966247376449752
            ]
        },
        {
            "positions": [
                0.6408240268993072,
                -1.7697862360038359,
                -1.792757864451222,
                0.3397352912836594,
                0.2792437287142751,
                0.7861404790640125
            ]
        },
        {
            "positions": [
                0.7023207839485963,
                -1.7635465810339097,
                -1.6917740908171108,
                0.2534765157304196,
                0.3278693531790452,
                0.87565622048305
            ]
        },
        {
            "positions": [
                0.7638175409978855,
                -1.7573069260639833,
                -1.5907903171829998,
                0.16721774017717983,
                0.3764949776438153,
                0.9651719619020875
            ]
        },
        {
            "positions": [
                0.8253142980471746,
                -1.7510672710940571,
                -1.4898065435488885,
                0.08095896462394014,
                0.42512060210858543,
                1.054687703321125
            ]
        },
        {
            "positions": [
                0.8868110550964636,
                -1.744827616124131,
                -1.3888227699147777,
                -0.005299810929299431,
                0.47374622657335547,
                1.1442034447401623
            ]
        },
        {
            "positions": [
                0.9483078121457528,
                -1.7385879611542046,
                -1.2878389962806667,
                -0.09155858648253923,
                0.5223718510381254,
                1.2337191861591998
            ]
        },
        {
            "positions": [
                1.0098045691950421,
                -1.7323483061842784,
                -1.1868552226465554,
                -0.17781736203577903,
                0.5709974755028957,
                1.3232349275782374
            ]
        },
        {
            "positions": [
                1.0713013262443312,
                -1.7261086512143522,
                -1.0858714490124444,
                -0.2640761375890186,
                0.6196230999676657,
                1.4127506689972749
            ]
        },
        {
            "positions": [
                1.1327980832936202,
                -1.7198689962444258,
                -0.9848876753783335,
                -0.3503349131422582,
                0.6682487244324358,
                1.5022664104163121
            ]
        },
        {
            "positions": [
                1.1942948403429092,
                -1.7136293412744996,
                -0.8839039017442223,
                -0.436593688695498,
                0.7168743488972058,
                1.5917821518353497
            ]
        },
        {
            "positions": [
                1.2557915973921985,
                -1.7073896863045732,
                -0.7829201281101112,
                -0.5228524642487378,
                0.7654999733619761,
                1.6812978932543872
            ]
        },
        {
            "positions": [
                1.3172883544414877,
                -1.701150031334647,
                -0.6819363544760002,
                -0.6091112398019776,
                0.8141255978267461,
                1.7708136346734247
            ]
        },
        {
            "positions": [
                1.3787851114907768,
                -1.6949103763647209,
                -0.5809525808418892,
                -0.6953700153552174,
                0.8627512222915161,
                1.8603293760924622
            ]
        },
        {
            "positions": [
                1.440281868540066,
                -1.6886707213947945,
                -0.4799688072077779,
                -0.7816287909084569,
                0.9113768467562864,
                1.9498451175114997
            ]
        },
        {
            "positions": [
                1.501778625589355,
                -1.6824310664248683,
                -0.37898503357366664,
                -0.8678875664616967,
                0.9600024712210564,
                2.039360858930537
            ]
        },
        {
            "positions": [
                1.563275382638644,
                -1.676191411454942,
                -0.27800125993955627,
                -0.9541463420149361,
                1.0086280956858262,
                2.128876600349574
            ]
        },
        {
            "positions": [
                1.624772139687933,
                -1.6699517564850157,
                -0.177017486305445,
                -1.0404051175681759,
                1.0572537201505965,
                2.2183923417686113
            ]
        },
        {
            "positions": [
                1.6862688967372224,
                -1.6637121015150895,
                -0.07603371267133374,
                -1.1266638931214157,
                1.1058793446153665,
                2.307908083187649
            ]
        },
        {
            "positions": [
                1.7477656537865114,
                -1.6574724465451633,
                0.024950060962777076,
                -1.2129226686746555,
                1.1545049690801366,
                2.3974238246066863
            ]
        },
        {
            "positions": [
                1.8092624108358006,
                -1.651232791575237,
                0.12593383459688834,
                -1.2991814442278953,
                1.2031305935449068,
                2.486939566025724
            ]
        },
        {
            "positions": [
                1.87075916788509,
                -1.6449931366053108,
                0.2269176082309996,
                -1.385440219781135,
                1.2517562180096768,
                2.5764553074447614
            ]
        },
        {
            "positions": [
                1.932255924934379,
                -1.6387534816353844,
                0.3279013818651104,
                -1.4716989953343749,
                1.3003818424744469,
                2.665971048863799
            ]
        },
        {
            "positions": [
                1.9937526819836682,
                -1.6325138266654582,
                0.4288851554992217,
                -1.5579577708876142,
                1.3490074669392171,
                2.7554867902828364
            ]
        },
        {
            "positions": [
                2.0552494390329574,
                -1.626274171695532,
                0.5298689291333329,
                -1.644216546440854,
                1.3976330914039872,
                2.845002531701874
            ]
        },
        {
            "positions": [
                2.1167461960822465,
                -1.6200345167256058,
                0.6308527027674433,
                -1.7304753219940934,
                1.4462587158687572,
                2.934518273120911
            ]
        },
        {
            "positions": [
                2.1782429531315355,
                -1.6137948617556794,
                0.7318364764015546,
                -1.8167340975473332,
                1.4948843403335272,
                3.0240340145399487
            ]
        },
        {
            "positions": [
                2.2397397101808245,
                -1.6075552067857533,
                0.8328202500356658,
                -1.902992873100573,
                1.5435099647982973,
                3.113549755958986
            ]
        },
        {
            "positions": [
                2.3012364672301135,
                -1.6013155518158269,
                0.9338040236697767,
                -1.9892516486538128,
                1.5921355892630675,
                3.2030654973780237
            ]
        },
        {
            "positions": [
                2.3627332242794026,
                -1.5950758968459007,
                1.0347877973038881,
                -2.0755104242070526,
                1.6407612137278376,
                3.292581238797061
            ]
        },
        {
            "positions": [
                2.389324707233705,
                -1.5368842119094495,
                1.1136947563560895,
                -1.9461042674013445,
                1.5832668209983412,
                3.2808262298006703
            ]
        },
        {
            "positions": [
                2.4159161901880073,
                -1.478692526972998,
                1.192601715408291,
                -1.8166981105956364,
                1.5257724282688445,
                3.2690712208042796
            ]
        },
        {
            "positions": [
                2.44250767314231,
                -1.4205008420365468,
                1.2715086744604924,
                -1.6872919537899282,
                1.468278035539348,
                3.257316211807889
            ]
        },
        {
            "positions": [
                2.469099156096612,
                -1.3623091571000956,
                1.350415633512694,
                -1.5578857969842201,
                1.4107836428098517,
                3.245561202811498
            ]
        },
        {
            "positions": [
                2.4956906390509146,
                -1.3041174721636444,
                1.4293225925648954,
                -1.428479640178512,
                1.3532892500803553,
                3.2338061938151075
            ]
        },
        {
            "positions": [
                2.522282122005217,
                -1.245925787227193,
                1.5082295516170967,
                -1.299073483372804,
                1.2957948573508586,
                3.2220511848187163
            ]
        },
        {
            "positions": [
                2.5488736049595193,
                -1.1877341022907417,
                1.587136510669298,
                -1.169667326567096,
                1.2383004646213622,
                3.2102961758223256
            ]
        },
        {
            "positions": [
                2.575465087913822,
                -1.1295424173542905,
                1.6660434697214996,
                -1.0402611697613877,
                1.1808060718918658,
                3.198541166825935
            ]
        },
        {
            "positions": [
                2.602056570868124,
                -1.071350732417839,
                1.7449504287737012,
                -0.9108550129556796,
                1.1233116791623692,
                3.186786157829544
            ]
        },
        {
            "positions": [
                2.6286480538224266,
                -1.0131590474813879,
                1.8238573878259026,
                -0.7814488561499714,
                1.0658172864328728,
                3.1750311488331535
            ]
        }
    ]
}