{
    "goal": {
        "global_pose": {
            "orientation": {
                "w": 0.7031023502349854,
                "x": -0.7110244035720825,
                "y": 0.007748599164187908,
                "z": 0.005598929710686207
            },
            "position": {
                "x": 0.11585023208521307,
                "y": 0.44412534475326537,
                "z": 0.3711530566215515
            }
        },
        "name": "move_to_auspresseinheit_A"
    },
    "id": "BKPIECE_move_to_auspresseinheit_A_140",
    "joint_names": [
        "shoulder_pan_joint",
        "shoulder_lift_joint",
        "elbow_joint",
        "wrist_1_joint",
        "wrist_2_joint",
        "wrist_3_joint"
    ],
    "metrics": {
        "cart_traj_len": 4.629199126760328,
        "distance_elbow_joint": 9.547121226581964,
        "distance_shoulder_lift_joint": 1.7801377915983339,
        "distance_shoulder_pan_joint": 2.4486577133021634,
        "distance_wrist_1_joint": 0.768405809387934,
        "distance_wrist_2_joint": 7.573942412800961,
        "distance_wrist_3_joint": 2.788833708698537,
        "smoothness": 0.5253379726930208,
        "time": 1.5741885660000001,
        "traj_len": 4.990701219505123,
        "weighted_distance": 6.231140690271394
    },
    "planner": "BKPIECE",
    "start": {
        "state": {
            "elbow_joint": 2.4225747245308327,
            "shoulder_lift_joint": -1.373653427065438,
            "shoulder_pan_joint": -0.33786330853087027,
            "wrist_1_joint": -1.0288602302712604,
            "wrist_2_joint": 1.23302299562683,
            "wrist_3_joint": -3.094021725338297
        }
    },
    "waypoints": [
        {
            "positions": [
                -0.33786330853087027,
                -1.373653427065438,
                2.4225747245308327,
                -1.0288602302712604,
                1.23302299562683,
                -3.094021725338297
            ]
        },
        {
            "positions": [
                -0.3612512103923599,
                -1.3528493919433793,
                2.2629299749226686,
                -1.0199150398525825,
                1.0983521219991572,
                -3.0483871051534632
            ]
        },
        {
            "positions": [
                -0.3846391122538496,
                -1.3320453568213206,
                2.103285225314504,
                -1.0109698494339046,
                0.9636812483714844,
                -3.00275248496863
            ]
        },
        {
            "positions": [
                -0.40802701411533926,
                -1.311241321699262,
                1.94364047570634,
                -1.0020246590152269,
                0.8290103747438116,
                -2.957117864783796
            ]
        },
        {
            "positions": [
                -0.4314149159768289,
                -1.2904372865772034,
                1.7839957260981756,
                -0.9930794685965489,
                0.6943395011161388,
                -2.911483244598962
            ]
        },
        {
            "positions": [
                -0.4548028178383186,
                -1.2696332514551445,
                1.6243509764900113,
                -0.984134278177871,
                0.5596686274884661,
                -2.8658486244141286
            ]
        },
        {
            "positions": [
                -0.4781907196998083,
                -1.2488292163330859,
                1.464706226881847,
                -0.9751890877591932,
                0.4249977538607932,
                -2.8202140042292947
            ]
        },
        {
            "positions": [
                -0.501578621561298,
                -1.2280251812110272,
                1.3050614772736826,
                -0.9662438973405153,
                0.2903268802331205,
                -2.7745793840444612
            ]
        },
        {
            "positions": [
                -0.5249665234227876,
                -1.2072211460889686,
                1.1454167276655185,
                -0.9572987069218375,
                0.15565600660544776,
                -2.7289447638596274
            ]
        },
        {
            "positions": [
                -0.5483544252842772,
                -1.18641711096691,
                0.9857719780573542,
                -0.9483535165031596,
                0.020985132977775045,
                -2.6833101436747935
            ]
        },
        {
            "positions": [
                -0.5717423271457669,
                -1.1656130758448513,
                0.8261272284491898,
                -0.9394083260844818,
                -0.11368574064989767,
                -2.63767552348996
            ]
        },
        {
            "positions": [
                -0.5951302290072567,
                -1.1448090407227927,
                0.6664824788410257,
                -0.9304631356658039,
                -0.2483566142775704,
                -2.592040903305126
            ]
        },
        {
            "positions": [
                -0.6185181308687463,
                -1.124005005600734,
                0.5068377292328612,
                -0.921517945247126,
                -0.38302748790524355,
                -2.5464062831202923
            ]
        },
        {
            "positions": [
                -0.6419060327302359,
                -1.1032009704786754,
                0.3471929796246971,
                -0.9125727548284481,
                -0.5176983615329163,
                -2.500771662935459
            ]
        },
        {
            "positions": [
                -0.6652939345917257,
                -1.0823969353566167,
                0.18754823001653254,
                -0.9036275644097702,
                -0.652369235160589,
                -2.455137042750625
            ]
        },
        {
            "positions": [
                -0.6886818364532152,
                -1.061592900234558,
                0.02790348040836843,
                -0.8946823739910924,
                -0.7870401087882617,
                -2.409502422565791
            ]
        },
        {
            "positions": [
                -0.712069738314705,
                -1.0407888651124995,
                -0.13174126919979567,
                -0.8857371835724146,
                -0.9217109824159344,
                -2.3638678023809576
            ]
        },
        {
            "positions": [
                -0.7354576401761946,
                -1.0199848299904406,
                -0.2913860188079602,
                -0.8767919931537367,
                -1.0563818560436071,
                -2.3182331821961237
            ]
        },
        {
            "positions": [
                -0.7588455420376843,
                -0.999180794868382,
                -0.45103076841612433,
                -0.8678468027350588,
                -1.1910527296712798,
                -2.2725985620112903
            ]
        },
        {
            "positions": [
                -0.7822334438991739,
                -0.9783767597463233,
                -0.6106755180242884,
                -0.858901612316381,
                -1.3257236032989526,
                -2.2269639418264564
            ]
        },
        {
            "positions": [
                -0.8056213457606636,
                -0.9575727246242647,
                -0.770320267632453,
                -0.8499564218977032,
                -1.4603944769266253,
                -2.1813293216416225
            ]
        },
        {
            "positions": [
                -0.8290092476221533,
                -0.936768689502206,
                -0.9299650172406171,
                -0.8410112314790252,
                -1.595065350554298,
                -2.135694701456789
            ]
        },
        {
            "positions": [
                -0.8523971494836429,
                -0.9159646543801474,
                -1.0896097668487812,
                -0.8320660410603473,
                -1.7297362241819707,
                -2.090060081271955
            ]
        },
        {
            "positions": [
                -0.8757850513451326,
                -0.8951606192580887,
                -1.2492545164569462,
                -0.8231208506416694,
                -1.8644070978096443,
                -2.0444254610871218
            ]
        },
        {
            "positions": [
                -0.8991729532066224,
                -0.87435658413603,
                -1.4088992660651103,
                -0.8141756602229916,
                -1.999077971437317,
                -1.9987908409022876
            ]
        },
        {
            "positions": [
                -0.9225608550681119,
                -0.8535525490139714,
                -1.5685440156732744,
                -0.8052304698043138,
                -2.1337488450649897,
                -1.953156220717454
            ]
        },
        {
            "positions": [
                -0.9459487569296017,
                -0.8327485138919127,
                -1.7281887652814385,
                -0.7962852793856359,
                -2.2684197186926625,
                -1.9075216005326203
            ]
        },
        {
            "positions": [
                -0.9693366587910914,
                -0.811944478769854,
                -1.8878335148896035,
                -0.787340088966958,
                -2.403090592320335,
                -1.8618869803477867
            ]
        },
        {
            "positions": [
                -0.992724560652581,
                -0.7911404436477953,
                -2.0474782644977676,
                -0.7783948985482801,
                -2.537761465948008,
                -1.8162523601629528
            ]
        },
        {
            "positions": [
                -1.0161124625140707,
                -0.7703364085257367,
                -2.2071230141059317,
                -0.7694497081296023,
                -2.6724323395756806,
                -1.770617739978119
            ]
        },
        {
            "positions": [
                -1.0395003643755603,
                -0.7495323734036781,
                -2.366767763714096,
                -0.7605045177109244,
                -2.8071032132033533,
                -1.7249831197932854
            ]
        },
        {
            "positions": [
                -0.9889716015769123,
                -0.784448357635071,
                -2.219601857564375,
                -0.7479218038525324,
                -2.6968726966948298,
                -1.7597536132580038
            ]
        },
        {
            "positions": [
                -0.9384428387782645,
                -0.8193643418664641,
                -2.0724359514146538,
                -0.7353390899941403,
                -2.5866421801863058,
                -1.794524106722722
            ]
        },
        {
            "positions": [
                -0.8879140759796166,
                -0.8542803260978571,
                -1.925270045264933,
                -0.7227563761357484,
                -2.476411663677782,
                -1.8292946001874404
            ]
        },
        {
            "positions": [
                -0.8373853131809688,
                -0.8891963103292501,
                -1.7781041391152117,
                -0.7101736622773563,
                -2.366181147169258,
                -1.8640650936521588
            ]
        },
        {
            "positions": [
                -0.7868565503823208,
                -0.924112294560643,
                -1.630938232965491,
                -0.6975909484189643,
                -2.2559506306607346,
                -1.898835587116877
            ]
        },
        {
            "positions": [
                -0.7363277875836729,
                -0.9590282787920361,
                -1.4837723268157699,
                -0.6850082345605722,
                -2.145720114152211,
                -1.9336060805815953
            ]
        },
        {
            "positions": [
                -0.685799024785025,
                -0.9939442630234291,
                -1.3366064206660488,
                -0.6724255207021802,
                -2.0354895976436875,
                -1.9683765740463137
            ]
        },
        {
            "positions": [
                -0.6352702619863771,
                -1.028860247254822,
                -1.1894405145163278,
                -0.6598428068437883,
                -1.9252590811351635,
                -2.003147067511032
            ]
        },
        {
            "positions": [
                -0.5847414991877293,
                -1.0637762314862151,
                -1.0422746083666068,
                -0.6472600929853962,
                -1.8150285646266398,
                -2.0379175609757505
            ]
        },
        {
            "positions": [
                -0.5342127363890814,
                -1.098692215717608,
                -0.8951087022168858,
                -0.6346773791270042,
                -1.704798048118116,
                -2.0726880544404684
            ]
        },
        {
            "positions": [
                -0.48368397359043347,
                -1.133608199949001,
                -0.7479427960671647,
                -0.6220946652686121,
                -1.5945675316095924,
                -2.107458547905187
            ]
        },
        {
            "positions": [
                -0.43315521079178554,
                -1.1685241841803942,
                -0.6007768899174439,
                -0.6095119514102201,
                -1.4843370151010686,
                -2.142229041369905
            ]
        },
        {
            "positions": [
                -0.3826264479931377,
                -1.2034401684117872,
                -0.4536109837677229,
                -0.596929237551828,
                -1.3741064985925449,
                -2.1769995348346236
            ]
        },
        {
            "positions": [
                -0.3320976851944898,
                -1.23835615264318,
                -0.3064450776180019,
                -0.584346523693436,
                -1.2638759820840213,
                -2.211770028299342
            ]
        },
        {
            "positions": [
                -0.28156892239584197,
                -1.2732721368745732,
                -0.15927917146828063,
                -0.571763809835044,
                -1.1536454655754975,
                -2.2465405217640604
            ]
        },
        {
            "positions": [
                -0.23104015959719404,
                -1.308188121105966,
                -0.01211326531855983,
                -0.559181095976652,
                -1.0434149490669737,
                -2.2813110152287788
            ]
        },
        {
            "positions": [
                -0.1805113967985461,
                -1.3431041053373591,
                0.13505264083116097,
                -0.54659838211826,
                -0.93318443255845,
                -2.3160815086934967
            ]
        },
        {
            "positions": [
                -0.1299826339998983,
                -1.3780200895687522,
                0.2822185469808822,
                -0.534015668259868,
                -0.8229539160499262,
                -2.350852002158215
            ]
        },
        {
            "positions": [
                -0.07945387120125036,
                -1.4129360738001453,
                0.429384453130603,
                -0.521432954401476,
                -0.7127233995414026,
                -2.3856224956229335
            ]
        },
        {
            "positions": [
                -0.02892510840260254,
                -1.4478520580315382,
                0.5765503592803243,
                -0.5088502405430839,
                -0.6024928830328786,
                -2.420392989087652
            ]
        },
        {
            "positions": [
                0.02160365439604539,
                -1.4827680422629312,
                0.7237162654300451,
                -0.4962675266846919,
                -0.49226236652435507,
                -2.4551634825523703
            ]
        },
        {
            "positions": [
                0.07213241719469332,
                -1.517684026494324,
                0.8708821715797663,
                -0.4836848128262998,
                -0.3820318500158315,
                -2.489933976017088
            ]
        },
        {
            "positions": [
                0.12266117999334125,
                -1.5526000107257172,
                1.0180480777294871,
                -0.47110209896790783,
                -0.2718013335073075,
                -2.524704469481807
            ]
        },
        {
            "positions": [
                0.17318994279198918,
                -1.5875159949571103,
                1.165213983879208,
                -0.4585193851095158,
                -0.16157081699878395,
                -2.559474962946525
            ]
        },
        {
            "positions": [
                0.2237187055906369,
                -1.6224319791885033,
                1.3123798900289292,
                -0.44593667125112374,
                -0.05134030049026039,
                -2.5942454564112434
            ]
        },
        {
            "positions": [
                0.2742474683892848,
                -1.6573479634198962,
                1.45954579617865,
                -0.43335395739273175,
                0.05889021601826361,
                -2.6290159498759618
            ]
        },
        {
            "positions": [
                0.32477623118793275,
                -1.692263947651289,
                1.6067117023283712,
                -0.4207712435343397,
                0.16912073252678717,
                -2.66378644334068
            ]
        },
        {
            "positions": [
                0.3753049939865807,
                -1.7271799318826822,
                1.753877608478092,
                -0.40818852967594765,
                0.2793512490353107,
                -2.6985569368053985
            ]
        },
        {
            "positions": [
                0.4258337567852286,
                -1.7620959161140752,
                1.9010435146278128,
                -0.39560581581755566,
                0.3895817655438347,
                -2.7333274302701165
            ]
        },
        {
            "positions": [
                0.4763625195838763,
                -1.7970119003454683,
                2.0482094207775345,
                -0.3830231019591636,
                0.4998122820523583,
                -2.7680979237348353
            ]
        },
        {
            "positions": [
                0.5268912823825243,
                -1.8319278845768612,
                2.1953753269272553,
                -0.3704403881007716,
                0.6100427985608823,
                -2.8028684171995533
            ]
        },
        {
            "positions": [
                0.5774200451811722,
                -1.8668438688082543,
                2.342541233076976,
                -0.3578576742423796,
                0.720273315069406,
                -2.8376389106642717
            ]
        },
        {
            "positions": [
                0.6424701691315422,
                -1.8861964900742532,
                2.3667761038499586,
                -0.40655930092190606,
                0.717053477220396,
                -2.9912085668055415
            ]
        },
        {
            "positions": [
                0.7075202930819121,
                -1.905549111340252,
                2.391010974622941,
                -0.45526092760143255,
                0.7138336393713861,
                -3.144778222946811
            ]
        }
    ]
}