{
    "goal": {
        "global_pose": {
            "orientation": {
                "w": 0.7047431493862688,
                "x": -0.7094548369677653,
                "y": 0.0024358444001904,
                "z": -0.0022348060817251984
            },
            "position": {
                "x": -0.39052492380142206,
                "y": 0.3671506643295288,
                "z": 0.19426114857196808
            }
        },
        "name": "move_to_magneteinheit_D"
    },
    "id": "BKPIECE_move_to_magneteinheit_D_136",
    "joint_names": [
        "shoulder_pan_joint",
        "shoulder_lift_joint",
        "elbow_joint",
        "wrist_1_joint",
        "wrist_2_joint",
        "wrist_3_joint"
    ],
    "metrics": {
        "cart_traj_len": 5.726154297848498,
        "distance_elbow_joint": 3.9231788502697937,
        "distance_shoulder_lift_joint": 2.138554480115104,
        "distance_shoulder_pan_joint": 6.688650612474442,
        "distance_wrist_1_joint": 6.657130268983675,
        "distance_wrist_2_joint": 2.3852343990766633,
        "distance_wrist_3_joint": 6.2384820585543395,
        "smoothness": 0.21440469258373546,
        "time": 0.8305626110000001,
        "traj_len": 5.294452820591944,
        "weighted_distance": 7.0392158266843206
    },
    "planner": "BKPIECE",
    "start": {
        "state": {
            "elbow_joint": 0.7495348899011973,
            "shoulder_lift_joint": -0.6476975780737697,
            "shoulder_pan_joint": -2.711696901376276,
            "wrist_1_joint": -0.07506478080974305,
            "wrist_2_joint": 0.4329665971545858,
            "wrist_3_joint": 3.1361499051832524
        }
    },
    "waypoints": [
        {
            "positions": [
                -2.711696901376276,
                -0.6476975780737697,
                0.7495348899011973,
                -0.07506478080974305,
                0.4329665971545858,
                3.1361499051832524
            ]
        },
        {
            "positions": [
                -2.716273346269637,
                -0.6456225942762603,
                0.7485753887997278,
                -0.02301652580707096,
                0.3671371717035017,
                3.003301162508043
            ]
        },
        {
            "positions": [
                -2.7052368904209767,
                -0.6504180063255541,
                0.7442811039943781,
                0.052598810887051345,
                0.27155177639129474,
                2.8270722050470445
            ]
        },
        {
            "positions": [
                -2.6942004345723163,
                -0.655213418374848,
                0.7399868191890283,
                0.12821414758117367,
                0.17596638107908777,
                2.6508432475860455
            ]
        },
        {
            "positions": [
                -2.683163978723656,
                -0.6600088304241418,
                0.7356925343836787,
                0.20382948427529596,
                0.08038098576688085,
                2.474614290125047
            ]
        },
        {
            "positions": [
                -2.6721275228749954,
                -0.6648042424734357,
                0.7313982495783289,
                0.27944482096941825,
                -0.015204409545326147,
                2.298385332664048
            ]
        },
        {
            "positions": [
                -2.661091067026335,
                -0.6695996545227295,
                0.7271039647729791,
                0.35506015766354054,
                -0.11078980485753309,
                2.1221563752030494
            ]
        },
        {
            "positions": [
                -2.650054611177675,
                -0.6743950665720234,
                0.7228096799676293,
                0.43067549435766284,
                -0.20637520016973998,
                1.9459274177420507
            ]
        },
        {
            "positions": [
                -2.6390181553290146,
                -0.6791904786213172,
                0.7185153951622796,
                0.5062908310517852,
                -0.301960595481947,
                1.769698460281052
            ]
        },
        {
            "positions": [
                -2.627981699480354,
                -0.6839858906706111,
                0.7142211103569298,
                0.5819061677459075,
                -0.397545990794154,
                1.5934695028200532
            ]
        },
        {
            "positions": [
                -2.616945243631694,
                -0.6887813027199049,
                0.7099268255515802,
                0.6575215044400299,
                -0.493131386106361,
                1.4172405453590542
            ]
        },
        {
            "positions": [
                -2.6059087877830334,
                -0.6935767147691987,
                0.7056325407462304,
                0.7331368411341521,
                -0.5887167814185679,
                1.2410115878980557
            ]
        },
        {
            "positions": [
                -2.594872331934373,
                -0.6983721268184926,
                0.7013382559408806,
                0.8087521778282745,
                -0.6843021767307749,
                1.064782630437057
            ]
        },
        {
            "positions": [
                -2.574681299547169,
                -0.7072613055513872,
                0.6941767106153494,
                0.8765259120905649,
                -0.7672292435380121,
                0.9133965014791663
            ]
        },
        {
            "positions": [
                -2.5544902671599647,
                -0.7161504842842819,
                0.687015165289818,
                0.9442996463528553,
                -0.8501563103452495,
                0.7620103725212758
            ]
        },
        {
            "positions": [
                -2.4996831966869015,
                -0.7452216007673487,
                0.6229651919545491,
                1.0343573896980616,
                -0.8865905870778603,
                0.6655399427495045
            ]
        },
        {
            "positions": [
                -2.4448761262138383,
                -0.7742927172504154,
                0.5589152186192803,
                1.1244151330432677,
                -0.9230248638104712,
                0.5690695129777332
            ]
        },
        {
            "positions": [
                -2.390069055740775,
                -0.8033638337334822,
                0.49486524528401143,
                1.214472876388474,
                -0.9594591405430821,
                0.4725990832059619
            ]
        },
        {
            "positions": [
                -2.3352619852677114,
                -0.832434950216549,
                0.4308152719487426,
                1.3045306197336801,
                -0.9958934172756929,
                0.3761286534341906
            ]
        },
        {
            "positions": [
                -2.2804549147946482,
                -0.8615060666996157,
                0.36676529861347373,
                1.3945883630788865,
                -1.0323276940083037,
                0.27965822366241927
            ]
        },
        {
            "positions": [
                -2.225647844321585,
                -0.8905771831826825,
                0.3027153252782049,
                1.4846461064240926,
                -1.0687619707409146,
                0.183187793890648
            ]
        },
        {
            "positions": [
                -2.0731692239906105,
                -0.9414681421009681,
                0.3178030907586935,
                1.5106790259225855,
                -1.0462308166669354,
                0.06646540628309643
            ]
        },
        {
            "positions": [
                -1.9206906036596363,
                -0.9923591010192536,
                0.3328908562391822,
                1.5367119454210787,
                -1.0236996625929562,
                -0.050256981324455136
            ]
        },
        {
            "positions": [
                -1.768211983328662,
                -1.0432500599375392,
                0.3479786217196708,
                1.5627448649195717,
                -1.001168508518977,
                -0.1669793689320067
            ]
        },
        {
            "positions": [
                -1.6157333629976875,
                -1.0941410188558247,
                0.36306638720015944,
                1.5887777844180648,
                -0.9786373544449978,
                -0.28370175653955826
            ]
        },
        {
            "positions": [
                -1.4632547426667133,
                -1.1450319777741103,
                0.3781541526806481,
                1.6148107039165578,
                -0.9561062003710186,
                -0.4004241441471098
            ]
        },
        {
            "positions": [
                -1.310776122335739,
                -1.1959229366923958,
                0.39324191816113674,
                1.640843623415051,
                -0.9335750462970394,
                -0.5171465317546614
            ]
        },
        {
            "positions": [
                -1.1582975020047646,
                -1.2468138956106813,
                0.40832968364162536,
                1.666876542913544,
                -0.9110438922230601,
                -0.633868919362213
            ]
        },
        {
            "positions": [
                -1.0058188816737903,
                -1.2977048545289669,
                0.423417449122114,
                1.6929094624120369,
                -0.8885127381490809,
                -0.7505913069697645
            ]
        },
        {
            "positions": [
                -0.853340261342816,
                -1.3485958134472524,
                0.4385052146026026,
                1.71894238191053,
                -0.8659815840751017,
                -0.867313694577316
            ]
        },
        {
            "positions": [
                -0.7008616410118416,
                -1.399486772365538,
                0.4535929800830913,
                1.7449753014090232,
                -0.8434504300011225,
                -0.9840360821848676
            ]
        },
        {
            "positions": [
                -0.5483830206808673,
                -1.4503777312838237,
                0.4686807455635799,
                1.7710082209075162,
                -0.8209192759271433,
                -1.100758469792419
            ]
        },
        {
            "positions": [
                -0.39590440034989305,
                -1.5012686902021093,
                0.4837685110440686,
                1.7970411404060092,
                -0.7983881218531641,
                -1.2174808573999707
            ]
        },
        {
            "positions": [
                -0.24342578001891857,
                -1.5521596491203948,
                0.4988562765245572,
                1.8230740599045023,
                -0.7758569677791849,
                -1.3342032450075223
            ]
        },
        {
            "positions": [
                -0.09094715968794409,
                -1.6030506080386804,
                0.5139440420050458,
                1.8491069794029953,
                -0.7533258137052057,
                -1.450925632615074
            ]
        },
        {
            "positions": [
                0.06153146064303039,
                -1.653941566956966,
                0.5290318074855345,
                1.8751398989014885,
                -0.7307946596312265,
                -1.5676480202226255
            ]
        },
        {
            "positions": [
                0.21401008097400442,
                -1.7048325258752515,
                0.5441195729660231,
                1.9011728183999814,
                -0.7082635055572473,
                -1.684370407830177
            ]
        },
        {
            "positions": [
                0.3664887013049789,
                -1.755723484793537,
                0.5592073384465117,
                1.9272057378984746,
                -0.685732351483268,
                -1.8010927954377287
            ]
        },
        {
            "positions": [
                0.5189673216359529,
                -1.8066144437118226,
                0.5742951039270003,
                1.9532386573969676,
                -0.6632011974092888,
                -1.9178151830452799
            ]
        },
        {
            "positions": [
                0.6714459419669279,
                -1.857505402630108,
                0.5893828694074891,
                1.9792715768954605,
                -0.6406700433353096,
                -2.034537570652832
            ]
        },
        {
            "positions": [
                0.8239245622979019,
                -1.9083963615483934,
                0.6044706348879777,
                2.0053044963939537,
                -0.6181388892613304,
                -2.151259958260383
            ]
        },
        {
            "positions": [
                0.9764031826288764,
                -1.9592873204666792,
                0.6195584003684663,
                2.031337415892447,
                -0.5956077351873512,
                -2.267982345867935
            ]
        },
        {
            "positions": [
                1.1288818029598504,
                -2.0101782793849647,
                0.634646165848955,
                2.0573703353909396,
                -0.573076581113372,
                -2.3847047334754863
            ]
        },
        {
            "positions": [
                1.281360423290825,
                -2.0610692383032503,
                0.6497339313294437,
                2.083403254889433,
                -0.5505454270393928,
                -2.501427121083038
            ]
        },
        {
            "positions": [
                1.433839043621799,
                -2.111960197221536,
                0.6648216968099323,
                2.109436174387926,
                -0.5280142729654136,
                -2.6181495086905895
            ]
        },
        {
            "positions": [
                1.5863176639527738,
                -2.1628511561398214,
                0.6799094622904209,
                2.135469093886419,
                -0.5054831188914344,
                -2.734871896298141
            ]
        },
        {
            "positions": [
                1.7387962842837479,
                -2.213742115058107,
                0.6949972277709096,
                2.161502013384912,
                -0.48295196481745517,
                -2.8515942839056927
            ]
        },
        {
            "positions": [
                1.891274904614722,
                -2.2646330739763925,
                0.7100849932513982,
                2.187534932883405,
                -0.46042081074347596,
                -2.9683166715132443
            ]
        },
        {
            "positions": [
                1.8143665373296582,
                -2.2454675548424126,
                0.5964187111153386,
                2.024774541946719,
                -0.45022952662556015,
                -2.97328020787835
            ]
        },
        {
            "positions": [
                1.7374581700445946,
                -2.226302035708432,
                0.4827524289792791,
                1.862014151010033,
                -0.4400382425076443,
                -2.9782437442434557
            ]
        },
        {
            "positions": [
                1.6605498027595311,
                -2.2071365165744523,
                0.36908614684321955,
                1.6992537600733468,
                -0.4298469583897285,
                -2.983207280608561
            ]
        },
        {
            "positions": [
                1.5836414354744675,
                -2.187970997440472,
                0.25541986470716005,
                1.536493369136661,
                -0.4196556742718126,
                -2.9881708169736667
            ]
        },
        {
            "positions": [
                1.5067330681894038,
                -2.168805478306492,
                0.1417535825711005,
                1.3737329781999748,
                -0.4094643901538968,
                -2.9931343533387724
            ]
        },
        {
            "positions": [
                1.4298247009043403,
                -2.149639959172512,
                0.02808730043504093,
                1.2109725872632886,
                -0.39927310603598093,
                -2.998097889703878
            ]
        },
        {
            "positions": [
                1.3529163336192767,
                -2.130474440038532,
                -0.08557898170101852,
                1.0482121963266025,
                -0.3890818219180651,
                -3.003061426068984
            ]
        },
        {
            "positions": [
                1.276007966334213,
                -2.111308920904552,
                -0.19924526383707808,
                0.8854518053899165,
                -0.37889053780014925,
                -3.0080249624340896
            ]
        },
        {
            "positions": [
                1.1990995990491493,
                -2.0921434017705716,
                -0.31291154597313753,
                0.7226914144532304,
                -0.36869925368223344,
                -3.012988498799195
            ]
        },
        {
            "positions": [
                1.1221912317640856,
                -2.0729778826365917,
                -0.4265778281091972,
                0.5599310235165442,
                -0.35850796956431763,
                -3.0179520351643006
            ]
        },
        {
            "positions": [
                1.045282864479022,
                -2.0538123635026118,
                -0.5402441102452566,
                0.3971706325798583,
                -0.34831668544640176,
                -3.0229155715294063
            ]
        },
        {
            "positions": [
                0.9683744971939585,
                -2.0346468443686314,
                -0.6539103923813163,
                0.23441024164317215,
                -0.33812540132848595,
                -3.027879107894512
            ]
        },
        {
            "positions": [
                0.8914661299088948,
                -2.0154813252346515,
                -0.7675766745173758,
                0.071649850706486,
                -0.3279341172105701,
                -3.0328426442596177
            ]
        },
        {
            "positions": [
                0.8145577626238312,
                -1.9963158061006714,
                -0.8812429566534352,
                -0.09111054023020015,
                -0.3177428330926543,
                -3.037806180624723
            ]
        },
        {
            "positions": [
                0.7376493953387675,
                -1.9771502869666913,
                -0.9949092387894949,
                -0.2538709311668863,
                -0.3075515489747384,
                -3.0427697169898287
            ]
        },
        {
            "positions": [
                0.660741028053704,
                -1.9579847678327114,
                -1.1085755209255543,
                -0.416631322103572,
                -0.2973602648568226,
                -3.0477332533549344
            ]
        },
        {
            "positions": [
                0.5838326607686404,
                -1.9388192486987312,
                -1.222241803061614,
                -0.5793917130402586,
                -0.28716898073890673,
                -3.05269678972004
            ]
        },
        {
            "positions": [
                0.5069242934835767,
                -1.919653729564751,
                -1.3359080851976732,
                -0.7421521039769443,
                -0.2769776966209909,
                -3.057660326085146
            ]
        },
        {
            "positions": [
                0.43001592619851303,
                -1.900488210430771,
                -1.449574367333733,
                -0.9049124949136305,
                -0.2667864125030751,
                -3.062623862450251
            ]
        },
        {
            "positions": [
                0.3531075589134496,
                -1.8813226912967909,
                -1.5632406494697926,
                -1.0676728858503166,
                -0.2565951283851593,
                -3.067587398815357
            ]
        },
        {
            "positions": [
                0.2761991916283859,
                -1.862157172162811,
                -1.6769069316058522,
                -1.2304332767870028,
                -0.2464038442672434,
                -3.0725509351804625
            ]
        },
        {
            "positions": [
                0.19929082434332224,
                -1.8429916530288308,
                -1.7905732137419115,
                -1.3931936677236885,
                -0.2362125601493276,
                -3.0775144715455682
            ]
        },
        {
            "positions": [
                0.12238245705825856,
                -1.8238261338948507,
                -1.9042394958779711,
                -1.555954058660375,
                -0.22602127603141173,
                -3.082478007910674
            ]
        },
        {
            "positions": [
                0.045474089773195114,
                -1.8046606147608708,
                -2.017905778014031,
                -1.7187144495970608,
                -0.21582999191349592,
                -3.0874415442757797
            ]
        },
        {
            "positions": [
                -0.03143427751186856,
                -1.7854950956268905,
                -2.1315720601500905,
                -1.881474840533747,
                -0.20563870779558008,
                -3.092405080640885
            ]
        },
        {
            "positions": [
                -0.10834264479693223,
                -1.7663295764929106,
                -2.2452383422861497,
                -2.044235231470433,
                -0.19544742367766427,
                -3.0973686170059906
            ]
        },
        {
            "positions": [
                -0.18525101208199593,
                -1.7471640573589304,
                -2.3589046244222094,
                -2.2069956224071197,
                -0.1852561395597484,
                -3.1023321533710964
            ]
        }
    ]
}