{
    "goal": {
        "global_pose": {
            "orientation": {
                "w": -0.4816463035849501,
                "x": 0.5182115481033762,
                "y": 0.4908360881923453,
                "z": -0.5084816262002911
            },
            "position": {
                "x": -0.8240239810943604,
                "y": -0.300875300988555,
                "z": 0.16403168439865112
            }
        },
        "name": "move_to_storage_C"
    },
    "id": "BKPIECE_move_to_storage_C_124",
    "joint_names": [
        "shoulder_pan_joint",
        "shoulder_lift_joint",
        "elbow_joint",
        "wrist_1_joint",
        "wrist_2_joint",
        "wrist_3_joint"
    ],
    "metrics": {
        "cart_traj_len": 0.576972010087212,
        "distance_elbow_joint": 0.2587517665492747,
        "distance_shoulder_lift_joint": 0.1894080535565007,
        "distance_shoulder_pan_joint": 0.4963034223991287,
        "distance_wrist_1_joint": 0.08197633356119294,
        "distance_wrist_2_joint": 1.0578551976480464,
        "distance_wrist_3_joint": 0.060720299449572135,
        "smoothness": 2.5376526478085547e-16,
        "time": 0.526383294,
        "traj_len": 1.4645869974718866,
        "weighted_distance": 1.8456129613957797
    },
    "planner": "BKPIECE",
    "start": {
        "state": {
            "elbow_joint": 2.010868315001653,
            "shoulder_lift_joint": -1.1634956873357014,
            "shoulder_pan_joint": -2.4736205022346103,
            "wrist_1_joint": -0.8367026794713948,
            "wrist_2_joint": 0.6746043897044093,
            "wrist_3_joint": 3.1335220948105738
        }
    },
    "waypoints": [
        {
            "positions": [
                -2.4736205022346103,
                -1.1634956873357014,
                2.010868315001653,
                -0.8367026794713948,
                0.6746043897044093,
                3.1335220948105738
            ]
        },
        {
            "positions": [
                -2.5563377393011315,
                -1.131927678409618,
                1.967743020576774,
                -0.8230399572111959,
                0.850913589312417,
                3.143642144718836
            ]
        },
        {
            "positions": [
                -2.639054976367653,
                -1.1003596694835345,
                1.9246177261518949,
                -0.8093772349509971,
                1.0272227889204246,
                3.153762194627098
            ]
        },
        {
            "positions": [
                -2.721772213434175,
                -1.068791660557451,
                1.8814924317270156,
                -0.7957145126907983,
                1.2035319885284324,
                3.16388224453536
            ]
        },
        {
            "positions": [
                -2.804489450500696,
                -1.0372236516313675,
                1.8383671373021366,
                -0.7820517904305995,
                1.37984118813644,
                3.1740022944436217
            ]
        },
        {
            "positions": [
                -2.8872066875672173,
                -1.005655642705284,
                1.7952418428772576,
                -0.7683890681704006,
                1.5561503877444478,
                3.184122344351884
            ]
        },
        {
            "positions": [
                -2.969923924633739,
                -0.9740876337792007,
                1.7521165484523784,
                -0.7547263459102018,
                1.7324595873524558,
                3.194242394260146
            ]
        }
    ]
}