{
    "goal": {
        "global_pose": {
            "orientation": {
                "w": 0.7047431468963623,
                "x": -0.7094548344612122,
                "y": 0.0024358443915843964,
                "z": -0.0022348060738295317
            },
            "position": {
                "x": 0.6094750761985779,
                "y": 0.3671506643295288,
                "z": 0.19426114857196808
            }
        },
        "name": "move_to_magneteinheit_A"
    },
    "id": "BKPIECE_move_to_magneteinheit_A_58",
    "joint_names": [
        "shoulder_pan_joint",
        "shoulder_lift_joint",
        "elbow_joint",
        "wrist_1_joint",
        "wrist_2_joint",
        "wrist_3_joint"
    ],
    "metrics": {
        "cart_traj_len": 1.0529287432267318,
        "distance_elbow_joint": 0.38247126902731976,
        "distance_shoulder_lift_joint": 0.3660489582371498,
        "distance_shoulder_pan_joint": 1.2408417018092968,
        "distance_wrist_1_joint": 2.207476587661145,
        "distance_wrist_2_joint": 1.6981551550149763,
        "distance_wrist_3_joint": 1.2234497713004382,
        "smoothness": 9.349246597189412e-17,
        "time": 0.38030952,
        "traj_len": 2.6680411246924822,
        "weighted_distance": 3.670282649650749
    },
    "planner": "BKPIECE",
    "start": {
        "state": {
            "elbow_joint": 1.5739458966750683,
            "shoulder_lift_joint": -1.4977259741207325,
            "shoulder_pan_joint": -1.1188672016454206,
            "wrist_1_joint": 1.494575848278785,
            "wrist_2_joint": -1.5706037134824402,
            "wrist_3_joint": -2.0226957942261072
        }
    },
    "waypoints": [
        {
            "positions": [
                -1.1188672016454206,
                -1.4977259741207325,
                1.5739458966750683,
                1.494575848278785,
                -1.5706037134824402,
                -2.0226957942261072
            ]
        },
        {
            "positions": [
                -1.0499315515449041,
                -1.4773899208853354,
                1.5951943005099194,
                1.371938260075388,
                -1.4762617604260526,
                -2.0906652259650205
            ]
        },
        {
            "positions": [
                -0.9809959014443876,
                -1.457053867649938,
                1.6164427043447704,
                1.2493006718719912,
                -1.381919807369665,
                -2.1586346577039337
            ]
        },
        {
            "positions": [
                -0.9120602513438711,
                -1.436717814414541,
                1.6376911081796217,
                1.1266630836685942,
                -1.2875778543132776,
                -2.226604089442847
            ]
        },
        {
            "positions": [
                -0.8431246012433546,
                -1.4163817611791436,
                1.6589395120144728,
                1.0040254954651973,
                -1.19323590125689,
                -2.29457352118176
            ]
        },
        {
            "positions": [
                -0.7741889511428381,
                -1.3960457079437465,
                1.6801879158493238,
                0.8813879072618003,
                -1.0988939482005025,
                -2.3625429529206734
            ]
        },
        {
            "positions": [
                -0.7052533010423218,
                -1.3757096547083492,
                1.7014363196841749,
                0.7587503190584034,
                -1.0045519951441149,
                -2.4305123846595866
            ]
        },
        {
            "positions": [
                -0.6363176509418051,
                -1.355373601472952,
                1.7226847235190261,
                0.6361127308550064,
                -0.9102100420877272,
                -2.4984818163985
            ]
        },
        {
            "positions": [
                -0.5673820008412888,
                -1.3350375482375547,
                1.7439331273538772,
                0.5134751426516095,
                -0.8158680890313397,
                -2.566451248137413
            ]
        },
        {
            "positions": [
                -0.49844635074077226,
                -1.3147014950021576,
                1.7651815311887282,
                0.39083755444821255,
                -0.7215261359749521,
                -2.6344206798763263
            ]
        },
        {
            "positions": [
                -0.42951070064025576,
                -1.2943654417667605,
                1.7864299350235793,
                0.26819996624481557,
                -0.6271841829185645,
                -2.7023901116152396
            ]
        },
        {
            "positions": [
                -0.36057505053973926,
                -1.2740293885313632,
                1.8076783388584303,
                0.14556237804141858,
                -0.5328422298621769,
                -2.770359543354153
            ]
        },
        {
            "positions": [
                -0.2916394004392229,
                -1.253693335295966,
                1.8289267426932816,
                0.02292478983802182,
                -0.4385002768057895,
                -2.838328975093066
            ]
        },
        {
            "positions": [
                -0.22270375033870637,
                -1.2333572820605687,
                1.8501751465281326,
                -0.09971279836537517,
                -0.3441583237494019,
                -2.9062984068319793
            ]
        },
        {
            "positions": [
                -0.15376810023818976,
                -1.2130212288251716,
                1.8714235503629837,
                -0.22235038656877215,
                -0.2498163706930141,
                -2.9742678385708925
            ]
        },
        {
            "positions": [
                -0.08483245013767338,
                -1.1926851755897743,
                1.892671954197835,
                -0.34498797477216914,
                -0.1554744176366265,
                -3.0422372703098057
            ]
        },
        {
            "positions": [
                -0.015896800037156877,
                -1.1723491223543772,
                1.9139203580326858,
                -0.4676255629755659,
                -0.06113246458023913,
                -3.110206702048719
            ]
        },
        {
            "positions": [
                0.05303885006335962,
                -1.15201306911898,
                1.935168761867537,
                -0.5902631511789627,
                0.03320948847614846,
                -3.178176133787632
            ]
        },
        {
            "positions": [
                0.12197450016387607,
                -1.1316770158835827,
                1.956417165702388,
                -0.71290073938236,
                0.12755144153253617,
                -3.2461455655265454
            ]
        }
    ]
}