{
    "goal": {
        "global_pose": {
            "orientation": {
                "w": 0.5084816217422485,
                "x": -0.49083608388900757,
                "y": 0.5182115435600281,
                "z": -0.4816462993621826
            },
            "position": {
                "x": 0.5540239810943604,
                "y": 0.030875300988554955,
                "z": 0.16403168439865112
            }
        },
        "name": "move_to_storage_A"
    },
    "id": "BKPIECE_move_to_storage_A_76",
    "joint_names": [
        "shoulder_pan_joint",
        "shoulder_lift_joint",
        "elbow_joint",
        "wrist_1_joint",
        "wrist_2_joint",
        "wrist_3_joint"
    ],
    "metrics": {
        "cart_traj_len": 0.35403412283342806,
        "distance_elbow_joint": 0.44773473525583674,
        "distance_shoulder_lift_joint": 0.23416322717918958,
        "distance_shoulder_pan_joint": 0.4597481939620079,
        "distance_wrist_1_joint": 0.23577273333531112,
        "distance_wrist_2_joint": 1.1138787877922525,
        "distance_wrist_3_joint": 0.10058806880265925,
        "smoothness": 1.5543122409985865e-15,
        "time": 1.323062748,
        "traj_len": 1.6099334602173028,
        "weighted_distance": 2.0353656686355257
    },
    "planner": "BKPIECE",
    "start": {
        "state": {
            "elbow_joint": 1.9715474177455299,
            "shoulder_lift_joint": -1.139484666580328,
            "shoulder_pan_joint": 0.12281154398918248,
            "wrist_1_joint": -0.7804687475355282,
            "wrist_2_joint": 0.12958649657246987,
            "wrist_3_joint": -3.1924925159053466
        }
    },
    "waypoints": [
        {
            "positions": [
                0.12281154398918248,
                -1.139484666580328,
                1.9715474177455299,
                -0.7804687475355282,
                0.12958649657246987,
                -3.1924925159053466
            ]
        },
        {
            "positions": [
                0.0571332305660385,
                -1.172936556177355,
                2.035509522782078,
                -0.8141505665834298,
                0.2887120376856488,
                -3.178122791790681
            ]
        },
        {
            "positions": [
                -0.00854508285710548,
                -1.206388445774382,
                2.0994716278186263,
                -0.8478323856313313,
                0.4478375787988278,
                -3.1637530676760153
            ]
        },
        {
            "positions": [
                -0.07422339628024946,
                -1.2398403353714091,
                2.1634337328551743,
                -0.8815142046792329,
                0.6069631199120067,
                -3.14938334356135
            ]
        },
        {
            "positions": [
                -0.13990170970339344,
                -1.2732922249684364,
                2.2273958378917222,
                -0.9151960237271346,
                0.7660886610251857,
                -3.135013619446684
            ]
        },
        {
            "positions": [
                -0.20558002312653745,
                -1.3067441145654635,
                2.29135794292827,
                -0.9488778427750362,
                0.9252142021383647,
                -3.1206438953320186
            ]
        },
        {
            "positions": [
                -0.2712583365496814,
                -1.3401960041624905,
                2.3553200479648186,
                -0.9825596618229377,
                1.0843397432515436,
                -3.1062741712173527
            ]
        },
        {
            "positions": [
                -0.3369366499728254,
                -1.3736478937595176,
                2.4192821530013666,
                -1.0162414808708393,
                1.2434652843647225,
                -3.0919044471026873
            ]
        }
    ]
}