{
    "goal": {
        "global_pose": {
            "orientation": {
                "w": -0.4816463035849501,
                "x": 0.5182115481033762,
                "y": 0.4908360881923453,
                "z": -0.5084816262002911
            },
            "position": {
                "x": -0.8240239810943604,
                "y": 0.19912469901144506,
                "z": 0.16403168439865112
            }
        },
        "name": "move_to_storage_D"
    },
    "id": "BKPIECE_move_to_storage_D_96",
    "joint_names": [
        "shoulder_pan_joint",
        "shoulder_lift_joint",
        "elbow_joint",
        "wrist_1_joint",
        "wrist_2_joint",
        "wrist_3_joint"
    ],
    "metrics": {
        "cart_traj_len": 3.996958502531345,
        "distance_elbow_joint": 4.211423893761289,
        "distance_shoulder_lift_joint": 1.2636583158933938,
        "distance_shoulder_pan_joint": 2.8129982734031582,
        "distance_wrist_1_joint": 2.848190446404737,
        "distance_wrist_2_joint": 1.4474569563507258,
        "distance_wrist_3_joint": 3.1386584921269316,
        "smoothness": 0.22555491032317476,
        "time": 0.452463002,
        "traj_len": 3.9651464510078616,
        "weighted_distance": 5.127899254563175
    },
    "planner": "BKPIECE",
    "start": {
        "state": {
            "elbow_joint": -2.384821997420982,
            "shoulder_lift_joint": -2.2788054674887404,
            "shoulder_pan_joint": -0.18546946417610016,
            "wrist_1_joint": 1.4845937964226739,
            "wrist_2_joint": 0.1789877726866377,
            "wrist_3_joint": 0.03710572555276528
        }
    },
    "waypoints": [
        {
            "positions": [
                -0.18546946417610016,
                -2.2788054674887404,
                -2.384821997420982,
                1.4845937964226739,
                0.1789877726866377,
                0.03710572555276528
            ]
        },
        {
            "positions": [
                -0.17565227512881249,
                -2.278393701088283,
                -2.375862732950518,
                1.4711106540629628,
                0.18451793747095596,
                0.042796466443838596
            ]
        },
        {
            "positions": [
                -0.10352750947796474,
                -2.251990060868733,
                -2.2605337834753447,
                1.3983005309189434,
                0.21758391657867926,
                -0.025453693277752154
            ]
        },
        {
            "positions": [
                -0.031402743827117,
                -2.2255864206491824,
                -2.1452048340001717,
                1.3254904077749237,
                0.25064989568640256,
                -0.0937038529993429
            ]
        },
        {
            "positions": [
                0.040722021823730775,
                -2.1991827804296324,
                -2.0298758845249982,
                1.2526802846309042,
                0.28371587479412586,
                -0.16195401272093368
            ]
        },
        {
            "positions": [
                0.11284678747457849,
                -2.172779140210082,
                -1.9145469350498248,
                1.1798701614868847,
                0.31678185390184915,
                -0.2302041724425244
            ]
        },
        {
            "positions": [
                0.18497155312542624,
                -2.146375499990532,
                -1.7992179855746513,
                1.107060038342865,
                0.34984783300957245,
                -0.29845433216411515
            ]
        },
        {
            "positions": [
                0.25709631877627404,
                -2.119971859770982,
                -1.683889036099478,
                1.0342499151988456,
                0.38291381211729575,
                -0.3667044918857059
            ]
        },
        {
            "positions": [
                0.3292210844271218,
                -2.0935682195514316,
                -1.5685600866243048,
                0.961439792054826,
                0.41597979122501905,
                -0.43495465160729674
            ]
        },
        {
            "positions": [
                0.40134585007796947,
                -2.0671645793318816,
                -1.4532311371491313,
                0.8886296689108065,
                0.44904577033274234,
                -0.5032048113288874
            ]
        },
        {
            "positions": [
                0.47347061572881727,
                -2.040760939112331,
                -1.337902187673958,
                0.815819545766787,
                0.48211174944046564,
                -0.5714549710504782
            ]
        },
        {
            "positions": [
                0.545595381379665,
                -2.014357298892781,
                -1.2225732381987846,
                0.7430094226227675,
                0.5151777285481889,
                -0.6397051307720689
            ]
        },
        {
            "positions": [
                0.6177201470305127,
                -1.987953658673231,
                -1.1072442887236114,
                0.6701992994787479,
                0.5482437076559122,
                -0.7079552904936597
            ]
        },
        {
            "positions": [
                0.6898449126813606,
                -1.9615500184536807,
                -0.9919153392484379,
                0.5973891763347283,
                0.5813096867636356,
                -0.7762054502152504
            ]
        },
        {
            "positions": [
                0.7619696783322083,
                -1.9351463782341307,
                -0.8765863897732644,
                0.5245790531907087,
                0.6143756658713588,
                -0.8444556099368413
            ]
        },
        {
            "positions": [
                0.834094443983056,
                -1.9087427380145805,
                -0.7612574402980912,
                0.45176893004668917,
                0.6474416449790822,
                -0.9127057696584321
            ]
        },
        {
            "positions": [
                0.9062192096339037,
                -1.8823390977950303,
                -0.6459284908229179,
                0.3789588069026697,
                0.6805076240868054,
                -0.9809559293800226
            ]
        },
        {
            "positions": [
                0.9783439752847514,
                -1.85593545757548,
                -0.5305995413477445,
                0.30614868375865023,
                0.7135736031945288,
                -1.0492060891016135
            ]
        },
        {
            "positions": [
                1.0504687409355993,
                -1.8295318173559298,
                -0.4152705918725712,
                0.23333856061463054,
                0.746639582302252,
                -1.1174562488232043
            ]
        },
        {
            "positions": [
                1.122593506586447,
                -1.8031281771363799,
                -0.29994164239739796,
                0.16052843747061107,
                0.7797055614099753,
                -1.185706408544795
            ]
        },
        {
            "positions": [
                1.1947182722372947,
                -1.7767245369168296,
                -0.18461269292222449,
                0.0877183143265916,
                0.8127715405176985,
                -1.2539565682663858
            ]
        },
        {
            "positions": [
                1.2668430378881423,
                -1.7503208966972794,
                -0.06928374344705102,
                0.01490819118257214,
                0.845837519625422,
                -1.3222067279879766
            ]
        },
        {
            "positions": [
                1.3389678035389903,
                -1.7239172564777294,
                0.04604520602812201,
                -0.05790193196144755,
                0.8789034987331452,
                -1.3904568877095673
            ]
        },
        {
            "positions": [
                1.411092569189838,
                -1.697513616258179,
                0.16137415550329548,
                -0.13071205510546702,
                0.9119694778408685,
                -1.458707047431158
            ]
        },
        {
            "positions": [
                1.4832173348406859,
                -1.671109976038629,
                0.27670310497846895,
                -0.2035221782494867,
                0.9450354569485919,
                -1.5269572071527489
            ]
        },
        {
            "positions": [
                1.5553421004915335,
                -1.6447063358190788,
                0.3920320544536424,
                -0.2763323013935062,
                0.9781014360563152,
                -1.5952073668743396
            ]
        },
        {
            "positions": [
                1.6274668661423812,
                -1.6183026955995286,
                0.5073610039288159,
                -0.34914242453752586,
                1.0111674151640384,
                -1.6634575265959304
            ]
        },
        {
            "positions": [
                1.6995916317932291,
                -1.5918990553799783,
                0.6226899534039894,
                -0.42195254768154533,
                1.0442333942717619,
                -1.7317076863175214
            ]
        },
        {
            "positions": [
                1.7717163974440768,
                -1.5654954151604281,
                0.7380189028791624,
                -0.494762670825565,
                1.0772993733794851,
                -1.7999578460391121
            ]
        },
        {
            "positions": [
                1.8438411630949245,
                -1.5390917749408781,
                0.8533478523543359,
                -0.5675727939695845,
                1.1103653524872084,
                -1.868208005760703
            ]
        },
        {
            "positions": [
                1.9159659287457722,
                -1.5126881347213277,
                0.9686768018295093,
                -0.640382917113604,
                1.1434313315949316,
                -1.9364581654822937
            ]
        },
        {
            "positions": [
                1.98809069439662,
                -1.4862844945017777,
                1.0840057513046824,
                -0.7131930402576234,
                1.1764973107026548,
                -2.0047083252038838
            ]
        },
        {
            "positions": [
                2.0602154600474676,
                -1.4598808542822277,
                1.1993347007798558,
                -0.7860031634016429,
                1.2095632898103783,
                -2.0729584849254747
            ]
        },
        {
            "positions": [
                2.1323402256983153,
                -1.4334772140626773,
                1.3146636502550293,
                -0.8588132865456624,
                1.2426292689181015,
                -2.1412086446470653
            ]
        },
        {
            "positions": [
                2.2044649913491634,
                -1.4070735738431273,
                1.4299925997302023,
                -0.9316234096896823,
                1.2756952480258248,
                -2.2094588043686563
            ]
        },
        {
            "positions": [
                2.276589757000011,
                -1.380669933623577,
                1.5453215492053758,
                -1.0044335328337017,
                1.3087612271335483,
                -2.277708964090247
            ]
        },
        {
            "positions": [
                2.348714522650859,
                -1.3542662934040268,
                1.6606504986805497,
                -1.0772436559777212,
                1.3418272062412715,
                -2.345959123811838
            ]
        },
        {
            "positions": [
                2.3951835704135584,
                -1.2977464364359135,
                1.6883090649571757,
                -1.0295181569769976,
                1.2943909524419228,
                -2.4699944839752015
            ]
        },
        {
            "positions": [
                2.4416526181762586,
                -1.2412265794678001,
                1.7159676312338017,
                -0.981792657976274,
                1.2469546986425741,
                -2.594029844138565
            ]
        },
        {
            "positions": [
                2.4881216659389587,
                -1.1847067224996866,
                1.7436261975104275,
                -0.9340671589755504,
                1.1995184448432255,
                -2.7180652043019284
            ]
        },
        {
            "positions": [
                2.5345907137016583,
                -1.1281868655315732,
                1.7712847637870535,
                -0.8863416599748268,
                1.1520821910438768,
                -2.842100564465292
            ]
        },
        {
            "positions": [
                2.581059761464358,
                -1.0716670085634599,
                1.7989433300636795,
                -0.8386161609741032,
                1.104645937244528,
                -2.966135924628656
            ]
        },
        {
            "positions": [
                2.627528809227058,
                -1.0151471515953465,
                1.8266018963403055,
                -0.7908906619733795,
                1.0572096834451794,
                -3.0901712847920195
            ]
        }
    ]
}