{
    "goal": {
        "global_pose": {
            "orientation": {
                "w": 0.5084816217422485,
                "x": -0.49083608388900757,
                "y": 0.5182115435600281,
                "z": -0.4816462993621826
            },
            "position": {
                "x": 0.5540239810943604,
                "y": 0.030875300988554955,
                "z": 0.16403168439865112
            }
        },
        "name": "move_to_storage_A"
    },
    "id": "BKPIECE_move_to_storage_A_82",
    "joint_names": [
        "shoulder_pan_joint",
        "shoulder_lift_joint",
        "elbow_joint",
        "wrist_1_joint",
        "wrist_2_joint",
        "wrist_3_joint"
    ],
    "metrics": {
        "cart_traj_len": 0.3522416056966282,
        "distance_elbow_joint": 0.44778185860557373,
        "distance_shoulder_lift_joint": 0.2353014842172112,
        "distance_shoulder_pan_joint": 0.4587803679878057,
        "distance_wrist_1_joint": 0.2341397520071703,
        "distance_wrist_2_joint": 1.1051736609658138,
        "distance_wrist_3_joint": 0.09647078912820106,
        "smoothness": 8.881784267329941e-16,
        "time": 1.035968507,
        "traj_len": 1.6055055007416748,
        "weighted_distance": 2.0272895462023084
    },
    "planner": "BKPIECE",
    "start": {
        "state": {
            "elbow_joint": 1.9715474177455299,
            "shoulder_lift_joint": -1.139484666580328,
            "shoulder_pan_joint": 0.12281154398918248,
            "wrist_1_joint": -0.7804687475355282,
            "wrist_2_joint": 0.12958649657246987,
            "wrist_3_joint": -3.1924925159053466
        }
    },
    "waypoints": [
        {
            "positions": [
                0.12281154398918248,
                -1.139484666580328,
                1.9715474177455299,
                -0.7804687475355282,
                0.12958649657246987,
                -3.1924925159053466
            ]
        },
        {
            "positions": [
                0.05727149141949596,
                -1.1730991643256439,
                2.0355162546891834,
                -0.8139172835365526,
                0.28746844813901473,
                -3.178710974601318
            ]
        },
        {
            "positions": [
                -0.008268561150190562,
                -1.2067136620709598,
                2.0994850916328365,
                -0.8473658195375768,
                0.44535039970555956,
                -3.164929433297289
            ]
        },
        {
            "positions": [
                -0.0738086137198771,
                -1.2403281598162756,
                2.16345392857649,
                -0.8808143555386012,
                0.6032323512721044,
                -3.1511478919932605
            ]
        },
        {
            "positions": [
                -0.1393486662895636,
                -1.2739426575615915,
                2.2274227655201435,
                -0.9142628915396255,
                0.7611143028386492,
                -3.1373663506892315
            ]
        },
        {
            "positions": [
                -0.20488871885925014,
                -1.3075571553069074,
                2.291391602463797,
                -0.9477114275406499,
                0.9189962544051941,
                -3.123584809385203
            ]
        },
        {
            "positions": [
                -0.2704287714289367,
                -1.3411716530522233,
                2.35536043940745,
                -0.9811599635416741,
                1.0768782059717388,
                -3.109803268081174
            ]
        },
        {
            "positions": [
                -0.3359688239986232,
                -1.3747861507975392,
                2.4193292763511036,
                -1.0146084995426985,
                1.2347601575382836,
                -3.0960217267771455
            ]
        }
    ]
}