{
    "goal": {
        "global_pose": {
            "orientation": {
                "w": 0.5084816217422485,
                "x": -0.49083608388900757,
                "y": 0.5182115435600281,
                "z": -0.4816462993621826
            },
            "position": {
                "x": 0.5540239810943604,
                "y": 0.030875300988554955,
                "z": 0.16403168439865112
            }
        },
        "name": "move_to_storage_A"
    },
    "id": "BKPIECE_move_to_storage_A_97",
    "joint_names": [
        "shoulder_pan_joint",
        "shoulder_lift_joint",
        "elbow_joint",
        "wrist_1_joint",
        "wrist_2_joint",
        "wrist_3_joint"
    ],
    "metrics": {
        "cart_traj_len": 0.3529866301844458,
        "distance_elbow_joint": 0.4489805564672684,
        "distance_shoulder_lift_joint": 0.23372130980324335,
        "distance_shoulder_pan_joint": 0.4607670318350195,
        "distance_wrist_1_joint": 0.24482386413301083,
        "distance_wrist_2_joint": 1.1012087756125442,
        "distance_wrist_3_joint": 0.09497245397919674,
        "smoothness": 4.440892133664971e-16,
        "time": 0.269387883,
        "traj_len": 1.6076299299995267,
        "weighted_distance": 2.029889538751858
    },
    "planner": "BKPIECE",
    "start": {
        "state": {
            "elbow_joint": 1.9715474177455299,
            "shoulder_lift_joint": -1.139484666580328,
            "shoulder_pan_joint": 0.12281154398918248,
            "wrist_1_joint": -0.7804687475355282,
            "wrist_2_joint": 0.12958649657246987,
            "wrist_3_joint": -3.1924925159053466
        }
    },
    "waypoints": [
        {
            "positions": [
                0.12281154398918248,
                -1.139484666580328,
                1.9715474177455299,
                -0.7804687475355282,
                0.12958649657246987,
                -3.1924925159053466
            ]
        },
        {
            "positions": [
                0.05698768229846542,
                -1.1728734251236486,
                2.035687497240854,
                -0.8154435852688154,
                0.2869020359456905,
                -3.178925022479747
            ]
        },
        {
            "positions": [
                -0.008836179392251647,
                -1.206262183666969,
                2.099827576736178,
                -0.8504184230021027,
                0.44421757531891115,
                -3.1653575290541474
            ]
        },
        {
            "positions": [
                -0.07466004108296873,
                -1.2396509422102895,
                2.163967656231502,
                -0.8853932607353899,
                0.6015331146921318,
                -3.1517900356285478
            ]
        },
        {
            "positions": [
                -0.14048390277368578,
                -1.2730397007536098,
                2.228107735726826,
                -0.9203680984686773,
                0.7588486540653524,
                -3.1382225422029486
            ]
        },
        {
            "positions": [
                -0.20630776446440285,
                -1.3064284592969304,
                2.2922478152221504,
                -0.9553429362019645,
                0.916164193438573,
                -3.124655048777349
            ]
        },
        {
            "positions": [
                -0.27213162615511993,
                -1.3398172178402508,
                2.356387894717474,
                -0.9903177739352518,
                1.0734797328117935,
                -3.1110875553517494
            ]
        },
        {
            "positions": [
                -0.337955487845837,
                -1.3732059763835713,
                2.4205279742127983,
                -1.025292611668539,
                1.2307952721850142,
                -3.09752006192615
            ]
        }
    ]
}