{
    "goal": {
        "global_pose": {
            "orientation": {
                "w": 0.005598929693374612,
                "x": 0.007748599140229565,
                "y": 0.7110244013736278,
                "z": -0.7031023480610252
            },
            "position": {
                "x": 0.1141497679147869,
                "y": -0.7141253447532654,
                "z": 0.3711530566215515
            }
        },
        "name": "move_to_auspresseinheit_B"
    },
    "id": "BKPIECE_move_to_auspresseinheit_B_110",
    "joint_names": [
        "shoulder_pan_joint",
        "shoulder_lift_joint",
        "elbow_joint",
        "wrist_1_joint",
        "wrist_2_joint",
        "wrist_3_joint"
    ],
    "metrics": {
        "cart_traj_len": 0.56536512173499,
        "distance_elbow_joint": 0.0609602644189462,
        "distance_shoulder_lift_joint": 0.29575766583055274,
        "distance_shoulder_pan_joint": 0.5774908283575497,
        "distance_wrist_1_joint": 0.31738851864046014,
        "distance_wrist_2_joint": 0.9932603661884016,
        "distance_wrist_3_joint": 0.005302840058663882,
        "smoothness": 5.075305295617109e-16,
        "time": 0.182765805,
        "traj_len": 1.5000534935443384,
        "weighted_distance": 1.8898187871964771
    },
    "planner": "BKPIECE",
    "start": {
        "state": {
            "elbow_joint": 2.019306165916698,
            "shoulder_lift_joint": -1.1220205098164344,
            "shoulder_pan_joint": -1.095207207618794,
            "wrist_1_joint": -0.8559671824921639,
            "wrist_2_joint": 0.47596387242952726,
            "wrist_3_joint": 3.159081874673826
        }
    },
    "waypoints": [
        {
            "positions": [
                -1.095207207618794,
                -1.1220205098164344,
                2.019306165916698,
                -0.8559671824921639,
                0.47596387242952726,
                3.159081874673826
            ]
        },
        {
            "positions": [
                -1.191455679011719,
                -1.1713134541215267,
                2.009146121846874,
                -0.8030690960520872,
                0.6415072667942608,
                3.158198067997382
            ]
        },
        {
            "positions": [
                -1.2877041504046438,
                -1.2206063984266187,
                1.9989860777770492,
                -0.7501710096120104,
                0.8070506611589945,
                3.1573142613209377
            ]
        },
        {
            "positions": [
                -1.3839526217975688,
                -1.2698993427317107,
                1.988826033707225,
                -0.6972729231719338,
                0.972594055523728,
                3.156430454644494
            ]
        },
        {
            "positions": [
                -1.4802010931904936,
                -1.319192287036803,
                1.9786659896374006,
                -0.6443748367318571,
                1.1381374498884615,
                3.15554664796805
            ]
        },
        {
            "positions": [
                -1.576449564583419,
                -1.3684852313418951,
                1.9685059455675762,
                -0.5914767502917804,
                1.3036808442531953,
                3.154662841291606
            ]
        },
        {
            "positions": [
                -1.6726980359763437,
                -1.4177781756469872,
                1.9583459014977518,
                -0.5385786638517037,
                1.4692242386179288,
                3.153779034615162
            ]
        }
    ]
}