{
    "goal": {
        "global_pose": {
            "orientation": {
                "w": 0.5084816217422485,
                "x": -0.49083608388900757,
                "y": 0.5182115435600281,
                "z": -0.4816462993621826
            },
            "position": {
                "x": 0.5540239810943604,
                "y": 0.030875300988554955,
                "z": 0.16403168439865112
            }
        },
        "name": "move_to_storage_A"
    },
    "id": "BKPIECE_move_to_storage_A_15",
    "joint_names": [
        "shoulder_pan_joint",
        "shoulder_lift_joint",
        "elbow_joint",
        "wrist_1_joint",
        "wrist_2_joint",
        "wrist_3_joint"
    ],
    "metrics": {
        "cart_traj_len": 0.35329523683490993,
        "distance_elbow_joint": 0.4501688421809473,
        "distance_shoulder_lift_joint": 0.23263471701972982,
        "distance_shoulder_pan_joint": 0.46193409470026303,
        "distance_wrist_1_joint": 0.24877386790678624,
        "distance_wrist_2_joint": 1.0983382493882798,
        "distance_wrist_3_joint": 0.10258123489949122,
        "smoothness": 1.3322676295501878e-15,
        "time": 0.347947782,
        "traj_len": 1.610723752260299,
        "weighted_distance": 2.0363461378629975
    },
    "planner": "BKPIECE",
    "start": {
        "state": {
            "elbow_joint": 1.9715474177455299,
            "shoulder_lift_joint": -1.139484666580328,
            "shoulder_pan_joint": 0.12281154398918248,
            "wrist_1_joint": -0.7804687475355282,
            "wrist_2_joint": 0.12958649657246987,
            "wrist_3_joint": -3.1924925159053466
        }
    },
    "waypoints": [
        {
            "positions": [
                0.12281154398918248,
                -1.139484666580328,
                1.9715474177455299,
                -0.7804687475355282,
                0.12958649657246987,
                -3.1924925159053466
            ]
        },
        {
            "positions": [
                0.05682095903200206,
                -1.1727181975831464,
                2.035857252342808,
                -0.816007871522212,
                0.2864919607707956,
                -3.177838053776848
            ]
        },
        {
            "positions": [
                -0.009169625925178365,
                -1.205951728585965,
                2.100167086940086,
                -0.8515469955088957,
                0.44339742496912127,
                -3.163183591648349
            ]
        },
        {
            "positions": [
                -0.0751602108823588,
                -1.2391852595887836,
                2.1644769215373643,
                -0.8870861194955795,
                0.600302889167447,
                -3.1485291295198503
            ]
        },
        {
            "positions": [
                -0.1411507958395392,
                -1.2724187905916022,
                2.2287867561346424,
                -0.9226252434822632,
                0.7572083533657727,
                -3.1338746673913516
            ]
        },
        {
            "positions": [
                -0.20714138079671968,
                -1.3056523215944207,
                2.293096590731921,
                -0.958164367468947,
                0.9141138175640985,
                -3.119220205262853
            ]
        },
        {
            "positions": [
                -0.2731319657539001,
                -1.3388858525972394,
                2.357406425329199,
                -0.9937034914556306,
                1.0710192817624242,
                -3.104565743134354
            ]
        },
        {
            "positions": [
                -0.33912255071108055,
                -1.3721193836000578,
                2.421716259926477,
                -1.0292426154423144,
                1.2279247459607499,
                -3.0899112810058553
            ]
        }
    ]
}