{
    "goal": {
        "global_pose": {
            "orientation": {
                "w": 0.005598929693374612,
                "x": 0.007748599140229565,
                "y": 0.7110244013736278,
                "z": -0.7031023480610252
            },
            "position": {
                "x": 0.1141497679147869,
                "y": -0.7141253447532654,
                "z": 0.3711530566215515
            }
        },
        "name": "move_to_auspresseinheit_B"
    },
    "id": "BKPIECE_move_to_auspresseinheit_B_27",
    "joint_names": [
        "shoulder_pan_joint",
        "shoulder_lift_joint",
        "elbow_joint",
        "wrist_1_joint",
        "wrist_2_joint",
        "wrist_3_joint"
    ],
    "metrics": {
        "cart_traj_len": 0.5641966619047041,
        "distance_elbow_joint": 0.06067897795768684,
        "distance_shoulder_lift_joint": 0.2949898308811667,
        "distance_shoulder_pan_joint": 0.5755680268529342,
        "distance_wrist_1_joint": 0.3168036359077647,
        "distance_wrist_2_joint": 0.9962617256228443,
        "distance_wrist_3_joint": 0.007594093859025097,
        "smoothness": 2.5376526478085547e-16,
        "time": 1.328065119,
        "traj_len": 1.5006319639010166,
        "weighted_distance": 1.8921283889657383
    },
    "planner": "BKPIECE",
    "start": {
        "state": {
            "elbow_joint": 2.019306165916698,
            "shoulder_lift_joint": -1.1220205098164344,
            "shoulder_pan_joint": -1.095207207618794,
            "wrist_1_joint": -0.8559671824921639,
            "wrist_2_joint": 0.47596387242952726,
            "wrist_3_joint": 3.159081874673826
        }
    },
    "waypoints": [
        {
            "positions": [
                -1.095207207618794,
                -1.1220205098164344,
                2.019306165916698,
                -0.8559671824921639,
                0.47596387242952726,
                3.159081874673826
            ]
        },
        {
            "positions": [
                -1.191135212094283,
                -1.1711854816299623,
                2.0091930029237504,
                -0.8031665765075364,
                0.642007493366668,
                3.1578161923639883
            ]
        },
        {
            "positions": [
                -1.287063216569772,
                -1.22035045344349,
                1.9990798399308023,
                -0.750365970522909,
                0.8080511143038087,
                3.1565505100541507
            ]
        },
        {
            "positions": [
                -1.382991221045261,
                -1.2695154252570178,
                1.9889666769378547,
                -0.6975653645382816,
                0.9740947352409495,
                3.155284827744313
            ]
        },
        {
            "positions": [
                -1.47891922552075,
                -1.3186803970705456,
                1.9788535139449068,
                -0.644764758553654,
                1.14013835617809,
                3.154019145434476
            ]
        },
        {
            "positions": [
                -1.574847229996239,
                -1.3678453688840733,
                1.968740350951959,
                -0.5919641525690266,
                1.306181977115231,
                3.1527534631246383
            ]
        },
        {
            "positions": [
                -1.6707752344717282,
                -1.4170103406976011,
                1.9586271879590111,
                -0.5391635465843991,
                1.4722255980523715,
                3.1514877808148007
            ]
        }
    ]
}