{
    "goal": {
        "global_pose": {
            "orientation": {
                "w": -0.4816463035849501,
                "x": 0.5182115481033762,
                "y": 0.4908360881923453,
                "z": -0.5084816262002911
            },
            "position": {
                "x": -0.8240239810943604,
                "y": -0.300875300988555,
                "z": 0.16403168439865112
            }
        },
        "name": "move_to_storage_C"
    },
    "id": "BKPIECE_move_to_storage_C_94",
    "joint_names": [
        "shoulder_pan_joint",
        "shoulder_lift_joint",
        "elbow_joint",
        "wrist_1_joint",
        "wrist_2_joint",
        "wrist_3_joint"
    ],
    "metrics": {
        "cart_traj_len": 0.5758816253309137,
        "distance_elbow_joint": 0.2553657858666103,
        "distance_shoulder_lift_joint": 0.18889538586220045,
        "distance_shoulder_pan_joint": 0.49388176467585954,
        "distance_wrist_1_joint": 0.06818906334195529,
        "distance_wrist_2_joint": 1.0679911108662172,
        "distance_wrist_3_joint": 0.05734745829255061,
        "smoothness": 2.5376526478085547e-16,
        "time": 1.104729821,
        "traj_len": 1.4600241672333352,
        "weighted_distance": 1.8391698289442078
    },
    "planner": "BKPIECE",
    "start": {
        "state": {
            "elbow_joint": 2.010868315001653,
            "shoulder_lift_joint": -1.1634956873357014,
            "shoulder_pan_joint": -2.4736205022346103,
            "wrist_1_joint": -0.8367026794713948,
            "wrist_2_joint": 0.6746043897044093,
            "wrist_3_joint": 3.1335220948105738
        }
    },
    "waypoints": [
        {
            "positions": [
                -2.4736205022346103,
                -1.1634956873357014,
                2.010868315001653,
                -0.8367026794713948,
                0.6746043897044093,
                3.1335220948105738
            ]
        },
        {
            "positions": [
                -2.555934129680587,
                -1.1320131230253347,
                1.9683073506905513,
                -0.8253378355810689,
                0.8526029081821122,
                3.143080004525999
            ]
        },
        {
            "positions": [
                -2.6382477571265635,
                -1.1005305587149679,
                1.9257463863794497,
                -0.813972991690743,
                1.030601426659815,
                3.152637914241424
            ]
        },
        {
            "positions": [
                -2.72056138457254,
                -1.0690479944046012,
                1.883185422068348,
                -0.8026081478004171,
                1.208599945137518,
                3.162195823956849
            ]
        },
        {
            "positions": [
                -2.8028750120185166,
                -1.0375654300942345,
                1.8406244577572461,
                -0.7912433039100912,
                1.3865984636152207,
                3.1717537336722743
            ]
        },
        {
            "positions": [
                -2.885188639464493,
                -1.0060828657838676,
                1.7980634934461446,
                -0.7798784600197654,
                1.5645969820929237,
                3.181311643387699
            ]
        },
        {
            "positions": [
                -2.96750226691047,
                -0.974600301473501,
                1.7555025291350428,
                -0.7685136161294395,
                1.7425955005706264,
                3.1908695531031244
            ]
        }
    ]
}