{
    "goal": {
        "global_pose": {
            "orientation": {
                "w": 0.005598929693374612,
                "x": 0.007748599140229565,
                "y": 0.7110244013736278,
                "z": -0.7031023480610252
            },
            "position": {
                "x": 0.1141497679147869,
                "y": -0.7141253447532654,
                "z": 0.3711530566215515
            }
        },
        "name": "move_to_auspresseinheit_B"
    },
    "id": "BKPIECE_move_to_auspresseinheit_B_12",
    "joint_names": [
        "shoulder_pan_joint",
        "shoulder_lift_joint",
        "elbow_joint",
        "wrist_1_joint",
        "wrist_2_joint",
        "wrist_3_joint"
    ],
    "metrics": {
        "cart_traj_len": 0.5649887391791114,
        "distance_elbow_joint": 0.061673562705716334,
        "distance_shoulder_lift_joint": 0.2946221480773008,
        "distance_shoulder_pan_joint": 0.5754846770020368,
        "distance_wrist_1_joint": 0.3166459244877686,
        "distance_wrist_2_joint": 0.9998877031674878,
        "distance_wrist_3_joint": 0.004739263484139666,
        "smoothness": 0.0,
        "time": 0.673520585,
        "traj_len": 1.5010174145973292,
        "weighted_distance": 1.891841809863601
    },
    "planner": "BKPIECE",
    "start": {
        "state": {
            "elbow_joint": 2.019306165916698,
            "shoulder_lift_joint": -1.1220205098164344,
            "shoulder_pan_joint": -1.095207207618794,
            "wrist_1_joint": -0.8559671824921639,
            "wrist_2_joint": 0.47596387242952726,
            "wrist_3_joint": 3.159081874673826
        }
    },
    "waypoints": [
        {
            "positions": [
                -1.095207207618794,
                -1.1220205098164344,
                2.019306165916698,
                -0.8559671824921639,
                0.47596387242952726,
                3.159081874673826
            ]
        },
        {
            "positions": [
                -1.1911213204524667,
                -1.1711242011626513,
                2.0090272387990784,
                -0.8031928617442025,
                0.6426118229574419,
                3.158291997426469
            ]
        },
        {
            "positions": [
                -1.2870354332861396,
                -1.220227892508868,
                1.9987483116814593,
                -0.750418540996241,
                0.8092597734853565,
                3.1575021201791125
            ]
        },
        {
            "positions": [
                -1.3829495461198125,
                -1.269331583855085,
                1.9884693845638397,
                -0.6976442202482795,
                0.9759077240132712,
                3.1567122429317562
            ]
        },
        {
            "positions": [
                -1.4788636589534851,
                -1.3184352752013015,
                1.9781904574462204,
                -0.6448698995003181,
                1.1425556745411858,
                3.1559223656843995
            ]
        },
        {
            "positions": [
                -1.5747777717871578,
                -1.3675389665475184,
                1.967911530328601,
                -0.5920955787523566,
                1.3092036250691004,
                3.155132488437043
            ]
        },
        {
            "positions": [
                -1.6706918846208307,
                -1.4166426578937352,
                1.9576326032109816,
                -0.5393212580043952,
                1.475851575597015,
                3.154342611189686
            ]
        }
    ]
}