{
    "goal": {
        "global_pose": {
            "orientation": {
                "w": 0.7031023502349854,
                "x": -0.7110244035720825,
                "y": 0.007748599164187908,
                "z": 0.005598929710686207
            },
            "position": {
                "x": 0.11585023208521307,
                "y": 0.44412534475326537,
                "z": 0.3711530566215515
            }
        },
        "name": "move_to_auspresseinheit_A"
    },
    "id": "BKPIECE_move_to_auspresseinheit_A_131",
    "joint_names": [
        "shoulder_pan_joint",
        "shoulder_lift_joint",
        "elbow_joint",
        "wrist_1_joint",
        "wrist_2_joint",
        "wrist_3_joint"
    ],
    "metrics": {
        "cart_traj_len": 1.502559956129383,
        "distance_elbow_joint": 1.1500497307930742,
        "distance_shoulder_lift_joint": 0.9154659681889581,
        "distance_shoulder_pan_joint": 1.3013220823325824,
        "distance_wrist_1_joint": 1.4583960276500427,
        "distance_wrist_2_joint": 0.7121078971387987,
        "distance_wrist_3_joint": 2.4715107687484816,
        "smoothness": 0.4768233233239034,
        "time": 1.2730475650000002,
        "traj_len": 2.829991603318274,
        "weighted_distance": 3.8887501767454467
    },
    "planner": "BKPIECE",
    "start": {
        "state": {
            "elbow_joint": 2.4225747245308327,
            "shoulder_lift_joint": -1.373653427065438,
            "shoulder_pan_joint": -0.33786330853087027,
            "wrist_1_joint": -1.0288602302712604,
            "wrist_2_joint": 1.23302299562683,
            "wrist_3_joint": -3.094021725338297
        }
    },
    "waypoints": [
        {
            "positions": [
                -0.33786330853087027,
                -1.373653427065438,
                2.4225747245308327,
                -1.0288602302712604,
                1.23302299562683,
                -3.094021725338297
            ]
        },
        {
            "positions": [
                -0.29393189692710225,
                -1.413964720048399,
                2.3570364934927706,
                -0.9600456901004243,
                1.1912592951559033,
                -2.9628342230428917
            ]
        },
        {
            "positions": [
                -0.25000048532333424,
                -1.45427601303136,
                2.2914982624547084,
                -0.8912311499295882,
                1.1494955946849765,
                -2.8316467207474867
            ]
        },
        {
            "positions": [
                -0.2060690737195662,
                -1.4945873060143207,
                2.2259600314166468,
                -0.8224166097587522,
                1.10773189421405,
                -2.7004592184520813
            ]
        },
        {
            "positions": [
                -0.1621376621157982,
                -1.5348985989972816,
                2.1604218003785847,
                -0.753602069587916,
                1.0659681937431231,
                -2.569271716156676
            ]
        },
        {
            "positions": [
                -0.11820625051203013,
                -1.5752098919802426,
                2.0948835693405226,
                -0.68478752941708,
                1.0242044932721965,
                -2.438084213861271
            ]
        },
        {
            "positions": [
                -0.07427483890826214,
                -1.6155211849632036,
                2.0293453383024604,
                -0.6159729892462439,
                0.9824407928012698,
                -2.306896711565866
            ]
        },
        {
            "positions": [
                -0.030343427304494075,
                -1.6558324779461646,
                1.9638071072643986,
                -0.5471584490754078,
                0.9406770923303431,
                -2.1757092092704604
            ]
        },
        {
            "positions": [
                0.01358798429927388,
                -1.6961437709291254,
                1.8982688762263367,
                -0.4783439089045717,
                0.8989133918594164,
                -2.044521706975055
            ]
        },
        {
            "positions": [
                0.057519395903041934,
                -1.7364550639120864,
                1.8327306451882746,
                -0.4095293687337356,
                0.8571496913884897,
                -1.9133342046796498
            ]
        },
        {
            "positions": [
                0.20344953820135842,
                -1.8090737153270104,
                1.8579591531601278,
                -0.3307883114512892,
                0.8086581055258136,
                -1.9064262546274284
            ]
        },
        {
            "positions": [
                0.3493796804996749,
                -1.8816923667419345,
                1.8831876611319809,
                -0.25204725416884277,
                0.7601665196631376,
                -1.899518304575207
            ]
        },
        {
            "positions": [
                0.49530982279799135,
                -1.9543110181568588,
                1.9084161691038342,
                -0.17330619688639642,
                0.7116749338004615,
                -1.8926103545229855
            ]
        },
        {
            "positions": [
                0.6412399650963078,
                -2.026929669571783,
                1.9336446770756872,
                -0.09456513960394997,
                0.6631833479377856,
                -1.8857024044707642
            ]
        },
        {
            "positions": [
                0.7871701073946242,
                -2.099548320986707,
                1.9588731850475405,
                -0.01582408232150362,
                0.6146917620751094,
                -1.8787944544185429
            ]
        },
        {
            "positions": [
                0.7990504395336159,
                -2.096287581236621,
                2.0576846759595497,
                -0.07396608596058857,
                0.6308973645867926,
                -2.0801359523201155
            ]
        },
        {
            "positions": [
                0.8109307716726075,
                -2.0930268414865347,
                2.156496166871559,
                -0.13210808959967352,
                0.6471029670984756,
                -2.2814774502216877
            ]
        },
        {
            "positions": [
                0.822811103811599,
                -2.0897661017364486,
                2.2553076577835682,
                -0.19025009323875847,
                0.6633085696101587,
                -2.48281894812326
            ]
        },
        {
            "positions": [
                0.8346914359505907,
                -2.0865053619863625,
                2.3541191486955775,
                -0.24839209687784342,
                0.6795141721218418,
                -2.6841604460248325
            ]
        },
        {
            "positions": [
                0.7917689900002169,
                -2.0276626568972476,
                2.367058198009982,
                -0.31932271859249206,
                0.6891655899686238,
                -2.8344662814323116
            ]
        },
        {
            "positions": [
                0.7488465440498432,
                -1.9688199518081329,
                2.3799972473243862,
                -0.39025334030714076,
                0.6988170078154058,
                -2.984772116839791
            ]
        },
        {
            "positions": [
                0.7059240980994694,
                -1.909977246719018,
                2.3929362966387906,
                -0.46118396202178946,
                0.7084684256621877,
                -3.1350779522472703
            ]
        }
    ]
}