{
    "goal": {
        "global_pose": {
            "orientation": {
                "w": 0.5084816217422485,
                "x": -0.49083608388900757,
                "y": 0.5182115435600281,
                "z": -0.4816462993621826
            },
            "position": {
                "x": 0.5540239810943604,
                "y": 0.030875300988554955,
                "z": 0.16403168439865112
            }
        },
        "name": "move_to_storage_A"
    },
    "id": "BKPIECE_move_to_storage_A_149",
    "joint_names": [
        "shoulder_pan_joint",
        "shoulder_lift_joint",
        "elbow_joint",
        "wrist_1_joint",
        "wrist_2_joint",
        "wrist_3_joint"
    ],
    "metrics": {
        "cart_traj_len": 0.3528673977061889,
        "distance_elbow_joint": 0.44785106525768414,
        "distance_shoulder_lift_joint": 0.23306286000991383,
        "distance_shoulder_pan_joint": 0.4629129066167279,
        "distance_wrist_1_joint": 0.23749014024589366,
        "distance_wrist_2_joint": 1.0909361855464441,
        "distance_wrist_3_joint": 0.09132657430089353,
        "smoothness": 0.0,
        "time": 0.252586373,
        "traj_len": 1.6011182754492428,
        "weighted_distance": 2.0185785113221835
    },
    "planner": "BKPIECE",
    "start": {
        "state": {
            "elbow_joint": 1.9715474177455299,
            "shoulder_lift_joint": -1.139484666580328,
            "shoulder_pan_joint": 0.12281154398918248,
            "wrist_1_joint": -0.7804687475355282,
            "wrist_2_joint": 0.12958649657246987,
            "wrist_3_joint": -3.1924925159053466
        }
    },
    "waypoints": [
        {
            "positions": [
                0.12281154398918248,
                -1.139484666580328,
                1.9715474177455299,
                -0.7804687475355282,
                0.12958649657246987,
                -3.1924925159053466
            ]
        },
        {
            "positions": [
                0.05668112875822136,
                -1.1727793608674586,
                2.0355261413537704,
                -0.8143959104277987,
                0.2854345230791048,
                -3.1794458624337905
            ]
        },
        {
            "positions": [
                -0.009449286472739765,
                -1.206074055154589,
                2.099504864962011,
                -0.8483230733200693,
                0.44128254958573965,
                -3.166399208962234
            ]
        },
        {
            "positions": [
                -0.0755797017037009,
                -1.2393687494417196,
                2.1634835885702515,
                -0.8822502362123398,
                0.5971305760923745,
                -3.153352555490678
            ]
        },
        {
            "positions": [
                -0.141710116934662,
                -1.2726634437288502,
                2.227462312178492,
                -0.9161773991046103,
                0.7529786025990094,
                -3.1403059020191217
            ]
        },
        {
            "positions": [
                -0.20784053216562315,
                -1.3059581380159808,
                2.291441035786733,
                -0.9501045619968809,
                0.9088266291056443,
                -3.1272592485475657
            ]
        },
        {
            "positions": [
                -0.2739709473965843,
                -1.3392528323031112,
                2.3554197593949735,
                -0.9840317248891512,
                1.064674655612279,
                -3.114212595076009
            ]
        },
        {
            "positions": [
                -0.3401013626275454,
                -1.3725475265902418,
                2.419398483003214,
                -1.0179588877814219,
                1.220522682118914,
                -3.101165941604453
            ]
        }
    ]
}