{
    "goal": {
        "global_pose": {
            "orientation": {
                "w": 0.005598929693374612,
                "x": 0.007748599140229565,
                "y": 0.7110244013736278,
                "z": -0.7031023480610252
            },
            "position": {
                "x": 0.1141497679147869,
                "y": -0.7141253447532654,
                "z": 0.3711530566215515
            }
        },
        "name": "move_to_auspresseinheit_B"
    },
    "id": "BKPIECE_move_to_auspresseinheit_B_146",
    "joint_names": [
        "shoulder_pan_joint",
        "shoulder_lift_joint",
        "elbow_joint",
        "wrist_1_joint",
        "wrist_2_joint",
        "wrist_3_joint"
    ],
    "metrics": {
        "cart_traj_len": 0.5641487101134859,
        "distance_elbow_joint": 0.06419002463643486,
        "distance_shoulder_lift_joint": 0.29443344632731705,
        "distance_shoulder_pan_joint": 0.5767820241798394,
        "distance_wrist_1_joint": 0.3345155260304231,
        "distance_wrist_2_joint": 0.9919296945282385,
        "distance_wrist_3_joint": 0.005189898918998903,
        "smoothness": 7.612957903237841e-16,
        "time": 1.249197088,
        "traj_len": 1.5056694904995755,
        "weighted_distance": 1.8983850065300008
    },
    "planner": "BKPIECE",
    "start": {
        "state": {
            "elbow_joint": 2.019306165916698,
            "shoulder_lift_joint": -1.1220205098164344,
            "shoulder_pan_joint": -1.095207207618794,
            "wrist_1_joint": -0.8559671824921639,
            "wrist_2_joint": 0.47596387242952726,
            "wrist_3_joint": 3.159081874673826
        }
    },
    "waypoints": [
        {
            "positions": [
                -1.095207207618794,
                -1.1220205098164344,
                2.019306165916698,
                -0.8559671824921639,
                0.47596387242952726,
                3.159081874673826
            ]
        },
        {
            "positions": [
                -1.1913375449821006,
                -1.1710927508709872,
                2.008607828477292,
                -0.8002145948204267,
                0.6412854881842337,
                3.1599468578269923
            ]
        },
        {
            "positions": [
                -1.287467882345407,
                -1.2201649919255402,
                1.9979094910378863,
                -0.7444620071486895,
                0.8066071039389401,
                3.1608118409801587
            ]
        },
        {
            "positions": [
                -1.3835982197087136,
                -1.269237232980093,
                1.9872111535984804,
                -0.6887094194769523,
                0.9719287196936466,
                3.161676824133325
            ]
        },
        {
            "positions": [
                -1.4797285570720202,
                -1.3183094740346457,
                1.9765128161590748,
                -0.6329568318052151,
                1.137250335448353,
                3.162541807286492
            ]
        },
        {
            "positions": [
                -1.575858894435327,
                -1.3673817150891987,
                1.965814478719669,
                -0.5772042441334779,
                1.3025719512030594,
                3.1634067904396583
            ]
        },
        {
            "positions": [
                -1.6719892317986333,
                -1.4164539561437515,
                1.9551161412802631,
                -0.5214516564617407,
                1.4678935669577657,
                3.1642717735928247
            ]
        }
    ]
}