{
    "goal": {
        "global_pose": {
            "orientation": {
                "w": -0.00223480608172531,
                "x": 0.0024358444001904467,
                "y": 0.7094548369677653,
                "z": -0.704743149386269
            },
            "position": {
                "x": 0.6205249238014221,
                "y": -0.6371506643295288,
                "z": 0.19426114857196808
            }
        },
        "name": "move_to_magneteinheit_B"
    },
    "id": "BKPIECE_move_to_magneteinheit_B_38",
    "joint_names": [
        "shoulder_pan_joint",
        "shoulder_lift_joint",
        "elbow_joint",
        "wrist_1_joint",
        "wrist_2_joint",
        "wrist_3_joint"
    ],
    "metrics": {
        "cart_traj_len": 1.452527184111682,
        "distance_elbow_joint": 0.7277088773268343,
        "distance_shoulder_lift_joint": 1.247053809847334,
        "distance_shoulder_pan_joint": 1.6222762985522814,
        "distance_wrist_1_joint": 2.607275047232615,
        "distance_wrist_2_joint": 2.935720180972798,
        "distance_wrist_3_joint": 3.131505174147042,
        "smoothness": 5.8286709019490305e-16,
        "time": 1.502761449,
        "traj_len": 3.5030757040176717,
        "weighted_distance": 4.906887502743302
    },
    "planner": "BKPIECE",
    "start": {
        "state": {
            "elbow_joint": 2.3935871308073637,
            "shoulder_lift_joint": -1.9085141043777403,
            "shoulder_pan_joint": 0.7066247067284167,
            "wrist_1_joint": -0.46782909355067076,
            "wrist_2_joint": 0.7096259085804283,
            "wrist_3_joint": -3.1358149275257428
        }
    },
    "waypoints": [
        {
            "positions": [
                0.7066247067284167,
                -1.9085141043777403,
                2.3935871308073637,
                -0.46782909355067076,
                0.7096259085804283,
                -3.1358149275257428
            ]
        },
        {
            "positions": [
                0.6542932132267302,
                -1.8682865621246005,
                2.370112650893595,
                -0.38372344686574766,
                0.6149252575813058,
                -3.0347986315855158
            ]
        },
        {
            "positions": [
                0.6019617197250438,
                -1.8280590198714606,
                2.346638170979826,
                -0.2996178001808246,
                0.5202246065821833,
                -2.9337823356452883
            ]
        },
        {
            "positions": [
                0.5496302262233572,
                -1.7878314776183208,
                2.3231636910660574,
                -0.21551215349590158,
                0.4255239555830608,
                -2.8327660397050614
            ]
        },
        {
            "positions": [
                0.4972987327216707,
                -1.747603935365181,
                2.2996892111522884,
                -0.13140650681097849,
                0.3308233045839382,
                -2.7317497437648344
            ]
        },
        {
            "positions": [
                0.4449672392199842,
                -1.7073763931120411,
                2.2762147312385195,
                -0.047300860126055444,
                0.2361226535848157,
                -2.630733447824607
            ]
        },
        {
            "positions": [
                0.39263574571829774,
                -1.6671488508589014,
                2.2527402513247505,
                0.0368047865588676,
                0.14142200258569326,
                -2.52971715188438
            ]
        },
        {
            "positions": [
                0.34030425221661126,
                -1.6269213086057617,
                2.229265771410982,
                0.12091043324379075,
                0.04672135158657065,
                -2.4287008559441525
            ]
        },
        {
            "positions": [
                0.2879727587149247,
                -1.5866937663526217,
                2.205791291497213,
                0.2050160799287138,
                -0.04797929941255186,
                -2.3276845600039255
            ]
        },
        {
            "positions": [
                0.2356412652132382,
                -1.546466224099482,
                2.182316811583444,
                0.28912172661363694,
                -0.14267995041167436,
                -2.226668264063698
            ]
        },
        {
            "positions": [
                0.18330977171155172,
                -1.5062386818463422,
                2.158842331669675,
                0.3732273732985599,
                -0.23738060141079687,
                -2.125651968123471
            ]
        },
        {
            "positions": [
                0.13097827820986518,
                -1.4660111395932023,
                2.1353678517559063,
                0.457333019983483,
                -0.33208125240991937,
                -2.024635672183244
            ]
        },
        {
            "positions": [
                0.07864678470817876,
                -1.4257835973400625,
                2.1118933718421378,
                0.5414386666684059,
                -0.42678190340904176,
                -1.923619376243017
            ]
        },
        {
            "positions": [
                0.02631529120649223,
                -1.3855560550869228,
                2.088418891928369,
                0.6255443133533292,
                -0.5214825544081644,
                -1.8226030803027897
            ]
        },
        {
            "positions": [
                -0.02601620229519419,
                -1.3453285128337829,
                2.0649444120146,
                0.7096499600382522,
                -0.616183205407287,
                -1.7215867843625625
            ]
        },
        {
            "positions": [
                -0.07834769579688072,
                -1.3051009705806431,
                2.041469932100831,
                0.7937556067231752,
                -0.7108838564064094,
                -1.6205704884223353
            ]
        },
        {
            "positions": [
                -0.13067918929856726,
                -1.2648734283275034,
                2.017995452187062,
                0.8778612534080983,
                -0.805584507405532,
                -1.5195541924821083
            ]
        },
        {
            "positions": [
                -0.18301068280025368,
                -1.2246458860743636,
                1.9945209722732933,
                0.9619669000930213,
                -0.9002851584046544,
                -1.4185378965418811
            ]
        },
        {
            "positions": [
                -0.23534217630194032,
                -1.1844183438212237,
                1.9710464923595246,
                1.0460725467779446,
                -0.994985809403777,
                -1.317521600601654
            ]
        },
        {
            "positions": [
                -0.28767366980362674,
                -1.144190801568084,
                1.9475720124457556,
                1.1301781934628676,
                -1.0896864604028997,
                -1.2165053046614267
            ]
        },
        {
            "positions": [
                -0.3400051633053133,
                -1.103963259314944,
                1.9240975325319867,
                1.2142838401477904,
                -1.184387111402022,
                -1.1154890087211995
            ]
        },
        {
            "positions": [
                -0.3923366568069996,
                -1.0637357170618045,
                1.900623052618218,
                1.2983894868327135,
                -1.2790877624011445,
                -1.0144727127809725
            ]
        },
        {
            "positions": [
                -0.44466815030868634,
                -1.0235081748086645,
                1.877148572704449,
                1.3824951335176368,
                -1.3737884134002671,
                -0.9134564168407451
            ]
        },
        {
            "positions": [
                -0.49699964381037265,
                -0.9832806325555247,
                1.8536740927906803,
                1.4666007802025598,
                -1.4684890643993898,
                -0.8124401209005181
            ]
        },
        {
            "positions": [
                -0.5493311373120592,
                -0.9430530903023849,
                1.8301996128769114,
                1.5507064268874826,
                -1.563189715398512,
                -0.7114238249602911
            ]
        },
        {
            "positions": [
                -0.6016626308137457,
                -0.9028255480492451,
                1.8067251329631424,
                1.6348120735724057,
                -1.6578903663976345,
                -0.6104075290200641
            ]
        },
        {
            "positions": [
                -0.6539941243154322,
                -0.8625980057961051,
                1.7832506530493737,
                1.7189177202573291,
                -1.7525910173967572,
                -0.5093912330798367
            ]
        },
        {
            "positions": [
                -0.7063256178171188,
                -0.8223704635429654,
                1.759776173135605,
                1.8030233669422522,
                -1.8472916683958798,
                -0.4083749371396097
            ]
        },
        {
            "positions": [
                -0.7586571113188051,
                -0.7821429212898257,
                1.736301693221836,
                1.8871290136271752,
                -1.9419923193950024,
                -0.3073586411993823
            ]
        },
        {
            "positions": [
                -0.8109886048204916,
                -0.7419153790366859,
                1.712827213308067,
                1.9712346603120983,
                -2.0366929703941246,
                -0.2063423452591553
            ]
        },
        {
            "positions": [
                -0.8633200983221782,
                -0.701687836783546,
                1.6893527333942981,
                2.0553403069970213,
                -2.131393621393247,
                -0.10532604931892786
            ]
        },
        {
            "positions": [
                -0.9156515918238648,
                -0.6614602945304062,
                1.6658782534805294,
                2.1394459536819443,
                -2.22609427239237,
                -0.0043097533787008376
            ]
        }
    ]
}