{
    "goal": {
        "global_pose": {
            "orientation": {
                "w": 0.5084816217422485,
                "x": -0.49083608388900757,
                "y": 0.5182115435600281,
                "z": -0.4816462993621826
            },
            "position": {
                "x": 0.5540239810943604,
                "y": 0.030875300988554955,
                "z": 0.16403168439865112
            }
        },
        "name": "move_to_storage_A"
    },
    "id": "BKPIECE_move_to_storage_A_99",
    "joint_names": [
        "shoulder_pan_joint",
        "shoulder_lift_joint",
        "elbow_joint",
        "wrist_1_joint",
        "wrist_2_joint",
        "wrist_3_joint"
    ],
    "metrics": {
        "cart_traj_len": 0.35263543067625003,
        "distance_elbow_joint": 0.4481528970930637,
        "distance_shoulder_lift_joint": 0.23523969597614602,
        "distance_shoulder_pan_joint": 0.4626940628517496,
        "distance_wrist_1_joint": 0.23447853497201765,
        "distance_wrist_2_joint": 1.091351082872329,
        "distance_wrist_3_joint": 0.08545453378198209,
        "smoothness": 6.661338165333112e-16,
        "time": 1.484239255,
        "traj_len": 1.5991781662927018,
        "weighted_distance": 2.01348193261216
    },
    "planner": "BKPIECE",
    "start": {
        "state": {
            "elbow_joint": 1.9715474177455299,
            "shoulder_lift_joint": -1.139484666580328,
            "shoulder_pan_joint": 0.12281154398918248,
            "wrist_1_joint": -0.7804687475355282,
            "wrist_2_joint": 0.12958649657246987,
            "wrist_3_joint": -3.1924925159053466
        }
    },
    "waypoints": [
        {
            "positions": [
                0.12281154398918248,
                -1.139484666580328,
                1.9715474177455299,
                -0.7804687475355282,
                0.12958649657246987,
                -3.1924925159053466
            ]
        },
        {
            "positions": [
                0.05671239215321826,
                -1.173090337434063,
                2.0355692601873963,
                -0.8139656811029593,
                0.2854937941256598,
                -3.1802847253650635
            ]
        },
        {
            "positions": [
                -0.009386759682745965,
                -1.2066960082877982,
                2.099591102629262,
                -0.8474626146703904,
                0.44140109167884967,
                -3.1680769348247804
            ]
        },
        {
            "positions": [
                -0.07548591151871017,
                -1.2403016791415333,
                2.1636129450711286,
                -0.8809595482378214,
                0.5973083892320395,
                -3.1558691442844973
            ]
        },
        {
            "positions": [
                -0.1415850633546744,
                -1.2739073499952687,
                2.227634787512995,
                -0.9144564818052525,
                0.7532156867852294,
                -3.1436613537442137
            ]
        },
        {
            "positions": [
                -0.20768421519063868,
                -1.3075130208490038,
                2.2916566299548613,
                -0.9479534153726836,
                0.9091229843384193,
                -3.1314535632039306
            ]
        },
        {
            "positions": [
                -0.27378336702660283,
                -1.341118691702739,
                2.3556784723967272,
                -0.9814503489401147,
                1.065030281891609,
                -3.1192457726636476
            ]
        },
        {
            "positions": [
                -0.3398825188625671,
                -1.374724362556474,
                2.4197003148385936,
                -1.0149472825075458,
                1.220937579444799,
                -3.1070379821233645
            ]
        }
    ]
}