{
    "goal": {
        "global_pose": {
            "orientation": {
                "w": 0.7047431468963623,
                "x": -0.7094548344612122,
                "y": 0.0024358443915843964,
                "z": -0.0022348060738295317
            },
            "position": {
                "x": 0.6094750761985779,
                "y": 0.3671506643295288,
                "z": 0.19426114857196808
            }
        },
        "name": "move_to_magneteinheit_A"
    },
    "id": "BKPIECE_move_to_magneteinheit_A_17",
    "joint_names": [
        "shoulder_pan_joint",
        "shoulder_lift_joint",
        "elbow_joint",
        "wrist_1_joint",
        "wrist_2_joint",
        "wrist_3_joint"
    ],
    "metrics": {
        "cart_traj_len": 1.0539414282887196,
        "distance_elbow_joint": 0.3878049316500298,
        "distance_shoulder_lift_joint": 0.3640918435534286,
        "distance_shoulder_pan_joint": 1.2422490608433807,
        "distance_wrist_1_joint": 2.2401772152807338,
        "distance_wrist_2_joint": 1.6922637179059574,
        "distance_wrist_3_joint": 1.194378499982332,
        "smoothness": 2.8047739791568236e-16,
        "time": 0.859521412,
        "traj_len": 2.6685136816617336,
        "weighted_distance": 3.6663555750045873
    },
    "planner": "BKPIECE",
    "start": {
        "state": {
            "elbow_joint": 1.5739458966750683,
            "shoulder_lift_joint": -1.4977259741207325,
            "shoulder_pan_joint": -1.1188672016454206,
            "wrist_1_joint": 1.494575848278785,
            "wrist_2_joint": -1.5706037134824402,
            "wrist_3_joint": -2.0226957942261072
        }
    },
    "waypoints": [
        {
            "positions": [
                -1.1188672016454206,
                -1.4977259741207325,
                1.5739458966750683,
                1.494575848278785,
                -1.5706037134824402,
                -2.0226957942261072
            ]
        },
        {
            "positions": [
                -1.0498533649318995,
                -1.4774986494788753,
                1.59549061510007,
                1.3701215585409665,
                -1.4765890624876647,
                -2.0890501553362366
            ]
        },
        {
            "positions": [
                -0.9808395282183784,
                -1.4572713248370182,
                1.6170353335250716,
                1.2456672688031478,
                -1.3825744114928895,
                -2.1554045164463664
            ]
        },
        {
            "positions": [
                -0.9118256915048573,
                -1.437044000195161,
                1.6385800519500733,
                1.1212129790653294,
                -1.288559760498114,
                -2.221758877556496
            ]
        },
        {
            "positions": [
                -0.842811854791336,
                -1.4168166755533038,
                1.660124770375075,
                0.9967586893275109,
                -1.1945451095033386,
                -2.288113238666625
            ]
        },
        {
            "positions": [
                -0.7737980180778149,
                -1.3965893509114469,
                1.6816694888000767,
                0.8723043995896922,
                -1.1005304585085631,
                -2.354467599776755
            ]
        },
        {
            "positions": [
                -0.7047841813642938,
                -1.3763620262695897,
                1.7032142072250782,
                0.7478501098518737,
                -1.0065158075137877,
                -2.4208219608868844
            ]
        },
        {
            "positions": [
                -0.6357703446507725,
                -1.3561347016277325,
                1.72475892565008,
                0.6233958201140551,
                -0.9125011565190123,
                -2.487176321997014
            ]
        },
        {
            "positions": [
                -0.5667565079372514,
                -1.3359073769858754,
                1.7463036440750817,
                0.4989415303762367,
                -0.818486505524237,
                -2.5535306831071436
            ]
        },
        {
            "positions": [
                -0.4977426712237303,
                -1.3156800523440182,
                1.7678483625000831,
                0.3744872406384181,
                -0.7244718545294615,
                -2.6198850442172734
            ]
        },
        {
            "positions": [
                -0.42872883451020916,
                -1.295452727702161,
                1.7893930809250849,
                0.2500329509005994,
                -0.630457203534686,
                -2.686239405327403
            ]
        },
        {
            "positions": [
                -0.3597149977966879,
                -1.2752254030603039,
                1.8109377993500866,
                0.12557866116278094,
                -0.5364425525399106,
                -2.752593766437532
            ]
        },
        {
            "positions": [
                -0.2907011610831669,
                -1.2549980784184467,
                1.8324825177750883,
                0.001124371424962467,
                -0.44242790154513534,
                -2.818948127547662
            ]
        },
        {
            "positions": [
                -0.22168732436964567,
                -1.2347707537765897,
                1.8540272362000898,
                -0.123329918312856,
                -0.3484132505503599,
                -2.8853024886577914
            ]
        },
        {
            "positions": [
                -0.15267348765612454,
                -1.2145434291347326,
                1.8755719546250915,
                -0.2477842080506747,
                -0.2543985995555844,
                -2.9516568497679208
            ]
        },
        {
            "positions": [
                -0.0836596509426033,
                -1.1943161044928754,
                1.8971166730500932,
                -0.37223849778849316,
                -0.16038394856080895,
                -3.0180112108780506
            ]
        },
        {
            "positions": [
                -0.014645814229082177,
                -1.1740887798510182,
                1.9186613914750947,
                -0.49669278752631163,
                -0.06636929756603371,
                -3.08436557198818
            ]
        },
        {
            "positions": [
                0.05436802248443895,
                -1.153861455209161,
                1.9402061099000965,
                -0.6211470772641301,
                0.027645353428741748,
                -3.1507199330983093
            ]
        },
        {
            "positions": [
                0.12338185919796003,
                -1.1336341305673039,
                1.9617508283250982,
                -0.7456013670019489,
                0.1216600044235171,
                -3.217074294208439
            ]
        }
    ]
}