{
    "goal": {
        "global_pose": {
            "orientation": {
                "w": -0.00223480608172531,
                "x": 0.0024358444001904467,
                "y": 0.7094548369677653,
                "z": -0.704743149386269
            },
            "position": {
                "x": 0.6205249238014221,
                "y": -0.6371506643295288,
                "z": 0.19426114857196808
            }
        },
        "name": "move_to_magneteinheit_B"
    },
    "id": "BKPIECE_move_to_magneteinheit_B_87",
    "joint_names": [
        "shoulder_pan_joint",
        "shoulder_lift_joint",
        "elbow_joint",
        "wrist_1_joint",
        "wrist_2_joint",
        "wrist_3_joint"
    ],
    "metrics": {
        "cart_traj_len": 4.130409607383366,
        "distance_elbow_joint": 4.608893414269928,
        "distance_shoulder_lift_joint": 0.6034403648859501,
        "distance_shoulder_pan_joint": 2.898589052258359,
        "distance_wrist_1_joint": 2.455715132096179,
        "distance_wrist_2_joint": 1.5341389438121071,
        "distance_wrist_3_joint": 3.0643211003842366,
        "smoothness": 0.5876448272575001,
        "time": 0.727572496,
        "traj_len": 3.894239079423188,
        "weighted_distance": 5.028279455677013
    },
    "planner": "BKPIECE",
    "start": {
        "state": {
            "elbow_joint": 2.3935871308073637,
            "shoulder_lift_joint": -1.9085141043777403,
            "shoulder_pan_joint": 0.7066247067284167,
            "wrist_1_joint": -0.46782909355067076,
            "wrist_2_joint": 0.7096259085804283,
            "wrist_3_joint": -3.1358149275257428
        }
    },
    "waypoints": [
        {
            "positions": [
                0.7066247067284167,
                -1.9085141043777403,
                2.3935871308073637,
                -0.46782909355067076,
                0.7096259085804283,
                -3.1358149275257428
            ]
        },
        {
            "positions": [
                0.5515826869517371,
                -1.9508349868489396,
                2.3251569771246596,
                -0.45278463285882253,
                0.7622518583828699,
                -3.1253021911918633
            ]
        },
        {
            "positions": [
                0.5596440733322561,
                -1.9506921167087494,
                2.214074236658099,
                -0.42093193410533286,
                0.7333977984125589,
                -2.9916852035705275
            ]
        },
        {
            "positions": [
                0.567705459712775,
                -1.950549246568559,
                2.1029914961915384,
                -0.3890792353518432,
                0.704543738442248,
                -2.8580682159491912
            ]
        },
        {
            "positions": [
                0.575766846093294,
                -1.9504063764283688,
                1.991908755724978,
                -0.35722653659835346,
                0.6756896784719371,
                -2.7244512283278555
            ]
        },
        {
            "positions": [
                0.6807398910839183,
                -1.9510238135916245,
                1.8115150991692992,
                -0.35126081711607465,
                0.6308449787812201,
                -2.670921517051037
            ]
        },
        {
            "positions": [
                0.7857129360745425,
                -1.95164125075488,
                1.6311214426136205,
                -0.34529509763379584,
                0.5860002790905032,
                -2.6173918057742185
            ]
        },
        {
            "positions": [
                0.8906859810651668,
                -1.9522586879181356,
                1.4507277860579415,
                -0.3393293781515171,
                0.5411555793997864,
                -2.5638620944974
            ]
        },
        {
            "positions": [
                0.9956590260557912,
                -1.952876125081391,
                1.2703341295022628,
                -0.3333636586692383,
                0.4963108797090695,
                -2.5103323832205815
            ]
        },
        {
            "positions": [
                1.1006320710464155,
                -1.9534935622446468,
                1.089940472946584,
                -0.3273979391869595,
                0.4514661800183526,
                -2.4568026719437634
            ]
        },
        {
            "positions": [
                1.2056051160370396,
                -1.9541109994079022,
                0.9095468163909053,
                -0.3214322197046807,
                0.4066214803276357,
                -2.403272960666945
            ]
        },
        {
            "positions": [
                1.310578161027664,
                -1.954728436571158,
                0.7291531598352265,
                -0.3154665002224019,
                0.36177678063691876,
                -2.3497432493901265
            ]
        },
        {
            "positions": [
                1.4155512060182882,
                -1.9553458737344134,
                0.5487595032795478,
                -0.3095007807401231,
                0.3169320809462019,
                -2.296213538113308
            ]
        },
        {
            "positions": [
                1.5205242510089123,
                -1.955963310897669,
                0.3683658467238691,
                -0.3035350612578443,
                0.272087381255485,
                -2.2426838268364895
            ]
        },
        {
            "positions": [
                1.6254972959995366,
                -1.9565807480609245,
                0.18797219016819033,
                -0.2975693417755655,
                0.22724268156476807,
                -2.189154115559671
            ]
        },
        {
            "positions": [
                1.730470340990161,
                -1.9571981852241802,
                0.007578533612511151,
                -0.29160362229328674,
                0.18239798187405115,
                -2.1356244042828525
            ]
        },
        {
            "positions": [
                1.8354433859807853,
                -1.9578156223874357,
                -0.17281512294316737,
                -0.2856379028110079,
                0.1375532821833343,
                -2.082094693006034
            ]
        },
        {
            "positions": [
                1.9404164309714096,
                -1.9584330595506914,
                -0.3532087794988461,
                -0.2796721833287291,
                0.09270858249261738,
                -2.0285649817292155
            ]
        },
        {
            "positions": [
                2.045389475962034,
                -1.9590504967139468,
                -0.5336024360545248,
                -0.27370646384645037,
                0.04786388280190046,
                -1.9750352704523972
            ]
        },
        {
            "positions": [
                2.1503625209526582,
                -1.9596679338772025,
                -0.713996092610204,
                -0.2677407443641715,
                0.003019183111183543,
                -1.9215055591755787
            ]
        },
        {
            "positions": [
                2.2553355659432825,
                -1.960285371040458,
                -0.8943897491658823,
                -0.26177502488189275,
                -0.04182551657953326,
                -1.8679758478987605
            ]
        },
        {
            "positions": [
                2.360308610933907,
                -1.9609028082037137,
                -1.0747834057215615,
                -0.25580930539961394,
                -0.08667021627025029,
                -1.8144461366219418
            ]
        },
        {
            "positions": [
                2.4652816559245307,
                -1.9615202453669691,
                -1.2551770622772398,
                -0.24984358591733516,
                -0.1315149159609671,
                -1.7609164253451235
            ]
        },
        {
            "positions": [
                2.570254700915155,
                -1.9621376825302248,
                -1.435570718832919,
                -0.24387786643505635,
                -0.176359615651684,
                -1.707386714068305
            ]
        },
        {
            "positions": [
                2.6752277459057794,
                -1.9627551196934803,
                -1.6159643753885973,
                -0.23791214695277757,
                -0.22120431534240093,
                -1.6538570027914865
            ]
        },
        {
            "positions": [
                2.7802007908964037,
                -1.963372556856736,
                -1.7963580319442762,
                -0.23194642747049876,
                -0.26604901503311784,
                -1.600327291514668
            ]
        },
        {
            "positions": [
                2.8049224286266226,
                -2.0102930514624884,
                -1.7675053490576698,
                -0.4098315302440303,
                -0.2504455319995913,
                -1.6752234166594075
            ]
        },
        {
            "positions": [
                2.829644066356841,
                -2.0572135460682412,
                -1.738652666171063,
                -0.5877166330175618,
                -0.23484204896606473,
                -1.750119541804147
            ]
        },
        {
            "positions": [
                2.8543657040870594,
                -2.1041340406739937,
                -1.7097999832844564,
                -0.7656017357910933,
                -0.21923856593253815,
                -1.8250156669488868
            ]
        },
        {
            "positions": [
                2.879087341817278,
                -2.151054535279746,
                -1.68094730039785,
                -0.9434868385646248,
                -0.2036350828990116,
                -1.8999117920936264
            ]
        },
        {
            "positions": [
                2.903808979547497,
                -2.197975029885499,
                -1.6520946175112434,
                -1.1213719413381562,
                -0.18803159986548507,
                -1.974807917238366
            ]
        },
        {
            "positions": [
                2.9285306172777155,
                -2.2448955244912514,
                -1.6232419346246367,
                -1.2992570441116877,
                -0.1724281168319585,
                -2.0497040423831057
            ]
        },
        {
            "positions": [
                2.953252255007934,
                -2.2918160190970043,
                -1.59438925173803,
                -1.4771421468852193,
                -0.15682463379843192,
                -2.124600167527845
            ]
        },
        {
            "positions": [
                2.9779738927381527,
                -2.3387365137027567,
                -1.5655365688514236,
                -1.6550272496587508,
                -0.14122115076490538,
                -2.1994962926725847
            ]
        },
        {
            "positions": [
                2.9231862246740445,
                -2.306281609587619,
                -1.5928777538748502,
                -1.7067234519588454,
                -0.19587201075154376,
                -2.297921702400609
            ]
        },
        {
            "positions": [
                2.8683985566099364,
                -2.2738267054724806,
                -1.6202189388982768,
                -1.75841965425894,
                -0.25052287073818214,
                -2.3963471121286326
            ]
        },
        {
            "positions": [
                2.8136108885458286,
                -2.2413718013573427,
                -1.6475601239217035,
                -1.8101158565590347,
                -0.30517373072482046,
                -2.4947725218566568
            ]
        },
        {
            "positions": [
                2.7588232204817205,
                -2.2089168972422044,
                -1.6749013089451301,
                -1.8618120588591294,
                -0.3598245907114589,
                -2.5931979315846805
            ]
        },
        {
            "positions": [
                2.7040355524176123,
                -2.1764619931270666,
                -1.7022424939685568,
                -1.913508261159224,
                -0.4144754506980972,
                -2.6916233413127046
            ]
        },
        {
            "positions": [
                2.689629723626038,
                -2.1798240645084337,
                -1.6851022061991225,
                -2.092931805268318,
                -0.43285210282885506,
                -2.8374691461710797
            ]
        },
        {
            "positions": [
                2.6752238948344638,
                -2.1831861358898013,
                -1.667961918429688,
                -2.2723553493774116,
                -0.45122875495961284,
                -2.9833149510294548
            ]
        },
        {
            "positions": [
                2.6608180660428893,
                -2.1865482072711684,
                -1.650821630660254,
                -2.4517788934865057,
                -0.4696054070903707,
                -3.12916075588783
            ]
        }
    ]
}