{
    "goal": {
        "global_pose": {
            "orientation": {
                "w": 0.7031023480610252,
                "x": -0.7110244013736278,
                "y": 0.0077485991402295624,
                "z": 0.005598929693374583
            },
            "position": {
                "x": -0.8841497679147869,
                "y": 0.44412534475326537,
                "z": 0.3711530566215515
            }
        },
        "name": "move_to_auspresseinheit_D"
    },
    "id": "BKPIECE_move_to_auspresseinheit_D_62",
    "joint_names": [
        "shoulder_pan_joint",
        "shoulder_lift_joint",
        "elbow_joint",
        "wrist_1_joint",
        "wrist_2_joint",
        "wrist_3_joint"
    ],
    "metrics": {
        "cart_traj_len": 1.3143395811600784,
        "distance_elbow_joint": 1.6463030437271422,
        "distance_shoulder_lift_joint": 0.400985627170783,
        "distance_shoulder_pan_joint": 0.6462347408225715,
        "distance_wrist_1_joint": 3.3418388691312293,
        "distance_wrist_2_joint": 3.716469740195697,
        "distance_wrist_3_joint": 3.503715355441612,
        "smoothness": 0.534002255255089,
        "time": 1.24521735,
        "traj_len": 3.640816855664266,
        "weighted_distance": 5.226976821901852
    },
    "planner": "BKPIECE",
    "start": {
        "state": {
            "elbow_joint": 1.8268400409724999,
            "shoulder_lift_joint": -1.0144045787793008,
            "shoulder_pan_joint": 2.6280239544362485,
            "wrist_1_joint": -0.790705565816056,
            "wrist_2_joint": 1.0573557467365533,
            "wrist_3_joint": 3.1851377467193758
        }
    },
    "waypoints": [
        {
            "positions": [
                2.6280239544362485,
                -1.0144045787793008,
                1.8268400409724999,
                -0.790705565816056,
                1.0573557467365533,
                3.1851377467193758
            ]
        },
        {
            "positions": [
                2.6249962991669324,
                -1.0107690066196438,
                1.8042634509039226,
                -0.6727894668205876,
                0.9294298525051718,
                3.0667806116733485
            ]
        },
        {
            "positions": [
                2.621968643897617,
                -1.0071334344599867,
                1.7816868608353453,
                -0.5548733678251193,
                0.8015039582737904,
                2.9484234766273216
            ]
        },
        {
            "positions": [
                2.618940988628301,
                -1.0034978623003297,
                1.7591102707667683,
                -0.4369572688296509,
                0.6735780640424089,
                2.8300663415812943
            ]
        },
        {
            "positions": [
                2.6159133333589852,
                -0.9998622901406727,
                1.736533680698191,
                -0.31904116983418257,
                0.5456521698110276,
                2.711709206535267
            ]
        },
        {
            "positions": [
                2.612885678089669,
                -0.9962267179810157,
                1.7139570906296138,
                -0.20112507083871412,
                0.41772627557964614,
                2.59335207148924
            ]
        },
        {
            "positions": [
                2.6098580228203536,
                -0.9925911458213587,
                1.6913805005610367,
                -0.08320897184324583,
                0.2898003813482647,
                2.474994936443213
            ]
        },
        {
            "positions": [
                2.6068303675510376,
                -0.9889555736617016,
                1.6688039104924595,
                0.03470712715222257,
                0.16187448711688324,
                2.356637801397186
            ]
        },
        {
            "positions": [
                2.6038027122817216,
                -0.9853200015020446,
                1.6462273204238822,
                0.15262322614769086,
                0.033948592885501894,
                2.2382806663511587
            ]
        },
        {
            "positions": [
                2.600775057012406,
                -0.9816844293423876,
                1.623650730355305,
                0.27053932514315915,
                -0.09397730134587956,
                2.1199235313051314
            ]
        },
        {
            "positions": [
                2.59774740174309,
                -0.9780488571827306,
                1.6010741402867277,
                0.38845542413862777,
                -0.22190319557726101,
                2.001566396259104
            ]
        },
        {
            "positions": [
                2.5947197464737743,
                -0.9744132850230736,
                1.5784975502181506,
                0.506371523134096,
                -0.34982908980864247,
                1.8832092612130773
            ]
        },
        {
            "positions": [
                2.5916920912044583,
                -0.9707777128634165,
                1.5559209601495734,
                0.6242876221295643,
                -0.4777549840400239,
                1.7648521261670502
            ]
        },
        {
            "positions": [
                2.5886644359351423,
                -0.9671421407037595,
                1.533344370080996,
                0.7422037211250325,
                -0.6056808782714052,
                1.6464949911210232
            ]
        },
        {
            "positions": [
                2.5856367806658267,
                -0.9635065685441024,
                1.510767780012419,
                0.8601198201205011,
                -0.7336067725027868,
                1.5281378560749959
            ]
        },
        {
            "positions": [
                2.5826091253965107,
                -0.9598709963844454,
                1.4881911899438418,
                0.9780359191159695,
                -0.8615326667341683,
                1.4097807210289688
            ]
        },
        {
            "positions": [
                2.579581470127195,
                -0.9562354242247885,
                1.4656145998752645,
                1.0959520181114377,
                -0.9894585609655495,
                1.2914235859829417
            ]
        },
        {
            "positions": [
                2.576553814857879,
                -0.9525998520651314,
                1.4430380098066873,
                1.2138681171069063,
                -1.1173844551969312,
                1.1730664509369144
            ]
        },
        {
            "positions": [
                2.573526159588563,
                -0.9489642799054744,
                1.42046141973811,
                1.3317842161023743,
                -1.2453103494283124,
                1.0547093158908876
            ]
        },
        {
            "positions": [
                2.5704985043192474,
                -0.9453287077458173,
                1.397884829669533,
                1.4497003150978427,
                -1.3732362436596937,
                0.9363521808448603
            ]
        },
        {
            "positions": [
                2.5674708490499314,
                -0.9416931355861603,
                1.3753082396009557,
                1.5676164140933115,
                -1.5011621378910753,
                0.817995045798833
            ]
        },
        {
            "positions": [
                2.564443193780616,
                -0.9380575634265034,
                1.3527316495323785,
                1.6855325130887795,
                -1.629088032122457,
                0.6996379107528061
            ]
        },
        {
            "positions": [
                2.5614155385112998,
                -0.9344219912668463,
                1.3301550594638014,
                1.803448612084248,
                -1.7570139263538382,
                0.5812807757067788
            ]
        },
        {
            "positions": [
                2.558387883241984,
                -0.9307864191071893,
                1.307578469395224,
                1.9213647110797163,
                -1.88493982058522,
                0.46292364066075153
            ]
        },
        {
            "positions": [
                2.555360227972668,
                -0.9271508469475322,
                1.285001879326647,
                2.039280810075185,
                -2.012865714816601,
                0.34456650561472474
            ]
        },
        {
            "positions": [
                2.599568559183392,
                -0.8904068673247788,
                1.2108675698283637,
                2.068056024472579,
                -2.1007355041416007,
                0.27655940398659545
            ]
        },
        {
            "positions": [
                2.6437768903941157,
                -0.8536628877020253,
                1.1367332603300804,
                2.0968312388699726,
                -2.1886052934666,
                0.2085523023584662
            ]
        },
        {
            "positions": [
                2.6879852216048397,
                -0.8169189080792718,
                1.0625989508317972,
                2.1256064532673666,
                -2.2764750827915994,
                0.14054520073033694
            ]
        },
        {
            "positions": [
                2.732193552815563,
                -0.7801749284565183,
                0.9884646413335139,
                2.1543816676647602,
                -2.364344872116599,
                0.07253809910220765
            ]
        },
        {
            "positions": [
                2.776401884026287,
                -0.7434309488337648,
                0.9143303318352307,
                2.1831568820621543,
                -2.4522146614415985,
                0.004530997474078369
            ]
        },
        {
            "positions": [
                2.8206102152370107,
                -0.7066869692110114,
                0.8401960223369475,
                2.211932096459548,
                -2.5400844507665976,
                -0.06347610415405086
            ]
        },
        {
            "positions": [
                2.8648185464477347,
                -0.6699429895882578,
                0.7660617128386642,
                2.240707310856942,
                -2.627954240091597,
                -0.13148320578218015
            ]
        },
        {
            "positions": [
                2.7987903724767538,
                -0.6840739990831928,
                0.9124428917369908,
                2.3183138089715,
                -2.6201643017497105,
                -0.08470960504716588
            ]
        },
        {
            "positions": [
                2.7327621985057724,
                -0.6982050085781278,
                1.0588240706353174,
                2.3959203070860577,
                -2.612374363407824,
                -0.037936004312151606
            ]
        },
        {
            "positions": [
                2.666734024534791,
                -0.7123360180730629,
                1.2052052495336438,
                2.4735268052006156,
                -2.604584425065937,
                0.008837596422862665
            ]
        },
        {
            "positions": [
                2.60070585056381,
                -0.7264670275679979,
                1.3515864284319705,
                2.5511333033151735,
                -2.5967944867240504,
                0.05561119715787694
            ]
        }
    ]
}