{
    "goal": {
        "global_pose": {
            "orientation": {
                "w": 0.005598929693374612,
                "x": 0.007748599140229565,
                "y": 0.7110244013736278,
                "z": -0.7031023480610252
            },
            "position": {
                "x": 0.1141497679147869,
                "y": -0.7141253447532654,
                "z": 0.3711530566215515
            }
        },
        "name": "move_to_auspresseinheit_B"
    },
    "id": "BKPIECE_move_to_auspresseinheit_B_22",
    "joint_names": [
        "shoulder_pan_joint",
        "shoulder_lift_joint",
        "elbow_joint",
        "wrist_1_joint",
        "wrist_2_joint",
        "wrist_3_joint"
    ],
    "metrics": {
        "cart_traj_len": 0.5645456106431221,
        "distance_elbow_joint": 0.06551393850765108,
        "distance_shoulder_lift_joint": 0.2927863883621358,
        "distance_shoulder_pan_joint": 0.5780867585218745,
        "distance_wrist_1_joint": 0.33532034750176776,
        "distance_wrist_2_joint": 0.9856874302448273,
        "distance_wrist_3_joint": 3.336217091387539e-05,
        "smoothness": 2.5376526478085547e-16,
        "time": 0.59136731,
        "traj_len": 1.5024740348202927,
        "weighted_distance": 1.891693084883907
    },
    "planner": "BKPIECE",
    "start": {
        "state": {
            "elbow_joint": 2.019306165916698,
            "shoulder_lift_joint": -1.1220205098164344,
            "shoulder_pan_joint": -1.095207207618794,
            "wrist_1_joint": -0.8559671824921639,
            "wrist_2_joint": 0.47596387242952726,
            "wrist_3_joint": 3.159081874673826
        }
    },
    "waypoints": [
        {
            "positions": [
                -1.095207207618794,
                -1.1220205098164344,
                2.019306165916698,
                -0.8559671824921639,
                0.47596387242952726,
                3.159081874673826
            ]
        },
        {
            "positions": [
                -1.1915550007057731,
                -1.1708182412101238,
                2.0083871761654226,
                -0.8000804579085359,
                0.6402451108036651,
                3.159076314312007
            ]
        },
        {
            "positions": [
                -1.287902793792752,
                -1.219615972603813,
                1.9974681864141477,
                -0.7441937333249079,
                0.804526349177803,
                3.159070753950188
            ]
        },
        {
            "positions": [
                -1.3842505868797312,
                -1.2684137039975023,
                1.9865491966628723,
                -0.6883070087412799,
                0.9688075875519409,
                3.159065193588369
            ]
        },
        {
            "positions": [
                -1.4805983799667102,
                -1.3172114353911917,
                1.9756302069115972,
                -0.6324202841576521,
                1.1330888259260787,
                3.15905963322655
            ]
        },
        {
            "positions": [
                -1.5769461730536896,
                -1.3660091667848808,
                1.964711217160322,
                -0.576533559574024,
                1.2973700643002166,
                3.159054072864731
            ]
        },
        {
            "positions": [
                -1.6732939661406685,
                -1.4148068981785702,
                1.953792227409047,
                -0.5206468349903961,
                1.4616513026743545,
                3.159048512502912
            ]
        }
    ]
}