{
    "goal": {
        "global_pose": {
            "orientation": {
                "w": -0.4816463035849501,
                "x": 0.5182115481033762,
                "y": 0.4908360881923453,
                "z": -0.5084816262002911
            },
            "position": {
                "x": -0.8240239810943604,
                "y": 0.19912469901144506,
                "z": 0.16403168439865112
            }
        },
        "name": "move_to_storage_D"
    },
    "id": "BKPIECE_move_to_storage_D_138",
    "joint_names": [
        "shoulder_pan_joint",
        "shoulder_lift_joint",
        "elbow_joint",
        "wrist_1_joint",
        "wrist_2_joint",
        "wrist_3_joint"
    ],
    "metrics": {
        "cart_traj_len": 3.0430469815906274,
        "distance_elbow_joint": 0.776225611423984,
        "distance_shoulder_lift_joint": 3.3309188683689057,
        "distance_shoulder_pan_joint": 4.050041004407628,
        "distance_wrist_1_joint": 3.8303444705293153,
        "distance_wrist_2_joint": 1.8262464729619114,
        "distance_wrist_3_joint": 3.164572484748446,
        "smoothness": 0.39523643850567935,
        "time": 1.101575875,
        "traj_len": 4.12047920907753,
        "weighted_distance": 5.381829133800914
    },
    "planner": "BKPIECE",
    "start": {
        "state": {
            "elbow_joint": -2.384821997420982,
            "shoulder_lift_joint": -2.2788054674887404,
            "shoulder_pan_joint": -0.18546946417610016,
            "wrist_1_joint": 1.4845937964226739,
            "wrist_2_joint": 0.1789877726866377,
            "wrist_3_joint": 0.03710572555276528
        }
    },
    "waypoints": [
        {
            "positions": [
                -0.18546946417610016,
                -2.2788054674887404,
                -2.384821997420982,
                1.4845937964226739,
                0.1789877726866377,
                0.03710572555276528
            ]
        },
        {
            "positions": [
                -0.15405212158057358,
                -2.2664605844936396,
                -2.3777142871493995,
                1.444168245087627,
                0.2004787674544869,
                0.03109747360270676
            ]
        },
        {
            "positions": [
                -0.039113422426710245,
                -2.1704145757930675,
                -2.3410361286885073,
                1.3376483281050693,
                0.16892525636623412,
                0.04147846467087896
            ]
        },
        {
            "positions": [
                0.07582527672715308,
                -2.074368567092496,
                -2.304357970227615,
                1.2311284111225114,
                0.13737174527798132,
                0.051859455739051166
            ]
        },
        {
            "positions": [
                0.1907639758810164,
                -1.9783225583919237,
                -2.2676798117667234,
                1.1246084941399537,
                0.10581823418972852,
                0.06224044680722336
            ]
        },
        {
            "positions": [
                0.30570267503487975,
                -1.8822765496913516,
                -2.2310016533058312,
                1.0180885771573958,
                0.07426472310147575,
                0.07262143787539557
            ]
        },
        {
            "positions": [
                0.42064137418874314,
                -1.7862305409907797,
                -2.194323494844939,
                0.9115686601748381,
                0.04271121201322292,
                0.08300242894356777
            ]
        },
        {
            "positions": [
                0.5355800733426064,
                -1.6901845322902078,
                -2.157645336384047,
                0.8050487431922804,
                0.011157700924970149,
                0.09338342001173996
            ]
        },
        {
            "positions": [
                0.6505187724964697,
                -1.5941385235896357,
                -2.1209671779231547,
                0.6985288262097225,
                -0.02039581016328265,
                0.10376441107991217
            ]
        },
        {
            "positions": [
                0.7654574716503331,
                -1.4980925148890636,
                -2.0842890194622625,
                0.5920089092271648,
                -0.051949321251535396,
                0.11414540214808437
            ]
        },
        {
            "positions": [
                0.8803961708041964,
                -1.4020465061884917,
                -2.0476108610013704,
                0.48548899224460695,
                -0.08350283233978822,
                0.12452639321625658
            ]
        },
        {
            "positions": [
                0.9953348699580599,
                -1.3060004974879198,
                -2.0109327025404786,
                0.37896907526204915,
                -0.11505634342804105,
                0.13490738428442878
            ]
        },
        {
            "positions": [
                1.1102735691119232,
                -1.2099544887873477,
                -1.9742545440795864,
                0.27244915827949123,
                -0.14660985451629382,
                0.145288375352601
            ]
        },
        {
            "positions": [
                1.2252122682657864,
                -1.1139084800867758,
                -1.9375763856186943,
                0.16592924129693376,
                -0.1781633656045466,
                0.15566936642077317
            ]
        },
        {
            "positions": [
                1.3401509674196497,
                -1.0178624713862037,
                -1.900898227157802,
                0.059409324314375844,
                -0.20971687669279937,
                0.1660503574889454
            ]
        },
        {
            "positions": [
                1.455089666573513,
                -0.9218164626856318,
                -1.86422006869691,
                -0.04711059266818207,
                -0.2412703877810522,
                0.1764313485571176
            ]
        },
        {
            "positions": [
                1.5700283657273766,
                -0.8257704539850597,
                -1.827541910236018,
                -0.15363050965073977,
                -0.27282389886930497,
                0.1868123396252898
            ]
        },
        {
            "positions": [
                1.6849670648812398,
                -0.7297244452844878,
                -1.790863751775126,
                -0.26015042663329746,
                -0.3043774099575577,
                0.19719333069346198
            ]
        },
        {
            "positions": [
                1.799905764035103,
                -0.6336784365839159,
                -1.7541855933142338,
                -0.36667034361585515,
                -0.33593092104581057,
                0.2075743217616342
            ]
        },
        {
            "positions": [
                1.9148444631889663,
                -0.5376324278833438,
                -1.7175074348533417,
                -0.47319026059841307,
                -0.36748443213406334,
                0.2179553128298064
            ]
        },
        {
            "positions": [
                1.8368553801072638,
                -0.6012222610338841,
                -1.7218638768075953,
                -0.5480926771387422,
                -0.4169561232782838,
                0.33682356857265794
            ]
        },
        {
            "positions": [
                1.7588662970255613,
                -0.6648120941844244,
                -1.7262203187618492,
                -0.6229950936790712,
                -0.4664278144225043,
                0.4556918243155094
            ]
        },
        {
            "positions": [
                1.6808772139438588,
                -0.7284019273349649,
                -1.730576760716103,
                -0.6978975102194004,
                -0.5158995055667248,
                0.5745600800583609
            ]
        },
        {
            "positions": [
                1.6028881308621563,
                -0.7919917604855052,
                -1.7349332026703568,
                -0.7727999267597294,
                -0.5653711967109453,
                0.6934283358012124
            ]
        },
        {
            "positions": [
                1.5248990477804538,
                -0.8555815936360456,
                -1.7392896446246104,
                -0.8477023433000586,
                -0.6148428878551657,
                0.812296591544064
            ]
        },
        {
            "positions": [
                1.4469099646987515,
                -0.9191714267865859,
                -1.743646086578864,
                -0.9226047598403877,
                -0.6643145789993862,
                0.9311648472869154
            ]
        },
        {
            "positions": [
                1.3689208816170488,
                -0.9827612599371264,
                -1.748002528533118,
                -0.9975071763807168,
                -0.7137862701436066,
                1.050033103029767
            ]
        },
        {
            "positions": [
                1.2909317985353466,
                -1.0463510930876667,
                -1.7523589704873717,
                -1.072409592921046,
                -0.7632579612878272,
                1.1689013587726185
            ]
        },
        {
            "positions": [
                1.212942715453644,
                -1.109940926238207,
                -1.7567154124416255,
                -1.147312009461375,
                -0.8127296524320475,
                1.28776961451547
            ]
        },
        {
            "positions": [
                1.1349536323719416,
                -1.1735307593887474,
                -1.7610718543958792,
                -1.222214426001704,
                -0.8622013435762681,
                1.4066378702583215
            ]
        },
        {
            "positions": [
                1.0569645492902393,
                -1.2371205925392879,
                -1.7654282963501329,
                -1.2971168425420332,
                -0.9116730347204886,
                1.525506126001173
            ]
        },
        {
            "positions": [
                0.9789754662085367,
                -1.300710425689828,
                -1.7697847383043868,
                -1.372019259082362,
                -0.961144725864709,
                1.6443743817440244
            ]
        },
        {
            "positions": [
                0.9009863831268341,
                -1.3643002588403685,
                -1.7741411802586404,
                -1.4469216756226913,
                -1.0106164170089296,
                1.7632426374868762
            ]
        },
        {
            "positions": [
                0.8229973000451316,
                -1.427890091990909,
                -1.7784976222128943,
                -1.5218240921630206,
                -1.06008810815315,
                1.8821108932297277
            ]
        },
        {
            "positions": [
                0.7450082169634293,
                -1.4914799251414492,
                -1.782854064167148,
                -1.5967265087033495,
                -1.1095597992973705,
                2.0009791489725792
            ]
        },
        {
            "positions": [
                0.6670191338817268,
                -1.5550697582919897,
                -1.7872105061214016,
                -1.6716289252436787,
                -1.159031490441591,
                2.1198474047154305
            ]
        },
        {
            "positions": [
                0.5890300508000244,
                -1.6186595914425301,
                -1.7915669480756555,
                -1.7465313417840078,
                -1.2085031815858116,
                2.2387156604582823
            ]
        },
        {
            "positions": [
                0.5110409677183219,
                -1.6822494245930704,
                -1.7959233900299092,
                -1.8214337583243367,
                -1.2579748727300317,
                2.3575839162011336
            ]
        },
        {
            "positions": [
                0.43305188463661937,
                -1.7458392577436106,
                -1.800279831984163,
                -1.8963361748646659,
                -1.3074465638742523,
                2.476452171943985
            ]
        },
        {
            "positions": [
                0.3550628015549169,
                -1.809429090894151,
                -1.8046362739384167,
                -1.971238591404995,
                -1.3569182550184729,
                2.5953204276868367
            ]
        },
        {
            "positions": [
                0.2770737184732146,
                -1.8730189240446913,
                -1.8089927158926704,
                -2.046141007945324,
                -1.4063899461626932,
                2.714188683429688
            ]
        },
        {
            "positions": [
                0.1990846353915121,
                -1.9366087571952317,
                -1.8133491578469243,
                -2.121043424485653,
                -1.4558616373069138,
                2.8330569391725398
            ]
        },
        {
            "positions": [
                0.1210955523098094,
                -2.0001985903457724,
                -1.817705599801178,
                -2.1959458410259822,
                -1.5053333284511343,
                2.951925194915391
            ]
        },
        {
            "positions": [
                0.043106469228107125,
                -2.0637884234963124,
                -1.8220620417554318,
                -2.2708482575663114,
                -1.5548050195953547,
                3.0707934506582424
            ]
        },
        {
            "positions": [
                -0.034882613853595416,
                -2.127378256646853,
                -1.8264184837096855,
                -2.3457506741066405,
                -1.6042767107395752,
                3.189661706401094
            ]
        }
    ]
}