{
    "goal": {
        "global_pose": {
            "orientation": {
                "w": 0.005598929693374612,
                "x": 0.007748599140229565,
                "y": 0.7110244013736278,
                "z": -0.7031023480610252
            },
            "position": {
                "x": -0.8858502320852131,
                "y": -0.7141253447532654,
                "z": 0.3711530566215515
            }
        },
        "name": "move_to_auspresseinheit_C"
    },
    "id": "BKPIECE_move_to_auspresseinheit_C_4",
    "joint_names": [
        "shoulder_pan_joint",
        "shoulder_lift_joint",
        "elbow_joint",
        "wrist_1_joint",
        "wrist_2_joint",
        "wrist_3_joint"
    ],
    "metrics": {
        "cart_traj_len": 0.493378385496684,
        "distance_elbow_joint": 1.0134502909765806,
        "distance_shoulder_lift_joint": 0.3319134912409334,
        "distance_shoulder_pan_joint": 0.2556739177241858,
        "distance_wrist_1_joint": 0.7034433883727318,
        "distance_wrist_2_joint": 1.318310511016899,
        "distance_wrist_3_joint": 0.0744067398051107,
        "smoothness": 1.6148698667872622e-16,
        "time": 0.423889289,
        "traj_len": 1.922810011191028,
        "weighted_distance": 2.422347150624017
    },
    "planner": "BKPIECE",
    "start": {
        "state": {
            "elbow_joint": 1.752795957773711,
            "shoulder_lift_joint": -0.9740617694225064,
            "shoulder_pan_joint": -2.967991417825858,
            "wrist_1_joint": -0.7595177689806859,
            "wrist_2_joint": 1.7443932448377395,
            "wrist_3_joint": 3.199131542505932
        }
    },
    "waypoints": [
        {
            "positions": [
                -2.967991417825858,
                -0.9740617694225064,
                1.752795957773711,
                -0.7595177689806859,
                1.7443932448377395,
                3.199131542505932
            ]
        },
        {
            "positions": [
                -2.9424240260534393,
                -0.9408704202984131,
                1.651450928676053,
                -0.6891734301434127,
                1.6125621937360497,
                3.191690868525421
            ]
        },
        {
            "positions": [
                -2.9168566342810207,
                -0.9076790711743198,
                1.550105899578395,
                -0.6188290913061395,
                1.4807311426343597,
                3.18425019454491
            ]
        },
        {
            "positions": [
                -2.891289242508602,
                -0.8744877220502264,
                1.4487608704807369,
                -0.5484847524688664,
                1.3489000915326699,
                3.176809520564399
            ]
        },
        {
            "positions": [
                -2.8657218507361835,
                -0.8412963729261331,
                1.3474158413830788,
                -0.47814041363159315,
                1.2170690404309799,
                3.169368846583888
            ]
        },
        {
            "positions": [
                -2.840154458963765,
                -0.8081050238020397,
                1.2460708122854207,
                -0.40779607479432,
                1.08523798932929,
                3.1619281726033766
            ]
        },
        {
            "positions": [
                -2.8145870671913467,
                -0.7749136746779464,
                1.1447257831877629,
                -0.33745173595704686,
                0.9534069382276001,
                3.1544874986228657
            ]
        },
        {
            "positions": [
                -2.789019675418928,
                -0.7417223255538531,
                1.0433807540901048,
                -0.26710739711977366,
                0.8215758871259103,
                3.147046824642355
            ]
        },
        {
            "positions": [
                -2.7634522836465094,
                -0.7085309764297597,
                0.9420357249924466,
                -0.1967630582825004,
                0.6897448360242204,
                3.1396061506618436
            ]
        },
        {
            "positions": [
                -2.737884891874091,
                -0.6753396273056664,
                0.8406906958947886,
                -0.1264187194452273,
                0.5579137849225304,
                3.1321654766813323
            ]
        },
        {
            "positions": [
                -2.712317500101672,
                -0.642148278181573,
                0.7393456667971305,
                -0.05607438060795409,
                0.4260827338208406,
                3.1247248027008214
            ]
        }
    ]
}