{
    "goal": {
        "global_pose": {
            "orientation": {
                "w": 0.7047431493862688,
                "x": -0.7094548369677653,
                "y": 0.0024358444001904,
                "z": -0.0022348060817251984
            },
            "position": {
                "x": -0.39052492380142206,
                "y": 0.3671506643295288,
                "z": 0.19426114857196808
            }
        },
        "name": "move_to_magneteinheit_D"
    },
    "id": "BKPIECE_move_to_magneteinheit_D_116",
    "joint_names": [
        "shoulder_pan_joint",
        "shoulder_lift_joint",
        "elbow_joint",
        "wrist_1_joint",
        "wrist_2_joint",
        "wrist_3_joint"
    ],
    "metrics": {
        "cart_traj_len": 4.510636845300057,
        "distance_elbow_joint": 3.290287339364127,
        "distance_shoulder_lift_joint": 1.1934899908769427,
        "distance_shoulder_pan_joint": 3.0606453406682235,
        "distance_wrist_1_joint": 2.6373359306209228,
        "distance_wrist_2_joint": 0.8195655248819158,
        "distance_wrist_3_joint": 6.203378334209541,
        "smoothness": 0.3531318807267051,
        "time": 0.688866948,
        "traj_len": 4.147855163891536,
        "weighted_distance": 5.750509593465922
    },
    "planner": "BKPIECE",
    "start": {
        "state": {
            "elbow_joint": 0.7495348899011973,
            "shoulder_lift_joint": -0.6476975780737697,
            "shoulder_pan_joint": -2.711696901376276,
            "wrist_1_joint": -0.07506478080974305,
            "wrist_2_joint": 0.4329665971545858,
            "wrist_3_joint": 3.1361499051832524
        }
    },
    "waypoints": [
        {
            "positions": [
                -2.711696901376276,
                -0.6476975780737697,
                0.7495348899011973,
                -0.07506478080974305,
                0.4329665971545858,
                3.1361499051832524
            ]
        },
        {
            "positions": [
                -2.7132100975764204,
                -0.6717266005171801,
                0.7824305266110566,
                -0.0007036333547411483,
                0.41656317138205406,
                2.981249896611211
            ]
        },
        {
            "positions": [
                -2.714723293776565,
                -0.6957556229605907,
                0.815326163320916,
                0.07365751410026075,
                0.4001597456095223,
                2.8263498880391698
            ]
        },
        {
            "positions": [
                -2.7162364899767093,
                -0.7197846454040011,
                0.8482218000307753,
                0.14801866155526266,
                0.38375631983699054,
                2.6714498794671284
            ]
        },
        {
            "positions": [
                -2.638221853815249,
                -0.827110741003494,
                0.7664134106977286,
                0.11685221546198947,
                0.3683391813380962,
                2.6732055541365587
            ]
        },
        {
            "positions": [
                -2.5602072176537884,
                -0.9344368366029868,
                0.684605021364682,
                0.08568576936871627,
                0.35292204283920187,
                2.6749612288059894
            ]
        },
        {
            "positions": [
                -2.482192581492328,
                -1.0417629322024797,
                0.6027966320316354,
                0.054519323275443066,
                0.3375049043403075,
                2.6767169034754197
            ]
        },
        {
            "positions": [
                -2.412999112182401,
                -1.0622359022150698,
                0.5318152187268255,
                -0.0023344579701900237,
                0.32084629022428934,
                2.5240197644618765
            ]
        },
        {
            "positions": [
                -2.3438056428724736,
                -1.08270887222766,
                0.46083380542201563,
                -0.05918823921582311,
                0.3041876761082712,
                2.3713226254483333
            ]
        },
        {
            "positions": [
                -2.274612173562546,
                -1.1031818422402502,
                0.3898523921172058,
                -0.1160420204614562,
                0.28752906199225303,
                2.21862548643479
            ]
        },
        {
            "positions": [
                -2.2054187042526188,
                -1.1236548122528405,
                0.3188709788123959,
                -0.1728958017070893,
                0.2708704478762348,
                2.065928347421247
            ]
        },
        {
            "positions": [
                -2.1362252349426916,
                -1.1441277822654305,
                0.247889565507586,
                -0.2297495829527224,
                0.25421183376021667,
                1.9132312084077037
            ]
        },
        {
            "positions": [
                -2.0670317656327644,
                -1.1646007522780206,
                0.17690815220277617,
                -0.28660336419835547,
                0.2375532196441985,
                1.7605340693941605
            ]
        },
        {
            "positions": [
                -1.997838296322837,
                -1.185073722290611,
                0.10592673889796628,
                -0.3434571454439886,
                0.22089460552818035,
                1.6078369303806175
            ]
        },
        {
            "positions": [
                -1.9286448270129097,
                -1.205546692303201,
                0.03494532559315644,
                -0.40031092668962165,
                0.2042359914121622,
                1.4551397913670743
            ]
        },
        {
            "positions": [
                -1.8594513577029823,
                -1.226019662315791,
                -0.03603608771165345,
                -0.45716470793525477,
                0.18757737729614402,
                1.302442652353531
            ]
        },
        {
            "positions": [
                -1.790257888393055,
                -1.2464926323283814,
                -0.10701750101646335,
                -0.5140184891808879,
                0.17091876318012586,
                1.1497455133399879
            ]
        },
        {
            "positions": [
                -1.721064419083128,
                -1.2669656023409714,
                -0.17799891432127313,
                -0.5708722704265209,
                0.1542601490641077,
                0.9970483743264447
            ]
        },
        {
            "positions": [
                -1.6518709497732007,
                -1.2874385723535617,
                -0.24898032762608302,
                -0.627726051672154,
                0.13760153494808952,
                0.8443512353129015
            ]
        },
        {
            "positions": [
                -1.5826774804632733,
                -1.3079115423661518,
                -0.3199617409308929,
                -0.6845798329177871,
                0.12094292083207137,
                0.6916540962993585
            ]
        },
        {
            "positions": [
                -1.5134840111533459,
                -1.3283845123787419,
                -0.3909431542357028,
                -0.7414336141634202,
                0.10428430671605321,
                0.5389569572858153
            ]
        },
        {
            "positions": [
                -1.4442905418434187,
                -1.3488574823913322,
                -0.4619245675405126,
                -0.7982873954090532,
                0.08762569260003503,
                0.38625981827227207
            ]
        },
        {
            "positions": [
                -1.3750970725334914,
                -1.3693304524039223,
                -0.5329059808453225,
                -0.8551411766546864,
                0.0709670784840169,
                0.23356267925872887
            ]
        },
        {
            "positions": [
                -1.305903603223564,
                -1.3898034224165126,
                -0.6038873941501324,
                -0.9119949579003195,
                0.05430846436799869,
                0.08086554024518566
            ]
        },
        {
            "positions": [
                -1.2367101339136368,
                -1.4102763924291026,
                -0.6748688074549423,
                -0.9688487391459526,
                0.03764985025198053,
                -0.07183159876835754
            ]
        },
        {
            "positions": [
                -1.1675166646037096,
                -1.4307493624416927,
                -0.7458502207597519,
                -1.0257025203915855,
                0.020991236135962432,
                -0.2245287377819003
            ]
        },
        {
            "positions": [
                -1.0983231952937822,
                -1.451222332454283,
                -0.816831634064562,
                -1.0825563016372188,
                0.004332622019944221,
                -0.37722587679544395
            ]
        },
        {
            "positions": [
                -1.029129725983855,
                -1.471695302466873,
                -0.8878130473693717,
                -1.1394100828828517,
                -0.012325992096073934,
                -0.5299230158089867
            ]
        },
        {
            "positions": [
                -0.9599362566739276,
                -1.4921682724794634,
                -0.9587944606741816,
                -1.1962638641284848,
                -0.02898460621209209,
                -0.6826201548225304
            ]
        },
        {
            "positions": [
                -0.8907427873640006,
                -1.5126412424920535,
                -1.0297758739789915,
                -1.253117645374118,
                -0.045643220328110246,
                -0.8353172938360731
            ]
        },
        {
            "positions": [
                -0.8215493180540732,
                -1.5331142125046435,
                -1.1007572872838014,
                -1.309971426619751,
                -0.06230183444412846,
                -0.9880144328496168
            ]
        },
        {
            "positions": [
                -0.752355848744146,
                -1.5535871825172336,
                -1.171738700588611,
                -1.366825207865384,
                -0.07896044856014656,
                -1.1407115718631595
            ]
        },
        {
            "positions": [
                -0.6831623794342185,
                -1.574060152529824,
                -1.2427201138934212,
                -1.4236789891110173,
                -0.09561906267616477,
                -1.2934087108767027
            ]
        },
        {
            "positions": [
                -0.6139689101242913,
                -1.594533122542414,
                -1.3137015271982309,
                -1.4805327703566502,
                -0.11227767679218287,
                -1.4461058498902455
            ]
        },
        {
            "positions": [
                -0.5447754408143639,
                -1.6150060925550043,
                -1.384682940503041,
                -1.5373865516022835,
                -0.12893629090820108,
                -1.5988029889037891
            ]
        },
        {
            "positions": [
                -0.47558197150443693,
                -1.6354790625675943,
                -1.4556643538078504,
                -1.5942403328479164,
                -0.14559490502421923,
                -1.751500127917332
            ]
        },
        {
            "positions": [
                -0.4063885021945093,
                -1.6559520325801844,
                -1.5266457671126605,
                -1.6510941140935496,
                -0.16225351914023745,
                -1.9041972669308755
            ]
        },
        {
            "positions": [
                -0.3371950328845821,
                -1.6764250025927745,
                -1.5976271804174702,
                -1.7079478953391827,
                -0.1789121332562556,
                -2.0568944059444183
            ]
        },
        {
            "positions": [
                -0.2680015635746549,
                -1.696897972605365,
                -1.6686085937222803,
                -1.7648016765848158,
                -0.1955707473722737,
                -2.209591544957962
            ]
        },
        {
            "positions": [
                -0.19880809426472767,
                -1.717370942617955,
                -1.73959000702709,
                -1.8216554578304487,
                -0.2122293614882919,
                -2.3622886839715047
            ]
        },
        {
            "positions": [
                -0.12961462495480003,
                -1.7378439126305452,
                -1.8105714203319,
                -1.878509239076082,
                -0.22888797560431012,
                -2.5149858229850484
            ]
        },
        {
            "positions": [
                -0.060421155644872826,
                -1.7583168826431352,
                -1.8815528336367098,
                -1.935363020321715,
                -0.24554658972032822,
                -2.667682961998591
            ]
        },
        {
            "positions": [
                0.008772313665054376,
                -1.7787898526557255,
                -1.95253424694152,
                -1.9922168015673483,
                -0.26220520383634643,
                -2.8203801010121348
            ]
        },
        {
            "positions": [
                0.07796578297498152,
                -1.7992628226683156,
                -2.0235156602463293,
                -2.049070582812981,
                -0.27886381795236453,
                -2.9730772400256775
            ]
        },
        {
            "positions": [
                -0.009335376730384815,
                -1.78528790724085,
                -2.130136649898811,
                -2.121458330775539,
                -0.24295211469404276,
                -3.0009496203536874
            ]
        },
        {
            "positions": [
                -0.09663653643575115,
                -1.7713129918133843,
                -2.2367576395512923,
                -2.1938460787380967,
                -0.20704041143572097,
                -3.028822000681697
            ]
        },
        {
            "positions": [
                -0.18393769614111746,
                -1.7573380763859188,
                -2.343378629203774,
                -2.2662338267006548,
                -0.17112870817739917,
                -3.0566943810097067
            ]
        }
    ]
}