{
    "goal": {
        "global_pose": {
            "orientation": {
                "w": 0.5084816262002911,
                "x": -0.4908360881923452,
                "y": 0.5182115481033761,
                "z": -0.48164630358495003
            },
            "position": {
                "x": 0.5540239810943604,
                "y": -0.46912469901144505,
                "z": 0.16403168439865112
            }
        },
        "name": "move_to_storage_B"
    },
    "id": "BKPIECE_move_to_storage_B_28",
    "joint_names": [
        "shoulder_pan_joint",
        "shoulder_lift_joint",
        "elbow_joint",
        "wrist_1_joint",
        "wrist_2_joint",
        "wrist_3_joint"
    ],
    "metrics": {
        "cart_traj_len": 2.154691400656832,
        "distance_elbow_joint": 1.0381471260415471,
        "distance_shoulder_lift_joint": 0.4610755735837655,
        "distance_shoulder_pan_joint": 2.250142526788456,
        "distance_wrist_1_joint": 2.976462643987298,
        "distance_wrist_2_joint": 2.7004891661244934,
        "distance_wrist_3_joint": 3.1411229119634045,
        "smoothness": 0.23020490037220492,
        "time": 0.555836463,
        "traj_len": 3.5450585253968607,
        "weighted_distance": 4.952437539487759
    },
    "planner": "BKPIECE",
    "start": {
        "state": {
            "elbow_joint": 1.6649325706314817,
            "shoulder_lift_joint": -0.6616388048112454,
            "shoulder_pan_joint": -0.9139837860083814,
            "wrist_1_joint": 2.146757197745094,
            "wrist_2_joint": -2.234196043158733,
            "wrist_3_joint": 0.005471033829999897
        }
    },
    "waypoints": [
        {
            "positions": [
                -0.9139837860083814,
                -0.6616388048112454,
                1.6649325706314817,
                2.146757197745094,
                -2.234196043158733,
                0.005471033829999897
            ]
        },
        {
            "positions": [
                -0.8277693309461145,
                -0.6999494612215779,
                1.6361236406257964,
                2.0702753281207644,
                -2.1486354725701733,
                0.08397009897266196
            ]
        },
        {
            "positions": [
                -0.7415548758838477,
                -0.7382601176319104,
                1.6073147106201109,
                1.9937934584964347,
                -2.0630749019816133,
                0.162469164115324
            ]
        },
        {
            "positions": [
                -0.6553404208215807,
                -0.7765707740422427,
                1.5785057806144256,
                1.917311588872105,
                -1.9775143313930537,
                0.24096822925798608
            ]
        },
        {
            "positions": [
                -0.569125965759314,
                -0.8148814304525752,
                1.5496968506087403,
                1.8408297192477756,
                -1.891953760804494,
                0.31946729440064814
            ]
        },
        {
            "positions": [
                -0.482911510697047,
                -0.8531920868629077,
                1.520887920603055,
                1.764347849623446,
                -1.8063931902159345,
                0.3979663595433103
            ]
        },
        {
            "positions": [
                -0.3966970556347802,
                -0.8915027432732402,
                1.4920789905973697,
                1.6878659799991163,
                -1.7208326196273747,
                0.4764654246859723
            ]
        },
        {
            "positions": [
                -0.3104826005725133,
                -0.9298133996835727,
                1.4632700605916842,
                1.6113841103747866,
                -1.6352720490388148,
                0.5549644898286344
            ]
        },
        {
            "positions": [
                -0.22426814551024654,
                -0.9681240560939051,
                1.434461130585999,
                1.5349022407504571,
                -1.5497114784502553,
                0.6334635549712964
            ]
        },
        {
            "positions": [
                -0.13805369044797955,
                -1.0064347125042377,
                1.4056522005803136,
                1.4584203711261274,
                -1.4641509078616957,
                0.7119626201139585
            ]
        },
        {
            "positions": [
                -0.05183923538571267,
                -1.04474536891457,
                1.376843270574628,
                1.3819385015017978,
                -1.3785903372731358,
                0.7904616852566206
            ]
        },
        {
            "positions": [
                0.0343752196765541,
                -1.0830560253249026,
                1.3480343405689428,
                1.305456631877468,
                -1.293029766684576,
                0.8689607503992826
            ]
        },
        {
            "positions": [
                0.12058967473882107,
                -1.121366681735235,
                1.3192254105632575,
                1.2289747622531384,
                -1.2074691960960164,
                0.9474598155419447
            ]
        },
        {
            "positions": [
                0.05981122143675839,
                -1.1212992969022462,
                1.3538474088619237,
                1.1260407518283713,
                -1.1237810801429275,
                1.0574165220545177
            ]
        },
        {
            "positions": [
                -0.0009672318653042855,
                -1.1212319120692573,
                1.3884694071605899,
                1.0231067414036041,
                -1.0400929641898389,
                1.1673732285670908
            ]
        },
        {
            "positions": [
                -0.06174568516736695,
                -1.1211645272362687,
                1.4230914054592558,
                0.9201727309788372,
                -0.95640484823675,
                1.2773299350796636
            ]
        },
        {
            "positions": [
                -0.12252413846942964,
                -1.1210971424032798,
                1.457713403757922,
                0.8172387205540701,
                -0.8727167322836612,
                1.3872866415922367
            ]
        },
        {
            "positions": [
                -0.1833025917714923,
                -1.121029757570291,
                1.4923354020565882,
                0.714304710129303,
                -0.7890286163305724,
                1.4972433481048097
            ]
        },
        {
            "positions": [
                -0.24408104507355496,
                -1.1209623727373024,
                1.5269574003552544,
                0.611370699704536,
                -0.7053405003774836,
                1.6072000546173828
            ]
        },
        {
            "positions": [
                -0.30485949837561765,
                -1.1208949879043135,
                1.5615793986539206,
                0.5084366892797688,
                -0.6216523844243949,
                1.7171567611299556
            ]
        },
        {
            "positions": [
                -0.3656379516776803,
                -1.1208276030713247,
                1.5962013969525866,
                0.4055026788550017,
                -0.537964268471306,
                1.827113467642529
            ]
        },
        {
            "positions": [
                -0.426416404979743,
                -1.1207602182383358,
                1.6308233952512527,
                0.30256866843023456,
                -0.4542761525182172,
                1.9370701741551017
            ]
        },
        {
            "positions": [
                -0.48719485828180564,
                -1.120692833405347,
                1.665445393549919,
                0.19963465800546754,
                -0.3705880365651284,
                2.0470268806676746
            ]
        },
        {
            "positions": [
                -0.5479733115838684,
                -1.1206254485723584,
                1.7000673918485851,
                0.0967006475807004,
                -0.2868999206120395,
                2.156983587180248
            ]
        },
        {
            "positions": [
                -0.608751764885931,
                -1.1205580637393695,
                1.7346893901472513,
                -0.006233362844066503,
                -0.20321180465895083,
                2.2669402936928207
            ]
        },
        {
            "positions": [
                -0.6695302181879937,
                -1.1204906789063807,
                1.7693113884459173,
                -0.10916737326883386,
                -0.11952368870586194,
                2.376897000205394
            ]
        },
        {
            "positions": [
                -0.7303086714900563,
                -1.120423294073392,
                1.8039333867445835,
                -0.21210138369360076,
                -0.03583557275277327,
                2.486853706717967
            ]
        },
        {
            "positions": [
                -0.791087124792119,
                -1.1203559092404032,
                1.8385553850432497,
                -0.3150353941183679,
                0.04785254320031562,
                2.59681041323054
            ]
        },
        {
            "positions": [
                -0.8518655780941817,
                -1.1202885244074143,
                1.8731773833419159,
                -0.417969404543135,
                0.13154065915340452,
                2.706767119743113
            ]
        },
        {
            "positions": [
                -0.9126440313962443,
                -1.1202211395744255,
                1.907799381640582,
                -0.5209034149679019,
                0.2152287751064932,
                2.8167238262556857
            ]
        },
        {
            "positions": [
                -0.9734224846983071,
                -1.1201537547414366,
                1.942421379939248,
                -0.6238374253926693,
                0.2989168910595821,
                2.926680532768259
            ]
        },
        {
            "positions": [
                -1.0342009380003696,
                -1.120086369908448,
                1.9770433782379142,
                -0.7267714358174362,
                0.38260500701267075,
                3.0366372392808314
            ]
        },
        {
            "positions": [
                -1.0949793913024324,
                -1.1200189850754592,
                2.0116653765365804,
                -0.8297054462422032,
                0.4662931229657596,
                3.1465939457934047
            ]
        }
    ]
}