{
    "goal": {
        "global_pose": {
            "orientation": {
                "w": 0.7047431468963623,
                "x": -0.7094548344612122,
                "y": 0.0024358443915843964,
                "z": -0.0022348060738295317
            },
            "position": {
                "x": 0.6094750761985779,
                "y": 0.3671506643295288,
                "z": 0.19426114857196808
            }
        },
        "name": "move_to_magneteinheit_A"
    },
    "id": "BKPIECE_move_to_magneteinheit_A_7",
    "joint_names": [
        "shoulder_pan_joint",
        "shoulder_lift_joint",
        "elbow_joint",
        "wrist_1_joint",
        "wrist_2_joint",
        "wrist_3_joint"
    ],
    "metrics": {
        "cart_traj_len": 1.0529093256238506,
        "distance_elbow_joint": 0.40361982402391416,
        "distance_shoulder_lift_joint": 0.35414379650314864,
        "distance_shoulder_pan_joint": 1.242160130789585,
        "distance_wrist_1_joint": 2.3023914690367056,
        "distance_wrist_2_joint": 1.7041051850042959,
        "distance_wrist_3_joint": 1.139064037882961,
        "smoothness": 0.0,
        "time": 0.37383284399999994,
        "traj_len": 2.673103896828668,
        "weighted_distance": 3.664711335568947
    },
    "planner": "BKPIECE",
    "start": {
        "state": {
            "elbow_joint": 1.5739458966750683,
            "shoulder_lift_joint": -1.4977259741207325,
            "shoulder_pan_joint": -1.1188672016454206,
            "wrist_1_joint": 1.494575848278785,
            "wrist_2_joint": -1.5706037134824402,
            "wrist_3_joint": -2.0226957942261072
        }
    },
    "waypoints": [
        {
            "positions": [
                -1.1188672016454206,
                -1.4977259741207325,
                1.5739458966750683,
                1.494575848278785,
                -1.5706037134824402,
                -2.0226957942261072
            ]
        },
        {
            "positions": [
                -1.0534903526564952,
                -1.4790868269363562,
                1.5951890453079058,
                1.373397349908432,
                -1.4809139669032667,
                -2.0826465330620527
            ]
        },
        {
            "positions": [
                -0.9881135036675696,
                -1.46044767975198,
                1.6164321939407436,
                1.2522188515380792,
                -1.3912242203240932,
                -2.1425972718979978
            ]
        },
        {
            "positions": [
                -0.9227366546786441,
                -1.4418085325676038,
                1.637675342573581,
                1.1310403531677262,
                -1.30153447374492,
                -2.2025480107339432
            ]
        },
        {
            "positions": [
                -0.8573598056897185,
                -1.4231693853832275,
                1.6589184912064188,
                1.0098618547973732,
                -1.2118447271657464,
                -2.2624987495698887
            ]
        },
        {
            "positions": [
                -0.791982956700793,
                -1.4045302381988514,
                1.6801616398392563,
                0.8886833564270203,
                -1.122154980586573,
                -2.3224494884058338
            ]
        },
        {
            "positions": [
                -0.7266061077118675,
                -1.385891091014475,
                1.701404788472094,
                0.7675048580566675,
                -1.0324652340073994,
                -2.3824002272417792
            ]
        },
        {
            "positions": [
                -0.661229258722942,
                -1.3672519438300987,
                1.7226479371049315,
                0.6463263596863146,
                -0.942775487428226,
                -2.4423509660777243
            ]
        },
        {
            "positions": [
                -0.5958524097340164,
                -1.3486127966457226,
                1.743891085737769,
                0.5251478613159617,
                -0.8530857408490525,
                -2.5023017049136698
            ]
        },
        {
            "positions": [
                -0.530475560745091,
                -1.3299736494613463,
                1.7651342343706067,
                0.4039693629456087,
                -0.763395994269879,
                -2.562252443749615
            ]
        },
        {
            "positions": [
                -0.46509871175616535,
                -1.31133450227697,
                1.7863773830034442,
                0.2827908645752557,
                -0.6737062476907056,
                -2.6222031825855603
            ]
        },
        {
            "positions": [
                -0.39972186276723976,
                -1.2926953550925937,
                1.807620531636282,
                0.1616123662049027,
                -0.584016501111532,
                -2.6821539214215058
            ]
        },
        {
            "positions": [
                -0.33434501377831427,
                -1.2740562079082176,
                1.8288636802691194,
                0.04043386783454994,
                -0.49432675453235864,
                -2.742104660257451
            ]
        },
        {
            "positions": [
                -0.2689681647893887,
                -1.2554170607238413,
                1.850106828901957,
                -0.08074463053580305,
                -0.40463700795318513,
                -2.8020553990933963
            ]
        },
        {
            "positions": [
                -0.2035913158004633,
                -1.236777913539465,
                1.8713499775347946,
                -0.20192312890615582,
                -0.31494726137401186,
                -2.8620061379293418
            ]
        },
        {
            "positions": [
                -0.1382144668115377,
                -1.2181387663550889,
                1.892593126167632,
                -0.3231016272765088,
                -0.22525751479483813,
                -2.921956876765287
            ]
        },
        {
            "positions": [
                -0.07283761782261222,
                -1.1994996191707126,
                1.9138362748004698,
                -0.4442801256468616,
                -0.13556776821566485,
                -2.9819076156012323
            ]
        },
        {
            "positions": [
                -0.007460768833686515,
                -1.1808604719863363,
                1.9350794234333073,
                -0.5654586240172146,
                -0.04587802163649135,
                -3.041858354437178
            ]
        },
        {
            "positions": [
                0.05791608015523875,
                -1.1622213248019602,
                1.9563225720661448,
                -0.6866371223875676,
                0.04381172494268215,
                -3.101809093273123
            ]
        },
        {
            "positions": [
                0.12329292914416455,
                -1.1435821776175839,
                1.9775657206989825,
                -0.8078156207579208,
                0.13350147152185557,
                -3.1617598321090683
            ]
        }
    ]
}