{
    "goal": {
        "global_pose": {
            "orientation": {
                "w": -0.4816463035849501,
                "x": 0.5182115481033762,
                "y": 0.4908360881923453,
                "z": -0.5084816262002911
            },
            "position": {
                "x": -0.8240239810943604,
                "y": 0.19912469901144506,
                "z": 0.16403168439865112
            }
        },
        "name": "move_to_storage_D"
    },
    "id": "BKPIECE_move_to_storage_D_75",
    "joint_names": [
        "shoulder_pan_joint",
        "shoulder_lift_joint",
        "elbow_joint",
        "wrist_1_joint",
        "wrist_2_joint",
        "wrist_3_joint"
    ],
    "metrics": {
        "cart_traj_len": 0.6474846417359992,
        "distance_elbow_joint": 0.555648563094403,
        "distance_shoulder_lift_joint": 0.19999829107381828,
        "distance_shoulder_pan_joint": 0.19820082859162125,
        "distance_wrist_1_joint": 4.052538875919094,
        "distance_wrist_2_joint": 1.7769598410873566,
        "distance_wrist_3_joint": 3.157279031022099,
        "smoothness": 0.131013222587196,
        "time": 0.12785016700000001,
        "traj_len": 3.1528757398268006,
        "weighted_distance": 4.699434243591354
    },
    "planner": "BKPIECE",
    "start": {
        "state": {
            "elbow_joint": -2.384821997420982,
            "shoulder_lift_joint": -2.2788054674887404,
            "shoulder_pan_joint": -0.18546946417610016,
            "wrist_1_joint": 1.4845937964226739,
            "wrist_2_joint": 0.1789877726866377,
            "wrist_3_joint": 0.03710572555276528
        }
    },
    "waypoints": [
        {
            "positions": [
                -0.18546946417610016,
                -2.2788054674887404,
                -2.384821997420982,
                1.4845937964226739,
                0.1789877726866377,
                0.03710572555276528
            ]
        },
        {
            "positions": [
                -0.13732778707614676,
                -2.224515749539345,
                -2.367379027282513,
                1.5405146030141985,
                0.10174365798053998,
                0.11197271329361025
            ]
        },
        {
            "positions": [
                -0.08918610997619336,
                -2.1702260315899498,
                -2.349936057144044,
                1.5964354096057232,
                0.024499543274442266,
                0.18683970103445524
            ]
        },
        {
            "positions": [
                -0.010745590980077463,
                -2.1027087799190367,
                -2.245548650514552,
                1.560069615100843,
                -0.02085906938206564,
                0.23474775890313412
            ]
        },
        {
            "positions": [
                -0.01176632817119045,
                -2.1037479800713896,
                -2.2274453802455096,
                1.390316073003836,
                -0.089429199774181,
                0.3634276283671224
            ]
        },
        {
            "positions": [
                -0.012787065362303437,
                -2.104787180223742,
                -2.2093421099764674,
                1.2205625309068289,
                -0.15799933016629636,
                0.49210749783111063
            ]
        },
        {
            "positions": [
                -0.013807802553416425,
                -2.105826380376095,
                -2.191238839707425,
                1.0508089888098215,
                -0.22656946055841173,
                0.620787367295099
            ]
        },
        {
            "positions": [
                -0.014828539744529412,
                -2.106865580528448,
                -2.1731355694383825,
                0.8810554467128144,
                -0.2951395909505271,
                0.7494672367590872
            ]
        },
        {
            "positions": [
                -0.0158492769356424,
                -2.107904780680801,
                -2.1550322991693402,
                0.7113019046158073,
                -0.3637097213426425,
                0.8781471062230755
            ]
        },
        {
            "positions": [
                -0.016870014126755387,
                -2.1089439808331534,
                -2.136929028900298,
                0.5415483625188002,
                -0.43227985173475786,
                1.0068269756870638
            ]
        },
        {
            "positions": [
                -0.017890751317868374,
                -2.1099831809855063,
                -2.1188257586312558,
                0.3717948204217929,
                -0.5008499821268733,
                1.1355068451510522
            ]
        },
        {
            "positions": [
                -0.01891148850898136,
                -2.1110223811378592,
                -2.1007224883622135,
                0.2020412783247858,
                -0.5694201125189885,
                1.2641867146150403
            ]
        },
        {
            "positions": [
                -0.01993222570009435,
                -2.112061581290212,
                -2.0826192180931713,
                0.032287736227778696,
                -0.637990242911104,
                1.3928665840790286
            ]
        },
        {
            "positions": [
                -0.020952962891207336,
                -2.1131007814425646,
                -2.0645159478241286,
                -0.1374658058692284,
                -0.7065603733032193,
                1.5215464535430168
            ]
        },
        {
            "positions": [
                -0.021973700082320323,
                -2.1141399815949176,
                -2.0464126775550864,
                -0.30721934796623573,
                -0.7751305036953346,
                1.6502263230070051
            ]
        },
        {
            "positions": [
                -0.02299443727343331,
                -2.1151791817472705,
                -2.028309407286044,
                -0.4769728900632426,
                -0.84370063408745,
                1.7789061924709935
            ]
        },
        {
            "positions": [
                -0.024015174464546298,
                -2.1162183818996234,
                -2.010206137017002,
                -0.6467264321602499,
                -0.9122707644795653,
                1.9075860619349816
            ]
        },
        {
            "positions": [
                -0.025035911655659285,
                -2.117257582051976,
                -1.9921028667479597,
                -0.8164799742572573,
                -0.9808408948716808,
                2.03626593139897
            ]
        },
        {
            "positions": [
                -0.026056648846772272,
                -2.118296782204329,
                -1.9739995964789174,
                -0.9862335163542642,
                -1.049411025263796,
                2.164945800862958
            ]
        },
        {
            "positions": [
                -0.02707738603788526,
                -2.1193359823566817,
                -1.955896326209875,
                -1.1559870584512715,
                -1.1179811556559114,
                2.2936256703269464
            ]
        },
        {
            "positions": [
                -0.028098123228998247,
                -2.1203751825090347,
                -1.9377930559408327,
                -1.3257406005482784,
                -1.1865512860480267,
                2.4223055397909348
            ]
        },
        {
            "positions": [
                -0.029118860420111234,
                -2.121414382661387,
                -1.9196897856717903,
                -1.4954941426452857,
                -1.2551214164401423,
                2.550985409254923
            ]
        },
        {
            "positions": [
                -0.03013959761122422,
                -2.12245358281374,
                -1.901586515402748,
                -1.665247684742293,
                -1.3236915468322576,
                2.6796652787189115
            ]
        },
        {
            "positions": [
                -0.03116033480233721,
                -2.123492782966093,
                -1.8834832451337058,
                -1.8350012268393,
                -1.392261677224373,
                2.8083451481828994
            ]
        },
        {
            "positions": [
                -0.032181071993450196,
                -2.124531983118446,
                -1.8653799748646636,
                -2.0047547689363068,
                -1.4608318076164881,
                2.9370250176468877
            ]
        },
        {
            "positions": [
                -0.03320180918456318,
                -2.1255711832707984,
                -1.847276704595621,
                -2.1745083110333145,
                -1.5294019380086037,
                3.065704887110876
            ]
        },
        {
            "positions": [
                -0.03422254637567617,
                -2.1266103834231513,
                -1.8291734343265789,
                -2.3442618531303214,
                -1.597972068400719,
                3.1943847565748644
            ]
        }
    ]
}