{
    "goal": {
        "global_pose": {
            "orientation": {
                "w": 0.5084816217422485,
                "x": -0.49083608388900757,
                "y": 0.5182115435600281,
                "z": -0.4816462993621826
            },
            "position": {
                "x": 0.5540239810943604,
                "y": 0.030875300988554955,
                "z": 0.16403168439865112
            }
        },
        "name": "move_to_storage_A"
    },
    "id": "BKPIECE_move_to_storage_A_77",
    "joint_names": [
        "shoulder_pan_joint",
        "shoulder_lift_joint",
        "elbow_joint",
        "wrist_1_joint",
        "wrist_2_joint",
        "wrist_3_joint"
    ],
    "metrics": {
        "cart_traj_len": 0.35278166969873687,
        "distance_elbow_joint": 0.4474258747725903,
        "distance_shoulder_lift_joint": 0.2339110897099408,
        "distance_shoulder_pan_joint": 0.4626201290901653,
        "distance_wrist_1_joint": 0.23643633685909748,
        "distance_wrist_2_joint": 1.0917313723781814,
        "distance_wrist_3_joint": 0.09503919074603528,
        "smoothness": 4.440892133664971e-16,
        "time": 0.962016653,
        "traj_len": 1.6022371839262783,
        "weighted_distance": 2.0212397394384864
    },
    "planner": "BKPIECE",
    "start": {
        "state": {
            "elbow_joint": 1.9715474177455299,
            "shoulder_lift_joint": -1.139484666580328,
            "shoulder_pan_joint": 0.12281154398918248,
            "wrist_1_joint": -0.7804687475355282,
            "wrist_2_joint": 0.12958649657246987,
            "wrist_3_joint": -3.1924925159053466
        }
    },
    "waypoints": [
        {
            "positions": [
                0.12281154398918248,
                -1.139484666580328,
                1.9715474177455299,
                -0.7804687475355282,
                0.12958649657246987,
                -3.1924925159053466
            ]
        },
        {
            "positions": [
                0.05672295411915887,
                -1.172900536538891,
                2.0354653998559,
                -0.8142453670868278,
                0.2855481211979244,
                -3.178915488655913
            ]
        },
        {
            "positions": [
                -0.009365635750864743,
                -1.2063164064974539,
                2.09938338196627,
                -0.8480219866381274,
                0.4415097458233789,
                -3.1653384614064795
            ]
        },
        {
            "positions": [
                -0.07545422562088835,
                -1.2397322764560168,
                2.16330136407664,
                -0.8817986061894271,
                0.5974713704488334,
                -3.151761434157046
            ]
        },
        {
            "positions": [
                -0.14154281549091197,
                -1.27314814641458,
                2.22721934618701,
                -0.9155752257407268,
                0.753432995074288,
                -3.138184406907612
            ]
        },
        {
            "positions": [
                -0.2076314053609356,
                -1.306564016373143,
                2.2911373282973804,
                -0.9493518452920264,
                0.9093946196997426,
                -3.1246073796581784
            ]
        },
        {
            "positions": [
                -0.2737199952309592,
                -1.3399798863317058,
                2.3550553104077503,
                -0.983128464843326,
                1.065356244325197,
                -3.111030352408745
            ]
        },
        {
            "positions": [
                -0.33980858510098283,
                -1.3733957562902688,
                2.41897329251812,
                -1.0169050843946257,
                1.2213178689506514,
                -3.0974533251593113
            ]
        }
    ]
}