{
    "goal": {
        "global_pose": {
            "orientation": {
                "w": 0.7047431468963623,
                "x": -0.7094548344612122,
                "y": 0.0024358443915843964,
                "z": -0.0022348060738295317
            },
            "position": {
                "x": 0.6094750761985779,
                "y": 0.3671506643295288,
                "z": 0.19426114857196808
            }
        },
        "name": "move_to_magneteinheit_A"
    },
    "id": "BKPIECE_move_to_magneteinheit_A_134",
    "joint_names": [
        "shoulder_pan_joint",
        "shoulder_lift_joint",
        "elbow_joint",
        "wrist_1_joint",
        "wrist_2_joint",
        "wrist_3_joint"
    ],
    "metrics": {
        "cart_traj_len": 1.0524967701867052,
        "distance_elbow_joint": 0.4119075519855886,
        "distance_shoulder_lift_joint": 0.3514002530878193,
        "distance_shoulder_pan_joint": 1.2404119043747652,
        "distance_wrist_1_joint": 2.3420944273771394,
        "distance_wrist_2_joint": 1.6909968902767576,
        "distance_wrist_3_joint": 1.1023005760788664,
        "smoothness": 0.0,
        "time": 1.27410933,
        "traj_len": 2.6719116009293677,
        "weighted_distance": 3.657431349047111
    },
    "planner": "BKPIECE",
    "start": {
        "state": {
            "elbow_joint": 1.5739458966750683,
            "shoulder_lift_joint": -1.4977259741207325,
            "shoulder_pan_joint": -1.1188672016454206,
            "wrist_1_joint": 1.494575848278785,
            "wrist_2_joint": -1.5706037134824402,
            "wrist_3_joint": -2.0226957942261072
        }
    },
    "waypoints": [
        {
            "positions": [
                -1.1188672016454206,
                -1.4977259741207325,
                1.5739458966750683,
                1.494575848278785,
                -1.5706037134824402,
                -2.0226957942261072
            ]
        },
        {
            "positions": [
                -1.0535823645730646,
                -1.4792312239582157,
                1.5956252415164152,
                1.3713077205220934,
                -1.4816038771520845,
                -2.080711614019732
            ]
        },
        {
            "positions": [
                -0.9882975275007085,
                -1.460736473795699,
                1.617304586357762,
                1.248039592765402,
                -1.3926040408217288,
                -2.138727433813356
            ]
        },
        {
            "positions": [
                -0.9230126904283524,
                -1.4422417236331821,
                1.6389839311991086,
                1.1247714650087104,
                -1.3036042044913732,
                -2.196743253606981
            ]
        },
        {
            "positions": [
                -0.8577278533559964,
                -1.4237469734706654,
                1.6606632760404554,
                1.0015033372520188,
                -1.2146043681610177,
                -2.2547590734006056
            ]
        },
        {
            "positions": [
                -0.7924430162836403,
                -1.4052522233081484,
                1.6823426208818022,
                0.8782352094953273,
                -1.125604531830662,
                -2.31277489319423
            ]
        },
        {
            "positions": [
                -0.7271581792112842,
                -1.3867574731456316,
                1.704021965723149,
                0.7549670817386358,
                -1.0366046955003063,
                -2.3707907129878545
            ]
        },
        {
            "positions": [
                -0.6618733421389282,
                -1.3682627229831148,
                1.7257013105644958,
                0.6316989539819442,
                -0.9476048591699506,
                -2.428806532781479
            ]
        },
        {
            "positions": [
                -0.5965885050665721,
                -1.349767972820598,
                1.7473806554058424,
                0.5084308262252527,
                -0.858605022839595,
                -2.4868223525751034
            ]
        },
        {
            "positions": [
                -0.5313036679942161,
                -1.3312732226580812,
                1.7690600002471892,
                0.3851626984685612,
                -0.7696051865092393,
                -2.544838172368728
            ]
        },
        {
            "positions": [
                -0.46601883092186003,
                -1.3127784724955645,
                1.790739345088536,
                0.2618945707118696,
                -0.6806053501788837,
                -2.602853992162353
            ]
        },
        {
            "positions": [
                -0.4007339938495039,
                -1.2942837223330477,
                1.8124186899298829,
                0.138626442955178,
                -0.5916055138485279,
                -2.660869811955977
            ]
        },
        {
            "positions": [
                -0.3354491567771479,
                -1.2757889721705309,
                1.8340980347712295,
                0.015358315198486627,
                -0.5026056775181724,
                -2.7188856317496017
            ]
        },
        {
            "positions": [
                -0.2701643197047918,
                -1.257294222008014,
                1.8557773796125763,
                -0.1079098125582052,
                -0.4136058411878165,
                -2.7769014515432264
            ]
        },
        {
            "positions": [
                -0.20487948263243583,
                -1.238799471845497,
                1.877456724453923,
                -0.23117794031489658,
                -0.32460600485746105,
                -2.8349172713368507
            ]
        },
        {
            "positions": [
                -0.1395946455600796,
                -1.2203047216829805,
                1.89913606929527,
                -0.3544460680715882,
                -0.23560616852710514,
                -2.8929330911304754
            ]
        },
        {
            "positions": [
                -0.07430980848772362,
                -1.2018099715204635,
                1.9208154141366167,
                -0.47771419582827956,
                -0.14660633219674968,
                -2.9509489109241
            ]
        },
        {
            "positions": [
                -0.009024971415367622,
                -1.1833152213579468,
                1.9424947589779635,
                -0.6009823235849712,
                -0.05760649586639399,
                -3.0089647307177247
            ]
        },
        {
            "positions": [
                0.05625986565698837,
                -1.16482047119543,
                1.9641741038193101,
                -0.7242504513416625,
                0.031393340463961694,
                -3.066980550511349
            ]
        },
        {
            "positions": [
                0.12154470272934463,
                -1.1463257210329132,
                1.985853448660657,
                -0.8475185790983545,
                0.12039317679431744,
                -3.1249963703049737
            ]
        }
    ]
}