{
    "goal": {
        "global_pose": {
            "orientation": {
                "w": -0.4816463035849501,
                "x": 0.5182115481033762,
                "y": 0.4908360881923453,
                "z": -0.5084816262002911
            },
            "position": {
                "x": -0.8240239810943604,
                "y": -0.300875300988555,
                "z": 0.16403168439865112
            }
        },
        "name": "move_to_storage_C"
    },
    "id": "BKPIECE_move_to_storage_C_78",
    "joint_names": [
        "shoulder_pan_joint",
        "shoulder_lift_joint",
        "elbow_joint",
        "wrist_1_joint",
        "wrist_2_joint",
        "wrist_3_joint"
    ],
    "metrics": {
        "cart_traj_len": 0.576380671746731,
        "distance_elbow_joint": 0.25823931420536095,
        "distance_shoulder_lift_joint": 0.18779111139065507,
        "distance_shoulder_pan_joint": 0.4963701345329192,
        "distance_wrist_1_joint": 0.08696539701704253,
        "distance_wrist_2_joint": 1.0577931831729246,
        "distance_wrist_3_joint": 0.058480249828036346,
        "smoothness": 2.5376526478085547e-16,
        "time": 0.269947247,
        "traj_len": 1.4648001195203866,
        "weighted_distance": 1.8459031583463361
    },
    "planner": "BKPIECE",
    "start": {
        "state": {
            "elbow_joint": 2.010868315001653,
            "shoulder_lift_joint": -1.1634956873357014,
            "shoulder_pan_joint": -2.4736205022346103,
            "wrist_1_joint": -0.8367026794713948,
            "wrist_2_joint": 0.6746043897044093,
            "wrist_3_joint": 3.1335220948105738
        }
    },
    "waypoints": [
        {
            "positions": [
                -2.4736205022346103,
                -1.1634956873357014,
                2.010868315001653,
                -0.8367026794713948,
                0.6746043897044093,
                3.1335220948105738
            ]
        },
        {
            "positions": [
                -2.5563488579900966,
                -1.1321971687705923,
                1.9678284293007595,
                -0.822208446635221,
                0.8509032535665634,
                3.1432688031152463
            ]
        },
        {
            "positions": [
                -2.6390772137455834,
                -1.1008986502054832,
                1.9247885435998662,
                -0.8077142137990473,
                1.0272021174287174,
                3.153015511419919
            ]
        },
        {
            "positions": [
                -2.72180556950107,
                -1.0696001316403738,
                1.8817486578989726,
                -0.7932199809628735,
                1.2035009812908717,
                3.162762219724592
            ]
        },
        {
            "positions": [
                -2.8045339252565564,
                -1.0383016130752647,
                1.838708772198079,
                -0.7787257481266997,
                1.3797998451530256,
                3.1725089280292647
            ]
        },
        {
            "positions": [
                -2.8872622810120427,
                -1.0070030945101556,
                1.7956688864971857,
                -0.764231515290526,
                1.5560987090151799,
                3.182255636333937
            ]
        },
        {
            "positions": [
                -2.9699906367675295,
                -0.9757045759450463,
                1.7526290007962921,
                -0.7497372824543522,
                1.732397572877334,
                3.19200234463861
            ]
        }
    ]
}