{
    "goal": {
        "global_pose": {
            "orientation": {
                "w": 0.005598929693374612,
                "x": 0.007748599140229565,
                "y": 0.7110244013736278,
                "z": -0.7031023480610252
            },
            "position": {
                "x": -0.8858502320852131,
                "y": -0.7141253447532654,
                "z": 0.3711530566215515
            }
        },
        "name": "move_to_auspresseinheit_C"
    },
    "id": "BKPIECE_move_to_auspresseinheit_C_91",
    "joint_names": [
        "shoulder_pan_joint",
        "shoulder_lift_joint",
        "elbow_joint",
        "wrist_1_joint",
        "wrist_2_joint",
        "wrist_3_joint"
    ],
    "metrics": {
        "cart_traj_len": 0.4942808152370641,
        "distance_elbow_joint": 1.0143593272375064,
        "distance_shoulder_lift_joint": 0.33115658368319756,
        "distance_shoulder_pan_joint": 0.256309646990851,
        "distance_wrist_1_joint": 0.7068325524097981,
        "distance_wrist_2_joint": 1.3107269890891509,
        "distance_wrist_3_joint": 0.07150911464318987,
        "smoothness": 0.0,
        "time": 1.035592042,
        "traj_len": 1.9211700117516133,
        "weighted_distance": 2.41898160076488
    },
    "planner": "BKPIECE",
    "start": {
        "state": {
            "elbow_joint": 1.752795957773711,
            "shoulder_lift_joint": -0.9740617694225064,
            "shoulder_pan_joint": -2.967991417825858,
            "wrist_1_joint": -0.7595177689806859,
            "wrist_2_joint": 1.7443932448377395,
            "wrist_3_joint": 3.199131542505932
        }
    },
    "waypoints": [
        {
            "positions": [
                -2.967991417825858,
                -0.9740617694225064,
                1.752795957773711,
                -0.7595177689806859,
                1.7443932448377395,
                3.199131542505932
            ]
        },
        {
            "positions": [
                -2.942360453126773,
                -0.9409461110541867,
                1.6513600250499605,
                -0.6888345137397061,
                1.6133205459288245,
                3.1919806310416132
            ]
        },
        {
            "positions": [
                -2.9167294884276878,
                -0.9078304526858669,
                1.5499240923262099,
                -0.6181512584987263,
                1.4822478470199094,
                3.1848297195772943
            ]
        },
        {
            "positions": [
                -2.8910985237286027,
                -0.8747147943175472,
                1.4484881596024592,
                -0.5474680032577465,
                1.3511751481109942,
                3.177678808112975
            ]
        },
        {
            "positions": [
                -2.8654675590295176,
                -0.8415991359492274,
                1.3470522268787084,
                -0.4767847480167666,
                1.220102449202079,
                3.170527896648656
            ]
        },
        {
            "positions": [
                -2.8398365943304325,
                -0.8084834775809077,
                1.2456162941549578,
                -0.40610149277578683,
                1.089029750293164,
                3.163376985184337
            ]
        },
        {
            "positions": [
                -2.8142056296313473,
                -0.7753678192125879,
                1.1441803614312072,
                -0.33541823753480704,
                0.957957051384249,
                3.1562260737200183
            ]
        },
        {
            "positions": [
                -2.7885746649322622,
                -0.7422521608442681,
                1.0427444287074565,
                -0.26473498229382725,
                0.826884352475334,
                3.1490751622556994
            ]
        },
        {
            "positions": [
                -2.762943700233177,
                -0.7091365024759484,
                0.9413084959837059,
                -0.19405172705284734,
                0.6958116535664187,
                3.14192425079138
            ]
        },
        {
            "positions": [
                -2.737312735534092,
                -0.6760208441076286,
                0.8398725632599553,
                -0.12336847181186761,
                0.5647389546575037,
                3.134773339327061
            ]
        },
        {
            "positions": [
                -2.711681770835007,
                -0.6429051857393089,
                0.7384366305362047,
                -0.05268521657088777,
                0.43366625574858875,
                3.1276224278627422
            ]
        }
    ]
}