{
    "goal": {
        "global_pose": {
            "orientation": {
                "w": 0.7031023480610252,
                "x": -0.7110244013736278,
                "y": 0.0077485991402295624,
                "z": 0.005598929693374583
            },
            "position": {
                "x": -0.8841497679147869,
                "y": 0.44412534475326537,
                "z": 0.3711530566215515
            }
        },
        "name": "move_to_auspresseinheit_D"
    },
    "id": "BKPIECE_move_to_auspresseinheit_D_68",
    "joint_names": [
        "shoulder_pan_joint",
        "shoulder_lift_joint",
        "elbow_joint",
        "wrist_1_joint",
        "wrist_2_joint",
        "wrist_3_joint"
    ],
    "metrics": {
        "cart_traj_len": 3.583449031694645,
        "distance_elbow_joint": 3.2032627147335155,
        "distance_shoulder_lift_joint": 1.3876552909518987,
        "distance_shoulder_pan_joint": 2.8047629619912926,
        "distance_wrist_1_joint": 1.3114732735120436,
        "distance_wrist_2_joint": 0.8875644441845725,
        "distance_wrist_3_joint": 3.0384378512483985,
        "smoothness": 0.05525130864073452,
        "time": 1.490999599,
        "traj_len": 3.5543151993909774,
        "weighted_distance": 4.5726436507577475
    },
    "planner": "BKPIECE",
    "start": {
        "state": {
            "elbow_joint": 1.8268400409724999,
            "shoulder_lift_joint": -1.0144045787793008,
            "shoulder_pan_joint": 2.6280239544362485,
            "wrist_1_joint": -0.790705565816056,
            "wrist_2_joint": 1.0573557467365533,
            "wrist_3_joint": 3.1851377467193758
        }
    },
    "waypoints": [
        {
            "positions": [
                2.6280239544362485,
                -1.0144045787793008,
                1.8268400409724999,
                -0.790705565816056,
                1.0573557467365533,
                3.1851377467193758
            ]
        },
        {
            "positions": [
                2.6320925103199055,
                -1.0276241618293365,
                1.8166898756718362,
                -0.7927016661942401,
                1.0430948063524557,
                3.1676214165849474
            ]
        },
        {
            "positions": [
                2.568208285855367,
                -1.0685070624585578,
                1.7384094182737855,
                -0.7771347767932625,
                0.9701768334955925,
                3.0434740321541986
            ]
        },
        {
            "positions": [
                2.504324061390829,
                -1.1093899630877793,
                1.6601289608757346,
                -0.7615678873922849,
                0.8972588606387292,
                2.9193266477234503
            ]
        },
        {
            "positions": [
                2.4404398369262905,
                -1.1502728637170005,
                1.581848503477684,
                -0.7460009979913074,
                0.8243408877818659,
                2.7951792632927015
            ]
        },
        {
            "positions": [
                2.3765556124617517,
                -1.1911557643462218,
                1.5035680460796332,
                -0.7304341085903298,
                0.7514229149250027,
                2.6710318788619527
            ]
        },
        {
            "positions": [
                2.3126713879972134,
                -1.2320386649754433,
                1.4252875886815823,
                -0.7148672191893521,
                0.6785049420681395,
                2.546884494431204
            ]
        },
        {
            "positions": [
                2.248787163532675,
                -1.2729215656046646,
                1.3470071312835317,
                -0.6993003297883745,
                0.6055869692112762,
                2.4227371100004556
            ]
        },
        {
            "positions": [
                2.155810661251121,
                -1.3163499619172236,
                1.2422598310895105,
                -0.6525281822219132,
                0.5888255974166878,
                2.335197217133937
            ]
        },
        {
            "positions": [
                2.062834158969567,
                -1.3597783582297827,
                1.1375125308954896,
                -0.6057560346554519,
                0.5720642256220996,
                2.2476573242674185
            ]
        },
        {
            "positions": [
                1.969857656688013,
                -1.4032067545423417,
                1.0327652307014685,
                -0.5589838870889906,
                0.5553028538275112,
                2.1601174314009004
            ]
        },
        {
            "positions": [
                1.876881154406459,
                -1.4466351508549007,
                0.9280179305074475,
                -0.5122117395225293,
                0.538541482032923,
                2.072577538534382
            ]
        },
        {
            "positions": [
                1.783904652124905,
                -1.49006354716746,
                0.8232706303134265,
                -0.465439591956068,
                0.5217801102383346,
                1.9850376456678633
            ]
        },
        {
            "positions": [
                1.690928149843351,
                -1.5334919434800187,
                0.7185233301194054,
                -0.4186674443896067,
                0.5050187384437463,
                1.897497752801345
            ]
        },
        {
            "positions": [
                1.5979516475617972,
                -1.576920339792578,
                0.6137760299253845,
                -0.37189529682314537,
                0.488257366649158,
                1.8099578599348267
            ]
        },
        {
            "positions": [
                1.504975145280243,
                -1.620348736105137,
                0.5090287297313634,
                -0.32512314925668406,
                0.4714959948545697,
                1.7224179670683082
            ]
        },
        {
            "positions": [
                1.411998642998689,
                -1.663777132417696,
                0.40428142953734236,
                -0.27835100169022275,
                0.45473462305998136,
                1.6348780742017899
            ]
        },
        {
            "positions": [
                1.319022140717135,
                -1.707205528730255,
                0.29953412934332135,
                -0.23157885412376145,
                0.43797325126539305,
                1.5473381813352713
            ]
        },
        {
            "positions": [
                1.226045638435581,
                -1.750633925042814,
                0.19478682914930023,
                -0.18480670655730014,
                0.42121187947080474,
                1.459798288468753
            ]
        },
        {
            "positions": [
                1.1330691361540268,
                -1.794062321355373,
                0.09003952895527911,
                -0.13803455899083883,
                0.40445050767621643,
                1.3722583956022345
            ]
        },
        {
            "positions": [
                1.040092633872473,
                -1.837490717667932,
                -0.014707771238741785,
                -0.09126241142437752,
                0.3876891358816281,
                1.2847185027357162
            ]
        },
        {
            "positions": [
                0.9471161315909191,
                -1.880919113980491,
                -0.11945507143276268,
                -0.04449026385791621,
                0.3709277640870398,
                1.1971786098691979
            ]
        },
        {
            "positions": [
                0.854139629309365,
                -1.92434751029305,
                -0.2242023716267838,
                0.002281883708544985,
                0.3541663922924515,
                1.1096387170026796
            ]
        },
        {
            "positions": [
                0.761163127027811,
                -1.9677759066056093,
                -0.3289496718208049,
                0.049054031275006404,
                0.3374050204978632,
                1.0220988241361608
            ]
        },
        {
            "positions": [
                0.6681866247462569,
                -2.011204302918168,
                -0.43369697201482604,
                0.09582617884146771,
                0.3206436487032749,
                0.9345589312696425
            ]
        },
        {
            "positions": [
                0.575210122464703,
                -2.0546326992307273,
                -0.5384442722088469,
                0.14259832640792902,
                0.3038822769086866,
                0.8470190384031242
            ]
        },
        {
            "positions": [
                0.48223362018314897,
                -2.098061095543286,
                -0.6431915724028678,
                0.18937047397439033,
                0.28712090511409827,
                0.7594791455366059
            ]
        },
        {
            "positions": [
                0.3892571179015949,
                -2.1414894918558454,
                -0.747938872596889,
                0.23614262154085164,
                0.2703595333195099,
                0.6719392526700871
            ]
        },
        {
            "positions": [
                0.2962806156200408,
                -2.184917888168404,
                -0.8526861727909103,
                0.28291476910731295,
                0.2535981615249216,
                0.5843993598035688
            ]
        },
        {
            "positions": [
                0.20330411333848675,
                -2.2283462844809634,
                -0.9574334729849312,
                0.32968691667377426,
                0.23683678973033329,
                0.4968594669370505
            ]
        },
        {
            "positions": [
                0.1103276110569329,
                -2.271774680793522,
                -1.062180773178952,
                0.37645906424023556,
                0.22007541793574498,
                0.409319574070532
            ]
        },
        {
            "positions": [
                0.0173511087753786,
                -2.3152030771060814,
                -1.1669280733729734,
                0.42323121180669687,
                0.20331404614115667,
                0.32177968120401346
            ]
        },
        {
            "positions": [
                -0.07562539350617525,
                -2.35863147341864,
                -1.2716753735669943,
                0.4700033593731582,
                0.18655267434656836,
                0.23423978833749537
            ]
        },
        {
            "positions": [
                -0.16860189578772927,
                -2.4020598697311994,
                -1.3764226737610155,
                0.5167755069396195,
                0.16979130255198005,
                0.14669989547097698
            ]
        }
    ]
}