{
    "goal": {
        "global_pose": {
            "orientation": {
                "w": 0.7047431468963623,
                "x": -0.7094548344612122,
                "y": 0.0024358443915843964,
                "z": -0.0022348060738295317
            },
            "position": {
                "x": 0.6094750761985779,
                "y": 0.3671506643295288,
                "z": 0.19426114857196808
            }
        },
        "name": "move_to_magneteinheit_A"
    },
    "id": "BKPIECE_move_to_magneteinheit_A_132",
    "joint_names": [
        "shoulder_pan_joint",
        "shoulder_lift_joint",
        "elbow_joint",
        "wrist_1_joint",
        "wrist_2_joint",
        "wrist_3_joint"
    ],
    "metrics": {
        "cart_traj_len": 1.0546934696051455,
        "distance_elbow_joint": 0.37862016751330363,
        "distance_shoulder_lift_joint": 0.37001436519255027,
        "distance_shoulder_pan_joint": 1.2423804621456307,
        "distance_wrist_1_joint": 2.197026682165194,
        "distance_wrist_2_joint": 1.694549225572387,
        "distance_wrist_3_joint": 1.2301415072786392,
        "smoothness": 9.349246597189412e-17,
        "time": 0.760913921,
        "traj_len": 2.666970642858242,
        "weighted_distance": 3.669412941079617
    },
    "planner": "BKPIECE",
    "start": {
        "state": {
            "elbow_joint": 1.5739458966750683,
            "shoulder_lift_joint": -1.4977259741207325,
            "shoulder_pan_joint": -1.1188672016454206,
            "wrist_1_joint": 1.494575848278785,
            "wrist_2_joint": -1.5706037134824402,
            "wrist_3_joint": -2.0226957942261072
        }
    },
    "waypoints": [
        {
            "positions": [
                -1.1188672016454206,
                -1.4977259741207325,
                1.5739458966750683,
                1.494575848278785,
                -1.5706037134824402,
                -2.0226957942261072
            ]
        },
        {
            "positions": [
                -1.0498460648595522,
                -1.4771696204989242,
                1.5949803504258075,
                1.3725188103807187,
                -1.4764620898395298,
                -2.0910369890749205
            ]
        },
        {
            "positions": [
                -0.9808249280736839,
                -1.456613266877116,
                1.6160148041765465,
                1.2504617724826523,
                -1.3823204661966195,
                -2.159378183923734
            ]
        },
        {
            "positions": [
                -0.9118037912878155,
                -1.4360569132553074,
                1.6370492579272855,
                1.128404734584586,
                -1.288178842553709,
                -2.227719378772547
            ]
        },
        {
            "positions": [
                -0.8427826545019472,
                -1.415500559633499,
                1.6580837116780247,
                1.0063476966865197,
                -1.1940372189107986,
                -2.2960605736213604
            ]
        },
        {
            "positions": [
                -0.7737615177160788,
                -1.3949442060116908,
                1.679118165428764,
                0.8842906587884534,
                -1.0998955952678882,
                -2.3644017684701737
            ]
        },
        {
            "positions": [
                -0.7047403809302104,
                -1.3743878523898825,
                1.7001526191795029,
                0.762233620890387,
                -1.005753971624978,
                -2.432742963318987
            ]
        },
        {
            "positions": [
                -0.635719244144342,
                -1.353831498768074,
                1.7211870729302419,
                0.6401765829923207,
                -0.9116123479820675,
                -2.5010841581678003
            ]
        },
        {
            "positions": [
                -0.5666981073584737,
                -1.3332751451462657,
                1.742221526680981,
                0.5181195450942544,
                -0.8174707243391571,
                -2.5694253530166136
            ]
        },
        {
            "positions": [
                -0.4976769705726053,
                -1.3127187915244574,
                1.7632559804317203,
                0.3960625071961881,
                -0.7233291006962467,
                -2.637766547865427
            ]
        },
        {
            "positions": [
                -0.4286558337867369,
                -1.292162437902649,
                1.7842904341824593,
                0.27400546929812175,
                -0.6291874770533362,
                -2.70610774271424
            ]
        },
        {
            "positions": [
                -0.3596346970008685,
                -1.2716060842808408,
                1.8053248879331985,
                0.15194843140005543,
                -0.5350458534104259,
                -2.7744489375630534
            ]
        },
        {
            "positions": [
                -0.2906135602150002,
                -1.2510497306590322,
                1.8263593416839374,
                0.029891393501989105,
                -0.44090422976751564,
                -2.8427901324118667
            ]
        },
        {
            "positions": [
                -0.22159242342913177,
                -1.230493377037224,
                1.8473937954346766,
                -0.09216564439607722,
                -0.3467626061246052,
                -2.91113132726068
            ]
        },
        {
            "positions": [
                -0.15257128664326347,
                -1.2099370234154156,
                1.8684282491854156,
                -0.21422268229414354,
                -0.25262098248169473,
                -2.9794725221094933
            ]
        },
        {
            "positions": [
                -0.08355014985739495,
                -1.1893806697936071,
                1.8894627029361546,
                -0.33627972019220986,
                -0.15847935883878428,
                -3.0478137169583066
            ]
        },
        {
            "positions": [
                -0.014529013071526764,
                -1.1688243161717988,
                1.9104971566868938,
                -0.4583367580902762,
                -0.06433773519587405,
                -3.11615491180712
            ]
        },
        {
            "positions": [
                0.054492123714341645,
                -1.1482679625499905,
                1.931531610437633,
                -0.5803937959883425,
                0.02980388844703641,
                -3.184496106655933
            ]
        },
        {
            "positions": [
                0.12351326050021007,
                -1.1277116089281822,
                1.952566064188372,
                -0.7024508338864088,
                0.12394551208994678,
                -3.2528373015047465
            ]
        }
    ]
}