{
    "goal": {
        "global_pose": {
            "orientation": {
                "w": 0.005598929693374612,
                "x": 0.007748599140229565,
                "y": 0.7110244013736278,
                "z": -0.7031023480610252
            },
            "position": {
                "x": -0.8858502320852131,
                "y": -0.7141253447532654,
                "z": 0.3711530566215515
            }
        },
        "name": "move_to_auspresseinheit_C"
    },
    "id": "BKPIECE_move_to_auspresseinheit_C_48",
    "joint_names": [
        "shoulder_pan_joint",
        "shoulder_lift_joint",
        "elbow_joint",
        "wrist_1_joint",
        "wrist_2_joint",
        "wrist_3_joint"
    ],
    "metrics": {
        "cart_traj_len": 0.49413665455214495,
        "distance_elbow_joint": 1.0165258294641524,
        "distance_shoulder_lift_joint": 0.3331096643950474,
        "distance_shoulder_pan_joint": 0.25608381675183,
        "distance_wrist_1_joint": 0.7072082497666199,
        "distance_wrist_2_joint": 1.3127324753386933,
        "distance_wrist_3_joint": 0.07800708255274014,
        "smoothness": 3.2297397335745243e-16,
        "time": 1.177812716,
        "traj_len": 1.9244913921005424,
        "weighted_distance": 2.424793188805981
    },
    "planner": "BKPIECE",
    "start": {
        "state": {
            "elbow_joint": 1.752795957773711,
            "shoulder_lift_joint": -0.9740617694225064,
            "shoulder_pan_joint": -2.967991417825858,
            "wrist_1_joint": -0.7595177689806859,
            "wrist_2_joint": 1.7443932448377395,
            "wrist_3_joint": 3.199131542505932
        }
    },
    "waypoints": [
        {
            "positions": [
                -2.967991417825858,
                -0.9740617694225064,
                1.752795957773711,
                -0.7595177689806859,
                1.7443932448377395,
                3.199131542505932
            ]
        },
        {
            "positions": [
                -2.942383036150675,
                -0.9407508029830017,
                1.651143374827296,
                -0.6887969440040239,
                1.6131199973038701,
                3.191330834250658
            ]
        },
        {
            "positions": [
                -2.916774654475492,
                -0.9074398365434969,
                1.5494907918808807,
                -0.6180761190273619,
                1.4818467497700007,
                3.183530125995384
            ]
        },
        {
            "positions": [
                -2.891166272800309,
                -0.8741288701039922,
                1.4478382089344655,
                -0.5473552940506999,
                1.3505735022361316,
                3.17572941774011
            ]
        },
        {
            "positions": [
                -2.865557891125126,
                -0.8408179036644875,
                1.34618562598805,
                -0.47663446907403795,
                1.219300254702262,
                3.167928709484836
            ]
        },
        {
            "positions": [
                -2.839949509449943,
                -0.8075069372249828,
                1.2445330430416348,
                -0.40591364409737596,
                1.0880270071683928,
                3.160128001229562
            ]
        },
        {
            "positions": [
                -2.81434112777476,
                -0.774195970785478,
                1.1428804600952196,
                -0.33519281912071397,
                0.9567537596345236,
                3.152327292974288
            ]
        },
        {
            "positions": [
                -2.7887327460995768,
                -0.7408850043459733,
                1.0412278771488044,
                -0.26447199414405204,
                0.8254805121006542,
                3.144526584719014
            ]
        },
        {
            "positions": [
                -2.763124364424394,
                -0.7075740379064686,
                0.9395752942023892,
                -0.19375116916739,
                0.6942072645667847,
                3.13672587646374
            ]
        },
        {
            "positions": [
                -2.737515982749211,
                -0.6742630714669637,
                0.837922711255974,
                -0.123030344190728,
                0.5629340170329156,
                3.128925168208466
            ]
        },
        {
            "positions": [
                -2.711907601074028,
                -0.640952105027459,
                0.7362701283095587,
                -0.052309519214066014,
                0.4316607694990461,
                3.121124459953192
            ]
        }
    ]
}