{
    "goal": {
        "global_pose": {
            "orientation": {
                "w": -0.00223480608172531,
                "x": 0.0024358444001904467,
                "y": 0.7094548369677653,
                "z": -0.704743149386269
            },
            "position": {
                "x": -0.37947507619857795,
                "y": -0.6371506643295288,
                "z": 0.19426114857196808
            }
        },
        "name": "move_to_magneteinheit_C"
    },
    "id": "BKPIECE_move_to_magneteinheit_C_19",
    "joint_names": [
        "shoulder_pan_joint",
        "shoulder_lift_joint",
        "elbow_joint",
        "wrist_1_joint",
        "wrist_2_joint",
        "wrist_3_joint"
    ],
    "metrics": {
        "cart_traj_len": 2.3483545101189995,
        "distance_elbow_joint": 3.309162487234593,
        "distance_shoulder_lift_joint": 0.971537339118709,
        "distance_shoulder_pan_joint": 1.6066221762933033,
        "distance_wrist_1_joint": 1.3118604390002218,
        "distance_wrist_2_joint": 1.7850468726490787,
        "distance_wrist_3_joint": 2.1457135917744545,
        "smoothness": 1.0615899811369023,
        "time": 0.6260463639999999,
        "traj_len": 3.3361569066922434,
        "weighted_distance": 4.303286813735353
    },
    "planner": "BKPIECE",
    "start": {
        "state": {
            "elbow_joint": 1.9565354006590394,
            "shoulder_lift_joint": -1.4165861576513559,
            "shoulder_pan_joint": -1.6717766223277177,
            "wrist_1_joint": -0.5286633288215096,
            "wrist_2_joint": 1.4727565892594296,
            "wrist_3_joint": 3.1593482883155493
        }
    },
    "waypoints": [
        {
            "positions": [
                -1.6717766223277177,
                -1.4165861576513559,
                1.9565354006590394,
                -0.5286633288215096,
                1.4727565892594296,
                3.1593482883155493
            ]
        },
        {
            "positions": [
                -1.6328490401200293,
                -1.419753018894068,
                1.945139694046814,
                -0.5101752070408331,
                1.4749702679849084,
                3.1607788752891466
            ]
        },
        {
            "positions": [
                -1.5110702024716538,
                -1.4248514940797476,
                1.8352337566108918,
                -0.5036659502185464,
                1.4164932316666172,
                3.1052157682988675
            ]
        },
        {
            "positions": [
                -1.4929363729862406,
                -1.4255253032083215,
                1.8175491951833618,
                -0.5036081919582029,
                1.4066240767954867,
                3.0958757734130655
            ]
        },
        {
            "positions": [
                -1.5123215461548516,
                -1.3954831177394038,
                1.6938528570505487,
                -0.49993177411393974,
                1.3030367052985092,
                3.0200994554518865
            ]
        },
        {
            "positions": [
                -1.5317067193234628,
                -1.3654409322704861,
                1.5701565189177356,
                -0.49625535626967654,
                1.199449333801532,
                2.9443231374907075
            ]
        },
        {
            "positions": [
                -1.551091892492074,
                -1.3353987468015682,
                1.4464601807849224,
                -0.49257893842541334,
                1.0958619623045545,
                2.8685468195295285
            ]
        },
        {
            "positions": [
                -1.570477065660685,
                -1.3053565613326505,
                1.3227638426521093,
                -0.48890252058115014,
                0.9922745908075771,
                2.7927705015683495
            ]
        },
        {
            "positions": [
                -1.589862238829296,
                -1.2753143758637329,
                1.1990675045192962,
                -0.48522610273688693,
                0.8886872193105996,
                2.7169941836071705
            ]
        },
        {
            "positions": [
                -1.6092474119979072,
                -1.2452721903948152,
                1.0753711663864831,
                -0.48154968489262373,
                0.7850998478136222,
                2.6412178656459915
            ]
        },
        {
            "positions": [
                -1.6526872230560408,
                -1.2186400434928921,
                1.0158656657728817,
                -0.46033398360538064,
                0.7351497768016164,
                2.599559542507537
            ]
        },
        {
            "positions": [
                -1.6961270341141743,
                -1.1920078965909688,
                0.9563601651592804,
                -0.43911828231813754,
                0.6851997057896108,
                2.5579012193690827
            ]
        },
        {
            "positions": [
                -1.7823231604553391,
                -1.1447365638274027,
                0.8779099783319603,
                -0.3868627130205589,
                0.6227717816538277,
                2.496623771725763
            ]
        },
        {
            "positions": [
                -1.8685192867965041,
                -1.0974652310638369,
                0.7994597915046402,
                -0.33460714372298034,
                0.5603438575180448,
                2.435346324082443
            ]
        },
        {
            "positions": [
                -1.9547154131376692,
                -1.0501938983002708,
                0.72100960467732,
                -0.2823515744254017,
                0.4979159333822618,
                2.3740688764391233
            ]
        },
        {
            "positions": [
                -2.040911539478834,
                -1.002922565536705,
                0.6425594178499999,
                -0.2300960051278231,
                0.43548800924647885,
                2.312791428795803
            ]
        },
        {
            "positions": [
                -2.1271076658199988,
                -0.9556512327731388,
                0.5641092310226798,
                -0.1778404358302445,
                0.3730600851106959,
                2.2515139811524834
            ]
        },
        {
            "positions": [
                -2.213303792161164,
                -0.9083799000095727,
                0.4856590441953597,
                -0.12558486653266587,
                0.31063216097491286,
                2.1902365335091636
            ]
        },
        {
            "positions": [
                -2.299499918502329,
                -0.8611085672460067,
                0.4072088573680396,
                -0.0733292972350873,
                0.2482042368391299,
                2.128959085865844
            ]
        },
        {
            "positions": [
                -2.3856960448434936,
                -0.8138372344824407,
                0.32875867054071944,
                -0.02107372793750866,
                0.1857763127033469,
                2.067681638222524
            ]
        },
        {
            "positions": [
                -2.4168367895494365,
                -0.8321718043078131,
                0.46613233834511314,
                -0.08911886451326054,
                0.23501722675631181,
                2.149635267652355
            ]
        },
        {
            "positions": [
                -2.447977534255379,
                -0.8505063741331856,
                0.6035060061495068,
                -0.1571640010890124,
                0.28425814080927675,
                2.2315888970821858
            ]
        },
        {
            "positions": [
                -2.4791182789613218,
                -0.868840943958558,
                0.7408796739539004,
                -0.22520913766476425,
                0.33349905486224163,
                2.313542526512017
            ]
        },
        {
            "positions": [
                -2.5102590236672646,
                -0.8871755137839304,
                0.8782533417582941,
                -0.29325427424051614,
                0.38273996891520656,
                2.395496155941848
            ]
        },
        {
            "positions": [
                -2.541399768373207,
                -0.9055100836093029,
                1.0156270095626878,
                -0.361299410816268,
                0.4319808829681715,
                2.477449785371679
            ]
        },
        {
            "positions": [
                -2.57254051307915,
                -0.9238446534346754,
                1.1530006773670813,
                -0.4293445473920198,
                0.4812217970211363,
                2.5594034148015097
            ]
        },
        {
            "positions": [
                -2.6036812577850927,
                -0.9421792232600478,
                1.290374345171475,
                -0.49738968396777167,
                0.5304627110741013,
                2.6413570442313405
            ]
        },
        {
            "positions": [
                -2.6348220024910356,
                -0.9605137930854202,
                1.4277480129758688,
                -0.5654348205435236,
                0.5797036251270662,
                2.723310673661172
            ]
        },
        {
            "positions": [
                -2.665962747196978,
                -0.9788483629107927,
                1.5651216807802626,
                -0.6334799571192754,
                0.6289445391800311,
                2.8052643030910027
            ]
        },
        {
            "positions": [
                -2.697103491902921,
                -0.9971829327361651,
                1.7024953485846561,
                -0.7015250936950272,
                0.6781854532329961,
                2.8872179325208336
            ]
        },
        {
            "positions": [
                -2.6225652225578724,
                -1.053037741596878,
                1.805045041608768,
                -0.7427982511479281,
                0.6777754205288665,
                2.964434423666142
            ]
        },
        {
            "positions": [
                -2.5480269532128235,
                -1.1088925504575906,
                1.90759473463288,
                -0.784071408600829,
                0.6773653878247369,
                3.0416509148114503
            ]
        },
        {
            "positions": [
                -2.473488683867775,
                -1.1647473593183033,
                2.010144427656992,
                -0.8253445660537299,
                0.6769553551206073,
                3.1188674059567587
            ]
        }
    ]
}