{
    "goal": {
        "global_pose": {
            "orientation": {
                "w": 0.5084816262002911,
                "x": -0.4908360881923452,
                "y": 0.5182115481033761,
                "z": -0.48164630358495003
            },
            "position": {
                "x": 0.5540239810943604,
                "y": -0.46912469901144505,
                "z": 0.16403168439865112
            }
        },
        "name": "move_to_storage_B"
    },
    "id": "BKPIECE_move_to_storage_B_7",
    "joint_names": [
        "shoulder_pan_joint",
        "shoulder_lift_joint",
        "elbow_joint",
        "wrist_1_joint",
        "wrist_2_joint",
        "wrist_3_joint"
    ],
    "metrics": {
        "cart_traj_len": 1.3466177203931218,
        "distance_elbow_joint": 1.0955269055559624,
        "distance_shoulder_lift_joint": 0.4590648675387823,
        "distance_shoulder_pan_joint": 1.0759764602750619,
        "distance_wrist_1_joint": 2.9946169998840877,
        "distance_wrist_2_joint": 2.6999711953426937,
        "distance_wrist_3_joint": 3.1458113799879817,
        "smoothness": 0.18752567028590153,
        "time": 1.7879406969999998,
        "traj_len": 3.38688172344187,
        "weighted_distance": 4.843261170305325
    },
    "planner": "BKPIECE",
    "start": {
        "state": {
            "elbow_joint": 1.6649325706314817,
            "shoulder_lift_joint": -0.6616388048112454,
            "shoulder_pan_joint": -0.9139837860083814,
            "wrist_1_joint": 2.146757197745094,
            "wrist_2_joint": -2.234196043158733,
            "wrist_3_joint": 0.005471033829999897
        }
    },
    "waypoints": [
        {
            "positions": [
                -0.9139837860083814,
                -0.6616388048112454,
                1.6649325706314817,
                2.146757197745094,
                -2.234196043158733,
                0.005471033829999897
            ]
        },
        {
            "positions": [
                -0.83775135525945,
                -0.7113972049605362,
                1.6382807822735737,
                2.0974614010558352,
                -2.1270669712556245,
                0.05431805280590328
            ]
        },
        {
            "positions": [
                -0.8006711759167147,
                -0.739097365402151,
                1.603734671999249,
                2.014276024646187,
                -2.0190699342654654,
                0.14982831227872814
            ]
        },
        {
            "positions": [
                -0.7635909965739792,
                -0.7667975258437658,
                1.5691885617249242,
                1.931090648236539,
                -1.9110728972753062,
                0.245338571751553
            ]
        },
        {
            "positions": [
                -0.7265108172312439,
                -0.7944976862853805,
                1.5346424514505994,
                1.847905271826891,
                -1.8030758602851469,
                0.34084883122437787
            ]
        },
        {
            "positions": [
                -0.6894306378885084,
                -0.8221978467269954,
                1.5000963411762747,
                1.764719895417243,
                -1.6950788232949878,
                0.43635909069720275
            ]
        },
        {
            "positions": [
                -0.6523504585457731,
                -0.8498980071686102,
                1.46555023090195,
                1.6815345190075948,
                -1.5870817863048285,
                0.5318693501700276
            ]
        },
        {
            "positions": [
                -0.6152702792030378,
                -0.877598167610225,
                1.4310041206276252,
                1.5983491425979466,
                -1.4790847493146693,
                0.6273796096428524
            ]
        },
        {
            "positions": [
                -0.5781900998603025,
                -0.9052983280518399,
                1.3964580103533004,
                1.5151637661882986,
                -1.3710877123245102,
                0.7228898691156772
            ]
        },
        {
            "positions": [
                -0.541109920517567,
                -0.9329984884934546,
                1.3619119000789757,
                1.4319783897786504,
                -1.263090675334351,
                0.8184001285885022
            ]
        },
        {
            "positions": [
                -0.5040297411748317,
                -0.9606986489350694,
                1.327365789804651,
                1.3487930133690025,
                -1.1550936383441917,
                0.913910388061327
            ]
        },
        {
            "positions": [
                -0.4669495618320963,
                -0.9883988093766842,
                1.2928196795303262,
                1.2656076369593543,
                -1.0470966013540326,
                1.0094206475341518
            ]
        },
        {
            "positions": [
                -0.5000517847846635,
                -0.9953622232173865,
                1.330894101343737,
                1.154372508585757,
                -0.967471772220454,
                1.1221502141806692
            ]
        },
        {
            "positions": [
                -0.5331540077372307,
                -1.0023256370580889,
                1.368968523157148,
                1.04313738021216,
                -0.8878469430868754,
                1.2348797808271865
            ]
        },
        {
            "positions": [
                -0.5662562306897979,
                -1.009289050898791,
                1.4070429449705588,
                0.9319022518385627,
                -0.8082221139532968,
                1.3476093474737039
            ]
        },
        {
            "positions": [
                -0.5993584536423651,
                -1.0162524647394933,
                1.4451173667839696,
                0.8206671234649656,
                -0.7285972848197182,
                1.4603389141202212
            ]
        },
        {
            "positions": [
                -0.6324606765949323,
                -1.0232158785801957,
                1.4831917885973807,
                0.7094319950913683,
                -0.6489724556861396,
                1.5730684807667386
            ]
        },
        {
            "positions": [
                -0.6655628995474995,
                -1.030179292420898,
                1.5212662104107915,
                0.5981968667177712,
                -0.569347626552561,
                1.685798047413256
            ]
        },
        {
            "positions": [
                -0.6986651225000667,
                -1.0371427062616003,
                1.5593406322242025,
                0.486961738344174,
                -0.4897227974189824,
                1.7985276140597732
            ]
        },
        {
            "positions": [
                -0.7317673454526339,
                -1.0441061201023025,
                1.5974150540376133,
                0.37572660997057683,
                -0.4100979682854038,
                1.9112571807062906
            ]
        },
        {
            "positions": [
                -0.7648695684052012,
                -1.0510695339430047,
                1.635489475851024,
                0.26449148159697966,
                -0.3304731391518252,
                2.023986747352808
            ]
        },
        {
            "positions": [
                -0.7979717913577683,
                -1.0580329477837072,
                1.673563897664435,
                0.15325635322338238,
                -0.2508483100182466,
                2.136716313999325
            ]
        },
        {
            "positions": [
                -0.8310740143103356,
                -1.0649963616244094,
                1.711638319477846,
                0.0420212248497851,
                -0.171223480884668,
                2.249445880645843
            ]
        },
        {
            "positions": [
                -0.8641762372629027,
                -1.0719597754651116,
                1.7497127412912568,
                -0.06921390352381196,
                -0.09159865175108939,
                2.36217544729236
            ]
        },
        {
            "positions": [
                -0.89727846021547,
                -1.078923189305814,
                1.7877871631046678,
                -0.18044903189740924,
                -0.011973822617510788,
                2.4749050139388773
            ]
        },
        {
            "positions": [
                -0.9303806831680371,
                -1.0858866031465162,
                1.8258615849180786,
                -0.2916841602710063,
                0.06765100651606781,
                2.5876345805853944
            ]
        },
        {
            "positions": [
                -0.9634829061206043,
                -1.0928500169872186,
                1.8639360067314894,
                -0.4029192886446036,
                0.1472758356496464,
                2.7003641472319124
            ]
        },
        {
            "positions": [
                -0.9965851290731715,
                -1.0998134308279208,
                1.9020104285449002,
                -0.5141544170182006,
                0.22690066478322501,
                2.8130937138784295
            ]
        },
        {
            "positions": [
                -1.0296873520257388,
                -1.106776844668623,
                1.9400848503583115,
                -0.6253895453917979,
                0.3065254939168036,
                2.9258232805249467
            ]
        },
        {
            "positions": [
                -1.0627895749783058,
                -1.1137402585093255,
                1.9781592721717223,
                -0.736624673765395,
                0.3861503230503822,
                3.038552847171464
            ]
        },
        {
            "positions": [
                -1.095891797930873,
                -1.1207036723500277,
                2.016233693985133,
                -0.8478598021389923,
                0.4657751521839609,
                3.151282413817982
            ]
        }
    ]
}