{
    "goal": {
        "global_pose": {
            "orientation": {
                "w": 0.7047431493862688,
                "x": -0.7094548369677653,
                "y": 0.0024358444001904,
                "z": -0.0022348060817251984
            },
            "position": {
                "x": -0.39052492380142206,
                "y": 0.3671506643295288,
                "z": 0.19426114857196808
            }
        },
        "name": "move_to_magneteinheit_D"
    },
    "id": "BKPIECE_move_to_magneteinheit_D_96",
    "joint_names": [
        "shoulder_pan_joint",
        "shoulder_lift_joint",
        "elbow_joint",
        "wrist_1_joint",
        "wrist_2_joint",
        "wrist_3_joint"
    ],
    "metrics": {
        "cart_traj_len": 6.056800842669248,
        "distance_elbow_joint": 4.282153012006494,
        "distance_shoulder_lift_joint": 1.6337089767881046,
        "distance_shoulder_pan_joint": 7.28871274846037,
        "distance_wrist_1_joint": 1.8329240998225043,
        "distance_wrist_2_joint": 3.382418715172401,
        "distance_wrist_3_joint": 6.333863972739726,
        "smoothness": 0.7344002984025337,
        "time": 1.958544822,
        "traj_len": 4.975317228578454,
        "weighted_distance": 6.529690060444212
    },
    "planner": "BKPIECE",
    "start": {
        "state": {
            "elbow_joint": 0.7495348899011973,
            "shoulder_lift_joint": -0.6476975780737697,
            "shoulder_pan_joint": -2.711696901376276,
            "wrist_1_joint": -0.07506478080974305,
            "wrist_2_joint": 0.4329665971545858,
            "wrist_3_joint": 3.1361499051832524
        }
    },
    "waypoints": [
        {
            "positions": [
                -2.711696901376276,
                -0.6476975780737697,
                0.7495348899011973,
                -0.07506478080974305,
                0.4329665971545858,
                3.1361499051832524
            ]
        },
        {
            "positions": [
                -2.7186042686807186,
                -0.7265738129051387,
                0.6344471700209471,
                -0.12512090061287295,
                0.41408351335984417,
                3.098903232787439
            ]
        },
        {
            "positions": [
                -2.7485231384806053,
                -0.792138969117905,
                0.6510664542018998,
                -0.1905336890893743,
                0.36543468903330273,
                3.0434643616672385
            ]
        },
        {
            "positions": [
                -2.6558137414523153,
                -0.829092113986147,
                0.5696401016584254,
                -0.13885253784894958,
                0.35446667841123825,
                2.9217034730944422
            ]
        },
        {
            "positions": [
                -2.563104344424025,
                -0.866045258854389,
                0.4882137491149511,
                -0.08717138660852487,
                0.3434986677891738,
                2.7999425845216455
            ]
        },
        {
            "positions": [
                -2.470394947395735,
                -0.9029984037226308,
                0.40678739657147667,
                -0.0354902353681002,
                0.33253065716710933,
                2.678181695948849
            ]
        },
        {
            "positions": [
                -2.3776855503674446,
                -0.9399515485908728,
                0.3253610440280023,
                0.016190915872324546,
                0.3215626465450449,
                2.5564208073760524
            ]
        },
        {
            "positions": [
                -2.2849761533391546,
                -0.9769046934591148,
                0.24393469148452795,
                0.06787206711274923,
                0.3105946359229804,
                2.434659918803256
            ]
        },
        {
            "positions": [
                -2.1922667563108647,
                -1.0138578383273567,
                0.1625083389410536,
                0.1195532183531739,
                0.299626625300916,
                2.3128990302304597
            ]
        },
        {
            "positions": [
                -2.0995573592825743,
                -1.0508109831955985,
                0.08108198639757924,
                0.17123436959359867,
                0.2886586146788515,
                2.191138141657663
            ]
        },
        {
            "positions": [
                -2.0068479622542843,
                -1.0877641280638406,
                -0.0003443661458951697,
                0.22291552083402338,
                0.277690604056787,
                2.0693772530848666
            ]
        },
        {
            "positions": [
                -1.9141385652259941,
                -1.1247172729320825,
                -0.08177071868936958,
                0.2745966720744481,
                0.2667225934347226,
                1.94761636451207
            ]
        },
        {
            "positions": [
                -1.8214291681977042,
                -1.1616704178003245,
                -0.16319707123284388,
                0.32627782331487276,
                0.25575458281265817,
                1.8258554759392738
            ]
        },
        {
            "positions": [
                -1.728719771169414,
                -1.1986235626685664,
                -0.2446234237763183,
                0.3779589745552975,
                0.2447865721905937,
                1.7040945873664772
            ]
        },
        {
            "positions": [
                -1.5435810251970428,
                -1.2104056000652565,
                -0.21779683927766058,
                0.4012303714790293,
                0.31918584281094825,
                1.7768950180115963
            ]
        },
        {
            "positions": [
                -1.3584422792246718,
                -1.2221876374619467,
                -0.19097025477900287,
                0.42450176840276105,
                0.39358511343130276,
                1.8496954486567156
            ]
        },
        {
            "positions": [
                -1.1733035332523005,
                -1.2339696748586366,
                -0.16414367028034516,
                0.44777316532649286,
                0.4679843840516573,
                1.9224958793018347
            ]
        },
        {
            "positions": [
                -0.9881647872799294,
                -1.2457517122553268,
                -0.13731708578168744,
                0.4710445622502246,
                0.5423836546720119,
                1.995296309946954
            ]
        },
        {
            "positions": [
                -0.8030260413075582,
                -1.257533749652017,
                -0.11049050128302973,
                0.49431595917395643,
                0.6167829252923664,
                2.068096740592073
            ]
        },
        {
            "positions": [
                -0.617887295335187,
                -1.269315787048707,
                -0.08366391678437202,
                0.5175873560976882,
                0.691182195912721,
                2.1408971712371923
            ]
        },
        {
            "positions": [
                -0.4327485493628158,
                -1.2810978244453972,
                -0.056837332285714304,
                0.54085875302142,
                0.7655814665330756,
                2.213697601882312
            ]
        },
        {
            "positions": [
                -0.2476098033904448,
                -1.2928798618420871,
                -0.03001074778705659,
                0.5641301499451519,
                0.83998073715343,
                2.286498032527431
            ]
        },
        {
            "positions": [
                -0.06247105741807357,
                -1.3046618992387773,
                -0.003184163288398878,
                0.5874015468688836,
                0.9143800077737847,
                2.35929846317255
            ]
        },
        {
            "positions": [
                0.12266768855429766,
                -1.3164439366354674,
                0.023642421210258835,
                0.6106729437926154,
                0.9887792783941391,
                2.432098893817669
            ]
        },
        {
            "positions": [
                0.3078064345266691,
                -1.3282259740321576,
                0.05046900570891655,
                0.6339443407163472,
                1.0631785490144938,
                2.5048993244627886
            ]
        },
        {
            "positions": [
                0.4929451804990399,
                -1.3400080114288477,
                0.07729559020757426,
                0.6572157376400789,
                1.1375778196348483,
                2.5776997551079077
            ]
        },
        {
            "positions": [
                0.6780839264714111,
                -1.3517900488255377,
                0.10412217470623197,
                0.6804871345638108,
                1.211977090255203,
                2.650500185753027
            ]
        },
        {
            "positions": [
                0.8632226724437824,
                -1.3635720862222278,
                0.1309487592048897,
                0.7037585314875425,
                1.2863763608755574,
                2.723300616398146
            ]
        },
        {
            "positions": [
                1.0483614184161536,
                -1.375354123618918,
                0.1577753437035474,
                0.7270299284112743,
                1.360775631495912,
                2.7961010470432655
            ]
        },
        {
            "positions": [
                1.2335001643885244,
                -1.387136161015608,
                0.1846019282022051,
                0.7503013253350062,
                1.4351749021162665,
                2.868901477688384
            ]
        },
        {
            "positions": [
                1.418638910360896,
                -1.3989181984122983,
                0.21142851270086283,
                0.773572722258738,
                1.5095741727366212,
                2.9417019083335036
            ]
        },
        {
            "positions": [
                1.6037776563332669,
                -1.4107002358089882,
                0.23825509719952054,
                0.7968441191824698,
                1.5839734433569757,
                3.0145023389786227
            ]
        },
        {
            "positions": [
                1.788916402305638,
                -1.4224822732056783,
                0.26508168169817825,
                0.8201155161062015,
                1.6583727139773303,
                3.087302769623742
            ]
        },
        {
            "positions": [
                1.9740551482780093,
                -1.4342643106023685,
                0.29190826619683596,
                0.8433869130299333,
                1.7327719845976848,
                3.1601032002688614
            ]
        },
        {
            "positions": [
                2.1591938942503806,
                -1.4460463479990586,
                0.3187348506954937,
                0.8666583099536651,
                1.8071712552180395,
                3.2329036309139805
            ]
        },
        {
            "positions": [
                2.083834530327322,
                -1.4738706436269224,
                0.22822664475646906,
                0.8872199789758445,
                1.7511962985085188,
                3.118664871002809
            ]
        },
        {
            "positions": [
                2.0084751664042635,
                -1.501694939254786,
                0.13771843881744444,
                0.907781647998024,
                1.695221341798998,
                3.0044261110916373
            ]
        },
        {
            "positions": [
                1.933115802481205,
                -1.5295192348826498,
                0.047210232878419855,
                0.9283433170202033,
                1.6392463850894772,
                2.8901873511804657
            ]
        },
        {
            "positions": [
                1.8577564385581464,
                -1.5573435305105134,
                -0.04329797306060479,
                0.9489049860423828,
                1.5832714283799565,
                2.775948591269294
            ]
        },
        {
            "positions": [
                1.782397074635088,
                -1.5851678261383773,
                -0.13380617899962943,
                0.9694666550645622,
                1.5272964716704358,
                2.6617098313581224
            ]
        },
        {
            "positions": [
                1.7070377107120294,
                -1.6129921217662408,
                -0.22431438493865397,
                0.9900283240867417,
                1.471321514960915,
                2.547471071446951
            ]
        },
        {
            "positions": [
                1.6316783467889708,
                -1.6408164173941047,
                -0.3148225908776787,
                1.010589993108921,
                1.4153465582513942,
                2.4332323115357792
            ]
        },
        {
            "positions": [
                1.5563189828659123,
                -1.6686407130219683,
                -0.40533079681670325,
                1.0311516621311005,
                1.3593716015418735,
                2.3189935516246076
            ]
        },
        {
            "positions": [
                1.4809596189428538,
                -1.696465008649832,
                -0.4958390027557279,
                1.0517133311532798,
                1.3033966448323528,
                2.2047547917134356
            ]
        },
        {
            "positions": [
                1.4056002550197952,
                -1.7242893042776957,
                -0.5863472086947525,
                1.0722750001754593,
                1.2474216881228322,
                2.090516031802264
            ]
        },
        {
            "positions": [
                1.330240891096737,
                -1.7521135999055595,
                -0.6768554146337771,
                1.0928366691976388,
                1.1914467314133113,
                1.9762772718910928
            ]
        },
        {
            "positions": [
                1.2548815271736784,
                -1.7799378955334233,
                -0.7673636205728016,
                1.1133983382198183,
                1.1354717747037906,
                1.862038511979921
            ]
        },
        {
            "positions": [
                1.1795221632506199,
                -1.807762191161287,
                -0.8578718265118264,
                1.1339600072419977,
                1.0794968179942699,
                1.7477997520687494
            ]
        },
        {
            "positions": [
                1.1041627993275613,
                -1.8355864867891507,
                -0.9483800324508511,
                1.154521676264177,
                1.023521861284749,
                1.6335609921575778
            ]
        },
        {
            "positions": [
                1.0288034354045028,
                -1.8634107824170143,
                -1.0388882383898757,
                1.1750833452863565,
                0.9675469045752283,
                1.519322232246406
            ]
        },
        {
            "positions": [
                0.9534440714814443,
                -1.8912350780448781,
                -1.1293964443289002,
                1.195645014308536,
                0.9115719478657076,
                1.4050834723352346
            ]
        },
        {
            "positions": [
                0.878084707558386,
                -1.9190593736727417,
                -1.2199046502679247,
                1.2162066833307152,
                0.855596991156187,
                1.2908447124240632
            ]
        },
        {
            "positions": [
                0.8027253436353272,
                -1.9468836693006055,
                -1.3104128562069495,
                1.2367683523528947,
                0.7996220344466662,
                1.1766059525128911
            ]
        },
        {
            "positions": [
                0.7273659797122689,
                -1.9747079649284691,
                -1.400921062145974,
                1.2573300213750742,
                0.7436470777371456,
                1.06236719260172
            ]
        },
        {
            "positions": [
                0.6520066157892102,
                -2.002532260556333,
                -1.4914292680849988,
                1.2778916903972535,
                0.6876721210276246,
                0.9481284326905479
            ]
        },
        {
            "positions": [
                0.5766472518661516,
                -2.0303565561841967,
                -1.5819374740240233,
                1.298453359419433,
                0.631697164318104,
                0.8338896727793763
            ]
        },
        {
            "positions": [
                0.5012878879430933,
                -2.05818085181206,
                -1.6724456799630478,
                1.3190150284416124,
                0.5757222076085833,
                0.7196509128682052
            ]
        },
        {
            "positions": [
                0.42592852402003456,
                -2.0860051474399244,
                -1.7629538859020726,
                1.339576697463792,
                0.5197472508990624,
                0.6054121529570331
            ]
        },
        {
            "positions": [
                0.35056916009697625,
                -2.1138294430677878,
                -1.853462091841097,
                1.3601383664859712,
                0.4637722941895417,
                0.4911733930458615
            ]
        },
        {
            "positions": [
                0.2752097961739177,
                -2.1416537386956516,
                -1.9439702977801216,
                1.3807000355081507,
                0.407797337480021,
                0.37693463313469033
            ]
        },
        {
            "positions": [
                0.1998504322508592,
                -2.1694780343235154,
                -2.0344785037191464,
                1.4012617045303302,
                0.3518223807705003,
                0.2626958732235183
            ]
        },
        {
            "positions": [
                0.12449106832780066,
                -2.1973023299513788,
                -2.1249867096581707,
                1.4218233735525097,
                0.29584742406097964,
                0.14845711331234668
            ]
        },
        {
            "positions": [
                0.04913170440474213,
                -2.2251266255792426,
                -2.215494915597196,
                1.442385042574689,
                0.23987246735145873,
                0.03421835340117507
            ]
        },
        {
            "positions": [
                -0.0262276595183164,
                -2.2529509212071064,
                -2.3060031215362202,
                1.4629467115968684,
                0.18389751064193804,
                -0.0800204065099965
            ]
        },
        {
            "positions": [
                -0.18497558437467623,
                -2.2814065548618743,
                -2.3726630047997648,
                1.526921502453498,
                0.1753172480370763,
                -0.01994483255852823
            ]
        }
    ]
}