{
    "goal": {
        "global_pose": {
            "orientation": {
                "w": 0.7031023480610252,
                "x": -0.7110244013736278,
                "y": 0.0077485991402295624,
                "z": 0.005598929693374583
            },
            "position": {
                "x": -0.8841497679147869,
                "y": 0.44412534475326537,
                "z": 0.3711530566215515
            }
        },
        "name": "move_to_auspresseinheit_D"
    },
    "id": "BKPIECE_move_to_auspresseinheit_D_113",
    "joint_names": [
        "shoulder_pan_joint",
        "shoulder_lift_joint",
        "elbow_joint",
        "wrist_1_joint",
        "wrist_2_joint",
        "wrist_3_joint"
    ],
    "metrics": {
        "cart_traj_len": 2.349337508255065,
        "distance_elbow_joint": 3.0323690316485794,
        "distance_shoulder_lift_joint": 0.5038286724055542,
        "distance_shoulder_pan_joint": 0.6062277692549958,
        "distance_wrist_1_joint": 3.325968753541458,
        "distance_wrist_2_joint": 3.652218092041969,
        "distance_wrist_3_joint": 3.1469573395824804,
        "smoothness": 0.1919392253191529,
        "time": 0.34207822899999996,
        "traj_len": 3.7772436588701876,
        "weighted_distance": 5.247825376593949
    },
    "planner": "BKPIECE",
    "start": {
        "state": {
            "elbow_joint": 1.8268400409724999,
            "shoulder_lift_joint": -1.0144045787793008,
            "shoulder_pan_joint": 2.6280239544362485,
            "wrist_1_joint": -0.790705565816056,
            "wrist_2_joint": 1.0573557467365533,
            "wrist_3_joint": 3.1851377467193758
        }
    },
    "waypoints": [
        {
            "positions": [
                2.6280239544362485,
                -1.0144045787793008,
                1.8268400409724999,
                -0.790705565816056,
                1.0573557467365533,
                3.1851377467193758
            ]
        },
        {
            "positions": [
                2.615850116210674,
                -1.0184840982478507,
                1.759255359922748,
                -0.696160189413864,
                0.9552371738558653,
                3.0752056348810113
            ]
        },
        {
            "positions": [
                2.603676277985099,
                -1.0225636177164006,
                1.6916706788729963,
                -0.6016148130116721,
                0.8531186009751772,
                2.9652735230426464
            ]
        },
        {
            "positions": [
                2.591502439759524,
                -1.0266431371849505,
                1.6240859978232445,
                -0.5070694366094801,
                0.7510000280944892,
                2.855341411204282
            ]
        },
        {
            "positions": [
                2.5793286015339496,
                -1.0307226566535004,
                1.5565013167734927,
                -0.4125240602072882,
                0.6488814552138011,
                2.7454092993659174
            ]
        },
        {
            "positions": [
                2.567154763308375,
                -1.0348021761220503,
                1.4889166357237409,
                -0.31797868380509625,
                0.5467628823331131,
                2.6354771875275524
            ]
        },
        {
            "positions": [
                2.5549809250828,
                -1.0388816955906002,
                1.421331954673989,
                -0.22343330740290435,
                0.44464430945242506,
                2.525545075689188
            ]
        },
        {
            "positions": [
                2.5428070868572252,
                -1.04296121505915,
                1.3537472736242373,
                -0.12888793100071239,
                0.3425257365717371,
                2.4156129638508235
            ]
        },
        {
            "positions": [
                2.5306332486316507,
                -1.0470407345277,
                1.2861625925744855,
                -0.034342554598520425,
                0.24040716369104898,
                2.3056808520124585
            ]
        },
        {
            "positions": [
                2.5184594104060762,
                -1.0511202539962499,
                1.2185779115247337,
                0.060202821803671425,
                0.13828859081036105,
                2.195748740174094
            ]
        },
        {
            "positions": [
                2.5062855721805013,
                -1.0551997734647998,
                1.150993230474982,
                0.1547481982058635,
                0.03617001792967289,
                2.0858166283357296
            ]
        },
        {
            "positions": [
                2.4941117339549264,
                -1.0592792929333497,
                1.0834085494252301,
                0.24929357460805535,
                -0.06594855495101504,
                1.9758845164973646
            ]
        },
        {
            "positions": [
                2.481937895729352,
                -1.0633588124018996,
                1.0158238683754783,
                0.3438389510102473,
                -0.1680671278317032,
                1.865952404659
            ]
        },
        {
            "positions": [
                2.4697640575037774,
                -1.0674383318704495,
                0.9482391873257265,
                0.43838432741243927,
                -0.2701857007123911,
                1.7560202928206354
            ]
        },
        {
            "positions": [
                2.4575902192782024,
                -1.0715178513389996,
                0.8806545062759747,
                0.5329297038146312,
                -0.37230427359307905,
                1.646088180982271
            ]
        },
        {
            "positions": [
                2.445416381052628,
                -1.0755973708075495,
                0.813069825226223,
                0.627475080216823,
                -0.474422846473767,
                1.5361560691439062
            ]
        },
        {
            "positions": [
                2.433242542827053,
                -1.0796768902760994,
                0.7454851441764712,
                0.7220204566190151,
                -0.5765414193544554,
                1.4262239573055413
            ]
        },
        {
            "positions": [
                2.4210687046014785,
                -1.0837564097446493,
                0.6779004631267194,
                0.8165658330212071,
                -0.6786599922351433,
                1.3162918454671768
            ]
        },
        {
            "positions": [
                2.4088948663759036,
                -1.0878359292131992,
                0.6103157820769676,
                0.9111112094233988,
                -0.7807785651158312,
                1.2063597336288123
            ]
        },
        {
            "positions": [
                2.3967210281503286,
                -1.091915448681749,
                0.5427311010272158,
                1.0056565858255908,
                -0.8828971379965191,
                1.0964276217904478
            ]
        },
        {
            "positions": [
                2.384547189924754,
                -1.095994968150299,
                0.475146419977464,
                1.100201962227783,
                -0.9850157108772075,
                0.9864955099520829
            ]
        },
        {
            "positions": [
                2.3723733516991796,
                -1.1000744876188489,
                0.4075617389277122,
                1.194747338629975,
                -1.0871342837578952,
                0.8765633981137184
            ]
        },
        {
            "positions": [
                2.3601995134736047,
                -1.1041540070873987,
                0.3399770578779604,
                1.2892927150321667,
                -1.1892528566385834,
                0.7666312862753535
            ]
        },
        {
            "positions": [
                2.3480256752480297,
                -1.1082335265559486,
                0.2723923768282086,
                1.3838380914343584,
                -1.2913714295192715,
                0.656699174436989
            ]
        },
        {
            "positions": [
                2.3358518370224552,
                -1.1123130460244985,
                0.2048076957784568,
                1.4783834678365506,
                -1.3934900023999597,
                0.5467670625986241
            ]
        },
        {
            "positions": [
                2.3236779987968808,
                -1.1163925654930484,
                0.13722301472870502,
                1.5729288442387428,
                -1.4956085752806474,
                0.4368349507602596
            ]
        },
        {
            "positions": [
                2.311504160571306,
                -1.1204720849615983,
                0.0696383336789532,
                1.6674742206409348,
                -1.5977271481613355,
                0.3269028389218952
            ]
        },
        {
            "positions": [
                2.337841249243129,
                -1.0843119789413023,
                0.1855626358930471,
                1.7463641267395227,
                -1.6883758024471611,
                0.30065534512325887
            ]
        },
        {
            "positions": [
                2.364178337914952,
                -1.0481518729210062,
                0.30148693810714106,
                1.8252540328381108,
                -1.7790244567329867,
                0.27440785132462253
            ]
        },
        {
            "positions": [
                2.390515426586775,
                -1.0119917669007101,
                0.417411240321235,
                1.9041439389366988,
                -1.869673111018812,
                0.2481603575259862
            ]
        },
        {
            "positions": [
                2.416852515258598,
                -0.9758316608804141,
                0.5333355425353289,
                1.983033845035287,
                -1.9603217653046376,
                0.22191286372734986
            ]
        },
        {
            "positions": [
                2.443189603930421,
                -0.939671554860118,
                0.6492598447494229,
                2.061923751133875,
                -2.0509704195904632,
                0.19566536992871353
            ]
        },
        {
            "positions": [
                2.4695266926022437,
                -0.903511448839822,
                0.7651841469635168,
                2.1408136572324628,
                -2.1416190738762886,
                0.1694178761300772
            ]
        },
        {
            "positions": [
                2.4958637812740667,
                -0.8673513428195259,
                0.8811084491776107,
                2.2197035633310507,
                -2.232267728162114,
                0.14317038233144086
            ]
        },
        {
            "positions": [
                2.5222008699458898,
                -0.8311912367992298,
                0.9970327513917047,
                2.2985934694296386,
                -2.3229163824479397,
                0.11692288853280453
            ]
        },
        {
            "positions": [
                2.548537958617713,
                -0.7950311307789337,
                1.1129570536057987,
                2.377483375528227,
                -2.4135650367337655,
                0.09067539473416816
            ]
        },
        {
            "positions": [
                2.574875047289536,
                -0.7588710247586378,
                1.2288813558198926,
                2.456373281626815,
                -2.504213691019591,
                0.06442790093553186
            ]
        },
        {
            "positions": [
                2.601212135961359,
                -0.7227109187383417,
                1.3448056580339864,
                2.535263187725403,
                -2.5948623453054163,
                0.038180407136895515
            ]
        }
    ]
}