{
    "goal": {
        "global_pose": {
            "orientation": {
                "w": -0.00223480608172531,
                "x": 0.0024358444001904467,
                "y": 0.7094548369677653,
                "z": -0.704743149386269
            },
            "position": {
                "x": -0.37947507619857795,
                "y": -0.6371506643295288,
                "z": 0.19426114857196808
            }
        },
        "name": "move_to_magneteinheit_C"
    },
    "id": "BKPIECE_move_to_magneteinheit_C_122",
    "joint_names": [
        "shoulder_pan_joint",
        "shoulder_lift_joint",
        "elbow_joint",
        "wrist_1_joint",
        "wrist_2_joint",
        "wrist_3_joint"
    ],
    "metrics": {
        "cart_traj_len": 1.5930965058427984,
        "distance_elbow_joint": 0.6056123483817082,
        "distance_shoulder_lift_joint": 2.8255575765733747,
        "distance_shoulder_pan_joint": 1.595560236759753,
        "distance_wrist_1_joint": 4.864061825112202,
        "distance_wrist_2_joint": 0.7881547869863678,
        "distance_wrist_3_joint": 0.21394336211156872,
        "smoothness": 0.9685900760747302,
        "time": 0.803076964,
        "traj_len": 3.300437870332507,
        "weighted_distance": 4.119829301348138
    },
    "planner": "BKPIECE",
    "start": {
        "state": {
            "elbow_joint": 1.9565354006590394,
            "shoulder_lift_joint": -1.4165861576513559,
            "shoulder_pan_joint": -1.6717766223277177,
            "wrist_1_joint": -0.5286633288215096,
            "wrist_2_joint": 1.4727565892594296,
            "wrist_3_joint": 3.1593482883155493
        }
    },
    "waypoints": [
        {
            "positions": [
                -1.6717766223277177,
                -1.4165861576513559,
                1.9565354006590394,
                -0.5286633288215096,
                1.4727565892594296,
                3.1593482883155493
            ]
        },
        {
            "positions": [
                -1.7516289723750234,
                -1.5023642954274488,
                1.978635079712972,
                -0.3770236776589209,
                1.4383399648844781,
                3.1513076065005476
            ]
        },
        {
            "positions": [
                -1.831481322422329,
                -1.5881424332035414,
                2.0007347587669044,
                -0.22538402649633227,
                1.4039233405095266,
                3.1432669246855456
            ]
        },
        {
            "positions": [
                -1.9113336724696346,
                -1.6739205709796343,
                2.022834437820837,
                -0.07374437533374356,
                1.369506716134575,
                3.135226242870544
            ]
        },
        {
            "positions": [
                -1.9911860225169402,
                -1.7596987087557272,
                2.0449341168747694,
                0.07789527582884503,
                1.3350900917596236,
                3.127185561055542
            ]
        },
        {
            "positions": [
                -2.071038372564246,
                -1.8454768465318199,
                2.067033795928702,
                0.22953492699143363,
                1.3006734673846723,
                3.1191448792405403
            ]
        },
        {
            "positions": [
                -2.1508907226115515,
                -1.9312549843079125,
                2.0891334749826345,
                0.38117457815402245,
                1.2662568430097207,
                3.1111041974255382
            ]
        },
        {
            "positions": [
                -2.230743072658857,
                -2.0170331220840056,
                2.111233154036567,
                0.532814229316611,
                1.2318402186347692,
                3.1030635156105366
            ]
        },
        {
            "positions": [
                -2.3105954227061627,
                -2.1028112598600983,
                2.1333328330904995,
                0.6844538804791996,
                1.1974235942598177,
                3.0950228337955346
            ]
        },
        {
            "positions": [
                -2.390447772753468,
                -2.188589397636191,
                2.155432512144432,
                0.8360935316417882,
                1.1630069698848662,
                3.086982151980533
            ]
        },
        {
            "positions": [
                -2.4703001228007735,
                -2.274367535412284,
                2.1775321911983645,
                0.9877331828043768,
                1.1285903455099149,
                3.078941470165531
            ]
        },
        {
            "positions": [
                -2.550152472848079,
                -2.3601456731883768,
                2.199631870252297,
                1.1393728339669655,
                1.0941737211349634,
                3.0709007883505293
            ]
        },
        {
            "positions": [
                -2.6300048228953847,
                -2.4459238109644694,
                2.2217315493062295,
                1.2910124851295546,
                1.0597570967600118,
                3.062860106535527
            ]
        },
        {
            "positions": [
                -2.7098571729426904,
                -2.5317019487405625,
                2.243831228360162,
                1.4426521362921432,
                1.0253404723850603,
                3.0548194247205256
            ]
        },
        {
            "positions": [
                -2.789709522989996,
                -2.6174800865166548,
                2.2659309074140945,
                1.5942917874547318,
                0.9909238480101088,
                3.0467787429055235
            ]
        },
        {
            "positions": [
                -2.8695618730373016,
                -2.703258224292748,
                2.288030586468027,
                1.7459314386173204,
                0.9565072236351573,
                3.038738061090522
            ]
        },
        {
            "positions": [
                -2.841149374033718,
                -2.5933378307261776,
                2.2684507891414043,
                1.5609695059263653,
                0.9370854078235791,
                3.0454047135824176
            ]
        },
        {
            "positions": [
                -2.8127368750301347,
                -2.4834174371596074,
                2.248870991814781,
                1.37600757323541,
                0.9176635920120008,
                3.0520713660743137
            ]
        },
        {
            "positions": [
                -2.784324376026551,
                -2.373497043593037,
                2.2292911944881584,
                1.1910456405444547,
                0.8982417762004226,
                3.0587380185662094
            ]
        },
        {
            "positions": [
                -2.7559118770229674,
                -2.263576650026467,
                2.2097113971615356,
                1.0060837078534997,
                0.8788199603888444,
                3.065404671058105
            ]
        },
        {
            "positions": [
                -2.727499378019384,
                -2.1536562564598967,
                2.1901315998349125,
                0.8211217751625444,
                0.859398144577266,
                3.072071323550001
            ]
        },
        {
            "positions": [
                -2.6990868790158005,
                -2.0437358628933264,
                2.1705518025082897,
                0.6361598424715893,
                0.8399763287656878,
                3.078737976041897
            ]
        },
        {
            "positions": [
                -2.6706743800122172,
                -1.9338154693267564,
                2.150972005181667,
                0.451197909780634,
                0.8205545129541096,
                3.0854046285337926
            ]
        },
        {
            "positions": [
                -2.6422618810086336,
                -1.8238950757601864,
                2.131392207855044,
                0.26623597708967894,
                0.8011326971425313,
                3.0920712810256883
            ]
        },
        {
            "positions": [
                -2.61384938200505,
                -1.713974682193616,
                2.111812410528421,
                0.08127404439872343,
                0.7817108813309531,
                3.0987379335175844
            ]
        },
        {
            "positions": [
                -2.5854368830014662,
                -1.6040542886270457,
                2.092232613201798,
                -0.10368788829223163,
                0.7622890655193748,
                3.10540458600948
            ]
        },
        {
            "positions": [
                -2.557024383997883,
                -1.4941338950604757,
                2.072652815875175,
                -0.2886498209831867,
                0.7428672497077966,
                3.112071238501376
            ]
        },
        {
            "positions": [
                -2.5286118849942993,
                -1.3842135014939054,
                2.0530730185485524,
                -0.47361175367414177,
                0.7234454338962184,
                3.1187378909932715
            ]
        },
        {
            "positions": [
                -2.500199385990716,
                -1.2742931079273352,
                2.033493221221929,
                -0.6585736863650973,
                0.7040236180846402,
                3.1254045434851676
            ]
        },
        {
            "positions": [
                -2.4717868869871324,
                -1.164372714360765,
                2.0139134238953065,
                -0.8435356190560523,
                0.6846018022730619,
                3.1320711959770633
            ]
        }
    ]
}