{
    "goal": {
        "global_pose": {
            "orientation": {
                "w": 0.7031023480610252,
                "x": -0.7110244013736278,
                "y": 0.0077485991402295624,
                "z": 0.005598929693374583
            },
            "position": {
                "x": -0.8841497679147869,
                "y": 0.44412534475326537,
                "z": 0.3711530566215515
            }
        },
        "name": "move_to_auspresseinheit_D"
    },
    "id": "BKPIECE_move_to_auspresseinheit_D_120",
    "joint_names": [
        "shoulder_pan_joint",
        "shoulder_lift_joint",
        "elbow_joint",
        "wrist_1_joint",
        "wrist_2_joint",
        "wrist_3_joint"
    ],
    "metrics": {
        "cart_traj_len": 3.8328121625269405,
        "distance_elbow_joint": 3.017313718114833,
        "distance_shoulder_lift_joint": 1.2330184532274666,
        "distance_shoulder_pan_joint": 2.7975672370305076,
        "distance_wrist_1_joint": 2.0763578399962466,
        "distance_wrist_2_joint": 1.2202786441375626,
        "distance_wrist_3_joint": 6.277492948254097,
        "smoothness": 2.422304788793624e-16,
        "time": 1.8414207839999999,
        "traj_len": 4.077012244372185,
        "weighted_distance": 5.698565716160754
    },
    "planner": "BKPIECE",
    "start": {
        "state": {
            "elbow_joint": 1.8268400409724999,
            "shoulder_lift_joint": -1.0144045787793008,
            "shoulder_pan_joint": 2.6280239544362485,
            "wrist_1_joint": -0.790705565816056,
            "wrist_2_joint": 1.0573557467365533,
            "wrist_3_joint": 3.1851377467193758
        }
    },
    "waypoints": [
        {
            "positions": [
                2.6280239544362485,
                -1.0144045787793008,
                1.8268400409724999,
                -0.790705565816056,
                1.0573557467365533,
                3.1851377467193758
            ]
        },
        {
            "positions": [
                2.6248953905214663,
                -1.0158037428776332,
                1.6559743837438978,
                -0.800004113846103,
                0.9855492731532147,
                3.0814983091117814
            ]
        },
        {
            "positions": [
                2.6217668266066845,
                -1.0172029069759656,
                1.4851087265152958,
                -0.8093026618761501,
                0.913742799569876,
                2.977858871504187
            ]
        },
        {
            "positions": [
                2.6186382626919023,
                -1.018602071074298,
                1.3142430692866938,
                -0.818601209906197,
                0.8419363259865373,
                2.8742194338965925
            ]
        },
        {
            "positions": [
                2.61550969877712,
                -1.0200012351726304,
                1.1433774120580917,
                -0.827899757936244,
                0.7701298524031988,
                2.7705799962889976
            ]
        },
        {
            "positions": [
                2.6123811348623383,
                -1.0214003992709628,
                0.9725117548294897,
                -0.8371983059662911,
                0.6983233788198602,
                2.6669405586814032
            ]
        },
        {
            "positions": [
                2.609252570947556,
                -1.0227995633692952,
                0.8016460976008878,
                -0.8464968539963381,
                0.6265169052365215,
                2.563301121073809
            ]
        },
        {
            "positions": [
                2.5341499803112906,
                -1.0558974949540918,
                0.7478050226078278,
                -0.901106760802175,
                0.605180694354426,
                2.4104455447870916
            ]
        },
        {
            "positions": [
                2.4590473896750256,
                -1.0889954265388884,
                0.6939639476147677,
                -0.9557166676080119,
                0.5838444834723306,
                2.257589968500375
            ]
        },
        {
            "positions": [
                2.38394479903876,
                -1.122093358123685,
                0.6401228726217076,
                -1.0103265744138488,
                0.5625082725902352,
                2.1047343922136577
            ]
        },
        {
            "positions": [
                2.308842208402495,
                -1.1551912897084815,
                0.5862817976286476,
                -1.0649364812196858,
                0.5411720617081398,
                1.9518788159269405
            ]
        },
        {
            "positions": [
                2.2337396177662296,
                -1.188289221293278,
                0.5324407226355876,
                -1.1195463880255225,
                0.5198358508260443,
                1.7990232396402237
            ]
        },
        {
            "positions": [
                2.158637027129964,
                -1.2213871528780744,
                0.47859964764252755,
                -1.1741562948313593,
                0.49849963994394886,
                1.6461676633535065
            ]
        },
        {
            "positions": [
                2.083534436493699,
                -1.254485084462871,
                0.42475857264946754,
                -1.2287662016371963,
                0.4771634290618535,
                1.4933120870667895
            ]
        },
        {
            "positions": [
                2.0084318458574337,
                -1.2875830160476676,
                0.37091749765640747,
                -1.2833761084430333,
                0.455827218179758,
                1.3404565107800723
            ]
        },
        {
            "positions": [
                1.9333292552211685,
                -1.3206809476324641,
                0.31707642266334746,
                -1.33798601524887,
                0.4344910072976626,
                1.1876009344933554
            ]
        },
        {
            "positions": [
                1.8582266645849033,
                -1.3537788792172607,
                0.26323534767028745,
                -1.3925959220547068,
                0.4131547964155672,
                1.0347453582066384
            ]
        },
        {
            "positions": [
                1.7831240739486378,
                -1.3868768108020573,
                0.20939427267722732,
                -1.4472058288605438,
                0.3918185855334717,
                0.8818897819199212
            ]
        },
        {
            "positions": [
                1.7080214833123728,
                -1.4199747423868538,
                0.1555531976841673,
                -1.5018157356663808,
                0.3704823746513763,
                0.7290342056332042
            ]
        },
        {
            "positions": [
                1.6329188926761073,
                -1.4530726739716504,
                0.1017121226911073,
                -1.5564256424722176,
                0.34914616376928087,
                0.5761786293464872
            ]
        },
        {
            "positions": [
                1.5578163020398421,
                -1.4861706055564468,
                0.04787104769804729,
                -1.6110355492780544,
                0.32780995288718545,
                0.42332305305977025
            ]
        },
        {
            "positions": [
                1.4827137114035769,
                -1.5192685371412433,
                -0.005970027295012836,
                -1.6656454560838914,
                0.30647374200509003,
                0.27046747677305305
            ]
        },
        {
            "positions": [
                1.4076111207673117,
                -1.55236646872604,
                -0.05981110228807285,
                -1.7202553628897284,
                0.2851375311229946,
                0.11761190048633585
            ]
        },
        {
            "positions": [
                1.3325085301310462,
                -1.5854644003108365,
                -0.11365217728113286,
                -1.7748652696955651,
                0.26380132024089914,
                -0.0352436758003809
            ]
        },
        {
            "positions": [
                1.257405939494781,
                -1.618562331895633,
                -0.16749325227419287,
                -1.829475176501402,
                0.24246510935880372,
                -0.1880992520870981
            ]
        },
        {
            "positions": [
                1.182303348858516,
                -1.6516602634804296,
                -0.22133432726725288,
                -1.8840850833072387,
                0.22112889847670836,
                -0.34095482837381486
            ]
        },
        {
            "positions": [
                1.1072007582222505,
                -1.6847581950652262,
                -0.2751754022603129,
                -1.9386949901130759,
                0.19979268759461288,
                -0.49381040466053205
            ]
        },
        {
            "positions": [
                1.0320981675859853,
                -1.7178561266500227,
                -0.3290164772533729,
                -1.9933048969189127,
                0.17845647671251746,
                -0.6466659809472488
            ]
        },
        {
            "positions": [
                0.9569955769497198,
                -1.7509540582348193,
                -0.38285755224643314,
                -2.0479148037247494,
                0.157120265830422,
                -0.7995215572339665
            ]
        },
        {
            "positions": [
                0.8818929863134548,
                -1.7840519898196159,
                -0.43669862723949293,
                -2.102524710530586,
                0.13578405494832663,
                -0.9523771335206832
            ]
        },
        {
            "positions": [
                0.8067903956771894,
                -1.8171499214044124,
                -0.49053970223255317,
                -2.1571346173364234,
                0.1144478440662311,
                -1.1052327098074004
            ]
        },
        {
            "positions": [
                0.7316878050409241,
                -1.8502478529892088,
                -0.5443807772256132,
                -2.21174452414226,
                0.09311163318413573,
                -1.2580882860941172
            ]
        },
        {
            "positions": [
                0.6565852144046589,
                -1.8833457845740056,
                -0.5982218522186732,
                -2.266354430948097,
                0.07177542230204026,
                -1.4109438623808344
            ]
        },
        {
            "positions": [
                0.5814826237683937,
                -1.916443716158802,
                -0.6520629272117332,
                -2.3209643377539337,
                0.050439211419944896,
                -1.5637994386675516
            ]
        },
        {
            "positions": [
                0.5063800331321282,
                -1.9495416477435985,
                -0.7059040022047932,
                -2.375574244559771,
                0.02910300053784942,
                -1.7166550149542683
            ]
        },
        {
            "positions": [
                0.4312774424958632,
                -1.982639579328395,
                -0.7597450771978532,
                -2.4301841513656077,
                0.007766789655754058,
                -1.869510591240985
            ]
        },
        {
            "positions": [
                0.35617485185959774,
                -2.0157375109131914,
                -0.8135861521909135,
                -2.4847940581714445,
                -0.013569421226341416,
                -2.0223661675277027
            ]
        },
        {
            "positions": [
                0.28107226122333273,
                -2.048835442497988,
                -0.8674272271839732,
                -2.5394039649772813,
                -0.03490563210843678,
                -2.1752217438144195
            ]
        },
        {
            "positions": [
                0.20596967058706728,
                -2.0819333740827846,
                -0.9212683021770335,
                -2.5940138717831185,
                -0.056241842990532254,
                -2.328077320101137
            ]
        },
        {
            "positions": [
                0.13086707995080182,
                -2.115031305667581,
                -0.9751093771700935,
                -2.6486237785889553,
                -0.07757805387262773,
                -2.480932896387854
            ]
        },
        {
            "positions": [
                0.05576448931453637,
                -2.1481292372523777,
                -1.0289504521631536,
                -2.703233685394792,
                -0.0989142647547232,
                -2.6337884726745706
            ]
        },
        {
            "positions": [
                -0.01933810132172864,
                -2.1812271688371743,
                -1.0827915271562136,
                -2.757843592200629,
                -0.12025047563681857,
                -2.7866440489612874
            ]
        },
        {
            "positions": [
                -0.0944406919579941,
                -2.214325100421971,
                -1.1366326021492736,
                -2.812453499006466,
                -0.14158668651891404,
                -2.939499625248005
            ]
        },
        {
            "positions": [
                -0.16954328259425896,
                -2.2474230320067674,
                -1.1904736771423337,
                -2.867063405812303,
                -0.16292289740100946,
                -3.0923552015347218
            ]
        }
    ]
}