{
    "goal": {
        "global_pose": {
            "orientation": {
                "w": -0.4816463035849501,
                "x": 0.5182115481033762,
                "y": 0.4908360881923453,
                "z": -0.5084816262002911
            },
            "position": {
                "x": -0.8240239810943604,
                "y": -0.300875300988555,
                "z": 0.16403168439865112
            }
        },
        "name": "move_to_storage_C"
    },
    "id": "BKPIECE_move_to_storage_C_62",
    "joint_names": [
        "shoulder_pan_joint",
        "shoulder_lift_joint",
        "elbow_joint",
        "wrist_1_joint",
        "wrist_2_joint",
        "wrist_3_joint"
    ],
    "metrics": {
        "cart_traj_len": 0.5768134720330637,
        "distance_elbow_joint": 0.2597724747432488,
        "distance_shoulder_lift_joint": 0.1895202973816027,
        "distance_shoulder_pan_joint": 0.4949978014806158,
        "distance_wrist_1_joint": 0.08558906447494852,
        "distance_wrist_2_joint": 1.0668250641547252,
        "distance_wrist_3_joint": 0.05799224836072625,
        "smoothness": 0.0,
        "time": 1.294111328,
        "traj_len": 1.4678886029245772,
        "weighted_distance": 1.8501609594700115
    },
    "planner": "BKPIECE",
    "start": {
        "state": {
            "elbow_joint": 2.010868315001653,
            "shoulder_lift_joint": -1.1634956873357014,
            "shoulder_pan_joint": -2.4736205022346103,
            "wrist_1_joint": -0.8367026794713948,
            "wrist_2_joint": 0.6746043897044093,
            "wrist_3_joint": 3.1335220948105738
        }
    },
    "waypoints": [
        {
            "positions": [
                -2.4736205022346103,
                -1.1634956873357014,
                2.010868315001653,
                -0.8367026794713948,
                0.6746043897044093,
                3.1335220948105738
            ]
        },
        {
            "positions": [
                -2.5561201358147128,
                -1.1319089711054342,
                1.967572902544445,
                -0.8224378353922367,
                0.8524085670635302,
                3.1431874695373616
            ]
        },
        {
            "positions": [
                -2.6386197693948157,
                -1.1003222548751672,
                1.9242774900872368,
                -0.8081729913130786,
                1.030212744422651,
                3.152852844264149
            ]
        },
        {
            "positions": [
                -2.721119402974918,
                -1.0687355386449,
                1.8809820776300286,
                -0.7939081472339204,
                1.208016921781772,
                3.162518218990937
            ]
        },
        {
            "positions": [
                -2.8036190365550206,
                -1.037148822414633,
                1.8376866651728205,
                -0.7796433031547624,
                1.3858210991408928,
                3.1721835937177247
            ]
        },
        {
            "positions": [
                -2.8861186701351236,
                -1.0055621061843658,
                1.7943912527156125,
                -0.7653784590756043,
                1.5636252765000136,
                3.181848968444512
            ]
        },
        {
            "positions": [
                -2.968618303715226,
                -0.9739753899540987,
                1.7510958402584043,
                -0.7511136149964462,
                1.7414294538591346,
                3.1915143431713
            ]
        }
    ]
}