{
    "goal": {
        "global_pose": {
            "orientation": {
                "w": -0.4816463035849501,
                "x": 0.5182115481033762,
                "y": 0.4908360881923453,
                "z": -0.5084816262002911
            },
            "position": {
                "x": -0.8240239810943604,
                "y": 0.19912469901144506,
                "z": 0.16403168439865112
            }
        },
        "name": "move_to_storage_D"
    },
    "id": "BKPIECE_move_to_storage_D_117",
    "joint_names": [
        "shoulder_pan_joint",
        "shoulder_lift_joint",
        "elbow_joint",
        "wrist_1_joint",
        "wrist_2_joint",
        "wrist_3_joint"
    ],
    "metrics": {
        "cart_traj_len": 3.7123103696736597,
        "distance_elbow_joint": 4.2087951289207215,
        "distance_shoulder_lift_joint": 1.2636921976523192,
        "distance_shoulder_pan_joint": 2.813312292114132,
        "distance_wrist_1_joint": 2.2622804259184797,
        "distance_wrist_2_joint": 0.8736180309758929,
        "distance_wrist_3_joint": 3.1339012071595436,
        "smoothness": 1.0248212544511322e-15,
        "time": 0.513578375,
        "traj_len": 3.8151801114418027,
        "weighted_distance": 4.89482381235061
    },
    "planner": "BKPIECE",
    "start": {
        "state": {
            "elbow_joint": -2.384821997420982,
            "shoulder_lift_joint": -2.2788054674887404,
            "shoulder_pan_joint": -0.18546946417610016,
            "wrist_1_joint": 1.4845937964226739,
            "wrist_2_joint": 0.1789877726866377,
            "wrist_3_joint": 0.03710572555276528
        }
    },
    "waypoints": [
        {
            "positions": [
                -0.18546946417610016,
                -2.2788054674887404,
                -2.384821997420982,
                1.4845937964226739,
                0.1789877726866377,
                0.03710572555276528
            ]
        },
        {
            "positions": [
                -0.07558074179628681,
                -2.2240353934493493,
                -2.2650045059736943,
                1.4163155325478607,
                0.18247044340708735,
                0.050068205382639966
            ]
        },
        {
            "positions": [
                0.03430798058352655,
                -2.1692653194099587,
                -2.1451870145264067,
                1.3480372686730475,
                0.18595311412753698,
                0.06303068521251466
            ]
        },
        {
            "positions": [
                0.14419670296333992,
                -2.1144952453705677,
                -2.025369523079119,
                1.2797590047982343,
                0.18943578484798662,
                0.07599316504238936
            ]
        },
        {
            "positions": [
                0.25408542534315326,
                -2.059725171331177,
                -1.9055520316318313,
                1.2114807409234212,
                0.19291845556843626,
                0.08895564487226404
            ]
        },
        {
            "positions": [
                0.3639741477229667,
                -2.004955097291786,
                -1.7857345401845435,
                1.1432024770486078,
                0.1964011262888859,
                0.10191812470213873
            ]
        },
        {
            "positions": [
                0.47386287010278,
                -1.9501850232523952,
                -1.6659170487372559,
                1.0749242131737948,
                0.19988379700933553,
                0.11488060453201343
            ]
        },
        {
            "positions": [
                0.5837515924825933,
                -1.8954149492130044,
                -1.5460995572899683,
                1.0066459492989814,
                0.20336646772978517,
                0.12784308436188813
            ]
        },
        {
            "positions": [
                0.6936403148624066,
                -1.8406448751736135,
                -1.4262820658426807,
                0.9383676854241684,
                0.20684913845023484,
                0.14080556419176282
            ]
        },
        {
            "positions": [
                0.8035290372422201,
                -1.7858748011342227,
                -1.3064645743953927,
                0.8700894215493551,
                0.21033180917068448,
                0.15376804402163752
            ]
        },
        {
            "positions": [
                0.9134177596220336,
                -1.7311047270948317,
                -1.186647082948105,
                0.8018111576745419,
                0.2138144798911341,
                0.1667305238515122
            ]
        },
        {
            "positions": [
                1.023306482001847,
                -1.676334653055441,
                -1.0668295915008175,
                0.7335328937997289,
                0.21729715061158375,
                0.1796930036813869
            ]
        },
        {
            "positions": [
                1.1331952043816602,
                -1.62156457901605,
                -0.9470121000535299,
                0.6652546299249157,
                0.2207798213320334,
                0.1926554835112616
            ]
        },
        {
            "positions": [
                1.2430839267614737,
                -1.5667945049766592,
                -0.827194608606242,
                0.5969763660501024,
                0.22426249205248303,
                0.2056179633411363
            ]
        },
        {
            "positions": [
                1.352972649141287,
                -1.5120244309372683,
                -0.7073771171589545,
                0.5286981021752892,
                0.22774516277293266,
                0.218580443171011
            ]
        },
        {
            "positions": [
                1.4060922399244846,
                -1.4913197992247331,
                -0.601904190131509,
                0.4742654050223269,
                0.26211435614333256,
                0.34159821356856507
            ]
        },
        {
            "positions": [
                1.4592118307076825,
                -1.4706151675121977,
                -0.4964312631040634,
                0.4198327078693646,
                0.29648354951373246,
                0.46461598396611914
            ]
        },
        {
            "positions": [
                1.51233142149088,
                -1.4499105357996624,
                -0.39095833607661784,
                0.36540001071640227,
                0.3308527428841324,
                0.5876337543636733
            ]
        },
        {
            "positions": [
                1.5654510122740777,
                -1.4292059040871272,
                -0.2854854090491723,
                0.31096731356344,
                0.3652219362545323,
                0.7106515247612273
            ]
        },
        {
            "positions": [
                1.6185706030572755,
                -1.4085012723745918,
                -0.1800124820217267,
                0.2565346164104776,
                0.39959112962493226,
                0.8336692951587815
            ]
        },
        {
            "positions": [
                1.6716901938404731,
                -1.3877966406620565,
                -0.07453955499428122,
                0.2021019192575153,
                0.43396032299533216,
                0.9566870655563355
            ]
        },
        {
            "positions": [
                1.724809784623671,
                -1.3670920089495213,
                0.030933372033164375,
                0.14766922210455297,
                0.46832951636573206,
                1.0797048359538897
            ]
        },
        {
            "positions": [
                1.7779293754068686,
                -1.3463873772369859,
                0.13640629906060986,
                0.09323652495159068,
                0.502698709736132,
                1.2027226063514438
            ]
        },
        {
            "positions": [
                1.8310489661900662,
                -1.3256827455244506,
                0.24187922608805534,
                0.03880382779862834,
                0.5370679031065319,
                1.3257403767489977
            ]
        },
        {
            "positions": [
                1.884168556973264,
                -1.3049781138119154,
                0.34735215311550105,
                -0.015628869354334052,
                0.5714370964769317,
                1.448758147146552
            ]
        },
        {
            "positions": [
                1.9372881477564616,
                -1.28427348209938,
                0.45282508014294653,
                -0.07006156650729622,
                0.6058062898473316,
                1.571775917544106
            ]
        },
        {
            "positions": [
                1.9904077385396595,
                -1.2635688503868447,
                0.558298007170392,
                -0.12449426366025862,
                0.6401754832177315,
                1.69479368794166
            ]
        },
        {
            "positions": [
                2.043527329322857,
                -1.2428642186743095,
                0.6637709341978375,
                -0.1789269608132209,
                0.6745446765881316,
                1.817811458339214
            ]
        },
        {
            "positions": [
                2.0966469201060547,
                -1.222159586961774,
                0.7692438612252832,
                -0.2333596579661833,
                0.7089138699585315,
                1.9408292287367683
            ]
        },
        {
            "positions": [
                2.1497665108892523,
                -1.2014549552492388,
                0.8747167882527287,
                -0.2877923551191456,
                0.7432830633289313,
                2.0638469991343227
            ]
        },
        {
            "positions": [
                2.2028861016724504,
                -1.1807503235367036,
                0.9801897152801742,
                -0.34222505227210787,
                0.7776522566993312,
                2.1868647695318764
            ]
        },
        {
            "positions": [
                2.256005692455648,
                -1.1600456918241682,
                1.0856626423076199,
                -0.39665774942507026,
                0.8120214500697311,
                2.309882539929431
            ]
        },
        {
            "positions": [
                2.3091252832388456,
                -1.139341060111633,
                1.1911355693350651,
                -0.45109044657803254,
                0.846390643440131,
                2.4329003103269846
            ]
        },
        {
            "positions": [
                2.362244874022043,
                -1.1186364283990977,
                1.2966084963625109,
                -0.5055231437309948,
                0.8807598368105309,
                2.5559180807245383
            ]
        },
        {
            "positions": [
                2.415364464805241,
                -1.0979317966865623,
                1.4020814233899566,
                -0.5599558408839573,
                0.915129030180931,
                2.678935851122093
            ]
        },
        {
            "positions": [
                2.468484055588439,
                -1.077227164974027,
                1.5075543504174018,
                -0.6143885380369196,
                0.9494982235513308,
                2.8019536215196466
            ]
        },
        {
            "positions": [
                2.521603646371636,
                -1.0565225332614918,
                1.6130272774448475,
                -0.6688212351898817,
                0.9838674169217306,
                2.924971391917201
            ]
        },
        {
            "positions": [
                2.574723237154834,
                -1.0358179015489564,
                1.7185002044722932,
                -0.7232539323428442,
                1.0182366102921305,
                3.047989162314755
            ]
        },
        {
            "positions": [
                2.6278428279380317,
                -1.0151132698364211,
                1.8239731314997385,
                -0.7776866294958066,
                1.0526058036625305,
                3.171006932712309
            ]
        }
    ]
}