{
    "goal": {
        "global_pose": {
            "orientation": {
                "w": 0.005598929693374612,
                "x": 0.007748599140229565,
                "y": 0.7110244013736278,
                "z": -0.7031023480610252
            },
            "position": {
                "x": -0.8858502320852131,
                "y": -0.7141253447532654,
                "z": 0.3711530566215515
            }
        },
        "name": "move_to_auspresseinheit_C"
    },
    "id": "BKPIECE_move_to_auspresseinheit_C_99",
    "joint_names": [
        "shoulder_pan_joint",
        "shoulder_lift_joint",
        "elbow_joint",
        "wrist_1_joint",
        "wrist_2_joint",
        "wrist_3_joint"
    ],
    "metrics": {
        "cart_traj_len": 0.49390120745319704,
        "distance_elbow_joint": 1.012507947131923,
        "distance_shoulder_lift_joint": 0.33062555023691453,
        "distance_shoulder_pan_joint": 0.25538736947975593,
        "distance_wrist_1_joint": 0.6953467052494624,
        "distance_wrist_2_joint": 1.3206170958240862,
        "distance_wrist_3_joint": 0.0759972886817808,
        "smoothness": 1.6148698667872622e-16,
        "time": 1.523097329,
        "traj_len": 1.9210627154270425,
        "weighted_distance": 2.4204215201160797
    },
    "planner": "BKPIECE",
    "start": {
        "state": {
            "elbow_joint": 1.752795957773711,
            "shoulder_lift_joint": -0.9740617694225064,
            "shoulder_pan_joint": -2.967991417825858,
            "wrist_1_joint": -0.7595177689806859,
            "wrist_2_joint": 1.7443932448377395,
            "wrist_3_joint": 3.199131542505932
        }
    },
    "waypoints": [
        {
            "positions": [
                -2.967991417825858,
                -0.9740617694225064,
                1.752795957773711,
                -0.7595177689806859,
                1.7443932448377395,
                3.199131542505932
            ]
        },
        {
            "positions": [
                -2.9424526808778824,
                -0.940999214398815,
                1.651545163060519,
                -0.6899830984557397,
                1.612331535255331,
                3.191531813637754
            ]
        },
        {
            "positions": [
                -2.9169139439299068,
                -0.9079366593751236,
                1.5502943683473265,
                -0.6204484279307934,
                1.4802698256729223,
                3.183932084769576
            ]
        },
        {
            "positions": [
                -2.891375206981931,
                -0.8748741043514321,
                1.4490435736341343,
                -0.5509137574058471,
                1.3482081160905137,
                3.176332355901398
            ]
        },
        {
            "positions": [
                -2.8658364700339556,
                -0.8418115493277406,
                1.3477927789209418,
                -0.4813790868809009,
                1.2161464065081051,
                3.16873262703322
            ]
        },
        {
            "positions": [
                -2.84029773308598,
                -0.8087489943040491,
                1.2465419842077496,
                -0.4118444163559547,
                1.0840846969256965,
                3.1611328981650417
            ]
        },
        {
            "positions": [
                -2.8147589961380044,
                -0.7756864392803577,
                1.1452911894945572,
                -0.3423097458310085,
                0.9520229873432878,
                3.1535331692968636
            ]
        },
        {
            "positions": [
                -2.789220259190029,
                -0.7426238842566663,
                1.0440403947813652,
                -0.27277507530606226,
                0.8199612777608792,
                3.1459334404286854
            ]
        },
        {
            "positions": [
                -2.763681522242053,
                -0.7095613292329748,
                0.9427896000681727,
                -0.20324040478111594,
                0.6878995681784705,
                3.1383337115605077
            ]
        },
        {
            "positions": [
                -2.7381427852940776,
                -0.6764987742092834,
                0.8415388053549805,
                -0.13370573425616972,
                0.5558378585960619,
                3.1307339826923295
            ]
        },
        {
            "positions": [
                -2.712604048346102,
                -0.6434362191855919,
                0.7402880106417883,
                -0.06417106373122351,
                0.4237761490136533,
                3.1231342538241513
            ]
        }
    ]
}