{
    "goal": {
        "global_pose": {
            "orientation": {
                "w": -0.00223480608172531,
                "x": 0.0024358444001904467,
                "y": 0.7094548369677653,
                "z": -0.704743149386269
            },
            "position": {
                "x": -0.37947507619857795,
                "y": -0.6371506643295288,
                "z": 0.19426114857196808
            }
        },
        "name": "move_to_magneteinheit_C"
    },
    "id": "BKPIECE_move_to_magneteinheit_C_62",
    "joint_names": [
        "shoulder_pan_joint",
        "shoulder_lift_joint",
        "elbow_joint",
        "wrist_1_joint",
        "wrist_2_joint",
        "wrist_3_joint"
    ],
    "metrics": {
        "cart_traj_len": 1.2013759081370456,
        "distance_elbow_joint": 0.5101444224250766,
        "distance_shoulder_lift_joint": 0.918317959544664,
        "distance_shoulder_pan_joint": 1.4477080849517248,
        "distance_wrist_1_joint": 1.0103660902348712,
        "distance_wrist_2_joint": 1.206660648341395,
        "distance_wrist_3_joint": 3.360185474348017,
        "smoothness": 1.7907739390759874,
        "time": 1.216610587,
        "traj_len": 2.907470151153017,
        "weighted_distance": 4.170225457588361
    },
    "planner": "BKPIECE",
    "start": {
        "state": {
            "elbow_joint": 1.9565354006590394,
            "shoulder_lift_joint": -1.4165861576513559,
            "shoulder_pan_joint": -1.6717766223277177,
            "wrist_1_joint": -0.5286633288215096,
            "wrist_2_joint": 1.4727565892594296,
            "wrist_3_joint": 3.1593482883155493
        }
    },
    "waypoints": [
        {
            "positions": [
                -1.6717766223277177,
                -1.4165861576513559,
                1.9565354006590394,
                -0.5286633288215096,
                1.4727565892594296,
                3.1593482883155493
            ]
        },
        {
            "positions": [
                -1.7396912619627822,
                -1.413903143258854,
                1.9865883707799166,
                -0.5499205750099241,
                1.4083176496731395,
                2.987969195535574
            ]
        },
        {
            "positions": [
                -1.807605901597847,
                -1.411220128866352,
                2.0166413409007937,
                -0.5711778211983385,
                1.3438787100868492,
                2.8165901027555993
            ]
        },
        {
            "positions": [
                -1.8755205412329117,
                -1.40853711447385,
                2.046694311021671,
                -0.592435067386753,
                1.279439770500559,
                2.645211009975624
            ]
        },
        {
            "positions": [
                -1.9434351808679762,
                -1.4058541000813483,
                2.0767472811425485,
                -0.6136923135751675,
                1.2150008309142688,
                2.473831917195649
            ]
        },
        {
            "positions": [
                -2.0113498205030407,
                -1.4031710856888462,
                2.1068002512634254,
                -0.634949559763582,
                1.1505618913279787,
                2.3024528244156737
            ]
        },
        {
            "positions": [
                -2.0792644601381056,
                -1.4004880712963443,
                2.136853221384303,
                -0.6562068059519965,
                1.0861229517416884,
                2.1310737316356985
            ]
        },
        {
            "positions": [
                -2.14717909977317,
                -1.3978050569038423,
                2.1669061915051797,
                -0.6774640521404109,
                1.021684012155398,
                1.9596946388557237
            ]
        },
        {
            "positions": [
                -2.2150937394082346,
                -1.3951220425113404,
                2.196959161626057,
                -0.6987212983288255,
                0.957245072569108,
                1.7883155460757485
            ]
        },
        {
            "positions": [
                -2.150331781142933,
                -1.4616425489422342,
                2.1899591201332194,
                -0.6267225316867057,
                0.9004555171365085,
                1.7225607801717626
            ]
        },
        {
            "positions": [
                -2.085569822877631,
                -1.5281630553731282,
                2.182959078640381,
                -0.5547237650445858,
                0.8436659617039091,
                1.656806014267777
            ]
        },
        {
            "positions": [
                -2.020807864612329,
                -1.594683561804022,
                2.1759590371475435,
                -0.482724998402466,
                0.7868764062713096,
                1.591051248363791
            ]
        },
        {
            "positions": [
                -1.9560459063470272,
                -1.661204068234916,
                2.1689589956547053,
                -0.41072623176034617,
                0.7300868508387102,
                1.5252964824598054
            ]
        },
        {
            "positions": [
                -1.8912839480817254,
                -1.7277245746658099,
                2.1619589541618676,
                -0.3387274651182264,
                0.6732972954061107,
                1.4595417165558195
            ]
        },
        {
            "positions": [
                -1.9872684013850128,
                -1.6692245899797664,
                2.169931540460837,
                -0.3901881869551316,
                0.7150598088115787,
                1.5414752281207083
            ]
        },
        {
            "positions": [
                -2.0832528546883,
                -1.610724605293723,
                2.1779041267598065,
                -0.44164890879203683,
                0.7568223222170467,
                1.6234087396855972
            ]
        },
        {
            "positions": [
                -2.1792373079915874,
                -1.5522246206076795,
                2.1858767130587755,
                -0.49310963062894203,
                0.7985848356225146,
                1.7053422512504859
            ]
        },
        {
            "positions": [
                -2.275221761294875,
                -1.493724635921636,
                2.193849299357745,
                -0.5445703524658473,
                0.8403473490279826,
                1.7872757628153748
            ]
        },
        {
            "positions": [
                -2.3712062145981623,
                -1.4352246512355926,
                2.2018218856567144,
                -0.5960310743027525,
                0.8821098624334506,
                1.8692092743802635
            ]
        },
        {
            "positions": [
                -2.405118967925695,
                -1.38727632919059,
                2.162997575445276,
                -0.62840665353658,
                0.861698111261268,
                2.077923033537358
            ]
        },
        {
            "positions": [
                -2.4390317212532273,
                -1.3393280071455875,
                2.124173265233838,
                -0.6607822327704074,
                0.8412863600890855,
                2.2866367926944524
            ]
        },
        {
            "positions": [
                -2.4472400720965264,
                -1.2953643209630983,
                2.0948710397148016,
                -0.7003471127366012,
                0.8018950388099927,
                2.494957749306866
            ]
        },
        {
            "positions": [
                -2.455448422939826,
                -1.2514006347806093,
                2.065568814195765,
                -0.7399119927027951,
                0.7625037175308998,
                2.7032787059192795
            ]
        },
        {
            "positions": [
                -2.463656773783125,
                -1.20743694859812,
                2.036266588676728,
                -0.7794768726689888,
                0.723112396251807,
                2.9115996625316933
            ]
        },
        {
            "positions": [
                -2.471865124626424,
                -1.1634732624156308,
                2.006964363157692,
                -0.8190417526351826,
                0.6837210749727142,
                3.119920619144107
            ]
        }
    ]
}