{
    "goal": {
        "global_pose": {
            "orientation": {
                "w": -0.00223480608172531,
                "x": 0.0024358444001904467,
                "y": 0.7094548369677653,
                "z": -0.704743149386269
            },
            "position": {
                "x": 0.6205249238014221,
                "y": -0.6371506643295288,
                "z": 0.19426114857196808
            }
        },
        "name": "move_to_magneteinheit_B"
    },
    "id": "BKPIECE_move_to_magneteinheit_B_124",
    "joint_names": [
        "shoulder_pan_joint",
        "shoulder_lift_joint",
        "elbow_joint",
        "wrist_1_joint",
        "wrist_2_joint",
        "wrist_3_joint"
    ],
    "metrics": {
        "cart_traj_len": 1.4535054940651448,
        "distance_elbow_joint": 0.7259837671655158,
        "distance_shoulder_lift_joint": 1.2456693805314392,
        "distance_shoulder_pan_joint": 1.622246527931547,
        "distance_wrist_1_joint": 2.6162129802894993,
        "distance_wrist_2_joint": 2.938013315303393,
        "distance_wrist_3_joint": 3.141698759542692,
        "smoothness": 1.076579911191508e-16,
        "time": 0.59641649,
        "traj_len": 3.5056846308195047,
        "weighted_distance": 4.911969925136183
    },
    "planner": "BKPIECE",
    "start": {
        "state": {
            "elbow_joint": 2.3935871308073637,
            "shoulder_lift_joint": -1.9085141043777403,
            "shoulder_pan_joint": 0.7066247067284167,
            "wrist_1_joint": -0.46782909355067076,
            "wrist_2_joint": 0.7096259085804283,
            "wrist_3_joint": -3.1358149275257428
        }
    },
    "waypoints": [
        {
            "positions": [
                0.7066247067284167,
                -1.9085141043777403,
                2.3935871308073637,
                -0.46782909355067076,
                0.7096259085804283,
                -3.1358149275257428
            ]
        },
        {
            "positions": [
                0.6559295027305558,
                -1.8695869362361328,
                2.3709001380834414,
                -0.38607243791662393,
                0.6178129924771972,
                -3.0376368412900336
            ]
        },
        {
            "positions": [
                0.6052342987326951,
                -1.8306597680945254,
                2.348213145359519,
                -0.30431578228257705,
                0.5260000763739663,
                -2.9394587550543245
            ]
        },
        {
            "positions": [
                0.5545390947348342,
                -1.791732599952918,
                2.3255261526355966,
                -0.2225591266485302,
                0.43418716027073523,
                -2.8412806688186154
            ]
        },
        {
            "positions": [
                0.5038438907369733,
                -1.7528054318113104,
                2.302839159911674,
                -0.14080247101448334,
                0.34237424416750417,
                -2.7431025825829063
            ]
        },
        {
            "positions": [
                0.45314868673911246,
                -1.713878263669703,
                2.280152167187752,
                -0.05904581538043646,
                0.2505613280642731,
                -2.644924496347197
            ]
        },
        {
            "positions": [
                0.40245348274125164,
                -1.6749510955280955,
                2.2574651744638294,
                0.022710840253610365,
                0.15874841196104217,
                -2.546746410111488
            ]
        },
        {
            "positions": [
                0.35175827874339083,
                -1.6360239273864878,
                2.234778181739907,
                0.10446749588765719,
                0.06693549585781111,
                -2.448568323875779
            ]
        },
        {
            "positions": [
                0.30106307474552996,
                -1.5970967592448804,
                2.2120911890159847,
                0.18622415152170407,
                -0.024877420245419946,
                -2.35039023764007
            ]
        },
        {
            "positions": [
                0.2503678707476691,
                -1.558169591103273,
                2.1894041962920623,
                0.26798080715575096,
                -0.116690336348651,
                -2.2522121514043607
            ]
        },
        {
            "positions": [
                0.19967266674980821,
                -1.5192424229616655,
                2.16671720356814,
                0.34973746278979784,
                -0.20850325245188206,
                -2.1540340651686516
            ]
        },
        {
            "positions": [
                0.14897746275194745,
                -1.480315254820058,
                2.1440302108442175,
                0.4314941184238446,
                -0.3003161685551131,
                -2.055855978932942
            ]
        },
        {
            "positions": [
                0.09828225875408658,
                -1.4413880866784505,
                2.121343218120295,
                0.5132507740578915,
                -0.39212908465834395,
                -1.9576778926972331
            ]
        },
        {
            "positions": [
                0.04758705475622571,
                -1.402460918536843,
                2.0986562253963728,
                0.5950074296919383,
                -0.483942000761575,
                -1.859499806461524
            ]
        },
        {
            "positions": [
                -0.00310814924163505,
                -1.3635337503952356,
                2.075969232672451,
                0.6767640853259851,
                -0.5757549168648061,
                -1.761321720225815
            ]
        },
        {
            "positions": [
                -0.05380335323949592,
                -1.3246065822536282,
                2.053282239948528,
                0.7585207409600321,
                -0.6675678329680371,
                -1.6631436339901058
            ]
        },
        {
            "positions": [
                -0.10449855723735679,
                -1.2856794141120207,
                2.030595247224606,
                0.8402773965940789,
                -0.7593807490712682,
                -1.5649655477543967
            ]
        },
        {
            "positions": [
                -0.15519376123521766,
                -1.2467522459704132,
                2.007908254500683,
                0.9220340522281256,
                -0.8511936651744992,
                -1.4667874615186876
            ]
        },
        {
            "positions": [
                -0.20588896523307854,
                -1.2078250778288058,
                1.985221261776761,
                1.0037907078621726,
                -0.9430065812777303,
                -1.3686093752829784
            ]
        },
        {
            "positions": [
                -0.2565841692309393,
                -1.1688979096871983,
                1.9625342690528387,
                1.0855473634962194,
                -1.0348194973809615,
                -1.2704312890472693
            ]
        },
        {
            "positions": [
                -0.3072793732288003,
                -1.1299707415455909,
                1.9398472763289163,
                1.1673040191302664,
                -1.1266324134841925,
                -1.1722532028115602
            ]
        },
        {
            "positions": [
                -0.35797457722666104,
                -1.0910435734039834,
                1.917160283604994,
                1.2490606747643132,
                -1.2184453295874231,
                -1.0740751165758509
            ]
        },
        {
            "positions": [
                -0.4086697812245218,
                -1.052116405262376,
                1.8944732908810717,
                1.33081733039836,
                -1.3102582456906546,
                -0.9758970303401417
            ]
        },
        {
            "positions": [
                -0.4593649852223828,
                -1.0131892371207685,
                1.8717862981571494,
                1.412573986032407,
                -1.4020711617938857,
                -0.8777189441044326
            ]
        },
        {
            "positions": [
                -0.5100601892202435,
                -0.9742620689791609,
                1.849099305433227,
                1.4943306416664537,
                -1.4938840778971163,
                -0.7795408578687235
            ]
        },
        {
            "positions": [
                -0.5607553932181043,
                -0.9353349008375534,
                1.8264123127093046,
                1.5760872973005005,
                -1.5856969940003474,
                -0.6813627716330144
            ]
        },
        {
            "positions": [
                -0.6114505972159653,
                -0.8964077326959459,
                1.8037253199853822,
                1.6578439529345474,
                -1.6775099101035784,
                -0.5831846853973053
            ]
        },
        {
            "positions": [
                -0.662145801213826,
                -0.8574805645543384,
                1.7810383272614598,
                1.7396006085685944,
                -1.7693228262068095,
                -0.48500659916159616
            ]
        },
        {
            "positions": [
                -0.7128410052116868,
                -0.818553396412731,
                1.7583513345375374,
                1.821357264202641,
                -1.8611357423100405,
                -0.38682851292588705
            ]
        },
        {
            "positions": [
                -0.7635362092095478,
                -0.7796262282711235,
                1.735664341813615,
                1.903113919836688,
                -1.9529486584132716,
                -0.28865042669017793
            ]
        },
        {
            "positions": [
                -0.8142314132074085,
                -0.740699060129516,
                1.7129773490896927,
                1.984870575470735,
                -2.0447615745165026,
                -0.1904723404544688
            ]
        },
        {
            "positions": [
                -0.8649266172052695,
                -0.7017718919879086,
                1.6902903563657703,
                2.0666272311047815,
                -2.1365744906197337,
                -0.0922942542187597
            ]
        },
        {
            "positions": [
                -0.9156218212031302,
                -0.662844723846301,
                1.667603363641848,
                2.1483838867388285,
                -2.2283874067229648,
                0.0058838320169495115
            ]
        }
    ]
}