{
    "goal": {
        "global_pose": {
            "orientation": {
                "w": 0.7047431468963623,
                "x": -0.7094548344612122,
                "y": 0.0024358443915843964,
                "z": -0.0022348060738295317
            },
            "position": {
                "x": 0.6094750761985779,
                "y": 0.3671506643295288,
                "z": 0.19426114857196808
            }
        },
        "name": "move_to_magneteinheit_A"
    },
    "id": "BKPIECE_move_to_magneteinheit_A_97",
    "joint_names": [
        "shoulder_pan_joint",
        "shoulder_lift_joint",
        "elbow_joint",
        "wrist_1_joint",
        "wrist_2_joint",
        "wrist_3_joint"
    ],
    "metrics": {
        "cart_traj_len": 1.0544615751030484,
        "distance_elbow_joint": 0.37911020666275275,
        "distance_shoulder_lift_joint": 0.3701337032358185,
        "distance_shoulder_pan_joint": 1.2418050537900949,
        "distance_wrist_1_joint": 2.189583787618835,
        "distance_wrist_2_joint": 1.697655185241056,
        "distance_wrist_3_joint": 1.2426897128026484,
        "smoothness": 3.7396986388757647e-16,
        "time": 1.4505733520000001,
        "traj_len": 2.6685160013294293,
        "weighted_distance": 3.673363043291037
    },
    "planner": "BKPIECE",
    "start": {
        "state": {
            "elbow_joint": 1.5739458966750683,
            "shoulder_lift_joint": -1.4977259741207325,
            "shoulder_pan_joint": -1.1188672016454206,
            "wrist_1_joint": 1.494575848278785,
            "wrist_2_joint": -1.5706037134824402,
            "wrist_3_joint": -2.0226957942261072
        }
    },
    "waypoints": [
        {
            "positions": [
                -1.1188672016454206,
                -1.4977259741207325,
                1.5739458966750683,
                1.494575848278785,
                -1.5706037134824402,
                -2.0226957942261072
            ]
        },
        {
            "positions": [
                -1.0498780319904153,
                -1.4771629906076316,
                1.595007574822999,
                1.372932304522183,
                -1.4762895365246038,
                -2.091734111604032
            ]
        },
        {
            "positions": [
                -0.9808888623354102,
                -1.4566000070945304,
                1.6160692529709297,
                1.2512887607655812,
                -1.3819753595667674,
                -2.160772428981957
            ]
        },
        {
            "positions": [
                -0.9118996926804048,
                -1.4360370235814295,
                1.6371309311188604,
                1.1296452170089792,
                -1.287661182608931,
                -2.229810746359882
            ]
        },
        {
            "positions": [
                -0.8429105230253996,
                -1.4154740400683283,
                1.6581926092667911,
                1.0080016732523773,
                -1.1933470056510944,
                -2.2988490637378067
            ]
        },
        {
            "positions": [
                -0.7739213533703942,
                -1.3949110565552274,
                1.6792542874147218,
                0.8863581294957753,
                -1.099032828693258,
                -2.367887381115732
            ]
        },
        {
            "positions": [
                -0.704932183715389,
                -1.3743480730421263,
                1.7003159655626525,
                0.7647145857391734,
                -1.0047186517354216,
                -2.4369256984936567
            ]
        },
        {
            "positions": [
                -0.6359430140603837,
                -1.3537850895290253,
                1.7213776437105832,
                0.6430710419825714,
                -0.9104044747775851,
                -2.5059640158715815
            ]
        },
        {
            "positions": [
                -0.5669538444053785,
                -1.3332221060159242,
                1.742439321858514,
                0.5214274982259696,
                -0.8160902978197487,
                -2.5750023332495067
            ]
        },
        {
            "positions": [
                -0.4979646747503732,
                -1.3126591225028232,
                1.7635010000064448,
                0.39978395446936754,
                -0.7217761208619122,
                -2.6440406506274314
            ]
        },
        {
            "positions": [
                -0.42897550509536786,
                -1.2920961389897223,
                1.7845626781543755,
                0.27814041071276563,
                -0.6274619439040757,
                -2.713078968005356
            ]
        },
        {
            "positions": [
                -0.3599863354403626,
                -1.2715331554766212,
                1.8056243563023062,
                0.1564968669561635,
                -0.5331477669462392,
                -2.7821172853832814
            ]
        },
        {
            "positions": [
                -0.2909971657853574,
                -1.2509701719635202,
                1.826686034450237,
                0.0348533231995618,
                -0.43883358998840305,
                -2.851155602761206
            ]
        },
        {
            "positions": [
                -0.22200799613035216,
                -1.230407188450419,
                1.8477477125981676,
                -0.08679022055704011,
                -0.34451941303056643,
                -2.920193920139131
            ]
        },
        {
            "positions": [
                -0.15301882647534681,
                -1.2098442049373181,
                1.8688093907460983,
                -0.20843376431364224,
                -0.25020523607273004,
                -2.989232237517056
            ]
        },
        {
            "positions": [
                -0.08402965682034158,
                -1.189281221424217,
                1.889871068894029,
                -0.33007730807024416,
                -0.15589105911489343,
                -3.058270554894981
            ]
        },
        {
            "positions": [
                -0.015040487165336458,
                -1.168718237911116,
                1.9109327470419597,
                -0.45172085182684585,
                -0.061576882157057256,
                -3.1273088722729057
            ]
        },
        {
            "positions": [
                0.05394868248966889,
                -1.1481552543980151,
                1.9319944251898904,
                -0.5733643955834478,
                0.03273729480077936,
                -3.1963471896508304
            ]
        },
        {
            "positions": [
                0.12293785214467416,
                -1.127592270884914,
                1.953056103337821,
                -0.69500793934005,
                0.12705147175861564,
                -3.2653855070287556
            ]
        }
    ]
}