{
    "goal": {
        "global_pose": {
            "orientation": {
                "w": 0.7031023502349854,
                "x": -0.7110244035720825,
                "y": 0.007748599164187908,
                "z": 0.005598929710686207
            },
            "position": {
                "x": 0.11585023208521307,
                "y": 0.44412534475326537,
                "z": 0.3711530566215515
            }
        },
        "name": "move_to_auspresseinheit_A"
    },
    "id": "BKPIECE_move_to_auspresseinheit_A_47",
    "joint_names": [
        "shoulder_pan_joint",
        "shoulder_lift_joint",
        "elbow_joint",
        "wrist_1_joint",
        "wrist_2_joint",
        "wrist_3_joint"
    ],
    "metrics": {
        "cart_traj_len": 1.3482280894722727,
        "distance_elbow_joint": 1.0288614770527076,
        "distance_shoulder_lift_joint": 1.6009758731491537,
        "distance_shoulder_pan_joint": 1.1381993225395717,
        "distance_wrist_1_joint": 2.4008201908823867,
        "distance_wrist_2_joint": 1.841310063807125,
        "distance_wrist_3_joint": 13.121364519780876,
        "smoothness": 0.6142182446457396,
        "time": 0.632366438,
        "traj_len": 4.596904550587474,
        "weighted_distance": 7.184454797788282
    },
    "planner": "BKPIECE",
    "start": {
        "state": {
            "elbow_joint": 2.4225747245308327,
            "shoulder_lift_joint": -1.373653427065438,
            "shoulder_pan_joint": -0.33786330853087027,
            "wrist_1_joint": -1.0288602302712604,
            "wrist_2_joint": 1.23302299562683,
            "wrist_3_joint": -3.094021725338297
        }
    },
    "waypoints": [
        {
            "positions": [
                -0.33786330853087027,
                -1.373653427065438,
                2.4225747245308327,
                -1.0288602302712604,
                1.23302299562683,
                -3.094021725338297
            ]
        },
        {
            "positions": [
                -0.33955098177536086,
                -1.410462740747794,
                2.403657790512733,
                -0.976023877683915,
                1.1906070404593911,
                -2.8603130349424197
            ]
        },
        {
            "positions": [
                -0.3412386550198515,
                -1.4472720544301503,
                2.3847408564946337,
                -0.9231875250965694,
                1.1481910852919526,
                -2.6266043445465423
            ]
        },
        {
            "positions": [
                -0.3429263282643421,
                -1.4840813681125065,
                2.365823922476534,
                -0.870351172509224,
                1.1057751301245138,
                -2.392895654150665
            ]
        },
        {
            "positions": [
                -0.3446140015088327,
                -1.5208906817948624,
                2.3469069884584344,
                -0.8175148199218786,
                1.0633591749570752,
                -2.159186963754788
            ]
        },
        {
            "positions": [
                -0.3463016747533233,
                -1.5576999954772188,
                2.3279900544403347,
                -0.764678467334533,
                1.0209432197896364,
                -1.9254782733589104
            ]
        },
        {
            "positions": [
                -0.3479893479978139,
                -1.5945093091595748,
                2.3090731204222354,
                -0.7118421147471876,
                0.9785272646221976,
                -1.691769582963033
            ]
        },
        {
            "positions": [
                -0.34967702124230454,
                -1.631318622841931,
                2.2901561864041358,
                -0.6590057621598422,
                0.936111309454759,
                -1.4580608925671557
            ]
        },
        {
            "positions": [
                -0.35136469448679514,
                -1.6681279365242871,
                2.271239252386036,
                -0.6061694095724968,
                0.8936953542873203,
                -1.2243522021712785
            ]
        },
        {
            "positions": [
                -0.35305236773128573,
                -1.7049372502066433,
                2.252322318367937,
                -0.5533330569851511,
                0.8512793991198815,
                -0.9906435117754007
            ]
        },
        {
            "positions": [
                -0.3547400409757764,
                -1.7417465638889995,
                2.233405384349837,
                -0.5004967043978057,
                0.8088634439524428,
                -0.7569348213795237
            ]
        },
        {
            "positions": [
                -0.356427714220267,
                -1.7785558775713557,
                2.2144884503317375,
                -0.44766035181046027,
                0.7664474887850041,
                -0.5232261309836463
            ]
        },
        {
            "positions": [
                -0.3581153874647576,
                -1.8153651912537119,
                2.195571516313638,
                -0.39482399922311484,
                0.7240315336175654,
                -0.28951744058776896
            ]
        },
        {
            "positions": [
                -0.35980306070924817,
                -1.852174504936068,
                2.1766545822955385,
                -0.3419876466357693,
                0.6816155784501267,
                -0.055808750191891576
            ]
        },
        {
            "positions": [
                -0.36149073395373876,
                -1.8889838186184242,
                2.157737648277439,
                -0.2891512940484239,
                0.639199623282688,
                0.1778999402039858
            ]
        },
        {
            "positions": [
                -0.3631784071982294,
                -1.9257931323007802,
                2.138820714259339,
                -0.23631494146107845,
                0.5967836681152493,
                0.4116086305998632
            ]
        },
        {
            "positions": [
                -0.36486608044272,
                -1.9626024459831364,
                2.11990378024124,
                -0.18347858887373303,
                0.5543677129478106,
                0.6453173209957401
            ]
        },
        {
            "positions": [
                -0.3665537536872106,
                -1.9994117596654926,
                2.1009868462231402,
                -0.1306422362863876,
                0.5119517577803719,
                0.8790260113916175
            ]
        },
        {
            "positions": [
                -0.36824142693170125,
                -2.036221073347849,
                2.0820699122050406,
                -0.07780588369904196,
                0.46953580261293304,
                1.1127347017874958
            ]
        },
        {
            "positions": [
                -0.36992910017619185,
                -2.073030387030205,
                2.063152978186941,
                -0.02496953111169642,
                0.42711984744549436,
                1.3464433921833732
            ]
        },
        {
            "positions": [
                -0.37161677342068244,
                -2.109839700712561,
                2.0442360441688416,
                0.027866821475649006,
                0.3847038922780557,
                1.5801520825792497
            ]
        },
        {
            "positions": [
                -0.37330444666517304,
                -2.1466490143949173,
                2.025319110150742,
                0.08070317406299443,
                0.342287937110617,
                1.813860772975127
            ]
        },
        {
            "positions": [
                -0.37499211990966363,
                -2.1834583280772732,
                2.0064021761326423,
                0.13353952665033986,
                0.2998719819431783,
                2.0475694633710044
            ]
        },
        {
            "positions": [
                -0.3766797931541543,
                -2.2202676417596297,
                1.9874852421145428,
                0.18637587923768528,
                0.25745602677573964,
                2.281278153766882
            ]
        },
        {
            "positions": [
                -0.3783674663986449,
                -2.2570769554419856,
                1.9685683080964433,
                0.2392122318250307,
                0.21504007160830096,
                2.514986844162759
            ]
        },
        {
            "positions": [
                -0.3800551396431355,
                -2.293886269124342,
                1.9496513740783437,
                0.29204858441237636,
                0.17262411644086217,
                2.7486955345586366
            ]
        },
        {
            "positions": [
                -0.3817428128876261,
                -2.330695582806698,
                1.9307344400602442,
                0.3448849369997218,
                0.13020816127342338,
                2.982404224954514
            ]
        },
        {
            "positions": [
                -0.3834304861321167,
                -2.367504896489054,
                1.9118175060421447,
                0.3977212895870672,
                0.08779220610598482,
                3.2161129153503913
            ]
        },
        {
            "positions": [
                -0.3851181593766073,
                -2.4043142101714103,
                1.892900572024045,
                0.45055764217441263,
                0.045376250938546026,
                3.4498216057462687
            ]
        },
        {
            "positions": [
                -0.34766557971642453,
                -2.3829682166716246,
                1.9114807470616777,
                0.4173539374656106,
                0.06938936653337785,
                3.192801035326143
            ]
        },
        {
            "positions": [
                -0.3102130000562418,
                -2.3616222231718393,
                1.9300609220993103,
                0.3841502327568086,
                0.09340248212820967,
                2.935780464906018
            ]
        },
        {
            "positions": [
                -0.2727604203960591,
                -2.3402762296720536,
                1.948641097136943,
                0.3509465280480066,
                0.11741559772304148,
                2.678759894485893
            ]
        },
        {
            "positions": [
                -0.2353078407358763,
                -2.3189302361722683,
                1.9672212721745757,
                0.31774282333920456,
                0.14142871331787332,
                2.4217393240657668
            ]
        },
        {
            "positions": [
                -0.19785526107569354,
                -2.2975842426724826,
                1.985801447212208,
                0.2845391186304025,
                0.16544182891270515,
                2.1647187536456416
            ]
        },
        {
            "positions": [
                -0.1604026814155108,
                -2.276238249172697,
                2.004381622249841,
                0.2513354139216005,
                0.18945494450753694,
                1.9076981832255164
            ]
        },
        {
            "positions": [
                -0.122950101755328,
                -2.2548922556729116,
                2.0229617972874734,
                0.21813170921279848,
                0.2134680601023688,
                1.6506776128053906
            ]
        },
        {
            "positions": [
                -0.08549752209514527,
                -2.233546262173126,
                2.0415419723251063,
                0.1849280045039965,
                0.23748117569720062,
                1.3936570423852652
            ]
        },
        {
            "positions": [
                -0.048044942434962545,
                -2.2122002686733406,
                2.0601221473627387,
                0.15172429979519447,
                0.2614942912920324,
                1.13663647196514
            ]
        },
        {
            "positions": [
                -0.010592362774779762,
                -2.190854275173555,
                2.078702322400371,
                0.1185205950863924,
                0.28550740688686427,
                0.8796159015450145
            ]
        },
        {
            "positions": [
                0.026860216885402965,
                -2.1695082816737696,
                2.097282497438004,
                0.08531689037759044,
                0.3095205224816961,
                0.6225953311248893
            ]
        },
        {
            "positions": [
                0.0643127965455857,
                -2.148162288173984,
                2.1158626724756364,
                0.05211318566878842,
                0.33353363807652786,
                0.36557476070476413
            ]
        },
        {
            "positions": [
                0.10176537620576848,
                -2.1268162946741986,
                2.1344428475132693,
                0.018909480959986347,
                0.35754675367135974,
                0.10855419028463809
            ]
        },
        {
            "positions": [
                0.13921795586595131,
                -2.105470301174413,
                2.1530230225509017,
                -0.014294223748815671,
                0.38155986926619156,
                -0.14846638013548752
            ]
        },
        {
            "positions": [
                0.176670535526134,
                -2.084124307674627,
                2.1716031975885346,
                -0.04749792845761763,
                0.40557298486102333,
                -0.40548695055561224
            ]
        },
        {
            "positions": [
                0.21412311518631677,
                -2.062778314174842,
                2.190183372626167,
                -0.08070163316641965,
                0.4295861004558552,
                -0.6625075209757383
            ]
        },
        {
            "positions": [
                0.25157569484649955,
                -2.041432320675056,
                2.2087635476638,
                -0.11390533787522172,
                0.45359921605068704,
                -0.9195280913958634
            ]
        },
        {
            "positions": [
                0.2890282745066822,
                -2.020086327175271,
                2.2273437227014323,
                -0.14710904258402369,
                0.4776123316455188,
                -1.1765486618159886
            ]
        },
        {
            "positions": [
                0.326480854166865,
                -1.9987403336754852,
                2.2459238977390648,
                -0.18031274729282576,
                0.5016254472403506,
                -1.4335692322361138
            ]
        },
        {
            "positions": [
                0.3639334338270478,
                -1.9773943401756997,
                2.2645040727766976,
                -0.21351645200162783,
                0.5256385628351825,
                -1.6905898026562398
            ]
        },
        {
            "positions": [
                0.40138601348723046,
                -1.9560483466759142,
                2.28308424781433,
                -0.2467201567104298,
                0.5496516784300143,
                -1.947610373076365
            ]
        },
        {
            "positions": [
                0.43883859314741325,
                -1.9347023531761285,
                2.301664422851963,
                -0.27992386141923176,
                0.5736647940248462,
                -2.20463094349649
            ]
        },
        {
            "positions": [
                0.47629117280759603,
                -1.913356359676343,
                2.3202445978895954,
                -0.31312756612803383,
                0.5976779096196779,
                -2.461651513916616
            ]
        },
        {
            "positions": [
                0.5137437524677787,
                -1.8920103661765575,
                2.338824772927228,
                -0.3463312708368358,
                0.6216910252145097,
                -2.7186720843367405
            ]
        },
        {
            "positions": [
                0.5511963321279615,
                -1.870664372676772,
                2.3574049479648607,
                -0.3795349755456378,
                0.6457041408093416,
                -2.975692654756866
            ]
        },
        {
            "positions": [
                0.6285113222225944,
                -1.8889969989510433,
                2.374746422267413,
                -0.4251898259039699,
                0.6723718554333646,
                -3.0516961188534535
            ]
        },
        {
            "positions": [
                0.7058263123172274,
                -1.907329625225315,
                2.392087896569965,
                -0.47084467626230203,
                0.6990395700573878,
                -3.127699582950041
            ]
        }
    ]
}