{
    "goal": {
        "global_pose": {
            "orientation": {
                "w": 0.7047431493862688,
                "x": -0.7094548369677653,
                "y": 0.0024358444001904,
                "z": -0.0022348060817251984
            },
            "position": {
                "x": -0.39052492380142206,
                "y": 0.3671506643295288,
                "z": 0.19426114857196808
            }
        },
        "name": "move_to_magneteinheit_D"
    },
    "id": "BKPIECE_move_to_magneteinheit_D_103",
    "joint_names": [
        "shoulder_pan_joint",
        "shoulder_lift_joint",
        "elbow_joint",
        "wrist_1_joint",
        "wrist_2_joint",
        "wrist_3_joint"
    ],
    "metrics": {
        "cart_traj_len": 8.41678939244777,
        "distance_elbow_joint": 10.175488525466701,
        "distance_shoulder_lift_joint": 2.776132855597811,
        "distance_shoulder_pan_joint": 3.7126691457487304,
        "distance_wrist_1_joint": 6.2144157252227155,
        "distance_wrist_2_joint": 4.500885392197887,
        "distance_wrist_3_joint": 6.22163326578594,
        "smoothness": 1.3969385525575924,
        "time": 0.504920485,
        "traj_len": 5.79665635604007,
        "weighted_distance": 7.53390951359334
    },
    "planner": "BKPIECE",
    "start": {
        "state": {
            "elbow_joint": 0.7495348899011973,
            "shoulder_lift_joint": -0.6476975780737697,
            "shoulder_pan_joint": -2.711696901376276,
            "wrist_1_joint": -0.07506478080974305,
            "wrist_2_joint": 0.4329665971545858,
            "wrist_3_joint": 3.1361499051832524
        }
    },
    "waypoints": [
        {
            "positions": [
                -2.711696901376276,
                -0.6476975780737697,
                0.7495348899011973,
                -0.07506478080974305,
                0.4329665971545858,
                3.1361499051832524
            ]
        },
        {
            "positions": [
                -2.7722555967398854,
                -0.6799745514093539,
                0.8437560087026552,
                -0.04982229934669404,
                0.3886014521787262,
                3.0591569031405434
            ]
        },
        {
            "positions": [
                -2.8328142921034947,
                -0.7122515247449381,
                0.9379771275041132,
                -0.024579817883645036,
                0.3442363072028666,
                2.9821639010978345
            ]
        },
        {
            "positions": [
                -2.8933729874671035,
                -0.7445284980805225,
                1.0321982463055712,
                0.0006626635794039631,
                0.299871162227007,
                2.905170899055126
            ]
        },
        {
            "positions": [
                -2.9539316828307127,
                -0.7768054714161067,
                1.1264193651070291,
                0.025905145042452976,
                0.2555060172511474,
                2.828177897012417
            ]
        },
        {
            "positions": [
                -3.014490378194322,
                -0.8090824447516909,
                1.220640483908487,
                0.051147626505501975,
                0.2111408722752878,
                2.751184894969708
            ]
        },
        {
            "positions": [
                -3.003590162838517,
                -0.7822406545607167,
                1.0988815601773612,
                -0.03405477726501609,
                0.2810500600457653,
                2.6703781474275545
            ]
        },
        {
            "positions": [
                -2.9926899474827113,
                -0.7553988643697426,
                0.9771226364462355,
                -0.11925718103553415,
                0.3509592478162429,
                2.589571399885401
            ]
        },
        {
            "positions": [
                -2.9817897321269062,
                -0.7285570741787684,
                0.8553637127151097,
                -0.20445958480605225,
                0.42086843558672044,
                2.5087646523432476
            ]
        },
        {
            "positions": [
                -2.9708895167711007,
                -0.7017152839877943,
                0.7336047889839841,
                -0.2896619885765703,
                0.490777623357198,
                2.427957904801094
            ]
        },
        {
            "positions": [
                -2.9599893014152956,
                -0.67487349379682,
                0.6118458652528582,
                -0.37486439234708835,
                0.5606868111276755,
                2.3471511572589407
            ]
        },
        {
            "positions": [
                -2.94908908605949,
                -0.6480317036058459,
                0.4900869415217325,
                -0.4600667961176065,
                0.6305959988981531,
                2.266344409716787
            ]
        },
        {
            "positions": [
                -2.938188870703685,
                -0.6211899134148717,
                0.36832801779060687,
                -0.5452691998881244,
                0.7005051866686306,
                2.1855376621746334
            ]
        },
        {
            "positions": [
                -2.9272886553478794,
                -0.5943481232238976,
                0.24656909405948102,
                -0.6304716036586425,
                0.7704143744391081,
                2.10473091463248
            ]
        },
        {
            "positions": [
                -2.9163884399920743,
                -0.5675063330329234,
                0.12481017032835529,
                -0.7156740074291605,
                0.8403235622095856,
                2.0239241670903265
            ]
        },
        {
            "positions": [
                -2.9054882246362688,
                -0.5406645428419492,
                0.00305124659722944,
                -0.8008764111996787,
                0.9102327499800632,
                1.943117419548173
            ]
        },
        {
            "positions": [
                -2.8945880092804637,
                -0.5138227526509751,
                -0.11870767713389618,
                -0.8860788149701967,
                0.9801419377505407,
                1.8623106720060196
            ]
        },
        {
            "positions": [
                -2.883687793924658,
                -0.48698096246000094,
                -0.24046660086502203,
                -0.9712812187407149,
                1.0500511255210183,
                1.7815039244638662
            ]
        },
        {
            "positions": [
                -2.872787578568853,
                -0.4601391722690268,
                -0.36222552459614765,
                -1.0564836225112328,
                1.119960313291496,
                1.7006971769217127
            ]
        },
        {
            "positions": [
                -2.861887363213048,
                -0.43329738207805263,
                -0.4839844483272733,
                -1.1416860262817508,
                1.1898695010619733,
                1.6198904293795593
            ]
        },
        {
            "positions": [
                -2.8509871478572424,
                -0.40645559188707847,
                -0.6057433720583989,
                -1.2268884300522689,
                1.259778688832451,
                1.5390836818374058
            ]
        },
        {
            "positions": [
                -2.8400869325014373,
                -0.37961380169610426,
                -0.727502295789525,
                -1.312090833822787,
                1.3296878766029285,
                1.4582769342952522
            ]
        },
        {
            "positions": [
                -2.8291867171456317,
                -0.35277201150513016,
                -0.8492612195206508,
                -1.3972932375933051,
                1.3995970643734061,
                1.3774701867530987
            ]
        },
        {
            "positions": [
                -2.8182865017898266,
                -0.325930221314156,
                -0.9710201432517764,
                -1.482495641363823,
                1.4695062521438835,
                1.2966634392109453
            ]
        },
        {
            "positions": [
                -2.807386286434021,
                -0.29908843112318184,
                -1.092779066982902,
                -1.5676980451343412,
                1.5394154399143611,
                1.2158566916687918
            ]
        },
        {
            "positions": [
                -2.796486071078216,
                -0.27224664093220763,
                -1.2145379907140281,
                -1.6529004489048593,
                1.6093246276848387,
                1.1350499441266384
            ]
        },
        {
            "positions": [
                -2.7855858557224105,
                -0.24540485074123353,
                -1.3362969144451537,
                -1.7381028526753775,
                1.6792338154553164,
                1.054243196584485
            ]
        },
        {
            "positions": [
                -2.7746856403666054,
                -0.2185630605502593,
                -1.4580558381762794,
                -1.8233052564458954,
                1.7491430032257937,
                0.9734364490423315
            ]
        },
        {
            "positions": [
                -2.7637854250108,
                -0.1917212703592852,
                -1.579814761907405,
                -1.9085076602164135,
                1.8190521909962714,
                0.8926297015001781
            ]
        },
        {
            "positions": [
                -2.7528852096549947,
                -0.164879480168311,
                -1.701573685638531,
                -1.9937100639869318,
                1.888961378766749,
                0.8118229539580244
            ]
        },
        {
            "positions": [
                -2.741984994299189,
                -0.13803768997733679,
                -1.8233326093696567,
                -2.0789124677574495,
                1.9588705665372266,
                0.731016206415871
            ]
        },
        {
            "positions": [
                -2.731084778943384,
                -0.11119589978636268,
                -1.9450915331007823,
                -2.1641148715279677,
                2.028779754307704,
                0.6502094588737175
            ]
        },
        {
            "positions": [
                -2.723863079014893,
                -0.14221039778061897,
                -1.8344426753278584,
                -2.0863452270456966,
                1.9660905340484756,
                0.7461523958378918
            ]
        },
        {
            "positions": [
                -2.7166413790864024,
                -0.17322489577487524,
                -1.7237938175549348,
                -2.0085755825634255,
                1.9034013137892472,
                0.8420953328020662
            ]
        },
        {
            "positions": [
                -2.7094196791579113,
                -0.20423939376913153,
                -1.613144959782011,
                -1.9308059380811544,
                1.840712093530019,
                0.9380382697662404
            ]
        },
        {
            "positions": [
                -2.70219797922942,
                -0.2352538917633878,
                -1.5024961020090872,
                -1.8530362935988833,
                1.7780228732707906,
                1.0339812067304148
            ]
        },
        {
            "positions": [
                -2.694976279300929,
                -0.2662683897576441,
                -1.3918472442361631,
                -1.7752666491166122,
                1.7153336530115622,
                1.129924143694589
            ]
        },
        {
            "positions": [
                -2.6877545793724384,
                -0.29728288775190037,
                -1.2811983864632395,
                -1.6974970046343414,
                1.652644432752334,
                1.2258670806587633
            ]
        },
        {
            "positions": [
                -2.6805328794439474,
                -0.32829738574615663,
                -1.1705495286903156,
                -1.61972736015207,
                1.5899552124931056,
                1.3218100176229377
            ]
        },
        {
            "positions": [
                -2.6733111795154563,
                -0.3593118837404129,
                -1.059900670917392,
                -1.5419577156697992,
                1.5272659922338772,
                1.417752954587112
            ]
        },
        {
            "positions": [
                -2.6660894795869656,
                -0.3903263817346692,
                -0.949251813144468,
                -1.4641880711875281,
                1.4645767719746488,
                1.5136958915512864
            ]
        },
        {
            "positions": [
                -2.6588677796584745,
                -0.42134087972892553,
                -0.8386029553715442,
                -1.386418426705257,
                1.4018875517154203,
                1.6096388285154606
            ]
        },
        {
            "positions": [
                -2.6516460797299835,
                -0.45235537772318174,
                -0.7279540975986205,
                -1.3086487822229862,
                1.3391983314561922,
                1.7055817654796348
            ]
        },
        {
            "positions": [
                -2.6444243798014924,
                -0.48336987571743806,
                -0.6173052398256966,
                -1.2308791377407151,
                1.2765091111969638,
                1.8015247024438092
            ]
        },
        {
            "positions": [
                -2.6372026798730017,
                -0.5143843737116943,
                -0.506656382052773,
                -1.153109493258444,
                1.2138198909377356,
                1.8974676394079835
            ]
        },
        {
            "positions": [
                -2.6299809799445106,
                -0.5453988717059506,
                -0.39600752427984887,
                -1.0753398487761727,
                1.151130670678507,
                1.993410576372158
            ]
        },
        {
            "positions": [
                -2.6227592800160195,
                -0.576413369700207,
                -0.2853586665069252,
                -0.9975702042939019,
                1.0884414504192788,
                2.089353513336332
            ]
        },
        {
            "positions": [
                -2.615537580087529,
                -0.6074278676944631,
                -0.17470980873400155,
                -0.9198005598116308,
                1.0257522301600503,
                2.1852964503005063
            ]
        },
        {
            "positions": [
                -2.608315880159038,
                -0.6384423656887195,
                -0.06406095096107745,
                -0.8420309153293597,
                0.9630630099008219,
                2.281239387264681
            ]
        },
        {
            "positions": [
                -2.6010941802305467,
                -0.6694568636829757,
                0.046587906811846214,
                -0.7642612708470886,
                0.9003737896415935,
                2.3771823242288552
            ]
        },
        {
            "positions": [
                -2.593872480302056,
                -0.700471361677232,
                0.15723676458476987,
                -0.6864916263648178,
                0.8376845693823654,
                2.4731252611930294
            ]
        },
        {
            "positions": [
                -2.586650780373565,
                -0.7314858596714884,
                0.267885622357694,
                -0.6087219818825464,
                0.774995349123137,
                2.569068198157204
            ]
        },
        {
            "positions": [
                -2.579429080445074,
                -0.7625003576657445,
                0.37853448013061763,
                -0.5309523374002756,
                0.7123061288639085,
                2.665011135121378
            ]
        },
        {
            "positions": [
                -2.572207380516583,
                -0.7935148556600008,
                0.4891833379035413,
                -0.4531826929180045,
                0.6496169086046804,
                2.760954072085552
            ]
        },
        {
            "positions": [
                -2.564985680588092,
                -0.8245293536542572,
                0.5998321956764654,
                -0.3754130484357334,
                0.5869276883454517,
                2.8568970090497268
            ]
        },
        {
            "positions": [
                -2.557763980659601,
                -0.8555438516485134,
                0.710481053449389,
                -0.29764340395346234,
                0.5242384680862235,
                2.952839946013901
            ]
        },
        {
            "positions": [
                -2.4333019427126206,
                -0.8883576495208186,
                0.5788601216908773,
                -0.3576297438128542,
                0.5015034257419001,
                2.9400759199280757
            ]
        },
        {
            "positions": [
                -2.3088399047656405,
                -0.9211714473931238,
                0.4472391899323656,
                -0.41761608367224595,
                0.47876838339757655,
                2.9273118938422504
            ]
        },
        {
            "positions": [
                -2.18437786681866,
                -0.9539852452654292,
                0.31561825817385397,
                -0.47760242353163773,
                0.4560333410532531,
                2.914547867756425
            ]
        },
        {
            "positions": [
                -2.0599158288716795,
                -0.9867990431377344,
                0.18399732641534217,
                -0.5375887633910296,
                0.43329829870892955,
                2.9017838416706
            ]
        },
        {
            "positions": [
                -1.9354537909246994,
                -1.0196128410100396,
                0.05237639465683053,
                -0.5975751032504213,
                0.4105632563646061,
                2.8890198155847746
            ]
        },
        {
            "positions": [
                -1.8109917529777189,
                -1.052426638882345,
                -0.07924453710168111,
                -0.6575614431098131,
                0.3878282140202826,
                2.8762557894989493
            ]
        },
        {
            "positions": [
                -1.6865297150307386,
                -1.08524043675465,
                -0.21086546886019286,
                -0.717547782969205,
                0.3650931716759591,
                2.863491763413124
            ]
        },
        {
            "positions": [
                -1.5620676770837583,
                -1.1180542346269553,
                -0.3424864006187047,
                -0.7775341228285968,
                0.3423581293316356,
                2.850727737327299
            ]
        },
        {
            "positions": [
                -1.4376056391367777,
                -1.1508680324992606,
                -0.47410733237721625,
                -0.8375204626879885,
                0.3196230869873121,
                2.8379637112414735
            ]
        },
        {
            "positions": [
                -1.3131436011897974,
                -1.1836818303715657,
                -0.605728264135728,
                -0.8975068025473804,
                0.2968880446429887,
                2.8251996851556482
            ]
        },
        {
            "positions": [
                -1.188681563242817,
                -1.216495628243871,
                -0.7373491958942398,
                -0.9574931424067722,
                0.2741530022986651,
                2.812435659069823
            ]
        },
        {
            "positions": [
                -1.0642195252958369,
                -1.2493094261161761,
                -0.8689701276527513,
                -1.017479482266164,
                0.2514179599543417,
                2.7996716329839977
            ]
        },
        {
            "positions": [
                -0.9397574873488563,
                -1.2821232239884814,
                -1.0005910594112633,
                -1.0774658221255557,
                0.2286829176100182,
                2.7869076068981724
            ]
        },
        {
            "positions": [
                -0.815295449401876,
                -1.3149370218607865,
                -1.1322119911697748,
                -1.1374521619849474,
                0.2059478752656947,
                2.774143580812347
            ]
        },
        {
            "positions": [
                -0.6908334114548955,
                -1.3477508197330919,
                -1.2638329229282865,
                -1.1974385018443394,
                0.1832128329213712,
                2.761379554726522
            ]
        },
        {
            "positions": [
                -0.5663713735079152,
                -1.3805646176053972,
                -1.3954538546867985,
                -1.2574248417037313,
                0.1604777905770477,
                2.7486155286406966
            ]
        },
        {
            "positions": [
                -0.4419093355609349,
                -1.4133784154777023,
                -1.52707478644531,
                -1.3174111815631229,
                0.13774274823272425,
                2.7358515025548713
            ]
        },
        {
            "positions": [
                -0.3174472976139544,
                -1.4461922133500076,
                -1.6586957182038216,
                -1.3773975214225147,
                0.11500770588840076,
                2.723087476469046
            ]
        },
        {
            "positions": [
                -0.19298525966697433,
                -1.479006011222313,
                -1.790316649962333,
                -1.4373838612819065,
                0.09227266354407726,
                2.7103234503832208
            ]
        },
        {
            "positions": [
                -0.06852322171999402,
                -1.511819809094618,
                -1.921937581720845,
                -1.4973702011412984,
                0.06953762119975376,
                2.6975594242973955
            ]
        },
        {
            "positions": [
                -0.06546644817958702,
                -1.5557888788560392,
                -2.0056146178575394,
                -1.6451230636699306,
                0.02171667248484513,
                2.763047848526967
            ]
        },
        {
            "positions": [
                -0.062409674639180034,
                -1.5997579486174602,
                -2.089291653994234,
                -1.792875926198563,
                -0.026104276230063506,
                2.8285362727565393
            ]
        },
        {
            "positions": [
                -0.059352901098773045,
                -1.6437270183788812,
                -2.1729686901309284,
                -1.9406287887271954,
                -0.07392522494497214,
                2.8940246969861114
            ]
        },
        {
            "positions": [
                -0.05629612755836605,
                -1.6876960881403025,
                -2.2566457262676227,
                -2.0883816512558275,
                -0.12174617365988077,
                2.959513121215683
            ]
        },
        {
            "positions": [
                -0.015804754113173128,
                -1.6517856582489037,
                -2.155871016931107,
                -2.12392979576748,
                -0.16545409707568204,
                3.0867721083161404
            ]
        },
        {
            "positions": [
                0.024686619332019794,
                -1.615875228357505,
                -2.0550963075945914,
                -2.1594779402791318,
                -0.20916202049148333,
                3.2140310954165976
            ]
        },
        {
            "positions": [
                0.06517799277721271,
                -1.5799647984661065,
                -1.9543215982580757,
                -2.1950260847907836,
                -0.2528699439072846,
                3.3412900825170553
            ]
        },
        {
            "positions": [
                0.10566936622240564,
                -1.5440543685747077,
                -1.85354688892156,
                -2.230574229302436,
                -0.2965778673230859,
                3.4685490696175125
            ]
        },
        {
            "positions": [
                0.04096621377839668,
                -1.5914207071187927,
                -1.977772975082053,
                -2.2127211005885536,
                -0.2640368990769013,
                3.3747930307842746
            ]
        },
        {
            "positions": [
                -0.023736938665612273,
                -1.6387870456628775,
                -2.101999061242546,
                -2.1948679718746718,
                -0.23149593083071676,
                3.281036991951037
            ]
        },
        {
            "positions": [
                -0.08844009110962123,
                -1.6861533842069623,
                -2.2262251474030386,
                -2.1770148431607894,
                -0.1989549625845322,
                3.1872809531177992
            ]
        },
        {
            "positions": [
                -0.15314324355363018,
                -1.7335197227510473,
                -2.3504512335635317,
                -2.159161714446907,
                -0.16641399433834764,
                3.0935249142845613
            ]
        },
        {
            "positions": [
                -0.18404655829155153,
                -1.7407739046097357,
                -2.366399599758444,
                -2.1570357023519104,
                -0.17231328500898815,
                3.1252929242512004
            ]
        }
    ]
}