{
    "goal": {
        "global_pose": {
            "orientation": {
                "w": 0.7047431493862688,
                "x": -0.7094548369677653,
                "y": 0.0024358444001904,
                "z": -0.0022348060817251984
            },
            "position": {
                "x": -0.39052492380142206,
                "y": 0.3671506643295288,
                "z": 0.19426114857196808
            }
        },
        "name": "move_to_magneteinheit_D"
    },
    "id": "BKPIECE_move_to_magneteinheit_D_58",
    "joint_names": [
        "shoulder_pan_joint",
        "shoulder_lift_joint",
        "elbow_joint",
        "wrist_1_joint",
        "wrist_2_joint",
        "wrist_3_joint"
    ],
    "metrics": {
        "cart_traj_len": 4.149893013886911,
        "distance_elbow_joint": 3.2285668473586786,
        "distance_shoulder_lift_joint": 1.6333977190526054,
        "distance_shoulder_pan_joint": 2.959022471506811,
        "distance_wrist_1_joint": 1.6003685169260773,
        "distance_wrist_2_joint": 1.4549027574638613,
        "distance_wrist_3_joint": 3.190593730747601,
        "smoothness": 0.34952325419586616,
        "time": 0.938386504,
        "traj_len": 3.750580227518889,
        "weighted_distance": 4.848021326163982
    },
    "planner": "BKPIECE",
    "start": {
        "state": {
            "elbow_joint": 0.7495348899011973,
            "shoulder_lift_joint": -0.6476975780737697,
            "shoulder_pan_joint": -2.711696901376276,
            "wrist_1_joint": -0.07506478080974305,
            "wrist_2_joint": 0.4329665971545858,
            "wrist_3_joint": 3.1361499051832524
        }
    },
    "waypoints": [
        {
            "positions": [
                -2.711696901376276,
                -0.6476975780737697,
                0.7495348899011973,
                -0.07506478080974305,
                0.4329665971545858,
                3.1361499051832524
            ]
        },
        {
            "positions": [
                -2.705284824282878,
                -0.6674056432177685,
                0.776521469911771,
                0.0814537714785975,
                0.5561693210789446,
                3.090155788098512
            ]
        },
        {
            "positions": [
                -2.6988727471894802,
                -0.6871137083617673,
                0.8035080499223446,
                0.23797232376693803,
                0.6793720450033033,
                3.044161671013772
            ]
        },
        {
            "positions": [
                -2.6834952763287165,
                -0.7138988782570884,
                0.7796653276555968,
                0.32639320328689203,
                0.7409903537520127,
                2.9156184139474868
            ]
        },
        {
            "positions": [
                -2.6681178054679524,
                -0.7406840481524096,
                0.755822605388849,
                0.414814082806846,
                0.802608662500722,
                2.787075156881201
            ]
        },
        {
            "positions": [
                -2.6527403346071887,
                -0.7674692180477307,
                0.7319798831221013,
                0.5032349623268,
                0.8642269712494315,
                2.658531899814916
            ]
        },
        {
            "positions": [
                -2.6373628637464246,
                -0.7942543879430519,
                0.7081371608553535,
                0.591655841846754,
                0.9258452799981409,
                2.5299886427486302
            ]
        },
        {
            "positions": [
                -2.621985392885661,
                -0.821039557838373,
                0.6842944385886057,
                0.6800767213667079,
                0.9874635887468503,
                2.401445385682345
            ]
        },
        {
            "positions": [
                -2.5229295260337476,
                -0.8691778213396272,
                0.594512523054533,
                0.7047646501009706,
                0.9566562235892133,
                2.3048810629816736
            ]
        },
        {
            "positions": [
                -2.4238736591818344,
                -0.9173160848408815,
                0.5047306075204603,
                0.7294525788352332,
                0.9258488584315764,
                2.2083167402810022
            ]
        },
        {
            "positions": [
                -2.324817792329921,
                -0.9654543483421356,
                0.41494869198638756,
                0.7541405075694957,
                0.8950414932739394,
                2.111752417580331
            ]
        },
        {
            "positions": [
                -2.225761925478008,
                -1.0135926118433898,
                0.32516677645231484,
                0.7788284363037583,
                0.8642341281163024,
                2.0151880948796594
            ]
        },
        {
            "positions": [
                -2.1267060586260946,
                -1.061730875344644,
                0.23538486091824212,
                0.8035163650380209,
                0.8334267629586655,
                1.9186237721789878
            ]
        },
        {
            "positions": [
                -2.0276501917741814,
                -1.109869138845898,
                0.1456029453841694,
                0.8282042937722836,
                0.8026193978010285,
                1.8220594494783164
            ]
        },
        {
            "positions": [
                -1.9285943249222681,
                -1.1580074023471525,
                0.055821029850096626,
                0.8528922225065462,
                0.7718120326433916,
                1.7254951267776448
            ]
        },
        {
            "positions": [
                -1.8295384580703549,
                -1.2061456658484067,
                -0.03396088568397604,
                0.8775801512408087,
                0.7410046674857547,
                1.6289308040769737
            ]
        },
        {
            "positions": [
                -1.7304825912184416,
                -1.2542839293496608,
                -0.1237428012180487,
                0.9022680799750713,
                0.7101973023281176,
                1.532366481376302
            ]
        },
        {
            "positions": [
                -1.6314267243665284,
                -1.302422192850915,
                -0.21352471675212148,
                0.9269560087093339,
                0.6793899371704807,
                1.4358021586756307
            ]
        },
        {
            "positions": [
                -1.532370857514615,
                -1.3505604563521691,
                -0.30330663228619414,
                0.9516439374435965,
                0.6485825720128437,
                1.3392378359749593
            ]
        },
        {
            "positions": [
                -1.4333149906627018,
                -1.3986987198534235,
                -0.3930885478202669,
                0.976331866177859,
                0.6177752068552068,
                1.2426735132742879
            ]
        },
        {
            "positions": [
                -1.3342591238107886,
                -1.4468369833546775,
                -0.4828704633543396,
                1.0010197949121218,
                0.5869678416975699,
                1.1461091905736165
            ]
        },
        {
            "positions": [
                -1.2352032569588753,
                -1.4949752468559319,
                -0.5726523788884125,
                1.0257077236463843,
                0.5561604765399328,
                1.0495448678729449
            ]
        },
        {
            "positions": [
                -1.136147390106962,
                -1.543113510357186,
                -0.6624342944224851,
                1.0503956523806468,
                0.525353111382296,
                0.9529805451722737
            ]
        },
        {
            "positions": [
                -1.0370915232550488,
                -1.5912517738584402,
                -0.7522162099565578,
                1.0750835811149095,
                0.494545746224659,
                0.8564162224716023
            ]
        },
        {
            "positions": [
                -0.9380356564031356,
                -1.6393900373596946,
                -0.8419981254906307,
                1.099771509849172,
                0.46373838106702203,
                0.7598518997709307
            ]
        },
        {
            "positions": [
                -0.8389797895512223,
                -1.6875283008609485,
                -0.9317800410247031,
                1.1244594385834348,
                0.4329310159093851,
                0.6632875770702593
            ]
        },
        {
            "positions": [
                -0.7399239226993091,
                -1.735666564362203,
                -1.021561956558776,
                1.1491473673176973,
                0.40212365075174816,
                0.5667232543695879
            ]
        },
        {
            "positions": [
                -0.6408680558473958,
                -1.783804827863457,
                -1.1113438720928488,
                1.1738352960519598,
                0.3713162855941111,
                0.4701589316689163
            ]
        },
        {
            "positions": [
                -0.5418121889954826,
                -1.8319430913647112,
                -1.2011257876269212,
                1.1985232247862225,
                0.3405089204364743,
                0.3735946089682449
            ]
        },
        {
            "positions": [
                -0.4427563221435693,
                -1.8800813548659652,
                -1.2909077031609941,
                1.223211153520485,
                0.30970155527883736,
                0.27703028626757353
            ]
        },
        {
            "positions": [
                -0.34370045529165605,
                -1.9282196183672196,
                -1.380689618695067,
                1.2478990822547478,
                0.2788941901212003,
                0.18046596356690214
            ]
        },
        {
            "positions": [
                -0.2446445884397428,
                -1.976357881868474,
                -1.4704715342291395,
                1.2725870109890103,
                0.24808682496356332,
                0.08390164086623059
            ]
        },
        {
            "positions": [
                -0.1757487872047832,
                -2.0167356496750384,
                -1.5838736471126098,
                1.3095048537674896,
                0.21865933858570988,
                0.05493930373459615
            ]
        },
        {
            "positions": [
                -0.1068529859698236,
                -2.0571134174816024,
                -1.6972757599960804,
                1.3464226965459691,
                0.18923185220785643,
                0.025976966602961712
            ]
        },
        {
            "positions": [
                -0.03795718473486398,
                -2.097491185288167,
                -1.810677872879551,
                1.3833405393244487,
                0.15980436583000296,
                -0.0029853705286727317
            ]
        },
        {
            "positions": [
                0.030938616500095592,
                -2.1378689530947312,
                -1.9240799857630213,
                1.420258382102928,
                0.1303768794521495,
                -0.03194770766030716
            ]
        },
        {
            "positions": [
                -0.028352371810271934,
                -2.1828269200958816,
                -2.0704917947124986,
                1.4542094001961259,
                0.14117484311575218,
                -0.021018728623602937
            ]
        },
        {
            "positions": [
                -0.08764336012063946,
                -2.2277848870970316,
                -2.216903603661976,
                1.4881604182893238,
                0.15197280677935487,
                -0.010089749586898712
            ]
        },
        {
            "positions": [
                -0.18544833713034337,
                -2.281095297126375,
                -2.3710856374151867,
                1.5253037361163342,
                0.17369593602904584,
                -0.010727909417531182
            ]
        }
    ]
}