{
    "goal": {
        "global_pose": {
            "orientation": {
                "w": -0.00223480608172531,
                "x": 0.0024358444001904467,
                "y": 0.7094548369677653,
                "z": -0.704743149386269
            },
            "position": {
                "x": -0.37947507619857795,
                "y": -0.6371506643295288,
                "z": 0.19426114857196808
            }
        },
        "name": "move_to_magneteinheit_C"
    },
    "id": "BKPIECE_move_to_magneteinheit_C_112",
    "joint_names": [
        "shoulder_pan_joint",
        "shoulder_lift_joint",
        "elbow_joint",
        "wrist_1_joint",
        "wrist_2_joint",
        "wrist_3_joint"
    ],
    "metrics": {
        "cart_traj_len": 3.211500436136972,
        "distance_elbow_joint": 4.135214385732677,
        "distance_shoulder_lift_joint": 0.8915794883366313,
        "distance_shoulder_pan_joint": 2.9704356183647334,
        "distance_wrist_1_joint": 7.626039392055854,
        "distance_wrist_2_joint": 4.892197961641077,
        "distance_wrist_3_joint": 8.391085238691819,
        "smoothness": 0.4608076931605024,
        "time": 0.665318715,
        "traj_len": 5.376481385146127,
        "weighted_distance": 7.629348590535323
    },
    "planner": "BKPIECE",
    "start": {
        "state": {
            "elbow_joint": 1.9565354006590394,
            "shoulder_lift_joint": -1.4165861576513559,
            "shoulder_pan_joint": -1.6717766223277177,
            "wrist_1_joint": -0.5286633288215096,
            "wrist_2_joint": 1.4727565892594296,
            "wrist_3_joint": 3.1593482883155493
        }
    },
    "waypoints": [
        {
            "positions": [
                -1.6717766223277177,
                -1.4165861576513559,
                1.9565354006590394,
                -0.5286633288215096,
                1.4727565892594296,
                3.1593482883155493
            ]
        },
        {
            "positions": [
                -1.5471919291962257,
                -1.4445850407160585,
                1.9720266425270776,
                -0.4628826287152197,
                1.3910747097829221,
                3.0829926719596568
            ]
        },
        {
            "positions": [
                -1.4226072360647337,
                -1.472583923780761,
                1.9875178843951158,
                -0.3971019286089298,
                1.3093928303064146,
                3.0066370556037643
            ]
        },
        {
            "positions": [
                -1.298022542933242,
                -1.5005828068454636,
                2.0030091262631537,
                -0.3313212285026399,
                1.2277109508299069,
                2.9302814392478718
            ]
        },
        {
            "positions": [
                -1.17343784980175,
                -1.528581689910166,
                2.018500368131192,
                -0.26554052839635,
                1.1460290713533994,
                2.8539258228919793
            ]
        },
        {
            "positions": [
                -1.048853156670258,
                -1.5565805729748687,
                2.03399160999923,
                -0.19975982829006012,
                1.0643471918768919,
                2.7775702065360868
            ]
        },
        {
            "positions": [
                -1.1033475687754535,
                -1.5404036354246742,
                1.9721219531332745,
                -0.09860571044814334,
                1.0185773711327857,
                2.668707030152994
            ]
        },
        {
            "positions": [
                -1.157841980880649,
                -1.5242266978744796,
                1.910252296267319,
                0.002548407393773433,
                0.9728075503886795,
                2.559843853769901
            ]
        },
        {
            "positions": [
                -1.2123363929858444,
                -1.5080497603242853,
                1.8483826394013634,
                0.10370252523569023,
                0.9270377296445733,
                2.450980677386808
            ]
        },
        {
            "positions": [
                -1.26683080509104,
                -1.4918728227740907,
                1.7865129825354078,
                0.20485664307760698,
                0.881267908900467,
                2.342117501003715
            ]
        },
        {
            "positions": [
                -1.3213252171962355,
                -1.4756958852238962,
                1.724643325669452,
                0.3060107609195237,
                0.8354980881563608,
                2.2332543246206225
            ]
        },
        {
            "positions": [
                -1.375819629301431,
                -1.4595189476737016,
                1.6627736688034964,
                0.4071648787614406,
                0.7897282674122547,
                2.1243911482375295
            ]
        },
        {
            "positions": [
                -1.4303140414066267,
                -1.4433420101235073,
                1.6009040119375408,
                0.5083189966033573,
                0.7439584466681484,
                2.0155279718544366
            ]
        },
        {
            "positions": [
                -1.484808453511822,
                -1.4271650725733127,
                1.5390343550715853,
                0.6094731144452741,
                0.6981886259240422,
                1.9066647954713436
            ]
        },
        {
            "positions": [
                -1.5393028656170176,
                -1.4109881350231182,
                1.4771646982056297,
                0.7106272322871908,
                0.652418805179936,
                1.7978016190882506
            ]
        },
        {
            "positions": [
                -1.5937972777222131,
                -1.3948111974729236,
                1.4152950413396739,
                0.8117813501291076,
                0.6066489844358298,
                1.6889384427051577
            ]
        },
        {
            "positions": [
                -1.6482916898274085,
                -1.3786342599227293,
                1.3534253844737185,
                0.9129354679710244,
                0.5608791636917236,
                1.580075266322065
            ]
        },
        {
            "positions": [
                -1.7027861019326043,
                -1.3624573223725347,
                1.2915557276077627,
                1.0140895858129413,
                0.5151093429476175,
                1.471212089938972
            ]
        },
        {
            "positions": [
                -1.7572805140377996,
                -1.3462803848223401,
                1.2296860707418071,
                1.115243703654858,
                0.4693395222035113,
                1.362348913555879
            ]
        },
        {
            "positions": [
                -1.8117749261429952,
                -1.3301034472721456,
                1.1678164138758516,
                1.2163978214967748,
                0.423569701459405,
                1.253485737172786
            ]
        },
        {
            "positions": [
                -1.8662693382481907,
                -1.3139265097219512,
                1.105946757009896,
                1.3175519393386914,
                0.3777998807152988,
                1.1446225607896934
            ]
        },
        {
            "positions": [
                -1.920763750353386,
                -1.2977495721717567,
                1.0440771001439404,
                1.4187060571806083,
                0.3320300599711926,
                1.0357593844066004
            ]
        },
        {
            "positions": [
                -1.9752581624585819,
                -1.2815726346215621,
                0.9822074432779848,
                1.5198601750225251,
                0.28626023922708643,
                0.9268962080235075
            ]
        },
        {
            "positions": [
                -2.0297525745637772,
                -1.2653956970713676,
                0.9203377864120292,
                1.6210142928644418,
                0.24049041848298025,
                0.8180330316404147
            ]
        },
        {
            "positions": [
                -2.0842469866689726,
                -1.249218759521173,
                0.8584681295460734,
                1.7221684107063588,
                0.19472059773887396,
                0.7091698552573216
            ]
        },
        {
            "positions": [
                -2.1387413987741684,
                -1.2330418219709787,
                0.7965984726801179,
                1.8233225285482753,
                0.14895077699476778,
                0.6003066788742286
            ]
        },
        {
            "positions": [
                -2.1932358108793637,
                -1.216864884420784,
                0.7347288158141625,
                1.9244766463901921,
                0.10318095625066159,
                0.4914435024911361
            ]
        },
        {
            "positions": [
                -2.2477302229845595,
                -1.2006879468705898,
                0.6728591589482069,
                2.025630764232109,
                0.05741113550655541,
                0.38258032610804316
            ]
        },
        {
            "positions": [
                -2.302224635089755,
                -1.1845110093203952,
                0.6109895020822511,
                2.126784882074026,
                0.011641314762449229,
                0.27371714972494976
            ]
        },
        {
            "positions": [
                -2.35671904719495,
                -1.1683340717702007,
                0.5491198452162955,
                2.227938999915943,
                -0.034128505981656954,
                0.16485397334185725
            ]
        },
        {
            "positions": [
                -2.411213459300146,
                -1.152157134220006,
                0.48725018835033995,
                2.329093117757859,
                -0.07989832672576314,
                0.0559907969587643
            ]
        },
        {
            "positions": [
                -2.4657078714053413,
                -1.1359801966698115,
                0.42538053148438437,
                2.4302472355997757,
                -0.12566814746986932,
                -0.05287237942432865
            ]
        },
        {
            "positions": [
                -2.520202283510537,
                -1.119803259119617,
                0.36351087461842857,
                2.5314013534416926,
                -0.17143796821397572,
                -0.1617355558074216
            ]
        },
        {
            "positions": [
                -2.5746966956157324,
                -1.1036263215694226,
                0.301641217752473,
                2.6325554712836094,
                -0.2172077889580819,
                -0.27059873219051456
            ]
        },
        {
            "positions": [
                -2.629191107720928,
                -1.087449384019228,
                0.23977156088651763,
                2.7337095891255263,
                -0.2629776097021881,
                -0.37946190857360707
            ]
        },
        {
            "positions": [
                -2.683685519826123,
                -1.0712724464690335,
                0.17790190402056205,
                2.834863706967443,
                -0.30874743044629427,
                -0.4883250849567
            ]
        },
        {
            "positions": [
                -2.7381799319313194,
                -1.0550955089188392,
                0.11603224715460625,
                2.93601782480936,
                -0.35451725119040045,
                -0.5971882613397934
            ]
        },
        {
            "positions": [
                -2.7926743440365147,
                -1.0389185713686446,
                0.05416259028865067,
                3.037171942651277,
                -0.40028707193450663,
                -0.7060514377228859
            ]
        },
        {
            "positions": [
                -2.84716875614171,
                -1.02274163381845,
                -0.007707066577304911,
                3.1383260604931933,
                -0.4460568926786128,
                -0.8149146141059789
            ]
        },
        {
            "positions": [
                -2.8215587285631503,
                -1.0206109904596552,
                0.07346457657603027,
                2.987854624731491,
                -0.33243682918320666,
                -0.8283298734563147
            ]
        },
        {
            "positions": [
                -2.7959487009845905,
                -1.0184803471008606,
                0.15463621972936545,
                2.837383188969789,
                -0.21881676568780048,
                -0.8417451328066505
            ]
        },
        {
            "positions": [
                -2.7703386734060307,
                -1.0163497037420657,
                0.23580786288270064,
                2.686911753208087,
                -0.1051967021923943,
                -0.8551603921569865
            ]
        },
        {
            "positions": [
                -2.744728645827471,
                -1.0142190603832708,
                0.3169795060360358,
                2.536440317446385,
                0.008423361303011856,
                -0.8685756515073223
            ]
        },
        {
            "positions": [
                -2.7191186182489107,
                -1.0120884170244762,
                0.39815114918937106,
                2.3859688816846827,
                0.12204342479841812,
                -0.8819909108576581
            ]
        },
        {
            "positions": [
                -2.693508590670351,
                -1.0099577736656813,
                0.4793227923427062,
                2.235497445922981,
                0.23566348829382422,
                -0.895406170207994
            ]
        },
        {
            "positions": [
                -2.667898563091791,
                -1.0078271303068864,
                0.5604944354960414,
                2.0850260101612785,
                0.34928355178923043,
                -0.9088214295583299
            ]
        },
        {
            "positions": [
                -2.6422885355132313,
                -1.0056964869480918,
                0.6416660786493765,
                1.9345545743995765,
                0.4629036152846365,
                -0.9222366889086657
            ]
        },
        {
            "positions": [
                -2.6166785079346715,
                -1.003565843589297,
                0.7228377218027118,
                1.7840831386378744,
                0.5765236787800427,
                -0.9356519482590016
            ]
        },
        {
            "positions": [
                -2.5910684803561117,
                -1.001435200230502,
                0.804009364956047,
                1.6336117028761723,
                0.6901437422754491,
                -0.9490672076093374
            ]
        },
        {
            "positions": [
                -2.565458452777552,
                -0.9993045568717073,
                0.8851810081093823,
                1.48314026711447,
                0.8037638057708552,
                -0.9624824669596732
            ]
        },
        {
            "positions": [
                -2.539848425198992,
                -0.9971739135129125,
                0.9663526512627173,
                1.3326688313527681,
                0.9173838692662613,
                -0.975897726310009
            ]
        },
        {
            "positions": [
                -2.5142383976204323,
                -0.9950432701541178,
                1.0475242944160525,
                1.182197395591066,
                1.0310039327616674,
                -0.989312985660345
            ]
        },
        {
            "positions": [
                -2.488628370041872,
                -0.9929126267953229,
                1.1286959375693877,
                1.0317259598293638,
                1.1446239962570737,
                -1.002728245010681
            ]
        },
        {
            "positions": [
                -2.4630183424633123,
                -0.9907819834365281,
                1.209867580722723,
                0.8812545240676615,
                1.2582440597524798,
                -1.0161435043610167
            ]
        },
        {
            "positions": [
                -2.4374083148847525,
                -0.9886513400777334,
                1.291039223876058,
                0.7307830883059596,
                1.3718641232478859,
                -1.0295587637113526
            ]
        },
        {
            "positions": [
                -2.4117982873061927,
                -0.9865206967189385,
                1.3722108670293933,
                0.5803116525442578,
                1.485484186743292,
                -1.0429740230616884
            ]
        },
        {
            "positions": [
                -2.386188259727633,
                -0.9843900533601437,
                1.4533825101827285,
                0.42984021678255546,
                1.5991042502386983,
                -1.0563892824120242
            ]
        },
        {
            "positions": [
                -2.390831210086672,
                -0.9938318719600592,
                1.482591453501461,
                0.36402105051779166,
                1.5502503904078708,
                -0.8366341419928536
            ]
        },
        {
            "positions": [
                -2.3954741604457115,
                -1.0032736905599746,
                1.5118003968201936,
                0.2982018842530279,
                1.5013965305770431,
                -0.6168790015736829
            ]
        },
        {
            "positions": [
                -2.4001171108047505,
                -1.01271550915989,
                1.541009340138926,
                0.23238271798826413,
                1.4525426707462157,
                -0.39712386115451226
            ]
        },
        {
            "positions": [
                -2.4047600611637896,
                -1.0221573277598055,
                1.5702182834576586,
                0.16656355172350035,
                1.4036888109153882,
                -0.1773687207353416
            ]
        },
        {
            "positions": [
                -2.4094030115228287,
                -1.031599146359721,
                1.5994272267763912,
                0.10074438545873654,
                1.3548349510845605,
                0.04238641968382906
            ]
        },
        {
            "positions": [
                -2.414045961881868,
                -1.0410409649596364,
                1.6286361700951237,
                0.03492521919397279,
                1.305981091253733,
                0.2621415601029997
            ]
        },
        {
            "positions": [
                -2.418688912240907,
                -1.0504827835595518,
                1.657845113413856,
                -0.030893947070791017,
                1.2571272314229054,
                0.4818967005221704
            ]
        },
        {
            "positions": [
                -2.4233318625999463,
                -1.0599246021594673,
                1.6870540567325887,
                -0.09671311333555477,
                1.208273371592078,
                0.701651840941341
            ]
        },
        {
            "positions": [
                -2.4279748129589853,
                -1.0693664207593827,
                1.7162630000513213,
                -0.16253227960031857,
                1.1594195117612505,
                0.9214069813605117
            ]
        },
        {
            "positions": [
                -2.432617763318025,
                -1.0788082393592981,
                1.7454719433700538,
                -0.22835144586508238,
                1.1105656519304228,
                1.1411621217796823
            ]
        },
        {
            "positions": [
                -2.437260713677064,
                -1.0882500579592136,
                1.7746808866887864,
                -0.2941706121298462,
                1.0617117920995953,
                1.360917262198853
            ]
        },
        {
            "positions": [
                -2.441903664036103,
                -1.097691876559129,
                1.803889830007519,
                -0.3599897783946099,
                1.0128579322687679,
                1.5806724026180237
            ]
        },
        {
            "positions": [
                -2.446546614395142,
                -1.1071336951590445,
                1.8330987733262514,
                -0.4258089446593737,
                0.9640040724379402,
                1.8004275430371943
            ]
        },
        {
            "positions": [
                -2.4511895647541815,
                -1.11657551375896,
                1.862307716644984,
                -0.4916281109241375,
                0.9151502126071127,
                2.020182683456365
            ]
        },
        {
            "positions": [
                -2.4558325151132205,
                -1.1260173323588754,
                1.8915166599637165,
                -0.5574472771889013,
                0.8662963527762851,
                2.2399378238755356
            ]
        },
        {
            "positions": [
                -2.4604754654722596,
                -1.1354591509587908,
                1.920725603282449,
                -0.623266443453665,
                0.8174424929454577,
                2.4596929642947063
            ]
        },
        {
            "positions": [
                -2.4651184158312986,
                -1.1449009695587062,
                1.9499345466011815,
                -0.6890856097184288,
                0.76858863311463,
                2.679448104713877
            ]
        },
        {
            "positions": [
                -2.469761366190338,
                -1.1543427881586217,
                1.979143489919914,
                -0.7549047759831926,
                0.7197347732838025,
                2.8992032451330476
            ]
        },
        {
            "positions": [
                -2.474404316549377,
                -1.1637846067585371,
                2.0083524332386467,
                -0.8207239422479564,
                0.670880913452975,
                3.1189583855522183
            ]
        }
    ]
}