{
    "goal": {
        "global_pose": {
            "orientation": {
                "w": -0.4816463035849501,
                "x": 0.5182115481033762,
                "y": 0.4908360881923453,
                "z": -0.5084816262002911
            },
            "position": {
                "x": -0.8240239810943604,
                "y": -0.300875300988555,
                "z": 0.16403168439865112
            }
        },
        "name": "move_to_storage_C"
    },
    "id": "BKPIECE_move_to_storage_C_79",
    "joint_names": [
        "shoulder_pan_joint",
        "shoulder_lift_joint",
        "elbow_joint",
        "wrist_1_joint",
        "wrist_2_joint",
        "wrist_3_joint"
    ],
    "metrics": {
        "cart_traj_len": 0.5772763611546734,
        "distance_elbow_joint": 0.2592691436175536,
        "distance_shoulder_lift_joint": 0.18981524347278345,
        "distance_shoulder_pan_joint": 0.4963852917522611,
        "distance_wrist_1_joint": 0.08208715804597433,
        "distance_wrist_2_joint": 1.0584578742452058,
        "distance_wrist_3_joint": 0.059184246950700015,
        "smoothness": 0.0,
        "time": 1.0251623429999999,
        "traj_len": 1.4646497731828174,
        "weighted_distance": 1.8450237083238412
    },
    "planner": "BKPIECE",
    "start": {
        "state": {
            "elbow_joint": 2.010868315001653,
            "shoulder_lift_joint": -1.1634956873357014,
            "shoulder_pan_joint": -2.4736205022346103,
            "wrist_1_joint": -0.8367026794713948,
            "wrist_2_joint": 0.6746043897044093,
            "wrist_3_joint": 3.1335220948105738
        }
    },
    "waypoints": [
        {
            "positions": [
                -2.4736205022346103,
                -1.1634956873357014,
                2.010868315001653,
                -0.8367026794713948,
                0.6746043897044093,
                3.1335220948105738
            ]
        },
        {
            "positions": [
                -2.5563513841933205,
                -1.131859813423571,
                1.9676567910653942,
                -0.8230214864637324,
                0.8510140354119435,
                3.1433861359690236
            ]
        },
        {
            "positions": [
                -2.639082266152031,
                -1.1002239395114404,
                1.9244452671291352,
                -0.80934029345607,
                1.027423681119478,
                3.153250177127474
            ]
        },
        {
            "positions": [
                -2.7218131481107406,
                -1.0685880655993096,
                1.8812337431928763,
                -0.7956591004484076,
                1.203833326827012,
                3.1631142182859238
            ]
        },
        {
            "positions": [
                -2.804544030069451,
                -1.0369521916871791,
                1.8380222192566174,
                -0.7819779074407452,
                1.3802429725345464,
                3.1729782594443736
            ]
        },
        {
            "positions": [
                -2.887274912028161,
                -1.0053163177750486,
                1.7948106953203584,
                -0.7682967144330828,
                1.5566526182420808,
                3.182842300602824
            ]
        },
        {
            "positions": [
                -2.9700057939868714,
                -0.973680443862918,
                1.7515991713840995,
                -0.7546155214254204,
                1.7330622639496152,
                3.1927063417612738
            ]
        }
    ]
}