{
    "goal": {
        "global_pose": {
            "orientation": {
                "w": 0.7031023502349854,
                "x": -0.7110244035720825,
                "y": 0.007748599164187908,
                "z": 0.005598929710686207
            },
            "position": {
                "x": 0.11585023208521307,
                "y": 0.44412534475326537,
                "z": 0.3711530566215515
            }
        },
        "name": "move_to_auspresseinheit_A"
    },
    "id": "BKPIECE_move_to_auspresseinheit_A_146",
    "joint_names": [
        "shoulder_pan_joint",
        "shoulder_lift_joint",
        "elbow_joint",
        "wrist_1_joint",
        "wrist_2_joint",
        "wrist_3_joint"
    ],
    "metrics": {
        "cart_traj_len": 1.556393830027881,
        "distance_elbow_joint": 1.3619251961508954,
        "distance_shoulder_lift_joint": 0.6811032800497538,
        "distance_shoulder_pan_joint": 1.5189372426006795,
        "distance_wrist_1_joint": 2.369174342885912,
        "distance_wrist_2_joint": 0.7309778920598177,
        "distance_wrist_3_joint": 1.9527945166886997,
        "smoothness": 0.3714356922861966,
        "time": 0.7295222950000001,
        "traj_len": 2.9351171135809477,
        "weighted_distance": 3.9522972735813897
    },
    "planner": "BKPIECE",
    "start": {
        "state": {
            "elbow_joint": 2.4225747245308327,
            "shoulder_lift_joint": -1.373653427065438,
            "shoulder_pan_joint": -0.33786330853087027,
            "wrist_1_joint": -1.0288602302712604,
            "wrist_2_joint": 1.23302299562683,
            "wrist_3_joint": -3.094021725338297
        }
    },
    "waypoints": [
        {
            "positions": [
                -0.33786330853087027,
                -1.373653427065438,
                2.4225747245308327,
                -1.0288602302712604,
                1.23302299562683,
                -3.094021725338297
            ]
        },
        {
            "positions": [
                -0.29506968813350887,
                -1.4113425014978138,
                2.359283898450935,
                -0.9343629895649297,
                1.1905336702322924,
                -3.0093634481769636
            ]
        },
        {
            "positions": [
                -0.2522760677361474,
                -1.4490315759301897,
                2.2959930723710373,
                -0.8398657488585989,
                1.1480443448377549,
                -2.9247051710156295
            ]
        },
        {
            "positions": [
                -0.20948244733878602,
                -1.4867206503625656,
                2.2327022462911397,
                -0.7453685081522682,
                1.1055550194432175,
                -2.840046893854296
            ]
        },
        {
            "positions": [
                -0.1666888269414246,
                -1.5244097247949415,
                2.169411420211242,
                -0.6508712674459374,
                1.06306569404868,
                -2.7553886166929624
            ]
        },
        {
            "positions": [
                -0.12389520654406319,
                -1.5620987992273174,
                2.106120594131345,
                -0.5563740267396067,
                1.0205763686541425,
                -2.6707303395316284
            ]
        },
        {
            "positions": [
                -0.08110158614670177,
                -1.5997878736596933,
                2.042829768051447,
                -0.461876786033276,
                0.9780870432596049,
                -2.586072062370295
            ]
        },
        {
            "positions": [
                -0.03830796574934037,
                -1.6374769480920692,
                1.9795389419715494,
                -0.3673795453269453,
                0.9355977178650674,
                -2.5014137852089613
            ]
        },
        {
            "positions": [
                0.004485654648021087,
                -1.6751660225244451,
                1.9162481158916518,
                -0.27288230462061447,
                0.89310839247053,
                -2.4167555080476273
            ]
        },
        {
            "positions": [
                0.04727927504538254,
                -1.712855096956821,
                1.8529572898117541,
                -0.17838506391428366,
                0.8506190670759924,
                -2.3320972308862933
            ]
        },
        {
            "positions": [
                0.09007289544274388,
                -1.750544171389197,
                1.7896664637318567,
                -0.08388782320795307,
                0.808129741681455,
                -2.24743895372496
            ]
        },
        {
            "positions": [
                0.13286651584010534,
                -1.7882332458215728,
                1.726375637651959,
                0.010609417498377821,
                0.7656404162869175,
                -2.162780676563626
            ]
        },
        {
            "positions": [
                0.301727886176654,
                -1.8332205470270957,
                1.7315685370074763,
                0.11771770206013599,
                0.7419813958099932,
                -2.1571465781019206
            ]
        },
        {
            "positions": [
                0.47058925651320266,
                -1.8782078482326185,
                1.7367614363629937,
                0.22482598662189415,
                0.7183223753330691,
                -2.151512479640215
            ]
        },
        {
            "positions": [
                0.6394506268497513,
                -1.9231951494381414,
                1.741954335718511,
                0.3319342711836524,
                0.6946633548561449,
                -2.1458783811785094
            ]
        },
        {
            "positions": [
                0.8083119971863,
                -1.9681824506436643,
                1.7471472350740282,
                0.4390425557454105,
                0.6710043343792207,
                -2.140244282716804
            ]
        },
        {
            "positions": [
                0.8689237824138725,
                -1.974601848205383,
                1.8232071187546655,
                0.4000263327058271,
                0.6917011348889202,
                -2.229439151091171
            ]
        },
        {
            "positions": [
                0.929535567641445,
                -1.9810212457671021,
                1.8992670024353027,
                0.3610101096662437,
                0.7123979353986196,
                -2.3186340194655375
            ]
        },
        {
            "positions": [
                0.9336906252989889,
                -1.975579902779977,
                1.9894263463521584,
                0.25797991233160134,
                0.7297207436517031,
                -2.444343173562552
            ]
        },
        {
            "positions": [
                0.9378456829565329,
                -1.970138559792852,
                2.079585690269014,
                0.154949714996959,
                0.7470435519047867,
                -2.5700523276595657
            ]
        },
        {
            "positions": [
                0.9420007406140769,
                -1.9646972168057268,
                2.16974503418587,
                0.05191951766231667,
                0.7643663601578701,
                -2.69576148175658
            ]
        },
        {
            "positions": [
                0.9461557982716209,
                -1.9592558738186017,
                2.2599043781027257,
                -0.0511106796723257,
                0.7816891684109536,
                -2.8214706358535944
            ]
        },
        {
            "positions": [
                0.8874262643220738,
                -1.9462633514687044,
                2.2929537203080397,
                -0.1538902600352019,
                0.7671205692158347,
                -2.9009183160861984
            ]
        },
        {
            "positions": [
                0.8286967303725268,
                -1.9332708291188072,
                2.326003062513353,
                -0.2566698403980781,
                0.7525519700207158,
                -2.9803659963188025
            ]
        },
        {
            "positions": [
                0.7699671964229797,
                -1.9202783067689098,
                2.3590524047186667,
                -0.3594494207609543,
                0.737983370825597,
                -3.059813676551406
            ]
        },
        {
            "positions": [
                0.7112376624734327,
                -1.9072857844190125,
                2.3921017469239807,
                -0.46222900112383053,
                0.7234147716304781,
                -3.13926135678401
            ]
        }
    ]
}