{
    "goal": {
        "global_pose": {
            "orientation": {
                "w": -0.00223480608172531,
                "x": 0.0024358444001904467,
                "y": 0.7094548369677653,
                "z": -0.704743149386269
            },
            "position": {
                "x": 0.6205249238014221,
                "y": -0.6371506643295288,
                "z": 0.19426114857196808
            }
        },
        "name": "move_to_magneteinheit_B"
    },
    "id": "BKPIECE_move_to_magneteinheit_B_25",
    "joint_names": [
        "shoulder_pan_joint",
        "shoulder_lift_joint",
        "elbow_joint",
        "wrist_1_joint",
        "wrist_2_joint",
        "wrist_3_joint"
    ],
    "metrics": {
        "cart_traj_len": 8.475793841914818,
        "distance_elbow_joint": 5.0903249571855245,
        "distance_shoulder_lift_joint": 2.313761565834234,
        "distance_shoulder_pan_joint": 11.449669949862113,
        "distance_wrist_1_joint": 12.490699782010228,
        "distance_wrist_2_joint": 4.712000660854791,
        "distance_wrist_3_joint": 10.93777743366072,
        "smoothness": 0.5736314005425567,
        "time": 0.923232715,
        "traj_len": 6.855234084216792,
        "weighted_distance": 9.277526052757493
    },
    "planner": "BKPIECE",
    "start": {
        "state": {
            "elbow_joint": 2.3935871308073637,
            "shoulder_lift_joint": -1.9085141043777403,
            "shoulder_pan_joint": 0.7066247067284167,
            "wrist_1_joint": -0.46782909355067076,
            "wrist_2_joint": 0.7096259085804283,
            "wrist_3_joint": -3.1358149275257428
        }
    },
    "waypoints": [
        {
            "positions": [
                0.7066247067284167,
                -1.9085141043777403,
                2.3935871308073637,
                -0.46782909355067076,
                0.7096259085804283,
                -3.1358149275257428
            ]
        },
        {
            "positions": [
                0.6017908571271129,
                -1.9175530065123978,
                2.400840547320868,
                -0.34251811661795634,
                0.7169664630517047,
                -3.0599057316477607
            ]
        },
        {
            "positions": [
                0.5400301687483311,
                -1.9281734364536325,
                2.342683058364107,
                -0.23758524785094362,
                0.6821840700598794,
                -2.9356946347334847
            ]
        },
        {
            "positions": [
                0.4782694803695493,
                -1.9387938663948674,
                2.2845255694073456,
                -0.1326523790839309,
                0.647401677068054,
                -2.8114835378192082
            ]
        },
        {
            "positions": [
                0.4165087919907675,
                -1.949414296336102,
                2.2263680804505848,
                -0.027719510316918137,
                0.6126192840762286,
                -2.6872724409049322
            ]
        },
        {
            "positions": [
                0.4766034987676469,
                -1.9508823872785326,
                2.084406334258204,
                0.01309220916537816,
                0.5739444475075958,
                -2.575699100641754
            ]
        },
        {
            "positions": [
                0.5366982055445263,
                -1.952350478220963,
                1.9424445880658237,
                0.05390392864767446,
                0.5352696109389631,
                -2.4641257603785753
            ]
        },
        {
            "positions": [
                0.5967929123214057,
                -1.9538185691633936,
                1.800482841873443,
                0.09471564812997074,
                0.49659477437033034,
                -2.352552420115397
            ]
        },
        {
            "positions": [
                0.6568876190982851,
                -1.955286660105824,
                1.6585210956810625,
                0.13552736761226705,
                0.4579199378016976,
                -2.2409790798522184
            ]
        },
        {
            "positions": [
                0.7169823258751645,
                -1.9567547510482546,
                1.516559349488682,
                0.17633908709456333,
                0.4192451012330648,
                -2.12940573958904
            ]
        },
        {
            "positions": [
                0.777077032652044,
                -1.958222841990685,
                1.3745976032963014,
                0.21715080657685962,
                0.3805702646644321,
                -2.0178323993258616
            ]
        },
        {
            "positions": [
                0.8371717394289233,
                -1.9596909329331156,
                1.2326358571039209,
                0.25796252605915587,
                0.34189542809579937,
                -1.9062590590626831
            ]
        },
        {
            "positions": [
                0.8972664462058028,
                -1.961159023875546,
                1.0906741109115403,
                0.2987742455414522,
                0.30322059152716657,
                -1.7946857187995047
            ]
        },
        {
            "positions": [
                0.9573611529826822,
                -1.9626271148179766,
                0.9487123647191598,
                0.3395859650237485,
                0.26454575495853383,
                -1.6831123785363262
            ]
        },
        {
            "positions": [
                1.0174558597595615,
                -1.9640952057604069,
                0.8067506185267792,
                0.3803976845060448,
                0.2258709183899011,
                -1.5715390382731478
            ]
        },
        {
            "positions": [
                1.0775505665364409,
                -1.9655632967028374,
                0.6647888723343984,
                0.4212094039883411,
                0.1871960818212683,
                -1.4599656980099693
            ]
        },
        {
            "positions": [
                1.1376452733133204,
                -1.9670313876452679,
                0.5228271261420181,
                0.46202112347063734,
                0.1485212452526356,
                -1.348392357746791
            ]
        },
        {
            "positions": [
                1.1977399800901998,
                -1.9684994785876984,
                0.38086537994963754,
                0.5028328429529337,
                0.10984640868400286,
                -1.2368190174836124
            ]
        },
        {
            "positions": [
                1.257834686867079,
                -1.9699675695301289,
                0.2389036337572572,
                0.54364456243523,
                0.07117157211537017,
                -1.125245677220434
            ]
        },
        {
            "positions": [
                1.3179293936439587,
                -1.9714356604725594,
                0.09694188756487643,
                0.5844562819175263,
                0.032496735546737376,
                -1.0136723369572556
            ]
        },
        {
            "positions": [
                1.378024100420838,
                -1.9729037514149899,
                -0.04501985862750413,
                0.6252680013998226,
                -0.006178101021895421,
                -0.9020989966940771
            ]
        },
        {
            "positions": [
                1.4381188071977173,
                -1.9743718423574204,
                -0.18698160481988468,
                0.6660797208821189,
                -0.04485293759052811,
                -0.7905256564308987
            ]
        },
        {
            "positions": [
                1.498213513974597,
                -1.9758399332998509,
                -0.32894335101226524,
                0.7068914403644152,
                -0.0835277741591609,
                -0.6789523161677202
            ]
        },
        {
            "positions": [
                1.558308220751476,
                -1.9773080242422814,
                -0.4709050972046458,
                0.7477031598467114,
                -0.12220261072779359,
                -0.5673789759045418
            ]
        },
        {
            "positions": [
                1.6184029275283556,
                -1.9787761151847119,
                -0.6128668433970264,
                0.7885148793290078,
                -0.1608774472964264,
                -0.45580563564136334
            ]
        },
        {
            "positions": [
                1.4931312131476535,
                -1.9496870442205347,
                -0.604881128261117,
                0.6764170558442312,
                -0.21575228852039083,
                -0.5223412407899979
            ]
        },
        {
            "positions": [
                1.3678594987669517,
                -1.9205979732563576,
                -0.5968954131252076,
                0.5643192323594546,
                -0.27062712974435527,
                -0.5888768459386324
            ]
        },
        {
            "positions": [
                1.2425877843862496,
                -1.8915089022921805,
                -0.5889096979892982,
                0.45222140887467793,
                -0.32550197096831973,
                -0.655412451087267
            ]
        },
        {
            "positions": [
                1.1173160700055478,
                -1.8624198313280034,
                -0.5809239828533888,
                0.3401235853899014,
                -0.38037681219228414,
                -0.7219480562359015
            ]
        },
        {
            "positions": [
                0.9920443556248456,
                -1.8333307603638263,
                -0.5729382677174794,
                0.2280257619051248,
                -0.4352516534162486,
                -0.7884836613845361
            ]
        },
        {
            "positions": [
                0.8667726412441437,
                -1.8042416893996491,
                -0.56495255258157,
                0.1159279384203481,
                -0.4901264946402131,
                -0.8550192665331706
            ]
        },
        {
            "positions": [
                0.7415009268634416,
                -1.775152618435472,
                -0.5569668374456606,
                0.0038301149355715047,
                -0.5450013358641775,
                -0.9215548716818052
            ]
        },
        {
            "positions": [
                0.6162292124827398,
                -1.7460635474712949,
                -0.5489811223097512,
                -0.10826770854920498,
                -0.599876177088142,
                -0.9880904768304397
            ]
        },
        {
            "positions": [
                0.4909574981020377,
                -1.716974476507118,
                -0.5409954071738418,
                -0.22036553203398146,
                -0.6547510183121064,
                -1.0546260819790743
            ]
        },
        {
            "positions": [
                0.36568578372133564,
                -1.6878854055429409,
                -0.5330096920379324,
                -0.33246335551875816,
                -0.7096258595360708,
                -1.1211616871277088
            ]
        },
        {
            "positions": [
                0.2404140693406338,
                -1.6587963345787637,
                -0.525023976902023,
                -0.44456117900353487,
                -0.7645007007600353,
                -1.1876972922763434
            ]
        },
        {
            "positions": [
                0.11514235495993175,
                -1.6297072636145866,
                -0.5170382617661136,
                -0.5566590024883116,
                -0.8193755419839998,
                -1.254232897424978
            ]
        },
        {
            "positions": [
                -0.010129359420770312,
                -1.6006181926504095,
                -0.5090525466302042,
                -0.668756825973088,
                -0.8742503832079642,
                -1.3207685025736127
            ]
        },
        {
            "positions": [
                -0.13540107380147237,
                -1.5715291216862324,
                -0.5010668314942948,
                -0.7808546494578648,
                -0.9291252244319287,
                -1.387304107722247
            ]
        },
        {
            "positions": [
                -0.2606727881821742,
                -1.5424400507220553,
                -0.4930811163583853,
                -0.8929524729426412,
                -0.984000065655893,
                -1.4538397128708815
            ]
        },
        {
            "positions": [
                -0.38594450256287605,
                -1.5133509797578781,
                -0.4850954012224759,
                -1.0050502964274177,
                -1.0388749068798575,
                -1.520375318019516
            ]
        },
        {
            "positions": [
                -0.5112162169435783,
                -1.484261908793701,
                -0.4771096860865665,
                -1.1171481199121944,
                -1.0937497481038219,
                -1.5869109231681506
            ]
        },
        {
            "positions": [
                -0.6364879313242802,
                -1.4551728378295241,
                -0.4691239709506571,
                -1.2292459433969707,
                -1.1486245893277864,
                -1.6534465283167852
            ]
        },
        {
            "positions": [
                -0.761759645704982,
                -1.426083766865347,
                -0.4611382558147477,
                -1.3413437668817474,
                -1.203499430551751,
                -1.7199821334654197
            ]
        },
        {
            "positions": [
                -0.8870313600856843,
                -1.3969946959011699,
                -0.4531525406788383,
                -1.453441590366524,
                -1.2583742717757151,
                -1.7865177386140543
            ]
        },
        {
            "positions": [
                -1.0123030744663861,
                -1.3679056249369927,
                -0.4451668255429289,
                -1.5655394138513008,
                -1.3132491129996797,
                -1.8530533437626888
            ]
        },
        {
            "positions": [
                -1.137574788847088,
                -1.3388165539728156,
                -0.4371811104070195,
                -1.6776372373360775,
                -1.3681239542236443,
                -1.9195889489113234
            ]
        },
        {
            "positions": [
                -1.2628465032277902,
                -1.3097274830086385,
                -0.42919539527111006,
                -1.7897350608208542,
                -1.4229987954476089,
                -1.9861245540599581
            ]
        },
        {
            "positions": [
                -1.388118217608492,
                -1.2806384120444614,
                -0.42120968013520066,
                -1.901832884305631,
                -1.477873636671573,
                -2.0526601592085925
            ]
        },
        {
            "positions": [
                -1.5133899319891944,
                -1.2515493410802843,
                -0.41322396499929126,
                -2.013930707790407,
                -1.5327484778955376,
                -2.1191957643572272
            ]
        },
        {
            "positions": [
                -1.6386616463698962,
                -1.2224602701161071,
                -0.40523824986338186,
                -2.1260285312751837,
                -1.5876233191195022,
                -2.185731369505862
            ]
        },
        {
            "positions": [
                -1.7639333607505985,
                -1.19337119915193,
                -0.39725253472747246,
                -2.2381263547599604,
                -1.6424981603434667,
                -2.2522669746544963
            ]
        },
        {
            "positions": [
                -1.8892050751313003,
                -1.164282128187753,
                -0.38926681959156306,
                -2.350224178244737,
                -1.6973730015674309,
                -2.3188025798031306
            ]
        },
        {
            "positions": [
                -2.014476789512002,
                -1.1351930572235758,
                -0.38128110445565366,
                -2.4623220017295138,
                -1.7522478427913954,
                -2.3853381849517654
            ]
        },
        {
            "positions": [
                -2.139748503892704,
                -1.1061039862593987,
                -0.37329538931974426,
                -2.5744198252142905,
                -1.8071226840153596,
                -2.4518737901003997
            ]
        },
        {
            "positions": [
                -2.265020218273406,
                -1.0770149152952215,
                -0.36530967418383486,
                -2.686517648699067,
                -1.8619975252393242,
                -2.5184093952490345
            ]
        },
        {
            "positions": [
                -2.3902919326541077,
                -1.0479258443310444,
                -0.35732395904792547,
                -2.798615472183843,
                -1.9168723664632887,
                -2.584945000397669
            ]
        },
        {
            "positions": [
                -2.5155636470348104,
                -1.0188367733668673,
                -0.34933824391201607,
                -2.9107132956686197,
                -1.9717472076872533,
                -2.6514806055463036
            ]
        },
        {
            "positions": [
                -2.6408353614155122,
                -0.9897477024026902,
                -0.34135252877610667,
                -3.0228111191533964,
                -2.0266220489112174,
                -2.718016210694938
            ]
        },
        {
            "positions": [
                -2.7661070757962136,
                -0.960658631438513,
                -0.33336681364019727,
                -3.134908942638173,
                -2.081496890135182,
                -2.7845518158435727
            ]
        },
        {
            "positions": [
                -2.6453990257429747,
                -0.9870749353701576,
                -0.3589404106916972,
                -3.0349316251166276,
                -2.0375740143972014,
                -2.709951527257147
            ]
        },
        {
            "positions": [
                -2.5246909756897353,
                -1.013491239301802,
                -0.3845140077431971,
                -2.9349543075950817,
                -1.9936511386592204,
                -2.6353512386707214
            ]
        },
        {
            "positions": [
                -2.4039829256364964,
                -1.0399075432334466,
                -0.4100876047946971,
                -2.834976990073536,
                -1.9497282629212398,
                -2.5607509500842953
            ]
        },
        {
            "positions": [
                -2.283274875583257,
                -1.066323847165091,
                -0.435661201846197,
                -2.7349996725519903,
                -1.905805387183259,
                -2.4861506614978697
            ]
        },
        {
            "positions": [
                -2.162566825530018,
                -1.0927401510967356,
                -0.4612347988976969,
                -2.635022355030445,
                -1.8618825114452782,
                -2.411550372911444
            ]
        },
        {
            "positions": [
                -2.041858775476779,
                -1.1191564550283801,
                -0.48680839594919684,
                -2.5350450375088993,
                -1.8179596357072974,
                -2.3369500843250184
            ]
        },
        {
            "positions": [
                -1.9211507254235398,
                -1.1455727589600246,
                -0.5123819930006968,
                -2.4350677199873534,
                -1.7740367599693165,
                -2.2623497957385927
            ]
        },
        {
            "positions": [
                -1.800442675370301,
                -1.1719890628916692,
                -0.5379555900521967,
                -2.3350904024658075,
                -1.7301138842313357,
                -2.1877495071521667
            ]
        },
        {
            "positions": [
                -1.6797346253170617,
                -1.1984053668233137,
                -0.5635291871036967,
                -2.235113084944262,
                -1.686191008493355,
                -2.1131492185657414
            ]
        },
        {
            "positions": [
                -1.5590265752638226,
                -1.2248216707549582,
                -0.5891027841551966,
                -2.1351357674227165,
                -1.6422681327553743,
                -2.0385489299793154
            ]
        },
        {
            "positions": [
                -1.4383185252105835,
                -1.2512379746866027,
                -0.6146763812066965,
                -2.0351584499011706,
                -1.5983452570173935,
                -1.9639486413928897
            ]
        },
        {
            "positions": [
                -1.3176104751573445,
                -1.277654278618247,
                -0.6402499782581964,
                -1.935181132379625,
                -1.5544223812794127,
                -1.889348352806464
            ]
        },
        {
            "positions": [
                -1.1969024251041052,
                -1.3040705825498917,
                -0.6658235753096964,
                -1.8352038148580794,
                -1.5104995055414319,
                -1.8147480642200384
            ]
        },
        {
            "positions": [
                -1.0761943750508662,
                -1.330486886481536,
                -0.6913971723611962,
                -1.7352264973365337,
                -1.466576629803451,
                -1.7401477756336126
            ]
        },
        {
            "positions": [
                -0.9554863249976271,
                -1.3569031904131805,
                -0.7169707694126962,
                -1.635249179814988,
                -1.4226537540654705,
                -1.665547487047187
            ]
        },
        {
            "positions": [
                -0.8347782749443879,
                -1.383319494344825,
                -0.7425443664641962,
                -1.5352718622934423,
                -1.3787308783274894,
                -1.590947198460761
            ]
        },
        {
            "positions": [
                -0.7140702248911488,
                -1.4097357982764696,
                -0.7681179635156961,
                -1.4352945447718968,
                -1.3348080025895088,
                -1.5163469098743354
            ]
        },
        {
            "positions": [
                -0.5933621748379099,
                -1.436152102208114,
                -0.793691560567196,
                -1.335317227250351,
                -1.290885126851528,
                -1.4417466212879098
            ]
        },
        {
            "positions": [
                -0.47265412478467095,
                -1.4625684061397586,
                -0.8192651576186959,
                -1.2353399097288054,
                -1.2469622511135472,
                -1.3671463327014841
            ]
        },
        {
            "positions": [
                -0.3519460747314316,
                -1.488984710071403,
                -0.8448387546701959,
                -1.1353625922072597,
                -1.2030393753755666,
                -1.2925460441150582
            ]
        },
        {
            "positions": [
                -0.2312380246781922,
                -1.5154010140030476,
                -0.8704123517216958,
                -1.035385274685714,
                -1.1591164996375856,
                -1.2179457555286324
            ]
        },
        {
            "positions": [
                -0.11052997462495329,
                -1.5418173179346921,
                -0.8959859487731958,
                -0.935407957164168,
                -1.115193623899605,
                -1.1433454669422067
            ]
        },
        {
            "positions": [
                0.010178075428285638,
                -1.5682336218663364,
                -0.9215595458246956,
                -0.835430639642623,
                -1.0712707481616242,
                -1.0687451783557813
            ]
        },
        {
            "positions": [
                0.13088612548152456,
                -1.594649925797981,
                -0.9471331428761955,
                -0.7354533221210771,
                -1.0273478724236433,
                -0.9941448897693554
            ]
        },
        {
            "positions": [
                0.25159417553476393,
                -1.6210662297296257,
                -0.9727067399276955,
                -0.6354760045995311,
                -0.9834249966856625,
                -0.9195446011829296
            ]
        },
        {
            "positions": [
                0.3723022255880033,
                -1.6474825336612702,
                -0.9982803369791955,
                -0.5354986870779856,
                -0.9395021209476817,
                -0.8449443125965039
            ]
        },
        {
            "positions": [
                0.4930102756412422,
                -1.6738988375929147,
                -1.0238539340306954,
                -0.4355213695564397,
                -0.8955792452097009,
                -0.7703440240100781
            ]
        },
        {
            "positions": [
                0.6137183256944811,
                -1.700315141524559,
                -1.0494275310821952,
                -0.33554405203489424,
                -0.8516563694717203,
                -0.6957437354236524
            ]
        },
        {
            "positions": [
                0.7344263757477201,
                -1.7267314454562035,
                -1.075001128133695,
                -0.23556673451334875,
                -0.8077334937337395,
                -0.6211434468372268
            ]
        },
        {
            "positions": [
                0.8551344258009594,
                -1.753147749387848,
                -1.1005747251851952,
                -0.13558941699180282,
                -0.7638106179957587,
                -0.5465431582508011
            ]
        },
        {
            "positions": [
                0.9758424758541988,
                -1.7795640533194925,
                -1.1261483222366953,
                -0.03561209947025734,
                -0.7198877422577779,
                -0.47194286966437504
            ]
        },
        {
            "positions": [
                1.0965505259074377,
                -1.805980357251137,
                -1.1517219192881951,
                0.06436521805128859,
                -0.675964866519797,
                -0.3973425810779494
            ]
        },
        {
            "positions": [
                1.2172585759606767,
                -1.8323966611827815,
                -1.177295516339695,
                0.16434253557283407,
                -0.6320419907818164,
                -0.3227422924915242
            ]
        },
        {
            "positions": [
                1.337966626013916,
                -1.858812965114426,
                -1.2028691133911948,
                0.26431985309437955,
                -0.5881191150438356,
                -0.2481420039050981
            ]
        },
        {
            "positions": [
                1.4586746760671545,
                -1.8852292690460706,
                -1.2284427104426947,
                0.3642971706159255,
                -0.5441962393058548,
                -0.17354171531867246
            ]
        },
        {
            "positions": [
                1.5793827261203939,
                -1.911645572977715,
                -1.2540163074941948,
                0.46427448813747096,
                -0.500273363567874,
                -0.09894142673224682
            ]
        },
        {
            "positions": [
                1.7000907761736332,
                -1.9380618769093596,
                -1.2795899045456949,
                0.5642518056590169,
                -0.4563504878298932,
                -0.02434113814582073
            ]
        },
        {
            "positions": [
                1.8207988262268717,
                -1.9644781808410041,
                -1.3051635015971945,
                0.6642291231805624,
                -0.4124276120919126,
                0.05025915044060447
            ]
        },
        {
            "positions": [
                1.941506876280111,
                -1.9908944847726486,
                -1.3307370986486946,
                0.7642064407021079,
                -0.36850473635393177,
                0.12485943902703056
            ]
        },
        {
            "positions": [
                2.0622149263333505,
                -2.017310788704293,
                -1.3563106957001945,
                0.8641837582236538,
                -0.3245818606159509,
                0.1994597276134564
            ]
        },
        {
            "positions": [
                2.128050995642654,
                -2.0303089072049594,
                -1.412812601899379,
                0.759225481291879,
                -0.3332183114595842,
                0.3350050684709883
            ]
        },
        {
            "positions": [
                2.193887064951958,
                -2.0433070257056256,
                -1.4693145080985635,
                0.6542672043601041,
                -0.3418547623032175,
                0.4705504093285202
            ]
        },
        {
            "positions": [
                2.259723134261262,
                -2.0563051442062923,
                -1.5258164142977477,
                0.5493089274283292,
                -0.3504912131468508,
                0.6060957501860521
            ]
        },
        {
            "positions": [
                2.325559203570566,
                -2.0693032627069585,
                -1.5823183204969322,
                0.4443506504965543,
                -0.35912766399048407,
                0.7416410910435841
            ]
        },
        {
            "positions": [
                2.3913952728798695,
                -2.0823013812076248,
                -1.6388202266961167,
                0.3393923735647795,
                -0.36776411483411736,
                0.877186431901116
            ]
        },
        {
            "positions": [
                2.4403863009877917,
                -2.0935176860029365,
                -1.6743639129872356,
                0.20762173197627581,
                -0.3750931346096715,
                1.0159479071543729
            ]
        },
        {
            "positions": [
                2.4893773290957135,
                -2.1047339907982483,
                -1.7099075992783546,
                0.0758510903877721,
                -0.3824221543852256,
                1.1547093824076295
            ]
        },
        {
            "positions": [
                2.5383683572036357,
                -2.11595029559356,
                -1.7454512855694735,
                -0.05591955120073161,
                -0.3897511741607797,
                1.2934708576608864
            ]
        },
        {
            "positions": [
                2.5873593853115575,
                -2.1271666003888714,
                -1.7809949718605922,
                -0.18769019278923532,
                -0.3970801939363338,
                1.4322323329141433
            ]
        },
        {
            "positions": [
                2.6363504134194797,
                -2.138382905184183,
                -1.8165386581517111,
                -0.31946083437773914,
                -0.4044092137118879,
                1.5709938081674002
            ]
        },
        {
            "positions": [
                2.6853414415274015,
                -2.149599209979495,
                -1.85208234444283,
                -0.45123147596624275,
                -0.41173823348744204,
                1.7097552834206569
            ]
        },
        {
            "positions": [
                2.7343324696353237,
                -2.1608155147748067,
                -1.887626030733949,
                -0.5830021175547466,
                -0.41906725326299615,
                1.8485167586739137
            ]
        },
        {
            "positions": [
                2.72731389831517,
                -2.163577140669448,
                -1.8635511098958026,
                -0.7769399785185976,
                -0.42465445722777073,
                1.9835567256730167
            ]
        },
        {
            "positions": [
                2.7202953269950156,
                -2.16633876656409,
                -1.8394761890576563,
                -0.9708778394824487,
                -0.43024166119254525,
                2.11859669267212
            ]
        },
        {
            "positions": [
                2.713276755674862,
                -2.1691003924587315,
                -1.8154012682195098,
                -1.1648157004462998,
                -0.4358288651573198,
                2.2536366596712227
            ]
        },
        {
            "positions": [
                2.706258184354708,
                -2.171862018353373,
                -1.7913263473813634,
                -1.358753561410151,
                -0.44141606912209436,
                2.3886766266703257
            ]
        },
        {
            "positions": [
                2.6992396130345537,
                -2.174623644248015,
                -1.767251426543217,
                -1.5526914223740018,
                -0.44700327308686894,
                2.5237165936694286
            ]
        },
        {
            "positions": [
                2.6922210417144,
                -2.1773852701426564,
                -1.7431765057050708,
                -1.746629283337853,
                -0.45259047705164346,
                2.6587565606685315
            ]
        },
        {
            "positions": [
                2.6845713109869362,
                -2.1795491282868866,
                -1.720387661186401,
                -1.9218858445228575,
                -0.45790875386206836,
                2.780184956934039
            ]
        },
        {
            "positions": [
                2.6769215802594726,
                -2.1817129864311164,
                -1.6975988166677314,
                -2.0971424057078623,
                -0.46322703067249327,
                2.901613353199546
            ]
        },
        {
            "positions": [
                2.669271849532009,
                -2.1838768445753467,
                -1.674809972149062,
                -2.272398966892867,
                -0.46854530748291817,
                3.0230417494650528
            ]
        },
        {
            "positions": [
                2.6616221188045452,
                -2.186040702719577,
                -1.6520211276303922,
                -2.4476555280778713,
                -0.4738635842933431,
                3.14447014573056
            ]
        }
    ]
}