{
    "goal": {
        "global_pose": {
            "orientation": {
                "w": 0.005598929693374612,
                "x": 0.007748599140229565,
                "y": 0.7110244013736278,
                "z": -0.7031023480610252
            },
            "position": {
                "x": -0.8858502320852131,
                "y": -0.7141253447532654,
                "z": 0.3711530566215515
            }
        },
        "name": "move_to_auspresseinheit_C"
    },
    "id": "BKPIECE_move_to_auspresseinheit_C_124",
    "joint_names": [
        "shoulder_pan_joint",
        "shoulder_lift_joint",
        "elbow_joint",
        "wrist_1_joint",
        "wrist_2_joint",
        "wrist_3_joint"
    ],
    "metrics": {
        "cart_traj_len": 0.49327357406440814,
        "distance_elbow_joint": 0.9934282383220954,
        "distance_shoulder_lift_joint": 0.3211691312390824,
        "distance_shoulder_pan_joint": 0.2568480124381205,
        "distance_wrist_1_joint": 0.6654495628773663,
        "distance_wrist_2_joint": 1.301103973355334,
        "distance_wrist_3_joint": 0.05402223453198918,
        "smoothness": 4.844609574787718e-16,
        "time": 1.399599492,
        "traj_len": 1.8952628189156215,
        "weighted_distance": 2.380466164023481
    },
    "planner": "BKPIECE",
    "start": {
        "state": {
            "elbow_joint": 1.752795957773711,
            "shoulder_lift_joint": -0.9740617694225064,
            "shoulder_pan_joint": -2.967991417825858,
            "wrist_1_joint": -0.7595177689806859,
            "wrist_2_joint": 1.7443932448377395,
            "wrist_3_joint": 3.199131542505932
        }
    },
    "waypoints": [
        {
            "positions": [
                -2.967991417825858,
                -0.9740617694225064,
                1.752795957773711,
                -0.7595177689806859,
                1.7443932448377395,
                3.199131542505932
            ]
        },
        {
            "positions": [
                -2.9423066165820457,
                -0.9419448562985981,
                1.6534531339415015,
                -0.6929728126929493,
                1.6142828475022062,
                3.1937293190527334
            ]
        },
        {
            "positions": [
                -2.916621815338234,
                -0.90982794317469,
                1.5541103101092921,
                -0.6264278564052126,
                1.4841724501666727,
                3.188327095599534
            ]
        },
        {
            "positions": [
                -2.8909370140944217,
                -0.8777110300507818,
                1.4547674862770825,
                -0.559882900117476,
                1.3540620528311393,
                3.1829248721463355
            ]
        },
        {
            "positions": [
                -2.86525221285061,
                -0.8455941169268735,
                1.355424662444873,
                -0.49333794382973933,
                1.2239516554956058,
                3.1775226486931363
            ]
        },
        {
            "positions": [
                -2.8395674116067977,
                -0.8134772038029652,
                1.2560818386126633,
                -0.42679298754200273,
                1.0938412581600725,
                3.1721204252399375
            ]
        },
        {
            "positions": [
                -2.8138826103629855,
                -0.781360290679057,
                1.156739014780454,
                -0.36024803125426613,
                0.9637308608245391,
                3.166718201786739
            ]
        },
        {
            "positions": [
                -2.7881978091191737,
                -0.7492433775551488,
                1.0573961909482446,
                -0.2937030749665295,
                0.8336204634890058,
                3.1613159783335396
            ]
        },
        {
            "positions": [
                -2.7625130078753615,
                -0.7171264644312405,
                0.9580533671160347,
                -0.22715811867879276,
                0.7035100661534723,
                3.155913754880341
            ]
        },
        {
            "positions": [
                -2.7368282066315497,
                -0.6850095513073322,
                0.8587105432838252,
                -0.16061316239105616,
                0.5733996688179388,
                3.1505115314271417
            ]
        },
        {
            "positions": [
                -2.7111434053877375,
                -0.652892638183424,
                0.7593677194516157,
                -0.09406820610331956,
                0.4432892714824054,
                3.145109307973943
            ]
        }
    ]
}