{
    "goal": {
        "global_pose": {
            "orientation": {
                "w": 0.5084816217422485,
                "x": -0.49083608388900757,
                "y": 0.5182115435600281,
                "z": -0.4816462993621826
            },
            "position": {
                "x": 0.5540239810943604,
                "y": 0.030875300988554955,
                "z": 0.16403168439865112
            }
        },
        "name": "move_to_storage_A"
    },
    "id": "BKPIECE_move_to_storage_A_35",
    "joint_names": [
        "shoulder_pan_joint",
        "shoulder_lift_joint",
        "elbow_joint",
        "wrist_1_joint",
        "wrist_2_joint",
        "wrist_3_joint"
    ],
    "metrics": {
        "cart_traj_len": 0.35358061152595627,
        "distance_elbow_joint": 0.44944871764402183,
        "distance_shoulder_lift_joint": 0.23374693968771076,
        "distance_shoulder_pan_joint": 0.46000991930719376,
        "distance_wrist_1_joint": 0.23831378979687423,
        "distance_wrist_2_joint": 1.1098411883045434,
        "distance_wrist_3_joint": 0.10505394510592625,
        "smoothness": 4.440892133664971e-16,
        "time": 0.595447744,
        "traj_len": 1.6113393496859283,
        "weighted_distance": 2.0383025703166693
    },
    "planner": "BKPIECE",
    "start": {
        "state": {
            "elbow_joint": 1.9715474177455299,
            "shoulder_lift_joint": -1.139484666580328,
            "shoulder_pan_joint": 0.12281154398918248,
            "wrist_1_joint": -0.7804687475355282,
            "wrist_2_joint": 0.12958649657246987,
            "wrist_3_joint": -3.1924925159053466
        }
    },
    "waypoints": [
        {
            "positions": [
                0.12281154398918248,
                -1.139484666580328,
                1.9715474177455299,
                -0.7804687475355282,
                0.12958649657246987,
                -3.1924925159053466
            ]
        },
        {
            "positions": [
                0.057095841231011954,
                -1.1728770865357152,
                2.0357543774089617,
                -0.8145135746493674,
                0.2881352377588332,
                -3.177484809461643
            ]
        },
        {
            "positions": [
                -0.008619861527158573,
                -1.2062695064911024,
                2.099961337072393,
                -0.8485584017632065,
                0.4466839789451966,
                -3.162477103017939
            ]
        },
        {
            "positions": [
                -0.07433556428532911,
                -1.2396619264464896,
                2.164168296735825,
                -0.8826032288770457,
                0.6052327201315599,
                -3.1474693965742353
            ]
        },
        {
            "positions": [
                -0.14005126704349963,
                -1.273054346401877,
                2.2283752563992567,
                -0.916648055990885,
                0.7637814613179233,
                -3.1324616901305316
            ]
        },
        {
            "positions": [
                -0.2057669698016702,
                -1.3064467663572643,
                2.2925822160626885,
                -0.9506928831047241,
                0.9223302025042868,
                -3.117453983686828
            ]
        },
        {
            "positions": [
                -0.2714826725598407,
                -1.3398391863126515,
                2.35678917572612,
                -0.9847377102185633,
                1.08087894369065,
                -3.102446277243124
            ]
        },
        {
            "positions": [
                -0.3371983753180113,
                -1.3732316062680388,
                2.4209961353895517,
                -1.0187825373324024,
                1.2394276848770134,
                -3.0874385707994203
            ]
        }
    ]
}