{
    "goal": {
        "global_pose": {
            "orientation": {
                "w": 0.7047431493862688,
                "x": -0.7094548369677653,
                "y": 0.0024358444001904,
                "z": -0.0022348060817251984
            },
            "position": {
                "x": -0.39052492380142206,
                "y": 0.3671506643295288,
                "z": 0.19426114857196808
            }
        },
        "name": "move_to_magneteinheit_D"
    },
    "id": "BKPIECE_move_to_magneteinheit_D_45",
    "joint_names": [
        "shoulder_pan_joint",
        "shoulder_lift_joint",
        "elbow_joint",
        "wrist_1_joint",
        "wrist_2_joint",
        "wrist_3_joint"
    ],
    "metrics": {
        "cart_traj_len": 7.803301451873173,
        "distance_elbow_joint": 11.884651351732192,
        "distance_shoulder_lift_joint": 2.2688749858545427,
        "distance_shoulder_pan_joint": 2.800668597839268,
        "distance_wrist_1_joint": 3.787631975950812,
        "distance_wrist_2_joint": 2.389218145645911,
        "distance_wrist_3_joint": 3.6884461197814478,
        "smoothness": 0.8010398859777782,
        "time": 0.943730917,
        "traj_len": 5.178753824696072,
        "weighted_distance": 6.35399351101052
    },
    "planner": "BKPIECE",
    "start": {
        "state": {
            "elbow_joint": 0.7495348899011973,
            "shoulder_lift_joint": -0.6476975780737697,
            "shoulder_pan_joint": -2.711696901376276,
            "wrist_1_joint": -0.07506478080974305,
            "wrist_2_joint": 0.4329665971545858,
            "wrist_3_joint": 3.1361499051832524
        }
    },
    "waypoints": [
        {
            "positions": [
                -2.711696901376276,
                -0.6476975780737697,
                0.7495348899011973,
                -0.07506478080974305,
                0.4329665971545858,
                3.1361499051832524
            ]
        },
        {
            "positions": [
                -2.7007612631892233,
                -0.679055114128879,
                0.8186040906299034,
                -0.08643647671101555,
                0.2940001306174277,
                3.045123646093079
            ]
        },
        {
            "positions": [
                -2.68982562500217,
                -0.7104126501839884,
                0.8876732913586094,
                -0.09780817261228805,
                0.15503366408026958,
                2.9540973870029057
            ]
        },
        {
            "positions": [
                -2.678889986815117,
                -0.7417701862390976,
                0.9567424920873153,
                -0.10917986851356055,
                0.016067197543111478,
                2.8630711279127325
            ]
        },
        {
            "positions": [
                -2.667954348628064,
                -0.773127722294207,
                1.0258116928160215,
                -0.12055156441483306,
                -0.12289926899404663,
                2.772044868822559
            ]
        },
        {
            "positions": [
                -2.657018710441011,
                -0.8044852583493163,
                1.0948808935447274,
                -0.13192326031610557,
                -0.2618657355312048,
                2.6810186097323854
            ]
        },
        {
            "positions": [
                -2.646083072253958,
                -0.8358427944044255,
                1.1639500942734333,
                -0.14329495621737806,
                -0.40083220206836284,
                2.5899923506422122
            ]
        },
        {
            "positions": [
                -2.6351474340669045,
                -0.8672003304595348,
                1.2330192950021392,
                -0.15466665211865055,
                -0.539798668605521,
                2.498966091552039
            ]
        },
        {
            "positions": [
                -2.6242117958798516,
                -0.8985578665146442,
                1.3020884957308454,
                -0.16603834801992307,
                -0.6787651351426791,
                2.4079398324618655
            ]
        },
        {
            "positions": [
                -2.6246313190203874,
                -0.938652092111461,
                1.0493216841708375,
                -0.0957936694709793,
                -0.6928896872657541,
                2.422368977364926
            ]
        },
        {
            "positions": [
                -2.6250508421609227,
                -0.9787463177082777,
                0.7965548726108296,
                -0.025548990922035525,
                -0.707014239388829,
                2.4367981222679864
            ]
        },
        {
            "positions": [
                -2.6254703653014584,
                -1.0188405433050944,
                0.5437880610508217,
                0.04469568762690829,
                -0.7211387915119041,
                2.451227267171047
            ]
        },
        {
            "positions": [
                -2.6258898884419937,
                -1.0589347689019113,
                0.29102124949081376,
                0.11494036617585202,
                -0.735263343634979,
                2.465656412074107
            ]
        },
        {
            "positions": [
                -2.6263094115825294,
                -1.099028994498728,
                0.03825443793080585,
                0.1851850447247958,
                -0.749387895758054,
                2.4800855569771674
            ]
        },
        {
            "positions": [
                -2.626728934723065,
                -1.1391232200955446,
                -0.21451237362920206,
                0.25542972327373964,
                -0.7635124478811289,
                2.494514701880228
            ]
        },
        {
            "positions": [
                -2.6271484578636004,
                -1.1792174456923614,
                -0.46727918518920997,
                0.32567440182268337,
                -0.7776370000042039,
                2.5089438467832883
            ]
        },
        {
            "positions": [
                -2.627567981004136,
                -1.2193116712891783,
                -0.7200459967492179,
                0.3959190803716271,
                -0.791761552127279,
                2.5233729916863488
            ]
        },
        {
            "positions": [
                -2.6279875041446714,
                -1.259405896885995,
                -0.9728128083092258,
                0.4661637589205709,
                -0.8058861042503539,
                2.5378021365894092
            ]
        },
        {
            "positions": [
                -2.628407027285207,
                -1.2995001224828115,
                -1.2255796198692337,
                0.5364084374695146,
                -0.8200106563734288,
                2.5522312814924697
            ]
        },
        {
            "positions": [
                -2.628826550425743,
                -1.3395943480796284,
                -1.4783464314292416,
                0.6066531160184585,
                -0.8341352084965038,
                2.56666042639553
            ]
        },
        {
            "positions": [
                -2.629246073566278,
                -1.3796885736764453,
                -1.7311132429892495,
                0.6768977945674024,
                -0.8482597606195788,
                2.58108957129859
            ]
        },
        {
            "positions": [
                -2.629665596706814,
                -1.419782799273262,
                -1.9838800545492574,
                0.7471424731163461,
                -0.8623843127426538,
                2.5955187162016506
            ]
        },
        {
            "positions": [
                -2.630085119847349,
                -1.4598770248700785,
                -2.2366468661092656,
                0.8173871516652897,
                -0.8765088648657288,
                2.609947861104711
            ]
        },
        {
            "positions": [
                -2.630504642987885,
                -1.4999712504668954,
                -2.489413677669273,
                0.8876318302142336,
                -0.8906334169888037,
                2.6243770060077716
            ]
        },
        {
            "positions": [
                -2.5939028203543315,
                -1.4823100430861675,
                -2.2767482413513447,
                0.8317520480821908,
                -0.8885771148149985,
                2.574394250807172
            ]
        },
        {
            "positions": [
                -2.5573009977207786,
                -1.4646488357054395,
                -2.064082805033417,
                0.775872265950148,
                -0.8865208126411932,
                2.5244114956065733
            ]
        },
        {
            "positions": [
                -2.520699175087225,
                -1.4469876283247116,
                -1.8514173687154885,
                0.7199924838181052,
                -0.8844645104673879,
                2.474428740405974
            ]
        },
        {
            "positions": [
                -2.4840973524536722,
                -1.4293264209439838,
                -1.6387519323975606,
                0.6641127016860624,
                -0.8824082082935827,
                2.424445985205375
            ]
        },
        {
            "positions": [
                -2.447495529820119,
                -1.411665213563256,
                -1.4260864960796322,
                0.6082329195540196,
                -0.8803519061197774,
                2.3744632300047757
            ]
        },
        {
            "positions": [
                -2.410893707186566,
                -1.3940040061825278,
                -1.2134210597617041,
                0.5523531374219768,
                -0.8782956039459722,
                2.3244804748041767
            ]
        },
        {
            "positions": [
                -2.3742918845530125,
                -1.3763427988018,
                -1.0007556234437758,
                0.49647335528993397,
                -0.8762393017721669,
                2.2744977196035774
            ]
        },
        {
            "positions": [
                -2.3376900619194596,
                -1.3586815914210721,
                -0.7880901871258479,
                0.44059357315789116,
                -0.8741829995983617,
                2.2245149644029785
            ]
        },
        {
            "positions": [
                -2.3010882392859062,
                -1.3410203840403443,
                -0.5754247508079195,
                0.38471379102584835,
                -0.8721266974245564,
                2.174532209202379
            ]
        },
        {
            "positions": [
                -2.264486416652353,
                -1.3233591766596162,
                -0.36275931448999144,
                0.32883400889380554,
                -0.8700703952507511,
                2.1245494540017797
            ]
        },
        {
            "positions": [
                -2.2278845940188,
                -1.3056979692788884,
                -0.1500938781720631,
                0.27295422676176273,
                -0.8680140930769459,
                2.074566698801181
            ]
        },
        {
            "positions": [
                -2.1912827713852465,
                -1.2880367618981605,
                0.06257155814586479,
                0.21707444462971992,
                -0.8659577909031406,
                2.0245839436005815
            ]
        },
        {
            "positions": [
                -2.1546809487516936,
                -1.2703755545174324,
                0.2752369944637931,
                0.1611946624976771,
                -0.8639014887293354,
                1.9746011883999826
            ]
        },
        {
            "positions": [
                -2.11807912611814,
                -1.2527143471367046,
                0.48790243078172146,
                0.1053148803656343,
                -0.8618451865555301,
                1.9246184331993832
            ]
        },
        {
            "positions": [
                -2.0814773034845873,
                -1.2350531397559767,
                0.7005678670996494,
                0.04943509823359149,
                -0.8597888843817248,
                1.874635677998784
            ]
        },
        {
            "positions": [
                -2.044875480851034,
                -1.217391932375249,
                0.9132333034175772,
                -0.00644468389845132,
                -0.8577325822079196,
                1.824652922798185
            ]
        },
        {
            "positions": [
                -2.0082736582174805,
                -1.1997307249945208,
                1.1258987397355056,
                -0.06232446603049413,
                -0.8556762800341143,
                1.7746701675975858
            ]
        },
        {
            "positions": [
                -1.9716718355839276,
                -1.182069517613793,
                1.338564176053434,
                -0.11820424816253697,
                -0.8536199778603091,
                1.7246874123969866
            ]
        },
        {
            "positions": [
                -1.8912367006387985,
                -1.2063808780206,
                1.2130648275341331,
                -0.06846736384779192,
                -0.8222632460220601,
                1.654160420763514
            ]
        },
        {
            "positions": [
                -1.8108015656936691,
                -1.230692238427407,
                1.0875654790148324,
                -0.018730479533046893,
                -0.7909065141838113,
                1.5836334291300416
            ]
        },
        {
            "positions": [
                -1.73036643074854,
                -1.255003598834214,
                0.9620661304955316,
                0.031006404781698138,
                -0.7595497823455624,
                1.513106437496569
            ]
        },
        {
            "positions": [
                -1.649931295803411,
                -1.2793149592410211,
                0.8365667819762307,
                0.08074328909644318,
                -0.7281930505073134,
                1.4425794458630965
            ]
        },
        {
            "positions": [
                -1.5694961608582818,
                -1.3036263196478282,
                0.7110674334569299,
                0.1304801734111882,
                -0.6968363186690645,
                1.3720524542296242
            ]
        },
        {
            "positions": [
                -1.4890610259131525,
                -1.3279376800546352,
                0.5855680849376291,
                0.18021705772593324,
                -0.6654795868308157,
                1.3015254625961514
            ]
        },
        {
            "positions": [
                -1.4086258909680232,
                -1.3522490404614422,
                0.46006873641832824,
                0.2299539420406783,
                -0.6341228549925667,
                1.2309984709626791
            ]
        },
        {
            "positions": [
                -1.3281907560228943,
                -1.3765604008682493,
                0.33456938789902746,
                0.2796908263554233,
                -0.6027661231543178,
                1.1604714793292066
            ]
        },
        {
            "positions": [
                -1.247755621077765,
                -1.4008717612750563,
                0.20907003937972668,
                0.3294277106701684,
                -0.5714093913160689,
                1.089944487695734
            ]
        },
        {
            "positions": [
                -1.1673204861326358,
                -1.4251831216818633,
                0.0835706908604259,
                0.3791645949849134,
                -0.54005265947782,
                1.0194174960622615
            ]
        },
        {
            "positions": [
                -1.0868853511875067,
                -1.4494944820886704,
                -0.0419286576588751,
                0.4289014792996585,
                -0.508695927639571,
                0.948890504428789
            ]
        },
        {
            "positions": [
                -1.0064502162423774,
                -1.4738058424954774,
                -0.16742800617817566,
                0.4786383636144035,
                -0.47733919580132217,
                0.8783635127953164
            ]
        },
        {
            "positions": [
                -0.9260150812972483,
                -1.4981172029022845,
                -0.29292735469747644,
                0.5283752479291485,
                -0.4459824639630733,
                0.807836521161844
            ]
        },
        {
            "positions": [
                -0.845579946352119,
                -1.5224285633090915,
                -0.41842670321677744,
                0.5781121322438936,
                -0.41462573212482434,
                0.7373095295283714
            ]
        },
        {
            "positions": [
                -0.7651448114069899,
                -1.5467399237158985,
                -0.5439260517360782,
                0.6278490165586387,
                -0.38326900028657546,
                0.6667825378948988
            ]
        },
        {
            "positions": [
                -0.6847096764618608,
                -1.5710512841227056,
                -0.669425400255379,
                0.6775859008733837,
                -0.35191226844832657,
                0.5962555462614265
            ]
        },
        {
            "positions": [
                -0.6042745415167317,
                -1.5953626445295126,
                -0.7949247487746796,
                0.7273227851881287,
                -0.32055553661007763,
                0.525728554627954
            ]
        },
        {
            "positions": [
                -0.5238394065716023,
                -1.6196740049363196,
                -0.9204240972939806,
                0.7770596695028738,
                -0.2891988047718287,
                0.4552015629944812
            ]
        },
        {
            "positions": [
                -0.4434042716264732,
                -1.6439853653431267,
                -1.0459234458132816,
                0.8267965538176187,
                -0.25784207293357986,
                0.3846745713610089
            ]
        },
        {
            "positions": [
                -0.3629691366813441,
                -1.6682967257499337,
                -1.1714227943325821,
                0.8765334381323637,
                -0.22648534109533092,
                0.3141475797275364
            ]
        },
        {
            "positions": [
                -0.282534001736215,
                -1.6926080861567407,
                -1.2969221428518831,
                0.9262703224471087,
                -0.1951286092570821,
                0.24362058809406384
            ]
        },
        {
            "positions": [
                -0.20209886679108569,
                -1.7169194465635478,
                -1.4224214913711841,
                0.9760072067618539,
                -0.16377187741883314,
                0.1730935964605913
            ]
        },
        {
            "positions": [
                -0.12166373184595666,
                -1.7412308069703548,
                -1.5479208398904845,
                1.025744091076599,
                -0.13241514558058426,
                0.1025666048271188
            ]
        },
        {
            "positions": [
                -0.0878209703750264,
                -1.7687491987664195,
                -1.6640010562444476,
                1.079246426084306,
                -0.10651338685162398,
                0.061376994762964876
            ]
        },
        {
            "positions": [
                -0.05397820890409613,
                -1.796267590562484,
                -1.7800812725984105,
                1.1327487610920128,
                -0.0806116281226637,
                0.020187384698810963
            ]
        },
        {
            "positions": [
                -0.05734274028534693,
                -1.8493970116228273,
                -1.9125960344923427,
                1.202969636342095,
                -0.047885695211230025,
                -0.00043993355430845676
            ]
        },
        {
            "positions": [
                -0.06070727166659773,
                -1.9025264326831703,
                -2.045110796386275,
                1.2731905115921769,
                -0.015159762299796348,
                -0.021067251807427877
            ]
        },
        {
            "positions": [
                -0.06407180304784853,
                -1.9556558537435134,
                -2.177625558280207,
                1.3434113868422588,
                0.01756617061163733,
                -0.0416945700605473
            ]
        },
        {
            "positions": [
                -0.06743633442909933,
                -2.0087852748038566,
                -2.3101403201741393,
                1.413632262092341,
                0.05029210352307101,
                -0.06232188831366672
            ]
        },
        {
            "positions": [
                -0.1258893772421079,
                -2.1447771865129823,
                -2.342096931450218,
                1.4662900830297532,
                0.11263840901839571,
                -0.03377189871730829
            ]
        },
        {
            "positions": [
                -0.18434242005511647,
                -2.2807690982221076,
                -2.374053542726297,
                1.5189479039671656,
                0.1749847145137204,
                -0.005221909120949858
            ]
        }
    ]
}