{
    "goal": {
        "global_pose": {
            "orientation": {
                "w": 0.7047431493862688,
                "x": -0.7094548369677653,
                "y": 0.0024358444001904,
                "z": -0.0022348060817251984
            },
            "position": {
                "x": -0.39052492380142206,
                "y": 0.3671506643295288,
                "z": 0.19426114857196808
            }
        },
        "name": "move_to_magneteinheit_D"
    },
    "id": "BKPIECE_move_to_magneteinheit_D_83",
    "joint_names": [
        "shoulder_pan_joint",
        "shoulder_lift_joint",
        "elbow_joint",
        "wrist_1_joint",
        "wrist_2_joint",
        "wrist_3_joint"
    ],
    "metrics": {
        "cart_traj_len": 5.164562558283872,
        "distance_elbow_joint": 3.1836119378381906,
        "distance_shoulder_lift_joint": 1.4693273878405355,
        "distance_shoulder_pan_joint": 3.8323357587869573,
        "distance_wrist_1_joint": 3.6861508144730415,
        "distance_wrist_2_joint": 1.6127938494254035,
        "distance_wrist_3_joint": 1.5046978789778458,
        "smoothness": 0.6833205700725008,
        "time": 1.625593663,
        "traj_len": 3.910104554528175,
        "weighted_distance": 4.857700901578452
    },
    "planner": "BKPIECE",
    "start": {
        "state": {
            "elbow_joint": 0.7495348899011973,
            "shoulder_lift_joint": -0.6476975780737697,
            "shoulder_pan_joint": -2.711696901376276,
            "wrist_1_joint": -0.07506478080974305,
            "wrist_2_joint": 0.4329665971545858,
            "wrist_3_joint": 3.1361499051832524
        }
    },
    "waypoints": [
        {
            "positions": [
                -2.711696901376276,
                -0.6476975780737697,
                0.7495348899011973,
                -0.07506478080974305,
                0.4329665971545858,
                3.1361499051832524
            ]
        },
        {
            "positions": [
                -2.749148059888242,
                -0.6361474013630939,
                0.7167828388212486,
                0.037375387477186287,
                0.48118158170563546,
                3.029964286155401
            ]
        },
        {
            "positions": [
                -2.786599218400207,
                -0.624597224652418,
                0.6840307877412999,
                0.14981555576411562,
                0.5293965662566851,
                2.923778667127549
            ]
        },
        {
            "positions": [
                -2.8240503769121728,
                -0.6130470479417421,
                0.6512787366613512,
                0.26225572405104497,
                0.5776115508077347,
                2.8175930480996976
            ]
        },
        {
            "positions": [
                -2.861501535424138,
                -0.6014968712310663,
                0.6185266855814024,
                0.3746958923379743,
                0.6258265353587844,
                2.711407429071846
            ]
        },
        {
            "positions": [
                -2.8989526939361037,
                -0.5899466945203905,
                0.5857746345014536,
                0.4871360606249037,
                0.6740415199098341,
                2.6052218100439943
            ]
        },
        {
            "positions": [
                -2.936403852448069,
                -0.5783965178097146,
                0.5530225834215049,
                0.5995762289118329,
                0.7222565044608837,
                2.4990361910161427
            ]
        },
        {
            "positions": [
                -2.9738550109600346,
                -0.5668463410990388,
                0.5202705323415562,
                0.7120163971987623,
                0.7704714890119334,
                2.392850571988291
            ]
        },
        {
            "positions": [
                -2.8589978964984635,
                -0.616129480048681,
                0.432360103275322,
                0.619061160871775,
                0.7345318745898379,
                2.4040983192812164
            ]
        },
        {
            "positions": [
                -2.744140782036892,
                -0.6654126189983232,
                0.3444496742090878,
                0.5261059245447877,
                0.6985922601677426,
                2.415346066574142
            ]
        },
        {
            "positions": [
                -2.629283667575321,
                -0.7146957579479654,
                0.2565392451428536,
                0.4331506882178003,
                0.6626526457456471,
                2.4265938138670675
            ]
        },
        {
            "positions": [
                -2.5144265531137493,
                -0.7639788968976076,
                0.16862881607661934,
                0.3401954518908129,
                0.6267130313235516,
                2.437841561159993
            ]
        },
        {
            "positions": [
                -2.399569438652178,
                -0.8132620358472497,
                0.08071838701038514,
                0.24724021556382553,
                0.5907734169014561,
                2.4490893084529186
            ]
        },
        {
            "positions": [
                -2.284712324190607,
                -0.8625451747968919,
                -0.007192042055849002,
                0.15428497923683826,
                0.5548338024793608,
                2.460337055745844
            ]
        },
        {
            "positions": [
                -2.1698552097290356,
                -0.9118283137465341,
                -0.09510247112208337,
                0.061329742909850715,
                0.5188941880572653,
                2.4715848030387693
            ]
        },
        {
            "positions": [
                -2.0549980952674645,
                -0.9611114526961763,
                -0.1830129001883175,
                -0.031625493417136497,
                0.4829545736351698,
                2.482832550331695
            ]
        },
        {
            "positions": [
                -1.9401409808058931,
                -1.0103945916458184,
                -0.27092332925455165,
                -0.12458072974412382,
                0.4470149592130744,
                2.4940802976246204
            ]
        },
        {
            "positions": [
                -1.8252838663443218,
                -1.0596777305954606,
                -0.3588337583207859,
                -0.21753596607111125,
                0.4110753447909789,
                2.5053280449175457
            ]
        },
        {
            "positions": [
                -1.7104267518827505,
                -1.1089608695451028,
                -0.44674418738702015,
                -0.3104912023980986,
                0.3751357303688835,
                2.5165757922104715
            ]
        },
        {
            "positions": [
                -1.5955696374211794,
                -1.158244008494745,
                -0.5346546164532542,
                -0.4034464387250858,
                0.33919611594678806,
                2.5278235395033968
            ]
        },
        {
            "positions": [
                -1.4807125229596079,
                -1.2075271474443872,
                -0.6225650455194887,
                -0.49640167505207344,
                0.3032565015246926,
                2.539071286796322
            ]
        },
        {
            "positions": [
                -1.3658554084980365,
                -1.2568102863940294,
                -0.7104754745857229,
                -0.5893569113790609,
                0.26731688710259705,
                2.550319034089248
            ]
        },
        {
            "positions": [
                -1.2509982940364655,
                -1.3060934253436716,
                -0.7983859036519569,
                -0.6823121477060479,
                0.23137727268050168,
                2.561566781382173
            ]
        },
        {
            "positions": [
                -1.1361411795748941,
                -1.3553765642933138,
                -0.8862963327181912,
                -0.7752673840330353,
                0.1954376582584062,
                2.5728145286750985
            ]
        },
        {
            "positions": [
                -1.0212840651133228,
                -1.404659703242956,
                -0.9742067617844254,
                -0.8682226203600227,
                0.15949804383631072,
                2.584062275968024
            ]
        },
        {
            "positions": [
                -0.9064269506517517,
                -1.453942842192598,
                -1.0621171908506595,
                -0.96117785668701,
                0.12355842941421535,
                2.5953100232609496
            ]
        },
        {
            "positions": [
                -0.7915698361901802,
                -1.5032259811422404,
                -1.1500276199168937,
                -1.0541330930139974,
                0.08761881499211988,
                2.606557770553875
            ]
        },
        {
            "positions": [
                -0.6767127217286091,
                -1.5525091200918824,
                -1.237938048983128,
                -1.1470883293409848,
                0.0516792005700244,
                2.6178055178468003
            ]
        },
        {
            "positions": [
                -0.561855607267038,
                -1.6017922590415246,
                -1.325848478049362,
                -1.240043565667972,
                0.01573958614792903,
                2.629053265139726
            ]
        },
        {
            "positions": [
                -0.44699849280546644,
                -1.6510753979911668,
                -1.4137589071155965,
                -1.3329988019949595,
                -0.02020002827416645,
                2.6403010124326514
            ]
        },
        {
            "positions": [
                -0.33214137834389534,
                -1.700358536940809,
                -1.5016693361818305,
                -1.4259540383219471,
                -0.05613964269626193,
                2.6515487597255767
            ]
        },
        {
            "positions": [
                -0.21728426388232425,
                -1.7496416758904512,
                -1.5895797652480645,
                -1.5189092746489339,
                -0.0920792571183573,
                2.6627965070185025
            ]
        },
        {
            "positions": [
                -0.1024271494207527,
                -1.7989248148400934,
                -1.677490194314299,
                -1.6118645109759213,
                -0.12801887154045277,
                2.674044254311428
            ]
        },
        {
            "positions": [
                -0.05109096083163569,
                -1.8075022591895502,
                -1.797372993066721,
                -1.6899053750857875,
                -0.16283021455061233,
                2.7136748454800483
            ]
        },
        {
            "positions": [
                0.0002452277574813283,
                -1.8160797035390073,
                -1.9172557918191429,
                -1.7679462391956535,
                -0.1976415575607719,
                2.7533054366486693
            ]
        },
        {
            "positions": [
                0.05158141634659835,
                -1.8246571478884643,
                -2.0371385905715647,
                -1.8459871033055197,
                -0.23245290057093146,
                2.79293602781729
            ]
        },
        {
            "positions": [
                0.10291760493571536,
                -1.8332345922379212,
                -2.1570213893239867,
                -1.9240279674153857,
                -0.267264243581091,
                2.8325666189859104
            ]
        },
        {
            "positions": [
                0.15425379352483243,
                -1.841812036587378,
                -2.2769041880764087,
                -2.002068831525252,
                -0.30207558659125056,
                2.8721972101545314
            ]
        },
        {
            "positions": [
                0.2055899821139494,
                -1.850389480936835,
                -2.3967869868288307,
                -2.080109695635118,
                -0.33688692960141015,
                2.911827801323152
            ]
        },
        {
            "positions": [
                0.07534576340421104,
                -1.8154118105941657,
                -2.3843569664594435,
                -2.1157575435120037,
                -0.28091008328317246,
                2.9926349068058267
            ]
        },
        {
            "positions": [
                -0.05489845530552734,
                -1.7804341402514963,
                -2.371926946090056,
                -2.1514053913888893,
                -0.22493323696493472,
                3.073442012288501
            ]
        },
        {
            "positions": [
                -0.1851426740152657,
                -1.7454564699088269,
                -2.3594969257206686,
                -2.187053239265775,
                -0.168956390646697,
                3.1542491177711756
            ]
        }
    ]
}