{
    "goal": {
        "global_pose": {
            "orientation": {
                "w": 0.5084816217422485,
                "x": -0.49083608388900757,
                "y": 0.5182115435600281,
                "z": -0.4816462993621826
            },
            "position": {
                "x": 0.5540239810943604,
                "y": 0.030875300988554955,
                "z": 0.16403168439865112
            }
        },
        "name": "move_to_storage_A"
    },
    "id": "BKPIECE_move_to_storage_A_98",
    "joint_names": [
        "shoulder_pan_joint",
        "shoulder_lift_joint",
        "elbow_joint",
        "wrist_1_joint",
        "wrist_2_joint",
        "wrist_3_joint"
    ],
    "metrics": {
        "cart_traj_len": 0.3533788281005408,
        "distance_elbow_joint": 0.4507969408399535,
        "distance_shoulder_lift_joint": 0.23627731592054757,
        "distance_shoulder_pan_joint": 0.4616825548435082,
        "distance_wrist_1_joint": 0.23987960157623467,
        "distance_wrist_2_joint": 1.1025218373279495,
        "distance_wrist_3_joint": 0.09937372881194095,
        "smoothness": 0.0,
        "time": 0.604619527,
        "traj_len": 1.609512963389899,
        "weighted_distance": 2.032653653687268
    },
    "planner": "BKPIECE",
    "start": {
        "state": {
            "elbow_joint": 1.9715474177455299,
            "shoulder_lift_joint": -1.139484666580328,
            "shoulder_pan_joint": 0.12281154398918248,
            "wrist_1_joint": -0.7804687475355282,
            "wrist_2_joint": 0.12958649657246987,
            "wrist_3_joint": -3.1924925159053466
        }
    },
    "waypoints": [
        {
            "positions": [
                0.12281154398918248,
                -1.139484666580328,
                1.9715474177455299,
                -0.7804687475355282,
                0.12958649657246987,
                -3.1924925159053466
            ]
        },
        {
            "positions": [
                0.05685689329725274,
                -1.173238568854692,
                2.0359469807226662,
                -0.8147372620464188,
                0.28708961619074835,
                -3.178296268932212
            ]
        },
        {
            "positions": [
                -0.009097757394676997,
                -1.2069924711290558,
                2.100346543699802,
                -0.8490057765573096,
                0.4445927358090268,
                -3.1641000219590776
            ]
        },
        {
            "positions": [
                -0.07505240808660674,
                -1.2407463734034199,
                2.1647461066769385,
                -0.8832742910682002,
                0.6020958554273054,
                -3.149903774985943
            ]
        },
        {
            "positions": [
                -0.14100705877853648,
                -1.2745002756777837,
                2.229145669654075,
                -0.9175428055790908,
                0.7595989750455838,
                -3.135707528012809
            ]
        },
        {
            "positions": [
                -0.20696170947046622,
                -1.3082541779521477,
                2.293545232631211,
                -0.9518113200899816,
                0.9171020946638624,
                -3.1215112810396746
            ]
        },
        {
            "positions": [
                -0.27291636016239595,
                -1.3420080802265115,
                2.357944795608347,
                -0.9860798346008721,
                1.0746052142821407,
                -3.10731503406654
            ]
        },
        {
            "positions": [
                -0.3388710108543257,
                -1.3757619825008756,
                2.4223443585854834,
                -1.0203483491117629,
                1.2321083339004193,
                -3.0931187870934056
            ]
        }
    ]
}