{
    "goal": {
        "global_pose": {
            "orientation": {
                "w": 0.5084816262002911,
                "x": -0.4908360881923452,
                "y": 0.5182115481033761,
                "z": -0.48164630358495003
            },
            "position": {
                "x": 0.5540239810943604,
                "y": -0.46912469901144505,
                "z": 0.16403168439865112
            }
        },
        "name": "move_to_storage_B"
    },
    "id": "BKPIECE_move_to_storage_B_133",
    "joint_names": [
        "shoulder_pan_joint",
        "shoulder_lift_joint",
        "elbow_joint",
        "wrist_1_joint",
        "wrist_2_joint",
        "wrist_3_joint"
    ],
    "metrics": {
        "cart_traj_len": 1.323777309086387,
        "distance_elbow_joint": 1.0245559811796359,
        "distance_shoulder_lift_joint": 0.45943163716252755,
        "distance_shoulder_pan_joint": 0.8461937065931345,
        "distance_wrist_1_joint": 2.984526967000199,
        "distance_wrist_2_joint": 2.71234771658025,
        "distance_wrist_3_joint": 3.237033850532153,
        "smoothness": 0.17472604635573563,
        "time": 0.39343214800000004,
        "traj_len": 3.3562017011866105,
        "weighted_distance": 4.840974307274585
    },
    "planner": "BKPIECE",
    "start": {
        "state": {
            "elbow_joint": 1.6649325706314817,
            "shoulder_lift_joint": -0.6616388048112454,
            "shoulder_pan_joint": -0.9139837860083814,
            "wrist_1_joint": 2.146757197745094,
            "wrist_2_joint": -2.234196043158733,
            "wrist_3_joint": 0.005471033829999897
        }
    },
    "waypoints": [
        {
            "positions": [
                -0.9139837860083814,
                -0.6616388048112454,
                1.6649325706314817,
                2.146757197745094,
                -2.234196043158733,
                0.005471033829999897
            ]
        },
        {
            "positions": [
                -0.8439605323432509,
                -0.703215598677116,
                1.6272106474685937,
                2.092028349462752,
                -2.184981227052319,
                -0.04717131308555197
            ]
        },
        {
            "positions": [
                -0.8064708857593331,
                -0.7574678279909721,
                1.5844709785000417,
                1.9852523062016305,
                -2.070625810869777,
                -0.040973102188218806
            ]
        },
        {
            "positions": [
                -0.7689812391754155,
                -0.8117200573048281,
                1.5417313095314895,
                1.8784762629405092,
                -1.9562703946872348,
                -0.03477489129088565
            ]
        },
        {
            "positions": [
                -0.7314915925914978,
                -0.8659722866186842,
                1.4989916405629375,
                1.7717002196793876,
                -1.8419149785046927,
                -0.02857668039355249
            ]
        },
        {
            "positions": [
                -0.6940019460075801,
                -0.9202245159325403,
                1.4562519715943856,
                1.6649241764182663,
                -1.7275595623221507,
                -0.02237846949621933
            ]
        },
        {
            "positions": [
                -0.6565122994236624,
                -0.9744767452463963,
                1.4135123026258336,
                1.5581481331571447,
                -1.6132041461396085,
                -0.01618025859888617
            ]
        },
        {
            "positions": [
                -0.6190226528397448,
                -1.0287289745602524,
                1.3707726336572814,
                1.4513720898960232,
                -1.4988487299570665,
                -0.009982047701553011
            ]
        },
        {
            "positions": [
                -0.581533006255827,
                -1.0829812038741085,
                1.3280329646887294,
                1.3445960466349018,
                -1.3844933137745246,
                -0.003783836804219849
            ]
        },
        {
            "positions": [
                -0.6048849574758535,
                -1.0847125328786387,
                1.3592900726540424,
                1.2453976004580833,
                -1.2998276325383409,
                0.13898907352920148
            ]
        },
        {
            "positions": [
                -0.6282369086958798,
                -1.0864438618831689,
                1.3905471806193552,
                1.146199154281265,
                -1.215161951302157,
                0.2817619838626228
            ]
        },
        {
            "positions": [
                -0.6515888599159062,
                -1.088175190887699,
                1.421804288584668,
                1.0470007081044466,
                -1.130496270065973,
                0.42453489419604407
            ]
        },
        {
            "positions": [
                -0.6749408111359325,
                -1.0899065198922293,
                1.453061396549981,
                0.9478022619276282,
                -1.0458305888297894,
                0.5673078045294654
            ]
        },
        {
            "positions": [
                -0.6982927623559589,
                -1.0916378488967595,
                1.484318504515294,
                0.8486038157508098,
                -0.9611649075936056,
                0.7100807148628866
            ]
        },
        {
            "positions": [
                -0.7216447135759853,
                -1.0933691779012897,
                1.5155756124806068,
                0.7494053695739914,
                -0.8764992263574218,
                0.8528536251963079
            ]
        },
        {
            "positions": [
                -0.7449966647960117,
                -1.09510050690582,
                1.5468327204459196,
                0.6502069233971729,
                -0.791833545121238,
                0.9956265355297292
            ]
        },
        {
            "positions": [
                -0.768348616016038,
                -1.0968318359103502,
                1.5780898284112326,
                0.5510084772203545,
                -0.7071678638850543,
                1.1383994458631508
            ]
        },
        {
            "positions": [
                -0.7917005672360644,
                -1.0985631649148804,
                1.6093469363765456,
                0.451810031043536,
                -0.6225021826488705,
                1.281172356196572
            ]
        },
        {
            "positions": [
                -0.8150525184560908,
                -1.1002944939194106,
                1.6406040443418584,
                0.35261158486671773,
                -0.5378365014126867,
                1.4239452665299932
            ]
        },
        {
            "positions": [
                -0.8384044696761171,
                -1.1020258229239408,
                1.6718611523071711,
                0.25341313868989923,
                -0.4531708201765029,
                1.5667181768634146
            ]
        },
        {
            "positions": [
                -0.8617564208961435,
                -1.1037571519284708,
                1.7031182602724841,
                0.15421469251308095,
                -0.3685051389403191,
                1.7094910871968358
            ]
        },
        {
            "positions": [
                -0.8851083721161699,
                -1.105488480933001,
                1.7343753682377971,
                0.05501624633626223,
                -0.2838394577041352,
                1.8522639975302573
            ]
        },
        {
            "positions": [
                -0.9084603233361963,
                -1.1072198099375312,
                1.76563247620311,
                -0.04418219984055605,
                -0.19917377646795154,
                1.9950369078636785
            ]
        },
        {
            "positions": [
                -0.9318122745562226,
                -1.1089511389420614,
                1.7968895841684227,
                -0.14338064601737432,
                -0.11450809523176786,
                2.1378098181970997
            ]
        },
        {
            "positions": [
                -0.955164225776249,
                -1.1106824679465916,
                1.8281466921337357,
                -0.24257909219419282,
                -0.02984241399558396,
                2.280582728530521
            ]
        },
        {
            "positions": [
                -0.9785161769962754,
                -1.1124137969511219,
                1.8594038000990487,
                -0.3417775383710113,
                0.054823267240599716,
                2.423355638863942
            ]
        },
        {
            "positions": [
                -1.0018681282163018,
                -1.114145125955652,
                1.8906609080643615,
                -0.4409759845478298,
                0.13948894847678361,
                2.5661285491973636
            ]
        },
        {
            "positions": [
                -1.0252200794363282,
                -1.1158764549601823,
                1.9219180160296743,
                -0.5401744307246481,
                0.2241546297129675,
                2.708901459530785
            ]
        },
        {
            "positions": [
                -1.0485720306563544,
                -1.1176077839647125,
                1.9531751239949873,
                -0.6393728769014664,
                0.3088203109491512,
                2.851674369864206
            ]
        },
        {
            "positions": [
                -1.0719239818763808,
                -1.1193391129692427,
                1.9844322319603003,
                -0.7385713230782849,
                0.3934859921853351,
                2.994447280197628
            ]
        },
        {
            "positions": [
                -1.0952759330964073,
                -1.121070441973773,
                2.015689339925613,
                -0.8377697692551033,
                0.4781516734215188,
                3.137220190531049
            ]
        }
    ]
}