{
    "goal": {
        "global_pose": {
            "orientation": {
                "w": -0.00223480608172531,
                "x": 0.0024358444001904467,
                "y": 0.7094548369677653,
                "z": -0.704743149386269
            },
            "position": {
                "x": 0.6205249238014221,
                "y": -0.6371506643295288,
                "z": 0.19426114857196808
            }
        },
        "name": "move_to_magneteinheit_B"
    },
    "id": "BKPIECE_move_to_magneteinheit_B_146",
    "joint_names": [
        "shoulder_pan_joint",
        "shoulder_lift_joint",
        "elbow_joint",
        "wrist_1_joint",
        "wrist_2_joint",
        "wrist_3_joint"
    ],
    "metrics": {
        "cart_traj_len": 1.4528096984521184,
        "distance_elbow_joint": 0.7309723645640893,
        "distance_shoulder_lift_joint": 1.2491442809867095,
        "distance_shoulder_pan_joint": 1.6205984357707484,
        "distance_wrist_1_joint": 2.604813441511532,
        "distance_wrist_2_joint": 2.93526070587444,
        "distance_wrist_3_joint": 3.128655191478386,
        "smoothness": 3.608224835715102e-16,
        "time": 0.9743712920000001,
        "traj_len": 3.5027766728962186,
        "weighted_distance": 4.905795445239094
    },
    "planner": "BKPIECE",
    "start": {
        "state": {
            "elbow_joint": 2.3935871308073637,
            "shoulder_lift_joint": -1.9085141043777403,
            "shoulder_pan_joint": 0.7066247067284167,
            "wrist_1_joint": -0.46782909355067076,
            "wrist_2_joint": 0.7096259085804283,
            "wrist_3_joint": -3.1358149275257428
        }
    },
    "waypoints": [
        {
            "positions": [
                0.7066247067284167,
                -1.9085141043777403,
                2.3935871308073637,
                -0.46782909355067076,
                0.7096259085804283,
                -3.1358149275257428
            ]
        },
        {
            "positions": [
                0.6543473378325861,
                -1.8682191275717175,
                2.370007377111748,
                -0.3838028535019117,
                0.6149400793586721,
                -3.034890566510311
            ]
        },
        {
            "positions": [
                0.6020699689367556,
                -1.8279241507656945,
                2.3464276234161323,
                -0.2997766134531526,
                0.5202542501369161,
                -2.933966205494879
            ]
        },
        {
            "positions": [
                0.5497926000409249,
                -1.7876291739596717,
                2.3228478697205164,
                -0.21575037340439351,
                0.4255684209151599,
                -2.8330418444794474
            ]
        },
        {
            "positions": [
                0.4975152311450943,
                -1.7473341971536487,
                2.2992681160249004,
                -0.13172413335563443,
                0.3308825916934038,
                -2.7321174834640156
            ]
        },
        {
            "positions": [
                0.44523786224926376,
                -1.707039220347626,
                2.275688362329285,
                -0.047697893306875294,
                0.23619676247164761,
                -2.631193122448584
            ]
        },
        {
            "positions": [
                0.39296049335343314,
                -1.6667442435416029,
                2.252108608633669,
                0.03632834674188373,
                0.1415109332498915,
                -2.530268761433152
            ]
        },
        {
            "positions": [
                0.34068312445760257,
                -1.62644926673558,
                2.228528854938053,
                0.12035458679064287,
                0.046825104028135334,
                -2.42934440041772
            ]
        },
        {
            "positions": [
                0.288405755561772,
                -1.5861542899295573,
                2.2049491012424376,
                0.2043808268394019,
                -0.04786072519362072,
                -2.328420039402288
            ]
        },
        {
            "positions": [
                0.23612838666594133,
                -1.5458593131235343,
                2.1813693475468217,
                0.28840706688816115,
                -0.142546554415377,
                -2.2274956783868562
            ]
        },
        {
            "positions": [
                0.18385101777011081,
                -1.5055643363175113,
                2.1577895938512057,
                0.37243330693692017,
                -0.23723238363713306,
                -2.1265713173714245
            ]
        },
        {
            "positions": [
                0.13157364887428014,
                -1.4652693595114885,
                2.1342098401555902,
                0.4564595469856793,
                -0.33191821285888923,
                -2.0256469563559927
            ]
        },
        {
            "positions": [
                0.07929627997844957,
                -1.4249743827054657,
                2.1106300864599743,
                0.5404857870344382,
                -0.4266040420806453,
                -1.9247225953405611
            ]
        },
        {
            "positions": [
                0.027018911082619,
                -1.3846794058994427,
                2.0870503327643584,
                0.6245120270831974,
                -0.5212898713024016,
                -1.823798234325129
            ]
        },
        {
            "positions": [
                -0.025258457813211566,
                -1.3443844290934197,
                2.063470579068743,
                0.7085382671319564,
                -0.6159757005241576,
                -1.7228738733096973
            ]
        },
        {
            "positions": [
                -0.07753582670904224,
                -1.304089452287397,
                2.039890825373127,
                0.7925645071807157,
                -0.7106615297459139,
                -1.6219495122942655
            ]
        },
        {
            "positions": [
                -0.1298131956048727,
                -1.2637944754813741,
                2.016311071677511,
                0.8765907472294745,
                -0.8053473589676697,
                -1.5210251512788338
            ]
        },
        {
            "positions": [
                -0.18209056450070327,
                -1.2234994986753511,
                1.9927313179818955,
                0.9606169872782335,
                -0.9000331881894258,
                -1.420100790263402
            ]
        },
        {
            "positions": [
                -0.23436793339653406,
                -1.1832045218693281,
                1.9691515642862796,
                1.044643227326993,
                -0.9947190174111823,
                -1.31917642924797
            ]
        },
        {
            "positions": [
                -0.2866453022923645,
                -1.1429095450633056,
                1.9455718105906639,
                1.128669467375752,
                -1.0894048466329385,
                -1.2182520682325382
            ]
        },
        {
            "positions": [
                -0.3389226711881951,
                -1.1026145682572825,
                1.9219920568950482,
                1.212695707424511,
                -1.1840906758546943,
                -1.1173277072171066
            ]
        },
        {
            "positions": [
                -0.39120004008402576,
                -1.0623195914512598,
                1.8984123031994322,
                1.29672194747327,
                -1.2787765050764506,
                -1.0164033462016748
            ]
        },
        {
            "positions": [
                -0.44347740897985644,
                -1.0220246146452368,
                1.8748325495038165,
                1.3807481875220293,
                -1.3734623342982069,
                -0.9154789851862426
            ]
        },
        {
            "positions": [
                -0.4957547778756869,
                -0.9817296378392139,
                1.8512527958082008,
                1.4647744275707884,
                -1.4681481635199631,
                -0.8145546241708108
            ]
        },
        {
            "positions": [
                -0.5480321467715176,
                -0.9414346610331911,
                1.8276730421125849,
                1.5488006676195472,
                -1.562833992741719,
                -0.7136302631553795
            ]
        },
        {
            "positions": [
                -0.600309515667348,
                -0.9011396842271682,
                1.8040932884169691,
                1.6328269076683064,
                -1.6575198219634752,
                -0.6127059021399477
            ]
        },
        {
            "positions": [
                -0.6525868845631787,
                -0.8608447074211452,
                1.7805135347213534,
                1.7168531477170657,
                -1.7522056511852315,
                -0.5117815411245155
            ]
        },
        {
            "positions": [
                -0.7048642534590094,
                -0.8205497306151224,
                1.7569337810257375,
                1.8008793877658245,
                -1.8468914804069874,
                -0.4108571801090837
            ]
        },
        {
            "positions": [
                -0.7571416223548398,
                -0.7802547538090994,
                1.7333540273301218,
                1.8849056278145837,
                -1.9415773096287436,
                -0.3099328190936519
            ]
        },
        {
            "positions": [
                -0.8094189912506703,
                -0.7399597770030766,
                1.709774273634506,
                1.9689318678633425,
                -2.0362631388504995,
                -0.20900845807822055
            ]
        },
        {
            "positions": [
                -0.8616963601465012,
                -0.6996648001970536,
                1.6861945199388901,
                2.052958107912102,
                -2.130948968072256,
                -0.10808409706278832
            ]
        },
        {
            "positions": [
                -0.9139737290423317,
                -0.6593698233910308,
                1.6626147662432744,
                2.136984347960861,
                -2.225634797294012,
                -0.00715973604735653
            ]
        }
    ]
}