{
    "goal": {
        "global_pose": {
            "orientation": {
                "w": -0.00223480608172531,
                "x": 0.0024358444001904467,
                "y": 0.7094548369677653,
                "z": -0.704743149386269
            },
            "position": {
                "x": 0.6205249238014221,
                "y": -0.6371506643295288,
                "z": 0.19426114857196808
            }
        },
        "name": "move_to_magneteinheit_B"
    },
    "id": "BKPIECE_move_to_magneteinheit_B_61",
    "joint_names": [
        "shoulder_pan_joint",
        "shoulder_lift_joint",
        "elbow_joint",
        "wrist_1_joint",
        "wrist_2_joint",
        "wrist_3_joint"
    ],
    "metrics": {
        "cart_traj_len": 4.059003027473086,
        "distance_elbow_joint": 6.009828726960134,
        "distance_shoulder_lift_joint": 3.9311226730860604,
        "distance_shoulder_pan_joint": 2.9613804089636018,
        "distance_wrist_1_joint": 1.8927453483272338,
        "distance_wrist_2_joint": 3.3014608591430714,
        "distance_wrist_3_joint": 3.809249580695166,
        "smoothness": 0.7609345163681569,
        "time": 2.3511899969999996,
        "traj_len": 4.680361908781763,
        "weighted_distance": 5.892240063510306
    },
    "planner": "BKPIECE",
    "start": {
        "state": {
            "elbow_joint": 2.3935871308073637,
            "shoulder_lift_joint": -1.9085141043777403,
            "shoulder_pan_joint": 0.7066247067284167,
            "wrist_1_joint": -0.46782909355067076,
            "wrist_2_joint": 0.7096259085804283,
            "wrist_3_joint": -3.1358149275257428
        }
    },
    "waypoints": [
        {
            "positions": [
                0.7066247067284167,
                -1.9085141043777403,
                2.3935871308073637,
                -0.46782909355067076,
                0.7096259085804283,
                -3.1358149275257428
            ]
        },
        {
            "positions": [
                0.6952599381567948,
                -1.9072976396358092,
                2.418350270493674,
                -0.5207315414574832,
                0.9348753907378825,
                -3.160409582676287
            ]
        },
        {
            "positions": [
                0.6838951695851728,
                -1.906081174893878,
                2.443113410179984,
                -0.5736339893642958,
                1.1601248728953366,
                -3.1850042378268304
            ]
        },
        {
            "positions": [
                0.6725304010135509,
                -1.904864710151947,
                2.4678765498662942,
                -0.6265364372711083,
                1.3853743550527908,
                -3.2095988929773744
            ]
        },
        {
            "positions": [
                0.6611656324419289,
                -1.9036482454100159,
                2.4926396895526044,
                -0.6794388851779208,
                1.610623837210245,
                -3.2341935481279185
            ]
        },
        {
            "positions": [
                0.645701756164121,
                -1.896998743700189,
                2.4301454692752684,
                -0.6331167948448085,
                1.4385446700059494,
                -3.1595302640475897
            ]
        },
        {
            "positions": [
                0.630237879886313,
                -1.890349241990362,
                2.367651248997933,
                -0.5867947045116961,
                1.2664655028016538,
                -3.0848669799672606
            ]
        },
        {
            "positions": [
                0.6147740036085049,
                -1.883699740280535,
                2.305157028720597,
                -0.5404726141785838,
                1.0943863355973584,
                -3.010203695886932
            ]
        },
        {
            "positions": [
                0.5993101273306969,
                -1.8770502385707082,
                2.2426628084432614,
                -0.4941505238454714,
                0.9223071683930628,
                -2.9355404118066026
            ]
        },
        {
            "positions": [
                0.5838462510528889,
                -1.8704007368608813,
                2.1801685881659254,
                -0.4478284335123591,
                0.7502280011887673,
                -2.860877127726274
            ]
        },
        {
            "positions": [
                0.5773447993059931,
                -1.8346627226354046,
                2.076607117890554,
                -0.4044818557385574,
                0.7561432965129342,
                -2.7998254992712837
            ]
        },
        {
            "positions": [
                0.5708433475590974,
                -1.7989247084099278,
                1.9730456476151823,
                -0.36113527796475564,
                0.7620585918371011,
                -2.7387738708162934
            ]
        },
        {
            "positions": [
                0.6653749023212491,
                -1.7386041756370507,
                1.7995182199498285,
                -0.3496604869976591,
                0.7269521444038676,
                -2.748094659829896
            ]
        },
        {
            "positions": [
                0.7599064570834007,
                -1.6782836428641739,
                1.6259907922844745,
                -0.3381856960305626,
                0.6918456969706339,
                -2.7574154488434988
            ]
        },
        {
            "positions": [
                0.8544380118455523,
                -1.6179631100912968,
                1.4524633646191207,
                -0.32671090506346606,
                0.6567392495374004,
                -2.7667362378571014
            ]
        },
        {
            "positions": [
                0.948969566607704,
                -1.5576425773184197,
                1.2789359369537667,
                -0.31523611409636954,
                0.6216328021041668,
                -2.776057026870704
            ]
        },
        {
            "positions": [
                1.0435011213698555,
                -1.4973220445455429,
                1.105408509288413,
                -0.303761323129273,
                0.5865263546709332,
                -2.7853778158843068
            ]
        },
        {
            "positions": [
                1.1380326761320072,
                -1.4370015117726658,
                0.9318810816230592,
                -0.2922865321621765,
                0.5514199072376996,
                -2.7946986048979094
            ]
        },
        {
            "positions": [
                1.232564230894159,
                -1.3766809789997887,
                0.7583536539577054,
                -0.28081174119508,
                0.5163134598044661,
                -2.804019393911512
            ]
        },
        {
            "positions": [
                1.3270957856563106,
                -1.3163604462269118,
                0.5848262262923514,
                -0.26933695022798343,
                0.4812070123712324,
                -2.813340182925115
            ]
        },
        {
            "positions": [
                1.4216273404184623,
                -1.2560399134540348,
                0.4112987986269976,
                -0.25786215926088696,
                0.4461005649379989,
                -2.8226609719387175
            ]
        },
        {
            "positions": [
                1.516158895180614,
                -1.1957193806811577,
                0.23777137096164358,
                -0.24638736829379043,
                0.4109941175047653,
                -2.83198176095232
            ]
        },
        {
            "positions": [
                1.6106904499427652,
                -1.1353988479082808,
                0.06424394329629002,
                -0.2349125773266939,
                0.3758876700715317,
                -2.841302549965923
            ]
        },
        {
            "positions": [
                1.7052220047049174,
                -1.0750783151354038,
                -0.10928348436906399,
                -0.22343778635959738,
                0.3407812226382981,
                -2.8506233389795255
            ]
        },
        {
            "positions": [
                1.7997535594670686,
                -1.0147577823625267,
                -0.28281091203441777,
                -0.21196299539250085,
                0.30567477520506453,
                -2.8599441279931277
            ]
        },
        {
            "positions": [
                1.8942851142292203,
                -0.9544372495896498,
                -0.45633833969977156,
                -0.20048820442540433,
                0.270568327771831,
                -2.8692649170067304
            ]
        },
        {
            "positions": [
                1.988816668991372,
                -0.8941167168167728,
                -0.6298657673651253,
                -0.18901341345830783,
                0.23546188033859738,
                -2.878585706020333
            ]
        },
        {
            "positions": [
                2.0833482237535237,
                -0.8337961840438958,
                -0.8033931950304796,
                -0.17753862249121127,
                0.20035543290536373,
                -2.8879064950339357
            ]
        },
        {
            "positions": [
                2.1778797785156754,
                -0.7734756512710188,
                -0.9769206226958334,
                -0.16606383152411477,
                0.16524898547213018,
                -2.8972272840475384
            ]
        },
        {
            "positions": [
                2.272411333277827,
                -0.7131551184981417,
                -1.1504480503611871,
                -0.15458904055701825,
                0.13014253803889664,
                -2.906548073061141
            ]
        },
        {
            "positions": [
                2.3669428880399783,
                -0.6528345857252649,
                -1.3239754780265405,
                -0.14311424958992172,
                0.09503609060566309,
                -2.9158688620747437
            ]
        },
        {
            "positions": [
                2.4614744428021305,
                -0.5925140529523878,
                -1.4975029056918951,
                -0.1316394586228252,
                0.059929643172429437,
                -2.9251896510883464
            ]
        },
        {
            "positions": [
                2.5560059975642817,
                -0.5321935201795107,
                -1.6710303333572485,
                -0.12016466765572867,
                0.02482319573919589,
                -2.934510440101949
            ]
        },
        {
            "positions": [
                2.6505375523264334,
                -0.47187298740663386,
                -1.8445577610226023,
                -0.10868987668863217,
                -0.010283251694037765,
                -2.9438312291155517
            ]
        },
        {
            "positions": [
                2.745069107088585,
                -0.4115524546337568,
                -2.018085188687956,
                -0.09721508572153564,
                -0.04538969912727131,
                -2.9531520181291544
            ]
        },
        {
            "positions": [
                2.8396006618507372,
                -0.3512319218608797,
                -2.1916126163533103,
                -0.08574029475443912,
                -0.08049614656050497,
                -2.962472807142757
            ]
        },
        {
            "positions": [
                2.9341322166128885,
                -0.2909113890880026,
                -2.365140044018664,
                -0.07426550378734259,
                -0.11560259399373851,
                -2.9717935961563597
            ]
        },
        {
            "positions": [
                3.02866377137504,
                -0.23059085631512577,
                -2.538667471684018,
                -0.06279071282024606,
                -0.15070904142697206,
                -2.9811143851699624
            ]
        },
        {
            "positions": [
                3.0111505034713097,
                -0.33788606703052804,
                -2.496787995161243,
                -0.0121008373753742,
                -0.12140099997081129,
                -2.8395376819115006
            ]
        },
        {
            "positions": [
                2.9936372355675793,
                -0.4451812777459303,
                -2.4549085186384683,
                0.038589038069497664,
                -0.09209295851465052,
                -2.6979609786530387
            ]
        },
        {
            "positions": [
                2.976123967663849,
                -0.5524764884613325,
                -2.4130290421156935,
                0.08927891351436953,
                -0.06278491705848974,
                -2.5563842753945774
            ]
        },
        {
            "positions": [
                2.9586106997601185,
                -0.6597716991767348,
                -2.3711495655929187,
                0.1399687889592414,
                -0.03347687560232897,
                -2.4148075721361155
            ]
        },
        {
            "positions": [
                2.941097431856388,
                -0.767066909892137,
                -2.329270089070144,
                0.19065866440411328,
                -0.004168834146168199,
                -2.2732308688776537
            ]
        },
        {
            "positions": [
                2.923584163952657,
                -0.8743621206075393,
                -2.287390612547369,
                0.24134853984898513,
                0.025139207309992584,
                -2.1316541656191923
            ]
        },
        {
            "positions": [
                2.9060708960489268,
                -0.9816573313229415,
                -2.2455111360245943,
                0.292038415293857,
                0.05444724876615337,
                -1.9900774623607305
            ]
        },
        {
            "positions": [
                2.8885576281451963,
                -1.088952542038344,
                -2.2036316595018195,
                0.34272829073872885,
                0.08375529022231412,
                -1.8485007591022686
            ]
        },
        {
            "positions": [
                2.871044360241466,
                -1.196247752753746,
                -2.1617521829790447,
                0.39341816618360076,
                0.11306333167847488,
                -1.706924055843807
            ]
        },
        {
            "positions": [
                2.8535310923377355,
                -1.3035429634691482,
                -2.11987270645627,
                0.4441080416284726,
                0.14237137313463566,
                -1.5653473525853452
            ]
        },
        {
            "positions": [
                2.836017824434005,
                -1.4108381741845508,
                -2.0779932299334947,
                0.49479791707334453,
                0.1716794145907965,
                -1.4237706493268834
            ]
        },
        {
            "positions": [
                2.8185045565302747,
                -1.5181333848999528,
                -2.03611375341072,
                0.5454877925182163,
                0.20098745604695722,
                -1.2821939460684217
            ]
        },
        {
            "positions": [
                2.8009912886265442,
                -1.6254285956153551,
                -1.994234276887945,
                0.5961776679630882,
                0.230295497503118,
                -1.14061724280996
            ]
        },
        {
            "positions": [
                2.783478020722814,
                -1.7327238063307573,
                -1.9523548003651705,
                0.64686754340796,
                0.2596035389592788,
                -0.9990405395514983
            ]
        },
        {
            "positions": [
                2.765964752819083,
                -1.8400190170461597,
                -1.9104753238423955,
                0.697557418852832,
                0.2889115804154396,
                -0.8574638362930362
            ]
        },
        {
            "positions": [
                2.7484514849153525,
                -1.9473142277615618,
                -1.8685958473196207,
                0.7482472942977038,
                0.3182196218716003,
                -0.7158871330345749
            ]
        },
        {
            "positions": [
                2.730938217011622,
                -2.054609438476964,
                -1.826716370796846,
                0.7989371697425758,
                0.34752766332776114,
                -0.574310429776113
            ]
        },
        {
            "positions": [
                2.7134249491078917,
                -2.1619046491923664,
                -1.784836894274071,
                0.8496270451874476,
                0.3768357047839218,
                -0.43273372651765163
            ]
        },
        {
            "positions": [
                2.6959116812041612,
                -2.269199859907769,
                -1.7429574177512963,
                0.9003169206323195,
                0.40614374624008265,
                -0.29115702325918935
            ]
        },
        {
            "positions": [
                2.678398413300431,
                -2.3764950706231707,
                -1.7010779412285215,
                0.9510067960771913,
                0.4354517876962434,
                -0.14958032000072796
            ]
        },
        {
            "positions": [
                2.6608851453967004,
                -2.4837902813385733,
                -1.6591984647057467,
                1.0016966715220632,
                0.46475982915240427,
                -0.008003616742266302
            ]
        }
    ]
}