{
    "goal": {
        "global_pose": {
            "orientation": {
                "w": 0.7047431493862688,
                "x": -0.7094548369677653,
                "y": 0.0024358444001904,
                "z": -0.0022348060817251984
            },
            "position": {
                "x": -0.39052492380142206,
                "y": 0.3671506643295288,
                "z": 0.19426114857196808
            }
        },
        "name": "move_to_magneteinheit_D"
    },
    "id": "BKPIECE_move_to_magneteinheit_D_1",
    "joint_names": [
        "shoulder_pan_joint",
        "shoulder_lift_joint",
        "elbow_joint",
        "wrist_1_joint",
        "wrist_2_joint",
        "wrist_3_joint"
    ],
    "metrics": {
        "cart_traj_len": 4.236452401035702,
        "distance_elbow_joint": 5.095193976841629,
        "distance_shoulder_lift_joint": 1.6322520178172377,
        "distance_shoulder_pan_joint": 2.8762545803651665,
        "distance_wrist_1_joint": 1.5817365521152855,
        "distance_wrist_2_joint": 0.5331328102751426,
        "distance_wrist_3_joint": 3.109704282302077,
        "smoothness": 0.22726861317529487,
        "time": 0.771848528,
        "traj_len": 3.8507498256464983,
        "weighted_distance": 4.812748917896208
    },
    "planner": "BKPIECE",
    "start": {
        "state": {
            "elbow_joint": 0.7495348899011973,
            "shoulder_lift_joint": -0.6476975780737697,
            "shoulder_pan_joint": -2.711696901376276,
            "wrist_1_joint": -0.07506478080974305,
            "wrist_2_joint": 0.4329665971545858,
            "wrist_3_joint": 3.1361499051832524
        }
    },
    "waypoints": [
        {
            "positions": [
                -2.711696901376276,
                -0.6476975780737697,
                0.7495348899011973,
                -0.07506478080974305,
                0.4329665971545858,
                3.1361499051832524
            ]
        },
        {
            "positions": [
                -2.702279034346154,
                -0.7223630288845864,
                0.8586708997113618,
                -0.06259925039957233,
                0.4016706645766868,
                3.0022303094571465
            ]
        },
        {
            "positions": [
                -2.692861167316032,
                -0.7970284796954029,
                0.9678069095215263,
                -0.05013371998940161,
                0.3703747319987878,
                2.8683107137310406
            ]
        },
        {
            "positions": [
                -2.6834433002859095,
                -0.8716939305062195,
                1.0769429193316908,
                -0.0376681895792309,
                0.3390787994208888,
                2.7343911180049347
            ]
        },
        {
            "positions": [
                -2.674025433255787,
                -0.9463593813170361,
                1.1860789291418552,
                -0.025202659169060178,
                0.30778286684298983,
                2.600471522278829
            ]
        },
        {
            "positions": [
                -2.664607566225665,
                -1.0210248321278528,
                1.2952149389520198,
                -0.012737128758889459,
                0.27648693426509074,
                2.466551926552723
            ]
        },
        {
            "positions": [
                -2.655189699195543,
                -1.0956902829386692,
                1.4043509487621844,
                -0.0002715983487187462,
                0.2451910016871918,
                2.332632330826617
            ]
        },
        {
            "positions": [
                -2.6457718321654204,
                -1.1703557337494859,
                1.513486958572349,
                0.012193932061451973,
                0.2138950691092928,
                2.198712735100511
            ]
        },
        {
            "positions": [
                -2.6363539651352985,
                -1.2450211845603025,
                1.6226229683825133,
                0.024659462471622692,
                0.1825991365313938,
                2.0647931393744052
            ]
        },
        {
            "positions": [
                -2.626936098105176,
                -1.3196866353711192,
                1.7317589781926779,
                0.037124992881793405,
                0.15130320395349475,
                1.9308735436482993
            ]
        },
        {
            "positions": [
                -2.5134467445417723,
                -1.36088766895969,
                1.654704068890503,
                0.06107414857631071,
                0.13946769879856746,
                1.8500759624593512
            ]
        },
        {
            "positions": [
                -2.3999573909783685,
                -1.402088702548261,
                1.577649159588328,
                0.08502330427082802,
                0.12763219364364017,
                1.7692783812704032
            ]
        },
        {
            "positions": [
                -2.286468037414964,
                -1.443289736136832,
                1.5005942502861531,
                0.10897245996534533,
                0.11579668848871288,
                1.6884808000814553
            ]
        },
        {
            "positions": [
                -2.1729786838515603,
                -1.4844907697254028,
                1.4235393409839783,
                0.13292161565986263,
                0.1039611833337856,
                1.6076832188925072
            ]
        },
        {
            "positions": [
                -2.0773493648671986,
                -1.5150016336979701,
                1.2737176944419981,
                0.18903931897838697,
                0.11010791349801635,
                1.551804691452822
            ]
        },
        {
            "positions": [
                -1.981720045882837,
                -1.5455124976705372,
                1.123896047900018,
                0.24515702229691133,
                0.1162546436622471,
                1.495926164013137
            ]
        },
        {
            "positions": [
                -1.8860907268984755,
                -1.5760233616431045,
                0.9740744013580378,
                0.30127472561543567,
                0.12240137382647784,
                1.4400476365734516
            ]
        },
        {
            "positions": [
                -1.790461407914114,
                -1.6065342256156716,
                0.8242527548160576,
                0.35739242893396,
                0.1285481039907086,
                1.3841691091337665
            ]
        },
        {
            "positions": [
                -1.6948320889297523,
                -1.637045089588239,
                0.6744311082740775,
                0.41351013225248434,
                0.13469483415493935,
                1.3282905816940813
            ]
        },
        {
            "positions": [
                -1.5992027699453906,
                -1.667555953560806,
                0.5246094617320974,
                0.4696278355710086,
                0.1408415643191701,
                1.2724120542543962
            ]
        },
        {
            "positions": [
                -1.503573450961029,
                -1.6980668175333733,
                0.37478781519011717,
                0.525745538889533,
                0.14698829448340084,
                1.216533526814711
            ]
        },
        {
            "positions": [
                -1.4079441319766675,
                -1.7285776815059406,
                0.224966168648137,
                0.5818632422080574,
                0.1531350246476316,
                1.160654999375026
            ]
        },
        {
            "positions": [
                -1.3123148129923057,
                -1.759088545478508,
                0.07514452210615685,
                0.6379809455265817,
                0.15928175481186235,
                1.1047764719353406
            ]
        },
        {
            "positions": [
                -1.2166854940079443,
                -1.789599409451075,
                -0.0746771244358233,
                0.694098648845106,
                0.1654284849760931,
                1.0488979444956557
            ]
        },
        {
            "positions": [
                -1.1210561750235826,
                -1.820110273423642,
                -0.22449877097780346,
                0.7502163521636304,
                0.17157521514032387,
                0.9930194170559703
            ]
        },
        {
            "positions": [
                -1.025426856039221,
                -1.8506211373962094,
                -0.3743204175197834,
                0.8063340554821546,
                0.1777219453045546,
                0.9371408896162852
            ]
        },
        {
            "positions": [
                -0.9297975370548592,
                -1.8811320013687767,
                -0.5241420640617638,
                0.862451758800679,
                0.18386867546878535,
                0.8812623621765999
            ]
        },
        {
            "positions": [
                -0.8341682180704977,
                -1.9116428653413438,
                -0.6739637106037439,
                0.9185694621192034,
                0.1900154056330161,
                0.8253838347369148
            ]
        },
        {
            "positions": [
                -0.7385388990861361,
                -1.942153729313911,
                -0.8237853571457241,
                0.9746871654377277,
                0.19616213579724684,
                0.7695053072972297
            ]
        },
        {
            "positions": [
                -0.6429095801017743,
                -1.9726645932864781,
                -0.9736070036877043,
                1.030804868756252,
                0.20230886596147762,
                0.7136267798575444
            ]
        },
        {
            "positions": [
                -0.547280261117413,
                -2.0031754572590454,
                -1.1234286502296844,
                1.0869225720747764,
                0.20845559612570835,
                0.6577482524178593
            ]
        },
        {
            "positions": [
                -0.45165094213305124,
                -2.0336863212316127,
                -1.2732502967716646,
                1.1430402753933009,
                0.2146023262899391,
                0.6018697249781739
            ]
        },
        {
            "positions": [
                -0.3560216231486897,
                -2.06419718520418,
                -1.4230719433136447,
                1.1991579787118252,
                0.22074905645416987,
                0.5459911975384888
            ]
        },
        {
            "positions": [
                -0.2603923041643281,
                -2.094708049176747,
                -1.5728935898556249,
                1.2552756820303494,
                0.2268957866184006,
                0.4901126700988039
            ]
        },
        {
            "positions": [
                -0.16476298517996613,
                -2.125218913149314,
                -1.722715236397605,
                1.311393385348874,
                0.23304251678263135,
                0.4342341426591185
            ]
        },
        {
            "positions": [
                -0.06913366619560499,
                -2.1557297771218815,
                -1.8725368829395852,
                1.3675110886673982,
                0.2391892469468621,
                0.3783556152194335
            ]
        },
        {
            "positions": [
                -0.030654767641681215,
                -2.1712918433768342,
                -1.963246405117187,
                1.4023602541468296,
                0.244303678704278,
                0.3511408769779883
            ]
        },
        {
            "positions": [
                -0.02089134985997168,
                -2.197939259041485,
                -2.1111053432721976,
                1.4489711247119592,
                0.2426138820144511,
                0.2932416375964167
            ]
        },
        {
            "positions": [
                -0.011127932078262147,
                -2.2245866747061354,
                -2.258964281427208,
                1.4955819952770888,
                0.24092408532462423,
                0.23534239821484507
            ]
        },
        {
            "positions": [
                -0.0777228336565067,
                -2.246794131382556,
                -2.3122859019905357,
                1.499786290435499,
                0.21786443941905406,
                0.15351560831431288
            ]
        },
        {
            "positions": [
                -0.14431773523475125,
                -2.269001588058977,
                -2.365607522553864,
                1.503990585593909,
                0.1948047935134839,
                0.07168881841378068
            ]
        },
        {
            "positions": [
                -0.18681354314541415,
                -2.2799495958910074,
                -2.3812109103574706,
                1.5013093998822755,
                0.18051877762042753,
                0.026445622881175353
            ]
        }
    ]
}