{
    "goal": {
        "global_pose": {
            "orientation": {
                "w": -0.00223480608172531,
                "x": 0.0024358444001904467,
                "y": 0.7094548369677653,
                "z": -0.704743149386269
            },
            "position": {
                "x": 0.6205249238014221,
                "y": -0.6371506643295288,
                "z": 0.19426114857196808
            }
        },
        "name": "move_to_magneteinheit_B"
    },
    "id": "BKPIECE_move_to_magneteinheit_B_64",
    "joint_names": [
        "shoulder_pan_joint",
        "shoulder_lift_joint",
        "elbow_joint",
        "wrist_1_joint",
        "wrist_2_joint",
        "wrist_3_joint"
    ],
    "metrics": {
        "cart_traj_len": 3.7202864103440736,
        "distance_elbow_joint": 4.6123290876204095,
        "distance_shoulder_lift_joint": 0.5435298807594966,
        "distance_shoulder_pan_joint": 2.409733829278174,
        "distance_wrist_1_joint": 2.827664196618806,
        "distance_wrist_2_joint": 1.2055341619239093,
        "distance_wrist_3_joint": 6.267808848572434,
        "smoothness": 0.14796255615956536,
        "time": 0.500546987,
        "traj_len": 4.226890110326177,
        "weighted_distance": 5.868169736848178
    },
    "planner": "BKPIECE",
    "start": {
        "state": {
            "elbow_joint": 2.3935871308073637,
            "shoulder_lift_joint": -1.9085141043777403,
            "shoulder_pan_joint": 0.7066247067284167,
            "wrist_1_joint": -0.46782909355067076,
            "wrist_2_joint": 0.7096259085804283,
            "wrist_3_joint": -3.1358149275257428
        }
    },
    "waypoints": [
        {
            "positions": [
                0.7066247067284167,
                -1.9085141043777403,
                2.3935871308073637,
                -0.46782909355067076,
                0.7096259085804283,
                -3.1358149275257428
            ]
        },
        {
            "positions": [
                0.6253779087930724,
                -1.9149787063984398,
                2.3506754526648592,
                -0.37247933842387787,
                0.7162417033341675,
                -3.0477199809787905
            ]
        },
        {
            "positions": [
                0.5441311108577283,
                -1.9214433084191396,
                2.307763774522355,
                -0.277129583297085,
                0.7228574980879068,
                -2.9596250344318378
            ]
        },
        {
            "positions": [
                0.5461718194180157,
                -1.9086670862812956,
                2.189780964624363,
                -0.22971778031457896,
                0.707104963907688,
                -2.805988905900166
            ]
        },
        {
            "positions": [
                0.5482125279783032,
                -1.8958908641434518,
                2.0717981547263706,
                -0.1823059773320729,
                0.6913524297274691,
                -2.652352777368494
            ]
        },
        {
            "positions": [
                0.5502532365385907,
                -1.8831146420056077,
                1.9538153448283784,
                -0.13489417434956688,
                0.6755998955472504,
                -2.4987166488368224
            ]
        },
        {
            "positions": [
                0.5522939450988782,
                -1.870338419867764,
                1.8358325349303861,
                -0.08748237136706083,
                0.6598473613670316,
                -2.3450805203051504
            ]
        },
        {
            "positions": [
                0.5543346536591657,
                -1.85756219772992,
                1.7178497250323939,
                -0.04007056838455482,
                0.6440948271868128,
                -2.1914443917734787
            ]
        },
        {
            "positions": [
                0.6201553471327765,
                -1.8554666081692213,
                1.6071227033564088,
                -0.06713198079782615,
                0.6148871638931277,
                -2.0400166126160078
            ]
        },
        {
            "positions": [
                0.6859760406063873,
                -1.8533710186085224,
                1.496395681680424,
                -0.09419339321109749,
                0.5856795005994426,
                -1.8885888334585368
            ]
        },
        {
            "positions": [
                0.7517967340799981,
                -1.8512754290478237,
                1.385668660004439,
                -0.12125480562436881,
                0.5564718373057576,
                -1.7371610543010658
            ]
        },
        {
            "positions": [
                0.817617427553609,
                -1.8491798394871248,
                1.2749416383284542,
                -0.14831621803764014,
                0.5272641740120725,
                -1.5857332751435949
            ]
        },
        {
            "positions": [
                0.8834381210272197,
                -1.8470842499264262,
                1.1642146166524692,
                -0.17537763045091148,
                0.4980565107183874,
                -1.434305495986124
            ]
        },
        {
            "positions": [
                0.9492588145008306,
                -1.8449886603657275,
                1.0534875949764841,
                -0.2024390428641828,
                0.46884884742470234,
                -1.282877716828653
            ]
        },
        {
            "positions": [
                1.0150795079744415,
                -1.8428930708050286,
                0.9427605733004993,
                -0.2295004552774541,
                0.43964118413101727,
                -1.1314499376711822
            ]
        },
        {
            "positions": [
                1.0809002014480522,
                -1.84079748124433,
                0.8320335516245144,
                -0.2565618676907255,
                0.4104335208373322,
                -0.9800221585137112
            ]
        },
        {
            "positions": [
                1.1467208949216632,
                -1.838701891683631,
                0.7213065299485296,
                -0.2836232801039968,
                0.3812258575436472,
                -0.8285943793562405
            ]
        },
        {
            "positions": [
                1.212541588395274,
                -1.8366063021229324,
                0.6105795082725445,
                -0.3106846925172681,
                0.35201819424996206,
                -0.6771666001987693
            ]
        },
        {
            "positions": [
                1.2783622818688847,
                -1.8345107125622337,
                0.4998524865965597,
                -0.3377461049305394,
                0.32281053095627704,
                -0.5257388210412985
            ]
        },
        {
            "positions": [
                1.3441829753424956,
                -1.8324151230015349,
                0.38912546492057465,
                -0.3648075173438108,
                0.29360286766259197,
                -0.37431104188382736
            ]
        },
        {
            "positions": [
                1.4100036688161062,
                -1.8303195334408362,
                0.27839844324458984,
                -0.3918689297570821,
                0.2643952043689069,
                -0.2228832627263566
            ]
        },
        {
            "positions": [
                1.4758243622897171,
                -1.8282239438801373,
                0.16767142156860482,
                -0.4189303421703534,
                0.23518754107522183,
                -0.07145548356888565
            ]
        },
        {
            "positions": [
                1.541645055763328,
                -1.8261283543194387,
                0.05694439989262001,
                -0.4459917545836247,
                0.20597987778153676,
                0.07997229558858532
            ]
        },
        {
            "positions": [
                1.6074657492369386,
                -1.82403276475874,
                -0.053782621783365014,
                -0.4730531669968961,
                0.1767722144878517,
                0.23140007474605628
            ]
        },
        {
            "positions": [
                1.6732864427105496,
                -1.821937175198041,
                -0.16450964345934982,
                -0.5001145794101675,
                0.14756455119416662,
                0.38282785390352725
            ]
        },
        {
            "positions": [
                1.7391071361841606,
                -1.8198415856373424,
                -0.2752366651353346,
                -0.5271759918234388,
                0.1183568879004816,
                0.5342556330609978
            ]
        },
        {
            "positions": [
                1.8049278296577715,
                -1.8177459960766438,
                -0.3859636868113201,
                -0.5542374042367101,
                0.08914922460679642,
                0.6856834122184692
            ]
        },
        {
            "positions": [
                1.870748523131382,
                -1.815650406515945,
                -0.4966907084873049,
                -0.5812988166499814,
                0.05994156131311135,
                0.8371111913759401
            ]
        },
        {
            "positions": [
                1.936569216604993,
                -1.8135548169552462,
                -0.6074177301632897,
                -0.6083602290632527,
                0.030733898019426387,
                0.9885389705334111
            ]
        },
        {
            "positions": [
                2.0023899100786036,
                -1.8114592273945473,
                -0.7181447518392745,
                -0.635421641476524,
                0.0015262347257413156,
                1.1399667496908816
            ]
        },
        {
            "positions": [
                2.0682106035522145,
                -1.8093636378338487,
                -0.8288717735152598,
                -0.6624830538897954,
                -0.027681428567943867,
                1.291394528848353
            ]
        },
        {
            "positions": [
                2.1340312970258255,
                -1.80726804827315,
                -0.9395987951912446,
                -0.6895444663030668,
                -0.05688909186162883,
                1.442822308005824
            ]
        },
        {
            "positions": [
                2.199851990499436,
                -1.8051724587124511,
                -1.0503258168672294,
                -0.7166058787163381,
                -0.0860967551553139,
                1.5942500871632945
            ]
        },
        {
            "positions": [
                2.265672683973047,
                -1.8030768691517525,
                -1.1610528385432142,
                -0.7436672911296094,
                -0.11530441844899897,
                1.7456778663207655
            ]
        },
        {
            "positions": [
                2.331493377446658,
                -1.8009812795910536,
                -1.2717798602191994,
                -0.7707287035428807,
                -0.14451208174268415,
                1.8971056454782365
            ]
        },
        {
            "positions": [
                2.397314070920269,
                -1.798885690030355,
                -1.3825068818951842,
                -0.797790115956152,
                -0.1737197450363691,
                2.0485334246357074
            ]
        },
        {
            "positions": [
                2.4631347643938795,
                -1.7967901004696563,
                -1.493233903571169,
                -0.8248515283694233,
                -0.20292740833005418,
                2.1999612037931784
            ]
        },
        {
            "positions": [
                2.5289554578674904,
                -1.7946945109089574,
                -1.6039609252471538,
                -0.8519129407826946,
                -0.23213507162373925,
                2.3513889829506494
            ]
        },
        {
            "positions": [
                2.5947761513411014,
                -1.7925989213482587,
                -1.714687946923139,
                -0.8789743531959661,
                -0.26134273491742444,
                2.5028167621081203
            ]
        },
        {
            "positions": [
                2.660596844814712,
                -1.7905033317875598,
                -1.8254149685991239,
                -0.9060357656092374,
                -0.2905503982111094,
                2.6542445412655913
            ]
        },
        {
            "positions": [
                2.726417538288323,
                -1.7884077422268612,
                -1.936141990275109,
                -0.9330971780225087,
                -0.31975806150479447,
                2.8056723204230622
            ]
        },
        {
            "positions": [
                2.7229622416573136,
                -1.8433246787592954,
                -1.9016048132113907,
                -1.1449215147760157,
                -0.34284641582630243,
                2.85887021447501
            ]
        },
        {
            "positions": [
                2.7195069450263047,
                -1.8982416152917294,
                -1.8670676361476728,
                -1.3567458515295228,
                -0.3659347701478104,
                2.9120681085269577
            ]
        },
        {
            "positions": [
                2.716051648395296,
                -1.9531585518241634,
                -1.8325304590839546,
                -1.5685701882830299,
                -0.3890231244693184,
                2.9652660025789057
            ]
        },
        {
            "positions": [
                2.7125963517642866,
                -2.0080754883565977,
                -1.7979932820202364,
                -1.780394525036537,
                -0.4121114787908264,
                3.0184638966308537
            ]
        },
        {
            "positions": [
                2.699813196901073,
                -2.0525498294556184,
                -1.76188046744947,
                -1.945289953736714,
                -0.42644487767525086,
                3.0468464027348126
            ]
        },
        {
            "positions": [
                2.6870300420378594,
                -2.097024170554639,
                -1.7257676528787036,
                -2.1101853824368915,
                -0.4407782765596753,
                3.0752289088387714
            ]
        },
        {
            "positions": [
                2.674246887174646,
                -2.1414985116536593,
                -1.6896548383079373,
                -2.2750808111370686,
                -0.4551116754440997,
                3.1036114149427303
            ]
        },
        {
            "positions": [
                2.6614637323114323,
                -2.18597285275268,
                -1.6535420237371707,
                -2.4399762398372458,
                -0.46944507432852417,
                3.131993921046689
            ]
        }
    ]
}