{
    "goal": {
        "global_pose": {
            "orientation": {
                "w": -0.00223480608172531,
                "x": 0.0024358444001904467,
                "y": 0.7094548369677653,
                "z": -0.704743149386269
            },
            "position": {
                "x": 0.6205249238014221,
                "y": -0.6371506643295288,
                "z": 0.19426114857196808
            }
        },
        "name": "move_to_magneteinheit_B"
    },
    "id": "BKPIECE_move_to_magneteinheit_B_101",
    "joint_names": [
        "shoulder_pan_joint",
        "shoulder_lift_joint",
        "elbow_joint",
        "wrist_1_joint",
        "wrist_2_joint",
        "wrist_3_joint"
    ],
    "metrics": {
        "cart_traj_len": 3.5572387075907543,
        "distance_elbow_joint": 4.229329512493059,
        "distance_shoulder_lift_joint": 0.8018758439827554,
        "distance_shoulder_pan_joint": 2.7607568583522224,
        "distance_wrist_1_joint": 2.4383556928218115,
        "distance_wrist_2_joint": 0.7869276842295794,
        "distance_wrist_3_joint": 3.5468243462346134,
        "smoothness": 0.45034532699209684,
        "time": 0.6516536500000001,
        "traj_len": 3.8162900752057665,
        "weighted_distance": 4.988286480108641
    },
    "planner": "BKPIECE",
    "start": {
        "state": {
            "elbow_joint": 2.3935871308073637,
            "shoulder_lift_joint": -1.9085141043777403,
            "shoulder_pan_joint": 0.7066247067284167,
            "wrist_1_joint": -0.46782909355067076,
            "wrist_2_joint": 0.7096259085804283,
            "wrist_3_joint": -3.1358149275257428
        }
    },
    "waypoints": [
        {
            "positions": [
                0.7066247067284167,
                -1.9085141043777403,
                2.3935871308073637,
                -0.46782909355067076,
                0.7096259085804283,
                -3.1358149275257428
            ]
        },
        {
            "positions": [
                0.6353349791850684,
                -1.9127956000135269,
                2.3872941634442677,
                -0.3916122350990744,
                0.6202249950249554,
                -3.0812880048439477
            ]
        },
        {
            "positions": [
                0.5640452516417201,
                -1.9170770956493133,
                2.381001196081172,
                -0.31539537664747797,
                0.5308240814694826,
                -3.026761082162153
            ]
        },
        {
            "positions": [
                0.4927555240983719,
                -1.9213585912850997,
                2.374708228718076,
                -0.2391785181958816,
                0.4414231679140097,
                -2.972234159480358
            ]
        },
        {
            "positions": [
                0.42146579655502364,
                -1.9256400869208863,
                2.36841526135498,
                -0.16296165974428523,
                0.35202225435853685,
                -2.917707236798563
            ]
        },
        {
            "positions": [
                0.396718811415839,
                -1.9032519813044195,
                2.2810474488632457,
                -0.13903425091265675,
                0.32384914631705775,
                -2.888339809312555
            ]
        },
        {
            "positions": [
                0.37197182627665437,
                -1.880863875687953,
                2.1936796363715114,
                -0.11510684208102831,
                0.2956760382755786,
                -2.858972381826547
            ]
        },
        {
            "positions": [
                0.3919365651010391,
                -1.863239160388714,
                2.051042100326404,
                -0.08149790537125162,
                0.27061415138342015,
                -2.7811343658039824
            ]
        },
        {
            "positions": [
                0.4119013039254238,
                -1.8456144450894747,
                1.9084045642812968,
                -0.04788896866147495,
                0.24555226449126175,
                -2.7032963497814175
            ]
        },
        {
            "positions": [
                0.4318660427498085,
                -1.8279897297902354,
                1.7657670282361895,
                -0.014280031951698274,
                0.22049037759910334,
                -2.6254583337588526
            ]
        },
        {
            "positions": [
                0.4518307815741932,
                -1.8103650144909964,
                1.6231294921910822,
                0.01932890475807842,
                0.1954284907069449,
                -2.547620317736288
            ]
        },
        {
            "positions": [
                0.5361956332412718,
                -1.8206726582184718,
                1.4981907129043994,
                0.07352391422757779,
                0.20375601034394572,
                -2.445444673472213
            ]
        },
        {
            "positions": [
                0.6205604849083504,
                -1.8309803019459472,
                1.373251933617717,
                0.12771892369707716,
                0.21208352998094654,
                -2.3432690292081375
            ]
        },
        {
            "positions": [
                0.704925336575429,
                -1.8412879456734224,
                1.2483131543310342,
                0.1819139331665765,
                0.22041104961794733,
                -2.2410933849440617
            ]
        },
        {
            "positions": [
                0.7892901882425076,
                -1.8515955894008977,
                1.1233743750443514,
                0.23610894263607587,
                0.22873856925494815,
                -2.1389177406799864
            ]
        },
        {
            "positions": [
                0.8736550399095862,
                -1.8619032331283731,
                0.9984355957576688,
                0.29030395210557525,
                0.23706608889194897,
                -2.036742096415911
            ]
        },
        {
            "positions": [
                0.9580198915766648,
                -1.8722108768558485,
                0.8734968164709861,
                0.3444989615750746,
                0.24539360852894979,
                -1.9345664521518355
            ]
        },
        {
            "positions": [
                1.0423847432437434,
                -1.8825185205833237,
                0.7485580371843035,
                0.39869397104457394,
                0.2537211281659506,
                -1.83239080788776
            ]
        },
        {
            "positions": [
                1.1267495949108222,
                -1.892826164310799,
                0.6236192578976208,
                0.45288898051407334,
                0.2620486478029514,
                -1.7302151636236847
            ]
        },
        {
            "positions": [
                1.2111144465779007,
                -1.9031338080382745,
                0.4986804786109382,
                0.5070839899835727,
                0.2703761674399522,
                -1.6280395193596093
            ]
        },
        {
            "positions": [
                1.2954792982449792,
                -1.9134414517657499,
                0.3737416993242555,
                0.5612789994530721,
                0.27870368707695303,
                -1.5258638750955338
            ]
        },
        {
            "positions": [
                1.3798441499120577,
                -1.9237490954932253,
                0.24880292003757276,
                0.6154740089225714,
                0.2870312067139539,
                -1.4236882308314585
            ]
        },
        {
            "positions": [
                1.4642090015791362,
                -1.9340567392207004,
                0.12386414075089003,
                0.6696690183920708,
                0.29535872635095467,
                -1.321512586567383
            ]
        },
        {
            "positions": [
                1.5485738532462152,
                -1.9443643829481758,
                -0.0010746385357924826,
                0.7238640278615702,
                0.30368624598795546,
                -1.2193369423033076
            ]
        },
        {
            "positions": [
                1.6329387049132937,
                -1.9546720266756512,
                -0.12601341782247522,
                0.7780590373310695,
                0.3120137656249563,
                -1.117161298039232
            ]
        },
        {
            "positions": [
                1.7173035565803723,
                -1.9649796704031266,
                -0.25095219710915795,
                0.832254046800569,
                0.3203412852619571,
                -1.0149856537751565
            ]
        },
        {
            "positions": [
                1.8016684082474508,
                -1.9752873141306018,
                -0.37589097639584046,
                0.8864490562700683,
                0.3286688048989579,
                -0.9128100095110812
            ]
        },
        {
            "positions": [
                1.8860332599145297,
                -1.9855949578580772,
                -0.5008297556825232,
                0.9406440657395677,
                0.33699632453595874,
                -0.8106343652470056
            ]
        },
        {
            "positions": [
                1.9703981115816078,
                -1.9959026015855525,
                -0.6257685349692057,
                0.994839075209067,
                0.3453238441729595,
                -0.7084587209829303
            ]
        },
        {
            "positions": [
                2.054762963248687,
                -2.006210245313028,
                -0.7507073142558887,
                1.0490340846785664,
                0.3536513638099604,
                -0.6062830767188547
            ]
        },
        {
            "positions": [
                2.1391278149157653,
                -2.0165178890405033,
                -0.8756460935425712,
                1.1032290941480658,
                0.36197888344696116,
                -0.5041074324547794
            ]
        },
        {
            "positions": [
                2.223492666582844,
                -2.0268255327679787,
                -1.0005848728292541,
                1.1574241036175652,
                0.370306403083962,
                -0.40193178819070363
            ]
        },
        {
            "positions": [
                2.3078575182499224,
                -2.0371331764954537,
                -1.1255236521159366,
                1.2116191130870644,
                0.3786339227209628,
                -0.29975614392662875
            ]
        },
        {
            "positions": [
                2.3922223699170013,
                -2.047440820222929,
                -1.2504624314026196,
                1.265814122556564,
                0.3869614423579636,
                -0.19758049966255298
            ]
        },
        {
            "positions": [
                2.4765872215840794,
                -2.0577484639504044,
                -1.375401210689302,
                1.3200091320260632,
                0.39528896199496444,
                -0.09540485539847765
            ]
        },
        {
            "positions": [
                2.5609520732511584,
                -2.06805610767788,
                -1.5003399899759846,
                1.3742041414955626,
                0.40361648163196523,
                0.006770788865598121
            ]
        },
        {
            "positions": [
                2.645316924918237,
                -2.0783637514053552,
                -1.6252787692626671,
                1.428399150965062,
                0.411944001268966,
                0.108946433129673
            ]
        },
        {
            "positions": [
                2.7296817765853154,
                -2.0886713951328306,
                -1.7502175485493503,
                1.4825941604345614,
                0.42027152090596687,
                0.21112207739374866
            ]
        },
        {
            "positions": [
                2.7125832696873657,
                -2.186463497224802,
                -1.728836340265264,
                1.3606110507254165,
                0.43224332994523534,
                0.1611502420649683
            ]
        },
        {
            "positions": [
                2.695484762789416,
                -2.284255599316773,
                -1.7074551319811775,
                1.2386279410162717,
                0.4442151389845038,
                0.11117840673618794
            ]
        },
        {
            "positions": [
                2.6783862558914664,
                -2.3820477014087444,
                -1.6860739236970912,
                1.1166448313071267,
                0.45618694802377235,
                0.06120657140740757
            ]
        },
        {
            "positions": [
                2.6612877489935167,
                -2.479839803500716,
                -1.664692715413005,
                0.9946617215979819,
                0.46815875706304083,
                0.011234736078627202
            ]
        }
    ]
}