{
    "goal": {
        "global_pose": {
            "orientation": {
                "w": 0.7047431493862688,
                "x": -0.7094548369677653,
                "y": 0.0024358444001904,
                "z": -0.0022348060817251984
            },
            "position": {
                "x": -0.39052492380142206,
                "y": 0.3671506643295288,
                "z": 0.19426114857196808
            }
        },
        "name": "move_to_magneteinheit_D"
    },
    "id": "BKPIECE_move_to_magneteinheit_D_43",
    "joint_names": [
        "shoulder_pan_joint",
        "shoulder_lift_joint",
        "elbow_joint",
        "wrist_1_joint",
        "wrist_2_joint",
        "wrist_3_joint"
    ],
    "metrics": {
        "cart_traj_len": 4.057459493096335,
        "distance_elbow_joint": 4.684891365886929,
        "distance_shoulder_lift_joint": 1.3153319968376223,
        "distance_shoulder_pan_joint": 3.610523208016741,
        "distance_wrist_1_joint": 4.041154132852131,
        "distance_wrist_2_joint": 3.7562556729000987,
        "distance_wrist_3_joint": 9.046544382990362,
        "smoothness": 0.3684310824048487,
        "time": 0.567032412,
        "traj_len": 5.14341333741358,
        "weighted_distance": 7.234998226068675
    },
    "planner": "BKPIECE",
    "start": {
        "state": {
            "elbow_joint": 0.7495348899011973,
            "shoulder_lift_joint": -0.6476975780737697,
            "shoulder_pan_joint": -2.711696901376276,
            "wrist_1_joint": -0.07506478080974305,
            "wrist_2_joint": 0.4329665971545858,
            "wrist_3_joint": 3.1361499051832524
        }
    },
    "waypoints": [
        {
            "positions": [
                -2.711696901376276,
                -0.6476975780737697,
                0.7495348899011973,
                -0.07506478080974305,
                0.4329665971545858,
                3.1361499051832524
            ]
        },
        {
            "positions": [
                -2.71398274742231,
                -0.6791200081338599,
                0.8041120478123794,
                -0.10512935531359097,
                0.3278583524151334,
                3.0207315431285378
            ]
        },
        {
            "positions": [
                -2.7162685934683437,
                -0.7105424381939499,
                0.8586892057235617,
                -0.13519392981743888,
                0.22275010767568093,
                2.905313181073823
            ]
        },
        {
            "positions": [
                -2.7185544395143775,
                -0.7419648682540401,
                0.9132663636347438,
                -0.16525850432128683,
                0.11764186293622847,
                2.7898948190191084
            ]
        },
        {
            "positions": [
                -2.7119000811395675,
                -0.7956122915962152,
                0.9325971741715068,
                -0.20040733119648169,
                -0.016523797124920636,
                2.673300193867762
            ]
        },
        {
            "positions": [
                -2.7052457227647575,
                -0.8492597149383903,
                0.9519279847082698,
                -0.23555615807167654,
                -0.15068945718606974,
                2.556705568716416
            ]
        },
        {
            "positions": [
                -2.6985913643899475,
                -0.9029071382805653,
                0.9712587952450328,
                -0.2707049849468714,
                -0.28485511724721885,
                2.4401109435650703
            ]
        },
        {
            "positions": [
                -2.6919370060151375,
                -0.9565545616227404,
                0.9905896057817958,
                -0.3058538118220663,
                -0.41902077730836795,
                2.323516318413724
            ]
        },
        {
            "positions": [
                -2.6852826476403275,
                -1.0102019849649155,
                1.0099204163185589,
                -0.3410026386972611,
                -0.5531864373695171,
                2.2069216932623776
            ]
        },
        {
            "positions": [
                -2.6786282892655175,
                -1.0638494083070906,
                1.0292512268553218,
                -0.376151465572456,
                -0.6873520974306662,
                2.0903270681110317
            ]
        },
        {
            "positions": [
                -2.6275735013477677,
                -1.1153061381649945,
                1.0586314593648185,
                -0.41348315528254553,
                -0.7243084666271877,
                1.9361298380731184
            ]
        },
        {
            "positions": [
                -2.5765187134300183,
                -1.166762868022898,
                1.0880116918743155,
                -0.4508148449926351,
                -0.7612648358237094,
                1.7819326080352051
            ]
        },
        {
            "positions": [
                -2.5254639255122684,
                -1.218219597880802,
                1.1173919243838122,
                -0.4881465347027246,
                -0.7982212050202311,
                1.6277353779972916
            ]
        },
        {
            "positions": [
                -2.4744091375945185,
                -1.2696763277387055,
                1.146772156893309,
                -0.5254782244128142,
                -0.8351775742167526,
                1.4735381479593785
            ]
        },
        {
            "positions": [
                -2.4233543496767687,
                -1.3211330575966094,
                1.1761523894028059,
                -0.5628099141229037,
                -0.8721339434132742,
                1.319340917921465
            ]
        },
        {
            "positions": [
                -2.372299561759019,
                -1.3725897874545132,
                1.2055326219123026,
                -0.6001416038329933,
                -0.9090903126097959,
                1.1651436878835517
            ]
        },
        {
            "positions": [
                -2.3212447738412694,
                -1.424046517312417,
                1.2349128544217995,
                -0.6374732935430829,
                -0.9460466818063176,
                1.0109464578456384
            ]
        },
        {
            "positions": [
                -2.2701899859235195,
                -1.4755032471703207,
                1.2642930869312963,
                -0.6748049832531724,
                -0.9830030510028391,
                0.8567492278077251
            ]
        },
        {
            "positions": [
                -2.1798385899239934,
                -1.471689423891691,
                1.129831944998013,
                -0.6412711456225566,
                -0.9287803596300617,
                0.7793209745651992
            ]
        },
        {
            "positions": [
                -2.089487193924467,
                -1.4678756006130618,
                0.9953708030647297,
                -0.6077373079919409,
                -0.8745576682572843,
                0.7018927213226732
            ]
        },
        {
            "positions": [
                -1.9991357979249407,
                -1.4640617773344322,
                0.8609096611314464,
                -0.5742034703613251,
                -0.820334976884507,
                0.6244644680801472
            ]
        },
        {
            "positions": [
                -1.9087844019254145,
                -1.4602479540558027,
                0.7264485191981631,
                -0.5406696327307094,
                -0.7661122855117295,
                0.5470362148376213
            ]
        },
        {
            "positions": [
                -1.8184330059258884,
                -1.456434130777173,
                0.5919873772648797,
                -0.5071357951000937,
                -0.711889594138952,
                0.4696079615950953
            ]
        },
        {
            "positions": [
                -1.728081609926362,
                -1.4526203074985438,
                0.4575262353315964,
                -0.47360195746947786,
                -0.6576669027661747,
                0.3921797083525694
            ]
        },
        {
            "positions": [
                -1.6377302139268357,
                -1.4488064842199142,
                0.32306509339831313,
                -0.44006811983886207,
                -0.6034442113933972,
                0.31475145511004343
            ]
        },
        {
            "positions": [
                -1.5473788179273096,
                -1.4449926609412846,
                0.18860395146502995,
                -0.4065342822082464,
                -0.5492215200206199,
                0.23732320186751754
            ]
        },
        {
            "positions": [
                -1.4570274219277835,
                -1.441178837662655,
                0.05414280953174644,
                -0.3730004445776306,
                -0.4949988286478424,
                0.15989494862499154
            ]
        },
        {
            "positions": [
                -1.366676025928257,
                -1.4373650143840258,
                -0.08031833240153685,
                -0.3394666069470148,
                -0.44077613727506504,
                0.08246669538246554
            ]
        },
        {
            "positions": [
                -1.276324629928731,
                -1.4335511911053962,
                -0.21477947433481992,
                -0.3059327693163991,
                -0.3865534459022877,
                0.005038442139939647
            ]
        },
        {
            "positions": [
                -1.1859732339292046,
                -1.4297373678267666,
                -0.34924061626810343,
                -0.27239893168578333,
                -0.3323307545295102,
                -0.07238981110258635
            ]
        },
        {
            "positions": [
                -1.0956218379296785,
                -1.4259235445481373,
                -0.4837017582013867,
                -0.2388650940551676,
                -0.27810806315673275,
                -0.14981806434511236
            ]
        },
        {
            "positions": [
                -1.0052704419301521,
                -1.4221097212695077,
                -0.61816290013467,
                -0.2053312564245518,
                -0.2238853717839553,
                -0.22724631758763825
            ]
        },
        {
            "positions": [
                -0.9149190459306258,
                -1.4182958979908782,
                -0.7526240420679535,
                -0.17179741879393606,
                -0.16966268041117794,
                -0.30467457083016414
            ]
        },
        {
            "positions": [
                -0.8245676499310997,
                -1.4144820747122486,
                -0.8870851840012364,
                -0.13826358116332038,
                -0.11543998903840058,
                -0.38210282407269003
            ]
        },
        {
            "positions": [
                -0.7342162539315735,
                -1.4106682514336193,
                -1.0215463259345197,
                -0.10472974353270459,
                -0.06121729766562323,
                -0.4595310773152159
            ]
        },
        {
            "positions": [
                -0.6438648579320472,
                -1.4068544281549897,
                -1.1560074678678034,
                -0.0711959059020888,
                -0.006994606292845651,
                -0.536959330557742
            ]
        },
        {
            "positions": [
                -0.553513461932521,
                -1.4030406048763602,
                -1.2904686098010862,
                -0.037662068271473115,
                0.04722808507993159,
                -0.6143875838002679
            ]
        },
        {
            "positions": [
                -0.4631620659329947,
                -1.3992267815977306,
                -1.42492975173437,
                -0.004128230640857211,
                0.10145077645270906,
                -0.691815837042794
            ]
        },
        {
            "positions": [
                -0.37281066993346856,
                -1.3954129583191013,
                -1.5593908936676533,
                0.02940560698975847,
                0.15567346782548652,
                -0.7692440902853199
            ]
        },
        {
            "positions": [
                -0.28245927393394243,
                -1.3915991350404717,
                -1.6938520356009361,
                0.06293944462037415,
                0.20989615919826377,
                -0.8466723435278458
            ]
        },
        {
            "positions": [
                -0.19210787793441586,
                -1.3877853117618422,
                -1.8283131775342198,
                0.09647328225098994,
                0.26411885057104145,
                -0.9241005967703719
            ]
        },
        {
            "positions": [
                -0.10175648193488973,
                -1.3839714884832128,
                -1.9627743194675031,
                0.13000711988160574,
                0.3183415419438187,
                -1.0015288500128978
            ]
        },
        {
            "positions": [
                -0.011405085935363601,
                -1.3801576652045833,
                -2.097235461400786,
                0.16354095751222142,
                0.37256423331659616,
                -1.0789571032554235
            ]
        },
        {
            "positions": [
                0.07894631006416253,
                -1.3763438419259537,
                -2.2316966033340697,
                0.1970747951428372,
                0.4267869246893736,
                -1.1563853564979498
            ]
        },
        {
            "positions": [
                0.16929770606368866,
                -1.3725300186473242,
                -2.366157745267353,
                0.2306086327734529,
                0.48100961606215087,
                -1.2338136097404757
            ]
        },
        {
            "positions": [
                0.25964910206321523,
                -1.3687161953686948,
                -2.5006188872006363,
                0.2641424704040688,
                0.5352323074349286,
                -1.3112418629830016
            ]
        },
        {
            "positions": [
                0.35000049806274136,
                -1.3649023720900653,
                -2.6350800291339196,
                0.2976763080346845,
                0.5894549988077058,
                -1.3886701162255277
            ]
        },
        {
            "positions": [
                0.3267348140496316,
                -1.3812904352492312,
                -2.6233078529255884,
                0.19033141068160436,
                0.5560711738106568,
                -1.1920734048524153
            ]
        },
        {
            "positions": [
                0.3034691300365218,
                -1.397678498408397,
                -2.6115356767172577,
                0.08298651332852422,
                0.5226873488136079,
                -0.995476693479303
            ]
        },
        {
            "positions": [
                0.2802034460234121,
                -1.414066561567563,
                -2.5997635005089266,
                -0.024358384024555924,
                0.4893035238165589,
                -0.7988799821061907
            ]
        },
        {
            "positions": [
                0.2569377620103023,
                -1.430454624726729,
                -2.587991324300596,
                -0.13170328137763604,
                0.4559196988195099,
                -0.6022832707330783
            ]
        },
        {
            "positions": [
                0.23367207799719253,
                -1.4468426878858949,
                -2.5762191480922647,
                -0.23904817873071615,
                0.42253587382246094,
                -0.405686559359966
            ]
        },
        {
            "positions": [
                0.21040639398408273,
                -1.4632307510450606,
                -2.564446971883934,
                -0.3463930760837963,
                0.389152048825412,
                -0.2090898479868537
            ]
        },
        {
            "positions": [
                0.18714070997097296,
                -1.4796188142042266,
                -2.552674795675603,
                -0.4537379734368765,
                0.35576822382836293,
                -0.012493136613741074
            ]
        },
        {
            "positions": [
                0.1638750259578632,
                -1.4960068773633926,
                -2.5409026194672717,
                -0.5610828707899566,
                0.32238439883131403,
                0.1841035747593711
            ]
        },
        {
            "positions": [
                0.1406093419447534,
                -1.5123949405225585,
                -2.529130443258941,
                -0.6684277681430367,
                0.28900057383426503,
                0.3807002861324835
            ]
        },
        {
            "positions": [
                0.11734365793164367,
                -1.5287830036817243,
                -2.51735826705061,
                -0.7757726654961168,
                0.2556167488372161,
                0.5772969975055957
            ]
        },
        {
            "positions": [
                0.0940779739185339,
                -1.5451710668408902,
                -2.505586090842279,
                -0.883117562849197,
                0.22223292384016707,
                0.7738937088787083
            ]
        },
        {
            "positions": [
                0.0708122899054241,
                -1.5615591300000562,
                -2.493813914633948,
                -0.9904624602022771,
                0.18884909884311812,
                0.9704904202518203
            ]
        },
        {
            "positions": [
                0.04754660589231435,
                -1.577947193159222,
                -2.4820417384256173,
                -1.097807357555357,
                0.15546527384606917,
                1.1670871316249327
            ]
        },
        {
            "positions": [
                0.024280921879204553,
                -1.594335256318388,
                -2.470269562217286,
                -1.2051522549084375,
                0.12208144884902011,
                1.3636838429980456
            ]
        },
        {
            "positions": [
                0.0010152378660948091,
                -1.6107233194775539,
                -2.458497386008955,
                -1.3124971522615174,
                0.08869762385197122,
                1.5602805543711575
            ]
        },
        {
            "positions": [
                -0.022250446147014935,
                -1.6271113826367198,
                -2.4467252098006242,
                -1.4198420496145976,
                0.05531379885492227,
                1.75687726574427
            ]
        },
        {
            "positions": [
                -0.045516130160124735,
                -1.6434994457958858,
                -2.434953033592293,
                -1.5271869469676778,
                0.02192997385787332,
                1.953473977117382
            ]
        },
        {
            "positions": [
                -0.06878181417323453,
                -1.6598875089550515,
                -2.4231808573839624,
                -1.634531844320758,
                -0.011453851139175741,
                2.1500706884904948
            ]
        },
        {
            "positions": [
                -0.09204749818634428,
                -1.6762755721142175,
                -2.4114086811756312,
                -1.7418767416738379,
                -0.04483767613622469,
                2.346667399863607
            ]
        },
        {
            "positions": [
                -0.11531318219945402,
                -1.6926636352733835,
                -2.3996365049673005,
                -1.849221639026918,
                -0.07822150113327364,
                2.543264111236719
            ]
        },
        {
            "positions": [
                -0.13857886621256382,
                -1.7090516984325492,
                -2.3878643287589694,
                -1.9565665363799982,
                -0.11160532613032259,
                2.7398608226098315
            ]
        },
        {
            "positions": [
                -0.16184455022567357,
                -1.7254397615917152,
                -2.3760921525506387,
                -2.0639114337330784,
                -0.14498915112737165,
                2.9364575339829444
            ]
        },
        {
            "positions": [
                -0.18511023423878342,
                -1.7418278247508812,
                -2.3643199763423075,
                -2.1712563310861586,
                -0.17837297612442057,
                3.1330542453560564
            ]
        }
    ]
}