{
    "goal": {
        "global_pose": {
            "orientation": {
                "w": 0.005598929693374612,
                "x": 0.007748599140229565,
                "y": 0.7110244013736278,
                "z": -0.7031023480610252
            },
            "position": {
                "x": -0.8858502320852131,
                "y": -0.7141253447532654,
                "z": 0.3711530566215515
            }
        },
        "name": "move_to_auspresseinheit_C"
    },
    "id": "BKPIECE_move_to_auspresseinheit_C_3",
    "joint_names": [
        "shoulder_pan_joint",
        "shoulder_lift_joint",
        "elbow_joint",
        "wrist_1_joint",
        "wrist_2_joint",
        "wrist_3_joint"
    ],
    "metrics": {
        "cart_traj_len": 0.49381220382422897,
        "distance_elbow_joint": 1.019325008546768,
        "distance_shoulder_lift_joint": 0.33411338853524597,
        "distance_shoulder_pan_joint": 0.2554512615938678,
        "distance_wrist_1_joint": 0.7159296890467555,
        "distance_wrist_2_joint": 1.3197969466831854,
        "distance_wrist_3_joint": 0.07867380364131726,
        "smoothness": 6.459479416000911e-16,
        "time": 0.494136647,
        "traj_len": 1.929582881880729,
        "weighted_distance": 2.432357774066084
    },
    "planner": "BKPIECE",
    "start": {
        "state": {
            "elbow_joint": 1.752795957773711,
            "shoulder_lift_joint": -0.9740617694225064,
            "shoulder_pan_joint": -2.967991417825858,
            "wrist_1_joint": -0.7595177689806859,
            "wrist_2_joint": 1.7443932448377395,
            "wrist_3_joint": 3.199131542505932
        }
    },
    "waypoints": [
        {
            "positions": [
                -2.967991417825858,
                -0.9740617694225064,
                1.752795957773711,
                -0.7595177689806859,
                1.7443932448377395,
                3.199131542505932
            ]
        },
        {
            "positions": [
                -2.9424462916664713,
                -0.9406504305689818,
                1.6508634569190344,
                -0.6879248000760103,
                1.612413550169421,
                3.1912641621418003
            ]
        },
        {
            "positions": [
                -2.9169011655070842,
                -0.9072390917154572,
                1.5489309560643574,
                -0.6163318311713348,
                1.4804338555011025,
                3.1833967817776685
            ]
        },
        {
            "positions": [
                -2.8913560393476976,
                -0.8738277528619327,
                1.4469984552096808,
                -0.5447388622666592,
                1.3484541608327838,
                3.175529401413537
            ]
        },
        {
            "positions": [
                -2.865810913188311,
                -0.840416414008408,
                1.3450659543550039,
                -0.4731458933619837,
                1.2164744661644653,
                3.1676620210494053
            ]
        },
        {
            "positions": [
                -2.8402657870289243,
                -0.8070050751548834,
                1.2431334535003271,
                -0.40155292445730817,
                1.0844947714961468,
                3.1597946406852735
            ]
        },
        {
            "positions": [
                -2.814720660869537,
                -0.7735937363013589,
                1.1412009526456504,
                -0.32995995555263263,
                0.9525150768278283,
                3.1519272603211417
            ]
        },
        {
            "positions": [
                -2.7891755347101506,
                -0.7401823974478343,
                1.0392684517909736,
                -0.2583669866479571,
                0.8205353821595098,
                3.14405987995701
            ]
        },
        {
            "positions": [
                -2.763630408550764,
                -0.7067710585943097,
                0.9373359509362966,
                -0.1867740177432815,
                0.6885556874911911,
                3.1361924995928785
            ]
        },
        {
            "positions": [
                -2.738085282391377,
                -0.673359719740785,
                0.8354034500816199,
                -0.11518104883860592,
                0.5565759928228726,
                3.1283251192287467
            ]
        },
        {
            "positions": [
                -2.71254015623199,
                -0.6399483808872605,
                0.7334709492269431,
                -0.043588079933930414,
                0.4245962981545542,
                3.120457738864615
            ]
        }
    ]
}