{
    "goal": {
        "global_pose": {
            "orientation": {
                "w": 0.7031023502349854,
                "x": -0.7110244035720825,
                "y": 0.007748599164187908,
                "z": 0.005598929710686207
            },
            "position": {
                "x": 0.11585023208521307,
                "y": 0.44412534475326537,
                "z": 0.3711530566215515
            }
        },
        "name": "move_to_auspresseinheit_A"
    },
    "id": "BKPIECE_move_to_auspresseinheit_A_85",
    "joint_names": [
        "shoulder_pan_joint",
        "shoulder_lift_joint",
        "elbow_joint",
        "wrist_1_joint",
        "wrist_2_joint",
        "wrist_3_joint"
    ],
    "metrics": {
        "cart_traj_len": 0.7206688105255656,
        "distance_elbow_joint": 0.31705968501085824,
        "distance_shoulder_lift_joint": 0.5326715026009261,
        "distance_shoulder_pan_joint": 1.0488323228784968,
        "distance_wrist_1_joint": 1.1413824890172677,
        "distance_wrist_2_joint": 0.512829663390429,
        "distance_wrist_3_joint": 1.390529343366242,
        "smoothness": 1.0594083082978099,
        "time": 0.238322796,
        "traj_len": 2.223354449084585,
        "weighted_distance": 3.062446055917459
    },
    "planner": "BKPIECE",
    "start": {
        "state": {
            "elbow_joint": 2.4225747245308327,
            "shoulder_lift_joint": -1.373653427065438,
            "shoulder_pan_joint": -0.33786330853087027,
            "wrist_1_joint": -1.0288602302712604,
            "wrist_2_joint": 1.23302299562683,
            "wrist_3_joint": -3.094021725338297
        }
    },
    "waypoints": [
        {
            "positions": [
                -0.33786330853087027,
                -1.373653427065438,
                2.4225747245308327,
                -1.0288602302712604,
                1.23302299562683,
                -3.094021725338297
            ]
        },
        {
            "positions": [
                -0.2728123210267113,
                -1.4300868966728038,
                2.400740244746559,
                -0.921787850272234,
                1.1868125746981866,
                -3.0098418328851397
            ]
        },
        {
            "positions": [
                -0.20776133352255238,
                -1.4865203662801698,
                2.378905764962285,
                -0.8147154702732076,
                1.1406021537695432,
                -2.925661940431982
            ]
        },
        {
            "positions": [
                -0.14271034601839344,
                -1.5429538358875357,
                2.357071285178011,
                -0.707643090274181,
                1.0943917328408999,
                -2.8414820479788245
            ]
        },
        {
            "positions": [
                -0.0776593585142345,
                -1.5993873054949015,
                2.335236805393737,
                -0.6005707102751546,
                1.0481813119122565,
                -2.757302155525667
            ]
        },
        {
            "positions": [
                -0.012608371010075559,
                -1.6558207751022676,
                2.3134023256094634,
                -0.4934983302761282,
                1.0019708909836131,
                -2.6731222630725093
            ]
        },
        {
            "positions": [
                0.05244261649408338,
                -1.7122542447096334,
                2.291567845825189,
                -0.3864259502771017,
                0.9557604700549697,
                -2.588942370619352
            ]
        },
        {
            "positions": [
                0.11749360399824232,
                -1.7686877143169992,
                2.2697333660409154,
                -0.2793535702780753,
                0.9095500491263263,
                -2.504762478166194
            ]
        },
        {
            "positions": [
                0.1825445915024012,
                -1.8251211839243653,
                2.2478988862566416,
                -0.1722811902790488,
                0.863339628197683,
                -2.4205825857130367
            ]
        },
        {
            "positions": [
                0.28822947607144633,
                -1.841361933072765,
                2.276375655603975,
                -0.2292418800840601,
                0.8347103690054265,
                -2.564000626461233
            ]
        },
        {
            "positions": [
                0.39391436064049146,
                -1.8576026822211649,
                2.3048524249513083,
                -0.2862025698890714,
                0.8060811098131702,
                -2.7074186672094296
            ]
        },
        {
            "positions": [
                0.4995992452095365,
                -1.8738434313695644,
                2.333329194298642,
                -0.3431632596940827,
                0.7774518506209137,
                -2.8508367079576256
            ]
        },
        {
            "positions": [
                0.6052841297785816,
                -1.8900841805179642,
                2.3618059636459754,
                -0.40012394949909397,
                0.7488225914286573,
                -2.994254748705822
            ]
        },
        {
            "positions": [
                0.7109690143476267,
                -1.906324929666364,
                2.3902827329933087,
                -0.45708463930410526,
                0.7201933322364009,
                -3.1376727894540184
            ]
        }
    ]
}