{
    "goal": {
        "global_pose": {
            "orientation": {
                "w": 0.7031023480610252,
                "x": -0.7110244013736278,
                "y": 0.0077485991402295624,
                "z": 0.005598929693374583
            },
            "position": {
                "x": -0.8841497679147869,
                "y": 0.44412534475326537,
                "z": 0.3711530566215515
            }
        },
        "name": "move_to_auspresseinheit_D"
    },
    "id": "BKPIECE_move_to_auspresseinheit_D_2",
    "joint_names": [
        "shoulder_pan_joint",
        "shoulder_lift_joint",
        "elbow_joint",
        "wrist_1_joint",
        "wrist_2_joint",
        "wrist_3_joint"
    ],
    "metrics": {
        "cart_traj_len": 3.842169124921537,
        "distance_elbow_joint": 3.1931392654597905,
        "distance_shoulder_lift_joint": 1.8098120625321081,
        "distance_shoulder_pan_joint": 2.7980375587753716,
        "distance_wrist_1_joint": 1.3273692112375426,
        "distance_wrist_2_joint": 0.8869601277386585,
        "distance_wrist_3_joint": 3.0633729852338494,
        "smoothness": 0.04214153817042787,
        "time": 0.31088128800000003,
        "traj_len": 3.6164473189827224,
        "weighted_distance": 4.628149362371662
    },
    "planner": "BKPIECE",
    "start": {
        "state": {
            "elbow_joint": 1.8268400409724999,
            "shoulder_lift_joint": -1.0144045787793008,
            "shoulder_pan_joint": 2.6280239544362485,
            "wrist_1_joint": -0.790705565816056,
            "wrist_2_joint": 1.0573557467365533,
            "wrist_3_joint": 3.1851377467193758
        }
    },
    "waypoints": [
        {
            "positions": [
                2.6280239544362485,
                -1.0144045787793008,
                1.8268400409724999,
                -0.790705565816056,
                1.0573557467365533,
                3.1851377467193758
            ]
        },
        {
            "positions": [
                2.615076786767598,
                -0.9970236224667596,
                1.7212261967201137,
                -0.7598554000890289,
                1.0387499806903553,
                3.004062734740183
            ]
        },
        {
            "positions": [
                2.602129619098948,
                -0.9796426661542184,
                1.6156123524677277,
                -0.7290052343620018,
                1.0201442146441575,
                2.8229877227609905
            ]
        },
        {
            "positions": [
                2.5891824514302972,
                -0.9622617098416771,
                1.5099985082153415,
                -0.6981550686349747,
                1.0015384485979597,
                2.641912710781798
            ]
        },
        {
            "positions": [
                2.576235283761647,
                -0.9448807535291359,
                1.4043846639629556,
                -0.6673049029079476,
                0.9829326825517617,
                2.4608376988026053
            ]
        },
        {
            "positions": [
                2.5632881160929966,
                -0.9274997972165946,
                1.2987708197105694,
                -0.6364547371809205,
                0.9643269165055638,
                2.2797626868234127
            ]
        },
        {
            "positions": [
                2.5503409484243464,
                -0.9101188409040535,
                1.1931569754581832,
                -0.6056045714538933,
                0.9457211504593659,
                2.09868767484422
            ]
        },
        {
            "positions": [
                2.537393780755696,
                -0.8927378845915122,
                1.087543131205797,
                -0.5747544057268663,
                0.927115384413168,
                1.9176126628650274
            ]
        },
        {
            "positions": [
                2.5244466130870453,
                -0.875356928278971,
                0.9819292869534111,
                -0.5439042399998393,
                0.9085096183669701,
                1.7365376508858348
            ]
        },
        {
            "positions": [
                2.511499445418395,
                -0.8579759719664297,
                0.8763154427010249,
                -0.5130540742728121,
                0.8899038523207722,
                1.5554626389066422
            ]
        },
        {
            "positions": [
                2.4985522777497446,
                -0.8405950156538885,
                0.7707015984486387,
                -0.482203908545785,
                0.8712980862745743,
                1.3743876269274495
            ]
        },
        {
            "positions": [
                2.4856051100810945,
                -0.8232140593413473,
                0.6650877541962528,
                -0.4513537428187579,
                0.8526923202283764,
                1.193312614948257
            ]
        },
        {
            "positions": [
                2.472657942412444,
                -0.8058331030288061,
                0.5594739099438667,
                -0.4205035770917308,
                0.8340865541821785,
                1.0122376029690643
            ]
        },
        {
            "positions": [
                2.352536508469191,
                -0.8786167660643339,
                0.4719387674697231,
                -0.37699597606840274,
                0.8039187844010747,
                0.9717615647198127
            ]
        },
        {
            "positions": [
                2.232415074525938,
                -0.9514004290998619,
                0.38440362499557945,
                -0.33348837504507467,
                0.7737510146199709,
                0.9312855264705611
            ]
        },
        {
            "positions": [
                2.112293640582685,
                -1.0241840921353897,
                0.2968684825214359,
                -0.2899807740217466,
                0.7435832448388671,
                0.8908094882213093
            ]
        },
        {
            "positions": [
                1.9921722066394318,
                -1.0969677551709176,
                0.20933334004729226,
                -0.24647317299841848,
                0.7134154750577633,
                0.8503334499720577
            ]
        },
        {
            "positions": [
                1.8720507726961788,
                -1.1697514182064455,
                0.12179819757314864,
                -0.2029655719750904,
                0.6832477052766595,
                0.8098574117228061
            ]
        },
        {
            "positions": [
                1.7519293387529258,
                -1.2425350812419733,
                0.03426305509900507,
                -0.15945797095176234,
                0.6530799354955557,
                0.7693813734735545
            ]
        },
        {
            "positions": [
                1.6318079048096727,
                -1.3153187442775012,
                -0.053272087375138555,
                -0.11595036992843427,
                0.6229121657144518,
                0.7289053352243029
            ]
        },
        {
            "positions": [
                1.5116864708664195,
                -1.388102407313029,
                -0.14080722984928218,
                -0.07244276890510615,
                0.592744395933348,
                0.6884292969750512
            ]
        },
        {
            "positions": [
                1.3915650369231665,
                -1.460886070348557,
                -0.2283423723234259,
                -0.02893516788177808,
                0.5625766261522442,
                0.6479532587257996
            ]
        },
        {
            "positions": [
                1.2714436029799134,
                -1.5336697333840847,
                -0.3158775147975694,
                0.01457243314154999,
                0.5324088563711404,
                0.607477220476548
            ]
        },
        {
            "positions": [
                1.1513221690366604,
                -1.6064533964196128,
                -0.40341265727171305,
                0.05808003416487806,
                0.5022410865900366,
                0.5670011822272962
            ]
        },
        {
            "positions": [
                1.0312007350934074,
                -1.6792370594551405,
                -0.49094779974585656,
                0.10158763518820613,
                0.4720733168089328,
                0.5265251439780447
            ]
        },
        {
            "positions": [
                0.9110793011501541,
                -1.7520207224906685,
                -0.5784829422200003,
                0.1450952362115342,
                0.4419055470278289,
                0.486049105728793
            ]
        },
        {
            "positions": [
                0.7909578672069013,
                -1.8248043855261962,
                -0.6660180846941438,
                0.18860283723486226,
                0.41173777724672517,
                0.4455730674795414
            ]
        },
        {
            "positions": [
                0.6708364332636483,
                -1.8975880485617242,
                -0.7535532271682873,
                0.23211043825819033,
                0.38157000746562136,
                0.4050970292302898
            ]
        },
        {
            "positions": [
                0.550714999320395,
                -1.9703717115972523,
                -0.841088369642431,
                0.2756180392815185,
                0.3514022376845175,
                0.36462099098103806
            ]
        },
        {
            "positions": [
                0.430593565377142,
                -2.04315537463278,
                -0.9286235121165748,
                0.31912564030484647,
                0.3212344679034137,
                0.32414495273178645
            ]
        },
        {
            "positions": [
                0.31047213143388896,
                -2.115939037668308,
                -1.0161586545907184,
                0.36263324132817465,
                0.2910666981223099,
                0.28366891448253484
            ]
        },
        {
            "positions": [
                0.19035069749063593,
                -2.1887227007038357,
                -1.103693797064862,
                0.4061408423515027,
                0.2608989283412061,
                0.24319287623328323
            ]
        },
        {
            "positions": [
                0.0702292635473829,
                -2.2615063637393638,
                -1.1912289395390054,
                0.4496484433748308,
                0.2307311585601023,
                0.20271683798403162
            ]
        },
        {
            "positions": [
                -0.04989217039587013,
                -2.3342900267748914,
                -1.2787640820131494,
                0.49315604439815885,
                0.20056338877899849,
                0.1622407997347799
            ]
        },
        {
            "positions": [
                -0.1700136043391232,
                -2.4070736898104195,
                -1.3662992244872927,
                0.5366636454214869,
                0.17039561899789468,
                0.12176476148552826
            ]
        }
    ]
}