{
    "goal": {
        "global_pose": {
            "orientation": {
                "w": 0.7031023480610252,
                "x": -0.7110244013736278,
                "y": 0.0077485991402295624,
                "z": 0.005598929693374583
            },
            "position": {
                "x": -0.8841497679147869,
                "y": 0.44412534475326537,
                "z": 0.3711530566215515
            }
        },
        "name": "move_to_auspresseinheit_D"
    },
    "id": "BKPIECE_move_to_auspresseinheit_D_19",
    "joint_names": [
        "shoulder_pan_joint",
        "shoulder_lift_joint",
        "elbow_joint",
        "wrist_1_joint",
        "wrist_2_joint",
        "wrist_3_joint"
    ],
    "metrics": {
        "cart_traj_len": 3.5863379448894026,
        "distance_elbow_joint": 3.2020401481278924,
        "distance_shoulder_lift_joint": 1.3875248174771229,
        "distance_shoulder_pan_joint": 2.7974121074544516,
        "distance_wrist_1_joint": 1.4311334134486513,
        "distance_wrist_2_joint": 0.8871352546155251,
        "distance_wrist_3_joint": 3.0398721544330436,
        "smoothness": 0.02219700365827348,
        "time": 0.559300374,
        "traj_len": 3.5700305174545335,
        "weighted_distance": 4.598166033592845
    },
    "planner": "BKPIECE",
    "start": {
        "state": {
            "elbow_joint": 1.8268400409724999,
            "shoulder_lift_joint": -1.0144045787793008,
            "shoulder_pan_joint": 2.6280239544362485,
            "wrist_1_joint": -0.790705565816056,
            "wrist_2_joint": 1.0573557467365533,
            "wrist_3_joint": 3.1851377467193758
        }
    },
    "waypoints": [
        {
            "positions": [
                2.6280239544362485,
                -1.0144045787793008,
                1.8268400409724999,
                -0.790705565816056,
                1.0573557467365533,
                3.1851377467193758
            ]
        },
        {
            "positions": [
                2.6155169229819095,
                -1.0585834505301213,
                1.7716990290717596,
                -0.7996312544450178,
                1.0173887060520588,
                2.976005001882019
            ]
        },
        {
            "positions": [
                2.603009891527571,
                -1.1027623222809417,
                1.7165580171710193,
                -0.8085569430739796,
                0.9774216653675641,
                2.7668722570446627
            ]
        },
        {
            "positions": [
                2.590502860073232,
                -1.1469411940317622,
                1.661417005270279,
                -0.8174826317029414,
                0.9374546246830695,
                2.5577395122073066
            ]
        },
        {
            "positions": [
                2.577995828618893,
                -1.1911200657825827,
                1.6062759933695387,
                -0.8264083203319031,
                0.897487583998575,
                2.34860676736995
            ]
        },
        {
            "positions": [
                2.565488797164554,
                -1.2352989375334034,
                1.5511349814687985,
                -0.835334008960865,
                0.8575205433140803,
                2.1394740225325934
            ]
        },
        {
            "positions": [
                2.5529817657102156,
                -1.2794778092842238,
                1.4959939695680582,
                -0.8442596975898268,
                0.8175535026295858,
                1.930341277695237
            ]
        },
        {
            "positions": [
                2.5404747342558767,
                -1.3236566810350443,
                1.440852957667318,
                -0.8531853862187886,
                0.7775864619450912,
                1.7212085328578803
            ]
        },
        {
            "positions": [
                2.436249238591489,
                -1.3651287085435588,
                1.332543224404906,
                -0.8005448634093302,
                0.7542262323364733,
                1.6605953428358977
            ]
        },
        {
            "positions": [
                2.332023742927101,
                -1.4066007360520736,
                1.224233491142494,
                -0.7479043405998718,
                0.7308660027278555,
                1.599982152813915
            ]
        },
        {
            "positions": [
                2.2277982472627134,
                -1.4480727635605881,
                1.115923757880082,
                -0.6952638177904134,
                0.7075057731192378,
                1.5393689627919325
            ]
        },
        {
            "positions": [
                2.123572751598326,
                -1.4895447910691026,
                1.0076140246176701,
                -0.6426232949809549,
                0.68414554351062,
                1.4787557727699498
            ]
        },
        {
            "positions": [
                2.0193472559339383,
                -1.5310168185776172,
                0.8993042913552581,
                -0.5899827721714965,
                0.6607853139020021,
                1.4181425827479672
            ]
        },
        {
            "positions": [
                1.9151217602695505,
                -1.572488846086132,
                0.7909945580928461,
                -0.5373422493620381,
                0.6374250842933843,
                1.3575293927259846
            ]
        },
        {
            "positions": [
                1.810896264605163,
                -1.6139608735946465,
                0.6826848248304342,
                -0.4847017265525797,
                0.6140648546847665,
                1.296916202704002
            ]
        },
        {
            "positions": [
                1.7066707689407752,
                -1.655432901103161,
                0.5743750915680222,
                -0.4320612037431213,
                0.5907046250761487,
                1.2363030126820194
            ]
        },
        {
            "positions": [
                1.6024452732763876,
                -1.6969049286116755,
                0.46606535830561036,
                -0.3794206809336629,
                0.5673443954675309,
                1.1756898226600367
            ]
        },
        {
            "positions": [
                1.4982197776119999,
                -1.7383769561201903,
                0.35775562504319836,
                -0.32678015812420447,
                0.5439841658589131,
                1.1150766326380541
            ]
        },
        {
            "positions": [
                1.393994281947612,
                -1.7798489836287048,
                0.24944589178078647,
                -0.27413963531474606,
                0.5206239362502952,
                1.0544634426160715
            ]
        },
        {
            "positions": [
                1.2897687862832243,
                -1.8213210111372193,
                0.14113615851837435,
                -0.22149911250528764,
                0.4972637066416774,
                0.993850252594089
            ]
        },
        {
            "positions": [
                1.1855432906188368,
                -1.862793038645734,
                0.032826425255962466,
                -0.16885858969582923,
                0.47390347703305963,
                0.9332370625721064
            ]
        },
        {
            "positions": [
                1.0813177949544492,
                -1.9042650661542484,
                -0.07548330800644942,
                -0.11621806688637082,
                0.45054324742444185,
                0.8726238725501237
            ]
        },
        {
            "positions": [
                0.9770922992900615,
                -1.9457370936627632,
                -0.1837930412688613,
                -0.06357754407691252,
                0.427183017815824,
                0.8120106825281412
            ]
        },
        {
            "positions": [
                0.8728668036256737,
                -1.987209121171278,
                -0.2921027745312734,
                -0.010937021267453995,
                0.4038227882072062,
                0.7513974925061585
            ]
        },
        {
            "positions": [
                0.7686413079612859,
                -2.028681148679792,
                -0.4004125077936853,
                0.04170350154200442,
                0.38046255859858835,
                0.690784302484176
            ]
        },
        {
            "positions": [
                0.6644158122968984,
                -2.070153176188307,
                -0.5087222410560972,
                0.09434402435146283,
                0.3571023289899706,
                0.6301711124621934
            ]
        },
        {
            "positions": [
                0.5601903166325108,
                -2.1116252036968213,
                -0.6170319743185093,
                0.14698454716092124,
                0.3337420993813528,
                0.5695579224402108
            ]
        },
        {
            "positions": [
                0.4559648209681231,
                -2.153097231205336,
                -0.7253417075809212,
                0.19962506997037965,
                0.3103818697727349,
                0.5089447324182279
            ]
        },
        {
            "positions": [
                0.3517393253037353,
                -2.194569258713851,
                -0.8336514408433331,
                0.25226559277983807,
                0.28702164016411713,
                0.4483315423962455
            ]
        },
        {
            "positions": [
                0.24751382963934754,
                -2.236041286222365,
                -0.941961174105745,
                0.3049061155892965,
                0.2636614105554993,
                0.3877183523742629
            ]
        },
        {
            "positions": [
                0.1432883339749602,
                -2.27751331373088,
                -1.0502709073681569,
                0.3575466383987549,
                0.24030118094688158,
                0.32710516235228027
            ]
        },
        {
            "positions": [
                0.039062838310572,
                -2.3189853412393946,
                -1.1585806406305692,
                0.4101871612082133,
                0.21694095133826363,
                0.26649197233029764
            ]
        },
        {
            "positions": [
                -0.06516265735381532,
                -2.360457368747909,
                -1.266890373892981,
                0.4628276840176717,
                0.1935807217296459,
                0.20587878230831502
            ]
        },
        {
            "positions": [
                -0.16938815301820317,
                -2.4019293962564237,
                -1.3752001071553932,
                0.51546820682713,
                0.17022049212102805,
                0.14526559228633248
            ]
        }
    ]
}