{
    "goal": {
        "global_pose": {
            "orientation": {
                "w": 0.5084816262002911,
                "x": -0.4908360881923452,
                "y": 0.5182115481033761,
                "z": -0.48164630358495003
            },
            "position": {
                "x": 0.5540239810943604,
                "y": -0.46912469901144505,
                "z": 0.16403168439865112
            }
        },
        "name": "move_to_storage_B"
    },
    "id": "BKPIECE_move_to_storage_B_53",
    "joint_names": [
        "shoulder_pan_joint",
        "shoulder_lift_joint",
        "elbow_joint",
        "wrist_1_joint",
        "wrist_2_joint",
        "wrist_3_joint"
    ],
    "metrics": {
        "cart_traj_len": 1.8084552309039266,
        "distance_elbow_joint": 1.1046647218601569,
        "distance_shoulder_lift_joint": 0.45883346957867377,
        "distance_shoulder_pan_joint": 1.843840012370787,
        "distance_wrist_1_joint": 2.9774383467000822,
        "distance_wrist_2_joint": 2.7183127172083568,
        "distance_wrist_3_joint": 3.1305673686563753,
        "smoothness": 0.1901064293109853,
        "time": 1.15505283,
        "traj_len": 3.4976644545145312,
        "weighted_distance": 4.918388195089487
    },
    "planner": "BKPIECE",
    "start": {
        "state": {
            "elbow_joint": 1.6649325706314817,
            "shoulder_lift_joint": -0.6616388048112454,
            "shoulder_pan_joint": -0.9139837860083814,
            "wrist_1_joint": 2.146757197745094,
            "wrist_2_joint": -2.234196043158733,
            "wrist_3_joint": 0.005471033829999897
        }
    },
    "waypoints": [
        {
            "positions": [
                -0.9139837860083814,
                -0.6616388048112454,
                1.6649325706314817,
                2.146757197745094,
                -2.234196043158733,
                0.005471033829999897
            ]
        },
        {
            "positions": [
                -0.8099572583596022,
                -0.7095804754592538,
                1.6176858582952853,
                2.0494946736582182,
                -2.1516440909094108,
                0.0071387836764872275
            ]
        },
        {
            "positions": [
                -0.7059307307108231,
                -0.7575221461072623,
                1.570439145959089,
                1.9522321495713426,
                -2.069092138660089,
                0.008806533522974558
            ]
        },
        {
            "positions": [
                -0.6019042030620441,
                -0.8054638167552707,
                1.5231924336228926,
                1.854969625484467,
                -1.986540186410767,
                0.010474283369461887
            ]
        },
        {
            "positions": [
                -0.4978776754132649,
                -0.8534054874032792,
                1.475945721286696,
                1.7577071013975911,
                -1.9039882341614451,
                0.012142033215949217
            ]
        },
        {
            "positions": [
                -0.3938511477644858,
                -0.9013471580512876,
                1.4286990089504996,
                1.6604445773107153,
                -1.8214362819121233,
                0.013809783062436548
            ]
        },
        {
            "positions": [
                -0.28982462011570664,
                -0.949288828699296,
                1.3814522966143032,
                1.5631820532238396,
                -1.7388843296628012,
                0.015477532908923878
            ]
        },
        {
            "positions": [
                -0.18579809246692747,
                -0.9972304993473045,
                1.3342055842781069,
                1.465919529136964,
                -1.6563323774134793,
                0.01714528275541121
            ]
        },
        {
            "positions": [
                -0.08177156481814846,
                -1.045172169995313,
                1.2869588719419105,
                1.3686570050500881,
                -1.5737804251641574,
                0.01881303260189854
            ]
        },
        {
            "positions": [
                -0.12392272278400485,
                -1.0483096743450881,
                1.3172376645740183,
                1.2770179152998766,
                -1.4880347126969165,
                0.14869742301375172
            ]
        },
        {
            "positions": [
                -0.16607388074986124,
                -1.0514471786948634,
                1.347516457206126,
                1.1853788255496651,
                -1.4022890002296757,
                0.2785818134256049
            ]
        },
        {
            "positions": [
                -0.20822503871571765,
                -1.0545846830446388,
                1.3777952498382338,
                1.0937397357994536,
                -1.3165432877624348,
                0.40846620383745813
            ]
        },
        {
            "positions": [
                -0.25037619668157407,
                -1.057722187394414,
                1.4080740424703415,
                1.002100646049242,
                -1.230797575295194,
                0.5383505942493112
            ]
        },
        {
            "positions": [
                -0.29252735464743046,
                -1.0608596917441893,
                1.4383528351024493,
                0.9104615562990305,
                -1.1450518628279531,
                0.6682349846611646
            ]
        },
        {
            "positions": [
                -0.33467851261328685,
                -1.0639971960939645,
                1.468631627734557,
                0.818822466548819,
                -1.0593061503607122,
                0.7981193750730178
            ]
        },
        {
            "positions": [
                -0.3768296705791433,
                -1.0671347004437397,
                1.4989104203666646,
                0.7271833767986073,
                -0.9735604378934712,
                0.928003765484871
            ]
        },
        {
            "positions": [
                -0.41898082854499963,
                -1.070272204793515,
                1.5291892129987723,
                0.6355442870483959,
                -0.8878147254262305,
                1.057888155896724
            ]
        },
        {
            "positions": [
                -0.461131986510856,
                -1.0734097091432901,
                1.55946800563088,
                0.5439051972981843,
                -0.8020690129589896,
                1.1877725463085773
            ]
        },
        {
            "positions": [
                -0.5032831444767125,
                -1.0765472134930656,
                1.5897467982629878,
                0.4522661075479728,
                -0.7163233004917486,
                1.3176569367204305
            ]
        },
        {
            "positions": [
                -0.5454343024425687,
                -1.0796847178428408,
                1.6200255908950956,
                0.3606270177977613,
                -0.6305775880245079,
                1.4475413271322837
            ]
        },
        {
            "positions": [
                -0.5875854604084252,
                -1.082822222192616,
                1.6503043835272033,
                0.2689879280475498,
                -0.544831875557267,
                1.5774257175441369
            ]
        },
        {
            "positions": [
                -0.6297366183742816,
                -1.0859597265423913,
                1.680583176159311,
                0.17734883829733827,
                -0.45908616309002626,
                1.70731010795599
            ]
        },
        {
            "positions": [
                -0.6718877763401381,
                -1.0890972308921665,
                1.7108619687914188,
                0.08570974854712654,
                -0.3733404506227851,
                1.8371944983678434
            ]
        },
        {
            "positions": [
                -0.7140389343059945,
                -1.092234735241942,
                1.7411407614235266,
                -0.005929341203084748,
                -0.28759473815554437,
                1.9670788887796964
            ]
        },
        {
            "positions": [
                -0.7561900922718507,
                -1.0953722395917171,
                1.7714195540556341,
                -0.09756843095329626,
                -0.20184902568830365,
                2.0969632791915496
            ]
        },
        {
            "positions": [
                -0.7983412502377072,
                -1.0985097439414924,
                1.801698346687742,
                -0.189207520703508,
                -0.11610331322106249,
                2.226847669603403
            ]
        },
        {
            "positions": [
                -0.8404924082035636,
                -1.1016472482912676,
                1.8319771393198496,
                -0.2808466104537195,
                -0.030357600753821767,
                2.3567320600152564
            ]
        },
        {
            "positions": [
                -0.8826435661694201,
                -1.1047847526410428,
                1.8622559319519576,
                -0.3724857002039308,
                0.05538811171341895,
                2.4866164504271095
            ]
        },
        {
            "positions": [
                -0.9247947241352765,
                -1.107922256990818,
                1.8925347245840651,
                -0.4641247899541425,
                0.14113382418066012,
                2.6165008408389627
            ]
        },
        {
            "positions": [
                -0.9669458821011327,
                -1.1110597613405933,
                1.9228135172161729,
                -0.555763879704354,
                0.22687953664790084,
                2.746385231250816
            ]
        },
        {
            "positions": [
                -1.0090970400669892,
                -1.1141972656903687,
                1.9530923098482806,
                -0.6474029694545655,
                0.31262524911514156,
                2.876269621662669
            ]
        },
        {
            "positions": [
                -1.0512481980328456,
                -1.117334770040144,
                1.9833711024803884,
                -0.7390420592047771,
                0.3983709615823827,
                3.0061540120745223
            ]
        },
        {
            "positions": [
                -1.093399355998702,
                -1.1204722743899191,
                2.013649895112496,
                -0.8306811489549887,
                0.4841166740496236,
                3.1360384024863754
            ]
        }
    ]
}