{
    "goal": {
        "global_pose": {
            "orientation": {
                "w": -0.4816463035849501,
                "x": 0.5182115481033762,
                "y": 0.4908360881923453,
                "z": -0.5084816262002911
            },
            "position": {
                "x": -0.8240239810943604,
                "y": -0.300875300988555,
                "z": 0.16403168439865112
            }
        },
        "name": "move_to_storage_C"
    },
    "id": "BKPIECE_move_to_storage_C_27",
    "joint_names": [
        "shoulder_pan_joint",
        "shoulder_lift_joint",
        "elbow_joint",
        "wrist_1_joint",
        "wrist_2_joint",
        "wrist_3_joint"
    ],
    "metrics": {
        "cart_traj_len": 0.577097436229465,
        "distance_elbow_joint": 0.261718550507118,
        "distance_shoulder_lift_joint": 0.19064689106573818,
        "distance_shoulder_pan_joint": 0.4952228596728707,
        "distance_wrist_1_joint": 0.08743041563546228,
        "distance_wrist_2_joint": 1.0617228744462284,
        "distance_wrist_3_joint": 0.06053616287947117,
        "smoothness": 5.075305295617109e-16,
        "time": 0.736211476,
        "traj_len": 1.4687674268606614,
        "weighted_distance": 1.8513517683162002
    },
    "planner": "BKPIECE",
    "start": {
        "state": {
            "elbow_joint": 2.010868315001653,
            "shoulder_lift_joint": -1.1634956873357014,
            "shoulder_pan_joint": -2.4736205022346103,
            "wrist_1_joint": -0.8367026794713948,
            "wrist_2_joint": 0.6746043897044093,
            "wrist_3_joint": 3.1335220948105738
        }
    },
    "waypoints": [
        {
            "positions": [
                -2.4736205022346103,
                -1.1634956873357014,
                2.010868315001653,
                -0.8367026794713948,
                0.6746043897044093,
                3.1335220948105738
            ]
        },
        {
            "positions": [
                -2.556157645513422,
                -1.1317212054914116,
                1.9672485565838,
                -0.8221309435321511,
                0.851558202112114,
                3.1436114552904857
            ]
        },
        {
            "positions": [
                -2.638694788792234,
                -1.099946723647122,
                1.923628798165947,
                -0.8075592075929073,
                1.0285120145198188,
                3.1537008157703976
            ]
        },
        {
            "positions": [
                -2.7212319320710456,
                -1.0681722418028323,
                1.880009039748094,
                -0.7929874716536636,
                1.2054658269275236,
                3.163790176250309
            ]
        },
        {
            "positions": [
                -2.8037690753498574,
                -1.0363977599585426,
                1.8363892813302412,
                -0.7784157357144199,
                1.3824196393352282,
                3.173879536730221
            ]
        },
        {
            "positions": [
                -2.886306218628669,
                -1.004623278114253,
                1.7927695229123881,
                -0.7638439997751763,
                1.559373451742933,
                3.183968897210133
            ]
        },
        {
            "positions": [
                -2.968843361907481,
                -0.9728487962699632,
                1.749149764494535,
                -0.7492722638359325,
                1.7363272641506375,
                3.194058257690045
            ]
        }
    ]
}