{
    "goal": {
        "global_pose": {
            "orientation": {
                "w": 0.005598929693374612,
                "x": 0.007748599140229565,
                "y": 0.7110244013736278,
                "z": -0.7031023480610252
            },
            "position": {
                "x": 0.1141497679147869,
                "y": -0.7141253447532654,
                "z": 0.3711530566215515
            }
        },
        "name": "move_to_auspresseinheit_B"
    },
    "id": "BKPIECE_move_to_auspresseinheit_B_33",
    "joint_names": [
        "shoulder_pan_joint",
        "shoulder_lift_joint",
        "elbow_joint",
        "wrist_1_joint",
        "wrist_2_joint",
        "wrist_3_joint"
    ],
    "metrics": {
        "cart_traj_len": 0.5644436004879366,
        "distance_elbow_joint": 0.05891470301448898,
        "distance_shoulder_lift_joint": 0.29679743723568675,
        "distance_shoulder_pan_joint": 0.5782463505017543,
        "distance_wrist_1_joint": 0.31882297319716246,
        "distance_wrist_2_joint": 0.989038569196997,
        "distance_wrist_3_joint": 0.004331946759599248,
        "smoothness": 5.075305255429287e-16,
        "time": 1.021836632,
        "traj_len": 1.4987167777487809,
        "weighted_distance": 1.887505606831155
    },
    "planner": "BKPIECE",
    "start": {
        "state": {
            "elbow_joint": 2.019306165916698,
            "shoulder_lift_joint": -1.1220205098164344,
            "shoulder_pan_joint": -1.095207207618794,
            "wrist_1_joint": -0.8559671824921639,
            "wrist_2_joint": 0.47596387242952726,
            "wrist_3_joint": 3.159081874673826
        }
    },
    "waypoints": [
        {
            "positions": [
                -1.095207207618794,
                -1.1220205098164344,
                2.019306165916698,
                -0.8559671824921639,
                0.47596387242952726,
                3.159081874673826
            ]
        },
        {
            "positions": [
                -1.1915815993690864,
                -1.1714867493557155,
                2.0094870487476166,
                -0.8028300202926368,
                0.6408036339623601,
                3.158359883547226
            ]
        },
        {
            "positions": [
                -1.2879559911193788,
                -1.2209529888949966,
                1.999667931578535,
                -0.7496928580931097,
                0.8056433954951929,
                3.157637892420626
            ]
        },
        {
            "positions": [
                -1.3843303828696711,
                -1.2704192284342777,
                1.9898488144094535,
                -0.6965556958935826,
                0.9704831570280257,
                3.156915901294026
            ]
        },
        {
            "positions": [
                -1.4807047746199635,
                -1.319885467973559,
                1.980029697240372,
                -0.6434185336940555,
                1.1353229185608584,
                3.1561939101674263
            ]
        },
        {
            "positions": [
                -1.577079166370256,
                -1.36935170751284,
                1.9702105800712906,
                -0.5902813714945285,
                1.3001626800936914,
                3.1554719190408265
            ]
        },
        {
            "positions": [
                -1.6734535581205483,
                -1.4188179470521212,
                1.960391462902209,
                -0.5371442092950014,
                1.4650024416265242,
                3.1547499279142266
            ]
        }
    ]
}