{
    "goal": {
        "global_pose": {
            "orientation": {
                "w": 0.5084816262002911,
                "x": -0.4908360881923452,
                "y": 0.5182115481033761,
                "z": -0.48164630358495003
            },
            "position": {
                "x": 0.5540239810943604,
                "y": -0.46912469901144505,
                "z": 0.16403168439865112
            }
        },
        "name": "move_to_storage_B"
    },
    "id": "BKPIECE_move_to_storage_B_66",
    "joint_names": [
        "shoulder_pan_joint",
        "shoulder_lift_joint",
        "elbow_joint",
        "wrist_1_joint",
        "wrist_2_joint",
        "wrist_3_joint"
    ],
    "metrics": {
        "cart_traj_len": 1.045084457645087,
        "distance_elbow_joint": 1.3111478294436456,
        "distance_shoulder_lift_joint": 0.4598789234305105,
        "distance_shoulder_pan_joint": 0.9473812139271428,
        "distance_wrist_1_joint": 2.988740318076049,
        "distance_wrist_2_joint": 2.708047921630588,
        "distance_wrist_3_joint": 3.1311233902504183,
        "smoothness": 0.15695785051963626,
        "time": 0.688967355,
        "traj_len": 3.3979875804302693,
        "weighted_distance": 4.8482321125298675
    },
    "planner": "BKPIECE",
    "start": {
        "state": {
            "elbow_joint": 1.6649325706314817,
            "shoulder_lift_joint": -0.6616388048112454,
            "shoulder_pan_joint": -0.9139837860083814,
            "wrist_1_joint": 2.146757197745094,
            "wrist_2_joint": -2.234196043158733,
            "wrist_3_joint": 0.005471033829999897
        }
    },
    "waypoints": [
        {
            "positions": [
                -0.9139837860083814,
                -0.6616388048112454,
                1.6649325706314817,
                2.146757197745094,
                -2.234196043158733,
                0.005471033829999897
            ]
        },
        {
            "positions": [
                -0.8962891247582969,
                -0.6618417271506383,
                1.6472911568260868,
                2.1453876890081456,
                -2.226556033326312,
                0.0053065783000123806
            ]
        },
        {
            "positions": [
                -0.835420625984422,
                -0.6736864865016765,
                1.570231664400795,
                2.0443348353665676,
                -2.157162757139901,
                -0.04990956158816233
            ]
        },
        {
            "positions": [
                -0.7745521272105471,
                -0.6855312458527147,
                1.493172171975503,
                1.9432819817249893,
                -2.08776948095349,
                -0.10512570147633704
            ]
        },
        {
            "positions": [
                -0.7136836284366722,
                -0.697376005203753,
                1.4161126795502108,
                1.8422291280834113,
                -2.018376204767079,
                -0.16034184136451177
            ]
        },
        {
            "positions": [
                -0.6528151296627973,
                -0.7092207645547912,
                1.339053187124919,
                1.7411762744418333,
                -1.9489829285806681,
                -0.21555798125268646
            ]
        },
        {
            "positions": [
                -0.5919466308889224,
                -0.7210655239058295,
                1.261993694699627,
                1.640123420800255,
                -1.879589652394257,
                -0.27077412114086125
            ]
        },
        {
            "positions": [
                -0.5310781321150475,
                -0.7329102832568677,
                1.184934202274335,
                1.539070567158677,
                -1.8101963762078461,
                -0.32599026102903594
            ]
        },
        {
            "positions": [
                -0.5545979471164562,
                -0.749102260131238,
                1.2195654298196057,
                1.439859996846609,
                -1.7150276989295252,
                -0.4426428483370102
            ]
        },
        {
            "positions": [
                -0.5781177621178649,
                -0.7652942370056084,
                1.2541966573648766,
                1.340649426534541,
                -1.6198590216512043,
                -0.5592954356449844
            ]
        },
        {
            "positions": [
                -0.6016375771192737,
                -0.7814862138799787,
                1.2888278849101473,
                1.241438856222473,
                -1.5246903443728834,
                -0.6759480229529587
            ]
        },
        {
            "positions": [
                -0.6251573921206823,
                -0.7976781907543491,
                1.323459112455418,
                1.1422282859104052,
                -1.4295216670945625,
                -0.792600610260933
            ]
        },
        {
            "positions": [
                -0.648677207122091,
                -0.8138701676287194,
                1.358090340000689,
                1.0430177155983371,
                -1.3343529898162416,
                -0.9092531975689073
            ]
        },
        {
            "positions": [
                -0.6721970221234997,
                -0.8300621445030898,
                1.3927215675459597,
                0.9438071452862691,
                -1.2391843125379207,
                -1.0259057848768816
            ]
        },
        {
            "positions": [
                -0.6957168371249085,
                -0.8462541213774601,
                1.4273527950912306,
                0.844596574974201,
                -1.1440156352596,
                -1.142558372184856
            ]
        },
        {
            "positions": [
                -0.7192366521263172,
                -0.8624460982518304,
                1.4619840226365013,
                0.7453860046621331,
                -1.0488469579812791,
                -1.25921095949283
            ]
        },
        {
            "positions": [
                -0.7427564671277258,
                -0.8786380751262007,
                1.496615250181772,
                0.6461754343500651,
                -0.9536782807029582,
                -1.3758635468008042
            ]
        },
        {
            "positions": [
                -0.7662762821291346,
                -0.8948300520005711,
                1.531246477727043,
                0.546964864037997,
                -0.8585096034246372,
                -1.4925161341087787
            ]
        },
        {
            "positions": [
                -0.7897960971305433,
                -0.9110220288749414,
                1.5658777052723136,
                0.4477542937259291,
                -0.7633409261463164,
                -1.609168721416753
            ]
        },
        {
            "positions": [
                -0.813315912131952,
                -0.9272140057493118,
                1.6005089328175846,
                0.3485437234138611,
                -0.6681722488679955,
                -1.7258213087247272
            ]
        },
        {
            "positions": [
                -0.8368357271333606,
                -0.9434059826236821,
                1.6351401603628553,
                0.24933315310179327,
                -0.5730035715896746,
                -1.8424738960327014
            ]
        },
        {
            "positions": [
                -0.8603555421347694,
                -0.9595979594980525,
                1.669771387908126,
                0.150122582789725,
                -0.47783489431135373,
                -1.9591264833406759
            ]
        },
        {
            "positions": [
                -0.8838753571361782,
                -0.9757899363724228,
                1.7044026154533967,
                0.050912012477656976,
                -0.38266621703303283,
                -2.0757790706486503
            ]
        },
        {
            "positions": [
                -0.9073951721375868,
                -0.9919819132467931,
                1.7390338429986676,
                -0.04829855783441084,
                -0.28749753975471215,
                -2.1924316579566243
            ]
        },
        {
            "positions": [
                -0.9309149871389955,
                -1.0081738901211634,
                1.7736650705439385,
                -0.1475091281464791,
                -0.19232886247639103,
                -2.3090842452645983
            ]
        },
        {
            "positions": [
                -0.9544348021404042,
                -1.0243658669955338,
                1.8082962980892092,
                -0.2467196984585469,
                -0.09716018519807035,
                -2.4257368325725723
            ]
        },
        {
            "positions": [
                -0.977954617141813,
                -1.0405578438699041,
                1.84292752563448,
                -0.3459302687706147,
                -0.0019915079197494467,
                -2.5423894198805472
            ]
        },
        {
            "positions": [
                -1.0014744321432216,
                -1.0567498207442745,
                1.8775587531797506,
                -0.445140839082683,
                0.09317716935857168,
                -2.6590420071885212
            ]
        },
        {
            "positions": [
                -1.0249942471446303,
                -1.0729417976186448,
                1.9121899807250216,
                -0.5443514093947508,
                0.18834584663689236,
                -2.7756945944964952
            ]
        },
        {
            "positions": [
                -1.048514062146039,
                -1.0891337744930152,
                1.9468212082702923,
                -0.6435619797068188,
                0.28351452391521326,
                -2.89234718180447
            ]
        },
        {
            "positions": [
                -1.0720338771474478,
                -1.1053257513673855,
                1.9814524358155632,
                -0.7427725500188869,
                0.3786832011935344,
                -3.008999769112444
            ]
        },
        {
            "positions": [
                -1.0955536921488565,
                -1.1215177282417559,
                2.016083663360834,
                -0.841983120330955,
                0.4738518784718549,
                -3.125652356420418
            ]
        }
    ]
}