{
    "goal": {
        "global_pose": {
            "orientation": {
                "w": 0.7047431468963623,
                "x": -0.7094548344612122,
                "y": 0.0024358443915843964,
                "z": -0.0022348060738295317
            },
            "position": {
                "x": 0.6094750761985779,
                "y": 0.3671506643295288,
                "z": 0.19426114857196808
            }
        },
        "name": "move_to_magneteinheit_A"
    },
    "id": "BKPIECE_move_to_magneteinheit_A_53",
    "joint_names": [
        "shoulder_pan_joint",
        "shoulder_lift_joint",
        "elbow_joint",
        "wrist_1_joint",
        "wrist_2_joint",
        "wrist_3_joint"
    ],
    "metrics": {
        "cart_traj_len": 1.0535016468097922,
        "distance_elbow_joint": 0.3841109955495676,
        "distance_shoulder_lift_joint": 0.36644346878528555,
        "distance_shoulder_pan_joint": 1.240891465807828,
        "distance_wrist_1_joint": 2.2075009786766304,
        "distance_wrist_2_joint": 1.7034628478356706,
        "distance_wrist_3_joint": 1.2228090540196224,
        "smoothness": 2.3373116361120943e-16,
        "time": 0.299272409,
        "traj_len": 2.6693105496878036,
        "weighted_distance": 3.6717571740552435
    },
    "planner": "BKPIECE",
    "start": {
        "state": {
            "elbow_joint": 1.5739458966750683,
            "shoulder_lift_joint": -1.4977259741207325,
            "shoulder_pan_joint": -1.1188672016454206,
            "wrist_1_joint": 1.494575848278785,
            "wrist_2_joint": -1.5706037134824402,
            "wrist_3_joint": -2.0226957942261072
        }
    },
    "waypoints": [
        {
            "positions": [
                -1.1188672016454206,
                -1.4977259741207325,
                1.5739458966750683,
                1.494575848278785,
                -1.5706037134824402,
                -2.0226957942261072
            ]
        },
        {
            "positions": [
                -1.0499287868783191,
                -1.477368003632661,
                1.5952853964278222,
                1.3719369050189723,
                -1.4759668886026807,
                -2.0906296305605307
            ]
        },
        {
            "positions": [
                -0.9809903721112175,
                -1.4570100331445897,
                1.6166248961805758,
                1.2492979617591593,
                -1.3813300637229213,
                -2.1585634668949543
            ]
        },
        {
            "positions": [
                -0.9120519573441159,
                -1.4366520626565182,
                1.6379643959333297,
                1.1266590184993466,
                -1.2866932388431618,
                -2.2264973032293778
            ]
        },
        {
            "positions": [
                -0.8431135425770144,
                -1.4162940921684468,
                1.6593038956860833,
                1.0040200752395338,
                -1.1920564139634022,
                -2.294431139563801
            ]
        },
        {
            "positions": [
                -0.7741751278099128,
                -1.3959361216803754,
                1.6806433954388371,
                0.8813811319797209,
                -1.0974195890836427,
                -2.362364975898225
            ]
        },
        {
            "positions": [
                -0.7052367130428113,
                -1.375578151192304,
                1.701982895191591,
                0.7587421887199082,
                -1.0027827642038833,
                -2.430298812232648
            ]
        },
        {
            "positions": [
                -0.6362982982757097,
                -1.3552201807042326,
                1.7233223949443446,
                0.6361032454600953,
                -0.9081459393241239,
                -2.4982326485670714
            ]
        },
        {
            "positions": [
                -0.5673598835086082,
                -1.3348622102161611,
                1.7446618946970984,
                0.5134643022002826,
                -0.8135091144443645,
                -2.566166484901495
            ]
        },
        {
            "positions": [
                -0.4984214687415066,
                -1.3145042397280897,
                1.766001394449852,
                0.39082535894046977,
                -0.7188722895646049,
                -2.6341003212359184
            ]
        },
        {
            "positions": [
                -0.429483053974405,
                -1.2941462692400183,
                1.787340894202606,
                0.2681864156806568,
                -0.6242354646848454,
                -2.702034157570342
            ]
        },
        {
            "positions": [
                -0.3605446392073034,
                -1.2737882987519469,
                1.8086803939553597,
                0.1455474724208441,
                -0.5295986398050858,
                -2.7699679939047654
            ]
        },
        {
            "positions": [
                -0.291606224440202,
                -1.2534303282638755,
                1.8300198937081134,
                0.022908529161031366,
                -0.4349618149253265,
                -2.837901830239189
            ]
        },
        {
            "positions": [
                -0.2226678096731004,
                -1.233072357775804,
                1.8513593934608672,
                -0.09973041409878136,
                -0.34032499004556693,
                -2.905835666573612
            ]
        },
        {
            "positions": [
                -0.1537293949059988,
                -1.2127143872877326,
                1.872698893213621,
                -0.2223693573585943,
                -0.2456881651658076,
                -2.973769502908036
            ]
        },
        {
            "positions": [
                -0.0847909801388973,
                -1.1923564167996612,
                1.8940383929663747,
                -0.34500830061840704,
                -0.15105134028604805,
                -3.041703339242459
            ]
        },
        {
            "positions": [
                -0.0158525653717958,
                -1.1719984463115898,
                1.9153778927191285,
                -0.46764724387821976,
                -0.05641451540628872,
                -3.1096371755768826
            ]
        },
        {
            "positions": [
                0.05308584939530592,
                -1.1516404758235184,
                1.9367173924718821,
                -0.5902861871380327,
                0.03822230947347083,
                -3.177571011911306
            ]
        },
        {
            "positions": [
                0.12202426416240736,
                -1.131282505335447,
                1.958056892224636,
                -0.7129251303978453,
                0.13285913435323038,
                -3.2455048482457296
            ]
        }
    ]
}