{
    "goal": {
        "global_pose": {
            "orientation": {
                "w": 0.005598929693374612,
                "x": 0.007748599140229565,
                "y": 0.7110244013736278,
                "z": -0.7031023480610252
            },
            "position": {
                "x": -0.8858502320852131,
                "y": -0.7141253447532654,
                "z": 0.3711530566215515
            }
        },
        "name": "move_to_auspresseinheit_C"
    },
    "id": "BKPIECE_move_to_auspresseinheit_C_24",
    "joint_names": [
        "shoulder_pan_joint",
        "shoulder_lift_joint",
        "elbow_joint",
        "wrist_1_joint",
        "wrist_2_joint",
        "wrist_3_joint"
    ],
    "metrics": {
        "cart_traj_len": 0.4946175774111288,
        "distance_elbow_joint": 1.0208830462661764,
        "distance_shoulder_lift_joint": 0.3348012636668829,
        "distance_shoulder_pan_joint": 0.25588312919411926,
        "distance_wrist_1_joint": 0.7138272897127952,
        "distance_wrist_2_joint": 1.320847260455059,
        "distance_wrist_3_joint": 0.07401143648624275,
        "smoothness": 9.689219124001365e-16,
        "time": 0.8104784009999999,
        "traj_len": 1.9287958486530594,
        "weighted_distance": 2.429598907005355
    },
    "planner": "BKPIECE",
    "start": {
        "state": {
            "elbow_joint": 1.752795957773711,
            "shoulder_lift_joint": -0.9740617694225064,
            "shoulder_pan_joint": -2.967991417825858,
            "wrist_1_joint": -0.7595177689806859,
            "wrist_2_joint": 1.7443932448377395,
            "wrist_3_joint": 3.199131542505932
        }
    },
    "waypoints": [
        {
            "positions": [
                -2.967991417825858,
                -0.9740617694225064,
                1.752795957773711,
                -0.7595177689806859,
                1.7443932448377395,
                3.199131542505932
            ]
        },
        {
            "positions": [
                -2.942403104906446,
                -0.9405816430558182,
                1.6507076531470934,
                -0.6881350400094064,
                1.6123085187922337,
                3.191730398857308
            ]
        },
        {
            "positions": [
                -2.916814791987034,
                -0.9071015166891299,
                1.5486193485204758,
                -0.6167523110381269,
                1.4802237927467277,
                3.1843292552086835
            ]
        },
        {
            "positions": [
                -2.891226479067622,
                -0.8736213903224416,
                1.4465310438938581,
                -0.5453695820668474,
                1.3481390667012219,
                3.176928111560059
            ]
        },
        {
            "positions": [
                -2.8656381661482104,
                -0.8401412639557533,
                1.3444427392672404,
                -0.4739868530955678,
                1.2160543406557158,
                3.169526967911435
            ]
        },
        {
            "positions": [
                -2.8400498532287983,
                -0.806661137589065,
                1.2423544346406228,
                -0.4026041241242883,
                1.08396961461021,
                3.1621258242628105
            ]
        },
        {
            "positions": [
                -2.8144615403093862,
                -0.7731810112223767,
                1.1402661300140053,
                -0.3312213951530088,
                0.9518848885647041,
                3.1547246806141866
            ]
        },
        {
            "positions": [
                -2.7888732273899746,
                -0.7397008848556884,
                1.0381778253873877,
                -0.2598386661817293,
                0.8198001625191983,
                3.1473235369655623
            ]
        },
        {
            "positions": [
                -2.7632849144705625,
                -0.7062207584890001,
                0.9360895207607699,
                -0.18845593721044973,
                0.6877154364736924,
                3.139922393316938
            ]
        },
        {
            "positions": [
                -2.737696601551151,
                -0.6727406321223118,
                0.8340012161341523,
                -0.11707320823917022,
                0.5556307104281863,
                3.1325212496683137
            ]
        },
        {
            "positions": [
                -2.7121082886317387,
                -0.6392605057556235,
                0.7319129115075347,
                -0.045690479267890695,
                0.42354598438268054,
                3.1251201060196894
            ]
        }
    ]
}