{
    "goal": {
        "global_pose": {
            "orientation": {
                "w": 0.5084816217422485,
                "x": -0.49083608388900757,
                "y": 0.5182115435600281,
                "z": -0.4816462993621826
            },
            "position": {
                "x": 0.5540239810943604,
                "y": 0.030875300988554955,
                "z": 0.16403168439865112
            }
        },
        "name": "move_to_storage_A"
    },
    "id": "BKPIECE_move_to_storage_A_101",
    "joint_names": [
        "shoulder_pan_joint",
        "shoulder_lift_joint",
        "elbow_joint",
        "wrist_1_joint",
        "wrist_2_joint",
        "wrist_3_joint"
    ],
    "metrics": {
        "cart_traj_len": 0.3531093583648626,
        "distance_elbow_joint": 0.44984579949846104,
        "distance_shoulder_lift_joint": 0.23732422255980778,
        "distance_shoulder_pan_joint": 0.46310614967251906,
        "distance_wrist_1_joint": 0.23590637205195464,
        "distance_wrist_2_joint": 1.094597127229754,
        "distance_wrist_3_joint": 0.09427223968964027,
        "smoothness": 4.440892098500626e-16,
        "time": 0.622945603,
        "traj_len": 1.6046968282831922,
        "weighted_distance": 2.023388220130563
    },
    "planner": "BKPIECE",
    "start": {
        "state": {
            "elbow_joint": 1.9715474177455299,
            "shoulder_lift_joint": -1.139484666580328,
            "shoulder_pan_joint": 0.12281154398918248,
            "wrist_1_joint": -0.7804687475355282,
            "wrist_2_joint": 0.12958649657246987,
            "wrist_3_joint": -3.1924925159053466
        }
    },
    "waypoints": [
        {
            "positions": [
                0.12281154398918248,
                -1.139484666580328,
                1.9715474177455299,
                -0.7804687475355282,
                0.12958649657246987,
                -3.1924925159053466
            ]
        },
        {
            "positions": [
                0.05665352260739405,
                -1.173388126946015,
                2.035811103388167,
                -0.8141696578286646,
                0.285957514748149,
                -3.179025053092541
            ]
        },
        {
            "positions": [
                -0.009504498774394382,
                -1.2072915873117016,
                2.1000747890308045,
                -0.847870568121801,
                0.4423285329238281,
                -3.165557590279735
            ]
        },
        {
            "positions": [
                -0.07566252015618283,
                -1.2411950476773885,
                2.1643384746734418,
                -0.8815714784149373,
                0.5986995510995073,
                -3.1520901274669293
            ]
        },
        {
            "positions": [
                -0.14182054153797125,
                -1.2750985080430752,
                2.228602160316079,
                -0.9152723887080737,
                0.7550705692751865,
                -3.1386226646541235
            ]
        },
        {
            "positions": [
                -0.2079785629197597,
                -1.3090019684087622,
                2.2928658459587163,
                -0.9489732990012101,
                0.9114415874508657,
                -3.125155201841318
            ]
        },
        {
            "positions": [
                -0.27413658430154814,
                -1.3429054287744489,
                2.3571295316013536,
                -0.9826742092943465,
                1.0678126056265447,
                -3.111687739028512
            ]
        },
        {
            "positions": [
                -0.3402946056833366,
                -1.3768088891401358,
                2.421393217243991,
                -1.0163751195874828,
                1.224183623802224,
                -3.0982202762157063
            ]
        }
    ]
}