{
    "goal": {
        "global_pose": {
            "orientation": {
                "w": 0.5084816217422485,
                "x": -0.49083608388900757,
                "y": 0.5182115435600281,
                "z": -0.4816462993621826
            },
            "position": {
                "x": 0.5540239810943604,
                "y": 0.030875300988554955,
                "z": 0.16403168439865112
            }
        },
        "name": "move_to_storage_A"
    },
    "id": "BKPIECE_move_to_storage_A_135",
    "joint_names": [
        "shoulder_pan_joint",
        "shoulder_lift_joint",
        "elbow_joint",
        "wrist_1_joint",
        "wrist_2_joint",
        "wrist_3_joint"
    ],
    "metrics": {
        "cart_traj_len": 0.35297349432095126,
        "distance_elbow_joint": 0.4475464974914143,
        "distance_shoulder_lift_joint": 0.2356075123942214,
        "distance_shoulder_pan_joint": 0.463495009105279,
        "distance_wrist_1_joint": 0.23396813967090802,
        "distance_wrist_2_joint": 1.0902812922143212,
        "distance_wrist_3_joint": 0.09770137049315597,
        "smoothness": 1.7763568426276512e-15,
        "time": 1.365533186,
        "traj_len": 1.6026851909746032,
        "weighted_distance": 2.0219426288203235
    },
    "planner": "BKPIECE",
    "start": {
        "state": {
            "elbow_joint": 1.9715474177455299,
            "shoulder_lift_joint": -1.139484666580328,
            "shoulder_pan_joint": 0.12281154398918248,
            "wrist_1_joint": -0.7804687475355282,
            "wrist_2_joint": 0.12958649657246987,
            "wrist_3_joint": -3.1924925159053466
        }
    },
    "waypoints": [
        {
            "positions": [
                0.12281154398918248,
                -1.139484666580328,
                1.9715474177455299,
                -0.7804687475355282,
                0.12958649657246987,
                -3.1924925159053466
            ]
        },
        {
            "positions": [
                0.05659797125985691,
                -1.1731428826366452,
                2.035482631672875,
                -0.813892767488515,
                0.2853409668888015,
                -3.178535177263467
            ]
        },
        {
            "positions": [
                -0.00961560146946866,
                -1.2068010986929627,
                2.0994178456002195,
                -0.847316787441502,
                0.4410954372051331,
                -3.1645778386215877
            ]
        },
        {
            "positions": [
                -0.07582917419879423,
                -1.24045931474928,
                2.1633530595275645,
                -0.8807408073944888,
                0.5968499075214647,
                -3.1506204999797083
            ]
        },
        {
            "positions": [
                -0.1420427469281198,
                -1.2741175308055974,
                2.2272882734549095,
                -0.9141648273474756,
                0.7526043778377963,
                -3.136663161337829
            ]
        },
        {
            "positions": [
                -0.2082563196574454,
                -1.3077757468619147,
                2.2912234873822546,
                -0.9475888473004626,
                0.9083588481541279,
                -3.1227058226959494
            ]
        },
        {
            "positions": [
                -0.27446989238677094,
                -1.3414339629182321,
                2.355158701309599,
                -0.9810128672534493,
                1.0641133184704594,
                -3.10874848405407
            ]
        },
        {
            "positions": [
                -0.34068346511609654,
                -1.3750921789745494,
                2.419093915236944,
                -1.0144368872064362,
                1.219867788786791,
                -3.0947911454121906
            ]
        }
    ]
}