{
    "goal": {
        "global_pose": {
            "orientation": {
                "w": -0.00223480608172531,
                "x": 0.0024358444001904467,
                "y": 0.7094548369677653,
                "z": -0.704743149386269
            },
            "position": {
                "x": -0.37947507619857795,
                "y": -0.6371506643295288,
                "z": 0.19426114857196808
            }
        },
        "name": "move_to_magneteinheit_C"
    },
    "id": "BKPIECE_move_to_magneteinheit_C_25",
    "joint_names": [
        "shoulder_pan_joint",
        "shoulder_lift_joint",
        "elbow_joint",
        "wrist_1_joint",
        "wrist_2_joint",
        "wrist_3_joint"
    ],
    "metrics": {
        "cart_traj_len": 3.209571441071805,
        "distance_elbow_joint": 1.8513220277372273,
        "distance_shoulder_lift_joint": 2.7039363796683658,
        "distance_shoulder_pan_joint": 1.6848411347067587,
        "distance_wrist_1_joint": 3.855859909554301,
        "distance_wrist_2_joint": 3.830963124379177,
        "distance_wrist_3_joint": 2.23730394768968,
        "smoothness": 0.7921575585229287,
        "time": 1.78886242,
        "traj_len": 4.020475907617841,
        "weighted_distance": 5.322185401979936
    },
    "planner": "BKPIECE",
    "start": {
        "state": {
            "elbow_joint": 1.9565354006590394,
            "shoulder_lift_joint": -1.4165861576513559,
            "shoulder_pan_joint": -1.6717766223277177,
            "wrist_1_joint": -0.5286633288215096,
            "wrist_2_joint": 1.4727565892594296,
            "wrist_3_joint": 3.1593482883155493
        }
    },
    "waypoints": [
        {
            "positions": [
                -1.6717766223277177,
                -1.4165861576513559,
                1.9565354006590394,
                -0.5286633288215096,
                1.4727565892594296,
                3.1593482883155493
            ]
        },
        {
            "positions": [
                -1.6576348914034476,
                -1.4158667107784109,
                1.9419369188460143,
                -0.49309640150809053,
                1.3981914949822918,
                3.0160944281885302
            ]
        },
        {
            "positions": [
                -1.6434931604791776,
                -1.4151472639054656,
                1.9273384370329893,
                -0.4575294741946715,
                1.323626400705154,
                2.8728405680615112
            ]
        },
        {
            "positions": [
                -1.6293514295549074,
                -1.4144278170325206,
                1.9127399552199642,
                -0.42196254688125245,
                1.249061306428016,
                2.729586707934492
            ]
        },
        {
            "positions": [
                -1.5692854428121628,
                -1.436763723883745,
                1.8390692205803476,
                -0.37617390884725854,
                1.1951793098073304,
                2.6561057313907672
            ]
        },
        {
            "positions": [
                -1.5092194560694183,
                -1.4590996307349693,
                1.7653984859407312,
                -0.33038527081326463,
                1.1412973131866448,
                2.5826247548470422
            ]
        },
        {
            "positions": [
                -1.5746786868048,
                -1.5212073494356675,
                1.728070761950549,
                -0.24713123377623686,
                1.036857413351157,
                2.553055401471515
            ]
        },
        {
            "positions": [
                -1.6401379175401818,
                -1.583315068136366,
                1.690743037960367,
                -0.1638771967392091,
                0.9324175135156694,
                2.523486048095988
            ]
        },
        {
            "positions": [
                -1.7055971482755634,
                -1.645422786837064,
                1.6534153139701848,
                -0.08062315970218137,
                0.8279776136801815,
                2.493916694720461
            ]
        },
        {
            "positions": [
                -1.771056379010945,
                -1.7075305055377623,
                1.6160875899800027,
                0.0026308773348464043,
                0.7235377138446938,
                2.464347341344934
            ]
        },
        {
            "positions": [
                -1.8365156097463267,
                -1.7696382242384607,
                1.5787598659898205,
                0.08588491437187412,
                0.619097814009206,
                2.434777987969407
            ]
        },
        {
            "positions": [
                -1.9019748404817083,
                -1.831745942939159,
                1.5414321419996384,
                0.1691389514089019,
                0.5146579141737183,
                2.40520863459388
            ]
        },
        {
            "positions": [
                -1.9674340712170901,
                -1.8938536616398571,
                1.5041044180094563,
                0.2523929884459296,
                0.4102180143382306,
                2.375639281218353
            ]
        },
        {
            "positions": [
                -2.0328933019524715,
                -1.9559613803405553,
                1.4667766940192744,
                0.33564702548295744,
                0.3057781145027427,
                2.346069927842826
            ]
        },
        {
            "positions": [
                -2.098352532687853,
                -2.0180690990412535,
                1.429448970029092,
                0.41890106251998516,
                0.201338214667255,
                2.316500574467299
            ]
        },
        {
            "positions": [
                -2.1638117634232352,
                -2.080176817741952,
                1.39212124603891,
                0.5021550995570129,
                0.09689831483176725,
                2.286931221091772
            ]
        },
        {
            "positions": [
                -2.229270994158617,
                -2.1422845364426504,
                1.3547935220487277,
                0.5854091365940407,
                -0.007541585003720597,
                2.257361867716245
            ]
        },
        {
            "positions": [
                -2.2947302248939985,
                -2.2043922551433486,
                1.3174657980585458,
                0.6686631736310684,
                -0.11198148483920822,
                2.227792514340718
            ]
        },
        {
            "positions": [
                -2.36018945562938,
                -2.2664999738440468,
                1.2801380740683637,
                0.7519172106680962,
                -0.21642138467469607,
                2.198223160965191
            ]
        },
        {
            "positions": [
                -2.4256486863647617,
                -2.328607692544745,
                1.2428103500781815,
                0.8351712477051239,
                -0.3208612845101837,
                2.168653807589664
            ]
        },
        {
            "positions": [
                -2.491107917100144,
                -2.390715411245443,
                1.2054826260879994,
                0.9184252847421517,
                -0.42530118434567177,
                2.139084454214137
            ]
        },
        {
            "positions": [
                -2.5565671478355254,
                -2.4528231299461414,
                1.1681549020978172,
                1.0016793217791795,
                -0.5297410841811594,
                2.10951510083861
            ]
        },
        {
            "positions": [
                -2.622026378570907,
                -2.5149308486468396,
                1.1308271781076351,
                1.0849333588162073,
                -0.6341809840166472,
                2.079945747463083
            ]
        },
        {
            "positions": [
                -2.6874856093062887,
                -2.577038567347538,
                1.093499454117453,
                1.168187395853235,
                -0.7386208838521349,
                2.050376394087556
            ]
        },
        {
            "positions": [
                -2.7529448400416703,
                -2.6391462860482364,
                1.0561717301272708,
                1.2514414328902628,
                -0.8430607836876227,
                2.020807040712029
            ]
        },
        {
            "positions": [
                -2.743246688143114,
                -2.5512233964205024,
                1.1187661445834942,
                1.1455325489411636,
                -0.7546922788760521,
                2.0434507509016733
            ]
        },
        {
            "positions": [
                -2.7335485362445584,
                -2.463300506792769,
                1.1813605590397178,
                1.0396236649920647,
                -0.6663237740644813,
                2.0660944610913177
            ]
        },
        {
            "positions": [
                -2.7238503843460022,
                -2.375377617165035,
                1.2439549734959412,
                0.9337147810429656,
                -0.5779552692529106,
                2.0887381712809616
            ]
        },
        {
            "positions": [
                -2.7141522324474465,
                -2.287454727537301,
                1.3065493879521646,
                0.8278058970938664,
                -0.4895867644413399,
                2.111381881470606
            ]
        },
        {
            "positions": [
                -2.7044540805488904,
                -2.1995318379095674,
                1.369143802408388,
                0.7218970131447674,
                -0.40121825962976926,
                2.1340255916602504
            ]
        },
        {
            "positions": [
                -2.6947559286503346,
                -2.1116089482818334,
                1.4317382168646116,
                0.6159881291956683,
                -0.31284975481819854,
                2.156669301849895
            ]
        },
        {
            "positions": [
                -2.6850577767517785,
                -2.0236860586540995,
                1.494332631320835,
                0.5100792452465692,
                -0.22448125000662789,
                2.179313012039539
            ]
        },
        {
            "positions": [
                -2.6753596248532228,
                -1.935763169026366,
                1.5569270457770583,
                0.4041703612974701,
                -0.13611274519505712,
                2.201956722229183
            ]
        },
        {
            "positions": [
                -2.6656614729546666,
                -1.847840279398632,
                1.619521460233282,
                0.29826147734837105,
                -0.04774424038348646,
                2.2246004324188275
            ]
        },
        {
            "positions": [
                -2.655963321056111,
                -1.7599173897708982,
                1.6821158746895053,
                0.19235259339927202,
                0.0406242644280842,
                2.247244142608472
            ]
        },
        {
            "positions": [
                -2.6462651691575547,
                -1.6719945001431644,
                1.7447102891457287,
                0.08644370945017288,
                0.12899276923965486,
                2.2698878527981163
            ]
        },
        {
            "positions": [
                -2.636567017258999,
                -1.5840716105154304,
                1.807304703601952,
                -0.019465174498926263,
                0.21736127405122563,
                2.2925315629877607
            ]
        },
        {
            "positions": [
                -2.626868865360443,
                -1.4961487208876965,
                1.8698991180581754,
                -0.1253740584480254,
                0.3057297788627964,
                2.3151752731774047
            ]
        },
        {
            "positions": [
                -2.6171707134618867,
                -1.4082258312599627,
                1.932493532514399,
                -0.23128294239712432,
                0.39409828367436694,
                2.337818983367049
            ]
        },
        {
            "positions": [
                -2.607472561563331,
                -1.320302941632229,
                1.9950879469706224,
                -0.3371918263462234,
                0.4824667884859377,
                2.3604626935566935
            ]
        },
        {
            "positions": [
                -2.5808553003637575,
                -1.2886596965086679,
                1.997496375043044,
                -0.4346162040674316,
                0.5203904243376503,
                2.5122841030049923
            ]
        },
        {
            "positions": [
                -2.5542380391641837,
                -1.2570164513851068,
                1.9999048031154654,
                -0.5320405817886398,
                0.5583140601893629,
                2.6641055124532915
            ]
        },
        {
            "positions": [
                -2.5276207779646103,
                -1.2253732062615454,
                2.0023132311878866,
                -0.629464959509848,
                0.5962376960410755,
                2.8159269219015903
            ]
        },
        {
            "positions": [
                -2.5010035167650364,
                -1.1937299611379844,
                2.004721659260308,
                -0.7268893372310562,
                0.6341613318927881,
                2.9677483313498896
            ]
        },
        {
            "positions": [
                -2.474386255565463,
                -1.1620867160144233,
                2.0071300873327296,
                -0.8243137149522644,
                0.6720849677445007,
                3.1195697407981884
            ]
        }
    ]
}