{
    "goal": {
        "global_pose": {
            "orientation": {
                "w": 0.005598929693374612,
                "x": 0.007748599140229565,
                "y": 0.7110244013736278,
                "z": -0.7031023480610252
            },
            "position": {
                "x": 0.1141497679147869,
                "y": -0.7141253447532654,
                "z": 0.3711530566215515
            }
        },
        "name": "move_to_auspresseinheit_B"
    },
    "id": "BKPIECE_move_to_auspresseinheit_B_41",
    "joint_names": [
        "shoulder_pan_joint",
        "shoulder_lift_joint",
        "elbow_joint",
        "wrist_1_joint",
        "wrist_2_joint",
        "wrist_3_joint"
    ],
    "metrics": {
        "cart_traj_len": 0.5646508500433629,
        "distance_elbow_joint": 0.06500381711752357,
        "distance_shoulder_lift_joint": 0.292892984729747,
        "distance_shoulder_pan_joint": 0.5769120454852754,
        "distance_wrist_1_joint": 0.3362355264556226,
        "distance_wrist_2_joint": 0.9961294322679599,
        "distance_wrist_3_joint": 0.0031299410532756866,
        "smoothness": 2.5376526478085547e-16,
        "time": 0.616897839,
        "traj_len": 1.5067527159787713,
        "weighted_distance": 1.8997180285346398
    },
    "planner": "BKPIECE",
    "start": {
        "state": {
            "elbow_joint": 2.019306165916698,
            "shoulder_lift_joint": -1.1220205098164344,
            "shoulder_pan_joint": -1.095207207618794,
            "wrist_1_joint": -0.8559671824921639,
            "wrist_2_joint": 0.47596387242952726,
            "wrist_3_joint": 3.159081874673826
        }
    },
    "waypoints": [
        {
            "positions": [
                -1.095207207618794,
                -1.1220205098164344,
                2.019306165916698,
                -0.8559671824921639,
                0.47596387242952726,
                3.159081874673826
            ]
        },
        {
            "positions": [
                -1.1913592151996732,
                -1.1708360072713924,
                2.008472196397111,
                -0.7999279280828935,
                0.6419854444741873,
                3.1585602178316132
            ]
        },
        {
            "positions": [
                -1.2875112227805525,
                -1.21965150472635,
                1.9976382268775235,
                -0.743888673673623,
                0.8080070165188472,
                3.1580385609894006
            ]
        },
        {
            "positions": [
                -1.3836632303614316,
                -1.2684670021813078,
                1.986804257357936,
                -0.6878494192643525,
                0.9740285885635072,
                3.157516904147188
            ]
        },
        {
            "positions": [
                -1.4798152379423108,
                -1.3172824996362658,
                1.975970287838349,
                -0.6318101648550821,
                1.1400501606081672,
                3.1569952473049754
            ]
        },
        {
            "positions": [
                -1.5759672455231901,
                -1.3660979970912237,
                1.9651363183187618,
                -0.5757709104458117,
                1.3060717326528273,
                3.1564735904627628
            ]
        },
        {
            "positions": [
                -1.6721192531040694,
                -1.4149134945461814,
                1.9543023487991744,
                -0.5197316560365413,
                1.4720933046974871,
                3.15595193362055
            ]
        }
    ]
}