{
    "goal": {
        "global_pose": {
            "orientation": {
                "w": 0.7047431468963623,
                "x": -0.7094548344612122,
                "y": 0.0024358443915843964,
                "z": -0.0022348060738295317
            },
            "position": {
                "x": 0.6094750761985779,
                "y": 0.3671506643295288,
                "z": 0.19426114857196808
            }
        },
        "name": "move_to_magneteinheit_A"
    },
    "id": "BKPIECE_move_to_magneteinheit_A_76",
    "joint_names": [
        "shoulder_pan_joint",
        "shoulder_lift_joint",
        "elbow_joint",
        "wrist_1_joint",
        "wrist_2_joint",
        "wrist_3_joint"
    ],
    "metrics": {
        "cart_traj_len": 1.0533606076449205,
        "distance_elbow_joint": 0.38075342419629465,
        "distance_shoulder_lift_joint": 0.3677692730095876,
        "distance_shoulder_pan_joint": 1.241178101704613,
        "distance_wrist_1_joint": 2.2005049479249643,
        "distance_wrist_2_joint": 1.692295048310144,
        "distance_wrist_3_joint": 1.2302763384064992,
        "smoothness": 1.8698493194378823e-16,
        "time": 1.492361426,
        "traj_len": 2.6669790275801013,
        "weighted_distance": 3.669622570047254
    },
    "planner": "BKPIECE",
    "start": {
        "state": {
            "elbow_joint": 1.5739458966750683,
            "shoulder_lift_joint": -1.4977259741207325,
            "shoulder_pan_joint": -1.1188672016454206,
            "wrist_1_joint": 1.494575848278785,
            "wrist_2_joint": -1.5706037134824402,
            "wrist_3_joint": -2.0226957942261072
        }
    },
    "waypoints": [
        {
            "positions": [
                -1.1188672016454206,
                -1.4977259741207325,
                1.5739458966750683,
                1.494575848278785,
                -1.5706037134824402,
                -2.0226957942261072
            ]
        },
        {
            "positions": [
                -1.049912862661831,
                -1.477294347842422,
                1.5950988646859736,
                1.3723255733940647,
                -1.4765873219096544,
                -2.091044479693135
            ]
        },
        {
            "positions": [
                -0.9809585236782414,
                -1.4568627215641117,
                1.6162518326968789,
                1.2500752985093446,
                -1.3825709303368687,
                -2.1593931651601626
            ]
        },
        {
            "positions": [
                -0.9120041846946518,
                -1.4364310952858013,
                1.6374048007077842,
                1.1278250236246243,
                -1.2885545387640829,
                -2.2277418506271904
            ]
        },
        {
            "positions": [
                -0.8430498457110622,
                -1.4159994690074909,
                1.6585577687186894,
                1.005574748739904,
                -1.194538147191297,
                -2.2960905360942183
            ]
        },
        {
            "positions": [
                -0.7740955067274726,
                -1.3955678427291804,
                1.6797107367295947,
                0.8833244738551838,
                -1.1005217556185114,
                -2.3644392215612458
            ]
        },
        {
            "positions": [
                -0.705141167743883,
                -1.37513621645087,
                1.7008637047405,
                0.7610741989704636,
                -1.0065053640457255,
                -2.4327879070282736
            ]
        },
        {
            "positions": [
                -0.6361868287602933,
                -1.3547045901725596,
                1.7220166727514052,
                0.6388239240857433,
                -0.9124889724729398,
                -2.5011365924953015
            ]
        },
        {
            "positions": [
                -0.5672324897767037,
                -1.3342729638942492,
                1.7431696407623103,
                0.5165736492010231,
                -0.8184725809001541,
                -2.569485277962329
            ]
        },
        {
            "positions": [
                -0.4982781507931141,
                -1.3138413376159388,
                1.7643226087732158,
                0.3943233743163028,
                -0.7244561893273682,
                -2.637833963429357
            ]
        },
        {
            "positions": [
                -0.4293238118095245,
                -1.2934097113376282,
                1.7854755767841208,
                0.27207309943158253,
                -0.6304397977545824,
                -2.7061826488963847
            ]
        },
        {
            "positions": [
                -0.3603694728259348,
                -1.2729780850593178,
                1.8066285447950263,
                0.14982282454686224,
                -0.5364234061817965,
                -2.774531334363412
            ]
        },
        {
            "positions": [
                -0.2914151338423453,
                -1.2525464587810073,
                1.8277815128059314,
                0.027572549662142176,
                -0.4424070146090109,
                -2.84288001983044
            ]
        },
        {
            "positions": [
                -0.2224607948587557,
                -1.232114832502697,
                1.8489344808168366,
                -0.09467772522257811,
                -0.34839062303622503,
                -2.911228705297468
            ]
        },
        {
            "positions": [
                -0.15350645587516598,
                -1.2116832062243865,
                1.870087448827742,
                -0.2169280001072984,
                -0.2543742314634394,
                -2.9795773907644953
            ]
        },
        {
            "positions": [
                -0.08455211689157638,
                -1.1912515799460761,
                1.8912404168386472,
                -0.3391782749920187,
                -0.16035783989065355,
                -3.0479260762315232
            ]
        },
        {
            "positions": [
                -0.015597777907986776,
                -1.1708199536677657,
                1.9123933848495525,
                -0.46142854987673876,
                -0.06634144831786792,
                -3.116274761698551
            ]
        },
        {
            "positions": [
                0.053356561075602826,
                -1.1503883273894553,
                1.9335463528604577,
                -0.5836788247614588,
                0.027674943254917928,
                -3.1846234471655785
            ]
        },
        {
            "positions": [
                0.12231090005919248,
                -1.1299567011111449,
                1.954699320871363,
                -0.7059290996461794,
                0.12169133482770385,
                -3.2529721326326064
            ]
        }
    ]
}