{
    "goal": {
        "global_pose": {
            "orientation": {
                "w": 0.5084816217422485,
                "x": -0.49083608388900757,
                "y": 0.5182115435600281,
                "z": -0.4816462993621826
            },
            "position": {
                "x": 0.5540239810943604,
                "y": 0.030875300988554955,
                "z": 0.16403168439865112
            }
        },
        "name": "move_to_storage_A"
    },
    "id": "BKPIECE_move_to_storage_A_67",
    "joint_names": [
        "shoulder_pan_joint",
        "shoulder_lift_joint",
        "elbow_joint",
        "wrist_1_joint",
        "wrist_2_joint",
        "wrist_3_joint"
    ],
    "metrics": {
        "cart_traj_len": 0.3539854383904207,
        "distance_elbow_joint": 0.4502236353638982,
        "distance_shoulder_lift_joint": 0.2353885205760211,
        "distance_shoulder_pan_joint": 0.4610913374435008,
        "distance_wrist_1_joint": 0.24448071356156775,
        "distance_wrist_2_joint": 1.1085690558653503,
        "distance_wrist_3_joint": 0.10755548575628726,
        "smoothness": 0.0,
        "time": 0.451022101,
        "traj_len": 1.6147163059084482,
        "weighted_distance": 2.043396557084825
    },
    "planner": "BKPIECE",
    "start": {
        "state": {
            "elbow_joint": 1.9715474177455299,
            "shoulder_lift_joint": -1.139484666580328,
            "shoulder_pan_joint": 0.12281154398918248,
            "wrist_1_joint": -0.7804687475355282,
            "wrist_2_joint": 0.12958649657246987,
            "wrist_3_joint": -3.1924925159053466
        }
    },
    "waypoints": [
        {
            "positions": [
                0.12281154398918248,
                -1.139484666580328,
                1.9715474177455299,
                -0.7804687475355282,
                0.12958649657246987,
                -3.1924925159053466
            ]
        },
        {
            "positions": [
                0.05694135292582524,
                -1.1731115980911881,
                2.0358650799403724,
                -0.8153945637586093,
                0.2879535045532342,
                -3.1771274465115913
            ]
        },
        {
            "positions": [
                -0.008928838137532008,
                -1.2067385296020483,
                2.1001827421352153,
                -0.8503203799816904,
                0.4463205125339985,
                -3.161762377117836
            ]
        },
        {
            "positions": [
                -0.07479902920088927,
                -1.2403654611129085,
                2.1645004043300577,
                -0.8852461962047715,
                0.6046875205147628,
                -3.1463973077240808
            ]
        },
        {
            "positions": [
                -0.1406692202642465,
                -1.2739923926237686,
                2.2288180665249,
                -0.9201720124278526,
                0.7630545284955271,
                -3.131032238330325
            ]
        },
        {
            "positions": [
                -0.20653941132760378,
                -1.3076193241346288,
                2.2931357287197427,
                -0.9550978286509337,
                0.9214215364762915,
                -3.11566716893657
            ]
        },
        {
            "positions": [
                -0.272409602390961,
                -1.341246255645489,
                2.3574533909145856,
                -0.9900236448740148,
                1.0797885444570556,
                -3.1003020995428145
            ]
        },
        {
            "positions": [
                -0.3382797934543183,
                -1.374873187156349,
                2.421771053109428,
                -1.024949461097096,
                1.23815555243782,
                -3.0849370301490593
            ]
        }
    ]
}