{
    "goal": {
        "global_pose": {
            "orientation": {
                "w": 0.7031023502349854,
                "x": -0.7110244035720825,
                "y": 0.007748599164187908,
                "z": 0.005598929710686207
            },
            "position": {
                "x": 0.11585023208521307,
                "y": 0.44412534475326537,
                "z": 0.3711530566215515
            }
        },
        "name": "move_to_auspresseinheit_A"
    },
    "id": "BKPIECE_move_to_auspresseinheit_A_108",
    "joint_names": [
        "shoulder_pan_joint",
        "shoulder_lift_joint",
        "elbow_joint",
        "wrist_1_joint",
        "wrist_2_joint",
        "wrist_3_joint"
    ],
    "metrics": {
        "cart_traj_len": 0.7102888323702838,
        "distance_elbow_joint": 0.09199523503552731,
        "distance_shoulder_lift_joint": 0.5360074857550403,
        "distance_shoulder_pan_joint": 1.0441546184321497,
        "distance_wrist_1_joint": 0.5456153950257658,
        "distance_wrist_2_joint": 0.5290976747226371,
        "distance_wrist_3_joint": 0.2588960805945004,
        "smoothness": 0.2907419622468981,
        "time": 1.38578983,
        "traj_len": 1.7337146505597802,
        "weighted_distance": 2.1443581138660175
    },
    "planner": "BKPIECE",
    "start": {
        "state": {
            "elbow_joint": 2.4225747245308327,
            "shoulder_lift_joint": -1.373653427065438,
            "shoulder_pan_joint": -0.33786330853087027,
            "wrist_1_joint": -1.0288602302712604,
            "wrist_2_joint": 1.23302299562683,
            "wrist_3_joint": -3.094021725338297
        }
    },
    "waypoints": [
        {
            "positions": [
                -0.33786330853087027,
                -1.373653427065438,
                2.4225747245308327,
                -1.0288602302712604,
                1.23302299562683,
                -3.094021725338297
            ]
        },
        {
            "positions": [
                -0.21026947078814875,
                -1.457255663160004,
                2.4127794362163355,
                -0.964601600616658,
                1.1486606201973213,
                -3.0747346497936103
            ]
        },
        {
            "positions": [
                -0.08267563304542724,
                -1.54085789925457,
                2.402984147901839,
                -0.9003429709620556,
                1.0642982447678129,
                -3.055447574248924
            ]
        },
        {
            "positions": [
                0.044918204697294295,
                -1.6244601353491364,
                2.3931888595873416,
                -0.8360843413074532,
                0.9799358693383042,
                -3.0361604987042377
            ]
        },
        {
            "positions": [
                0.17251204244001578,
                -1.7080623714437024,
                2.3833935712728445,
                -0.7718257116528509,
                0.8955734939087957,
                -3.016873423159551
            ]
        },
        {
            "positions": [
                0.3001058801827374,
                -1.7916646075382685,
                2.3735982829583477,
                -0.7075670819982484,
                0.8112111184792871,
                -2.997586347614864
            ]
        },
        {
            "positions": [
                0.4276997179254589,
                -1.8752668436328346,
                2.3638029946438506,
                -0.643308452343646,
                0.7268487430497785,
                -2.9782992720701778
            ]
        },
        {
            "positions": [
                0.5669955139133691,
                -1.8924638782266565,
                2.380414747218123,
                -0.5632766437945702,
                0.7153870319769857,
                -3.0498860857333683
            ]
        },
        {
            "positions": [
                0.7062913099012794,
                -1.9096609128204782,
                2.397026499792396,
                -0.4832448352454945,
                0.7039253209041928,
                -3.121472899396559
            ]
        }
    ]
}