{
    "goal": {
        "global_pose": {
            "orientation": {
                "w": 0.005598929693374612,
                "x": 0.007748599140229565,
                "y": 0.7110244013736278,
                "z": -0.7031023480610252
            },
            "position": {
                "x": -0.8858502320852131,
                "y": -0.7141253447532654,
                "z": 0.3711530566215515
            }
        },
        "name": "move_to_auspresseinheit_C"
    },
    "id": "BKPIECE_move_to_auspresseinheit_C_52",
    "joint_names": [
        "shoulder_pan_joint",
        "shoulder_lift_joint",
        "elbow_joint",
        "wrist_1_joint",
        "wrist_2_joint",
        "wrist_3_joint"
    ],
    "metrics": {
        "cart_traj_len": 0.49355316809382027,
        "distance_elbow_joint": 1.0177969741666693,
        "distance_shoulder_lift_joint": 0.33357308751748116,
        "distance_shoulder_pan_joint": 0.25560897134565064,
        "distance_wrist_1_joint": 0.7151304769650491,
        "distance_wrist_2_joint": 1.311713072330648,
        "distance_wrist_3_joint": 0.07770872656735284,
        "smoothness": 3.2297397335745243e-16,
        "time": 1.480485477,
        "traj_len": 1.926533495398627,
        "weighted_distance": 2.4277133915112907
    },
    "planner": "BKPIECE",
    "start": {
        "state": {
            "elbow_joint": 1.752795957773711,
            "shoulder_lift_joint": -0.9740617694225064,
            "shoulder_pan_joint": -2.967991417825858,
            "wrist_1_joint": -0.7595177689806859,
            "wrist_2_joint": 1.7443932448377395,
            "wrist_3_joint": 3.199131542505932
        }
    },
    "waypoints": [
        {
            "positions": [
                -2.967991417825858,
                -0.9740617694225064,
                1.752795957773711,
                -0.7595177689806859,
                1.7443932448377395,
                3.199131542505932
            ]
        },
        {
            "positions": [
                -2.942430520691293,
                -0.9407044606707583,
                1.6510162603570442,
                -0.688004721284181,
                1.6132219376046746,
                3.191360669849197
            ]
        },
        {
            "positions": [
                -2.9168696235567277,
                -0.9073471519190102,
                1.5492365629403773,
                -0.6164916735876761,
                1.48205063037161,
                3.1835897971924614
            ]
        },
        {
            "positions": [
                -2.891308726422163,
                -0.8739898431672621,
                1.4474568655237103,
                -0.5449786258911712,
                1.3508793231385452,
                3.1758189245357262
            ]
        },
        {
            "positions": [
                -2.8657478292875975,
                -0.840632534415514,
                1.3456771681070434,
                -0.4734655781946663,
                1.2197080159054803,
                3.168048051878991
            ]
        },
        {
            "positions": [
                -2.8401869321530326,
                -0.8072752256637659,
                1.2438974706903765,
                -0.4019525304981614,
                1.0885367086724154,
                3.1602771792222555
            ]
        },
        {
            "positions": [
                -2.8146260350184678,
                -0.7739179169120177,
                1.1421177732737096,
                -0.33043948280165647,
                0.9573654014393507,
                3.1525063065655203
            ]
        },
        {
            "positions": [
                -2.7890651378839024,
                -0.7405606081602696,
                1.0403380758570426,
                -0.25892643510515156,
                0.826194094206286,
                3.144735433908785
            ]
        },
        {
            "positions": [
                -2.7635042407493375,
                -0.7072032994085216,
                0.9385583784403757,
                -0.18741338740864666,
                0.6950227869732211,
                3.13696456125205
            ]
        },
        {
            "positions": [
                -2.737943343614772,
                -0.6738459906567733,
                0.8367786810237088,
                -0.11590033971214175,
                0.5638514797401561,
                3.1291936885953144
            ]
        },
        {
            "positions": [
                -2.7123824464802073,
                -0.6404886819050253,
                0.7349989836070419,
                -0.04438729201563681,
                0.4326801725070915,
                3.1214228159385793
            ]
        }
    ]
}