{
    "goal": {
        "global_pose": {
            "orientation": {
                "w": -0.4816463035849501,
                "x": 0.5182115481033762,
                "y": 0.4908360881923453,
                "z": -0.5084816262002911
            },
            "position": {
                "x": -0.8240239810943604,
                "y": 0.19912469901144506,
                "z": 0.16403168439865112
            }
        },
        "name": "move_to_storage_D"
    },
    "id": "BKPIECE_move_to_storage_D_40",
    "joint_names": [
        "shoulder_pan_joint",
        "shoulder_lift_joint",
        "elbow_joint",
        "wrist_1_joint",
        "wrist_2_joint",
        "wrist_3_joint"
    ],
    "metrics": {
        "cart_traj_len": 3.8510460487031883,
        "distance_elbow_joint": 4.208564851612607,
        "distance_shoulder_lift_joint": 1.2655332463530384,
        "distance_shoulder_pan_joint": 2.812762972407209,
        "distance_wrist_1_joint": 2.2642367248793978,
        "distance_wrist_2_joint": 2.102065456946025,
        "distance_wrist_3_joint": 3.142866159267697,
        "smoothness": 0.13880470379447182,
        "time": 1.666996926,
        "traj_len": 3.9744218965109845,
        "weighted_distance": 5.142768117641197
    },
    "planner": "BKPIECE",
    "start": {
        "state": {
            "elbow_joint": -2.384821997420982,
            "shoulder_lift_joint": -2.2788054674887404,
            "shoulder_pan_joint": -0.18546946417610016,
            "wrist_1_joint": 1.4845937964226739,
            "wrist_2_joint": 0.1789877726866377,
            "wrist_3_joint": 0.03710572555276528
        }
    },
    "waypoints": [
        {
            "positions": [
                -0.18546946417610016,
                -2.2788054674887404,
                -2.384821997420982,
                1.4845937964226739,
                0.1789877726866377,
                0.03710572555276528
            ]
        },
        {
            "positions": [
                -0.1744693191086812,
                -2.272459907368212,
                -2.3822411087526594,
                1.4788494898654747,
                0.18657056714832077,
                0.04124421742394663
            ]
        },
        {
            "positions": [
                -0.10033801776884359,
                -2.259995519695134,
                -2.260033069703052,
                1.4259542004054542,
                0.23144158125343436,
                -0.04507568312544284
            ]
        },
        {
            "positions": [
                -0.02620671642900599,
                -2.247531132022056,
                -2.137825030653445,
                1.3730589109454336,
                0.27631259535854796,
                -0.1313955836748323
            ]
        },
        {
            "positions": [
                0.0479245849108316,
                -2.235066744348978,
                -2.015616991603838,
                1.3201636214854133,
                0.32118360946366153,
                -0.21771548422422177
            ]
        },
        {
            "positions": [
                0.12205588625066921,
                -2.2226023566758997,
                -1.8934089525542306,
                1.2672683320253928,
                0.36605462356877516,
                -0.30403538477361125
            ]
        },
        {
            "positions": [
                0.1961871875905068,
                -2.210137969002822,
                -1.7712009135046234,
                1.2143730425653723,
                0.4109256376738888,
                -0.39035528532300073
            ]
        },
        {
            "positions": [
                0.2703184889303444,
                -2.197673581329744,
                -1.6489928744550162,
                1.1614777531053517,
                0.45579665177900236,
                -0.47667518587239016
            ]
        },
        {
            "positions": [
                0.344449790270182,
                -2.1852091936566658,
                -1.526784835405409,
                1.1085824636453312,
                0.500667665884116,
                -0.5629950864217796
            ]
        },
        {
            "positions": [
                0.4185810916100196,
                -2.1727448059835877,
                -1.4045767963558018,
                1.0556871741853109,
                0.5455386799892296,
                -0.6493149869711692
            ]
        },
        {
            "positions": [
                0.4927123929498571,
                -2.1602804183105095,
                -1.2823687573061946,
                1.0027918847252904,
                0.5904096940943431,
                -0.7356348875205585
            ]
        },
        {
            "positions": [
                0.5668436942896948,
                -2.1478160306374314,
                -1.1601607182565872,
                0.9498965952652698,
                0.6352807081994567,
                -0.821954788069948
            ]
        },
        {
            "positions": [
                0.6409749956295323,
                -2.1353516429643533,
                -1.0379526792069802,
                0.8970013058052493,
                0.6801517223045703,
                -0.9082746886193374
            ]
        },
        {
            "positions": [
                0.71510629696937,
                -2.122887255291275,
                -0.9157446401573728,
                0.8441060163452287,
                0.725022736409684,
                -0.9945945891687269
            ]
        },
        {
            "positions": [
                0.7892375983092075,
                -2.110422867618197,
                -0.7935366011077658,
                0.7912107268852083,
                0.7698937505147976,
                -1.0809144897181162
            ]
        },
        {
            "positions": [
                0.8633688996490452,
                -2.0979584799451194,
                -0.6713285620581584,
                0.7383154374251878,
                0.8147647646199112,
                -1.1672343902675058
            ]
        },
        {
            "positions": [
                0.9375002009888826,
                -2.0854940922720413,
                -0.5491205230085512,
                0.6854201479651674,
                0.8596357787250247,
                -1.2535542908168953
            ]
        },
        {
            "positions": [
                1.0116315023287203,
                -2.073029704598963,
                -0.426912483958944,
                0.6325248585051468,
                0.9045067928301384,
                -1.3398741913662848
            ]
        },
        {
            "positions": [
                1.0857628036685578,
                -2.060565316925885,
                -0.304704444909337,
                0.5796295690451263,
                0.949377806935252,
                -1.4261940919156741
            ]
        },
        {
            "positions": [
                1.1598941050083953,
                -2.048100929252807,
                -0.18249640585972982,
                0.5267342795851059,
                0.9942488210403655,
                -1.5125139924650635
            ]
        },
        {
            "positions": [
                1.2340254063482332,
                -2.035636541579729,
                -0.060288366810122174,
                0.47383899012508524,
                1.0391198351454793,
                -1.5988338930144532
            ]
        },
        {
            "positions": [
                1.3081567076880707,
                -2.0231721539066507,
                0.061919672239485024,
                0.4209437006650649,
                1.0839908492505927,
                -1.6851537935638428
            ]
        },
        {
            "positions": [
                1.3822880090279082,
                -2.0107077662335726,
                0.18412771128909222,
                0.3680484112050444,
                1.1288618633557064,
                -1.771473694113232
            ]
        },
        {
            "positions": [
                1.4564193103677459,
                -1.9982433785604947,
                0.306335750338699,
                0.31515312174502386,
                1.1737328774608198,
                -1.8577935946626214
            ]
        },
        {
            "positions": [
                1.5305506117075836,
                -1.9857789908874166,
                0.4285437893883066,
                0.2622578322850033,
                1.2186038915659338,
                -1.9441134952120112
            ]
        },
        {
            "positions": [
                1.604681913047421,
                -1.9733146032143385,
                0.5507518284379138,
                0.2093625428249828,
                1.263474905671047,
                -2.0304333957614005
            ]
        },
        {
            "positions": [
                1.6788132143872587,
                -1.9608502155412604,
                0.672959867487521,
                0.15646725336496248,
                1.3083459197761607,
                -2.11675329631079
            ]
        },
        {
            "positions": [
                1.7529445157270962,
                -1.9483858278681825,
                0.7951679065371278,
                0.10357196390494194,
                1.3532169338812743,
                -2.203073196860179
            ]
        },
        {
            "positions": [
                1.8270758170669341,
                -1.9359214401951044,
                0.9173759455867354,
                0.05067667444492141,
                1.398087947986388,
                -2.289393097409569
            ]
        },
        {
            "positions": [
                1.9012071184067716,
                -1.9234570525220263,
                1.0395839846363426,
                -0.0022186150150991235,
                1.4429589620915015,
                -2.375712997958958
            ]
        },
        {
            "positions": [
                1.975338419746609,
                -1.9109926648489481,
                1.1617920236859498,
                -0.05511390447511966,
                1.4878299761966152,
                -2.462032898508348
            ]
        },
        {
            "positions": [
                2.0494697210864468,
                -1.89852827717587,
                1.284000062735557,
                -0.10800919393513997,
                1.5327009903017288,
                -2.5483527990577373
            ]
        },
        {
            "positions": [
                2.1236010224262847,
                -1.886063889502792,
                1.4062081017851642,
                -0.16090448339516072,
                1.5775720044068424,
                -2.634672699607127
            ]
        },
        {
            "positions": [
                2.197732323766122,
                -1.873599501829714,
                1.5284161408347714,
                -0.21379977285518104,
                1.622443018511956,
                -2.7209926001565163
            ]
        },
        {
            "positions": [
                2.2718636251059596,
                -1.861135114156636,
                1.6506241798843788,
                -0.26669506231520157,
                1.6673140326170695,
                -2.8073125007059057
            ]
        },
        {
            "positions": [
                2.316292360496603,
                -1.755152252529019,
                1.6722640141727845,
                -0.33081354558289183,
                1.5905966329901202,
                -2.8435838693642386
            ]
        },
        {
            "positions": [
                2.360721095887247,
                -1.6491693909014025,
                1.69390384846119,
                -0.3949320288505821,
                1.5138792333631712,
                -2.8798552380225715
            ]
        },
        {
            "positions": [
                2.4051498312778907,
                -1.5431865292737856,
                1.7155436827495956,
                -0.45905051211827236,
                1.437161833736222,
                -2.9161266066809044
            ]
        },
        {
            "positions": [
                2.449578566668534,
                -1.4372036676461688,
                1.7371835170380012,
                -0.5231689953859626,
                1.3604444341092727,
                -2.9523979753392373
            ]
        },
        {
            "positions": [
                2.4940073020591775,
                -1.3312208060185522,
                1.7588233513264067,
                -0.5872874786536528,
                1.2837270344823237,
                -2.9886693439975702
            ]
        },
        {
            "positions": [
                2.5384360374498214,
                -1.2252379443909354,
                1.7804631856148123,
                -0.6514059619213431,
                1.2070096348553745,
                -3.024940712655903
            ]
        },
        {
            "positions": [
                2.5828647728404652,
                -1.1192550827633188,
                1.8021030199032178,
                -0.7155244451890335,
                1.1302922352284255,
                -3.061212081314236
            ]
        },
        {
            "positions": [
                2.6272935082311086,
                -1.013272221135702,
                1.8237428541916234,
                -0.7796429284567237,
                1.0535748356014762,
                -3.097483449972569
            ]
        }
    ]
}