{
    "goal": {
        "global_pose": {
            "orientation": {
                "w": 0.7047431468963623,
                "x": -0.7094548344612122,
                "y": 0.0024358443915843964,
                "z": -0.0022348060738295317
            },
            "position": {
                "x": 0.6094750761985779,
                "y": 0.3671506643295288,
                "z": 0.19426114857196808
            }
        },
        "name": "move_to_magneteinheit_A"
    },
    "id": "BKPIECE_move_to_magneteinheit_A_10",
    "joint_names": [
        "shoulder_pan_joint",
        "shoulder_lift_joint",
        "elbow_joint",
        "wrist_1_joint",
        "wrist_2_joint",
        "wrist_3_joint"
    ],
    "metrics": {
        "cart_traj_len": 1.0530599551998532,
        "distance_elbow_joint": 0.3765852697506884,
        "distance_shoulder_lift_joint": 0.3698454219175351,
        "distance_shoulder_pan_joint": 1.2405509594638011,
        "distance_wrist_1_joint": 2.182493222502859,
        "distance_wrist_2_joint": 1.6909783662999505,
        "distance_wrist_3_joint": 1.2548308705463715,
        "smoothness": 9.349246597189412e-17,
        "time": 0.676195898,
        "traj_len": 2.6674489892931796,
        "weighted_distance": 3.674019248776026
    },
    "planner": "BKPIECE",
    "start": {
        "state": {
            "elbow_joint": 1.5739458966750683,
            "shoulder_lift_joint": -1.4977259741207325,
            "shoulder_pan_joint": -1.1188672016454206,
            "wrist_1_joint": 1.494575848278785,
            "wrist_2_joint": -1.5706037134824402,
            "wrist_3_joint": -2.0226957942261072
        }
    },
    "waypoints": [
        {
            "positions": [
                -1.1188672016454206,
                -1.4977259741207325,
                1.5739458966750683,
                1.494575848278785,
                -1.5706037134824402,
                -2.0226957942261072
            ]
        },
        {
            "positions": [
                -1.0499477038974316,
                -1.477179006236425,
                1.5948673005501066,
                1.373326224806404,
                -1.4766604709102207,
                -2.0924086203675722
            ]
        },
        {
            "positions": [
                -0.9810282061494427,
                -1.4566320383521174,
                1.6157887044251449,
                1.252076601334023,
                -1.3827172283380014,
                -2.1621214465090373
            ]
        },
        {
            "positions": [
                -0.9121087084014539,
                -1.43608507046781,
                1.6367101083001832,
                1.1308269778616418,
                -1.2887739857657818,
                -2.2318342726505023
            ]
        },
        {
            "positions": [
                -0.8431892106534649,
                -1.4155381025835025,
                1.6576315121752214,
                1.0095773543892608,
                -1.1948307431935623,
                -2.3015470987919677
            ]
        },
        {
            "positions": [
                -0.7742697129054759,
                -1.394991134699195,
                1.6785529160502595,
                0.8883277309168798,
                -1.1008875006213428,
                -2.3712599249334327
            ]
        },
        {
            "positions": [
                -0.705350215157487,
                -1.3744441668148875,
                1.6994743199252977,
                0.7670781074444988,
                -1.0069442580491235,
                -2.4409727510748978
            ]
        },
        {
            "positions": [
                -0.636430717409498,
                -1.35389719893058,
                1.720395723800336,
                0.6458284839721177,
                -0.9130010154769039,
                -2.5106855772163628
            ]
        },
        {
            "positions": [
                -0.5675112196615091,
                -1.3333502310462724,
                1.7413171276753743,
                0.5245788604997367,
                -0.8190577729046845,
                -2.5803984033578278
            ]
        },
        {
            "positions": [
                -0.4985917219135201,
                -1.3128032631619648,
                1.7622385315504125,
                0.40332923702735557,
                -0.725114530332465,
                -2.6501112294992932
            ]
        },
        {
            "positions": [
                -0.4296722241655311,
                -1.2922562952776575,
                1.7831599354254508,
                0.2820796135549746,
                -0.6311712877602454,
                -2.7198240556407582
            ]
        },
        {
            "positions": [
                -0.3607527264175421,
                -1.27170932739335,
                1.804081339300489,
                0.16082999008259335,
                -0.537228045188026,
                -2.7895368817822233
            ]
        },
        {
            "positions": [
                -0.2918332286695533,
                -1.2511623595090424,
                1.8250027431755274,
                0.03958036661021258,
                -0.4432848026158067,
                -2.8592497079236883
            ]
        },
        {
            "positions": [
                -0.2229137309215643,
                -1.2306153916247349,
                1.8459241470505656,
                -0.08166925686216864,
                -0.3493415600435872,
                -2.9289625340651533
            ]
        },
        {
            "positions": [
                -0.1539942331735753,
                -1.2100684237404273,
                1.866845550925604,
                -0.20291888033454963,
                -0.25539831747136765,
                -2.9986753602066183
            ]
        },
        {
            "positions": [
                -0.0850747354255863,
                -1.18952145585612,
                1.8877669548006422,
                -0.32416850380693085,
                -0.16145507489914812,
                -3.0683881863480833
            ]
        },
        {
            "positions": [
                -0.016155237677597523,
                -1.1689744879718125,
                1.9086883586756802,
                -0.4454181272793116,
                -0.06751183232692881,
                -3.1381010124895488
            ]
        },
        {
            "positions": [
                0.05276426007039148,
                -1.148427520087505,
                1.9296097625507185,
                -0.5666677507516928,
                0.02643141024529072,
                -3.2078138386310138
            ]
        },
        {
            "positions": [
                0.12168375781838044,
                -1.1278805522031974,
                1.9505311664257567,
                -0.6879173742240741,
                0.1203746528175103,
                -3.277526664772479
            ]
        }
    ]
}