{
    "goal": {
        "global_pose": {
            "orientation": {
                "w": 0.005598929693374612,
                "x": 0.007748599140229565,
                "y": 0.7110244013736278,
                "z": -0.7031023480610252
            },
            "position": {
                "x": 0.1141497679147869,
                "y": -0.7141253447532654,
                "z": 0.3711530566215515
            }
        },
        "name": "move_to_auspresseinheit_B"
    },
    "id": "BKPIECE_move_to_auspresseinheit_B_108",
    "joint_names": [
        "shoulder_pan_joint",
        "shoulder_lift_joint",
        "elbow_joint",
        "wrist_1_joint",
        "wrist_2_joint",
        "wrist_3_joint"
    ],
    "metrics": {
        "cart_traj_len": 0.5646200344035301,
        "distance_elbow_joint": 0.06363466234280146,
        "distance_shoulder_lift_joint": 0.2944636095220574,
        "distance_shoulder_pan_joint": 0.5771955063167937,
        "distance_wrist_1_joint": 0.3309157477561524,
        "distance_wrist_2_joint": 0.9923938895322457,
        "distance_wrist_3_joint": 0.0006635688516056781,
        "smoothness": 0.0,
        "time": 0.6809696540000001,
        "traj_len": 1.5030858206774675,
        "weighted_distance": 1.8931201122256522
    },
    "planner": "BKPIECE",
    "start": {
        "state": {
            "elbow_joint": 2.019306165916698,
            "shoulder_lift_joint": -1.1220205098164344,
            "shoulder_pan_joint": -1.095207207618794,
            "wrist_1_joint": -0.8559671824921639,
            "wrist_2_joint": 0.47596387242952726,
            "wrist_3_joint": 3.159081874673826
        }
    },
    "waypoints": [
        {
            "positions": [
                -1.095207207618794,
                -1.1220205098164344,
                2.019306165916698,
                -0.8559671824921639,
                0.47596387242952726,
                3.159081874673826
            ]
        },
        {
            "positions": [
                -1.191406458671593,
                -1.1710977780701106,
                2.0087003888595643,
                -0.8008145578661384,
                0.6413628540182349,
                3.158971279865225
            ]
        },
        {
            "positions": [
                -1.2876057097243918,
                -1.2201750463237868,
                1.9980946118024308,
                -0.7456619332401131,
                0.8067618356069425,
                3.158860685056624
            ]
        },
        {
            "positions": [
                -1.3838049607771907,
                -1.269252314577463,
                1.9874888347452973,
                -0.6905093086140877,
                0.9721608171956502,
                3.158750090248023
            ]
        },
        {
            "positions": [
                -1.4800042118299896,
                -1.3183295828311394,
                1.9768830576881637,
                -0.6353566839880622,
                1.1375597987843578,
                3.158639495439422
            ]
        },
        {
            "positions": [
                -1.5762034628827888,
                -1.3674068510848156,
                1.96627728063103,
                -0.5802040593620368,
                1.3029587803730653,
                3.158528900630821
            ]
        },
        {
            "positions": [
                -1.6724027139355877,
                -1.4164841193384918,
                1.9556715035738965,
                -0.5250514347360115,
                1.468357761961773,
                3.15841830582222
            ]
        }
    ]
}