{
    "goal": {
        "global_pose": {
            "orientation": {
                "w": 0.5084816262002911,
                "x": -0.4908360881923452,
                "y": 0.5182115481033761,
                "z": -0.48164630358495003
            },
            "position": {
                "x": 0.5540239810943604,
                "y": -0.46912469901144505,
                "z": 0.16403168439865112
            }
        },
        "name": "move_to_storage_B"
    },
    "id": "BKPIECE_move_to_storage_B_57",
    "joint_names": [
        "shoulder_pan_joint",
        "shoulder_lift_joint",
        "elbow_joint",
        "wrist_1_joint",
        "wrist_2_joint",
        "wrist_3_joint"
    ],
    "metrics": {
        "cart_traj_len": 0.7543766414279398,
        "distance_elbow_joint": 0.40413943575783384,
        "distance_shoulder_lift_joint": 0.45975005899867405,
        "distance_shoulder_pan_joint": 0.4507078372137402,
        "distance_wrist_1_joint": 2.98282684935352,
        "distance_wrist_2_joint": 2.705094852503627,
        "distance_wrist_3_joint": 3.1472669925762133,
        "smoothness": 0.08849150542414709,
        "time": 0.748868361,
        "traj_len": 3.1858728829637273,
        "weighted_distance": 4.704491653028325
    },
    "planner": "BKPIECE",
    "start": {
        "state": {
            "elbow_joint": 1.6649325706314817,
            "shoulder_lift_joint": -0.6616388048112454,
            "shoulder_pan_joint": -0.9139837860083814,
            "wrist_1_joint": 2.146757197745094,
            "wrist_2_joint": -2.234196043158733,
            "wrist_3_joint": 0.005471033829999897
        }
    },
    "waypoints": [
        {
            "positions": [
                -0.9139837860083814,
                -0.6616388048112454,
                1.6649325706314817,
                2.146757197745094,
                -2.234196043158733,
                0.005471033829999897
            ]
        },
        {
            "positions": [
                -0.8468811795213732,
                -0.7207720300336742,
                1.6516064030341013,
                2.1111126890726872,
                -2.127312052884937,
                -0.019347714899705402
            ]
        },
        {
            "positions": [
                -0.779778573034365,
                -0.7799052552561029,
                1.6382802354367207,
                2.0754681804002804,
                -2.020428062611142,
                -0.04416646362941071
            ]
        },
        {
            "positions": [
                -0.792438678003954,
                -0.7935645995982555,
                1.6533797194592437,
                1.9590066671199322,
                -1.9207749877329006,
                -0.16807164343408282
            ]
        },
        {
            "positions": [
                -0.805098782973543,
                -0.8072239439404082,
                1.6684792034817666,
                1.8425451538395838,
                -1.821121912854659,
                -0.29197682323875496
            ]
        },
        {
            "positions": [
                -0.8177588879431319,
                -0.8208832882825609,
                1.6835786875042895,
                1.7260836405592355,
                -1.7214688379764176,
                -0.41588200304342704
            ]
        },
        {
            "positions": [
                -0.8304189929127208,
                -0.8345426326247135,
                1.6986781715268124,
                1.6096221272788873,
                -1.621815763098176,
                -0.5397871828480991
            ]
        },
        {
            "positions": [
                -0.8430790978823098,
                -0.8482019769668662,
                1.7137776555493354,
                1.4931606139985392,
                -1.5221626882199346,
                -0.6636923626527712
            ]
        },
        {
            "positions": [
                -0.8557392028518988,
                -0.8618613213090188,
                1.7288771395718583,
                1.3766991007181908,
                -1.4225096133416932,
                -0.7875975424574433
            ]
        },
        {
            "positions": [
                -0.8683993078214878,
                -0.8755206656511715,
                1.7439766235943812,
                1.2602375874378424,
                -1.3228565384634516,
                -0.9115027222621155
            ]
        },
        {
            "positions": [
                -0.8810594127910767,
                -0.8891800099933241,
                1.7590761076169041,
                1.1437760741574943,
                -1.22320346358521,
                -1.0354079020667877
            ]
        },
        {
            "positions": [
                -0.8937195177606656,
                -0.9028393543354768,
                1.774175591639427,
                1.0273145608771461,
                -1.1235503887069687,
                -1.1593130818714596
            ]
        },
        {
            "positions": [
                -0.9063796227302546,
                -0.9164986986776296,
                1.78927507566195,
                0.9108530475967977,
                -1.0238973138287273,
                -1.2832182616761318
            ]
        },
        {
            "positions": [
                -0.9190397276998435,
                -0.9301580430197822,
                1.804374559684473,
                0.7943915343164496,
                -0.9242442389504859,
                -1.407123441480804
            ]
        },
        {
            "positions": [
                -0.9316998326694325,
                -0.9438173873619349,
                1.8194740437069958,
                0.6779300210361012,
                -0.8245911640722443,
                -1.531028621285476
            ]
        },
        {
            "positions": [
                -0.9443599376390215,
                -0.9574767317040875,
                1.8345735277295185,
                0.5614685077557531,
                -0.7249380891940029,
                -1.6549338010901482
            ]
        },
        {
            "positions": [
                -0.9570200426086104,
                -0.9711360760462402,
                1.8496730117520417,
                0.4450069944754047,
                -0.6252850143157613,
                -1.7788389808948204
            ]
        },
        {
            "positions": [
                -0.9696801475781993,
                -0.9847954203883929,
                1.8647724957745644,
                0.32854548119505655,
                -0.52563193943752,
                -1.9027441606994924
            ]
        },
        {
            "positions": [
                -0.9823402525477883,
                -0.9984547647305455,
                1.8798719797970873,
                0.21208396791470818,
                -0.42597886455927836,
                -2.0266493405041643
            ]
        },
        {
            "positions": [
                -0.9950003575173773,
                -1.0121141090726982,
                1.8949714638196102,
                0.09562245463435981,
                -0.326325789681037,
                -2.1505545203088365
            ]
        },
        {
            "positions": [
                -1.0076604624869663,
                -1.0257734534148508,
                1.9100709478421332,
                -0.020839058645988118,
                -0.2266727148027956,
                -2.2744597001135083
            ]
        },
        {
            "positions": [
                -1.0203205674565552,
                -1.0394327977570035,
                1.925170431864656,
                -0.1373005719263367,
                -0.127019639924554,
                -2.3983648799181805
            ]
        },
        {
            "positions": [
                -1.032980672426144,
                -1.0530921420991561,
                1.940269915887179,
                -0.25376208520668486,
                -0.02736656504631263,
                -2.5222700597228527
            ]
        },
        {
            "positions": [
                -1.045640777395733,
                -1.0667514864413088,
                1.955369399909702,
                -0.370223598487033,
                0.07228650983192875,
                -2.646175239527525
            ]
        },
        {
            "positions": [
                -1.0583008823653222,
                -1.0804108307834615,
                1.9704688839322249,
                -0.48668511176738116,
                0.17193958471017012,
                -2.770080419332197
            ]
        },
        {
            "positions": [
                -1.070960987334911,
                -1.094070175125614,
                1.9855683679547478,
                -0.6031466250477298,
                0.27159265958841194,
                -2.8939855991368693
            ]
        },
        {
            "positions": [
                -1.0836210923045,
                -1.1077295194677668,
                2.000667851977271,
                -0.7196081383280779,
                0.3712457344666533,
                -3.017890778941541
            ]
        },
        {
            "positions": [
                -1.096281197274089,
                -1.1213888638099194,
                2.0157673359997936,
                -0.8360696516084258,
                0.47089880934489475,
                -3.141795958746213
            ]
        }
    ]
}