{
    "goal": {
        "global_pose": {
            "orientation": {
                "w": 0.005598929693374612,
                "x": 0.007748599140229565,
                "y": 0.7110244013736278,
                "z": -0.7031023480610252
            },
            "position": {
                "x": -0.8858502320852131,
                "y": -0.7141253447532654,
                "z": 0.3711530566215515
            }
        },
        "name": "move_to_auspresseinheit_C"
    },
    "id": "BKPIECE_move_to_auspresseinheit_C_117",
    "joint_names": [
        "shoulder_pan_joint",
        "shoulder_lift_joint",
        "elbow_joint",
        "wrist_1_joint",
        "wrist_2_joint",
        "wrist_3_joint"
    ],
    "metrics": {
        "cart_traj_len": 0.4952608581733377,
        "distance_elbow_joint": 1.0205784255170993,
        "distance_shoulder_lift_joint": 0.33428294867899044,
        "distance_shoulder_pan_joint": 0.25686631443740016,
        "distance_wrist_1_joint": 0.7161447482921934,
        "distance_wrist_2_joint": 1.3145834755681007,
        "distance_wrist_3_joint": 0.08407291805290962,
        "smoothness": 6.459479467149049e-16,
        "time": 0.208293149,
        "traj_len": 1.9304219307049673,
        "weighted_distance": 2.434215046069843
    },
    "planner": "BKPIECE",
    "start": {
        "state": {
            "elbow_joint": 1.752795957773711,
            "shoulder_lift_joint": -0.9740617694225064,
            "shoulder_pan_joint": -2.967991417825858,
            "wrist_1_joint": -0.7595177689806859,
            "wrist_2_joint": 1.7443932448377395,
            "wrist_3_joint": 3.199131542505932
        }
    },
    "waypoints": [
        {
            "positions": [
                -2.967991417825858,
                -0.9740617694225064,
                1.752795957773711,
                -0.7595177689806859,
                1.7443932448377395,
                3.199131542505932
            ]
        },
        {
            "positions": [
                -2.942304786382118,
                -0.9406334745546074,
                1.650738115222001,
                -0.6879032941514666,
                1.6129348972809294,
                3.190724250700641
            ]
        },
        {
            "positions": [
                -2.916618154938378,
                -0.9072051796867083,
                1.5486802726702913,
                -0.6162888193222472,
                1.4814765497241194,
                3.1823169588953504
            ]
        },
        {
            "positions": [
                -2.890931523494638,
                -0.8737768848188093,
                1.4466224301185813,
                -0.5446743444930279,
                1.3500182021673093,
                3.1739096670900593
            ]
        },
        {
            "positions": [
                -2.8652448920508977,
                -0.8403485899509102,
                1.3445645875668712,
                -0.47305986966380853,
                1.2185598546104992,
                3.165502375284768
            ]
        },
        {
            "positions": [
                -2.839558260607158,
                -0.8069202950830112,
                1.2425067450151615,
                -0.4014453948345892,
                1.0871015070536891,
                3.1570950834794775
            ]
        },
        {
            "positions": [
                -2.813871629163418,
                -0.7734920002151122,
                1.1404489024634517,
                -0.32983092000536984,
                0.9556431594968791,
                3.1486877916741864
            ]
        },
        {
            "positions": [
                -2.7881849977196778,
                -0.7400637053472131,
                1.0383910599117416,
                -0.2582164451761505,
                0.8241848119400691,
                3.1402804998688953
            ]
        },
        {
            "positions": [
                -2.762498366275938,
                -0.706635410479314,
                0.9363332173600316,
                -0.18660197034693116,
                0.6927264643832589,
                3.1318732080636043
            ]
        },
        {
            "positions": [
                -2.7368117348321976,
                -0.673207115611415,
                0.8342753748083217,
                -0.11498749551771181,
                0.5612681168264488,
                3.1234659162583136
            ]
        },
        {
            "positions": [
                -2.711125103388458,
                -0.639778820743516,
                0.7322175322566118,
                -0.043373020688492504,
                0.42980976926963865,
                3.1150586244530225
            ]
        }
    ]
}