{
    "goal": {
        "global_pose": {
            "orientation": {
                "w": -0.00223480608172531,
                "x": 0.0024358444001904467,
                "y": 0.7094548369677653,
                "z": -0.704743149386269
            },
            "position": {
                "x": -0.37947507619857795,
                "y": -0.6371506643295288,
                "z": 0.19426114857196808
            }
        },
        "name": "move_to_magneteinheit_C"
    },
    "id": "BKPIECE_move_to_magneteinheit_C_35",
    "joint_names": [
        "shoulder_pan_joint",
        "shoulder_lift_joint",
        "elbow_joint",
        "wrist_1_joint",
        "wrist_2_joint",
        "wrist_3_joint"
    ],
    "metrics": {
        "cart_traj_len": 1.9675707280578587,
        "distance_elbow_joint": 2.184631252478979,
        "distance_shoulder_lift_joint": 0.9675820339536778,
        "distance_shoulder_pan_joint": 1.7637020553230713,
        "distance_wrist_1_joint": 0.8784673345541133,
        "distance_wrist_2_joint": 2.2705439646725063,
        "distance_wrist_3_joint": 2.5588458960378184,
        "smoothness": 1.1792711123032342,
        "time": 1.3314482609999998,
        "traj_len": 3.2594129129369547,
        "weighted_distance": 4.346317479007076
    },
    "planner": "BKPIECE",
    "start": {
        "state": {
            "elbow_joint": 1.9565354006590394,
            "shoulder_lift_joint": -1.4165861576513559,
            "shoulder_pan_joint": -1.6717766223277177,
            "wrist_1_joint": -0.5286633288215096,
            "wrist_2_joint": 1.4727565892594296,
            "wrist_3_joint": 3.1593482883155493
        }
    },
    "waypoints": [
        {
            "positions": [
                -1.6717766223277177,
                -1.4165861576513559,
                1.9565354006590394,
                -0.5286633288215096,
                1.4727565892594296,
                3.1593482883155493
            ]
        },
        {
            "positions": [
                -1.7330649328816916,
                -1.4368047762580438,
                1.9923678294950593,
                -0.5136300841485162,
                1.3898084617747326,
                3.0275086712909056
            ]
        },
        {
            "positions": [
                -1.7943532434356653,
                -1.4570233948647318,
                2.028200258331079,
                -0.4985968394755228,
                1.3068603342900353,
                2.8956690542662615
            ]
        },
        {
            "positions": [
                -1.855641553989639,
                -1.4772420134714197,
                2.0640326871670993,
                -0.4835635948025295,
                1.2239122068053383,
                2.763829437241618
            ]
        },
        {
            "positions": [
                -1.9169298645436128,
                -1.4974606320781079,
                2.0998651160031194,
                -0.4685303501295361,
                1.140964079320641,
                2.6319898202169743
            ]
        },
        {
            "positions": [
                -1.9782181750975867,
                -1.5176792506847958,
                2.135697544839139,
                -0.4534971054565427,
                1.058015951835944,
                2.5001502031923306
            ]
        },
        {
            "positions": [
                -2.03950648565156,
                -1.5378978692914838,
                2.171529973675159,
                -0.4384638607835494,
                0.9750678243512468,
                2.368310586167687
            ]
        },
        {
            "positions": [
                -2.100794796205534,
                -1.5581164878981717,
                2.207362402511179,
                -0.423430616110556,
                0.8921196968665497,
                2.236470969143043
            ]
        },
        {
            "positions": [
                -2.162083106759508,
                -1.5783351065048596,
                2.243194831347199,
                -0.4083973714375626,
                0.8091715693818525,
                2.1046313521183992
            ]
        },
        {
            "positions": [
                -2.316807943657112,
                -1.5364333497814426,
                2.144014346407162,
                -0.3954065838212666,
                0.8233072476489984,
                2.0358643572946282
            ]
        },
        {
            "positions": [
                -2.471532780554716,
                -1.4945315930580256,
                2.0448338614671253,
                -0.3824157962049705,
                0.8374429259161442,
                1.9670973624708572
            ]
        },
        {
            "positions": [
                -2.5154129444415565,
                -1.4466163258618003,
                1.9659733461101645,
                -0.36927405650478845,
                0.9021247291864456,
                2.0820021945296765
            ]
        },
        {
            "positions": [
                -2.559293108328397,
                -1.3987010586655753,
                1.887112830753204,
                -0.35613231680460644,
                0.9668065324567471,
                2.196907026588496
            ]
        },
        {
            "positions": [
                -2.603173272215238,
                -1.35078579146935,
                1.808252315396243,
                -0.3429905771044244,
                1.0314883357270483,
                2.3118118586473146
            ]
        },
        {
            "positions": [
                -2.647053436102079,
                -1.3028705242731247,
                1.7293918000392825,
                -0.32984883740424237,
                1.09617013899735,
                2.426716690706134
            ]
        },
        {
            "positions": [
                -2.6909335999889197,
                -1.2549552570768996,
                1.6505312846823217,
                -0.3167070977040603,
                1.1608519422676513,
                2.5416215227649532
            ]
        },
        {
            "positions": [
                -2.7348137638757604,
                -1.2070399898806743,
                1.5716707693253609,
                -0.3035653580038783,
                1.2255337455379527,
                2.6565263548237725
            ]
        },
        {
            "positions": [
                -2.778693927762601,
                -1.159124722684449,
                1.4928102539684,
                -0.29042361830369623,
                1.290215548808254,
                2.771431186882592
            ]
        },
        {
            "positions": [
                -2.822574091649442,
                -1.111209455488224,
                1.4139497386114395,
                -0.27728187860351416,
                1.3548973520785554,
                2.886336018941411
            ]
        },
        {
            "positions": [
                -2.866454255536283,
                -1.0632941882919986,
                1.3350892232544787,
                -0.26414013890333216,
                1.419579155348857,
                3.0012408510002304
            ]
        },
        {
            "positions": [
                -2.9103344194231235,
                -1.0153789210957735,
                1.256228707897518,
                -0.25099839920315015,
                1.4842609586191582,
                3.1161456830590493
            ]
        },
        {
            "positions": [
                -2.9542145833099642,
                -0.9674636538995482,
                1.1773681925405572,
                -0.23785665950296808,
                1.5489427618894598,
                3.2310505151178686
            ]
        },
        {
            "positions": [
                -2.894056571517361,
                -0.9918338579614061,
                1.2813863404135795,
                -0.3113142426574146,
                1.4405442928535446,
                3.2182202879246042
            ]
        },
        {
            "positions": [
                -2.833898559724758,
                -1.016204062023264,
                1.3854044882866017,
                -0.38477182581186103,
                1.3321458238176294,
                3.20539006073134
            ]
        },
        {
            "positions": [
                -2.773740547932155,
                -1.0405742660851218,
                1.489422636159624,
                -0.4582294089663075,
                1.2237473547817141,
                3.1925598335380756
            ]
        },
        {
            "positions": [
                -2.713582536139552,
                -1.0649444701469797,
                1.593440784032646,
                -0.531686992120754,
                1.115348885745799,
                3.179729606344811
            ]
        },
        {
            "positions": [
                -2.6534245243469488,
                -1.0893146742088373,
                1.6974589319056683,
                -0.6051445752752005,
                1.0069504167098837,
                3.1668993791515465
            ]
        },
        {
            "positions": [
                -2.5932665125543455,
                -1.1136848782706952,
                1.8014770797786905,
                -0.6786021584296469,
                0.8985519476739684,
                3.154069151958282
            ]
        },
        {
            "positions": [
                -2.5331085007617427,
                -1.138055082332553,
                1.9054952276517128,
                -0.7520597415840934,
                0.7901534786380532,
                3.141238924765018
            ]
        },
        {
            "positions": [
                -2.4729504889691394,
                -1.162425286394411,
                2.009513375524735,
                -0.8255173247385399,
                0.681755009602138,
                3.1284086975717535
            ]
        }
    ]
}