{
    "goal": {
        "global_pose": {
            "orientation": {
                "w": -0.00223480608172531,
                "x": 0.0024358444001904467,
                "y": 0.7094548369677653,
                "z": -0.704743149386269
            },
            "position": {
                "x": -0.37947507619857795,
                "y": -0.6371506643295288,
                "z": 0.19426114857196808
            }
        },
        "name": "move_to_magneteinheit_C"
    },
    "id": "BKPIECE_move_to_magneteinheit_C_14",
    "joint_names": [
        "shoulder_pan_joint",
        "shoulder_lift_joint",
        "elbow_joint",
        "wrist_1_joint",
        "wrist_2_joint",
        "wrist_3_joint"
    ],
    "metrics": {
        "cart_traj_len": 3.8268430043252737,
        "distance_elbow_joint": 6.850872661054988,
        "distance_shoulder_lift_joint": 1.6240613517148996,
        "distance_shoulder_pan_joint": 1.8405354294304033,
        "distance_wrist_1_joint": 1.6715418637391255,
        "distance_wrist_2_joint": 1.8384238448638321,
        "distance_wrist_3_joint": 13.192496951725118,
        "smoothness": 0.6260390570933091,
        "time": 1.078453472,
        "traj_len": 5.197877653670619,
        "weighted_distance": 7.544063342429033
    },
    "planner": "BKPIECE",
    "start": {
        "state": {
            "elbow_joint": 1.9565354006590394,
            "shoulder_lift_joint": -1.4165861576513559,
            "shoulder_pan_joint": -1.6717766223277177,
            "wrist_1_joint": -0.5286633288215096,
            "wrist_2_joint": 1.4727565892594296,
            "wrist_3_joint": 3.1593482883155493
        }
    },
    "waypoints": [
        {
            "positions": [
                -1.6717766223277177,
                -1.4165861576513559,
                1.9565354006590394,
                -0.5286633288215096,
                1.4727565892594296,
                3.1593482883155493
            ]
        },
        {
            "positions": [
                -1.6250327798155761,
                -1.4312985142022931,
                1.9446786362170563,
                -0.5257275657417535,
                1.472458631925118,
                3.1303438206194647
            ]
        },
        {
            "positions": [
                -1.5749918242322343,
                -1.5064608802699087,
                1.918067187862645,
                -0.44596046625648,
                1.3942626587769134,
                3.0672624122283936
            ]
        },
        {
            "positions": [
                -1.5249508686488924,
                -1.5816232463375244,
                1.8914557395082339,
                -0.3661933667712065,
                1.3160666856287084,
                3.0041810038373225
            ]
        },
        {
            "positions": [
                -1.4749099130655507,
                -1.65678561240514,
                1.8648442911538226,
                -0.286426267285933,
                1.2378707124805035,
                2.9410995954462513
            ]
        },
        {
            "positions": [
                -1.4248689574822089,
                -1.7319479784727556,
                1.8382328427994112,
                -0.20665916780065952,
                1.1596747393322988,
                2.87801818705518
            ]
        },
        {
            "positions": [
                -1.4661852012074685,
                -1.7036099269076086,
                1.7370904465478587,
                -0.19828419209772577,
                1.1757845666050748,
                2.680447527758057
            ]
        },
        {
            "positions": [
                -1.5075014449327282,
                -1.6752718753424616,
                1.6359480502963062,
                -0.18990921639479202,
                1.1918943938778508,
                2.482876868460933
            ]
        },
        {
            "positions": [
                -1.5488176886579879,
                -1.6469338237773146,
                1.5348056540447534,
                -0.1815342406918583,
                1.2080042211506268,
                2.2853062091638097
            ]
        },
        {
            "positions": [
                -1.5901339323832475,
                -1.6185957722121675,
                1.433663257793201,
                -0.17315926498892456,
                1.2241140484234028,
                2.087735549866686
            ]
        },
        {
            "positions": [
                -1.6314501761085072,
                -1.5902577206470205,
                1.3325208615416484,
                -0.16478428928599081,
                1.240223875696179,
                1.8901648905695625
            ]
        },
        {
            "positions": [
                -1.6727664198337668,
                -1.5619196690818735,
                1.2313784652900956,
                -0.1564093135830571,
                1.256333702968955,
                1.6925942312724391
            ]
        },
        {
            "positions": [
                -1.7140826635590265,
                -1.5335816175167265,
                1.1302360690385431,
                -0.14803433788012335,
                1.272443530241731,
                1.4950235719753155
            ]
        },
        {
            "positions": [
                -1.7553989072842862,
                -1.5052435659515795,
                1.0290936727869906,
                -0.1396593621771896,
                1.288553357514507,
                1.297452912678192
            ]
        },
        {
            "positions": [
                -1.7967151510095458,
                -1.4769055143864325,
                0.9279512765354381,
                -0.13128438647425586,
                1.304663184787283,
                1.0998822533810684
            ]
        },
        {
            "positions": [
                -1.8380313947348055,
                -1.4485674628212855,
                0.8268088802838855,
                -0.12290941077132213,
                1.320773012060059,
                0.9023115940839448
            ]
        },
        {
            "positions": [
                -1.8793476384600651,
                -1.4202294112561384,
                0.7256664840323328,
                -0.1145344350683884,
                1.336882839332835,
                0.7047409347868214
            ]
        },
        {
            "positions": [
                -1.920663882185325,
                -1.3918913596909914,
                0.6245240877807803,
                -0.10615945936545465,
                1.3529926666056111,
                0.5071702754896981
            ]
        },
        {
            "positions": [
                -1.9619801259105847,
                -1.3635533081258444,
                0.5233816915292278,
                -0.0977844836625209,
                1.3691024938783871,
                0.30959961619257426
            ]
        },
        {
            "positions": [
                -2.0032963696358443,
                -1.3352152565606974,
                0.422239295277675,
                -0.08940950795958717,
                1.385212321151163,
                0.11202895689545089
            ]
        },
        {
            "positions": [
                -2.044612613361104,
                -1.3068772049955504,
                0.3210968990261225,
                -0.08103453225665344,
                1.401322148423939,
                -0.08554170240167291
            ]
        },
        {
            "positions": [
                -2.0859288570863637,
                -1.2785391534304034,
                0.21995450277456996,
                -0.0726595565537197,
                1.417431975696715,
                -0.2831123616987963
            ]
        },
        {
            "positions": [
                -2.1272451008116233,
                -1.2502011018652563,
                0.11881210652301744,
                -0.06428458085078595,
                1.433541802969491,
                -0.48068302099591964
            ]
        },
        {
            "positions": [
                -2.168561344536883,
                -1.2218630503001093,
                0.01766971027146491,
                -0.055909605147852204,
                1.449651630242267,
                -0.6782536802930434
            ]
        },
        {
            "positions": [
                -2.2098775882621426,
                -1.1935249987349623,
                -0.08347268598008784,
                -0.047534629444918486,
                1.4657614575150433,
                -0.8758243395901668
            ]
        },
        {
            "positions": [
                -2.2511938319874023,
                -1.1651869471698153,
                -0.18461508223164014,
                -0.03915965374198474,
                1.481871284787819,
                -1.0733949988872906
            ]
        },
        {
            "positions": [
                -2.292510075712662,
                -1.1368488956046683,
                -0.2857574784831929,
                -0.030784678039050994,
                1.4979811120605953,
                -1.270965658184414
            ]
        },
        {
            "positions": [
                -2.3338263194379216,
                -1.1085108440395213,
                -0.38689987473474563,
                -0.022409702336117276,
                1.5140909393333712,
                -1.4685363174815373
            ]
        },
        {
            "positions": [
                -2.3751425631631813,
                -1.0801727924743743,
                -0.48804227098629793,
                -0.01403472663318353,
                1.5302007666061472,
                -1.6661069767786607
            ]
        },
        {
            "positions": [
                -2.416458806888441,
                -1.0518347409092272,
                -0.5891846672378507,
                -0.005659750930249785,
                1.5463105938789232,
                -1.863677636075784
            ]
        },
        {
            "positions": [
                -2.4577750506137006,
                -1.0234966893440802,
                -0.6903270634894034,
                0.0027152247726839607,
                1.5624204211516992,
                -2.0612482953729083
            ]
        },
        {
            "positions": [
                -2.4990912943389603,
                -0.9951586377789332,
                -0.7914694597409557,
                0.011090200475617706,
                1.5785302484244752,
                -2.2588189546700317
            ]
        },
        {
            "positions": [
                -2.54040753806422,
                -0.9668205862137862,
                -0.8926118559925085,
                0.019465176178551424,
                1.5946400756972512,
                -2.456389613967155
            ]
        },
        {
            "positions": [
                -2.5817237817894796,
                -0.9384825346486392,
                -0.9937542522440612,
                0.02784015188148517,
                1.6107499029700274,
                -2.6539602732642784
            ]
        },
        {
            "positions": [
                -2.6230400255147392,
                -0.9101444830834922,
                -1.0948966484956135,
                0.036215127584418916,
                1.6268597302428032,
                -2.8515309325614018
            ]
        },
        {
            "positions": [
                -2.664356269239999,
                -0.8818064315183451,
                -1.1960390447471663,
                0.044590103287352634,
                1.6429695575155794,
                -3.049101591858526
            ]
        },
        {
            "positions": [
                -2.7056725129652586,
                -0.8534683799531981,
                -1.2971814409987186,
                0.05296507899028641,
                1.6590793847883554,
                -3.2466722511556494
            ]
        },
        {
            "positions": [
                -2.7469887566905182,
                -0.8251303283880511,
                -1.3983238372502715,
                0.061340054693220125,
                1.6751892120611314,
                -3.4442429104527728
            ]
        },
        {
            "positions": [
                -2.738872437309998,
                -0.8370907879418996,
                -1.2868864256235444,
                0.029165806416767616,
                1.6426383985757225,
                -3.2566705940095613
            ]
        },
        {
            "positions": [
                -2.730756117929478,
                -0.8490512474957481,
                -1.1754490139968172,
                -0.0030084418596848933,
                1.6100875850903136,
                -3.06909827756635
            ]
        },
        {
            "positions": [
                -2.722639798548958,
                -0.8610117070495966,
                -1.06401160237009,
                -0.035182690136137396,
                1.5775367716049047,
                -2.8815259611231383
            ]
        },
        {
            "positions": [
                -2.714523479168438,
                -0.8729721666034451,
                -0.9525741907433629,
                -0.06735693841258991,
                1.5449859581194958,
                -2.6939536446799273
            ]
        },
        {
            "positions": [
                -2.706407159787918,
                -0.8849326261572937,
                -0.8411367791166358,
                -0.0995311866890424,
                1.512435144634087,
                -2.5063813282367158
            ]
        },
        {
            "positions": [
                -2.698290840407398,
                -0.8968930857111422,
                -0.7296993674899086,
                -0.13170543496549492,
                1.479884331148678,
                -2.3188090117935043
            ]
        },
        {
            "positions": [
                -2.690174521026878,
                -0.9088535452649907,
                -0.6182619558631814,
                -0.16387968324194743,
                1.4473335176632691,
                -2.1312366953502933
            ]
        },
        {
            "positions": [
                -2.682058201646358,
                -0.9208140048188392,
                -0.5068245442364543,
                -0.19605393151839995,
                1.4147827041778602,
                -1.9436643789070815
            ]
        },
        {
            "positions": [
                -2.673941882265838,
                -0.9327744643726877,
                -0.3953871326097269,
                -0.2282281797948525,
                1.3822318906924513,
                -1.75609206246387
            ]
        },
        {
            "positions": [
                -2.665825562885318,
                -0.9447349239265362,
                -0.283949720983,
                -0.2604024280713049,
                1.3496810772070427,
                -1.5685197460206588
            ]
        },
        {
            "positions": [
                -2.6577092435047978,
                -0.9566953834803849,
                -0.1725123093562726,
                -0.29257667634775747,
                1.3171302637216338,
                -1.3809474295774473
            ]
        },
        {
            "positions": [
                -2.6495929241242777,
                -0.9686558430342334,
                -0.06107489772954566,
                -0.32475092462420996,
                1.2845794502362249,
                -1.1933751131342358
            ]
        },
        {
            "positions": [
                -2.6414766047437577,
                -0.9806163025880819,
                0.050362513897181715,
                -0.3569251729006625,
                1.252028636750816,
                -1.0058027966910243
            ]
        },
        {
            "positions": [
                -2.6333602853632376,
                -0.9925767621419304,
                0.16179992552390865,
                -0.389099421177115,
                1.219477823265407,
                -0.8182304802478133
            ]
        },
        {
            "positions": [
                -2.6252439659827176,
                -1.0045372216957789,
                0.27323733715063603,
                -0.42127366945356753,
                1.1869270097799982,
                -0.6306581638046018
            ]
        },
        {
            "positions": [
                -2.6171276466021975,
                -1.0164976812496274,
                0.38467474877736296,
                -0.45344791773002,
                1.1543761962945893,
                -0.44308584736139034
            ]
        },
        {
            "positions": [
                -2.609011327221678,
                -1.0284581408034759,
                0.4961121604040901,
                -0.48562216600647246,
                1.1218253828091806,
                -0.2555135309181793
            ]
        },
        {
            "positions": [
                -2.600895007841158,
                -1.0404186003573244,
                0.6075495720308177,
                -0.5177964142829251,
                1.0892745693237715,
                -0.06794121447496737
            ]
        },
        {
            "positions": [
                -2.592778688460638,
                -1.0523790599111729,
                0.7189869836575447,
                -0.5499706625593775,
                1.0567237558383626,
                0.11963110196824367
            ]
        },
        {
            "positions": [
                -2.584662369080118,
                -1.0643395194650214,
                0.8304243952842716,
                -0.58214491083583,
                1.024172942352954,
                0.30720341841145515
            ]
        },
        {
            "positions": [
                -2.5765460496995978,
                -1.0762999790188699,
                0.9418618069109985,
                -0.6143191591122825,
                0.991622128867545,
                0.4947757348546662
            ]
        },
        {
            "positions": [
                -2.5684297303190777,
                -1.0882604385727186,
                1.0532992185377263,
                -0.6464934073887351,
                0.9590713153821361,
                0.6823480512978781
            ]
        },
        {
            "positions": [
                -2.5603134109385577,
                -1.100220898126567,
                1.1647366301644533,
                -0.6786676556651876,
                0.9265205018967272,
                0.8699203677410896
            ]
        },
        {
            "positions": [
                -2.5521970915580376,
                -1.1121813576804156,
                1.2761740417911802,
                -0.71084190394164,
                0.8939696884113183,
                1.057492684184301
            ]
        },
        {
            "positions": [
                -2.5440807721775176,
                -1.124141817234264,
                1.3876114534179076,
                -0.7430161522180925,
                0.8614188749259095,
                1.2450650006275117
            ]
        },
        {
            "positions": [
                -2.5359644527969976,
                -1.1361022767881126,
                1.499048865044635,
                -0.7751904004945451,
                0.8288680614405005,
                1.432637317070724
            ]
        },
        {
            "positions": [
                -2.5278481334164775,
                -1.148062736341961,
                1.610486276671362,
                -0.8073646487709976,
                0.7963172479550916,
                1.6202096335139347
            ]
        },
        {
            "positions": [
                -2.5197318140359575,
                -1.1600231958958096,
                1.7219236882980888,
                -0.8395388970474501,
                0.7637664344696828,
                1.8077819499571461
            ]
        },
        {
            "positions": [
                -2.5116154946554374,
                -1.171983655449658,
                1.8333610999248162,
                -0.8717131453239025,
                0.731215620984274,
                1.9953542664003576
            ]
        },
        {
            "positions": [
                -2.5034991752749174,
                -1.1839441150035066,
                1.9447985115515436,
                -0.9038873936003552,
                0.6986648074988651,
                2.182926582843569
            ]
        },
        {
            "positions": [
                -2.4953828558943973,
                -1.195904574557355,
                2.0562359231782708,
                -0.9360616418768076,
                0.6661139940134562,
                2.3704988992867806
            ]
        },
        {
            "positions": [
                -2.488748834367576,
                -1.185535363010858,
                2.042418035605892,
                -0.9080160473253518,
                0.6658632259600583,
                2.628553547025861
            ]
        },
        {
            "positions": [
                -2.4821148128407544,
                -1.1751661514643608,
                2.028600148033513,
                -0.8799704527738959,
                0.6656124579066603,
                2.8866081947649413
            ]
        },
        {
            "positions": [
                -2.475480791313933,
                -1.1647969399178637,
                2.0147822604611343,
                -0.85192485822244,
                0.6653616898532625,
                3.144662842504022
            ]
        }
    ]
}