{
    "goal": {
        "global_pose": {
            "orientation": {
                "w": -0.4816463035849501,
                "x": 0.5182115481033762,
                "y": 0.4908360881923453,
                "z": -0.5084816262002911
            },
            "position": {
                "x": -0.8240239810943604,
                "y": -0.300875300988555,
                "z": 0.16403168439865112
            }
        },
        "name": "move_to_storage_C"
    },
    "id": "BKPIECE_move_to_storage_C_140",
    "joint_names": [
        "shoulder_pan_joint",
        "shoulder_lift_joint",
        "elbow_joint",
        "wrist_1_joint",
        "wrist_2_joint",
        "wrist_3_joint"
    ],
    "metrics": {
        "cart_traj_len": 0.5757791943398227,
        "distance_elbow_joint": 0.2578412415868063,
        "distance_shoulder_lift_joint": 0.1881480688392282,
        "distance_shoulder_pan_joint": 0.4940459968565549,
        "distance_wrist_1_joint": 0.08166999175481893,
        "distance_wrist_2_joint": 1.0681825960328544,
        "distance_wrist_3_joint": 0.05680955967688117,
        "smoothness": 5.075305295617109e-16,
        "time": 0.9565369149999999,
        "traj_len": 1.4651612384809884,
        "weighted_distance": 1.846664333843208
    },
    "planner": "BKPIECE",
    "start": {
        "state": {
            "elbow_joint": 2.010868315001653,
            "shoulder_lift_joint": -1.1634956873357014,
            "shoulder_pan_joint": -2.4736205022346103,
            "wrist_1_joint": -0.8367026794713948,
            "wrist_2_joint": 0.6746043897044093,
            "wrist_3_joint": 3.1335220948105738
        }
    },
    "waypoints": [
        {
            "positions": [
                -2.4736205022346103,
                -1.1634956873357014,
                2.010868315001653,
                -0.8367026794713948,
                0.6746043897044093,
                3.1335220948105738
            ]
        },
        {
            "positions": [
                -2.5559615017107027,
                -1.1321376758624968,
                1.9678947747371853,
                -0.8230910141789249,
                0.8526348223765516,
                3.1429903547567206
            ]
        },
        {
            "positions": [
                -2.638302501186795,
                -1.100779664389292,
                1.9249212344727176,
                -0.8094793488864551,
                1.030665255048694,
                3.1524586147028675
            ]
        },
        {
            "positions": [
                -2.720643500662888,
                -1.0694216529160874,
                1.8819476942082498,
                -0.7958676835939853,
                1.2086956877208364,
                3.1619268746490143
            ]
        },
        {
            "positions": [
                -2.8029845001389804,
                -1.0380636414428825,
                1.8389741539437823,
                -0.7822560183015155,
                1.3867261203929788,
                3.171395134595161
            ]
        },
        {
            "positions": [
                -2.885325499615073,
                -1.006705629969678,
                1.7960006136793145,
                -0.7686443530090457,
                1.5647565530651213,
                3.180863394541308
            ]
        },
        {
            "positions": [
                -2.967666499091165,
                -0.9753476184964732,
                1.7530270734148468,
                -0.7550326877165758,
                1.7427869857372638,
                3.190331654487455
            ]
        }
    ]
}