{
    "goal": {
        "global_pose": {
            "orientation": {
                "w": 0.5084816262002911,
                "x": -0.4908360881923452,
                "y": 0.5182115481033761,
                "z": -0.48164630358495003
            },
            "position": {
                "x": 0.5540239810943604,
                "y": -0.46912469901144505,
                "z": 0.16403168439865112
            }
        },
        "name": "move_to_storage_B"
    },
    "id": "BKPIECE_move_to_storage_B_81",
    "joint_names": [
        "shoulder_pan_joint",
        "shoulder_lift_joint",
        "elbow_joint",
        "wrist_1_joint",
        "wrist_2_joint",
        "wrist_3_joint"
    ],
    "metrics": {
        "cart_traj_len": 5.17742380433958,
        "distance_elbow_joint": 9.246921338169749,
        "distance_shoulder_lift_joint": 1.4668033382866332,
        "distance_shoulder_pan_joint": 1.491735000691792,
        "distance_wrist_1_joint": 2.9824929389063524,
        "distance_wrist_2_joint": 3.2384889726310164,
        "distance_wrist_3_joint": 3.5861009431599378,
        "smoothness": 0.36600694580891985,
        "time": 1.467470656,
        "traj_len": 4.691752607698479,
        "weighted_distance": 5.950271113966384
    },
    "planner": "BKPIECE",
    "start": {
        "state": {
            "elbow_joint": 1.6649325706314817,
            "shoulder_lift_joint": -0.6616388048112454,
            "shoulder_pan_joint": -0.9139837860083814,
            "wrist_1_joint": 2.146757197745094,
            "wrist_2_joint": -2.234196043158733,
            "wrist_3_joint": 0.005471033829999897
        }
    },
    "waypoints": [
        {
            "positions": [
                -0.9139837860083814,
                -0.6616388048112454,
                1.6649325706314817,
                2.146757197745094,
                -2.234196043158733,
                0.005471033829999897
            ]
        },
        {
            "positions": [
                -0.845318947333876,
                -0.7065872908931622,
                1.6589915110048985,
                2.056668327240681,
                -2.1308031350830032,
                -0.051219018932654244
            ]
        },
        {
            "positions": [
                -0.7766541086593708,
                -0.751535776975079,
                1.653050451378315,
                1.9665794567362682,
                -2.027410227007273,
                -0.10790907169530838
            ]
        },
        {
            "positions": [
                -0.7079892699848654,
                -0.7964842630569958,
                1.6471093917517319,
                1.8764905862318553,
                -1.9240173189315435,
                -0.16459912445796251
            ]
        },
        {
            "positions": [
                -0.6393244313103601,
                -0.8414327491389126,
                1.6411683321251487,
                1.7864017157274423,
                -1.8206244108558136,
                -0.22128917722061667
            ]
        },
        {
            "positions": [
                -0.6257316886887587,
                -0.8234246375579839,
                1.4831422708943642,
                1.695974531533934,
                -1.72915175482838,
                -0.20397129257814023
            ]
        },
        {
            "positions": [
                -0.6121389460671572,
                -0.805416525977055,
                1.3251162096635798,
                1.6055473473404258,
                -1.6376790988009462,
                -0.1866534079356638
            ]
        },
        {
            "positions": [
                -0.5985462034455559,
                -0.7874084143961263,
                1.1670901484327951,
                1.5151201631469178,
                -1.5462064427735125,
                -0.16933552329318735
            ]
        },
        {
            "positions": [
                -0.5849534608239545,
                -0.7694003028151976,
                1.0090640872020107,
                1.4246929789534095,
                -1.4547337867460788,
                -0.15201763865071094
            ]
        },
        {
            "positions": [
                -0.571360718202353,
                -0.7513921912342687,
                0.8510380259712261,
                1.3342657947599013,
                -1.363261130718645,
                -0.13469975400823447
            ]
        },
        {
            "positions": [
                -0.5577679755807516,
                -0.73338407965334,
                0.6930119647404417,
                1.243838610566393,
                -1.2717884746912114,
                -0.11738186936575806
            ]
        },
        {
            "positions": [
                -0.5441752329591503,
                -0.7153759680724112,
                0.5349859035096571,
                1.1534114263728847,
                -1.1803158186637777,
                -0.10006398472328162
            ]
        },
        {
            "positions": [
                -0.5305824903375489,
                -0.6973678564914824,
                0.3769598422788727,
                1.0629842421793767,
                -1.088843162636344,
                -0.08274610008080518
            ]
        },
        {
            "positions": [
                -0.5169897477159474,
                -0.6793597449105536,
                0.21893378104808803,
                0.9725570579858682,
                -0.9973705066089101,
                -0.06542821543832875
            ]
        },
        {
            "positions": [
                -0.503397005094346,
                -0.6613516333296248,
                0.060907719817303585,
                0.8821298737923601,
                -0.9058978505814765,
                -0.04811033079585231
            ]
        },
        {
            "positions": [
                -0.48980426247274467,
                -0.643343521748696,
                -0.09711834141348086,
                0.7917026895988518,
                -0.8144251945540428,
                -0.030792446153375896
            ]
        },
        {
            "positions": [
                -0.4762115198511433,
                -0.6253354101677673,
                -0.2551444026442653,
                0.7012755054053437,
                -0.7229525385266091,
                -0.013474561510899458
            ]
        },
        {
            "positions": [
                -0.4626187772295418,
                -0.6073272985868384,
                -0.41317046387504996,
                0.6108483212118354,
                -0.6314798824991754,
                0.003843323131576981
            ]
        },
        {
            "positions": [
                -0.44902603460794044,
                -0.5893191870059097,
                -0.5711965251058344,
                0.5204211370183272,
                -0.5400072264717417,
                0.02116120777405342
            ]
        },
        {
            "positions": [
                -0.43543329198633907,
                -0.5713110754249808,
                -0.7292225863366188,
                0.4299939528248189,
                -0.448534570444308,
                0.03847909241652983
            ]
        },
        {
            "positions": [
                -0.42184054936473764,
                -0.5533029638440521,
                -0.8872486475674033,
                0.33956676863131086,
                -0.3570619144168743,
                0.0557969770590063
            ]
        },
        {
            "positions": [
                -0.4082478067431362,
                -0.5352948522631233,
                -1.0452747087981877,
                0.2491395844378026,
                -0.2655892583894408,
                0.07311486170148271
            ]
        },
        {
            "positions": [
                -0.39465506412153484,
                -0.5172867406821946,
                -1.2033007700289726,
                0.15871240024429412,
                -0.17411660236200666,
                0.09043274634395917
            ]
        },
        {
            "positions": [
                -0.3810623214999334,
                -0.49927862910126575,
                -1.361326831259757,
                0.06828521605078586,
                -0.08264394633457317,
                0.10775063098643559
            ]
        },
        {
            "positions": [
                -0.367469578878332,
                -0.481270517520337,
                -1.5193528924905415,
                -0.02214196814272218,
                0.008828709692860537,
                0.12506851562891205
            ]
        },
        {
            "positions": [
                -0.3538768362567306,
                -0.4632624059394082,
                -1.677378953721326,
                -0.11256915233623044,
                0.10030136572029424,
                0.14238640027138846
            ]
        },
        {
            "positions": [
                -0.34028409363512924,
                -0.4452542943584794,
                -1.8354050149521104,
                -0.2029963365297387,
                0.19177402174772795,
                0.15970428491386487
            ]
        },
        {
            "positions": [
                -0.3266913510135278,
                -0.42724618277755066,
                -1.9934310761828948,
                -0.29342352072324696,
                0.28324667777516166,
                0.17702216955634134
            ]
        },
        {
            "positions": [
                -0.31309860839192644,
                -0.40923807119662187,
                -2.1514571374136793,
                -0.383850704916755,
                0.37471933380259537,
                0.19434005419881775
            ]
        },
        {
            "positions": [
                -0.29950586577032495,
                -0.39122995961569307,
                -2.309483198644464,
                -0.4742778891102635,
                0.4661919898300291,
                0.21165793884129422
            ]
        },
        {
            "positions": [
                -0.2859131231487236,
                -0.37322184803476427,
                -2.4675092598752486,
                -0.5647050733037715,
                0.5576646458574628,
                0.22897582348377063
            ]
        },
        {
            "positions": [
                -0.27232038052712215,
                -0.3552137364538355,
                -2.625535321106033,
                -0.65513225749728,
                0.6491373018848965,
                0.2462937081262471
            ]
        },
        {
            "positions": [
                -0.2587276379055208,
                -0.33720562487290673,
                -2.783561382336817,
                -0.745559441690788,
                0.7406099579123304,
                0.2636115927687235
            ]
        },
        {
            "positions": [
                -0.29218679200907804,
                -0.3685169156606251,
                -2.591624286928759,
                -0.7491664936696069,
                0.7300626390499323,
                0.37858919125352275
            ]
        },
        {
            "positions": [
                -0.3256459461126353,
                -0.3998282064483435,
                -2.3996871915207008,
                -0.7527735456484258,
                0.7195153201875342,
                0.493566789738322
            ]
        },
        {
            "positions": [
                -0.35910510021619263,
                -0.4311394972360618,
                -2.2077500961126426,
                -0.7563805976272446,
                0.708968001325136,
                0.6085443882231212
            ]
        },
        {
            "positions": [
                -0.3925642543197499,
                -0.46245078802378026,
                -2.0158130007045845,
                -0.7599876496060635,
                0.6984206824627379,
                0.7235219867079206
            ]
        },
        {
            "positions": [
                -0.4260234084233072,
                -0.4937620788114986,
                -1.8238759052965263,
                -0.7635947015848823,
                0.6878733636003398,
                0.8384995851927197
            ]
        },
        {
            "positions": [
                -0.4594825625268645,
                -0.5250733695992169,
                -1.6319388098884684,
                -0.7672017535637012,
                0.6773260447379418,
                0.953477183677519
            ]
        },
        {
            "positions": [
                -0.49294171663042174,
                -0.5563846603869353,
                -1.44000171448041,
                -0.7708088055425201,
                0.6667787258755437,
                1.0684547821623183
            ]
        },
        {
            "positions": [
                -0.526400870733979,
                -0.5876959511746538,
                -1.2480646190723519,
                -0.7744158575213389,
                0.6562314070131455,
                1.1834323806471176
            ]
        },
        {
            "positions": [
                -0.5598600248375363,
                -0.6190072419623721,
                -1.056127523664294,
                -0.7780229095001578,
                0.6456840881507474,
                1.2984099791319166
            ]
        },
        {
            "positions": [
                -0.5933191789410937,
                -0.6503185327500904,
                -0.8641904282562356,
                -0.7816299614789767,
                0.6351367692883493,
                1.413387577616716
            ]
        },
        {
            "positions": [
                -0.6267783330446508,
                -0.6816298235378089,
                -0.6722533328481775,
                -0.7852370134577955,
                0.6245894504259512,
                1.5283651761015151
            ]
        },
        {
            "positions": [
                -0.6602374871482082,
                -0.7129411143255272,
                -0.48031623744011975,
                -0.7888440654366143,
                0.614042131563553,
                1.6433427745863145
            ]
        },
        {
            "positions": [
                -0.6936966412517653,
                -0.7442524051132456,
                -0.28837914203206116,
                -0.7924511174154333,
                0.6034948127011549,
                1.7583203730711137
            ]
        },
        {
            "positions": [
                -0.7271557953553227,
                -0.775563695900964,
                -0.09644204662400302,
                -0.7960581693942521,
                0.5929474938387568,
                1.873297971555913
            ]
        },
        {
            "positions": [
                -0.76061494945888,
                -0.8068749866886824,
                0.09549504878405468,
                -0.799665221373071,
                0.5824001749763588,
                1.9882755700407122
            ]
        },
        {
            "positions": [
                -0.7940741035624372,
                -0.8381862774764007,
                0.28743214419211327,
                -0.8032722733518898,
                0.5718528561139606,
                2.1032531685255114
            ]
        },
        {
            "positions": [
                -0.8275332576659945,
                -0.8694975682641192,
                0.4793692396001714,
                -0.8068793253307087,
                0.5613055372515625,
                2.2182307670103105
            ]
        },
        {
            "positions": [
                -0.8609924117695518,
                -0.9008088590518375,
                0.6713063350082291,
                -0.8104863773095276,
                0.5507582183891644,
                2.3332083654951097
            ]
        },
        {
            "positions": [
                -0.894451565873109,
                -0.9321201498395558,
                0.8632434304162873,
                -0.8140934292883464,
                0.5402108995267663,
                2.4481859639799093
            ]
        },
        {
            "positions": [
                -0.9279107199766664,
                -0.9634314406272743,
                1.0551805258243458,
                -0.8177004812671653,
                0.5296635806643681,
                2.5631635624647084
            ]
        },
        {
            "positions": [
                -0.9613698740802236,
                -0.9947427314149926,
                1.2471176212324036,
                -0.8213075332459842,
                0.51911626180197,
                2.6781411609495076
            ]
        },
        {
            "positions": [
                -0.9948290281837809,
                -1.026054022202711,
                1.4390547166404621,
                -0.824914585224803,
                0.5085689429395719,
                2.7931187594343068
            ]
        },
        {
            "positions": [
                -1.0282881822873382,
                -1.0573653129904295,
                1.6309918120485198,
                -0.8285216372036219,
                0.49802162407717376,
                2.9080963579191064
            ]
        },
        {
            "positions": [
                -1.0617473363908956,
                -1.0886766037781477,
                1.8229289074565775,
                -0.8321286891824408,
                0.4874743052147757,
                3.0230739564039055
            ]
        },
        {
            "positions": [
                -1.0952064904944527,
                -1.1199878945658661,
                2.0148660028646357,
                -0.8357357411612596,
                0.47692698635237757,
                3.1380515548887047
            ]
        }
    ]
}