{
    "goal": {
        "global_pose": {
            "orientation": {
                "w": -0.00223480608172531,
                "x": 0.0024358444001904467,
                "y": 0.7094548369677653,
                "z": -0.704743149386269
            },
            "position": {
                "x": -0.37947507619857795,
                "y": -0.6371506643295288,
                "z": 0.19426114857196808
            }
        },
        "name": "move_to_magneteinheit_C"
    },
    "id": "BKPIECE_move_to_magneteinheit_C_103",
    "joint_names": [
        "shoulder_pan_joint",
        "shoulder_lift_joint",
        "elbow_joint",
        "wrist_1_joint",
        "wrist_2_joint",
        "wrist_3_joint"
    ],
    "metrics": {
        "cart_traj_len": 5.276397051675533,
        "distance_elbow_joint": 1.5883162151487595,
        "distance_shoulder_lift_joint": 1.078709384741755,
        "distance_shoulder_pan_joint": 6.340064240407925,
        "distance_wrist_1_joint": 8.081983076868449,
        "distance_wrist_2_joint": 4.461195826915343,
        "distance_wrist_3_joint": 6.664374096163511,
        "smoothness": 0.6595412960716929,
        "time": 1.139963839,
        "traj_len": 5.311745743185166,
        "weighted_distance": 7.354357207557745
    },
    "planner": "BKPIECE",
    "start": {
        "state": {
            "elbow_joint": 1.9565354006590394,
            "shoulder_lift_joint": -1.4165861576513559,
            "shoulder_pan_joint": -1.6717766223277177,
            "wrist_1_joint": -0.5286633288215096,
            "wrist_2_joint": 1.4727565892594296,
            "wrist_3_joint": 3.1593482883155493
        }
    },
    "waypoints": [
        {
            "positions": [
                -1.6717766223277177,
                -1.4165861576513559,
                1.9565354006590394,
                -0.5286633288215096,
                1.4727565892594296,
                3.1593482883155493
            ]
        },
        {
            "positions": [
                -1.5885572683973226,
                -1.4321876608126025,
                1.936772742045539,
                -0.45360706975055176,
                1.40737591228973,
                3.0253940446760814
            ]
        },
        {
            "positions": [
                -1.5053379144669274,
                -1.4477891639738494,
                1.9170100834320385,
                -0.37855081067959395,
                1.3419952353200306,
                2.891439801036613
            ]
        },
        {
            "positions": [
                -1.4221185605365323,
                -1.463390667135096,
                1.8972474248185378,
                -0.30349455160863614,
                1.276614558350331,
                2.7574855573971453
            ]
        },
        {
            "positions": [
                -1.3388992066061371,
                -1.478992170296343,
                1.8774847662050373,
                -0.22843829253767828,
                1.2112338813806314,
                2.623531313757677
            ]
        },
        {
            "positions": [
                -1.255679852675742,
                -1.4945936734575895,
                1.8577221075915369,
                -0.15338203346672047,
                1.145853204410932,
                2.489577070118209
            ]
        },
        {
            "positions": [
                -1.1724604987453469,
                -1.5101951766188362,
                1.8379594489780364,
                -0.07832577439576266,
                1.0804725274412323,
                2.355622826478741
            ]
        },
        {
            "positions": [
                -1.0892411448149517,
                -1.525796679780083,
                1.818196790364536,
                -0.003269515324804795,
                1.0150918504715327,
                2.221668582839273
            ]
        },
        {
            "positions": [
                -1.0060217908845566,
                -1.5413981829413297,
                1.7984341317510353,
                0.07178674374615301,
                0.9497111735018332,
                2.087714339199805
            ]
        },
        {
            "positions": [
                -0.9228024369541615,
                -1.5569996861025766,
                1.7786714731375348,
                0.1468430028171107,
                0.8843304965321337,
                1.953760095560337
            ]
        },
        {
            "positions": [
                -0.8395830830237663,
                -1.5726011892638232,
                1.7589088145240344,
                0.22189926188806863,
                0.8189498195624341,
                1.8198058519208689
            ]
        },
        {
            "positions": [
                -0.7563637290933712,
                -1.5882026924250698,
                1.739146155910534,
                0.29695552095902644,
                0.7535691425927346,
                1.6858516082814008
            ]
        },
        {
            "positions": [
                -0.6731443751629761,
                -1.6038041955863167,
                1.7193834972970334,
                0.37201178002998425,
                0.688188465623035,
                1.551897364641933
            ]
        },
        {
            "positions": [
                -0.5899250212325808,
                -1.6194056987475633,
                1.6996208386835328,
                0.44706803910094206,
                0.6228077886533354,
                1.4179431210024647
            ]
        },
        {
            "positions": [
                -0.5067056673021857,
                -1.6350072019088102,
                1.6798581800700323,
                0.5221242981719,
                0.5574271116836358,
                1.2839888773629966
            ]
        },
        {
            "positions": [
                -0.42348631337179077,
                -1.6506087050700569,
                1.6600955214565318,
                0.5971805572428576,
                0.4920464347139364,
                1.150034633723529
            ]
        },
        {
            "positions": [
                -0.3402669594413956,
                -1.6662102082313035,
                1.6403328628430314,
                0.6722368163138156,
                0.42666575774423676,
                1.0160803900840607
            ]
        },
        {
            "positions": [
                -0.25704760551100025,
                -1.6818117113925504,
                1.620570204229531,
                0.7472930753847734,
                0.36128508077453714,
                0.8821261464445924
            ]
        },
        {
            "positions": [
                -0.17382825158060533,
                -1.697413214553797,
                1.6008075456160302,
                0.822349334455731,
                0.29590440380483773,
                0.7481719028051246
            ]
        },
        {
            "positions": [
                -0.09060889765021019,
                -1.7130147177150437,
                1.5810448870025298,
                0.897405593526689,
                0.2305237268351381,
                0.6142176591656567
            ]
        },
        {
            "positions": [
                -0.007389543719814817,
                -1.7286162208762905,
                1.5612822283890293,
                0.9724618525976468,
                0.16514304986543848,
                0.48026341552618845
            ]
        },
        {
            "positions": [
                0.0758298102105801,
                -1.7442177240375372,
                1.5415195697755288,
                1.0475181116686048,
                0.09976237289573908,
                0.3463091718867206
            ]
        },
        {
            "positions": [
                0.15904916414097525,
                -1.759819227198784,
                1.5217569111620284,
                1.1225743707395623,
                0.03438169592603946,
                0.21235492824725233
            ]
        },
        {
            "positions": [
                0.2422685180713704,
                -1.7754207303600307,
                1.5019942525485277,
                1.1976306298105204,
                -0.030998981043660168,
                0.07840068460778449
            ]
        },
        {
            "positions": [
                0.32548787200176554,
                -1.7910222335212773,
                1.4822315939350272,
                1.272686888881478,
                -0.09637965801335957,
                -0.05555355903168335
            ]
        },
        {
            "positions": [
                0.4087072259321607,
                -1.8066237366825242,
                1.4624689353215268,
                1.347743147952436,
                -0.1617603349830592,
                -0.18950780267115153
            ]
        },
        {
            "positions": [
                0.2912366155208077,
                -1.7945707723767756,
                1.4475342373466524,
                1.216198390870443,
                -0.13234006424340647,
                -0.11238500946089701
            ]
        },
        {
            "positions": [
                0.17376600510945472,
                -1.7825178080710273,
                1.4325995393717783,
                1.0846536337884503,
                -0.10291979350375373,
                -0.03526221625064249
            ]
        },
        {
            "positions": [
                0.05629539469810174,
                -1.770464843765279,
                1.417664841396904,
                0.9531088767064573,
                -0.07349952276410099,
                0.04186057695961204
            ]
        },
        {
            "positions": [
                -0.06117521571325124,
                -1.7584118794595305,
                1.4027301434220296,
                0.8215641196244644,
                -0.04407925202444826,
                0.11898337016986654
            ]
        },
        {
            "positions": [
                -0.17864582612460422,
                -1.746358915153782,
                1.3877954454471555,
                0.6900193625424714,
                -0.014658981284795508,
                0.19610616338012116
            ]
        },
        {
            "positions": [
                -0.2961164365359572,
                -1.7343059508480336,
                1.3728607474722812,
                0.5584746054604786,
                0.014761289454857218,
                0.2732289565903756
            ]
        },
        {
            "positions": [
                -0.4135870469473102,
                -1.7222529865422853,
                1.3579260494974068,
                0.4269298483784857,
                0.044181560194509945,
                0.3503517498006302
            ]
        },
        {
            "positions": [
                -0.5310576573586632,
                -1.7102000222365368,
                1.3429913515225327,
                0.2953850912964928,
                0.07360183093416267,
                0.4274745430108846
            ]
        },
        {
            "positions": [
                -0.6485282677700162,
                -1.6981470579307882,
                1.3280566535476583,
                0.16384033421449984,
                0.10302210167381542,
                0.5045973362211392
            ]
        },
        {
            "positions": [
                -0.7659988781813691,
                -1.68609409362504,
                1.313121955572784,
                0.03229557713250686,
                0.13244237241346818,
                0.5817201294313938
            ]
        },
        {
            "positions": [
                -0.8834694885927221,
                -1.6740411293192916,
                1.2981872575979099,
                -0.09924917994948612,
                0.16186264315312093,
                0.6588429226416483
            ]
        },
        {
            "positions": [
                -1.000940099004075,
                -1.661988165013543,
                1.2832525596230355,
                -0.23079393703147888,
                0.19128291389277363,
                0.7359657158519027
            ]
        },
        {
            "positions": [
                -1.118410709415428,
                -1.6499352007077945,
                1.2683178616481612,
                -0.36233869411347186,
                0.22070318463242639,
                0.8130885090621572
            ]
        },
        {
            "positions": [
                -1.235881319826781,
                -1.6378822364020462,
                1.253383163673287,
                -0.4938834511954646,
                0.2501234553720791,
                0.890211302272412
            ]
        },
        {
            "positions": [
                -1.353351930238134,
                -1.625829272096298,
                1.2384484656984127,
                -0.6254282082774576,
                0.27954372611173184,
                0.9673340954826665
            ]
        },
        {
            "positions": [
                -1.470822540649487,
                -1.6137763077905494,
                1.2235137677235384,
                -0.7569729653594504,
                0.30896399685138454,
                1.0444568886929209
            ]
        },
        {
            "positions": [
                -1.58829315106084,
                -1.6017233434848008,
                1.2085790697486642,
                -0.8885177224414433,
                0.33838426759103735,
                1.1215796819031754
            ]
        },
        {
            "positions": [
                -1.705763761472193,
                -1.5896703791790525,
                1.19364437177379,
                -1.0200624795234363,
                0.36780453833069,
                1.19870247511343
            ]
        },
        {
            "positions": [
                -1.7785878947996119,
                -1.5672626393029003,
                1.2347738836272013,
                -1.1115046309175134,
                0.4330727499387679,
                1.2886501899858152
            ]
        },
        {
            "positions": [
                -1.8514120281270308,
                -1.544854899426748,
                1.2759033954806127,
                -1.2029467823115902,
                0.49834096154684576,
                1.3785979048582002
            ]
        },
        {
            "positions": [
                -1.9242361614544496,
                -1.5224471595505957,
                1.3170329073340241,
                -1.294388933705667,
                0.5636091731549236,
                1.4685456197305853
            ]
        },
        {
            "positions": [
                -1.9970602947818685,
                -1.5000394196744435,
                1.3581624191874355,
                -1.3858310850997442,
                0.6288773847630016,
                1.5584933346029703
            ]
        },
        {
            "positions": [
                -2.0698844281092876,
                -1.4776316797982911,
                1.399291931040847,
                -1.4772732364938213,
                0.6941455963710794,
                1.6484410494753554
            ]
        },
        {
            "positions": [
                -2.1427085614367063,
                -1.455223939922139,
                1.440421442894258,
                -1.568715387887898,
                0.7594138079791573,
                1.7383887643477403
            ]
        },
        {
            "positions": [
                -2.2155326947641254,
                -1.4328162000459868,
                1.4815509547476695,
                -1.660157539281975,
                0.8246820195872351,
                1.8283364792201255
            ]
        },
        {
            "positions": [
                -2.288356828091544,
                -1.4104084601698346,
                1.522680466601081,
                -1.751599690676052,
                0.8899502311953131,
                1.9182841940925106
            ]
        },
        {
            "positions": [
                -2.361180961418963,
                -1.3880007202936822,
                1.5638099784544923,
                -1.843041842070129,
                0.955218442803391,
                2.0082319089648957
            ]
        },
        {
            "positions": [
                -2.4340050947463823,
                -1.36559298041753,
                1.6049394903079037,
                -1.934483993464206,
                1.0204866544114688,
                2.0981796238372805
            ]
        },
        {
            "positions": [
                -2.506829228073801,
                -1.3431852405413778,
                1.6460690021613151,
                -2.025926144858283,
                1.0857548660195468,
                2.188127338709666
            ]
        },
        {
            "positions": [
                -2.5796533614012196,
                -1.3207775006652254,
                1.6871985140147265,
                -2.11736829625236,
                1.1510230776276247,
                2.2780750535820506
            ]
        },
        {
            "positions": [
                -2.6524774947286387,
                -1.2983697607890732,
                1.728328025868138,
                -2.208810447646437,
                1.2162912892357025,
                2.368022768454436
            ]
        },
        {
            "positions": [
                -2.725301628056058,
                -1.275962020912921,
                1.7694575377215491,
                -2.3002525990405136,
                1.2815595008437803,
                2.4579704833268208
            ]
        },
        {
            "positions": [
                -2.7981257613834765,
                -1.2535542810367688,
                1.8105870495749605,
                -2.3916947504345907,
                1.3468277124518584,
                2.5479181981992056
            ]
        },
        {
            "positions": [
                -2.8709498947108956,
                -1.2311465411606164,
                1.851716561428372,
                -2.4831369018286678,
                1.4120959240599362,
                2.6378659130715914
            ]
        },
        {
            "positions": [
                -2.9437740280383142,
                -1.2087388012844642,
                1.8928460732817833,
                -2.5745790532227444,
                1.477364135668014,
                2.727813627943976
            ]
        },
        {
            "positions": [
                -3.0165981613657333,
                -1.1863310614083118,
                1.9339755851351947,
                -2.666021204616822,
                1.542632347276092,
                2.817761342816361
            ]
        },
        {
            "positions": [
                -3.0894222946931524,
                -1.1639233215321596,
                1.9751050969886061,
                -2.7574633560108985,
                1.6079005588841697,
                2.907709057688746
            ]
        },
        {
            "positions": [
                -3.162246428020571,
                -1.1415155816560074,
                2.0162346088420176,
                -2.8489055074049756,
                1.6731687704922478,
                2.997656772561131
            ]
        },
        {
            "positions": [
                -3.0933837542010396,
                -1.1438719467244145,
                2.0159511139224895,
                -2.648012712931266,
                1.573993790772493,
                3.010492115555585
            ]
        },
        {
            "positions": [
                -3.0245210803815086,
                -1.1462283117928214,
                2.015667619002961,
                -2.4471199184575565,
                1.4748188110527385,
                3.0233274585500385
            ]
        },
        {
            "positions": [
                -2.955658406561977,
                -1.1485846768612284,
                2.015384124083433,
                -2.246227123983847,
                1.375643831332984,
                3.036162801544492
            ]
        },
        {
            "positions": [
                -2.8867957327424456,
                -1.1509410419296353,
                2.0151006291639044,
                -2.0453343295101374,
                1.2764688516132292,
                3.048998144538946
            ]
        },
        {
            "positions": [
                -2.8179330589229146,
                -1.1532974069980424,
                2.0148171342443764,
                -1.844441535036428,
                1.1772938718934745,
                3.0618334875333995
            ]
        },
        {
            "positions": [
                -2.749070385103383,
                -1.1556537720664495,
                2.0145336393248483,
                -1.6435487405627185,
                1.07811889217372,
                3.074668830527853
            ]
        },
        {
            "positions": [
                -2.6802077112838516,
                -1.1580101371348563,
                2.01425014440532,
                -1.4426559460890092,
                0.9789439124539653,
                3.0875041735223068
            ]
        },
        {
            "positions": [
                -2.61134503746432,
                -1.1603665022032634,
                2.0139666494857917,
                -1.2417631516152994,
                0.8797689327342106,
                3.1003395165167604
            ]
        },
        {
            "positions": [
                -2.542482363644789,
                -1.1627228672716703,
                2.0136831545662632,
                -1.04087035714159,
                0.780593953014456,
                3.113174859511214
            ]
        },
        {
            "positions": [
                -2.4736196898252576,
                -1.1650792323400774,
                2.013399659646735,
                -0.8399775626678806,
                0.6814189732947014,
                3.1260102025056677
            ]
        }
    ]
}