{
    "goal": {
        "global_pose": {
            "orientation": {
                "w": 0.7031023502349854,
                "x": -0.7110244035720825,
                "y": 0.007748599164187908,
                "z": 0.005598929710686207
            },
            "position": {
                "x": 0.11585023208521307,
                "y": 0.44412534475326537,
                "z": 0.3711530566215515
            }
        },
        "name": "move_to_auspresseinheit_A"
    },
    "id": "BKPIECE_move_to_auspresseinheit_A_14",
    "joint_names": [
        "shoulder_pan_joint",
        "shoulder_lift_joint",
        "elbow_joint",
        "wrist_1_joint",
        "wrist_2_joint",
        "wrist_3_joint"
    ],
    "metrics": {
        "cart_traj_len": 1.4775165735217073,
        "distance_elbow_joint": 0.5643059538158886,
        "distance_shoulder_lift_joint": 0.5365547190235882,
        "distance_shoulder_pan_joint": 3.9305983004549994,
        "distance_wrist_1_joint": 1.0785296505830124,
        "distance_wrist_2_joint": 2.538148254408517,
        "distance_wrist_3_joint": 0.08337275944722133,
        "smoothness": 1.1133814008308354,
        "time": 2.147172871,
        "traj_len": 2.954912796976119,
        "weighted_distance": 3.537645129407301
    },
    "planner": "BKPIECE",
    "start": {
        "state": {
            "elbow_joint": 2.4225747245308327,
            "shoulder_lift_joint": -1.373653427065438,
            "shoulder_pan_joint": -0.33786330853087027,
            "wrist_1_joint": -1.0288602302712604,
            "wrist_2_joint": 1.23302299562683,
            "wrist_3_joint": -3.094021725338297
        }
    },
    "waypoints": [
        {
            "positions": [
                -0.33786330853087027,
                -1.373653427065438,
                2.4225747245308327,
                -1.0288602302712604,
                1.23302299562683,
                -3.094021725338297
            ]
        },
        {
            "positions": [
                -0.4820796453391619,
                -1.3789280963898742,
                2.4494186596906693,
                -1.0546540398385835,
                1.0803672170694227,
                -3.0999385580015426
            ]
        },
        {
            "positions": [
                -0.6262959821474536,
                -1.3842027657143103,
                2.476262594850506,
                -1.0804478494059067,
                0.9277114385120153,
                -3.1058553906647886
            ]
        },
        {
            "positions": [
                -0.7705123189557452,
                -1.3894774350387467,
                2.503106530010343,
                -1.1062416589732298,
                0.7750556599546081,
                -3.1117722233280345
            ]
        },
        {
            "positions": [
                -0.9147286557640371,
                -1.394752104363183,
                2.5299504651701796,
                -1.132035468540553,
                0.6223998813972007,
                -3.11768905599128
            ]
        },
        {
            "positions": [
                -1.0589449925723287,
                -1.4000267736876193,
                2.5567944003300163,
                -1.1578292781078763,
                0.4697441028397935,
                -3.1236058886545255
            ]
        },
        {
            "positions": [
                -1.2031613293806203,
                -1.4053014430120554,
                2.583638335489853,
                -1.1836230876751994,
                0.3170883242823863,
                -3.1295227213177714
            ]
        },
        {
            "positions": [
                -1.3473776661889119,
                -1.4105761123364917,
                2.6104822706496895,
                -1.2094168972425225,
                0.16443254572497912,
                -3.1354395539810174
            ]
        },
        {
            "positions": [
                -1.4915940029972037,
                -1.415850781660928,
                2.6373262058095266,
                -1.2352107068098457,
                0.011776767167571478,
                -3.141356386644263
            ]
        },
        {
            "positions": [
                -1.6358103398054953,
                -1.4211254509853641,
                2.664170140969363,
                -1.2610045163771688,
                -0.14087901138983572,
                -3.1472732193075084
            ]
        },
        {
            "positions": [
                -1.7800266766137869,
                -1.4264001203098005,
                2.6910140761292,
                -1.286798325944492,
                -0.2935347899472429,
                -3.1531900519707543
            ]
        },
        {
            "positions": [
                -1.5886086048928574,
                -1.463616122292818,
                2.668255106727852,
                -1.2236758986437395,
                -0.2157201384984394,
                -3.1513281725234648
            ]
        },
        {
            "positions": [
                -1.3971905331719279,
                -1.5008321242758351,
                2.6454961373265045,
                -1.1605534713429873,
                -0.1379054870496359,
                -3.149466293076175
            ]
        },
        {
            "positions": [
                -1.2057724614509984,
                -1.5380481262588526,
                2.6227371679251563,
                -1.0974310440422348,
                -0.06009083560083239,
                -3.1476044136288857
            ]
        },
        {
            "positions": [
                -1.0143543897300689,
                -1.5752641282418698,
                2.5999781985238086,
                -1.0343086167414826,
                0.017723815847971114,
                -3.145742534181596
            ]
        },
        {
            "positions": [
                -0.8229363180091394,
                -1.6124801302248872,
                2.577219229122461,
                -0.9711861894407301,
                0.09553846729677462,
                -3.1438806547343066
            ]
        },
        {
            "positions": [
                -0.6315182462882099,
                -1.6496961322079047,
                2.5544602597211132,
                -0.9080637621399779,
                0.17335311874557813,
                -3.142018775287017
            ]
        },
        {
            "positions": [
                -0.44010017456728057,
                -1.686912134190922,
                2.531701290319765,
                -0.8449413348392254,
                0.2511677701943815,
                -3.1401568958397275
            ]
        },
        {
            "positions": [
                -0.24868210284635084,
                -1.7241281361739393,
                2.5089423209184174,
                -0.781818907538473,
                0.32898242164318514,
                -3.138295016392438
            ]
        },
        {
            "positions": [
                -0.057264031125421555,
                -1.7613441381569568,
                2.4861833515170697,
                -0.7186964802377207,
                0.40679707309198854,
                -3.1364331369451484
            ]
        },
        {
            "positions": [
                0.13415404059550817,
                -1.798560140139974,
                2.463424382115722,
                -0.6555740529369684,
                0.48461172454079215,
                -3.134571257497859
            ]
        },
        {
            "positions": [
                0.32557211231643746,
                -1.8357761421229915,
                2.440665412714374,
                -0.592451625636216,
                0.5624263759895956,
                -3.1327093780505693
            ]
        },
        {
            "positions": [
                0.5169901840373672,
                -1.872992144106009,
                2.417906443313026,
                -0.5293291983354637,
                0.6402410274383992,
                -3.1308474986032797
            ]
        },
        {
            "positions": [
                0.7084082557582962,
                -1.9102081460890261,
                2.3951474739116785,
                -0.4662067710347113,
                0.7180556788872026,
                -3.12898561915599
            ]
        }
    ]
}