{
    "goal": {
        "global_pose": {
            "orientation": {
                "w": 0.7031023480610252,
                "x": -0.7110244013736278,
                "y": 0.0077485991402295624,
                "z": 0.005598929693374583
            },
            "position": {
                "x": -0.8841497679147869,
                "y": 0.44412534475326537,
                "z": 0.3711530566215515
            }
        },
        "name": "move_to_auspresseinheit_D"
    },
    "id": "BKPIECE_move_to_auspresseinheit_D_127",
    "joint_names": [
        "shoulder_pan_joint",
        "shoulder_lift_joint",
        "elbow_joint",
        "wrist_1_joint",
        "wrist_2_joint",
        "wrist_3_joint"
    ],
    "metrics": {
        "cart_traj_len": 3.8058598480949177,
        "distance_elbow_joint": 3.001158627898502,
        "distance_shoulder_lift_joint": 1.2509858046416569,
        "distance_shoulder_pan_joint": 2.813278753493163,
        "distance_wrist_1_joint": 2.127807305812681,
        "distance_wrist_2_joint": 1.2202589319941974,
        "distance_wrist_3_joint": 6.234901968481902,
        "smoothness": 0.030541709973534833,
        "time": 0.6133618409999999,
        "traj_len": 4.080244035878504,
        "weighted_distance": 5.697917300829556
    },
    "planner": "BKPIECE",
    "start": {
        "state": {
            "elbow_joint": 1.8268400409724999,
            "shoulder_lift_joint": -1.0144045787793008,
            "shoulder_pan_joint": 2.6280239544362485,
            "wrist_1_joint": -0.790705565816056,
            "wrist_2_joint": 1.0573557467365533,
            "wrist_3_joint": 3.1851377467193758
        }
    },
    "waypoints": [
        {
            "positions": [
                2.6280239544362485,
                -1.0144045787793008,
                1.8268400409724999,
                -0.790705565816056,
                1.0573557467365533,
                3.1851377467193758
            ]
        },
        {
            "positions": [
                2.6363853693087287,
                -1.0097272654530205,
                1.7219280872560137,
                -0.8141233358410902,
                1.004442702912384,
                3.1206150933090604
            ]
        },
        {
            "positions": [
                2.5897682705615304,
                -1.0188413517354922,
                1.6131192901014826,
                -0.8516486928550556,
                0.9707779012039827,
                2.9605545333459684
            ]
        },
        {
            "positions": [
                2.5431511718143325,
                -1.027955438017964,
                1.5043104929469513,
                -0.889174049869021,
                0.9371130994955815,
                2.8004939733828764
            ]
        },
        {
            "positions": [
                2.496534073067134,
                -1.0370695243004358,
                1.3955016957924202,
                -0.9266994068829865,
                0.9034482977871803,
                2.640433413419784
            ]
        },
        {
            "positions": [
                2.449916974319936,
                -1.0461836105829074,
                1.286692898637889,
                -0.9642247638969519,
                0.8697834960787791,
                2.480372853456692
            ]
        },
        {
            "positions": [
                2.403299875572738,
                -1.0552976968653793,
                1.1778841014833579,
                -1.0017501209109172,
                0.8361186943703778,
                2.3203122934936
            ]
        },
        {
            "positions": [
                2.3566827768255396,
                -1.064411783147851,
                1.0690753043288268,
                -1.0392754779248827,
                0.8024538926619766,
                2.160251733530508
            ]
        },
        {
            "positions": [
                2.3100656780783413,
                -1.0735258694303227,
                0.9602665071742955,
                -1.076800834938848,
                0.7687890909535754,
                2.0001911735674156
            ]
        },
        {
            "positions": [
                2.2634485793311434,
                -1.0826399557127946,
                0.8514577100197644,
                -1.1143261919528133,
                0.7351242892451743,
                1.8401306136043238
            ]
        },
        {
            "positions": [
                2.216831480583945,
                -1.0917540419952663,
                0.7426489128652333,
                -1.1518515489667789,
                0.701459487536773,
                1.6800700536412316
            ]
        },
        {
            "positions": [
                2.144547739678009,
                -1.1270353060793006,
                0.6845589886291352,
                -1.2053867405625958,
                0.6752666792702755,
                1.5367417422653602
            ]
        },
        {
            "positions": [
                2.0722639987720726,
                -1.162316570163335,
                0.6264690643930373,
                -1.2589219321584126,
                0.649073871003778,
                1.3934134308894885
            ]
        },
        {
            "positions": [
                1.999980257866136,
                -1.197597834247369,
                0.5683791401569392,
                -1.3124571237542297,
                0.6228810627372805,
                1.2500851195136171
            ]
        },
        {
            "positions": [
                1.9276965169601996,
                -1.2328790983314033,
                0.5102892159208413,
                -1.3659923153500466,
                0.596688254470783,
                1.1067568081377455
            ]
        },
        {
            "positions": [
                1.8554127760542634,
                -1.2681603624154376,
                0.45219929168474327,
                -1.4195275069458635,
                0.5704954462042855,
                0.963428496761874
            ]
        },
        {
            "positions": [
                1.783129035148327,
                -1.303441626499472,
                0.3941093674486453,
                -1.4730626985416804,
                0.5443026379377881,
                0.8201001853860026
            ]
        },
        {
            "positions": [
                1.7108452942423906,
                -1.3387228905835062,
                0.3360194432125473,
                -1.5265978901374972,
                0.5181098296712906,
                0.6767718740101312
            ]
        },
        {
            "positions": [
                1.6385615533364541,
                -1.3740041546675403,
                0.2779295189764493,
                -1.5801330817333141,
                0.4919170214047931,
                0.5334435626342595
            ]
        },
        {
            "positions": [
                1.566277812430518,
                -1.4092854187515746,
                0.2198395947403513,
                -1.633668273329131,
                0.4657242131382956,
                0.3901152512583881
            ]
        },
        {
            "positions": [
                1.4939940715245816,
                -1.444566682835609,
                0.16174967050425326,
                -1.687203464924948,
                0.4395314048717981,
                0.24678693988251643
            ]
        },
        {
            "positions": [
                1.4217103306186454,
                -1.479847946919643,
                0.10365974626815533,
                -1.7407386565207648,
                0.41333859660530065,
                0.10345862850664522
            ]
        },
        {
            "positions": [
                1.349426589712709,
                -1.5151292110036776,
                0.04556982203205728,
                -1.7942738481165819,
                0.38714578833880314,
                -0.03986968286922643
            ]
        },
        {
            "positions": [
                1.2771428488067724,
                -1.5504104750877117,
                -0.01252010220404065,
                -1.8478090397123987,
                0.36095298007230564,
                -0.18319799424509786
            ]
        },
        {
            "positions": [
                1.2048591079008362,
                -1.585691739171746,
                -0.0706100264401387,
                -1.9013442313082156,
                0.33476017180580814,
                -0.3265263056209693
            ]
        },
        {
            "positions": [
                1.1325753669949,
                -1.6209730032557803,
                -0.12869995067623663,
                -1.9548794229040325,
                0.3085673635393107,
                -0.46985461699684095
            ]
        },
        {
            "positions": [
                1.0602916260889634,
                -1.6562542673398144,
                -0.18678987491233467,
                -2.0084146144998494,
                0.2823745552728132,
                -0.6131829283727126
            ]
        },
        {
            "positions": [
                0.9880078851830272,
                -1.691535531423849,
                -0.2448797991484326,
                -2.0619498060956665,
                0.2561817470063157,
                -0.7565112397485838
            ]
        },
        {
            "positions": [
                0.9157241442770909,
                -1.726816795507883,
                -0.30296972338453065,
                -2.115484997691483,
                0.22998893873981824,
                -0.8998395511244555
            ]
        },
        {
            "positions": [
                0.8434404033711542,
                -1.7620980595919173,
                -0.3610596476206288,
                -2.1690201892873002,
                0.20379613047332068,
                -1.0431678625003271
            ]
        },
        {
            "positions": [
                0.771156662465218,
                -1.7973793236759517,
                -0.41914957185672674,
                -2.222555380883117,
                0.17760332220682318,
                -1.1864961738761988
            ]
        },
        {
            "positions": [
                0.6988729215592817,
                -1.8326605877599857,
                -0.4772394960928247,
                -2.276090572478934,
                0.15141051394032579,
                -1.32982448525207
            ]
        },
        {
            "positions": [
                0.6265891806533455,
                -1.86794185184402,
                -0.5353294203289226,
                -2.329625764074751,
                0.12521770567382828,
                -1.4731527966279412
            ]
        },
        {
            "positions": [
                0.554305439747409,
                -1.9032231159280544,
                -0.5934193445650208,
                -2.3831609556705677,
                0.09902489740733067,
                -1.6164811080038133
            ]
        },
        {
            "positions": [
                0.4820216988414727,
                -1.9385043800120887,
                -0.6515092688011187,
                -2.436696147266385,
                0.07283208914083328,
                -1.7598094193796845
            ]
        },
        {
            "positions": [
                0.40973795793553625,
                -1.973785644096123,
                -0.7095991930372166,
                -2.490231338862202,
                0.046639280874335776,
                -1.9031377307555561
            ]
        },
        {
            "positions": [
                0.3374542170296,
                -2.009066908180157,
                -0.7676891172733146,
                -2.5437665304580186,
                0.020446472607838273,
                -2.0464660421314274
            ]
        },
        {
            "positions": [
                0.2651704761236635,
                -2.0443481722641916,
                -0.8257790415094127,
                -2.5973017220538352,
                -0.00574633565865923,
                -2.1897943535072995
            ]
        },
        {
            "positions": [
                0.19288673521772726,
                -2.0796294363482257,
                -0.8838689657455107,
                -2.6508369136496523,
                -0.03193914392515673,
                -2.33312266488317
            ]
        },
        {
            "positions": [
                0.120602994311791,
                -2.11491070043226,
                -0.9419588899816086,
                -2.7043721052454694,
                -0.058131952191654124,
                -2.4764509762590423
            ]
        },
        {
            "positions": [
                0.048319253405854745,
                -2.150191964516294,
                -1.0000488142177066,
                -2.757907296841286,
                -0.08432476045815163,
                -2.6197792876349135
            ]
        },
        {
            "positions": [
                -0.023964487500081955,
                -2.185473228600329,
                -1.0581387384538048,
                -2.811442488437103,
                -0.11051756872464924,
                -2.7631075990107856
            ]
        },
        {
            "positions": [
                -0.09624822840601821,
                -2.220754492684363,
                -1.1162286626899025,
                -2.8649776800329203,
                -0.13671037699114663,
                -2.906435910386657
            ]
        },
        {
            "positions": [
                -0.16853196931195455,
                -2.256035756768397,
                -1.1743185869260007,
                -2.918512871628737,
                -0.16290318525764408,
                -3.049764221762528
            ]
        }
    ]
}