{
    "goal": {
        "global_pose": {
            "orientation": {
                "w": 0.7047431493862688,
                "x": -0.7094548369677653,
                "y": 0.0024358444001904,
                "z": -0.0022348060817251984
            },
            "position": {
                "x": -0.39052492380142206,
                "y": 0.3671506643295288,
                "z": 0.19426114857196808
            }
        },
        "name": "move_to_magneteinheit_D"
    },
    "id": "BKPIECE_move_to_magneteinheit_D_86",
    "joint_names": [
        "shoulder_pan_joint",
        "shoulder_lift_joint",
        "elbow_joint",
        "wrist_1_joint",
        "wrist_2_joint",
        "wrist_3_joint"
    ],
    "metrics": {
        "cart_traj_len": 4.367907313995648,
        "distance_elbow_joint": 3.1439164167824374,
        "distance_shoulder_lift_joint": 1.628302557238995,
        "distance_shoulder_pan_joint": 2.968133983974411,
        "distance_wrist_1_joint": 2.107715740476368,
        "distance_wrist_2_joint": 0.33484771017174497,
        "distance_wrist_3_joint": 3.145018532942961,
        "smoothness": 0.520010160951153,
        "time": 1.148825988,
        "traj_len": 3.650744436630277,
        "weighted_distance": 4.696864428330986
    },
    "planner": "BKPIECE",
    "start": {
        "state": {
            "elbow_joint": 0.7495348899011973,
            "shoulder_lift_joint": -0.6476975780737697,
            "shoulder_pan_joint": -2.711696901376276,
            "wrist_1_joint": -0.07506478080974305,
            "wrist_2_joint": 0.4329665971545858,
            "wrist_3_joint": 3.1361499051832524
        }
    },
    "waypoints": [
        {
            "positions": [
                -2.711696901376276,
                -0.6476975780737697,
                0.7495348899011973,
                -0.07506478080974305,
                0.4329665971545858,
                3.1361499051832524
            ]
        },
        {
            "positions": [
                -2.6990296400823945,
                -0.6786825886849063,
                0.6590991162729445,
                -0.15712713302637746,
                0.45487343651657586,
                3.012684118737793
            ]
        },
        {
            "positions": [
                -2.7271957987798228,
                -0.7287320193826933,
                0.5668888651272367,
                -0.2628909334429451,
                0.38234391515006816,
                3.037517336339281
            ]
        },
        {
            "positions": [
                -2.7553619574772505,
                -0.7787814500804803,
                0.47467861398152883,
                -0.36865473385951275,
                0.3098143937835604,
                3.062350553940769
            ]
        },
        {
            "positions": [
                -2.657077585556209,
                -0.8257674921048638,
                0.39737239569003424,
                -0.3162976383726123,
                0.3041703225597767,
                2.961300692447375
            ]
        },
        {
            "positions": [
                -2.558793213635168,
                -0.8727535341292473,
                0.3200661773985396,
                -0.26394054288571195,
                0.29852625133599303,
                2.860250830953981
            ]
        },
        {
            "positions": [
                -2.4605088417141268,
                -0.9197395761536309,
                0.242759959107045,
                -0.21158344739881152,
                0.2928821801122093,
                2.759200969460587
            ]
        },
        {
            "positions": [
                -2.362224469793085,
                -0.9667256181780144,
                0.16545374081555042,
                -0.15922635191191112,
                0.2872381088884256,
                2.658151107967193
            ]
        },
        {
            "positions": [
                -2.2639400978720436,
                -1.013711660202398,
                0.08814752252405578,
                -0.10686925642501072,
                0.2815940376646419,
                2.557101246473799
            ]
        },
        {
            "positions": [
                -2.1656557259510025,
                -1.0606977022267814,
                0.010841304232561189,
                -0.05451216093811029,
                0.27594996644085823,
                2.456051384980405
            ]
        },
        {
            "positions": [
                -2.0673713540299614,
                -1.107683744251165,
                -0.06646491405893334,
                -0.0021550654512099143,
                0.2703058952170745,
                2.3550015234870108
            ]
        },
        {
            "positions": [
                -1.9690869821089199,
                -1.1546697862755484,
                -0.143771132350428,
                0.050202030035690515,
                0.2646618239932908,
                2.2539516619936166
            ]
        },
        {
            "positions": [
                -1.8708026101878785,
                -1.201655828299932,
                -0.22107735064192252,
                0.10255912552259089,
                0.2590177527695071,
                2.1529018005002225
            ]
        },
        {
            "positions": [
                -1.7725182382668372,
                -1.2486418703243154,
                -0.2983835689334173,
                0.15491622100949132,
                0.25337368154572343,
                2.051851939006829
            ]
        },
        {
            "positions": [
                -1.6742338663457959,
                -1.295627912348699,
                -0.3756897872249118,
                0.2072733164963917,
                0.24772961032193971,
                1.9508020775134345
            ]
        },
        {
            "positions": [
                -1.5759494944247545,
                -1.3426139543730824,
                -0.45299600551640645,
                0.2596304119832922,
                0.24208553909815603,
                1.8497522160200404
            ]
        },
        {
            "positions": [
                -1.4776651225037132,
                -1.389599996397466,
                -0.5303022238079009,
                0.31198750747019255,
                0.2364414678743723,
                1.7487023545266465
            ]
        },
        {
            "positions": [
                -1.3793807505826718,
                -1.4365860384218494,
                -0.6076084420993955,
                0.3643446029570929,
                0.23079739665058863,
                1.6476524930332526
            ]
        },
        {
            "positions": [
                -1.2810963786616307,
                -1.483572080446233,
                -0.68491466039089,
                0.4167016984439933,
                0.22515332542680494,
                1.5466026315398584
            ]
        },
        {
            "positions": [
                -1.1828120067405892,
                -1.5305581224706166,
                -0.7622208786823848,
                0.4690587939308938,
                0.21950925420302123,
                1.4455527700464643
            ]
        },
        {
            "positions": [
                -1.0845276348195478,
                -1.5775441644950001,
                -0.8395270969738793,
                0.5214158894177942,
                0.21386518297923754,
                1.3445029085530702
            ]
        },
        {
            "positions": [
                -0.9862432628985065,
                -1.6245302065193836,
                -0.9168333152653738,
                0.5737729849046945,
                0.20822111175545382,
                1.2434530470596763
            ]
        },
        {
            "positions": [
                -0.8879588909774652,
                -1.671516248543767,
                -0.9941395335568683,
                0.6261300803915949,
                0.20257704053167014,
                1.1424031855662822
            ]
        },
        {
            "positions": [
                -0.7896745190564238,
                -1.7185022905681508,
                -1.0714457518483633,
                0.6784871758784954,
                0.19693296930788645,
                1.041353324072888
            ]
        },
        {
            "positions": [
                -0.6913901471353823,
                -1.7654883325925341,
                -1.1487519701398579,
                0.7308442713653958,
                0.19128889808410274,
                0.9403034625794939
            ]
        },
        {
            "positions": [
                -0.5931057752143412,
                -1.8124743746169178,
                -1.2260581884313524,
                0.7832013668522961,
                0.18564482686031902,
                0.8392536010860998
            ]
        },
        {
            "positions": [
                -0.49482140329330004,
                -1.8594604166413014,
                -1.303364406722847,
                0.8355584623391965,
                0.18000075563653534,
                0.7382037395927061
            ]
        },
        {
            "positions": [
                -0.3965370313722585,
                -1.9064464586656849,
                -1.3806706250143417,
                0.8879155578260971,
                0.17435668441275165,
                0.6371538780993116
            ]
        },
        {
            "positions": [
                -0.29825265945121693,
                -1.9534325006900684,
                -1.4579768433058362,
                0.9402726533129975,
                0.16871261318896794,
                0.5361040166059179
            ]
        },
        {
            "positions": [
                -0.19996828753017598,
                -2.000418542714452,
                -1.535283061597331,
                0.9926297487998978,
                0.16306854196518425,
                0.43505415511252366
            ]
        },
        {
            "positions": [
                -0.15533824764350057,
                -2.0478605861745542,
                -1.6631815061918602,
                1.0860357725963958,
                0.1656354610475859,
                0.3679689752155115
            ]
        },
        {
            "positions": [
                -0.11070820775682515,
                -2.0953026296346566,
                -1.7910799507863895,
                1.1794417963928936,
                0.1682023801299875,
                0.3008837953184993
            ]
        },
        {
            "positions": [
                -0.06607816787014972,
                -2.142744673094759,
                -1.9189783953809187,
                1.2728478201893916,
                0.17076929921238915,
                0.23379861542148717
            ]
        },
        {
            "positions": [
                -0.021448127983474313,
                -2.1901867165548614,
                -2.046876839975448,
                1.3662538439858896,
                0.1733362182947908,
                0.16671343552447498
            ]
        },
        {
            "positions": [
                -0.1040584158794228,
                -2.233093425933813,
                -2.2206291834283443,
                1.405862448776488,
                0.17877036825916914,
                0.1285888390853587
            ]
        },
        {
            "positions": [
                -0.1866687037753713,
                -2.276000135312765,
                -2.3943815268812405,
                1.445471053567086,
                0.18420451822354747,
                0.09046424264624243
            ]
        }
    ]
}