{
    "goal": {
        "global_pose": {
            "orientation": {
                "w": -0.4816463035849501,
                "x": 0.5182115481033762,
                "y": 0.4908360881923453,
                "z": -0.5084816262002911
            },
            "position": {
                "x": -0.8240239810943604,
                "y": 0.19912469901144506,
                "z": 0.16403168439865112
            }
        },
        "name": "move_to_storage_D"
    },
    "id": "BKPIECE_move_to_storage_D_47",
    "joint_names": [
        "shoulder_pan_joint",
        "shoulder_lift_joint",
        "elbow_joint",
        "wrist_1_joint",
        "wrist_2_joint",
        "wrist_3_joint"
    ],
    "metrics": {
        "cart_traj_len": 0.6232379270685537,
        "distance_elbow_joint": 0.5545919179246088,
        "distance_shoulder_lift_joint": 0.35554990695534494,
        "distance_shoulder_pan_joint": 0.4115567214443052,
        "distance_wrist_1_joint": 3.823665977856559,
        "distance_wrist_2_joint": 1.8620819831886455,
        "distance_wrist_3_joint": 3.151544748131599,
        "smoothness": 0.11733356105309999,
        "time": 0.6526944250000001,
        "traj_len": 3.1873172505260694,
        "weighted_distance": 4.706147969710416
    },
    "planner": "BKPIECE",
    "start": {
        "state": {
            "elbow_joint": -2.384821997420982,
            "shoulder_lift_joint": -2.2788054674887404,
            "shoulder_pan_joint": -0.18546946417610016,
            "wrist_1_joint": 1.4845937964226739,
            "wrist_2_joint": 0.1789877726866377,
            "wrist_3_joint": 0.03710572555276528
        }
    },
    "waypoints": [
        {
            "positions": [
                -0.18546946417610016,
                -2.2788054674887404,
                -2.384821997420982,
                1.4845937964226739,
                0.1789877726866377,
                0.03710572555276528
            ]
        },
        {
            "positions": [
                -0.09169127468987162,
                -2.3125338143072747,
                -2.2452669995750187,
                1.4273095199904593,
                0.19334755202066817,
                0.04321394073474446
            ]
        },
        {
            "positions": [
                0.00208691479635692,
                -2.3462621611258094,
                -2.1057120017290556,
                1.3700252435582445,
                0.2077073313546986,
                0.04932215591672365
            ]
        },
        {
            "positions": [
                0.09586510428258549,
                -2.3799905079443437,
                -1.9661570038830924,
                1.31274096712603,
                0.22206711068872906,
                0.05543037109870283
            ]
        },
        {
            "positions": [
                0.09043918124151798,
                -2.3693919718401877,
                -1.9604933820336459,
                1.1605820859360334,
                0.14627533380595598,
                -0.07512046650903306
            ]
        },
        {
            "positions": [
                0.08501325820045047,
                -2.358793435736032,
                -1.954829760184199,
                1.008423204746037,
                0.0704835569231829,
                -0.20567130411676895
            ]
        },
        {
            "positions": [
                0.07958733515938296,
                -2.348194899631876,
                -1.9491661383347525,
                0.8562643235560405,
                -0.005308219959590216,
                -0.3362221417245048
            ]
        },
        {
            "positions": [
                0.07416141211831545,
                -2.3375963635277204,
                -1.943502516485306,
                0.7041054423660441,
                -0.08109999684236327,
                -0.4667729793322407
            ]
        },
        {
            "positions": [
                0.06873548907724794,
                -2.3269978274235643,
                -1.9378388946358593,
                0.5519465611760476,
                -0.15689177372513644,
                -0.5973238169399766
            ]
        },
        {
            "positions": [
                0.06330956603618043,
                -2.3163992913194082,
                -1.9321752727864125,
                0.39978767998605114,
                -0.2326835506079095,
                -0.7278746545477125
            ]
        },
        {
            "positions": [
                0.05788364299511292,
                -2.3058007552152526,
                -1.926511650936966,
                0.2476287987960546,
                -0.3084753274906826,
                -0.8584254921554485
            ]
        },
        {
            "positions": [
                0.05245771995404541,
                -2.2952022191110966,
                -1.9208480290875194,
                0.09546991760605827,
                -0.38426710437345557,
                -0.9889763297631843
            ]
        },
        {
            "positions": [
                0.0470317969129779,
                -2.2846036830069405,
                -1.9151844072380726,
                -0.05668896358393827,
                -0.46005888125622874,
                -1.1195271673709204
            ]
        },
        {
            "positions": [
                0.04160587387191039,
                -2.274005146902785,
                -1.909520785388626,
                -0.2088478447739348,
                -0.5358506581390019,
                -1.2500780049786562
            ]
        },
        {
            "positions": [
                0.03617995083084288,
                -2.263406610798629,
                -1.9038571635391794,
                -0.36100672596393113,
                -0.6116424350217748,
                -1.380628842586392
            ]
        },
        {
            "positions": [
                0.030754027789775373,
                -2.2528080746944728,
                -1.8981935416897326,
                -0.5131656071539277,
                -0.687434211904548,
                -1.511179680194128
            ]
        },
        {
            "positions": [
                0.025328104748707864,
                -2.242209538590317,
                -1.892529919840286,
                -0.665324488343924,
                -0.7632259887873211,
                -1.6417305178018637
            ]
        },
        {
            "positions": [
                0.019902181707640354,
                -2.231611002486161,
                -1.8868662979908395,
                -0.8174833695339208,
                -0.8390177656700943,
                -1.7722813554096
            ]
        },
        {
            "positions": [
                0.014476258666572844,
                -2.2210124663820054,
                -1.881202676141393,
                -0.9696422507239173,
                -0.9148095425528673,
                -1.9028321930173355
            ]
        },
        {
            "positions": [
                0.009050335625505335,
                -2.2104139302778494,
                -1.8755390542919461,
                -1.1218011319139134,
                -0.9906013194356402,
                -2.0333830306250715
            ]
        },
        {
            "positions": [
                0.003624412584437825,
                -2.1998153941736933,
                -1.8698754324424995,
                -1.27396001310391,
                -1.0663930963184136,
                -2.1639338682328075
            ]
        },
        {
            "positions": [
                -0.0018015104566296847,
                -2.1892168580695377,
                -1.864211810593053,
                -1.4261188942939065,
                -1.1421848732011866,
                -2.2944847058405435
            ]
        },
        {
            "positions": [
                -0.007227433497697194,
                -2.1786183219653816,
                -1.8585481887436064,
                -1.578277775483903,
                -1.2179766500839595,
                -2.425035543448279
            ]
        },
        {
            "positions": [
                -0.012653356538764704,
                -2.168019785861226,
                -1.8528845668941596,
                -1.7304366566738996,
                -1.2937684269667329,
                -2.555586381056015
            ]
        },
        {
            "positions": [
                -0.018079279579832214,
                -2.15742124975707,
                -1.847220945044713,
                -1.8825955378638957,
                -1.3695602038495058,
                -2.686137218663751
            ]
        },
        {
            "positions": [
                -0.023505202620899723,
                -2.146822713652914,
                -1.8415573231952664,
                -2.0347544190538924,
                -1.4453519807322788,
                -2.8166880562714867
            ]
        },
        {
            "positions": [
                -0.028931125661967233,
                -2.1362241775487583,
                -1.8358937013458196,
                -2.186913300243889,
                -1.5211437576150522,
                -2.947238893879223
            ]
        },
        {
            "positions": [
                -0.03435704870303473,
                -2.125625641444602,
                -1.830230079496373,
                -2.339072181433885,
                -1.596935534497825,
                -3.0777897314869587
            ]
        }
    ]
}