{
    "goal": {
        "global_pose": {
            "orientation": {
                "w": -0.4816463035849501,
                "x": 0.5182115481033762,
                "y": 0.4908360881923453,
                "z": -0.5084816262002911
            },
            "position": {
                "x": -0.8240239810943604,
                "y": -0.300875300988555,
                "z": 0.16403168439865112
            }
        },
        "name": "move_to_storage_C"
    },
    "id": "BKPIECE_move_to_storage_C_93",
    "joint_names": [
        "shoulder_pan_joint",
        "shoulder_lift_joint",
        "elbow_joint",
        "wrist_1_joint",
        "wrist_2_joint",
        "wrist_3_joint"
    ],
    "metrics": {
        "cart_traj_len": 0.5774442018427622,
        "distance_elbow_joint": 0.26044609994772916,
        "distance_shoulder_lift_joint": 0.18988776224553305,
        "distance_shoulder_pan_joint": 0.49638266146765986,
        "distance_wrist_1_joint": 0.08582745508545309,
        "distance_wrist_2_joint": 1.0591403530014252,
        "distance_wrist_3_joint": 0.06788831941480566,
        "smoothness": 5.075305295617109e-16,
        "time": 2.0265094649999997,
        "traj_len": 1.4695484514511954,
        "weighted_distance": 1.854809181042378
    },
    "planner": "BKPIECE",
    "start": {
        "state": {
            "elbow_joint": 2.010868315001653,
            "shoulder_lift_joint": -1.1634956873357014,
            "shoulder_pan_joint": -2.4736205022346103,
            "wrist_1_joint": -0.8367026794713948,
            "wrist_2_joint": 0.6746043897044093,
            "wrist_3_joint": 3.1335220948105738
        }
    },
    "waypoints": [
        {
            "positions": [
                -2.4736205022346103,
                -1.1634956873357014,
                2.010868315001653,
                -0.8367026794713948,
                0.6746043897044093,
                3.1335220948105738
            ]
        },
        {
            "positions": [
                -2.5563509458125537,
                -1.131847726961446,
                1.9674606316770316,
                -0.8223981036238193,
                0.8511277818713134,
                3.144836814713041
            ]
        },
        {
            "positions": [
                -2.6390813893904967,
                -1.1001997665871903,
                1.92405294835241,
                -0.8080935277762438,
                1.0276511740382177,
                3.156151534615509
            ]
        },
        {
            "positions": [
                -2.72181183296844,
                -1.0685518062129349,
                1.8806452650277885,
                -0.7937889519286683,
                1.204174566205122,
                3.1674662545179766
            ]
        },
        {
            "positions": [
                -2.8045422765463837,
                -1.0369038458386794,
                1.837237581703167,
                -0.7794843760810927,
                1.380697958372026,
                3.178780974420444
            ]
        },
        {
            "positions": [
                -2.8872727201243267,
                -1.0052558854644238,
                1.7938298983785455,
                -0.7651798002335172,
                1.5572213505389303,
                3.190095694322912
            ]
        },
        {
            "positions": [
                -2.97000316370227,
                -0.9736079250901684,
                1.750422215053924,
                -0.7508752243859417,
                1.7337447427058346,
                3.2014104142253794
            ]
        }
    ]
}