{
    "goal": {
        "global_pose": {
            "orientation": {
                "w": 0.5084816217422485,
                "x": -0.49083608388900757,
                "y": 0.5182115435600281,
                "z": -0.4816462993621826
            },
            "position": {
                "x": 0.5540239810943604,
                "y": 0.030875300988554955,
                "z": 0.16403168439865112
            }
        },
        "name": "move_to_storage_A"
    },
    "id": "BKPIECE_move_to_storage_A_29",
    "joint_names": [
        "shoulder_pan_joint",
        "shoulder_lift_joint",
        "elbow_joint",
        "wrist_1_joint",
        "wrist_2_joint",
        "wrist_3_joint"
    ],
    "metrics": {
        "cart_traj_len": 0.35332328797985835,
        "distance_elbow_joint": 0.4501324075333195,
        "distance_shoulder_lift_joint": 0.2356306988049821,
        "distance_shoulder_pan_joint": 0.4641312140247126,
        "distance_wrist_1_joint": 0.24332633390874847,
        "distance_wrist_2_joint": 1.0905984233664068,
        "distance_wrist_3_joint": 0.0971292671484969,
        "smoothness": 0.0,
        "time": 0.814352153,
        "traj_len": 1.6065330201358037,
        "weighted_distance": 2.0270993158596884
    },
    "planner": "BKPIECE",
    "start": {
        "state": {
            "elbow_joint": 1.9715474177455299,
            "shoulder_lift_joint": -1.139484666580328,
            "shoulder_pan_joint": 0.12281154398918248,
            "wrist_1_joint": -0.7804687475355282,
            "wrist_2_joint": 0.12958649657246987,
            "wrist_3_joint": -3.1924925159053466
        }
    },
    "waypoints": [
        {
            "positions": [
                0.12281154398918248,
                -1.139484666580328,
                1.9715474177455299,
                -0.7804687475355282,
                0.12958649657246987,
                -3.1924925159053466
            ]
        },
        {
            "positions": [
                0.05650708484279497,
                -1.1731461949810398,
                2.035852047393147,
                -0.8152296523796351,
                0.28538627133909944,
                -3.1786169063127043
            ]
        },
        {
            "positions": [
                -0.009797374303592538,
                -1.2068077233817514,
                2.100156677040764,
                -0.8499905572237421,
                0.441186046105729,
                -3.1647412967200617
            ]
        },
        {
            "positions": [
                -0.07610183344998003,
                -1.2404692517824631,
                2.164461306688381,
                -0.8847514620678489,
                0.5969858208723585,
                -3.1508656871274194
            ]
        },
        {
            "positions": [
                -0.14240629259636756,
                -1.274130780183175,
                2.228765936335998,
                -0.9195123669119559,
                0.7527855956389882,
                -3.1369900775347768
            ]
        },
        {
            "positions": [
                -0.2087107517427551,
                -1.3077923085838867,
                2.2930705659836152,
                -0.9542732717560628,
                0.9085853704056178,
                -3.1231144679421345
            ]
        },
        {
            "positions": [
                -0.27501521088914255,
                -1.3414538369845983,
                2.3573751956312323,
                -0.9890341766001698,
                1.0643851451722472,
                -3.109238858349492
            ]
        },
        {
            "positions": [
                -0.3413196700355301,
                -1.37511536538531,
                2.4216798252788494,
                -1.0237950814442767,
                1.2201849199388768,
                -3.0953632487568497
            ]
        }
    ]
}