{
    "goal": {
        "global_pose": {
            "orientation": {
                "w": 0.005598929693374612,
                "x": 0.007748599140229565,
                "y": 0.7110244013736278,
                "z": -0.7031023480610252
            },
            "position": {
                "x": -0.8858502320852131,
                "y": -0.7141253447532654,
                "z": 0.3711530566215515
            }
        },
        "name": "move_to_auspresseinheit_C"
    },
    "id": "BKPIECE_move_to_auspresseinheit_C_11",
    "joint_names": [
        "shoulder_pan_joint",
        "shoulder_lift_joint",
        "elbow_joint",
        "wrist_1_joint",
        "wrist_2_joint",
        "wrist_3_joint"
    ],
    "metrics": {
        "cart_traj_len": 0.49256912601934777,
        "distance_elbow_joint": 0.9894667032528421,
        "distance_shoulder_lift_joint": 0.31901641405887493,
        "distance_shoulder_pan_joint": 0.2561956677166708,
        "distance_wrist_1_joint": 0.6589674122344354,
        "distance_wrist_2_joint": 1.3063665411104768,
        "distance_wrist_3_joint": 0.04543539767245042,
        "smoothness": 3.2297397335745243e-16,
        "time": 1.084717196,
        "traj_len": 1.890885542820017,
        "weighted_distance": 2.3731103819113772
    },
    "planner": "BKPIECE",
    "start": {
        "state": {
            "elbow_joint": 1.752795957773711,
            "shoulder_lift_joint": -0.9740617694225064,
            "shoulder_pan_joint": -2.967991417825858,
            "wrist_1_joint": -0.7595177689806859,
            "wrist_2_joint": 1.7443932448377395,
            "wrist_3_joint": 3.199131542505932
        }
    },
    "waypoints": [
        {
            "positions": [
                -2.967991417825858,
                -0.9740617694225064,
                1.752795957773711,
                -0.7595177689806859,
                1.7443932448377395,
                3.199131542505932
            ]
        },
        {
            "positions": [
                -2.9423718510541907,
                -0.942160128016619,
                1.653849287448427,
                -0.6936210277572423,
                1.6137565907266918,
                3.194588002738687
            ]
        },
        {
            "positions": [
                -2.916752284282524,
                -0.9102584866107315,
                1.5549026171231426,
                -0.6277242865337989,
                1.483119936615644,
                3.190044462971442
            ]
        },
        {
            "positions": [
                -2.8911327175108568,
                -0.8783568452048439,
                1.4559559467978584,
                -0.5618275453103553,
                1.3524832825045965,
                3.185500923204197
            ]
        },
        {
            "positions": [
                -2.8655131507391896,
                -0.8464552037989564,
                1.3570092764725743,
                -0.4959308040869117,
                1.2218466283935487,
                3.180957383436952
            ]
        },
        {
            "positions": [
                -2.8398935839675223,
                -0.814553562393069,
                1.25806260614729,
                -0.4300340628634682,
                1.091209974282501,
                3.1764138436697067
            ]
        },
        {
            "positions": [
                -2.8142740171958556,
                -0.7826519209871815,
                1.159115935822006,
                -0.36413732164002466,
                0.9605733201714535,
                3.171870303902462
            ]
        },
        {
            "positions": [
                -2.7886544504241884,
                -0.750750279581294,
                1.0601692654967216,
                -0.29824058041658114,
                0.8299366660604058,
                3.167326764135217
            ]
        },
        {
            "positions": [
                -2.763034883652521,
                -0.7188486381754065,
                0.9612225951714374,
                -0.2323438391931375,
                0.699300011949358,
                3.162783224367972
            ]
        },
        {
            "positions": [
                -2.7374153168808544,
                -0.686946996769519,
                0.8622759248461531,
                -0.16644709796969404,
                0.5686633578383105,
                3.158239684600727
            ]
        },
        {
            "positions": [
                -2.711795750109187,
                -0.6550453553636315,
                0.763329254520869,
                -0.10055035674625043,
                0.43802670372726277,
                3.1536961448334817
            ]
        }
    ]
}