{
    "goal": {
        "global_pose": {
            "orientation": {
                "w": 0.7031023502349854,
                "x": -0.7110244035720825,
                "y": 0.007748599164187908,
                "z": 0.005598929710686207
            },
            "position": {
                "x": 0.11585023208521307,
                "y": 0.44412534475326537,
                "z": 0.3711530566215515
            }
        },
        "name": "move_to_auspresseinheit_A"
    },
    "id": "BKPIECE_move_to_auspresseinheit_A_30",
    "joint_names": [
        "shoulder_pan_joint",
        "shoulder_lift_joint",
        "elbow_joint",
        "wrist_1_joint",
        "wrist_2_joint",
        "wrist_3_joint"
    ],
    "metrics": {
        "cart_traj_len": 2.2839657044868167,
        "distance_elbow_joint": 0.12949922032522831,
        "distance_shoulder_lift_joint": 0.7819470949954941,
        "distance_shoulder_pan_joint": 6.393322510006232,
        "distance_wrist_1_joint": 4.516776899954251,
        "distance_wrist_2_joint": 2.9729833939637955,
        "distance_wrist_3_joint": 6.966201307826825,
        "smoothness": 0.5785188441475276,
        "time": 1.104776181,
        "traj_len": 4.664839807225091,
        "weighted_distance": 6.571369213234296
    },
    "planner": "BKPIECE",
    "start": {
        "state": {
            "elbow_joint": 2.4225747245308327,
            "shoulder_lift_joint": -1.373653427065438,
            "shoulder_pan_joint": -0.33786330853087027,
            "wrist_1_joint": -1.0288602302712604,
            "wrist_2_joint": 1.23302299562683,
            "wrist_3_joint": -3.094021725338297
        }
    },
    "waypoints": [
        {
            "positions": [
                -0.33786330853087027,
                -1.373653427065438,
                2.4225747245308327,
                -1.0288602302712604,
                1.23302299562683,
                -3.094021725338297
            ]
        },
        {
            "positions": [
                -0.4300983515100559,
                -1.3963218445796841,
                2.4197770965793386,
                -0.9410418041841375,
                1.1727979457609208,
                -2.9748559499057254
            ]
        },
        {
            "positions": [
                -0.5223333944892414,
                -1.4189902620939303,
                2.4169794686278445,
                -0.8532233780970147,
                1.1125728958950114,
                -2.8556901744731538
            ]
        },
        {
            "positions": [
                -0.614568437468427,
                -1.4416586796081763,
                2.414181840676351,
                -0.7654049520098918,
                1.0523478460291023,
                -2.736524399040582
            ]
        },
        {
            "positions": [
                -0.7068034804476127,
                -1.4643270971224225,
                2.411384212724857,
                -0.6775865259227689,
                0.992122796163193,
                -2.617358623608011
            ]
        },
        {
            "positions": [
                -0.7990385234267983,
                -1.4869955146366687,
                2.4085865847733627,
                -0.5897680998356459,
                0.9318977462972837,
                -2.498192848175439
            ]
        },
        {
            "positions": [
                -0.8912735664059839,
                -1.5096639321509149,
                2.4057889568218687,
                -0.5019496737485231,
                0.8716726964313745,
                -2.3790270727428675
            ]
        },
        {
            "positions": [
                -0.9835086093851695,
                -1.532332349665161,
                2.4029913288703746,
                -0.4141312476614002,
                0.8114476465654652,
                -2.259861297310296
            ]
        },
        {
            "positions": [
                -1.075743652364355,
                -1.5550007671794073,
                2.4001937009188805,
                -0.3263128215742773,
                0.751222596699556,
                -2.140695521877724
            ]
        },
        {
            "positions": [
                -1.1679786953435407,
                -1.5776691846936535,
                2.397396072967387,
                -0.23849439548715445,
                0.6909975468336467,
                -2.021529746445153
            ]
        },
        {
            "positions": [
                -1.2602137383227263,
                -1.6003376022078994,
                2.394598445015893,
                -0.15067596940003147,
                0.6307724969677374,
                -1.902363971012581
            ]
        },
        {
            "positions": [
                -1.3524487813019117,
                -1.6230060197221456,
                2.3918008170643987,
                -0.06285754331290871,
                0.5705474471018283,
                -1.7831981955800096
            ]
        },
        {
            "positions": [
                -1.4446838242810973,
                -1.6456744372363918,
                2.3890031891129047,
                0.024960882774214266,
                0.510322397235919,
                -1.664032420147438
            ]
        },
        {
            "positions": [
                -1.536918867260283,
                -1.668342854750638,
                2.3862055611614106,
                0.11277930886133714,
                0.4500973473700097,
                -1.5448666447148662
            ]
        },
        {
            "positions": [
                -1.6291539102394685,
                -1.6910112722648842,
                2.3834079332099165,
                0.20059773494846,
                0.38987229750410046,
                -1.4257008692822946
            ]
        },
        {
            "positions": [
                -1.7213889532186541,
                -1.7136796897791302,
                2.380610305258423,
                0.2884161610355829,
                0.3296472476381912,
                -1.306535093849723
            ]
        },
        {
            "positions": [
                -1.8136239961978398,
                -1.7363481072933764,
                2.377812677306929,
                0.37623458712270574,
                0.26942219777228205,
                -1.1873693184171517
            ]
        },
        {
            "positions": [
                -1.9058590391770251,
                -1.7590165248076226,
                2.3750150493554347,
                0.4640530132098286,
                0.20919714790637278,
                -1.06820354298458
            ]
        },
        {
            "positions": [
                -1.998094082156211,
                -1.7816849423218688,
                2.3722174214039407,
                0.5518714392969515,
                0.1489720980404634,
                -0.9490377675520083
            ]
        },
        {
            "positions": [
                -2.0903291251353964,
                -1.804353359836115,
                2.3694197934524466,
                0.6396898653840744,
                0.08874704817455425,
                -0.8298719921194366
            ]
        },
        {
            "positions": [
                -2.1825641681145824,
                -1.8270217773503612,
                2.3666221655009525,
                0.7275082914711974,
                0.02852199830864488,
                -0.710706216686865
            ]
        },
        {
            "positions": [
                -2.274799211093768,
                -1.8496901948646074,
                2.363824537549459,
                0.8153267175583201,
                -0.03170305155726427,
                -0.5915404412542937
            ]
        },
        {
            "positions": [
                -2.367034254072953,
                -1.8723586123788534,
                2.361026909597965,
                0.903145143645443,
                -0.09192810142317343,
                -0.47237466582172205
            ]
        },
        {
            "positions": [
                -2.459269297052139,
                -1.8950270298930996,
                2.3582292816464707,
                0.990963569732566,
                -0.1521531512890828,
                -0.3532088903891504
            ]
        },
        {
            "positions": [
                -2.5515043400313244,
                -1.9176954474073458,
                2.3554316536949766,
                1.078781995819689,
                -0.21237820115499195,
                -0.2340431149565787
            ]
        },
        {
            "positions": [
                -2.64373938301051,
                -1.9403638649215917,
                2.3526340257434826,
                1.1666004219068118,
                -0.2726032510209011,
                -0.11487733952400747
            ]
        },
        {
            "positions": [
                -2.7359744259896956,
                -1.963032282435838,
                2.3498363977919885,
                1.2544188479939347,
                -0.3328283008868105,
                0.004288435908564647
            ]
        },
        {
            "positions": [
                -2.8282094689688813,
                -1.9857006999500841,
                2.347038769840495,
                1.3422372740810575,
                -0.39305335075271963,
                0.12345421134113588
            ]
        },
        {
            "positions": [
                -2.920444511948067,
                -2.0083691174643303,
                2.344241141889001,
                1.4300557001681804,
                -0.453278400618629,
                0.242619986773708
            ]
        },
        {
            "positions": [
                -3.0126795549272525,
                -2.0310375349785765,
                2.3414435139375067,
                1.5178741262553035,
                -0.5135034504845382,
                0.3617857622062792
            ]
        },
        {
            "positions": [
                -2.87495710071948,
                -2.0264240910125633,
                2.343234921705355,
                1.4449095876098337,
                -0.46807911908259636,
                0.2317711762698995
            ]
        },
        {
            "positions": [
                -2.737234646511708,
                -2.02181064704655,
                2.345026329473203,
                1.3719450489643639,
                -0.4226547876806546,
                0.10175659033351975
            ]
        },
        {
            "positions": [
                -2.5995121923039357,
                -2.017197203080537,
                2.3468177372410515,
                1.298980510318894,
                -0.3772304562787129,
                -0.028257995602859964
            ]
        },
        {
            "positions": [
                -2.4617897380961633,
                -2.012583759114524,
                2.3486091450088997,
                1.226015971673424,
                -0.3318061248767711,
                -0.15827258153923973
            ]
        },
        {
            "positions": [
                -2.3240672838883913,
                -2.0079703151485107,
                2.350400552776748,
                1.1530514330279542,
                -0.2863817934748293,
                -0.28828716747561944
            ]
        },
        {
            "positions": [
                -2.186344829680619,
                -2.0033568711824974,
                2.3521919605445962,
                1.0800868943824844,
                -0.24095746207288754,
                -0.41830175341199916
            ]
        },
        {
            "positions": [
                -2.048622375472847,
                -1.9987434272164843,
                2.3539833683124445,
                1.0071223557370146,
                -0.19553313067094574,
                -0.5483163393483789
            ]
        },
        {
            "positions": [
                -1.9108999212650746,
                -1.9941299832504713,
                2.3557747760802927,
                0.9341578170915447,
                -0.150108799269004,
                -0.6783309252847587
            ]
        },
        {
            "positions": [
                -1.7731774670573024,
                -1.989516539284458,
                2.357566183848141,
                0.8611932784460749,
                -0.1046844678670622,
                -0.8083455112211384
            ]
        },
        {
            "positions": [
                -1.6354550128495302,
                -1.9849030953184448,
                2.3593575916159892,
                0.788228739800605,
                -0.05926013646512046,
                -0.9383600971575181
            ]
        },
        {
            "positions": [
                -1.497732558641758,
                -1.9802896513524317,
                2.3611489993838375,
                0.7152642011551351,
                -0.013835805063178663,
                -1.0683746830938978
            ]
        },
        {
            "positions": [
                -1.3600101044339856,
                -1.9756762073864185,
                2.3629404071516857,
                0.6422996625096653,
                0.03158852633876308,
                -1.1983892690302775
            ]
        },
        {
            "positions": [
                -1.2222876502262134,
                -1.9710627634204054,
                2.364731814919534,
                0.5693351238641955,
                0.07701285774070488,
                -1.3284038549666572
            ]
        },
        {
            "positions": [
                -1.0845651960184413,
                -1.9664493194543922,
                2.366523222687382,
                0.4963705852187257,
                0.12243718914264667,
                -1.458418440903037
            ]
        },
        {
            "positions": [
                -0.9468427418106686,
                -1.9618358754883791,
                2.36831463045523,
                0.42340604657325565,
                0.16786152054458847,
                -1.588433026839417
            ]
        },
        {
            "positions": [
                -0.8091202876028967,
                -1.9572224315223659,
                2.3701060382230783,
                0.35044150792778583,
                0.21328585194653016,
                -1.7184476127757966
            ]
        },
        {
            "positions": [
                -0.6713978333951243,
                -1.9526089875563528,
                2.3718974459909266,
                0.277476969282316,
                0.25871018334847196,
                -1.8484621987121765
            ]
        },
        {
            "positions": [
                -0.5336753791873523,
                -1.9479955435903396,
                2.373688853758775,
                0.2045124306368462,
                0.30413451475041375,
                -1.978476784648556
            ]
        },
        {
            "positions": [
                -0.3959529249795799,
                -1.9433820996243263,
                2.375480261526623,
                0.13154789199137618,
                0.34955884615235555,
                -2.108491370584936
            ]
        },
        {
            "positions": [
                -0.25823047077180794,
                -1.9387686556583132,
                2.3772716692944713,
                0.058583353345906586,
                0.39498317755429724,
                -2.2385059565213155
            ]
        },
        {
            "positions": [
                -0.12050801656403554,
                -1.9341552116923,
                2.3790630770623196,
                -0.014381185299563448,
                0.44040750895623904,
                -2.3685205424576954
            ]
        },
        {
            "positions": [
                0.017214437643736424,
                -1.929541767726287,
                2.380854484830168,
                -0.08734572394503326,
                0.48583184035818083,
                -2.498535128394075
            ]
        },
        {
            "positions": [
                0.15493689185150927,
                -1.9249283237602737,
                2.382645892598016,
                -0.16031026259050307,
                0.5312561717601225,
                -2.628549714330455
            ]
        },
        {
            "positions": [
                0.29265934605928123,
                -1.9203148797942606,
                2.3844373003658643,
                -0.23327480123597288,
                0.5766805031620643,
                -2.7585643002668343
            ]
        },
        {
            "positions": [
                0.43038180026705364,
                -1.9157014358282474,
                2.3862287081337126,
                -0.3062393398814429,
                0.6221048345640061,
                -2.8885788862032142
            ]
        },
        {
            "positions": [
                0.5681042544748256,
                -1.9110879918622343,
                2.388020115901561,
                -0.3792038785269125,
                0.6675291659659479,
                -3.0185934721395937
            ]
        },
        {
            "positions": [
                0.705826708682598,
                -1.906474547896221,
                2.389811523669409,
                -0.4521684171723825,
                0.7129534973678896,
                -3.1486080580759737
            ]
        }
    ]
}