{
    "goal": {
        "global_pose": {
            "orientation": {
                "w": 0.7047431493862688,
                "x": -0.7094548369677653,
                "y": 0.0024358444001904,
                "z": -0.0022348060817251984
            },
            "position": {
                "x": -0.39052492380142206,
                "y": 0.3671506643295288,
                "z": 0.19426114857196808
            }
        },
        "name": "move_to_magneteinheit_D"
    },
    "id": "BKPIECE_move_to_magneteinheit_D_12",
    "joint_names": [
        "shoulder_pan_joint",
        "shoulder_lift_joint",
        "elbow_joint",
        "wrist_1_joint",
        "wrist_2_joint",
        "wrist_3_joint"
    ],
    "metrics": {
        "cart_traj_len": 4.461726251919792,
        "distance_elbow_joint": 3.11370835330683,
        "distance_shoulder_lift_joint": 1.2589862361294688,
        "distance_shoulder_pan_joint": 2.9304006470048556,
        "distance_wrist_1_joint": 2.100489555574235,
        "distance_wrist_2_joint": 1.0329182870298466,
        "distance_wrist_3_joint": 0.8494703984319196,
        "smoothness": 0.6526586171458554,
        "time": 1.6110075540000002,
        "traj_len": 3.3594602955649226,
        "weighted_distance": 4.014763021268513
    },
    "planner": "BKPIECE",
    "start": {
        "state": {
            "elbow_joint": 0.7495348899011973,
            "shoulder_lift_joint": -0.6476975780737697,
            "shoulder_pan_joint": -2.711696901376276,
            "wrist_1_joint": -0.07506478080974305,
            "wrist_2_joint": 0.4329665971545858,
            "wrist_3_joint": 3.1361499051832524
        }
    },
    "waypoints": [
        {
            "positions": [
                -2.711696901376276,
                -0.6476975780737697,
                0.7495348899011973,
                -0.07506478080974305,
                0.4329665971545858,
                3.1361499051832524
            ]
        },
        {
            "positions": [
                -2.762122539820474,
                -0.7401544239979431,
                0.6444774197174354,
                -0.08639500022499856,
                0.4472744071649177,
                3.0331545182565813
            ]
        },
        {
            "positions": [
                -2.812548178264672,
                -0.8326112699221164,
                0.5394199495336737,
                -0.09772521964025406,
                0.4615822171752495,
                2.93015913132991
            ]
        },
        {
            "positions": [
                -2.8629738167088696,
                -0.9250681158462898,
                0.4343624793499118,
                -0.10905543905550957,
                0.4758900271855814,
                2.8271637444032387
            ]
        },
        {
            "positions": [
                -2.728497176175264,
                -0.9522505954563734,
                0.33589472841518975,
                -0.18858293227434925,
                0.443294022457498,
                2.848862437428101
            ]
        },
        {
            "positions": [
                -2.594020535641658,
                -0.9794330750664569,
                0.2374269774804677,
                -0.268110425493189,
                0.4106980177294146,
                2.870561130452963
            ]
        },
        {
            "positions": [
                -2.4595438951080526,
                -1.0066155546765405,
                0.13895922654574566,
                -0.34763791871202865,
                0.37810201300133117,
                2.8922598234778256
            ]
        },
        {
            "positions": [
                -2.3250672545744466,
                -1.0337980342866242,
                0.04049147561102362,
                -0.4271654119308683,
                0.34550600827324784,
                2.913958516502688
            ]
        },
        {
            "positions": [
                -2.190590614040841,
                -1.0609805138967077,
                -0.05797627532369848,
                -0.506692905149708,
                0.3129100035451644,
                2.93565720952755
            ]
        },
        {
            "positions": [
                -2.056113973507235,
                -1.0881629935067914,
                -0.15644402625842047,
                -0.5862203983685477,
                0.280313998817081,
                2.957355902552412
            ]
        },
        {
            "positions": [
                -1.9216373329736296,
                -1.115345473116875,
                -0.2549117771931425,
                -0.6657478915873873,
                0.24771799408899764,
                2.9790545955772743
            ]
        },
        {
            "positions": [
                -1.7871606924400238,
                -1.1425279527269585,
                -0.35337952812786455,
                -0.745275384806227,
                0.21512198936091426,
                3.000753288602137
            ]
        },
        {
            "positions": [
                -1.652684051906418,
                -1.1697104323370422,
                -0.4518472790625867,
                -0.8248028780250669,
                0.18252598463283087,
                3.022451981626999
            ]
        },
        {
            "positions": [
                -1.5182074113728123,
                -1.1968929119471259,
                -0.5503150299973087,
                -0.9043303712439066,
                0.1499299799047475,
                3.044150674651861
            ]
        },
        {
            "positions": [
                -1.3837307708392064,
                -1.2240753915572093,
                -0.6487827809320309,
                -0.9838578644627463,
                0.11733397517666405,
                3.0658493676767233
            ]
        },
        {
            "positions": [
                -1.2492541303056008,
                -1.251257871167293,
                -0.7472505318667527,
                -1.063385357681586,
                0.08473797044858067,
                3.087548060701586
            ]
        },
        {
            "positions": [
                -1.1147774897719949,
                -1.2784403507773767,
                -0.845718282801475,
                -1.1429128509004256,
                0.052141965720497285,
                3.109246753726448
            ]
        },
        {
            "positions": [
                -0.9803008492383893,
                -1.3056228303874602,
                -0.9441860337361968,
                -1.2224403441192653,
                0.019545960992413902,
                3.1309454467513103
            ]
        },
        {
            "positions": [
                -0.8458242087047836,
                -1.3328053099975437,
                -1.042653784670919,
                -1.3019678373381052,
                -0.013050043735669481,
                3.1526441397761724
            ]
        },
        {
            "positions": [
                -0.7113475681711781,
                -1.3599877896076273,
                -1.1411215356056408,
                -1.3814953305569446,
                -0.045646048463752864,
                3.1743428328010346
            ]
        },
        {
            "positions": [
                -0.5768709276375721,
                -1.387170269217711,
                -1.239589286540363,
                -1.4610228237757845,
                -0.0782420531918363,
                3.196041525825897
            ]
        },
        {
            "positions": [
                -0.44239428710396655,
                -1.4143527488277945,
                -1.3380570374750853,
                -1.5405503169946242,
                -0.11083805791991963,
                3.2177402188507593
            ]
        },
        {
            "positions": [
                -0.3079176465703607,
                -1.4415352284378782,
                -1.4365247884098074,
                -1.6200778102134639,
                -0.14343406264800307,
                3.2394389118756215
            ]
        },
        {
            "positions": [
                -0.2732949175577142,
                -1.518058782735439,
                -1.546155088980931,
                -1.7253053888172112,
                -0.1847858961416316,
                3.216299673635023
            ]
        },
        {
            "positions": [
                -0.23867218854506764,
                -1.594582337033,
                -1.6557853895520545,
                -1.8305329674209585,
                -0.22613772963526016,
                3.193160435394425
            ]
        },
        {
            "positions": [
                -0.20404945953242112,
                -1.6711058913305605,
                -1.7654156901231781,
                -1.9357605460247056,
                -0.2674895631288887,
                3.170021197153827
            ]
        },
        {
            "positions": [
                -0.16942673051977458,
                -1.7476294456281214,
                -1.8750459906943018,
                -2.040988124628453,
                -0.30884139662251725,
                3.146881958913229
            ]
        },
        {
            "positions": [
                -0.13480400150712807,
                -1.8241529999256823,
                -1.9846762912654252,
                -2.1462157032322002,
                -0.3501932301161458,
                3.1237427206726305
            ]
        },
        {
            "positions": [
                -0.1602809597423886,
                -1.7828875927869041,
                -2.174424877335529,
                -2.1608850198080893,
                -0.26823743026758384,
                3.1299991601608967
            ]
        },
        {
            "positions": [
                -0.18575791797764912,
                -1.741622185648126,
                -2.364173463405632,
                -2.1755543363839784,
                -0.18628163041902196,
                3.1362555996491626
            ]
        }
    ]
}