{
    "goal": {
        "global_pose": {
            "orientation": {
                "w": -0.4816463035849501,
                "x": 0.5182115481033762,
                "y": 0.4908360881923453,
                "z": -0.5084816262002911
            },
            "position": {
                "x": -0.8240239810943604,
                "y": -0.300875300988555,
                "z": 0.16403168439865112
            }
        },
        "name": "move_to_storage_C"
    },
    "id": "BKPIECE_move_to_storage_C_108",
    "joint_names": [
        "shoulder_pan_joint",
        "shoulder_lift_joint",
        "elbow_joint",
        "wrist_1_joint",
        "wrist_2_joint",
        "wrist_3_joint"
    ],
    "metrics": {
        "cart_traj_len": 0.5763228515961952,
        "distance_elbow_joint": 0.26087672394275785,
        "distance_shoulder_lift_joint": 0.18893839089013942,
        "distance_shoulder_pan_joint": 0.49428604594651704,
        "distance_wrist_1_joint": 0.0892433445527594,
        "distance_wrist_2_joint": 1.0669230139562376,
        "distance_wrist_3_joint": 0.06564794371924343,
        "smoothness": 2.5376526478085547e-16,
        "time": 0.21306208199999999,
        "traj_len": 1.4717049510712583,
        "weighted_distance": 1.8583265883463915
    },
    "planner": "BKPIECE",
    "start": {
        "state": {
            "elbow_joint": 2.010868315001653,
            "shoulder_lift_joint": -1.1634956873357014,
            "shoulder_pan_joint": -2.4736205022346103,
            "wrist_1_joint": -0.8367026794713948,
            "wrist_2_joint": 0.6746043897044093,
            "wrist_3_joint": 3.1335220948105738
        }
    },
    "waypoints": [
        {
            "positions": [
                -2.4736205022346103,
                -1.1634956873357014,
                2.010868315001653,
                -0.8367026794713948,
                0.6746043897044093,
                3.1335220948105738
            ]
        },
        {
            "positions": [
                -2.556001509892363,
                -1.132005955520678,
                1.9673888610111934,
                -0.8218287887126016,
                0.8524248920304489,
                3.144463418763781
            ]
        },
        {
            "positions": [
                -2.638382517550116,
                -1.100516223705655,
                1.9239094070207339,
                -0.8069548979538083,
                1.0302453943564884,
                3.1554047427169882
            ]
        },
        {
            "positions": [
                -2.720763525207869,
                -1.0690264918906318,
                1.8804299530302742,
                -0.7920810071950151,
                1.2080658966825282,
                3.1663460666701955
            ]
        },
        {
            "positions": [
                -2.8031445328656215,
                -1.0375367600756085,
                1.8369504990398144,
                -0.7772071164362219,
                1.3858863990085677,
                3.1772873906234027
            ]
        },
        {
            "positions": [
                -2.8855255405233744,
                -1.0060470282605851,
                1.793471045049355,
                -0.7623332256774286,
                1.5637069013346072,
                3.18822871457661
            ]
        },
        {
            "positions": [
                -2.9679065481811273,
                -0.974557296445562,
                1.7499915910588952,
                -0.7474593349186354,
                1.7415274036606467,
                3.199170038529817
            ]
        }
    ]
}