{
    "goal": {
        "global_pose": {
            "orientation": {
                "w": -0.4816463035849501,
                "x": 0.5182115481033762,
                "y": 0.4908360881923453,
                "z": -0.5084816262002911
            },
            "position": {
                "x": -0.8240239810943604,
                "y": 0.19912469901144506,
                "z": 0.16403168439865112
            }
        },
        "name": "move_to_storage_D"
    },
    "id": "BKPIECE_move_to_storage_D_69",
    "joint_names": [
        "shoulder_pan_joint",
        "shoulder_lift_joint",
        "elbow_joint",
        "wrist_1_joint",
        "wrist_2_joint",
        "wrist_3_joint"
    ],
    "metrics": {
        "cart_traj_len": 3.7225674580449524,
        "distance_elbow_joint": 4.228263002004434,
        "distance_shoulder_lift_joint": 1.2652070875477532,
        "distance_shoulder_pan_joint": 2.812767248180987,
        "distance_wrist_1_joint": 2.317564662412342,
        "distance_wrist_2_joint": 0.8678524326212963,
        "distance_wrist_3_joint": 3.260267828961556,
        "smoothness": 0.23691701429644602,
        "time": 0.615282036,
        "traj_len": 3.8408231229423166,
        "weighted_distance": 4.945490371508686
    },
    "planner": "BKPIECE",
    "start": {
        "state": {
            "elbow_joint": -2.384821997420982,
            "shoulder_lift_joint": -2.2788054674887404,
            "shoulder_pan_joint": -0.18546946417610016,
            "wrist_1_joint": 1.4845937964226739,
            "wrist_2_joint": 0.1789877726866377,
            "wrist_3_joint": 0.03710572555276528
        }
    },
    "waypoints": [
        {
            "positions": [
                -0.18546946417610016,
                -2.2788054674887404,
                -2.384821997420982,
                1.4845937964226739,
                0.1789877726866377,
                0.03710572555276528
            ]
        },
        {
            "positions": [
                -0.06837759238288989,
                -2.2184140572714184,
                -2.394860319982222,
                1.5095692562349037,
                0.23489906524982013,
                0.10268216861898663
            ]
        },
        {
            "positions": [
                0.009099611985174658,
                -2.1840092969326106,
                -2.2769174598254667,
                1.4511785654936777,
                0.24840245643809652,
                0.020337925996538858
            ]
        },
        {
            "positions": [
                0.0865768163532392,
                -2.149604536593803,
                -2.158974599668711,
                1.392787874752452,
                0.2619058476263729,
                -0.062006316625908914
            ]
        },
        {
            "positions": [
                0.16405402072130376,
                -2.1151997762549954,
                -2.0410317395119555,
                1.334397184011226,
                0.2754092388146493,
                -0.1443505592483567
            ]
        },
        {
            "positions": [
                0.2415312250893683,
                -2.0807950159161877,
                -1.9230888793552,
                1.2760064932700004,
                0.2889126300029257,
                -0.22669480187080446
            ]
        },
        {
            "positions": [
                0.31900842945743285,
                -2.04639025557738,
                -1.8051460191984445,
                1.2176158025287744,
                0.3024160211912021,
                -0.30903904449325226
            ]
        },
        {
            "positions": [
                0.39648563382549745,
                -2.011985495238572,
                -1.687203159041689,
                1.1592251117875485,
                0.3159194123794785,
                -0.39138328711570003
            ]
        },
        {
            "positions": [
                0.473962838193562,
                -1.9775807348997645,
                -1.5692602988849336,
                1.1008344210463228,
                0.3294228035677549,
                -0.4737275297381479
            ]
        },
        {
            "positions": [
                0.5514400425616265,
                -1.9431759745609567,
                -1.4513174387281778,
                1.0424437303050968,
                0.34292619475603126,
                -0.5560717723605956
            ]
        },
        {
            "positions": [
                0.6289172469296911,
                -1.9087712142221491,
                -1.3333745785714224,
                0.984053039563871,
                0.3564295859443077,
                -0.6384160149830433
            ]
        },
        {
            "positions": [
                0.7063944512977556,
                -1.8743664538833413,
                -1.215431718414667,
                0.9256623488226452,
                0.36993297713258405,
                -0.7207602576054911
            ]
        },
        {
            "positions": [
                0.7838716556658201,
                -1.8399616935445335,
                -1.0974888582579114,
                0.8672716580814194,
                0.3834363683208605,
                -0.8031045002279389
            ]
        },
        {
            "positions": [
                0.8613488600338848,
                -1.805556933205726,
                -0.9795459981011558,
                0.8088809673401934,
                0.39693975950913685,
                -0.8854487428503868
            ]
        },
        {
            "positions": [
                0.9388260644019494,
                -1.7711521728669182,
                -0.8616031379444002,
                0.7504902765989676,
                0.4104431506974132,
                -0.9677929854728345
            ]
        },
        {
            "positions": [
                1.0163032687700138,
                -1.7367474125281106,
                -0.7436602777876449,
                0.6920995858577418,
                0.42394654188568964,
                -1.0501372280952823
            ]
        },
        {
            "positions": [
                1.0937804731380782,
                -1.7023426521893028,
                -0.6257174176308893,
                0.633708895116516,
                0.43744993307396607,
                -1.13248147071773
            ]
        },
        {
            "positions": [
                1.1712576775061427,
                -1.667937891850495,
                -0.5077745574741337,
                0.5753182043752901,
                0.45095332426224244,
                -1.2148257133401776
            ]
        },
        {
            "positions": [
                1.2487348818742072,
                -1.6335331315116874,
                -0.3898316973173781,
                0.5169275136340643,
                0.4644567154505188,
                -1.2971699559626255
            ]
        },
        {
            "positions": [
                1.326212086242272,
                -1.5991283711728799,
                -0.27188883716062273,
                0.45853682289283837,
                0.4779601066387952,
                -1.3795141985850732
            ]
        },
        {
            "positions": [
                1.4036892906103364,
                -1.564723610834072,
                -0.15394597700386736,
                0.40014613215161265,
                0.4914634978270716,
                -1.461858441207521
            ]
        },
        {
            "positions": [
                1.481166494978401,
                -1.5303188504952643,
                -0.03600311684711199,
                0.3417554414103867,
                0.504966889015348,
                -1.5442026838299687
            ]
        },
        {
            "positions": [
                1.5586436993464654,
                -1.4959140901564565,
                0.08193974330964382,
                0.283364750669161,
                0.5184702802036244,
                -1.6265469264524166
            ]
        },
        {
            "positions": [
                1.63612090371453,
                -1.461509329817649,
                0.1998826034663992,
                0.22497405992793507,
                0.5319736713919008,
                -1.7088911690748643
            ]
        },
        {
            "positions": [
                1.7135981080825948,
                -1.4271045694788411,
                0.317825463623155,
                0.16658336918670913,
                0.5454770625801773,
                -1.7912354116973124
            ]
        },
        {
            "positions": [
                1.7910753124506593,
                -1.3926998091400336,
                0.43576832377991037,
                0.10819267844548319,
                0.5589804537684536,
                -1.87357965431976
            ]
        },
        {
            "positions": [
                1.8685525168187238,
                -1.3582950488012258,
                0.5537111839366662,
                0.04980198770425748,
                0.57248384495673,
                -1.9559238969422077
            ]
        },
        {
            "positions": [
                1.9460297211867885,
                -1.323890288462418,
                0.6716540440934216,
                -0.00858870303696846,
                0.5859872361450064,
                -2.038268139564656
            ]
        },
        {
            "positions": [
                2.023506925554853,
                -1.2894855281236102,
                0.7895969042501769,
                -0.06697939377819417,
                0.5994906273332827,
                -2.1206123821871037
            ]
        },
        {
            "positions": [
                2.1009841299229177,
                -1.2550807677848026,
                0.9075397644069323,
                -0.1253700845194201,
                0.6129940185215592,
                -2.2029566248095516
            ]
        },
        {
            "positions": [
                2.178461334290982,
                -1.220676007445995,
                1.025482624563688,
                -0.18376077526064583,
                0.6264974097098356,
                -2.285300867431999
            ]
        },
        {
            "positions": [
                2.2559385386590467,
                -1.1862712471071872,
                1.1434254847204435,
                -0.2421514660018717,
                0.640000800898112,
                -2.367645110054447
            ]
        },
        {
            "positions": [
                2.3023584443272767,
                -1.1646871387114122,
                1.2284178440630096,
                -0.3097600260472889,
                0.6908557264493397,
                -2.4581906234571846
            ]
        },
        {
            "positions": [
                2.3487783499955066,
                -1.143103030315637,
                1.3134102034055757,
                -0.37736858609270607,
                0.7417106520005674,
                -2.548736136859922
            ]
        },
        {
            "positions": [
                2.3951982556637366,
                -1.1215189219198622,
                1.3984025627481418,
                -0.4449771461381232,
                0.7925655775517952,
                -2.6392816502626597
            ]
        },
        {
            "positions": [
                2.4416181613319665,
                -1.0999348135240872,
                1.483394922090708,
                -0.5125857061835404,
                0.843420503103023,
                -2.729827163665397
            ]
        },
        {
            "positions": [
                2.488038067000197,
                -1.078350705128312,
                1.568387281433274,
                -0.5801942662289576,
                0.8942754286542507,
                -2.8203726770681348
            ]
        },
        {
            "positions": [
                2.534457972668427,
                -1.0567665967325373,
                1.6533796407758399,
                -0.6478028262743748,
                0.9451303542054785,
                -2.9109181904708725
            ]
        },
        {
            "positions": [
                2.580877878336657,
                -1.0351824883367622,
                1.738372000118406,
                -0.715411386319792,
                0.9959852797567063,
                -3.0014637038736103
            ]
        },
        {
            "positions": [
                2.627297784004887,
                -1.0135983799409871,
                1.823364359460972,
                -0.7830199463652091,
                1.046840205307934,
                -3.0920092172763476
            ]
        }
    ]
}