{
    "goal": {
        "global_pose": {
            "orientation": {
                "w": 0.005598929693374612,
                "x": 0.007748599140229565,
                "y": 0.7110244013736278,
                "z": -0.7031023480610252
            },
            "position": {
                "x": 0.1141497679147869,
                "y": -0.7141253447532654,
                "z": 0.3711530566215515
            }
        },
        "name": "move_to_auspresseinheit_B"
    },
    "id": "BKPIECE_move_to_auspresseinheit_B_18",
    "joint_names": [
        "shoulder_pan_joint",
        "shoulder_lift_joint",
        "elbow_joint",
        "wrist_1_joint",
        "wrist_2_joint",
        "wrist_3_joint"
    ],
    "metrics": {
        "cart_traj_len": 0.5654306327292639,
        "distance_elbow_joint": 0.06373745131101982,
        "distance_shoulder_lift_joint": 0.29461677598537483,
        "distance_shoulder_pan_joint": 0.5797489483307945,
        "distance_wrist_1_joint": 0.33070400160683777,
        "distance_wrist_2_joint": 0.9836403799334024,
        "distance_wrist_3_joint": 0.0031123440131914926,
        "smoothness": 5.075305255429287e-16,
        "time": 1.392828505,
        "traj_len": 1.5018521568984813,
        "weighted_distance": 1.8910655648991241
    },
    "planner": "BKPIECE",
    "start": {
        "state": {
            "elbow_joint": 2.019306165916698,
            "shoulder_lift_joint": -1.1220205098164344,
            "shoulder_pan_joint": -1.095207207618794,
            "wrist_1_joint": -0.8559671824921639,
            "wrist_2_joint": 0.47596387242952726,
            "wrist_3_joint": 3.159081874673826
        }
    },
    "waypoints": [
        {
            "positions": [
                -1.095207207618794,
                -1.1220205098164344,
                2.019306165916698,
                -0.8559671824921639,
                0.47596387242952726,
                3.159081874673826
            ]
        },
        {
            "positions": [
                -1.191832032340593,
                -1.171123305813997,
                2.0086832573648614,
                -0.8008498488910243,
                0.639903935751761,
                3.158563150671627
            ]
        },
        {
            "positions": [
                -1.2884568570623922,
                -1.2202261018115594,
                1.9980603488130246,
                -0.7457325152898846,
                0.8038439990739947,
                3.1580444266694285
            ]
        },
        {
            "positions": [
                -1.3850816817841913,
                -1.269328897809122,
                1.987437440261188,
                -0.6906151816887449,
                0.9677840623962284,
                3.15752570266723
            ]
        },
        {
            "positions": [
                -1.4817065065059902,
                -1.3184316938066842,
                1.9768145317093515,
                -0.6354978480876053,
                1.131724125718462,
                3.1570069786650317
            ]
        },
        {
            "positions": [
                -1.5783313312277893,
                -1.3675344898042467,
                1.9661916231575147,
                -0.5803805144864658,
                1.295664189040696,
                3.156488254662833
            ]
        },
        {
            "positions": [
                -1.6749561559495885,
                -1.4166372858018093,
                1.9555687146056782,
                -0.5252631808853261,
                1.4596042523629296,
                3.1559695306606343
            ]
        }
    ]
}