{
    "goal": {
        "global_pose": {
            "orientation": {
                "w": 0.7047431468963623,
                "x": -0.7094548344612122,
                "y": 0.0024358443915843964,
                "z": -0.0022348060738295317
            },
            "position": {
                "x": 0.6094750761985779,
                "y": 0.3671506643295288,
                "z": 0.19426114857196808
            }
        },
        "name": "move_to_magneteinheit_A"
    },
    "id": "BKPIECE_move_to_magneteinheit_A_122",
    "joint_names": [
        "shoulder_pan_joint",
        "shoulder_lift_joint",
        "elbow_joint",
        "wrist_1_joint",
        "wrist_2_joint",
        "wrist_3_joint"
    ],
    "metrics": {
        "cart_traj_len": 1.0530644123207369,
        "distance_elbow_joint": 0.38673608892139755,
        "distance_shoulder_lift_joint": 0.3646538580280181,
        "distance_shoulder_pan_joint": 1.2405215400402705,
        "distance_wrist_1_joint": 2.22501137576682,
        "distance_wrist_2_joint": 1.6972327168011168,
        "distance_wrist_3_joint": 1.2068440548521462,
        "smoothness": 1.8698493194378823e-16,
        "time": 1.149332816,
        "traj_len": 2.6685201206679645,
        "weighted_distance": 3.6683690976620658
    },
    "planner": "BKPIECE",
    "start": {
        "state": {
            "elbow_joint": 1.5739458966750683,
            "shoulder_lift_joint": -1.4977259741207325,
            "shoulder_pan_joint": -1.1188672016454206,
            "wrist_1_joint": 1.494575848278785,
            "wrist_2_joint": -1.5706037134824402,
            "wrist_3_joint": -2.0226957942261072
        }
    },
    "waypoints": [
        {
            "positions": [
                -1.1188672016454206,
                -1.4977259741207325,
                1.5739458966750683,
                1.494575848278785,
                -1.5706037134824402,
                -2.0226957942261072
            ]
        },
        {
            "positions": [
                -1.0499493383098502,
                -1.4774674264525092,
                1.5954312349484794,
                1.3709641051806283,
                -1.4763130069934893,
                -2.0897426861623374
            ]
        },
        {
            "positions": [
                -0.9810314749742794,
                -1.457208878784286,
                1.6169165732218902,
                1.2473523620824716,
                -1.3820223005045384,
                -2.156789578098568
            ]
        },
        {
            "positions": [
                -0.912113611638709,
                -1.4369503311160627,
                1.6384019114953012,
                1.123740618984315,
                -1.2877315940155873,
                -2.223836470034798
            ]
        },
        {
            "positions": [
                -0.8431957483031383,
                -1.4166917834478396,
                1.6598872497687123,
                1.0001288758861584,
                -1.1934408875266365,
                -2.2908833619710287
            ]
        },
        {
            "positions": [
                -0.7742778849675678,
                -1.3964332357796163,
                1.6813725880421233,
                0.8765171327880016,
                -1.0991501810376856,
                -2.357930253907259
            ]
        },
        {
            "positions": [
                -0.7053600216319972,
                -1.3761746881113932,
                1.7028579263155341,
                0.752905389689845,
                -1.0048594745487347,
                -2.4249771458434894
            ]
        },
        {
            "positions": [
                -0.6364421582964266,
                -1.3559161404431699,
                1.7243432645889452,
                0.6292936465916882,
                -0.9105687680597837,
                -2.4920240377797196
            ]
        },
        {
            "positions": [
                -0.567524294960856,
                -1.3356575927749468,
                1.7458286028623562,
                0.5056819034935316,
                -0.8162780615708328,
                -2.5590709297159497
            ]
        },
        {
            "positions": [
                -0.4986064316252854,
                -1.3153990451067235,
                1.7673139411357672,
                0.3820701603953749,
                -0.7219873550818818,
                -2.6261178216521803
            ]
        },
        {
            "positions": [
                -0.4296885682897148,
                -1.2951404974385001,
                1.788799279409178,
                0.2584584172972182,
                -0.6276966485929308,
                -2.693164713588411
            ]
        },
        {
            "positions": [
                -0.3607707049541442,
                -1.274881949770277,
                1.810284617682589,
                0.1348466741990615,
                -0.5334059421039798,
                -2.760211605524641
            ]
        },
        {
            "positions": [
                -0.2918528416185737,
                -1.2546234021020537,
                1.8317699559560001,
                0.01123493110090501,
                -0.4391152356150292,
                -2.827258497460871
            ]
        },
        {
            "positions": [
                -0.22293497828300313,
                -1.2343648544338306,
                1.853255294229411,
                -0.11237681199725169,
                -0.3448245291260781,
                -2.894305389397102
            ]
        },
        {
            "positions": [
                -0.15401711494743242,
                -1.2141063067656073,
                1.874740632502822,
                -0.23598855509540861,
                -0.2505338226371272,
                -2.961352281333332
            ]
        },
        {
            "positions": [
                -0.08509925161186183,
                -1.193847759097384,
                1.896225970776233,
                -0.3596002981935653,
                -0.1562431161481761,
                -3.0283991732695625
            ]
        },
        {
            "positions": [
                -0.016181388276291342,
                -1.1735892114291608,
                1.9177113090496438,
                -0.4832120412917218,
                -0.06195240965922544,
                -3.0954460652057927
            ]
        },
        {
            "positions": [
                0.05273647505927914,
                -1.1533306637609377,
                1.9391966473230549,
                -0.6068237843898785,
                0.032338296829725666,
                -3.162492957142023
            ]
        },
        {
            "positions": [
                0.12165433839484976,
                -1.1330721160927144,
                1.960681985596466,
                -0.7304355274880351,
                0.12662900331867658,
                -3.2295398490782534
            ]
        }
    ]
}