{
    "goal": {
        "global_pose": {
            "orientation": {
                "w": 0.5084816262002911,
                "x": -0.4908360881923452,
                "y": 0.5182115481033761,
                "z": -0.48164630358495003
            },
            "position": {
                "x": 0.5540239810943604,
                "y": -0.46912469901144505,
                "z": 0.16403168439865112
            }
        },
        "name": "move_to_storage_B"
    },
    "id": "BKPIECE_move_to_storage_B_41",
    "joint_names": [
        "shoulder_pan_joint",
        "shoulder_lift_joint",
        "elbow_joint",
        "wrist_1_joint",
        "wrist_2_joint",
        "wrist_3_joint"
    ],
    "metrics": {
        "cart_traj_len": 0.6532192454882366,
        "distance_elbow_joint": 0.3784188787048126,
        "distance_shoulder_lift_joint": 0.45844304956423576,
        "distance_shoulder_pan_joint": 0.32025934844521353,
        "distance_wrist_1_joint": 2.984189703496759,
        "distance_wrist_2_joint": 2.7036525509504954,
        "distance_wrist_3_joint": 3.160443178576332,
        "smoothness": 0.12143071869834961,
        "time": 1.151778167,
        "traj_len": 3.1631324205189144,
        "weighted_distance": 4.691922348178598
    },
    "planner": "BKPIECE",
    "start": {
        "state": {
            "elbow_joint": 1.6649325706314817,
            "shoulder_lift_joint": -0.6616388048112454,
            "shoulder_pan_joint": -0.9139837860083814,
            "wrist_1_joint": 2.146757197745094,
            "wrist_2_joint": -2.234196043158733,
            "wrist_3_joint": 0.005471033829999897
        }
    },
    "waypoints": [
        {
            "positions": [
                -0.9139837860083814,
                -0.6616388048112454,
                1.6649325706314817,
                2.146757197745094,
                -2.234196043158733,
                0.005471033829999897
            ]
        },
        {
            "positions": [
                -0.8444127269363816,
                -0.7116308355774028,
                1.6508232262179245,
                2.076401448403111,
                -2.1675126130122173,
                0.014033233337543083
            ]
        },
        {
            "positions": [
                -0.8544402585113101,
                -0.7279688763293259,
                1.6653956075895748,
                1.9598480902369197,
                -2.062033848180058,
                -0.11204200582520846
            ]
        },
        {
            "positions": [
                -0.8644677900862386,
                -0.7443069170812491,
                1.679967988961225,
                1.8432947320707287,
                -1.9565550833478988,
                -0.23811724498796
            ]
        },
        {
            "positions": [
                -0.8744953216611673,
                -0.7606449578331722,
                1.6945403703328752,
                1.7267413739045376,
                -1.8510763185157397,
                -0.36419248415071154
            ]
        },
        {
            "positions": [
                -0.8845228532360958,
                -0.7769829985850953,
                1.7091127517045255,
                1.6101880157383466,
                -1.7455975536835806,
                -0.4902677233134631
            ]
        },
        {
            "positions": [
                -0.8945503848110243,
                -0.7933210393370185,
                1.7236851330761755,
                1.4936346575721555,
                -1.6401187888514213,
                -0.6163429624762147
            ]
        },
        {
            "positions": [
                -0.9045779163859529,
                -0.8096590800889416,
                1.7382575144478258,
                1.3770812994059647,
                -1.5346400240192621,
                -0.7424182016389662
            ]
        },
        {
            "positions": [
                -0.9146054479608814,
                -0.8259971208408647,
                1.7528298958194761,
                1.2605279412397736,
                -1.429161259187103,
                -0.8684934408017178
            ]
        },
        {
            "positions": [
                -0.92463297953581,
                -0.8423351615927879,
                1.7674022771911262,
                1.1439745830735826,
                -1.323682494354944,
                -0.9945686799644693
            ]
        },
        {
            "positions": [
                -0.9346605111107386,
                -0.858673202344711,
                1.7819746585627765,
                1.0274212249073917,
                -1.2182037295227848,
                -1.1206439191272208
            ]
        },
        {
            "positions": [
                -0.9446880426856671,
                -0.8750112430966341,
                1.7965470399344268,
                0.9108678667412005,
                -1.1127249646906254,
                -1.2467191582899724
            ]
        },
        {
            "positions": [
                -0.9547155742605956,
                -0.8913492838485573,
                1.8111194213060768,
                0.7943145085750096,
                -1.007246199858466,
                -1.372794397452724
            ]
        },
        {
            "positions": [
                -0.9647431058355241,
                -0.9076873246004804,
                1.8256918026777271,
                0.6777611504088186,
                -0.901767435026307,
                -1.4988696366154755
            ]
        },
        {
            "positions": [
                -0.9747706374104528,
                -0.9240253653524035,
                1.8402641840493774,
                0.5612077922426275,
                -0.7962886701941478,
                -1.624944875778227
            ]
        },
        {
            "positions": [
                -0.9847981689853813,
                -0.9403634061043267,
                1.8548365654210277,
                0.44465443407643646,
                -0.6908099053619885,
                -1.7510201149409788
            ]
        },
        {
            "positions": [
                -0.9948257005603098,
                -0.9567014468562498,
                1.8694089467926778,
                0.3281010759102456,
                -0.5853311405298294,
                -1.87709535410373
            ]
        },
        {
            "positions": [
                -1.0048532321352384,
                -0.9730394876081729,
                1.883981328164328,
                0.21154771774405434,
                -0.47985237569767025,
                -2.0031705932664816
            ]
        },
        {
            "positions": [
                -1.0148807637101669,
                -0.9893775283600961,
                1.8985537095359784,
                0.09499435957786329,
                -0.3743736108655109,
                -2.129245832429233
            ]
        },
        {
            "positions": [
                -1.0249082952850954,
                -1.0057155691120192,
                1.9131260909076284,
                -0.021558998588327327,
                -0.268894846033352,
                -2.2553210715919847
            ]
        },
        {
            "positions": [
                -1.034935826860024,
                -1.0220536098639423,
                1.9276984722792787,
                -0.13811235675451883,
                -0.16341608120119266,
                -2.3813963107547362
            ]
        },
        {
            "positions": [
                -1.0449633584349525,
                -1.0383916506158655,
                1.942270853650929,
                -0.2546657149207099,
                -0.05793731636903354,
                -2.5074715499174878
            ]
        },
        {
            "positions": [
                -1.0549908900098812,
                -1.0547296913677886,
                1.956843235022579,
                -0.3712190730869005,
                0.04754144846312558,
                -2.6335467890802393
            ]
        },
        {
            "positions": [
                -1.0650184215848097,
                -1.0710677321197117,
                1.9714156163942294,
                -0.48777243125309155,
                0.15302021329528515,
                -2.759622028242991
            ]
        },
        {
            "positions": [
                -1.0750459531597383,
                -1.0874057728716349,
                1.9859879977658796,
                -0.6043257894192826,
                0.25849897812744427,
                -2.8856972674057424
            ]
        },
        {
            "positions": [
                -1.0850734847346668,
                -1.103743813623558,
                2.00056037913753,
                -0.7208791475854737,
                0.3639777429596034,
                -3.011772506568494
            ]
        },
        {
            "positions": [
                -1.0951010163095953,
                -1.1200818543754811,
                2.01513276050918,
                -0.8374325057516646,
                0.46945650779176246,
                -3.1378477457312455
            ]
        }
    ]
}