{
    "goal": {
        "global_pose": {
            "orientation": {
                "w": 0.7031023480610252,
                "x": -0.7110244013736278,
                "y": 0.0077485991402295624,
                "z": 0.005598929693374583
            },
            "position": {
                "x": -0.8841497679147869,
                "y": 0.44412534475326537,
                "z": 0.3711530566215515
            }
        },
        "name": "move_to_auspresseinheit_D"
    },
    "id": "BKPIECE_move_to_auspresseinheit_D_99",
    "joint_names": [
        "shoulder_pan_joint",
        "shoulder_lift_joint",
        "elbow_joint",
        "wrist_1_joint",
        "wrist_2_joint",
        "wrist_3_joint"
    ],
    "metrics": {
        "cart_traj_len": 3.448949173184155,
        "distance_elbow_joint": 3.2015312622085133,
        "distance_shoulder_lift_joint": 1.386993796202006,
        "distance_shoulder_pan_joint": 2.797432202076613,
        "distance_wrist_1_joint": 1.3038378851668762,
        "distance_wrist_2_joint": 0.8939918149674834,
        "distance_wrist_3_joint": 3.041457867743935,
        "smoothness": 6.791952660280546e-16,
        "time": 0.873634212,
        "traj_len": 3.5532020528483073,
        "weighted_distance": 4.572306886461981
    },
    "planner": "BKPIECE",
    "start": {
        "state": {
            "elbow_joint": 1.8268400409724999,
            "shoulder_lift_joint": -1.0144045787793008,
            "shoulder_pan_joint": 2.6280239544362485,
            "wrist_1_joint": -0.790705565816056,
            "wrist_2_joint": 1.0573557467365533,
            "wrist_3_joint": 3.1851377467193758
        }
    },
    "waypoints": [
        {
            "positions": [
                2.6280239544362485,
                -1.0144045787793008,
                1.8268400409724999,
                -0.790705565816056,
                1.0573557467365533,
                3.1851377467193758
            ]
        },
        {
            "positions": [
                2.5911758025491194,
                -1.035052583829522,
                1.762206517210085,
                -0.6965739812723781,
                1.0212542032208833,
                3.0565186594130496
            ]
        },
        {
            "positions": [
                2.5543276506619903,
                -1.055700588879743,
                1.6975729934476698,
                -0.6024423967287004,
                0.9851526597052134,
                2.927899572106724
            ]
        },
        {
            "positions": [
                2.5174794987748608,
                -1.0763485939299642,
                1.6329394696852548,
                -0.5083108121850226,
                0.9490511161895434,
                2.7992804848003976
            ]
        },
        {
            "positions": [
                2.4806313468877317,
                -1.0969965989801853,
                1.56830594592284,
                -0.41417922764134474,
                0.9129495726738734,
                2.6706613974940714
            ]
        },
        {
            "positions": [
                2.4437831950006026,
                -1.1176446040304064,
                1.5036724221604247,
                -0.320047643097667,
                0.8768480291582035,
                2.5420423101877456
            ]
        },
        {
            "positions": [
                2.4069350431134735,
                -1.1382926090806276,
                1.4390388983980098,
                -0.22591605855398922,
                0.8407464856425335,
                2.41342322288142
            ]
        },
        {
            "positions": [
                2.3700868912263444,
                -1.1589406141308487,
                1.3744053746355949,
                -0.13178447401031146,
                0.8046449421268635,
                2.2848041355750937
            ]
        },
        {
            "positions": [
                2.333238739339215,
                -1.1795886191810698,
                1.30977185087318,
                -0.03765288946663348,
                0.7685433986111935,
                2.1561850482687674
            ]
        },
        {
            "positions": [
                2.296390587452086,
                -1.200236624231291,
                1.2451383271107648,
                0.05647869507704428,
                0.7324418550955235,
                2.0275659609624412
            ]
        },
        {
            "positions": [
                2.2595424355649567,
                -1.220884629281512,
                1.1805048033483498,
                0.150610279620722,
                0.6963403115798535,
                1.8989468736561155
            ]
        },
        {
            "positions": [
                2.153935884121247,
                -1.2722113138771554,
                1.069409324018595,
                0.16637210743507408,
                0.6731674255011239,
                1.8226309173656514
            ]
        },
        {
            "positions": [
                2.0483293326775374,
                -1.3235379984727986,
                0.9583138446888401,
                0.18213393524942617,
                0.649994539422394,
                1.7463149610751874
            ]
        },
        {
            "positions": [
                1.9427227812338277,
                -1.374864683068442,
                0.8472183653590852,
                0.19789576306377824,
                0.6268216533436644,
                1.669999004784723
            ]
        },
        {
            "positions": [
                1.8371162297901182,
                -1.4261913676640852,
                0.7361228860293303,
                0.21365759087813033,
                0.6036487672649347,
                1.593683048494259
            ]
        },
        {
            "positions": [
                1.7315096783464086,
                -1.4775180522597284,
                0.6250274066995753,
                0.2294194186924824,
                0.580475881186205,
                1.517367092203795
            ]
        },
        {
            "positions": [
                1.625903126902699,
                -1.5288447368553717,
                0.5139319273698205,
                0.24518124650683448,
                0.5573029951074753,
                1.4410511359133307
            ]
        },
        {
            "positions": [
                1.5202965754589892,
                -1.580171421451015,
                0.4028364480400656,
                0.2609430743211866,
                0.5341301090287455,
                1.3647351796228666
            ]
        },
        {
            "positions": [
                1.4146900240152798,
                -1.631498106046658,
                0.29174096871031074,
                0.27670490213553867,
                0.5109572229500158,
                1.2884192233324026
            ]
        },
        {
            "positions": [
                1.30908347257157,
                -1.6828247906423013,
                0.1806454893805558,
                0.29246672994989076,
                0.48778433687128603,
                1.2121032670419383
            ]
        },
        {
            "positions": [
                1.2034769211278604,
                -1.7341514752379446,
                0.06955001005080086,
                0.30822855776424285,
                0.46461145079255634,
                1.1357873107514744
            ]
        },
        {
            "positions": [
                1.0978703696841507,
                -1.7854781598335878,
                -0.041545469278954084,
                0.32399038557859494,
                0.4414385647138266,
                1.0594713544610102
            ]
        },
        {
            "positions": [
                0.9922638182404411,
                -1.836804844429231,
                -0.1526409486087088,
                0.33975221339294703,
                0.4182656786350969,
                0.9831553981705461
            ]
        },
        {
            "positions": [
                0.8866572667967316,
                -1.8881315290248741,
                -0.26373642793846375,
                0.35551404120729907,
                0.3950927925563672,
                0.906839441880082
            ]
        },
        {
            "positions": [
                0.7810507153530217,
                -1.9394582136205176,
                -0.3748319072682187,
                0.3712758690216512,
                0.3719199064776374,
                0.8305234855896177
            ]
        },
        {
            "positions": [
                0.6754441639093123,
                -1.9907848982161607,
                -0.48592738659797363,
                0.38703769683600325,
                0.3487470203989077,
                0.7542075292991537
            ]
        },
        {
            "positions": [
                0.5698376124656026,
                -2.042111582811804,
                -0.5970228659277284,
                0.40279952465035535,
                0.325574134320178,
                0.6778915730086896
            ]
        },
        {
            "positions": [
                0.46423106102189293,
                -2.093438267407447,
                -0.7081183452574833,
                0.4185613524647074,
                0.3024012482414483,
                0.6015756167182256
            ]
        },
        {
            "positions": [
                0.35862450957818326,
                -2.1447649520030905,
                -0.8192138245872382,
                0.43432318027905953,
                0.2792283621627185,
                0.5252596604277613
            ]
        },
        {
            "positions": [
                0.2530179581344738,
                -2.1960916365987337,
                -0.930309303916993,
                0.4500850080934116,
                0.2560554760839888,
                0.44894370413729723
            ]
        },
        {
            "positions": [
                0.14741140669076414,
                -2.247418321194377,
                -1.0414047832467481,
                0.46584683590776366,
                0.23288259000525913,
                0.37262774784683317
            ]
        },
        {
            "positions": [
                0.04180485524705446,
                -2.2987450057900203,
                -1.1525002625765028,
                0.48160866372211575,
                0.20970970392652943,
                0.2963117915563691
            ]
        },
        {
            "positions": [
                -0.06380169619665521,
                -2.3500716903856635,
                -1.263595741906258,
                0.49737049153646784,
                0.18653681784779963,
                0.21999583526590483
            ]
        },
        {
            "positions": [
                -0.16940824764036508,
                -2.401398374981307,
                -1.3746912212360127,
                0.5131323193508199,
                0.1633639317690699,
                0.1436798789754407
            ]
        }
    ]
}