{
    "goal": {
        "global_pose": {
            "orientation": {
                "w": -0.00223480608172531,
                "x": 0.0024358444001904467,
                "y": 0.7094548369677653,
                "z": -0.704743149386269
            },
            "position": {
                "x": -0.37947507619857795,
                "y": -0.6371506643295288,
                "z": 0.19426114857196808
            }
        },
        "name": "move_to_magneteinheit_C"
    },
    "id": "BKPIECE_move_to_magneteinheit_C_104",
    "joint_names": [
        "shoulder_pan_joint",
        "shoulder_lift_joint",
        "elbow_joint",
        "wrist_1_joint",
        "wrist_2_joint",
        "wrist_3_joint"
    ],
    "metrics": {
        "cart_traj_len": 1.422662237818629,
        "distance_elbow_joint": 1.2122956939847818,
        "distance_shoulder_lift_joint": 2.5990765979730055,
        "distance_shoulder_pan_joint": 1.4072887173737132,
        "distance_wrist_1_joint": 2.1004803744840754,
        "distance_wrist_2_joint": 1.7389992442009263,
        "distance_wrist_3_joint": 0.3859859246443875,
        "smoothness": 1.438398068839256,
        "time": 1.0227294900000001,
        "traj_len": 3.0731297650214664,
        "weighted_distance": 3.7490769558165478
    },
    "planner": "BKPIECE",
    "start": {
        "state": {
            "elbow_joint": 1.9565354006590394,
            "shoulder_lift_joint": -1.4165861576513559,
            "shoulder_pan_joint": -1.6717766223277177,
            "wrist_1_joint": -0.5286633288215096,
            "wrist_2_joint": 1.4727565892594296,
            "wrist_3_joint": 3.1593482883155493
        }
    },
    "waypoints": [
        {
            "positions": [
                -1.6717766223277177,
                -1.4165861576513559,
                1.9565354006590394,
                -0.5286633288215096,
                1.4727565892594296,
                3.1593482883155493
            ]
        },
        {
            "positions": [
                -1.5465303891551758,
                -1.4331243202568555,
                1.8727040077705148,
                -0.5503324105035847,
                1.3855782736665105,
                3.1098348485727563
            ]
        },
        {
            "positions": [
                -1.555586074031932,
                -1.430879484658807,
                1.868711596735953,
                -0.6566635628160385,
                1.1913097867360274,
                3.0582236174586184
            ]
        },
        {
            "positions": [
                -1.5646417589086883,
                -1.4286346490607589,
                1.8647191857013916,
                -0.7629947151284924,
                0.997041299805544,
                3.0066123863444805
            ]
        },
        {
            "positions": [
                -1.5736974437854445,
                -1.4263898134627104,
                1.86072677466683,
                -0.8693258674409463,
                0.8027728128750607,
                2.9550011552303426
            ]
        },
        {
            "positions": [
                -1.6634747031573265,
                -1.522811048050436,
                1.913683308959642,
                -0.7952648692826304,
                0.7527619980054087,
                2.959108806658506
            ]
        },
        {
            "positions": [
                -1.7532519625292085,
                -1.6192322826381615,
                1.9666398432524541,
                -0.7212038711243145,
                0.7027511831357567,
                2.963216458086669
            ]
        },
        {
            "positions": [
                -1.8430292219010904,
                -1.715653517225887,
                2.019596377545266,
                -0.6471428729659987,
                0.6527403682661046,
                2.967324109514833
            ]
        },
        {
            "positions": [
                -1.9328064812729722,
                -1.8120747518136124,
                2.0725529118380783,
                -0.5730818748076828,
                0.6027295533964525,
                2.971431760942996
            ]
        },
        {
            "positions": [
                -2.0225837406448544,
                -1.908495986401338,
                2.12550944613089,
                -0.49902087664936684,
                0.5527187385268004,
                2.9755394123711594
            ]
        },
        {
            "positions": [
                -2.112361000016736,
                -2.0049172209890633,
                2.1784659804237023,
                -0.424959878491051,
                0.5027079236571483,
                2.979647063799323
            ]
        },
        {
            "positions": [
                -2.202138259388618,
                -2.101338455576789,
                2.2314225147165145,
                -0.3508988803327351,
                0.4526971087874963,
                2.9837547152274864
            ]
        },
        {
            "positions": [
                -2.2919155187605,
                -2.1977596901645144,
                2.2843790490093263,
                -0.2768378821744193,
                0.4026862939178443,
                2.9878623666556496
            ]
        },
        {
            "positions": [
                -2.381692778132382,
                -2.29418092475224,
                2.3373355833021385,
                -0.20277688401610328,
                0.3526754790481922,
                2.991970018083813
            ]
        },
        {
            "positions": [
                -2.4714700375042638,
                -2.3906021593399656,
                2.3902921175949507,
                -0.12871588585778737,
                0.3026646641785401,
                2.996077669511976
            ]
        },
        {
            "positions": [
                -2.5612472968761457,
                -2.487023393927691,
                2.4432486518877625,
                -0.05465488769947158,
                0.2526538493088881,
                3.00018532094014
            ]
        },
        {
            "positions": [
                -2.6510245562480277,
                -2.5834446285154167,
                2.4962051861805747,
                0.019406110458844328,
                0.20264303443923604,
                3.004292972368303
            ]
        },
        {
            "positions": [
                -2.6312969654582146,
                -2.425805838124233,
                2.4427597799051495,
                -0.07738120709280559,
                0.2547414443704286,
                3.0189981917484388
            ]
        },
        {
            "positions": [
                -2.611569374668401,
                -2.268167047733049,
                2.389314373629724,
                -0.1741685246444555,
                0.3068398543016212,
                3.0337034111285743
            ]
        },
        {
            "positions": [
                -2.591841783878588,
                -2.1105282573418656,
                2.335868967354299,
                -0.2709558421961054,
                0.3589382642328138,
                3.04840863050871
            ]
        },
        {
            "positions": [
                -2.5721141930887748,
                -1.9528894669506816,
                2.2824235610788737,
                -0.36774315974775534,
                0.41103667416400635,
                3.0631138498888455
            ]
        },
        {
            "positions": [
                -2.552386602298961,
                -1.795250676559498,
                2.2289781548034484,
                -0.4645304772994053,
                0.463135084095199,
                3.077819069268981
            ]
        },
        {
            "positions": [
                -2.532659011509148,
                -1.6376118861683142,
                2.175532748528023,
                -0.5613177948510552,
                0.5152334940263915,
                3.0925242886491167
            ]
        },
        {
            "positions": [
                -2.512931420719335,
                -1.4799730957771304,
                2.122087342252598,
                -0.6581051124027051,
                0.5673319039575841,
                3.1072295080292522
            ]
        },
        {
            "positions": [
                -2.4932038299295214,
                -1.3223343053859467,
                2.0686419359771726,
                -0.754892429954355,
                0.6194303138887767,
                3.121934727409388
            ]
        },
        {
            "positions": [
                -2.4734762391397083,
                -1.1646955149947629,
                2.0151965297017473,
                -0.851679747506005,
                0.6715287238199693,
                3.1366399467895234
            ]
        }
    ]
}