{
    "goal": {
        "global_pose": {
            "orientation": {
                "w": 0.005598929693374612,
                "x": 0.007748599140229565,
                "y": 0.7110244013736278,
                "z": -0.7031023480610252
            },
            "position": {
                "x": -0.8858502320852131,
                "y": -0.7141253447532654,
                "z": 0.3711530566215515
            }
        },
        "name": "move_to_auspresseinheit_C"
    },
    "id": "BKPIECE_move_to_auspresseinheit_C_25",
    "joint_names": [
        "shoulder_pan_joint",
        "shoulder_lift_joint",
        "elbow_joint",
        "wrist_1_joint",
        "wrist_2_joint",
        "wrist_3_joint"
    ],
    "metrics": {
        "cart_traj_len": 0.4935150547418071,
        "distance_elbow_joint": 0.9996746199708715,
        "distance_shoulder_lift_joint": 0.3246500651744416,
        "distance_shoulder_pan_joint": 0.25689629895930866,
        "distance_wrist_1_joint": 0.6777389655654847,
        "distance_wrist_2_joint": 1.3043012842403452,
        "distance_wrist_3_joint": 0.06541358791762297,
        "smoothness": 4.844609574787718e-16,
        "time": 1.4175352419999998,
        "traj_len": 1.9049080875013562,
        "weighted_distance": 2.396151549353494
    },
    "planner": "BKPIECE",
    "start": {
        "state": {
            "elbow_joint": 1.752795957773711,
            "shoulder_lift_joint": -0.9740617694225064,
            "shoulder_pan_joint": -2.967991417825858,
            "wrist_1_joint": -0.7595177689806859,
            "wrist_2_joint": 1.7443932448377395,
            "wrist_3_joint": 3.199131542505932
        }
    },
    "waypoints": [
        {
            "positions": [
                -2.967991417825858,
                -0.9740617694225064,
                1.752795957773711,
                -0.7595177689806859,
                1.7443932448377395,
                3.199131542505932
            ]
        },
        {
            "positions": [
                -2.942301787929927,
                -0.9415967629050623,
                1.652828495776624,
                -0.6917438724241374,
                1.613963116413705,
                3.1925901837141697
            ]
        },
        {
            "positions": [
                -2.9166121580339963,
                -0.9091317563876181,
                1.5528610337795368,
                -0.623969975867589,
                1.4835329879896704,
                3.1860488249224077
            ]
        },
        {
            "positions": [
                -2.8909225281380655,
                -0.8766667498701739,
                1.4528935717824496,
                -0.5561960793110405,
                1.353102859565636,
                3.1795074661306453
            ]
        },
        {
            "positions": [
                -2.8652328982421347,
                -0.8442017433527298,
                1.3529261097853624,
                -0.488422182754492,
                1.2226727311416012,
                3.172966107338883
            ]
        },
        {
            "positions": [
                -2.839543268346204,
                -0.8117367368352857,
                1.2529586477882755,
                -0.42064828619794353,
                1.092242602717567,
                3.1664247485471204
            ]
        },
        {
            "positions": [
                -2.8138536384502726,
                -0.7792717303178415,
                1.1529911857911883,
                -0.35287438964139506,
                0.9618124742935324,
                3.1598833897553584
            ]
        },
        {
            "positions": [
                -2.7881640085543418,
                -0.7468067238003974,
                1.0530237237941011,
                -0.28510049308484664,
                0.8313823458694979,
                3.153342030963596
            ]
        },
        {
            "positions": [
                -2.762474378658411,
                -0.7143417172829531,
                0.9530562617970139,
                -0.2173265965282981,
                0.7009522174454632,
                3.1468006721718336
            ]
        },
        {
            "positions": [
                -2.73678474876248,
                -0.681876710765509,
                0.8530887997999268,
                -0.14955269997174958,
                0.5705220890214289,
                3.1402593133800716
            ]
        },
        {
            "positions": [
                -2.7110951188665493,
                -0.6494117042480648,
                0.7531213378028396,
                -0.08177880341520118,
                0.44009196059739436,
                3.133717954588309
            ]
        }
    ]
}