{
    "goal": {
        "global_pose": {
            "orientation": {
                "w": 0.005598929693374612,
                "x": 0.007748599140229565,
                "y": 0.7110244013736278,
                "z": -0.7031023480610252
            },
            "position": {
                "x": 0.1141497679147869,
                "y": -0.7141253447532654,
                "z": 0.3711530566215515
            }
        },
        "name": "move_to_auspresseinheit_B"
    },
    "id": "BKPIECE_move_to_auspresseinheit_B_148",
    "joint_names": [
        "shoulder_pan_joint",
        "shoulder_lift_joint",
        "elbow_joint",
        "wrist_1_joint",
        "wrist_2_joint",
        "wrist_3_joint"
    ],
    "metrics": {
        "cart_traj_len": 0.5640776937982833,
        "distance_elbow_joint": 0.06619802723263746,
        "distance_shoulder_lift_joint": 0.29277936672482796,
        "distance_shoulder_pan_joint": 0.5752683722054106,
        "distance_wrist_1_joint": 0.3376939852984694,
        "distance_wrist_2_joint": 0.9975122335002906,
        "distance_wrist_3_joint": 0.004757010659512506,
        "smoothness": 0.0,
        "time": 0.42798331700000003,
        "traj_len": 1.5080480747048977,
        "weighted_distance": 1.9023483476321927
    },
    "planner": "BKPIECE",
    "start": {
        "state": {
            "elbow_joint": 2.019306165916698,
            "shoulder_lift_joint": -1.1220205098164344,
            "shoulder_pan_joint": -1.095207207618794,
            "wrist_1_joint": -0.8559671824921639,
            "wrist_2_joint": 0.47596387242952726,
            "wrist_3_joint": 3.159081874673826
        }
    },
    "waypoints": [
        {
            "positions": [
                -1.095207207618794,
                -1.1220205098164344,
                2.019306165916698,
                -0.8559671824921639,
                0.47596387242952726,
                3.159081874673826
            ]
        },
        {
            "positions": [
                -1.191085269653029,
                -1.1708170709372392,
                2.008273161377925,
                -0.7996848516090856,
                0.6422159113462423,
                3.1598747097837445
            ]
        },
        {
            "positions": [
                -1.2869633316872642,
                -1.2196136320580437,
                1.9972401568391522,
                -0.7434025207260074,
                0.8084679502629575,
                3.160667544893663
            ]
        },
        {
            "positions": [
                -1.3828413937214994,
                -1.2684101931788483,
                1.9862071523003793,
                -0.6871201898429291,
                0.9747199891796725,
                3.1614603800035823
            ]
        },
        {
            "positions": [
                -1.4787194557557344,
                -1.317206754299653,
                1.9751741477616063,
                -0.6308378589598509,
                1.1409720280963875,
                3.162253215113501
            ]
        },
        {
            "positions": [
                -1.5745975177899694,
                -1.3660033154204578,
                1.9641411432228335,
                -0.5745555280767727,
                1.3072240670131028,
                3.1630460502234197
            ]
        },
        {
            "positions": [
                -1.6704755798242046,
                -1.4147998765412624,
                1.9531081386840605,
                -0.5182731971936945,
                1.4734761059298178,
                3.1638388853333383
            ]
        }
    ]
}