{
    "goal": {
        "global_pose": {
            "orientation": {
                "w": 0.5084816262002911,
                "x": -0.4908360881923452,
                "y": 0.5182115481033761,
                "z": -0.48164630358495003
            },
            "position": {
                "x": 0.5540239810943604,
                "y": -0.46912469901144505,
                "z": 0.16403168439865112
            }
        },
        "name": "move_to_storage_B"
    },
    "id": "BKPIECE_move_to_storage_B_34",
    "joint_names": [
        "shoulder_pan_joint",
        "shoulder_lift_joint",
        "elbow_joint",
        "wrist_1_joint",
        "wrist_2_joint",
        "wrist_3_joint"
    ],
    "metrics": {
        "cart_traj_len": 4.755503730016386,
        "distance_elbow_joint": 1.6181682562606248,
        "distance_shoulder_lift_joint": 2.085100444677746,
        "distance_shoulder_pan_joint": 6.089036861910993,
        "distance_wrist_1_joint": 4.1195012919238945,
        "distance_wrist_2_joint": 3.180911812512481,
        "distance_wrist_3_joint": 7.953813168223428,
        "smoothness": 0.4430329577958929,
        "time": 1.189922175,
        "traj_len": 5.0046510203518855,
        "weighted_distance": 6.946551034606486
    },
    "planner": "BKPIECE",
    "start": {
        "state": {
            "elbow_joint": 1.6649325706314817,
            "shoulder_lift_joint": -0.6616388048112454,
            "shoulder_pan_joint": -0.9139837860083814,
            "wrist_1_joint": 2.146757197745094,
            "wrist_2_joint": -2.234196043158733,
            "wrist_3_joint": 0.005471033829999897
        }
    },
    "waypoints": [
        {
            "positions": [
                -0.9139837860083814,
                -0.6616388048112454,
                1.6649325706314817,
                2.146757197745094,
                -2.234196043158733,
                0.005471033829999897
            ]
        },
        {
            "positions": [
                -0.8250683535531909,
                -0.7004739252319795,
                1.6838232470880825,
                2.0397298202536867,
                -2.1632205292008977,
                -0.05957537196654306
            ]
        },
        {
            "positions": [
                -0.7361529210980002,
                -0.7393090456527136,
                1.702713923544683,
                1.9327024427622788,
                -2.092245015243063,
                -0.12462177776308601
            ]
        },
        {
            "positions": [
                -0.6472374886428098,
                -0.7781441660734477,
                1.721604600001284,
                1.825675065270871,
                -2.0212695012852278,
                -0.189668183559629
            ]
        },
        {
            "positions": [
                -0.5583220561876192,
                -0.8169792864941818,
                1.7404952764578847,
                1.7186476877794634,
                -1.9502939873273926,
                -0.2547145893561719
            ]
        },
        {
            "positions": [
                -0.4694066237324287,
                -0.855814406914916,
                1.7593859529144855,
                1.6116203102880557,
                -1.8793184733695574,
                -0.3197609951527149
            ]
        },
        {
            "positions": [
                -0.3804911912772382,
                -0.8946495273356501,
                1.7782766293710863,
                1.504592932796648,
                -1.8083429594117224,
                -0.38480740094925786
            ]
        },
        {
            "positions": [
                -0.29157575882204767,
                -0.9334846477563842,
                1.797167305827687,
                1.3975655553052404,
                -1.7373674454538874,
                -0.4498538067458008
            ]
        },
        {
            "positions": [
                -0.20266032636685705,
                -0.9723197681771183,
                1.8160579822842877,
                1.2905381778138327,
                -1.6663919314960522,
                -0.5149002125423437
            ]
        },
        {
            "positions": [
                -0.11374489391166653,
                -1.0111548885978525,
                1.8349486587408885,
                1.183510800322425,
                -1.595416417538217,
                -0.5799466183388867
            ]
        },
        {
            "positions": [
                -0.02482946145647602,
                -1.0499900090185865,
                1.8538393351974891,
                1.0764834228310174,
                -1.524440903580382,
                -0.6449930241354297
            ]
        },
        {
            "positions": [
                0.0640859709987146,
                -1.0888251294393207,
                1.87273001165409,
                0.9694560453396097,
                -1.453465389622547,
                -0.7100394299319727
            ]
        },
        {
            "positions": [
                0.153001403453905,
                -1.1276602498600548,
                1.8916206881106907,
                0.862428667848202,
                -1.382489875664712,
                -0.7750858357285156
            ]
        },
        {
            "positions": [
                0.24191683590909563,
                -1.166495370280789,
                1.9105113645672915,
                0.7554012903567944,
                -1.3115143617068767,
                -0.8401322415250586
            ]
        },
        {
            "positions": [
                0.33083226836428603,
                -1.205330490701523,
                1.9294020410238923,
                0.6483739128653867,
                -1.240538847749042,
                -0.9051786473216015
            ]
        },
        {
            "positions": [
                0.41974770081947665,
                -1.244165611122257,
                1.948292717480493,
                0.541346535373979,
                -1.1695633337912068,
                -0.9702250531181444
            ]
        },
        {
            "positions": [
                0.5086631332746673,
                -1.2830007315429912,
                1.9671833939370937,
                0.43431915788257136,
                -1.0985878198333716,
                -1.0352714589146874
            ]
        },
        {
            "positions": [
                0.5975785657298577,
                -1.3218358519637254,
                1.9860740703936945,
                0.3272917803911637,
                -1.0276123058755366,
                -1.1003178647112304
            ]
        },
        {
            "positions": [
                0.6864939981850483,
                -1.3606709723844594,
                2.004964746850295,
                0.22026440289975602,
                -0.9566367919177015,
                -1.1653642705077734
            ]
        },
        {
            "positions": [
                0.7754094306402387,
                -1.3995060928051934,
                2.023855423306896,
                0.11323702540834857,
                -0.8856612779598665,
                -1.2304106763043163
            ]
        },
        {
            "positions": [
                0.8643248630954294,
                -1.4383412132259277,
                2.0427460997634967,
                0.006209647916940675,
                -0.8146857640020314,
                -1.2954570821008593
            ]
        },
        {
            "positions": [
                1.0112737022557512,
                -1.495406891087322,
                2.0419984956059674,
                0.0020587039101313265,
                -0.6799096946212267,
                -1.2593372134464016
            ]
        },
        {
            "positions": [
                1.1582225414160732,
                -1.5524725689487162,
                2.0412508914484375,
                -0.002092240096678022,
                -0.5451336252404221,
                -1.2232173447919437
            ]
        },
        {
            "positions": [
                1.305171380576395,
                -1.6095382468101105,
                2.040503287290908,
                -0.00624318410348737,
                -0.4103575558596174,
                -1.187097476137486
            ]
        },
        {
            "positions": [
                1.4521202197367167,
                -1.6666039246715048,
                2.0397556831333787,
                -0.010394128110296719,
                -0.27558148647881275,
                -1.150977607483028
            ]
        },
        {
            "positions": [
                1.5990690588970387,
                -1.723669602532899,
                2.039008078975849,
                -0.014545072117106067,
                -0.1408054170980081,
                -1.1148577388285703
            ]
        },
        {
            "positions": [
                1.7460178980573604,
                -1.7807352803942933,
                2.0382604748183195,
                -0.018696016123915415,
                -0.006029347717203426,
                -1.0787378701741126
            ]
        },
        {
            "positions": [
                1.8929667372176824,
                -1.8378009582556876,
                2.0375128706607897,
                -0.022846960130724764,
                0.12874672166360124,
                -1.0426180015196547
            ]
        },
        {
            "positions": [
                2.039915576378004,
                -1.8948666361170818,
                2.0367652665032603,
                -0.026997904137534112,
                0.2635227910444058,
                -1.006498132865197
            ]
        },
        {
            "positions": [
                1.999166493534727,
                -1.8997826808742018,
                2.0287100812194487,
                -0.18493245752281137,
                0.23654517272427447,
                -1.1454857851197613
            ]
        },
        {
            "positions": [
                1.95841741069145,
                -1.9046987256313217,
                2.020654895935637,
                -0.34286701090808863,
                0.20956755440414315,
                -1.2844734373743256
            ]
        },
        {
            "positions": [
                1.9176683278481732,
                -1.9096147703884416,
                2.012599710651826,
                -0.5008015642933659,
                0.1825899360840118,
                -1.4234610896288897
            ]
        },
        {
            "positions": [
                1.8769192450048962,
                -1.9145308151455613,
                2.0045445253680145,
                -0.6587361176786432,
                0.15561231776388051,
                -1.562448741883454
            ]
        },
        {
            "positions": [
                1.836170162161619,
                -1.9194468599026813,
                1.996489340084203,
                -0.8166706710639204,
                0.12863469944374917,
                -1.7014363941380184
            ]
        },
        {
            "positions": [
                1.7954210793183423,
                -1.9243629046598012,
                1.9884341548003917,
                -0.9746052244491976,
                0.10165708112361785,
                -1.8404240463925827
            ]
        },
        {
            "positions": [
                1.7546719964750652,
                -1.9292789494169211,
                1.9803789695165803,
                -1.132539777834475,
                0.07467946280348653,
                -1.979411698647147
            ]
        },
        {
            "positions": [
                1.7139229136317882,
                -1.934194994174041,
                1.9723237842327688,
                -1.2904743312197522,
                0.04770184448335521,
                -2.1183993509017114
            ]
        },
        {
            "positions": [
                1.6148279272781365,
                -1.9130862155291306,
                1.9182816141928642,
                -1.2554894896745776,
                0.045293240326486135,
                -2.0021539155495587
            ]
        },
        {
            "positions": [
                1.5157329409244849,
                -1.8919774368842202,
                1.8642394441529597,
                -1.2205046481294033,
                0.04288463616961706,
                -1.8859084801974058
            ]
        },
        {
            "positions": [
                1.4166379545708332,
                -1.8708686582393095,
                1.8101972741130552,
                -1.185519806584229,
                0.040476032012747985,
                -1.7696630448452528
            ]
        },
        {
            "positions": [
                1.3175429682171815,
                -1.849759879594399,
                1.7561551040731507,
                -1.1505349650390544,
                0.03806742785587891,
                -1.6534176094931001
            ]
        },
        {
            "positions": [
                1.2603721182044967,
                -1.8345378455001113,
                1.732076174133267,
                -1.126315496043642,
                0.036155789234587475,
                -1.5753610095005923
            ]
        },
        {
            "positions": [
                1.2032012681918118,
                -1.8193158114058234,
                1.7079972441933837,
                -1.1020960270482294,
                0.03424415061329604,
                -1.4973044095080847
            ]
        },
        {
            "positions": [
                1.1030369352386677,
                -1.7909424411361214,
                1.6713477818887374,
                -1.0581585234987005,
                0.03388436215561649,
                -1.3511369331565635
            ]
        },
        {
            "positions": [
                1.0028726022855234,
                -1.7625690708664197,
                1.634698319584091,
                -1.0142210199491717,
                0.03352457369793695,
                -1.2049694568050424
            ]
        },
        {
            "positions": [
                0.9027082693323794,
                -1.7341957005967177,
                1.5980488572794447,
                -0.9702835163996428,
                0.033164785240257406,
                -1.0588019804535211
            ]
        },
        {
            "positions": [
                0.8025439363792352,
                -1.705822330327016,
                1.5613993949747984,
                -0.926346012850114,
                0.03280499678257786,
                -0.912634504102
            ]
        },
        {
            "positions": [
                0.702379603426091,
                -1.677448960057314,
                1.5247499326701521,
                -0.8824085093005851,
                0.03244520832489831,
                -0.7664670277504787
            ]
        },
        {
            "positions": [
                0.6022152704729468,
                -1.6490755897876122,
                1.4881004703655056,
                -0.8384710057510563,
                0.03208541986721877,
                -0.6202995513989575
            ]
        },
        {
            "positions": [
                0.5020509375198026,
                -1.6207022195179102,
                1.4514510080608594,
                -0.7945335022015274,
                0.031725631409539226,
                -0.4741320750474363
            ]
        },
        {
            "positions": [
                0.42319812271921925,
                -1.5959966375224093,
                1.4302973241397177,
                -0.7578526912485958,
                0.035598392108443525,
                -0.34598064117320493
            ]
        },
        {
            "positions": [
                0.34434530791863593,
                -1.5712910555269084,
                1.4091436402185757,
                -0.7211718802956641,
                0.03947115280734782,
                -0.2178292072989736
            ]
        },
        {
            "positions": [
                0.25966488256185694,
                -1.544841625134684,
                1.4448349500764397,
                -0.7278170162977211,
                0.0655682291177401,
                -0.02068481074499373
            ]
        },
        {
            "positions": [
                0.17498445720507796,
                -1.5183921947424592,
                1.4805262599343039,
                -0.734462152299778,
                0.0916653054281324,
                0.17645958580898613
            ]
        },
        {
            "positions": [
                0.09030403184829894,
                -1.4919427643502348,
                1.5162175697921678,
                -0.7411072883018349,
                0.11776238173852469,
                0.3736039823629661
            ]
        },
        {
            "positions": [
                0.005623606491519995,
                -1.46549333395801,
                1.551908879650032,
                -0.7477524243038919,
                0.14385945804891698,
                0.5707483789169459
            ]
        },
        {
            "positions": [
                -0.079056818865259,
                -1.4390439035657856,
                1.587600189507896,
                -0.7543975603059488,
                0.16995653435930924,
                0.7678927754709258
            ]
        },
        {
            "positions": [
                -0.16373724422203806,
                -1.412594473173561,
                1.62329149936576,
                -0.7610426963080057,
                0.19605361066970156,
                0.9650371720249058
            ]
        },
        {
            "positions": [
                -0.24841766957881695,
                -1.3861450427813364,
                1.658982809223624,
                -0.7676878323100627,
                0.22215068698009383,
                1.1621815685788854
            ]
        },
        {
            "positions": [
                -0.33309809493559595,
                -1.3596956123891117,
                1.694674119081488,
                -0.7743329683121196,
                0.2482477632904861,
                1.3593259651328653
            ]
        },
        {
            "positions": [
                -0.41777852029237494,
                -1.3332461819968873,
                1.7303654289393522,
                -0.7809781043141765,
                0.27434483960087835,
                1.5564703616868454
            ]
        },
        {
            "positions": [
                -0.5024589456491539,
                -1.3067967516046626,
                1.7660567387972161,
                -0.7876232403162334,
                0.3004419159112707,
                1.7536147582408252
            ]
        },
        {
            "positions": [
                -0.5871393710059329,
                -1.280347321212438,
                1.8017480486550803,
                -0.7942683763182904,
                0.32653899222166294,
                1.950759154794805
            ]
        },
        {
            "positions": [
                -0.671819796362712,
                -1.2538978908202134,
                1.8374393585129443,
                -0.8009135123203472,
                0.35263606853205526,
                2.147903551348785
            ]
        },
        {
            "positions": [
                -0.7565002217194908,
                -1.227448460427989,
                1.8731306683708082,
                -0.8075586483224042,
                0.37873314484244747,
                2.3450479479027644
            ]
        },
        {
            "positions": [
                -0.8411806470762698,
                -1.2009990300357645,
                1.9088219782286724,
                -0.8142037843244612,
                0.4048302211528398,
                2.5421923444567445
            ]
        },
        {
            "positions": [
                -0.9258610724330488,
                -1.1745495996435398,
                1.9445132880865363,
                -0.8208489203265181,
                0.43092729746323205,
                2.7393367410107246
            ]
        },
        {
            "positions": [
                -1.010541497789828,
                -1.148100169251315,
                1.9802045979444003,
                -0.827494056328575,
                0.45702437377362437,
                2.936481137564704
            ]
        },
        {
            "positions": [
                -1.0952219231466067,
                -1.1216507388590906,
                2.0158959078022645,
                -0.8341391923306319,
                0.48312145008401663,
                3.1336255341186843
            ]
        }
    ]
}