{
    "goal": {
        "global_pose": {
            "orientation": {
                "w": 0.7031023502349854,
                "x": -0.7110244035720825,
                "y": 0.007748599164187908,
                "z": 0.005598929710686207
            },
            "position": {
                "x": 0.11585023208521307,
                "y": 0.44412534475326537,
                "z": 0.3711530566215515
            }
        },
        "name": "move_to_auspresseinheit_A"
    },
    "id": "BKPIECE_move_to_auspresseinheit_A_126",
    "joint_names": [
        "shoulder_pan_joint",
        "shoulder_lift_joint",
        "elbow_joint",
        "wrist_1_joint",
        "wrist_2_joint",
        "wrist_3_joint"
    ],
    "metrics": {
        "cart_traj_len": 1.1524182917575312,
        "distance_elbow_joint": 0.12083005188775964,
        "distance_shoulder_lift_joint": 1.5940230944498035,
        "distance_shoulder_pan_joint": 1.698260628181266,
        "distance_wrist_1_joint": 1.135041855729388,
        "distance_wrist_2_joint": 0.9137732725287752,
        "distance_wrist_3_joint": 0.07287915838522574,
        "smoothness": 1.5934844906932677,
        "time": 1.084634621,
        "traj_len": 2.352617278938973,
        "weighted_distance": 2.780176524285973
    },
    "planner": "BKPIECE",
    "start": {
        "state": {
            "elbow_joint": 2.4225747245308327,
            "shoulder_lift_joint": -1.373653427065438,
            "shoulder_pan_joint": -0.33786330853087027,
            "wrist_1_joint": -1.0288602302712604,
            "wrist_2_joint": 1.23302299562683,
            "wrist_3_joint": -3.094021725338297
        }
    },
    "waypoints": [
        {
            "positions": [
                -0.33786330853087027,
                -1.373653427065438,
                2.4225747245308327,
                -1.0288602302712604,
                1.23302299562683,
                -3.094021725338297
            ]
        },
        {
            "positions": [
                -0.18547064630265298,
                -1.491803173151029,
                2.4141967941253624,
                -0.9347836426954457,
                1.2544522301490688,
                -3.0927527207720638
            ]
        },
        {
            "positions": [
                -0.033077984074435685,
                -1.60995291923662,
                2.405818863719892,
                -0.840707055119631,
                1.2758814646713077,
                -3.09148371620583
            ]
        },
        {
            "positions": [
                0.11931467815378166,
                -1.7281026653222111,
                2.3974409333144213,
                -0.7466304675438162,
                1.2973106991935466,
                -3.0902147116395966
            ]
        },
        {
            "positions": [
                0.2717073403819989,
                -1.8462524114078023,
                2.389063002908951,
                -0.6525538799680015,
                1.3187399337157855,
                -3.0889457070733632
            ]
        },
        {
            "positions": [
                0.42410000261021635,
                -1.9644021574933934,
                2.3806850725034807,
                -0.5584772923921868,
                1.3401691682380243,
                -3.0876767025071294
            ]
        },
        {
            "positions": [
                0.5764926648384336,
                -2.0825519035789846,
                2.3723071420980104,
                -0.4644007048163722,
                1.3615984027602632,
                -3.086407697940896
            ]
        },
        {
            "positions": [
                0.7288853270666509,
                -2.2007016496645755,
                2.3639292116925397,
                -0.37032411724055747,
                1.383027637282502,
                -3.0851386933746627
            ]
        },
        {
            "positions": [
                0.8812779892948681,
                -2.3188513957501664,
                2.3555512812870694,
                -0.27624752966474275,
                1.404456871804741,
                -3.083869688808429
            ]
        },
        {
            "positions": [
                1.0336706515230856,
                -2.4370011418357578,
                2.347173350881599,
                -0.18217094208892803,
                1.4258861063269799,
                -3.0826006842421956
            ]
        },
        {
            "positions": [
                0.9683253178976235,
                -2.330866065899861,
                2.3562590865293043,
                -0.23984145559833914,
                1.2817040739612549,
                -3.0948923077000203
            ]
        },
        {
            "positions": [
                0.9029799842721615,
                -2.2247309899639642,
                2.3653448221770095,
                -0.29751196910775024,
                1.1375220415955298,
                -3.107183931157845
            ]
        },
        {
            "positions": [
                0.8376346506466996,
                -2.1185959140280675,
                2.3744305578247147,
                -0.35518248261716134,
                0.9933400092298048,
                -3.1194755546156703
            ]
        },
        {
            "positions": [
                0.7722893170212375,
                -2.0124608380921707,
                2.38351629347242,
                -0.41285299612657245,
                0.8491579768640797,
                -3.131767178073495
            ]
        },
        {
            "positions": [
                0.7069439833957756,
                -1.9063257621562741,
                2.392602029120125,
                -0.4705235096359835,
                0.7049759444983547,
                -3.14405880153132
            ]
        }
    ]
}