{
    "goal": {
        "global_pose": {
            "orientation": {
                "w": 0.5084816262002911,
                "x": -0.4908360881923452,
                "y": 0.5182115481033761,
                "z": -0.48164630358495003
            },
            "position": {
                "x": 0.5540239810943604,
                "y": -0.46912469901144505,
                "z": 0.16403168439865112
            }
        },
        "name": "move_to_storage_B"
    },
    "id": "BKPIECE_move_to_storage_B_136",
    "joint_names": [
        "shoulder_pan_joint",
        "shoulder_lift_joint",
        "elbow_joint",
        "wrist_1_joint",
        "wrist_2_joint",
        "wrist_3_joint"
    ],
    "metrics": {
        "cart_traj_len": 1.1084605414760653,
        "distance_elbow_joint": 0.8808825502024937,
        "distance_shoulder_lift_joint": 0.4590016073393619,
        "distance_shoulder_pan_joint": 1.0115270131366763,
        "distance_wrist_1_joint": 2.992857565039519,
        "distance_wrist_2_joint": 2.698276115799276,
        "distance_wrist_3_joint": 3.1885068895879574,
        "smoothness": 0.22223100076488028,
        "time": 1.148516668,
        "traj_len": 3.351276136206219,
        "weighted_distance": 4.826924403916017
    },
    "planner": "BKPIECE",
    "start": {
        "state": {
            "elbow_joint": 1.6649325706314817,
            "shoulder_lift_joint": -0.6616388048112454,
            "shoulder_pan_joint": -0.9139837860083814,
            "wrist_1_joint": 2.146757197745094,
            "wrist_2_joint": -2.234196043158733,
            "wrist_3_joint": 0.005471033829999897
        }
    },
    "waypoints": [
        {
            "positions": [
                -0.9139837860083814,
                -0.6616388048112454,
                1.6649325706314817,
                2.146757197745094,
                -2.234196043158733,
                0.005471033829999897
            ]
        },
        {
            "positions": [
                -0.8400827288599442,
                -0.6884864613873408,
                1.6104466158047555,
                2.0640699557986277,
                -2.1448727914178205,
                -0.013286350727817737
            ]
        },
        {
            "positions": [
                -0.7915019084784357,
                -0.714227958202366,
                1.5803757405802172,
                1.9465060005614196,
                -2.0367185703228667,
                0.025718821904796414
            ]
        },
        {
            "positions": [
                -0.7429210880969273,
                -0.7399694550173911,
                1.5503048653556788,
                1.8289420453242116,
                -1.9285643492279125,
                0.06472399453741057
            ]
        },
        {
            "positions": [
                -0.6943402677154187,
                -0.7657109518324162,
                1.5202339901311406,
                1.7113780900870035,
                -1.8204101281329588,
                0.10372916717002471
            ]
        },
        {
            "positions": [
                -0.6457594473339102,
                -0.7914524486474415,
                1.4901631149066024,
                1.5938141348497956,
                -1.7122559070380048,
                0.1427343398026389
            ]
        },
        {
            "positions": [
                -0.5971786269524018,
                -0.8171939454624666,
                1.460092239682064,
                1.4762501796125873,
                -1.6041016859430508,
                0.18173951243525305
            ]
        },
        {
            "positions": [
                -0.5485978065708932,
                -0.8429354422774917,
                1.4300213644575257,
                1.3586862243753794,
                -1.4959474648480968,
                0.22074468506786718
            ]
        },
        {
            "positions": [
                -0.5000169861893847,
                -0.8686769390925169,
                1.3999504892329875,
                1.2411222691381714,
                -1.3877932437531428,
                0.2597498577004813
            ]
        },
        {
            "positions": [
                -0.5284722344426076,
                -0.8806751997143307,
                1.4292790829855588,
                1.1417307150223335,
                -1.2996088001153483,
                0.3976885861100928
            ]
        },
        {
            "positions": [
                -0.5569274826958304,
                -0.8926734603361445,
                1.4586076767381302,
                1.0423391609064954,
                -1.2114243564775538,
                0.5356273145197042
            ]
        },
        {
            "positions": [
                -0.5853827309490532,
                -0.9046717209579583,
                1.4879362704907018,
                0.9429476067906575,
                -1.1232399128397592,
                0.6735660429293158
            ]
        },
        {
            "positions": [
                -0.613837979202276,
                -0.9166699815797722,
                1.5172648642432731,
                0.8435560526748195,
                -1.0350554692019647,
                0.8115047713389272
            ]
        },
        {
            "positions": [
                -0.6422932274554989,
                -0.9286682422015861,
                1.5465934579958445,
                0.7441644985589815,
                -0.9468710255641701,
                0.9494434997485387
            ]
        },
        {
            "positions": [
                -0.6707484757087218,
                -0.9406665028233998,
                1.5759220517484158,
                0.6447729444431436,
                -0.8586865819263756,
                1.08738222815815
            ]
        },
        {
            "positions": [
                -0.6992037239619445,
                -0.9526647634452137,
                1.6052506455009874,
                0.5453813903273056,
                -0.770502138288581,
                1.2253209565677616
            ]
        },
        {
            "positions": [
                -0.7276589722151674,
                -0.9646630240670275,
                1.6345792392535587,
                0.4459898362114676,
                -0.6823176946507865,
                1.363259684977373
            ]
        },
        {
            "positions": [
                -0.7561142204683902,
                -0.9766612846888413,
                1.66390783300613,
                0.3465982820956297,
                -0.594133251012992,
                1.5011984133869845
            ]
        },
        {
            "positions": [
                -0.784569468721613,
                -0.9886595453106551,
                1.6932364267587015,
                0.2472067279797917,
                -0.5059488073751973,
                1.639137141796596
            ]
        },
        {
            "positions": [
                -0.8130247169748359,
                -1.0006578059324691,
                1.722565020511273,
                0.1478151738639537,
                -0.4177643637374028,
                1.7770758702062075
            ]
        },
        {
            "positions": [
                -0.8414799652280587,
                -1.0126560665542828,
                1.7518936142638444,
                0.04842361974811582,
                -0.32957992009960835,
                1.915014598615819
            ]
        },
        {
            "positions": [
                -0.8699352134812816,
                -1.0246543271760966,
                1.7812222080164157,
                -0.05096793436772229,
                -0.24139547646181359,
                2.0529533270254303
            ]
        },
        {
            "positions": [
                -0.8983904617345044,
                -1.0366525877979105,
                1.810550801768987,
                -0.15035948848356018,
                -0.15321103282401927,
                2.190892055435042
            ]
        },
        {
            "positions": [
                -0.9268457099877272,
                -1.0486508484197243,
                1.8398793955215584,
                -0.2497510425993983,
                -0.0650265891862245,
                2.328830783844653
            ]
        },
        {
            "positions": [
                -0.95530095824095,
                -1.0606491090415382,
                1.86920798927413,
                -0.3491425967152362,
                0.023157854451569815,
                2.466769512254265
            ]
        },
        {
            "positions": [
                -0.983756206494173,
                -1.072647369663352,
                1.8985365830267014,
                -0.4485341508310743,
                0.11134229808936458,
                2.604708240663876
            ]
        },
        {
            "positions": [
                -1.0122114547473957,
                -1.0846456302851657,
                1.9278651767792727,
                -0.547925704946912,
                0.1995267417271589,
                2.742646969073488
            ]
        },
        {
            "positions": [
                -1.0406667030006185,
                -1.0966438909069796,
                1.9571937705318443,
                -0.6473172590627501,
                0.28771118536495366,
                2.8805856974830997
            ]
        },
        {
            "positions": [
                -1.0691219512538415,
                -1.1086421515287934,
                1.9865223642844154,
                -0.746708813178588,
                0.3758956290027482,
                3.0185244258927106
            ]
        },
        {
            "positions": [
                -1.0975771995070642,
                -1.1206404121506073,
                2.015850958036987,
                -0.8461003672944261,
                0.46408007264054274,
                3.156463154302322
            ]
        }
    ]
}