{
    "goal": {
        "global_pose": {
            "orientation": {
                "w": -0.00223480608172531,
                "x": 0.0024358444001904467,
                "y": 0.7094548369677653,
                "z": -0.704743149386269
            },
            "position": {
                "x": -0.37947507619857795,
                "y": -0.6371506643295288,
                "z": 0.19426114857196808
            }
        },
        "name": "move_to_magneteinheit_C"
    },
    "id": "BKPIECE_move_to_magneteinheit_C_113",
    "joint_names": [
        "shoulder_pan_joint",
        "shoulder_lift_joint",
        "elbow_joint",
        "wrist_1_joint",
        "wrist_2_joint",
        "wrist_3_joint"
    ],
    "metrics": {
        "cart_traj_len": 5.3014194410060265,
        "distance_elbow_joint": 5.1471953183554575,
        "distance_shoulder_lift_joint": 1.1131421007924096,
        "distance_shoulder_pan_joint": 4.666174571078258,
        "distance_wrist_1_joint": 3.1551381273711487,
        "distance_wrist_2_joint": 4.440334141118757,
        "distance_wrist_3_joint": 3.297617535770086,
        "smoothness": 0.7368002043513864,
        "time": 1.0864972800000001,
        "traj_len": 4.6711456618784775,
        "weighted_distance": 6.0008590330482
    },
    "planner": "BKPIECE",
    "start": {
        "state": {
            "elbow_joint": 1.9565354006590394,
            "shoulder_lift_joint": -1.4165861576513559,
            "shoulder_pan_joint": -1.6717766223277177,
            "wrist_1_joint": -0.5286633288215096,
            "wrist_2_joint": 1.4727565892594296,
            "wrist_3_joint": 3.1593482883155493
        }
    },
    "waypoints": [
        {
            "positions": [
                -1.6717766223277177,
                -1.4165861576513559,
                1.9565354006590394,
                -0.5286633288215096,
                1.4727565892594296,
                3.1593482883155493
            ]
        },
        {
            "positions": [
                -1.6396828733803845,
                -1.4176444536385913,
                1.9517361075728428,
                -0.5474544955713947,
                1.480873870262608,
                3.1489206891539148
            ]
        },
        {
            "positions": [
                -1.5038447200141594,
                -1.4328410256013322,
                1.8828641160044755,
                -0.5731669249921704,
                1.4789036705460084,
                3.0324000100156496
            ]
        },
        {
            "positions": [
                -1.5268562958802965,
                -1.4513296510042422,
                1.823862838838362,
                -0.46642152927891356,
                1.4124849597741556,
                2.920607813247446
            ]
        },
        {
            "positions": [
                -1.5498678717464338,
                -1.4698182764071523,
                1.7648615616722483,
                -0.35967613356565675,
                1.3460662490023025,
                2.808815616479242
            ]
        },
        {
            "positions": [
                -1.572879447612571,
                -1.4883069018100623,
                1.7058602845061348,
                -0.25293073785239994,
                1.2796475382304497,
                2.697023419711038
            ]
        },
        {
            "positions": [
                -1.5042021586938956,
                -1.5038905205803288,
                1.606012789972992,
                -0.20459471295468698,
                1.1821240396870112,
                2.644614771537182
            ]
        },
        {
            "positions": [
                -1.4355248697752203,
                -1.5194741393505953,
                1.506165295439849,
                -0.15625868805697402,
                1.0846005411435726,
                2.5922061233633253
            ]
        },
        {
            "positions": [
                -1.366847580856545,
                -1.5350577581208618,
                1.4063178009067059,
                -0.10792266315926108,
                0.987077042600134,
                2.539797475189469
            ]
        },
        {
            "positions": [
                -1.29817029193787,
                -1.5506413768911282,
                1.306470306373563,
                -0.059586638261548114,
                0.8895535440566953,
                2.487388827015613
            ]
        },
        {
            "positions": [
                -1.2294930030191946,
                -1.5662249956613947,
                1.20662281184042,
                -0.011250613363835177,
                0.7920300455132567,
                2.434980178841757
            ]
        },
        {
            "positions": [
                -1.1608157141005193,
                -1.581808614431661,
                1.1067753173072772,
                0.03708541153387779,
                0.6945065469698182,
                2.3825715306679003
            ]
        },
        {
            "positions": [
                -1.092138425181844,
                -1.5973922332019275,
                1.0069278227741343,
                0.08542143643159078,
                0.5969830484263795,
                2.330162882494044
            ]
        },
        {
            "positions": [
                -1.023461136263169,
                -1.612975851972194,
                0.9070803282409913,
                0.13375746132930372,
                0.49945954988294095,
                2.277754234320188
            ]
        },
        {
            "positions": [
                -0.9547838473444935,
                -1.6285594707424604,
                0.8072328337078484,
                0.18209348622701665,
                0.4019360513395023,
                2.2253455861463314
            ]
        },
        {
            "positions": [
                -0.8861065584258183,
                -1.644143089512727,
                0.7073853391747055,
                0.2304295111247296,
                0.3044125527960637,
                2.1729369379724752
            ]
        },
        {
            "positions": [
                -0.817429269507143,
                -1.6597267082829934,
                0.6075378446415625,
                0.2787655360224426,
                0.20688905425262494,
                2.120528289798619
            ]
        },
        {
            "positions": [
                -0.7487519805884677,
                -1.6753103270532599,
                0.5076903501084196,
                0.3271015609201555,
                0.1093655557091866,
                2.0681196416247625
            ]
        },
        {
            "positions": [
                -0.6800746916697925,
                -1.6908939458235264,
                0.40784285557527666,
                0.37543758581786846,
                0.011842057165748043,
                2.0157109934509063
            ]
        },
        {
            "positions": [
                -0.6113974027511171,
                -1.7064775645937929,
                0.30799536104213354,
                0.4237736107155815,
                -0.08568144137769074,
                1.9633023452770502
            ]
        },
        {
            "positions": [
                -0.542720113832442,
                -1.7220611833640593,
                0.20814786650899064,
                0.47210963561329444,
                -0.1832049399211293,
                1.9108936971031938
            ]
        },
        {
            "positions": [
                -0.4740428249137667,
                -1.7376448021343258,
                0.10830037197584774,
                0.5204456605110074,
                -0.28072843846456785,
                1.8584850489293374
            ]
        },
        {
            "positions": [
                -0.4053655359950914,
                -1.753228420904592,
                0.008452877442705065,
                0.5687816854087202,
                -0.3782519370080064,
                1.8060764007554813
            ]
        },
        {
            "positions": [
                -0.3366882470764161,
                -1.7688120396748586,
                -0.09139461709043806,
                0.6171177103064333,
                -0.4757754355514452,
                1.7536677525816249
            ]
        },
        {
            "positions": [
                -0.2680109581577408,
                -1.784395658445125,
                -0.19124211162358096,
                0.6654537352041462,
                -0.5732989340948837,
                1.7012591044077685
            ]
        },
        {
            "positions": [
                -0.1993336692390657,
                -1.7999792772153915,
                -0.29108960615672386,
                0.7137897601018591,
                -0.6708224326383223,
                1.6488504562339124
            ]
        },
        {
            "positions": [
                -0.1306563803203904,
                -1.815562895985658,
                -0.390937100689867,
                0.7621257849995722,
                -0.7683459311817611,
                1.5964418080600562
            ]
        },
        {
            "positions": [
                -0.06197909140171509,
                -1.8311465147559245,
                -0.4907845952230099,
                0.8104618098972851,
                -0.8658694297251999,
                1.5440331598861996
            ]
        },
        {
            "positions": [
                0.006698197516960214,
                -1.846730133526191,
                -0.590632089756153,
                0.858797834794998,
                -0.9633929282686382,
                1.4916245117123434
            ]
        },
        {
            "positions": [
                -0.09842465637232246,
                -1.8309824685267615,
                -0.4833069712009256,
                0.8403386045489016,
                -0.8811379473394756,
                1.5427006478907543
            ]
        },
        {
            "positions": [
                -0.20354751026160514,
                -1.815234803527332,
                -0.37598185264569817,
                0.8218793743028053,
                -0.7988829664103131,
                1.5937767840691652
            ]
        },
        {
            "positions": [
                -0.3086703641508878,
                -1.7994871385279025,
                -0.2686567340904708,
                0.803420144056709,
                -0.7166279854811506,
                1.6448529202475761
            ]
        },
        {
            "positions": [
                -0.4137932180401705,
                -1.783739473528473,
                -0.1613316155352434,
                0.7849609138106126,
                -0.634373004551988,
                1.695929056425987
            ]
        },
        {
            "positions": [
                -0.5189160719294531,
                -1.7679918085290436,
                -0.05400649698001603,
                0.7665016835645162,
                -0.5521180236228255,
                1.747005192604398
            ]
        },
        {
            "positions": [
                -0.6240389258187358,
                -1.752244143529614,
                0.05331862157521139,
                0.7480424533184199,
                -0.4698630426936629,
                1.7980813287828088
            ]
        },
        {
            "positions": [
                -0.7291617797080185,
                -1.7364964785301846,
                0.1606437401304388,
                0.7295832230723236,
                -0.38760806176450036,
                1.8491574649612197
            ]
        },
        {
            "positions": [
                -0.8342846335973012,
                -1.7207488135307552,
                0.2679688586856662,
                0.7111239928262272,
                -0.30535308083533774,
                1.9002336011396306
            ]
        },
        {
            "positions": [
                -0.9394074874865839,
                -1.7050011485313257,
                0.37529397724089375,
                0.6926647625801308,
                -0.22309809990617513,
                1.9513097373180415
            ]
        },
        {
            "positions": [
                -1.0445303413758664,
                -1.6892534835318962,
                0.48261909579612094,
                0.6742055323340345,
                -0.14084311897701274,
                2.0023858734964524
            ]
        },
        {
            "positions": [
                -1.1496531952651492,
                -1.6735058185324667,
                0.5899442143513485,
                0.6557463020879382,
                -0.058588138047850125,
                2.0534620096748633
            ]
        },
        {
            "positions": [
                -1.2547760491544317,
                -1.6577581535330372,
                0.6972693329065758,
                0.6372870718418417,
                0.023666842881312378,
                2.104538145853274
            ]
        },
        {
            "positions": [
                -1.3598989030437145,
                -1.6420104885336075,
                0.8045944514618033,
                0.6188278415957453,
                0.1059218238104751,
                2.155614282031685
            ]
        },
        {
            "positions": [
                -1.4650217569329973,
                -1.626262823534178,
                0.9119195700170306,
                0.600368611349649,
                0.1881768047396375,
                2.206690418210096
            ]
        },
        {
            "positions": [
                -1.5701446108222799,
                -1.6105151585347486,
                1.019244688572258,
                0.5819093811035527,
                0.2704317856687999,
                2.257766554388507
            ]
        },
        {
            "positions": [
                -1.6752674647115626,
                -1.594767493535319,
                1.1265698071274854,
                0.5634501508574563,
                0.3526867665979627,
                2.3088426905669177
            ]
        },
        {
            "positions": [
                -1.7803903186008452,
                -1.5790198285358896,
                1.233894925682713,
                0.5449909206113599,
                0.4349417475271251,
                2.3599188267453286
            ]
        },
        {
            "positions": [
                -1.885513172490128,
                -1.5632721635364601,
                1.3412200442379405,
                0.5265316903652636,
                0.517196728456288,
                2.4109949629237395
            ]
        },
        {
            "positions": [
                -1.9906360263794105,
                -1.5475244985370307,
                1.4485451627931676,
                0.5080724601191673,
                0.5994517093854503,
                2.4620710991021504
            ]
        },
        {
            "positions": [
                -2.095758880268693,
                -1.5317768335376012,
                1.555870281348395,
                0.4896132298730709,
                0.6817066903146127,
                2.5131472352805613
            ]
        },
        {
            "positions": [
                -2.200881734157976,
                -1.5160291685381717,
                1.6631953999036226,
                0.4711539996269745,
                0.7639616712437756,
                2.564223371458972
            ]
        },
        {
            "positions": [
                -2.3060045880472586,
                -1.5002815035387422,
                1.77052051845885,
                0.45269476938087816,
                0.846216652172938,
                2.615299507637383
            ]
        },
        {
            "positions": [
                -2.3939344780055083,
                -1.4503283466421988,
                1.8265611156202668,
                0.36029321829034516,
                0.8481692597039163,
                2.6408014962825206
            ]
        },
        {
            "positions": [
                -2.481864367963758,
                -1.4003751897456551,
                1.8826017127816836,
                0.26789166719981217,
                0.8501218672348947,
                2.666303484927658
            ]
        },
        {
            "positions": [
                -2.569794257922008,
                -1.3504220328491114,
                1.9386423099431003,
                0.17549011610927917,
                0.8520744747658731,
                2.691805473572795
            ]
        },
        {
            "positions": [
                -2.657724147880258,
                -1.300468875952568,
                1.9946829071045171,
                0.08308856501874617,
                0.8540270822968514,
                2.7173074622179327
            ]
        },
        {
            "positions": [
                -2.6206825577523505,
                -1.2731215024837776,
                1.9976254733204364,
                -0.09750353530866718,
                0.8199210720930836,
                2.798149623950191
            ]
        },
        {
            "positions": [
                -2.583640967624443,
                -1.2457741290149873,
                2.000568039536356,
                -0.27809563563608053,
                0.7858150618893158,
                2.878991785682449
            ]
        },
        {
            "positions": [
                -2.5465993774965354,
                -1.2184267555461972,
                2.0035106057522754,
                -0.45868773596349377,
                0.7517090516855481,
                2.9598339474147073
            ]
        },
        {
            "positions": [
                -2.509557787368628,
                -1.1910793820774068,
                2.0064531719681944,
                -0.6392798362909072,
                0.7176030414817803,
                3.0406761091469656
            ]
        },
        {
            "positions": [
                -2.472516197240721,
                -1.1637320086086165,
                2.009395738184114,
                -0.8198719366183205,
                0.6834970312780125,
                3.1215182708792235
            ]
        }
    ]
}