{
    "goal": {
        "global_pose": {
            "orientation": {
                "w": -0.00223480608172531,
                "x": 0.0024358444001904467,
                "y": 0.7094548369677653,
                "z": -0.704743149386269
            },
            "position": {
                "x": -0.37947507619857795,
                "y": -0.6371506643295288,
                "z": 0.19426114857196808
            }
        },
        "name": "move_to_magneteinheit_C"
    },
    "id": "BKPIECE_move_to_magneteinheit_C_5",
    "joint_names": [
        "shoulder_pan_joint",
        "shoulder_lift_joint",
        "elbow_joint",
        "wrist_1_joint",
        "wrist_2_joint",
        "wrist_3_joint"
    ],
    "metrics": {
        "cart_traj_len": 5.3094526141787615,
        "distance_elbow_joint": 2.4983635674436964,
        "distance_shoulder_lift_joint": 0.4734171309021322,
        "distance_shoulder_pan_joint": 6.128174690443528,
        "distance_wrist_1_joint": 4.126196962064244,
        "distance_wrist_2_joint": 4.306406710187625,
        "distance_wrist_3_joint": 13.258848640629669,
        "smoothness": 0.5090563048456275,
        "time": 1.228814503,
        "traj_len": 5.549000603862906,
        "weighted_distance": 8.108126087770348
    },
    "planner": "BKPIECE",
    "start": {
        "state": {
            "elbow_joint": 1.9565354006590394,
            "shoulder_lift_joint": -1.4165861576513559,
            "shoulder_pan_joint": -1.6717766223277177,
            "wrist_1_joint": -0.5286633288215096,
            "wrist_2_joint": 1.4727565892594296,
            "wrist_3_joint": 3.1593482883155493
        }
    },
    "waypoints": [
        {
            "positions": [
                -1.6717766223277177,
                -1.4165861576513559,
                1.9565354006590394,
                -0.5286633288215096,
                1.4727565892594296,
                3.1593482883155493
            ]
        },
        {
            "positions": [
                -1.6606702711708725,
                -1.4472623246387255,
                1.9577415033280727,
                -0.454762270770992,
                1.4479088214142395,
                2.9838058151765314
            ]
        },
        {
            "positions": [
                -1.6495639200140273,
                -1.477938491626095,
                1.9589476059971063,
                -0.38086121272047446,
                1.4230610535690493,
                2.808263342037513
            ]
        },
        {
            "positions": [
                -1.638457568857182,
                -1.5086146586134646,
                1.9601537086661396,
                -0.30696015466995685,
                1.3982132857238592,
                2.6327208688984953
            ]
        },
        {
            "positions": [
                -1.5692537681289696,
                -1.5054265168179395,
                1.9280503656705645,
                -0.3655122304960753,
                1.3329476961940618,
                2.4720183713473207
            ]
        },
        {
            "positions": [
                -1.500049967400757,
                -1.5022383750224142,
                1.8959470226749897,
                -0.42406430632219366,
                1.2676821066642647,
                2.311315873796146
            ]
        },
        {
            "positions": [
                -1.4308461666725443,
                -1.4990502332268891,
                1.8638436796794147,
                -0.48261638214831204,
                1.2024165171344676,
                2.1506133762449715
            ]
        },
        {
            "positions": [
                -1.3616423659443317,
                -1.495862091431364,
                1.8317403366838396,
                -0.5411684579744305,
                1.1371509276046703,
                1.989910878693797
            ]
        },
        {
            "positions": [
                -1.2924385652161192,
                -1.492673949635839,
                1.7996369936882648,
                -0.5997205338005489,
                1.071885338074873,
                1.8292083811426223
            ]
        },
        {
            "positions": [
                -1.2232347644879065,
                -1.4894858078403137,
                1.7675336506926898,
                -0.6582726096266673,
                1.0066197485450759,
                1.6685058835914477
            ]
        },
        {
            "positions": [
                -1.154030963759694,
                -1.4862976660447886,
                1.7354303076971147,
                -0.7168246854527858,
                0.9413541590152786,
                1.507803386040273
            ]
        },
        {
            "positions": [
                -1.0848271630314814,
                -1.4831095242492636,
                1.7033269647015397,
                -0.7753767612789041,
                0.8760885694854814,
                1.3471008884890983
            ]
        },
        {
            "positions": [
                -1.0156233623032689,
                -1.4799213824537383,
                1.6712236217059648,
                -0.8339288371050225,
                0.8108229799556842,
                1.1863983909379237
            ]
        },
        {
            "positions": [
                -0.9464195615750562,
                -1.4767332406582132,
                1.6391202787103898,
                -0.892480912931141,
                0.745557390425887,
                1.025695893386749
            ]
        },
        {
            "positions": [
                -0.8772157608468436,
                -1.4735450988626881,
                1.6070169357148147,
                -0.9510329887572594,
                0.6802918008960896,
                0.8649933958355744
            ]
        },
        {
            "positions": [
                -0.8080119601186311,
                -1.470356957067163,
                1.57491359271924,
                -1.0095850645833777,
                0.6150262113662925,
                0.7042908982843998
            ]
        },
        {
            "positions": [
                -0.7388081593904184,
                -1.4671688152716378,
                1.5428102497236649,
                -1.0681371404094961,
                0.5497606218364952,
                0.543588400733225
            ]
        },
        {
            "positions": [
                -0.6696043586622059,
                -1.4639806734761127,
                1.5107069067280898,
                -1.1266892162356146,
                0.4844950323066981,
                0.38288590318205085
            ]
        },
        {
            "positions": [
                -0.6004005579339933,
                -1.4607925316805876,
                1.478603563732515,
                -1.185241292061733,
                0.4192294427769008,
                0.2221834056308758
            ]
        },
        {
            "positions": [
                -0.5311967572057807,
                -1.4576043898850624,
                1.44650022073694,
                -1.2437933678878514,
                0.35396385324710367,
                0.06148090807970119
            ]
        },
        {
            "positions": [
                -0.461992956477568,
                -1.4544162480895373,
                1.414396877741365,
                -1.3023454437139699,
                0.28869826371730634,
                -0.09922158947147341
            ]
        },
        {
            "positions": [
                -0.3927891557493557,
                -1.4512281062940122,
                1.38229353474579,
                -1.3608975195400883,
                0.22343267418750923,
                -0.259924087022648
            ]
        },
        {
            "positions": [
                -0.32358535502114294,
                -1.448039964498487,
                1.350190191750215,
                -1.4194495953662067,
                0.1581670846577119,
                -0.4206265845738226
            ]
        },
        {
            "positions": [
                -0.2543815542929304,
                -1.4448518227029619,
                1.31808684875464,
                -1.4780016711923252,
                0.09290149512791479,
                -0.5813290821249972
            ]
        },
        {
            "positions": [
                -0.18517775356471766,
                -1.4416636809074368,
                1.2859835057590652,
                -1.5365537470184436,
                0.02763590559811724,
                -0.7420315796761723
            ]
        },
        {
            "positions": [
                -0.11597395283650513,
                -1.4384755391119117,
                1.2538801627634901,
                -1.595105822844562,
                -0.03762968393167987,
                -0.9027340772273464
            ]
        },
        {
            "positions": [
                -0.046770152108292606,
                -1.4352873973163864,
                1.221776819767915,
                -1.6536578986706805,
                -0.10289527346147698,
                -1.063436574778521
            ]
        },
        {
            "positions": [
                0.02243364861991992,
                -1.4320992555208614,
                1.1896734767723403,
                -1.7122099744967985,
                -0.16816086299127408,
                -1.2241390723296957
            ]
        },
        {
            "positions": [
                0.09163744934813267,
                -1.4289111137253363,
                1.157570133776765,
                -1.7707620503229173,
                -0.23342645252107164,
                -1.3848415698808703
            ]
        },
        {
            "positions": [
                0.1608412500763452,
                -1.425722971929811,
                1.1254667907811902,
                -1.8293141261490353,
                -0.29869204205086874,
                -1.5455440674320453
            ]
        },
        {
            "positions": [
                0.23004505080455773,
                -1.422534830134286,
                1.0933634477856153,
                -1.8878662019751538,
                -0.36395763158066585,
                -1.7062465649832195
            ]
        },
        {
            "positions": [
                0.29924885153277025,
                -1.4193466883387609,
                1.0612601047900403,
                -1.9464182778012722,
                -0.42922322111046296,
                -1.8669490625343936
            ]
        },
        {
            "positions": [
                0.368452652260983,
                -1.4161585465432358,
                1.0291567617944652,
                -2.0049703536273906,
                -0.4944888106402605,
                -2.0276515600855696
            ]
        },
        {
            "positions": [
                0.43765645298919553,
                -1.4129704047477105,
                0.9970534187988903,
                -2.063522429453509,
                -0.5597544001700576,
                -2.1883540576367437
            ]
        },
        {
            "positions": [
                0.5068602537174081,
                -1.4097822629521854,
                0.9649500758033154,
                -2.1220745052796275,
                -0.6250199896998547,
                -2.349056555187918
            ]
        },
        {
            "positions": [
                0.5760640544456206,
                -1.4065941211566604,
                0.9328467328077403,
                -2.180626581105746,
                -0.6902855792296518,
                -2.509759052739093
            ]
        },
        {
            "positions": [
                0.6452678551738336,
                -1.403405979361135,
                0.9007433898121653,
                -2.2391786569318644,
                -0.7555511687594494,
                -2.670461550290268
            ]
        },
        {
            "positions": [
                0.7144716559020461,
                -1.40021783756561,
                0.8686400468165905,
                -2.297730732757983,
                -0.8208167582892465,
                -2.831164047841442
            ]
        },
        {
            "positions": [
                0.7836754566302582,
                -1.397029695770085,
                0.8365367038210154,
                -2.356282808584101,
                -0.8860823478190436,
                -2.9918665453926163
            ]
        },
        {
            "positions": [
                0.8528792573584707,
                -1.3938415539745599,
                0.8044333608254406,
                -2.4148348844102197,
                -0.9513479373488407,
                -3.1525690429437914
            ]
        },
        {
            "positions": [
                0.9220830580866837,
                -1.3906534121790346,
                0.7723300178298655,
                -2.473386960236338,
                -1.0166135268786383,
                -3.3132715404949664
            ]
        },
        {
            "positions": [
                0.9912868588148962,
                -1.3874652703835095,
                0.7402266748342905,
                -2.5319390360624565,
                -1.0818791164084351,
                -3.47397403804614
            ]
        },
        {
            "positions": [
                0.9116093745087968,
                -1.3879898263096617,
                0.7752836222730358,
                -2.486126272669643,
                -1.0342185498854908,
                -3.292100292254848
            ]
        },
        {
            "positions": [
                0.8319318902026973,
                -1.388514382235814,
                0.8103405697117811,
                -2.4403135092768293,
                -0.9865579833625464,
                -3.1102265464635557
            ]
        },
        {
            "positions": [
                0.7522544058965978,
                -1.389038938161966,
                0.8453975171505264,
                -2.394500745884016,
                -0.9388974168396019,
                -2.9283528006722634
            ]
        },
        {
            "positions": [
                0.6725769215904983,
                -1.3895634940881185,
                0.8804544645892717,
                -2.3486879824912026,
                -0.8912368503166576,
                -2.746479054880971
            ]
        },
        {
            "positions": [
                0.5928994372843989,
                -1.3900880500142707,
                0.915511412028017,
                -2.302875219098389,
                -0.8435762837937132,
                -2.5646053090896794
            ]
        },
        {
            "positions": [
                0.5132219529782993,
                -1.390612605940423,
                0.9505683594667622,
                -2.257062455705576,
                -0.7959157172707687,
                -2.382731563298387
            ]
        },
        {
            "positions": [
                0.43354446867219987,
                -1.391137161866575,
                0.9856253069055075,
                -2.2112496923127622,
                -0.7482551507478243,
                -2.2008578175070945
            ]
        },
        {
            "positions": [
                0.3538669843661004,
                -1.3916617177927273,
                1.0206822543442529,
                -2.1654369289199487,
                -0.70059458422488,
                -2.0189840717158027
            ]
        },
        {
            "positions": [
                0.2741895000600011,
                -1.3921862737188795,
                1.055739201782998,
                -2.119624165527135,
                -0.6529340177019356,
                -1.8371103259245105
            ]
        },
        {
            "positions": [
                0.19451201575390153,
                -1.3927108296450317,
                1.0907961492217435,
                -2.0738114021343215,
                -0.6052734511789912,
                -1.6552365801332183
            ]
        },
        {
            "positions": [
                0.11483453144780209,
                -1.393235385571184,
                1.1258530966604887,
                -2.0279986387415083,
                -0.5576128846560467,
                -1.473362834341926
            ]
        },
        {
            "positions": [
                0.035157047141702535,
                -1.3937599414973363,
                1.160910044099234,
                -1.9821858753486947,
                -0.5099523181331024,
                -1.2914890885506338
            ]
        },
        {
            "positions": [
                -0.04452043716439702,
                -1.3942844974234885,
                1.1959669915379794,
                -1.9363731119558811,
                -0.4622917516101579,
                -1.1096153427593416
            ]
        },
        {
            "positions": [
                -0.12419792147049646,
                -1.3948090533496407,
                1.2310239389767246,
                -1.8905603485630675,
                -0.4146311850872135,
                -0.9277415969680489
            ]
        },
        {
            "positions": [
                -0.2038754057765957,
                -1.3953336092757929,
                1.26608088641547,
                -1.8447475851702544,
                -0.36697061856426916,
                -0.7458678511767571
            ]
        },
        {
            "positions": [
                -0.28355289008269535,
                -1.395858165201945,
                1.3011378338542152,
                -1.7989348217774408,
                -0.3193100520413248,
                -0.5639941053854649
            ]
        },
        {
            "positions": [
                -0.3632303743887948,
                -1.3963827211280972,
                1.3361947812929604,
                -1.7531220583846272,
                -0.2716494855183803,
                -0.3821203595941727
            ]
        },
        {
            "positions": [
                -0.442907858694894,
                -1.3969072770542497,
                1.3712517287317056,
                -1.7073092949918138,
                -0.22398891899543605,
                -0.2002466138028809
            ]
        },
        {
            "positions": [
                -0.5225853430009937,
                -1.3974318329804019,
                1.406308676170451,
                -1.6614965315990005,
                -0.17632835247249157,
                -0.01837286801158866
            ]
        },
        {
            "positions": [
                -0.6022628273070931,
                -1.397956388906554,
                1.4413656236091965,
                -1.6156837682061869,
                -0.1286677859495472,
                0.16350087777970357
            ]
        },
        {
            "positions": [
                -0.6819403116131926,
                -1.3984809448327062,
                1.4764225710479417,
                -1.5698710048133733,
                -0.08100721942660272,
                0.3453746235709958
            ]
        },
        {
            "positions": [
                -0.761617795919292,
                -1.3990055007588584,
                1.511479518486687,
                -1.52405824142056,
                -0.03334665290365835,
                0.527248369362288
            ]
        },
        {
            "positions": [
                -0.8412952802253917,
                -1.3995300566850106,
                1.5465364659254321,
                -1.4782454780277463,
                0.014313913619286023,
                0.7091221151535803
            ]
        },
        {
            "positions": [
                -0.9209727645314911,
                -1.4000546126111628,
                1.5815934133641776,
                -1.432432714634933,
                0.06197448014223039,
                0.8909958609448725
            ]
        },
        {
            "positions": [
                -1.0006502488375906,
                -1.4005791685373152,
                1.616650360802923,
                -1.3866199512421193,
                0.10963504666517498,
                1.0728696067361647
            ]
        },
        {
            "positions": [
                -1.0803277331436902,
                -1.4011037244634674,
                1.6517073082416682,
                -1.3408071878493057,
                0.15729561318811935,
                1.254743352527457
            ]
        },
        {
            "positions": [
                -1.1600052174497897,
                -1.4016282803896196,
                1.6867642556804134,
                -1.2949944244564924,
                0.20495617971106372,
                1.4366170983187492
            ]
        },
        {
            "positions": [
                -1.2396827017558891,
                -1.4021528363157718,
                1.7218212031191586,
                -1.2491816610636788,
                0.2526167462340081,
                1.6184908441100423
            ]
        },
        {
            "positions": [
                -1.3193601860619886,
                -1.402677392241924,
                1.756878150557904,
                -1.2033688976708654,
                0.3002773127569527,
                1.8003645899013345
            ]
        },
        {
            "positions": [
                -1.3990376703680876,
                -1.4032019481680762,
                1.7919350979966493,
                -1.157556134278052,
                0.34793787927989683,
                1.9822383356926259
            ]
        },
        {
            "positions": [
                -1.4787151546741875,
                -1.4037265040942284,
                1.8269920454353945,
                -1.1117433708852384,
                0.3955984458028412,
                2.164112081483918
            ]
        },
        {
            "positions": [
                -1.558392638980287,
                -1.4042510600203808,
                1.86204899287414,
                -1.065930607492425,
                0.4432590123257856,
                2.3459858272752103
            ]
        },
        {
            "positions": [
                -1.6380701232863863,
                -1.404775615946533,
                1.8971059403128852,
                -1.0201178440996115,
                0.49091957884873016,
                2.5278595730665026
            ]
        },
        {
            "positions": [
                -1.7177476075924858,
                -1.4053001718726852,
                1.9321628877516306,
                -0.9743050807067981,
                0.5385801453716745,
                2.709733318857795
            ]
        },
        {
            "positions": [
                -1.7974250918985855,
                -1.4058247277988374,
                1.9672198351903758,
                -0.9284923173139845,
                0.5862407118946189,
                2.8916070646490875
            ]
        },
        {
            "positions": [
                -1.9665249065454442,
                -1.345354781725152,
                1.9791761015025418,
                -0.9094752703710556,
                0.607153505948794,
                2.956593367542273
            ]
        },
        {
            "positions": [
                -2.135624721192303,
                -1.284884835651467,
                1.9911323678147075,
                -0.8904582234281266,
                0.628066300002969,
                3.0215796704354583
            ]
        },
        {
            "positions": [
                -2.3047245358391617,
                -1.224414889577782,
                2.0030886341268737,
                -0.8714411764851976,
                0.648979094057144,
                3.0865659733286432
            ]
        },
        {
            "positions": [
                -2.4738243504860207,
                -1.1639449435040967,
                2.0150449004390394,
                -0.8524241295422686,
                0.6698918881113192,
                3.1515522762218287
            ]
        }
    ]
}