{
    "goal": {
        "global_pose": {
            "orientation": {
                "w": -0.4816463035849501,
                "x": 0.5182115481033762,
                "y": 0.4908360881923453,
                "z": -0.5084816262002911
            },
            "position": {
                "x": -0.8240239810943604,
                "y": 0.19912469901144506,
                "z": 0.16403168439865112
            }
        },
        "name": "move_to_storage_D"
    },
    "id": "BKPIECE_move_to_storage_D_18",
    "joint_names": [
        "shoulder_pan_joint",
        "shoulder_lift_joint",
        "elbow_joint",
        "wrist_1_joint",
        "wrist_2_joint",
        "wrist_3_joint"
    ],
    "metrics": {
        "cart_traj_len": 0.6490343331006219,
        "distance_elbow_joint": 0.5549651376539713,
        "distance_shoulder_lift_joint": 0.17450327363657525,
        "distance_shoulder_pan_joint": 0.23961281209134047,
        "distance_wrist_1_joint": 3.882212397007368,
        "distance_wrist_2_joint": 1.7741596674524047,
        "distance_wrist_3_joint": 3.256069250746452,
        "smoothness": 0.09412405272241267,
        "time": 0.8294994520000001,
        "traj_len": 3.1434889117965903,
        "weighted_distance": 4.695746277700786
    },
    "planner": "BKPIECE",
    "start": {
        "state": {
            "elbow_joint": -2.384821997420982,
            "shoulder_lift_joint": -2.2788054674887404,
            "shoulder_pan_joint": -0.18546946417610016,
            "wrist_1_joint": 1.4845937964226739,
            "wrist_2_joint": 0.1789877726866377,
            "wrist_3_joint": 0.03710572555276528
        }
    },
    "waypoints": [
        {
            "positions": [
                -0.18546946417610016,
                -2.2788054674887404,
                -2.384821997420982,
                1.4845937964226739,
                0.1789877726866377,
                0.03710572555276528
            ]
        },
        {
            "positions": [
                -0.1421386201681449,
                -2.2516142895917035,
                -2.3579552931389953,
                1.496890975011731,
                0.17703606832325838,
                0.015643236149555376
            ]
        },
        {
            "positions": [
                -0.06597890287044511,
                -2.1835428468552465,
                -2.2550713625104057,
                1.5055888842417757,
                0.17083811077272076,
                0.0005434867850514814
            ]
        },
        {
            "positions": [
                0.010180814427254686,
                -2.115471404118789,
                -2.1521874318818166,
                1.5142867934718205,
                0.16464015322218312,
                -0.014556262579452415
            ]
        },
        {
            "positions": [
                0.008349042198588617,
                -2.1159367878798983,
                -2.1387569913770332,
                1.3537651518068947,
                0.0913146512226852,
                0.11896070669614064
            ]
        },
        {
            "positions": [
                0.006517269969922548,
                -2.1164021716410075,
                -2.1253265508722494,
                1.1932435101419687,
                0.017989149223187284,
                0.2524776759717337
            ]
        },
        {
            "positions": [
                0.004685497741256478,
                -2.116867555402117,
                -2.111896110367466,
                1.0327218684770427,
                -0.05533635277631063,
                0.3859946452473268
            ]
        },
        {
            "positions": [
                0.002853725512590409,
                -2.1173329391632265,
                -2.0984656698626822,
                0.872200226812117,
                -0.12866185477580855,
                0.5195116145229198
            ]
        },
        {
            "positions": [
                0.0010219532839243397,
                -2.117798322924336,
                -2.085035229357899,
                0.7116785851471911,
                -0.2019873567753065,
                0.6530285837985129
            ]
        },
        {
            "positions": [
                -0.0008098189447417296,
                -2.118263706685445,
                -2.071604788853115,
                0.5511569434822652,
                -0.2753128587748044,
                0.786545553074106
            ]
        },
        {
            "positions": [
                -0.002641591173407799,
                -2.1187290904465543,
                -2.0581743483483317,
                0.3906353018173392,
                -0.3486383607743024,
                0.9200625223496991
            ]
        },
        {
            "positions": [
                -0.004473363402073868,
                -2.1191944742076636,
                -2.044743907843548,
                0.2301136601524134,
                -0.4219638627738002,
                1.053579491625292
            ]
        },
        {
            "positions": [
                -0.006305135630739936,
                -2.119659857968773,
                -2.0313134673387645,
                0.06959201848748764,
                -0.49528936477329816,
                1.1870964609008852
            ]
        },
        {
            "positions": [
                -0.008136907859406007,
                -2.120125241729882,
                -2.0178830268339807,
                -0.09092962317743836,
                -0.5686148667727962,
                1.3206134301764783
            ]
        },
        {
            "positions": [
                -0.009968680088072075,
                -2.1205906254909914,
                -2.0044525863291973,
                -0.25145126484236413,
                -0.641940368772294,
                1.4541303994520713
            ]
        },
        {
            "positions": [
                -0.011800452316738146,
                -2.1210560092521007,
                -1.9910221458244135,
                -0.4119729065072901,
                -0.7152658707717918,
                1.5876473687276644
            ]
        },
        {
            "positions": [
                -0.013632224545404213,
                -2.1215213930132104,
                -1.9775917053196301,
                -0.5724945481722159,
                -0.7885913727712897,
                1.7211643380032573
            ]
        },
        {
            "positions": [
                -0.015463996774070284,
                -2.1219867767743197,
                -1.9641612648148463,
                -0.7330161898371421,
                -0.8619168747707879,
                1.8546813072788506
            ]
        },
        {
            "positions": [
                -0.017295769002736355,
                -2.122452160535429,
                -1.950730824310063,
                -0.8935378315020679,
                -0.9352423767702858,
                1.9881982765544437
            ]
        },
        {
            "positions": [
                -0.019127541231402423,
                -2.1229175442965382,
                -1.9373003838052794,
                -1.0540594731669937,
                -1.0085678787697836,
                2.121715245830037
            ]
        },
        {
            "positions": [
                -0.020959313460068494,
                -2.1233829280576475,
                -1.9238699433004958,
                -1.2145811148319199,
                -1.0818933807692817,
                2.25523221510563
            ]
        },
        {
            "positions": [
                -0.022791085688734558,
                -2.1238483118187568,
                -1.9104395027957122,
                -1.3751027564968452,
                -1.1552188827687795,
                2.388749184381223
            ]
        },
        {
            "positions": [
                -0.024622857917400633,
                -2.124313695579866,
                -1.8970090622909286,
                -1.535624398161771,
                -1.2285443847682773,
                2.522266153656816
            ]
        },
        {
            "positions": [
                -0.0264546301460667,
                -2.1247790793409758,
                -1.883578621786145,
                -1.6961460398266972,
                -1.3018698867677754,
                2.655783122932409
            ]
        },
        {
            "positions": [
                -0.028286402374732768,
                -2.125244463102085,
                -1.8701481812813614,
                -1.856667681491623,
                -1.3751953887672732,
                2.7893000922080025
            ]
        },
        {
            "positions": [
                -0.030118174603398835,
                -2.1257098468631943,
                -1.8567177407765778,
                -2.0171893231565488,
                -1.448520890766771,
                2.9228170614835953
            ]
        },
        {
            "positions": [
                -0.03194994683206491,
                -2.1261752306243036,
                -1.8432873002717942,
                -2.177710964821475,
                -1.521846392766269,
                3.0563340307591886
            ]
        },
        {
            "positions": [
                -0.03378171906073098,
                -2.126640614385413,
                -1.8298568597670106,
                -2.3382326064864007,
                -1.595171894765767,
                3.1898510000347815
            ]
        }
    ]
}