{
    "goal": {
        "global_pose": {
            "orientation": {
                "w": -0.4816463035849501,
                "x": 0.5182115481033762,
                "y": 0.4908360881923453,
                "z": -0.5084816262002911
            },
            "position": {
                "x": -0.8240239810943604,
                "y": 0.19912469901144506,
                "z": 0.16403168439865112
            }
        },
        "name": "move_to_storage_D"
    },
    "id": "BKPIECE_move_to_storage_D_90",
    "joint_names": [
        "shoulder_pan_joint",
        "shoulder_lift_joint",
        "elbow_joint",
        "wrist_1_joint",
        "wrist_2_joint",
        "wrist_3_joint"
    ],
    "metrics": {
        "cart_traj_len": 3.9755945348359463,
        "distance_elbow_joint": 4.213953256882435,
        "distance_shoulder_lift_joint": 1.2633809973254098,
        "distance_shoulder_pan_joint": 2.8133202913205357,
        "distance_wrist_1_joint": 2.9386525597146855,
        "distance_wrist_2_joint": 0.8803655051193858,
        "distance_wrist_3_joint": 3.154743780239804,
        "smoothness": 0.22936372223651313,
        "time": 1.492277289,
        "traj_len": 3.9069702315991943,
        "weighted_distance": 5.039139015339419
    },
    "planner": "BKPIECE",
    "start": {
        "state": {
            "elbow_joint": -2.384821997420982,
            "shoulder_lift_joint": -2.2788054674887404,
            "shoulder_pan_joint": -0.18546946417610016,
            "wrist_1_joint": 1.4845937964226739,
            "wrist_2_joint": 0.1789877726866377,
            "wrist_3_joint": 0.03710572555276528
        }
    },
    "waypoints": [
        {
            "positions": [
                -0.18546946417610016,
                -2.2788054674887404,
                -2.384821997420982,
                1.4845937964226739,
                0.1789877726866377,
                0.03710572555276528
            ]
        },
        {
            "positions": [
                -0.1739065430992246,
                -2.2730541847422354,
                -2.3752924256739107,
                1.4812920519592456,
                0.18198667477956654,
                0.030915239466903697
            ]
        },
        {
            "positions": [
                -0.0951695321758234,
                -2.2440893671350195,
                -2.2730588957093434,
                1.406815904196611,
                0.20277780746771326,
                0.11885187537032096
            ]
        },
        {
            "positions": [
                -0.0164325212524222,
                -2.2151245495278036,
                -2.1708253657447765,
                1.3323397564339765,
                0.22356894015586,
                0.20678851127373823
            ]
        },
        {
            "positions": [
                0.06230448967097901,
                -2.1861597319205877,
                -2.068591835780209,
                1.2578636086713422,
                0.24436007284400674,
                0.29472514717715553
            ]
        },
        {
            "positions": [
                0.1410415005943802,
                -2.1571949143133713,
                -1.9663583058156417,
                1.1833874609087076,
                0.2651512055321535,
                0.3826617830805728
            ]
        },
        {
            "positions": [
                0.21977851151778138,
                -2.1282300967061554,
                -1.8641247758510746,
                1.108911313146073,
                0.2859423382203002,
                0.4705984189839901
            ]
        },
        {
            "positions": [
                0.2985155224411826,
                -2.0992652790989395,
                -1.7618912458865075,
                1.0344351653834387,
                0.30673347090844694,
                0.5585350548874073
            ]
        },
        {
            "positions": [
                0.37725253336458386,
                -2.0703004614917235,
                -1.6596577159219401,
                0.959959017620804,
                0.3275246035965937,
                0.6464716907908247
            ]
        },
        {
            "positions": [
                0.455989544287985,
                -2.0413356438845076,
                -1.5574241859573728,
                0.8854828698581696,
                0.34831573628474044,
                0.7344083266942418
            ]
        },
        {
            "positions": [
                0.5347265552113862,
                -2.0123708262772917,
                -1.4551906559928058,
                0.8110067220955351,
                0.36910686897288714,
                0.8223449625976591
            ]
        },
        {
            "positions": [
                0.6134635661347874,
                -1.9834060086700755,
                -1.3529571260282385,
                0.7365305743329007,
                0.38989800166103383,
                0.9102815985010764
            ]
        },
        {
            "positions": [
                0.6922005770581886,
                -1.9544411910628594,
                -1.2507235960636711,
                0.6620544265702661,
                0.41068913434918064,
                0.9982182344044936
            ]
        },
        {
            "positions": [
                0.7709375879815898,
                -1.9254763734556435,
                -1.148490066099104,
                0.5875782788076316,
                0.43148026703732734,
                1.086154870307911
            ]
        },
        {
            "positions": [
                0.8496745989049912,
                -1.8965115558484276,
                -1.0462565361345366,
                0.513102131044997,
                0.4522713997254741,
                1.1740915062113284
            ]
        },
        {
            "positions": [
                0.9284116098283923,
                -1.8675467382412116,
                -0.9440230061699695,
                0.43862598328236246,
                0.47306253241362084,
                1.2620281421147457
            ]
        },
        {
            "positions": [
                1.0071486207517935,
                -1.8385819206339957,
                -0.8417894762054023,
                0.3641498355197281,
                0.49385366510176754,
                1.3499647780181627
            ]
        },
        {
            "positions": [
                1.0858856316751946,
                -1.8096171030267796,
                -0.739555946240835,
                0.28967368775709357,
                0.5146447977899142,
                1.43790141392158
            ]
        },
        {
            "positions": [
                1.164622642598596,
                -1.7806522854195637,
                -0.6373224162762678,
                0.215197539994459,
                0.535435930478061,
                1.5258380498249973
            ]
        },
        {
            "positions": [
                1.243359653521997,
                -1.7516874678123475,
                -0.5350888863117007,
                0.14072139223182467,
                0.5562270631662077,
                1.6137746857284145
            ]
        },
        {
            "positions": [
                1.3220966644453982,
                -1.7227226502051316,
                -0.43285535634713357,
                0.06624524446919011,
                0.5770181958543544,
                1.7017113216318318
            ]
        },
        {
            "positions": [
                1.4008336753687993,
                -1.6937578325979157,
                -0.3306218263825662,
                -0.008230903293444225,
                0.5978093285425012,
                1.789647957535249
            ]
        },
        {
            "positions": [
                1.4795706862922007,
                -1.6647930149906998,
                -0.22838829641799885,
                -0.08270705105607878,
                0.6186004612306479,
                1.8775845934386663
            ]
        },
        {
            "positions": [
                1.5583076972156018,
                -1.6358281973834836,
                -0.1261547664534315,
                -0.15718319881871334,
                0.6393915939187946,
                1.9655212293420836
            ]
        },
        {
            "positions": [
                1.6370447081390032,
                -1.6068633797762677,
                -0.023921236488864572,
                -0.2316593465813479,
                0.6601827266069414,
                2.0534578652455013
            ]
        },
        {
            "positions": [
                1.7157817190624043,
                -1.5778985621690516,
                0.07831229347570279,
                -0.30613549434398246,
                0.6809738592950882,
                2.1413945011489184
            ]
        },
        {
            "positions": [
                1.7945187299858056,
                -1.5489337445618356,
                0.18054582344027015,
                -0.380611642106617,
                0.7017649919832349,
                2.229331137052336
            ]
        },
        {
            "positions": [
                1.873255740909207,
                -1.5199689269546197,
                0.2827793534048375,
                -0.4550877898692516,
                0.7225561246713816,
                2.3172677729557534
            ]
        },
        {
            "positions": [
                1.9519927518326081,
                -1.4910041093474038,
                0.38501288336940487,
                -0.5295639376318859,
                0.7433472573595283,
                2.4052044088591704
            ]
        },
        {
            "positions": [
                2.0307297627560095,
                -1.4620392917401877,
                0.4872464133339718,
                -0.6040400853945207,
                0.7641383900476751,
                2.493141044762588
            ]
        },
        {
            "positions": [
                2.1094667736794106,
                -1.4330744741329715,
                0.5894799432985391,
                -0.678516233157155,
                0.7849295227358218,
                2.581077680666005
            ]
        },
        {
            "positions": [
                2.1882037846028117,
                -1.4041096565257558,
                0.6917134732631061,
                -0.7529923809197894,
                0.8057206554239685,
                2.669014316569422
            ]
        },
        {
            "positions": [
                2.266940795526213,
                -1.3751448389185397,
                0.7939470032276734,
                -0.8274685286824237,
                0.8265117881121152,
                2.7569509524728395
            ]
        },
        {
            "positions": [
                2.345677806449614,
                -1.3461800213113237,
                0.8961805331922408,
                -0.9019446764450585,
                0.847302920800262,
                2.8448875883762565
            ]
        },
        {
            "positions": [
                2.424414817373015,
                -1.3172152037041078,
                0.9984140631568077,
                -0.9764208242076928,
                0.8680940534884087,
                2.932824224279674
            ]
        },
        {
            "positions": [
                2.5031518282964162,
                -1.288250386096892,
                1.100647593121375,
                -1.0508969719703276,
                0.8888851861765555,
                3.020760860183091
            ]
        },
        {
            "positions": [
                2.5818888392198174,
                -1.2592855684896758,
                1.2028811230859426,
                -1.125373119732962,
                0.9096763188647022,
                3.1086974960865086
            ]
        },
        {
            "positions": [
                2.593379336200972,
                -1.1983202939080895,
                1.3594436571798203,
                -1.0432017088431995,
                0.9470955586000326,
                3.126390255470093
            ]
        },
        {
            "positions": [
                2.6048698331821267,
                -1.1373550193265032,
                1.5160061912736977,
                -0.9610302979534371,
                0.9845147983353628,
                3.1440830148536776
            ]
        },
        {
            "positions": [
                2.6163603301632814,
                -1.0763897447449169,
                1.6725687253675754,
                -0.8788588870636748,
                1.0219340380706932,
                3.1617757742372623
            ]
        },
        {
            "positions": [
                2.627850827144436,
                -1.0154244701633306,
                1.829131259461453,
                -0.7966874761739123,
                1.0593532778060235,
                3.1794685336208466
            ]
        }
    ]
}