{
    "goal": {
        "global_pose": {
            "orientation": {
                "w": 0.7047431493862688,
                "x": -0.7094548369677653,
                "y": 0.0024358444001904,
                "z": -0.0022348060817251984
            },
            "position": {
                "x": -0.39052492380142206,
                "y": 0.3671506643295288,
                "z": 0.19426114857196808
            }
        },
        "name": "move_to_magneteinheit_D"
    },
    "id": "KPIECE_move_to_magneteinheit_D_69",
    "joint_names": [
        "shoulder_pan_joint",
        "shoulder_lift_joint",
        "elbow_joint",
        "wrist_1_joint",
        "wrist_2_joint",
        "wrist_3_joint"
    ],
    "metrics": {
        "cart_traj_len": 4.738679977174044,
        "distance_elbow_joint": 4.831944231415328,
        "distance_shoulder_lift_joint": 1.1134883947993273,
        "distance_shoulder_pan_joint": 3.0040417385339957,
        "distance_wrist_1_joint": 2.2028645518669916,
        "distance_wrist_2_joint": 1.9285545921526346,
        "distance_wrist_3_joint": 6.247579333667845,
        "smoothness": 0.2211132706666809,
        "time": 0.42308007,
        "traj_len": 4.396415908718843,
        "weighted_distance": 5.996253051180498
    },
    "planner": "KPIECE",
    "start": {
        "state": {
            "elbow_joint": 0.7495348899011973,
            "shoulder_lift_joint": -0.6476975780737697,
            "shoulder_pan_joint": -2.711696901376276,
            "wrist_1_joint": -0.07506478080974305,
            "wrist_2_joint": 0.4329665971545858,
            "wrist_3_joint": 3.1361499051832524
        }
    },
    "waypoints": [
        {
            "positions": [
                -2.711696901376276,
                -0.6476975780737697,
                0.7495348899011973,
                -0.07506478080974305,
                0.4329665971545858,
                3.1361499051832524
            ]
        },
        {
            "positions": [
                -2.7062996625992115,
                -0.6928243478339082,
                0.8357022410252739,
                -0.14886792005394106,
                0.31390033863153066,
                3.094682264171076
            ]
        },
        {
            "positions": [
                -2.7009024238221473,
                -0.7379511175940467,
                0.9218695921493505,
                -0.22267105929813907,
                0.19483408010847547,
                3.0532146231588992
            ]
        },
        {
            "positions": [
                -2.6955051850450826,
                -0.7830778873541852,
                1.008036943273427,
                -0.2964741985423371,
                0.07576782158542034,
                3.011746982146722
            ]
        },
        {
            "positions": [
                -2.690107946268018,
                -0.8282046571143237,
                1.0942042943975037,
                -0.3702773377865351,
                -0.043298436937634854,
                2.9702793411345456
            ]
        },
        {
            "positions": [
                -2.6847107074909533,
                -0.8733314268744622,
                1.1803716455215802,
                -0.4440804770307331,
                -0.16236469546069004,
                2.928811700122369
            ]
        },
        {
            "positions": [
                -2.6793134687138886,
                -0.9184581966346006,
                1.2665389966456568,
                -0.5178836162749312,
                -0.2814309539837451,
                2.887344059110192
            ]
        },
        {
            "positions": [
                -2.6739162299368244,
                -0.9635849663947391,
                1.3527063477697334,
                -0.5916867555191292,
                -0.4004972125068003,
                2.8458764180980154
            ]
        },
        {
            "positions": [
                -2.6685189911597598,
                -1.0087117361548776,
                1.43887369889381,
                -0.6654898947633272,
                -0.5195634710298556,
                2.804408777085839
            ]
        },
        {
            "positions": [
                -2.592745033775929,
                -1.0580611610597423,
                1.4748329488967622,
                -0.7292964222424383,
                -0.5825521515453888,
                2.721400802821656
            ]
        },
        {
            "positions": [
                -2.516971076392098,
                -1.1074105859646068,
                1.5107921988997146,
                -0.7931029497215495,
                -0.6455408320609219,
                2.638392828557473
            ]
        },
        {
            "positions": [
                -2.441197119008267,
                -1.1567600108694716,
                1.5467514489026668,
                -0.8569094772006606,
                -0.7085295125764551,
                2.5553848542932895
            ]
        },
        {
            "positions": [
                -2.365423161624436,
                -1.2061094357743363,
                1.5827106989056192,
                -0.9207160046797718,
                -0.7715181930919883,
                2.4723768800291066
            ]
        },
        {
            "positions": [
                -2.289649204240605,
                -1.2554588606792008,
                1.6186699489085714,
                -0.9845225321588829,
                -0.8345068736075215,
                2.3893689057649237
            ]
        },
        {
            "positions": [
                -2.1843680083140766,
                -1.2900317855745445,
                1.5894338396683851,
                -1.0119856938818548,
                -0.8282937837408297,
                2.2735745401280774
            ]
        },
        {
            "positions": [
                -2.0790868123875486,
                -1.3246047104698881,
                1.5601977304281989,
                -1.0394488556048265,
                -0.8220806938741381,
                2.1577801744912306
            ]
        },
        {
            "positions": [
                -1.97380561646102,
                -1.3591776353652318,
                1.5309616211880128,
                -1.0669120173277982,
                -0.8158676040074463,
                2.0419858088543843
            ]
        },
        {
            "positions": [
                -1.8685244205344915,
                -1.3937505602605755,
                1.5017255119478266,
                -1.09437517905077,
                -0.8096545141407545,
                1.9261914432175378
            ]
        },
        {
            "positions": [
                -1.8102483793577957,
                -1.4047919240490419,
                1.3889713048692507,
                -1.1301439178423163,
                -0.7937252692873277,
                1.7744231097299095
            ]
        },
        {
            "positions": [
                -1.7519723381810997,
                -1.4158332878375082,
                1.276217097790675,
                -1.1659126566338625,
                -0.7777960244339008,
                1.6226547762422814
            ]
        },
        {
            "positions": [
                -1.6936962970044038,
                -1.4268746516259745,
                1.1634628907120992,
                -1.2016813954254086,
                -0.761866779580474,
                1.470886442754653
            ]
        },
        {
            "positions": [
                -1.635420255827708,
                -1.4379160154144408,
                1.0507086836335233,
                -1.2374501342169548,
                -0.7459375347270472,
                1.3191181092670248
            ]
        },
        {
            "positions": [
                -1.577144214651012,
                -1.4489573792029073,
                0.9379544765549476,
                -1.273218873008501,
                -0.7300082898736203,
                1.1673497757793965
            ]
        },
        {
            "positions": [
                -1.5188681734743161,
                -1.4599987429913737,
                0.8252002694763717,
                -1.3089876118000472,
                -0.7140790450201935,
                1.0155814422917684
            ]
        },
        {
            "positions": [
                -1.46059213229762,
                -1.47104010677984,
                0.712446062397796,
                -1.3447563505915934,
                -0.6981498001667666,
                0.8638131088041401
            ]
        },
        {
            "positions": [
                -1.4023160911209243,
                -1.4820814705683063,
                0.5996918553192202,
                -1.3805250893831396,
                -0.6822205553133398,
                0.712044775316512
            ]
        },
        {
            "positions": [
                -1.3440400499442284,
                -1.4931228343567726,
                0.48693764824064445,
                -1.4162938281746857,
                -0.666291310459913,
                0.5602764418288839
            ]
        },
        {
            "positions": [
                -1.2857640087675324,
                -1.504164198145239,
                0.3741834411620686,
                -1.4520625669662321,
                -0.6503620656064861,
                0.4085081083412554
            ]
        },
        {
            "positions": [
                -1.2274879675908368,
                -1.5152055619337053,
                0.26142923408349295,
                -1.4878313057577781,
                -0.6344328207530594,
                0.2567397748536273
            ]
        },
        {
            "positions": [
                -1.1692119264141407,
                -1.5262469257221718,
                0.14867502700491686,
                -1.5236000445493245,
                -0.6185035758996325,
                0.10497144136599901
            ]
        },
        {
            "positions": [
                -1.110935885237445,
                -1.537288289510638,
                0.03592081992634122,
                -1.5593687833408707,
                -0.6025743310462057,
                -0.046796892121629075
            ]
        },
        {
            "positions": [
                -1.0526598440607489,
                -1.5483296532991044,
                -0.07683338715223464,
                -1.5951375221324169,
                -0.5866450861927788,
                -0.1985652256092576
            ]
        },
        {
            "positions": [
                -0.994383802884053,
                -1.5593710170875708,
                -0.18958759423081029,
                -1.630906260923963,
                -0.570715841339352,
                -0.35033355909688546
            ]
        },
        {
            "positions": [
                -0.9361077617073571,
                -1.570412380876037,
                -0.30234180130938615,
                -1.6666749997155093,
                -0.5547865964859251,
                -0.5021018925845138
            ]
        },
        {
            "positions": [
                -0.8778317205306613,
                -1.5814537446645034,
                -0.415096008387962,
                -1.7024437385070554,
                -0.5388573516324984,
                -0.6538702260721421
            ]
        },
        {
            "positions": [
                -0.8195556793539653,
                -1.5924951084529697,
                -0.5278502154665377,
                -1.7382124772986016,
                -0.5229281067790714,
                -0.8056385595597699
            ]
        },
        {
            "positions": [
                -0.7612796381772693,
                -1.603536472241436,
                -0.6406044225451135,
                -1.773981216090148,
                -0.5069988619256447,
                -0.9574068930473987
            ]
        },
        {
            "positions": [
                -0.7030035970005735,
                -1.6145778360299023,
                -0.7533586296236894,
                -1.8097499548816942,
                -0.4910696170722178,
                -1.109175226535027
            ]
        },
        {
            "positions": [
                -0.6447275558238776,
                -1.6256191998183689,
                -0.8661128367022652,
                -1.8455186936732402,
                -0.47514037221879096,
                -1.2609435600226548
            ]
        },
        {
            "positions": [
                -0.5864515146471818,
                -1.6366605636068352,
                -0.9788670437808407,
                -1.8812874324647864,
                -0.4592111273653642,
                -1.4127118935102831
            ]
        },
        {
            "positions": [
                -0.5281754734704858,
                -1.6477019273953015,
                -1.091621250859417,
                -1.9170561712563328,
                -0.4432818825119373,
                -1.5644802269979114
            ]
        },
        {
            "positions": [
                -0.46989943229378994,
                -1.6587432911837678,
                -1.2043754579379928,
                -1.952824910047879,
                -0.42735263765851045,
                -1.7162485604855398
            ]
        },
        {
            "positions": [
                -0.4116233911170941,
                -1.6697846549722342,
                -1.3171296650165683,
                -1.9885936488394251,
                -0.41142339280508367,
                -1.8680168939731676
            ]
        },
        {
            "positions": [
                -0.3533473499403983,
                -1.6808260187607005,
                -1.4298838720951441,
                -2.0243623876309713,
                -0.3954941479516568,
                -2.0197852274607957
            ]
        },
        {
            "positions": [
                -0.29507130876370224,
                -1.6918673825491668,
                -1.54263807917372,
                -2.0601311264225175,
                -0.37956490309822993,
                -2.171553560948425
            ]
        },
        {
            "positions": [
                -0.2367952675870062,
                -1.7029087463376333,
                -1.6553922862522958,
                -2.0958998652140637,
                -0.3636356582448031,
                -2.323321894436053
            ]
        },
        {
            "positions": [
                -0.17851922641031037,
                -1.7139501101260994,
                -1.7681464933308717,
                -2.13166860400561,
                -0.3477064133913763,
                -2.4750902279236806
            ]
        },
        {
            "positions": [
                -0.12024318523361455,
                -1.724991473914566,
                -1.8809007004094471,
                -2.167437342797156,
                -0.3317771685379495,
                -2.626858561411309
            ]
        },
        {
            "positions": [
                -0.0619671440569185,
                -1.7360328377030323,
                -1.9936549074880234,
                -2.2032060815887022,
                -0.3158479236845226,
                -2.778626894898937
            ]
        },
        {
            "positions": [
                -0.003691102880222674,
                -1.7470742014914986,
                -2.106409114566599,
                -2.2389748203802484,
                -0.2999186788310958,
                -2.9303952283865655
            ]
        },
        {
            "positions": [
                0.05458493829647315,
                -1.758115565279965,
                -2.219163321645175,
                -2.2747435591717946,
                -0.2839894339776689,
                -3.082163561874194
            ]
        },
        {
            "positions": [
                -0.064295011134149,
                -1.7565803614833988,
                -2.281651272572278,
                -2.273150672419325,
                -0.22870759309733063,
                -3.0675306285689947
            ]
        },
        {
            "positions": [
                -0.18317496056477114,
                -1.755045157686833,
                -2.3441392234993814,
                -2.2715577856668547,
                -0.17342575221699238,
                -3.052897695263796
            ]
        }
    ]
}