{
    "goal": {
        "global_pose": {
            "orientation": {
                "w": 0.5084816217422485,
                "x": -0.49083608388900757,
                "y": 0.5182115435600281,
                "z": -0.4816462993621826
            },
            "position": {
                "x": 0.5540239810943604,
                "y": 0.030875300988554955,
                "z": 0.16403168439865112
            }
        },
        "name": "move_to_storage_A"
    },
    "id": "KPIECE_move_to_storage_A_101",
    "joint_names": [
        "shoulder_pan_joint",
        "shoulder_lift_joint",
        "elbow_joint",
        "wrist_1_joint",
        "wrist_2_joint",
        "wrist_3_joint"
    ],
    "metrics": {
        "cart_traj_len": 0.3529216655468618,
        "distance_elbow_joint": 0.45044155407903697,
        "distance_shoulder_lift_joint": 0.23567780440471142,
        "distance_shoulder_pan_joint": 0.45971291043838186,
        "distance_wrist_1_joint": 0.2400326705519883,
        "distance_wrist_2_joint": 1.1071746596123346,
        "distance_wrist_3_joint": 0.10500837840321431,
        "smoothness": 6.661338165333112e-16,
        "time": 0.09854080600000001,
        "traj_len": 1.6118461395212844,
        "weighted_distance": 2.038448445377125
    },
    "planner": "KPIECE",
    "start": {
        "state": {
            "elbow_joint": 1.9715474177455299,
            "shoulder_lift_joint": -1.139484666580328,
            "shoulder_pan_joint": 0.12281154398918248,
            "wrist_1_joint": -0.7804687475355282,
            "wrist_2_joint": 0.12958649657246987,
            "wrist_3_joint": -3.1924925159053466
        }
    },
    "waypoints": [
        {
            "positions": [
                0.12281154398918248,
                -1.139484666580328,
                1.9715474177455299,
                -0.7804687475355282,
                0.12958649657246987,
                -3.1924925159053466
            ]
        },
        {
            "positions": [
                0.057138271069413646,
                -1.1731529243524297,
                2.0358962111853924,
                -0.8147591290429551,
                0.28775430508851774,
                -3.1774913189906018
            ]
        },
        {
            "positions": [
                -0.00853500185035519,
                -1.2068211821245312,
                2.1002450046252545,
                -0.849049510550382,
                0.4459221136045656,
                -3.1624901220758566
            ]
        },
        {
            "positions": [
                -0.07420827477012401,
                -1.2404894398966329,
                2.164593798065117,
                -0.8833398920578088,
                0.6040899221206134,
                -3.147488925161112
            ]
        },
        {
            "positions": [
                -0.13988154768989286,
                -1.2741576976687345,
                2.2289425915049796,
                -0.9176302735652357,
                0.7622577306366612,
                -3.132487728246367
            ]
        },
        {
            "positions": [
                -0.20555482060966174,
                -1.3078259554408362,
                2.293291384944842,
                -0.9519206550726627,
                0.9204255391527091,
                -3.1174865313316222
            ]
        },
        {
            "positions": [
                -0.2712280935294305,
                -1.3414942132129377,
                2.3576401783847043,
                -0.9862110365800896,
                1.0785933476687568,
                -3.102485334416877
            ]
        },
        {
            "positions": [
                -0.3369013664491994,
                -1.3751624709850394,
                2.421988971824567,
                -1.0205014180875165,
                1.2367611561848046,
                -3.0874841375021322
            ]
        }
    ]
}