{
    "goal": {
        "global_pose": {
            "orientation": {
                "w": 0.7031023502349854,
                "x": -0.7110244035720825,
                "y": 0.007748599164187908,
                "z": 0.005598929710686207
            },
            "position": {
                "x": 0.11585023208521307,
                "y": 0.44412534475326537,
                "z": 0.3711530566215515
            }
        },
        "name": "move_to_auspresseinheit_A"
    },
    "id": "KPIECE_move_to_auspresseinheit_A_54",
    "joint_names": [
        "shoulder_pan_joint",
        "shoulder_lift_joint",
        "elbow_joint",
        "wrist_1_joint",
        "wrist_2_joint",
        "wrist_3_joint"
    ],
    "metrics": {
        "cart_traj_len": 0.7079626751600573,
        "distance_elbow_joint": 0.09282369414881675,
        "distance_shoulder_lift_joint": 0.5681662178272375,
        "distance_shoulder_pan_joint": 1.042533863278698,
        "distance_wrist_1_joint": 0.5458430234509581,
        "distance_wrist_2_joint": 0.5435698404369196,
        "distance_wrist_3_joint": 0.0586001716000073,
        "smoothness": 0.34171932147517575,
        "time": 0.43591187600000003,
        "traj_len": 1.6886494043295774,
        "weighted_distance": 2.0144850502871767
    },
    "planner": "KPIECE",
    "start": {
        "state": {
            "elbow_joint": 2.4225747245308327,
            "shoulder_lift_joint": -1.373653427065438,
            "shoulder_pan_joint": -0.33786330853087027,
            "wrist_1_joint": -1.0288602302712604,
            "wrist_2_joint": 1.23302299562683,
            "wrist_3_joint": -3.094021725338297
        }
    },
    "waypoints": [
        {
            "positions": [
                -0.33786330853087027,
                -1.373653427065438,
                2.4225747245308327,
                -1.0288602302712604,
                1.23302299562683,
                -3.094021725338297
            ]
        },
        {
            "positions": [
                -0.21353512119361745,
                -1.4525380838875956,
                2.4140359221673897,
                -0.9573754069064206,
                1.1560234014024944,
                -3.0914071300932635
            ]
        },
        {
            "positions": [
                -0.08920693385636463,
                -1.5314227407097534,
                2.405497119803947,
                -0.8858905835415809,
                1.0790238071781588,
                -3.08879253484823
            ]
        },
        {
            "positions": [
                0.03512125348088818,
                -1.610307397531911,
                2.3969583174405042,
                -0.8144057601767412,
                1.0020242129538233,
                -3.0861779396031963
            ]
        },
        {
            "positions": [
                0.159449440818141,
                -1.6891920543540686,
                2.3884195150770613,
                -0.7429209368119014,
                0.9250246187294876,
                -3.0835633443581623
            ]
        },
        {
            "positions": [
                0.2837776281553938,
                -1.7680767111762263,
                2.3798807127136183,
                -0.6714361134470617,
                0.8480250245051519,
                -3.0809487491131287
            ]
        },
        {
            "positions": [
                0.40810581549264663,
                -1.846961367998384,
                2.371341910350176,
                -0.5999512900822219,
                0.7710254302808164,
                -3.078334153868095
            ]
        },
        {
            "positions": [
                0.5324340028298994,
                -1.9258460248205418,
                2.362803107986733,
                -0.5284664667173822,
                0.6940258360564808,
                -3.0757195586230615
            ]
        },
        {
            "positions": [
                0.7046705547478276,
                -1.9098724047484081,
                2.39585518559145,
                -0.4830172068203023,
                0.6985985169230513,
                -3.116017563507833
            ]
        }
    ]
}