{
    "goal": {
        "global_pose": {
            "orientation": {
                "w": -0.4816463035849501,
                "x": 0.5182115481033762,
                "y": 0.4908360881923453,
                "z": -0.5084816262002911
            },
            "position": {
                "x": -0.8240239810943604,
                "y": 0.19912469901144506,
                "z": 0.16403168439865112
            }
        },
        "name": "move_to_storage_D"
    },
    "id": "KPIECE_move_to_storage_D_49",
    "joint_names": [
        "shoulder_pan_joint",
        "shoulder_lift_joint",
        "elbow_joint",
        "wrist_1_joint",
        "wrist_2_joint",
        "wrist_3_joint"
    ],
    "metrics": {
        "cart_traj_len": 3.91976365349049,
        "distance_elbow_joint": 4.235426858933715,
        "distance_shoulder_lift_joint": 1.2655450602078515,
        "distance_shoulder_pan_joint": 2.8131615150023213,
        "distance_wrist_1_joint": 2.8424995809865967,
        "distance_wrist_2_joint": 0.8746225788140104,
        "distance_wrist_3_joint": 3.14688608733292,
        "smoothness": 0.13426152505279612,
        "time": 0.234334533,
        "traj_len": 3.8959134591617173,
        "weighted_distance": 5.018868001426602
    },
    "planner": "KPIECE",
    "start": {
        "state": {
            "elbow_joint": -2.384821997420982,
            "shoulder_lift_joint": -2.2788054674887404,
            "shoulder_pan_joint": -0.18546946417610016,
            "wrist_1_joint": 1.4845937964226739,
            "wrist_2_joint": 0.1789877726866377,
            "wrist_3_joint": 0.03710572555276528
        }
    },
    "waypoints": [
        {
            "positions": [
                -0.18546946417610016,
                -2.2788054674887404,
                -2.384821997420982,
                1.4845937964226739,
                0.1789877726866377,
                0.03710572555276528
            ]
        },
        {
            "positions": [
                -0.15124721862374937,
                -2.259360793413177,
                -2.3952301211956164,
                1.4713122431405972,
                0.19572273562968123,
                0.04864476643341854
            ]
        },
        {
            "positions": [
                -0.07812205473765979,
                -2.229298137231308,
                -2.282615318959549,
                1.3915282090081007,
                0.2098371689406315,
                0.13318742708193032
            ]
        },
        {
            "positions": [
                -0.004996890851570207,
                -2.199235481049439,
                -2.1700005167234817,
                1.3117441748756042,
                0.22395160225158176,
                0.2177300877304421
            ]
        },
        {
            "positions": [
                0.06812827303451938,
                -2.16917282486757,
                -2.057385714487414,
                1.2319601407431078,
                0.23806603556253203,
                0.30227274837895385
            ]
        },
        {
            "positions": [
                0.14125343692060896,
                -2.139110168685701,
                -1.944770912251347,
                1.1521761066106113,
                0.2521804688734823,
                0.38681540902746564
            ]
        },
        {
            "positions": [
                0.21437860080669854,
                -2.1090475125038317,
                -1.8321561100152794,
                1.0723920724781149,
                0.2662949021844325,
                0.47135806967597743
            ]
        },
        {
            "positions": [
                0.28750376469278816,
                -2.078984856321963,
                -1.719541307779212,
                0.9926080383456183,
                0.2804093354953828,
                0.5559007303244892
            ]
        },
        {
            "positions": [
                0.36062892857887774,
                -2.048922200140094,
                -1.6069265055431448,
                0.9128240042131218,
                0.2945237688063331,
                0.640443390973001
            ]
        },
        {
            "positions": [
                0.4337540924649673,
                -2.0188595439582246,
                -1.4943117033070774,
                0.8330399700806254,
                0.3086382021172833,
                0.7249860516215128
            ]
        },
        {
            "positions": [
                0.5068792563510569,
                -1.9887968877763558,
                -1.38169690107101,
                0.7532559359481289,
                0.3227526354282336,
                0.8095287122700245
            ]
        },
        {
            "positions": [
                0.5800044202371465,
                -1.958734231594487,
                -1.2690820988349427,
                0.6734719018156324,
                0.3368670687391839,
                0.8940713729185363
            ]
        },
        {
            "positions": [
                0.6531295841232361,
                -1.9286715754126178,
                -1.1564672965988754,
                0.593687867683136,
                0.3509815020501341,
                0.9786140335670481
            ]
        },
        {
            "positions": [
                0.7262547480093257,
                -1.8986089192307487,
                -1.0438524943628078,
                0.5139038335506394,
                0.3650959353610844,
                1.06315669421556
            ]
        },
        {
            "positions": [
                0.7993799118954152,
                -1.8685462630488798,
                -0.9312376921267405,
                0.43411979941814294,
                0.37921036867203467,
                1.1476993548640717
            ]
        },
        {
            "positions": [
                0.8725050757815048,
                -1.8384836068670107,
                -0.8186228898906731,
                0.3543357652856465,
                0.3933248019829849,
                1.2322420155125835
            ]
        },
        {
            "positions": [
                0.9456302396675943,
                -1.8084209506851416,
                -0.7060080876546058,
                0.27455173115315,
                0.4074392352939352,
                1.3167846761610953
            ]
        },
        {
            "positions": [
                1.0187554035536839,
                -1.7783582945032728,
                -0.5933932854185384,
                0.19476769702065355,
                0.42155366860488547,
                1.401327336809607
            ]
        },
        {
            "positions": [
                1.0918805674397736,
                -1.7482956383214037,
                -0.4807784831824711,
                0.11498366288815709,
                0.4356681019158357,
                1.4858699974581189
            ]
        },
        {
            "positions": [
                1.165005731325863,
                -1.7182329821395346,
                -0.3681636809464037,
                0.03519962875566063,
                0.449782535226786,
                1.5704126581066307
            ]
        },
        {
            "positions": [
                1.2381308952119525,
                -1.6881703259576657,
                -0.25554887871033616,
                -0.044584405376835834,
                0.46389696853773627,
                1.6549553187551425
            ]
        },
        {
            "positions": [
                1.3112560590980422,
                -1.6581076697757966,
                -0.14293407647426903,
                -0.1243684395093323,
                0.4780114018486865,
                1.7394979794036542
            ]
        },
        {
            "positions": [
                1.384381222984132,
                -1.6280450135939275,
                -0.030319274238201466,
                -0.20415247364182876,
                0.4921258351596368,
                1.824040640052166
            ]
        },
        {
            "positions": [
                1.4575063868702214,
                -1.5979823574120586,
                0.08229552799786566,
                -0.2839365077743252,
                0.5062402684705871,
                1.9085833007006778
            ]
        },
        {
            "positions": [
                1.5306315507563109,
                -1.5679197012301895,
                0.19491033023393323,
                -0.3637205419068217,
                0.5203547017815373,
                1.9931259613491896
            ]
        },
        {
            "positions": [
                1.6037567146424005,
                -1.5378570450483204,
                0.3075251324700008,
                -0.44350457603931837,
                0.5344691350924876,
                2.077668621997701
            ]
        },
        {
            "positions": [
                1.6768818785284902,
                -1.5077943888664516,
                0.4201399347060679,
                -0.5232886101718148,
                0.5485835684034379,
                2.1622112826462128
            ]
        },
        {
            "positions": [
                1.7500070424145797,
                -1.4777317326845825,
                0.5327547369421355,
                -0.6030726443043113,
                0.5626980017143881,
                2.2467539432947246
            ]
        },
        {
            "positions": [
                1.8231322063006692,
                -1.4476690765027134,
                0.6453695391782026,
                -0.6828566784368078,
                0.5768124350253383,
                2.3312966039432363
            ]
        },
        {
            "positions": [
                1.8962573701867589,
                -1.4176064203208445,
                0.7579843414142702,
                -0.7626407125693042,
                0.5909268683362887,
                2.415839264591748
            ]
        },
        {
            "positions": [
                1.9693825340728486,
                -1.3875437641389754,
                0.8705991436503373,
                -0.8424247467018007,
                0.6050413016472389,
                2.50038192524026
            ]
        },
        {
            "positions": [
                2.042507697958938,
                -1.3574811079571063,
                0.9832139458864049,
                -0.9222087808342971,
                0.6191557349581891,
                2.5849245858887717
            ]
        },
        {
            "positions": [
                2.1156328618450275,
                -1.3274184517752374,
                1.095828748122472,
                -1.0019928149667936,
                0.6332701682691395,
                2.6694672465372835
            ]
        },
        {
            "positions": [
                2.188758025731117,
                -1.2973557955933683,
                1.2084435503585398,
                -1.08177684909929,
                0.6473846015800897,
                2.7540099071857953
            ]
        },
        {
            "positions": [
                2.2514628864589894,
                -1.2567707401201569,
                1.2972071308735291,
                -1.0423298583186282,
                0.7054168515687409,
                2.815435893714351
            ]
        },
        {
            "positions": [
                2.314167747186861,
                -1.2161856846469457,
                1.3859707113885185,
                -1.0028828675379666,
                0.7634491015573921,
                2.876861880242907
            ]
        },
        {
            "positions": [
                2.3768726079147333,
                -1.1756006291737342,
                1.4747342919035078,
                -0.9634358767573049,
                0.8214813515460433,
                2.9382878667714625
            ]
        },
        {
            "positions": [
                2.439577468642605,
                -1.135015573700523,
                1.563497872418497,
                -0.9239888859766432,
                0.8795136015346945,
                2.999713853300018
            ]
        },
        {
            "positions": [
                2.5022823293704772,
                -1.0944305182273115,
                1.6522614529334863,
                -0.8845418951959814,
                0.9375458515233457,
                3.0611398398285736
            ]
        },
        {
            "positions": [
                2.564987190098349,
                -1.0538454627541003,
                1.7410250334484756,
                -0.8450949044153196,
                0.9955781015119969,
                3.1225658263571296
            ]
        },
        {
            "positions": [
                2.627692050826221,
                -1.0132604072808888,
                1.829788613963465,
                -0.8056479136346579,
                1.053610351500648,
                3.1839918128856852
            ]
        }
    ]
}