{
    "goal": {
        "global_pose": {
            "orientation": {
                "w": 0.7047431468963623,
                "x": -0.7094548344612122,
                "y": 0.0024358443915843964,
                "z": -0.0022348060738295317
            },
            "position": {
                "x": 0.6094750761985779,
                "y": 0.3671506643295288,
                "z": 0.19426114857196808
            }
        },
        "name": "move_to_magneteinheit_A"
    },
    "id": "KPIECE_move_to_magneteinheit_A_110",
    "joint_names": [
        "shoulder_pan_joint",
        "shoulder_lift_joint",
        "elbow_joint",
        "wrist_1_joint",
        "wrist_2_joint",
        "wrist_3_joint"
    ],
    "metrics": {
        "cart_traj_len": 1.0524561553133696,
        "distance_elbow_joint": 0.39053243017546224,
        "distance_shoulder_lift_joint": 0.3609268706681741,
        "distance_shoulder_pan_joint": 1.2408867132557513,
        "distance_wrist_1_joint": 2.2391211422932784,
        "distance_wrist_2_joint": 1.7045838772946134,
        "distance_wrist_3_joint": 1.1992627549699617,
        "smoothness": 0.0,
        "time": 0.05805940999999999,
        "traj_len": 2.671200813989327,
        "weighted_distance": 3.6711775111243337
    },
    "planner": "KPIECE",
    "start": {
        "state": {
            "elbow_joint": 1.5739458966750683,
            "shoulder_lift_joint": -1.4977259741207325,
            "shoulder_pan_joint": -1.1188672016454206,
            "wrist_1_joint": 1.494575848278785,
            "wrist_2_joint": -1.5706037134824402,
            "wrist_3_joint": -2.0226957942261072
        }
    },
    "waypoints": [
        {
            "positions": [
                -1.1188672016454206,
                -1.4977259741207325,
                1.5739458966750683,
                1.494575848278785,
                -1.5706037134824402,
                -2.0226957942261072
            ]
        },
        {
            "positions": [
                -1.05355737463196,
                -1.4787298230329338,
                1.5945002351053559,
                1.3767273671054545,
                -1.4808887725721973,
                -2.085814886592947
            ]
        },
        {
            "positions": [
                -0.9882475476184994,
                -1.4597336719451353,
                1.6150545735356434,
                1.258878885932124,
                -1.3911738316619546,
                -2.1489339789597874
            ]
        },
        {
            "positions": [
                -0.9229377206050389,
                -1.4407375208573365,
                1.6356089119659307,
                1.1410304047587938,
                -1.3014588907517117,
                -2.2120530713266273
            ]
        },
        {
            "positions": [
                -0.8576278935915782,
                -1.421741369769538,
                1.6561632503962183,
                1.0231819235854633,
                -1.211743949841469,
                -2.2751721636934676
            ]
        },
        {
            "positions": [
                -0.7923180665781178,
                -1.4027452186817393,
                1.6767175888265058,
                0.9053334424121328,
                -1.1220290089312261,
                -2.3382912560603075
            ]
        },
        {
            "positions": [
                -0.7270082395646571,
                -1.3837490675939408,
                1.6972719272567933,
                0.7874849612388024,
                -1.0323140680209835,
                -2.401410348427148
            ]
        },
        {
            "positions": [
                -0.6616984125511964,
                -1.364752916506142,
                1.7178262656870809,
                0.6696364800654719,
                -0.9425991271107406,
                -2.4645294407939877
            ]
        },
        {
            "positions": [
                -0.5963885855377359,
                -1.3457567654183433,
                1.7383806041173682,
                0.5517879988921415,
                -0.8528841862004978,
                -2.527648533160828
            ]
        },
        {
            "positions": [
                -0.5310787585242753,
                -1.3267606143305448,
                1.7589349425476557,
                0.433939517718811,
                -0.763169245290255,
                -2.590767625527668
            ]
        },
        {
            "positions": [
                -0.4657689315108148,
                -1.307764463242746,
                1.7794892809779432,
                0.31609103654548054,
                -0.6734543043800122,
                -2.6538867178945083
            ]
        },
        {
            "positions": [
                -0.4004591044973541,
                -1.2887683121549476,
                1.8000436194082308,
                0.19824255537215008,
                -0.5837393634697693,
                -2.717005810261348
            ]
        },
        {
            "positions": [
                -0.33514927748389356,
                -1.2697721610671489,
                1.820597957838518,
                0.08039407419881983,
                -0.4940244225595265,
                -2.780124902628188
            ]
        },
        {
            "positions": [
                -0.2698394504704329,
                -1.2507760099793503,
                1.8411522962688056,
                -0.03745440697451086,
                -0.4043094816492836,
                -2.8432439949950283
            ]
        },
        {
            "positions": [
                -0.20452962345697234,
                -1.2317798588915516,
                1.8617066346990931,
                -0.1553028881478411,
                -0.3145945407390409,
                -2.9063630873618687
            ]
        },
        {
            "positions": [
                -0.13921979644351168,
                -1.2127837078037529,
                1.8822609731293807,
                -0.2731513693211718,
                -0.22487959982879802,
                -2.9694821797287085
            ]
        },
        {
            "positions": [
                -0.07390996943005113,
                -1.1937875567159544,
                1.9028153115596682,
                -0.39099985049450203,
                -0.13516465891855534,
                -3.0326012720955484
            ]
        },
        {
            "positions": [
                -0.008600142416590462,
                -1.1747914056281556,
                1.9233696499899557,
                -0.5088483316678325,
                -0.045449718008312434,
                -3.0957203644623887
            ]
        },
        {
            "positions": [
                0.05670968459686998,
                -1.1557952545403571,
                1.943923988420243,
                -0.626696812841163,
                0.044265222901930246,
                -3.158839456829229
            ]
        },
        {
            "positions": [
                0.12201951161033064,
                -1.1367991034525584,
                1.9644783268505306,
                -0.7445452940144935,
                0.1339801638121732,
                -3.221958549196069
            ]
        }
    ]
}