{
    "goal": {
        "global_pose": {
            "orientation": {
                "w": 0.5084816262002911,
                "x": -0.4908360881923452,
                "y": 0.5182115481033761,
                "z": -0.48164630358495003
            },
            "position": {
                "x": 0.5540239810943604,
                "y": -0.46912469901144505,
                "z": 0.16403168439865112
            }
        },
        "name": "move_to_storage_B"
    },
    "id": "KPIECE_move_to_storage_B_116",
    "joint_names": [
        "shoulder_pan_joint",
        "shoulder_lift_joint",
        "elbow_joint",
        "wrist_1_joint",
        "wrist_2_joint",
        "wrist_3_joint"
    ],
    "metrics": {
        "cart_traj_len": 1.073285915858319,
        "distance_elbow_joint": 0.9799595285088845,
        "distance_shoulder_lift_joint": 0.6658744109562549,
        "distance_shoulder_pan_joint": 0.7581273856929595,
        "distance_wrist_1_joint": 3.022665996290818,
        "distance_wrist_2_joint": 2.702004431867947,
        "distance_wrist_3_joint": 3.1144747747407884,
        "smoothness": 0.10689923460237077,
        "time": 0.086231069,
        "traj_len": 3.3530741906581265,
        "weighted_distance": 4.816298008397943
    },
    "planner": "KPIECE",
    "start": {
        "state": {
            "elbow_joint": 1.6649325706314817,
            "shoulder_lift_joint": -0.6616388048112454,
            "shoulder_pan_joint": -0.9139837860083814,
            "wrist_1_joint": 2.146757197745094,
            "wrist_2_joint": -2.234196043158733,
            "wrist_3_joint": 0.005471033829999897
        }
    },
    "waypoints": [
        {
            "positions": [
                -0.9139837860083814,
                -0.6616388048112454,
                1.6649325706314817,
                2.146757197745094,
                -2.234196043158733,
                0.005471033829999897
            ]
        },
        {
            "positions": [
                -0.8659397553938324,
                -0.7554836998567324,
                1.7763135515950794,
                2.0993850904113662,
                -2.153603643935333,
                -0.007721080034630122
            ]
        },
        {
            "positions": [
                -0.8178957247792834,
                -0.8493285949022192,
                1.8876945325586774,
                2.052012983077638,
                -2.073011244711933,
                -0.020913193899260142
            ]
        },
        {
            "positions": [
                -0.7698516941647344,
                -0.9431734899477062,
                1.9990755135222753,
                2.00464087574391,
                -1.9924188454885332,
                -0.03410530776389016
            ]
        },
        {
            "positions": [
                -0.7218076635501856,
                -1.037018384993193,
                2.110456494485873,
                1.957268768410182,
                -1.9118264462651333,
                -0.04729742162852018
            ]
        },
        {
            "positions": [
                -0.6737636329356366,
                -1.1308632800386802,
                2.2218374754494707,
                1.909896661076454,
                -1.8312340470417334,
                -0.060489535493150205
            ]
        },
        {
            "positions": [
                -0.6257196023210876,
                -1.224708175084167,
                2.3332184564130687,
                1.862524553742726,
                -1.7506416478183335,
                -0.07368164935778021
            ]
        },
        {
            "positions": [
                -0.6461484371908991,
                -1.2202383907066308,
                2.319667428468404,
                1.7434622340780108,
                -1.6541872984040924,
                -0.20565217507747624
            ]
        },
        {
            "positions": [
                -0.6665772720607107,
                -1.2157686063290947,
                2.3061164005237385,
                1.6243999144132957,
                -1.5577329489898513,
                -0.33762270079717227
            ]
        },
        {
            "positions": [
                -0.6870061069305222,
                -1.2112988219515584,
                2.2925653725790736,
                1.5053375947485803,
                -1.46127859957561,
                -0.4695932265168683
            ]
        },
        {
            "positions": [
                -0.7074349418003338,
                -1.2068290375740223,
                2.279014344634408,
                1.3862752750838652,
                -1.3648242501613688,
                -0.6015637522365643
            ]
        },
        {
            "positions": [
                -0.7278637766701453,
                -1.202359253196486,
                2.2654633166897433,
                1.26721295541915,
                -1.2683699007471276,
                -0.7335342779562604
            ]
        },
        {
            "positions": [
                -0.7482926115399569,
                -1.1978894688189496,
                2.251912288745078,
                1.1481506357544347,
                -1.1719155513328863,
                -0.8655048036759564
            ]
        },
        {
            "positions": [
                -0.7687214464097685,
                -1.1934196844414136,
                2.238361260800413,
                1.0290883160897195,
                -1.0754612019186451,
                -0.9974753293956524
            ]
        },
        {
            "positions": [
                -0.78915028127958,
                -1.1889499000638772,
                2.2248102328557477,
                0.9100259964250044,
                -0.979006852504404,
                -1.1294458551153483
            ]
        },
        {
            "positions": [
                -0.8095791161493915,
                -1.1844801156863412,
                2.211259204911083,
                0.790963676760289,
                -0.8825525030901628,
                -1.2614163808350445
            ]
        },
        {
            "positions": [
                -0.8300079510192031,
                -1.1800103313088048,
                2.1977081769664175,
                0.6719013570955741,
                -0.7860981536759216,
                -1.3933869065547406
            ]
        },
        {
            "positions": [
                -0.8504367858890146,
                -1.1755405469312685,
                2.1841571490217526,
                0.5528390374308587,
                -0.6896438042616804,
                -1.5253574322744363
            ]
        },
        {
            "positions": [
                -0.8708656207588262,
                -1.1710707625537324,
                2.1706061210770873,
                0.43377671776614357,
                -0.5931894548474392,
                -1.6573279579941325
            ]
        },
        {
            "positions": [
                -0.8912944556286377,
                -1.1666009781761961,
                2.1570550931324224,
                0.3147143981014284,
                -0.4967351054331981,
                -1.7892984837138286
            ]
        },
        {
            "positions": [
                -0.9117232904984494,
                -1.1621311937986598,
                2.143504065187757,
                0.19565207843671306,
                -0.40028075601895674,
                -1.9212690094335247
            ]
        },
        {
            "positions": [
                -0.9321521253682609,
                -1.1576614094211237,
                2.129953037243092,
                0.07658975877199792,
                -0.3038264066047156,
                -2.0532395351532204
            ]
        },
        {
            "positions": [
                -0.9525809602380724,
                -1.1531916250435874,
                2.116402009298427,
                -0.042472560892717226,
                -0.20737205719047447,
                -2.1852100608729166
            ]
        },
        {
            "positions": [
                -0.973009795107884,
                -1.1487218406660513,
                2.102850981353762,
                -0.16153488055743237,
                -0.11091770777623333,
                -2.3171805865926123
            ]
        },
        {
            "positions": [
                -0.9934386299776955,
                -1.144252056288515,
                2.0892999534090966,
                -0.28059720022214796,
                -0.014463358361991974,
                -2.449151112312309
            ]
        },
        {
            "positions": [
                -1.013867464847507,
                -1.1397822719109787,
                2.0757489254644317,
                -0.3996595198868631,
                0.08199099105224916,
                -2.5811216380320046
            ]
        },
        {
            "positions": [
                -1.0342962997173186,
                -1.1353124875334426,
                2.0621978975197663,
                -0.5187218395515778,
                0.1784453404664903,
                -2.7130921637517007
            ]
        },
        {
            "positions": [
                -1.0547251345871302,
                -1.1308427031559063,
                2.0486468695751014,
                -0.637784159216293,
                0.2748996898807312,
                -2.8450626894713964
            ]
        },
        {
            "positions": [
                -1.0751539694569416,
                -1.1263729187783702,
                2.0350958416304366,
                -0.7568464788810085,
                0.3713540392949728,
                -2.9770332151910925
            ]
        },
        {
            "positions": [
                -1.0955828043267533,
                -1.121903134400834,
                2.021544813685771,
                -0.8759087985457235,
                0.46780838870921393,
                -3.1090037409107887
            ]
        }
    ]
}