{
    "goal": {
        "global_pose": {
            "orientation": {
                "w": 0.7047431468963623,
                "x": -0.7094548344612122,
                "y": 0.0024358443915843964,
                "z": -0.0022348060738295317
            },
            "position": {
                "x": 0.6094750761985779,
                "y": 0.3671506643295288,
                "z": 0.19426114857196808
            }
        },
        "name": "move_to_magneteinheit_A"
    },
    "id": "KPIECE_move_to_magneteinheit_A_14",
    "joint_names": [
        "shoulder_pan_joint",
        "shoulder_lift_joint",
        "elbow_joint",
        "wrist_1_joint",
        "wrist_2_joint",
        "wrist_3_joint"
    ],
    "metrics": {
        "cart_traj_len": 1.0541636021683145,
        "distance_elbow_joint": 0.3884395448563449,
        "distance_shoulder_lift_joint": 0.3635695075992553,
        "distance_shoulder_pan_joint": 1.2426692858591453,
        "distance_wrist_1_joint": 2.2397579626696142,
        "distance_wrist_2_joint": 1.7000075369553336,
        "distance_wrist_3_joint": 1.2059301889862741,
        "smoothness": 0.0,
        "time": 0.10999776,
        "traj_len": 2.6721478302904513,
        "weighted_distance": 3.6731457777392205
    },
    "planner": "KPIECE",
    "start": {
        "state": {
            "elbow_joint": 1.5739458966750683,
            "shoulder_lift_joint": -1.4977259741207325,
            "shoulder_pan_joint": -1.1188672016454206,
            "wrist_1_joint": 1.494575848278785,
            "wrist_2_joint": -1.5706037134824402,
            "wrist_3_joint": -2.0226957942261072
        }
    },
    "waypoints": [
        {
            "positions": [
                -1.1188672016454206,
                -1.4977259741207325,
                1.5739458966750683,
                1.494575848278785,
                -1.5706037134824402,
                -2.0226957942261072
            ]
        },
        {
            "positions": [
                -1.053463555021255,
                -1.4785907368786664,
                1.5943900832464548,
                1.3766938502435422,
                -1.4811296325900543,
                -2.086165804172753
            ]
        },
        {
            "positions": [
                -0.9880599083970896,
                -1.4594554996366003,
                1.6148342698178415,
                1.2588118522082992,
                -1.3916555516976683,
                -2.1496358141193994
            ]
        },
        {
            "positions": [
                -0.922656261772924,
                -1.4403202623945344,
                1.635278456389228,
                1.1409298541730564,
                -1.3021814708052823,
                -2.2131058240660453
            ]
        },
        {
            "positions": [
                -0.8572526151487585,
                -1.4211850251524683,
                1.6557226429606147,
                1.0230478561378136,
                -1.2127073899128964,
                -2.276575834012691
            ]
        },
        {
            "positions": [
                -0.791848968524593,
                -1.4020497879104021,
                1.6761668295320011,
                0.9051658581025708,
                -1.1232333090205104,
                -2.340045843959337
            ]
        },
        {
            "positions": [
                -0.7264453219004274,
                -1.382914550668336,
                1.6966110161033878,
                0.7872838600673279,
                -1.0337592281281243,
                -2.4035158539059833
            ]
        },
        {
            "positions": [
                -0.6610416752762619,
                -1.36377931342627,
                1.7170552026747743,
                0.6694018620320851,
                -0.9442851472357384,
                -2.466985863852629
            ]
        },
        {
            "positions": [
                -0.5956380286520964,
                -1.344644076184204,
                1.737499389246161,
                0.5515198639968422,
                -0.8548110663433525,
                -2.5304558737992755
            ]
        },
        {
            "positions": [
                -0.5302343820279308,
                -1.325508838942138,
                1.7579435758175475,
                0.43363786596159937,
                -0.7653369854509665,
                -2.5939258837459214
            ]
        },
        {
            "positions": [
                -0.4648307354037653,
                -1.3063736017000718,
                1.7783877623889341,
                0.31575586792635657,
                -0.6758629045585804,
                -2.6573958936925672
            ]
        },
        {
            "positions": [
                -0.39942708877959965,
                -1.2872383644580057,
                1.7988319489603206,
                0.19787386989111355,
                -0.5863888236661944,
                -2.720865903639213
            ]
        },
        {
            "positions": [
                -0.3340234421554342,
                -1.2681031272159398,
                1.8192761355317073,
                0.07999187185587076,
                -0.49691474277380854,
                -2.7843359135858594
            ]
        },
        {
            "positions": [
                -0.2686197955312686,
                -1.2489678899738736,
                1.8397203221030938,
                -0.03789012617937226,
                -0.40744066188142236,
                -2.8478059235325053
            ]
        },
        {
            "positions": [
                -0.20321614890710316,
                -1.2298326527318075,
                1.8601645086744805,
                -0.15577212421461484,
                -0.31796658098903663,
                -2.911275933479151
            ]
        },
        {
            "positions": [
                -0.1378125022829375,
                -1.2106974154897414,
                1.880608695245867,
                -0.27365412224985786,
                -0.22849250009665045,
                -2.9747459434257975
            ]
        },
        {
            "positions": [
                -0.07240885565877209,
                -1.1915621782476755,
                1.9010528818172534,
                -0.39153612028510065,
                -0.13901841920426472,
                -3.0382159533724433
            ]
        },
        {
            "positions": [
                -0.007005209034606441,
                -1.1724269410056092,
                1.92149706838864,
                -0.5094181183203437,
                -0.049544338311878544,
                -3.101685963319089
            ]
        },
        {
            "positions": [
                0.05839843758955898,
                -1.1532917037635433,
                1.9419412549600268,
                -0.6273001163555862,
                0.03992974258050719,
                -3.165155973265735
            ]
        },
        {
            "positions": [
                0.12380208421372456,
                -1.1341564665214772,
                1.9623854415314133,
                -0.7451821143908292,
                0.12940382347289328,
                -3.2286259832123814
            ]
        }
    ]
}