{
    "goal": {
        "global_pose": {
            "orientation": {
                "w": 0.7031023480610252,
                "x": -0.7110244013736278,
                "y": 0.0077485991402295624,
                "z": 0.005598929693374583
            },
            "position": {
                "x": -0.8841497679147869,
                "y": 0.44412534475326537,
                "z": 0.3711530566215515
            }
        },
        "name": "move_to_auspresseinheit_D"
    },
    "id": "KPIECE_move_to_auspresseinheit_D_140",
    "joint_names": [
        "shoulder_pan_joint",
        "shoulder_lift_joint",
        "elbow_joint",
        "wrist_1_joint",
        "wrist_2_joint",
        "wrist_3_joint"
    ],
    "metrics": {
        "cart_traj_len": 3.637393718686434,
        "distance_elbow_joint": 3.012416342751862,
        "distance_shoulder_lift_joint": 1.2351800969712219,
        "distance_shoulder_pan_joint": 2.7972786208938727,
        "distance_wrist_1_joint": 3.103231893768507,
        "distance_wrist_2_joint": 1.226403240064925,
        "distance_wrist_3_joint": 2.104512682279362,
        "smoothness": 0.2495068663863582,
        "time": 0.148229641,
        "traj_len": 3.6713788794851663,
        "weighted_distance": 4.692300435300568
    },
    "planner": "KPIECE",
    "start": {
        "state": {
            "elbow_joint": 1.8268400409724999,
            "shoulder_lift_joint": -1.0144045787793008,
            "shoulder_pan_joint": 2.6280239544362485,
            "wrist_1_joint": -0.790705565816056,
            "wrist_2_joint": 1.0573557467365533,
            "wrist_3_joint": 3.1851377467193758
        }
    },
    "waypoints": [
        {
            "positions": [
                2.6280239544362485,
                -1.0144045787793008,
                1.8268400409724999,
                -0.790705565816056,
                1.0573557467365533,
                3.1851377467193758
            ]
        },
        {
            "positions": [
                2.5995313487851233,
                -1.050464714034433,
                1.7770253616361018,
                -0.7275639641549838,
                0.9885864432756882,
                3.054402639768496
            ]
        },
        {
            "positions": [
                2.5710387431339985,
                -1.086524849289565,
                1.7272106822997035,
                -0.6644223624939116,
                0.9198171398148232,
                2.9236675328176167
            ]
        },
        {
            "positions": [
                2.5425461374828737,
                -1.1225849845446971,
                1.6773960029633055,
                -0.6012807608328393,
                0.8510478363539581,
                2.792932425866737
            ]
        },
        {
            "positions": [
                2.5140535318317485,
                -1.158645119799829,
                1.6275813236269072,
                -0.5381391591717671,
                0.782278532893093,
                2.662197318915857
            ]
        },
        {
            "positions": [
                2.4855609261806233,
                -1.1947052550549613,
                1.5777666442905092,
                -0.47499755751069495,
                0.7135092294322279,
                2.531462211964978
            ]
        },
        {
            "positions": [
                2.4570683205294985,
                -1.2307653903100935,
                1.5279519649541111,
                -0.4118559558496227,
                0.6447399259713629,
                2.400727105014098
            ]
        },
        {
            "positions": [
                2.4285757148783738,
                -1.2668255255652254,
                1.4781372856177128,
                -0.34871435418855046,
                0.5759706225104978,
                2.269991998063219
            ]
        },
        {
            "positions": [
                2.4000831092272485,
                -1.3028856608203576,
                1.4283226062813148,
                -0.2855727525274782,
                0.5072013190496327,
                2.139256891112339
            ]
        },
        {
            "positions": [
                2.3049224508685495,
                -1.3379485872992527,
                1.3315115356124008,
                -0.3817986443971052,
                0.4821550667393363,
                2.178465477285388
            ]
        },
        {
            "positions": [
                2.2097617925098505,
                -1.3730115137781476,
                1.234700464943487,
                -0.4780245362667322,
                0.45710881442903983,
                2.2176740634584373
            ]
        },
        {
            "positions": [
                2.1146011341511515,
                -1.4080744402570426,
                1.137889394274573,
                -0.5742504281363592,
                0.4320625621187434,
                2.2568826496314864
            ]
        },
        {
            "positions": [
                2.0194404757924524,
                -1.4431373667359377,
                1.0410783236056589,
                -0.6704763200059862,
                0.40701630980844694,
                2.2960912358045356
            ]
        },
        {
            "positions": [
                1.9242798174337536,
                -1.4782002932148326,
                0.944267252936745,
                -0.7667022118756132,
                0.3819700574981505,
                2.3352998219775847
            ]
        },
        {
            "positions": [
                1.8291191590750546,
                -1.5132632196937277,
                0.847456182267831,
                -0.8629281037452401,
                0.35692380518785405,
                2.374508408150634
            ]
        },
        {
            "positions": [
                1.7339585007163556,
                -1.5483261461726225,
                0.750645111598917,
                -0.9591539956148671,
                0.33187755287755755,
                2.413716994323683
            ]
        },
        {
            "positions": [
                1.6387978423576568,
                -1.5833890726515176,
                0.6538340409300031,
                -1.0553798874844942,
                0.3068313005672611,
                2.4529255804967316
            ]
        },
        {
            "positions": [
                1.5436371839989578,
                -1.6184519991304125,
                0.5570229702610892,
                -1.1516057793541212,
                0.28178504825696465,
                2.4921341666697807
            ]
        },
        {
            "positions": [
                1.4484765256402587,
                -1.6535149256093076,
                0.4602118995921751,
                -1.247831671223748,
                0.2567387959466682,
                2.53134275284283
            ]
        },
        {
            "positions": [
                1.3533158672815597,
                -1.6885778520882027,
                0.3634008289232613,
                -1.344057563093375,
                0.23169254363637176,
                2.570551339015879
            ]
        },
        {
            "positions": [
                1.2581552089228607,
                -1.7236407785670975,
                0.2665897582543473,
                -1.4402834549630021,
                0.20664629132607532,
                2.609759925188928
            ]
        },
        {
            "positions": [
                1.1629945505641617,
                -1.7587037050459926,
                0.16977868758543324,
                -1.5365093468326292,
                0.1816000390157788,
                2.648968511361977
            ]
        },
        {
            "positions": [
                1.0678338922054627,
                -1.7937666315248877,
                0.0729676169165192,
                -1.6327352387022562,
                0.15655378670548237,
                2.6881770975350263
            ]
        },
        {
            "positions": [
                0.9726732338467636,
                -1.8288295580037826,
                -0.023843453752394828,
                -1.7289611305718833,
                0.13150753439518587,
                2.7273856837080754
            ]
        },
        {
            "positions": [
                0.8775125754880648,
                -1.8638924844826776,
                -0.12065452442130864,
                -1.82518702244151,
                0.10646128208488947,
                2.7665942698811246
            ]
        },
        {
            "positions": [
                0.7823519171293656,
                -1.8989554109615727,
                -0.21746559509022267,
                -1.9214129143111371,
                0.08141502977459297,
                2.8058028560541737
            ]
        },
        {
            "positions": [
                0.6871912587706668,
                -1.9340183374404676,
                -0.3142766657591365,
                -2.017638806180764,
                0.05636877746429658,
                2.8450114422272224
            ]
        },
        {
            "positions": [
                0.5920306004119678,
                -1.9690812639193627,
                -0.41108773642805074,
                -2.1138646980503912,
                0.03132252515400008,
                2.884220028400272
            ]
        },
        {
            "positions": [
                0.49686994205326873,
                -2.0041441903982578,
                -0.5078988070969646,
                -2.210090589920018,
                0.00627627284370369,
                2.9234286145733206
            ]
        },
        {
            "positions": [
                0.4017092836945697,
                -2.0392071168771526,
                -0.6047098777658786,
                -2.3063164817896453,
                -0.018769979466592868,
                2.9626372007463697
            ]
        },
        {
            "positions": [
                0.3065486253358709,
                -2.0742700433560475,
                -0.7015209484347922,
                -2.402542373659272,
                -0.0438162317768892,
                3.001845786919419
            ]
        },
        {
            "positions": [
                0.21138796697717188,
                -2.109332969834943,
                -0.7983320191037067,
                -2.498768265528899,
                -0.06886248408718576,
                3.041054373092468
            ]
        },
        {
            "positions": [
                0.11622730861847286,
                -2.1443958963138376,
                -0.8951430897726202,
                -2.594994157398526,
                -0.0939087363974821,
                3.080262959265517
            ]
        },
        {
            "positions": [
                0.021066650259773834,
                -2.179458822792733,
                -0.9919541604415343,
                -2.691220049268153,
                -0.11895498870777865,
                3.119471545438566
            ]
        },
        {
            "positions": [
                -0.07409400809892519,
                -2.2145217492716274,
                -1.0887652311104483,
                -2.78744594113778,
                -0.1440012410180751,
                3.1586801316116153
            ]
        },
        {
            "positions": [
                -0.16925466645762444,
                -2.2495846757505227,
                -1.1855763017793624,
                -2.883671833007407,
                -0.16904749332837157,
                3.1978887177846644
            ]
        }
    ]
}