{
    "goal": {
        "global_pose": {
            "orientation": {
                "w": 0.7047431493862688,
                "x": -0.7094548369677653,
                "y": 0.0024358444001904,
                "z": -0.0022348060817251984
            },
            "position": {
                "x": -0.39052492380142206,
                "y": 0.3671506643295288,
                "z": 0.19426114857196808
            }
        },
        "name": "move_to_magneteinheit_D"
    },
    "id": "KPIECE_move_to_magneteinheit_D_116",
    "joint_names": [
        "shoulder_pan_joint",
        "shoulder_lift_joint",
        "elbow_joint",
        "wrist_1_joint",
        "wrist_2_joint",
        "wrist_3_joint"
    ],
    "metrics": {
        "cart_traj_len": 4.191496923250407,
        "distance_elbow_joint": 4.620518321950996,
        "distance_shoulder_lift_joint": 1.4188060584978859,
        "distance_shoulder_pan_joint": 2.807505919139794,
        "distance_wrist_1_joint": 4.688445841315429,
        "distance_wrist_2_joint": 2.7921406587488287,
        "distance_wrist_3_joint": 6.271201686218319,
        "smoothness": 0.3488108355460553,
        "time": 0.710711791,
        "traj_len": 4.7538004255407325,
        "weighted_distance": 6.528522678092811
    },
    "planner": "KPIECE",
    "start": {
        "state": {
            "elbow_joint": 0.7495348899011973,
            "shoulder_lift_joint": -0.6476975780737697,
            "shoulder_pan_joint": -2.711696901376276,
            "wrist_1_joint": -0.07506478080974305,
            "wrist_2_joint": 0.4329665971545858,
            "wrist_3_joint": 3.1361499051832524
        }
    },
    "waypoints": [
        {
            "positions": [
                -2.711696901376276,
                -0.6476975780737697,
                0.7495348899011973,
                -0.07506478080974305,
                0.4329665971545858,
                3.1361499051832524
            ]
        },
        {
            "positions": [
                -2.7151781024073607,
                -0.6790356308810587,
                0.7914236744214053,
                -0.011313799953372991,
                0.4678305213393861,
                3.0141695167620774
            ]
        },
        {
            "positions": [
                -2.7186593034384448,
                -0.7103736836883476,
                0.8333124589416132,
                0.052437180902997066,
                0.5026944455241864,
                2.8921891283409025
            ]
        },
        {
            "positions": [
                -2.716710344001903,
                -0.7170055759897913,
                0.8715518978486315,
                0.16584433570636842,
                0.4480008600269347,
                2.7532091535093484
            ]
        },
        {
            "positions": [
                -2.714761384565361,
                -0.723637468291235,
                0.9097913367556498,
                0.2792514905097398,
                0.39330727452968295,
                2.614229178677794
            ]
        },
        {
            "positions": [
                -2.712812425128819,
                -0.7302693605926786,
                0.9480307756626682,
                0.3926586453131111,
                0.33861368903243116,
                2.4752492038462397
            ]
        },
        {
            "positions": [
                -2.710863465692277,
                -0.7369012528941222,
                0.9862702145696866,
                0.5060658001164825,
                0.28392010353517944,
                2.336269229014685
            ]
        },
        {
            "positions": [
                -2.708914506255735,
                -0.7435331451955659,
                1.0245096534767049,
                0.6194729549198539,
                0.22922651803792773,
                2.197289254183131
            ]
        },
        {
            "positions": [
                -2.687469794542656,
                -0.8036925017281831,
                1.0553154258214201,
                0.6325418569741068,
                0.3434227304376416,
                2.053428886481751
            ]
        },
        {
            "positions": [
                -2.666025082829577,
                -0.8638518582608001,
                1.0861211981661356,
                0.6456107590283598,
                0.4576189428373554,
                1.909568518780371
            ]
        },
        {
            "positions": [
                -2.644580371116498,
                -0.9240112147934172,
                1.1169269705108509,
                0.6586796610826129,
                0.5718151552370693,
                1.765708151078991
            ]
        },
        {
            "positions": [
                -2.623135659403419,
                -0.9841705713260344,
                1.1477327428555661,
                0.6717485631368658,
                0.686011367636783,
                1.621847783377611
            ]
        },
        {
            "positions": [
                -2.6016909476903396,
                -1.0443299278586515,
                1.1785385152002816,
                0.6848174651911187,
                0.800207580036497,
                1.477987415676231
            ]
        },
        {
            "positions": [
                -2.5802462359772607,
                -1.1044892843912686,
                1.209344287544997,
                0.6978863672453718,
                0.9144037924362107,
                1.3341270479748508
            ]
        },
        {
            "positions": [
                -2.563782978182541,
                -1.1450673826925934,
                1.2462297448554247,
                0.7624438901365193,
                0.9564685499054073,
                1.1734176768009452
            ]
        },
        {
            "positions": [
                -2.5473197203878213,
                -1.185645480993918,
                1.2831152021658525,
                0.8270014130276667,
                0.9985333073746039,
                1.0127083056270396
            ]
        },
        {
            "positions": [
                -2.530856462593102,
                -1.226223579295243,
                1.3200006594762803,
                0.8915589359188141,
                1.0405980648438005,
                0.8519989344531342
            ]
        },
        {
            "positions": [
                -2.5143932047983824,
                -1.2668016775965678,
                1.3568861167867081,
                0.9561164588099615,
                1.0826628223129973,
                0.6912895632792286
            ]
        },
        {
            "positions": [
                -2.4979299470036627,
                -1.3073797758978924,
                1.393771574097136,
                1.020673981701109,
                1.1247275797821938,
                0.530580192105323
            ]
        },
        {
            "positions": [
                -2.4814666892089434,
                -1.3479578741992173,
                1.4306570314075637,
                1.0852315045922565,
                1.1667923372513904,
                0.36987082093141754
            ]
        },
        {
            "positions": [
                -2.4650034314142237,
                -1.388535972500542,
                1.4675424887179915,
                1.149789027483404,
                1.208857094720587,
                0.20916144975751205
            ]
        },
        {
            "positions": [
                -2.448540173619504,
                -1.4291140708018668,
                1.5044279460284193,
                1.2143465503745514,
                1.2509218521897836,
                0.048452078583606534
            ]
        },
        {
            "positions": [
                -2.346593798787345,
                -1.4187553767225716,
                1.376307293557177,
                1.1353391646552868,
                1.2274241987838825,
                0.014813692908281509
            ]
        },
        {
            "positions": [
                -2.2446474239551866,
                -1.4083966826432763,
                1.2481866410859348,
                1.0563317789360223,
                1.2039265453779815,
                -0.018824692767043516
            ]
        },
        {
            "positions": [
                -2.142701049123028,
                -1.398037988563981,
                1.1200659886146924,
                0.9773243932167578,
                1.1804288919720805,
                -0.05246307844236854
            ]
        },
        {
            "positions": [
                -2.040754674290869,
                -1.387679294484686,
                0.9919453361434502,
                0.8983170074974933,
                1.1569312385661796,
                -0.08610146411769357
            ]
        },
        {
            "positions": [
                -1.9388082994587104,
                -1.3773206004053908,
                0.8638246836722078,
                0.8193096217782287,
                1.1334335851602786,
                -0.1197398497930186
            ]
        },
        {
            "positions": [
                -1.8368619246265516,
                -1.3669619063260956,
                0.7357040312009655,
                0.7403022360589642,
                1.1099359317543775,
                -0.15337823546834362
            ]
        },
        {
            "positions": [
                -1.7349155497943929,
                -1.3566032122468004,
                0.6075833787297231,
                0.6612948503396996,
                1.0864382783484765,
                -0.18701662114366865
            ]
        },
        {
            "positions": [
                -1.6329691749622341,
                -1.3462445181675051,
                0.47946272625848096,
                0.5822874646204351,
                1.0629406249425755,
                -0.22065500681899367
            ]
        },
        {
            "positions": [
                -1.5310228001300752,
                -1.3358858240882099,
                0.35134207378723836,
                0.5032800789011704,
                1.0394429715366744,
                -0.2542933924943187
            ]
        },
        {
            "positions": [
                -1.4290764252979167,
                -1.3255271300089146,
                0.2232214213159962,
                0.42427269318190597,
                1.0159453181307734,
                -0.28793177816964377
            ]
        },
        {
            "positions": [
                -1.327130050465758,
                -1.3151684359296196,
                0.09510076884475382,
                0.3452653074626414,
                0.9924476647248724,
                -0.3215701638449687
            ]
        },
        {
            "positions": [
                -1.2251836756335992,
                -1.3048097418503244,
                -0.03301988362648833,
                0.2662579217433769,
                0.9689500113189715,
                -0.3552085495202938
            ]
        },
        {
            "positions": [
                -1.1232373008014405,
                -1.2944510477710292,
                -0.16114053609773094,
                0.18725053602411235,
                0.9454523579130705,
                -0.38884693519561886
            ]
        },
        {
            "positions": [
                -1.0212909259692817,
                -1.284092353691734,
                -0.28926118856897304,
                0.10824315030484777,
                0.9219547045071694,
                -0.4224853208709438
            ]
        },
        {
            "positions": [
                -0.9523007757476226,
                -1.2829593593619115,
                -0.41402567362821785,
                0.02061922947579864,
                0.8925239347936241,
                -0.5054406392013049
            ]
        },
        {
            "positions": [
                -0.8833106255259635,
                -1.2818263650320894,
                -0.5387901586874627,
                -0.06700469135325049,
                0.8630931650800789,
                -0.5883959575316658
            ]
        },
        {
            "positions": [
                -0.8143204753043044,
                -1.280693370702267,
                -0.6635546437467075,
                -0.15462861218229962,
                0.8336623953665336,
                -0.6713512758620268
            ]
        },
        {
            "positions": [
                -0.7453303250826453,
                -1.2795603763724448,
                -0.7883191288059523,
                -0.24225253301134875,
                0.8042316256529884,
                -0.7543065941923879
            ]
        },
        {
            "positions": [
                -0.6763401748609862,
                -1.2784273820426224,
                -0.9130836138651972,
                -0.3298764538403979,
                0.7748008559394431,
                -0.837261912522749
            ]
        },
        {
            "positions": [
                -0.6073500246393271,
                -1.2772943877128002,
                -1.037848098924442,
                -0.417500374669447,
                0.7453700862258978,
                -0.9202172308531099
            ]
        },
        {
            "positions": [
                -0.538359874417668,
                -1.2761613933829778,
                -1.162612583983687,
                -0.5051242954984961,
                0.7159393165123527,
                -1.0031725491834709
            ]
        },
        {
            "positions": [
                -0.46936972419600886,
                -1.2750283990531555,
                -1.2873770690429316,
                -0.5927482163275453,
                0.6865085467988074,
                -1.086127867513832
            ]
        },
        {
            "positions": [
                -0.40037957397434976,
                -1.2738954047233333,
                -1.4121415541021767,
                -0.6803721371565945,
                0.657077777085262,
                -1.169083185844193
            ]
        },
        {
            "positions": [
                -0.33138942375269065,
                -1.272762410393511,
                -1.5369060391614215,
                -0.7679960579856435,
                0.6276470073717169,
                -1.252038504174554
            ]
        },
        {
            "positions": [
                -0.26239927353103154,
                -1.2716294160636887,
                -1.6616705242206662,
                -0.8556199788146926,
                0.5982162376581716,
                -1.3349938225049152
            ]
        },
        {
            "positions": [
                -0.19340912330937243,
                -1.2704964217338663,
                -1.786435009279911,
                -0.9432438996437418,
                0.5687854679446263,
                -1.417949140835276
            ]
        },
        {
            "positions": [
                -0.12441897308771332,
                -1.2693634274040442,
                -1.911199494339156,
                -1.030867820472791,
                0.5393546982310811,
                -1.500904459165637
            ]
        },
        {
            "positions": [
                -0.05542882286605427,
                -1.2682304330742218,
                -2.035963979398401,
                -1.11849174130184,
                0.5099239285175358,
                -1.5838597774959982
            ]
        },
        {
            "positions": [
                -0.054843454146880646,
                -1.3066264267523398,
                -2.0859687664643847,
                -1.221018859945329,
                0.44940369676882647,
                -1.7275931536799198
            ]
        },
        {
            "positions": [
                -0.05425808542770702,
                -1.3450224204304575,
                -2.1359735535303686,
                -1.3235459785888182,
                0.38888346502011717,
                -1.8713265298638415
            ]
        },
        {
            "positions": [
                -0.053672716708533394,
                -1.3834184141085755,
                -2.1859783405963524,
                -1.4260730972323072,
                0.32836323327140793,
                -2.015059906047763
            ]
        },
        {
            "positions": [
                -0.05308734798935977,
                -1.4218144077866934,
                -2.235983127662336,
                -1.5286002158757963,
                0.26784300152269863,
                -2.158793282231685
            ]
        },
        {
            "positions": [
                -0.05250197927018614,
                -1.4602104014648112,
                -2.2859879147283197,
                -1.6311273345192854,
                0.20732276977398933,
                -2.3025266584156068
            ]
        },
        {
            "positions": [
                -0.051916610551012515,
                -1.4986063951429291,
                -2.3359927017943036,
                -1.7336544531627744,
                0.14680253802528004,
                -2.4462600345995282
            ]
        },
        {
            "positions": [
                -0.07867677538905155,
                -1.5478323883376164,
                -2.3410336253945143,
                -1.823861154481536,
                0.08217649110995834,
                -2.584018383886636
            ]
        },
        {
            "positions": [
                -0.10543694022709058,
                -1.5970583815323036,
                -2.3460745489947255,
                -1.9140678558002977,
                0.01755044419463664,
                -2.7217767331737437
            ]
        },
        {
            "positions": [
                -0.1321971050651296,
                -1.646284374726991,
                -2.351115472594936,
                -2.0042745571190594,
                -0.04707560272068506,
                -2.8595350824608516
            ]
        },
        {
            "positions": [
                -0.15895726990316864,
                -1.6955103679216783,
                -2.3561563961951473,
                -2.094481258437821,
                -0.11170164963600676,
                -2.997293431747959
            ]
        },
        {
            "positions": [
                -0.18571743474120767,
                -1.7447363611163655,
                -2.361197319795358,
                -2.1846879597565825,
                -0.1763276965513285,
                -3.135051781035067
            ]
        }
    ]
}