{
    "goal": {
        "global_pose": {
            "orientation": {
                "w": 0.5084816217422485,
                "x": -0.49083608388900757,
                "y": 0.5182115435600281,
                "z": -0.4816462993621826
            },
            "position": {
                "x": 0.5540239810943604,
                "y": 0.030875300988554955,
                "z": 0.16403168439865112
            }
        },
        "name": "move_to_storage_A"
    },
    "id": "KPIECE_move_to_storage_A_3",
    "joint_names": [
        "shoulder_pan_joint",
        "shoulder_lift_joint",
        "elbow_joint",
        "wrist_1_joint",
        "wrist_2_joint",
        "wrist_3_joint"
    ],
    "metrics": {
        "cart_traj_len": 0.3530378276335633,
        "distance_elbow_joint": 0.4551828610382507,
        "distance_shoulder_lift_joint": 0.23523193871017156,
        "distance_shoulder_pan_joint": 0.46187138123595295,
        "distance_wrist_1_joint": 0.26174862113874087,
        "distance_wrist_2_joint": 1.098891396040771,
        "distance_wrist_3_joint": 0.10294926040261254,
        "smoothness": 1.8873791356367994e-15,
        "time": 0.024601462999999997,
        "traj_len": 1.617366828696106,
        "weighted_distance": 2.045095106969658
    },
    "planner": "KPIECE",
    "start": {
        "state": {
            "elbow_joint": 1.9715474177455299,
            "shoulder_lift_joint": -1.139484666580328,
            "shoulder_pan_joint": 0.12281154398918248,
            "wrist_1_joint": -0.7804687475355282,
            "wrist_2_joint": 0.12958649657246987,
            "wrist_3_joint": -3.1924925159053466
        }
    },
    "waypoints": [
        {
            "positions": [
                0.12281154398918248,
                -1.139484666580328,
                1.9715474177455299,
                -0.7804687475355282,
                0.12958649657246987,
                -3.1924925159053466
            ]
        },
        {
            "positions": [
                0.05682991809833206,
                -1.1730892292532096,
                2.0365735407509944,
                -0.8178614076982055,
                0.2865709817211515,
                -3.1777854787049735
            ]
        },
        {
            "positions": [
                -0.009151707792518365,
                -1.2066937919260914,
                2.1015996637564585,
                -0.8552540678608828,
                0.44355546686983305,
                -3.1630784415046
            ]
        },
        {
            "positions": [
                -0.07513333368336877,
                -1.240298354598973,
                2.166625786761923,
                -0.8926467280235599,
                0.6005399520185146,
                -3.148371404304227
            ]
        },
        {
            "positions": [
                -0.1411149595742192,
                -1.2739029172718546,
                2.2316519097673875,
                -0.9300393881862372,
                0.7575244371671962,
                -3.1336643671038535
            ]
        },
        {
            "positions": [
                -0.20709658546506965,
                -1.3075074799447362,
                2.296678032772852,
                -0.9674320483489145,
                0.9145089223158779,
                -3.1189573299034805
            ]
        },
        {
            "positions": [
                -0.27307821135592003,
                -1.341112042617618,
                2.361704155778316,
                -1.0048247085115918,
                1.0714934074645592,
                -3.104250292703107
            ]
        },
        {
            "positions": [
                -0.33905983724677047,
                -1.3747166052904995,
                2.4267302787837806,
                -1.042217368674269,
                1.228477892613241,
                -3.089543255502734
            ]
        }
    ]
}