{
    "goal": {
        "global_pose": {
            "orientation": {
                "w": 0.5084816262002911,
                "x": -0.4908360881923452,
                "y": 0.5182115481033761,
                "z": -0.48164630358495003
            },
            "position": {
                "x": 0.5540239810943604,
                "y": -0.46912469901144505,
                "z": 0.16403168439865112
            }
        },
        "name": "move_to_storage_B"
    },
    "id": "KPIECE_move_to_storage_B_78",
    "joint_names": [
        "shoulder_pan_joint",
        "shoulder_lift_joint",
        "elbow_joint",
        "wrist_1_joint",
        "wrist_2_joint",
        "wrist_3_joint"
    ],
    "metrics": {
        "cart_traj_len": 3.1485598542959505,
        "distance_elbow_joint": 2.793764002359266,
        "distance_shoulder_lift_joint": 0.910571165526666,
        "distance_shoulder_pan_joint": 2.2590463870110433,
        "distance_wrist_1_joint": 2.9818702416754066,
        "distance_wrist_2_joint": 2.7017235730824605,
        "distance_wrist_3_joint": 3.1456951252898127,
        "smoothness": 0.2437781456488853,
        "time": 0.08645784200000001,
        "traj_len": 3.8461240873046014,
        "weighted_distance": 5.173746665645907
    },
    "planner": "KPIECE",
    "start": {
        "state": {
            "elbow_joint": 1.6649325706314817,
            "shoulder_lift_joint": -0.6616388048112454,
            "shoulder_pan_joint": -0.9139837860083814,
            "wrist_1_joint": 2.146757197745094,
            "wrist_2_joint": -2.234196043158733,
            "wrist_3_joint": 0.005471033829999897
        }
    },
    "waypoints": [
        {
            "positions": [
                -0.9139837860083814,
                -0.6616388048112454,
                1.6649325706314817,
                2.146757197745094,
                -2.234196043158733,
                0.005471033829999897
            ]
        },
        {
            "positions": [
                -0.8855986771573787,
                -0.6849767864757227,
                1.6516833141025433,
                2.134225418333629,
                -2.214235423183645,
                -0.023884119385541067
            ]
        },
        {
            "positions": [
                -0.8416607353041934,
                -0.7136896458649792,
                1.5990947408230611,
                2.026324568479705,
                -2.1083128143470335,
                -0.0720776772457509
            ]
        },
        {
            "positions": [
                -0.7977227934510082,
                -0.7424025052542357,
                1.5465061675435792,
                1.918423718625781,
                -2.002390205510422,
                -0.12027123510596073
            ]
        },
        {
            "positions": [
                -0.7537848515978228,
                -0.7711153646434923,
                1.493917594264097,
                1.810522868771857,
                -1.8964675966738103,
                -0.16846479296617056
            ]
        },
        {
            "positions": [
                -0.7098469097446376,
                -0.7998282240327488,
                1.441329020984615,
                1.7026220189179333,
                -1.7905449878371988,
                -0.2166583508263804
            ]
        },
        {
            "positions": [
                -0.6659089678914523,
                -0.8285410834220053,
                1.3887404477051328,
                1.5947211690640093,
                -1.6846223790005874,
                -0.2648519086865902
            ]
        },
        {
            "positions": [
                -0.6219710260382669,
                -0.8572539428112618,
                1.3361518744256509,
                1.4868203192100853,
                -1.5786997701639758,
                -0.31304546654680004
            ]
        },
        {
            "positions": [
                -0.5780330841850816,
                -0.8859668022005184,
                1.2835633011461687,
                1.3789194693561613,
                -1.4727771613273641,
                -0.36123902440700995
            ]
        },
        {
            "positions": [
                -0.5340951423318964,
                -0.9146796615897749,
                1.2309747278666867,
                1.2710186195022375,
                -1.3668545524907527,
                -0.40943258226721974
            ]
        },
        {
            "positions": [
                -0.49015720047871103,
                -0.9433925209790314,
                1.1783861545872045,
                1.1631177696483135,
                -1.260931943654141,
                -0.4576261401274296
            ]
        },
        {
            "positions": [
                -0.44621925862552575,
                -0.9721053803682879,
                1.1257975813077223,
                1.0552169197943897,
                -1.1550093348175297,
                -0.5058196979876394
            ]
        },
        {
            "positions": [
                -0.4022813167723404,
                -1.0008182397575445,
                1.0732090080282402,
                0.9473160699404657,
                -1.049086725980918,
                -0.5540132558478492
            ]
        },
        {
            "positions": [
                -0.35834337491915513,
                -1.029531099146801,
                1.0206204347487584,
                0.8394152200865417,
                -0.9431641171443066,
                -0.602206813708059
            ]
        },
        {
            "positions": [
                -0.3144054330659699,
                -1.0582439585360575,
                0.9680318614692762,
                0.7315143702326179,
                -0.8372415083076952,
                -0.6504003715682688
            ]
        },
        {
            "positions": [
                -0.27046749121278457,
                -1.086956817925314,
                0.915443288189794,
                0.6236135203786937,
                -0.7313188994710833,
                -0.6985939294284788
            ]
        },
        {
            "positions": [
                -0.22652954935959924,
                -1.1156696773145705,
                0.862854714910312,
                0.5157126705247699,
                -0.6253962906344719,
                -0.7467874872886885
            ]
        },
        {
            "positions": [
                -0.182591607506414,
                -1.144382536703827,
                0.8102661416308299,
                0.4078118206708461,
                -0.5194736817978605,
                -0.7949810451488983
            ]
        },
        {
            "positions": [
                -0.13865366565322867,
                -1.1730953960930834,
                0.7576775683513478,
                0.2999109708169221,
                -0.41355107296124904,
                -0.8431746030091081
            ]
        },
        {
            "positions": [
                -0.09471572380004334,
                -1.20180825548234,
                0.7050889950718656,
                0.19201012096299808,
                -0.3076284641246372,
                -0.891368160869318
            ]
        },
        {
            "positions": [
                -0.050777781946858114,
                -1.2305211148715967,
                0.6525004217923835,
                0.08410927110907407,
                -0.20170585528802576,
                -0.9395617187295279
            ]
        },
        {
            "positions": [
                -0.006839840093672778,
                -1.259233974260853,
                0.5999118485129016,
                -0.023791578744849495,
                -0.09578324645141434,
                -0.9877552765897376
            ]
        },
        {
            "positions": [
                0.03709810175951245,
                -1.2879468336501096,
                0.5473232752334194,
                -0.1316924285987735,
                0.010139362385197082,
                -1.0359488344499475
            ]
        },
        {
            "positions": [
                0.0810360436126979,
                -1.3166596930393661,
                0.4947347019539372,
                -0.2395932784526975,
                0.11606197122180895,
                -1.0841423923101574
            ]
        },
        {
            "positions": [
                0.12497398546588318,
                -1.3453725524286226,
                0.44214612867445524,
                -0.3474941283066215,
                0.22198458005842053,
                -1.1323359501703671
            ]
        },
        {
            "positions": [
                0.043634744430097946,
                -1.3302500579013368,
                0.5468779660346046,
                -0.3800020560148677,
                0.23835411004944101,
                -1.2661951595896634
            ]
        },
        {
            "positions": [
                -0.03770449660568728,
                -1.315127563374051,
                0.6516098033947539,
                -0.4125099837231138,
                0.2547236400404615,
                -1.4000543690089597
            ]
        },
        {
            "positions": [
                -0.11904373764147252,
                -1.3000050688467648,
                0.7563416407549033,
                -0.44501791143136,
                0.271093170031482,
                -1.5339135784282563
            ]
        },
        {
            "positions": [
                -0.20038297867725774,
                -1.284882574319479,
                0.8610734781150525,
                -0.4775258391396061,
                0.28746270002250246,
                -1.6677727878475526
            ]
        },
        {
            "positions": [
                -0.28172221971304295,
                -1.269760079792193,
                0.9658053154752018,
                -0.5100337668478523,
                0.30383223001352294,
                -1.8016319972668489
            ]
        },
        {
            "positions": [
                -0.3630614607488282,
                -1.2546375852649072,
                1.0705371528353513,
                -0.5425416945560985,
                0.3202017600045435,
                -1.9354912066861454
            ]
        },
        {
            "positions": [
                -0.4444007017846135,
                -1.2395150907376213,
                1.1752689901955005,
                -0.5750496222643446,
                0.33657128999556396,
                -2.0693504161054417
            ]
        },
        {
            "positions": [
                -0.5257399428203986,
                -1.2243925962103352,
                1.2800008275556498,
                -0.6075575499725907,
                0.35294081998658444,
                -2.203209625524738
            ]
        },
        {
            "positions": [
                -0.607079183856184,
                -1.2092701016830494,
                1.384732664915799,
                -0.6400654776808369,
                0.3693103499776049,
                -2.3370688349440343
            ]
        },
        {
            "positions": [
                -0.6884184248919691,
                -1.1941476071557635,
                1.4894645022759483,
                -0.6725734053890831,
                0.3856798799686254,
                -2.4709280443633306
            ]
        },
        {
            "positions": [
                -0.7697576659277543,
                -1.1790251126284776,
                1.5941963396360976,
                -0.7050813330973291,
                0.4020494099596459,
                -2.604787253782627
            ]
        },
        {
            "positions": [
                -0.8510969069635397,
                -1.1639026181011918,
                1.6989281769962472,
                -0.7375892608055754,
                0.41841893995066637,
                -2.7386464632019236
            ]
        },
        {
            "positions": [
                -0.9324361479993248,
                -1.1487801235739057,
                1.8036600143563963,
                -0.7700971885138215,
                0.43478846994168685,
                -2.87250567262122
            ]
        },
        {
            "positions": [
                -1.0137753890351102,
                -1.1336576290466198,
                1.9083918517165457,
                -0.8026051162220678,
                0.45115799993270733,
                -3.006364882040516
            ]
        },
        {
            "positions": [
                -1.0951146300708954,
                -1.118535134519334,
                2.013123689076695,
                -0.8351130439303138,
                0.4675275299237278,
                -3.1402240914598125
            ]
        }
    ]
}