{
    "goal": {
        "global_pose": {
            "orientation": {
                "w": 0.005598929693374612,
                "x": 0.007748599140229565,
                "y": 0.7110244013736278,
                "z": -0.7031023480610252
            },
            "position": {
                "x": -0.8858502320852131,
                "y": -0.7141253447532654,
                "z": 0.3711530566215515
            }
        },
        "name": "move_to_auspresseinheit_C"
    },
    "id": "KPIECE_move_to_auspresseinheit_C_15",
    "joint_names": [
        "shoulder_pan_joint",
        "shoulder_lift_joint",
        "elbow_joint",
        "wrist_1_joint",
        "wrist_2_joint",
        "wrist_3_joint"
    ],
    "metrics": {
        "cart_traj_len": 0.49355599139632456,
        "distance_elbow_joint": 1.0136953158025608,
        "distance_shoulder_lift_joint": 0.3312535563656134,
        "distance_shoulder_pan_joint": 0.2562603997331139,
        "distance_wrist_1_joint": 0.7120177302895363,
        "distance_wrist_2_joint": 1.3073292902453988,
        "distance_wrist_3_joint": 0.09191324535203815,
        "smoothness": 3.2297397335745243e-16,
        "time": 0.013256137999999999,
        "traj_len": 1.9267769818503286,
        "weighted_distance": 2.432209499411445
    },
    "planner": "KPIECE",
    "start": {
        "state": {
            "elbow_joint": 1.752795957773711,
            "shoulder_lift_joint": -0.9740617694225064,
            "shoulder_pan_joint": -2.967991417825858,
            "wrist_1_joint": -0.7595177689806859,
            "wrist_2_joint": 1.7443932448377395,
            "wrist_3_joint": 3.199131542505932
        }
    },
    "waypoints": [
        {
            "positions": [
                -2.967991417825858,
                -0.9740617694225064,
                1.752795957773711,
                -0.7595177689806859,
                1.7443932448377395,
                3.199131542505932
            ]
        },
        {
            "positions": [
                -2.9423653778525467,
                -0.9409364137859451,
                1.651426426193455,
                -0.6883159959517323,
                1.6136603158131997,
                3.189940217970728
            ]
        },
        {
            "positions": [
                -2.916739337879235,
                -0.9078110581493838,
                1.550056894613199,
                -0.6171142229227786,
                1.4829273867886597,
                3.1807488934355246
            ]
        },
        {
            "positions": [
                -2.8911132979059238,
                -0.8746857025128224,
                1.4486873630329429,
                -0.545912449893825,
                1.3521944577641198,
                3.1715575689003206
            ]
        },
        {
            "positions": [
                -2.8654872579326125,
                -0.8415603468762611,
                1.3473178314526868,
                -0.4747106768648714,
                1.2214615287395798,
                3.162366244365117
            ]
        },
        {
            "positions": [
                -2.8398612179593012,
                -0.8084349912396998,
                1.2459482998724307,
                -0.40350890383591775,
                1.0907285997150402,
                3.153174919829913
            ]
        },
        {
            "positions": [
                -2.8142351779859895,
                -0.7753096356031384,
                1.1445787682921746,
                -0.3323071308069641,
                0.9599956706905003,
                3.143983595294709
            ]
        },
        {
            "positions": [
                -2.7886091380126783,
                -0.7421842799665771,
                1.0432092367119186,
                -0.2611053577780105,
                0.8292627416659604,
                3.1347922707595055
            ]
        },
        {
            "positions": [
                -2.762983098039367,
                -0.7090589243300157,
                0.9418397051316625,
                -0.1899035847490569,
                0.6985298126414203,
                3.1256009462243015
            ]
        },
        {
            "positions": [
                -2.7373570580660553,
                -0.6759335686934544,
                0.8404701735514064,
                -0.11870181172010319,
                0.5677968836168805,
                3.116409621689098
            ]
        },
        {
            "positions": [
                -2.711731018092744,
                -0.6428082130568931,
                0.7391006419711504,
                -0.047500038691149604,
                0.43706395459234065,
                3.107218297153894
            ]
        }
    ]
}