{
    "goal": {
        "global_pose": {
            "orientation": {
                "w": 0.5084816217422485,
                "x": -0.49083608388900757,
                "y": 0.5182115435600281,
                "z": -0.4816462993621826
            },
            "position": {
                "x": 0.5540239810943604,
                "y": 0.030875300988554955,
                "z": 0.16403168439865112
            }
        },
        "name": "move_to_storage_A"
    },
    "id": "KPIECE_move_to_storage_A_32",
    "joint_names": [
        "shoulder_pan_joint",
        "shoulder_lift_joint",
        "elbow_joint",
        "wrist_1_joint",
        "wrist_2_joint",
        "wrist_3_joint"
    ],
    "metrics": {
        "cart_traj_len": 0.35288714127573306,
        "distance_elbow_joint": 0.45085577162477763,
        "distance_shoulder_lift_joint": 0.23447768386428725,
        "distance_shoulder_pan_joint": 0.46075301678806213,
        "distance_wrist_1_joint": 0.24142400666680375,
        "distance_wrist_2_joint": 1.1020932665618832,
        "distance_wrist_3_joint": 0.10561824081609883,
        "smoothness": 4.440892098500626e-16,
        "time": 0.077832645,
        "traj_len": 1.6109692692046962,
        "weighted_distance": 2.0371489246451273
    },
    "planner": "KPIECE",
    "start": {
        "state": {
            "elbow_joint": 1.9715474177455299,
            "shoulder_lift_joint": -1.139484666580328,
            "shoulder_pan_joint": 0.12281154398918248,
            "wrist_1_joint": -0.7804687475355282,
            "wrist_2_joint": 0.12958649657246987,
            "wrist_3_joint": -3.1924925159053466
        }
    },
    "waypoints": [
        {
            "positions": [
                0.12281154398918248,
                -1.139484666580328,
                1.9715474177455299,
                -0.7804687475355282,
                0.12958649657246987,
                -3.1924925159053466
            ]
        },
        {
            "positions": [
                0.05698968444803075,
                -1.1729814785609405,
                2.035955385120498,
                -0.8149578913450716,
                0.2870283917955961,
                -3.177404195788761
            ]
        },
        {
            "positions": [
                -0.00883217509312098,
                -1.206478290541553,
                2.1003633524954664,
                -0.849447035154615,
                0.44447028701872227,
                -3.1623158756721756
            ]
        },
        {
            "positions": [
                -0.0746540346342727,
                -1.2399751025221655,
                2.1647713198704346,
                -0.8839361789641583,
                0.6019121822418485,
                -3.14722755555559
            ]
        },
        {
            "positions": [
                -0.14047589417542444,
                -1.2734719145027777,
                2.229179287245403,
                -0.9184253227737018,
                0.7593540774649747,
                -3.1321392354390043
            ]
        },
        {
            "positions": [
                -0.20629775371657622,
                -1.3069687264833902,
                2.293587254620371,
                -0.9529144665832452,
                0.916795972688101,
                -3.1170509153224186
            ]
        },
        {
            "positions": [
                -0.2721196132577279,
                -1.3404655384640027,
                2.3579952219953393,
                -0.9874036103927886,
                1.074237867911227,
                -3.1019625952058334
            ]
        },
        {
            "positions": [
                -0.33794147279887965,
                -1.3739623504446152,
                2.4224031893703075,
                -1.021892754202332,
                1.2316797631343532,
                -3.0868742750892477
            ]
        }
    ]
}