{
    "goal": {
        "global_pose": {
            "orientation": {
                "w": 0.005598929693374612,
                "x": 0.007748599140229565,
                "y": 0.7110244013736278,
                "z": -0.7031023480610252
            },
            "position": {
                "x": -0.8858502320852131,
                "y": -0.7141253447532654,
                "z": 0.3711530566215515
            }
        },
        "name": "move_to_auspresseinheit_C"
    },
    "id": "KPIECE_move_to_auspresseinheit_C_59",
    "joint_names": [
        "shoulder_pan_joint",
        "shoulder_lift_joint",
        "elbow_joint",
        "wrist_1_joint",
        "wrist_2_joint",
        "wrist_3_joint"
    ],
    "metrics": {
        "cart_traj_len": 0.49364298405469015,
        "distance_elbow_joint": 1.009627963601908,
        "distance_shoulder_lift_joint": 0.32968804807313734,
        "distance_shoulder_pan_joint": 0.2571550678745189,
        "distance_wrist_1_joint": 0.7057591490012989,
        "distance_wrist_2_joint": 1.3028387667067123,
        "distance_wrist_3_joint": 0.08584036223462599,
        "smoothness": 0.0,
        "time": 1.641998697,
        "traj_len": 1.9211739529496545,
        "weighted_distance": 2.4230534450707983
    },
    "planner": "KPIECE",
    "start": {
        "state": {
            "elbow_joint": 1.752795957773711,
            "shoulder_lift_joint": -0.9740617694225064,
            "shoulder_pan_joint": -2.967991417825858,
            "wrist_1_joint": -0.7595177689806859,
            "wrist_2_joint": 1.7443932448377395,
            "wrist_3_joint": 3.199131542505932
        }
    },
    "waypoints": [
        {
            "positions": [
                -2.967991417825858,
                -0.9740617694225064,
                1.752795957773711,
                -0.7595177689806859,
                1.7443932448377395,
                3.199131542505932
            ]
        },
        {
            "positions": [
                -2.942275911038406,
                -0.9410929646151927,
                1.6518331614135202,
                -0.688941854080556,
                1.6141093681670682,
                3.1905475062824697
            ]
        },
        {
            "positions": [
                -2.916560404250954,
                -0.908124159807879,
                1.5508703650533295,
                -0.6183659391804261,
                1.483825491496397,
                3.181963470059007
            ]
        },
        {
            "positions": [
                -2.890844897463502,
                -0.8751553550005653,
                1.4499075686931386,
                -0.5477900242802962,
                1.3535416148257258,
                3.173379433835544
            ]
        },
        {
            "positions": [
                -2.86512939067605,
                -0.8421865501932515,
                1.3489447723329477,
                -0.47721410938016634,
                1.2232577381550547,
                3.1647953976120817
            ]
        },
        {
            "positions": [
                -2.8394138838885983,
                -0.8092177453859377,
                1.247981975972757,
                -0.40663819448003646,
                1.0929738614843834,
                3.1562113613886194
            ]
        },
        {
            "positions": [
                -2.813698377101147,
                -0.776248940578624,
                1.1470191796125664,
                -0.3360622795799066,
                0.9626899848137122,
                3.1476273251651565
            ]
        },
        {
            "positions": [
                -2.787982870313695,
                -0.7432801357713104,
                1.0460563832523755,
                -0.2654863646797767,
                0.832406108143041,
                3.139043288941694
            ]
        },
        {
            "positions": [
                -2.762267363526243,
                -0.7103113309639966,
                0.9450935868921846,
                -0.19491044977964678,
                0.7021222314723696,
                3.1304592527182313
            ]
        },
        {
            "positions": [
                -2.736551856738791,
                -0.6773425261566828,
                0.8441307905319938,
                -0.12433453487951684,
                0.5718383548016983,
                3.121875216494769
            ]
        },
        {
            "positions": [
                -2.710836349951339,
                -0.6443737213493691,
                0.7431679941718031,
                -0.053758619979387044,
                0.4415544781310271,
                3.113291180271306
            ]
        }
    ]
}