{
    "goal": {
        "global_pose": {
            "orientation": {
                "w": 0.005598929693374612,
                "x": 0.007748599140229565,
                "y": 0.7110244013736278,
                "z": -0.7031023480610252
            },
            "position": {
                "x": 0.1141497679147869,
                "y": -0.7141253447532654,
                "z": 0.3711530566215515
            }
        },
        "name": "move_to_auspresseinheit_B"
    },
    "id": "KPIECE_move_to_auspresseinheit_B_117",
    "joint_names": [
        "shoulder_pan_joint",
        "shoulder_lift_joint",
        "elbow_joint",
        "wrist_1_joint",
        "wrist_2_joint",
        "wrist_3_joint"
    ],
    "metrics": {
        "cart_traj_len": 0.5646863416556275,
        "distance_elbow_joint": 0.06341433983286882,
        "distance_shoulder_lift_joint": 0.29484251665774486,
        "distance_shoulder_pan_joint": 0.5785692387482047,
        "distance_wrist_1_joint": 0.3314655474439605,
        "distance_wrist_2_joint": 0.9858153378695442,
        "distance_wrist_3_joint": 0.006202939293110443,
        "smoothness": 5.075305255429287e-16,
        "time": 0.239027196,
        "traj_len": 1.5034327121109987,
        "weighted_distance": 1.8947286570232582
    },
    "planner": "KPIECE",
    "start": {
        "state": {
            "elbow_joint": 2.019306165916698,
            "shoulder_lift_joint": -1.1220205098164344,
            "shoulder_pan_joint": -1.095207207618794,
            "wrist_1_joint": -0.8559671824921639,
            "wrist_2_joint": 0.47596387242952726,
            "wrist_3_joint": 3.159081874673826
        }
    },
    "waypoints": [
        {
            "positions": [
                -1.095207207618794,
                -1.1220205098164344,
                2.019306165916698,
                -0.8559671824921639,
                0.47596387242952726,
                3.159081874673826
            ]
        },
        {
            "positions": [
                -1.1916354140768282,
                -1.1711609292593919,
                2.0087371092778863,
                -0.8007229245848371,
                0.6402664287411179,
                3.1580480514583074
            ]
        },
        {
            "positions": [
                -1.2880636205348621,
                -1.2203013487023493,
                1.998168052639075,
                -0.7454786666775104,
                0.8045689850527087,
                3.157014228242789
            ]
        },
        {
            "positions": [
                -1.3844918269928963,
                -1.269441768145307,
                1.9875989960002636,
                -0.6902344087701836,
                0.9688715413642994,
                3.155980405027271
            ]
        },
        {
            "positions": [
                -1.4809200334509303,
                -1.3185821875882644,
                1.977029939361452,
                -0.6349901508628568,
                1.13317409767589,
                3.1549465818117524
            ]
        },
        {
            "positions": [
                -1.5773482399089644,
                -1.3677226070312218,
                1.9664608827226406,
                -0.5797458929555301,
                1.297476653987481,
                3.153912758596234
            ]
        },
        {
            "positions": [
                -1.6737764463669986,
                -1.4168630264741793,
                1.9558918260838292,
                -0.5245016350482034,
                1.4617792102990714,
                3.1528789353807154
            ]
        }
    ]
}