{
    "goal": {
        "global_pose": {
            "orientation": {
                "w": 0.005598929693374612,
                "x": 0.007748599140229565,
                "y": 0.7110244013736278,
                "z": -0.7031023480610252
            },
            "position": {
                "x": 0.1141497679147869,
                "y": -0.7141253447532654,
                "z": 0.3711530566215515
            }
        },
        "name": "move_to_auspresseinheit_B"
    },
    "id": "KPIECE_move_to_auspresseinheit_B_8",
    "joint_names": [
        "shoulder_pan_joint",
        "shoulder_lift_joint",
        "elbow_joint",
        "wrist_1_joint",
        "wrist_2_joint",
        "wrist_3_joint"
    ],
    "metrics": {
        "cart_traj_len": 0.5649721037537977,
        "distance_elbow_joint": 0.061509822621574006,
        "distance_shoulder_lift_joint": 0.29565350843569616,
        "distance_shoulder_pan_joint": 0.578355746925636,
        "distance_wrist_1_joint": 0.3219736277820464,
        "distance_wrist_2_joint": 0.9871096753161253,
        "distance_wrist_3_joint": 0.0011695861922835782,
        "smoothness": 0.0,
        "time": 0.242173736,
        "traj_len": 1.4985899930512554,
        "weighted_distance": 1.8860526086925837
    },
    "planner": "KPIECE",
    "start": {
        "state": {
            "elbow_joint": 2.019306165916698,
            "shoulder_lift_joint": -1.1220205098164344,
            "shoulder_pan_joint": -1.095207207618794,
            "wrist_1_joint": -0.8559671824921639,
            "wrist_2_joint": 0.47596387242952726,
            "wrist_3_joint": 3.159081874673826
        }
    },
    "waypoints": [
        {
            "positions": [
                -1.095207207618794,
                -1.1220205098164344,
                2.019306165916698,
                -0.8559671824921639,
                0.47596387242952726,
                3.159081874673826
            ]
        },
        {
            "positions": [
                -1.1915998321063999,
                -1.1712960945557171,
                2.0090545288131025,
                -0.8023049111951561,
                0.6404821516488814,
                3.158886943641779
            ]
        },
        {
            "positions": [
                -1.287992456594006,
                -1.2205716792949999,
                1.9988028917095066,
                -0.7486426398981484,
                0.8050004308682357,
                3.1586920126097313
            ]
        },
        {
            "positions": [
                -1.384385081081612,
                -1.2698472640342824,
                1.988551254605911,
                -0.6949803686011407,
                0.9695187100875899,
                3.158497081577684
            ]
        },
        {
            "positions": [
                -1.480777705569218,
                -1.3191228487735651,
                1.9782996175023153,
                -0.6413180973041329,
                1.134036989306944,
                3.158302150545637
            ]
        },
        {
            "positions": [
                -1.5771703300568238,
                -1.3683984335128478,
                1.9680479803987196,
                -0.5876558260071252,
                1.2985552685262984,
                3.1581072195135897
            ]
        },
        {
            "positions": [
                -1.67356295454443,
                -1.4176740182521306,
                1.957796343295124,
                -0.5339935547101174,
                1.4630735477456525,
                3.1579122884815423
            ]
        }
    ]
}