{
    "goal": {
        "global_pose": {
            "orientation": {
                "w": -0.4816463035849501,
                "x": 0.5182115481033762,
                "y": 0.4908360881923453,
                "z": -0.5084816262002911
            },
            "position": {
                "x": -0.8240239810943604,
                "y": -0.300875300988555,
                "z": 0.16403168439865112
            }
        },
        "name": "move_to_storage_C"
    },
    "id": "KPIECE_move_to_storage_C_106",
    "joint_names": [
        "shoulder_pan_joint",
        "shoulder_lift_joint",
        "elbow_joint",
        "wrist_1_joint",
        "wrist_2_joint",
        "wrist_3_joint"
    ],
    "metrics": {
        "cart_traj_len": 0.5776574173933356,
        "distance_elbow_joint": 0.25984640552397886,
        "distance_shoulder_lift_joint": 0.18993790615303052,
        "distance_shoulder_pan_joint": 0.4942608247456284,
        "distance_wrist_1_joint": 0.08125933983326894,
        "distance_wrist_2_joint": 1.0784418327446295,
        "distance_wrist_3_joint": 0.07037348839349455,
        "smoothness": 0.0,
        "time": 0.01400514,
        "traj_len": 1.4744896735460817,
        "weighted_distance": 1.8640192989234092
    },
    "planner": "KPIECE",
    "start": {
        "state": {
            "elbow_joint": 2.010868315001653,
            "shoulder_lift_joint": -1.1634956873357014,
            "shoulder_pan_joint": -2.4736205022346103,
            "wrist_1_joint": -0.8367026794713948,
            "wrist_2_joint": 0.6746043897044093,
            "wrist_3_joint": 3.1335220948105738
        }
    },
    "waypoints": [
        {
            "positions": [
                -2.4736205022346103,
                -1.1634956873357014,
                2.010868315001653,
                -0.8367026794713948,
                0.6746043897044093,
                3.1335220948105738
            ]
        },
        {
            "positions": [
                -2.555997306358882,
                -1.1318393696435296,
                1.9675605807476566,
                -0.82315945616585,
                0.8543446951618475,
                3.145251009542823
            ]
        },
        {
            "positions": [
                -2.638374110483153,
                -1.1001830519513578,
                1.9242528464936601,
                -0.8096162328603052,
                1.0340850006192857,
                3.156979924275072
            ]
        },
        {
            "positions": [
                -2.7207509146074242,
                -1.0685267342591862,
                1.8809451122396637,
                -0.7960730095547603,
                1.213825306076724,
                3.168708839007321
            ]
        },
        {
            "positions": [
                -2.803127718731696,
                -1.0368704165670144,
                1.8376373779856672,
                -0.7825297862492154,
                1.3935656115341621,
                3.1804377537395703
            ]
        },
        {
            "positions": [
                -2.8855045228559675,
                -1.0052140988748426,
                1.7943296437316707,
                -0.7689865629436706,
                1.5733059169916004,
                3.192166668471819
            ]
        },
        {
            "positions": [
                -2.9678813269802387,
                -0.9735577811826709,
                1.7510219094776742,
                -0.7554433396381258,
                1.7530462224490388,
                3.2038955832040683
            ]
        }
    ]
}