{
    "goal": {
        "global_pose": {
            "orientation": {
                "w": 0.7047431468963623,
                "x": -0.7094548344612122,
                "y": 0.0024358443915843964,
                "z": -0.0022348060738295317
            },
            "position": {
                "x": 0.6094750761985779,
                "y": 0.3671506643295288,
                "z": 0.19426114857196808
            }
        },
        "name": "move_to_magneteinheit_A"
    },
    "id": "KPIECE_move_to_magneteinheit_A_131",
    "joint_names": [
        "shoulder_pan_joint",
        "shoulder_lift_joint",
        "elbow_joint",
        "wrist_1_joint",
        "wrist_2_joint",
        "wrist_3_joint"
    ],
    "metrics": {
        "cart_traj_len": 1.052784086152452,
        "distance_elbow_joint": 0.40085291978334747,
        "distance_shoulder_lift_joint": 0.35643199455837604,
        "distance_shoulder_pan_joint": 1.2413602535347061,
        "distance_wrist_1_joint": 2.290914039272196,
        "distance_wrist_2_joint": 1.6934908930895372,
        "distance_wrist_3_joint": 1.1545885573958956,
        "smoothness": 5.329070560397964e-16,
        "time": 0.111878269,
        "traj_len": 2.6716359515536654,
        "weighted_distance": 3.6648629858137376
    },
    "planner": "KPIECE",
    "start": {
        "state": {
            "elbow_joint": 1.5739458966750683,
            "shoulder_lift_joint": -1.4977259741207325,
            "shoulder_pan_joint": -1.1188672016454206,
            "wrist_1_joint": 1.494575848278785,
            "wrist_2_joint": -1.5706037134824402,
            "wrist_3_joint": -2.0226957942261072
        }
    },
    "waypoints": [
        {
            "positions": [
                -1.1188672016454206,
                -1.4977259741207325,
                1.5739458966750683,
                1.494575848278785,
                -1.5706037134824402,
                -2.0226957942261072
            ]
        },
        {
            "positions": [
                -1.0535324514593836,
                -1.4789663954597654,
                1.5950434187689286,
                1.3740014251591957,
                -1.4814726138461487,
                -2.0834636130364177
            ]
        },
        {
            "positions": [
                -0.9881977012733463,
                -1.4602068167987983,
                1.6161409408627891,
                1.2534270020396066,
                -1.3923415142098574,
                -2.1442314318467277
            ]
        },
        {
            "positions": [
                -0.9228629510873092,
                -1.441447238137831,
                1.6372384629566494,
                1.1328525789200172,
                -1.303210414573566,
                -2.204999250657038
            ]
        },
        {
            "positions": [
                -0.857528200901272,
                -1.4226876594768638,
                1.65833598505051,
                1.012278155800428,
                -1.2140793149372744,
                -2.2657670694673486
            ]
        },
        {
            "positions": [
                -0.7921934507152348,
                -1.4039280808158967,
                1.6794335071443702,
                0.8917037326808387,
                -1.124948215300983,
                -2.3265348882776586
            ]
        },
        {
            "positions": [
                -0.7268587005291977,
                -1.3851685021549296,
                1.7005310292382307,
                0.7711293095612495,
                -1.0358171156646918,
                -2.387302707087969
            ]
        },
        {
            "positions": [
                -0.6615239503431605,
                -1.3664089234939625,
                1.721628551332091,
                0.6505548864416602,
                -0.9466860160284002,
                -2.448070525898279
            ]
        },
        {
            "positions": [
                -0.5961892001571234,
                -1.3476493448329951,
                1.7427260734259515,
                0.5299804633220709,
                -0.8575549163921088,
                -2.5088383447085896
            ]
        },
        {
            "positions": [
                -0.5308544499710862,
                -1.328889766172028,
                1.7638235955198118,
                0.4094060402024817,
                -0.7684238167558174,
                -2.5696061635189
            ]
        },
        {
            "positions": [
                -0.46551969978504903,
                -1.310130187511061,
                1.7849211176136723,
                0.2888316170828924,
                -0.679292717119526,
                -2.63037398232921
            ]
        },
        {
            "positions": [
                -0.40018494959901174,
                -1.2913706088500938,
                1.8060186397075326,
                0.16825719396330308,
                -0.5901616174832345,
                -2.6911418011395205
            ]
        },
        {
            "positions": [
                -0.33485019941297467,
                -1.2726110301891267,
                1.827116161801393,
                0.04768277084371397,
                -0.5010305178469432,
                -2.7519096199498305
            ]
        },
        {
            "positions": [
                -0.2695154492269375,
                -1.2538514515281594,
                1.8482136838952534,
                -0.07289165227587557,
                -0.4118994182106517,
                -2.812677438760141
            ]
        },
        {
            "positions": [
                -0.20418069904090042,
                -1.2350918728671922,
                1.869311205989114,
                -0.19346607539546468,
                -0.32276831857436017,
                -2.8734452575704514
            ]
        },
        {
            "positions": [
                -0.13884594885486312,
                -1.2163322942062251,
                1.8904087280829742,
                -0.314040498515054,
                -0.23363721893806866,
                -2.934213076380762
            ]
        },
        {
            "positions": [
                -0.07351119866882616,
                -1.197572715545258,
                1.9115062501768345,
                -0.4346149216346431,
                -0.14450611930177737,
                -2.994980895191072
            ]
        },
        {
            "positions": [
                -0.008176448482788867,
                -1.178813136884291,
                1.932603772270695,
                -0.5551893447542324,
                -0.05537501966548586,
                -3.0557487140013824
            ]
        },
        {
            "positions": [
                0.057158301703248204,
                -1.1600535582233236,
                1.9537012943645555,
                -0.6757637678738215,
                0.03375607997080543,
                -3.1165165328116924
            ]
        },
        {
            "positions": [
                0.12249305188928544,
                -1.1412939795623565,
                1.9747988164584158,
                -0.7963381909934113,
                0.12288717960709684,
                -3.177284351622003
            ]
        }
    ]
}