{
    "goal": {
        "global_pose": {
            "orientation": {
                "w": 0.7031023502349854,
                "x": -0.7110244035720825,
                "y": 0.007748599164187908,
                "z": 0.005598929710686207
            },
            "position": {
                "x": 0.11585023208521307,
                "y": 0.44412534475326537,
                "z": 0.3711530566215515
            }
        },
        "name": "move_to_auspresseinheit_A"
    },
    "id": "KPIECE_move_to_auspresseinheit_A_115",
    "joint_names": [
        "shoulder_pan_joint",
        "shoulder_lift_joint",
        "elbow_joint",
        "wrist_1_joint",
        "wrist_2_joint",
        "wrist_3_joint"
    ],
    "metrics": {
        "cart_traj_len": 0.9462068883012078,
        "distance_elbow_joint": 0.5097699777273306,
        "distance_shoulder_lift_joint": 3.038873965783142,
        "distance_shoulder_pan_joint": 1.0458300503609996,
        "distance_wrist_1_joint": 2.442495317464187,
        "distance_wrist_2_joint": 3.734884632341169,
        "distance_wrist_3_joint": 0.4681056748210386,
        "smoothness": 0.9253573131435383,
        "time": 0.7449147749999999,
        "traj_len": 3.3526049004464973,
        "weighted_distance": 4.284104447599907
    },
    "planner": "KPIECE",
    "start": {
        "state": {
            "elbow_joint": 2.4225747245308327,
            "shoulder_lift_joint": -1.373653427065438,
            "shoulder_pan_joint": -0.33786330853087027,
            "wrist_1_joint": -1.0288602302712604,
            "wrist_2_joint": 1.23302299562683,
            "wrist_3_joint": -3.094021725338297
        }
    },
    "waypoints": [
        {
            "positions": [
                -0.33786330853087027,
                -1.373653427065438,
                2.4225747245308327,
                -1.0288602302712604,
                1.23302299562683,
                -3.094021725338297
            ]
        },
        {
            "positions": [
                -0.33594713743667787,
                -1.5014625831010244,
                2.4398795182618813,
                -1.0963725527721304,
                1.0813112123602067,
                -3.111724599782001
            ]
        },
        {
            "positions": [
                -0.33403096634248547,
                -1.629271739136611,
                2.4571843119929295,
                -1.1638848752730004,
                0.9295994290935832,
                -3.1294274742257047
            ]
        },
        {
            "positions": [
                -0.33211479524829307,
                -1.7570808951721975,
                2.474489105723978,
                -1.2313971977738707,
                0.7778876458269599,
                -3.1471303486694087
            ]
        },
        {
            "positions": [
                -0.3301986241541007,
                -1.884890051207784,
                2.491793899455027,
                -1.2989095202747407,
                0.6261758625603365,
                -3.164833223113112
            ]
        },
        {
            "positions": [
                -0.3282824530599083,
                -2.0126992072433705,
                2.5090986931860755,
                -1.3664218427756107,
                0.47446407929371315,
                -3.182536097556816
            ]
        },
        {
            "positions": [
                -0.3263662819657159,
                -2.1405083632789568,
                2.5264034869171237,
                -1.4339341652764808,
                0.32275229602708977,
                -3.2002389720005198
            ]
        },
        {
            "positions": [
                -0.3244501108715234,
                -2.2683175193145435,
                2.5437082806481723,
                -1.501446487777351,
                0.1710405127604664,
                -3.2179418464442238
            ]
        },
        {
            "positions": [
                -0.322533939777331,
                -2.3961266753501302,
                2.561013074379221,
                -1.5689588102782208,
                0.019328729493843122,
                -3.2356447208879278
            ]
        },
        {
            "positions": [
                -0.3206177686831386,
                -2.5239358313857165,
                2.578317868110269,
                -1.636471132779091,
                -0.13238305377278037,
                -3.2533475953316313
            ]
        },
        {
            "positions": [
                -0.31870159758894623,
                -2.6517449874213033,
                2.595622661841318,
                -1.703983455279961,
                -0.28409483703940364,
                -3.2710504697753353
            ]
        },
        {
            "positions": [
                -0.31678542649475383,
                -2.77955414345689,
                2.6129274555723665,
                -1.7714957777808311,
                -0.4358066203060271,
                -3.288753344219039
            ]
        },
        {
            "positions": [
                -0.31486925540056143,
                -2.9073632994924763,
                2.630232249303415,
                -1.8390081002817014,
                -0.5875184035726504,
                -3.306456218662743
            ]
        },
        {
            "positions": [
                -0.31295308430636903,
                -3.0351724555280626,
                2.6475370430344634,
                -1.9065204227825714,
                -0.7392301868392739,
                -3.3241590931064464
            ]
        },
        {
            "positions": [
                -0.31103691321217664,
                -3.1629816115636493,
                2.664841836765512,
                -1.9740327452834414,
                -0.890941970105897,
                -3.3418619675501504
            ]
        },
        {
            "positions": [
                -0.24310333620935626,
                -3.0796785594779874,
                2.6470083123993353,
                -1.8742112251199743,
                -0.7835473256653342,
                -3.3271776053762045
            ]
        },
        {
            "positions": [
                -0.17516975920653585,
                -2.996375507392325,
                2.6291747880331586,
                -1.7743897049565074,
                -0.6761526812247716,
                -3.312493243202259
            ]
        },
        {
            "positions": [
                -0.10723618220371545,
                -2.913072455306663,
                2.611341263666982,
                -1.6745681847930403,
                -0.5687580367842088,
                -3.2978088810283133
            ]
        },
        {
            "positions": [
                -0.03930260520089507,
                -2.8297694032210012,
                2.593507739300805,
                -1.5747466646295731,
                -0.46136339234364604,
                -3.283124518854368
            ]
        },
        {
            "positions": [
                0.02863097180192531,
                -2.746466351135339,
                2.575674214934628,
                -1.4749251444661062,
                -0.3539687479030833,
                -3.268440156680422
            ]
        },
        {
            "positions": [
                0.09656454880474574,
                -2.663163299049677,
                2.5578406905684514,
                -1.375103624302639,
                -0.2465741034625205,
                -3.253755794506476
            ]
        },
        {
            "positions": [
                0.16449812580756612,
                -2.5798602469640146,
                2.5400071662022747,
                -1.2752821041391722,
                -0.13917945902195772,
                -3.2390714323325307
            ]
        },
        {
            "positions": [
                0.2324317028103865,
                -2.4965571948783527,
                2.522173641836098,
                -1.1754605839757049,
                -0.03178481458139504,
                -3.224387070158585
            ]
        },
        {
            "positions": [
                0.3003652798132068,
                -2.413254142792691,
                2.5043401174699214,
                -1.075639063812238,
                0.07560982985916775,
                -3.2097027079846394
            ]
        },
        {
            "positions": [
                0.36829885681602725,
                -2.329951090707029,
                2.4865065931037447,
                -0.9758175436487709,
                0.18300447429973044,
                -3.1950183458106935
            ]
        },
        {
            "positions": [
                0.4362324338188476,
                -2.2466480386213665,
                2.468673068737568,
                -0.8759960234853039,
                0.2903991187402931,
                -3.1803339836367477
            ]
        },
        {
            "positions": [
                0.5041660108216681,
                -2.163344986535704,
                2.450839544371391,
                -0.7761745033218368,
                0.397793763180856,
                -3.1656496214628023
            ]
        },
        {
            "positions": [
                0.5720995878244884,
                -2.0800419344500423,
                2.433006020005214,
                -0.6763529831583697,
                0.5051884076214189,
                -3.1509652592888564
            ]
        },
        {
            "positions": [
                0.6400331648273089,
                -1.9967388823643804,
                2.4151724956390375,
                -0.5765314629949028,
                0.6125830520619816,
                -3.136280897114911
            ]
        },
        {
            "positions": [
                0.7079667418301293,
                -1.9134358302787182,
                2.3973389712728608,
                -0.47670994283143553,
                0.7199776965025442,
                -3.121596534940965
            ]
        }
    ]
}