{
    "goal": {
        "global_pose": {
            "orientation": {
                "w": 0.7047431493862688,
                "x": -0.7094548369677653,
                "y": 0.0024358444001904,
                "z": -0.0022348060817251984
            },
            "position": {
                "x": -0.39052492380142206,
                "y": 0.3671506643295288,
                "z": 0.19426114857196808
            }
        },
        "name": "move_to_magneteinheit_D"
    },
    "id": "KPIECE_move_to_magneteinheit_D_97",
    "joint_names": [
        "shoulder_pan_joint",
        "shoulder_lift_joint",
        "elbow_joint",
        "wrist_1_joint",
        "wrist_2_joint",
        "wrist_3_joint"
    ],
    "metrics": {
        "cart_traj_len": 4.581057455854052,
        "distance_elbow_joint": 3.2671597806572503,
        "distance_shoulder_lift_joint": 1.6772735345493697,
        "distance_shoulder_pan_joint": 3.0422509094477475,
        "distance_wrist_1_joint": 1.5616369045633651,
        "distance_wrist_2_joint": 2.4903642810903204,
        "distance_wrist_3_joint": 3.0831972843932665,
        "smoothness": 0.42513250906020295,
        "time": 0.273882044,
        "traj_len": 3.8886864999253046,
        "weighted_distance": 5.033912836863738
    },
    "planner": "KPIECE",
    "start": {
        "state": {
            "elbow_joint": 0.7495348899011973,
            "shoulder_lift_joint": -0.6476975780737697,
            "shoulder_pan_joint": -2.711696901376276,
            "wrist_1_joint": -0.07506478080974305,
            "wrist_2_joint": 0.4329665971545858,
            "wrist_3_joint": 3.1361499051832524
        }
    },
    "waypoints": [
        {
            "positions": [
                -2.711696901376276,
                -0.6476975780737697,
                0.7495348899011973,
                -0.07506478080974305,
                0.4329665971545858,
                3.1361499051832524
            ]
        },
        {
            "positions": [
                -2.7151923222049676,
                -0.6581369978378371,
                0.7389769567947974,
                -0.0556253277667539,
                0.527668240101498,
                2.9533340761942757
            ]
        },
        {
            "positions": [
                -2.7127172734337233,
                -0.6736342205615862,
                0.7230913244012807,
                -0.03165837264890471,
                0.6396711922243117,
                2.736393040512132
            ]
        },
        {
            "positions": [
                -2.710242224662479,
                -0.6891314432853354,
                0.707205692007764,
                -0.007691417531055525,
                0.7516741443471254,
                2.5194520048299887
            ]
        },
        {
            "positions": [
                -2.707767175891235,
                -0.7046286660090845,
                0.6913200596142471,
                0.016275537586793662,
                0.8636770964699391,
                2.3025109691478454
            ]
        },
        {
            "positions": [
                -2.7052921271199906,
                -0.7201258887328336,
                0.6754344272207304,
                0.04024249270464285,
                0.9756800485927528,
                2.0855699334657016
            ]
        },
        {
            "positions": [
                -2.702817078348746,
                -0.7356231114565828,
                0.6595487948272137,
                0.06420944782249204,
                1.0876830007155665,
                1.868628897783558
            ]
        },
        {
            "positions": [
                -2.700342029577502,
                -0.7511203341803319,
                0.643663162433697,
                0.08817640294034122,
                1.19968595283838,
                1.6516878621014146
            ]
        },
        {
            "positions": [
                -2.697866980806258,
                -0.766617556904081,
                0.6277775300401802,
                0.11214335805819041,
                1.3116889049611937,
                1.4347468264192709
            ]
        },
        {
            "positions": [
                -2.6953919320350135,
                -0.7821147796278302,
                0.6118918976466635,
                0.1361103131760396,
                1.4236918570840076,
                1.2178057907371276
            ]
        },
        {
            "positions": [
                -2.692916883263769,
                -0.7976120023515793,
                0.5960062652531468,
                0.16007726829388877,
                1.5356948092068212,
                1.0008647550549838
            ]
        },
        {
            "positions": [
                -2.553086667480981,
                -0.8279940107000108,
                0.5172280703476569,
                0.2086523645940745,
                1.4911694599719938,
                0.9608101233486407
            ]
        },
        {
            "positions": [
                -2.4132564516981936,
                -0.8583760190484424,
                0.43844987544216707,
                0.2572274608942602,
                1.4466441107371661,
                0.9207554916422976
            ]
        },
        {
            "positions": [
                -2.2734262359154056,
                -0.8887580273968739,
                0.35967168053667725,
                0.30580255719444593,
                1.4021187615023387,
                0.8807008599359545
            ]
        },
        {
            "positions": [
                -2.1335960201326176,
                -0.9191400357453055,
                0.2808934856311874,
                0.35437765349463163,
                1.3575934122675113,
                0.8406462282296113
            ]
        },
        {
            "positions": [
                -1.9937658043498299,
                -0.9495220440937371,
                0.2021152907256975,
                0.4029527497948173,
                1.3130680630326836,
                0.8005915965232682
            ]
        },
        {
            "positions": [
                -1.853935588567042,
                -0.9799040524421686,
                0.12333709582020769,
                0.45152784609500307,
                1.2685427137978562,
                0.7605369648169251
            ]
        },
        {
            "positions": [
                -1.7141053727842541,
                -1.0102860607906001,
                0.044558900914717814,
                0.5001029423951888,
                1.2240173645630288,
                0.720482333110582
            ]
        },
        {
            "positions": [
                -1.5742751570014664,
                -1.0406680691390318,
                -0.03421929399077206,
                0.5486780386953745,
                1.1794920153282011,
                0.6804277014042388
            ]
        },
        {
            "positions": [
                -1.4344449412186784,
                -1.0710500774874634,
                -0.11299748889626193,
                0.5972531349955602,
                1.1349666660933737,
                0.6403730696978958
            ]
        },
        {
            "positions": [
                -1.2946147254358906,
                -1.1014320858358948,
                -0.1917756838017518,
                0.645828231295746,
                1.0904413168585463,
                0.6003184379915526
            ]
        },
        {
            "positions": [
                -1.1547845096531026,
                -1.1318140941843264,
                -0.27055387870724157,
                0.6944033275959317,
                1.0459159676237189,
                0.5602638062852094
            ]
        },
        {
            "positions": [
                -1.0149542938703149,
                -1.162196102532758,
                -0.34933207361273144,
                0.7429784238961173,
                1.0013906183888914,
                0.5202091745788664
            ]
        },
        {
            "positions": [
                -0.8751240780875269,
                -1.1925781108811897,
                -0.4281102685182214,
                0.7915535201963031,
                0.9568652691540637,
                0.48015454287252324
            ]
        },
        {
            "positions": [
                -0.735293862304739,
                -1.2229601192296211,
                -0.5068884634237112,
                0.8401286164964888,
                0.9123399199192362,
                0.44009991116618
            ]
        },
        {
            "positions": [
                -0.6787545016554628,
                -1.298278002002469,
                -0.6304008730781566,
                0.8798853839790498,
                0.8605130921141447,
                0.42058525265580304
            ]
        },
        {
            "positions": [
                -0.6222151410061867,
                -1.3735958847753167,
                -0.753913282732602,
                0.9196421514616108,
                0.8086862643090532,
                0.40107059414542606
            ]
        },
        {
            "positions": [
                -0.5656757803569105,
                -1.4489137675481645,
                -0.8774256923870476,
                0.9593989189441717,
                0.7568594365039616,
                0.3815559356350491
            ]
        },
        {
            "positions": [
                -0.5091364197076342,
                -1.5242316503210125,
                -1.000938102041493,
                0.9991556864267327,
                0.7050326086988701,
                0.36204127712467216
            ]
        },
        {
            "positions": [
                -0.4525970590583581,
                -1.5995495330938603,
                -1.1244505116959385,
                1.0389124539092935,
                0.6532057808937786,
                0.3425266186142952
            ]
        },
        {
            "positions": [
                -0.3960576984090819,
                -1.674867415866708,
                -1.2479629213503838,
                1.0786692213918545,
                0.601378953088687,
                0.3230119601039182
            ]
        },
        {
            "positions": [
                -0.3395183377598058,
                -1.7501852986395559,
                -1.371475331004829,
                1.1184259888744155,
                0.5495521252835955,
                0.3034973015935412
            ]
        },
        {
            "positions": [
                -0.28297897711052955,
                -1.8255031814124036,
                -1.4949877406592749,
                1.1581827563569764,
                0.49772529747850397,
                0.28398264308316423
            ]
        },
        {
            "positions": [
                -0.22643961646125343,
                -1.9008210641852514,
                -1.6185001503137202,
                1.1979395238395374,
                0.44589846967341246,
                0.2644679845727873
            ]
        },
        {
            "positions": [
                -0.1699002558119772,
                -1.9761389469580992,
                -1.7420125599681657,
                1.2376962913220984,
                0.3940716418683209,
                0.2449533260624103
            ]
        },
        {
            "positions": [
                -0.11336089516270098,
                -2.051456829730947,
                -1.865524969622611,
                1.2774530588046593,
                0.3422448140632294,
                0.22543866755203332
            ]
        },
        {
            "positions": [
                -0.056821534513424754,
                -2.126774712503795,
                -1.9890373792770566,
                1.3172098262872203,
                0.29041798625813786,
                0.20592400904165634
            ]
        },
        {
            "positions": [
                -0.0002821738641486937,
                -2.2020925952766426,
                -2.112549788931502,
                1.3569665937697812,
                0.23859115845304635,
                0.18640935053127938
            ]
        },
        {
            "positions": [
                0.03487174888141126,
                -2.2514469976708202,
                -2.284257972899505,
                1.3460025565897389,
                0.24422244520536093,
                0.19291858180753885
            ]
        },
        {
            "positions": [
                0.07002567162697121,
                -2.300801400064998,
                -2.455966156867508,
                1.3350385194096965,
                0.24985373195767552,
                0.19942781308379828
            ]
        },
        {
            "positions": [
                -0.056743075766587825,
                -2.2887165437859274,
                -2.4251367899232354,
                1.3888772472215747,
                0.210218809567835,
                0.13920867948941112
            ]
        },
        {
            "positions": [
                -0.18351182316014686,
                -2.2766316875068564,
                -2.3943074229789625,
                1.4427159750334528,
                0.1705838871779945,
                0.07898954589502397
            ]
        }
    ]
}