{
    "goal": {
        "global_pose": {
            "orientation": {
                "w": 0.005598929693374612,
                "x": 0.007748599140229565,
                "y": 0.7110244013736278,
                "z": -0.7031023480610252
            },
            "position": {
                "x": -0.8858502320852131,
                "y": -0.7141253447532654,
                "z": 0.3711530566215515
            }
        },
        "name": "move_to_auspresseinheit_C"
    },
    "id": "KPIECE_move_to_auspresseinheit_C_43",
    "joint_names": [
        "shoulder_pan_joint",
        "shoulder_lift_joint",
        "elbow_joint",
        "wrist_1_joint",
        "wrist_2_joint",
        "wrist_3_joint"
    ],
    "metrics": {
        "cart_traj_len": 0.492113015676374,
        "distance_elbow_joint": 0.9916923449090652,
        "distance_shoulder_lift_joint": 0.32181955464079504,
        "distance_shoulder_pan_joint": 0.2557269241450215,
        "distance_wrist_1_joint": 0.6567968039406343,
        "distance_wrist_2_joint": 1.3207581498129874,
        "distance_wrist_3_joint": 0.05360790908110813,
        "smoothness": 3.2297397335745243e-16,
        "time": 0.624896123,
        "traj_len": 1.8974724468433295,
        "weighted_distance": 2.3843599683029093
    },
    "planner": "KPIECE",
    "start": {
        "state": {
            "elbow_joint": 1.752795957773711,
            "shoulder_lift_joint": -0.9740617694225064,
            "shoulder_pan_joint": -2.967991417825858,
            "wrist_1_joint": -0.7595177689806859,
            "wrist_2_joint": 1.7443932448377395,
            "wrist_3_joint": 3.199131542505932
        }
    },
    "waypoints": [
        {
            "positions": [
                -2.967991417825858,
                -0.9740617694225064,
                1.752795957773711,
                -0.7595177689806859,
                1.7443932448377395,
                3.199131542505932
            ]
        },
        {
            "positions": [
                -2.942418725411356,
                -0.9418798139584269,
                1.6536267232828046,
                -0.6938380885866224,
                1.6123174298564407,
                3.193770751597821
            ]
        },
        {
            "positions": [
                -2.9168460329968537,
                -0.9096978584943475,
                1.554457488791898,
                -0.6281584081925591,
                1.480241614875142,
                3.1884099606897105
            ]
        },
        {
            "positions": [
                -2.8912733405823516,
                -0.8775159030302679,
                1.4552882543009915,
                -0.5624787277984956,
                1.3481657998938432,
                3.1830491697816
            ]
        },
        {
            "positions": [
                -2.8657006481678495,
                -0.8453339475661884,
                1.356119019810085,
                -0.49679904740443215,
                1.2160899849125446,
                3.177688378873489
            ]
        },
        {
            "positions": [
                -2.8401279557533474,
                -0.8131519921021089,
                1.2569497853191784,
                -0.43111936701036874,
                1.0840141699312458,
                3.172327587965378
            ]
        },
        {
            "positions": [
                -2.814555263338845,
                -0.7809700366380294,
                1.1577805508282721,
                -0.3654396866163053,
                0.951938354949947,
                3.1669667970572672
            ]
        },
        {
            "positions": [
                -2.7889825709243428,
                -0.7487880811739499,
                1.0586113163373656,
                -0.2997600062222419,
                0.8198625399686483,
                3.1616060061491567
            ]
        },
        {
            "positions": [
                -2.7634098785098407,
                -0.7166061257098704,
                0.9594420818464588,
                -0.2340803258281784,
                0.6877867249873495,
                3.1562452152410456
            ]
        },
        {
            "positions": [
                -2.7378371860953385,
                -0.6844241702457909,
                0.8602728473555524,
                -0.16840064543411504,
                0.5557109100060507,
                3.1508844243329346
            ]
        },
        {
            "positions": [
                -2.7122644936808364,
                -0.6522422147817114,
                0.7611036128646459,
                -0.10272096504005153,
                0.42363509502475205,
                3.145523633424824
            ]
        }
    ]
}