{
    "goal": {
        "global_pose": {
            "orientation": {
                "w": 0.5084816217422485,
                "x": -0.49083608388900757,
                "y": 0.5182115435600281,
                "z": -0.4816462993621826
            },
            "position": {
                "x": 0.5540239810943604,
                "y": 0.030875300988554955,
                "z": 0.16403168439865112
            }
        },
        "name": "move_to_storage_A"
    },
    "id": "KPIECE_move_to_storage_A_47",
    "joint_names": [
        "shoulder_pan_joint",
        "shoulder_lift_joint",
        "elbow_joint",
        "wrist_1_joint",
        "wrist_2_joint",
        "wrist_3_joint"
    ],
    "metrics": {
        "cart_traj_len": 0.35344156174575997,
        "distance_elbow_joint": 0.45119329102441563,
        "distance_shoulder_lift_joint": 0.23449546974313207,
        "distance_shoulder_pan_joint": 0.4610526376253832,
        "distance_wrist_1_joint": 0.24328555153276066,
        "distance_wrist_2_joint": 1.1049695092481056,
        "distance_wrist_3_joint": 0.10434096259288017,
        "smoothness": 0.0,
        "time": 0.031395236,
        "traj_len": 1.612246079780217,
        "weighted_distance": 2.0386942899153135
    },
    "planner": "KPIECE",
    "start": {
        "state": {
            "elbow_joint": 1.9715474177455299,
            "shoulder_lift_joint": -1.139484666580328,
            "shoulder_pan_joint": 0.12281154398918248,
            "wrist_1_joint": -0.7804687475355282,
            "wrist_2_joint": 0.12958649657246987,
            "wrist_3_joint": -3.1924925159053466
        }
    },
    "waypoints": [
        {
            "positions": [
                0.12281154398918248,
                -1.139484666580328,
                1.9715474177455299,
                -0.7804687475355282,
                0.12958649657246987,
                -3.1924925159053466
            ]
        },
        {
            "positions": [
                0.0569468814712706,
                -1.1729840194007755,
                2.036003602177589,
                -0.8152238263259226,
                0.28743928360791354,
                -3.1775866641063635
            ]
        },
        {
            "positions": [
                -0.008917781046641288,
                -1.206483372221223,
                2.100459786609649,
                -0.8499789051163169,
                0.4452920706433572,
                -3.162680812307381
            ]
        },
        {
            "positions": [
                -0.07478244356455316,
                -1.2399827250416704,
                2.164915971041708,
                -0.8847339839067113,
                0.6031448576788009,
                -3.147774960508398
            ]
        },
        {
            "positions": [
                -0.14064710608246506,
                -1.2734820778621176,
                2.2293721554737673,
                -0.9194890626971057,
                0.7609976447142446,
                -3.132869108709415
            ]
        },
        {
            "positions": [
                -0.20651176860037695,
                -1.3069814306825651,
                2.2938283399058266,
                -0.9542441414875,
                0.9188504317496883,
                -3.117963256910432
            ]
        },
        {
            "positions": [
                -0.2723764311182888,
                -1.3404807835030126,
                2.3582845243378863,
                -0.9889992202778944,
                1.076703218785132,
                -3.1030574051114495
            ]
        },
        {
            "positions": [
                -0.3382410936362007,
                -1.37398013632346,
                2.4227407087699455,
                -1.0237542990682889,
                1.2345560058205756,
                -3.0881515533124664
            ]
        }
    ]
}