{
    "goal": {
        "global_pose": {
            "orientation": {
                "w": -0.00223480608172531,
                "x": 0.0024358444001904467,
                "y": 0.7094548369677653,
                "z": -0.704743149386269
            },
            "position": {
                "x": 0.6205249238014221,
                "y": -0.6371506643295288,
                "z": 0.19426114857196808
            }
        },
        "name": "move_to_magneteinheit_B"
    },
    "id": "KPIECE_move_to_magneteinheit_B_94",
    "joint_names": [
        "shoulder_pan_joint",
        "shoulder_lift_joint",
        "elbow_joint",
        "wrist_1_joint",
        "wrist_2_joint",
        "wrist_3_joint"
    ],
    "metrics": {
        "cart_traj_len": 4.002091758508165,
        "distance_elbow_joint": 5.01508340669209,
        "distance_shoulder_lift_joint": 2.1754631779398417,
        "distance_shoulder_pan_joint": 2.63537140706425,
        "distance_wrist_1_joint": 2.2941535830979722,
        "distance_wrist_2_joint": 1.1807519686393622,
        "distance_wrist_3_joint": 1.7813311904091105,
        "smoothness": 0.4474698144751936,
        "time": 0.189987339,
        "traj_len": 3.8835749939768935,
        "weighted_distance": 4.703160922868596
    },
    "planner": "KPIECE",
    "start": {
        "state": {
            "elbow_joint": 2.3935871308073637,
            "shoulder_lift_joint": -1.9085141043777403,
            "shoulder_pan_joint": 0.7066247067284167,
            "wrist_1_joint": -0.46782909355067076,
            "wrist_2_joint": 0.7096259085804283,
            "wrist_3_joint": -3.1358149275257428
        }
    },
    "waypoints": [
        {
            "positions": [
                0.7066247067284167,
                -1.9085141043777403,
                2.3935871308073637,
                -0.46782909355067076,
                0.7096259085804283,
                -3.1358149275257428
            ]
        },
        {
            "positions": [
                0.6804873501385974,
                -1.9573114123726105,
                2.426145884453505,
                -0.5446722154821869,
                0.7107286613094564,
                -3.0545107805662584
            ]
        },
        {
            "positions": [
                0.6543499935487781,
                -2.0061087203674806,
                2.458704638099646,
                -0.621515337413703,
                0.7118314140384847,
                -2.9732066336067735
            ]
        },
        {
            "positions": [
                0.6282126369589588,
                -2.054906028362351,
                2.4912633917457874,
                -0.6983584593452191,
                0.7129341667675129,
                -2.891902486647289
            ]
        },
        {
            "positions": [
                0.5890177691601042,
                -2.1117905328654674,
                2.5231445196630107,
                -0.8070420203403357,
                0.7127346898697086,
                -2.780530044393239
            ]
        },
        {
            "positions": [
                0.5498229013612494,
                -2.168675037368584,
                2.5550256475802344,
                -0.9157255813354523,
                0.7125352129719043,
                -2.6691576021391885
            ]
        },
        {
            "positions": [
                0.5132055730694914,
                -2.103835385756669,
                2.439815008001405,
                -0.9918297986669032,
                0.6945283986650403,
                -2.6267603834409137
            ]
        },
        {
            "positions": [
                0.47658824477773354,
                -2.0389957341447538,
                2.324604368422576,
                -1.0679340159983541,
                0.6765215843581766,
                -2.5843631647426393
            ]
        },
        {
            "positions": [
                0.4399709164859755,
                -1.9741560825328388,
                2.2093937288437466,
                -1.1440382333298051,
                0.6585147700513126,
                -2.5419659460443644
            ]
        },
        {
            "positions": [
                0.40335358819421757,
                -1.9093164309209236,
                2.0941830892649174,
                -1.220142450661256,
                0.6405079557444489,
                -2.49956872734609
            ]
        },
        {
            "positions": [
                0.3667362599024596,
                -1.8444767793090084,
                1.9789724496860879,
                -1.296246667992707,
                0.622501141437585,
                -2.457171508647815
            ]
        },
        {
            "positions": [
                0.4169246940024506,
                -1.8117087626421302,
                1.7851465075340376,
                -1.3661618796558725,
                0.5882333096226073,
                -2.445294565260464
            ]
        },
        {
            "positions": [
                0.46711312810244154,
                -1.7789407459752518,
                1.591320565381987,
                -1.4360770913190384,
                0.5539654778076297,
                -2.433417621873113
            ]
        },
        {
            "positions": [
                0.5173015622024325,
                -1.7461727293083735,
                1.397494623229937,
                -1.505992302982204,
                0.5196976459926521,
                -2.4215406784857616
            ]
        },
        {
            "positions": [
                0.5674899963024235,
                -1.7134047126414953,
                1.2036686810778865,
                -1.5759075146453698,
                0.4854298141776745,
                -2.4096637350984103
            ]
        },
        {
            "positions": [
                0.6176784304024143,
                -1.680636695974617,
                1.0098427389258362,
                -1.6458227263085354,
                0.45116198236269683,
                -2.3977867917110594
            ]
        },
        {
            "positions": [
                0.6678668645024053,
                -1.6478686793077388,
                0.8160167967737859,
                -1.715737937971701,
                0.4168941505477192,
                -2.385909848323708
            ]
        },
        {
            "positions": [
                0.7180552986023963,
                -1.6151006626408604,
                0.6221908546217354,
                -1.7856531496348669,
                0.3826263187327416,
                -2.374032904936357
            ]
        },
        {
            "positions": [
                0.7682437327023872,
                -1.5823326459739822,
                0.4283649124696851,
                -1.8555683612980325,
                0.348358486917764,
                -2.3621559615490058
            ]
        },
        {
            "positions": [
                0.8184321668023782,
                -1.549564629307104,
                0.23453897031763482,
                -1.9254835729611983,
                0.31409065510278633,
                -2.3502790181616544
            ]
        },
        {
            "positions": [
                0.8686206009023691,
                -1.5167966126402255,
                0.04071302816558453,
                -1.995398784624364,
                0.2798228232878087,
                -2.3384020747743035
            ]
        },
        {
            "positions": [
                0.9188090350023602,
                -1.4840285959733472,
                -0.15311291398646598,
                -2.0653139962875295,
                0.24555499147283105,
                -2.326525131386952
            ]
        },
        {
            "positions": [
                0.9689974691023511,
                -1.451260579306469,
                -0.34693885613851605,
                -2.1352292079506956,
                0.2112871596578535,
                -2.314648187999601
            ]
        },
        {
            "positions": [
                1.019185903202342,
                -1.4184925626395906,
                -0.5407647982905666,
                -2.205144419613861,
                0.17701932784287583,
                -2.30277124461225
            ]
        },
        {
            "positions": [
                1.069374337302333,
                -1.3857245459727126,
                -0.7345907404426171,
                -2.275059631277027,
                0.14275149602789827,
                -2.2908943012248986
            ]
        },
        {
            "positions": [
                1.119562771402324,
                -1.352956529305834,
                -0.9284166825946676,
                -2.3449748429401924,
                0.10848366421292055,
                -2.2790173578375477
            ]
        },
        {
            "positions": [
                1.169751205502315,
                -1.3201885126389559,
                -1.1222426247467177,
                -2.414890054603358,
                0.07421583239794305,
                -2.2671404144501963
            ]
        },
        {
            "positions": [
                1.219939639602306,
                -1.2874204959720776,
                -1.3160685668987682,
                -2.484805266266524,
                0.039948000582965326,
                -2.255263471062845
            ]
        },
        {
            "positions": [
                1.2701280737022969,
                -1.2546524793051992,
                -1.5098945090508182,
                -2.5547204779296893,
                0.005680168767987714,
                -2.243386527675494
            ]
        },
        {
            "positions": [
                1.3203165078022878,
                -1.221884462638321,
                -1.7037204512028685,
                -2.6246356895928553,
                -0.02858766304698991,
                -2.2315095842881427
            ]
        },
        {
            "positions": [
                1.4578856009266346,
                -1.3149162266698746,
                -1.7369987235374431,
                -2.621601258588581,
                -0.0675512523736494,
                -2.296828944136535
            ]
        },
        {
            "positions": [
                1.5954546940509813,
                -1.4079479907014285,
                -1.7702769958720177,
                -2.6185668275843064,
                -0.10651484170030888,
                -2.3621483039849274
            ]
        },
        {
            "positions": [
                1.7330237871753282,
                -1.5009797547329822,
                -1.8035552682065923,
                -2.615532396580032,
                -0.14547843102696836,
                -2.42746766383332
            ]
        },
        {
            "positions": [
                1.870592880299675,
                -1.5940115187645358,
                -1.8368335405411669,
                -2.6124979655757574,
                -0.18444202035362783,
                -2.492787023681712
            ]
        },
        {
            "positions": [
                2.0081619734240217,
                -1.6870432827960895,
                -1.8701118128757412,
                -2.609463534571483,
                -0.22340560968028733,
                -2.558106383530104
            ]
        },
        {
            "positions": [
                2.1457310665483686,
                -1.7800750468276432,
                -1.9033900852103158,
                -2.6064291035672085,
                -0.26236919900694683,
                -2.6234257433784967
            ]
        },
        {
            "positions": [
                2.2833001596727156,
                -1.873106810859197,
                -1.9366683575448904,
                -2.603394672562934,
                -0.30133278833360627,
                -2.688745103226889
            ]
        },
        {
            "positions": [
                2.420869252797062,
                -1.9661385748907507,
                -1.969946629879465,
                -2.6003602415586595,
                -0.34029637766026577,
                -2.7540644630752813
            ]
        },
        {
            "positions": [
                2.481206744632985,
                -2.022202964382327,
                -1.8877784767645847,
                -2.5720923568032616,
                -0.3713496691663905,
                -2.842682205171374
            ]
        },
        {
            "positions": [
                2.5415442364689076,
                -2.078267353873903,
                -1.8056103236497043,
                -2.5438244720478638,
                -0.40240296067251524,
                -2.9312999472674672
            ]
        },
        {
            "positions": [
                2.60188172830483,
                -2.1343317433654794,
                -1.723442170534824,
                -2.515556587292466,
                -0.4334562521786399,
                -3.0199176893635604
            ]
        },
        {
            "positions": [
                2.6622192201407526,
                -2.1903961328570554,
                -1.6412740174199436,
                -2.487288702537068,
                -0.46450954368476466,
                -3.108535431459653
            ]
        }
    ]
}