{
    "goal": {
        "global_pose": {
            "orientation": {
                "w": -0.4816463035849501,
                "x": 0.5182115481033762,
                "y": 0.4908360881923453,
                "z": -0.5084816262002911
            },
            "position": {
                "x": -0.8240239810943604,
                "y": -0.300875300988555,
                "z": 0.16403168439865112
            }
        },
        "name": "move_to_storage_C"
    },
    "id": "KPIECE_move_to_storage_C_149",
    "joint_names": [
        "shoulder_pan_joint",
        "shoulder_lift_joint",
        "elbow_joint",
        "wrist_1_joint",
        "wrist_2_joint",
        "wrist_3_joint"
    ],
    "metrics": {
        "cart_traj_len": 0.5769917350313747,
        "distance_elbow_joint": 0.2602920538216069,
        "distance_shoulder_lift_joint": 0.18846699342854367,
        "distance_shoulder_pan_joint": 0.49554568222704454,
        "distance_wrist_1_joint": 0.08743824094198938,
        "distance_wrist_2_joint": 1.064092820532053,
        "distance_wrist_3_joint": 0.060096052672819145,
        "smoothness": 2.5376526478085547e-16,
        "time": 0.07013033399999999,
        "traj_len": 1.4683091784852593,
        "weighted_distance": 1.8513927218296333
    },
    "planner": "KPIECE",
    "start": {
        "state": {
            "elbow_joint": 2.010868315001653,
            "shoulder_lift_joint": -1.1634956873357014,
            "shoulder_pan_joint": -2.4736205022346103,
            "wrist_1_joint": -0.8367026794713948,
            "wrist_2_joint": 0.6746043897044093,
            "wrist_3_joint": 3.1335220948105738
        }
    },
    "waypoints": [
        {
            "positions": [
                -2.4736205022346103,
                -1.1634956873357014,
                2.010868315001653,
                -0.8367026794713948,
                0.6746043897044093,
                3.1335220948105738
            ]
        },
        {
            "positions": [
                -2.556211449272451,
                -1.1320845217642774,
                1.9674863060313852,
                -0.8221296393143965,
                0.8519531931264182,
                3.143538103589377
            ]
        },
        {
            "positions": [
                -2.638802396310292,
                -1.1006733561928534,
                1.9241042970611175,
                -0.8075565991573983,
                1.029301996548427,
                3.1535541123681803
            ]
        },
        {
            "positions": [
                -2.7213933433481325,
                -1.0692621906214295,
                1.8807222880908496,
                -0.7929835590004001,
                1.206650799970436,
                3.163570121146983
            ]
        },
        {
            "positions": [
                -2.8039842903859733,
                -1.0378510250500057,
                1.8373402791205817,
                -0.7784105188434018,
                1.3839996033924447,
                3.1735861299257864
            ]
        },
        {
            "positions": [
                -2.886575237423814,
                -1.0064398594785817,
                1.793958270150314,
                -0.7638374786864036,
                1.5613484068144534,
                3.1836021387045896
            ]
        },
        {
            "positions": [
                -2.969166184461655,
                -0.9750286939071577,
                1.7505762611800462,
                -0.7492644385294054,
                1.7386972102364624,
                3.193618147483393
            ]
        }
    ]
}