{
    "goal": {
        "global_pose": {
            "orientation": {
                "w": 0.7047431468963623,
                "x": -0.7094548344612122,
                "y": 0.0024358443915843964,
                "z": -0.0022348060738295317
            },
            "position": {
                "x": 0.6094750761985779,
                "y": 0.3671506643295288,
                "z": 0.19426114857196808
            }
        },
        "name": "move_to_magneteinheit_A"
    },
    "id": "KPIECE_move_to_magneteinheit_A_103",
    "joint_names": [
        "shoulder_pan_joint",
        "shoulder_lift_joint",
        "elbow_joint",
        "wrist_1_joint",
        "wrist_2_joint",
        "wrist_3_joint"
    ],
    "metrics": {
        "cart_traj_len": 1.053005202141543,
        "distance_elbow_joint": 0.39942013822590616,
        "distance_shoulder_lift_joint": 0.3577974734160023,
        "distance_shoulder_pan_joint": 1.240982588114547,
        "distance_wrist_1_joint": 2.2787433429035837,
        "distance_wrist_2_joint": 1.7020286339792066,
        "distance_wrist_3_joint": 1.159587026153424,
        "smoothness": 0.0,
        "time": 0.104848195,
        "traj_len": 2.6718082271736256,
        "weighted_distance": 3.665856684593972
    },
    "planner": "KPIECE",
    "start": {
        "state": {
            "elbow_joint": 1.5739458966750683,
            "shoulder_lift_joint": -1.4977259741207325,
            "shoulder_pan_joint": -1.1188672016454206,
            "wrist_1_joint": 1.494575848278785,
            "wrist_2_joint": -1.5706037134824402,
            "wrist_3_joint": -2.0226957942261072
        }
    },
    "waypoints": [
        {
            "positions": [
                -1.1188672016454206,
                -1.4977259741207325,
                1.5739458966750683,
                1.494575848278785,
                -1.5706037134824402,
                -2.0226957942261072
            ]
        },
        {
            "positions": [
                -1.0535523285867603,
                -1.4788945281514692,
                1.5949680092132739,
                1.3746419881259648,
                -1.481023259062482,
                -2.083726690339445
            ]
        },
        {
            "positions": [
                -0.9882374555280999,
                -1.460063082182206,
                1.6159901217514796,
                1.2547081279731447,
                -1.3914428046425238,
                -2.1447575864527835
            ]
        },
        {
            "positions": [
                -0.9229225824694396,
                -1.4412316362129427,
                1.6370122342896851,
                1.1347742678203243,
                -1.3018623502225655,
                -2.2057884825661214
            ]
        },
        {
            "positions": [
                -0.8576077094107792,
                -1.4224001902436794,
                1.6580343468278906,
                1.0148404076675042,
                -1.2122818958026071,
                -2.2668193786794597
            ]
        },
        {
            "positions": [
                -0.7922928363521188,
                -1.403568744274416,
                1.6790564593660964,
                0.894906547514684,
                -1.122701441382649,
                -2.3278502747927976
            ]
        },
        {
            "positions": [
                -0.7269779632934584,
                -1.384737298305153,
                1.700078571904302,
                0.7749726873618639,
                -1.033120986962691,
                -2.388881170906136
            ]
        },
        {
            "positions": [
                -0.6616630902347981,
                -1.3659058523358896,
                1.7211006844425074,
                0.6550388272090436,
                -0.9435405325427325,
                -2.449912067019474
            ]
        },
        {
            "positions": [
                -0.5963482171761377,
                -1.3470744063666262,
                1.7421227969807132,
                0.5351049670562235,
                -0.8539600781227743,
                -2.510942963132812
            ]
        },
        {
            "positions": [
                -0.5310333441174773,
                -1.328242960397363,
                1.7631449095189187,
                0.4151711069034032,
                -0.7643796237028161,
                -2.57197385924615
            ]
        },
        {
            "positions": [
                -0.4657184710588169,
                -1.3094115144280998,
                1.7841670220571242,
                0.29523724675058305,
                -0.6747991692828579,
                -2.6330047553594884
            ]
        },
        {
            "positions": [
                -0.40040359800015646,
                -1.2905800684588364,
                1.80518913459533,
                0.17530338659776268,
                -0.5852187148628996,
                -2.6940356514728263
            ]
        },
        {
            "positions": [
                -0.3350887249414962,
                -1.271748622489573,
                1.8262112471335354,
                0.05536952644494275,
                -0.49563826044294146,
                -2.755066547586164
            ]
        },
        {
            "positions": [
                -0.26977385188283576,
                -1.2529171765203098,
                1.847233359671741,
                -0.06456433370787762,
                -0.40605780602298314,
                -2.8160974436995025
            ]
        },
        {
            "positions": [
                -0.20445897882417552,
                -1.2340857305510466,
                1.8682554722099465,
                -0.18449819386069777,
                -0.3164773516030248,
                -2.877128339812841
            ]
        },
        {
            "positions": [
                -0.13914410576551506,
                -1.2152542845817833,
                1.8892775847481522,
                -0.3044320540135179,
                -0.2268968971830665,
                -2.938159235926179
            ]
        },
        {
            "positions": [
                -0.07382923270685482,
                -1.19642283861252,
                1.9102996972863577,
                -0.42436591416633807,
                -0.1373164427631084,
                -2.9991901320395167
            ]
        },
        {
            "positions": [
                -0.008514359648194247,
                -1.1775913926432566,
                1.9313218098245635,
                -0.5442997743191584,
                -0.04773598834315007,
                -3.060221028152855
            ]
        },
        {
            "positions": [
                0.0568005134104661,
                -1.1587599466739935,
                1.9523439223627688,
                -0.6642336344719786,
                0.04184446607680803,
                -3.1212519242661934
            ]
        },
        {
            "positions": [
                0.12211538646912638,
                -1.1399285007047302,
                1.9733660349009745,
                -0.7841674946247988,
                0.13142492049676638,
                -3.1822828203795313
            ]
        }
    ]
}