{
    "goal": {
        "global_pose": {
            "orientation": {
                "w": 0.7031023502349854,
                "x": -0.7110244035720825,
                "y": 0.007748599164187908,
                "z": 0.005598929710686207
            },
            "position": {
                "x": 0.11585023208521307,
                "y": 0.44412534475326537,
                "z": 0.3711530566215515
            }
        },
        "name": "move_to_auspresseinheit_A"
    },
    "id": "KPIECE_move_to_auspresseinheit_A_63",
    "joint_names": [
        "shoulder_pan_joint",
        "shoulder_lift_joint",
        "elbow_joint",
        "wrist_1_joint",
        "wrist_2_joint",
        "wrist_3_joint"
    ],
    "metrics": {
        "cart_traj_len": 1.015344642854348,
        "distance_elbow_joint": 0.654869521321797,
        "distance_shoulder_lift_joint": 1.2871822691007346,
        "distance_shoulder_pan_joint": 1.0418221601951247,
        "distance_wrist_1_joint": 2.653896256998495,
        "distance_wrist_2_joint": 1.2953352292533262,
        "distance_wrist_3_joint": 0.19907935198646198,
        "smoothness": 1.269007641086517,
        "time": 0.363690615,
        "traj_len": 2.6706150581571912,
        "weighted_distance": 3.388152148159921
    },
    "planner": "KPIECE",
    "start": {
        "state": {
            "elbow_joint": 2.4225747245308327,
            "shoulder_lift_joint": -1.373653427065438,
            "shoulder_pan_joint": -0.33786330853087027,
            "wrist_1_joint": -1.0288602302712604,
            "wrist_2_joint": 1.23302299562683,
            "wrist_3_joint": -3.094021725338297
        }
    },
    "waypoints": [
        {
            "positions": [
                -0.33786330853087027,
                -1.373653427065438,
                2.4225747245308327,
                -1.0288602302712604,
                1.23302299562683,
                -3.094021725338297
            ]
        },
        {
            "positions": [
                -0.3248122897368823,
                -1.4564013861558214,
                2.3913996020625707,
                -0.8823915090077905,
                1.1500953904859494,
                -3.087561553145784
            ]
        },
        {
            "positions": [
                -0.31176127094289435,
                -1.5391493452462046,
                2.3602244795943084,
                -0.7359227877443206,
                1.067167785345069,
                -3.0811013809532706
            ]
        },
        {
            "positions": [
                -0.29871025214890645,
                -1.621897304336588,
                2.3290493571260464,
                -0.5894540664808509,
                0.9842401802041884,
                -3.0746412087607573
            ]
        },
        {
            "positions": [
                -0.2856592333549185,
                -1.7046452634269715,
                2.2978742346577845,
                -0.442985345217381,
                0.9013125750633079,
                -3.068181036568244
            ]
        },
        {
            "positions": [
                -0.27260821456093054,
                -1.787393222517355,
                2.2666991121895226,
                -0.2965166239539111,
                0.8183849699224274,
                -3.0617208643757308
            ]
        },
        {
            "positions": [
                -0.2595571957669426,
                -1.8701411816077382,
                2.23552398972126,
                -0.15004790269044133,
                0.7354573647815468,
                -3.055260692183217
            ]
        },
        {
            "positions": [
                -0.24650617697295463,
                -1.9528891406981217,
                2.2043488672529983,
                -0.003579181426971445,
                0.6525297596406663,
                -3.048800519990704
            ]
        },
        {
            "positions": [
                -0.2334551581789667,
                -2.035637099788505,
                2.1731737447847363,
                0.14288953983649844,
                0.5696021544997858,
                -3.0423403477981905
            ]
        },
        {
            "positions": [
                -0.22040413938497874,
                -2.1183850588788884,
                2.141998622316474,
                0.28935826109996854,
                0.4866745493589052,
                -3.0358801756056772
            ]
        },
        {
            "positions": [
                -0.2073531205909908,
                -2.201133017969272,
                2.110823499848212,
                0.4358269823634382,
                0.4037469442180248,
                -3.029420003413164
            ]
        },
        {
            "positions": [
                -0.19430210179700286,
                -2.2838809770596553,
                2.07964837737995,
                0.5822957036269081,
                0.3208193390771442,
                -3.0229598312206507
            ]
        },
        {
            "positions": [
                -0.08297270997519311,
                -2.23797795477734,
                2.1200473990493154,
                0.45247444855166913,
                0.3691869627697761,
                -3.0417485082809166
            ]
        },
        {
            "positions": [
                0.028356681846616633,
                -2.192074932495025,
                2.160446420718681,
                0.3226531934764302,
                0.41755458646240795,
                -3.0605371853411825
            ]
        },
        {
            "positions": [
                0.1396860736684264,
                -2.14617191021271,
                2.2008454423880464,
                0.19283193840119117,
                0.4659222101550398,
                -3.079325862401448
            ]
        },
        {
            "positions": [
                0.2510154654902361,
                -2.100268887930395,
                2.2412444640574116,
                0.06301068332595228,
                0.5142898338476717,
                -3.098114539461714
            ]
        },
        {
            "positions": [
                0.36234485731204596,
                -2.0543658656480797,
                2.2816434857267773,
                -0.06681057174928684,
                0.5626574575403036,
                -3.1169032165219797
            ]
        },
        {
            "positions": [
                0.4736742491338556,
                -2.0084628433657645,
                2.3220425073961426,
                -0.19663182682452574,
                0.6110250812329354,
                -3.1356918935822455
            ]
        },
        {
            "positions": [
                0.588816550399055,
                -1.9576945506594514,
                2.3568170294735036,
                -0.3285382231489722,
                0.6574879965068602,
                -3.143334591335856
            ]
        },
        {
            "positions": [
                0.7039588516642544,
                -1.906926257953138,
                2.3915915515508646,
                -0.4604446194734186,
                0.703950911780785,
                -3.1509772890894663
            ]
        }
    ]
}