{
    "goal": {
        "global_pose": {
            "orientation": {
                "w": -0.00223480608172531,
                "x": 0.0024358444001904467,
                "y": 0.7094548369677653,
                "z": -0.704743149386269
            },
            "position": {
                "x": -0.37947507619857795,
                "y": -0.6371506643295288,
                "z": 0.19426114857196808
            }
        },
        "name": "move_to_magneteinheit_C"
    },
    "id": "KPIECE_move_to_magneteinheit_C_54",
    "joint_names": [
        "shoulder_pan_joint",
        "shoulder_lift_joint",
        "elbow_joint",
        "wrist_1_joint",
        "wrist_2_joint",
        "wrist_3_joint"
    ],
    "metrics": {
        "cart_traj_len": 4.2751899512550615,
        "distance_elbow_joint": 7.764913985381342,
        "distance_shoulder_lift_joint": 2.6548332920849536,
        "distance_shoulder_pan_joint": 2.7504084362168526,
        "distance_wrist_1_joint": 2.9693516924570282,
        "distance_wrist_2_joint": 6.870938581262041,
        "distance_wrist_3_joint": 11.741879634933426,
        "smoothness": 0.7297696976344222,
        "time": 1.388868417,
        "traj_len": 5.895110314687558,
        "weighted_distance": 8.250840876293852
    },
    "planner": "KPIECE",
    "start": {
        "state": {
            "elbow_joint": 1.9565354006590394,
            "shoulder_lift_joint": -1.4165861576513559,
            "shoulder_pan_joint": -1.6717766223277177,
            "wrist_1_joint": -0.5286633288215096,
            "wrist_2_joint": 1.4727565892594296,
            "wrist_3_joint": 3.1593482883155493
        }
    },
    "waypoints": [
        {
            "positions": [
                -1.6717766223277177,
                -1.4165861576513559,
                1.9565354006590394,
                -0.5286633288215096,
                1.4727565892594296,
                3.1593482883155493
            ]
        },
        {
            "positions": [
                -1.7036736552236051,
                -1.43475105194571,
                1.98320588767998,
                -0.6043540925880214,
                1.3953412911014245,
                3.058121850958111
            ]
        },
        {
            "positions": [
                -1.7355706881194926,
                -1.452915946240064,
                2.0098763747009207,
                -0.6800448563545334,
                1.3179259929434195,
                2.956895413600673
            ]
        },
        {
            "positions": [
                -1.7674677210153797,
                -1.4710808405344182,
                2.0365468617218614,
                -0.7557356201210452,
                1.2405106947854143,
                2.855668976243235
            ]
        },
        {
            "positions": [
                -1.7993647539112672,
                -1.4892457348287722,
                2.063217348742802,
                -0.8314263838875571,
                1.1630953966274094,
                2.7544425388857965
            ]
        },
        {
            "positions": [
                -1.8312617868071546,
                -1.5074106291231264,
                2.0898878357637427,
                -0.9071171476540689,
                1.0856800984694042,
                2.6532161015283586
            ]
        },
        {
            "positions": [
                -1.7697361939585117,
                -1.5718311589057925,
                2.030839618601486,
                -0.8703881804320555,
                0.9701981033207616,
                2.625714439713987
            ]
        },
        {
            "positions": [
                -1.7082106011098688,
                -1.6362516886884586,
                1.9717914014392288,
                -0.833659213210042,
                0.8547161081721192,
                2.598212777899615
            ]
        },
        {
            "positions": [
                -1.646685008261226,
                -1.7006722184711247,
                1.912743184276972,
                -0.7969302459880285,
                0.7392341130234767,
                2.5707111160852434
            ]
        },
        {
            "positions": [
                -1.5851594154125832,
                -1.765092748253791,
                1.853694967114715,
                -0.760201278766015,
                0.6237521178748342,
                2.5432094542708716
            ]
        },
        {
            "positions": [
                -1.5236338225639403,
                -1.8295132780364571,
                1.794646749952458,
                -0.7234723115440015,
                0.5082701227261918,
                2.5157077924565
            ]
        },
        {
            "positions": [
                -1.4621082297152976,
                -1.8939338078191232,
                1.7355985327902013,
                -0.686743344321988,
                0.39278812757754933,
                2.4882061306421286
            ]
        },
        {
            "positions": [
                -1.4005826368666547,
                -1.9583543376017893,
                1.6765503156279442,
                -0.6500143770999746,
                0.2773061324289068,
                2.460704468827757
            ]
        },
        {
            "positions": [
                -1.3390570440180118,
                -2.0227748673844554,
                1.6175020984656872,
                -0.613285409877961,
                0.16182413728026424,
                2.433202807013385
            ]
        },
        {
            "positions": [
                -1.2775314511693692,
                -2.0871953971671218,
                1.5584538813034303,
                -0.5765564426559475,
                0.04634214213162169,
                2.4057011451990133
            ]
        },
        {
            "positions": [
                -1.2160058583207263,
                -2.1516159269497876,
                1.4994056641411735,
                -0.5398274754339341,
                -0.06913985301702064,
                2.3781994833846416
            ]
        },
        {
            "positions": [
                -1.1544802654720834,
                -2.216036456732454,
                1.4403574469789164,
                -0.5030985082119206,
                -0.18462184816566318,
                2.35069782157027
            ]
        },
        {
            "positions": [
                -1.2140458836158745,
                -2.1611068885070215,
                1.3120746980079991,
                -0.47308781315053905,
                -0.08585382091233364,
                2.3376159104907965
            ]
        },
        {
            "positions": [
                -1.2736115017596656,
                -2.106177320281589,
                1.1837919490370818,
                -0.4430771180891575,
                0.01291420634099591,
                2.3245339994113228
            ]
        },
        {
            "positions": [
                -1.3331771199034568,
                -2.0512477520561565,
                1.0555092000661646,
                -0.413066423027776,
                0.11168223359432544,
                2.3114520883318495
            ]
        },
        {
            "positions": [
                -1.392742738047248,
                -1.9963181838307238,
                0.9272264510952473,
                -0.3830557279663945,
                0.210450260847655,
                2.2983701772523757
            ]
        },
        {
            "positions": [
                -1.452308356191039,
                -1.9413886156052913,
                0.79894370212433,
                -0.35304503290501293,
                0.30921828810098456,
                2.2852882661729024
            ]
        },
        {
            "positions": [
                -1.5118739743348302,
                -1.8864590473798586,
                0.6706609531534127,
                -0.32303433784363145,
                0.40798631535431407,
                2.2722063550934286
            ]
        },
        {
            "positions": [
                -1.5714395924786213,
                -1.831529479154426,
                0.5423782041824953,
                -0.2930236427822499,
                0.5067543426076436,
                2.2591244440139553
            ]
        },
        {
            "positions": [
                -1.6310052106224124,
                -1.7765999109289936,
                0.4140954552115781,
                -0.26301294772086836,
                0.6055223698609732,
                2.2460425329344815
            ]
        },
        {
            "positions": [
                -1.6905708287662033,
                -1.7216703427035611,
                0.2858127062406608,
                -0.23300225265948682,
                0.7042903971143026,
                2.232960621855008
            ]
        },
        {
            "positions": [
                -1.7501364469099947,
                -1.6667407744781286,
                0.1575299572697435,
                -0.20299155759810528,
                0.8030584243676323,
                2.2198787107755344
            ]
        },
        {
            "positions": [
                -1.8097020650537856,
                -1.6118112062526961,
                0.02924720829882621,
                -0.1729808625367238,
                0.9018264516209618,
                2.206796799696061
            ]
        },
        {
            "positions": [
                -1.869267683197577,
                -1.5568816380272634,
                -0.09903554067209108,
                -0.14297016747534225,
                1.0005944788742913,
                2.1937148886165874
            ]
        },
        {
            "positions": [
                -1.9288333013413679,
                -1.501952069801831,
                -0.22731828964300838,
                -0.1129594724139607,
                1.0993625061276209,
                2.180632977537114
            ]
        },
        {
            "positions": [
                -1.9883989194851592,
                -1.4470225015763982,
                -0.3556010386139259,
                -0.08294877735257916,
                1.1981305333809504,
                2.1675510664576403
            ]
        },
        {
            "positions": [
                -2.04796453762895,
                -1.3920929333509657,
                -0.48388378758484296,
                -0.052938082291197675,
                1.29689856063428,
                2.154469155378167
            ]
        },
        {
            "positions": [
                -2.1075301557727415,
                -1.3371633651255332,
                -0.6121665365557603,
                -0.022927387229816132,
                1.3956665878876096,
                2.141387244298693
            ]
        },
        {
            "positions": [
                -2.1670957739165324,
                -1.2822337969001008,
                -0.7404492855266775,
                0.007083307831565411,
                1.4944346151409391,
                2.12830533321922
            ]
        },
        {
            "positions": [
                -2.2266613920603238,
                -1.2273042286746683,
                -0.8687320344975948,
                0.03709400289294695,
                1.5932026423942685,
                2.115223422139746
            ]
        },
        {
            "positions": [
                -2.2862270102041147,
                -1.1723746604492356,
                -0.9970147834685121,
                0.0671046979543285,
                1.6919706696475982,
                2.102141511060273
            ]
        },
        {
            "positions": [
                -2.3457926283479056,
                -1.117445092223803,
                -1.1252975324394294,
                0.09711539301571004,
                1.7907386969009278,
                2.089059599980799
            ]
        },
        {
            "positions": [
                -2.405358246491697,
                -1.0625155239983706,
                -1.2535802814103467,
                0.12712608807709147,
                1.8895067241542571,
                2.0759776889013257
            ]
        },
        {
            "positions": [
                -2.4649238646354883,
                -1.007585955772938,
                -1.381863030381264,
                0.157136783138473,
                1.9882747514075867,
                2.062895777821852
            ]
        },
        {
            "positions": [
                -2.524489482779279,
                -0.9526563875475054,
                -1.5101457793521813,
                0.18714747819985467,
                2.0870427786609165,
                2.0498138667423786
            ]
        },
        {
            "positions": [
                -2.58405510092307,
                -0.8977268193220729,
                -1.6384285283230986,
                0.2171581732612361,
                2.1858108059142456,
                2.036731955662905
            ]
        },
        {
            "positions": [
                -2.6436207190668615,
                -0.8427972510966404,
                -1.766711277294016,
                0.24716886832261764,
                2.284578833167575,
                2.0236500445834316
            ]
        },
        {
            "positions": [
                -2.6489434636206015,
                -0.8394064335122874,
                -1.6807254354138306,
                0.25478979102436405,
                2.193764638465793,
                1.8254492322003444
            ]
        },
        {
            "positions": [
                -2.6542662081743416,
                -0.8360156159279344,
                -1.5947395935336452,
                0.26241071372611047,
                2.102950443764011,
                1.6272484198172574
            ]
        },
        {
            "positions": [
                -2.659588952728082,
                -0.8326247983435814,
                -1.50875375165346,
                0.2700316364278569,
                2.012136249062229,
                1.4290476074341703
            ]
        },
        {
            "positions": [
                -2.664911697281822,
                -0.8292339807592284,
                -1.4227679097732744,
                0.2776525591296033,
                1.9213220543604472,
                1.2308467950510833
            ]
        },
        {
            "positions": [
                -2.670234441835562,
                -0.8258431631748754,
                -1.336782067893089,
                0.2852734818313497,
                1.830507859658665,
                1.032645982667996
            ]
        },
        {
            "positions": [
                -2.6755571863893026,
                -0.8224523455905224,
                -1.2507962260129037,
                0.2928944045330961,
                1.7396936649568833,
                0.8344451702849089
            ]
        },
        {
            "positions": [
                -2.6808799309430427,
                -0.8190615280061694,
                -1.1648103841327182,
                0.30051532723484253,
                1.648879470255101,
                0.6362443579018218
            ]
        },
        {
            "positions": [
                -2.6862026754967827,
                -0.8156707104218164,
                -1.078824542252533,
                0.30813624993658895,
                1.5580652755533193,
                0.4380435455187348
            ]
        },
        {
            "positions": [
                -2.6915254200505228,
                -0.8122798928374634,
                -0.9928387003723477,
                0.31575717263833536,
                1.467251080851537,
                0.23984273313564763
            ]
        },
        {
            "positions": [
                -2.696848164604263,
                -0.8088890752531104,
                -0.9068528584921622,
                0.3233780953400818,
                1.3764368861497551,
                0.04164192075256046
            ]
        },
        {
            "positions": [
                -2.7021709091580033,
                -0.8054982576687574,
                -0.820867016611977,
                0.3309990180418282,
                1.2856226914479731,
                -0.15655889163052628
            ]
        },
        {
            "positions": [
                -2.7074936537117433,
                -0.8021074400844044,
                -0.7348811747317916,
                0.3386199407435746,
                1.1948084967461912,
                -0.3547597040136137
            ]
        },
        {
            "positions": [
                -2.7128163982654834,
                -0.7987166225000514,
                -0.6488953328516063,
                0.346240863445321,
                1.1039943020444092,
                -0.5529605163967006
            ]
        },
        {
            "positions": [
                -2.718139142819224,
                -0.7953258049156984,
                -0.5629094909714207,
                0.3538617861470674,
                1.013180107342627,
                -0.751161328779788
            ]
        },
        {
            "positions": [
                -2.723461887372964,
                -0.7919349873313454,
                -0.4769236490912354,
                0.36148270884881384,
                0.9223659126408452,
                -0.949362141162875
            ]
        },
        {
            "positions": [
                -2.728784631926704,
                -0.7885441697469924,
                -0.3909378072110503,
                0.36910363155056025,
                0.8315517179390632,
                -1.147562953545962
            ]
        },
        {
            "positions": [
                -2.734107376480444,
                -0.7851533521626394,
                -0.30495196533086477,
                0.37672455425230666,
                0.740737523237281,
                -1.3457637659290493
            ]
        },
        {
            "positions": [
                -2.739430121034184,
                -0.7817625345782864,
                -0.21896612345067945,
                0.3843454769540531,
                0.6499233285354991,
                -1.5439645783121363
            ]
        },
        {
            "positions": [
                -2.7447528655879245,
                -0.7783717169939334,
                -0.13298028157049413,
                0.3919663996557995,
                0.5591091338337173,
                -1.7421653906952232
            ]
        },
        {
            "positions": [
                -2.7500756101416646,
                -0.7749808994095804,
                -0.04699443969030859,
                0.3995873223575459,
                0.4682949391319351,
                -1.9403662030783106
            ]
        },
        {
            "positions": [
                -2.7553983546954046,
                -0.7715900818252274,
                0.03899140218987651,
                0.4072082450592923,
                0.3774807444301531,
                -2.138567015461398
            ]
        },
        {
            "positions": [
                -2.760721099249145,
                -0.7681992642408744,
                0.12497724407006183,
                0.41482916776103873,
                0.28666654972837136,
                -2.336767827844484
            ]
        },
        {
            "positions": [
                -2.766043843802885,
                -0.7648084466565214,
                0.21096308595024738,
                0.42245009046278514,
                0.19585235502658893,
                -2.534968640227572
            ]
        },
        {
            "positions": [
                -2.771366588356625,
                -0.7614176290721684,
                0.2969489278304325,
                0.43007101316453156,
                0.10503816032480717,
                -2.7331694526106594
            ]
        },
        {
            "positions": [
                -2.7599336872982483,
                -0.7768316354315361,
                0.3627682444494491,
                0.38185140882584423,
                0.12676195992715147,
                -2.5081939951488437
            ]
        },
        {
            "positions": [
                -2.748500786239871,
                -0.792245641790904,
                0.42858756106846574,
                0.33363180448715685,
                0.14848575952949578,
                -2.283218537687028
            ]
        },
        {
            "positions": [
                -2.737067885181494,
                -0.8076596481502717,
                0.49440687768748237,
                0.28541220014846946,
                0.17020955913184005,
                -2.0582430802252123
            ]
        },
        {
            "positions": [
                -2.725634984123117,
                -0.8230736545096394,
                0.560226194306499,
                0.23719259580978214,
                0.19193335873418438,
                -1.8332676227633966
            ]
        },
        {
            "positions": [
                -2.71420208306474,
                -0.8384876608690073,
                0.6260455109255156,
                0.18897299147109478,
                0.21365715833652865,
                -1.608292165301581
            ]
        },
        {
            "positions": [
                -2.702769182006363,
                -0.853901667228375,
                0.6918648275445323,
                0.14075338713240743,
                0.23538095793887295,
                -1.3833167078397652
            ]
        },
        {
            "positions": [
                -2.691336280947986,
                -0.8693156735877428,
                0.7576841441635489,
                0.0925337827937201,
                0.2571047575412172,
                -1.1583412503779495
            ]
        },
        {
            "positions": [
                -2.679903379889609,
                -0.8847296799471105,
                0.8235034607825655,
                0.044314178455032716,
                0.2788285571435616,
                -0.9333657929161339
            ]
        },
        {
            "positions": [
                -2.668470478831232,
                -0.9001436863064783,
                0.8893227774015822,
                -0.003905425883654612,
                0.30055235674590586,
                -0.7083903354543182
            ]
        },
        {
            "positions": [
                -2.6570375777728548,
                -0.9155576926658461,
                0.9551420940205988,
                -0.052125030222341995,
                0.32227615634825013,
                -0.4834148779925025
            ]
        },
        {
            "positions": [
                -2.645604676714478,
                -0.9309716990252138,
                1.0209614106396154,
                -0.10034463456102927,
                0.3439999559505944,
                -0.2584394205306868
            ]
        },
        {
            "positions": [
                -2.634171775656101,
                -0.9463857053845817,
                1.086780727258632,
                -0.1485642388997167,
                0.36572375555293873,
                -0.033463963068871116
            ]
        },
        {
            "positions": [
                -2.622738874597724,
                -0.9617997117439494,
                1.1526000438776487,
                -0.19678384323840403,
                0.387447555155283,
                0.19151149439294457
            ]
        },
        {
            "positions": [
                -2.6113059735393467,
                -0.9772137181033171,
                1.2184193604966653,
                -0.24500344757709136,
                0.4091713547576273,
                0.41648695185476026
            ]
        },
        {
            "positions": [
                -2.5998730724809698,
                -0.9926277244626849,
                1.284238677115682,
                -0.2932230519157787,
                0.43089515435997156,
                0.6414624093165755
            ]
        },
        {
            "positions": [
                -2.588440171422593,
                -1.0080417308220526,
                1.3500579937346986,
                -0.3414426562544661,
                0.45261895396231594,
                0.8664378667783916
            ]
        },
        {
            "positions": [
                -2.5770072703642155,
                -1.0234557371814206,
                1.4158773103537152,
                -0.38966226059315345,
                0.4743427535646602,
                1.0914133242402073
            ]
        },
        {
            "positions": [
                -2.5655743693058386,
                -1.0388697435407883,
                1.4816966269727319,
                -0.4378818649318408,
                0.4960665531670045,
                1.316388781702023
            ]
        },
        {
            "positions": [
                -2.5541414682474617,
                -1.054283749900156,
                1.5475159435917485,
                -0.4861014692705281,
                0.5177903527693488,
                1.5413642391638387
            ]
        },
        {
            "positions": [
                -2.542708567189085,
                -1.0696977562595238,
                1.6133352602107651,
                -0.5343210736092155,
                0.5395141523716931,
                1.7663396966256544
            ]
        },
        {
            "positions": [
                -2.5312756661307074,
                -1.0851117626188915,
                1.6791545768297818,
                -0.582540677947903,
                0.5612379519740374,
                1.99131515408747
            ]
        },
        {
            "positions": [
                -2.5198427650723305,
                -1.1005257689782593,
                1.7449738934487984,
                -0.6307602822865901,
                0.5829617515763816,
                2.2162906115492857
            ]
        },
        {
            "positions": [
                -2.5084098640139536,
                -1.115939775337627,
                1.810793210067815,
                -0.6789798866252774,
                0.6046855511787259,
                2.4412660690111014
            ]
        },
        {
            "positions": [
                -2.4969769629555767,
                -1.131353781696995,
                1.8766125266868317,
                -0.727199490963965,
                0.6264093507810703,
                2.666241526472917
            ]
        },
        {
            "positions": [
                -2.4855440618971993,
                -1.1467677880563627,
                1.9424318433058483,
                -0.7754190953026523,
                0.6481331503834146,
                2.891216983934733
            ]
        },
        {
            "positions": [
                -2.4741111608388224,
                -1.1621817944157304,
                2.008251159924865,
                -0.8236386996413396,
                0.6698569499857588,
                3.1161924413965485
            ]
        }
    ]
}