{
    "goal": {
        "global_pose": {
            "orientation": {
                "w": -0.4816463035849501,
                "x": 0.5182115481033762,
                "y": 0.4908360881923453,
                "z": -0.5084816262002911
            },
            "position": {
                "x": -0.8240239810943604,
                "y": -0.300875300988555,
                "z": 0.16403168439865112
            }
        },
        "name": "move_to_storage_C"
    },
    "id": "KPIECE_move_to_storage_C_78",
    "joint_names": [
        "shoulder_pan_joint",
        "shoulder_lift_joint",
        "elbow_joint",
        "wrist_1_joint",
        "wrist_2_joint",
        "wrist_3_joint"
    ],
    "metrics": {
        "cart_traj_len": 0.5771403546870947,
        "distance_elbow_joint": 0.2586552499743062,
        "distance_shoulder_lift_joint": 0.18919464317679868,
        "distance_shoulder_pan_joint": 0.496645403915176,
        "distance_wrist_1_joint": 0.08353096179582331,
        "distance_wrist_2_joint": 1.0585576017982956,
        "distance_wrist_3_joint": 0.06660040810040035,
        "smoothness": 0.0,
        "time": 0.011434598,
        "traj_len": 1.467373254751769,
        "weighted_distance": 1.8516137957348773
    },
    "planner": "KPIECE",
    "start": {
        "state": {
            "elbow_joint": 2.010868315001653,
            "shoulder_lift_joint": -1.1634956873357014,
            "shoulder_pan_joint": -2.4736205022346103,
            "wrist_1_joint": -0.8367026794713948,
            "wrist_2_joint": 0.6746043897044093,
            "wrist_3_joint": 3.1335220948105738
        }
    },
    "waypoints": [
        {
            "positions": [
                -2.4736205022346103,
                -1.1634956873357014,
                2.010868315001653,
                -0.8367026794713948,
                0.6746043897044093,
                3.1335220948105738
            ]
        },
        {
            "positions": [
                -2.556394736220473,
                -1.131963246806235,
                1.9677591066726021,
                -0.8227808525054242,
                0.8510306566707919,
                3.144622162827307
            ]
        },
        {
            "positions": [
                -2.6391689702063355,
                -1.1004308062767685,
                1.924649898343551,
                -0.8088590255394537,
                1.0274569236371744,
                3.1557222308440407
            ]
        },
        {
            "positions": [
                -2.7219432041921983,
                -1.0688983657473021,
                1.8815406900145,
                -0.7949371985734831,
                1.2038831906035572,
                3.166822298860774
            ]
        },
        {
            "positions": [
                -2.804717438178061,
                -1.0373659252178355,
                1.838431481685449,
                -0.7810153716075126,
                1.3803094575699397,
                3.177922366877507
            ]
        },
        {
            "positions": [
                -2.8874916721639234,
                -1.0058334846883692,
                1.7953222733563978,
                -0.767093544641542,
                1.5567357245363223,
                3.1890224348942406
            ]
        },
        {
            "positions": [
                -2.9702659061497863,
                -0.9743010441589027,
                1.7522130650273469,
                -0.7531717176755715,
                1.733161991502705,
                3.200122502910974
            ]
        }
    ]
}