{
    "goal": {
        "global_pose": {
            "orientation": {
                "w": -0.4816463035849501,
                "x": 0.5182115481033762,
                "y": 0.4908360881923453,
                "z": -0.5084816262002911
            },
            "position": {
                "x": -0.8240239810943604,
                "y": -0.300875300988555,
                "z": 0.16403168439865112
            }
        },
        "name": "move_to_storage_C"
    },
    "id": "KPIECE_move_to_storage_C_24",
    "joint_names": [
        "shoulder_pan_joint",
        "shoulder_lift_joint",
        "elbow_joint",
        "wrist_1_joint",
        "wrist_2_joint",
        "wrist_3_joint"
    ],
    "metrics": {
        "cart_traj_len": 0.5766600902972834,
        "distance_elbow_joint": 0.2616309537793129,
        "distance_shoulder_lift_joint": 0.19010826730382135,
        "distance_shoulder_pan_joint": 0.4933318650527734,
        "distance_wrist_1_joint": 0.08976545013275816,
        "distance_wrist_2_joint": 1.0761991051509483,
        "distance_wrist_3_joint": 0.06510039482979613,
        "smoothness": 0.0,
        "time": 0.259928967,
        "traj_len": 1.4751732224553868,
        "weighted_distance": 1.863411221709451
    },
    "planner": "KPIECE",
    "start": {
        "state": {
            "elbow_joint": 2.010868315001653,
            "shoulder_lift_joint": -1.1634956873357014,
            "shoulder_pan_joint": -2.4736205022346103,
            "wrist_1_joint": -0.8367026794713948,
            "wrist_2_joint": 0.6746043897044093,
            "wrist_3_joint": 3.1335220948105738
        }
    },
    "waypoints": [
        {
            "positions": [
                -2.4736205022346103,
                -1.1634956873357014,
                2.010868315001653,
                -0.8367026794713948,
                0.6746043897044093,
                3.1335220948105738
            ]
        },
        {
            "positions": [
                -2.555842479743406,
                -1.1318109761183979,
                1.9672631560384342,
                -0.821741771115935,
                0.8539709072295674,
                3.1443721606155397
            ]
        },
        {
            "positions": [
                -2.6380644572522014,
                -1.1001262649010943,
                1.9236579970752155,
                -0.8067808627604753,
                1.0333374247547253,
                3.1552222264205056
            ]
        },
        {
            "positions": [
                -2.7202864347609967,
                -1.0684415536837908,
                1.8800528381119967,
                -0.7918199544050157,
                1.2127039422798833,
                3.166072292225472
            ]
        },
        {
            "positions": [
                -2.8025084122697925,
                -1.0367568424664872,
                1.8364476791487778,
                -0.776859046049556,
                1.3920704598050415,
                3.176922358030438
            ]
        },
        {
            "positions": [
                -2.8847303897785883,
                -1.0050721312491837,
                1.792842520185559,
                -0.7618981376940963,
                1.5714369773301997,
                3.187772423835404
            ]
        },
        {
            "positions": [
                -2.9669523672873837,
                -0.9733874200318801,
                1.7492373612223402,
                -0.7469372293386366,
                1.7508034948553577,
                3.19862248964037
            ]
        }
    ]
}