{
    "goal": {
        "global_pose": {
            "orientation": {
                "w": 0.7031023480610252,
                "x": -0.7110244013736278,
                "y": 0.0077485991402295624,
                "z": 0.005598929693374583
            },
            "position": {
                "x": -0.8841497679147869,
                "y": 0.44412534475326537,
                "z": 0.3711530566215515
            }
        },
        "name": "move_to_auspresseinheit_D"
    },
    "id": "KPIECE_move_to_auspresseinheit_D_10",
    "joint_names": [
        "shoulder_pan_joint",
        "shoulder_lift_joint",
        "elbow_joint",
        "wrist_1_joint",
        "wrist_2_joint",
        "wrist_3_joint"
    ],
    "metrics": {
        "cart_traj_len": 1.2984406054009916,
        "distance_elbow_joint": 1.0616301912119057,
        "distance_shoulder_lift_joint": 0.2954031633191144,
        "distance_shoulder_pan_joint": 0.23680337730050027,
        "distance_wrist_1_joint": 3.6860396776962285,
        "distance_wrist_2_joint": 3.797135441125584,
        "distance_wrist_3_joint": 3.9376419920625887,
        "smoothness": 0.7760182083535373,
        "time": 0.943661594,
        "traj_len": 3.607582825482447,
        "weighted_distance": 5.326641807524034
    },
    "planner": "KPIECE",
    "start": {
        "state": {
            "elbow_joint": 1.8268400409724999,
            "shoulder_lift_joint": -1.0144045787793008,
            "shoulder_pan_joint": 2.6280239544362485,
            "wrist_1_joint": -0.790705565816056,
            "wrist_2_joint": 1.0573557467365533,
            "wrist_3_joint": 3.1851377467193758
        }
    },
    "waypoints": [
        {
            "positions": [
                2.6280239544362485,
                -1.0144045787793008,
                1.8268400409724999,
                -0.790705565816056,
                1.0573557467365533,
                3.1851377467193758
            ]
        },
        {
            "positions": [
                2.629855271987477,
                -1.0142513253602574,
                1.8001405096484415,
                -0.67225818889334,
                0.9364990603597924,
                3.062689707670561
            ]
        },
        {
            "positions": [
                2.631686589538706,
                -1.0140980719412138,
                1.773440978324383,
                -0.5538108119706239,
                0.8156423739830313,
                2.9402416686217463
            ]
        },
        {
            "positions": [
                2.6335179070899346,
                -1.0139448185221704,
                1.7467414470003246,
                -0.43536343504790787,
                0.6947856876062704,
                2.8177936295729316
            ]
        },
        {
            "positions": [
                2.6353492246411636,
                -1.013791565103127,
                1.720041915676266,
                -0.3169160581251918,
                0.5739290012295093,
                2.6953455905241173
            ]
        },
        {
            "positions": [
                2.637180542192392,
                -1.0136383116840835,
                1.6933423843522077,
                -0.19846868120247574,
                0.45307231485274824,
                2.5728975514753025
            ]
        },
        {
            "positions": [
                2.639011859743621,
                -1.01348505826504,
                1.6666428530281492,
                -0.08002130427975973,
                0.3322156284759873,
                2.450449512426488
            ]
        },
        {
            "positions": [
                2.6408431772948497,
                -1.0133318048459967,
                1.6399433217040909,
                0.03842607264295639,
                0.21135894209922634,
                2.328001473377673
            ]
        },
        {
            "positions": [
                2.6426744948460787,
                -1.0131785514269531,
                1.6132437903800323,
                0.1568734495656724,
                0.0905022557224654,
                2.2055534343288583
            ]
        },
        {
            "positions": [
                2.6445058123973073,
                -1.0130252980079097,
                1.586544259055974,
                0.2753208264883884,
                -0.030354430654295772,
                2.083105395280044
            ]
        },
        {
            "positions": [
                2.646337129948536,
                -1.0128720445888664,
                1.5598447277319154,
                0.3937682034111045,
                -0.15121111703105683,
                1.960657356231229
            ]
        },
        {
            "positions": [
                2.648168447499765,
                -1.0127187911698228,
                1.533145196407857,
                0.5122155803338204,
                -0.27206780340781767,
                1.8382093171824145
            ]
        },
        {
            "positions": [
                2.6499997650509934,
                -1.0125655377507794,
                1.5064456650837985,
                0.6306629572565365,
                -0.3929244897845787,
                1.7157612781335998
            ]
        },
        {
            "positions": [
                2.6518310826022224,
                -1.012412284331736,
                1.4797461337597402,
                0.7491103341792527,
                -0.5137811761613398,
                1.593313239084785
            ]
        },
        {
            "positions": [
                2.653662400153451,
                -1.0122590309126924,
                1.4530466024356816,
                0.8675577111019688,
                -0.6346378625381006,
                1.4708652000359703
            ]
        },
        {
            "positions": [
                2.65549371770468,
                -1.012105777493649,
                1.4263470711116233,
                0.9860050880246849,
                -0.7554945489148617,
                1.3484171609871558
            ]
        },
        {
            "positions": [
                2.6573250352559086,
                -1.0119525240746055,
                1.3996475397875647,
                1.1044524649474008,
                -0.8763512352916225,
                1.2259691219383413
            ]
        },
        {
            "positions": [
                2.6591563528071376,
                -1.011799270655562,
                1.3729480084635064,
                1.2228998418701165,
                -0.9972079216683833,
                1.1035210828895266
            ]
        },
        {
            "positions": [
                2.660987670358366,
                -1.0116460172365187,
                1.3462484771394478,
                1.3413472187928328,
                -1.1180646080451448,
                0.9810730438407118
            ]
        },
        {
            "positions": [
                2.662818987909595,
                -1.011492763817475,
                1.3195489458153895,
                1.4597945957155487,
                -1.2389212944219055,
                0.8586250047918971
            ]
        },
        {
            "positions": [
                2.6646503054608237,
                -1.0113395103984317,
                1.292849414491331,
                1.578241972638265,
                -1.359777980798667,
                0.7361769657430823
            ]
        },
        {
            "positions": [
                2.6664816230120523,
                -1.0111862569793884,
                1.2661498831672726,
                1.696689349560981,
                -1.4806346671754276,
                0.613728926694268
            ]
        },
        {
            "positions": [
                2.6683129405632813,
                -1.0110330035603448,
                1.2394503518432143,
                1.8151367264836968,
                -1.6014913535521886,
                0.4912808876454533
            ]
        },
        {
            "positions": [
                2.67014425811451,
                -1.0108797501413014,
                1.2127508205191557,
                1.9335841034064132,
                -1.7223480399289497,
                0.36883284859663856
            ]
        },
        {
            "positions": [
                2.671975575665739,
                -1.010726496722258,
                1.1860512891950972,
                2.052031480329129,
                -1.8432047263057108,
                0.24638480954782382
            ]
        },
        {
            "positions": [
                2.6738068932169674,
                -1.0105732433032144,
                1.1593517578710388,
                2.1704788572518448,
                -1.9640614126824714,
                0.12393677049900953
            ]
        },
        {
            "positions": [
                2.6756382107681964,
                -1.010419989884171,
                1.1326522265469805,
                2.2889262341745615,
                -2.084918099059233,
                0.0014887314501943472
            ]
        },
        {
            "positions": [
                2.677469528319425,
                -1.0102667364651277,
                1.105952695222922,
                2.4073736110972774,
                -2.2057747854359935,
                -0.12095930759861995
            ]
        },
        {
            "positions": [
                2.679300845870654,
                -1.010113483046084,
                1.0792531638988634,
                2.5258209880199933,
                -2.3266314718127545,
                -0.24340734664743513
            ]
        },
        {
            "positions": [
                2.6811321634218825,
                -1.0099602296270407,
                1.052553632574805,
                2.6442683649427092,
                -2.4474881581895156,
                -0.36585538569624954
            ]
        },
        {
            "positions": [
                2.637231777821659,
                -0.954376211285606,
                1.1319936491102602,
                2.5824408428052608,
                -2.423362814805151,
                -0.2842610114772163
            ]
        },
        {
            "positions": [
                2.5933313922214354,
                -0.8987921929441715,
                1.2114336656457154,
                2.5206133206678123,
                -2.3992374714207867,
                -0.20266663725818296
            ]
        },
        {
            "positions": [
                2.549431006621212,
                -0.8432081746027368,
                1.2908736821811706,
                2.458785798530364,
                -2.375112128036422,
                -0.12107226303914963
            ]
        },
        {
            "positions": [
                2.5754280123783095,
                -0.7811047950314616,
                1.3153855487850934,
                2.4915773887929227,
                -2.4850698810596326,
                -0.05013939454421813
            ]
        },
        {
            "positions": [
                2.6014250181354073,
                -0.7190014154601864,
                1.339897415389016,
                2.5243689790554815,
                -2.5950276340828435,
                0.020793473950713376
            ]
        }
    ]
}