{
    "goal": {
        "global_pose": {
            "orientation": {
                "w": 0.005598929693374612,
                "x": 0.007748599140229565,
                "y": 0.7110244013736278,
                "z": -0.7031023480610252
            },
            "position": {
                "x": 0.1141497679147869,
                "y": -0.7141253447532654,
                "z": 0.3711530566215515
            }
        },
        "name": "move_to_auspresseinheit_B"
    },
    "id": "KPIECE_move_to_auspresseinheit_B_49",
    "joint_names": [
        "shoulder_pan_joint",
        "shoulder_lift_joint",
        "elbow_joint",
        "wrist_1_joint",
        "wrist_2_joint",
        "wrist_3_joint"
    ],
    "metrics": {
        "cart_traj_len": 0.5645656633741696,
        "distance_elbow_joint": 0.0624222947241968,
        "distance_shoulder_lift_joint": 0.2949929342865265,
        "distance_shoulder_pan_joint": 0.5786723260592888,
        "distance_wrist_1_joint": 0.3307139449950264,
        "distance_wrist_2_joint": 0.9872626464351077,
        "distance_wrist_3_joint": 0.0032998786573248395,
        "smoothness": 0.0,
        "time": 0.43793920999999997,
        "traj_len": 1.502452669856016,
        "weighted_distance": 1.8926014831184759
    },
    "planner": "KPIECE",
    "start": {
        "state": {
            "elbow_joint": 2.019306165916698,
            "shoulder_lift_joint": -1.1220205098164344,
            "shoulder_pan_joint": -1.095207207618794,
            "wrist_1_joint": -0.8559671824921639,
            "wrist_2_joint": 0.47596387242952726,
            "wrist_3_joint": 3.159081874673826
        }
    },
    "waypoints": [
        {
            "positions": [
                -1.095207207618794,
                -1.1220205098164344,
                2.019306165916698,
                -0.8559671824921639,
                0.47596387242952726,
                3.159081874673826
            ]
        },
        {
            "positions": [
                -1.191652595295342,
                -1.1711859988641888,
                2.008902450129332,
                -0.8008481916596595,
                0.6405076468353785,
                3.159631854450047
            ]
        },
        {
            "positions": [
                -1.2880979829718902,
                -1.2203514879119433,
                1.9984987343419658,
                -0.7457292008271551,
                0.8050514212412299,
                3.1601818342262673
            ]
        },
        {
            "positions": [
                -1.3845433706484385,
                -1.2695169769596977,
                1.9880950185545996,
                -0.6906102099946507,
                0.9695951956470812,
                3.1607318140024883
            ]
        },
        {
            "positions": [
                -1.4809887583249863,
                -1.318682466007452,
                1.9776913027672334,
                -0.6354912191621462,
                1.1341389700529323,
                3.161281793778709
            ]
        },
        {
            "positions": [
                -1.5774341460015346,
                -1.3678479550552065,
                1.9672875869798674,
                -0.5803722283296419,
                1.2986827444587838,
                3.1618317735549297
            ]
        },
        {
            "positions": [
                -1.6738795336780827,
                -1.417013444102961,
                1.9568838711925012,
                -0.5252532374971375,
                1.463226518864635,
                3.1623817533311507
            ]
        }
    ]
}