{
    "goal": {
        "global_pose": {
            "orientation": {
                "w": -0.00223480608172531,
                "x": 0.0024358444001904467,
                "y": 0.7094548369677653,
                "z": -0.704743149386269
            },
            "position": {
                "x": -0.37947507619857795,
                "y": -0.6371506643295288,
                "z": 0.19426114857196808
            }
        },
        "name": "move_to_magneteinheit_C"
    },
    "id": "KPIECE_move_to_magneteinheit_C_103",
    "joint_names": [
        "shoulder_pan_joint",
        "shoulder_lift_joint",
        "elbow_joint",
        "wrist_1_joint",
        "wrist_2_joint",
        "wrist_3_joint"
    ],
    "metrics": {
        "cart_traj_len": 2.0458981688697166,
        "distance_elbow_joint": 0.5920203945530806,
        "distance_shoulder_lift_joint": 1.9795125544925043,
        "distance_shoulder_pan_joint": 2.810392899790011,
        "distance_wrist_1_joint": 2.5971858776852135,
        "distance_wrist_2_joint": 1.9453341998084066,
        "distance_wrist_3_joint": 0.8836937491710044,
        "smoothness": 1.1211646187905904,
        "time": 1.050871856,
        "traj_len": 3.287573523968737,
        "weighted_distance": 4.137396192212664
    },
    "planner": "KPIECE",
    "start": {
        "state": {
            "elbow_joint": 1.9565354006590394,
            "shoulder_lift_joint": -1.4165861576513559,
            "shoulder_pan_joint": -1.6717766223277177,
            "wrist_1_joint": -0.5286633288215096,
            "wrist_2_joint": 1.4727565892594296,
            "wrist_3_joint": 3.1593482883155493
        }
    },
    "waypoints": [
        {
            "positions": [
                -1.6717766223277177,
                -1.4165861576513559,
                1.9565354006590394,
                -0.5286633288215096,
                1.4727565892594296,
                3.1593482883155493
            ]
        },
        {
            "positions": [
                -1.5626716554413789,
                -1.4363166317409712,
                1.9645696639405519,
                -0.4535261943661527,
                1.4392586594756605,
                3.1321797143084624
            ]
        },
        {
            "positions": [
                -1.4740174552465939,
                -1.4404765441147303,
                1.8962552627235212,
                -0.4015702458736715,
                1.4188451895599947,
                2.988935108397176
            ]
        },
        {
            "positions": [
                -1.3853632550518087,
                -1.444636456488489,
                1.8279408615064907,
                -0.3496142973811904,
                1.3984317196443292,
                2.845690502485889
            ]
        },
        {
            "positions": [
                -1.2967090548570237,
                -1.448796368862248,
                1.75962646028946,
                -0.2976583488887092,
                1.3780182497286635,
                2.7024458965746025
            ]
        },
        {
            "positions": [
                -1.425736274946006,
                -1.5081014016445404,
                1.7549001587246529,
                -0.23192002883282936,
                1.286749741437451,
                2.7237538945038735
            ]
        },
        {
            "positions": [
                -1.5547634950349885,
                -1.5674064344268328,
                1.7501738571598457,
                -0.16618170877694957,
                1.1954812331462383,
                2.745061892433144
            ]
        },
        {
            "positions": [
                -1.6837907151239708,
                -1.6267114672091252,
                1.7454475555950388,
                -0.10044338872106975,
                1.1042127248550255,
                2.766369890362415
            ]
        },
        {
            "positions": [
                -1.8128179352129532,
                -1.6860164999914176,
                1.7407212540302317,
                -0.034705068665189964,
                1.012944216563813,
                2.787677888291686
            ]
        },
        {
            "positions": [
                -1.9418451553019356,
                -1.7453215327737102,
                1.7359949524654246,
                0.031033251390689853,
                0.9216757082726003,
                2.8089858862209565
            ]
        },
        {
            "positions": [
                -2.070872375390918,
                -1.8046265655560025,
                1.7312686509006174,
                0.09677157144656967,
                0.8304071999813877,
                2.8302938841502274
            ]
        },
        {
            "positions": [
                -2.1998995954799003,
                -1.863931598338295,
                1.7265423493358103,
                0.1625098915024495,
                0.739138691690175,
                2.851601882079498
            ]
        },
        {
            "positions": [
                -2.3289268155688827,
                -1.9232366311205873,
                1.7218160477710034,
                0.22824821155832925,
                0.6478701833989624,
                2.872909880008769
            ]
        },
        {
            "positions": [
                -2.457954035657865,
                -1.9825416639028797,
                1.7170897462061963,
                0.2939865316142091,
                0.5566016751077496,
                2.89421787793804
            ]
        },
        {
            "positions": [
                -2.5869812557468475,
                -2.0418466966851723,
                1.7123634446413891,
                0.3597248516700889,
                0.465333166816537,
                2.9155258758673104
            ]
        },
        {
            "positions": [
                -2.71600847583583,
                -2.1011517294674644,
                1.707637143076582,
                0.42546317172596876,
                0.37406465852532444,
                2.9368338737965813
            ]
        },
        {
            "positions": [
                -2.845035695924812,
                -2.160456762249757,
                1.702910841511775,
                0.4912014917818485,
                0.28279615023411186,
                2.9581418717258523
            ]
        },
        {
            "positions": [
                -2.9740629160137946,
                -2.219761795032049,
                1.698184539946968,
                0.5569398118377284,
                0.19152764194289906,
                2.979449869655123
            ]
        },
        {
            "positions": [
                -3.103090136102777,
                -2.2790668278143418,
                1.6934582383821608,
                0.6226781318936081,
                0.10025913365168648,
                3.000757867584394
            ]
        },
        {
            "positions": [
                -3.0459133860051804,
                -2.1775184746934766,
                1.721901393446995,
                0.49123773035087204,
                0.15233520130629227,
                3.012437811804418
            ]
        },
        {
            "positions": [
                -2.9887366359075833,
                -2.075970121572611,
                1.7503445485118294,
                0.35979732880813603,
                0.20441126896089806,
                3.024117756024442
            ]
        },
        {
            "positions": [
                -2.9315598858099867,
                -1.9744217684517458,
                1.7787877035766637,
                0.22835692726540002,
                0.2564873366155038,
                3.0357977002444665
            ]
        },
        {
            "positions": [
                -2.87438313571239,
                -1.8728734153308806,
                1.807230858641498,
                0.09691652572266396,
                0.30856340427010964,
                3.047477644464491
            ]
        },
        {
            "positions": [
                -2.8172063856147935,
                -1.7713250622100154,
                1.835674013706332,
                -0.03452387582007199,
                0.3606394719247154,
                3.059157588684515
            ]
        },
        {
            "positions": [
                -2.7600296355171965,
                -1.66977670908915,
                1.8641171687711664,
                -0.16596427736280805,
                0.41271553957932117,
                3.070837532904539
            ]
        },
        {
            "positions": [
                -2.7028528854196,
                -1.5682283559682846,
                1.8925603238360007,
                -0.2974046789055441,
                0.464791607233927,
                3.082517477124563
            ]
        },
        {
            "positions": [
                -2.6456761353220033,
                -1.4666800028474194,
                1.921003478900835,
                -0.4288450804482802,
                0.5168676748885328,
                3.0941974213445875
            ]
        },
        {
            "positions": [
                -2.5884993852244067,
                -1.365131649726554,
                1.9494466339656693,
                -0.5602854819910164,
                0.5689437425431386,
                3.105877365564612
            ]
        },
        {
            "positions": [
                -2.5313226351268097,
                -1.2635832966056888,
                1.9778897890305036,
                -0.6917258835337521,
                0.6210198101977443,
                3.117557309784636
            ]
        },
        {
            "positions": [
                -2.474145885029213,
                -1.1620349434848234,
                2.006332944095338,
                -0.8231662850764881,
                0.6730958778523501,
                3.1292372540046602
            ]
        }
    ]
}