{
    "goal": {
        "global_pose": {
            "orientation": {
                "w": 0.7031023480610252,
                "x": -0.7110244013736278,
                "y": 0.0077485991402295624,
                "z": 0.005598929693374583
            },
            "position": {
                "x": -0.8841497679147869,
                "y": 0.44412534475326537,
                "z": 0.3711530566215515
            }
        },
        "name": "move_to_auspresseinheit_D"
    },
    "id": "KPIECE_move_to_auspresseinheit_D_118",
    "joint_names": [
        "shoulder_pan_joint",
        "shoulder_lift_joint",
        "elbow_joint",
        "wrist_1_joint",
        "wrist_2_joint",
        "wrist_3_joint"
    ],
    "metrics": {
        "cart_traj_len": 3.6948586682908253,
        "distance_elbow_joint": 3.017141085392459,
        "distance_shoulder_lift_joint": 1.2332057709721185,
        "distance_shoulder_pan_joint": 2.7970611347886174,
        "distance_wrist_1_joint": 2.6424973489931634,
        "distance_wrist_2_joint": 1.214279628426985,
        "distance_wrist_3_joint": 2.69606270418612,
        "smoothness": 0.19410745343047,
        "time": 0.050238764000000005,
        "traj_len": 3.6878513626174607,
        "weighted_distance": 4.780078457363629
    },
    "planner": "KPIECE",
    "start": {
        "state": {
            "elbow_joint": 1.8268400409724999,
            "shoulder_lift_joint": -1.0144045787793008,
            "shoulder_pan_joint": 2.6280239544362485,
            "wrist_1_joint": -0.790705565816056,
            "wrist_2_joint": 1.0573557467365533,
            "wrist_3_joint": 3.1851377467193758
        }
    },
    "waypoints": [
        {
            "positions": [
                2.6280239544362485,
                -1.0144045787793008,
                1.8268400409724999,
                -0.790705565816056,
                1.0573557467365533,
                3.1851377467193758
            ]
        },
        {
            "positions": [
                2.6127567999704633,
                -1.0389502095203162,
                1.7771465055440168,
                -0.7434576997695148,
                1.0102114629782122,
                3.166428816378353
            ]
        },
        {
            "positions": [
                2.5413246815491832,
                -1.0819163819653943,
                1.6760970661659775,
                -0.7274583330680332,
                0.9400679280541848,
                3.077181838137049
            ]
        },
        {
            "positions": [
                2.4698925631279027,
                -1.1248825544104724,
                1.575047626787938,
                -0.7114589663665516,
                0.8699243931301576,
                2.987934859895745
            ]
        },
        {
            "positions": [
                2.3984604447066227,
                -1.1678487268555502,
                1.4739981874098986,
                -0.69545959966507,
                0.7997808582061303,
                2.898687881654441
            ]
        },
        {
            "positions": [
                2.327028326285342,
                -1.2108148993006282,
                1.3729487480318594,
                -0.6794602329635884,
                0.729637323282103,
                2.8094409034131367
            ]
        },
        {
            "positions": [
                2.255596207864062,
                -1.2537810717457063,
                1.2718993086538202,
                -0.6634608662621068,
                0.6594937883580757,
                2.7201939251718326
            ]
        },
        {
            "positions": [
                2.184164089442782,
                -1.2967472441907844,
                1.1708498692757807,
                -0.6474614995606252,
                0.5893502534340483,
                2.6309469469305284
            ]
        },
        {
            "positions": [
                2.1127319710215016,
                -1.3397134166358624,
                1.0698004298977413,
                -0.6314621328591437,
                0.5192067185100211,
                2.5416999686892248
            ]
        },
        {
            "positions": [
                2.0412998526002215,
                -1.3826795890809405,
                0.968750990519702,
                -0.6154627661576619,
                0.44906318358599373,
                2.4524529904479206
            ]
        },
        {
            "positions": [
                1.9698677341789412,
                -1.4256457615260183,
                0.8677015511416627,
                -0.5994633994561804,
                0.3789196486619665,
                2.3632060122066165
            ]
        },
        {
            "positions": [
                1.898435615757661,
                -1.4686119339710964,
                0.7666521117636234,
                -0.5834640327546988,
                0.30877611373793923,
                2.2739590339653124
            ]
        },
        {
            "positions": [
                1.827003497336381,
                -1.5115781064161744,
                0.6656026723855839,
                -0.5674646660532172,
                0.23863257881391187,
                2.1847120557240083
            ]
        },
        {
            "positions": [
                1.7555713789151004,
                -1.5545442788612522,
                0.5645532330075445,
                -0.5514652993517356,
                0.1684890438898845,
                2.095465077482704
            ]
        },
        {
            "positions": [
                1.6841392604938203,
                -1.5975104513063303,
                0.4635037936295052,
                -0.535465932650254,
                0.09834550896585725,
                2.0062180992414
            ]
        },
        {
            "positions": [
                1.61270714207254,
                -1.6404766237514083,
                0.36245435425146577,
                -0.5194665659487724,
                0.02820197404182989,
                1.9169711210000961
            ]
        },
        {
            "positions": [
                1.5412750236512598,
                -1.6834427961964864,
                0.2614049148734265,
                -0.5034671992472908,
                -0.04194156088219729,
                1.827724142758792
            ]
        },
        {
            "positions": [
                1.4557594134510783,
                -1.711651173874233,
                0.18881961690875715,
                -0.6212301483685106,
                -0.04769067692260903,
                1.894656597770069
            ]
        },
        {
            "positions": [
                1.3702438032508968,
                -1.7398595515519797,
                0.11623431894408784,
                -0.7389930974897305,
                -0.05343979296302077,
                1.9615890527813455
            ]
        },
        {
            "positions": [
                1.2847281930507155,
                -1.7680679292297263,
                0.0436490209794185,
                -0.8567560466109505,
                -0.0591889090034325,
                2.0285215077926226
            ]
        },
        {
            "positions": [
                1.199212582850534,
                -1.796276306907473,
                -0.02893627698525081,
                -0.9745189957321704,
                -0.06493802504384424,
                2.0954539628038993
            ]
        },
        {
            "positions": [
                1.1136969726503525,
                -1.8244846845852196,
                -0.10152157494992015,
                -1.0922819448533903,
                -0.07068714108425599,
                2.162386417815176
            ]
        },
        {
            "positions": [
                1.0281813624501712,
                -1.8526930622629663,
                -0.17410687291458948,
                -1.2100448939746102,
                -0.07643625712466773,
                2.229318872826453
            ]
        },
        {
            "positions": [
                0.9426657522499897,
                -1.880901439940713,
                -0.24669217087925882,
                -1.32780784309583,
                -0.08218537316507946,
                2.2962513278377297
            ]
        },
        {
            "positions": [
                0.8571501420498082,
                -1.9091098176184595,
                -0.3192774688439281,
                -1.44557079221705,
                -0.0879344892054912,
                2.3631837828490063
            ]
        },
        {
            "positions": [
                0.7716345318496267,
                -1.9373181952962062,
                -0.3918627668085975,
                -1.56333374133827,
                -0.09368360524590294,
                2.4301162378602834
            ]
        },
        {
            "positions": [
                0.6861189216494453,
                -1.9655265729739528,
                -0.4644480647732668,
                -1.6810966904594897,
                -0.09943272128631467,
                2.49704869287156
            ]
        },
        {
            "positions": [
                0.6006033114492638,
                -1.9937349506516995,
                -0.5370333627379362,
                -1.7988596395807097,
                -0.10518183732672642,
                2.563981147882837
            ]
        },
        {
            "positions": [
                0.5150877012490824,
                -2.021943328329446,
                -0.6096186607026055,
                -1.9166225887019295,
                -0.11093095336713815,
                2.630913602894114
            ]
        },
        {
            "positions": [
                0.42957209104890093,
                -2.0501517060071928,
                -0.6822039586672748,
                -2.0343855378231495,
                -0.1166800694075499,
                2.697846057905391
            ]
        },
        {
            "positions": [
                0.34405648084871965,
                -2.0783600836849394,
                -0.7547892566319441,
                -2.152148486944369,
                -0.12242918544796162,
                2.764778512916667
            ]
        },
        {
            "positions": [
                0.25854087064853815,
                -2.106568461362686,
                -0.8273745545966134,
                -2.2699114360655894,
                -0.12817830148837336,
                2.831710967927944
            ]
        },
        {
            "positions": [
                0.17302526044835664,
                -2.1347768390404327,
                -0.8999598525612826,
                -2.387674385186809,
                -0.13392741752878512,
                2.8986434229392213
            ]
        },
        {
            "positions": [
                0.08750965024817514,
                -2.1629852167181793,
                -0.9725451505259519,
                -2.505437334308029,
                -0.13967653356919685,
                2.965575877950498
            ]
        },
        {
            "positions": [
                0.0019940400479936393,
                -2.191193594395926,
                -1.0451304484906214,
                -2.623200283429249,
                -0.14542564960960858,
                3.0325083329617746
            ]
        },
        {
            "positions": [
                -0.08352157015218764,
                -2.2194019720736726,
                -1.1177157464552907,
                -2.7409632325504685,
                -0.1511747656500203,
                3.0994407879730517
            ]
        },
        {
            "positions": [
                -0.16903718035236917,
                -2.2476103497514193,
                -1.19030104441996,
                -2.8587261816716887,
                -0.15692388169043206,
                3.1663732429843283
            ]
        }
    ]
}