{
    "goal": {
        "global_pose": {
            "orientation": {
                "w": 0.5084816217422485,
                "x": -0.49083608388900757,
                "y": 0.5182115435600281,
                "z": -0.4816462993621826
            },
            "position": {
                "x": 0.5540239810943604,
                "y": 0.030875300988554955,
                "z": 0.16403168439865112
            }
        },
        "name": "move_to_storage_A"
    },
    "id": "KPIECE_move_to_storage_A_84",
    "joint_names": [
        "shoulder_pan_joint",
        "shoulder_lift_joint",
        "elbow_joint",
        "wrist_1_joint",
        "wrist_2_joint",
        "wrist_3_joint"
    ],
    "metrics": {
        "cart_traj_len": 0.35345302266894874,
        "distance_elbow_joint": 0.44756682964055194,
        "distance_shoulder_lift_joint": 0.2367505882150187,
        "distance_shoulder_pan_joint": 0.45979066584644007,
        "distance_wrist_1_joint": 0.23171046349827085,
        "distance_wrist_2_joint": 1.1105287526504202,
        "distance_wrist_3_joint": 0.0957231519815176,
        "smoothness": 8.881784267329941e-16,
        "time": 0.07523539900000001,
        "traj_len": 1.6068822146729422,
        "weighted_distance": 2.02873260237616
    },
    "planner": "KPIECE",
    "start": {
        "state": {
            "elbow_joint": 1.9715474177455299,
            "shoulder_lift_joint": -1.139484666580328,
            "shoulder_pan_joint": 0.12281154398918248,
            "wrist_1_joint": -0.7804687475355282,
            "wrist_2_joint": 0.12958649657246987,
            "wrist_3_joint": -3.1924925159053466
        }
    },
    "waypoints": [
        {
            "positions": [
                0.12281154398918248,
                -1.139484666580328,
                1.9715474177455299,
                -0.7804687475355282,
                0.12958649657246987,
                -3.1924925159053466
            ]
        },
        {
            "positions": [
                0.05712716315397676,
                -1.1733061791824735,
                2.035485536265609,
                -0.8135702423209955,
                0.28823346123681565,
                -3.178817779907987
            ]
        },
        {
            "positions": [
                -0.008557217681228968,
                -1.207127691784619,
                2.0994236547856877,
                -0.8466717371064627,
                0.4468804259011614,
                -3.165143043910627
            ]
        },
        {
            "positions": [
                -0.07424159851643469,
                -1.2409492043867645,
                2.1633617733057666,
                -0.87977323189193,
                0.6055273905655072,
                -3.1514683079132677
            ]
        },
        {
            "positions": [
                -0.13992597935164042,
                -1.2747707169889102,
                2.227299891825845,
                -0.9128747266773972,
                0.764174355229853,
                -3.137793571915908
            ]
        },
        {
            "positions": [
                -0.20561036018684614,
                -1.3085922295910557,
                2.291238010345924,
                -0.9459762214628645,
                0.9228213198941988,
                -3.1241188359185483
            ]
        },
        {
            "positions": [
                -0.27129474102205187,
                -1.3424137421932012,
                2.355176128866003,
                -0.9790777162483317,
                1.0814682845585444,
                -3.1104440999211884
            ]
        },
        {
            "positions": [
                -0.3369791218572576,
                -1.3762352547953467,
                2.419114247386082,
                -1.012179211033799,
                1.2401152492228902,
                -3.096769363923829
            ]
        }
    ]
}