{
    "goal": {
        "global_pose": {
            "orientation": {
                "w": 0.5084816262002911,
                "x": -0.4908360881923452,
                "y": 0.5182115481033761,
                "z": -0.48164630358495003
            },
            "position": {
                "x": 0.5540239810943604,
                "y": -0.46912469901144505,
                "z": 0.16403168439865112
            }
        },
        "name": "move_to_storage_B"
    },
    "id": "KPIECE_move_to_storage_B_94",
    "joint_names": [
        "shoulder_pan_joint",
        "shoulder_lift_joint",
        "elbow_joint",
        "wrist_1_joint",
        "wrist_2_joint",
        "wrist_3_joint"
    ],
    "metrics": {
        "cart_traj_len": 2.747049797018059,
        "distance_elbow_joint": 1.949646437005051,
        "distance_shoulder_lift_joint": 0.7394366923999101,
        "distance_shoulder_pan_joint": 2.2652755690753903,
        "distance_wrist_1_joint": 2.9901726967186457,
        "distance_wrist_2_joint": 2.70704090219319,
        "distance_wrist_3_joint": 3.143876743990947,
        "smoothness": 0.2480605455737997,
        "time": 0.08323672500000001,
        "traj_len": 3.7142225352532567,
        "weighted_distance": 5.077441888222539
    },
    "planner": "KPIECE",
    "start": {
        "state": {
            "elbow_joint": 1.6649325706314817,
            "shoulder_lift_joint": -0.6616388048112454,
            "shoulder_pan_joint": -0.9139837860083814,
            "wrist_1_joint": 2.146757197745094,
            "wrist_2_joint": -2.234196043158733,
            "wrist_3_joint": 0.005471033829999897
        }
    },
    "waypoints": [
        {
            "positions": [
                -0.9139837860083814,
                -0.6616388048112454,
                1.6649325706314817,
                2.146757197745094,
                -2.234196043158733,
                0.005471033829999897
            ]
        },
        {
            "positions": [
                -0.827158770973903,
                -0.7116567278843288,
                1.5983581131462885,
                2.1263105638239295,
                -2.1395720731019088,
                -0.05875490350470148
            ]
        },
        {
            "positions": [
                -0.7403337559394247,
                -0.761674650957412,
                1.531783655661095,
                2.1058639299027653,
                -2.0449481030450847,
                -0.12298084083940285
            ]
        },
        {
            "positions": [
                -0.6535087409049465,
                -0.8116925740304954,
                1.465209198175902,
                2.0854172959816006,
                -1.9503241329882606,
                -0.18720677817410425
            ]
        },
        {
            "positions": [
                -0.5666837258704681,
                -0.8617104971035787,
                1.3986347406907087,
                2.0649706620604364,
                -1.8557001629314367,
                -0.2514327155088056
            ]
        },
        {
            "positions": [
                -0.4798587108359898,
                -0.9117284201766622,
                1.3320602832055155,
                2.044524028139272,
                -1.7610761928746126,
                -0.31565865284350697
            ]
        },
        {
            "positions": [
                -0.3930336958015115,
                -0.9617463432497455,
                1.2654858257203223,
                2.024077394218107,
                -1.6664522228177885,
                -0.37988459017820836
            ]
        },
        {
            "positions": [
                -0.3062086807670331,
                -1.011764266322829,
                1.198911368235129,
                2.003630760296943,
                -1.5718282527609644,
                -0.44411052751290975
            ]
        },
        {
            "positions": [
                -0.21938366573255486,
                -1.0617821893959123,
                1.1323369107499357,
                1.9831841263757786,
                -1.4772042827041405,
                -0.5083364648476111
            ]
        },
        {
            "positions": [
                -0.1325586506980766,
                -1.1118001124689956,
                1.0657624532647425,
                1.9627374924546142,
                -1.3825803126473164,
                -0.5725624021823125
            ]
        },
        {
            "positions": [
                -0.04573363566359823,
                -1.1618180355420789,
                0.9991879957795492,
                1.9422908585334495,
                -1.2879563425904923,
                -0.6367883395170139
            ]
        },
        {
            "positions": [
                0.04109137937088003,
                -1.2118359586151621,
                0.932613538294356,
                1.921844224612285,
                -1.1933323725336682,
                -0.7010142768517152
            ]
        },
        {
            "positions": [
                0.12791639440535849,
                -1.2618538816882456,
                0.8660390808091627,
                1.9013975906911207,
                -1.098708402476844,
                -0.7652402141864166
            ]
        },
        {
            "positions": [
                0.07694241987778974,
                -1.2560529810414578,
                0.9139871202751099,
                1.7870303786217594,
                -1.03322701658054,
                -0.8641221098520221
            ]
        },
        {
            "positions": [
                0.025968445350220998,
                -1.2502520803946697,
                0.961935159741057,
                1.672663166552398,
                -0.9677456306842357,
                -0.9630040055176275
            ]
        },
        {
            "positions": [
                -0.025005529177347746,
                -1.2444511797478819,
                1.009883199207004,
                1.5582959544830368,
                -0.9022642447879314,
                -1.0618859011832331
            ]
        },
        {
            "positions": [
                -0.07597950370491649,
                -1.238650279101094,
                1.0578312386729514,
                1.4439287424136755,
                -0.8367828588916273,
                -1.1607677968488384
            ]
        },
        {
            "positions": [
                -0.12695347823248523,
                -1.2328493784543062,
                1.1057792781388986,
                1.329561530344314,
                -0.7713014729953231,
                -1.259649692514444
            ]
        },
        {
            "positions": [
                -0.17792745276005398,
                -1.2270484778075181,
                1.1537273176048457,
                1.2151943182749527,
                -0.7058200870990189,
                -1.3585315881800493
            ]
        },
        {
            "positions": [
                -0.22890142728762272,
                -1.2212475771607303,
                1.2016753570707928,
                1.1008271062055912,
                -0.6403387012027146,
                -1.457413483845655
            ]
        },
        {
            "positions": [
                -0.27987540181519144,
                -1.2154466765139424,
                1.24962339653674,
                0.9864598941362301,
                -0.5748573153064105,
                -1.5562953795112602
            ]
        },
        {
            "positions": [
                -0.33084937634276024,
                -1.2096457758671544,
                1.2975714360026873,
                0.8720926820668686,
                -0.5093759294101063,
                -1.6551772751768659
            ]
        },
        {
            "positions": [
                -0.3818233508703289,
                -1.2038448752203665,
                1.3455194754686344,
                0.7577254699975073,
                -0.4438945435138021,
                -1.754059170842471
            ]
        },
        {
            "positions": [
                -0.4327973253978976,
                -1.1980439745735787,
                1.3934675149345814,
                0.643358257928146,
                -0.37841315761749794,
                -1.8529410665080768
            ]
        },
        {
            "positions": [
                -0.4837712999254664,
                -1.1922430739267909,
                1.4414155544005287,
                0.5289910458587848,
                -0.3129317717211937,
                -1.951822962173682
            ]
        },
        {
            "positions": [
                -0.5347452744530351,
                -1.1864421732800028,
                1.489363593866476,
                0.41462383378942347,
                -0.24745038582488954,
                -2.0507048578392877
            ]
        },
        {
            "positions": [
                -0.5857192489806039,
                -1.180641272633215,
                1.537311633332423,
                0.30025662172006196,
                -0.18196899992858517,
                -2.149586753504893
            ]
        },
        {
            "positions": [
                -0.6366932235081726,
                -1.174840371986427,
                1.58525967279837,
                0.1858894096507009,
                -0.11648761403228103,
                -2.2484686491704986
            ]
        },
        {
            "positions": [
                -0.6876671980357414,
                -1.169039471339639,
                1.6332077122643174,
                0.0715221975813396,
                -0.05100622813597688,
                -2.347350544836104
            ]
        },
        {
            "positions": [
                -0.7386411725633102,
                -1.1632385706928512,
                1.6811557517302647,
                -0.042845014488021915,
                0.014475157760327484,
                -2.4462324405017095
            ]
        },
        {
            "positions": [
                -0.7896151470908789,
                -1.1574376700460633,
                1.7291037911962117,
                -0.15721222655738343,
                0.07995654365663141,
                -2.5451143361673148
            ]
        },
        {
            "positions": [
                -0.8405891216184476,
                -1.1516367693992753,
                1.7770518306621588,
                -0.2715794386267443,
                0.14543792955293555,
                -2.6439962318329204
            ]
        },
        {
            "positions": [
                -0.8915630961460164,
                -1.1458358687524874,
                1.824999870128106,
                -0.385946650696106,
                0.21091931544923992,
                -2.7428781274985257
            ]
        },
        {
            "positions": [
                -0.9425370706735852,
                -1.1400349681056996,
                1.8729479095940533,
                -0.5003138627654673,
                0.27640070134554406,
                -2.841760023164131
            ]
        },
        {
            "positions": [
                -0.9935110452011537,
                -1.1342340674589118,
                1.9208959490600004,
                -0.6146810748348286,
                0.3418820872418482,
                -2.9406419188297366
            ]
        },
        {
            "positions": [
                -1.0444850197287225,
                -1.1284331668121237,
                1.9688439885259477,
                -0.7290482869041899,
                0.4073634731381526,
                -3.0395238144953423
            ]
        },
        {
            "positions": [
                -1.0954589942562913,
                -1.1226322661653358,
                2.0167920279918947,
                -0.8434154989735514,
                0.4728448590344566,
                -3.1384057101609475
            ]
        }
    ]
}