{
    "goal": {
        "global_pose": {
            "orientation": {
                "w": -0.4816463035849501,
                "x": 0.5182115481033762,
                "y": 0.4908360881923453,
                "z": -0.5084816262002911
            },
            "position": {
                "x": -0.8240239810943604,
                "y": -0.300875300988555,
                "z": 0.16403168439865112
            }
        },
        "name": "move_to_storage_C"
    },
    "id": "KPIECE_move_to_storage_C_98",
    "joint_names": [
        "shoulder_pan_joint",
        "shoulder_lift_joint",
        "elbow_joint",
        "wrist_1_joint",
        "wrist_2_joint",
        "wrist_3_joint"
    ],
    "metrics": {
        "cart_traj_len": 0.5758958143907094,
        "distance_elbow_joint": 0.25820245238619477,
        "distance_shoulder_lift_joint": 0.18830591221881143,
        "distance_shoulder_pan_joint": 0.4947728810993719,
        "distance_wrist_1_joint": 0.08471993573101722,
        "distance_wrist_2_joint": 1.0643495424579363,
        "distance_wrist_3_joint": 0.07612498932057798,
        "smoothness": 0.0,
        "time": 0.021085638,
        "traj_len": 1.4718952792960203,
        "weighted_distance": 1.8622016996136639
    },
    "planner": "KPIECE",
    "start": {
        "state": {
            "elbow_joint": 2.010868315001653,
            "shoulder_lift_joint": -1.1634956873357014,
            "shoulder_pan_joint": -2.4736205022346103,
            "wrist_1_joint": -0.8367026794713948,
            "wrist_2_joint": 0.6746043897044093,
            "wrist_3_joint": 3.1335220948105738
        }
    },
    "waypoints": [
        {
            "positions": [
                -2.4736205022346103,
                -1.1634956873357014,
                2.010868315001653,
                -0.8367026794713948,
                0.6746043897044093,
                3.1335220948105738
            ]
        },
        {
            "positions": [
                -2.5560826490845057,
                -1.1321113686325661,
                1.9678345729372873,
                -0.8225826901828919,
                0.8519959801140653,
                3.14620959303067
            ]
        },
        {
            "positions": [
                -2.638544795934401,
                -1.1007270499294308,
                1.9248008308729214,
                -0.808462700894389,
                1.0293875705237214,
                3.1588970912507666
            ]
        },
        {
            "positions": [
                -2.721006942784296,
                -1.0693427312262958,
                1.8817670888085556,
                -0.7943427116058861,
                1.2067791609333773,
                3.1715845894708625
            ]
        },
        {
            "positions": [
                -2.8034690896341914,
                -1.0379584125231605,
                1.83873334674419,
                -0.7802227223173833,
                1.3841707513430335,
                3.184272087690959
            ]
        },
        {
            "positions": [
                -2.885931236484087,
                -1.0065740938200252,
                1.7956996046798241,
                -0.7661027330288804,
                1.5615623417526896,
                3.1969595859110553
            ]
        },
        {
            "positions": [
                -2.968393383333982,
                -0.97518977511689,
                1.7526658626154583,
                -0.7519827437403775,
                1.7389539321623455,
                3.2096470841311517
            ]
        }
    ]
}