{
    "goal": {
        "global_pose": {
            "orientation": {
                "w": 0.5084816217422485,
                "x": -0.49083608388900757,
                "y": 0.5182115435600281,
                "z": -0.4816462993621826
            },
            "position": {
                "x": 0.5540239810943604,
                "y": 0.030875300988554955,
                "z": 0.16403168439865112
            }
        },
        "name": "move_to_storage_A"
    },
    "id": "KPIECE_move_to_storage_A_130",
    "joint_names": [
        "shoulder_pan_joint",
        "shoulder_lift_joint",
        "elbow_joint",
        "wrist_1_joint",
        "wrist_2_joint",
        "wrist_3_joint"
    ],
    "metrics": {
        "cart_traj_len": 0.3533953640839722,
        "distance_elbow_joint": 0.45209055704792256,
        "distance_shoulder_lift_joint": 0.23379124030645548,
        "distance_shoulder_pan_joint": 0.46128176891674133,
        "distance_wrist_1_joint": 0.25380640983526714,
        "distance_wrist_2_joint": 1.10281665453744,
        "distance_wrist_3_joint": 0.10893511392731003,
        "smoothness": 8.881784197001252e-16,
        "time": 0.057944566,
        "traj_len": 1.616391581446506,
        "weighted_distance": 2.0462685641915295
    },
    "planner": "KPIECE",
    "start": {
        "state": {
            "elbow_joint": 1.9715474177455299,
            "shoulder_lift_joint": -1.139484666580328,
            "shoulder_pan_joint": 0.12281154398918248,
            "wrist_1_joint": -0.7804687475355282,
            "wrist_2_joint": 0.12958649657246987,
            "wrist_3_joint": -3.1924925159053466
        }
    },
    "waypoints": [
        {
            "positions": [
                0.12281154398918248,
                -1.139484666580328,
                1.9715474177455299,
                -0.7804687475355282,
                0.12958649657246987,
                -3.1924925159053466
            ]
        },
        {
            "positions": [
                0.05691414842964801,
                -1.1728834151955359,
                2.03613178303809,
                -0.8167268060834235,
                0.2871317329349613,
                -3.1769303567728735
            ]
        },
        {
            "positions": [
                -0.008983247129886462,
                -1.206282163810744,
                2.1007161483306507,
                -0.8529848646313188,
                0.4446769692974527,
                -3.161368197640401
            ]
        },
        {
            "positions": [
                -0.07488064268942093,
                -1.2396809124259518,
                2.165300513623211,
                -0.889242923179214,
                0.6022222056599441,
                -3.145806038507928
            ]
        },
        {
            "positions": [
                -0.1407780382489554,
                -1.2730796610411597,
                2.2298848789157715,
                -0.9255009817271094,
                0.7597674420224356,
                -3.1302438793754552
            ]
        },
        {
            "positions": [
                -0.2066754338084899,
                -1.3064784096563677,
                2.2944692442083316,
                -0.9617590402750047,
                0.9173126783849271,
                -3.114681720242982
            ]
        },
        {
            "positions": [
                -0.27257282936802435,
                -1.3398771582715756,
                2.359053609500892,
                -0.9980170988229,
                1.0748579147474184,
                -3.0991195611105096
            ]
        },
        {
            "positions": [
                -0.33847022492755885,
                -1.3732759068867835,
                2.4236379747934524,
                -1.0342751573707953,
                1.2324031511099098,
                -3.0835574019780365
            ]
        }
    ]
}