{
    "goal": {
        "global_pose": {
            "orientation": {
                "w": 0.5084816217422485,
                "x": -0.49083608388900757,
                "y": 0.5182115435600281,
                "z": -0.4816462993621826
            },
            "position": {
                "x": 0.5540239810943604,
                "y": 0.030875300988554955,
                "z": 0.16403168439865112
            }
        },
        "name": "move_to_storage_A"
    },
    "id": "KPIECE_move_to_storage_A_91",
    "joint_names": [
        "shoulder_pan_joint",
        "shoulder_lift_joint",
        "elbow_joint",
        "wrist_1_joint",
        "wrist_2_joint",
        "wrist_3_joint"
    ],
    "metrics": {
        "cart_traj_len": 0.35208106076300966,
        "distance_elbow_joint": 0.4503900431208052,
        "distance_shoulder_lift_joint": 0.23452385150779498,
        "distance_shoulder_pan_joint": 0.45884221353082855,
        "distance_wrist_1_joint": 0.24655464535812122,
        "distance_wrist_2_joint": 1.103553474442322,
        "distance_wrist_3_joint": 0.09361131153797464,
        "smoothness": 2.2204460668324854e-16,
        "time": 0.112987592,
        "traj_len": 1.608563191017949,
        "weighted_distance": 2.030961910616307
    },
    "planner": "KPIECE",
    "start": {
        "state": {
            "elbow_joint": 1.9715474177455299,
            "shoulder_lift_joint": -1.139484666580328,
            "shoulder_pan_joint": 0.12281154398918248,
            "wrist_1_joint": -0.7804687475355282,
            "wrist_2_joint": 0.12958649657246987,
            "wrist_3_joint": -3.1924925159053466
        }
    },
    "waypoints": [
        {
            "positions": [
                0.12281154398918248,
                -1.139484666580328,
                1.9715474177455299,
                -0.7804687475355282,
                0.12958649657246987,
                -3.1924925159053466
            ]
        },
        {
            "positions": [
                0.057262656341921264,
                -1.1729880739385845,
                2.0358888524770733,
                -0.8156908397295455,
                0.28723699292137306,
                -3.179119471399922
            ]
        },
        {
            "positions": [
                -0.008286231305339953,
                -1.2064914812968408,
                2.100230287208617,
                -0.8509129319235629,
                0.4448874892702762,
                -3.1657464268944966
            ]
        },
        {
            "positions": [
                -0.07383511895260117,
                -1.2399948886550973,
                2.1645717219401606,
                -0.8861350241175802,
                0.6025379856191794,
                -3.152373382389072
            ]
        },
        {
            "positions": [
                -0.1393840065998624,
                -1.2734982960133536,
                2.2289131566717044,
                -0.9213571163115974,
                0.7601884819680826,
                -3.1390003378836466
            ]
        },
        {
            "positions": [
                -0.20493289424712363,
                -1.3070017033716101,
                2.293254591403248,
                -0.9565792085056148,
                0.9178389783169859,
                -3.125627293378222
            ]
        },
        {
            "positions": [
                -0.2704817818943848,
                -1.3405051107298664,
                2.3575960261347912,
                -0.991801300699632,
                1.075489474665889,
                -3.1122542488727967
            ]
        },
        {
            "positions": [
                -0.33603066954164607,
                -1.374008518088123,
                2.421937460866335,
                -1.0270233928936494,
                1.2331399710147921,
                -3.098881204367372
            ]
        }
    ]
}