{
    "goal": {
        "global_pose": {
            "orientation": {
                "w": 0.7031023502349854,
                "x": -0.7110244035720825,
                "y": 0.007748599164187908,
                "z": 0.005598929710686207
            },
            "position": {
                "x": 0.11585023208521307,
                "y": 0.44412534475326537,
                "z": 0.3711530566215515
            }
        },
        "name": "move_to_auspresseinheit_A"
    },
    "id": "KPIECE_move_to_auspresseinheit_A_16",
    "joint_names": [
        "shoulder_pan_joint",
        "shoulder_lift_joint",
        "elbow_joint",
        "wrist_1_joint",
        "wrist_2_joint",
        "wrist_3_joint"
    ],
    "metrics": {
        "cart_traj_len": 1.2442554936042594,
        "distance_elbow_joint": 0.4826505762699784,
        "distance_shoulder_lift_joint": 0.9774958999883856,
        "distance_shoulder_pan_joint": 2.8972534041745712,
        "distance_wrist_1_joint": 3.9825863034573192,
        "distance_wrist_2_joint": 0.5174056457389689,
        "distance_wrist_3_joint": 2.1520567910302626,
        "smoothness": 0.9208414017688711,
        "time": 0.551169807,
        "traj_len": 3.318048917761684,
        "weighted_distance": 4.4512418662566855
    },
    "planner": "KPIECE",
    "start": {
        "state": {
            "elbow_joint": 2.4225747245308327,
            "shoulder_lift_joint": -1.373653427065438,
            "shoulder_pan_joint": -0.33786330853087027,
            "wrist_1_joint": -1.0288602302712604,
            "wrist_2_joint": 1.23302299562683,
            "wrist_3_joint": -3.094021725338297
        }
    },
    "waypoints": [
        {
            "positions": [
                -0.33786330853087027,
                -1.373653427065438,
                2.4225747245308327,
                -1.0288602302712604,
                1.23302299562683,
                -3.094021725338297
            ]
        },
        {
            "positions": [
                -0.4040529545786015,
                -1.4277761351228155,
                2.404453031577744,
                -0.8671055146732145,
                1.2317830715293594,
                -3.0179797478691825
            ]
        },
        {
            "positions": [
                -0.4702426006263328,
                -1.4818988431801932,
                2.386331338624656,
                -0.7053507990751685,
                1.2305431474318889,
                -2.941937770400068
            ]
        },
        {
            "positions": [
                -0.5364322466740641,
                -1.5360215512375706,
                2.3682096456715676,
                -0.5435960834771225,
                1.229303223334418,
                -2.865895792930954
            ]
        },
        {
            "positions": [
                -0.6026218927217952,
                -1.5901442592949482,
                2.3500879527184795,
                -0.38184136787907663,
                1.2280632992369476,
                -2.7898538154618393
            ]
        },
        {
            "positions": [
                -0.6688115387695266,
                -1.6442669673523258,
                2.331966259765391,
                -0.22008665228103064,
                1.226823375139477,
                -2.7138118379927247
            ]
        },
        {
            "positions": [
                -0.7350011848172577,
                -1.6983896754097034,
                2.313844566812303,
                -0.05833193668298475,
                1.2255834510420065,
                -2.63776986052361
            ]
        },
        {
            "positions": [
                -0.8011908308649891,
                -1.752512383467081,
                2.2957228738592144,
                0.10342277891506124,
                1.2243435269445357,
                -2.5617278830544956
            ]
        },
        {
            "positions": [
                -0.8673804769127202,
                -1.8066350915244584,
                2.277601180906126,
                0.2651774945131071,
                1.2231036028470652,
                -2.4856859055853815
            ]
        },
        {
            "positions": [
                -0.9335701229604516,
                -1.860757799581836,
                2.2594794879530378,
                0.42693221011115323,
                1.2218636787495947,
                -2.409643928116267
            ]
        },
        {
            "positions": [
                -0.9997597690081828,
                -1.9148805076392137,
                2.2413577949999492,
                0.5886869257091991,
                1.2206237546521241,
                -2.3336019506471524
            ]
        },
        {
            "positions": [
                -1.0659494150559141,
                -1.969003215696591,
                2.223236102046861,
                0.750441641307245,
                1.2193838305546536,
                -2.2575599731780382
            ]
        },
        {
            "positions": [
                -1.1321390611036453,
                -2.0231259237539687,
                2.2051144090937727,
                0.9121963569052909,
                1.2181439064571828,
                -2.1815179957089237
            ]
        },
        {
            "positions": [
                -1.1983287071513766,
                -2.0772486318113463,
                2.1869927161406846,
                1.073951072503337,
                1.2169039823597123,
                -2.105476018239809
            ]
        },
        {
            "positions": [
                -1.2645183531991078,
                -2.131371339868724,
                2.168871023187596,
                1.2357057881013827,
                1.2156640582622418,
                -2.0294340407706946
            ]
        },
        {
            "positions": [
                -1.133145129232019,
                -2.116719474056384,
                2.184134148182712,
                1.121171102429071,
                1.1823276110372831,
                -2.1019319812015387
            ]
        },
        {
            "positions": [
                -1.0017719052649299,
                -2.102067608244044,
                2.199397273177828,
                1.0066364167567592,
                1.1489911638123242,
                -2.1744299216323824
            ]
        },
        {
            "positions": [
                -0.870398681297841,
                -2.087415742431704,
                2.2146603981729442,
                0.8921017310844473,
                1.1156547165873656,
                -2.2469278620632265
            ]
        },
        {
            "positions": [
                -0.7390254573307521,
                -2.072763876619364,
                2.2299235231680608,
                0.7775670454121356,
                1.082318269362407,
                -2.3194258024940706
            ]
        },
        {
            "positions": [
                -0.6076522333636633,
                -2.058112010807024,
                2.245186648163177,
                0.6630323597398239,
                1.0489818221374483,
                -2.3919237429249147
            ]
        },
        {
            "positions": [
                -0.4762790093965743,
                -2.0434601449946843,
                2.260449773158293,
                0.548497674067512,
                1.0156453749124894,
                -2.4644216833557584
            ]
        },
        {
            "positions": [
                -0.34490578542948536,
                -2.028808279182344,
                2.275712898153409,
                0.4339629883952003,
                0.9823089276875308,
                -2.5369196237866025
            ]
        },
        {
            "positions": [
                -0.2135325614623964,
                -2.0141564133700043,
                2.290976023148525,
                0.3194283027228886,
                0.9489724804625721,
                -2.6094175642174466
            ]
        },
        {
            "positions": [
                -0.08215933749530757,
                -1.9995045475576643,
                2.306239148143641,
                0.20489361705057685,
                0.9156360332376134,
                -2.6819155046482903
            ]
        },
        {
            "positions": [
                0.049213886471781265,
                -1.9848526817453243,
                2.321502273138757,
                0.09035893137826512,
                0.8822995860126547,
                -2.7544134450791344
            ]
        },
        {
            "positions": [
                0.1805871104388701,
                -1.9702008159329842,
                2.336765398133873,
                -0.024175754294046614,
                0.8489631387876959,
                -2.8269113855099786
            ]
        },
        {
            "positions": [
                0.31196033440595916,
                -1.9555489501206442,
                2.3520285231289897,
                -0.13871043996635857,
                0.8156266915627373,
                -2.8994093259408227
            ]
        },
        {
            "positions": [
                0.4433335583730482,
                -1.9408970843083044,
                2.3672916481241058,
                -0.2532451256386703,
                0.7822902443377785,
                -2.971907266371667
            ]
        },
        {
            "positions": [
                0.5747067823401371,
                -1.9262452184959644,
                2.382554773119222,
                -0.36777981131098203,
                0.7489537971128197,
                -3.0444052068025105
            ]
        },
        {
            "positions": [
                0.7060800063072259,
                -1.9115933526836244,
                2.397817898114338,
                -0.4823144969832937,
                0.7156173498878611,
                -3.1169031472333546
            ]
        }
    ]
}