{
    "goal": {
        "global_pose": {
            "orientation": {
                "w": 0.005598929693374612,
                "x": 0.007748599140229565,
                "y": 0.7110244013736278,
                "z": -0.7031023480610252
            },
            "position": {
                "x": -0.8858502320852131,
                "y": -0.7141253447532654,
                "z": 0.3711530566215515
            }
        },
        "name": "move_to_auspresseinheit_C"
    },
    "id": "KPIECE_move_to_auspresseinheit_C_92",
    "joint_names": [
        "shoulder_pan_joint",
        "shoulder_lift_joint",
        "elbow_joint",
        "wrist_1_joint",
        "wrist_2_joint",
        "wrist_3_joint"
    ],
    "metrics": {
        "cart_traj_len": 0.49450438556445664,
        "distance_elbow_joint": 1.016576153390829,
        "distance_shoulder_lift_joint": 0.3322253999791881,
        "distance_shoulder_pan_joint": 0.25657925640461876,
        "distance_wrist_1_joint": 0.7130700970643297,
        "distance_wrist_2_joint": 1.3123767713160621,
        "distance_wrist_3_joint": 0.08604654330772332,
        "smoothness": 6.45947944157498e-16,
        "time": 0.9734257119999999,
        "traj_len": 1.927919661568591,
        "weighted_distance": 2.4319568615537963
    },
    "planner": "KPIECE",
    "start": {
        "state": {
            "elbow_joint": 1.752795957773711,
            "shoulder_lift_joint": -0.9740617694225064,
            "shoulder_pan_joint": -2.967991417825858,
            "wrist_1_joint": -0.7595177689806859,
            "wrist_2_joint": 1.7443932448377395,
            "wrist_3_joint": 3.199131542505932
        }
    },
    "waypoints": [
        {
            "positions": [
                -2.967991417825858,
                -0.9740617694225064,
                1.752795957773711,
                -0.7595177689806859,
                1.7443932448377395,
                3.199131542505932
            ]
        },
        {
            "positions": [
                -2.942333492185396,
                -0.9408392294245876,
                1.6511383424346282,
                -0.6882107592742529,
                1.6131555677061333,
                3.19052688817516
            ]
        },
        {
            "positions": [
                -2.916675566544934,
                -0.9076166894266688,
                1.5494807270955453,
                -0.61690374956782,
                1.4819178905745272,
                3.1819222338443875
            ]
        },
        {
            "positions": [
                -2.8910176409044723,
                -0.87439414942875,
                1.4478231117564624,
                -0.545596739861387,
                1.3506802134429208,
                3.1733175795136153
            ]
        },
        {
            "positions": [
                -2.8653597152640105,
                -0.8411716094308312,
                1.3461654964173795,
                -0.474289730154954,
                1.2194425363113146,
                3.164712925182843
            ]
        },
        {
            "positions": [
                -2.8397017896235486,
                -0.8079490694329123,
                1.2445078810782966,
                -0.40298272044852107,
                1.0882048591797084,
                3.1561082708520702
            ]
        },
        {
            "positions": [
                -2.8140438639830867,
                -0.7747265294349936,
                1.1428502657392137,
                -0.3316757107420881,
                0.9569671820481023,
                3.147503616521298
            ]
        },
        {
            "positions": [
                -2.788385938342625,
                -0.7415039894370747,
                1.0411926504001308,
                -0.2603687010356552,
                0.8257295049164961,
                3.1388989621905257
            ]
        },
        {
            "positions": [
                -2.762728012702163,
                -0.7082814494391559,
                0.9395350350610479,
                -0.18906169132922213,
                0.6944918277848897,
                3.1302943078597534
            ]
        },
        {
            "positions": [
                -2.737070087061701,
                -0.6750589094412371,
                0.8378774197219649,
                -0.11775468162278924,
                0.5632541506532835,
                3.121689653528981
            ]
        },
        {
            "positions": [
                -2.711412161421239,
                -0.6418363694433183,
                0.736219804382882,
                -0.04644767191635628,
                0.4320164735216774,
                3.113084999198209
            ]
        }
    ]
}