{
    "goal": {
        "global_pose": {
            "orientation": {
                "w": -0.00223480608172531,
                "x": 0.0024358444001904467,
                "y": 0.7094548369677653,
                "z": -0.704743149386269
            },
            "position": {
                "x": 0.6205249238014221,
                "y": -0.6371506643295288,
                "z": 0.19426114857196808
            }
        },
        "name": "move_to_magneteinheit_B"
    },
    "id": "KPIECE_move_to_magneteinheit_B_22",
    "joint_names": [
        "shoulder_pan_joint",
        "shoulder_lift_joint",
        "elbow_joint",
        "wrist_1_joint",
        "wrist_2_joint",
        "wrist_3_joint"
    ],
    "metrics": {
        "cart_traj_len": 4.254334034315226,
        "distance_elbow_joint": 4.055150209105303,
        "distance_shoulder_lift_joint": 0.6679708526298278,
        "distance_shoulder_pan_joint": 3.2454420075903605,
        "distance_wrist_1_joint": 3.0072628463866793,
        "distance_wrist_2_joint": 3.03494632707425,
        "distance_wrist_3_joint": 3.129628942269707,
        "smoothness": 0.2877402568524686,
        "time": 0.467183568,
        "traj_len": 4.140096760349464,
        "weighted_distance": 5.426036144650759
    },
    "planner": "KPIECE",
    "start": {
        "state": {
            "elbow_joint": 2.3935871308073637,
            "shoulder_lift_joint": -1.9085141043777403,
            "shoulder_pan_joint": 0.7066247067284167,
            "wrist_1_joint": -0.46782909355067076,
            "wrist_2_joint": 0.7096259085804283,
            "wrist_3_joint": -3.1358149275257428
        }
    },
    "waypoints": [
        {
            "positions": [
                0.7066247067284167,
                -1.9085141043777403,
                2.3935871308073637,
                -0.46782909355067076,
                0.7096259085804283,
                -3.1358149275257428
            ]
        },
        {
            "positions": [
                0.6120457286306104,
                -1.9408053168901276,
                2.3785422762884405,
                -0.4491765987459011,
                0.5580681860259025,
                -3.1254447771967717
            ]
        },
        {
            "positions": [
                0.5174667505328039,
                -1.973096529402515,
                2.3634974217695173,
                -0.4305241039411315,
                0.40651046347137676,
                -3.115074626867801
            ]
        },
        {
            "positions": [
                0.4228877724349976,
                -2.005387741914902,
                2.348452567250594,
                -0.41187160913636184,
                0.25495274091685105,
                -3.10470447653883
            ]
        },
        {
            "positions": [
                0.3283087943371912,
                -2.0376789544272897,
                2.333407712731671,
                -0.3932191143315922,
                0.10339501836232523,
                -3.0943343262098595
            ]
        },
        {
            "positions": [
                0.23372981623938482,
                -2.069970166939677,
                2.3183628582127476,
                -0.3745666195268226,
                -0.04816270419220042,
                -3.0839641758808884
            ]
        },
        {
            "positions": [
                0.25889853222062603,
                -2.0581573717904726,
                2.172850665395838,
                -0.38272922662228587,
                -0.06988862460454369,
                -2.9472229654491326
            ]
        },
        {
            "positions": [
                0.28406724820186724,
                -2.0463445766412685,
                2.0273384725789283,
                -0.39089183371774916,
                -0.09161454501688696,
                -2.810481755017377
            ]
        },
        {
            "positions": [
                0.30923596418310845,
                -2.0345317814920643,
                1.8818262797620187,
                -0.3990544408132125,
                -0.11334046542923022,
                -2.673740544585621
            ]
        },
        {
            "positions": [
                0.33440468016434965,
                -2.02271898634286,
                1.736314086945109,
                -0.4072170479086758,
                -0.1350663858415735,
                -2.5369993341538652
            ]
        },
        {
            "positions": [
                0.4544732323489717,
                -2.039517532236414,
                1.6146256918475599,
                -0.4441126259902157,
                -0.09548813146665323,
                -2.4794418197659005
            ]
        },
        {
            "positions": [
                0.5745417845335937,
                -2.0563160781299676,
                1.4929372967500105,
                -0.48100820407175565,
                -0.05590987709173298,
                -2.421884305377936
            ]
        },
        {
            "positions": [
                0.6946103367182157,
                -2.0731146240235216,
                1.3712489016524612,
                -0.5179037821532956,
                -0.016331622716812738,
                -2.3643267909899714
            ]
        },
        {
            "positions": [
                0.8146788889028378,
                -2.0899131699170757,
                1.249560506554912,
                -0.5547993602348356,
                0.02324663165810753,
                -2.306769276602007
            ]
        },
        {
            "positions": [
                0.9347474410874599,
                -2.106711715810629,
                1.1278721114573629,
                -0.5916949383163754,
                0.06282488603302777,
                -2.2492117622140424
            ]
        },
        {
            "positions": [
                1.054815993272082,
                -2.1235102617041832,
                1.0061837163598135,
                -0.6285905163979153,
                0.10240314040794801,
                -2.191654247826078
            ]
        },
        {
            "positions": [
                1.1748845454567038,
                -2.1403088075977372,
                0.8844953212622643,
                -0.6654860944794553,
                0.14198139478286825,
                -2.1340967334381133
            ]
        },
        {
            "positions": [
                1.2949530976413262,
                -2.1571073534912912,
                0.762806926164715,
                -0.7023816725609953,
                0.18155964915778855,
                -2.076539219050149
            ]
        },
        {
            "positions": [
                1.415021649825948,
                -2.173905899384845,
                0.6411185310671657,
                -0.7392772506425351,
                0.2211379035327088,
                -2.0189817046621843
            ]
        },
        {
            "positions": [
                1.5350902020105701,
                -2.190704445278399,
                0.5194301359696165,
                -0.776172828724075,
                0.26071615790762903,
                -1.9614241902742198
            ]
        },
        {
            "positions": [
                1.6551587541951922,
                -2.207502991171953,
                0.39774174087206715,
                -0.8130684068056151,
                0.30029441228254933,
                -1.9038666758862552
            ]
        },
        {
            "positions": [
                1.775227306379814,
                -2.2243015370655064,
                0.276053345774518,
                -0.849963984887155,
                0.3398726666574695,
                -1.8463091614982907
            ]
        },
        {
            "positions": [
                1.8952958585644364,
                -2.2411000829590604,
                0.15436495067696865,
                -0.8868595629686948,
                0.37945092103238975,
                -1.7887516471103262
            ]
        },
        {
            "positions": [
                2.0153644107490583,
                -2.2578986288526144,
                0.03267655557941951,
                -0.9237551410502347,
                0.41902917540731,
                -1.7311941327223617
            ]
        },
        {
            "positions": [
                2.13543296293368,
                -2.2746971747461684,
                -0.08901183951812985,
                -0.9606507191317748,
                0.45860742978223024,
                -1.6736366183343971
            ]
        },
        {
            "positions": [
                2.2555015151183024,
                -2.291495720639722,
                -0.210700234615679,
                -0.9975462972133147,
                0.4981856841571506,
                -1.6160791039464324
            ]
        },
        {
            "positions": [
                2.3755700673029247,
                -2.308294266533276,
                -0.33238862971322813,
                -1.0344418752948545,
                0.5377639385320708,
                -1.558521589558468
            ]
        },
        {
            "positions": [
                2.495638619487546,
                -2.32509281242683,
                -0.4540770248107777,
                -1.0713374533763944,
                0.5773421929069911,
                -1.5009640751705033
            ]
        },
        {
            "positions": [
                2.6157071716721685,
                -2.3418913583203835,
                -0.5757654199083269,
                -1.1082330314579343,
                0.6169204472819113,
                -1.4434065607825388
            ]
        },
        {
            "positions": [
                2.735775723856791,
                -2.3586899042139375,
                -0.697453815005876,
                -1.1451286095394744,
                0.6564987016568316,
                -1.3858490463945743
            ]
        },
        {
            "positions": [
                2.7566268418326842,
                -2.3676682230575783,
                -0.790881224040944,
                -1.13184849660277,
                0.5284748604311502,
                -1.3710626772436738
            ]
        },
        {
            "positions": [
                2.7774779598085777,
                -2.3766465419012186,
                -0.8843086330760119,
                -1.1185683836660658,
                0.4004510192054689,
                -1.3562763080927733
            ]
        },
        {
            "positions": [
                2.798329077784471,
                -2.3856248607448594,
                -0.9777360421110799,
                -1.1052882707293614,
                0.27242717797978755,
                -1.3414899389418729
            ]
        },
        {
            "positions": [
                2.810067746719417,
                -2.392828862175982,
                -1.079813751526696,
                -1.0605897525319292,
                0.1474334917225949,
                -1.3029002200213757
            ]
        },
        {
            "positions": [
                2.8218064156543634,
                -2.400032863607105,
                -1.181891460942312,
                -1.0158912343344968,
                0.02243980546540225,
                -1.2643105011008784
            ]
        },
        {
            "positions": [
                2.8335450845893093,
                -2.4072368650382274,
                -1.283969170357928,
                -0.9711927161370646,
                -0.10255388079179037,
                -1.2257207821803813
            ]
        },
        {
            "positions": [
                2.8262980393962227,
                -2.414823485890908,
                -1.3457013925802153,
                -0.8242558427074915,
                -0.1095643239832786,
                -1.1310404561459824
            ]
        },
        {
            "positions": [
                2.8190509942031357,
                -2.422410106743589,
                -1.4074336148025028,
                -0.6773189692779185,
                -0.11657476717476684,
                -1.0363601301115835
            ]
        },
        {
            "positions": [
                2.811803949010049,
                -2.42999672759627,
                -1.4691658370247902,
                -0.5303820958483456,
                -0.12358521036625508,
                -0.9416798040771848
            ]
        },
        {
            "positions": [
                2.804556903816962,
                -2.4375833484489506,
                -1.5308980592470778,
                -0.38344522241877244,
                -0.13059565355774333,
                -0.8469994780427859
            ]
        },
        {
            "positions": [
                2.7973098586238754,
                -2.4451699693016313,
                -1.5926302814693651,
                -0.23650834898919942,
                -0.13760609674923155,
                -0.752319152008387
            ]
        },
        {
            "positions": [
                2.7819488141572135,
                -2.4497728902209803,
                -1.6051039346334197,
                -0.09092408167497396,
                -0.07273683664688158,
                -0.6638878267085361
            ]
        },
        {
            "positions": [
                2.7665877696905516,
                -2.4543758111403293,
                -1.6175775877974745,
                0.05466018563925151,
                -0.007867576544531601,
                -0.5754565014086852
            ]
        },
        {
            "positions": [
                2.75122672522389,
                -2.4589787320596783,
                -1.6300512409615293,
                0.20024445295347698,
                0.05700168355781837,
                -0.4870251761088343
            ]
        },
        {
            "positions": [
                2.735865680757228,
                -2.4635816529790273,
                -1.642524894125584,
                0.3458287202677025,
                0.12187094366016832,
                -0.3985938508089834
            ]
        },
        {
            "positions": [
                2.7171025695273974,
                -2.468181888687754,
                -1.6472844401686726,
                0.5089489834034533,
                0.20814772024476297,
                -0.3004918844207466
            ]
        },
        {
            "positions": [
                2.698339458297567,
                -2.472782124396481,
                -1.652043986211761,
                0.672069246539204,
                0.2944244968293577,
                -0.20238991803250972
            ]
        },
        {
            "positions": [
                2.679576347067736,
                -2.477382360105208,
                -1.6568035322548498,
                0.8351895096749548,
                0.3807012734139523,
                -0.1042879516442729
            ]
        },
        {
            "positions": [
                2.6608132358379053,
                -2.4819825958139345,
                -1.6615630782979385,
                0.9983097728107055,
                0.466978049998547,
                -0.006185985256036051
            ]
        }
    ]
}