{
    "goal": {
        "global_pose": {
            "orientation": {
                "w": 0.5084816262002911,
                "x": -0.4908360881923452,
                "y": 0.5182115481033761,
                "z": -0.48164630358495003
            },
            "position": {
                "x": 0.5540239810943604,
                "y": -0.46912469901144505,
                "z": 0.16403168439865112
            }
        },
        "name": "move_to_storage_B"
    },
    "id": "KPIECE_move_to_storage_B_36",
    "joint_names": [
        "shoulder_pan_joint",
        "shoulder_lift_joint",
        "elbow_joint",
        "wrist_1_joint",
        "wrist_2_joint",
        "wrist_3_joint"
    ],
    "metrics": {
        "cart_traj_len": 1.968089608792969,
        "distance_elbow_joint": 1.5365939300216918,
        "distance_shoulder_lift_joint": 0.47344500049826377,
        "distance_shoulder_pan_joint": 1.5394970154347205,
        "distance_wrist_1_joint": 2.9823768492615543,
        "distance_wrist_2_joint": 2.704582927065176,
        "distance_wrist_3_joint": 3.1292995832032626,
        "smoothness": 0.2149602436815359,
        "time": 0.177410499,
        "traj_len": 3.5165032781848318,
        "weighted_distance": 4.93065454561744
    },
    "planner": "KPIECE",
    "start": {
        "state": {
            "elbow_joint": 1.6649325706314817,
            "shoulder_lift_joint": -0.6616388048112454,
            "shoulder_pan_joint": -0.9139837860083814,
            "wrist_1_joint": 2.146757197745094,
            "wrist_2_joint": -2.234196043158733,
            "wrist_3_joint": 0.005471033829999897
        }
    },
    "waypoints": [
        {
            "positions": [
                -0.9139837860083814,
                -0.6616388048112454,
                1.6649325706314817,
                2.146757197745094,
                -2.234196043158733,
                0.005471033829999897
            ]
        },
        {
            "positions": [
                -0.8461055762686939,
                -0.7082053987501591,
                1.6055986101462132,
                2.0886475205189496,
                -2.1135727286553685,
                0.036146994482468046
            ]
        },
        {
            "positions": [
                -0.7782273665290064,
                -0.7547719926890728,
                1.5462646496609445,
                2.0305378432928056,
                -1.9929494141520039,
                0.0668229551349362
            ]
        },
        {
            "positions": [
                -0.710349156789319,
                -0.8013385866279864,
                1.4869306891756757,
                1.9724281660666612,
                -1.8723260996486393,
                0.09749891578740434
            ]
        },
        {
            "positions": [
                -0.6424709470496315,
                -0.8479051805669001,
                1.4275967286904072,
                1.9143184888405167,
                -1.7517027851452749,
                0.1281748764398725
            ]
        },
        {
            "positions": [
                -0.574592737309944,
                -0.8944717745058138,
                1.3682627682051387,
                1.8562088116143725,
                -1.6310794706419103,
                0.15885083709234063
            ]
        },
        {
            "positions": [
                -0.5067145275702565,
                -0.9410383684447274,
                1.30892880771987,
                1.7980991343882282,
                -1.5104561561385457,
                0.18952679774480877
            ]
        },
        {
            "positions": [
                -0.43883631783056903,
                -0.9876049623836411,
                1.2495948472346012,
                1.7399894571620838,
                -1.3898328416351813,
                0.2202027583972769
            ]
        },
        {
            "positions": [
                -0.3709581080908815,
                -1.0341715563225549,
                1.1902608867493327,
                1.6818797799359395,
                -1.2692095271318167,
                0.2508787190497451
            ]
        },
        {
            "positions": [
                -0.3030798983511941,
                -1.0807381502614686,
                1.1309269262640642,
                1.6237701027097953,
                -1.148586212628452,
                0.28155467970221326
            ]
        },
        {
            "positions": [
                -0.23520168861150653,
                -1.1273047442003823,
                1.0715929657787955,
                1.5656604254836508,
                -1.0279628981250877,
                0.3122306403546814
            ]
        },
        {
            "positions": [
                -0.27432509397686317,
                -1.1269511505136038,
                1.1144681623773867,
                1.456511331074555,
                -0.9598560898509272,
                0.4405279120218897
            ]
        },
        {
            "positions": [
                -0.3134484993422198,
                -1.1265975568268254,
                1.1573433589759778,
                1.347362236665459,
                -0.8917492815767668,
                0.5688251836890978
            ]
        },
        {
            "positions": [
                -0.3525719047075764,
                -1.1262439631400467,
                1.200218555574569,
                1.2382131422563631,
                -0.8236424733026064,
                0.6971224553563061
            ]
        },
        {
            "positions": [
                -0.391695310072933,
                -1.1258903694532683,
                1.2430937521731602,
                1.129064047847267,
                -0.7555356650284459,
                0.8254197270235144
            ]
        },
        {
            "positions": [
                -0.43081871543828965,
                -1.1255367757664898,
                1.2859689487717514,
                1.0199149534381713,
                -0.6874288567542854,
                0.9537169986907226
            ]
        },
        {
            "positions": [
                -0.4699421208036463,
                -1.1251831820797114,
                1.3288441453703423,
                0.9107658590290754,
                -0.6193220484801251,
                1.0820142703579307
            ]
        },
        {
            "positions": [
                -0.5090655261690029,
                -1.124829588392933,
                1.3717193419689335,
                0.8016167646199794,
                -0.5512152402059646,
                1.2103115420251391
            ]
        },
        {
            "positions": [
                -0.5481889315343595,
                -1.1244759947061544,
                1.4145945385675247,
                0.6924676702108835,
                -0.4831084319318042,
                1.3386088136923475
            ]
        },
        {
            "positions": [
                -0.5873123368997162,
                -1.1241224010193758,
                1.4574697351661159,
                0.5833185758017875,
                -0.4150016236576437,
                1.4669060853595557
            ]
        },
        {
            "positions": [
                -0.6264357422650728,
                -1.1237688073325973,
                1.500344931764707,
                0.47416948139269177,
                -0.3468948153834833,
                1.5952033570267639
            ]
        },
        {
            "positions": [
                -0.6655591476304294,
                -1.1234152136458189,
                1.5432201283632982,
                0.36502038698359573,
                -0.27878800710932283,
                1.723500628693972
            ]
        },
        {
            "positions": [
                -0.704682552995786,
                -1.1230616199590404,
                1.5860953249618892,
                0.2558712925744999,
                -0.21068119883516245,
                1.8517979003611802
            ]
        },
        {
            "positions": [
                -0.7438059583611427,
                -1.122708026272262,
                1.6289705215604806,
                0.14672219816540388,
                -0.14257439056100196,
                1.9800951720283888
            ]
        },
        {
            "positions": [
                -0.7829293637264993,
                -1.1223544325854833,
                1.6718457181590716,
                0.03757310375630807,
                -0.07446758228684147,
                2.108392443695597
            ]
        },
        {
            "positions": [
                -0.8220527690918558,
                -1.1220008388987048,
                1.7147209147576628,
                -0.07157599065278775,
                -0.006360774012681203,
                2.236689715362805
            ]
        },
        {
            "positions": [
                -0.8611761744572126,
                -1.1216472452119264,
                1.757596111356254,
                -0.18072508506188378,
                0.06174603426147929,
                2.3649869870300133
            ]
        },
        {
            "positions": [
                -0.900299579822569,
                -1.121293651525148,
                1.8004713079548451,
                -0.2898741794709798,
                0.12985284253563978,
                2.4932842586972215
            ]
        },
        {
            "positions": [
                -0.9394229851879259,
                -1.1209400578383695,
                1.8433465045534363,
                -0.39902327388007586,
                0.19795965080980027,
                2.62158153036443
            ]
        },
        {
            "positions": [
                -0.9785463905532823,
                -1.120586464151591,
                1.8862217011520275,
                -0.5081723682891717,
                0.26606645908396076,
                2.7498788020316383
            ]
        },
        {
            "positions": [
                -1.017669795918639,
                -1.1202328704648123,
                1.9290968977506187,
                -0.6173214626982673,
                0.33417326735812103,
                2.878176073698846
            ]
        },
        {
            "positions": [
                -1.0567932012839956,
                -1.119879276778034,
                1.9719720943492098,
                -0.7264705571073633,
                0.4022800756322815,
                3.0064733453660546
            ]
        },
        {
            "positions": [
                -1.0959166066493522,
                -1.1195256830912554,
                2.014847290947801,
                -0.8356196515164593,
                0.47038688390644207,
                3.1347706170332628
            ]
        }
    ]
}