{
    "goal": {
        "global_pose": {
            "orientation": {
                "w": -0.00223480608172531,
                "x": 0.0024358444001904467,
                "y": 0.7094548369677653,
                "z": -0.704743149386269
            },
            "position": {
                "x": 0.6205249238014221,
                "y": -0.6371506643295288,
                "z": 0.19426114857196808
            }
        },
        "name": "move_to_magneteinheit_B"
    },
    "id": "KPIECE_move_to_magneteinheit_B_39",
    "joint_names": [
        "shoulder_pan_joint",
        "shoulder_lift_joint",
        "elbow_joint",
        "wrist_1_joint",
        "wrist_2_joint",
        "wrist_3_joint"
    ],
    "metrics": {
        "cart_traj_len": 1.453277879275938,
        "distance_elbow_joint": 0.7257612045172934,
        "distance_shoulder_lift_joint": 1.244935459067843,
        "distance_shoulder_pan_joint": 1.6219621037740848,
        "distance_wrist_1_joint": 2.617204812324139,
        "distance_wrist_2_joint": 2.9351133916873953,
        "distance_wrist_3_joint": 3.140779829218758,
        "smoothness": 2.4223047931697983e-16,
        "time": 0.158218397,
        "traj_len": 3.5051043922527496,
        "weighted_distance": 4.911174468804643
    },
    "planner": "KPIECE",
    "start": {
        "state": {
            "elbow_joint": 2.3935871308073637,
            "shoulder_lift_joint": -1.9085141043777403,
            "shoulder_pan_joint": 0.7066247067284167,
            "wrist_1_joint": -0.46782909355067076,
            "wrist_2_joint": 0.7096259085804283,
            "wrist_3_joint": -3.1358149275257428
        }
    },
    "waypoints": [
        {
            "positions": [
                0.7066247067284167,
                -1.9085141043777403,
                2.3935871308073637,
                -0.46782909355067076,
                0.7096259085804283,
                -3.1358149275257428
            ]
        },
        {
            "positions": [
                0.6559383909854766,
                -1.8696098712818703,
                2.370907093166198,
                -0.3860414431655414,
                0.6179036150901972,
                -3.0376655578626566
            ]
        },
        {
            "positions": [
                0.6052520752425364,
                -1.830705638186,
                2.348227055525033,
                -0.3042537927804121,
                0.5261813215999661,
                -2.9395161881995704
            ]
        },
        {
            "positions": [
                0.5545657594995963,
                -1.79180140509013,
                2.3255470178838675,
                -0.22246614239528273,
                0.43445902810973497,
                -2.841366818536484
            ]
        },
        {
            "positions": [
                0.503879443756656,
                -1.7528971719942599,
                2.302866980242702,
                -0.14067849201015337,
                0.3427367346195039,
                -2.743217448873398
            ]
        },
        {
            "positions": [
                0.453193128013716,
                -1.7139929388983899,
                2.280186942601537,
                -0.058890841625024004,
                0.2510144411292728,
                -2.645068079210312
            ]
        },
        {
            "positions": [
                0.4025068122707758,
                -1.6750887058025197,
                2.2575069049603713,
                0.022896808760105303,
                0.15929214763904165,
                -2.5469187095472257
            ]
        },
        {
            "positions": [
                0.35182049652783565,
                -1.6361844727066497,
                2.2348268673192058,
                0.10468445914523467,
                0.06756985414881056,
                -2.4487693398841395
            ]
        },
        {
            "positions": [
                0.3011341807848955,
                -1.5972802396107795,
                2.21214682967804,
                0.18647210953036403,
                -0.02415243934142053,
                -2.3506199702210533
            ]
        },
        {
            "positions": [
                0.2504478650419554,
                -1.5583760065149095,
                2.189466792036875,
                0.2682597599154934,
                -0.11587473283165162,
                -2.252470600557967
            ]
        },
        {
            "positions": [
                0.19976154929901524,
                -1.5194717734190393,
                2.1667867543957096,
                0.35004741030062275,
                -0.2075970263218827,
                -2.154321230894881
            ]
        },
        {
            "positions": [
                0.1490752335560751,
                -1.4805675403231693,
                2.144106716754544,
                0.4318350606857521,
                -0.2993193198121139,
                -2.0561718612317947
            ]
        },
        {
            "positions": [
                0.09838891781313486,
                -1.4416633072272993,
                2.1214266791133785,
                0.5136227110708813,
                -0.391041613302345,
                -1.9580224915687086
            ]
        },
        {
            "positions": [
                0.04770260207019472,
                -1.402759074131429,
                2.0987466414722133,
                0.5954103614560107,
                -0.4827639067925761,
                -1.8598731219056224
            ]
        },
        {
            "positions": [
                -0.002983713672745414,
                -1.3638548410355589,
                2.076066603831048,
                0.67719801184114,
                -0.5744862002828072,
                -1.7617237522425362
            ]
        },
        {
            "positions": [
                -0.05367002941568555,
                -1.3249506079396889,
                2.0533865661898822,
                0.7589856622262694,
                -0.6662084937730383,
                -1.66357438257945
            ]
        },
        {
            "positions": [
                -0.10435634515862569,
                -1.286046374843819,
                2.030706528548717,
                0.8407733126113988,
                -0.7579307872632693,
                -1.5654250129163638
            ]
        },
        {
            "positions": [
                -0.15504266090156582,
                -1.2471421417479487,
                2.0080264909075516,
                0.9225609629965281,
                -0.8496530807535004,
                -1.4672756432532776
            ]
        },
        {
            "positions": [
                -0.20572897664450596,
                -1.2082379086520785,
                1.9853464532663863,
                1.0043486133816575,
                -0.9413753742437315,
                -1.3691262735901915
            ]
        },
        {
            "positions": [
                -0.2564152923874461,
                -1.1693336755562085,
                1.9626664156252207,
                1.0861362637667868,
                -1.0330976677339625,
                -1.2709769039271053
            ]
        },
        {
            "positions": [
                -0.30710160813038623,
                -1.1304294424603385,
                1.9399863779840554,
                1.1679239141519162,
                -1.1248199612241936,
                -1.172827534264019
            ]
        },
        {
            "positions": [
                -0.3577879238733265,
                -1.0915252093644683,
                1.9173063403428898,
                1.2497115645370456,
                -1.2165422547144247,
                -1.074678164600933
            ]
        },
        {
            "positions": [
                -0.4084742396162665,
                -1.052620976268598,
                1.8946263027017245,
                1.331499214922175,
                -1.3082645482046562,
                -0.9765287949378467
            ]
        },
        {
            "positions": [
                -0.45916055535920675,
                -1.013716743172728,
                1.8719462650605592,
                1.4132868653073043,
                -1.3999868416948873,
                -0.8783794252747605
            ]
        },
        {
            "positions": [
                -0.509846871102147,
                -0.9748125100768581,
                1.8492662274193936,
                1.4950745156924334,
                -1.4917091351851184,
                -0.7802300556116744
            ]
        },
        {
            "positions": [
                -0.560533186845087,
                -0.935908276980988,
                1.8265861897782283,
                1.576862166077563,
                -1.5834314286753495,
                -0.6820806859485882
            ]
        },
        {
            "positions": [
                -0.6112195025880273,
                -0.8970040438851179,
                1.803906152137063,
                1.6586498164626922,
                -1.6751537221655806,
                -0.583931316285502
            ]
        },
        {
            "positions": [
                -0.6619058183309673,
                -0.8580998107892477,
                1.7812261144958974,
                1.7404374668478217,
                -1.7668760156558116,
                -0.4857819466224158
            ]
        },
        {
            "positions": [
                -0.7125921340739075,
                -0.8191955776933777,
                1.7585460768547319,
                1.8222251172329509,
                -1.8585983091460427,
                -0.3876325769593296
            ]
        },
        {
            "positions": [
                -0.7632784498168476,
                -0.7802913445975075,
                1.7358660392135665,
                1.9040127676180805,
                -1.9503206026362738,
                -0.28948320729624344
            ]
        },
        {
            "positions": [
                -0.8139647655597878,
                -0.7413871115016375,
                1.7131860015724012,
                1.9858004180032096,
                -2.042042896126505,
                -0.19133383763315726
            ]
        },
        {
            "positions": [
                -0.8646510813027278,
                -0.7024828784057673,
                1.6905059639312356,
                2.067588068388339,
                -2.133765189616736,
                -0.09318446797007107
            ]
        },
        {
            "positions": [
                -0.9153373970456682,
                -0.6635786453098973,
                1.6678259262900703,
                2.1493757187734683,
                -2.225487483106967,
                0.004964901693015039
            ]
        }
    ]
}