{
    "goal": {
        "global_pose": {
            "orientation": {
                "w": 0.7047431468963623,
                "x": -0.7094548344612122,
                "y": 0.0024358443915843964,
                "z": -0.0022348060738295317
            },
            "position": {
                "x": 0.6094750761985779,
                "y": 0.3671506643295288,
                "z": 0.19426114857196808
            }
        },
        "name": "move_to_magneteinheit_A"
    },
    "id": "KPIECE_move_to_magneteinheit_A_124",
    "joint_names": [
        "shoulder_pan_joint",
        "shoulder_lift_joint",
        "elbow_joint",
        "wrist_1_joint",
        "wrist_2_joint",
        "wrist_3_joint"
    ],
    "metrics": {
        "cart_traj_len": 1.0526230167487551,
        "distance_elbow_joint": 0.40483305061164354,
        "distance_shoulder_lift_joint": 0.3539390801787168,
        "distance_shoulder_pan_joint": 1.24147398938488,
        "distance_wrist_1_joint": 2.3044784282492072,
        "distance_wrist_2_joint": 1.7003569079070153,
        "distance_wrist_3_joint": 1.139156956371203,
        "smoothness": 1.7763568394002506e-16,
        "time": 0.148552847,
        "traj_len": 2.6728708185587022,
        "weighted_distance": 3.664340003547882
    },
    "planner": "KPIECE",
    "start": {
        "state": {
            "elbow_joint": 1.5739458966750683,
            "shoulder_lift_joint": -1.4977259741207325,
            "shoulder_pan_joint": -1.1188672016454206,
            "wrist_1_joint": 1.494575848278785,
            "wrist_2_joint": -1.5706037134824402,
            "wrist_3_joint": -2.0226957942261072
        }
    },
    "waypoints": [
        {
            "positions": [
                -1.1188672016454206,
                -1.4977259741207325,
                1.5739458966750683,
                1.494575848278785,
                -1.5706037134824402,
                -2.0226957942261072
            ]
        },
        {
            "positions": [
                -1.053526465362006,
                -1.4790976014797474,
                1.595252899338839,
                1.3732875099498794,
                -1.4811112446452288,
                -2.082651423508802
            ]
        },
        {
            "positions": [
                -0.9881857290785911,
                -1.4604692288387624,
                1.6165599020026098,
                1.2519991716209737,
                -1.3916187758080176,
                -2.142607052791497
            ]
        },
        {
            "positions": [
                -0.9228449927951764,
                -1.4418408561977771,
                1.6378669046663805,
                1.1307108332920681,
                -1.3021263069708062,
                -2.2025626820741917
            ]
        },
        {
            "positions": [
                -0.8575042565117617,
                -1.423212483556792,
                1.6591739073301512,
                1.0094224949631625,
                -1.2126338381335948,
                -2.262518311356887
            ]
        },
        {
            "positions": [
                -0.792163520228347,
                -1.404584110915807,
                1.680480909993922,
                0.8881341566342568,
                -1.1231413692963836,
                -2.322473940639582
            ]
        },
        {
            "positions": [
                -0.7268227839449322,
                -1.385955738274822,
                1.7017879126576927,
                0.7668458183053511,
                -1.0336489004591722,
                -2.3824295699222766
            ]
        },
        {
            "positions": [
                -0.6614820476615175,
                -1.367327365633837,
                1.7230949153214634,
                0.6455574799764455,
                -0.944156431621961,
                -2.4423851992049714
            ]
        },
        {
            "positions": [
                -0.5961413113781028,
                -1.3486989929928517,
                1.744401917985234,
                0.5242691416475399,
                -0.8546639627847495,
                -2.5023408284876663
            ]
        },
        {
            "positions": [
                -0.530800575094688,
                -1.3300706203518666,
                1.7657089206490046,
                0.4029808033186342,
                -0.7651714939475383,
                -2.562296457770361
            ]
        },
        {
            "positions": [
                -0.4654598388112733,
                -1.3114422477108816,
                1.7870159233127754,
                0.28169246498972855,
                -0.675679025110327,
                -2.622252087053056
            ]
        },
        {
            "positions": [
                -0.40011910252785843,
                -1.2928138750698965,
                1.808322925976546,
                0.16040412666082293,
                -0.5861865562731156,
                -2.682207716335751
            ]
        },
        {
            "positions": [
                -0.3347783662444438,
                -1.2741855024289115,
                1.8296299286403168,
                0.03911578833191731,
                -0.49669408743590426,
                -2.742163345618446
            ]
        },
        {
            "positions": [
                -0.26943762996102893,
                -1.2555571297879262,
                1.8509369313040875,
                -0.08217254999698853,
                -0.40720161859869286,
                -2.802118974901141
            ]
        },
        {
            "positions": [
                -0.2040968936776143,
                -1.2369287571469412,
                1.8722439339678583,
                -0.20346088832589393,
                -0.3177091497614817,
                -2.8620746041838356
            ]
        },
        {
            "positions": [
                -0.13875615739419955,
                -1.2183003845059561,
                1.893550936631629,
                -0.32474922665479977,
                -0.22821668092427028,
                -2.922030233466531
            ]
        },
        {
            "positions": [
                -0.07341542111078492,
                -1.199672011864971,
                1.9148579392953997,
                -0.44603756498370517,
                -0.13872421208705887,
                -2.9819858627492257
            ]
        },
        {
            "positions": [
                -0.00807468482737006,
                -1.181043639223986,
                1.9361649419591704,
                -0.567325903312611,
                -0.04923174324984747,
                -3.0419414920319205
            ]
        },
        {
            "positions": [
                0.057266051456044575,
                -1.1624152665830008,
                1.9574719446229412,
                -0.6886142416415166,
                0.04026072558736371,
                -3.1018971213146154
            ]
        },
        {
            "positions": [
                0.12260678773945935,
                -1.1437868939420157,
                1.9787789472867119,
                -0.809902579970422,
                0.12975319442457514,
                -3.16185275059731
            ]
        }
    ]
}