{
    "goal": {
        "global_pose": {
            "orientation": {
                "w": -0.00223480608172531,
                "x": 0.0024358444001904467,
                "y": 0.7094548369677653,
                "z": -0.704743149386269
            },
            "position": {
                "x": 0.6205249238014221,
                "y": -0.6371506643295288,
                "z": 0.19426114857196808
            }
        },
        "name": "move_to_magneteinheit_B"
    },
    "id": "KPIECE_move_to_magneteinheit_B_30",
    "joint_names": [
        "shoulder_pan_joint",
        "shoulder_lift_joint",
        "elbow_joint",
        "wrist_1_joint",
        "wrist_2_joint",
        "wrist_3_joint"
    ],
    "metrics": {
        "cart_traj_len": 1.452110219588446,
        "distance_elbow_joint": 0.7296970824532953,
        "distance_shoulder_lift_joint": 1.2475823773436643,
        "distance_shoulder_pan_joint": 1.6210974758551902,
        "distance_wrist_1_joint": 2.604520954291527,
        "distance_wrist_2_joint": 2.9339172690150948,
        "distance_wrist_3_joint": 3.1332990442270585,
        "smoothness": 1.665334550124364e-16,
        "time": 0.36106305,
        "traj_len": 3.502872279028431,
        "weighted_distance": 4.906643508035465
    },
    "planner": "KPIECE",
    "start": {
        "state": {
            "elbow_joint": 2.3935871308073637,
            "shoulder_lift_joint": -1.9085141043777403,
            "shoulder_pan_joint": 0.7066247067284167,
            "wrist_1_joint": -0.46782909355067076,
            "wrist_2_joint": 0.7096259085804283,
            "wrist_3_joint": -3.1358149275257428
        }
    },
    "waypoints": [
        {
            "positions": [
                0.7066247067284167,
                -1.9085141043777403,
                2.3935871308073637,
                -0.46782909355067076,
                0.7096259085804283,
                -3.1358149275257428
            ]
        },
        {
            "positions": [
                0.654331239765346,
                -1.8682695115602028,
                2.370048515244354,
                -0.38381228857352473,
                0.6149834160315543,
                -3.034740764808741
            ]
        },
        {
            "positions": [
                0.6020377728022754,
                -1.8280249187426652,
                2.3465098996813447,
                -0.2997954835963787,
                0.5203409234826802,
                -2.933666602091739
            ]
        },
        {
            "positions": [
                0.5497443058392047,
                -1.7877803259251277,
                2.322971284118335,
                -0.21577867861923267,
                0.4256984309338062,
                -2.832592439374737
            ]
        },
        {
            "positions": [
                0.4974508388761341,
                -1.74753573310759,
                2.2994326685553257,
                -0.13176187364208664,
                0.3310559383849322,
                -2.7315182766577353
            ]
        },
        {
            "positions": [
                0.4451573719130635,
                -1.7072911402900526,
                2.275894052992316,
                -0.047745068664940604,
                0.23641344583605817,
                -2.630444113940733
            ]
        },
        {
            "positions": [
                0.3928639049499928,
                -1.667046547472515,
                2.2523554374293067,
                0.03627173631220543,
                0.14177095328718414,
                -2.5293699512237313
            ]
        },
        {
            "positions": [
                0.34057043798692216,
                -1.6268019546549775,
                2.228816821866297,
                0.12028854128935146,
                0.04712846073831012,
                -2.4282957885067296
            ]
        },
        {
            "positions": [
                0.2882769710238515,
                -1.5865573618374398,
                2.2052782063032876,
                0.2043053462664975,
                -0.047514031810563906,
                -2.327221625789728
            ]
        },
        {
            "positions": [
                0.23598350406078084,
                -1.5463127690199023,
                2.181739590740278,
                0.28832215124364363,
                -0.14215652435943804,
                -2.2261474630727256
            ]
        },
        {
            "positions": [
                0.18369003709771026,
                -1.5060681762023647,
                2.1582009751772686,
                0.37233895622078955,
                -0.23679901690831195,
                -2.125073300355724
            ]
        },
        {
            "positions": [
                0.13139657013463957,
                -1.465823583384827,
                2.134662359614259,
                0.4563557611979357,
                -0.331441509457186,
                -2.0239991376387216
            ]
        },
        {
            "positions": [
                0.07910310317156888,
                -1.4255789905672895,
                2.1111237440512496,
                0.5403725661750816,
                -0.42608400200606,
                -1.92292497492172
            ]
        },
        {
            "positions": [
                0.02680963620849819,
                -1.385334397749752,
                2.08758512848824,
                0.6243893711522277,
                -0.520726494554934,
                -1.8218508122047181
            ]
        },
        {
            "positions": [
                -0.02548383075457239,
                -1.3450898049322144,
                2.0640465129252306,
                0.7084061761293736,
                -0.615368987103808,
                -1.7207766494877164
            ]
        },
        {
            "positions": [
                -0.07777729771764308,
                -1.3048452121146767,
                2.040507897362221,
                0.7924229811065198,
                -0.7100114796526821,
                -1.6197024867707144
            ]
        },
        {
            "positions": [
                -0.13007076468071366,
                -1.2646006192971395,
                2.016969281799211,
                0.8764397860836657,
                -0.8046539722015561,
                -1.5186283240537126
            ]
        },
        {
            "positions": [
                -0.18236423164378424,
                -1.2243560264796018,
                1.9934306662362018,
                0.9604565910608116,
                -0.8992964647504299,
                -1.4175541613367109
            ]
        },
        {
            "positions": [
                -0.23465769860685504,
                -1.1841114336620642,
                1.9698920506731923,
                1.044473396037958,
                -0.9939389572993044,
                -1.3164799986197087
            ]
        },
        {
            "positions": [
                -0.2869511655699256,
                -1.1438668408445265,
                1.9463534351101828,
                1.1284902010151039,
                -1.0885814498481783,
                -1.215405835902707
            ]
        },
        {
            "positions": [
                -0.3392446325329962,
                -1.1036222480269893,
                1.9228148195471733,
                1.2125070059922498,
                -1.1832239423970523,
                -1.114331673185705
            ]
        },
        {
            "positions": [
                -0.39153809949606677,
                -1.0633776552094516,
                1.8992762039841637,
                1.2965238109693957,
                -1.2778664349459259,
                -1.0132575104687032
            ]
        },
        {
            "positions": [
                -0.44383156645913757,
                -1.023133062391914,
                1.875737588421154,
                1.380540615946542,
                -1.3725089274948004,
                -0.912183347751701
            ]
        },
        {
            "positions": [
                -0.49612503342220815,
                -0.9828884695743765,
                1.8521989728581447,
                1.464557420923688,
                -1.4671514200436744,
                -0.8111091850346992
            ]
        },
        {
            "positions": [
                -0.548418500385279,
                -0.9426438767568389,
                1.828660357295135,
                1.548574225900834,
                -1.5617939125925484,
                -0.7100350223176974
            ]
        },
        {
            "positions": [
                -0.6007119673483495,
                -0.9023992839393014,
                1.8051217417321257,
                1.6325910308779799,
                -1.6564364051414224,
                -0.6089608596006957
            ]
        },
        {
            "positions": [
                -0.6530054343114203,
                -0.8621546911217637,
                1.781583126169116,
                1.7166078358551262,
                -1.7510788976902965,
                -0.5078866968836935
            ]
        },
        {
            "positions": [
                -0.7052989012744909,
                -0.8219100983042262,
                1.7580445106061064,
                1.8006246408322721,
                -1.8457213902391705,
                -0.4068125341666917
            ]
        },
        {
            "positions": [
                -0.7575923682375615,
                -0.7816655054866888,
                1.734505895043097,
                1.884641445809418,
                -1.9403638827880445,
                -0.30573837144968996
            ]
        },
        {
            "positions": [
                -0.8098858352006321,
                -0.7414209126691511,
                1.7109672794800876,
                1.968658250786564,
                -2.0350063753369185,
                -0.2046642087326882
            ]
        },
        {
            "positions": [
                -0.8621793021637029,
                -0.7011763198516134,
                1.687428663917078,
                2.0526750557637103,
                -2.1296488678857926,
                -0.103590046015686
            ]
        },
        {
            "positions": [
                -0.9144727691267734,
                -0.660931727034076,
                1.6638900483540684,
                2.1366918607408563,
                -2.2242913604346666,
                -0.002515883298684124
            ]
        }
    ]
}