{
    "goal": {
        "global_pose": {
            "orientation": {
                "w": 0.5084816262002911,
                "x": -0.4908360881923452,
                "y": 0.5182115481033761,
                "z": -0.48164630358495003
            },
            "position": {
                "x": 0.5540239810943604,
                "y": -0.46912469901144505,
                "z": 0.16403168439865112
            }
        },
        "name": "move_to_storage_B"
    },
    "id": "KPIECE_move_to_storage_B_93",
    "joint_names": [
        "shoulder_pan_joint",
        "shoulder_lift_joint",
        "elbow_joint",
        "wrist_1_joint",
        "wrist_2_joint",
        "wrist_3_joint"
    ],
    "metrics": {
        "cart_traj_len": 2.1802960302671313,
        "distance_elbow_joint": 2.077693144956722,
        "distance_shoulder_lift_joint": 0.45843218955121556,
        "distance_shoulder_pan_joint": 1.9801957650234694,
        "distance_wrist_1_joint": 2.991551833451349,
        "distance_wrist_2_joint": 2.7006693339942367,
        "distance_wrist_3_joint": 4.393179985416939,
        "smoothness": 0.33262484103056356,
        "time": 0.131037561,
        "traj_len": 3.821219995288668,
        "weighted_distance": 5.392615635354832
    },
    "planner": "KPIECE",
    "start": {
        "state": {
            "elbow_joint": 1.6649325706314817,
            "shoulder_lift_joint": -0.6616388048112454,
            "shoulder_pan_joint": -0.9139837860083814,
            "wrist_1_joint": 2.146757197745094,
            "wrist_2_joint": -2.234196043158733,
            "wrist_3_joint": 0.005471033829999897
        }
    },
    "waypoints": [
        {
            "positions": [
                -0.9139837860083814,
                -0.6616388048112454,
                1.6649325706314817,
                2.146757197745094,
                -2.234196043158733,
                0.005471033829999897
            ]
        },
        {
            "positions": [
                -0.8322730446159807,
                -0.6894397484506253,
                1.586391666986813,
                2.0803955583421025,
                -2.1538015088361195,
                0.06281235319832883
            ]
        },
        {
            "positions": [
                -0.75056230322358,
                -0.7172406920900051,
                1.507850763342144,
                2.014033918939111,
                -2.073406974513506,
                0.12015367256665777
            ]
        },
        {
            "positions": [
                -0.6688515618311793,
                -0.745041635729385,
                1.4293098596974754,
                1.9476722795361197,
                -1.9930124401908929,
                0.17749499193498666
            ]
        },
        {
            "positions": [
                -0.5871408204387786,
                -0.7728425793687649,
                1.3507689560528064,
                1.881310640133128,
                -1.9126179058682795,
                0.23483631130331561
            ]
        },
        {
            "positions": [
                -0.5054300790463779,
                -0.8006435230081448,
                1.2722280524081377,
                1.8149490007301365,
                -1.8322233715456662,
                0.29217763067164454
            ]
        },
        {
            "positions": [
                -0.42371933765397723,
                -0.8284444666475246,
                1.1936871487634688,
                1.748587361327145,
                -1.7518288372230528,
                0.34951895003997346
            ]
        },
        {
            "positions": [
                -0.34200859626157654,
                -0.8562454102869045,
                1.1151462451188001,
                1.6822257219241534,
                -1.6714343029004395,
                0.40686026940830244
            ]
        },
        {
            "positions": [
                -0.2602978548691758,
                -0.8840463539262844,
                1.0366053414741314,
                1.615864082521162,
                -1.5910397685778261,
                0.46420158877663137
            ]
        },
        {
            "positions": [
                -0.17858711347677514,
                -0.9118472975656642,
                0.9580644378294624,
                1.5495024431181705,
                -1.5106452342552128,
                0.5215429081449603
            ]
        },
        {
            "positions": [
                -0.0968763720843745,
                -0.9396482412050441,
                0.8795235341847937,
                1.483140803715179,
                -1.4302506999325995,
                0.5788842275132892
            ]
        },
        {
            "positions": [
                -0.015165630691973797,
                -0.967449184844424,
                0.8009826305401249,
                1.4167791643121874,
                -1.3498561656099861,
                0.6362255468816181
            ]
        },
        {
            "positions": [
                -0.05675707721916846,
                -0.9733192544412715,
                0.847665061496485,
                1.3297955566191704,
                -1.2799973403620826,
                0.49151687486756734
            ]
        },
        {
            "positions": [
                -0.09834852374636312,
                -0.9791893240381191,
                0.8943474924528453,
                1.2428119489261533,
                -1.2101385151141792,
                0.34680820285351655
            ]
        },
        {
            "positions": [
                -0.13993997027355776,
                -0.9850593936349668,
                0.9410299234092054,
                1.1558283412331363,
                -1.1402796898662757,
                0.20209953083946575
            ]
        },
        {
            "positions": [
                -0.18153141680075244,
                -0.9909294632318143,
                0.9877123543655657,
                1.0688447335401192,
                -1.0704208646183722,
                0.05739085882541495
            ]
        },
        {
            "positions": [
                -0.2231228633279471,
                -0.9967995328286618,
                1.034394785321926,
                0.9818611258471022,
                -1.0005620393704688,
                -0.08731781318863585
            ]
        },
        {
            "positions": [
                -0.26471430985514177,
                -1.0026696024255095,
                1.081077216278286,
                0.8948775181540851,
                -0.9307032141225653,
                -0.23202648520268665
            ]
        },
        {
            "positions": [
                -0.30630575638233637,
                -1.008539672022357,
                1.1277596472346463,
                0.8078939104610681,
                -0.8608443888746619,
                -0.37673515721673734
            ]
        },
        {
            "positions": [
                -0.3478972029095311,
                -1.0144097416192046,
                1.1744420781910065,
                0.720910302768051,
                -0.7909855636267583,
                -0.5214438292307882
            ]
        },
        {
            "positions": [
                -0.38948864943672573,
                -1.0202798112160523,
                1.2211245091473666,
                0.633926695075034,
                -0.7211267383788549,
                -0.6661525012448389
            ]
        },
        {
            "positions": [
                -0.4310800959639204,
                -1.0261498808128997,
                1.2678069401037269,
                0.5469430873820169,
                -0.6512679131309514,
                -0.8108611732588898
            ]
        },
        {
            "positions": [
                -0.47267154249111504,
                -1.0320199504097474,
                1.3144893710600871,
                0.45995947968899986,
                -0.581409087883048,
                -0.9555698452729405
            ]
        },
        {
            "positions": [
                -0.5142629890183097,
                -1.0378900200065948,
                1.3611718020164472,
                0.3729758719959828,
                -0.5115502626351445,
                -1.1002785172869913
            ]
        },
        {
            "positions": [
                -0.5558544355455044,
                -1.0437600896034425,
                1.4078542329728074,
                0.28599226430296576,
                -0.44169143738724104,
                -1.244987189301042
            ]
        },
        {
            "positions": [
                -0.5974458820726989,
                -1.0496301592002901,
                1.4545366639291677,
                0.1990086566099487,
                -0.3718326121393376,
                -1.3896958613150927
            ]
        },
        {
            "positions": [
                -0.6390373285998936,
                -1.0555002287971376,
                1.5012190948855277,
                0.11202504891693188,
                -0.3019737868914343,
                -1.5344045333291434
            ]
        },
        {
            "positions": [
                -0.6806287751270883,
                -1.0613702983939852,
                1.5479015258418882,
                0.025041441223914607,
                -0.23211496164353052,
                -1.6791132053431945
            ]
        },
        {
            "positions": [
                -0.722220221654283,
                -1.0672403679908327,
                1.5945839567982483,
                -0.061942166469102444,
                -0.1622561363956272,
                -1.8238218773572452
            ]
        },
        {
            "positions": [
                -0.7638116681814777,
                -1.0731104375876803,
                1.6412663877546083,
                -0.1489257741621195,
                -0.09239731114772365,
                -1.968530549371296
            ]
        },
        {
            "positions": [
                -0.8054031147086722,
                -1.078980507184528,
                1.6879488187109686,
                -0.23590938185513655,
                -0.022538485899820326,
                -2.1132392213853466
            ]
        },
        {
            "positions": [
                -0.8469945612358669,
                -1.0848505767813754,
                1.7346312496673288,
                -0.3228929895481536,
                0.04732033934808322,
                -2.2579478933993977
            ]
        },
        {
            "positions": [
                -0.8885860077630616,
                -1.090720646378223,
                1.7813136806236889,
                -0.40987659724117065,
                0.11717916459598676,
                -2.4026565654134484
            ]
        },
        {
            "positions": [
                -0.9301774542902563,
                -1.0965907159750707,
                1.8279961115800492,
                -0.4968602049341877,
                0.18703798984389008,
                -2.547365237427499
            ]
        },
        {
            "positions": [
                -0.9717689008174508,
                -1.1024607855719182,
                1.8746785425364094,
                -0.5838438126272045,
                0.25689681509179363,
                -2.69207390944155
            ]
        },
        {
            "positions": [
                -1.0133603473446455,
                -1.1083308551687658,
                1.9213609734927697,
                -0.6708274203202218,
                0.3267556403396972,
                -2.836782581455601
            ]
        },
        {
            "positions": [
                -1.0549517938718402,
                -1.1142009247656133,
                1.9680434044491297,
                -0.7578110280132391,
                0.3966144655876007,
                -2.9814912534696516
            ]
        },
        {
            "positions": [
                -1.096543240399035,
                -1.120070994362461,
                2.01472583540549,
                -0.844794635706256,
                0.4664732908355041,
                -3.1261999254837023
            ]
        }
    ]
}