{
    "goal": {
        "global_pose": {
            "orientation": {
                "w": 0.5084816262002911,
                "x": -0.4908360881923452,
                "y": 0.5182115481033761,
                "z": -0.48164630358495003
            },
            "position": {
                "x": 0.5540239810943604,
                "y": -0.46912469901144505,
                "z": 0.16403168439865112
            }
        },
        "name": "move_to_storage_B"
    },
    "id": "KPIECE_move_to_storage_B_85",
    "joint_names": [
        "shoulder_pan_joint",
        "shoulder_lift_joint",
        "elbow_joint",
        "wrist_1_joint",
        "wrist_2_joint",
        "wrist_3_joint"
    ],
    "metrics": {
        "cart_traj_len": 0.6247044518822293,
        "distance_elbow_joint": 0.36069060033607037,
        "distance_shoulder_lift_joint": 0.4639460592822453,
        "distance_shoulder_pan_joint": 0.2577632568717706,
        "distance_wrist_1_joint": 3.0248434030131577,
        "distance_wrist_2_joint": 2.719465448798321,
        "distance_wrist_3_joint": 3.108847224872298,
        "smoothness": 0.06055717617183799,
        "time": 0.133932505,
        "traj_len": 3.1520716986093236,
        "weighted_distance": 4.679482802055152
    },
    "planner": "KPIECE",
    "start": {
        "state": {
            "elbow_joint": 1.6649325706314817,
            "shoulder_lift_joint": -0.6616388048112454,
            "shoulder_pan_joint": -0.9139837860083814,
            "wrist_1_joint": 2.146757197745094,
            "wrist_2_joint": -2.234196043158733,
            "wrist_3_joint": 0.005471033829999897
        }
    },
    "waypoints": [
        {
            "positions": [
                -0.9139837860083814,
                -0.6616388048112454,
                1.6649325706314817,
                2.146757197745094,
                -2.234196043158733,
                0.005471033829999897
            ]
        },
        {
            "positions": [
                -0.8753777513357806,
                -0.6831332945381943,
                1.6757650237338175,
                2.1326856793120736,
                -2.222863134430204,
                -0.010305100436808311
            ]
        },
        {
            "positions": [
                -0.8841440402237474,
                -0.7008313573204061,
                1.6897593496231669,
                2.0122548039288684,
                -2.1145378328274123,
                -0.1340279440610279
            ]
        },
        {
            "positions": [
                -0.8929103291117141,
                -0.718529420102618,
                1.7037536755125162,
                1.8918239285456626,
                -2.006212531224621,
                -0.25775078768524745
            ]
        },
        {
            "positions": [
                -0.9016766179996809,
                -0.7362274828848299,
                1.7177480014018656,
                1.7713930531624573,
                -1.897887229621829,
                -0.38147363130946704
            ]
        },
        {
            "positions": [
                -0.9104429068876477,
                -0.7539255456670417,
                1.7317423272912151,
                1.6509621777792516,
                -1.7895619280190374,
                -0.5051964749336866
            ]
        },
        {
            "positions": [
                -0.9192091957756146,
                -0.7716236084492536,
                1.7457366531805645,
                1.5305313023960463,
                -1.6812366264162457,
                -0.6289193185579063
            ]
        },
        {
            "positions": [
                -0.9279754846635813,
                -0.7893216712314655,
                1.7597309790699138,
                1.4101004270128408,
                -1.5729113248134539,
                -0.7526421621821258
            ]
        },
        {
            "positions": [
                -0.9367417735515481,
                -0.8070197340136773,
                1.7737253049592632,
                1.2896695516296353,
                -1.464586023210662,
                -0.8763650058063455
            ]
        },
        {
            "positions": [
                -0.9455080624395149,
                -0.8247177967958892,
                1.7877196308486125,
                1.1692386762464297,
                -1.3562607216078706,
                -1.000087849430565
            ]
        },
        {
            "positions": [
                -0.9542743513274816,
                -0.842415859578101,
                1.8017139567379619,
                1.0488078008632242,
                -1.2479354200050787,
                -1.1238106930547844
            ]
        },
        {
            "positions": [
                -0.9630406402154484,
                -0.8601139223603128,
                1.8157082826273114,
                0.9283769254800187,
                -1.139610118402287,
                -1.2475335366790041
            ]
        },
        {
            "positions": [
                -0.9718069291034153,
                -0.8778119851425247,
                1.8297026085166608,
                0.8079460500968132,
                -1.0312848167994955,
                -1.3712563803032236
            ]
        },
        {
            "positions": [
                -0.9805732179913821,
                -0.8955100479247365,
                1.8436969344060101,
                0.6875151747136079,
                -0.9229595151967038,
                -1.494979223927443
            ]
        },
        {
            "positions": [
                -0.9893395068793488,
                -0.9132081107069484,
                1.8576912602953595,
                0.5670842993304022,
                -0.814634213593912,
                -1.6187020675516628
            ]
        },
        {
            "positions": [
                -0.9981057957673156,
                -0.9309061734891603,
                1.8716855861847088,
                0.44665342394719665,
                -0.7063089119911201,
                -1.7424249111758825
            ]
        },
        {
            "positions": [
                -1.0068720846552823,
                -0.948604236271372,
                1.8856799120740582,
                0.32622254856399135,
                -0.5979836103883287,
                -1.8661477548001018
            ]
        },
        {
            "positions": [
                -1.0156383735432493,
                -0.966302299053584,
                1.8996742379634077,
                0.20579167318078584,
                -0.48965830878553684,
                -1.9898705984243215
            ]
        },
        {
            "positions": [
                -1.024404662431216,
                -0.9840003618357959,
                1.913668563852757,
                0.0853607977975801,
                -0.3813330071827452,
                -2.1135934420485416
            ]
        },
        {
            "positions": [
                -1.0331709513191827,
                -1.0016984246180076,
                1.9276628897421064,
                -0.03507007758562519,
                -0.2730077055799536,
                -2.237316285672761
            ]
        },
        {
            "positions": [
                -1.0419372402071496,
                -1.0193964874002195,
                1.9416572156314558,
                -0.15550095296883049,
                -0.16468240397716194,
                -2.3610391292969806
            ]
        },
        {
            "positions": [
                -1.0507035290951163,
                -1.0370945501824314,
                1.9556515415208051,
                -0.2759318283520362,
                -0.05635710237437008,
                -2.4847619729212003
            ]
        },
        {
            "positions": [
                -1.059469817983083,
                -1.0547926129646432,
                1.9696458674101545,
                -0.3963627037352415,
                0.05196819922842133,
                -2.6084848165454195
            ]
        },
        {
            "positions": [
                -1.06823610687105,
                -1.072490675746855,
                1.9836401932995038,
                -0.5167935791184473,
                0.1602935008312132,
                -2.7322076601696392
            ]
        },
        {
            "positions": [
                -1.0770023957590167,
                -1.090188738529067,
                1.9976345191888534,
                -0.6372244545016525,
                0.26861880243400504,
                -2.855930503793859
            ]
        },
        {
            "positions": [
                -1.0857686846469836,
                -1.1078868013112788,
                2.0116288450782025,
                -0.7576553298848578,
                0.37694410403679646,
                -2.979653347418078
            ]
        },
        {
            "positions": [
                -1.0945349735349503,
                -1.1255848640934907,
                2.025623170967552,
                -0.8780862052680634,
                0.48526940563958826,
                -3.103376191042298
            ]
        }
    ]
}