{
    "goal": {
        "global_pose": {
            "orientation": {
                "w": -0.4816463035849501,
                "x": 0.5182115481033762,
                "y": 0.4908360881923453,
                "z": -0.5084816262002911
            },
            "position": {
                "x": -0.8240239810943604,
                "y": -0.300875300988555,
                "z": 0.16403168439865112
            }
        },
        "name": "move_to_storage_C"
    },
    "id": "KPIECE_move_to_storage_C_132",
    "joint_names": [
        "shoulder_pan_joint",
        "shoulder_lift_joint",
        "elbow_joint",
        "wrist_1_joint",
        "wrist_2_joint",
        "wrist_3_joint"
    ],
    "metrics": {
        "cart_traj_len": 0.5772348746920657,
        "distance_elbow_joint": 0.2575588178394079,
        "distance_shoulder_lift_joint": 0.18855536865751787,
        "distance_shoulder_pan_joint": 0.49628844404218286,
        "distance_wrist_1_joint": 0.07596090841115433,
        "distance_wrist_2_joint": 1.0604806999243666,
        "distance_wrist_3_joint": 0.05733697954774186,
        "smoothness": 0.0,
        "time": 0.106090573,
        "traj_len": 1.4615680683506915,
        "weighted_distance": 1.8404610253557059
    },
    "planner": "KPIECE",
    "start": {
        "state": {
            "elbow_joint": 2.010868315001653,
            "shoulder_lift_joint": -1.1634956873357014,
            "shoulder_pan_joint": -2.4736205022346103,
            "wrist_1_joint": -0.8367026794713948,
            "wrist_2_joint": 0.6746043897044093,
            "wrist_3_joint": 3.1335220948105738
        }
    },
    "waypoints": [
        {
            "positions": [
                -2.4736205022346103,
                -1.1634956873357014,
                2.010868315001653,
                -0.8367026794713948,
                0.6746043897044093,
                3.1335220948105738
            ]
        },
        {
            "positions": [
                -2.5563352429083075,
                -1.1320697925594485,
                1.9679418453617519,
                -0.8240425280695357,
                0.8513511730251371,
                3.1430782580685306
            ]
        },
        {
            "positions": [
                -2.6390499835820047,
                -1.1006438977831954,
                1.9250153757218504,
                -0.8113823766676767,
                1.0280979563458648,
                3.152634421326488
            ]
        },
        {
            "positions": [
                -2.721764724255702,
                -1.0692180030069425,
                1.882088906081949,
                -0.7987222252658176,
                1.2048447396665924,
                3.1621905845844447
            ]
        },
        {
            "positions": [
                -2.8044794649293987,
                -1.0377921082306896,
                1.8391624364420478,
                -0.7860620738639585,
                1.3815915229873204,
                3.1717467478424015
            ]
        },
        {
            "positions": [
                -2.887194205603096,
                -1.0063662134544364,
                1.7962359668021466,
                -0.7734019224620995,
                1.5583383063080483,
                3.181302911100359
            ]
        },
        {
            "positions": [
                -2.969908946276793,
                -0.9749403186781835,
                1.7533094971622452,
                -0.7607417710602404,
                1.735085089628776,
                3.1908590743583156
            ]
        }
    ]
}