{
    "goal": {
        "global_pose": {
            "orientation": {
                "w": 0.7031023502349854,
                "x": -0.7110244035720825,
                "y": 0.007748599164187908,
                "z": 0.005598929710686207
            },
            "position": {
                "x": 0.11585023208521307,
                "y": 0.44412534475326537,
                "z": 0.3711530566215515
            }
        },
        "name": "move_to_auspresseinheit_A"
    },
    "id": "KPIECE_move_to_auspresseinheit_A_22",
    "joint_names": [
        "shoulder_pan_joint",
        "shoulder_lift_joint",
        "elbow_joint",
        "wrist_1_joint",
        "wrist_2_joint",
        "wrist_3_joint"
    ],
    "metrics": {
        "cart_traj_len": 2.070598544136857,
        "distance_elbow_joint": 2.0953264365878863,
        "distance_shoulder_lift_joint": 0.9089743897595524,
        "distance_shoulder_pan_joint": 1.3766707997538843,
        "distance_wrist_1_joint": 1.8044056570504852,
        "distance_wrist_2_joint": 0.8951627630314892,
        "distance_wrist_3_joint": 3.226550297641592,
        "smoothness": 0.6640699047202346,
        "time": 0.30595664,
        "traj_len": 3.210465751853598,
        "weighted_distance": 4.411321724743056
    },
    "planner": "KPIECE",
    "start": {
        "state": {
            "elbow_joint": 2.4225747245308327,
            "shoulder_lift_joint": -1.373653427065438,
            "shoulder_pan_joint": -0.33786330853087027,
            "wrist_1_joint": -1.0288602302712604,
            "wrist_2_joint": 1.23302299562683,
            "wrist_3_joint": -3.094021725338297
        }
    },
    "waypoints": [
        {
            "positions": [
                -0.33786330853087027,
                -1.373653427065438,
                2.4225747245308327,
                -1.0288602302712604,
                1.23302299562683,
                -3.094021725338297
            ]
        },
        {
            "positions": [
                -0.3217687746557504,
                -1.3824426413996673,
                2.28961404360936,
                -0.9462563682263918,
                1.2078379805406994,
                -2.988410908119901
            ]
        },
        {
            "positions": [
                -0.3056742407806305,
                -1.391231855733897,
                2.1566533626878868,
                -0.8636525061815231,
                1.1826529654545685,
                -2.8828000909015055
            ]
        },
        {
            "positions": [
                -0.2895797069055106,
                -1.4000210700681264,
                2.023692681766414,
                -0.7810486441366545,
                1.157467950368438,
                -2.77718927368311
            ]
        },
        {
            "positions": [
                -0.27348517303039066,
                -1.4088102844023558,
                1.890732000844941,
                -0.6984447820917858,
                1.1322829352823072,
                -2.671578456464714
            ]
        },
        {
            "positions": [
                -0.25739063915527083,
                -1.4175994987365854,
                1.7577713199234681,
                -0.6158409200469173,
                1.1070979201961766,
                -2.5659676392463178
            ]
        },
        {
            "positions": [
                -0.24129610528015089,
                -1.4263887130708148,
                1.6248106390019954,
                -0.5332370580020487,
                1.081912905110046,
                -2.460356822027922
            ]
        },
        {
            "positions": [
                -0.225201571405031,
                -1.4351779274050445,
                1.4918499580805225,
                -0.45063319595718,
                1.0567278900239152,
                -2.3547460048095266
            ]
        },
        {
            "positions": [
                -0.2091070375299111,
                -1.4439671417392739,
                1.3588892771590495,
                -0.3680293339123114,
                1.0315428749377846,
                -2.2491351875911305
            ]
        },
        {
            "positions": [
                -0.11705398554122765,
                -1.5075816632027759,
                1.398412883721037,
                -0.31507717174666744,
                0.984835928685305,
                -2.175149307074294
            ]
        },
        {
            "positions": [
                -0.02500093355254418,
                -1.5711961846662779,
                1.4379364902830245,
                -0.26212500958102347,
                0.9381289824328254,
                -2.101163426557458
            ]
        },
        {
            "positions": [
                0.06705211843613923,
                -1.63481070612978,
                1.4774600968450122,
                -0.20917284741537953,
                0.8914220361803458,
                -2.027177546040622
            ]
        },
        {
            "positions": [
                0.15910517042482275,
                -1.698425227593282,
                1.5169837034069997,
                -0.15622068524973556,
                0.8447150899278661,
                -1.9531916655237858
            ]
        },
        {
            "positions": [
                0.25115822241350616,
                -1.762039749056784,
                1.5565073099689872,
                -0.10326852308409162,
                0.7980081436753865,
                -1.8792057850069495
            ]
        },
        {
            "positions": [
                0.34321127440218957,
                -1.825654270520286,
                1.5960309165309747,
                -0.050316360918447656,
                0.7513011974229069,
                -1.8052199044901132
            ]
        },
        {
            "positions": [
                0.435264326390873,
                -1.889268791983788,
                1.6355545230929622,
                0.0026358012471962566,
                0.7045942511704273,
                -1.731234023973277
            ]
        },
        {
            "positions": [
                0.5273173783795566,
                -1.9528833134472903,
                1.67507812965495,
                0.05558796341284028,
                0.6578873049179477,
                -1.6572481434564408
            ]
        },
        {
            "positions": [
                0.61937043036824,
                -2.0164978349107923,
                1.7146017362169375,
                0.10854012557848419,
                0.611180358665468,
                -1.5832622629396047
            ]
        },
        {
            "positions": [
                0.7114234823569234,
                -2.0801123563742943,
                1.754125342778925,
                0.16149228774412816,
                0.5644734124129884,
                -1.5092763824227684
            ]
        },
        {
            "positions": [
                0.7599835082029864,
                -2.085012014783049,
                1.8696532430841692,
                0.10131100561498528,
                0.5882533798976644,
                -1.6299245914819238
            ]
        },
        {
            "positions": [
                0.8085435340490496,
                -2.089911673191804,
                1.9851811433894135,
                0.0411297234858424,
                0.6120333473823402,
                -1.7505728005410792
            ]
        },
        {
            "positions": [
                0.8571035598951126,
                -2.0948113316005585,
                2.100709043694658,
                -0.019051558643300492,
                0.6358133148670161,
                -1.8712210096002346
            ]
        },
        {
            "positions": [
                0.8620891978215351,
                -2.0676778369117845,
                2.1640813797445904,
                -0.06089135903688834,
                0.6738562466189845,
                -2.0528312721144943
            ]
        },
        {
            "positions": [
                0.8670748357479576,
                -2.040544342223011,
                2.227453715794523,
                -0.10273115943047618,
                0.711899178370953,
                -2.234441534628754
            ]
        },
        {
            "positions": [
                0.8720604736743802,
                -2.013410847534237,
                2.2908260518444554,
                -0.14457095982406404,
                0.7499421101229213,
                -2.4160517971430138
            ]
        },
        {
            "positions": [
                0.8303737192872217,
                -1.9868068472447094,
                2.31575210547713,
                -0.22156843269079016,
                0.7396559895959927,
                -2.599809182144468
            ]
        },
        {
            "positions": [
                0.7886869649000632,
                -1.9602028469551818,
                2.340678159109804,
                -0.2985659055575163,
                0.729369869069064,
                -2.7835665671459227
            ]
        },
        {
            "positions": [
                0.7470002105129047,
                -1.9335988466656544,
                2.365604212742478,
                -0.37556337842424237,
                0.7190837485421352,
                -2.9673239521473773
            ]
        },
        {
            "positions": [
                0.7053134561257461,
                -1.9069948463761268,
                2.3905302663751526,
                -0.4525608512909685,
                0.7087976280152065,
                -3.1510813371488315
            ]
        }
    ]
}