{
    "goal": {
        "global_pose": {
            "orientation": {
                "w": 0.005598929693374612,
                "x": 0.007748599140229565,
                "y": 0.7110244013736278,
                "z": -0.7031023480610252
            },
            "position": {
                "x": -0.8858502320852131,
                "y": -0.7141253447532654,
                "z": 0.3711530566215515
            }
        },
        "name": "move_to_auspresseinheit_C"
    },
    "id": "KPIECE_move_to_auspresseinheit_C_83",
    "joint_names": [
        "shoulder_pan_joint",
        "shoulder_lift_joint",
        "elbow_joint",
        "wrist_1_joint",
        "wrist_2_joint",
        "wrist_3_joint"
    ],
    "metrics": {
        "cart_traj_len": 0.4942356627087879,
        "distance_elbow_joint": 1.0211358444004974,
        "distance_shoulder_lift_joint": 0.33524728196332165,
        "distance_shoulder_pan_joint": 0.2556367723656119,
        "distance_wrist_1_joint": 0.715285889620827,
        "distance_wrist_2_joint": 1.318794894098352,
        "distance_wrist_3_joint": 0.0786462693505996,
        "smoothness": 5.652044430934005e-16,
        "time": 0.6988230419999999,
        "traj_len": 1.9299603497997595,
        "weighted_distance": 2.432307602713848
    },
    "planner": "KPIECE",
    "start": {
        "state": {
            "elbow_joint": 1.752795957773711,
            "shoulder_lift_joint": -0.9740617694225064,
            "shoulder_pan_joint": -2.967991417825858,
            "wrist_1_joint": -0.7595177689806859,
            "wrist_2_joint": 1.7443932448377395,
            "wrist_3_joint": 3.199131542505932
        }
    },
    "waypoints": [
        {
            "positions": [
                -2.967991417825858,
                -0.9740617694225064,
                1.752795957773711,
                -0.7595177689806859,
                1.7443932448377395,
                3.199131542505932
            ]
        },
        {
            "positions": [
                -2.942427740589297,
                -0.9405370412261743,
                1.6506823733336613,
                -0.6879891800186032,
                1.6125137554279043,
                3.191266915570872
            ]
        },
        {
            "positions": [
                -2.9168640633527354,
                -0.9070123130298421,
                1.5485687888936117,
                -0.6164605910565205,
                1.4806342660180691,
                3.183402288635812
            ]
        },
        {
            "positions": [
                -2.8913003861161743,
                -0.87348758483351,
                1.446455204453562,
                -0.5449320020944378,
                1.348754776608234,
                3.1755376617007522
            ]
        },
        {
            "positions": [
                -2.8657367088796133,
                -0.8399628566371777,
                1.344341620013512,
                -0.4734034131323551,
                1.2168752871983988,
                3.1676730347656923
            ]
        },
        {
            "positions": [
                -2.840173031643052,
                -0.8064381284408456,
                1.2422280355734623,
                -0.4018748241702724,
                1.0849957977885634,
                3.1598084078306323
            ]
        },
        {
            "positions": [
                -2.8146093544064907,
                -0.7729134002445135,
                1.1401144511334127,
                -0.33034623520818973,
                0.9531163083787283,
                3.1519437808955724
            ]
        },
        {
            "positions": [
                -2.7890456771699297,
                -0.7393886720481813,
                1.0380008666933631,
                -0.25881764624610704,
                0.8212368189688931,
                3.1440791539605124
            ]
        },
        {
            "positions": [
                -2.7634819999333686,
                -0.705863943851849,
                0.9358872822533131,
                -0.18728905728402434,
                0.6893573295590578,
                3.1362145270254524
            ]
        },
        {
            "positions": [
                -2.737918322696807,
                -0.672339215655517,
                0.8337736978132634,
                -0.11576046832194165,
                0.5574778401492226,
                3.1283499000903925
            ]
        },
        {
            "positions": [
                -2.712354645460246,
                -0.6388144874591848,
                0.7316601133732137,
                -0.044231879359858915,
                0.4255983507393874,
                3.1204852731553325
            ]
        }
    ]
}