{
    "goal": {
        "global_pose": {
            "orientation": {
                "w": 0.5084816217422485,
                "x": -0.49083608388900757,
                "y": 0.5182115435600281,
                "z": -0.4816462993621826
            },
            "position": {
                "x": 0.5540239810943604,
                "y": 0.030875300988554955,
                "z": 0.16403168439865112
            }
        },
        "name": "move_to_storage_A"
    },
    "id": "KPIECE_move_to_storage_A_41",
    "joint_names": [
        "shoulder_pan_joint",
        "shoulder_lift_joint",
        "elbow_joint",
        "wrist_1_joint",
        "wrist_2_joint",
        "wrist_3_joint"
    ],
    "metrics": {
        "cart_traj_len": 0.3525892864887964,
        "distance_elbow_joint": 0.44800708997245,
        "distance_shoulder_lift_joint": 0.23352103514813582,
        "distance_shoulder_pan_joint": 0.4594469208617815,
        "distance_wrist_1_joint": 0.24020410222614774,
        "distance_wrist_2_joint": 1.1038147287340982,
        "distance_wrist_3_joint": 0.09826710091586977,
        "smoothness": 0.0,
        "time": 0.055780836,
        "traj_len": 1.607252617934867,
        "weighted_distance": 2.0307176097750443
    },
    "planner": "KPIECE",
    "start": {
        "state": {
            "elbow_joint": 1.9715474177455299,
            "shoulder_lift_joint": -1.139484666580328,
            "shoulder_pan_joint": 0.12281154398918248,
            "wrist_1_joint": -0.7804687475355282,
            "wrist_2_joint": 0.12958649657246987,
            "wrist_3_joint": -3.1924925159053466
        }
    },
    "waypoints": [
        {
            "positions": [
                0.12281154398918248,
                -1.139484666580328,
                1.9715474177455299,
                -0.7804687475355282,
                0.12958649657246987,
                -3.1924925159053466
            ]
        },
        {
            "positions": [
                0.057176269580356556,
                -1.1728448144586332,
                2.035548430598737,
                -0.8147836192821207,
                0.28727431496305533,
                -3.178454358631651
            ]
        },
        {
            "positions": [
                -0.008459004828469369,
                -1.2062049623369382,
                2.099549443451944,
                -0.8490984910287133,
                0.44496213335364077,
                -3.1644162013579553
            ]
        },
        {
            "positions": [
                -0.07409427923729531,
                -1.2395651102152434,
                2.1635504563051513,
                -0.8834133627753058,
                0.6026499517442262,
                -3.1503780440842597
            ]
        },
        {
            "positions": [
                -0.13972955364612122,
                -1.2729252580935484,
                2.2275514691583584,
                -0.9177282345218983,
                0.7603377701348117,
                -3.1363398868105636
            ]
        },
        {
            "positions": [
                -0.20536482805494716,
                -1.3062854059718536,
                2.2915524820115656,
                -0.9520431062684909,
                0.9180255885253973,
                -3.122301729536868
            ]
        },
        {
            "positions": [
                -0.2710001024637731,
                -1.3396455538501586,
                2.3555534948647727,
                -0.9863579780150834,
                1.0757134069159826,
                -3.1082635722631724
            ]
        },
        {
            "positions": [
                -0.33663537687259903,
                -1.3730057017284638,
                2.41955450771798,
                -1.020672849761676,
                1.233401225306568,
                -3.094225414989477
            ]
        }
    ]
}