{
    "goal": {
        "global_pose": {
            "orientation": {
                "w": 0.7031023480610252,
                "x": -0.7110244013736278,
                "y": 0.0077485991402295624,
                "z": 0.005598929693374583
            },
            "position": {
                "x": -0.8841497679147869,
                "y": 0.44412534475326537,
                "z": 0.3711530566215515
            }
        },
        "name": "move_to_auspresseinheit_D"
    },
    "id": "KPIECE_move_to_auspresseinheit_D_61",
    "joint_names": [
        "shoulder_pan_joint",
        "shoulder_lift_joint",
        "elbow_joint",
        "wrist_1_joint",
        "wrist_2_joint",
        "wrist_3_joint"
    ],
    "metrics": {
        "cart_traj_len": 3.421227810512113,
        "distance_elbow_joint": 0.48335177926405093,
        "distance_shoulder_lift_joint": 3.0810719841083785,
        "distance_shoulder_pan_joint": 0.7089992859815561,
        "distance_wrist_1_joint": 3.9200029396730436,
        "distance_wrist_2_joint": 3.6579282611560204,
        "distance_wrist_3_joint": 5.593694306725953,
        "smoothness": 0.3677159950103367,
        "time": 0.356784055,
        "traj_len": 4.176727014889649,
        "weighted_distance": 6.017505161708627
    },
    "planner": "KPIECE",
    "start": {
        "state": {
            "elbow_joint": 1.8268400409724999,
            "shoulder_lift_joint": -1.0144045787793008,
            "shoulder_pan_joint": 2.6280239544362485,
            "wrist_1_joint": -0.790705565816056,
            "wrist_2_joint": 1.0573557467365533,
            "wrist_3_joint": 3.1851377467193758
        }
    },
    "waypoints": [
        {
            "positions": [
                2.6280239544362485,
                -1.0144045787793008,
                1.8268400409724999,
                -0.790705565816056,
                1.0573557467365533,
                3.1851377467193758
            ]
        },
        {
            "positions": [
                2.638065550853474,
                -1.0554075119302726,
                1.8129843757357502,
                -0.6840647262864191,
                0.9721036418518474,
                3.0564544816787396
            ]
        },
        {
            "positions": [
                2.6481071472706996,
                -1.0964104450812446,
                1.7991287104990006,
                -0.5774238867567824,
                0.8868515369671414,
                2.9277712166381034
            ]
        },
        {
            "positions": [
                2.658148743687925,
                -1.1374133782322164,
                1.785273045262251,
                -0.4707830472271455,
                0.8015994320824354,
                2.799087951597467
            ]
        },
        {
            "positions": [
                2.6681903401051508,
                -1.1784163113831883,
                1.7714173800255013,
                -0.36414220769750866,
                0.7163473271977294,
                2.670404686556831
            ]
        },
        {
            "positions": [
                2.6782319365223763,
                -1.2194192445341603,
                1.7575617147887515,
                -0.25750136816787184,
                0.6310952223130235,
                2.5417214215161947
            ]
        },
        {
            "positions": [
                2.6882735329396024,
                -1.260422177685132,
                1.7437060495520018,
                -0.15086052863823496,
                0.5458431174283176,
                2.4130381564755585
            ]
        },
        {
            "positions": [
                2.698315129356828,
                -1.301425110836104,
                1.7298503843152522,
                -0.04421968910859819,
                0.4605910125436117,
                2.2843548914349223
            ]
        },
        {
            "positions": [
                2.7083567257740535,
                -1.3424280439870757,
                1.7159947190785025,
                0.062421150421038685,
                0.37533890765890565,
                2.155671626394286
            ]
        },
        {
            "positions": [
                2.718398322191279,
                -1.3834309771380477,
                1.702139053841753,
                0.16906198995067545,
                0.29008680277419974,
                2.02698836135365
            ]
        },
        {
            "positions": [
                2.7284399186085047,
                -1.4244339102890196,
                1.6882833886050033,
                0.27570282948031233,
                0.2048346978894937,
                1.8983050963130137
            ]
        },
        {
            "positions": [
                2.7384815150257302,
                -1.4654368434399914,
                1.6744277233682536,
                0.3823436690099493,
                0.1195825930047878,
                1.7696218312723775
            ]
        },
        {
            "positions": [
                2.748523111442956,
                -1.5064397765909634,
                1.6605720581315038,
                0.4889845085395861,
                0.03433048812008188,
                1.6409385662317413
            ]
        },
        {
            "positions": [
                2.7585647078601814,
                -1.5474427097419352,
                1.6467163928947541,
                0.5956253480692226,
                -0.050921616764624034,
                1.5122553011911053
            ]
        },
        {
            "positions": [
                2.768606304277407,
                -1.588445642892907,
                1.6328607276580045,
                0.7022661875988596,
                -0.13617372164932995,
                1.3835720361504689
            ]
        },
        {
            "positions": [
                2.7786479006946325,
                -1.6294485760438788,
                1.6190050624212549,
                0.8089070271284964,
                -0.22142582653403586,
                1.2548887711098327
            ]
        },
        {
            "positions": [
                2.788689497111858,
                -1.6704515091948506,
                1.6051493971845052,
                0.9155478666581334,
                -0.306677931418742,
                1.1262055060691964
            ]
        },
        {
            "positions": [
                2.798731093529084,
                -1.7114544423458227,
                1.5912937319477556,
                1.0221887061877701,
                -0.3919300363034479,
                0.9975222410285602
            ]
        },
        {
            "positions": [
                2.8087726899463097,
                -1.7524573754967947,
                1.577438066711006,
                1.128829545717407,
                -0.47718214118815383,
                0.868838975987924
            ]
        },
        {
            "positions": [
                2.8188142863635353,
                -1.7934603086477665,
                1.5635824014742563,
                1.2354703852470437,
                -0.56243424607286,
                0.7401557109472878
            ]
        },
        {
            "positions": [
                2.828855882780761,
                -1.8344632417987383,
                1.5497267362375067,
                1.3421112247766807,
                -0.6476863509575659,
                0.6114724459066516
            ]
        },
        {
            "positions": [
                2.8388974791979864,
                -1.8754661749497101,
                1.535871071000757,
                1.4487520643063176,
                -0.7329384558422718,
                0.4827891808660154
            ]
        },
        {
            "positions": [
                2.848939075615212,
                -1.916469108100682,
                1.5220154057640072,
                1.5553929038359546,
                -0.8181905607269777,
                0.3541059158253792
            ]
        },
        {
            "positions": [
                2.8589806720324376,
                -1.957472041251654,
                1.5081597405272575,
                1.6620337433655912,
                -0.9034426656116838,
                0.225422650784743
            ]
        },
        {
            "positions": [
                2.869022268449663,
                -1.998474974402626,
                1.494304075290508,
                1.7686745828952282,
                -0.9886947704963895,
                0.09673938574410679
            ]
        },
        {
            "positions": [
                2.8790638648668887,
                -2.039477907553598,
                1.4804484100537583,
                1.8753154224248652,
                -1.073946875381096,
                -0.031943879296529865
            ]
        },
        {
            "positions": [
                2.8891054612841143,
                -2.0804808407045696,
                1.4665927448170086,
                1.9819562619545013,
                -1.1591989802658014,
                -0.16062714433716518
            ]
        },
        {
            "positions": [
                2.89914705770134,
                -2.1214837738555414,
                1.452737079580259,
                2.0885971014841385,
                -1.2444510851505073,
                -0.28931040937780184
            ]
        },
        {
            "positions": [
                2.909188654118566,
                -2.1624867070065132,
                1.4388814143435094,
                2.195237941013775,
                -1.3297031900352132,
                -0.41799367441843804
            ]
        },
        {
            "positions": [
                2.919230250535791,
                -2.203489640157485,
                1.4250257491067597,
                2.3018787805434116,
                -1.4149552949199191,
                -0.5466769394590743
            ]
        },
        {
            "positions": [
                2.929271846953017,
                -2.244492573308457,
                1.4111700838700099,
                2.408519620073049,
                -1.500207399804625,
                -0.6753602044997105
            ]
        },
        {
            "positions": [
                2.9393134433702426,
                -2.285495506459429,
                1.3973144186332602,
                2.5151604596026855,
                -1.5854595046893314,
                -0.8040434695403467
            ]
        },
        {
            "positions": [
                2.949355039787468,
                -2.3264984396104005,
                1.3834587533965106,
                2.621801299132323,
                -1.6707116095740373,
                -0.9327267345809829
            ]
        },
        {
            "positions": [
                2.9593966362046937,
                -2.3675013727613727,
                1.369603088159761,
                2.7284421386619595,
                -1.7559637144587432,
                -1.061409999621619
            ]
        },
        {
            "positions": [
                2.9694382326219193,
                -2.4085043059123445,
                1.3557474229230113,
                2.8350829781915965,
                -1.8412158193434491,
                -1.1900932646622548
            ]
        },
        {
            "positions": [
                2.9360214137313845,
                -2.2551431916418596,
                1.3546329537216875,
                2.8083362149492883,
                -1.9102482461685417,
                -1.0793238741764077
            ]
        },
        {
            "positions": [
                2.902604594840849,
                -2.1017820773713747,
                1.3535184845203636,
                2.78158945170698,
                -1.9792806729936343,
                -0.9685544836905604
            ]
        },
        {
            "positions": [
                2.8691877759503144,
                -1.9484209631008897,
                1.3524040153190398,
                2.7548426884646715,
                -2.048313099818727,
                -0.8577850932047133
            ]
        },
        {
            "positions": [
                2.835770957059779,
                -1.7950598488304048,
                1.351289546117716,
                2.7280959252223633,
                -2.1173455266438195,
                -0.747015702718866
            ]
        },
        {
            "positions": [
                2.8023541381692443,
                -1.6416987345599199,
                1.350175076916392,
                2.701349161980055,
                -2.186377953468912,
                -0.6362463122330189
            ]
        },
        {
            "positions": [
                2.768937319278709,
                -1.488337620289435,
                1.3490606077150682,
                2.674602398737747,
                -2.255410380294004,
                -0.5254769217471716
            ]
        },
        {
            "positions": [
                2.735520500388174,
                -1.3349765060189498,
                1.3479461385137443,
                2.647855635495439,
                -2.324442807119097,
                -0.4147075312613244
            ]
        },
        {
            "positions": [
                2.702103681497639,
                -1.1816153917484649,
                1.3468316693124205,
                2.6211088722531306,
                -2.3934752339441894,
                -0.3039381407754772
            ]
        },
        {
            "positions": [
                2.668686862607104,
                -1.02825427747798,
                1.3457172001110966,
                2.594362109010822,
                -2.462507660769282,
                -0.19316875028962988
            ]
        },
        {
            "positions": [
                2.6352700437165693,
                -0.874893163207495,
                1.3446027309097728,
                2.567615345768514,
                -2.5315400875943745,
                -0.08239935980378288
            ]
        },
        {
            "positions": [
                2.601853224826034,
                -0.7215320489370101,
                1.343488261708449,
                2.5408685825262056,
                -2.600572514419467,
                0.028370030682064347
            ]
        }
    ]
}