{
    "goal": {
        "global_pose": {
            "orientation": {
                "w": 0.7031023480610252,
                "x": -0.7110244013736278,
                "y": 0.0077485991402295624,
                "z": 0.005598929693374583
            },
            "position": {
                "x": -0.8841497679147869,
                "y": 0.44412534475326537,
                "z": 0.3711530566215515
            }
        },
        "name": "move_to_auspresseinheit_D"
    },
    "id": "KPIECE_move_to_auspresseinheit_D_30",
    "joint_names": [
        "shoulder_pan_joint",
        "shoulder_lift_joint",
        "elbow_joint",
        "wrist_1_joint",
        "wrist_2_joint",
        "wrist_3_joint"
    ],
    "metrics": {
        "cart_traj_len": 3.8114572183006876,
        "distance_elbow_joint": 3.0186918673965275,
        "distance_shoulder_lift_joint": 1.4416626292495462,
        "distance_shoulder_pan_joint": 2.7976588461364087,
        "distance_wrist_1_joint": 2.081092287587392,
        "distance_wrist_2_joint": 1.2289668850224824,
        "distance_wrist_3_joint": 1.269658521117452,
        "smoothness": 0.11206755002041856,
        "time": 0.11038711,
        "traj_len": 3.4406003889597248,
        "weighted_distance": 4.20560426708869
    },
    "planner": "KPIECE",
    "start": {
        "state": {
            "elbow_joint": 1.8268400409724999,
            "shoulder_lift_joint": -1.0144045787793008,
            "shoulder_pan_joint": 2.6280239544362485,
            "wrist_1_joint": -0.790705565816056,
            "wrist_2_joint": 1.0573557467365533,
            "wrist_3_joint": 3.1851377467193758
        }
    },
    "waypoints": [
        {
            "positions": [
                2.6280239544362485,
                -1.0144045787793008,
                1.8268400409724999,
                -0.790705565816056,
                1.0573557467365533,
                3.1851377467193758
            ]
        },
        {
            "positions": [
                2.609408457649234,
                -1.0012764737296052,
                1.701255932179383,
                -0.8636160448791751,
                1.0141748744019388,
                3.106058977492496
            ]
        },
        {
            "positions": [
                2.5907929608622196,
                -0.9881483686799095,
                1.575671823386266,
                -0.9365265239422942,
                0.9709940020673243,
                3.0269802082656163
            ]
        },
        {
            "positions": [
                2.572177464075205,
                -0.975020263630214,
                1.450087714593149,
                -1.0094370030054134,
                0.9278131297327099,
                2.9479014390387364
            ]
        },
        {
            "positions": [
                2.55356196728819,
                -0.9618921585805184,
                1.3245036058000323,
                -1.0823474820685326,
                0.8846322573980954,
                2.8688226698118564
            ]
        },
        {
            "positions": [
                2.534946470501176,
                -0.9487640535308227,
                1.1989194970069152,
                -1.1552579611316516,
                0.8414513850634808,
                2.789743900584977
            ]
        },
        {
            "positions": [
                2.5163309737141613,
                -0.9356359484811272,
                1.0733353882137984,
                -1.2281684401947708,
                0.7982705127288664,
                2.710665131358097
            ]
        },
        {
            "positions": [
                2.497715476927147,
                -0.9225078434314316,
                0.9477512794206815,
                -1.3010789192578898,
                0.755089640394252,
                2.631586362131217
            ]
        },
        {
            "positions": [
                2.4790999801401323,
                -0.9093797383817359,
                0.8221671706275646,
                -1.373989398321009,
                0.7119087680596374,
                2.5525075929043375
            ]
        },
        {
            "positions": [
                2.3639375944079455,
                -0.9674944248535612,
                0.7346011272774953,
                -1.4391115050637238,
                0.673494859088091,
                2.580204478439225
            ]
        },
        {
            "positions": [
                2.248775208675759,
                -1.0256091113253865,
                0.647035083927426,
                -1.5042336118064386,
                0.6350809501165446,
                2.6079013639741127
            ]
        },
        {
            "positions": [
                2.1336128229435722,
                -1.0837237977972118,
                0.5594690405773568,
                -1.5693557185491533,
                0.5966670411449982,
                2.635598249509
            ]
        },
        {
            "positions": [
                2.018450437211386,
                -1.141838484269037,
                0.47190299722728746,
                -1.634477825291868,
                0.5582531321734518,
                2.663295135043888
            ]
        },
        {
            "positions": [
                1.903288051479199,
                -1.1999531707408622,
                0.38433695387721817,
                -1.6995999320345827,
                0.5198392232019056,
                2.690992020578775
            ]
        },
        {
            "positions": [
                1.7881256657470126,
                -1.2580678572126875,
                0.2967709105271489,
                -1.7647220387772975,
                0.48142531423035917,
                2.718688906113663
            ]
        },
        {
            "positions": [
                1.6729632800148257,
                -1.316182543684513,
                0.20920486717707953,
                -1.8298441455200123,
                0.4430114052588128,
                2.7463857916485503
            ]
        },
        {
            "positions": [
                1.5578008942826391,
                -1.374297230156338,
                0.1216388238270103,
                -1.8949662522627269,
                0.4045974962872664,
                2.7740826771834377
            ]
        },
        {
            "positions": [
                1.4426385085504525,
                -1.4324119166281635,
                0.034072780476940956,
                -1.9600883590054416,
                0.36618358731572,
                2.8017795627183255
            ]
        },
        {
            "positions": [
                1.3274761228182659,
                -1.4905266030999886,
                -0.05349326287312828,
                -2.0252104657481564,
                0.32776967834417364,
                2.829476448253213
            ]
        },
        {
            "positions": [
                1.212313737086079,
                -1.548641289571814,
                -0.14105930622319762,
                -2.0903325724908712,
                0.28935576937262725,
                2.8571733337881007
            ]
        },
        {
            "positions": [
                1.0971513513538926,
                -1.6067559760436392,
                -0.22862534957326686,
                -2.155454679233586,
                0.25094186040108085,
                2.884870219322988
            ]
        },
        {
            "positions": [
                0.981988965621706,
                -1.6648706625154643,
                -0.3161913929233362,
                -2.220576785976301,
                0.2125279514295345,
                2.912567104857876
            ]
        },
        {
            "positions": [
                0.8668265798895192,
                -1.7229853489872897,
                -0.40375743627340555,
                -2.2856988927190156,
                0.17411404245798812,
                2.940263990392763
            ]
        },
        {
            "positions": [
                0.7516641941573325,
                -1.781100035459115,
                -0.4913234796234749,
                -2.3508209994617304,
                0.13570013348644172,
                2.967960875927651
            ]
        },
        {
            "positions": [
                0.6365018084251459,
                -1.8392147219309403,
                -0.578889522973544,
                -2.4159431062044447,
                0.09728622451489533,
                2.9956577614625384
            ]
        },
        {
            "positions": [
                0.5213394226929593,
                -1.8973294084027654,
                -0.6664555663236134,
                -2.4810652129471595,
                0.05887231554334904,
                3.0233546469974257
            ]
        },
        {
            "positions": [
                0.4061770369607727,
                -1.955444094874591,
                -0.7540216096736827,
                -2.5461873196898743,
                0.020458406571802534,
                3.0510515325323135
            ]
        },
        {
            "positions": [
                0.29101465122858583,
                -2.013558781346416,
                -0.841587653023752,
                -2.611309426432589,
                -0.01795550239974386,
                3.078748418067201
            ]
        },
        {
            "positions": [
                0.17585226549639943,
                -2.0716734678182416,
                -0.9291536963738212,
                -2.676431533175304,
                -0.056369411371290146,
                3.1064453036020887
            ]
        },
        {
            "positions": [
                0.060689879764212584,
                -2.1297881542900665,
                -1.0167197397238905,
                -2.7415536399180187,
                -0.09478332034283654,
                3.134142189136976
            ]
        },
        {
            "positions": [
                -0.05447250596797426,
                -2.1879028407618923,
                -1.1042857830739599,
                -2.8066757466607335,
                -0.13319722931438294,
                3.161839074671864
            ]
        },
        {
            "positions": [
                -0.16963489170016072,
                -2.2460175272337173,
                -1.1918518264240292,
                -2.8717978534034483,
                -0.17161113828592936,
                3.1895359602067512
            ]
        }
    ]
}