{
    "goal": {
        "global_pose": {
            "orientation": {
                "w": -0.4816463035849501,
                "x": 0.5182115481033762,
                "y": 0.4908360881923453,
                "z": -0.5084816262002911
            },
            "position": {
                "x": -0.8240239810943604,
                "y": 0.19912469901144506,
                "z": 0.16403168439865112
            }
        },
        "name": "move_to_storage_D"
    },
    "id": "KPIECE_move_to_storage_D_148",
    "joint_names": [
        "shoulder_pan_joint",
        "shoulder_lift_joint",
        "elbow_joint",
        "wrist_1_joint",
        "wrist_2_joint",
        "wrist_3_joint"
    ],
    "metrics": {
        "cart_traj_len": 3.8704972629896717,
        "distance_elbow_joint": 4.2110305089534465,
        "distance_shoulder_lift_joint": 1.263758495768215,
        "distance_shoulder_pan_joint": 2.8130151455267347,
        "distance_wrist_1_joint": 2.267051687831704,
        "distance_wrist_2_joint": 0.8714903685115815,
        "distance_wrist_3_joint": 3.3377517740778266,
        "smoothness": 0.018481479959111667,
        "time": 0.05363722,
        "traj_len": 3.842407836327309,
        "weighted_distance": 4.95763487816201
    },
    "planner": "KPIECE",
    "start": {
        "state": {
            "elbow_joint": -2.384821997420982,
            "shoulder_lift_joint": -2.2788054674887404,
            "shoulder_pan_joint": -0.18546946417610016,
            "wrist_1_joint": 1.4845937964226739,
            "wrist_2_joint": 0.1789877726866377,
            "wrist_3_joint": 0.03710572555276528
        }
    },
    "waypoints": [
        {
            "positions": [
                -0.18546946417610016,
                -2.2788054674887404,
                -2.384821997420982,
                1.4845937964226739,
                0.1789877726866377,
                0.03710572555276528
            ]
        },
        {
            "positions": [
                -0.05582516095254353,
                -2.202272865341212,
                -2.3356926807975866,
                1.4016432632738023,
                0.21599745870062861,
                0.028418212132065294
            ]
        },
        {
            "positions": [
                0.0738191422710131,
                -2.1257402631936837,
                -2.286563364174192,
                1.3186927301249307,
                0.2530071447146195,
                0.019730698711365315
            ]
        },
        {
            "positions": [
                0.20346344549456974,
                -2.0492076610461556,
                -2.2374340475507966,
                1.2357421969760591,
                0.2900168307286104,
                0.01104318529066534
            ]
        },
        {
            "positions": [
                0.3331077487181264,
                -1.972675058898627,
                -2.1883047309274013,
                1.1527916638271876,
                0.3270265167426013,
                0.0023556718699653534
            ]
        },
        {
            "positions": [
                0.46275205194168306,
                -1.8961424567510987,
                -2.139175414304006,
                1.069841130678316,
                0.3640362027565922,
                -0.006331841550734622
            ]
        },
        {
            "positions": [
                0.5923963551652396,
                -1.8196098546035704,
                -2.0900460976806112,
                0.9868905975294443,
                0.4010458887705831,
                -0.015019354971434598
            ]
        },
        {
            "positions": [
                0.7220406583887964,
                -1.743077252456042,
                -2.040916781057216,
                0.9039400643805727,
                0.438055574784574,
                -0.02370686839213458
            ]
        },
        {
            "positions": [
                0.851684961612353,
                -1.6665446503085137,
                -1.9917874644338207,
                0.820989531231701,
                0.4750652607985649,
                -0.03239438181283457
            ]
        },
        {
            "positions": [
                0.9813292648359098,
                -1.5900120481609854,
                -1.9426581478104257,
                0.7380389980828295,
                0.5120749468125558,
                -0.04108189523353455
            ]
        },
        {
            "positions": [
                1.1109735680594663,
                -1.513479446013457,
                -1.8935288311870306,
                0.6550884649339579,
                0.5490846328265467,
                -0.04976940865423452
            ]
        },
        {
            "positions": [
                1.240617871283023,
                -1.4369468438659287,
                -1.8443995145636354,
                0.5721379317850863,
                0.5860943188405376,
                -0.05845692207493451
            ]
        },
        {
            "positions": [
                1.2919855679521937,
                -1.4213209226753583,
                -1.7084510691526686,
                0.5219677161112302,
                0.6032937196685999,
                0.06162415668247759
            ]
        },
        {
            "positions": [
                1.3433532646213646,
                -1.4056950014847878,
                -1.572502623741702,
                0.4717975004373739,
                0.6204931204966622,
                0.1817052354398897
            ]
        },
        {
            "positions": [
                1.3947209612905354,
                -1.3900690802942173,
                -1.4365541783307352,
                0.42162728476351774,
                0.6376925213247244,
                0.3017863141973018
            ]
        },
        {
            "positions": [
                1.446088657959706,
                -1.3744431591036468,
                -1.3006057329197684,
                0.3714570690896615,
                0.6548919221527867,
                0.42186739295471387
            ]
        },
        {
            "positions": [
                1.497456354628877,
                -1.3588172379130763,
                -1.164657287508802,
                0.3212868534158053,
                0.6720913229808491,
                0.541948471712126
            ]
        },
        {
            "positions": [
                1.5488240512980478,
                -1.3431913167225058,
                -1.0287088420978352,
                0.2711166377419491,
                0.6892907238089113,
                0.6620295504695382
            ]
        },
        {
            "positions": [
                1.6001917479672185,
                -1.3275653955319353,
                -0.8927603966868686,
                0.2209464220680929,
                0.7064901246369736,
                0.7821106292269503
            ]
        },
        {
            "positions": [
                1.6515594446363893,
                -1.3119394743413648,
                -0.7568119512759017,
                0.17077620639423668,
                0.7236895254650358,
                0.9021917079843623
            ]
        },
        {
            "positions": [
                1.70292714130556,
                -1.2963135531507943,
                -0.6208635058649352,
                0.12060599072038047,
                0.7408889262930981,
                1.0222727867417745
            ]
        },
        {
            "positions": [
                1.754294837974731,
                -1.2806876319602238,
                -0.4849150604539685,
                0.07043577504652432,
                0.7580883271211605,
                1.1423538654991865
            ]
        },
        {
            "positions": [
                1.8056625346439017,
                -1.2650617107696533,
                -0.34896661504300175,
                0.02026555937266805,
                0.7752877279492227,
                1.2624349442565987
            ]
        },
        {
            "positions": [
                1.8570302313130727,
                -1.2494357895790829,
                -0.21301816963203501,
                -0.029904656301188104,
                0.792487128777285,
                1.3825160230140108
            ]
        },
        {
            "positions": [
                1.9083979279822434,
                -1.2338098683885124,
                -0.07706972422106828,
                -0.08007487197504426,
                0.8096865296053473,
                1.5025971017714228
            ]
        },
        {
            "positions": [
                1.9597656246514141,
                -1.2181839471979417,
                0.05887872118989823,
                -0.13024508764890053,
                0.8268859304334095,
                1.622678180528835
            ]
        },
        {
            "positions": [
                2.011133321320585,
                -1.2025580260073712,
                0.1948271666008652,
                -0.1804153033227568,
                0.8440853312614718,
                1.7427592592862473
            ]
        },
        {
            "positions": [
                2.0625010179897556,
                -1.1869321048168007,
                0.3307756120118319,
                -0.23058551899661295,
                0.861284732089534,
                1.8628403380436591
            ]
        },
        {
            "positions": [
                2.113868714658927,
                -1.1713061836262302,
                0.46672405742279865,
                -0.2807557346704692,
                0.8784841329175963,
                1.9829214168010714
            ]
        },
        {
            "positions": [
                2.165236411328097,
                -1.1556802624356597,
                0.602672502833765,
                -0.33092595034432537,
                0.8956835337456586,
                2.103002495558483
            ]
        },
        {
            "positions": [
                2.2166041079972683,
                -1.1400543412450892,
                0.7386209482447321,
                -0.38109616601818164,
                0.9128829345737209,
                2.2230835743158956
            ]
        },
        {
            "positions": [
                2.267971804666439,
                -1.1244284200545187,
                0.8745693936556984,
                -0.4312663816920377,
                0.9300823354017832,
                2.3431646530733072
            ]
        },
        {
            "positions": [
                2.3193395013356097,
                -1.1088024988639482,
                1.0105178390666656,
                -0.48143659736589406,
                0.9472817362298455,
                2.4632457318307197
            ]
        },
        {
            "positions": [
                2.3707071980047805,
                -1.0931765776733777,
                1.1464662844776319,
                -0.5316068130397502,
                0.9644811370579077,
                2.5833268105881317
            ]
        },
        {
            "positions": [
                2.422074894673951,
                -1.0775506564828072,
                1.2824147298885986,
                -0.5817770287136064,
                0.9816805378859701,
                2.7034078893455438
            ]
        },
        {
            "positions": [
                2.4734425913431224,
                -1.0619247352922367,
                1.4183631752995653,
                -0.6319472443874625,
                0.9988799387140324,
                2.823488968102956
            ]
        },
        {
            "positions": [
                2.5248102880122927,
                -1.0462988141016663,
                1.554311620710532,
                -0.6821174600613189,
                1.0160793395420946,
                2.9435700468603683
            ]
        },
        {
            "positions": [
                2.576177984681464,
                -1.0306728929110958,
                1.6902600661214988,
                -0.7322876757351748,
                1.0332787403701569,
                3.06365112561778
            ]
        },
        {
            "positions": [
                2.6275456813506346,
                -1.0150469717205253,
                1.8262085115324653,
                -0.7824578914090312,
                1.0504781411982191,
                3.1837322043751923
            ]
        }
    ]
}