{
    "goal": {
        "global_pose": {
            "orientation": {
                "w": 0.7031023502349854,
                "x": -0.7110244035720825,
                "y": 0.007748599164187908,
                "z": 0.005598929710686207
            },
            "position": {
                "x": 0.11585023208521307,
                "y": 0.44412534475326537,
                "z": 0.3711530566215515
            }
        },
        "name": "move_to_auspresseinheit_A"
    },
    "id": "KPIECE_move_to_auspresseinheit_A_28",
    "joint_names": [
        "shoulder_pan_joint",
        "shoulder_lift_joint",
        "elbow_joint",
        "wrist_1_joint",
        "wrist_2_joint",
        "wrist_3_joint"
    ],
    "metrics": {
        "cart_traj_len": 1.3828850034536375,
        "distance_elbow_joint": 0.032960520599370824,
        "distance_shoulder_lift_joint": 1.6488906072357326,
        "distance_shoulder_pan_joint": 1.642285386702123,
        "distance_wrist_1_joint": 1.938872554379473,
        "distance_wrist_2_joint": 1.36882631704105,
        "distance_wrist_3_joint": 1.2234849390111826,
        "smoothness": 1.4342536703981572,
        "time": 0.247352554,
        "traj_len": 2.8027344371111815,
        "weighted_distance": 3.6891718683753156
    },
    "planner": "KPIECE",
    "start": {
        "state": {
            "elbow_joint": 2.4225747245308327,
            "shoulder_lift_joint": -1.373653427065438,
            "shoulder_pan_joint": -0.33786330853087027,
            "wrist_1_joint": -1.0288602302712604,
            "wrist_2_joint": 1.23302299562683,
            "wrist_3_joint": -3.094021725338297
        }
    },
    "waypoints": [
        {
            "positions": [
                -0.33786330853087027,
                -1.373653427065438,
                2.4225747245308327,
                -1.0288602302712604,
                1.23302299562683,
                -3.094021725338297
            ]
        },
        {
            "positions": [
                -0.24198877848412034,
                -1.4515882457199623,
                2.422583972242465,
                -0.9390432817806993,
                1.1651665892395202,
                -3.052129336922627
            ]
        },
        {
            "positions": [
                -0.14611424843737042,
                -1.5295230643744866,
                2.422593219954097,
                -0.8492263332901382,
                1.0973101828522105,
                -3.010236948506957
            ]
        },
        {
            "positions": [
                -0.05023971839062047,
                -1.607457883029011,
                2.4226024676657296,
                -0.7594093847995771,
                1.029453776464901,
                -2.9683445600912868
            ]
        },
        {
            "positions": [
                0.045634811656129426,
                -1.6853927016835353,
                2.4226117153773616,
                -0.669592436309016,
                0.9615973700775913,
                -2.9264521716756167
            ]
        },
        {
            "positions": [
                0.14150934170287943,
                -1.7633275203380596,
                2.422620963088994,
                -0.5797754878184548,
                0.8937409636902816,
                -2.8845597832599466
            ]
        },
        {
            "positions": [
                0.23738387174962933,
                -1.841262338992584,
                2.422630210800626,
                -0.4899585393278937,
                0.8258845573029718,
                -2.8426673948442764
            ]
        },
        {
            "positions": [
                0.3332584017963793,
                -1.9191971576471083,
                2.4226394585122586,
                -0.4001415908373326,
                0.7580281509156621,
                -2.800775006428606
            ]
        },
        {
            "positions": [
                0.4291329318431291,
                -1.9971319763016329,
                2.422648706223891,
                -0.3103246423467715,
                0.6901717445283525,
                -2.7588826180129358
            ]
        },
        {
            "positions": [
                0.5250074618898792,
                -2.0750667949561574,
                2.422657953935523,
                -0.22050769385621027,
                0.6223153381410427,
                -2.7169902295972657
            ]
        },
        {
            "positions": [
                0.6208819919366291,
                -2.1530016136106815,
                2.4226672016471555,
                -0.13069074536564917,
                0.5544589317537331,
                -2.6750978411815955
            ]
        },
        {
            "positions": [
                0.7167565219833791,
                -2.2309364322652057,
                2.4226764493587876,
                -0.040873796875088186,
                0.48660252536642334,
                -2.6332054527659254
            ]
        },
        {
            "positions": [
                0.812631052030129,
                -2.3088712509197302,
                2.42268569707042,
                0.048943151615473024,
                0.41874611897911374,
                -2.5913130643502553
            ]
        },
        {
            "positions": [
                0.908505582076879,
                -2.386806069574255,
                2.422694944782052,
                0.13876010010603412,
                0.3508897125918039,
                -2.549420675934585
            ]
        },
        {
            "positions": [
                1.0043801121236289,
                -2.464740888228779,
                2.4227041924936845,
                0.22857704859659522,
                0.28303330620449435,
                -2.507528287518915
            ]
        },
        {
            "positions": [
                0.9615169741168256,
                -2.3850547245041516,
                2.418014042117039,
                0.13122915209493563,
                0.34286711015002497,
                -2.5985270734034582
            ]
        },
        {
            "positions": [
                0.9186538361100222,
                -2.3053685607795242,
                2.413323891740393,
                0.033881255593276066,
                0.40270091409555553,
                -2.689525859288001
            ]
        },
        {
            "positions": [
                0.8757906981032189,
                -2.225682397054897,
                2.4086337413637477,
                -0.0634666409083835,
                0.46253471804108615,
                -2.780524645172544
            ]
        },
        {
            "positions": [
                0.8329275600964154,
                -2.1459962333302696,
                2.4039435909871023,
                -0.1608145374100431,
                0.5223685219866168,
                -2.8715234310570867
            ]
        },
        {
            "positions": [
                0.7900644220896121,
                -2.0663100696056422,
                2.399253440610457,
                -0.2581624339117027,
                0.5822023259321474,
                -2.96252221694163
            ]
        },
        {
            "positions": [
                0.7472012840828088,
                -1.9866239058810147,
                2.394563290233811,
                -0.3555103304133622,
                0.642036129877678,
                -3.0535210028261726
            ]
        },
        {
            "positions": [
                0.7043381460760054,
                -1.9069377421563873,
                2.3898731398571655,
                -0.4528582269150219,
                0.7018699338232086,
                -3.1445197887107157
            ]
        }
    ]
}