{
    "goal": {
        "global_pose": {
            "orientation": {
                "w": -0.4816463035849501,
                "x": 0.5182115481033762,
                "y": 0.4908360881923453,
                "z": -0.5084816262002911
            },
            "position": {
                "x": -0.8240239810943604,
                "y": 0.19912469901144506,
                "z": 0.16403168439865112
            }
        },
        "name": "move_to_storage_D"
    },
    "id": "KPIECE_move_to_storage_D_57",
    "joint_names": [
        "shoulder_pan_joint",
        "shoulder_lift_joint",
        "elbow_joint",
        "wrist_1_joint",
        "wrist_2_joint",
        "wrist_3_joint"
    ],
    "metrics": {
        "cart_traj_len": 3.521042326345748,
        "distance_elbow_joint": 4.5607943605716805,
        "distance_shoulder_lift_joint": 1.2656168819259694,
        "distance_shoulder_pan_joint": 2.8122316398679392,
        "distance_wrist_1_joint": 2.4410544294422003,
        "distance_wrist_2_joint": 0.867851560762939,
        "distance_wrist_3_joint": 3.1486983477632324,
        "smoothness": 0.20741663959531254,
        "time": 0.20661433499999998,
        "traj_len": 3.8853889406768483,
        "weighted_distance": 4.97016598375402
    },
    "planner": "KPIECE",
    "start": {
        "state": {
            "elbow_joint": -2.384821997420982,
            "shoulder_lift_joint": -2.2788054674887404,
            "shoulder_pan_joint": -0.18546946417610016,
            "wrist_1_joint": 1.4845937964226739,
            "wrist_2_joint": 0.1789877726866377,
            "wrist_3_joint": 0.03710572555276528
        }
    },
    "waypoints": [
        {
            "positions": [
                -0.18546946417610016,
                -2.2788054674887404,
                -2.384821997420982,
                1.4845937964226739,
                0.1789877726866377,
                0.03710572555276528
            ]
        },
        {
            "positions": [
                -0.1285297891946599,
                -2.1954606656653466,
                -2.443623664752653,
                1.5136050803765095,
                0.21364640246950645,
                0.09748364919249025
            ]
        },
        {
            "positions": [
                -0.07159011421321965,
                -2.112115863841953,
                -2.5024253320843237,
                1.5426163643303452,
                0.2483050322523752,
                0.15786157283221522
            ]
        },
        {
            "positions": [
                -0.014650439231779389,
                -2.028771062018559,
                -2.561226999415995,
                1.571627648284181,
                0.282963662035244,
                0.2182394964719402
            ]
        },
        {
            "positions": [
                0.06655441044713548,
                -1.9971023601473914,
                -2.435466689126141,
                1.5131221459253863,
                0.2849705649777557,
                0.31110444557640626
            ]
        },
        {
            "positions": [
                0.14775926012605034,
                -1.965433658276224,
                -2.3097063788362866,
                1.454616643566592,
                0.28697746792026746,
                0.40396939468087234
            ]
        },
        {
            "positions": [
                0.2289641098049652,
                -1.9337649564050563,
                -2.1839460685464323,
                1.3961111412077973,
                0.28898437086277917,
                0.49683434378533836
            ]
        },
        {
            "positions": [
                0.31016895948388007,
                -1.9020962545338886,
                -2.0581857582565783,
                1.3376056388490027,
                0.29099127380529094,
                0.5896992928898044
            ]
        },
        {
            "positions": [
                0.39137380916279496,
                -1.8704275526627212,
                -1.9324254479667242,
                1.2791001364902084,
                0.29299817674780265,
                0.6825642419942706
            ]
        },
        {
            "positions": [
                0.4725786588417098,
                -1.8387588507915535,
                -1.80666513767687,
                1.2205946341314138,
                0.2950050796903144,
                0.7754291910987365
            ]
        },
        {
            "positions": [
                0.5537835085206246,
                -1.8070901489203859,
                -1.680904827387016,
                1.1620891317726194,
                0.29701198263282613,
                0.8682941402032026
            ]
        },
        {
            "positions": [
                0.6349883581995395,
                -1.7754214470492182,
                -1.5551445170971618,
                1.1035836294138248,
                0.2990188855753379,
                0.9611590893076687
            ]
        },
        {
            "positions": [
                0.7161932078784543,
                -1.7437527451780508,
                -1.4293842068073077,
                1.0450781270550302,
                0.3010257885178496,
                1.0540240384121349
            ]
        },
        {
            "positions": [
                0.7973980575573694,
                -1.7120840433068831,
                -1.3036238965174536,
                0.9865726246962357,
                0.3030326914603614,
                1.1468889875166008
            ]
        },
        {
            "positions": [
                0.8786029072362842,
                -1.6804153414357155,
                -1.1778635862275995,
                0.9280671223374413,
                0.3050395944028731,
                1.2397539366210668
            ]
        },
        {
            "positions": [
                0.959807756915199,
                -1.648746639564548,
                -1.0521032759377453,
                0.8695616199786467,
                0.30704649734538486,
                1.332618885725533
            ]
        },
        {
            "positions": [
                1.0410126065941139,
                -1.6170779376933804,
                -0.9263429656478912,
                0.8110561176198522,
                0.3090534002878966,
                1.4254838348299992
            ]
        },
        {
            "positions": [
                1.1222174562730287,
                -1.5854092358222127,
                -0.8005826553580371,
                0.7525506152610577,
                0.31106030323040834,
                1.518348783934465
            ]
        },
        {
            "positions": [
                1.2034223059519435,
                -1.553740533951045,
                -0.6748223450681827,
                0.6940451129022631,
                0.31306720617292005,
                1.6112137330389316
            ]
        },
        {
            "positions": [
                1.2846271556308584,
                -1.5220718320798776,
                -0.5490620347783288,
                0.6355396105434686,
                0.3150741091154318,
                1.7040786821433973
            ]
        },
        {
            "positions": [
                1.3658320053097734,
                -1.49040313020871,
                -0.4233017244884745,
                0.577034108184674,
                0.31708101205794353,
                1.7969436312478635
            ]
        },
        {
            "positions": [
                1.447036854988688,
                -1.4587344283375425,
                -0.29754141419862057,
                0.5185286058258796,
                0.3190879150004553,
                1.8898085803523292
            ]
        },
        {
            "positions": [
                1.5282417046676031,
                -1.4270657264663749,
                -0.17178110390876622,
                0.46002310346708497,
                0.321094817942967,
                1.9826735294567954
            ]
        },
        {
            "positions": [
                1.609446554346518,
                -1.3953970245952072,
                -0.046020793618912315,
                0.4015176011082906,
                0.3231017208854788,
                2.0755384785612616
            ]
        },
        {
            "positions": [
                1.6906514040254328,
                -1.3637283227240395,
                0.07973951667094203,
                0.343012098749496,
                0.3251086238279905,
                2.168403427665728
            ]
        },
        {
            "positions": [
                1.7718562537043476,
                -1.3320596208528719,
                0.20549982696079594,
                0.28450659639070164,
                0.32711552677050226,
                2.2612683767701935
            ]
        },
        {
            "positions": [
                1.8530611033832625,
                -1.3003909189817044,
                0.3312601372506503,
                0.22600109403190705,
                0.329122429713014,
                2.3541333258746597
            ]
        },
        {
            "positions": [
                1.9342659530621773,
                -1.268722217110537,
                0.4570204475405042,
                0.16749559167311245,
                0.3311293326555257,
                2.4469982749791255
            ]
        },
        {
            "positions": [
                2.0154708027410924,
                -1.2370535152393694,
                0.5827807578303585,
                0.10899008931431786,
                0.33313623559803746,
                2.539863224083592
            ]
        },
        {
            "positions": [
                2.096675652420007,
                -1.2053848133682017,
                0.7085410681202124,
                0.05048458695552349,
                0.3351431385405492,
                2.632728173188058
            ]
        },
        {
            "positions": [
                2.177880502098922,
                -1.173716111497034,
                0.834301378410067,
                -0.0080209154032711,
                0.33715004148306094,
                2.725593122292524
            ]
        },
        {
            "positions": [
                2.227756243609246,
                -1.1558797197265605,
                0.9441748207156899,
                -0.09406225028029785,
                0.41600440725711824,
                2.7767276724062433
            ]
        },
        {
            "positions": [
                2.2776319851195703,
                -1.1380433279560866,
                1.0540482630213128,
                -0.1801035851573246,
                0.49485877303117554,
                2.8278622225199626
            ]
        },
        {
            "positions": [
                2.3275077266298942,
                -1.120206936185613,
                1.1639217053269357,
                -0.26614492003435136,
                0.5737131388052328,
                2.878996772633682
            ]
        },
        {
            "positions": [
                2.3773834681402186,
                -1.1023705444151393,
                1.2737951476325589,
                -0.3521862549113781,
                0.6525675045792901,
                2.930131322747401
            ]
        },
        {
            "positions": [
                2.4272592096505425,
                -1.0845341526446657,
                1.3836685899381818,
                -0.4382275897884049,
                0.7314218703533475,
                2.9812658728611208
            ]
        },
        {
            "positions": [
                2.477134951160867,
                -1.0666977608741919,
                1.4935420322438047,
                -0.5242689246654316,
                0.8102762361274047,
                3.03240042297484
            ]
        },
        {
            "positions": [
                2.527010692671191,
                -1.0488613691037183,
                1.6034154745494278,
                -0.6103102595424584,
                0.8891306019014621,
                3.0835349730885593
            ]
        },
        {
            "positions": [
                2.5768864341815148,
                -1.0310249773332445,
                1.7132889168550505,
                -0.6963515944194851,
                0.9679849676755193,
                3.1346695232022785
            ]
        },
        {
            "positions": [
                2.626762175691839,
                -1.013188585562771,
                1.8231623591606736,
                -0.7823929292965119,
                1.0468393334495767,
                3.185804073315998
            ]
        }
    ]
}