{
    "goal": {
        "global_pose": {
            "orientation": {
                "w": -0.00223480608172531,
                "x": 0.0024358444001904467,
                "y": 0.7094548369677653,
                "z": -0.704743149386269
            },
            "position": {
                "x": -0.37947507619857795,
                "y": -0.6371506643295288,
                "z": 0.19426114857196808
            }
        },
        "name": "move_to_magneteinheit_C"
    },
    "id": "KPIECE_move_to_magneteinheit_C_31",
    "joint_names": [
        "shoulder_pan_joint",
        "shoulder_lift_joint",
        "elbow_joint",
        "wrist_1_joint",
        "wrist_2_joint",
        "wrist_3_joint"
    ],
    "metrics": {
        "cart_traj_len": 4.055597829939137,
        "distance_elbow_joint": 0.5769267904444613,
        "distance_shoulder_lift_joint": 2.4465930763560637,
        "distance_shoulder_pan_joint": 6.574281460602831,
        "distance_wrist_1_joint": 3.4336963686748354,
        "distance_wrist_2_joint": 5.474218868165687,
        "distance_wrist_3_joint": 0.9159359031735752,
        "smoothness": 0.6464368001512901,
        "time": 1.03439226,
        "traj_len": 4.407000393398831,
        "weighted_distance": 5.491943145245144
    },
    "planner": "KPIECE",
    "start": {
        "state": {
            "elbow_joint": 1.9565354006590394,
            "shoulder_lift_joint": -1.4165861576513559,
            "shoulder_pan_joint": -1.6717766223277177,
            "wrist_1_joint": -0.5286633288215096,
            "wrist_2_joint": 1.4727565892594296,
            "wrist_3_joint": 3.1593482883155493
        }
    },
    "waypoints": [
        {
            "positions": [
                -1.6717766223277177,
                -1.4165861576513559,
                1.9565354006590394,
                -0.5286633288215096,
                1.4727565892594296,
                3.1593482883155493
            ]
        },
        {
            "positions": [
                -1.5392356391451991,
                -1.5040465319502556,
                1.9676559860260863,
                -0.5032741186459552,
                1.4073463358092684,
                3.1265505084595486
            ]
        },
        {
            "positions": [
                -1.4066946559626805,
                -1.5915069062491554,
                1.9787765713931333,
                -0.47788490847040077,
                1.3419360823591073,
                3.0937527286035476
            ]
        },
        {
            "positions": [
                -1.274153672780162,
                -1.678967280548055,
                1.9898971567601804,
                -0.4524956982948463,
                1.2765258289089463,
                3.060954948747547
            ]
        },
        {
            "positions": [
                -1.1416126895976433,
                -1.7664276548469549,
                2.0010177421272273,
                -0.4271064881192919,
                1.211115575458785,
                3.0281571688915463
            ]
        },
        {
            "positions": [
                -1.03453130079267,
                -1.8004040316544625,
                2.013406398708069,
                -0.5125390490483559,
                1.0802365085686156,
                3.0127927347264016
            ]
        },
        {
            "positions": [
                -0.9274499119876967,
                -1.8343804084619701,
                2.0257950552889104,
                -0.5979716099774199,
                0.9493574416784462,
                2.997428300561257
            ]
        },
        {
            "positions": [
                -0.8203685231827234,
                -1.8683567852694776,
                2.038183711869752,
                -0.6834041709064839,
                0.8184783747882768,
                2.9820638663961123
            ]
        },
        {
            "positions": [
                -0.7132871343777499,
                -1.9023331620769852,
                2.050572368450594,
                -0.7688367318355479,
                0.6875993078981073,
                2.966699432230967
            ]
        },
        {
            "positions": [
                -0.6062057455727766,
                -1.9363095388844929,
                2.0629610250314356,
                -0.8542692927646118,
                0.5567202410079379,
                2.9513349980658226
            ]
        },
        {
            "positions": [
                -0.4991243567678033,
                -1.9702859156920005,
                2.075349681612277,
                -0.9397018536936759,
                0.42584117411776856,
                2.935970563900678
            ]
        },
        {
            "positions": [
                -0.39204296796283,
                -2.004262292499508,
                2.0877383381931187,
                -1.02513441462274,
                0.2949621072275992,
                2.9206061297355332
            ]
        },
        {
            "positions": [
                -0.2849615791578566,
                -2.038238669307016,
                2.1001269947739605,
                -1.110566975551804,
                0.1640830403374296,
                2.9052416955703886
            ]
        },
        {
            "positions": [
                -0.17788019035288327,
                -2.0722150461145232,
                2.1125156513548022,
                -1.195999536480868,
                0.03320397344726023,
                2.889877261405244
            ]
        },
        {
            "positions": [
                -0.07079880154790996,
                -2.1061914229220307,
                2.1249043079356436,
                -1.2814320974099318,
                -0.09767509344290914,
                2.8745128272400993
            ]
        },
        {
            "positions": [
                0.03628258725706335,
                -2.1401677997295385,
                2.1372929645164853,
                -1.3668646583389958,
                -0.22855416033307852,
                2.859148393074954
            ]
        },
        {
            "positions": [
                0.14336397606203666,
                -2.174144176537046,
                2.149681621097327,
                -1.4522972192680597,
                -0.3594332272232479,
                2.8437839589098095
            ]
        },
        {
            "positions": [
                0.2504453648670102,
                -2.208120553344554,
                2.1620702776781684,
                -1.537729780197124,
                -0.4903122941134175,
                2.828419524744665
            ]
        },
        {
            "positions": [
                0.3575267536719833,
                -2.2420969301520612,
                2.17445893425901,
                -1.6231623411261877,
                -0.6211913610035866,
                2.81305509057952
            ]
        },
        {
            "positions": [
                0.4646081424769566,
                -2.2760733069595687,
                2.186847590839852,
                -1.7085949020552518,
                -0.752070427893756,
                2.7976906564143755
            ]
        },
        {
            "positions": [
                0.5716895312819301,
                -2.3100496837670765,
                2.1992362474206937,
                -1.7940274629843158,
                -0.8829494947839258,
                2.782326222249231
            ]
        },
        {
            "positions": [
                0.6787709200869032,
                -2.344026060574584,
                2.211624904001535,
                -1.8794600239133799,
                -1.013828561674095,
                2.766961788084086
            ]
        },
        {
            "positions": [
                0.7858523088918767,
                -2.378002437382092,
                2.2240135605823768,
                -1.964892584842444,
                -1.1447076285642646,
                2.7515973539189416
            ]
        },
        {
            "positions": [
                0.8929336976968498,
                -2.4119788141895993,
                2.2364022171632185,
                -2.050325145771508,
                -1.2755866954544337,
                2.7362329197537965
            ]
        },
        {
            "positions": [
                1.0000150865018234,
                -2.4459551909971067,
                2.24879087374406,
                -2.1357577067005717,
                -1.4064657623446033,
                2.720868485588652
            ]
        },
        {
            "positions": [
                1.107096475306797,
                -2.4799315678046145,
                2.2611795303249016,
                -2.2211902676296362,
                -1.537344829234773,
                2.705504051423507
            ]
        },
        {
            "positions": [
                1.21417786411177,
                -2.513907944612122,
                2.2735681869057434,
                -2.3066228285587,
                -1.668223896124942,
                2.6901396172583625
            ]
        },
        {
            "positions": [
                1.0666447851452363,
                -2.4599370930363103,
                2.263172426737833,
                -2.2485179010573715,
                -1.5748943608136896,
                2.708008706543018
            ]
        },
        {
            "positions": [
                0.9191117061787027,
                -2.405966241460498,
                2.2527766665699227,
                -2.190412973556043,
                -1.481564825502437,
                2.7258777958276736
            ]
        },
        {
            "positions": [
                0.7715786272121692,
                -2.3519953898846864,
                2.2423809064020124,
                -2.132308046054715,
                -1.3882352901911845,
                2.743746885112329
            ]
        },
        {
            "positions": [
                0.6240455482456355,
                -2.2980245383088747,
                2.231985146234102,
                -2.074203118553386,
                -1.2949057548799319,
                2.761615974396985
            ]
        },
        {
            "positions": [
                0.47651246927910185,
                -2.2440536867330625,
                2.2215893860661917,
                -2.0160981910520577,
                -1.2015762195686794,
                2.77948506368164
            ]
        },
        {
            "positions": [
                0.3289793903125684,
                -2.1900828351572508,
                2.2111936258982814,
                -1.9579932635507293,
                -1.108246684257427,
                2.7973541529662955
            ]
        },
        {
            "positions": [
                0.18144631134603473,
                -2.1361119835814386,
                2.2007978657303715,
                -1.899888336049401,
                -1.0149171489461744,
                2.8152232422509513
            ]
        },
        {
            "positions": [
                0.03391323237950106,
                -2.082141132005627,
                2.190402105562461,
                -1.8417834085480727,
                -0.9215876136349218,
                2.8330923315356067
            ]
        },
        {
            "positions": [
                -0.11361984658703239,
                -2.028170280429815,
                2.180006345394551,
                -1.783678481046744,
                -0.8282580783236694,
                2.8509614208202625
            ]
        },
        {
            "positions": [
                -0.2611529255535663,
                -1.974199428854003,
                2.1696105852266405,
                -1.7255735535454155,
                -0.7349285430124168,
                2.868830510104918
            ]
        },
        {
            "positions": [
                -0.40868600452009973,
                -1.9202285772781913,
                2.15921482505873,
                -1.6674686260440872,
                -0.6415990077011644,
                2.886699599389573
            ]
        },
        {
            "positions": [
                -0.5562190834866332,
                -1.8662577257023796,
                2.14881906489082,
                -1.6093636985427588,
                -0.5482694723899117,
                2.904568688674229
            ]
        },
        {
            "positions": [
                -0.7037521624531671,
                -1.8122868741265674,
                2.1384233047229095,
                -1.5512587710414305,
                -0.4549399370786593,
                2.9224377779588844
            ]
        },
        {
            "positions": [
                -0.8512852414197005,
                -1.7583160225507557,
                2.128027544554999,
                -1.493153843540102,
                -0.36161040176740666,
                2.94030686724354
            ]
        },
        {
            "positions": [
                -0.998818320386234,
                -1.704345170974944,
                2.117631784387089,
                -1.4350489160387738,
                -0.26828086645615423,
                2.9581759565281955
            ]
        },
        {
            "positions": [
                -1.1463513993527679,
                -1.6503743193991318,
                2.1072360242191785,
                -1.3769439885374453,
                -0.17495133114490158,
                2.976045045812851
            ]
        },
        {
            "positions": [
                -1.2938844783193018,
                -1.59640346782332,
                2.096840264051268,
                -1.3188390610361167,
                -0.08162179583364915,
                2.9939141350975067
            ]
        },
        {
            "positions": [
                -1.4414175572858348,
                -1.5424326162475082,
                2.086444503883358,
                -1.2607341335347884,
                0.011707739477603285,
                3.011783224382162
            ]
        },
        {
            "positions": [
                -1.5889506362523687,
                -1.4884617646716962,
                2.0760487437154476,
                -1.20262920603346,
                0.10503727478885594,
                3.029652313666818
            ]
        },
        {
            "positions": [
                -1.7364837152189025,
                -1.4344909130958843,
                2.0656529835475377,
                -1.1445242785321315,
                0.19836681010010837,
                3.0475214029514732
            ]
        },
        {
            "positions": [
                -1.8840167941854356,
                -1.3805200615200726,
                2.0552572233796274,
                -1.0864193510308031,
                0.2916963454113608,
                3.0653904922361286
            ]
        },
        {
            "positions": [
                -2.0315498731519694,
                -1.3265492099442606,
                2.044861463211717,
                -1.0283144235294748,
                0.38502588072261323,
                3.0832595815207844
            ]
        },
        {
            "positions": [
                -2.1790829521185033,
                -1.2725783583684487,
                2.0344657030438067,
                -0.9702094960281462,
                0.4783554160338661,
                3.1011286708054397
            ]
        },
        {
            "positions": [
                -2.3266160310850363,
                -1.218607506792637,
                2.0240699428758964,
                -0.9121045685268181,
                0.5716849513451185,
                3.1189977600900956
            ]
        },
        {
            "positions": [
                -2.4741491100515702,
                -1.164636655216825,
                2.013674182707986,
                -0.8539996410254894,
                0.6650144866563709,
                3.136866849374751
            ]
        }
    ]
}