{
    "goal": {
        "global_pose": {
            "orientation": {
                "w": 0.005598929693374612,
                "x": 0.007748599140229565,
                "y": 0.7110244013736278,
                "z": -0.7031023480610252
            },
            "position": {
                "x": -0.8858502320852131,
                "y": -0.7141253447532654,
                "z": 0.3711530566215515
            }
        },
        "name": "move_to_auspresseinheit_C"
    },
    "id": "KPIECE_move_to_auspresseinheit_C_13",
    "joint_names": [
        "shoulder_pan_joint",
        "shoulder_lift_joint",
        "elbow_joint",
        "wrist_1_joint",
        "wrist_2_joint",
        "wrist_3_joint"
    ],
    "metrics": {
        "cart_traj_len": 0.4932162629480793,
        "distance_elbow_joint": 1.0102172838783006,
        "distance_shoulder_lift_joint": 0.32879475212249476,
        "distance_shoulder_pan_joint": 0.2562459991927293,
        "distance_wrist_1_joint": 0.7112184758652573,
        "distance_wrist_2_joint": 1.302861834995355,
        "distance_wrist_3_joint": 0.08473479904983039,
        "smoothness": 3.2297397080004555e-16,
        "time": 1.25806099,
        "traj_len": 1.9219971761435988,
        "weighted_distance": 2.4243809630634043
    },
    "planner": "KPIECE",
    "start": {
        "state": {
            "elbow_joint": 1.752795957773711,
            "shoulder_lift_joint": -0.9740617694225064,
            "shoulder_pan_joint": -2.967991417825858,
            "wrist_1_joint": -0.7595177689806859,
            "wrist_2_joint": 1.7443932448377395,
            "wrist_3_joint": 3.199131542505932
        }
    },
    "waypoints": [
        {
            "positions": [
                -2.967991417825858,
                -0.9740617694225064,
                1.752795957773711,
                -0.7595177689806859,
                1.7443932448377395,
                3.199131542505932
            ]
        },
        {
            "positions": [
                -2.942366817906585,
                -0.941182294210257,
                1.651774229385881,
                -0.6883959213941602,
                1.614107061338204,
                3.1906580626009493
            ]
        },
        {
            "positions": [
                -2.916742217987312,
                -0.9083028189980075,
                1.550752500998051,
                -0.6172740738076344,
                1.4838208778386686,
                3.182184582695966
            ]
        },
        {
            "positions": [
                -2.8911176180680394,
                -0.875423343785758,
                1.4497307726102209,
                -0.5461522262211087,
                1.353534694339133,
                3.173711102790983
            ]
        },
        {
            "positions": [
                -2.8654930181487663,
                -0.8425438685735085,
                1.3487090442223908,
                -0.475030378634583,
                1.2232485108395976,
                3.165237622886
            ]
        },
        {
            "positions": [
                -2.8398684182294933,
                -0.8096643933612591,
                1.2476873158345607,
                -0.40390853104805724,
                1.0929623273400622,
                3.156764142981017
            ]
        },
        {
            "positions": [
                -2.8142438183102203,
                -0.7767849181490096,
                1.1466655874467309,
                -0.3327866834615315,
                0.9626761438405266,
                3.148290663076034
            ]
        },
        {
            "positions": [
                -2.7886192183909473,
                -0.7439054429367601,
                1.0456438590589008,
                -0.26166483587500583,
                0.8323899603409911,
                3.139817183171051
            ]
        },
        {
            "positions": [
                -2.7629946184716747,
                -0.7110259677245105,
                0.9446221306710706,
                -0.19054298828848004,
                0.7021037768414555,
                3.131343703266068
            ]
        },
        {
            "positions": [
                -2.7373700185524017,
                -0.6781464925122611,
                0.8436004022832406,
                -0.11942114070195431,
                0.5718175933419201,
                3.122870223361085
            ]
        },
        {
            "positions": [
                -2.7117454186331287,
                -0.6452670173000117,
                0.7425786738954105,
                -0.048299293115428577,
                0.4415314098423846,
                3.1143967434561017
            ]
        }
    ]
}