{
    "goal": {
        "global_pose": {
            "orientation": {
                "w": 0.005598929693374612,
                "x": 0.007748599140229565,
                "y": 0.7110244013736278,
                "z": -0.7031023480610252
            },
            "position": {
                "x": 0.1141497679147869,
                "y": -0.7141253447532654,
                "z": 0.3711530566215515
            }
        },
        "name": "move_to_auspresseinheit_B"
    },
    "id": "KPIECE_move_to_auspresseinheit_B_22",
    "joint_names": [
        "shoulder_pan_joint",
        "shoulder_lift_joint",
        "elbow_joint",
        "wrist_1_joint",
        "wrist_2_joint",
        "wrist_3_joint"
    ],
    "metrics": {
        "cart_traj_len": 0.5651386548322387,
        "distance_elbow_joint": 0.06399912714839662,
        "distance_shoulder_lift_joint": 0.29565165485042777,
        "distance_shoulder_pan_joint": 0.5773812206048865,
        "distance_wrist_1_joint": 0.3339974529886076,
        "distance_wrist_2_joint": 0.9952728221145852,
        "distance_wrist_3_joint": 0.0033789426186561222,
        "smoothness": 5.075305295617109e-16,
        "time": 0.09015003299999999,
        "traj_len": 1.50654612286699,
        "weighted_distance": 1.8988705539520236
    },
    "planner": "KPIECE",
    "start": {
        "state": {
            "elbow_joint": 2.019306165916698,
            "shoulder_lift_joint": -1.1220205098164344,
            "shoulder_pan_joint": -1.095207207618794,
            "wrist_1_joint": -0.8559671824921639,
            "wrist_2_joint": 0.47596387242952726,
            "wrist_3_joint": 3.159081874673826
        }
    },
    "waypoints": [
        {
            "positions": [
                -1.095207207618794,
                -1.1220205098164344,
                2.019306165916698,
                -0.8559671824921639,
                0.47596387242952726,
                3.159081874673826
            ]
        },
        {
            "positions": [
                -1.1914374110529418,
                -1.1712957856248392,
                2.0086396447252985,
                -0.800300940327396,
                0.6418426761152914,
                3.1585187175707166
            ]
        },
        {
            "positions": [
                -1.2876676144870896,
                -1.2205710614332437,
                1.997973123533899,
                -0.744634698162628,
                0.8077214798010557,
                3.1579555604676073
            ]
        },
        {
            "positions": [
                -1.3838978179212371,
                -1.2698463372416482,
                1.9873066023424997,
                -0.68896845599786,
                0.9736002834868198,
                3.157392403364498
            ]
        },
        {
            "positions": [
                -1.480128021355385,
                -1.319121613050053,
                1.9766400811511002,
                -0.6333022138330922,
                1.139479087172584,
                3.1568292462613883
            ]
        },
        {
            "positions": [
                -1.5763582247895327,
                -1.3683968888584577,
                1.9659735599597008,
                -0.5776359716683241,
                1.3053578908583483,
                3.156266089158279
            ]
        },
        {
            "positions": [
                -1.6725884282236805,
                -1.4176721646668622,
                1.9553070387683014,
                -0.5219697295035562,
                1.4712366945441124,
                3.1557029320551697
            ]
        }
    ]
}