{
    "goal": {
        "global_pose": {
            "orientation": {
                "w": -0.4816463035849501,
                "x": 0.5182115481033762,
                "y": 0.4908360881923453,
                "z": -0.5084816262002911
            },
            "position": {
                "x": -0.8240239810943604,
                "y": 0.19912469901144506,
                "z": 0.16403168439865112
            }
        },
        "name": "move_to_storage_D"
    },
    "id": "KPIECE_move_to_storage_D_21",
    "joint_names": [
        "shoulder_pan_joint",
        "shoulder_lift_joint",
        "elbow_joint",
        "wrist_1_joint",
        "wrist_2_joint",
        "wrist_3_joint"
    ],
    "metrics": {
        "cart_traj_len": 3.8309227196318028,
        "distance_elbow_joint": 4.212398559303805,
        "distance_shoulder_lift_joint": 1.262704537082548,
        "distance_shoulder_pan_joint": 2.8140406684665824,
        "distance_wrist_1_joint": 2.2725433949222746,
        "distance_wrist_2_joint": 0.8849800489916871,
        "distance_wrist_3_joint": 3.1408335022227125,
        "smoothness": 4.782499202090327e-16,
        "time": 0.519907398,
        "traj_len": 3.819358677970637,
        "weighted_distance": 4.901702883626159
    },
    "planner": "KPIECE",
    "start": {
        "state": {
            "elbow_joint": -2.384821997420982,
            "shoulder_lift_joint": -2.2788054674887404,
            "shoulder_pan_joint": -0.18546946417610016,
            "wrist_1_joint": 1.4845937964226739,
            "wrist_2_joint": 0.1789877726866377,
            "wrist_3_joint": 0.03710572555276528
        }
    },
    "waypoints": [
        {
            "positions": [
                -0.18546946417610016,
                -2.2788054674887404,
                -2.384821997420982,
                1.4845937964226739,
                0.1789877726866377,
                0.03710572555276528
            ]
        },
        {
            "positions": [
                -0.15141441820471738,
                -2.2699151442812786,
                -2.349858395734704,
                1.4733957776709723,
                0.2001868710738674,
                0.0603379484632582
            ]
        },
        {
            "positions": [
                -0.06926260022504718,
                -2.228527381104729,
                -2.252068400100075,
                1.4136429938409703,
                0.21623491897807853,
                0.15388117664304038
            ]
        },
        {
            "positions": [
                0.012889217754623011,
                -2.1871396179281795,
                -2.1542784044654457,
                1.3538902100109684,
                0.23228296688228967,
                0.24742440482282257
            ]
        },
        {
            "positions": [
                0.09504103573429323,
                -2.1457518547516297,
                -2.056488408830816,
                1.2941374261809664,
                0.2483310147865008,
                0.34096763300260474
            ]
        },
        {
            "positions": [
                0.1771928537139634,
                -2.1043640915750803,
                -1.958698413196187,
                1.2343846423509643,
                0.26437906269071193,
                0.4345108611823869
            ]
        },
        {
            "positions": [
                0.2593446716936336,
                -2.0629763283985305,
                -1.860908417561558,
                1.1746318585209625,
                0.28042711059492303,
                0.5280540893621691
            ]
        },
        {
            "positions": [
                0.3414964896733038,
                -2.021588565221981,
                -1.763118421926929,
                1.1148790746909603,
                0.2964751584991342,
                0.6215973175419514
            ]
        },
        {
            "positions": [
                0.4236483076529741,
                -1.9802008020454314,
                -1.6653284262922996,
                1.0551262908609584,
                0.3125232064033453,
                0.7151405457217336
            ]
        },
        {
            "positions": [
                0.5058001256326442,
                -1.938813038868882,
                -1.5675384306576705,
                0.9953735070309564,
                0.3285712543075564,
                0.8086837739015157
            ]
        },
        {
            "positions": [
                0.5879519436123144,
                -1.8974252756923322,
                -1.4697484350230412,
                0.9356207232009545,
                0.34461930221176756,
                0.9022270020812979
            ]
        },
        {
            "positions": [
                0.6701037615919846,
                -1.8560375125157829,
                -1.371958439388412,
                0.8758679393709525,
                0.36066735011597867,
                0.99577023026108
            ]
        },
        {
            "positions": [
                0.7522555795716548,
                -1.814649749339233,
                -1.274168443753783,
                0.8161151555409505,
                0.37671539802018983,
                1.0893134584408621
            ]
        },
        {
            "positions": [
                0.8344073975513251,
                -1.7732619861626835,
                -1.1763784481191537,
                0.7563623717109484,
                0.39276344592440093,
                1.1828566866206445
            ]
        },
        {
            "positions": [
                0.9165592155309953,
                -1.731874222986134,
                -1.0785884524845246,
                0.6966095878809465,
                0.4088114938286121,
                1.2763999148004268
            ]
        },
        {
            "positions": [
                0.9987110335106656,
                -1.6904864598095843,
                -0.9807984568498953,
                0.6368568040509445,
                0.4248595417328232,
                1.369943142980209
            ]
        },
        {
            "positions": [
                1.0808628514903356,
                -1.6490986966330348,
                -0.8830084612152662,
                0.5771040202209425,
                0.44090758963703436,
                1.463486371159991
            ]
        },
        {
            "positions": [
                1.1630146694700056,
                -1.6077109334564852,
                -0.7852184655806371,
                0.5173512363909406,
                0.45695563754124546,
                1.5570295993397731
            ]
        },
        {
            "positions": [
                1.245166487449676,
                -1.5663231702799356,
                -0.6874284699460078,
                0.4575984525609387,
                0.47300368544545657,
                1.6505728275195553
            ]
        },
        {
            "positions": [
                1.327318305429346,
                -1.524935407103386,
                -0.5896384743113787,
                0.39784566873093663,
                0.4890517333496677,
                1.7441160556993376
            ]
        },
        {
            "positions": [
                1.4094701234090163,
                -1.4835476439268365,
                -0.49184847867674963,
                0.3380928849009346,
                0.5050997812538789,
                1.8376592838791197
            ]
        },
        {
            "positions": [
                1.4916219413886864,
                -1.442159880750287,
                -0.3940584830421203,
                0.27834010107093277,
                0.52114782915809,
                1.9312025120589018
            ]
        },
        {
            "positions": [
                1.5737737593683567,
                -1.4007721175737373,
                -0.29626848740749123,
                0.21858731724093072,
                0.5371958770623011,
                2.024745740238684
            ]
        },
        {
            "positions": [
                1.6559255773480268,
                -1.3593843543971877,
                -0.19847849177286214,
                0.15883453341092868,
                0.5532439249665122,
                2.118288968418466
            ]
        },
        {
            "positions": [
                1.7380773953276973,
                -1.317996591220638,
                -0.10068849613823261,
                0.09908174958092664,
                0.5692919728707233,
                2.2118321965982486
            ]
        },
        {
            "positions": [
                1.8202292133073674,
                -1.2766088280440884,
                -0.0028985005036035183,
                0.039328965750924594,
                0.5853400207749345,
                2.3053754247780307
            ]
        },
        {
            "positions": [
                1.9023810312870375,
                -1.2352210648675388,
                0.09489149513102557,
                -0.02042381807907745,
                0.6013880686791456,
                2.398918652957813
            ]
        },
        {
            "positions": [
                1.9845328492667078,
                -1.1938333016909892,
                0.19268149076565466,
                -0.08017660190907927,
                0.6174361165833568,
                2.4924618811375954
            ]
        },
        {
            "positions": [
                2.066684667246378,
                -1.1524455385144396,
                0.2904714864002842,
                -0.1399293857390813,
                0.633484164487568,
                2.5860051093173775
            ]
        },
        {
            "positions": [
                2.1488364852260484,
                -1.11105777533789,
                0.3882614820349133,
                -0.19968216956908336,
                0.649532212391779,
                2.6795483374971596
            ]
        },
        {
            "positions": [
                2.2309883032057183,
                -1.0696700121613405,
                0.4860514776695424,
                -0.2594349533990852,
                0.6655802602959902,
                2.7730915656769417
            ]
        },
        {
            "positions": [
                2.3131401211853886,
                -1.028282248984791,
                0.5838414733041717,
                -0.31918773722908733,
                0.6816283082002013,
                2.866634793856724
            ]
        },
        {
            "positions": [
                2.3582017044861163,
                -1.0265420606164197,
                0.7615179145296933,
                -0.3861537174105891,
                0.736248238697076,
                2.911106855845117
            ]
        },
        {
            "positions": [
                2.403263287786844,
                -1.0248018722480485,
                0.9391943557552149,
                -0.4531196975920909,
                0.7908681691939509,
                2.9555789178335106
            ]
        },
        {
            "positions": [
                2.448324871087572,
                -1.0230616838796773,
                1.1168707969807365,
                -0.5200856777735927,
                0.8454880996908256,
                3.000050979821904
            ]
        },
        {
            "positions": [
                2.493386454388299,
                -1.021321495511306,
                1.294547238206258,
                -0.5870516579550945,
                0.9001080301877005,
                3.0445230418102978
            ]
        },
        {
            "positions": [
                2.538448037689027,
                -1.0195813071429347,
                1.4722236794317798,
                -0.6540176381365963,
                0.9547279606845752,
                3.088995103798691
            ]
        },
        {
            "positions": [
                2.5835096209897546,
                -1.0178411187745635,
                1.6499001206573012,
                -0.7209836183180981,
                1.00934789118145,
                3.1334671657870845
            ]
        },
        {
            "positions": [
                2.6285712042904823,
                -1.0161009304061923,
                1.8275765618828228,
                -0.7879495984995999,
                1.0639678216783248,
                3.177939227775478
            ]
        }
    ]
}