{
    "goal": {
        "global_pose": {
            "orientation": {
                "w": -0.4816463035849501,
                "x": 0.5182115481033762,
                "y": 0.4908360881923453,
                "z": -0.5084816262002911
            },
            "position": {
                "x": -0.8240239810943604,
                "y": 0.19912469901144506,
                "z": 0.16403168439865112
            }
        },
        "name": "move_to_storage_D"
    },
    "id": "KPIECE_move_to_storage_D_123",
    "joint_names": [
        "shoulder_pan_joint",
        "shoulder_lift_joint",
        "elbow_joint",
        "wrist_1_joint",
        "wrist_2_joint",
        "wrist_3_joint"
    ],
    "metrics": {
        "cart_traj_len": 3.7226026405725383,
        "distance_elbow_joint": 4.212757924554106,
        "distance_shoulder_lift_joint": 1.549546754128875,
        "distance_shoulder_pan_joint": 3.1659473435930328,
        "distance_wrist_1_joint": 3.323415632593547,
        "distance_wrist_2_joint": 1.2137952385030297,
        "distance_wrist_3_joint": 3.147517884867083,
        "smoothness": 0.2325526227813504,
        "time": 0.12062701199999999,
        "traj_len": 4.075902449549017,
        "weighted_distance": 5.238819277191227
    },
    "planner": "KPIECE",
    "start": {
        "state": {
            "elbow_joint": -2.384821997420982,
            "shoulder_lift_joint": -2.2788054674887404,
            "shoulder_pan_joint": -0.18546946417610016,
            "wrist_1_joint": 1.4845937964226739,
            "wrist_2_joint": 0.1789877726866377,
            "wrist_3_joint": 0.03710572555276528
        }
    },
    "waypoints": [
        {
            "positions": [
                -0.18546946417610016,
                -2.2788054674887404,
                -2.384821997420982,
                1.4845937964226739,
                0.1789877726866377,
                0.03710572555276528
            ]
        },
        {
            "positions": [
                -0.13201279051270778,
                -2.177005578822833,
                -2.385078099888409,
                1.3983250310107689,
                0.13581824227770645,
                0.12039791741941422
            ]
        },
        {
            "positions": [
                -0.0785561168493154,
                -2.075205690156926,
                -2.3853342023558364,
                1.3120562655988637,
                0.09264871186877517,
                0.20369010928606318
            ]
        },
        {
            "positions": [
                -0.025099443185923026,
                -1.9734058014910185,
                -2.3855903048232636,
                1.2257875001869585,
                0.049479181459843896,
                0.2869823011527121
            ]
        },
        {
            "positions": [
                0.02835723047746934,
                -1.8716059128251112,
                -2.385846407290691,
                1.1395187347750535,
                0.006309651050912637,
                0.37027449301936105
            ]
        },
        {
            "positions": [
                0.11508474085282902,
                -1.8403473522679563,
                -2.2932058565706432,
                1.0627365317781627,
                0.01612436998993999,
                0.4580133237320488
            ]
        },
        {
            "positions": [
                0.2018122512281887,
                -1.8090887917108014,
                -2.2005653058505956,
                0.9859543287812719,
                0.025939088928967343,
                0.5457521544447365
            ]
        },
        {
            "positions": [
                0.2885397616035484,
                -1.7778302311536465,
                -2.107924755130548,
                0.9091721257843811,
                0.035753807867994696,
                0.6334909851574242
            ]
        },
        {
            "positions": [
                0.3752672719789081,
                -1.7465716705964915,
                -2.0152842044105004,
                0.8323899227874902,
                0.045568526807022045,
                0.7212298158701119
            ]
        },
        {
            "positions": [
                0.4619947823542678,
                -1.7153131100393368,
                -1.9226436536904528,
                0.7556077197905995,
                0.0553832457460494,
                0.8089686465827997
            ]
        },
        {
            "positions": [
                0.5487222927296274,
                -1.6840545494821817,
                -1.8300031029704054,
                0.6788255167937087,
                0.06519796468507676,
                0.8967074772954873
            ]
        },
        {
            "positions": [
                0.6354498031049871,
                -1.652795988925027,
                -1.7373625522503577,
                0.6020433137968179,
                0.0750126836241041,
                0.9844463080081751
            ]
        },
        {
            "positions": [
                0.7221773134803467,
                -1.621537428367872,
                -1.6447220015303101,
                0.5252611107999271,
                0.08482740256313145,
                1.0721851387208627
            ]
        },
        {
            "positions": [
                0.8089048238557064,
                -1.5902788678107171,
                -1.5520814508102625,
                0.44847890780303634,
                0.09464212150215881,
                1.1599239694335506
            ]
        },
        {
            "positions": [
                0.8956323342310661,
                -1.5590203072535622,
                -1.4594409000902149,
                0.3716967048061455,
                0.10445684044118617,
                1.2476628001462382
            ]
        },
        {
            "positions": [
                0.9823598446064258,
                -1.5277617466964073,
                -1.3668003493701673,
                0.2949145018092547,
                0.11427155938021351,
                1.335401630858926
            ]
        },
        {
            "positions": [
                1.0690873549817854,
                -1.4965031861392524,
                -1.2741597986501199,
                0.21813229881236396,
                0.12408627831924086,
                1.4231404615716137
            ]
        },
        {
            "positions": [
                1.1558148653571452,
                -1.4652446255820974,
                -1.1815192479300722,
                0.1413500958154731,
                0.1339009972582682,
                1.5108792922843015
            ]
        },
        {
            "positions": [
                1.242542375732505,
                -1.4339860650249425,
                -1.0888786972100246,
                0.06456789281858222,
                0.14371571619729556,
                1.5986181229969891
            ]
        },
        {
            "positions": [
                1.3292698861078645,
                -1.4027275044677876,
                -0.996238146489977,
                -0.01221431017830854,
                0.15353043513632292,
                1.686356953709677
            ]
        },
        {
            "positions": [
                1.4159973964832242,
                -1.371468943910633,
                -0.9035975957699294,
                -0.0889965131751993,
                0.16334515407535027,
                1.7740957844223646
            ]
        },
        {
            "positions": [
                1.502724906858584,
                -1.3402103833534778,
                -0.8109570450498818,
                -0.16577871617209006,
                0.17315987301437763,
                1.8618346151350522
            ]
        },
        {
            "positions": [
                1.5894524172339435,
                -1.308951822796323,
                -0.7183164943298341,
                -0.24256091916898082,
                0.18297459195340499,
                1.94957344584774
            ]
        },
        {
            "positions": [
                1.6761799276093032,
                -1.2776932622391681,
                -0.6256759436097865,
                -0.3193431221658718,
                0.19278931089243234,
                2.0373122765604275
            ]
        },
        {
            "positions": [
                1.762907437984663,
                -1.2464347016820132,
                -0.5330353928897389,
                -0.39612532516276255,
                0.2026040298314597,
                2.1250511072731153
            ]
        },
        {
            "positions": [
                1.8496349483600225,
                -1.2151761411248583,
                -0.4403948421696915,
                -0.4729075281596533,
                0.21241874877048703,
                2.212789937985803
            ]
        },
        {
            "positions": [
                1.9363624587353823,
                -1.1839175805677034,
                -0.34775429144964365,
                -0.5496897311565441,
                0.22223346770951438,
                2.300528768698491
            ]
        },
        {
            "positions": [
                2.023089969110742,
                -1.1526590200105484,
                -0.25511374072959603,
                -0.6264719341534348,
                0.23204818664854174,
                2.388267599411179
            ]
        },
        {
            "positions": [
                2.1098174794861015,
                -1.1214004594533935,
                -0.16247319000954885,
                -0.7032541371503256,
                0.2418629055875691,
                2.4760064301238662
            ]
        },
        {
            "positions": [
                2.1965449898614615,
                -1.0901418988962388,
                -0.06983263928950123,
                -0.7800363401472166,
                0.2516776245265965,
                2.563745260836554
            ]
        },
        {
            "positions": [
                2.283272500236821,
                -1.0588833383390837,
                0.02280791143054639,
                -0.8568185431441073,
                0.2614923434656238,
                2.651484091549242
            ]
        },
        {
            "positions": [
                2.3700000106121806,
                -1.027624777781929,
                0.11544846215059401,
                -0.9336007461409981,
                0.27130706240465113,
                2.7392229222619293
            ]
        },
        {
            "positions": [
                2.4567275209875405,
                -0.9963662172247739,
                0.20808901287064163,
                -1.010382949137889,
                0.2811217813436785,
                2.826961752974617
            ]
        },
        {
            "positions": [
                2.5434550313629,
                -0.965107656667619,
                0.30072956359068925,
                -1.0871651521347796,
                0.29093650028270585,
                2.914700583687305
            ]
        },
        {
            "positions": [
                2.6301825417382596,
                -0.9338490961104642,
                0.3933701143107369,
                -1.1639473551316706,
                0.3007512192217332,
                3.002439414399993
            ]
        },
        {
            "positions": [
                2.7169100521136196,
                -0.9025905355533093,
                0.4860106650307845,
                -1.2407295581285611,
                0.31056593816076056,
                3.0901782451126802
            ]
        },
        {
            "positions": [
                2.803637562488979,
                -0.8713319749961543,
                0.5786512157508321,
                -1.317511761125452,
                0.3203806570997879,
                3.177917075825368
            ]
        },
        {
            "positions": [
                2.781532522872985,
                -0.8890911327006905,
                0.7345557022061915,
                -1.2523480017447746,
                0.41126142095209156,
                3.178755392649678
            ]
        },
        {
            "positions": [
                2.7594274832569905,
                -0.9068502904052266,
                0.8904601886615509,
                -1.1871842423640968,
                0.5021421848043952,
                3.179593709473988
            ]
        },
        {
            "positions": [
                2.7373224436409966,
                -0.9246094481097626,
                1.04636467511691,
                -1.1220204829834193,
                0.5930229486566989,
                3.1804320262982984
            ]
        },
        {
            "positions": [
                2.7152174040250023,
                -0.9423686058142988,
                1.2022691615722696,
                -1.0568567236027417,
                0.6839037125090026,
                3.181270343122608
            ]
        },
        {
            "positions": [
                2.693112364409008,
                -0.960127763518835,
                1.3581736480276287,
                -0.9916929642220641,
                0.7747844763613062,
                3.182108659946918
            ]
        },
        {
            "positions": [
                2.671007324793014,
                -0.9778869212233711,
                1.5140781344829881,
                -0.9265292048413865,
                0.8656652402136099,
                3.182946976771228
            ]
        },
        {
            "positions": [
                2.64890228517702,
                -0.9956460789279071,
                1.6699826209383475,
                -0.8613654454607089,
                0.9565460040659135,
                3.1837852935955384
            ]
        },
        {
            "positions": [
                2.6267972455610256,
                -1.0134052366324433,
                1.8258871073937069,
                -0.7962016860800313,
                1.0474267679182172,
                3.184623610419848
            ]
        }
    ]
}