{
    "goal": {
        "global_pose": {
            "orientation": {
                "w": 0.7031023480610252,
                "x": -0.7110244013736278,
                "y": 0.0077485991402295624,
                "z": 0.005598929693374583
            },
            "position": {
                "x": -0.8841497679147869,
                "y": 0.44412534475326537,
                "z": 0.3711530566215515
            }
        },
        "name": "move_to_auspresseinheit_D"
    },
    "id": "KPIECE_move_to_auspresseinheit_D_19",
    "joint_names": [
        "shoulder_pan_joint",
        "shoulder_lift_joint",
        "elbow_joint",
        "wrist_1_joint",
        "wrist_2_joint",
        "wrist_3_joint"
    ],
    "metrics": {
        "cart_traj_len": 1.0916198991599961,
        "distance_elbow_joint": 0.47754867627154063,
        "distance_shoulder_lift_joint": 0.5075962394608811,
        "distance_shoulder_pan_joint": 0.295864523823933,
        "distance_wrist_1_joint": 3.3444344324046162,
        "distance_wrist_2_joint": 3.655528469726962,
        "distance_wrist_3_joint": 3.128260372499064,
        "smoothness": 0.03437054170918571,
        "time": 4.158420662,
        "traj_len": 3.377755573481746,
        "weighted_distance": 4.966459137183825
    },
    "planner": "KPIECE",
    "start": {
        "state": {
            "elbow_joint": 1.8268400409724999,
            "shoulder_lift_joint": -1.0144045787793008,
            "shoulder_pan_joint": 2.6280239544362485,
            "wrist_1_joint": -0.790705565816056,
            "wrist_2_joint": 1.0573557467365533,
            "wrist_3_joint": 3.1851377467193758
        }
    },
    "waypoints": [
        {
            "positions": [
                2.6280239544362485,
                -1.0144045787793008,
                1.8268400409724999,
                -0.790705565816056,
                1.0573557467365533,
                3.1851377467193758
            ]
        },
        {
            "positions": [
                2.6206811805209953,
                -1.0193692255014526,
                1.8081822503835678,
                -0.6826352211733197,
                0.9397746489970019,
                3.059748123283351
            ]
        },
        {
            "positions": [
                2.6133384066057417,
                -1.0243338722236044,
                1.7895244597946358,
                -0.5745648765305833,
                0.8221935512574506,
                2.9343584998473267
            ]
        },
        {
            "positions": [
                2.6059956326904885,
                -1.0292985189457562,
                1.7708666692057038,
                -0.46649453188784695,
                0.7046124535178993,
                2.808968876411302
            ]
        },
        {
            "positions": [
                2.5986528587752353,
                -1.034263165667908,
                1.7522088786167715,
                -0.35842418724511055,
                0.587031355778348,
                2.683579252975277
            ]
        },
        {
            "positions": [
                2.5913100848599817,
                -1.0392278123900598,
                1.7335510880278395,
                -0.25035384260237425,
                0.4694502580387966,
                2.5581896295392528
            ]
        },
        {
            "positions": [
                2.5839673109447285,
                -1.0441924591122116,
                1.7148932974389075,
                -0.1422834979596379,
                0.3518691602992453,
                2.432800006103228
            ]
        },
        {
            "positions": [
                2.576624537029475,
                -1.0491571058343634,
                1.6962355068499755,
                -0.034213153316901446,
                0.23428806255969392,
                2.3074103826672037
            ]
        },
        {
            "positions": [
                2.5692817631142217,
                -1.0541217525565152,
                1.6775777162610435,
                0.0738571913258349,
                0.11670696482014253,
                2.182020759231179
            ]
        },
        {
            "positions": [
                2.5619389891989686,
                -1.059086399278667,
                1.6589199256721114,
                0.18192753596857125,
                -0.0008741329194088543,
                2.056631135795154
            ]
        },
        {
            "positions": [
                2.554596215283715,
                -1.0640510460008188,
                1.6402621350831794,
                0.2899978806113075,
                -0.11845523065896013,
                1.9312415123591296
            ]
        },
        {
            "positions": [
                2.5472534413684618,
                -1.0690156927229704,
                1.6216043444942474,
                0.39806822525404395,
                -0.2360363283985114,
                1.805851888923105
            ]
        },
        {
            "positions": [
                2.5399106674532086,
                -1.0739803394451222,
                1.6029465539053152,
                0.5061385698967802,
                -0.3536174261380627,
                1.6804622654870804
            ]
        },
        {
            "positions": [
                2.532567893537955,
                -1.078944986167274,
                1.5842887633163831,
                0.6142089145395166,
                -0.4711985238776142,
                1.5550726420510557
            ]
        },
        {
            "positions": [
                2.525225119622702,
                -1.0839096328894258,
                1.565630972727451,
                0.7222792591822531,
                -0.5887796216171655,
                1.429683018615031
            ]
        },
        {
            "positions": [
                2.5178823457074486,
                -1.0888742796115776,
                1.546973182138519,
                0.8303496038249893,
                -0.7063607193567167,
                1.3042933951790068
            ]
        },
        {
            "positions": [
                2.510539571792195,
                -1.0938389263337294,
                1.528315391549587,
                0.9384199484677258,
                -0.8239418170962682,
                1.178903771742982
            ]
        },
        {
            "positions": [
                2.503196797876942,
                -1.0988035730558812,
                1.509657600960655,
                1.046490293110462,
                -0.9415229148358193,
                1.0535141483069572
            ]
        },
        {
            "positions": [
                2.495854023961688,
                -1.103768219778033,
                1.490999810371723,
                1.1545606377531985,
                -1.059104012575371,
                0.9281245248709324
            ]
        },
        {
            "positions": [
                2.488511250046435,
                -1.1087328665001848,
                1.4723420197827908,
                1.2626309823959347,
                -1.176685110314922,
                0.8027349014349081
            ]
        },
        {
            "positions": [
                2.481168476131182,
                -1.1136975132223366,
                1.4536842291938588,
                1.370701327038671,
                -1.2942662080544736,
                0.6773452779988833
            ]
        },
        {
            "positions": [
                2.4738257022159282,
                -1.1186621599444884,
                1.4350264386049267,
                1.4787716716814077,
                -1.411847305794025,
                0.5519556545628586
            ]
        },
        {
            "positions": [
                2.466482928300675,
                -1.1236268066666402,
                1.4163686480159947,
                1.5868420163241441,
                -1.5294284035335761,
                0.42656603112683444
            ]
        },
        {
            "positions": [
                2.4816317584975542,
                -1.0800717893925844,
                1.4078667793036448,
                1.6952670930096436,
                -1.6503509939468939,
                0.3824428007623901
            ]
        },
        {
            "positions": [
                2.496780588694434,
                -1.0365167721185287,
                1.3993649105912946,
                1.8036921696951431,
                -1.7712735843602119,
                0.33831957039794586
            ]
        },
        {
            "positions": [
                2.511929418891313,
                -0.9929617548444729,
                1.3908630418789447,
                1.9121172463806426,
                -1.8921961747735296,
                0.29419634003350154
            ]
        },
        {
            "positions": [
                2.5270782490881927,
                -0.9494067375704172,
                1.3823611731665946,
                2.020542323066142,
                -2.0131187651868476,
                0.25007310966905727
            ]
        },
        {
            "positions": [
                2.542227079285072,
                -0.9058517202963614,
                1.3738593044542446,
                2.128967399751642,
                -2.134041355600165,
                0.20594987930461292
            ]
        },
        {
            "positions": [
                2.5573759094819515,
                -0.8622967030223057,
                1.3653574357418945,
                2.237392476437141,
                -2.254963946013483,
                0.16182664894016863
            ]
        },
        {
            "positions": [
                2.5725247396788307,
                -0.8187416857482499,
                1.3568555670295446,
                2.345817553122641,
                -2.375886536426801,
                0.11770341857572429
            ]
        },
        {
            "positions": [
                2.5866655828339327,
                -0.7719972404206742,
                1.353073465865252,
                2.449773209855601,
                -2.487029629708605,
                0.08729039639801811
            ]
        },
        {
            "positions": [
                2.6008064259890347,
                -0.7252527950930985,
                1.3492913647009592,
                2.5537288665885614,
                -2.598172722990409,
                0.05687737422031192
            ]
        }
    ]
}