{
    "goal": {
        "global_pose": {
            "orientation": {
                "w": 0.005598929693374612,
                "x": 0.007748599140229565,
                "y": 0.7110244013736278,
                "z": -0.7031023480610252
            },
            "position": {
                "x": 0.1141497679147869,
                "y": -0.7141253447532654,
                "z": 0.3711530566215515
            }
        },
        "name": "move_to_auspresseinheit_B"
    },
    "id": "KPIECE_move_to_auspresseinheit_B_142",
    "joint_names": [
        "shoulder_pan_joint",
        "shoulder_lift_joint",
        "elbow_joint",
        "wrist_1_joint",
        "wrist_2_joint",
        "wrist_3_joint"
    ],
    "metrics": {
        "cart_traj_len": 0.5642813362846972,
        "distance_elbow_joint": 0.06412539454583044,
        "distance_shoulder_lift_joint": 0.29370907195624163,
        "distance_shoulder_pan_joint": 0.5735690002214069,
        "distance_wrist_1_joint": 0.3306764793628444,
        "distance_wrist_2_joint": 1.0095347876536656,
        "distance_wrist_3_joint": 0.009155661816989014,
        "smoothness": 2.5376526478085547e-16,
        "time": 1.058059371,
        "traj_len": 1.510221968969124,
        "weighted_distance": 1.9076931058761695
    },
    "planner": "KPIECE",
    "start": {
        "state": {
            "elbow_joint": 2.019306165916698,
            "shoulder_lift_joint": -1.1220205098164344,
            "shoulder_pan_joint": -1.095207207618794,
            "wrist_1_joint": -0.8559671824921639,
            "wrist_2_joint": 0.47596387242952726,
            "wrist_3_joint": 3.159081874673826
        }
    },
    "waypoints": [
        {
            "positions": [
                -1.095207207618794,
                -1.1220205098164344,
                2.019306165916698,
                -0.8559671824921639,
                0.47596387242952726,
                3.159081874673826
            ]
        },
        {
            "positions": [
                -1.1908020409890285,
                -1.1709720218091413,
                2.0086186001590596,
                -0.8008544359316898,
                0.6442196703718048,
                3.157555931037661
            ]
        },
        {
            "positions": [
                -1.2863968743592629,
                -1.2199235338018484,
                1.9979310344014212,
                -0.7457416893712158,
                0.8124754683140825,
                3.1560299874014963
            ]
        },
        {
            "positions": [
                -1.3819917077294974,
                -1.2688750457945552,
                1.9872434686437828,
                -0.6906289428107417,
                0.9807312662563601,
                3.154504043765331
            ]
        },
        {
            "positions": [
                -1.4775865410997318,
                -1.317826557787262,
                1.9765559028861444,
                -0.6355161962502676,
                1.1489870641986375,
                3.1529781001291664
            ]
        },
        {
            "positions": [
                -1.5731813744699665,
                -1.3667780697799692,
                1.965868337128506,
                -0.5804034496897935,
                1.3172428621409153,
                3.1514521564930016
            ]
        },
        {
            "positions": [
                -1.6687762078402009,
                -1.415729581772676,
                1.9551807713708675,
                -0.5252907031293195,
                1.4854986600831928,
                3.149926212856837
            ]
        }
    ]
}