{
    "goal": {
        "global_pose": {
            "orientation": {
                "w": 0.7047431468963623,
                "x": -0.7094548344612122,
                "y": 0.0024358443915843964,
                "z": -0.0022348060738295317
            },
            "position": {
                "x": 0.6094750761985779,
                "y": 0.3671506643295288,
                "z": 0.19426114857196808
            }
        },
        "name": "move_to_magneteinheit_A"
    },
    "id": "KPIECE_move_to_magneteinheit_A_29",
    "joint_names": [
        "shoulder_pan_joint",
        "shoulder_lift_joint",
        "elbow_joint",
        "wrist_1_joint",
        "wrist_2_joint",
        "wrist_3_joint"
    ],
    "metrics": {
        "cart_traj_len": 1.0538899770445416,
        "distance_elbow_joint": 0.3811137950761443,
        "distance_shoulder_lift_joint": 0.3667815142545994,
        "distance_shoulder_pan_joint": 1.2428073070681425,
        "distance_wrist_1_joint": 2.195449274089844,
        "distance_wrist_2_joint": 1.70518038951663,
        "distance_wrist_3_joint": 1.2309919046708826,
        "smoothness": 2.8047739791568236e-16,
        "time": 0.127504063,
        "traj_len": 2.6687682898064122,
        "weighted_distance": 3.6721843169460433
    },
    "planner": "KPIECE",
    "start": {
        "state": {
            "elbow_joint": 1.5739458966750683,
            "shoulder_lift_joint": -1.4977259741207325,
            "shoulder_pan_joint": -1.1188672016454206,
            "wrist_1_joint": 1.494575848278785,
            "wrist_2_joint": -1.5706037134824402,
            "wrist_3_joint": -2.0226957942261072
        }
    },
    "waypoints": [
        {
            "positions": [
                -1.1188672016454206,
                -1.4977259741207325,
                1.5739458966750683,
                1.494575848278785,
                -1.5706037134824402,
                -2.0226957942261072
            ]
        },
        {
            "positions": [
                -1.049822351252746,
                -1.4773492233288104,
                1.5951188852904097,
                1.3726064441626826,
                -1.4758714696204052,
                -2.0910842333744895
            ]
        },
        {
            "positions": [
                -0.9807775008600714,
                -1.4569724725368882,
                1.616291873905751,
                1.25063704004658,
                -1.3811392257583703,
                -2.159472672522872
            ]
        },
        {
            "positions": [
                -0.9117326504673969,
                -1.4365957217449659,
                1.6374648625210924,
                1.1286676359304777,
                -1.2864069818963353,
                -2.2278611116712543
            ]
        },
        {
            "positions": [
                -0.8426878000747223,
                -1.4162189709530437,
                1.6586378511364337,
                1.0066982318143751,
                -1.1916747380343002,
                -2.2962495508196366
            ]
        },
        {
            "positions": [
                -0.7736429496820477,
                -1.3958422201611216,
                1.679810839751775,
                0.8847288276982727,
                -1.0969424941722652,
                -2.364637989968019
            ]
        },
        {
            "positions": [
                -0.7045980992893732,
                -1.3754654693691994,
                1.7009838283671164,
                0.7627594235821703,
                -1.0022102503102301,
                -2.4330264291164014
            ]
        },
        {
            "positions": [
                -0.6355532488966986,
                -1.355088718577277,
                1.7221568169824577,
                0.6407900194660678,
                -0.9074780064481952,
                -2.5014148682647837
            ]
        },
        {
            "positions": [
                -0.566508398504024,
                -1.334711967785355,
                1.743329805597799,
                0.5188206153499654,
                -0.8127457625861603,
                -2.5698033074131663
            ]
        },
        {
            "positions": [
                -0.4974635481113494,
                -1.3143352169934328,
                1.7645027942131404,
                0.3968512112338629,
                -0.7180135187241252,
                -2.6381917465615485
            ]
        },
        {
            "positions": [
                -0.4284186977186748,
                -1.2939584662015107,
                1.785675782828482,
                0.27488180711776034,
                -0.6232812748620902,
                -2.7065801857099308
            ]
        },
        {
            "positions": [
                -0.3593738473260002,
                -1.2735817154095885,
                1.8068487714438233,
                0.15291240300165798,
                -0.5285490310000551,
                -2.7749686248583134
            ]
        },
        {
            "positions": [
                -0.2903289969333257,
                -1.2532049646176662,
                1.8280217600591646,
                0.030942998885555628,
                -0.4338167871380203,
                -2.8433570640066956
            ]
        },
        {
            "positions": [
                -0.2212841465406511,
                -1.232828213825744,
                1.849194748674506,
                -0.09102640523054695,
                -0.33908454327598525,
                -2.911745503155078
            ]
        },
        {
            "positions": [
                -0.1522392961479765,
                -1.212451463033822,
                1.8703677372898473,
                -0.2129958093466493,
                -0.2443522994139502,
                -2.9801339423034605
            ]
        },
        {
            "positions": [
                -0.08319444575530177,
                -1.1920747122418995,
                1.8915407259051886,
                -0.3349652134627519,
                -0.14962005555191515,
                -3.0485223814518427
            ]
        },
        {
            "positions": [
                -0.014149595362627387,
                -1.1716979614499774,
                1.91271371452053,
                -0.45693461757885423,
                -0.05488781168988033,
                -3.116910820600225
            ]
        },
        {
            "positions": [
                0.05489525503004722,
                -1.1513212106580553,
                1.9338867031358713,
                -0.5789040216949568,
                0.03984443217215472,
                -3.185299259748607
            ]
        },
        {
            "positions": [
                0.12394010542272191,
                -1.1309444598661331,
                1.9550596917512126,
                -0.7008734258110593,
                0.13457667603418977,
                -3.25368769889699
            ]
        }
    ]
}