{
    "goal": {
        "global_pose": {
            "orientation": {
                "w": 0.5084816262002911,
                "x": -0.4908360881923452,
                "y": 0.5182115481033761,
                "z": -0.48164630358495003
            },
            "position": {
                "x": 0.5540239810943604,
                "y": -0.46912469901144505,
                "z": 0.16403168439865112
            }
        },
        "name": "move_to_storage_B"
    },
    "id": "KPIECE_move_to_storage_B_139",
    "joint_names": [
        "shoulder_pan_joint",
        "shoulder_lift_joint",
        "elbow_joint",
        "wrist_1_joint",
        "wrist_2_joint",
        "wrist_3_joint"
    ],
    "metrics": {
        "cart_traj_len": 1.139408415965205,
        "distance_elbow_joint": 0.6997467424269528,
        "distance_shoulder_lift_joint": 1.1588548994191923,
        "distance_shoulder_pan_joint": 0.6790755624744896,
        "distance_wrist_1_joint": 2.9941657944905593,
        "distance_wrist_2_joint": 2.7061156612827197,
        "distance_wrist_3_joint": 3.1275788663701674,
        "smoothness": 0.1872628591585327,
        "time": 0.072913797,
        "traj_len": 3.3712812885406165,
        "weighted_distance": 4.829179714504079
    },
    "planner": "KPIECE",
    "start": {
        "state": {
            "elbow_joint": 1.6649325706314817,
            "shoulder_lift_joint": -0.6616388048112454,
            "shoulder_pan_joint": -0.9139837860083814,
            "wrist_1_joint": 2.146757197745094,
            "wrist_2_joint": -2.234196043158733,
            "wrist_3_joint": 0.005471033829999897
        }
    },
    "waypoints": [
        {
            "positions": [
                -0.9139837860083814,
                -0.6616388048112454,
                1.6649325706314817,
                2.146757197745094,
                -2.234196043158733,
                0.005471033829999897
            ]
        },
        {
            "positions": [
                -0.9036099167647642,
                -0.6953503319165396,
                1.6868217833701955,
                2.0297651889108312,
                -2.143302437763958,
                -0.10209077962545209
            ]
        },
        {
            "positions": [
                -0.8932360475211469,
                -0.729061859021834,
                1.7087109961089093,
                1.9127731800765682,
                -2.052408832369183,
                -0.2096525930809041
            ]
        },
        {
            "positions": [
                -0.8828621782775298,
                -0.7627733861271282,
                1.7306002088476231,
                1.795781171242305,
                -1.9615152269744083,
                -0.3172144065363561
            ]
        },
        {
            "positions": [
                -0.8724883090339126,
                -0.7964849132324224,
                1.7524894215863371,
                1.6787891624080422,
                -1.8706216215796334,
                -0.42477621999180804
            ]
        },
        {
            "positions": [
                -0.8621144397902953,
                -0.8301964403377168,
                1.774378634325051,
                1.561797153573779,
                -1.7797280161848585,
                -0.53233803344726
            ]
        },
        {
            "positions": [
                -0.8517405705466782,
                -0.863907967443011,
                1.7962678470637647,
                1.444805144739516,
                -1.6888344107900837,
                -0.6398998469027121
            ]
        },
        {
            "positions": [
                -0.8413667013030609,
                -0.8976194945483054,
                1.8181570598024785,
                1.327813135905253,
                -1.5979408053953088,
                -0.7474616603581641
            ]
        },
        {
            "positions": [
                -0.8309928320594437,
                -0.9313310216535995,
                1.8400462725411924,
                1.21082112707099,
                -1.507047200000534,
                -0.855023473813616
            ]
        },
        {
            "positions": [
                -0.8206189628158266,
                -0.9650425487588938,
                1.8619354852799062,
                1.093829118236727,
                -1.416153594605759,
                -0.9625852872690681
            ]
        },
        {
            "positions": [
                -0.8102450935722093,
                -0.9987540758641882,
                1.88382469801862,
                0.9768371094024639,
                -1.3252599892109842,
                -1.07014710072452
            ]
        },
        {
            "positions": [
                -0.7998712243285921,
                -1.0324656029694823,
                1.9057139107573338,
                0.8598451005682011,
                -1.2343663838162093,
                -1.177708914179972
            ]
        },
        {
            "positions": [
                -0.7894973550849749,
                -1.0661771300747767,
                1.9276031234960476,
                0.742853091733938,
                -1.1434727784214345,
                -1.285270727635424
            ]
        },
        {
            "positions": [
                -0.7791234858413577,
                -1.0998886571800708,
                1.9494923362347616,
                0.6258610828996751,
                -1.0525791730266596,
                -1.392832541090876
            ]
        },
        {
            "positions": [
                -0.7687496165977405,
                -1.1336001842853651,
                1.9713815489734754,
                0.5088690740654118,
                -0.9616855676318847,
                -1.500394354546328
            ]
        },
        {
            "positions": [
                -0.7583757473541233,
                -1.1673117113906595,
                1.9932707617121892,
                0.39187706523114896,
                -0.8707919622371099,
                -1.60795616800178
            ]
        },
        {
            "positions": [
                -0.7480018781105061,
                -1.2010232384959538,
                2.015159974450903,
                0.2748850563968861,
                -0.779898356842335,
                -1.7155179814572319
            ]
        },
        {
            "positions": [
                -0.737628008866889,
                -1.2347347656012482,
                2.037049187189617,
                0.1578930475626228,
                -0.6890047514475601,
                -1.8230797949126842
            ]
        },
        {
            "positions": [
                -0.7272541396232717,
                -1.2684462927065423,
                2.058938399928331,
                0.04090103872835993,
                -0.5981111460527853,
                -1.9306416083681361
            ]
        },
        {
            "positions": [
                -0.7168802703796545,
                -1.3021578198118364,
                2.0808276126670444,
                -0.07609097010590293,
                -0.5072175406580104,
                -2.0382034218235883
            ]
        },
        {
            "positions": [
                -0.7065064011360374,
                -1.3358693469171308,
                2.1027168254057584,
                -0.19308297894016624,
                -0.4163239352632355,
                -2.14576523527904
            ]
        },
        {
            "positions": [
                -0.6961325318924201,
                -1.3695808740224251,
                2.124606038144472,
                -0.3100749877744291,
                -0.32543032986846065,
                -2.253327048734492
            ]
        },
        {
            "positions": [
                -0.6857586626488029,
                -1.4032924011277195,
                2.146495250883186,
                -0.42706699660869196,
                -0.2345367244736858,
                -2.360888862189944
            ]
        },
        {
            "positions": [
                -0.6753847934051856,
                -1.4370039282330138,
                2.1683844636218996,
                -0.5440590054429553,
                -0.1436431190789107,
                -2.4684506756453963
            ]
        },
        {
            "positions": [
                -0.6650109241615685,
                -1.470715455338308,
                2.1902736763606137,
                -0.6610510142772179,
                -0.05274951368413616,
                -2.5760124891008482
            ]
        },
        {
            "positions": [
                -0.7366947075995146,
                -1.412419080522953,
                2.1612060702443103,
                -0.6921106113552591,
                0.03469534161721746,
                -2.6670283796740684
            ]
        },
        {
            "positions": [
                -0.8083784910374607,
                -1.354122705707598,
                2.1321384641280066,
                -0.7231702084333003,
                0.12214019691857109,
                -2.758044270247288
            ]
        },
        {
            "positions": [
                -0.8800622744754069,
                -1.295826330892243,
                2.1030708580117032,
                -0.7542298055113414,
                0.20958505221992474,
                -2.8490601608205077
            ]
        },
        {
            "positions": [
                -0.951746057913353,
                -1.2375299560768882,
                2.0740032518954,
                -0.7852894025893826,
                0.29702990752127834,
                -2.940076051393728
            ]
        },
        {
            "positions": [
                -1.023429841351299,
                -1.179233581261533,
                2.044935645779096,
                -0.8163489996674238,
                0.38447476282263204,
                -3.031091941966948
            ]
        },
        {
            "positions": [
                -1.0951136247892452,
                -1.1209372064461782,
                2.015868039662793,
                -0.847408596745465,
                0.4719196181239857,
                -3.1221078325401677
            ]
        }
    ]
}