{
    "goal": {
        "global_pose": {
            "orientation": {
                "w": 0.7031023480610252,
                "x": -0.7110244013736278,
                "y": 0.0077485991402295624,
                "z": 0.005598929693374583
            },
            "position": {
                "x": -0.8841497679147869,
                "y": 0.44412534475326537,
                "z": 0.3711530566215515
            }
        },
        "name": "move_to_auspresseinheit_D"
    },
    "id": "KPIECE_move_to_auspresseinheit_D_106",
    "joint_names": [
        "shoulder_pan_joint",
        "shoulder_lift_joint",
        "elbow_joint",
        "wrist_1_joint",
        "wrist_2_joint",
        "wrist_3_joint"
    ],
    "metrics": {
        "cart_traj_len": 0.9005206095304644,
        "distance_elbow_joint": 0.48016466524129897,
        "distance_shoulder_lift_joint": 0.2905757912396171,
        "distance_shoulder_pan_joint": 0.06702286718402828,
        "distance_wrist_1_joint": 3.3316215160032456,
        "distance_wrist_2_joint": 3.6543843395081685,
        "distance_wrist_3_joint": 3.1402889122527333,
        "smoothness": 0.005804653454827214,
        "time": 2.150156226,
        "traj_len": 3.311201910398865,
        "weighted_distance": 4.922462978169158
    },
    "planner": "KPIECE",
    "start": {
        "state": {
            "elbow_joint": 1.8268400409724999,
            "shoulder_lift_joint": -1.0144045787793008,
            "shoulder_pan_joint": 2.6280239544362485,
            "wrist_1_joint": -0.790705565816056,
            "wrist_2_joint": 1.0573557467365533,
            "wrist_3_joint": 3.1851377467193758
        }
    },
    "waypoints": [
        {
            "positions": [
                2.6280239544362485,
                -1.0144045787793008,
                1.8268400409724999,
                -0.790705565816056,
                1.0573557467365533,
                3.1851377467193758
            ]
        },
        {
            "positions": [
                2.6262144328985073,
                -1.010894278390597,
                1.8105150630932847,
                -0.6712762059438182,
                0.926066493344727,
                3.069425944348763
            ]
        },
        {
            "positions": [
                2.6244049113607666,
                -1.007383978001893,
                1.7941900852140698,
                -0.5518468460715803,
                0.7947772399529007,
                2.9537141419781503
            ]
        },
        {
            "positions": [
                2.6225953898230254,
                -1.0038736776131891,
                1.7778651073348546,
                -0.43241748619934245,
                0.6634879865610745,
                2.838002339607537
            ]
        },
        {
            "positions": [
                2.6207858682852847,
                -1.0003633772244853,
                1.7615401294556394,
                -0.3129881263271046,
                0.5321987331692483,
                2.7222905372369244
            ]
        },
        {
            "positions": [
                2.6189763467475435,
                -0.9968530768357814,
                1.7452151515764243,
                -0.1935587664548667,
                0.4009094797774221,
                2.6065787348663116
            ]
        },
        {
            "positions": [
                2.617166825209803,
                -0.9933427764470775,
                1.7288901736972093,
                -0.0741294065826289,
                0.2696202263855958,
                2.490866932495699
            ]
        },
        {
            "positions": [
                2.6153573036720617,
                -0.9898324760583735,
                1.7125651958179942,
                0.045299953289608896,
                0.13833097299376962,
                2.375155130125086
            ]
        },
        {
            "positions": [
                2.6135477821343205,
                -0.9863221756696696,
                1.696240217938779,
                0.1647293131618468,
                0.007041719601943219,
                2.2594433277544734
            ]
        },
        {
            "positions": [
                2.6117382605965798,
                -0.9828118752809658,
                1.679915240059564,
                0.2841586730340846,
                -0.12424753378988296,
                2.1437315253838607
            ]
        },
        {
            "positions": [
                2.6099287390588386,
                -0.9793015748922619,
                1.6635902621803489,
                0.4035880329063226,
                -0.25553678718170914,
                2.028019723013248
            ]
        },
        {
            "positions": [
                2.608119217521098,
                -0.975791274503558,
                1.6472652843011337,
                0.5230173927785602,
                -0.3868260405735353,
                1.912307920642635
            ]
        },
        {
            "positions": [
                2.6063096959833567,
                -0.9722809741148541,
                1.6309403064219188,
                0.6424467526507982,
                -0.5181152939653617,
                1.796596118272022
            ]
        },
        {
            "positions": [
                2.604500174445616,
                -0.9687706737261502,
                1.6146153285427036,
                0.761876112523036,
                -0.6494045473571879,
                1.6808843159014093
            ]
        },
        {
            "positions": [
                2.602690652907875,
                -0.9652603733374463,
                1.5982903506634885,
                0.8813054723952738,
                -0.7806938007490141,
                1.5651725135307966
            ]
        },
        {
            "positions": [
                2.6008811313701337,
                -0.9617500729487425,
                1.5819653727842735,
                1.0007348322675116,
                -0.9119830541408402,
                1.4494607111601838
            ]
        },
        {
            "positions": [
                2.599071609832393,
                -0.9582397725600386,
                1.5656403949050584,
                1.1201641921397496,
                -1.0432723075326669,
                1.3337489087895709
            ]
        },
        {
            "positions": [
                2.5972620882946518,
                -0.9547294721713346,
                1.5493154170258432,
                1.2395935520119876,
                -1.1745615609244928,
                1.2180371064189581
            ]
        },
        {
            "positions": [
                2.595452566756911,
                -0.9512191717826308,
                1.5329904391466282,
                1.3590229118842252,
                -1.3058508143163192,
                1.1023253040483452
            ]
        },
        {
            "positions": [
                2.59364304521917,
                -0.9477088713939269,
                1.516665461267413,
                1.4784522717564628,
                -1.4371400677081452,
                0.9866135016777324
            ]
        },
        {
            "positions": [
                2.5918335236814287,
                -0.944198571005223,
                1.500340483388198,
                1.5978816316287012,
                -1.5684293210999716,
                0.8709016993071197
            ]
        },
        {
            "positions": [
                2.590024002143688,
                -0.9406882706165192,
                1.484015505508983,
                1.7173109915009388,
                -1.699718574491798,
                0.755189896936507
            ]
        },
        {
            "positions": [
                2.588214480605947,
                -0.9371779702278152,
                1.4676905276297678,
                1.8367403513731764,
                -1.831007827883624,
                0.6394780945658942
            ]
        },
        {
            "positions": [
                2.586404959068206,
                -0.9336676698391113,
                1.4513655497505527,
                1.9561697112454144,
                -1.9622970812754503,
                0.5237662921952815
            ]
        },
        {
            "positions": [
                2.584595437530465,
                -0.9301573694504074,
                1.4350405718713375,
                2.0755990711176526,
                -2.0935863346672767,
                0.4080544898246683
            ]
        },
        {
            "positions": [
                2.5827859159927242,
                -0.9266470690617036,
                1.4187155939921225,
                2.1950284309898906,
                -2.224875588059103,
                0.29234268745405556
            ]
        },
        {
            "positions": [
                2.580976394454983,
                -0.9231367686729997,
                1.4023906161129074,
                2.3144577908621278,
                -2.356164841450929,
                0.17663088508344282
            ]
        },
        {
            "positions": [
                2.5876348301892373,
                -0.8567007749618943,
                1.3838188693190052,
                2.3899438439704817,
                -2.4364527585578246,
                0.1327035348778428
            ]
        },
        {
            "positions": [
                2.5942932659234916,
                -0.790264781250789,
                1.365247122525103,
                2.4654298970788355,
                -2.5167406756647197,
                0.0887761846722428
            ]
        },
        {
            "positions": [
                2.600951701657746,
                -0.7238287875396837,
                1.3466753757312009,
                2.5409159501871894,
                -2.5970285927716152,
                0.04484883446664279
            ]
        }
    ]
}