{
    "goal": {
        "global_pose": {
            "orientation": {
                "w": 0.005598929693374612,
                "x": 0.007748599140229565,
                "y": 0.7110244013736278,
                "z": -0.7031023480610252
            },
            "position": {
                "x": -0.8858502320852131,
                "y": -0.7141253447532654,
                "z": 0.3711530566215515
            }
        },
        "name": "move_to_auspresseinheit_C"
    },
    "id": "KPIECE_move_to_auspresseinheit_C_119",
    "joint_names": [
        "shoulder_pan_joint",
        "shoulder_lift_joint",
        "elbow_joint",
        "wrist_1_joint",
        "wrist_2_joint",
        "wrist_3_joint"
    ],
    "metrics": {
        "cart_traj_len": 0.4938121088538184,
        "distance_elbow_joint": 1.0081143966066686,
        "distance_shoulder_lift_joint": 0.3276324178585638,
        "distance_shoulder_pan_joint": 0.25664794056053575,
        "distance_wrist_1_joint": 0.7018691860597916,
        "distance_wrist_2_joint": 1.3041209449381204,
        "distance_wrist_3_joint": 0.08259291419738979,
        "smoothness": 1.6148698667872622e-16,
        "time": 2.2443494310000003,
        "traj_len": 1.9185874491982557,
        "weighted_distance": 2.4191225185206644
    },
    "planner": "KPIECE",
    "start": {
        "state": {
            "elbow_joint": 1.752795957773711,
            "shoulder_lift_joint": -0.9740617694225064,
            "shoulder_pan_joint": -2.967991417825858,
            "wrist_1_joint": -0.7595177689806859,
            "wrist_2_joint": 1.7443932448377395,
            "wrist_3_joint": 3.199131542505932
        }
    },
    "waypoints": [
        {
            "positions": [
                -2.967991417825858,
                -0.9740617694225064,
                1.752795957773711,
                -0.7595177689806859,
                1.7443932448377395,
                3.199131542505932
            ]
        },
        {
            "positions": [
                -2.9423266237698043,
                -0.9412985276366501,
                1.6519845181130441,
                -0.6893308503747068,
                1.6139811503439274,
                3.1908722510861933
            ]
        },
        {
            "positions": [
                -2.916661829713751,
                -0.9085352858507937,
                1.5511730784523774,
                -0.6191439317687275,
                1.4835690558501153,
                3.182612959666454
            ]
        },
        {
            "positions": [
                -2.8909970356576973,
                -0.8757720440649372,
                1.4503616387917107,
                -0.5489570131627484,
                1.3531569613563035,
                3.1743536682467153
            ]
        },
        {
            "positions": [
                -2.8653322416016436,
                -0.8430088022790809,
                1.3495501991310437,
                -0.47877009455676917,
                1.2227448668624912,
                3.166094376826976
            ]
        },
        {
            "positions": [
                -2.8396674475455903,
                -0.8102455604932246,
                1.2487387594703767,
                -0.40858317595079,
                1.0923327723686793,
                3.1578350854072372
            ]
        },
        {
            "positions": [
                -2.8140026534895366,
                -0.7774823187073682,
                1.14792731980971,
                -0.3383962573448109,
                0.9619206778748673,
                3.1495757939874984
            ]
        },
        {
            "positions": [
                -2.788337859433483,
                -0.7447190769215118,
                1.0471158801490432,
                -0.2682093387388317,
                0.8315085833810553,
                3.141316502567759
            ]
        },
        {
            "positions": [
                -2.762673065377429,
                -0.7119558351356554,
                0.9463044404883763,
                -0.19802242013285243,
                0.7010964888872431,
                3.1330572111480204
            ]
        },
        {
            "positions": [
                -2.737008271321376,
                -0.6791925933497991,
                0.8454930008277094,
                -0.12783550152687329,
                0.5706843943934312,
                3.124797919728281
            ]
        },
        {
            "positions": [
                -2.711343477265322,
                -0.6464293515639427,
                0.7446815611670425,
                -0.05764858292089419,
                0.44027229989961925,
                3.1165386283085423
            ]
        }
    ]
}