{
    "goal": {
        "global_pose": {
            "orientation": {
                "w": 0.7031023502349854,
                "x": -0.7110244035720825,
                "y": 0.007748599164187908,
                "z": 0.005598929710686207
            },
            "position": {
                "x": 0.11585023208521307,
                "y": 0.44412534475326537,
                "z": 0.3711530566215515
            }
        },
        "name": "move_to_auspresseinheit_A"
    },
    "id": "KPIECE_move_to_auspresseinheit_A_10",
    "joint_names": [
        "shoulder_pan_joint",
        "shoulder_lift_joint",
        "elbow_joint",
        "wrist_1_joint",
        "wrist_2_joint",
        "wrist_3_joint"
    ],
    "metrics": {
        "cart_traj_len": 3.116997767177224,
        "distance_elbow_joint": 3.219066663494715,
        "distance_shoulder_lift_joint": 1.0846904797977241,
        "distance_shoulder_pan_joint": 1.4271425737085024,
        "distance_wrist_1_joint": 1.834337814235879,
        "distance_wrist_2_joint": 1.0354421734607953,
        "distance_wrist_3_joint": 10.487787595674737,
        "smoothness": 0.6285154128701163,
        "time": 0.117140232,
        "traj_len": 4.369035053690044,
        "weighted_distance": 6.552390592708778
    },
    "planner": "KPIECE",
    "start": {
        "state": {
            "elbow_joint": 2.4225747245308327,
            "shoulder_lift_joint": -1.373653427065438,
            "shoulder_pan_joint": -0.33786330853087027,
            "wrist_1_joint": -1.0288602302712604,
            "wrist_2_joint": 1.23302299562683,
            "wrist_3_joint": -3.094021725338297
        }
    },
    "waypoints": [
        {
            "positions": [
                -0.33786330853087027,
                -1.373653427065438,
                2.4225747245308327,
                -1.0288602302712604,
                1.23302299562683,
                -3.094021725338297
            ]
        },
        {
            "positions": [
                -0.3259138903815711,
                -1.40850612279793,
                2.351919801958385,
                -1.0442466542053566,
                1.2032562985325619,
                -2.867030440657553
            ]
        },
        {
            "positions": [
                -0.31396447223227186,
                -1.4433588185304222,
                2.281264879385938,
                -1.0596330781394525,
                1.173489601438294,
                -2.640039155976809
            ]
        },
        {
            "positions": [
                -0.3020150540829727,
                -1.4782115142629144,
                2.2106099568134905,
                -1.0750195020735487,
                1.143722904344026,
                -2.413047871296065
            ]
        },
        {
            "positions": [
                -0.29006563593367346,
                -1.5130642099954066,
                2.1399550342410434,
                -1.0904059260076446,
                1.113956207249758,
                -2.1860565866153205
            ]
        },
        {
            "positions": [
                -0.2781162177843743,
                -1.5479169057278988,
                2.069300111668596,
                -1.1057923499417408,
                1.0841895101554901,
                -1.9590653019345763
            ]
        },
        {
            "positions": [
                -0.26616679963507506,
                -1.5827696014603911,
                1.9986451890961485,
                -1.121178773875837,
                1.054422813061222,
                -1.7320740172538323
            ]
        },
        {
            "positions": [
                -0.2542173814857759,
                -1.6176222971928833,
                1.927990266523701,
                -1.136565197809933,
                1.024656115966954,
                -1.505082732573088
            ]
        },
        {
            "positions": [
                -0.24226796333647668,
                -1.6524749929253755,
                1.8573353439512537,
                -1.151951621744029,
                0.9948894188726862,
                -1.278091447892344
            ]
        },
        {
            "positions": [
                -0.23031854518717748,
                -1.6873276886578676,
                1.7866804213788063,
                -1.1673380456781253,
                0.9651227217784182,
                -1.0511001632115997
            ]
        },
        {
            "positions": [
                -0.2183691270378783,
                -1.7221803843903598,
                1.716025498806359,
                -1.1827244696122212,
                0.9353560246841502,
                -0.8241088785308555
            ]
        },
        {
            "positions": [
                -0.20641970888857908,
                -1.757033080122852,
                1.6453705762339115,
                -1.1981108935463174,
                0.9055893275898823,
                -0.5971175938501112
            ]
        },
        {
            "positions": [
                -0.1944702907392799,
                -1.7918857758553441,
                1.5747156536614644,
                -1.2134973174804133,
                0.8758226304956143,
                -0.3701263091693674
            ]
        },
        {
            "positions": [
                -0.1825208725899807,
                -1.8267384715878363,
                1.5040607310890168,
                -1.2288837414145095,
                0.8460559334013464,
                -0.14313502448862314
            ]
        },
        {
            "positions": [
                -0.17057145444068147,
                -1.8615911673203285,
                1.4334058085165693,
                -1.2442701653486057,
                0.8162892363070784,
                0.08385626019212111
            ]
        },
        {
            "positions": [
                -0.1586220362913823,
                -1.8964438630528209,
                1.3627508859441222,
                -1.2596565892827016,
                0.7865225392128103,
                0.31084754487286537
            ]
        },
        {
            "positions": [
                -0.1466726181420831,
                -1.9312965587853128,
                1.2920959633716749,
                -1.2750430132167978,
                0.7567558421185424,
                0.5378388295536092
            ]
        },
        {
            "positions": [
                -0.13472319999278393,
                -1.9661492545178052,
                1.2214410407992276,
                -1.2904294371508938,
                0.7269891450242745,
                0.7648301142343534
            ]
        },
        {
            "positions": [
                -0.1227737818434847,
                -2.001001950250297,
                1.15078611822678,
                -1.30581586108499,
                0.6972224479300064,
                0.9918213989150977
            ]
        },
        {
            "positions": [
                -0.1108243636941855,
                -2.0358546459827895,
                1.0801311956543327,
                -1.321202285019086,
                0.6674557508357385,
                1.2188126835958415
            ]
        },
        {
            "positions": [
                -0.09887494554488632,
                -2.0707073417152815,
                1.0094762730818854,
                -1.336588708953182,
                0.6376890537414706,
                1.4458039682765862
            ]
        },
        {
            "positions": [
                -0.08692552739558712,
                -2.105560037447774,
                0.938821350509438,
                -1.3519751328872782,
                0.6079223566472026,
                1.67279525295733
            ]
        },
        {
            "positions": [
                -0.07497610924628789,
                -2.1404127331802663,
                0.8681664279369905,
                -1.3673615568213742,
                0.5781556595529346,
                1.8997865376380747
            ]
        },
        {
            "positions": [
                -0.06302669109698872,
                -2.175265428912758,
                0.7975115053645431,
                -1.3827479807554703,
                0.5483889624586666,
                2.126777822318818
            ]
        },
        {
            "positions": [
                -0.012962676667479009,
                -2.175716082768811,
                0.8680020317452349,
                -1.319078113182129,
                0.5627546357981384,
                1.9391238568774793
            ]
        },
        {
            "positions": [
                0.0371013377620307,
                -2.1761667366248636,
                0.9384925581259268,
                -1.2554082456087876,
                0.5771203091376103,
                1.7514698914361406
            ]
        },
        {
            "positions": [
                0.08716535219154042,
                -2.176617390480916,
                1.0089830845066188,
                -1.1917383780354462,
                0.5914859824770821,
                1.5638159259948021
            ]
        },
        {
            "positions": [
                0.13722936662105012,
                -2.1770680443369685,
                1.0794736108873106,
                -1.1280685104621049,
                0.6058516558165539,
                1.3761619605534634
            ]
        },
        {
            "positions": [
                0.18729338105055982,
                -2.1775186981930212,
                1.1499641372680025,
                -1.0643986428887635,
                0.6202173291560258,
                1.1885079951121247
            ]
        },
        {
            "positions": [
                0.23735739548006957,
                -2.177969352049074,
                1.2204546636486944,
                -1.0007287753154221,
                0.6345830024954976,
                1.000854029670786
            ]
        },
        {
            "positions": [
                0.2874214099095792,
                -2.178420005905126,
                1.2909451900293862,
                -0.9370589077420808,
                0.6489486758349694,
                0.8132000642294475
            ]
        },
        {
            "positions": [
                0.33748542433908896,
                -2.178870659761179,
                1.361435716410078,
                -0.8733890401687394,
                0.6633143491744412,
                0.6255460987881087
            ]
        },
        {
            "positions": [
                0.38754943876859865,
                -2.1793213136172316,
                1.43192624279077,
                -0.809719172595398,
                0.677680022513913,
                0.43789213334677024
            ]
        },
        {
            "positions": [
                0.43761345319810835,
                -2.1797719674732843,
                1.5024167691714618,
                -0.7460493050220567,
                0.6920456958533848,
                0.2502381679054315
            ]
        },
        {
            "positions": [
                0.48767746762761816,
                -2.1802226213293365,
                1.5729072955521537,
                -0.6823794374487153,
                0.7064113691928566,
                0.0625842024640928
            ]
        },
        {
            "positions": [
                0.5377414820571278,
                -2.1806732751853892,
                1.6433978219328456,
                -0.618709569875374,
                0.7207770425323285,
                -0.12506976297724615
            ]
        },
        {
            "positions": [
                0.5878054964866375,
                -2.181123929041442,
                1.7138883483135372,
                -0.5550397023020327,
                0.7351427158718002,
                -0.3127237284185842
            ]
        },
        {
            "positions": [
                0.6378695109161472,
                -2.1815745828974946,
                1.7843788746942293,
                -0.4913698347286912,
                0.7495083892112722,
                -0.5003776938599231
            ]
        },
        {
            "positions": [
                0.6879335253456569,
                -2.182025236753547,
                1.8548694010749212,
                -0.42769996715534986,
                0.763874062550744,
                -0.6880316593012616
            ]
        },
        {
            "positions": [
                0.7379975397751666,
                -2.1824758906095996,
                1.925359927455613,
                -0.3640300995820085,
                0.7782397358902158,
                -0.8756856247426006
            ]
        },
        {
            "positions": [
                0.7880615542046764,
                -2.1829265444656523,
                1.9958504538363049,
                -0.30036023200866707,
                0.7926054092296876,
                -1.063339590183939
            ]
        },
        {
            "positions": [
                0.810105762440465,
                -2.1595493982347325,
                2.05440035518033,
                -0.2758831447626741,
                0.7956519444410146,
                -1.2982796575944429
            ]
        },
        {
            "positions": [
                0.8321499706762534,
                -2.1361722520038127,
                2.112950256524355,
                -0.2514060575166811,
                0.7986984796523415,
                -1.5332197250049464
            ]
        },
        {
            "positions": [
                0.854194178912042,
                -2.1127951057728933,
                2.17150015786838,
                -0.22692897027068815,
                0.8017450148636686,
                -1.76815979241545
            ]
        },
        {
            "positions": [
                0.8762383871478305,
                -2.0894179595419735,
                2.2300500592124055,
                -0.20245188302469513,
                0.8047915500749955,
                -2.0030998598259537
            ]
        },
        {
            "positions": [
                0.898282595383619,
                -2.0660408133110537,
                2.2885999605564304,
                -0.17797479577870218,
                0.8078380852863225,
                -2.2380399272364575
            ]
        },
        {
            "positions": [
                0.8600832614248163,
                -2.0343344870624716,
                2.309182958383738,
                -0.2331101715336824,
                0.7895662817933273,
                -2.4184739869289276
            ]
        },
        {
            "positions": [
                0.8218839274660137,
                -2.0026281608138894,
                2.3297659562110455,
                -0.2882455472886627,
                0.7712944783003322,
                -2.5989080466213976
            ]
        },
        {
            "positions": [
                0.783684593507211,
                -1.970921834565307,
                2.3503489540383535,
                -0.34338092304364287,
                0.7530226748073369,
                -2.7793421063138672
            ]
        },
        {
            "positions": [
                0.7454852595484083,
                -1.9392155083167246,
                2.370931951865661,
                -0.39851629879862316,
                0.7347508713143417,
                -2.9597761660063373
            ]
        },
        {
            "positions": [
                0.7072859255896057,
                -1.9075091820681425,
                2.3915149496929686,
                -0.4536516745536034,
                0.7164790678213465,
                -3.1402102256988074
            ]
        }
    ]
}