{
    "goal": {
        "global_pose": {
            "orientation": {
                "w": 0.005598929693374612,
                "x": 0.007748599140229565,
                "y": 0.7110244013736278,
                "z": -0.7031023480610252
            },
            "position": {
                "x": -0.8858502320852131,
                "y": -0.7141253447532654,
                "z": 0.3711530566215515
            }
        },
        "name": "move_to_auspresseinheit_C"
    },
    "id": "KPIECE_move_to_auspresseinheit_C_120",
    "joint_names": [
        "shoulder_pan_joint",
        "shoulder_lift_joint",
        "elbow_joint",
        "wrist_1_joint",
        "wrist_2_joint",
        "wrist_3_joint"
    ],
    "metrics": {
        "cart_traj_len": 0.4937103275860511,
        "distance_elbow_joint": 1.0105380384836105,
        "distance_shoulder_lift_joint": 0.3295924394808327,
        "distance_shoulder_pan_joint": 0.2571239166981618,
        "distance_wrist_1_joint": 0.7104461185546603,
        "distance_wrist_2_joint": 1.303148394737743,
        "distance_wrist_3_joint": 0.08769659184431511,
        "smoothness": 3.2297397335745243e-16,
        "time": 1.445687506,
        "traj_len": 1.923160289679288,
        "weighted_distance": 2.4264239523999835
    },
    "planner": "KPIECE",
    "start": {
        "state": {
            "elbow_joint": 1.752795957773711,
            "shoulder_lift_joint": -0.9740617694225064,
            "shoulder_pan_joint": -2.967991417825858,
            "wrist_1_joint": -0.7595177689806859,
            "wrist_2_joint": 1.7443932448377395,
            "wrist_3_joint": 3.199131542505932
        }
    },
    "waypoints": [
        {
            "positions": [
                -2.967991417825858,
                -0.9740617694225064,
                1.752795957773711,
                -0.7595177689806859,
                1.7443932448377395,
                3.199131542505932
            ]
        },
        {
            "positions": [
                -2.942279026156042,
                -0.9411025254744232,
                1.65174215392535,
                -0.6884731571252198,
                1.6140784053639652,
                3.1903618833215006
            ]
        },
        {
            "positions": [
                -2.9165666344862258,
                -0.9081432815263399,
                1.550688350076989,
                -0.6174285452697539,
                1.4837635658901909,
                3.181592224137069
            ]
        },
        {
            "positions": [
                -2.8908542428164092,
                -0.8751840375782566,
                1.449634546228628,
                -0.5463839334142878,
                1.3534487264164166,
                3.1728225649526376
            ]
        },
        {
            "positions": [
                -2.865141851146593,
                -0.8422247936301733,
                1.348580742380267,
                -0.47533932155882175,
                1.2231338869426422,
                3.164052905768206
            ]
        },
        {
            "positions": [
                -2.839429459476777,
                -0.8092655496820901,
                1.2475269385319059,
                -0.40429470970335574,
                1.092819047468868,
                3.1552832465837746
            ]
        },
        {
            "positions": [
                -2.813717067806961,
                -0.7763063057340068,
                1.1464731346835448,
                -0.3332500978478897,
                0.9625042079950937,
                3.146513587399343
            ]
        },
        {
            "positions": [
                -2.788004676137145,
                -0.7433470617859236,
                1.0454193308351838,
                -0.2622054859924237,
                0.8321893685213195,
                3.1377439282149115
            ]
        },
        {
            "positions": [
                -2.7622922844673283,
                -0.7103878178378402,
                0.9443655269868227,
                -0.1911608741369576,
                0.7018745290475452,
                3.12897426903048
            ]
        },
        {
            "positions": [
                -2.7365798927975122,
                -0.677428573889757,
                0.8433117231384617,
                -0.12011626228149164,
                0.5715596895737709,
                3.1202046098460485
            ]
        },
        {
            "positions": [
                -2.710867501127696,
                -0.6444693299416737,
                0.7422579192901008,
                -0.04907165042602558,
                0.44124485009999664,
                3.111434950661617
            ]
        }
    ]
}