{
    "goal": {
        "global_pose": {
            "orientation": {
                "w": -0.4816463035849501,
                "x": 0.5182115481033762,
                "y": 0.4908360881923453,
                "z": -0.5084816262002911
            },
            "position": {
                "x": -0.8240239810943604,
                "y": -0.300875300988555,
                "z": 0.16403168439865112
            }
        },
        "name": "move_to_storage_C"
    },
    "id": "KPIECE_move_to_storage_C_25",
    "joint_names": [
        "shoulder_pan_joint",
        "shoulder_lift_joint",
        "elbow_joint",
        "wrist_1_joint",
        "wrist_2_joint",
        "wrist_3_joint"
    ],
    "metrics": {
        "cart_traj_len": 0.5763847190038252,
        "distance_elbow_joint": 0.2568173287174864,
        "distance_shoulder_lift_joint": 0.1892120154820679,
        "distance_shoulder_pan_joint": 0.49397634379696287,
        "distance_wrist_1_joint": 0.07019486260674357,
        "distance_wrist_2_joint": 1.0688381342147681,
        "distance_wrist_3_joint": 0.05508450393940345,
        "smoothness": 0.0,
        "time": 0.237323408,
        "traj_len": 1.4608638501781854,
        "weighted_distance": 1.8393817421779937
    },
    "planner": "KPIECE",
    "start": {
        "state": {
            "elbow_joint": 2.010868315001653,
            "shoulder_lift_joint": -1.1634956873357014,
            "shoulder_pan_joint": -2.4736205022346103,
            "wrist_1_joint": -0.8367026794713948,
            "wrist_2_joint": 0.6746043897044093,
            "wrist_3_joint": 3.1335220948105738
        }
    },
    "waypoints": [
        {
            "positions": [
                -2.4736205022346103,
                -1.1634956873357014,
                2.010868315001653,
                -0.8367026794713948,
                0.6746043897044093,
                3.1335220948105738
            ]
        },
        {
            "positions": [
                -2.5559498928674373,
                -1.1319603514220233,
                1.968065426882072,
                -0.8250035357036042,
                0.852744078740204,
                3.142702845467141
            ]
        },
        {
            "positions": [
                -2.6382792835002644,
                -1.1004250155083455,
                1.9252625387624909,
                -0.8133043919358136,
                1.0308837677759985,
                3.1518835961237084
            ]
        },
        {
            "positions": [
                -2.720608674133092,
                -1.0688896795946674,
                1.8824596506429099,
                -0.8016052481680229,
                1.2090234568117935,
                3.1610643467802753
            ]
        },
        {
            "positions": [
                -2.802938064765919,
                -1.0373543436809896,
                1.8396567625233289,
                -0.7899061044002323,
                1.387163145847588,
                3.1702450974368426
            ]
        },
        {
            "positions": [
                -2.885267455398746,
                -1.0058190077673115,
                1.7968538744037477,
                -0.7782069606324418,
                1.5653028348833828,
                3.17942584809341
            ]
        },
        {
            "positions": [
                -2.967596846031573,
                -0.9742836718536335,
                1.7540509862841667,
                -0.7665078168646512,
                1.7434425239191773,
                3.188606598749977
            ]
        }
    ]
}