{
    "goal": {
        "global_pose": {
            "orientation": {
                "w": 0.5084816262002911,
                "x": -0.4908360881923452,
                "y": 0.5182115481033761,
                "z": -0.48164630358495003
            },
            "position": {
                "x": 0.5540239810943604,
                "y": -0.46912469901144505,
                "z": 0.16403168439865112
            }
        },
        "name": "move_to_storage_B"
    },
    "id": "KPIECE_move_to_storage_B_15",
    "joint_names": [
        "shoulder_pan_joint",
        "shoulder_lift_joint",
        "elbow_joint",
        "wrist_1_joint",
        "wrist_2_joint",
        "wrist_3_joint"
    ],
    "metrics": {
        "cart_traj_len": 3.142398417280385,
        "distance_elbow_joint": 2.3240918053464634,
        "distance_shoulder_lift_joint": 1.3401250115373164,
        "distance_shoulder_pan_joint": 2.164536774962073,
        "distance_wrist_1_joint": 3.023481782429541,
        "distance_wrist_2_joint": 2.7021672889160007,
        "distance_wrist_3_joint": 3.1797930483452093,
        "smoothness": 0.5725993095461523,
        "time": 0.09830371,
        "traj_len": 3.8385147793823338,
        "weighted_distance": 5.17874800309617
    },
    "planner": "KPIECE",
    "start": {
        "state": {
            "elbow_joint": 1.6649325706314817,
            "shoulder_lift_joint": -0.6616388048112454,
            "shoulder_pan_joint": -0.9139837860083814,
            "wrist_1_joint": 2.146757197745094,
            "wrist_2_joint": -2.234196043158733,
            "wrist_3_joint": 0.005471033829999897
        }
    },
    "waypoints": [
        {
            "positions": [
                -0.9139837860083814,
                -0.6616388048112454,
                1.6649325706314817,
                2.146757197745094,
                -2.234196043158733,
                0.005471033829999897
            ]
        },
        {
            "positions": [
                -0.9110811962106637,
                -0.6750757724927052,
                1.6904526845397874,
                2.1653305009180404,
                -2.1807596812962267,
                -0.015437015192063886
            ]
        },
        {
            "positions": [
                -0.859051709830467,
                -0.7217164719426836,
                1.6385339438110038,
                2.129359508423911,
                -2.0751482733187325,
                0.083320155236043
            ]
        },
        {
            "positions": [
                -0.8070222234502703,
                -0.768357171392662,
                1.5866152030822203,
                2.093388515929782,
                -1.9695368653412384,
                0.18207732566414989
            ]
        },
        {
            "positions": [
                -0.7549927370700735,
                -0.8149978708426404,
                1.5346964623534367,
                2.0574175234356527,
                -1.8639254573637443,
                0.2808344960922568
            ]
        },
        {
            "positions": [
                -0.7029632506898768,
                -0.8616385702926188,
                1.4827777216246532,
                2.0214465309415233,
                -1.7583140493862501,
                0.3795916665203637
            ]
        },
        {
            "positions": [
                -0.65093376430968,
                -0.9082792697425971,
                1.4308589808958696,
                1.985475538447394,
                -1.652702641408756,
                0.4783488369484706
            ]
        },
        {
            "positions": [
                -0.5989042779294833,
                -0.9549199691925755,
                1.3789402401670858,
                1.949504545953265,
                -1.5470912334312619,
                0.5771060073765775
            ]
        },
        {
            "positions": [
                -0.5468747915492865,
                -1.0015606686425538,
                1.3270214994383023,
                1.9135335534591356,
                -1.4414798254537677,
                0.6758631778046844
            ]
        },
        {
            "positions": [
                -0.4948453051690898,
                -1.0482013680925322,
                1.2751027587095187,
                1.8775625609650064,
                -1.3358684174762736,
                0.7746203482327912
            ]
        },
        {
            "positions": [
                -0.44281581878889303,
                -1.0948420675425106,
                1.2231840179807352,
                1.841591568470877,
                -1.2302570094987795,
                0.8733775186608982
            ]
        },
        {
            "positions": [
                -0.3907863324086963,
                -1.141482766992489,
                1.1712652772519516,
                1.8056205759767479,
                -1.1246456015212851,
                0.972134689089005
            ]
        },
        {
            "positions": [
                -0.33875684602849954,
                -1.1881234664424674,
                1.1193465365231678,
                1.7696495834826185,
                -1.019034193543791,
                1.070891859517112
            ]
        },
        {
            "positions": [
                -0.28672735964830276,
                -1.2347641658924458,
                1.0674277957943845,
                1.7336785909884893,
                -0.9134227855662969,
                1.1696490299452187
            ]
        },
        {
            "positions": [
                -0.23469787326810598,
                -1.2814048653424241,
                1.0155090550656007,
                1.6977075984943601,
                -0.8078113775888025,
                1.2684062003733256
            ]
        },
        {
            "positions": [
                -0.18266838688790932,
                -1.3280455647924025,
                0.9635903143368173,
                1.6617366060002308,
                -0.7021999696113086,
                1.3671633708014326
            ]
        },
        {
            "positions": [
                -0.13063890050771254,
                -1.374686264242381,
                0.9116715736080337,
                1.6257656135061014,
                -0.5965885616338142,
                1.4659205412295395
            ]
        },
        {
            "positions": [
                -0.07860941412751588,
                -1.4213269636923593,
                0.8597528328792502,
                1.5897946210119724,
                -0.49097715365632033,
                1.5646777116576462
            ]
        },
        {
            "positions": [
                -0.026579927747318988,
                -1.4679676631423377,
                0.8078340921504665,
                1.553823628517843,
                -0.385365745678826,
                1.6634348820857532
            ]
        },
        {
            "positions": [
                0.025449558632877678,
                -1.5146083625923161,
                0.7559153514216831,
                1.5178526360237137,
                -0.27975433770133207,
                1.7621920525138601
            ]
        },
        {
            "positions": [
                0.0774790450130745,
                -1.5612490620422945,
                0.7039966106928994,
                1.4818816435295845,
                -0.1741429297238377,
                1.860949222941967
            ]
        },
        {
            "positions": [
                0.015738311121463018,
                -1.5380640749735437,
                0.7730553274082295,
                1.3596995581681035,
                -0.14034744680377942,
                1.9284491577413942
            ]
        },
        {
            "positions": [
                -0.04600242277014846,
                -1.5148790879047926,
                0.8421140441235594,
                1.2375174728066225,
                -0.10655196388372111,
                1.9959490925408212
            ]
        },
        {
            "positions": [
                -0.10774315666175995,
                -1.4916941008360418,
                0.9111727608388894,
                1.1153353874451417,
                -0.07275648096366281,
                2.063449027340248
            ]
        },
        {
            "positions": [
                -0.16948389055337143,
                -1.468509113767291,
                0.9802314775542194,
                0.9931533020836606,
                -0.038960998043604506,
                2.1309489621396756
            ]
        },
        {
            "positions": [
                -0.23122462444498287,
                -1.44532412669854,
                1.0492901942695494,
                0.8709712167221796,
                -0.0051655151235462105,
                2.1984488969391025
            ]
        },
        {
            "positions": [
                -0.2929653583365944,
                -1.422139139629789,
                1.1183489109848794,
                0.7487891313606987,
                0.028629967796512085,
                2.2659488317385295
            ]
        },
        {
            "positions": [
                -0.3547060922282058,
                -1.3989541525610383,
                1.1874076277002095,
                0.6266070459992177,
                0.06242545071657038,
                2.3334487665379564
            ]
        },
        {
            "positions": [
                -0.4164468261198173,
                -1.3757691654922872,
                1.2564663444155393,
                0.5044249606377367,
                0.0962209336366287,
                2.400948701337384
            ]
        },
        {
            "positions": [
                -0.47818756001142876,
                -1.3525841784235364,
                1.3255250611308695,
                0.38224287527625567,
                0.130016416556687,
                2.4684486361368108
            ]
        },
        {
            "positions": [
                -0.5399282939030403,
                -1.3293991913547853,
                1.3945837778461994,
                0.26006078991477466,
                0.1638118994767453,
                2.5359485709362377
            ]
        },
        {
            "positions": [
                -0.6016690277946519,
                -1.3062142042860345,
                1.4636424945615296,
                0.13787870455329365,
                0.1976073823968036,
                2.603448505735665
            ]
        },
        {
            "positions": [
                -0.6634097616862633,
                -1.2830292172172837,
                1.5327012112768594,
                0.015696619191812866,
                0.23140286531686188,
                2.670948440535092
            ]
        },
        {
            "positions": [
                -0.7251504955778748,
                -1.2598442301485326,
                1.6017599279921895,
                -0.10648546616966836,
                0.26519834823692023,
                2.738448375334519
            ]
        },
        {
            "positions": [
                -0.7868912294694862,
                -1.2366592430797818,
                1.6708186447075195,
                -0.22866755153114915,
                0.2989938311569785,
                2.805948310133946
            ]
        },
        {
            "positions": [
                -0.8486319633610978,
                -1.2134742560110308,
                1.7398773614228495,
                -0.3508496368926304,
                0.3327893140770368,
                2.8734482449333734
            ]
        },
        {
            "positions": [
                -0.9103726972527092,
                -1.19028926894228,
                1.8089360781381794,
                -0.47303172225411116,
                0.3665847969970951,
                2.9409481797328003
            ]
        },
        {
            "positions": [
                -0.9721134311443207,
                -1.167104281873529,
                1.8779947948535094,
                -0.5952138076155922,
                0.4003802799171534,
                3.0084481145322277
            ]
        },
        {
            "positions": [
                -1.033854165035932,
                -1.1439192948047783,
                1.9470535115688394,
                -0.7173958929770732,
                0.4341757628372117,
                3.0759480493316547
            ]
        },
        {
            "positions": [
                -1.0955948989275437,
                -1.1207343077360272,
                2.0161122282841695,
                -0.8395779783385541,
                0.46797124575727006,
                3.1434479841310816
            ]
        }
    ]
}