{
    "goal": {
        "global_pose": {
            "orientation": {
                "w": -0.00223480608172531,
                "x": 0.0024358444001904467,
                "y": 0.7094548369677653,
                "z": -0.704743149386269
            },
            "position": {
                "x": -0.37947507619857795,
                "y": -0.6371506643295288,
                "z": 0.19426114857196808
            }
        },
        "name": "move_to_magneteinheit_C"
    },
    "id": "KPIECE_move_to_magneteinheit_C_120",
    "joint_names": [
        "shoulder_pan_joint",
        "shoulder_lift_joint",
        "elbow_joint",
        "wrist_1_joint",
        "wrist_2_joint",
        "wrist_3_joint"
    ],
    "metrics": {
        "cart_traj_len": 0.9758501112330202,
        "distance_elbow_joint": 0.5512373952391418,
        "distance_shoulder_lift_joint": 0.7288143237210603,
        "distance_shoulder_pan_joint": 1.120572326663725,
        "distance_wrist_1_joint": 1.4280639697116637,
        "distance_wrist_2_joint": 0.8326254425917162,
        "distance_wrist_3_joint": 1.792761589222497,
        "smoothness": 0.6451103957885491,
        "time": 3.480597818,
        "traj_len": 2.540487167286976,
        "weighted_distance": 3.507176590635005
    },
    "planner": "KPIECE",
    "start": {
        "state": {
            "elbow_joint": 1.9565354006590394,
            "shoulder_lift_joint": -1.4165861576513559,
            "shoulder_pan_joint": -1.6717766223277177,
            "wrist_1_joint": -0.5286633288215096,
            "wrist_2_joint": 1.4727565892594296,
            "wrist_3_joint": 3.1593482883155493
        }
    },
    "waypoints": [
        {
            "positions": [
                -1.6717766223277177,
                -1.4165861576513559,
                1.9565354006590394,
                -0.5286633288215096,
                1.4727565892594296,
                3.1593482883155493
            ]
        },
        {
            "positions": [
                -1.5948896358400084,
                -1.4250418160181488,
                1.9133448883296338,
                -0.4657442934397751,
                1.4811046014269844,
                3.0820340530909904
            ]
        },
        {
            "positions": [
                -1.5180026493522991,
                -1.433497474384942,
                1.8701543760002284,
                -0.4028252580580406,
                1.4894526135945392,
                3.004719817866431
            ]
        },
        {
            "positions": [
                -1.5160620396187117,
                -1.46182971382911,
                1.8350875923738112,
                -0.2935240387467145,
                1.4724912958955056,
                2.839666953775895
            ]
        },
        {
            "positions": [
                -1.514121429885124,
                -1.4901619532732782,
                1.800020808747394,
                -0.18422281943538837,
                1.4555299781964721,
                2.6746140896853587
            ]
        },
        {
            "positions": [
                -1.5121808201515365,
                -1.5184941927174462,
                1.7649540251209768,
                -0.07492160012406221,
                1.4385686604974386,
                2.5095612255948225
            ]
        },
        {
            "positions": [
                -1.5744990308902267,
                -1.5638314744995814,
                1.7937949419150836,
                -0.0374094059042195,
                1.385100988435164,
                2.422570665622907
            ]
        },
        {
            "positions": [
                -1.6368172416289166,
                -1.6091687562817167,
                1.8226358587091902,
                0.00010278831562321455,
                1.3316333163728893,
                2.3355801056509917
            ]
        },
        {
            "positions": [
                -1.6991354523676068,
                -1.6545060380638519,
                1.851476775503297,
                0.03761498253546593,
                1.2781656443106146,
                2.248589545679076
            ]
        },
        {
            "positions": [
                -1.8421910797400252,
                -1.629302873266067,
                1.894417460838232,
                0.024175184233711396,
                1.2228882864600656,
                2.2920647477895315
            ]
        },
        {
            "positions": [
                -1.9852467071124433,
                -1.6040997084682824,
                1.937358146173167,
                0.010735385931956866,
                1.1676109286095167,
                2.335539949899987
            ]
        },
        {
            "positions": [
                -2.1283023344848617,
                -1.5788965436704976,
                1.980298831508102,
                -0.002704412369797668,
                1.1123335707589674,
                2.379015152010442
            ]
        },
        {
            "positions": [
                -2.27135796185728,
                -1.5536933788727127,
                2.023239516843037,
                -0.01614421067155219,
                1.0570562129084184,
                2.4224903541208973
            ]
        },
        {
            "positions": [
                -2.3127501794217453,
                -1.5129445476208745,
                2.034028721746125,
                -0.10614884522107766,
                1.0071013536960434,
                2.512294736584578
            ]
        },
        {
            "positions": [
                -2.354142396986211,
                -1.472195716369036,
                2.0448179266492126,
                -0.19615347977060313,
                0.9571464944836683,
                2.6020991190482583
            ]
        },
        {
            "positions": [
                -2.3955346145506766,
                -1.4314468851171975,
                2.0556071315523003,
                -0.2861581143201286,
                0.9071916352712932,
                2.691903501511939
            ]
        },
        {
            "positions": [
                -2.436926832115142,
                -1.3906980538653593,
                2.066396336455388,
                -0.37616274886965406,
                0.8572367760589181,
                2.7817078839756197
            ]
        },
        {
            "positions": [
                -2.4459844602461267,
                -1.3339264390878414,
                2.051842909363721,
                -0.4881647306070461,
                0.8113083808786717,
                2.8689290110479897
            ]
        },
        {
            "positions": [
                -2.455042088377111,
                -1.2771548243103235,
                2.037289482272054,
                -0.6001667123444383,
                0.7653799856984254,
                2.9561501381203596
            ]
        },
        {
            "positions": [
                -2.4640997165080956,
                -1.2203832095328055,
                2.0227360551803875,
                -0.7121686940818304,
                0.7194515905181789,
                3.04337126519273
            ]
        },
        {
            "positions": [
                -2.4731573446390804,
                -1.1636115947552876,
                2.0081826280887203,
                -0.8241706758192224,
                0.6735231953379325,
                3.1305923922651
            ]
        }
    ]
}