{
    "goal": {
        "global_pose": {
            "orientation": {
                "w": 0.005598929693374612,
                "x": 0.007748599140229565,
                "y": 0.7110244013736278,
                "z": -0.7031023480610252
            },
            "position": {
                "x": 0.1141497679147869,
                "y": -0.7141253447532654,
                "z": 0.3711530566215515
            }
        },
        "name": "move_to_auspresseinheit_B"
    },
    "id": "KPIECE_move_to_auspresseinheit_B_132",
    "joint_names": [
        "shoulder_pan_joint",
        "shoulder_lift_joint",
        "elbow_joint",
        "wrist_1_joint",
        "wrist_2_joint",
        "wrist_3_joint"
    ],
    "metrics": {
        "cart_traj_len": 0.5652136463901076,
        "distance_elbow_joint": 0.061041360683569135,
        "distance_shoulder_lift_joint": 0.29422409954621487,
        "distance_shoulder_pan_joint": 0.5774030285017488,
        "distance_wrist_1_joint": 0.31590313453261676,
        "distance_wrist_2_joint": 0.9931451991141391,
        "distance_wrist_3_joint": 0.0021198382093454704,
        "smoothness": 2.5376526478085547e-16,
        "time": 0.501401992,
        "traj_len": 1.4979441446821822,
        "weighted_distance": 1.886034111741641
    },
    "planner": "KPIECE",
    "start": {
        "state": {
            "elbow_joint": 2.019306165916698,
            "shoulder_lift_joint": -1.1220205098164344,
            "shoulder_pan_joint": -1.095207207618794,
            "wrist_1_joint": -0.8559671824921639,
            "wrist_2_joint": 0.47596387242952726,
            "wrist_3_joint": 3.159081874673826
        }
    },
    "waypoints": [
        {
            "positions": [
                -1.095207207618794,
                -1.1220205098164344,
                2.019306165916698,
                -0.8559671824921639,
                0.47596387242952726,
                3.159081874673826
            ]
        },
        {
            "positions": [
                -1.1914410457024187,
                -1.1710578597408037,
                2.00913260580277,
                -0.8033166600700611,
                0.6414880722818838,
                3.1587285683056017
            ]
        },
        {
            "positions": [
                -1.2876748837860437,
                -1.2200952096651727,
                1.9989590456888415,
                -0.7506661376479583,
                0.8070122721342403,
                3.1583752619373775
            ]
        },
        {
            "positions": [
                -1.3839087218696684,
                -1.2691325595895417,
                1.9887854855749134,
                -0.6980156152258554,
                0.9725364719865968,
                3.1580219555691533
            ]
        },
        {
            "positions": [
                -1.4801425599532931,
                -1.318169909513911,
                1.9786119254609853,
                -0.6453650928037526,
                1.1380606718389532,
                3.1576686492009287
            ]
        },
        {
            "positions": [
                -1.576376398036918,
                -1.3672072594382803,
                1.968438365347057,
                -0.5927145703816499,
                1.3035848716913099,
                3.1573153428327045
            ]
        },
        {
            "positions": [
                -1.6726102361205428,
                -1.4162446093626493,
                1.9582648052331288,
                -0.5400640479595471,
                1.4691090715436663,
                3.1569620364644804
            ]
        }
    ]
}