{
    "goal": {
        "global_pose": {
            "orientation": {
                "w": 0.7031023502349854,
                "x": -0.7110244035720825,
                "y": 0.007748599164187908,
                "z": 0.005598929710686207
            },
            "position": {
                "x": 0.11585023208521307,
                "y": 0.44412534475326537,
                "z": 0.3711530566215515
            }
        },
        "name": "move_to_auspresseinheit_A"
    },
    "id": "KPIECE_move_to_auspresseinheit_A_81",
    "joint_names": [
        "shoulder_pan_joint",
        "shoulder_lift_joint",
        "elbow_joint",
        "wrist_1_joint",
        "wrist_2_joint",
        "wrist_3_joint"
    ],
    "metrics": {
        "cart_traj_len": 2.112742440115267,
        "distance_elbow_joint": 2.6304104450311026,
        "distance_shoulder_lift_joint": 0.6445890199434554,
        "distance_shoulder_pan_joint": 1.1881271313793123,
        "distance_wrist_1_joint": 1.8000797285407084,
        "distance_wrist_2_joint": 0.5107361647397486,
        "distance_wrist_3_joint": 3.7876228070387987,
        "smoothness": 1.049959333041404,
        "time": 0.128793178,
        "traj_len": 3.249856196306711,
        "weighted_distance": 4.5219052183820905
    },
    "planner": "KPIECE",
    "start": {
        "state": {
            "elbow_joint": 2.4225747245308327,
            "shoulder_lift_joint": -1.373653427065438,
            "shoulder_pan_joint": -0.33786330853087027,
            "wrist_1_joint": -1.0288602302712604,
            "wrist_2_joint": 1.23302299562683,
            "wrist_3_joint": -3.094021725338297
        }
    },
    "waypoints": [
        {
            "positions": [
                -0.33786330853087027,
                -1.373653427065438,
                2.4225747245308327,
                -1.0288602302712604,
                1.23302299562683,
                -3.094021725338297
            ]
        },
        {
            "positions": [
                -0.3428415428009499,
                -1.4070653238171902,
                2.327696064670116,
                -0.9476749545945699,
                1.2112118899780662,
                -2.960018930160622
            ]
        },
        {
            "positions": [
                -0.34781977707102957,
                -1.4404772205689427,
                2.2328174048093996,
                -0.8664896789178793,
                1.1894007843293022,
                -2.8260161349829476
            ]
        },
        {
            "positions": [
                -0.3527980113411092,
                -1.473889117320695,
                2.137938744948683,
                -0.7853044032411887,
                1.1675896786805384,
                -2.692013339805273
            ]
        },
        {
            "positions": [
                -0.3577762456111888,
                -1.5073010140724472,
                2.043060085087966,
                -0.7041191275644981,
                1.1457785730317747,
                -2.558010544627598
            ]
        },
        {
            "positions": [
                -0.36275447988126847,
                -1.5407129108241997,
                1.9481814252272496,
                -0.6229338518878076,
                1.1239674673830107,
                -2.424007749449923
            ]
        },
        {
            "positions": [
                -0.3677327141513481,
                -1.574124807575952,
                1.853302765366533,
                -0.5417485762111169,
                1.102156361734247,
                -2.2900049542722485
            ]
        },
        {
            "positions": [
                -0.37271094842142777,
                -1.6075367043277042,
                1.7584241055058163,
                -0.4605633005344264,
                1.080345256085483,
                -2.156002159094574
            ]
        },
        {
            "positions": [
                -0.3776891826915074,
                -1.6409486010794567,
                1.6635454456450998,
                -0.37937802485773586,
                1.0585341504367192,
                -2.021999363916899
            ]
        },
        {
            "positions": [
                -0.38266741696158707,
                -1.674360497831209,
                1.568666785784383,
                -0.2981927491810452,
                1.0367230447879554,
                -1.8879965687392242
            ]
        },
        {
            "positions": [
                -0.3876456512316667,
                -1.7077723945829613,
                1.4737881259236665,
                -0.21700747350435468,
                1.0149119391391914,
                -1.7539937735615494
            ]
        },
        {
            "positions": [
                -0.3926238855017463,
                -1.7411842913347138,
                1.3789094660629497,
                -0.13582219782766414,
                0.9931008334904277,
                -1.6199909783838746
            ]
        },
        {
            "positions": [
                -0.39760211977182597,
                -1.774596188086466,
                1.2840308062022332,
                -0.0546369221509736,
                0.9712897278416639,
                -1.4859881832061999
            ]
        },
        {
            "positions": [
                -0.4025803540419056,
                -1.8080080848382185,
                1.1891521463415164,
                0.02654835352571716,
                0.9494786221928999,
                -1.351985388028525
            ]
        },
        {
            "positions": [
                -0.40755858831198527,
                -1.8414199815899708,
                1.0942734864808,
                0.10773362920240752,
                0.9276675165441362,
                -1.2179825928508503
            ]
        },
        {
            "positions": [
                -0.3407170598899565,
                -1.8525246562918753,
                1.2072017428544952,
                0.05084741796042913,
                0.9243603785351173,
                -1.3615321643078788
            ]
        },
        {
            "positions": [
                -0.2738755314679277,
                -1.8636293309937797,
                1.3201299992281905,
                -0.006038793281549257,
                0.9210532405260984,
                -1.5050817357649076
            ]
        },
        {
            "positions": [
                -0.20703400304589892,
                -1.8747340056956843,
                1.4330582556018856,
                -0.06292500452352763,
                0.9177461025170796,
                -1.648631307221936
            ]
        },
        {
            "positions": [
                -0.14019247462387013,
                -1.8858386803975888,
                1.545986511975581,
                -0.11981121576550603,
                0.9144389645080607,
                -1.7921808786789648
            ]
        },
        {
            "positions": [
                -0.07335094620184135,
                -1.8969433550994932,
                1.6589147683492762,
                -0.17669742700748436,
                0.9111318264990418,
                -1.9357304501359933
            ]
        },
        {
            "positions": [
                -0.006509417779812565,
                -1.9080480298013978,
                1.7718430247229713,
                -0.23358363824946277,
                0.907824688490023,
                -2.079280021593022
            ]
        },
        {
            "positions": [
                0.060332110642216275,
                -1.919152704503302,
                1.8847712810966666,
                -0.29046984949144117,
                0.904517550481004,
                -2.2228295930500503
            ]
        },
        {
            "positions": [
                0.127173639064245,
                -1.9302573792052067,
                1.9976995374703619,
                -0.34735606073341957,
                0.9012104124719852,
                -2.3663791645070793
            ]
        },
        {
            "positions": [
                0.19401516748627384,
                -1.9413620539071113,
                2.110627793844057,
                -0.404242271975398,
                0.8979032744629664,
                -2.509928735964108
            ]
        },
        {
            "positions": [
                0.26085669590830257,
                -1.9524667286090156,
                2.2235560502177525,
                -0.46112848321737626,
                0.8945961364539474,
                -2.6534783074211363
            ]
        },
        {
            "positions": [
                0.32769822433033136,
                -1.9635714033109202,
                2.336484306591448,
                -0.5180146944593548,
                0.8912889984449286,
                -2.797027878878165
            ]
        },
        {
            "positions": [
                0.41966964520270594,
                -1.9507432436966186,
                2.3512472160424895,
                -0.5088655313195765,
                0.8470535851925605,
                -2.8797567517135185
            ]
        },
        {
            "positions": [
                0.5652714542444589,
                -1.9298218016547828,
                2.37381495475218,
                -0.4945713401868264,
                0.7846702080398209,
                -3.0046615095578604
            ]
        },
        {
            "positions": [
                0.7108732632862119,
                -1.908900359612947,
                2.3963826934618697,
                -0.48027714905407637,
                0.7222868308870813,
                -3.1295662674022022
            ]
        }
    ]
}