{
    "goal": {
        "global_pose": {
            "orientation": {
                "w": -0.00223480608172531,
                "x": 0.0024358444001904467,
                "y": 0.7094548369677653,
                "z": -0.704743149386269
            },
            "position": {
                "x": -0.37947507619857795,
                "y": -0.6371506643295288,
                "z": 0.19426114857196808
            }
        },
        "name": "move_to_magneteinheit_C"
    },
    "id": "KPIECE_move_to_magneteinheit_C_34",
    "joint_names": [
        "shoulder_pan_joint",
        "shoulder_lift_joint",
        "elbow_joint",
        "wrist_1_joint",
        "wrist_2_joint",
        "wrist_3_joint"
    ],
    "metrics": {
        "cart_traj_len": 2.5473592191294347,
        "distance_elbow_joint": 4.476324678160696,
        "distance_shoulder_lift_joint": 1.3080807957509446,
        "distance_shoulder_pan_joint": 0.9826998516314438,
        "distance_wrist_1_joint": 4.090931780607605,
        "distance_wrist_2_joint": 1.9474009704024295,
        "distance_wrist_3_joint": 8.744464659206052,
        "smoothness": 0.27531768309376253,
        "time": 1.430621508,
        "traj_len": 4.642187279263856,
        "weighted_distance": 6.713952993965724
    },
    "planner": "KPIECE",
    "start": {
        "state": {
            "elbow_joint": 1.9565354006590394,
            "shoulder_lift_joint": -1.4165861576513559,
            "shoulder_pan_joint": -1.6717766223277177,
            "wrist_1_joint": -0.5286633288215096,
            "wrist_2_joint": 1.4727565892594296,
            "wrist_3_joint": 3.1593482883155493
        }
    },
    "waypoints": [
        {
            "positions": [
                -1.6717766223277177,
                -1.4165861576513559,
                1.9565354006590394,
                -0.5286633288215096,
                1.4727565892594296,
                3.1593482883155493
            ]
        },
        {
            "positions": [
                -1.6318367780640781,
                -1.4156892569292323,
                1.9876382303984723,
                -0.5746011511903812,
                1.4278520029661426,
                3.102776086802738
            ]
        },
        {
            "positions": [
                -1.5918969338004385,
                -1.4147923562071087,
                2.018741060137905,
                -0.620538973559253,
                1.3829474166728555,
                3.046203885289926
            ]
        },
        {
            "positions": [
                -1.5973145091591787,
                -1.40878547478099,
                1.9747279711757937,
                -0.6603817219496024,
                1.255785070000377,
                2.9153034088562393
            ]
        },
        {
            "positions": [
                -1.602732084517919,
                -1.4027785933548715,
                1.9307148822136824,
                -0.7002244703399517,
                1.1286227233278985,
                2.7844029324225525
            ]
        },
        {
            "positions": [
                -1.608149659876659,
                -1.396771711928753,
                1.886701793251571,
                -0.740067218730301,
                1.0014603766554202,
                2.653502455988866
            ]
        },
        {
            "positions": [
                -1.6135672352353991,
                -1.3907648305026343,
                1.8426887042894595,
                -0.7799099671206504,
                0.8742980299829417,
                2.522601979555179
            ]
        },
        {
            "positions": [
                -1.6267110885320943,
                -1.3912139203901814,
                1.7482486042677137,
                -0.7784827611459062,
                0.7754022913418958,
                2.3960082789208976
            ]
        },
        {
            "positions": [
                -1.6398549418287893,
                -1.3916630102777288,
                1.6538085042459678,
                -0.7770555551711619,
                0.6765065527008497,
                2.269414578286616
            ]
        },
        {
            "positions": [
                -1.6529987951254845,
                -1.3921121001652759,
                1.5593684042242217,
                -0.7756283491964175,
                0.5776108140598037,
                2.1428208776523348
            ]
        },
        {
            "positions": [
                -1.6661426484221797,
                -1.392561190052823,
                1.4649283042024759,
                -0.7742011432216733,
                0.47871507541875774,
                2.0162271770180533
            ]
        },
        {
            "positions": [
                -1.6905182539741317,
                -1.373831161358838,
                1.3728658829603406,
                -0.6993359829562759,
                0.46216801204482894,
                1.8665232793753133
            ]
        },
        {
            "positions": [
                -1.7148938595260836,
                -1.3551011326648532,
                1.2808034617182051,
                -0.6244708226908784,
                0.44562094867090013,
                1.7168193817325732
            ]
        },
        {
            "positions": [
                -1.7392694650780356,
                -1.3363711039708683,
                1.1887410404760699,
                -0.549605662425481,
                0.4290738852969713,
                1.5671154840898331
            ]
        },
        {
            "positions": [
                -1.7636450706299875,
                -1.3176410752768835,
                1.0966786192339346,
                -0.47474050216008357,
                0.4125268219230425,
                1.417411586447093
            ]
        },
        {
            "positions": [
                -1.7880206761819395,
                -1.2989110465828986,
                1.0046161979917991,
                -0.3998753418946861,
                0.3959797585491137,
                1.2677076888043528
            ]
        },
        {
            "positions": [
                -1.8123962817338914,
                -1.2801810178889137,
                0.9125537767496639,
                -0.3250101816292887,
                0.3794326951751849,
                1.118003791161613
            ]
        },
        {
            "positions": [
                -1.8367718872858434,
                -1.2614509891949288,
                0.8204913555075285,
                -0.25014502136389116,
                0.3628856318012561,
                0.9682998935188727
            ]
        },
        {
            "positions": [
                -1.8611474928377953,
                -1.242720960500944,
                0.7284289342653932,
                -0.1752798610984938,
                0.3463385684273273,
                0.8185959958761326
            ]
        },
        {
            "positions": [
                -1.8855230983897473,
                -1.2239909318069593,
                0.6363665130232579,
                -0.10041470083309634,
                0.3297915050533985,
                0.6688920982333926
            ]
        },
        {
            "positions": [
                -1.9098987039416992,
                -1.2052609031129742,
                0.5443040917811225,
                -0.02554954056769887,
                0.3132444416794697,
                0.5191882005906525
            ]
        },
        {
            "positions": [
                -1.9342743094936512,
                -1.1865308744189895,
                0.4522416705389871,
                0.0493156196976986,
                0.2966973783055409,
                0.36948430294791224
            ]
        },
        {
            "positions": [
                -1.9586499150456032,
                -1.1678008457250046,
                0.36017924929685186,
                0.12418077996309596,
                0.2801503149316121,
                0.2197804053051724
            ]
        },
        {
            "positions": [
                -1.983025520597555,
                -1.1490708170310198,
                0.2681168280547166,
                0.19904594022849342,
                0.26360325155768327,
                0.07007650766243234
            ]
        },
        {
            "positions": [
                -2.007401126149507,
                -1.1303407883370349,
                0.1760544068125811,
                0.273911100493891,
                0.24705618818375447,
                -0.07962738998030794
            ]
        },
        {
            "positions": [
                -2.0317767317014592,
                -1.11161075964305,
                0.08399198557044585,
                0.34877626075928836,
                0.23050912480982566,
                -0.22933128762304822
            ]
        },
        {
            "positions": [
                -2.056152337253411,
                -1.0928807309490651,
                -0.008070435671689413,
                0.4236414210246857,
                0.21396206143589686,
                -0.37903518526578805
            ]
        },
        {
            "positions": [
                -2.0805279428053627,
                -1.0741507022550802,
                -0.10013285691382467,
                0.4985065812900831,
                0.19741499806196805,
                -0.5287390829085279
            ]
        },
        {
            "positions": [
                -2.104903548357315,
                -1.0554206735610954,
                -0.19219527815596021,
                0.5733717415554807,
                0.18086793468803924,
                -0.6784429805512684
            ]
        },
        {
            "positions": [
                -2.153999281279883,
                -1.0078026296817244,
                -0.15892831332360335,
                0.653503166486984,
                0.23337393089145259,
                -0.7704876929161119
            ]
        },
        {
            "positions": [
                -2.2030950142024515,
                -0.9601845858023532,
                -0.1256613484912465,
                0.7336345914184874,
                0.2858799270948659,
                -0.8625324052809552
            ]
        },
        {
            "positions": [
                -2.2521907471250193,
                -0.9125665419229821,
                -0.09239438365888963,
                0.8137660163499908,
                0.3383859232982793,
                -0.9545771176457987
            ]
        },
        {
            "positions": [
                -2.3012864800475876,
                -0.8649484980436111,
                -0.059127418826532774,
                0.8938974412814942,
                0.39089191950169266,
                -1.046621830010642
            ]
        },
        {
            "positions": [
                -2.350382212970156,
                -0.81733045416424,
                -0.025860453994175914,
                0.9740288662129976,
                0.443397915705106,
                -1.1386665423754856
            ]
        },
        {
            "positions": [
                -2.3994779458927242,
                -0.7697124102848689,
                0.007406510838180946,
                1.054160291144501,
                0.49590391190851935,
                -1.230711254740329
            ]
        },
        {
            "positions": [
                -2.427507039679434,
                -0.7257165622541994,
                0.14373065333552387,
                1.074443441129373,
                0.5837469681974834,
                -1.1897914009976596
            ]
        },
        {
            "positions": [
                -2.455536133466144,
                -0.68172071422353,
                0.2800547958328668,
                1.0947265911142454,
                0.6715900244864473,
                -1.1488715472549902
            ]
        },
        {
            "positions": [
                -2.4835652272528534,
                -0.6377248661928605,
                0.4163789383302098,
                1.1150097410991175,
                0.7594330807754114,
                -1.1079516935123208
            ]
        },
        {
            "positions": [
                -2.4834882909939906,
                -0.6518628716714194,
                0.4655637193485475,
                1.0592657277633315,
                0.7593751694740759,
                -0.985278185303464
            ]
        },
        {
            "positions": [
                -2.4834113547351278,
                -0.6660008771499784,
                0.5147485003668852,
                1.0035217144275455,
                0.7593172581727404,
                -0.8626046770946073
            ]
        },
        {
            "positions": [
                -2.482872412728331,
                -0.690483144432357,
                0.5887174840178391,
                0.9130965238021943,
                0.7556378384345102,
                -0.6659463720877261
            ]
        },
        {
            "positions": [
                -2.4823334707215343,
                -0.7149654117147357,
                0.6626864676687929,
                0.8226713331768433,
                0.7519584186962798,
                -0.46928806708084503
            ]
        },
        {
            "positions": [
                -2.4817945287147376,
                -0.7394476789971143,
                0.7366554513197467,
                0.7322461425514921,
                0.7482789989580495,
                -0.27262976207396394
            ]
        },
        {
            "positions": [
                -2.4812555867079413,
                -0.763929946279493,
                0.8106244349707006,
                0.6418209519261411,
                0.7445995792198191,
                -0.07597145706708275
            ]
        },
        {
            "positions": [
                -2.4807166447011446,
                -0.7884122135618716,
                0.8845934186216544,
                0.5513957613007899,
                0.7409201594815888,
                0.12068684793979834
            ]
        },
        {
            "positions": [
                -2.480177702694348,
                -0.8128944808442503,
                0.9585624022726082,
                0.4609705706754389,
                0.7372407397433585,
                0.3173451529466794
            ]
        },
        {
            "positions": [
                -2.479638760687551,
                -0.837376748126629,
                1.032531385923562,
                0.37054538005008775,
                0.7335613200051282,
                0.5140034579535605
            ]
        },
        {
            "positions": [
                -2.4790998186807545,
                -0.8618590154090076,
                1.106500369574516,
                0.2801201894247366,
                0.7298819002668978,
                0.7106617629604418
            ]
        },
        {
            "positions": [
                -2.4785608766739577,
                -0.8863412826913862,
                1.1804693532254698,
                0.18969499879938545,
                0.7262024805286675,
                0.9073200679673229
            ]
        },
        {
            "positions": [
                -2.4780219346671615,
                -0.9108235499737649,
                1.2544383368764236,
                0.09926980817403441,
                0.7225230607904372,
                1.103978372974204
            ]
        },
        {
            "positions": [
                -2.4774829926603648,
                -0.9353058172561436,
                1.3284073205273776,
                0.008844617548683265,
                0.7188436410522069,
                1.3006366779810854
            ]
        },
        {
            "positions": [
                -2.476944050653568,
                -0.9597880845385223,
                1.4023763041783313,
                -0.08158057307666766,
                0.7151642213139766,
                1.4972949829879663
            ]
        },
        {
            "positions": [
                -2.4764051086467713,
                -0.9842703518209008,
                1.4763452878292853,
                -0.17200576370201892,
                0.7114848015757462,
                1.6939532879948476
            ]
        },
        {
            "positions": [
                -2.4758661666399746,
                -1.0087526191032796,
                1.550314271480239,
                -0.26243095432736996,
                0.707805381837516,
                1.8906115930017284
            ]
        },
        {
            "positions": [
                -2.475327224633178,
                -1.0332348863856582,
                1.624283255131193,
                -0.3528561449527212,
                0.7041259620992856,
                2.0872698980086097
            ]
        },
        {
            "positions": [
                -2.474788282626381,
                -1.0577171536680368,
                1.6982522387821468,
                -0.44328133557807226,
                0.7004465423610553,
                2.283928203015491
            ]
        },
        {
            "positions": [
                -2.474249340619585,
                -1.0821994209504155,
                1.7722212224331007,
                -0.5337065262034233,
                0.6967671226228249,
                2.480586508022372
            ]
        },
        {
            "positions": [
                -2.473710398612788,
                -1.1066816882327941,
                1.8461902060840545,
                -0.6241317168287746,
                0.6930877028845946,
                2.677244813029253
            ]
        },
        {
            "positions": [
                -2.4731714566059915,
                -1.1311639555151727,
                1.9201591897350083,
                -0.7145569074541254,
                0.6894082831463644,
                2.873903118036134
            ]
        },
        {
            "positions": [
                -2.4726325145991948,
                -1.1556462227975515,
                1.9941281733859622,
                -0.8049820980794766,
                0.685728863408134,
                3.0705614230430154
            ]
        },
        {
            "positions": [
                -2.472413357601104,
                -1.163351651384932,
                2.010987402232005,
                -0.8297556929895769,
                0.6824859110317467,
                3.1236938614098424
            ]
        }
    ]
}