{
    "goal": {
        "global_pose": {
            "orientation": {
                "w": 0.005598929693374612,
                "x": 0.007748599140229565,
                "y": 0.7110244013736278,
                "z": -0.7031023480610252
            },
            "position": {
                "x": -0.8858502320852131,
                "y": -0.7141253447532654,
                "z": 0.3711530566215515
            }
        },
        "name": "move_to_auspresseinheit_C"
    },
    "id": "KPIECE_move_to_auspresseinheit_C_28",
    "joint_names": [
        "shoulder_pan_joint",
        "shoulder_lift_joint",
        "elbow_joint",
        "wrist_1_joint",
        "wrist_2_joint",
        "wrist_3_joint"
    ],
    "metrics": {
        "cart_traj_len": 0.4934678092979377,
        "distance_elbow_joint": 1.0120111878612001,
        "distance_shoulder_lift_joint": 0.3297629676125323,
        "distance_shoulder_pan_joint": 0.25603690347156194,
        "distance_wrist_1_joint": 0.7099633644110293,
        "distance_wrist_2_joint": 1.3038532548278572,
        "distance_wrist_3_joint": 0.07212937490249027,
        "smoothness": 6.459479416000911e-16,
        "time": 1.312341413,
        "traj_len": 1.9193116091678994,
        "weighted_distance": 2.4169882958199316
    },
    "planner": "KPIECE",
    "start": {
        "state": {
            "elbow_joint": 1.752795957773711,
            "shoulder_lift_joint": -0.9740617694225064,
            "shoulder_pan_joint": -2.967991417825858,
            "wrist_1_joint": -0.7595177689806859,
            "wrist_2_joint": 1.7443932448377395,
            "wrist_3_joint": 3.199131542505932
        }
    },
    "waypoints": [
        {
            "positions": [
                -2.967991417825858,
                -0.9740617694225064,
                1.752795957773711,
                -0.7595177689806859,
                1.7443932448377395,
                3.199131542505932
            ]
        },
        {
            "positions": [
                -2.942387727478702,
                -0.9410854726612532,
                1.6515948389875912,
                -0.688521432539583,
                1.6140079193549537,
                3.191918605015683
            ]
        },
        {
            "positions": [
                -2.9167840371315457,
                -0.9081091759,
                1.550393720201471,
                -0.61752509609848,
                1.483622593872168,
                3.184705667525434
            ]
        },
        {
            "positions": [
                -2.8911803467843895,
                -0.8751328791387467,
                1.4491926014153511,
                -0.5465287596573771,
                1.3532372683893823,
                3.177492730035185
            ]
        },
        {
            "positions": [
                -2.8655766564372334,
                -0.8421565823774935,
                1.347991482629231,
                -0.47553242321627415,
                1.2228519429065967,
                3.170279792544936
            ]
        },
        {
            "positions": [
                -2.8399729660900768,
                -0.8091802856162402,
                1.246790363843111,
                -0.4045360867751712,
                1.092466617423811,
                3.163066855054687
            ]
        },
        {
            "positions": [
                -2.8143692757429206,
                -0.7762039888549871,
                1.145589245056991,
                -0.3335397503340683,
                0.9620812919410252,
                3.155853917564438
            ]
        },
        {
            "positions": [
                -2.7887655853957645,
                -0.7432276920937338,
                1.0443881262708712,
                -0.26254341389296537,
                0.8316959664582395,
                3.148640980074189
            ]
        },
        {
            "positions": [
                -2.7631618950486083,
                -0.7102513953324805,
                0.9431870074847509,
                -0.1915470774518624,
                0.7013106409754537,
                3.14142804258394
            ]
        },
        {
            "positions": [
                -2.737558204701452,
                -0.6772750985712274,
                0.841985888698631,
                -0.12055074101075947,
                0.5709253154926679,
                3.134215105093691
            ]
        },
        {
            "positions": [
                -2.711954514354296,
                -0.6442988018099741,
                0.7407847699125109,
                -0.04955440456965659,
                0.44053999000988237,
                3.127002167603442
            ]
        }
    ]
}