{
    "goal": {
        "global_pose": {
            "orientation": {
                "w": 0.7031023480610252,
                "x": -0.7110244013736278,
                "y": 0.0077485991402295624,
                "z": 0.005598929693374583
            },
            "position": {
                "x": -0.8841497679147869,
                "y": 0.44412534475326537,
                "z": 0.3711530566215515
            }
        },
        "name": "move_to_auspresseinheit_D"
    },
    "id": "KPIECE_move_to_auspresseinheit_D_79",
    "joint_names": [
        "shoulder_pan_joint",
        "shoulder_lift_joint",
        "elbow_joint",
        "wrist_1_joint",
        "wrist_2_joint",
        "wrist_3_joint"
    ],
    "metrics": {
        "cart_traj_len": 3.3643812103408735,
        "distance_elbow_joint": 3.168705819108303,
        "distance_shoulder_lift_joint": 1.4074567849014876,
        "distance_shoulder_pan_joint": 2.796881644381828,
        "distance_wrist_1_joint": 1.6135715694750736,
        "distance_wrist_2_joint": 0.8935470587038994,
        "distance_wrist_3_joint": 3.1618375295677943,
        "smoothness": 0.017906965679769387,
        "time": 0.067059411,
        "traj_len": 3.611370987054416,
        "weighted_distance": 4.676835906192663
    },
    "planner": "KPIECE",
    "start": {
        "state": {
            "elbow_joint": 1.8268400409724999,
            "shoulder_lift_joint": -1.0144045787793008,
            "shoulder_pan_joint": 2.6280239544362485,
            "wrist_1_joint": -0.790705565816056,
            "wrist_2_joint": 1.0573557467365533,
            "wrist_3_joint": 3.1851377467193758
        }
    },
    "waypoints": [
        {
            "positions": [
                2.6280239544362485,
                -1.0144045787793008,
                1.8268400409724999,
                -0.790705565816056,
                1.0573557467365533,
                3.1851377467193758
            ]
        },
        {
            "positions": [
                2.581793362964959,
                -1.0324289804234212,
                1.7362582536948215,
                -0.7152744922428388,
                1.0169848479202792,
                3.0741890050820913
            ]
        },
        {
            "positions": [
                2.5355627714936704,
                -1.0504533820675415,
                1.6456764664171428,
                -0.6398434186696216,
                0.976613949104005,
                2.9632402634448063
            ]
        },
        {
            "positions": [
                2.489332180022381,
                -1.068477783711662,
                1.5550946791394644,
                -0.5644123450964043,
                0.9362430502877309,
                2.8522915218075218
            ]
        },
        {
            "positions": [
                2.443101588551092,
                -1.0865021853557824,
                1.464512891861786,
                -0.48898127152318704,
                0.8958721514714567,
                2.741342780170237
            ]
        },
        {
            "positions": [
                2.3968709970798026,
                -1.1045265869999028,
                1.3739311045841074,
                -0.41355019794996983,
                0.8555012526551826,
                2.6303940385329523
            ]
        },
        {
            "positions": [
                2.3506404056085137,
                -1.122550988644023,
                1.283349317306429,
                -0.3381191243767526,
                0.8151303538389085,
                2.5194452968956678
            ]
        },
        {
            "positions": [
                2.3044098141372245,
                -1.1405753902881435,
                1.1927675300287506,
                -0.2626880508035354,
                0.7747594550226344,
                2.408496555258383
            ]
        },
        {
            "positions": [
                2.258179222665935,
                -1.158599791932264,
                1.1021857427510722,
                -0.1872569772303181,
                0.7343885562063601,
                2.2975478136210983
            ]
        },
        {
            "positions": [
                2.2119486311946464,
                -1.1766241935763841,
                1.0116039554733935,
                -0.11182590365710088,
                0.694017657390086,
                2.1865990719838133
            ]
        },
        {
            "positions": [
                2.165718039723357,
                -1.1946485952205046,
                0.9210221681957151,
                -0.03639483008388367,
                0.6536467585738119,
                2.075650330346529
            ]
        },
        {
            "positions": [
                2.119487448252068,
                -1.212672996864625,
                0.8304403809180366,
                0.039036243489333655,
                0.6132758597575378,
                1.964701588709244
            ]
        },
        {
            "positions": [
                2.073256856780779,
                -1.2306973985087453,
                0.7398585936403583,
                0.11446731706255076,
                0.5729049609412638,
                1.8537528470719595
            ]
        },
        {
            "positions": [
                2.0270262653094897,
                -1.2487218001528657,
                0.6492768063626797,
                0.18989839063576808,
                0.5325340621249895,
                1.7428041054346746
            ]
        },
        {
            "positions": [
                1.9807956738382004,
                -1.2667462017969862,
                0.5586950190850013,
                0.2653294642089852,
                0.49216316330871546,
                1.63185536379739
            ]
        },
        {
            "positions": [
                1.9345650823669114,
                -1.2847706034411064,
                0.4681132318073229,
                0.3407605377822025,
                0.45179226449244125,
                1.5209066221601053
            ]
        },
        {
            "positions": [
                1.8883344908956223,
                -1.3027950050852268,
                0.37753144452964427,
                0.4161916113554198,
                0.41142136567616705,
                1.4099578805228206
            ]
        },
        {
            "positions": [
                1.842103899424333,
                -1.3208194067293473,
                0.28694965725196586,
                0.4916226849286369,
                0.37105046685989296,
                1.299009138885536
            ]
        },
        {
            "positions": [
                1.7958733079530438,
                -1.3388438083734677,
                0.19636786997428723,
                0.5670537585018542,
                0.33067956804361887,
                1.188060397248251
            ]
        },
        {
            "positions": [
                1.749642716481755,
                -1.356868210017588,
                0.10578608269660905,
                0.6424848320750713,
                0.2903086692273448,
                1.0771116556109668
            ]
        },
        {
            "positions": [
                1.7034121250104657,
                -1.3748926116617084,
                0.015204295418930314,
                0.7179159056482888,
                0.24993777041107057,
                0.9661629139736816
            ]
        },
        {
            "positions": [
                1.5696785667993196,
                -1.4496760939487856,
                -0.08172928126355068,
                0.7104194700760937,
                0.2437856930983265,
                0.8988155784863887
            ]
        },
        {
            "positions": [
                1.4359450085881735,
                -1.5244595762358626,
                -0.17866285794603168,
                0.7029230345038987,
                0.23763361578558245,
                0.8314682429990958
            ]
        },
        {
            "positions": [
                1.3022114503770275,
                -1.5992430585229398,
                -0.2755964346285127,
                0.6954265989317037,
                0.2314815384728384,
                0.7641209075118031
            ]
        },
        {
            "positions": [
                1.1684778921658814,
                -1.674026540810017,
                -0.37253001131099367,
                0.6879301633595086,
                0.22532946116009434,
                0.6967735720245102
            ]
        },
        {
            "positions": [
                1.0347443339547353,
                -1.7488100230970942,
                -0.4694635879934747,
                0.6804337277873136,
                0.21917738384735025,
                0.6294262365372173
            ]
        },
        {
            "positions": [
                0.9010107757435895,
                -1.8235935053841712,
                -0.5663971646759557,
                0.6729372922151186,
                0.2130253065346062,
                0.5620789010499245
            ]
        },
        {
            "positions": [
                0.7672772175324434,
                -1.8983769876712484,
                -0.6633307413584367,
                0.6654408566429235,
                0.20687322922186213,
                0.4947315655626316
            ]
        },
        {
            "positions": [
                0.6335436593212973,
                -1.9731604699583256,
                -0.7602643180409177,
                0.6579444210707285,
                0.20072115190911807,
                0.42738423007533877
            ]
        },
        {
            "positions": [
                0.49981010111015123,
                -2.0479439522454026,
                -0.8571978947233988,
                0.6504479854985334,
                0.19456907459637401,
                0.3600368945880459
            ]
        },
        {
            "positions": [
                0.36607654289900515,
                -2.1227274345324796,
                -0.9541314714058797,
                0.6429515499263384,
                0.18841699728362993,
                0.292689559100753
            ]
        },
        {
            "positions": [
                0.2323429846878593,
                -2.197510916819557,
                -1.0510650480883608,
                0.6354551143541434,
                0.1822649199708859,
                0.22534222361346012
            ]
        },
        {
            "positions": [
                0.09860942647671322,
                -2.272294399106634,
                -1.1479986247708416,
                0.6279586787819483,
                0.1761128426581418,
                0.15799488812616735
            ]
        },
        {
            "positions": [
                -0.03512413173443285,
                -2.3470778813937114,
                -1.2449322014533228,
                0.6204622432097533,
                0.16996076534539775,
                0.09064755263887447
            ]
        },
        {
            "positions": [
                -0.1688576899455789,
                -2.4218613636807884,
                -1.3418657781358037,
                0.6129658076375583,
                0.1638086880326537,
                0.02330021715158155
            ]
        }
    ]
}