{
    "goal": {
        "global_pose": {
            "orientation": {
                "w": -0.4816463035849501,
                "x": 0.5182115481033762,
                "y": 0.4908360881923453,
                "z": -0.5084816262002911
            },
            "position": {
                "x": -0.8240239810943604,
                "y": -0.300875300988555,
                "z": 0.16403168439865112
            }
        },
        "name": "move_to_storage_C"
    },
    "id": "KPIECE_move_to_storage_C_66",
    "joint_names": [
        "shoulder_pan_joint",
        "shoulder_lift_joint",
        "elbow_joint",
        "wrist_1_joint",
        "wrist_2_joint",
        "wrist_3_joint"
    ],
    "metrics": {
        "cart_traj_len": 0.5769802864849256,
        "distance_elbow_joint": 0.2617483269643708,
        "distance_shoulder_lift_joint": 0.18946172794262128,
        "distance_shoulder_pan_joint": 0.4933726176889084,
        "distance_wrist_1_joint": 0.08989919780163169,
        "distance_wrist_2_joint": 1.0793739118370373,
        "distance_wrist_3_joint": 0.0649683571324422,
        "smoothness": 2.5376526478085547e-16,
        "time": 0.061016751999999994,
        "traj_len": 1.4760840556577433,
        "weighted_distance": 1.864948783015385
    },
    "planner": "KPIECE",
    "start": {
        "state": {
            "elbow_joint": 2.010868315001653,
            "shoulder_lift_joint": -1.1634956873357014,
            "shoulder_pan_joint": -2.4736205022346103,
            "wrist_1_joint": -0.8367026794713948,
            "wrist_2_joint": 0.6746043897044093,
            "wrist_3_joint": 3.1335220948105738
        }
    },
    "waypoints": [
        {
            "positions": [
                -2.4736205022346103,
                -1.1634956873357014,
                2.010868315001653,
                -0.8367026794713948,
                0.6746043897044093,
                3.1335220948105738
            ]
        },
        {
            "positions": [
                -2.5558492718494286,
                -1.1319187326785978,
                1.9672435938409247,
                -0.8217194798377895,
                0.8545000416772488,
                3.1443501543326473
            ]
        },
        {
            "positions": [
                -2.6380780414642464,
                -1.1003417780214944,
                1.9236188726801962,
                -0.8067362802041842,
                1.0343956936500884,
                3.1551782138547213
            ]
        },
        {
            "positions": [
                -2.7203068110790642,
                -1.0687648233643907,
                1.8799941515194676,
                -0.7917530805705789,
                1.2142913456229278,
                3.166006273376795
            ]
        },
        {
            "positions": [
                -2.8025355806938825,
                -1.0371878687072873,
                1.8363694303587392,
                -0.7767698809369736,
                1.3941869975957675,
                3.1768343328988684
            ]
        },
        {
            "positions": [
                -2.884764350308701,
                -1.0056109140501837,
                1.7927447091980109,
                -0.7617866813033684,
                1.574082649568607,
                3.1876623924209424
            ]
        },
        {
            "positions": [
                -2.9669931199235187,
                -0.9740339593930801,
                1.7491199880372823,
                -0.7468034816697631,
                1.7539783015414467,
                3.198490451943016
            ]
        }
    ]
}