{
    "goal": {
        "global_pose": {
            "orientation": {
                "w": -0.00223480608172531,
                "x": 0.0024358444001904467,
                "y": 0.7094548369677653,
                "z": -0.704743149386269
            },
            "position": {
                "x": 0.6205249238014221,
                "y": -0.6371506643295288,
                "z": 0.19426114857196808
            }
        },
        "name": "move_to_magneteinheit_B"
    },
    "id": "KPIECE_move_to_magneteinheit_B_104",
    "joint_names": [
        "shoulder_pan_joint",
        "shoulder_lift_joint",
        "elbow_joint",
        "wrist_1_joint",
        "wrist_2_joint",
        "wrist_3_joint"
    ],
    "metrics": {
        "cart_traj_len": 1.4538122568058625,
        "distance_elbow_joint": 0.7259324834873258,
        "distance_shoulder_lift_joint": 1.2437232676481114,
        "distance_shoulder_pan_joint": 1.620670594551497,
        "distance_wrist_1_joint": 2.6243965209640163,
        "distance_wrist_2_joint": 2.944254997877609,
        "distance_wrist_3_joint": 3.1566863758733428,
        "smoothness": 5.11375457056815e-16,
        "time": 0.24860496699999998,
        "traj_len": 3.509368068527709,
        "weighted_distance": 4.919114606409391
    },
    "planner": "KPIECE",
    "start": {
        "state": {
            "elbow_joint": 2.3935871308073637,
            "shoulder_lift_joint": -1.9085141043777403,
            "shoulder_pan_joint": 0.7066247067284167,
            "wrist_1_joint": -0.46782909355067076,
            "wrist_2_joint": 0.7096259085804283,
            "wrist_3_joint": -3.1358149275257428
        }
    },
    "waypoints": [
        {
            "positions": [
                0.7066247067284167,
                -1.9085141043777403,
                2.3935871308073637,
                -0.46782909355067076,
                0.7096259085804283,
                -3.1358149275257428
            ]
        },
        {
            "positions": [
                0.6559787506486824,
                -1.8696477522637367,
                2.3709017406983848,
                -0.38581670227054526,
                0.617617939896753,
                -3.0371684782797006
            ]
        },
        {
            "positions": [
                0.6053327945689482,
                -1.8307814001497333,
                2.348216350589406,
                -0.3038043109904197,
                0.5256099712130777,
                -2.938522029033659
            ]
        },
        {
            "positions": [
                0.5546868384892139,
                -1.7919150480357298,
                2.325530960480427,
                -0.22179191971029422,
                0.43360200252940245,
                -2.8398755797876167
            ]
        },
        {
            "positions": [
                0.5040408824094795,
                -1.7530486959217264,
                2.302845570371448,
                -0.13977952843016872,
                0.3415940338457272,
                -2.741229130541575
            ]
        },
        {
            "positions": [
                0.4533949263297453,
                -1.7141823438077228,
                2.280160180262469,
                -0.057767137150043224,
                0.2495860651620519,
                -2.642582681295533
            ]
        },
        {
            "positions": [
                0.402748970250011,
                -1.6753159916937195,
                2.2574747901534904,
                0.024245254130082328,
                0.15757809647837662,
                -2.543936232049491
            ]
        },
        {
            "positions": [
                0.35210301417027673,
                -1.636449639579716,
                2.2347894000445114,
                0.10625764541020782,
                0.06557012779470128,
                -2.445289782803449
            ]
        },
        {
            "positions": [
                0.30145705809054246,
                -1.5975832874657123,
                2.2121040099355325,
                0.18827003669033332,
                -0.02643784088897394,
                -2.346643333557407
            ]
        },
        {
            "positions": [
                0.2508111020108082,
                -1.558716935351709,
                2.1894186198265535,
                0.2702824279704588,
                -0.11844580957264916,
                -2.247996884311365
            ]
        },
        {
            "positions": [
                0.20016514593107393,
                -1.5198505832377056,
                2.1667332297175745,
                0.3522948192505843,
                -0.2104537782563245,
                -2.1493504350653234
            ]
        },
        {
            "positions": [
                0.1495191898513396,
                -1.480984231123702,
                2.1440478396085956,
                0.4343072105307098,
                -0.30246174693999983,
                -2.0507039858192813
            ]
        },
        {
            "positions": [
                0.09887323377160528,
                -1.4421178790096985,
                2.1213624494996166,
                0.5163196018108354,
                -0.39446971562367505,
                -1.952057536573239
            ]
        },
        {
            "positions": [
                0.04822727769187107,
                -1.403251526895695,
                2.0986770593906376,
                0.5983319930909607,
                -0.4864776843073503,
                -1.8534110873271972
            ]
        },
        {
            "positions": [
                -0.002418678387863249,
                -1.3643851747816915,
                2.0759916692816587,
                0.6803443843710864,
                -0.5784856529910257,
                -1.7547646380811552
            ]
        },
        {
            "positions": [
                -0.05306463446759746,
                -1.325518822667688,
                2.0533062791726797,
                0.7623567756512117,
                -0.670493621674701,
                -1.6561181888351133
            ]
        },
        {
            "positions": [
                -0.10371059054733178,
                -1.2866524705536846,
                2.0306208890637008,
                0.8443691669313373,
                -0.7625015903583762,
                -1.5574717395890714
            ]
        },
        {
            "positions": [
                -0.1543565466270661,
                -1.2477861184396812,
                2.007935498954722,
                0.926381558211463,
                -0.8545095590420514,
                -1.4588252903430294
            ]
        },
        {
            "positions": [
                -0.20500250270680032,
                -1.2089197663256777,
                1.985250108845743,
                1.0083939494915883,
                -0.9465175277257266,
                -1.3601788410969875
            ]
        },
        {
            "positions": [
                -0.25564845878653464,
                -1.170053414211674,
                1.962564718736764,
                1.090406340771714,
                -1.038525496409402,
                -1.2615323918509456
            ]
        },
        {
            "positions": [
                -0.30629441486626885,
                -1.1311870620976707,
                1.9398793286277851,
                1.1724187320518393,
                -1.1305334650930772,
                -1.1628859426049036
            ]
        },
        {
            "positions": [
                -0.35694037094600317,
                -1.0923207099836671,
                1.9171939385188062,
                1.254431123331965,
                -1.2225414337767524,
                -1.0642394933588615
            ]
        },
        {
            "positions": [
                -0.4075863270257375,
                -1.0534543578696636,
                1.8945085484098274,
                1.3364435146120903,
                -1.314549402460428,
                -0.9655930441128198
            ]
        },
        {
            "positions": [
                -0.4582322831054718,
                -1.0145880057556602,
                1.8718231583008484,
                1.418455905892216,
                -1.4065573711441033,
                -0.8669465948667776
            ]
        },
        {
            "positions": [
                -0.5088782391852061,
                -0.9757216536416567,
                1.8491377681918695,
                1.5004682971723415,
                -1.4985653398277785,
                -0.7683001456207355
            ]
        },
        {
            "positions": [
                -0.5595241952649402,
                -0.9368553015276533,
                1.8264523780828905,
                1.582480688452467,
                -1.5905733085114537,
                -0.6696536963746937
            ]
        },
        {
            "positions": [
                -0.6101701513446746,
                -0.8979889494136497,
                1.8037669879739116,
                1.6644930797325923,
                -1.682581277195129,
                -0.5710072471286516
            ]
        },
        {
            "positions": [
                -0.6608161074244089,
                -0.8591225972996464,
                1.7810815978649326,
                1.7465054710127181,
                -1.7745892458788042,
                -0.4723607978826099
            ]
        },
        {
            "positions": [
                -0.7114620635041432,
                -0.8202562451856428,
                1.7583962077559536,
                1.8285178622928435,
                -1.8665972145624798,
                -0.3737143486365677
            ]
        },
        {
            "positions": [
                -0.7621080195838775,
                -0.7813898930716394,
                1.7357108176469747,
                1.910530253572969,
                -1.958605183246155,
                -0.275067899390526
            ]
        },
        {
            "positions": [
                -0.8127539756636116,
                -0.7425235409576358,
                1.7130254275379957,
                1.9925426448530943,
                -2.0506131519298303,
                -0.17642145014448385
            ]
        },
        {
            "positions": [
                -0.863399931743346,
                -0.7036571888436325,
                1.690340037429017,
                2.07455503613322,
                -2.1426211206135055,
                -0.07777500089844214
            ]
        },
        {
            "positions": [
                -0.9140458878230802,
                -0.6647908367296288,
                1.667654647320038,
                2.1565674274133455,
                -2.2346290892971807,
                0.020871448347600206
            ]
        }
    ]
}