{
    "goal": {
        "global_pose": {
            "orientation": {
                "w": 0.7047431468963623,
                "x": -0.7094548344612122,
                "y": 0.0024358443915843964,
                "z": -0.0022348060738295317
            },
            "position": {
                "x": 0.6094750761985779,
                "y": 0.3671506643295288,
                "z": 0.19426114857196808
            }
        },
        "name": "move_to_magneteinheit_A"
    },
    "id": "KPIECE_move_to_magneteinheit_A_134",
    "joint_names": [
        "shoulder_pan_joint",
        "shoulder_lift_joint",
        "elbow_joint",
        "wrist_1_joint",
        "wrist_2_joint",
        "wrist_3_joint"
    ],
    "metrics": {
        "cart_traj_len": 1.0525449583031175,
        "distance_elbow_joint": 0.3944014137380911,
        "distance_shoulder_lift_joint": 0.35925970259039586,
        "distance_shoulder_pan_joint": 1.2412959976916749,
        "distance_wrist_1_joint": 2.2570700763308005,
        "distance_wrist_2_joint": 1.6959428645458916,
        "distance_wrist_3_joint": 1.1869119082899693,
        "smoothness": 0.0,
        "time": 0.033042852,
        "traj_len": 2.671119982926043,
        "weighted_distance": 3.669021493619716
    },
    "planner": "KPIECE",
    "start": {
        "state": {
            "elbow_joint": 1.5739458966750683,
            "shoulder_lift_joint": -1.4977259741207325,
            "shoulder_pan_joint": -1.1188672016454206,
            "wrist_1_joint": 1.494575848278785,
            "wrist_2_joint": -1.5706037134824402,
            "wrist_3_joint": -2.0226957942261072
        }
    },
    "waypoints": [
        {
            "positions": [
                -1.1188672016454206,
                -1.4977259741207325,
                1.5739458966750683,
                1.494575848278785,
                -1.5706037134824402,
                -2.0226957942261072
            ]
        },
        {
            "positions": [
                -1.0535358333458589,
                -1.478817568721238,
                1.5947038658191783,
                1.3757826863666376,
                -1.481343562716867,
                -2.0851648420308426
            ]
        },
        {
            "positions": [
                -0.988204465046297,
                -1.4599091633217434,
                1.6154618349632885,
                1.2569895244544902,
                -1.3920834119512937,
                -2.1476338898355776
            ]
        },
        {
            "positions": [
                -0.9228730967467351,
                -1.441000757922249,
                1.6362198041073985,
                1.1381963625423428,
                -1.3028232611857204,
                -2.210102937640313
            ]
        },
        {
            "positions": [
                -0.8575417284471734,
                -1.4220923525227545,
                1.6569777732515085,
                1.0194032006301954,
                -1.2135631104201472,
                -2.2725719854450483
            ]
        },
        {
            "positions": [
                -0.7922103601476115,
                -1.40318394712326,
                1.6777357423956187,
                0.900610038718048,
                -1.124302959654574,
                -2.3350410332497833
            ]
        },
        {
            "positions": [
                -0.7268789918480496,
                -1.3842755417237653,
                1.6984937115397287,
                0.7818168768059006,
                -1.035042808889001,
                -2.3975100810545187
            ]
        },
        {
            "positions": [
                -0.6615476235484878,
                -1.365367136324271,
                1.7192516806838387,
                0.6630237148937532,
                -0.9457826581234275,
                -2.4599791288592536
            ]
        },
        {
            "positions": [
                -0.596216255248926,
                -1.3464587309247764,
                1.740009649827949,
                0.5442305529816058,
                -0.8565225073578543,
                -2.522448176663989
            ]
        },
        {
            "positions": [
                -0.5308848869493642,
                -1.3275503255252818,
                1.760767618972059,
                0.42543739106945844,
                -0.767262356592281,
                -2.5849172244687244
            ]
        },
        {
            "positions": [
                -0.4655535186498023,
                -1.3086419201257873,
                1.781525588116169,
                0.30664422915731104,
                -0.6780022058267078,
                -2.6473862722734594
            ]
        },
        {
            "positions": [
                -0.40022215035024045,
                -1.2897335147262927,
                1.802283557260279,
                0.18785106724516365,
                -0.5887420550611345,
                -2.7098553200781947
            ]
        },
        {
            "positions": [
                -0.3348907820506787,
                -1.2708251093267984,
                1.823041526404389,
                0.06905790533301626,
                -0.4994819042955614,
                -2.7723243678829297
            ]
        },
        {
            "positions": [
                -0.2695594137511168,
                -1.2519167039273038,
                1.843799495548499,
                -0.04973525657913114,
                -0.41022175352998813,
                -2.834793415687665
            ]
        },
        {
            "positions": [
                -0.20422804545155504,
                -1.2330082985278092,
                1.864557464692609,
                -0.16852841849127853,
                -0.3209616027644149,
                -2.8972624634924005
            ]
        },
        {
            "positions": [
                -0.13889667715199305,
                -1.2140998931283147,
                1.8853154338367193,
                -0.2873215804034259,
                -0.23170145199884162,
                -2.959731511297136
            ]
        },
        {
            "positions": [
                -0.07356530885243129,
                -1.1951914877288203,
                1.9060734029808293,
                -0.4061147423155733,
                -0.14244130123326837,
                -3.022200559101871
            ]
        },
        {
            "positions": [
                -0.008233940552869523,
                -1.1762830823293258,
                1.9268313721249393,
                -0.5249079042277207,
                -0.053181150467695115,
                -3.084669606906606
            ]
        },
        {
            "positions": [
                0.05709742774669224,
                -1.1573746769298312,
                1.9475893412690493,
                -0.6437010661398681,
                0.03607900029787814,
                -3.147138654711341
            ]
        },
        {
            "positions": [
                0.12242879604625419,
                -1.1384662715303366,
                1.9683473104131595,
                -0.7624942280520154,
                0.12533915106345142,
                -3.2096077025160765
            ]
        }
    ]
}