{
    "goal": {
        "global_pose": {
            "orientation": {
                "w": -0.4816463035849501,
                "x": 0.5182115481033762,
                "y": 0.4908360881923453,
                "z": -0.5084816262002911
            },
            "position": {
                "x": -0.8240239810943604,
                "y": -0.300875300988555,
                "z": 0.16403168439865112
            }
        },
        "name": "move_to_storage_C"
    },
    "id": "KPIECE_move_to_storage_C_9",
    "joint_names": [
        "shoulder_pan_joint",
        "shoulder_lift_joint",
        "elbow_joint",
        "wrist_1_joint",
        "wrist_2_joint",
        "wrist_3_joint"
    ],
    "metrics": {
        "cart_traj_len": 0.5761160553338994,
        "distance_elbow_joint": 0.2553484037698135,
        "distance_shoulder_lift_joint": 0.18873939023746855,
        "distance_shoulder_pan_joint": 0.49388564840359495,
        "distance_wrist_1_joint": 0.06650592610743722,
        "distance_wrist_2_joint": 1.069217664768086,
        "distance_wrist_3_joint": 0.06521704497723402,
        "smoothness": 0.0,
        "time": 0.017847822,
        "traj_len": 1.4625026763269988,
        "weighted_distance": 1.8452836527465435
    },
    "planner": "KPIECE",
    "start": {
        "state": {
            "elbow_joint": 2.010868315001653,
            "shoulder_lift_joint": -1.1634956873357014,
            "shoulder_pan_joint": -2.4736205022346103,
            "wrist_1_joint": -0.8367026794713948,
            "wrist_2_joint": 0.6746043897044093,
            "wrist_3_joint": 3.1335220948105738
        }
    },
    "waypoints": [
        {
            "positions": [
                -2.4736205022346103,
                -1.1634956873357014,
                2.010868315001653,
                -0.8367026794713948,
                0.6746043897044093,
                3.1335220948105738
            ]
        },
        {
            "positions": [
                -2.5559347769685425,
                -1.1320391222961232,
                1.9683102477066843,
                -0.8256183584534885,
                0.8528073338324236,
                3.1443916023067793
            ]
        },
        {
            "positions": [
                -2.6382490517024753,
                -1.1005825572565453,
                1.9257521804117153,
                -0.8145340374355824,
                1.031010277960438,
                3.1552611098029852
            ]
        },
        {
            "positions": [
                -2.720563326436408,
                -1.0691259922169671,
                1.8831941131167462,
                -0.8034497164176762,
                1.2092132220884522,
                3.1661306172991908
            ]
        },
        {
            "positions": [
                -2.8028776011703402,
                -1.037669427177389,
                1.8406360458217774,
                -0.7923653953997699,
                1.3874161662164666,
                3.1770001247953963
            ]
        },
        {
            "positions": [
                -2.8851918759042725,
                -1.006212862137811,
                1.7980779785268086,
                -0.7812810743818638,
                1.565619110344481,
                3.1878696322916023
            ]
        },
        {
            "positions": [
                -2.967506150638205,
                -0.9747562970982329,
                1.7555199112318396,
                -0.7701967533639575,
                1.7438220544724954,
                3.1987391397878078
            ]
        }
    ]
}