{
    "goal": {
        "global_pose": {
            "orientation": {
                "w": 0.5084816217422485,
                "x": -0.49083608388900757,
                "y": 0.5182115435600281,
                "z": -0.4816462993621826
            },
            "position": {
                "x": 0.5540239810943604,
                "y": 0.030875300988554955,
                "z": 0.16403168439865112
            }
        },
        "name": "move_to_storage_A"
    },
    "id": "KPIECE_move_to_storage_A_75",
    "joint_names": [
        "shoulder_pan_joint",
        "shoulder_lift_joint",
        "elbow_joint",
        "wrist_1_joint",
        "wrist_2_joint",
        "wrist_3_joint"
    ],
    "metrics": {
        "cart_traj_len": 0.3540377190059092,
        "distance_elbow_joint": 0.4530539954939683,
        "distance_shoulder_lift_joint": 0.23392229852480328,
        "distance_shoulder_pan_joint": 0.4649054255058521,
        "distance_wrist_1_joint": 0.2575088854401756,
        "distance_wrist_2_joint": 1.0921657816187191,
        "distance_wrist_3_joint": 0.10268463680384388,
        "smoothness": 4.440892098500626e-16,
        "time": 0.06212880800000001,
        "traj_len": 1.6137660993425789,
        "weighted_distance": 2.039432510296417
    },
    "planner": "KPIECE",
    "start": {
        "state": {
            "elbow_joint": 1.9715474177455299,
            "shoulder_lift_joint": -1.139484666580328,
            "shoulder_pan_joint": 0.12281154398918248,
            "wrist_1_joint": -0.7804687475355282,
            "wrist_2_joint": 0.12958649657246987,
            "wrist_3_joint": -3.1924925159053466
        }
    },
    "waypoints": [
        {
            "positions": [
                0.12281154398918248,
                -1.139484666580328,
                1.9715474177455299,
                -0.7804687475355282,
                0.12958649657246987,
                -3.1924925159053466
            ]
        },
        {
            "positions": [
                0.056396483202632186,
                -1.172902137798157,
                2.036269417101811,
                -0.817255731169839,
                0.28561017966085833,
                -3.177823282076226
            ]
        },
        {
            "positions": [
                -0.010018577583918109,
                -1.206319609015986,
                2.100991416458092,
                -0.8540427148041498,
                0.44163386274924676,
                -3.1631540482471054
            ]
        },
        {
            "positions": [
                -0.0764336383704684,
                -1.239737080233815,
                2.1657134158143734,
                -0.8908296984384606,
                0.5976575458376352,
                -3.148484814417985
            ]
        },
        {
            "positions": [
                -0.1428486991570187,
                -1.2731545514516442,
                2.2304354151706547,
                -0.9276166820727714,
                0.7536812289260236,
                -3.1338155805888643
            ]
        },
        {
            "positions": [
                -0.20926375994356905,
                -1.3065720226694733,
                2.295157414526936,
                -0.9644036657070822,
                0.9097049120144122,
                -3.119146346759744
            ]
        },
        {
            "positions": [
                -0.2756788207301193,
                -1.3399894938873023,
                2.359879413883217,
                -1.001190649341393,
                1.0657285951028004,
                -3.1044771129306232
            ]
        },
        {
            "positions": [
                -0.34209388151666964,
                -1.3734069651051313,
                2.424601413239498,
                -1.0379776329757038,
                1.221752278191189,
                -3.0898078791015027
            ]
        }
    ]
}