{
    "goal": {
        "global_pose": {
            "orientation": {
                "w": 0.005598929693374612,
                "x": 0.007748599140229565,
                "y": 0.7110244013736278,
                "z": -0.7031023480610252
            },
            "position": {
                "x": 0.1141497679147869,
                "y": -0.7141253447532654,
                "z": 0.3711530566215515
            }
        },
        "name": "move_to_auspresseinheit_B"
    },
    "id": "KPIECE_move_to_auspresseinheit_B_131",
    "joint_names": [
        "shoulder_pan_joint",
        "shoulder_lift_joint",
        "elbow_joint",
        "wrist_1_joint",
        "wrist_2_joint",
        "wrist_3_joint"
    ],
    "metrics": {
        "cart_traj_len": 0.5651518168879305,
        "distance_elbow_joint": 0.0649730207410586,
        "distance_shoulder_lift_joint": 0.2944490091641119,
        "distance_shoulder_pan_joint": 0.5768772906580897,
        "distance_wrist_1_joint": 0.3324904725039609,
        "distance_wrist_2_joint": 0.994840102565449,
        "distance_wrist_3_joint": 0.008861041164255123,
        "smoothness": 2.5376526478085547e-16,
        "time": 0.264318952,
        "traj_len": 1.507478337090429,
        "weighted_distance": 1.9019841203845118
    },
    "planner": "KPIECE",
    "start": {
        "state": {
            "elbow_joint": 2.019306165916698,
            "shoulder_lift_joint": -1.1220205098164344,
            "shoulder_pan_joint": -1.095207207618794,
            "wrist_1_joint": -0.8559671824921639,
            "wrist_2_joint": 0.47596387242952726,
            "wrist_3_joint": 3.159081874673826
        }
    },
    "waypoints": [
        {
            "positions": [
                -1.095207207618794,
                -1.1220205098164344,
                2.019306165916698,
                -0.8559671824921639,
                0.47596387242952726,
                3.159081874673826
            ]
        },
        {
            "positions": [
                -1.1913534227284757,
                -1.1710953446771197,
                2.0084773291265217,
                -0.8005521037415038,
                0.6417705561904354,
                3.1576050344797832
            ]
        },
        {
            "positions": [
                -1.2874996378381571,
                -1.220170179537805,
                1.9976484923363451,
                -0.7451370249908436,
                0.8075772399513436,
                3.1561281942857407
            ]
        },
        {
            "positions": [
                -1.3836458529478388,
                -1.2692450143984904,
                1.9868196555461686,
                -0.6897219462401833,
                0.9733839237122517,
                3.1546513540916985
            ]
        },
        {
            "positions": [
                -1.4797920680575203,
                -1.3183198492591757,
                1.9759908187559923,
                -0.6343068674895233,
                1.13919060747316,
                3.153174513897656
            ]
        },
        {
            "positions": [
                -1.575938283167202,
                -1.367394684119861,
                1.965161981965816,
                -0.5788917887388632,
                1.3049972912340682,
                3.1516976737036133
            ]
        },
        {
            "positions": [
                -1.6720844982768837,
                -1.4164695189805463,
                1.9543331451756394,
                -0.523476709988203,
                1.4708039749949762,
                3.1502208335095707
            ]
        }
    ]
}