{
    "goal": {
        "global_pose": {
            "orientation": {
                "w": 0.5084816262002911,
                "x": -0.4908360881923452,
                "y": 0.5182115481033761,
                "z": -0.48164630358495003
            },
            "position": {
                "x": 0.5540239810943604,
                "y": -0.46912469901144505,
                "z": 0.16403168439865112
            }
        },
        "name": "move_to_storage_B"
    },
    "id": "KPIECE_move_to_storage_B_37",
    "joint_names": [
        "shoulder_pan_joint",
        "shoulder_lift_joint",
        "elbow_joint",
        "wrist_1_joint",
        "wrist_2_joint",
        "wrist_3_joint"
    ],
    "metrics": {
        "cart_traj_len": 1.1996875757284955,
        "distance_elbow_joint": 0.777702652284203,
        "distance_shoulder_lift_joint": 0.45902054802686365,
        "distance_shoulder_pan_joint": 0.9493699491578024,
        "distance_wrist_1_joint": 2.9840937917788364,
        "distance_wrist_2_joint": 2.7112022617498988,
        "distance_wrist_3_joint": 3.133750971346846,
        "smoothness": 0.13466192346639586,
        "time": 0.07119966,
        "traj_len": 3.318906472672053,
        "weighted_distance": 4.793530866758539
    },
    "planner": "KPIECE",
    "start": {
        "state": {
            "elbow_joint": 1.6649325706314817,
            "shoulder_lift_joint": -0.6616388048112454,
            "shoulder_pan_joint": -0.9139837860083814,
            "wrist_1_joint": 2.146757197745094,
            "wrist_2_joint": -2.234196043158733,
            "wrist_3_joint": 0.005471033829999897
        }
    },
    "waypoints": [
        {
            "positions": [
                -0.9139837860083814,
                -0.6616388048112454,
                1.6649325706314817,
                2.146757197745094,
                -2.234196043158733,
                0.005471033829999897
            ]
        },
        {
            "positions": [
                -0.8178601891079962,
                -0.7327312986673975,
                1.6115763255631461,
                2.1125205680682395,
                -2.101031690514509,
                0.011043920820134114
            ]
        },
        {
            "positions": [
                -0.7217365922076109,
                -0.8038237925235496,
                1.5582200804948103,
                2.0782839383913845,
                -1.9678673378702853,
                0.01661680781026833
            ]
        },
        {
            "positions": [
                -0.6256129953072256,
                -0.8749162863797018,
                1.5048638354264747,
                2.0440473087145294,
                -1.8347029852260617,
                0.022189694800402546
            ]
        },
        {
            "positions": [
                -0.5294893984068404,
                -0.9460087802358539,
                1.4515075903581391,
                2.009810679037675,
                -1.7015386325818378,
                0.027762581790536763
            ]
        },
        {
            "positions": [
                -0.5530258801383513,
                -0.9532858874276146,
                1.4750191600252582,
                1.8911795426596991,
                -1.6107659304496293,
                0.15740672443163295
            ]
        },
        {
            "positions": [
                -0.5765623618698622,
                -0.9605629946193751,
                1.4985307296923775,
                1.7725484062817234,
                -1.519993228317421,
                0.28705086707272914
            ]
        },
        {
            "positions": [
                -0.6000988436013731,
                -0.9678401018111358,
                1.5220422993594966,
                1.6539172699037477,
                -1.4292205261852122,
                0.4166950097138254
            ]
        },
        {
            "positions": [
                -0.6236353253328839,
                -0.9751172090028964,
                1.545553869026616,
                1.535286133525772,
                -1.3384478240530038,
                0.5463391523549216
            ]
        },
        {
            "positions": [
                -0.6471718070643948,
                -0.982394316194657,
                1.569065438693735,
                1.4166549971477962,
                -1.2476751219207953,
                0.675983294996018
            ]
        },
        {
            "positions": [
                -0.6707082887959057,
                -0.9896714233864177,
                1.5925770083608541,
                1.2980238607698205,
                -1.1569024197885867,
                0.8056274376371141
            ]
        },
        {
            "positions": [
                -0.6942447705274166,
                -0.9969485305781783,
                1.6160885780279735,
                1.1793927243918447,
                -1.0661297176563782,
                0.9352715802782103
            ]
        },
        {
            "positions": [
                -0.7177812522589275,
                -1.004225637769939,
                1.6396001476950925,
                1.0607615880138692,
                -0.9753570155241698,
                1.0649157229193063
            ]
        },
        {
            "positions": [
                -0.7413177339904384,
                -1.0115027449616996,
                1.6631117173622119,
                0.9421304516358935,
                -0.8845843133919613,
                1.1945598655604026
            ]
        },
        {
            "positions": [
                -0.7648542157219493,
                -1.0187798521534601,
                1.686623287029331,
                0.8234993152579178,
                -0.7938116112597527,
                1.324204008201499
            ]
        },
        {
            "positions": [
                -0.7883906974534602,
                -1.026056959345221,
                1.7101348566964503,
                0.704868178879942,
                -0.7030389091275443,
                1.4538481508425949
            ]
        },
        {
            "positions": [
                -0.8119271791849711,
                -1.0333340665369815,
                1.7336464263635694,
                0.5862370425019663,
                -0.6122662069953357,
                1.5834922934836912
            ]
        },
        {
            "positions": [
                -0.8354636609164819,
                -1.040611173728742,
                1.7571579960306885,
                0.4676059061239908,
                -0.5214935048631273,
                1.7131364361247874
            ]
        },
        {
            "positions": [
                -0.859000142647993,
                -1.0478882809205028,
                1.7806695656978078,
                0.3489747697460148,
                -0.4307208027309186,
                1.8427805787658837
            ]
        },
        {
            "positions": [
                -0.8825366243795038,
                -1.0551653881122633,
                1.8041811353649269,
                0.2303436333680391,
                -0.33994810059871017,
                1.9724247214069799
            ]
        },
        {
            "positions": [
                -0.9060731061110147,
                -1.062442495304024,
                1.827692705032046,
                0.11171249699006358,
                -0.24917539846650172,
                2.102068864048076
            ]
        },
        {
            "positions": [
                -0.9296095878425256,
                -1.0697196024957847,
                1.8512042746991653,
                -0.006918639387912595,
                -0.15840269633429305,
                2.2317130066891724
            ]
        },
        {
            "positions": [
                -0.9531460695740365,
                -1.0769967096875452,
                1.8747158443662846,
                -0.12554977576588788,
                -0.06762999420208482,
                2.3613571493302685
            ]
        },
        {
            "positions": [
                -0.9766825513055473,
                -1.0842738168793058,
                1.8982274140334037,
                -0.24418091214386362,
                0.02314270793012363,
                2.4910012919713647
            ]
        },
        {
            "positions": [
                -1.0002190330370582,
                -1.0915509240710666,
                1.9217389837005228,
                -0.36281204852183935,
                0.1139154100623323,
                2.6206454346124612
            ]
        },
        {
            "positions": [
                -1.023755514768569,
                -1.0988280312628271,
                1.945250553367642,
                -0.4814431848998151,
                0.20468811219454075,
                2.7502895772535574
            ]
        },
        {
            "positions": [
                -1.04729199650008,
                -1.1061051384545877,
                1.9687621230347612,
                -0.6000743212777908,
                0.2954608143267492,
                2.879933719894653
            ]
        },
        {
            "positions": [
                -1.0708284782315909,
                -1.1133822456463485,
                1.9922736927018803,
                -0.7187054576557665,
                0.3862335164589581,
                3.0095778625357497
            ]
        },
        {
            "positions": [
                -1.0943649599631018,
                -1.120659352838109,
                2.0157852623689996,
                -0.8373365940337422,
                0.47700621859116643,
                3.139222005176846
            ]
        }
    ]
}