{
    "goal": {
        "global_pose": {
            "orientation": {
                "w": 0.005598929693374612,
                "x": 0.007748599140229565,
                "y": 0.7110244013736278,
                "z": -0.7031023480610252
            },
            "position": {
                "x": -0.8858502320852131,
                "y": -0.7141253447532654,
                "z": 0.3711530566215515
            }
        },
        "name": "move_to_auspresseinheit_C"
    },
    "id": "KPIECE_move_to_auspresseinheit_C_91",
    "joint_names": [
        "shoulder_pan_joint",
        "shoulder_lift_joint",
        "elbow_joint",
        "wrist_1_joint",
        "wrist_2_joint",
        "wrist_3_joint"
    ],
    "metrics": {
        "cart_traj_len": 0.4921171118674845,
        "distance_elbow_joint": 0.9871405909268989,
        "distance_shoulder_lift_joint": 0.31857393767243536,
        "distance_shoulder_pan_joint": 0.2562196016873308,
        "distance_wrist_1_joint": 0.6547405707256723,
        "distance_wrist_2_joint": 1.3051469402452947,
        "distance_wrist_3_joint": 0.04998712537937422,
        "smoothness": 1.1304089016362698e-15,
        "time": 1.182090733,
        "traj_len": 1.8899229525663226,
        "weighted_distance": 2.373114099314806
    },
    "planner": "KPIECE",
    "start": {
        "state": {
            "elbow_joint": 1.752795957773711,
            "shoulder_lift_joint": -0.9740617694225064,
            "shoulder_pan_joint": -2.967991417825858,
            "wrist_1_joint": -0.7595177689806859,
            "wrist_2_joint": 1.7443932448377395,
            "wrist_3_joint": 3.199131542505932
        }
    },
    "waypoints": [
        {
            "positions": [
                -2.967991417825858,
                -0.9740617694225064,
                1.752795957773711,
                -0.7595177689806859,
                1.7443932448377395,
                3.199131542505932
            ]
        },
        {
            "positions": [
                -2.942369457657125,
                -0.9422043756552629,
                1.6540818986810213,
                -0.6940437119081186,
                1.61387855081321,
                3.1941328299679945
            ]
        },
        {
            "positions": [
                -2.916747497488392,
                -0.9103469818880193,
                1.5553678395883312,
                -0.6285696548355515,
                1.4833638567886807,
                3.1891341174300574
            ]
        },
        {
            "positions": [
                -2.8911255373196587,
                -0.8784895881207758,
                1.4566537804956414,
                -0.5630955977629842,
                1.352849162764151,
                3.1841354048921198
            ]
        },
        {
            "positions": [
                -2.8655035771509256,
                -0.8466321943535323,
                1.3579397214029516,
                -0.497621540690417,
                1.2223344687396216,
                3.1791366923541826
            ]
        },
        {
            "positions": [
                -2.8398816169821925,
                -0.8147748005862887,
                1.2592256623102616,
                -0.43214748361784977,
                1.0918197747150922,
                3.174137979816245
            ]
        },
        {
            "positions": [
                -2.8142596568134595,
                -0.7829174068190452,
                1.160511603217572,
                -0.36667342654528257,
                0.9613050806905628,
                3.1691392672783074
            ]
        },
        {
            "positions": [
                -2.7886376966447264,
                -0.7510600130518017,
                1.061797544124882,
                -0.30119936947271536,
                0.8307903866660333,
                3.1641405547403703
            ]
        },
        {
            "positions": [
                -2.7630157364759933,
                -0.7192026192845582,
                0.963083485032192,
                -0.23572531240014805,
                0.7002756926415037,
                3.1591418422024327
            ]
        },
        {
            "positions": [
                -2.73739377630726,
                -0.6873452255173146,
                0.8643694259395021,
                -0.1702512553275809,
                0.5697609986169743,
                3.1541431296644955
            ]
        },
        {
            "positions": [
                -2.711771816138527,
                -0.6554878317500711,
                0.7656553668468122,
                -0.10477719825501368,
                0.43924630459244485,
                3.149144417126558
            ]
        }
    ]
}