{
    "goal": {
        "global_pose": {
            "orientation": {
                "w": 0.7031023502349854,
                "x": -0.7110244035720825,
                "y": 0.007748599164187908,
                "z": 0.005598929710686207
            },
            "position": {
                "x": 0.11585023208521307,
                "y": 0.44412534475326537,
                "z": 0.3711530566215515
            }
        },
        "name": "move_to_auspresseinheit_A"
    },
    "id": "KPIECE_move_to_auspresseinheit_A_112",
    "joint_names": [
        "shoulder_pan_joint",
        "shoulder_lift_joint",
        "elbow_joint",
        "wrist_1_joint",
        "wrist_2_joint",
        "wrist_3_joint"
    ],
    "metrics": {
        "cart_traj_len": 0.6950826097907726,
        "distance_elbow_joint": 0.09866620247957059,
        "distance_shoulder_lift_joint": 0.536398600104222,
        "distance_shoulder_pan_joint": 1.0446165466871558,
        "distance_wrist_1_joint": 0.5549163550765104,
        "distance_wrist_2_joint": 0.524300361957387,
        "distance_wrist_3_joint": 0.07417177406361608,
        "smoothness": 0.2165172931455649,
        "time": 1.288874905,
        "traj_len": 1.6831725521670264,
        "weighted_distance": 2.0151005199566576
    },
    "planner": "KPIECE",
    "start": {
        "state": {
            "elbow_joint": 2.4225747245308327,
            "shoulder_lift_joint": -1.373653427065438,
            "shoulder_pan_joint": -0.33786330853087027,
            "wrist_1_joint": -1.0288602302712604,
            "wrist_2_joint": 1.23302299562683,
            "wrist_3_joint": -3.094021725338297
        }
    },
    "waypoints": [
        {
            "positions": [
                -0.33786330853087027,
                -1.373653427065438,
                2.4225747245308327,
                -1.0288602302712604,
                1.23302299562683,
                -3.094021725338297
            ]
        },
        {
            "positions": [
                -0.2035375888053847,
                -1.435028168977903,
                2.411952762637394,
                -0.9392543495104859,
                1.158338789698006,
                -3.1027473667236247
            ]
        },
        {
            "positions": [
                -0.06921186907989912,
                -1.496402910890368,
                2.401330800743955,
                -0.8496484687497114,
                1.0836545837691818,
                -3.1114730081089523
            ]
        },
        {
            "positions": [
                0.06511385064558645,
                -1.557777652802833,
                2.390708838850516,
                -0.760042587988937,
                1.0089703778403578,
                -3.12019864949428
            ]
        },
        {
            "positions": [
                0.19943957037107202,
                -1.6191523947152981,
                2.3800868769570775,
                -0.6704367072281625,
                0.9342861719115338,
                -3.128924290879607
            ]
        },
        {
            "positions": [
                0.3337652900965576,
                -1.6805271366277632,
                2.3694649150636384,
                -0.580830826467388,
                0.8596019659827097,
                -3.1376499322649347
            ]
        },
        {
            "positions": [
                0.46809100982204316,
                -1.7419018785402283,
                2.3588429531701998,
                -0.49122494570661357,
                0.7849177600538857,
                -3.1463755736502623
            ]
        },
        {
            "positions": [
                0.5874221239891644,
                -1.825976952854944,
                2.3763101687296686,
                -0.4825844104506818,
                0.7468201968616643,
                -3.135466610774437
            ]
        },
        {
            "positions": [
                0.7067532381562855,
                -1.91005202716966,
                2.3937773842891374,
                -0.47394387519475,
                0.7087226336694429,
                -3.1245576478986115
            ]
        }
    ]
}