{
    "goal": {
        "global_pose": {
            "orientation": {
                "w": 0.005598929693374612,
                "x": 0.007748599140229565,
                "y": 0.7110244013736278,
                "z": -0.7031023480610252
            },
            "position": {
                "x": -0.8858502320852131,
                "y": -0.7141253447532654,
                "z": 0.3711530566215515
            }
        },
        "name": "move_to_auspresseinheit_C"
    },
    "id": "KPIECE_move_to_auspresseinheit_C_90",
    "joint_names": [
        "shoulder_pan_joint",
        "shoulder_lift_joint",
        "elbow_joint",
        "wrist_1_joint",
        "wrist_2_joint",
        "wrist_3_joint"
    ],
    "metrics": {
        "cart_traj_len": 0.4931906987177732,
        "distance_elbow_joint": 1.003428131067166,
        "distance_shoulder_lift_joint": 0.326147277773561,
        "distance_shoulder_pan_joint": 0.2556623603837225,
        "distance_wrist_1_joint": 0.6824948191157713,
        "distance_wrist_2_joint": 1.3130496434202055,
        "distance_wrist_3_joint": 0.06596355528878961,
        "smoothness": 3.2297397080004555e-16,
        "time": 0.874510693,
        "traj_len": 1.9096454610867473,
        "weighted_distance": 2.4029601245469663
    },
    "planner": "KPIECE",
    "start": {
        "state": {
            "elbow_joint": 1.752795957773711,
            "shoulder_lift_joint": -0.9740617694225064,
            "shoulder_pan_joint": -2.967991417825858,
            "wrist_1_joint": -0.7595177689806859,
            "wrist_2_joint": 1.7443932448377395,
            "wrist_3_joint": 3.199131542505932
        }
    },
    "waypoints": [
        {
            "positions": [
                -2.967991417825858,
                -0.9740617694225064,
                1.752795957773711,
                -0.7595177689806859,
                1.7443932448377395,
                3.199131542505932
            ]
        },
        {
            "positions": [
                -2.9424251817874856,
                -0.9414470416451504,
                1.6524531446669946,
                -0.6912682870691088,
                1.613088280495719,
                3.1925351869770533
            ]
        },
        {
            "positions": [
                -2.9168589457491136,
                -0.9088323138677943,
                1.5521103315602778,
                -0.6230188051575316,
                1.4817833161536984,
                3.185938831448174
            ]
        },
        {
            "positions": [
                -2.8912927097107413,
                -0.8762175860904381,
                1.4517675184535612,
                -0.5547693232459545,
                1.3504783518116779,
                3.179342475919295
            ]
        },
        {
            "positions": [
                -2.865726473672369,
                -0.843602858313082,
                1.3514247053468447,
                -0.48651984133437737,
                1.2191733874696573,
                3.1727461203904164
            ]
        },
        {
            "positions": [
                -2.840160237633997,
                -0.8109881305357259,
                1.2510818922401281,
                -0.4182703594228003,
                1.0878684231276368,
                3.1661497648615375
            ]
        },
        {
            "positions": [
                -2.8145940015956246,
                -0.7783734027583699,
                1.1507390791334116,
                -0.3500208775112232,
                0.9565634587856162,
                3.1595534093326583
            ]
        },
        {
            "positions": [
                -2.789027765557252,
                -0.7457586749810138,
                1.050396266026695,
                -0.28177139559964604,
                0.8252584944435958,
                3.1529570538037794
            ]
        },
        {
            "positions": [
                -2.76346152951888,
                -0.7131439472036576,
                0.9500534529199782,
                -0.21352191368806883,
                0.6939535301015751,
                3.1463606982749006
            ]
        },
        {
            "positions": [
                -2.737895293480508,
                -0.6805292194263015,
                0.8497106398132617,
                -0.14527243177649174,
                0.5626485657595546,
                3.1397643427460213
            ]
        },
        {
            "positions": [
                -2.7123290574421355,
                -0.6479144916489454,
                0.7493678267065451,
                -0.07702294986491469,
                0.4313436014175339,
                3.1331679872171425
            ]
        }
    ]
}