{
    "goal": {
        "global_pose": {
            "orientation": {
                "w": 0.7031023480610252,
                "x": -0.7110244013736278,
                "y": 0.0077485991402295624,
                "z": 0.005598929693374583
            },
            "position": {
                "x": -0.8841497679147869,
                "y": 0.44412534475326537,
                "z": 0.3711530566215515
            }
        },
        "name": "move_to_auspresseinheit_D"
    },
    "id": "KPIECE_move_to_auspresseinheit_D_114",
    "joint_names": [
        "shoulder_pan_joint",
        "shoulder_lift_joint",
        "elbow_joint",
        "wrist_1_joint",
        "wrist_2_joint",
        "wrist_3_joint"
    ],
    "metrics": {
        "cart_traj_len": 1.4701157023036517,
        "distance_elbow_joint": 1.3082738541753243,
        "distance_shoulder_lift_joint": 0.4869257944880391,
        "distance_shoulder_pan_joint": 0.39209310027977473,
        "distance_wrist_1_joint": 3.3412713649943067,
        "distance_wrist_2_joint": 3.903043888484381,
        "distance_wrist_3_joint": 3.137414457457382,
        "smoothness": 0.8341358232791616,
        "time": 0.365670977,
        "traj_len": 3.545281717985075,
        "weighted_distance": 5.1076576459540295
    },
    "planner": "KPIECE",
    "start": {
        "state": {
            "elbow_joint": 1.8268400409724999,
            "shoulder_lift_joint": -1.0144045787793008,
            "shoulder_pan_joint": 2.6280239544362485,
            "wrist_1_joint": -0.790705565816056,
            "wrist_2_joint": 1.0573557467365533,
            "wrist_3_joint": 3.1851377467193758
        }
    },
    "waypoints": [
        {
            "positions": [
                2.6280239544362485,
                -1.0144045787793008,
                1.8268400409724999,
                -0.790705565816056,
                1.0573557467365533,
                3.1851377467193758
            ]
        },
        {
            "positions": [
                2.624515033567262,
                -1.0100450380588977,
                1.8004278304682269,
                -0.6763967529361239,
                0.9326931375055849,
                3.074436095600223
            ]
        },
        {
            "positions": [
                2.6210061126982755,
                -1.0056854973384943,
                1.774015619963954,
                -0.5620879400561919,
                0.8080305282746165,
                2.9637344444810694
            ]
        },
        {
            "positions": [
                2.6174971918292886,
                -1.0013259566180912,
                1.747603409459681,
                -0.4477791271762598,
                0.6833679190436481,
                2.8530327933619164
            ]
        },
        {
            "positions": [
                2.613988270960302,
                -0.9969664158976881,
                1.721191198955408,
                -0.33347031429632773,
                0.5587053098126797,
                2.7423311422427634
            ]
        },
        {
            "positions": [
                2.6104793500913157,
                -0.9926068751772849,
                1.6947789884511353,
                -0.21916150141639557,
                0.43404270058171124,
                2.63162949112361
            ]
        },
        {
            "positions": [
                2.6069704292223292,
                -0.9882473344568817,
                1.6683667779468623,
                -0.10485268853646357,
                0.30938009135074296,
                2.520927840004457
            ]
        },
        {
            "positions": [
                2.603461508353343,
                -0.9838877937364785,
                1.6419545674425895,
                0.009456124343468542,
                0.18471748211977446,
                2.4102261888853036
            ]
        },
        {
            "positions": [
                2.5999525874843563,
                -0.9795282530160753,
                1.6155423569383165,
                0.12376493722340054,
                0.060054872888806066,
                2.2995245377661506
            ]
        },
        {
            "positions": [
                2.5964436666153694,
                -0.9751687122956721,
                1.5891301464340435,
                0.23807375010333276,
                -0.06460773634216244,
                2.1888228866469976
            ]
        },
        {
            "positions": [
                2.592934745746383,
                -0.9708091715752689,
                1.5627179359297707,
                0.35238256298326487,
                -0.18927034557313083,
                2.0781212355278447
            ]
        },
        {
            "positions": [
                2.5894258248773965,
                -0.9664496308548658,
                1.5363057254254977,
                0.46669137586319676,
                -0.3139329548040992,
                1.9674195844086912
            ]
        },
        {
            "positions": [
                2.58591690400841,
                -0.9620900901344626,
                1.5098935149212247,
                0.5810001887431289,
                -0.4385955640350674,
                1.8567179332895383
            ]
        },
        {
            "positions": [
                2.5824079831394235,
                -0.9577305494140594,
                1.483481304416952,
                0.695309001623061,
                -0.563258173266036,
                1.7460162821703848
            ]
        },
        {
            "positions": [
                2.5788990622704366,
                -0.9533710086936562,
                1.457069093912679,
                0.8096178145029931,
                -0.6879207824970044,
                1.6353146310512319
            ]
        },
        {
            "positions": [
                2.57539014140145,
                -0.9490114679732531,
                1.430656883408406,
                0.9239266273829252,
                -0.8125833917279728,
                1.524612979932079
            ]
        },
        {
            "positions": [
                2.5718812205324637,
                -0.9446519272528499,
                1.4042446729041331,
                1.038235440262857,
                -0.9372460009589412,
                1.4139113288129257
            ]
        },
        {
            "positions": [
                2.5683722996634772,
                -0.9402923865324466,
                1.3778324623998601,
                1.1525442531427892,
                -1.0619086101899096,
                1.3032096776937727
            ]
        },
        {
            "positions": [
                2.5648633787944908,
                -0.9359328458120435,
                1.3514202518955871,
                1.2668530660227215,
                -1.1865712194208782,
                1.192508026574619
            ]
        },
        {
            "positions": [
                2.5613544579255043,
                -0.9315733050916403,
                1.3250080413913143,
                1.3811618789026536,
                -1.3112338286518463,
                1.081806375455466
            ]
        },
        {
            "positions": [
                2.5578455370565174,
                -0.927213764371237,
                1.2985958308870413,
                1.4954706917825857,
                -1.435896437882815,
                0.9711047243363131
            ]
        },
        {
            "positions": [
                2.554336616187531,
                -0.9228542236508339,
                1.2721836203827683,
                1.6097795046625178,
                -1.5605590471137831,
                0.8604030732171597
            ]
        },
        {
            "positions": [
                2.5508276953185445,
                -0.9184946829304308,
                1.2457714098784956,
                1.7240883175424495,
                -1.6852216563447517,
                0.7497014220980067
            ]
        },
        {
            "positions": [
                2.547318774449558,
                -0.9141351422100276,
                1.2193591993742228,
                1.8383971304223816,
                -1.80988426557572,
                0.6389997709788537
            ]
        },
        {
            "positions": [
                2.5438098535805715,
                -0.9097756014896243,
                1.1929469888699495,
                1.9527059433023137,
                -1.934546874806688,
                0.5282981198597008
            ]
        },
        {
            "positions": [
                2.540300932711585,
                -0.9054160607692212,
                1.1665347783656768,
                2.067014756182246,
                -2.059209484037657,
                0.41759646874054734
            ]
        },
        {
            "positions": [
                2.536792011842598,
                -0.901056520048818,
                1.1401225678614038,
                2.1813235690621777,
                -2.1838720932686253,
                0.3068948176213939
            ]
        },
        {
            "positions": [
                2.5332830909736117,
                -0.8966969793284147,
                1.1137103573571308,
                2.2956323819421103,
                -2.308534702499594,
                0.19619316650224095
            ]
        },
        {
            "positions": [
                2.5297741701046252,
                -0.8923374386080116,
                1.087298146852858,
                2.409941194822042,
                -2.433197311730562,
                0.08549151538308809
            ]
        },
        {
            "positions": [
                2.5905365819375565,
                -0.8038205635292355,
                1.2259714372974047,
                2.415870653087428,
                -2.529298247910592,
                0.08696804398340936
            ]
        },
        {
            "positions": [
                2.651298993770488,
                -0.7153036884504593,
                1.3646447277419511,
                2.4218001113528147,
                -2.6253991840906217,
                0.08844457258373062
            ]
        },
        {
            "positions": [
                2.712061405603419,
                -0.6267868133716832,
                1.5033180181864978,
                2.427729569618201,
                -2.7215001202706515,
                0.08992110118405189
            ]
        },
        {
            "positions": [
                2.6562833653787403,
                -0.6764408279118939,
                1.4269619738254766,
                2.4891476843982256,
                -2.659406109532063,
                0.07325178102398645
            ]
        },
        {
            "positions": [
                2.6005053251540615,
                -0.7260948424521046,
                1.3506059294644552,
                2.5505657991782504,
                -2.5973120987934752,
                0.05658246086392101
            ]
        }
    ]
}