{
    "goal": {
        "global_pose": {
            "orientation": {
                "w": 0.005598929693374612,
                "x": 0.007748599140229565,
                "y": 0.7110244013736278,
                "z": -0.7031023480610252
            },
            "position": {
                "x": -0.8858502320852131,
                "y": -0.7141253447532654,
                "z": 0.3711530566215515
            }
        },
        "name": "move_to_auspresseinheit_C"
    },
    "id": "KPIECE_move_to_auspresseinheit_C_62",
    "joint_names": [
        "shoulder_pan_joint",
        "shoulder_lift_joint",
        "elbow_joint",
        "wrist_1_joint",
        "wrist_2_joint",
        "wrist_3_joint"
    ],
    "metrics": {
        "cart_traj_len": 0.4928388644391328,
        "distance_elbow_joint": 0.994699019388626,
        "distance_shoulder_lift_joint": 0.3226336208409597,
        "distance_shoulder_pan_joint": 0.25714921063606466,
        "distance_wrist_1_joint": 0.6732249625096318,
        "distance_wrist_2_joint": 1.3013415874278782,
        "distance_wrist_3_joint": 0.057378293311288076,
        "smoothness": 6.45947944157498e-16,
        "time": 0.018677958,
        "traj_len": 1.8990594235343055,
        "weighted_distance": 2.3865770112599622
    },
    "planner": "KPIECE",
    "start": {
        "state": {
            "elbow_joint": 1.752795957773711,
            "shoulder_lift_joint": -0.9740617694225064,
            "shoulder_pan_joint": -2.967991417825858,
            "wrist_1_joint": -0.7595177689806859,
            "wrist_2_joint": 1.7443932448377395,
            "wrist_3_joint": 3.199131542505932
        }
    },
    "waypoints": [
        {
            "positions": [
                -2.967991417825858,
                -0.9740617694225064,
                1.752795957773711,
                -0.7595177689806859,
                1.7443932448377395,
                3.199131542505932
            ]
        },
        {
            "positions": [
                -2.9422764967622514,
                -0.9417984073384105,
                1.6533260558348486,
                -0.6921952727297227,
                1.6142590860949517,
                3.193393713174803
            ]
        },
        {
            "positions": [
                -2.916561575698645,
                -0.9095350452543145,
                1.5538561538959859,
                -0.6248727764787595,
                1.484124927352164,
                3.1876558838436746
            ]
        },
        {
            "positions": [
                -2.8908466546350384,
                -0.8772716831702185,
                1.4543862519571233,
                -0.5575502802277964,
                1.3539907686093762,
                3.1819180545125456
            ]
        },
        {
            "positions": [
                -2.865131733571432,
                -0.8450083210861226,
                1.3549163500182606,
                -0.49022778397683314,
                1.2238566098665882,
                3.176180225181417
            ]
        },
        {
            "positions": [
                -2.8394168125078254,
                -0.8127449590020266,
                1.255446448079398,
                -0.42290528772587,
                1.0937224511238004,
                3.170442395850288
            ]
        },
        {
            "positions": [
                -2.8137018914442193,
                -0.7804815969179306,
                1.1559765461405354,
                -0.35558279147490685,
                0.9635882923810126,
                3.164704566519159
            ]
        },
        {
            "positions": [
                -2.787986970380613,
                -0.7482182348338347,
                1.056506644201673,
                -0.28826029522394364,
                0.8334541336382248,
                3.1589667371880306
            ]
        },
        {
            "positions": [
                -2.7622720493170063,
                -0.7159548727497387,
                0.9570367422628102,
                -0.22093779897298038,
                0.7033199748954369,
                3.1532289078569016
            ]
        },
        {
            "positions": [
                -2.7365571282534,
                -0.6836915106656427,
                0.8575668403239477,
                -0.1536153027220173,
                0.5731858161526491,
                3.147491078525773
            ]
        },
        {
            "positions": [
                -2.7108422071897933,
                -0.6514281485815467,
                0.7580969383850851,
                -0.08629280647105414,
                0.4430516574098612,
                3.141753249194644
            ]
        }
    ]
}