{
    "goal": {
        "global_pose": {
            "orientation": {
                "w": -0.00223480608172531,
                "x": 0.0024358444001904467,
                "y": 0.7094548369677653,
                "z": -0.704743149386269
            },
            "position": {
                "x": -0.37947507619857795,
                "y": -0.6371506643295288,
                "z": 0.19426114857196808
            }
        },
        "name": "move_to_magneteinheit_C"
    },
    "id": "KPIECE_move_to_magneteinheit_C_26",
    "joint_names": [
        "shoulder_pan_joint",
        "shoulder_lift_joint",
        "elbow_joint",
        "wrist_1_joint",
        "wrist_2_joint",
        "wrist_3_joint"
    ],
    "metrics": {
        "cart_traj_len": 1.8935715402308089,
        "distance_elbow_joint": 2.152663325870359,
        "distance_shoulder_lift_joint": 0.45876714669102037,
        "distance_shoulder_pan_joint": 1.1518106322038486,
        "distance_wrist_1_joint": 2.1125844313071815,
        "distance_wrist_2_joint": 1.4405063082713858,
        "distance_wrist_3_joint": 4.678046040621171,
        "smoothness": 0.46738533013202044,
        "time": 0.44730041200000004,
        "traj_len": 3.4632900376614377,
        "weighted_distance": 4.990346752059007
    },
    "planner": "KPIECE",
    "start": {
        "state": {
            "elbow_joint": 1.9565354006590394,
            "shoulder_lift_joint": -1.4165861576513559,
            "shoulder_pan_joint": -1.6717766223277177,
            "wrist_1_joint": -0.5286633288215096,
            "wrist_2_joint": 1.4727565892594296,
            "wrist_3_joint": 3.1593482883155493
        }
    },
    "waypoints": [
        {
            "positions": [
                -1.6717766223277177,
                -1.4165861576513559,
                1.9565354006590394,
                -0.5286633288215096,
                1.4727565892594296,
                3.1593482883155493
            ]
        },
        {
            "positions": [
                -1.6234198127860235,
                -1.4271823168662556,
                1.9338427553638289,
                -0.4985407844462153,
                1.3927473016116803,
                3.0943150019007293
            ]
        },
        {
            "positions": [
                -1.5750630032443294,
                -1.4377784760811554,
                1.9111501100686183,
                -0.46841824007092103,
                1.3127380139639309,
                3.0292817154859093
            ]
        },
        {
            "positions": [
                -1.569513368962252,
                -1.4435781642437058,
                1.8901669162743526,
                -0.46413855309687585,
                1.2882138249325148,
                2.997669621641064
            ]
        },
        {
            "positions": [
                -1.58856103567308,
                -1.4548632594411288,
                1.8077436209244613,
                -0.4255534194117276,
                1.2019242938827932,
                2.849828113477892
            ]
        },
        {
            "positions": [
                -1.607608702383908,
                -1.466148354638552,
                1.72532032557457,
                -0.3869682857265793,
                1.1156347628330714,
                2.7019866053147195
            ]
        },
        {
            "positions": [
                -1.6266563690947362,
                -1.4774334498359751,
                1.6428970302246784,
                -0.34838315204143105,
                1.0293452317833498,
                2.5541450971515474
            ]
        },
        {
            "positions": [
                -1.6457040358055641,
                -1.4887185450333982,
                1.5604737348747872,
                -0.3097980183562828,
                0.9430557007336281,
                2.4063035889883753
            ]
        },
        {
            "positions": [
                -1.664751702516392,
                -1.5000036402308214,
                1.4780504395248957,
                -0.2712128846711345,
                0.8567661696839064,
                2.2584620808252027
            ]
        },
        {
            "positions": [
                -1.6837993692272202,
                -1.5112887354282445,
                1.3956271441750043,
                -0.23262775098598626,
                0.7704766386341847,
                2.1106205726620306
            ]
        },
        {
            "positions": [
                -1.7578586541450998,
                -1.4976886711011033,
                1.3465553519382887,
                -0.1743584638340399,
                0.7367018833621723,
                1.9798935641628248
            ]
        },
        {
            "positions": [
                -1.8319179390629794,
                -1.484088606773962,
                1.2974835597015728,
                -0.11608917668209356,
                0.7029271280901601,
                1.849166555663619
            ]
        },
        {
            "positions": [
                -1.905977223980859,
                -1.4704885424468208,
                1.2484117674648572,
                -0.05781988953014722,
                0.6691523728181478,
                1.718439547164413
            ]
        },
        {
            "positions": [
                -1.9800365088987388,
                -1.4568884781196796,
                1.1993399752281413,
                0.00044939762179913023,
                0.6353776175461355,
                1.5877125386652071
            ]
        },
        {
            "positions": [
                -2.0540957938166184,
                -1.4432884137925384,
                1.1502681829914256,
                0.05871868477374548,
                0.6016028622741232,
                1.4569855301660013
            ]
        },
        {
            "positions": [
                -2.128155078734498,
                -1.4296883494653971,
                1.10119639075471,
                0.11698797192569182,
                0.567828107002111,
                1.3262585216667955
            ]
        },
        {
            "positions": [
                -2.2022143636523777,
                -1.416088285138256,
                1.0521245985179941,
                0.17525725907763817,
                0.5340533517300986,
                1.1955315131675897
            ]
        },
        {
            "positions": [
                -2.2762736485702573,
                -1.4024882208111147,
                1.0030528062812785,
                0.23352654622958452,
                0.5002785964580863,
                1.0648045046683836
            ]
        },
        {
            "positions": [
                -2.350332933488137,
                -1.3888881564839735,
                0.9539810140445626,
                0.29179583338153087,
                0.466503841186074,
                0.9340774961691778
            ]
        },
        {
            "positions": [
                -2.4243922184060165,
                -1.3752880921568322,
                0.9049092218078469,
                0.35006512053347716,
                0.43272908591406173,
                0.8033504876699719
            ]
        },
        {
            "positions": [
                -2.4650642665607445,
                -1.3318955302138131,
                0.9643339340711016,
                0.3607962466098324,
                0.5198933336261845,
                0.8331148318412394
            ]
        },
        {
            "positions": [
                -2.505736314715472,
                -1.288502968270794,
                1.0237586463343562,
                0.3715273726861877,
                0.6070575813383072,
                0.8628791760125069
            ]
        },
        {
            "positions": [
                -2.5464083628702,
                -1.245110406327775,
                1.0831833585976107,
                0.3822584987625429,
                0.6942218290504301,
                0.8926435201837744
            ]
        },
        {
            "positions": [
                -2.544296036866879,
                -1.2351085218003879,
                1.1603317276851592,
                0.28871562516512267,
                0.7003838649783151,
                1.0684751085161235
            ]
        },
        {
            "positions": [
                -2.542183710863558,
                -1.2251066372730008,
                1.237480096772708,
                0.19517275156770245,
                0.7065459009062002,
                1.2443066968484728
            ]
        },
        {
            "positions": [
                -2.540071384860237,
                -1.2151047527456138,
                1.3146284658602565,
                0.10162987797028222,
                0.7127079368340852,
                1.420138285180822
            ]
        },
        {
            "positions": [
                -2.537959058856916,
                -1.2051028682182268,
                1.391776834947805,
                0.008087004372861972,
                0.7188699727619702,
                1.5959698735131713
            ]
        },
        {
            "positions": [
                -2.535846732853595,
                -1.1951009836908395,
                1.4689252040353538,
                -0.08545586922455833,
                0.7250320086898553,
                1.7718014618455205
            ]
        },
        {
            "positions": [
                -2.533734406850274,
                -1.1850990991634525,
                1.5460735731229023,
                -0.17899874282197847,
                0.7311940446177403,
                1.9476330501778696
            ]
        },
        {
            "positions": [
                -2.531622080846953,
                -1.1750972146360654,
                1.623221942210451,
                -0.2725416164193988,
                0.7373560805456253,
                2.123464638510219
            ]
        },
        {
            "positions": [
                -2.529509754843632,
                -1.1650953301086784,
                1.7003703112979993,
                -0.366084490016819,
                0.7435181164735104,
                2.299296226842568
            ]
        },
        {
            "positions": [
                -2.527397428840311,
                -1.1550934455812913,
                1.777518680385548,
                -0.4596273636142393,
                0.7496801524013954,
                2.4751278151749174
            ]
        },
        {
            "positions": [
                -2.5156202458013768,
                -1.157183428195438,
                1.8285273321757538,
                -0.5414437369030274,
                0.7331988536859187,
                2.617221773551166
            ]
        },
        {
            "positions": [
                -2.501665489847506,
                -1.1591098603464487,
                1.887667011059507,
                -0.6340971929222136,
                0.7108500404448496,
                2.7866140915826323
            ]
        },
        {
            "positions": [
                -2.487710733893636,
                -1.1610362924974593,
                1.9468066899432603,
                -0.7267506489413997,
                0.6885012272037805,
                2.9560064096140986
            ]
        },
        {
            "positions": [
                -2.4737559779397653,
                -1.16296272464847,
                2.0059463688270136,
                -0.8194041049605859,
                0.6661524139627113,
                3.125398727645565
            ]
        }
    ]
}