{
    "goal": {
        "global_pose": {
            "orientation": {
                "w": -0.4816463035849501,
                "x": 0.5182115481033762,
                "y": 0.4908360881923453,
                "z": -0.5084816262002911
            },
            "position": {
                "x": -0.8240239810943604,
                "y": -0.300875300988555,
                "z": 0.16403168439865112
            }
        },
        "name": "move_to_storage_C"
    },
    "id": "KPIECE_move_to_storage_C_108",
    "joint_names": [
        "shoulder_pan_joint",
        "shoulder_lift_joint",
        "elbow_joint",
        "wrist_1_joint",
        "wrist_2_joint",
        "wrist_3_joint"
    ],
    "metrics": {
        "cart_traj_len": 0.5763886158849857,
        "distance_elbow_joint": 0.2561052837338116,
        "distance_shoulder_lift_joint": 0.19076234633351996,
        "distance_shoulder_pan_joint": 0.492885614304154,
        "distance_wrist_1_joint": 0.06457023663783079,
        "distance_wrist_2_joint": 1.0756272861431433,
        "distance_wrist_3_joint": 0.07093627473435626,
        "smoothness": 5.075305295617109e-16,
        "time": 0.033018303,
        "traj_len": 1.4665902774418,
        "weighted_distance": 1.8528240915252863
    },
    "planner": "KPIECE",
    "start": {
        "state": {
            "elbow_joint": 2.010868315001653,
            "shoulder_lift_joint": -1.1634956873357014,
            "shoulder_pan_joint": -2.4736205022346103,
            "wrist_1_joint": -0.8367026794713948,
            "wrist_2_joint": 0.6746043897044093,
            "wrist_3_joint": 3.1335220948105738
        }
    },
    "waypoints": [
        {
            "positions": [
                -2.4736205022346103,
                -1.1634956873357014,
                2.010868315001653,
                -0.8367026794713948,
                0.6746043897044093,
                3.1335220948105738
            ]
        },
        {
            "positions": [
                -2.555768104618636,
                -1.1317019629467815,
                1.9681841010460177,
                -0.8259409733650896,
                0.8538756040615998,
                3.1453448072662997
            ]
        },
        {
            "positions": [
                -2.6379157070026618,
                -1.0999082385578614,
                1.9254998870903826,
                -0.8151792672587845,
                1.0331468184187904,
                3.1571675197220257
            ]
        },
        {
            "positions": [
                -2.7200633093866875,
                -1.0681145141689414,
                1.8828156731347474,
                -0.8044175611524793,
                1.212418032775981,
                3.1689902321777517
            ]
        },
        {
            "positions": [
                -2.802210911770713,
                -1.0363207897800215,
                1.840131459179112,
                -0.7936558550461742,
                1.3916892471331714,
                3.180812944633478
            ]
        },
        {
            "positions": [
                -2.8843585141547385,
                -1.0045270653911014,
                1.7974472452234767,
                -0.7828941489398691,
                1.570960461490362,
                3.192635657089204
            ]
        },
        {
            "positions": [
                -2.9665061165387643,
                -0.9727333410021815,
                1.7547630312678415,
                -0.772132442833564,
                1.7502316758475527,
                3.20445836954493
            ]
        }
    ]
}