{
    "goal": {
        "global_pose": {
            "orientation": {
                "w": -0.4816463035849501,
                "x": 0.5182115481033762,
                "y": 0.4908360881923453,
                "z": -0.5084816262002911
            },
            "position": {
                "x": -0.8240239810943604,
                "y": -0.300875300988555,
                "z": 0.16403168439865112
            }
        },
        "name": "move_to_storage_C"
    },
    "id": "KPIECE_move_to_storage_C_45",
    "joint_names": [
        "shoulder_pan_joint",
        "shoulder_lift_joint",
        "elbow_joint",
        "wrist_1_joint",
        "wrist_2_joint",
        "wrist_3_joint"
    ],
    "metrics": {
        "cart_traj_len": 0.5768583046536224,
        "distance_elbow_joint": 0.2600269491388185,
        "distance_shoulder_lift_joint": 0.18849123999856177,
        "distance_shoulder_pan_joint": 0.4943185001461248,
        "distance_wrist_1_joint": 0.08871612096637271,
        "distance_wrist_2_joint": 1.0755825917706576,
        "distance_wrist_3_joint": 0.07638273337356072,
        "smoothness": 0.0,
        "time": 0.19768476499999998,
        "traj_len": 1.4776732167140665,
        "weighted_distance": 1.8709843171117837
    },
    "planner": "KPIECE",
    "start": {
        "state": {
            "elbow_joint": 2.010868315001653,
            "shoulder_lift_joint": -1.1634956873357014,
            "shoulder_pan_joint": -2.4736205022346103,
            "wrist_1_joint": -0.8367026794713948,
            "wrist_2_joint": 0.6746043897044093,
            "wrist_3_joint": 3.1335220948105738
        }
    },
    "waypoints": [
        {
            "positions": [
                -2.4736205022346103,
                -1.1634956873357014,
                2.010868315001653,
                -0.8367026794713948,
                0.6746043897044093,
                3.1335220948105738
            ]
        },
        {
            "positions": [
                -2.556006918925631,
                -1.1320804806692744,
                1.9675304901451833,
                -0.8219166593103326,
                0.8538681549995188,
                3.146252550372834
            ]
        },
        {
            "positions": [
                -2.638393335616652,
                -1.1006652740028475,
                1.9241926652887136,
                -0.8071306391492705,
                1.0331319202946285,
                3.158983005935094
            ]
        },
        {
            "positions": [
                -2.7207797523076724,
                -1.0692500673364205,
                1.8808548404322438,
                -0.7923446189882084,
                1.2123956855897382,
                3.171713461497354
            ]
        },
        {
            "positions": [
                -2.8031661689986933,
                -1.0378348606699936,
                1.837517015575774,
                -0.7775585988271463,
                1.3916594508848477,
                3.1844439170596144
            ]
        },
        {
            "positions": [
                -2.885552585689714,
                -1.0064196540035666,
                1.7941791907193043,
                -0.7627725786660842,
                1.5709232161799573,
                3.197174372621874
            ]
        },
        {
            "positions": [
                -2.967939002380735,
                -0.9750044473371396,
                1.7508413658628346,
                -0.747986558505022,
                1.7501869814750668,
                3.2099048281841345
            ]
        }
    ]
}