{
    "goal": {
        "global_pose": {
            "orientation": {
                "w": -0.00223480608172531,
                "x": 0.0024358444001904467,
                "y": 0.7094548369677653,
                "z": -0.704743149386269
            },
            "position": {
                "x": 0.6205249238014221,
                "y": -0.6371506643295288,
                "z": 0.19426114857196808
            }
        },
        "name": "move_to_magneteinheit_B"
    },
    "id": "KPIECE_move_to_magneteinheit_B_139",
    "joint_names": [
        "shoulder_pan_joint",
        "shoulder_lift_joint",
        "elbow_joint",
        "wrist_1_joint",
        "wrist_2_joint",
        "wrist_3_joint"
    ],
    "metrics": {
        "cart_traj_len": 1.4516879668346656,
        "distance_elbow_joint": 0.7295878696054208,
        "distance_shoulder_lift_joint": 1.2484775696834138,
        "distance_shoulder_pan_joint": 1.6209643320958145,
        "distance_wrist_1_joint": 2.6018595226633936,
        "distance_wrist_2_joint": 2.9354481355180155,
        "distance_wrist_3_joint": 3.134044098197721,
        "smoothness": 5.551115135766223e-16,
        "time": 0.28782319,
        "traj_len": 3.5029104367316872,
        "weighted_distance": 4.906707387071357
    },
    "planner": "KPIECE",
    "start": {
        "state": {
            "elbow_joint": 2.3935871308073637,
            "shoulder_lift_joint": -1.9085141043777403,
            "shoulder_pan_joint": 0.7066247067284167,
            "wrist_1_joint": -0.46782909355067076,
            "wrist_2_joint": 0.7096259085804283,
            "wrist_3_joint": -3.1358149275257428
        }
    },
    "waypoints": [
        {
            "positions": [
                0.7066247067284167,
                -1.9085141043777403,
                2.3935871308073637,
                -0.46782909355067076,
                0.7096259085804283,
                -3.1358149275257428
            ]
        },
        {
            "positions": [
                0.6543355347253259,
                -1.8682406343879527,
                2.370052038239447,
                -0.3838981412066903,
                0.6149340332411375,
                -3.0347167308096874
            ]
        },
        {
            "positions": [
                0.6020463627222351,
                -1.8279671643981652,
                2.3465169456715302,
                -0.2999671888627099,
                0.5202421579018466,
                -2.9336185340936316
            ]
        },
        {
            "positions": [
                0.5497571907191443,
                -1.7876936944083777,
                2.3229818531036135,
                -0.21603623651872944,
                0.42555028256255584,
                -2.8325203373775762
            ]
        },
        {
            "positions": [
                0.49746801871605356,
                -1.7474202244185901,
                2.2994467605356967,
                -0.13210528417474904,
                0.330858407223265,
                -2.731422140661521
            ]
        },
        {
            "positions": [
                0.44517884671296276,
                -1.7071467544288026,
                2.2759116679677796,
                -0.04817433183076858,
                0.23616653188397418,
                -2.630323943945465
            ]
        },
        {
            "positions": [
                0.39288967470987196,
                -1.666873284439015,
                2.252376575399863,
                0.03575662051321188,
                0.14147465654468339,
                -2.5292257472294097
            ]
        },
        {
            "positions": [
                0.3406005027067812,
                -1.6265998144492275,
                2.228841482831946,
                0.11968757285719228,
                0.04678278120539259,
                -2.428127550513354
            ]
        },
        {
            "positions": [
                0.2883113307036904,
                -1.58632634445944,
                2.2053063902640293,
                0.20361852520117268,
                -0.04790909413389832,
                -2.3270293537972986
            ]
        },
        {
            "positions": [
                0.23602215870059956,
                -1.5460528744696522,
                2.1817712976961126,
                0.2875494775451532,
                -0.14260096947318923,
                -2.2259311570812432
            ]
        },
        {
            "positions": [
                0.18373298669750882,
                -1.505779404479865,
                2.158236205128196,
                0.3714804298891336,
                -0.23729284481247992,
                -2.124832960365188
            ]
        },
        {
            "positions": [
                0.13144381469441802,
                -1.4655059344900772,
                2.134701112560279,
                0.4554113822331141,
                -0.33198472015177083,
                -2.023734763649132
            ]
        },
        {
            "positions": [
                0.07915464269132721,
                -1.4252324645002898,
                2.1111660199923623,
                0.5393423345770945,
                -0.4266765954910615,
                -1.9226365669330767
            ]
        },
        {
            "positions": [
                0.026865470688236415,
                -1.384958994510502,
                2.0876309274244456,
                0.6232732869210749,
                -0.5213684708303524,
                -1.8215383702170211
            ]
        },
        {
            "positions": [
                -0.025423701314854275,
                -1.3446855245207145,
                2.064095834856529,
                0.7072042392650553,
                -0.6160603461696431,
                -1.7204401735009656
            ]
        },
        {
            "positions": [
                -0.07771287331794519,
                -1.304412054530927,
                2.0405607422886116,
                0.7911351916090359,
                -0.710752221508934,
                -1.61934197678491
            ]
        },
        {
            "positions": [
                -0.13000204532103588,
                -1.2641385845411395,
                2.017025649720695,
                0.8750661439530161,
                -0.8054440968482249,
                -1.5182437800688546
            ]
        },
        {
            "positions": [
                -0.18229121732412668,
                -1.223865114551352,
                1.9934905571527781,
                0.9589970962969965,
                -0.9001359721875156,
                -1.4171455833527993
            ]
        },
        {
            "positions": [
                -0.2345803893272176,
                -1.1835916445615644,
                1.9699554645848614,
                1.042928048640977,
                -0.9948278475268068,
                -1.3160473866367435
            ]
        },
        {
            "positions": [
                -0.2868695613303083,
                -1.1433181745717769,
                1.9464203720169446,
                1.1268590009849575,
                -1.0895197228660973,
                -1.214949189920688
            ]
        },
        {
            "positions": [
                -0.3391587333333991,
                -1.1030447045819893,
                1.9228852794490279,
                1.210789953328938,
                -1.1842115982053882,
                -1.1138509932046325
            ]
        },
        {
            "positions": [
                -0.39144790533648977,
                -1.0627712345922018,
                1.8993501868811111,
                1.2947209056729183,
                -1.2789034735446787,
                -1.0127527964885772
            ]
        },
        {
            "positions": [
                -0.4437370773395807,
                -1.0224977646024143,
                1.8758150943131942,
                1.378651858016899,
                -1.37359534888397,
                -0.9116545997725214
            ]
        },
        {
            "positions": [
                -0.49602624934267137,
                -0.9822242946126267,
                1.8522800017452774,
                1.4625828103608793,
                -1.468287224223261,
                -0.810556403056466
            ]
        },
        {
            "positions": [
                -0.5483154213457623,
                -0.9419508246228393,
                1.8287449091773604,
                1.5465137627048597,
                -1.5629790995625514,
                -0.7094582063404107
            ]
        },
        {
            "positions": [
                -0.600604593348853,
                -0.9016773546330517,
                1.8052098166094437,
                1.63044471504884,
                -1.6576709749018423,
                -0.6083600096243549
            ]
        },
        {
            "positions": [
                -0.6528937653519439,
                -0.8614038846432641,
                1.781674724041527,
                1.7143756673928205,
                -1.7523628502411333,
                -0.5072618129082995
            ]
        },
        {
            "positions": [
                -0.7051829373550346,
                -0.8211304146534766,
                1.7581396314736102,
                1.7983066197368012,
                -1.8470547255804242,
                -0.4061636161922437
            ]
        },
        {
            "positions": [
                -0.7574721093581253,
                -0.780856944663689,
                1.7346045389056934,
                1.8822375720807814,
                -1.9417466009197146,
                -0.30506541947618837
            ]
        },
        {
            "positions": [
                -0.8097612813612162,
                -0.7405834746739015,
                1.7110694463377767,
                1.966168524424762,
                -2.0364384762590055,
                -0.20396722276013302
            ]
        },
        {
            "positions": [
                -0.8620504533643071,
                -0.700310004684114,
                1.6875343537698597,
                2.0500994767687426,
                -2.1311303515982964,
                -0.10286902604407722
            ]
        },
        {
            "positions": [
                -0.9143396253673978,
                -0.6600365346943264,
                1.663999261201943,
                2.134030429112723,
                -2.2258222269375874,
                -0.0017708293280219785
            ]
        }
    ]
}