{
    "goal": {
        "global_pose": {
            "orientation": {
                "w": 0.7047431493862688,
                "x": -0.7094548369677653,
                "y": 0.0024358444001904,
                "z": -0.0022348060817251984
            },
            "position": {
                "x": -0.39052492380142206,
                "y": 0.3671506643295288,
                "z": 0.19426114857196808
            }
        },
        "name": "move_to_magneteinheit_D"
    },
    "id": "KPIECE_move_to_magneteinheit_D_43",
    "joint_names": [
        "shoulder_pan_joint",
        "shoulder_lift_joint",
        "elbow_joint",
        "wrist_1_joint",
        "wrist_2_joint",
        "wrist_3_joint"
    ],
    "metrics": {
        "cart_traj_len": 4.647132580296641,
        "distance_elbow_joint": 3.3714454153393003,
        "distance_shoulder_lift_joint": 1.6772674734699387,
        "distance_shoulder_pan_joint": 3.6347225287133718,
        "distance_wrist_1_joint": 2.3062121783149108,
        "distance_wrist_2_joint": 1.2667930225675845,
        "distance_wrist_3_joint": 3.259259014643375,
        "smoothness": 0.7014328988869887,
        "time": 0.379182453,
        "traj_len": 3.938997287768612,
        "weighted_distance": 5.060357977773679
    },
    "planner": "KPIECE",
    "start": {
        "state": {
            "elbow_joint": 0.7495348899011973,
            "shoulder_lift_joint": -0.6476975780737697,
            "shoulder_pan_joint": -2.711696901376276,
            "wrist_1_joint": -0.07506478080974305,
            "wrist_2_joint": 0.4329665971545858,
            "wrist_3_joint": 3.1361499051832524
        }
    },
    "waypoints": [
        {
            "positions": [
                -2.711696901376276,
                -0.6476975780737697,
                0.7495348899011973,
                -0.07506478080974305,
                0.4329665971545858,
                3.1361499051832524
            ]
        },
        {
            "positions": [
                -2.74743123858853,
                -0.6690632967644836,
                0.8079140023232849,
                -0.11503651013324345,
                0.6186771854275566,
                3.089401523504573
            ]
        },
        {
            "positions": [
                -2.7831655758007834,
                -0.6904290154551975,
                0.8662931147453725,
                -0.15500823945674386,
                0.8043877737005273,
                3.0426531418258937
            ]
        },
        {
            "positions": [
                -2.764290024398574,
                -0.6843691921399467,
                0.7172221433994257,
                -0.2298007588196826,
                0.7643273357683865,
                2.939580267910256
            ]
        },
        {
            "positions": [
                -2.745414472996365,
                -0.678309368824696,
                0.568151172053479,
                -0.30459327818262133,
                0.7242668978362458,
                2.8365073939946184
            ]
        },
        {
            "positions": [
                -2.726538921594156,
                -0.6722495455094453,
                0.4190802007075322,
                -0.37938579754556007,
                0.684206459904105,
                2.7334345200789802
            ]
        },
        {
            "positions": [
                -2.7076633701919466,
                -0.6661897221941945,
                0.27000922936158545,
                -0.4541783169084988,
                0.6441460219719642,
                2.6303616461633426
            ]
        },
        {
            "positions": [
                -2.607472019295231,
                -0.7103315299213965,
                0.19648545645501064,
                -0.39445607961332935,
                0.6240443689679307,
                2.541555567374938
            ]
        },
        {
            "positions": [
                -2.507280668398516,
                -0.7544733376485985,
                0.12296168354843581,
                -0.33473384231815984,
                0.6039427159638971,
                2.452749488586533
            ]
        },
        {
            "positions": [
                -2.407089317501801,
                -0.7986151453758005,
                0.04943791064186098,
                -0.2750116050229904,
                0.5838410629598636,
                2.3639434097981282
            ]
        },
        {
            "positions": [
                -2.3068979666050855,
                -0.8427569531030024,
                -0.02408586226471382,
                -0.21528936772782092,
                0.56373940995583,
                2.2751373310097236
            ]
        },
        {
            "positions": [
                -2.20670661570837,
                -0.8868987608302044,
                -0.09760963517128862,
                -0.15556713043265147,
                0.5436377569517965,
                2.1863312522213185
            ]
        },
        {
            "positions": [
                -2.1065152648116547,
                -0.9310405685574064,
                -0.17113340807786348,
                -0.09584489313748196,
                0.523536103947763,
                2.097525173432914
            ]
        },
        {
            "positions": [
                -2.0063239139149394,
                -0.9751823762846084,
                -0.24465718098443834,
                -0.0361226558423125,
                0.5034344509437294,
                2.0087190946445093
            ]
        },
        {
            "positions": [
                -1.9061325630182244,
                -1.0193241840118104,
                -0.3181809538910131,
                0.023599581452856955,
                0.48333279793969586,
                1.9199130158561042
            ]
        },
        {
            "positions": [
                -1.805941212121509,
                -1.0634659917390124,
                -0.39170472679758794,
                0.08332181874802641,
                0.4632311449356623,
                1.8311069370676996
            ]
        },
        {
            "positions": [
                -1.7057498612247939,
                -1.1076077994662143,
                -0.4652284997041627,
                0.14304405604319587,
                0.44312949193162876,
                1.7423008582792947
            ]
        },
        {
            "positions": [
                -1.6055585103280785,
                -1.1517496071934161,
                -0.5387522726107375,
                0.20276629333836532,
                0.4230278389275952,
                1.6534947794908899
            ]
        },
        {
            "positions": [
                -1.5053671594313631,
                -1.1958914149206183,
                -0.6122760455173124,
                0.2624885306335349,
                0.40292618592356166,
                1.564688700702485
            ]
        },
        {
            "positions": [
                -1.405175808534648,
                -1.2400332226478201,
                -0.6857998184238873,
                0.32221076792870434,
                0.3828245329195281,
                1.4758826219140802
            ]
        },
        {
            "positions": [
                -1.3049844576379326,
                -1.2841750303750223,
                -0.7593235913304621,
                0.3819330052238738,
                0.36272287991549457,
                1.3870765431256755
            ]
        },
        {
            "positions": [
                -1.2047931067412174,
                -1.3283168381022241,
                -0.8328473642370369,
                0.44165524251904326,
                0.342621226911461,
                1.2982704643372707
            ]
        },
        {
            "positions": [
                -1.1046017558445023,
                -1.3724586458294263,
                -0.9063711371436116,
                0.5013774798142128,
                0.32251957390742747,
                1.2094643855488658
            ]
        },
        {
            "positions": [
                -1.0044104049477869,
                -1.4166004535566281,
                -0.9798949100501866,
                0.5610997171093823,
                0.3024179209033939,
                1.1206583067604612
            ]
        },
        {
            "positions": [
                -0.9042190540510717,
                -1.4607422612838301,
                -1.0534186829567613,
                0.6208219544045517,
                0.2823162678993604,
                1.0318522279720563
            ]
        },
        {
            "positions": [
                -0.8040277031543563,
                -1.504884069011032,
                -1.126942455863336,
                0.6805441916997212,
                0.2622146148953268,
                0.9430461491836515
            ]
        },
        {
            "positions": [
                -0.7038363522576412,
                -1.549025876738234,
                -1.2004662287699108,
                0.7402664289948906,
                0.24211296189129328,
                0.8542400703952469
            ]
        },
        {
            "positions": [
                -0.6036450013609258,
                -1.593167684465436,
                -1.2739900016764858,
                0.7999886662900602,
                0.22201130888725973,
                0.765433991606842
            ]
        },
        {
            "positions": [
                -0.5034536504642104,
                -1.6373094921926379,
                -1.3475137745830605,
                0.8597109035852295,
                0.20190965588322624,
                0.6766279128184371
            ]
        },
        {
            "positions": [
                -0.40326229956749504,
                -1.68145129991984,
                -1.4210375474896355,
                0.9194331408803991,
                0.18180800287919258,
                0.5878218340300321
            ]
        },
        {
            "positions": [
                -0.30307094867077966,
                -1.7255931076470423,
                -1.4945613203962103,
                0.9791553781755686,
                0.16170634987515908,
                0.49901575524162745
            ]
        },
        {
            "positions": [
                -0.20287959777406472,
                -1.769734915374244,
                -1.5680850933027852,
                1.038877615470738,
                0.14160469687112553,
                0.4102096764532228
            ]
        },
        {
            "positions": [
                -0.10268824687734934,
                -1.8138767231014459,
                -1.64160886620936,
                1.0985998527659075,
                0.12150304386709199,
                0.32140359766481774
            ]
        },
        {
            "positions": [
                -0.002496895980633962,
                -1.858018530828648,
                -1.7151326391159347,
                1.158322090061077,
                0.10140139086305844,
                0.2325975188764131
            ]
        },
        {
            "positions": [
                0.09769445491608142,
                -1.9021603385558499,
                -1.7886564120225097,
                1.2180443273562465,
                0.08129973785902489,
                0.14379144008800848
            ]
        },
        {
            "positions": [
                0.19788580581279636,
                -1.946302146283052,
                -1.8621801849290842,
                1.2777665646514158,
                0.06119808485499134,
                0.05498536129960341
            ]
        },
        {
            "positions": [
                0.2980771567095116,
                -1.9904439540102539,
                -1.9357039578356592,
                1.3374888019465854,
                0.04109643185095785,
                -0.0338207174888014
            ]
        },
        {
            "positions": [
                0.1775743762648694,
                -2.061954581763116,
                -2.0488764873141823,
                1.3713466827868532,
                0.07411655789397631,
                -0.011498619495971082
            ]
        },
        {
            "positions": [
                0.057071595820227194,
                -2.133465209515978,
                -2.162049016792705,
                1.4052045636271209,
                0.10713668393699478,
                0.010823478496859239
            ]
        },
        {
            "positions": [
                -0.063431184624415,
                -2.20497583726884,
                -2.275221546271228,
                1.4390624444673887,
                0.14015680998001326,
                0.03314557648968956
            ]
        },
        {
            "positions": [
                -0.18393396506905724,
                -2.2764864650217023,
                -2.388394075749751,
                1.4729203253076566,
                0.17317693602303172,
                0.05546767448251988
            ]
        }
    ]
}