{
    "goal": {
        "global_pose": {
            "orientation": {
                "w": 0.005598929693374612,
                "x": 0.007748599140229565,
                "y": 0.7110244013736278,
                "z": -0.7031023480610252
            },
            "position": {
                "x": 0.1141497679147869,
                "y": -0.7141253447532654,
                "z": 0.3711530566215515
            }
        },
        "name": "move_to_auspresseinheit_B"
    },
    "id": "KPIECE_move_to_auspresseinheit_B_1",
    "joint_names": [
        "shoulder_pan_joint",
        "shoulder_lift_joint",
        "elbow_joint",
        "wrist_1_joint",
        "wrist_2_joint",
        "wrist_3_joint"
    ],
    "metrics": {
        "cart_traj_len": 0.5650558577228197,
        "distance_elbow_joint": 0.06591125360002437,
        "distance_shoulder_lift_joint": 0.29303746476085335,
        "distance_shoulder_pan_joint": 0.5787806628939463,
        "distance_wrist_1_joint": 0.33608099931394353,
        "distance_wrist_2_joint": 0.9847146173291939,
        "distance_wrist_3_joint": 0.008553555257317491,
        "smoothness": 5.075305255429287e-16,
        "time": 0.057737054999999995,
        "traj_len": 1.5056820890066,
        "weighted_distance": 1.8986788249498785
    },
    "planner": "KPIECE",
    "start": {
        "state": {
            "elbow_joint": 2.019306165916698,
            "shoulder_lift_joint": -1.1220205098164344,
            "shoulder_pan_joint": -1.095207207618794,
            "wrist_1_joint": -0.8559671824921639,
            "wrist_2_joint": 0.47596387242952726,
            "wrist_3_joint": 3.159081874673826
        }
    },
    "waypoints": [
        {
            "positions": [
                -1.095207207618794,
                -1.1220205098164344,
                2.019306165916698,
                -0.8559671824921639,
                0.47596387242952726,
                3.159081874673826
            ]
        },
        {
            "positions": [
                -1.1916706514344517,
                -1.1708600872765766,
                2.0083209569833604,
                -0.7999536826065066,
                0.6400829753177262,
                3.1576562821309397
            ]
        },
        {
            "positions": [
                -1.2881340952501095,
                -1.2196996647367189,
                1.9973357480500231,
                -0.7439401827208494,
                0.8042020782059252,
                3.156230689588053
            ]
        },
        {
            "positions": [
                -1.384597539065767,
                -1.268539242196861,
                1.9863505391166858,
                -0.6879266828351921,
                0.9683211810941241,
                3.154805097045167
            ]
        },
        {
            "positions": [
                -1.4810609828814247,
                -1.3173788196570033,
                1.9753653301833485,
                -0.6319131829495348,
                1.132440283982323,
                3.153379504502281
            ]
        },
        {
            "positions": [
                -1.5775244266970825,
                -1.3662183971171455,
                1.964380121250011,
                -0.5758996830638776,
                1.296559386870522,
                3.1519539119593944
            ]
        },
        {
            "positions": [
                -1.6739878705127402,
                -1.4150579745772878,
                1.9533949123166736,
                -0.5198861831782203,
                1.460678489758721,
                3.1505283194165083
            ]
        }
    ]
}