{
    "goal": {
        "global_pose": {
            "orientation": {
                "w": 0.7047431468963623,
                "x": -0.7094548344612122,
                "y": 0.0024358443915843964,
                "z": -0.0022348060738295317
            },
            "position": {
                "x": 0.6094750761985779,
                "y": 0.3671506643295288,
                "z": 0.19426114857196808
            }
        },
        "name": "move_to_magneteinheit_A"
    },
    "id": "KPIECE_move_to_magneteinheit_A_146",
    "joint_names": [
        "shoulder_pan_joint",
        "shoulder_lift_joint",
        "elbow_joint",
        "wrist_1_joint",
        "wrist_2_joint",
        "wrist_3_joint"
    ],
    "metrics": {
        "cart_traj_len": 1.0536969326564043,
        "distance_elbow_joint": 0.3960435118248433,
        "distance_shoulder_lift_joint": 0.35978514362984226,
        "distance_shoulder_pan_joint": 1.242165795011606,
        "distance_wrist_1_joint": 2.2667100960411593,
        "distance_wrist_2_joint": 1.698716537115758,
        "distance_wrist_3_joint": 1.1763719748846113,
        "smoothness": 2.6645352801989826e-16,
        "time": 0.226404536,
        "traj_len": 2.6720391199433853,
        "weighted_distance": 3.6685097303174707
    },
    "planner": "KPIECE",
    "start": {
        "state": {
            "elbow_joint": 1.5739458966750683,
            "shoulder_lift_joint": -1.4977259741207325,
            "shoulder_pan_joint": -1.1188672016454206,
            "wrist_1_joint": 1.494575848278785,
            "wrist_2_joint": -1.5706037134824402,
            "wrist_3_joint": -2.0226957942261072
        }
    },
    "waypoints": [
        {
            "positions": [
                -1.1188672016454206,
                -1.4977259741207325,
                1.5739458966750683,
                1.494575848278785,
                -1.5706037134824402,
                -2.0226957942261072
            ]
        },
        {
            "positions": [
                -1.0534900545395467,
                -1.478789913929688,
                1.5947902920342707,
                1.3752753169081977,
                -1.4811975799500319,
                -2.0846101086937185
            ]
        },
        {
            "positions": [
                -0.9881129074336726,
                -1.4598538537386438,
                1.6156346873934728,
                1.2559747855376102,
                -1.3917914464176235,
                -2.1465244231613294
            ]
        },
        {
            "positions": [
                -0.9227357603277986,
                -1.4409177935475994,
                1.6364790827526752,
                1.136674254167023,
                -1.3023853128852152,
                -2.2084387376289407
            ]
        },
        {
            "positions": [
                -0.8573586132219246,
                -1.4219817333565552,
                1.6573234781118775,
                1.0173737227964357,
                -1.212979179352807,
                -2.2703530520965516
            ]
        },
        {
            "positions": [
                -0.7919814661160507,
                -1.4030456731655108,
                1.6781678734710797,
                0.8980731914258484,
                -1.1235730458203987,
                -2.332267366564163
            ]
        },
        {
            "positions": [
                -0.7266043190101766,
                -1.3841096129744666,
                1.699012268830282,
                0.778772660055261,
                -1.0341669122879904,
                -2.3941816810317738
            ]
        },
        {
            "positions": [
                -0.6612271719043026,
                -1.3651735527834221,
                1.7198566641894844,
                0.6594721286846738,
                -0.9447607787555821,
                -2.456095995499385
            ]
        },
        {
            "positions": [
                -0.5958500247984286,
                -1.346237492592378,
                1.7407010595486865,
                0.5401715973140864,
                -0.8553546452231737,
                -2.5180103099669964
            ]
        },
        {
            "positions": [
                -0.5304728776925547,
                -1.3273014324013335,
                1.7615454549078888,
                0.4208710659434991,
                -0.7659485116907654,
                -2.5799246244346072
            ]
        },
        {
            "positions": [
                -0.46509573058668063,
                -1.3083653722102893,
                1.7823898502670912,
                0.30157053457291183,
                -0.6765423781583572,
                -2.6418389389022185
            ]
        },
        {
            "positions": [
                -0.3997185834808066,
                -1.2894293120192448,
                1.8032342456262935,
                0.18227000320232434,
                -0.5871362446259487,
                -2.70375325336983
            ]
        },
        {
            "positions": [
                -0.33434143637493263,
                -1.2704932518282006,
                1.8240786409854957,
                0.06296947183173707,
                -0.4977301110935406,
                -2.7656675678374407
            ]
        },
        {
            "positions": [
                -0.2689642892690586,
                -1.2515571916371562,
                1.844923036344698,
                -0.056331059538850425,
                -0.40832397756113203,
                -2.8275818823050516
            ]
        },
        {
            "positions": [
                -0.20358714216318463,
                -1.232621131446112,
                1.8657674317039001,
                -0.17563159090943747,
                -0.3189178440287239,
                -2.889496196772663
            ]
        },
        {
            "positions": [
                -0.13820999505731058,
                -1.2136850712550675,
                1.8866118270631025,
                -0.29493212228002497,
                -0.22951171049631536,
                -2.951410511240274
            ]
        },
        {
            "positions": [
                -0.07283284795143663,
                -1.1947490110640233,
                1.9074562224223048,
                -0.41423265365061224,
                -0.14010557696390724,
                -3.013324825707885
            ]
        },
        {
            "positions": [
                -0.007455700845562463,
                -1.1758129508729789,
                1.9283006177815072,
                -0.5335331850211997,
                -0.0506994434314989,
                -3.0752391401754964
            ]
        },
        {
            "positions": [
                0.05792144626031126,
                -1.1568768906819344,
                1.9491450131407093,
                -0.6528337163917868,
                0.038706690100909436,
                -3.1371534546431077
            ]
        },
        {
            "positions": [
                0.12329859336618544,
                -1.1379408304908902,
                1.9699894084999117,
                -0.7721342477623744,
                0.12811282363331777,
                -3.1990677691107186
            ]
        }
    ]
}