{
    "goal": {
        "global_pose": {
            "orientation": {
                "w": 0.005598929693374612,
                "x": 0.007748599140229565,
                "y": 0.7110244013736278,
                "z": -0.7031023480610252
            },
            "position": {
                "x": -0.8858502320852131,
                "y": -0.7141253447532654,
                "z": 0.3711530566215515
            }
        },
        "name": "move_to_auspresseinheit_C"
    },
    "id": "KPIECE_move_to_auspresseinheit_C_70",
    "joint_names": [
        "shoulder_pan_joint",
        "shoulder_lift_joint",
        "elbow_joint",
        "wrist_1_joint",
        "wrist_2_joint",
        "wrist_3_joint"
    ],
    "metrics": {
        "cart_traj_len": 0.49351440930795604,
        "distance_elbow_joint": 1.0014542611578494,
        "distance_shoulder_lift_joint": 0.3257128963629523,
        "distance_shoulder_pan_joint": 0.256613038763867,
        "distance_wrist_1_joint": 0.6793376908802387,
        "distance_wrist_2_joint": 1.3179977043589552,
        "distance_wrist_3_joint": 0.05842682520881892,
        "smoothness": 1.6148698667872622e-16,
        "time": 0.013451369999999999,
        "traj_len": 1.90775847966473,
        "weighted_distance": 2.3986936991599226
    },
    "planner": "KPIECE",
    "start": {
        "state": {
            "elbow_joint": 1.752795957773711,
            "shoulder_lift_joint": -0.9740617694225064,
            "shoulder_pan_joint": -2.967991417825858,
            "wrist_1_joint": -0.7595177689806859,
            "wrist_2_joint": 1.7443932448377395,
            "wrist_3_joint": 3.199131542505932
        }
    },
    "waypoints": [
        {
            "positions": [
                -2.967991417825858,
                -0.9740617694225064,
                1.752795957773711,
                -0.7595177689806859,
                1.7443932448377395,
                3.199131542505932
            ]
        },
        {
            "positions": [
                -2.9423301139494713,
                -0.9414904797862113,
                1.652650531657926,
                -0.6915839998926621,
                1.612593474401844,
                3.19328885998505
            ]
        },
        {
            "positions": [
                -2.9166688100730847,
                -0.908919190149916,
                1.5525051055421413,
                -0.6236502308046381,
                1.4807937039659484,
                3.1874461774641683
            ]
        },
        {
            "positions": [
                -2.891007506196698,
                -0.8763479005136208,
                1.4523596794263562,
                -0.5557164617166144,
                1.348993933530053,
                3.1816034949432863
            ]
        },
        {
            "positions": [
                -2.8653462023203113,
                -0.8437766108773255,
                1.3522142533105712,
                -0.4877826926285904,
                1.2171941630941574,
                3.1757608124224044
            ]
        },
        {
            "positions": [
                -2.8396848984439247,
                -0.8112053212410303,
                1.2520688271947864,
                -0.4198489235405666,
                1.0853943926582619,
                3.1699181299015224
            ]
        },
        {
            "positions": [
                -2.8140235945675376,
                -0.7786340316047351,
                1.1519234010790016,
                -0.35191515445254273,
                0.9535946222223664,
                3.164075447380641
            ]
        },
        {
            "positions": [
                -2.788362290691151,
                -0.7460627419684398,
                1.0517779749632166,
                -0.2839813853645189,
                0.8217948517864709,
                3.158232764859759
            ]
        },
        {
            "positions": [
                -2.7627009868147643,
                -0.7134914523321445,
                0.9516325488474315,
                -0.21604761627649494,
                0.6899950813505753,
                3.152390082338877
            ]
        },
        {
            "positions": [
                -2.7370396829383776,
                -0.6809201626958494,
                0.8514871227316466,
                -0.1481138471884711,
                0.5581953109146798,
                3.146547399817995
            ]
        },
        {
            "positions": [
                -2.711378379061991,
                -0.6483488730595541,
                0.7513416966158616,
                -0.0801800781004473,
                0.4263955404787842,
                3.140704717297113
            ]
        }
    ]
}