{
    "goal": {
        "global_pose": {
            "orientation": {
                "w": 0.7047431468963623,
                "x": -0.7094548344612122,
                "y": 0.0024358443915843964,
                "z": -0.0022348060738295317
            },
            "position": {
                "x": 0.6094750761985779,
                "y": 0.3671506643295288,
                "z": 0.19426114857196808
            }
        },
        "name": "move_to_magneteinheit_A"
    },
    "id": "KPIECE_move_to_magneteinheit_A_59",
    "joint_names": [
        "shoulder_pan_joint",
        "shoulder_lift_joint",
        "elbow_joint",
        "wrist_1_joint",
        "wrist_2_joint",
        "wrist_3_joint"
    ],
    "metrics": {
        "cart_traj_len": 1.0529436164167807,
        "distance_elbow_joint": 0.41471963370924136,
        "distance_shoulder_lift_joint": 0.34942911662861187,
        "distance_shoulder_pan_joint": 1.2417903071262362,
        "distance_wrist_1_joint": 2.3548530620675945,
        "distance_wrist_2_joint": 1.6968224000238241,
        "distance_wrist_3_joint": 1.0937646038166653,
        "smoothness": 1.7763568394002506e-16,
        "time": 0.084339757,
        "traj_len": 2.674206260439193,
        "weighted_distance": 3.6593146616677994
    },
    "planner": "KPIECE",
    "start": {
        "state": {
            "elbow_joint": 1.5739458966750683,
            "shoulder_lift_joint": -1.4977259741207325,
            "shoulder_pan_joint": -1.1188672016454206,
            "wrist_1_joint": 1.494575848278785,
            "wrist_2_joint": -1.5706037134824402,
            "wrist_3_joint": -2.0226957942261072
        }
    },
    "waypoints": [
        {
            "positions": [
                -1.1188672016454206,
                -1.4977259741207325,
                1.5739458966750683,
                1.494575848278785,
                -1.5706037134824402,
                -2.0226957942261072
            ]
        },
        {
            "positions": [
                -1.0535098170598292,
                -1.4793349679823844,
                1.59577324581766,
                1.370636213433122,
                -1.4812972713759232,
                -2.0802623523217214
            ]
        },
        {
            "positions": [
                -0.9881524324742379,
                -1.4609439618440365,
                1.6176005949602517,
                1.2466965785874593,
                -1.391990829269406,
                -2.137828910417335
            ]
        },
        {
            "positions": [
                -0.9227950478886465,
                -1.4425529557056884,
                1.6394279441028432,
                1.1227569437417964,
                -1.302684387162889,
                -2.1953954685129493
            ]
        },
        {
            "positions": [
                -0.8574376633030552,
                -1.4241619495673405,
                1.661255293245435,
                0.9988173088961335,
                -1.213377945056372,
                -2.252962026608563
            ]
        },
        {
            "positions": [
                -0.7920802787174638,
                -1.4057709434289924,
                1.6830826423880265,
                0.8748776740504707,
                -1.124071502949855,
                -2.310528584704177
            ]
        },
        {
            "positions": [
                -0.7267228941318724,
                -1.3873799372906446,
                1.7049099915306183,
                0.7509380392048078,
                -1.0347650608433379,
                -2.368095142799791
            ]
        },
        {
            "positions": [
                -0.661365509546281,
                -1.3689889311522965,
                1.7267373406732098,
                0.626998404359145,
                -0.9454586187368208,
                -2.425661700895405
            ]
        },
        {
            "positions": [
                -0.5960081249606897,
                -1.3505979250139486,
                1.7485646898158016,
                0.503058769513482,
                -0.8561521766303037,
                -2.483228258991019
            ]
        },
        {
            "positions": [
                -0.5306507403750983,
                -1.3322069188756005,
                1.7703920389583931,
                0.3791191346678193,
                -0.7668457345237867,
                -2.540794817086633
            ]
        },
        {
            "positions": [
                -0.4652933557895069,
                -1.3138159127372526,
                1.792219388100985,
                0.2551794998221564,
                -0.6775392924172696,
                -2.5983613751822467
            ]
        },
        {
            "positions": [
                -0.39993597120391544,
                -1.2954249065989045,
                1.8140467372435765,
                0.13123986497649343,
                -0.5882328503107526,
                -2.655927933277861
            ]
        },
        {
            "positions": [
                -0.3345785866183242,
                -1.2770339004605566,
                1.835874086386168,
                0.007300230130830698,
                -0.4989264082042355,
                -2.7134944913734746
            ]
        },
        {
            "positions": [
                -0.2692212020327327,
                -1.2586428943222085,
                1.8577014355287598,
                -0.11663940471483225,
                -0.40961996609771845,
                -2.771061049469089
            ]
        },
        {
            "positions": [
                -0.20386381744714144,
                -1.2402518881838607,
                1.8795287846713515,
                -0.24057903956049498,
                -0.3203135239912014,
                -2.8286276075647026
            ]
        },
        {
            "positions": [
                -0.13850643286154996,
                -1.2218608820455126,
                1.901356133813943,
                -0.36451867440615815,
                -0.23100708188468433,
                -2.8861941656603167
            ]
        },
        {
            "positions": [
                -0.0731490482759587,
                -1.2034698759071647,
                1.9231834829565346,
                -0.4884583092518209,
                -0.14170063977816727,
                -2.9437607237559305
            ]
        },
        {
            "positions": [
                -0.007791663690367212,
                -1.1850788697688166,
                1.9450108320991264,
                -0.6123979440974836,
                -0.05239419767165021,
                -3.0013272818515446
            ]
        },
        {
            "positions": [
                0.05756572089522405,
                -1.1666878636304685,
                1.9668381812417182,
                -0.7363375789431463,
                0.03691224443486685,
                -3.0588938399471584
            ]
        },
        {
            "positions": [
                0.12292310548081553,
                -1.1482968574921206,
                1.9886655303843097,
                -0.8602772137888095,
                0.12621868654138396,
                -3.1164603980427725
            ]
        }
    ]
}