{
    "goal": {
        "global_pose": {
            "orientation": {
                "w": -0.4816463035849501,
                "x": 0.5182115481033762,
                "y": 0.4908360881923453,
                "z": -0.5084816262002911
            },
            "position": {
                "x": -0.8240239810943604,
                "y": -0.300875300988555,
                "z": 0.16403168439865112
            }
        },
        "name": "move_to_storage_C"
    },
    "id": "KPIECE_move_to_storage_C_40",
    "joint_names": [
        "shoulder_pan_joint",
        "shoulder_lift_joint",
        "elbow_joint",
        "wrist_1_joint",
        "wrist_2_joint",
        "wrist_3_joint"
    ],
    "metrics": {
        "cart_traj_len": 0.5770405973617385,
        "distance_elbow_joint": 0.2567816422625915,
        "distance_shoulder_lift_joint": 0.18999910542267961,
        "distance_shoulder_pan_joint": 0.4950244223307356,
        "distance_wrist_1_joint": 0.06592202458976493,
        "distance_wrist_2_joint": 1.0629380497426353,
        "distance_wrist_3_joint": 0.06730270522586324,
        "smoothness": 1.0150610591234219e-15,
        "time": 0.090970596,
        "traj_len": 1.4621791783411053,
        "weighted_distance": 1.8442975449635008
    },
    "planner": "KPIECE",
    "start": {
        "state": {
            "elbow_joint": 2.010868315001653,
            "shoulder_lift_joint": -1.1634956873357014,
            "shoulder_pan_joint": -2.4736205022346103,
            "wrist_1_joint": -0.8367026794713948,
            "wrist_2_joint": 0.6746043897044093,
            "wrist_3_joint": 3.1335220948105738
        }
    },
    "waypoints": [
        {
            "positions": [
                -2.4736205022346103,
                -1.1634956873357014,
                2.010868315001653,
                -0.8367026794713948,
                0.6746043897044093,
                3.1335220948105738
            ]
        },
        {
            "positions": [
                -2.5561245726230664,
                -1.1318291697652547,
                1.9680713746245546,
                -0.8257156753731006,
                0.8517607313281819,
                3.1447392123482176
            ]
        },
        {
            "positions": [
                -2.638628643011522,
                -1.1001626521948082,
                1.925274434247456,
                -0.8147286712748064,
                1.0289170729519543,
                3.1559563298858615
            ]
        },
        {
            "positions": [
                -2.721132713399978,
                -1.0684961346243615,
                1.8824774938703572,
                -0.8037416671765123,
                1.206073414575727,
                3.1671734474235054
            ]
        },
        {
            "positions": [
                -2.803636783788434,
                -1.036829617053915,
                1.8396805534932588,
                -0.7927546630782182,
                1.3832297561994995,
                3.1783905649611492
            ]
        },
        {
            "positions": [
                -2.88614085417689,
                -1.0051630994834684,
                1.7968836131161603,
                -0.781767658979924,
                1.560386097823272,
                3.189607682498793
            ]
        },
        {
            "positions": [
                -2.968644924565346,
                -0.9734965819130218,
                1.7540866727390616,
                -0.7707806548816298,
                1.7375424394470445,
                3.200824800036437
            ]
        }
    ]
}