{
    "goal": {
        "global_pose": {
            "orientation": {
                "w": 0.7031023502349854,
                "x": -0.7110244035720825,
                "y": 0.007748599164187908,
                "z": 0.005598929710686207
            },
            "position": {
                "x": 0.11585023208521307,
                "y": 0.44412534475326537,
                "z": 0.3711530566215515
            }
        },
        "name": "move_to_auspresseinheit_A"
    },
    "id": "KPIECE_move_to_auspresseinheit_A_67",
    "joint_names": [
        "shoulder_pan_joint",
        "shoulder_lift_joint",
        "elbow_joint",
        "wrist_1_joint",
        "wrist_2_joint",
        "wrist_3_joint"
    ],
    "metrics": {
        "cart_traj_len": 2.3206691250015257,
        "distance_elbow_joint": 0.37655493299334664,
        "distance_shoulder_lift_joint": 0.6776933749519345,
        "distance_shoulder_pan_joint": 4.3036304430550745,
        "distance_wrist_1_joint": 1.393198709557458,
        "distance_wrist_2_joint": 3.276572867341674,
        "distance_wrist_3_joint": 4.438410651732186,
        "smoothness": 0.8112847524215079,
        "time": 0.34313815000000003,
        "traj_len": 3.80342753048243,
        "weighted_distance": 5.292698164452152
    },
    "planner": "KPIECE",
    "start": {
        "state": {
            "elbow_joint": 2.4225747245308327,
            "shoulder_lift_joint": -1.373653427065438,
            "shoulder_pan_joint": -0.33786330853087027,
            "wrist_1_joint": -1.0288602302712604,
            "wrist_2_joint": 1.23302299562683,
            "wrist_3_joint": -3.094021725338297
        }
    },
    "waypoints": [
        {
            "positions": [
                -0.33786330853087027,
                -1.373653427065438,
                2.4225747245308327,
                -1.0288602302712604,
                1.23302299562683,
                -3.094021725338297
            ]
        },
        {
            "positions": [
                -0.4284130129860929,
                -1.407381178615998,
                2.411354131077209,
                -0.9748084868361202,
                1.3096361153435945,
                -2.9716422049401747
            ]
        },
        {
            "positions": [
                -0.5189627174413155,
                -1.441108930166558,
                2.4001335376235846,
                -0.9207567434009801,
                1.3862492350603588,
                -2.8492626845420523
            ]
        },
        {
            "positions": [
                -0.6095124218965382,
                -1.474836681717118,
                2.388912944169961,
                -0.8667049999658399,
                1.4628623547771233,
                -2.72688316414393
            ]
        },
        {
            "positions": [
                -0.7000621263517608,
                -1.508564433267678,
                2.377692350716337,
                -0.8126532565306999,
                1.5394754744938877,
                -2.6045036437458076
            ]
        },
        {
            "positions": [
                -0.7906118308069834,
                -1.542292184818238,
                2.3664717572627127,
                -0.7586015130955597,
                1.6160885942106522,
                -2.4821241233476847
            ]
        },
        {
            "positions": [
                -0.881161535262206,
                -1.5760199363687981,
                2.355251163809089,
                -0.7045497696604195,
                1.6927017139274168,
                -2.3597446029495623
            ]
        },
        {
            "positions": [
                -0.9717112397174286,
                -1.609747687919358,
                2.344030570355465,
                -0.6504980262252793,
                1.7693148336441813,
                -2.23736508255144
            ]
        },
        {
            "positions": [
                -1.0622609441726512,
                -1.643475439469918,
                2.332809976901841,
                -0.5964462827901392,
                1.8459279533609456,
                -2.1149855621533176
            ]
        },
        {
            "positions": [
                -1.152810648627874,
                -1.677203191020478,
                2.321589383448217,
                -0.542394539354999,
                1.9225410730777102,
                -1.9926060417551952
            ]
        },
        {
            "positions": [
                -1.2433603530830966,
                -1.7109309425710382,
                2.3103687899945933,
                -0.48834279591985885,
                1.9991541927944747,
                -1.8702265213570728
            ]
        },
        {
            "positions": [
                -1.3339100575383191,
                -1.7446586941215982,
                2.299148196540969,
                -0.43429105248471866,
                2.075767312511239,
                -1.7478470009589502
            ]
        },
        {
            "positions": [
                -1.4244597619935417,
                -1.778386445672158,
                2.287927603087345,
                -0.3802393090495786,
                2.1523804322280036,
                -1.625467480560828
            ]
        },
        {
            "positions": [
                -1.5150094664487643,
                -1.8121141972227182,
                2.2767070096337214,
                -0.3261875656144384,
                2.228993551944768,
                -1.5030879601627054
            ]
        },
        {
            "positions": [
                -1.605559170903987,
                -1.8458419487732782,
                2.265486416180097,
                -0.2721358221792983,
                2.3056066716615327,
                -1.380708439764583
            ]
        },
        {
            "positions": [
                -1.6961088753592097,
                -1.8795697003238383,
                2.2542658227264734,
                -0.21808407874415814,
                2.382219791378297,
                -1.2583289193664604
            ]
        },
        {
            "positions": [
                -1.786658579814432,
                -1.9132974518743984,
                2.2430452292728496,
                -0.16403233530901806,
                2.4588329110950613,
                -1.1359493989683382
            ]
        },
        {
            "positions": [
                -1.877208284269655,
                -1.9470252034249582,
                2.2318246358192253,
                -0.10998059187387788,
                2.535446030811826,
                -1.0135698785702156
            ]
        },
        {
            "positions": [
                -1.9677579887248775,
                -1.9807529549755183,
                2.2206040423656015,
                -0.05592884843873769,
                2.6120591505285904,
                -0.8911903581720932
            ]
        },
        {
            "positions": [
                -1.827035053837453,
                -1.9770374893417364,
                2.2297926871460287,
                -0.07804818147689219,
                2.5121887972422794,
                -1.0088524257808291
            ]
        },
        {
            "positions": [
                -1.6863121189500283,
                -1.9733220237079547,
                2.2389813319264555,
                -0.10016751451504669,
                2.412318443955968,
                -1.1265144933895652
            ]
        },
        {
            "positions": [
                -1.5455891840626037,
                -1.9696065580741728,
                2.248169976706883,
                -0.1222868475532012,
                2.312448090669657,
                -1.244176560998301
            ]
        },
        {
            "positions": [
                -1.4048662491751789,
                -1.9658910924403912,
                2.25735862148731,
                -0.14440618059135568,
                2.2125777373833455,
                -1.361838628607037
            ]
        },
        {
            "positions": [
                -1.2641433142877543,
                -1.9621756268066093,
                2.2665472662677373,
                -0.1665255136295102,
                2.1127073840970345,
                -1.4795006962157728
            ]
        },
        {
            "positions": [
                -1.1234203794003297,
                -1.9584601611728276,
                2.275735911048164,
                -0.1886448466676647,
                2.012837030810723,
                -1.597162763824509
            ]
        },
        {
            "positions": [
                -0.9826974445129052,
                -1.9547446955390457,
                2.2849245558285913,
                -0.2107641797058192,
                1.912966677524412,
                -1.714824831433245
            ]
        },
        {
            "positions": [
                -0.8419745096254805,
                -1.9510292299052638,
                2.2941132006090186,
                -0.2328835127439737,
                1.8130963242381009,
                -1.8324868990419807
            ]
        },
        {
            "positions": [
                -0.7012515747380559,
                -1.9473137642714822,
                2.303301845389446,
                -0.2550028457821282,
                1.7132259709517896,
                -1.9501489666507168
            ]
        },
        {
            "positions": [
                -0.5605286398506313,
                -1.9435982986377003,
                2.3124904901698726,
                -0.2771221788202827,
                1.6133556176654786,
                -2.067811034259453
            ]
        },
        {
            "positions": [
                -0.4198057049632067,
                -1.9398828330039186,
                2.3216791349503,
                -0.2992415118584373,
                1.5134852643791672,
                -2.1854731018681886
            ]
        },
        {
            "positions": [
                -0.2790827700757821,
                -1.9361673673701367,
                2.330867779730727,
                -0.3213608448965917,
                1.4136149110928562,
                -2.3031351694769246
            ]
        },
        {
            "positions": [
                -0.13835983518835726,
                -1.9324519017363548,
                2.3400564245111544,
                -0.3434801779347463,
                1.3137445578065448,
                -2.4207972370856607
            ]
        },
        {
            "positions": [
                0.002363099699067117,
                -1.9287364361025732,
                2.349245069291581,
                -0.3655995109729007,
                1.2138742045202338,
                -2.5384593046943964
            ]
        },
        {
            "positions": [
                0.14308603458649194,
                -1.9250209704687913,
                2.3584337140720084,
                -0.3877188440110553,
                1.1140038512339223,
                -2.656121372303133
            ]
        },
        {
            "positions": [
                0.28380896947391654,
                -1.9213055048350096,
                2.3676223588524357,
                -0.4098381770492097,
                1.0141334979476113,
                -2.7737834399118686
            ]
        },
        {
            "positions": [
                0.42453190436134114,
                -1.9175900392012277,
                2.376811003632863,
                -0.43195751008736427,
                0.9142631446613001,
                -2.8914455075206047
            ]
        },
        {
            "positions": [
                0.5652548392487657,
                -1.913874573567446,
                2.3859996484132897,
                -0.4540768431255187,
                0.8143927913749889,
                -3.0091075751293404
            ]
        },
        {
            "positions": [
                0.7059777741361902,
                -1.9101591079336642,
                2.395188293193717,
                -0.47619617616367327,
                0.7145224380886777,
                -3.1267696427380764
            ]
        }
    ]
}