{
    "goal": {
        "global_pose": {
            "orientation": {
                "w": 0.7031023502349854,
                "x": -0.7110244035720825,
                "y": 0.007748599164187908,
                "z": 0.005598929710686207
            },
            "position": {
                "x": 0.11585023208521307,
                "y": 0.44412534475326537,
                "z": 0.3711530566215515
            }
        },
        "name": "move_to_auspresseinheit_A"
    },
    "id": "KPIECE_move_to_auspresseinheit_A_70",
    "joint_names": [
        "shoulder_pan_joint",
        "shoulder_lift_joint",
        "elbow_joint",
        "wrist_1_joint",
        "wrist_2_joint",
        "wrist_3_joint"
    ],
    "metrics": {
        "cart_traj_len": 0.6679116566520794,
        "distance_elbow_joint": 0.07589982578315979,
        "distance_shoulder_lift_joint": 0.5386977858407531,
        "distance_shoulder_pan_joint": 1.045707707295299,
        "distance_wrist_1_joint": 0.5472100000407556,
        "distance_wrist_2_joint": 0.6416905081788804,
        "distance_wrist_3_joint": 0.6288469905973559,
        "smoothness": 0.6172120024674779,
        "time": 0.031290964000000004,
        "traj_len": 1.8649538379638795,
        "weighted_distance": 2.434059840503218
    },
    "planner": "KPIECE",
    "start": {
        "state": {
            "elbow_joint": 2.4225747245308327,
            "shoulder_lift_joint": -1.373653427065438,
            "shoulder_pan_joint": -0.33786330853087027,
            "wrist_1_joint": -1.0288602302712604,
            "wrist_2_joint": 1.23302299562683,
            "wrist_3_joint": -3.094021725338297
        }
    },
    "waypoints": [
        {
            "positions": [
                -0.33786330853087027,
                -1.373653427065438,
                2.4225747245308327,
                -1.0288602302712604,
                1.23302299562683,
                -3.094021725338297
            ]
        },
        {
            "positions": [
                -0.32138177471496876,
                -1.4183925224431264,
                2.4288323904077562,
                -0.9698532737841892,
                1.0880727014912979,
                -3.01872527322363
            ]
        },
        {
            "positions": [
                -0.3049002408990673,
                -1.4631316178208147,
                2.43509005628468,
                -0.9108463172971181,
                0.9431224073557656,
                -2.943428821108962
            ]
        },
        {
            "positions": [
                -0.2884187070831658,
                -1.5078707131985032,
                2.441347722161603,
                -0.851839360810047,
                0.7981721132202335,
                -2.868132368994295
            ]
        },
        {
            "positions": [
                -0.2719371732672643,
                -1.5526098085761917,
                2.4476053880385265,
                -0.7928324043229757,
                0.6532218190847013,
                -2.7928359168796275
            ]
        },
        {
            "positions": [
                -0.10864024459531546,
                -1.6125667092978582,
                2.4391271943259487,
                -0.7409687086408973,
                0.6635367076908266,
                -2.847446113902742
            ]
        },
        {
            "positions": [
                0.05465668407663338,
                -1.6725236100195249,
                2.430649000613371,
                -0.6891050129588188,
                0.6738515962969519,
                -2.902056310925856
            ]
        },
        {
            "positions": [
                0.21795361274858222,
                -1.7324805107411914,
                2.4221708069007937,
                -0.6372413172767403,
                0.6841664849030773,
                -2.9566665079489707
            ]
        },
        {
            "positions": [
                0.38125054142053105,
                -1.7924374114628578,
                2.413692613188216,
                -0.5853776215946618,
                0.6944813735092026,
                -3.011276704972085
            ]
        },
        {
            "positions": [
                0.54454747009248,
                -1.8523943121845245,
                2.405214419475638,
                -0.5335139259125833,
                0.7047962621153279,
                -3.0658869019951993
            ]
        },
        {
            "positions": [
                0.7078443987644287,
                -1.912351212906191,
                2.3967362257630604,
                -0.4816502302305048,
                0.7151111507214531,
                -3.120497099018314
            ]
        }
    ]
}