{
    "goal": {
        "global_pose": {
            "orientation": {
                "w": 0.7047431493862688,
                "x": -0.7094548369677653,
                "y": 0.0024358444001904,
                "z": -0.0022348060817251984
            },
            "position": {
                "x": -0.39052492380142206,
                "y": 0.3671506643295288,
                "z": 0.19426114857196808
            }
        },
        "name": "move_to_magneteinheit_D"
    },
    "id": "KPIECE_move_to_magneteinheit_D_15",
    "joint_names": [
        "shoulder_pan_joint",
        "shoulder_lift_joint",
        "elbow_joint",
        "wrist_1_joint",
        "wrist_2_joint",
        "wrist_3_joint"
    ],
    "metrics": {
        "cart_traj_len": 5.992207821014082,
        "distance_elbow_joint": 3.442223540312543,
        "distance_shoulder_lift_joint": 1.614649999815138,
        "distance_shoulder_pan_joint": 4.409638006069321,
        "distance_wrist_1_joint": 2.0868192967407757,
        "distance_wrist_2_joint": 0.7690086572777217,
        "distance_wrist_3_joint": 1.8667983327830249,
        "smoothness": 0.4760191054192032,
        "time": 0.32230916200000004,
        "traj_len": 3.766847200643866,
        "weighted_distance": 4.558350847903557
    },
    "planner": "KPIECE",
    "start": {
        "state": {
            "elbow_joint": 0.7495348899011973,
            "shoulder_lift_joint": -0.6476975780737697,
            "shoulder_pan_joint": -2.711696901376276,
            "wrist_1_joint": -0.07506478080974305,
            "wrist_2_joint": 0.4329665971545858,
            "wrist_3_joint": 3.1361499051832524
        }
    },
    "waypoints": [
        {
            "positions": [
                -2.711696901376276,
                -0.6476975780737697,
                0.7495348899011973,
                -0.07506478080974305,
                0.4329665971545858,
                3.1361499051832524
            ]
        },
        {
            "positions": [
                -2.7175245627748112,
                -0.6611234677250243,
                0.8311173285034118,
                -0.15384107880310544,
                0.4731862136780761,
                3.0151242199311206
            ]
        },
        {
            "positions": [
                -2.7233522241733463,
                -0.6745493573762789,
                0.9126997671056263,
                -0.23261737679646782,
                0.5134058302015665,
                2.8940985346789883
            ]
        },
        {
            "positions": [
                -2.7169566526504596,
                -0.7932320511847851,
                0.8699307091195448,
                -0.3547360893773907,
                0.4799972845762449,
                2.8213931389474696
            ]
        },
        {
            "positions": [
                -2.710561081127573,
                -0.9119147449932913,
                0.8271616511334634,
                -0.4768548019583136,
                0.4465887389509233,
                2.748687743215951
            ]
        },
        {
            "positions": [
                -2.7041655096046866,
                -1.0305974388017975,
                0.7843925931473821,
                -0.5989735145392365,
                0.41318019332560174,
                2.6759823474844326
            ]
        },
        {
            "positions": [
                -2.6977699380818,
                -1.1492801326103037,
                0.7416235351613006,
                -0.7210922271201594,
                0.37977164770028016,
                2.603276951752914
            ]
        },
        {
            "positions": [
                -2.691374366558913,
                -1.26796282641881,
                0.6988544771752192,
                -0.8432109397010823,
                0.3463631020749586,
                2.5305715560213953
            ]
        },
        {
            "positions": [
                -2.6849787950360264,
                -1.3866455202273162,
                0.6560854191891379,
                -0.9653296522820052,
                0.312954556449637,
                2.4578661602898766
            ]
        },
        {
            "positions": [
                -2.67858322351314,
                -1.5053282140358224,
                0.6133163612030563,
                -1.087448364862928,
                0.2795460108243154,
                2.385160764558358
            ]
        },
        {
            "positions": [
                -2.6721876519902534,
                -1.6240109078443288,
                0.570547303216975,
                -1.209567077443851,
                0.24613746519899382,
                2.3124553688268397
            ]
        },
        {
            "positions": [
                -2.6657920804673667,
                -1.742693601652835,
                0.5277782452308936,
                -1.3316857900247738,
                0.21272891957367224,
                2.239749973095321
            ]
        },
        {
            "positions": [
                -2.46511171637176,
                -1.7579666608158149,
                0.41797964163759616,
                -1.364234546975813,
                0.19495204134313798,
                2.237478442828738
            ]
        },
        {
            "positions": [
                -2.264431352276153,
                -1.7732397199787948,
                0.30818103804429875,
                -1.3967833039268522,
                0.1771751631126037,
                2.235206912562155
            ]
        },
        {
            "positions": [
                -2.063750988180546,
                -1.7885127791417748,
                0.19838243445100134,
                -1.4293320608778914,
                0.15939828488206942,
                2.2329353822955724
            ]
        },
        {
            "positions": [
                -1.8630706240849393,
                -1.8037858383047547,
                0.088583830857704,
                -1.4618808178289306,
                0.14162140665153516,
                2.2306638520289894
            ]
        },
        {
            "positions": [
                -1.6623902599893323,
                -1.8190588974677346,
                -0.021214772735593468,
                -1.4944295747799698,
                0.1238445284210009,
                2.2283923217624064
            ]
        },
        {
            "positions": [
                -1.4617098958937256,
                -1.8343319566307146,
                -0.13101337632889087,
                -1.526978331731009,
                0.10606765019046663,
                2.2261207914958234
            ]
        },
        {
            "positions": [
                -1.2610295317981188,
                -1.8496050157936945,
                -0.24081197992218817,
                -1.559527088682048,
                0.08829077195993237,
                2.2238492612292404
            ]
        },
        {
            "positions": [
                -1.0603491677025119,
                -1.8648780749566742,
                -0.3506105835154856,
                -1.5920758456330875,
                0.07051389372939809,
                2.2215777309626574
            ]
        },
        {
            "positions": [
                -0.8596688036069051,
                -1.8801511341196542,
                -0.460409187108783,
                -1.6246246025841264,
                0.05273701549886384,
                2.219306200696075
            ]
        },
        {
            "positions": [
                -0.6589884395112979,
                -1.8954241932826341,
                -0.5702077907020805,
                -1.6571733595351659,
                0.034960137268329555,
                2.217034670429492
            ]
        },
        {
            "positions": [
                -0.4583080754156912,
                -1.910697252445614,
                -0.6800063942953779,
                -1.6897221164862049,
                0.017183259037795273,
                2.214763140162909
            ]
        },
        {
            "positions": [
                -0.25762771132008444,
                -1.925970311608594,
                -0.7898049978886753,
                -1.7222708734372443,
                -0.0005936191927389811,
                2.212491609896326
            ]
        },
        {
            "positions": [
                -0.056947347224477696,
                -1.941243370771574,
                -0.8996036014819725,
                -1.7548196303882833,
                -0.018370497423273235,
                2.210220079629743
            ]
        },
        {
            "positions": [
                0.14373301687112905,
                -1.9565164299345539,
                -1.0094022050752698,
                -1.7873683873393225,
                -0.03614737565380749,
                2.20794854936316
            ]
        },
        {
            "positions": [
                0.3444133809667358,
                -1.9717894890975338,
                -1.1192008086685674,
                -1.8199171442903617,
                -0.053924253884341744,
                2.2056770190965773
            ]
        },
        {
            "positions": [
                0.545093745062343,
                -1.9870625482605138,
                -1.2289994122618646,
                -1.8524659012414009,
                -0.07170113211487605,
                2.2034054888299943
            ]
        },
        {
            "positions": [
                0.7457741091579497,
                -2.0023356074234937,
                -1.3387980158551622,
                -1.88501465819244,
                -0.08947801034541032,
                2.2011339585634113
            ]
        },
        {
            "positions": [
                0.6425678480533992,
                -1.9734453884828922,
                -1.452971446982643,
                -1.9157779270100044,
                -0.0989986307547174,
                2.304665334803765
            ]
        },
        {
            "positions": [
                0.5393615869488486,
                -1.9445551695422907,
                -1.5671448781101236,
                -1.9465411958275687,
                -0.10851925116402447,
                2.408196711044119
            ]
        },
        {
            "positions": [
                0.436155325844298,
                -1.915664950601689,
                -1.6813183092376043,
                -1.977304464645133,
                -0.11803987157333155,
                2.5117280872844727
            ]
        },
        {
            "positions": [
                0.33294906473974745,
                -1.8867747316610874,
                -1.795491740365085,
                -2.0080677334626973,
                -0.12756049198263864,
                2.6152594635248265
            ]
        },
        {
            "positions": [
                0.22974280363519684,
                -1.857884512720486,
                -1.9096651714925659,
                -2.038831002280262,
                -0.1370811123919457,
                2.7187908397651803
            ]
        },
        {
            "positions": [
                0.12653654253064628,
                -1.8289942937798844,
                -2.0238386026200463,
                -2.069594271097826,
                -0.1466017328012528,
                2.8223222160055337
            ]
        },
        {
            "positions": [
                0.02333028142609561,
                -1.8001040748392827,
                -2.1380120337475272,
                -2.1003575399153904,
                -0.1561223532105599,
                2.9258535922458875
            ]
        },
        {
            "positions": [
                -0.07987597967845483,
                -1.7712138558986812,
                -2.2521854648750077,
                -2.1311208087329545,
                -0.16564297361986696,
                3.0293849684862413
            ]
        },
        {
            "positions": [
                -0.18308224078300547,
                -1.7423236369580797,
                -2.3663588960024886,
                -2.161884077550519,
                -0.17516359402917403,
                3.132916344726595
            ]
        }
    ]
}