{
    "goal": {
        "global_pose": {
            "orientation": {
                "w": 0.005598929693374612,
                "x": 0.007748599140229565,
                "y": 0.7110244013736278,
                "z": -0.7031023480610252
            },
            "position": {
                "x": -0.8858502320852131,
                "y": -0.7141253447532654,
                "z": 0.3711530566215515
            }
        },
        "name": "move_to_auspresseinheit_C"
    },
    "id": "KPIECE_move_to_auspresseinheit_C_9",
    "joint_names": [
        "shoulder_pan_joint",
        "shoulder_lift_joint",
        "elbow_joint",
        "wrist_1_joint",
        "wrist_2_joint",
        "wrist_3_joint"
    ],
    "metrics": {
        "cart_traj_len": 0.4941656047690993,
        "distance_elbow_joint": 1.0161796637963083,
        "distance_shoulder_lift_joint": 0.3317184202334956,
        "distance_shoulder_pan_joint": 0.2561270697666336,
        "distance_wrist_1_joint": 0.713840086048868,
        "distance_wrist_2_joint": 1.3109672941517303,
        "distance_wrist_3_joint": 0.08678731030610187,
        "smoothness": 6.459479416000911e-16,
        "time": 0.217058251,
        "traj_len": 1.927594315280873,
        "weighted_distance": 2.431872086503717
    },
    "planner": "KPIECE",
    "start": {
        "state": {
            "elbow_joint": 1.752795957773711,
            "shoulder_lift_joint": -0.9740617694225064,
            "shoulder_pan_joint": -2.967991417825858,
            "wrist_1_joint": -0.7595177689806859,
            "wrist_2_joint": 1.7443932448377395,
            "wrist_3_joint": 3.199131542505932
        }
    },
    "waypoints": [
        {
            "positions": [
                -2.967991417825858,
                -0.9740617694225064,
                1.752795957773711,
                -0.7595177689806859,
                1.7443932448377395,
                3.199131542505932
            ]
        },
        {
            "positions": [
                -2.942378710849195,
                -0.9408899273991569,
                1.6511779913940803,
                -0.6881337603757991,
                1.6132965154225665,
                3.190452811475322
            ]
        },
        {
            "positions": [
                -2.916766003872531,
                -0.9077180853758073,
                1.5495600250144494,
                -0.6167497517709123,
                1.4821997860073934,
                3.1817740804447117
            ]
        },
        {
            "positions": [
                -2.891153296895868,
                -0.8745462433524578,
                1.4479420586348186,
                -0.5453657431660255,
                1.3511030565922204,
                3.1730953494141017
            ]
        },
        {
            "positions": [
                -2.8655405899192044,
                -0.8413744013291082,
                1.3463240922551878,
                -0.47398173456113873,
                1.2200063271770474,
                3.164416618383491
            ]
        },
        {
            "positions": [
                -2.839927882942541,
                -0.8082025593057587,
                1.244706125875557,
                -0.40259772595625193,
                1.0889095977618743,
                3.155737887352881
            ]
        },
        {
            "positions": [
                -2.814315175965878,
                -0.7750307172824091,
                1.1430881594959261,
                -0.3312137173513651,
                0.9578128683467013,
                3.147059156322271
            ]
        },
        {
            "positions": [
                -2.7887024689892144,
                -0.7418588752590596,
                1.0414701931162953,
                -0.25982970874647837,
                0.8267161389315284,
                3.1383804252916607
            ]
        },
        {
            "positions": [
                -2.763089762012551,
                -0.7086870332357099,
                0.9398522267366645,
                -0.18844570014159157,
                0.6956194095163553,
                3.1297016942610507
            ]
        },
        {
            "positions": [
                -2.7374770550358876,
                -0.6755151912123604,
                0.8382342603570336,
                -0.11706169153670476,
                0.5645226801011822,
                3.1210229632304403
            ]
        },
        {
            "positions": [
                -2.7118643480592244,
                -0.6423433491890108,
                0.7366162939774028,
                -0.04567768293181798,
                0.43342595068600914,
                3.1123442321998303
            ]
        }
    ]
}