{
    "goal": {
        "global_pose": {
            "orientation": {
                "w": 0.5084816262002911,
                "x": -0.4908360881923452,
                "y": 0.5182115481033761,
                "z": -0.48164630358495003
            },
            "position": {
                "x": 0.5540239810943604,
                "y": -0.46912469901144505,
                "z": 0.16403168439865112
            }
        },
        "name": "move_to_storage_B"
    },
    "id": "KPIECE_move_to_storage_B_69",
    "joint_names": [
        "shoulder_pan_joint",
        "shoulder_lift_joint",
        "elbow_joint",
        "wrist_1_joint",
        "wrist_2_joint",
        "wrist_3_joint"
    ],
    "metrics": {
        "cart_traj_len": 2.433458689757922,
        "distance_elbow_joint": 1.5368438387397154,
        "distance_shoulder_lift_joint": 0.651805476281254,
        "distance_shoulder_pan_joint": 2.043643515156222,
        "distance_wrist_1_joint": 3.051042638167611,
        "distance_wrist_2_joint": 2.7098257082025494,
        "distance_wrist_3_joint": 3.15200595163806,
        "smoothness": 0.24274448952592564,
        "time": 0.123237974,
        "traj_len": 3.625626446310404,
        "weighted_distance": 5.0209608022600305
    },
    "planner": "KPIECE",
    "start": {
        "state": {
            "elbow_joint": 1.6649325706314817,
            "shoulder_lift_joint": -0.6616388048112454,
            "shoulder_pan_joint": -0.9139837860083814,
            "wrist_1_joint": 2.146757197745094,
            "wrist_2_joint": -2.234196043158733,
            "wrist_3_joint": 0.005471033829999897
        }
    },
    "waypoints": [
        {
            "positions": [
                -0.9139837860083814,
                -0.6616388048112454,
                1.6649325706314817,
                2.146757197745094,
                -2.234196043158733,
                0.005471033829999897
            ]
        },
        {
            "positions": [
                -0.8292980463500375,
                -0.7120783997606208,
                1.6109139431620352,
                2.14995579134452,
                -2.1319623065502564,
                -0.067297793645248
            ]
        },
        {
            "positions": [
                -0.7446123066916935,
                -0.7625179947099964,
                1.5568953156925887,
                2.1531543849439463,
                -2.0297285699417804,
                -0.14006662112049592
            ]
        },
        {
            "positions": [
                -0.6599265670333496,
                -0.8129575896593718,
                1.5028766882231421,
                2.156352978543372,
                -1.927494833333304,
                -0.2128354485957438
            ]
        },
        {
            "positions": [
                -0.5752408273750058,
                -0.8633971846087474,
                1.4488580607536956,
                2.159551572142798,
                -1.8252610967248277,
                -0.2856042760709917
            ]
        },
        {
            "positions": [
                -0.4905550877166619,
                -0.9138367795581228,
                1.394839433284249,
                2.162750165742224,
                -1.7230273601163515,
                -0.3583731035462396
            ]
        },
        {
            "positions": [
                -0.405869348058318,
                -0.9642763745074983,
                1.3408208058148028,
                2.16594875934165,
                -1.620793623507875,
                -0.43114193102148746
            ]
        },
        {
            "positions": [
                -0.32118360839997406,
                -1.0147159694568737,
                1.2868021783453563,
                2.169147352941076,
                -1.5185598868993988,
                -0.5039107584967354
            ]
        },
        {
            "positions": [
                -0.23649786874163015,
                -1.0651555644062491,
                1.2327835508759097,
                2.172345946540502,
                -1.4163261502909226,
                -0.5766795859719833
            ]
        },
        {
            "positions": [
                -0.15181212908328623,
                -1.1155951593556248,
                1.1787649234064632,
                2.175544540139928,
                -1.3140924136824461,
                -0.6494484134472313
            ]
        },
        {
            "positions": [
                -0.06712638942494242,
                -1.166034754305,
                1.1247462959370167,
                2.178743133739354,
                -1.2118586770739699,
                -0.7222172409224791
            ]
        },
        {
            "positions": [
                0.0175593502334015,
                -1.2164743492543757,
                1.0707276684675702,
                2.18194172733878,
                -1.1096249404654936,
                -0.794986068397727
            ]
        },
        {
            "positions": [
                -0.0307928401541828,
                -1.2122582652614138,
                1.1117119700578224,
                2.0508174617486095,
                -1.04070082718248,
                -0.8972273227199153
            ]
        },
        {
            "positions": [
                -0.07914503054176711,
                -1.2080421812684519,
                1.1526962716480749,
                1.9196931961584387,
                -0.9717767138994666,
                -0.9994685770421037
            ]
        },
        {
            "positions": [
                -0.12749722092935142,
                -1.20382609727549,
                1.193680573238327,
                1.788568930568268,
                -0.9028526006164531,
                -1.1017098313642921
            ]
        },
        {
            "positions": [
                -0.1758494113169357,
                -1.199610013282528,
                1.2346648748285796,
                1.6574446649780974,
                -0.8339284873334396,
                -1.2039510856864806
            ]
        },
        {
            "positions": [
                -0.22420160170452003,
                -1.1953939292895661,
                1.2756491764188318,
                1.5263203993879269,
                -0.7650043740504261,
                -1.3061923400086688
            ]
        },
        {
            "positions": [
                -0.27255379209210434,
                -1.1911778452966044,
                1.3166334780090843,
                1.395196133797756,
                -0.6960802607674126,
                -1.4084335943308572
            ]
        },
        {
            "positions": [
                -0.32090598247968866,
                -1.1869617613036425,
                1.3576177795993365,
                1.2640718682075853,
                -0.627156147484399,
                -1.5106748486530457
            ]
        },
        {
            "positions": [
                -0.3692581728672729,
                -1.1827456773106806,
                1.398602081189589,
                1.1329476026174148,
                -0.5582320342013856,
                -1.612916102975234
            ]
        },
        {
            "positions": [
                -0.4176103632548573,
                -1.1785295933177187,
                1.4395863827798414,
                1.001823337027244,
                -0.48930792091837194,
                -1.7151573572974224
            ]
        },
        {
            "positions": [
                -0.46596255364244155,
                -1.1743135093247568,
                1.4805706843700936,
                0.8706990714370735,
                -0.42038380763535854,
                -1.8173986116196106
            ]
        },
        {
            "positions": [
                -0.5143147440300259,
                -1.1700974253317948,
                1.5215549859603459,
                0.7395748058469027,
                -0.3514596943523449,
                -1.919639865941799
            ]
        },
        {
            "positions": [
                -0.5626669344176102,
                -1.165881341338833,
                1.5625392875505983,
                0.6084505402567322,
                -0.2825355810693315,
                -2.0218811202639877
            ]
        },
        {
            "positions": [
                -0.6110191248051944,
                -1.161665257345871,
                1.6035235891408506,
                0.47732627466656163,
                -0.213611467786318,
                -2.1241223745861757
            ]
        },
        {
            "positions": [
                -0.6593713151927788,
                -1.157449173352909,
                1.644507890731103,
                0.34620200907639065,
                -0.1446873545033044,
                -2.2263636289083646
            ]
        },
        {
            "positions": [
                -0.7077235055803631,
                -1.1532330893599472,
                1.6854921923213553,
                0.2150777434862201,
                -0.07576324122029088,
                -2.3286048832305526
            ]
        },
        {
            "positions": [
                -0.7560756959679473,
                -1.1490170053669853,
                1.7264764939116075,
                0.08395347789604957,
                -0.006839127937277478,
                -2.4308461375527406
            ]
        },
        {
            "positions": [
                -0.8044278863555316,
                -1.1448009213740233,
                1.76746079550186,
                -0.047170787694120975,
                0.06208498534573614,
                -2.533087391874929
            ]
        },
        {
            "positions": [
                -0.8527800767431161,
                -1.1405848373810616,
                1.8084450970921124,
                -0.17829505328429196,
                0.13100909862874976,
                -2.6353286461971175
            ]
        },
        {
            "positions": [
                -0.9011322671307003,
                -1.1363687533880997,
                1.8494293986823647,
                -0.3094193188744625,
                0.19993321191176316,
                -2.737569900519306
            ]
        },
        {
            "positions": [
                -0.9494844575182846,
                -1.1321526693951378,
                1.890413700272617,
                -0.44054358446463304,
                0.26885732519477656,
                -2.8398111548414944
            ]
        },
        {
            "positions": [
                -0.9978366479058689,
                -1.127936585402176,
                1.9313980018628694,
                -0.5716678500548036,
                0.3377814384777902,
                -2.942052409163683
            ]
        },
        {
            "positions": [
                -1.0461888382934532,
                -1.123720501409214,
                1.9723823034531218,
                -0.7027921156449746,
                0.4067055517608038,
                -3.0442936634858713
            ]
        },
        {
            "positions": [
                -1.0945410286810375,
                -1.119504417416252,
                2.013366605043374,
                -0.833916381235145,
                0.47562966504381715,
                -3.1465349178080597
            ]
        }
    ]
}