{
    "goal": {
        "global_pose": {
            "orientation": {
                "w": 0.7047431468963623,
                "x": -0.7094548344612122,
                "y": 0.0024358443915843964,
                "z": -0.0022348060738295317
            },
            "position": {
                "x": 0.6094750761985779,
                "y": 0.3671506643295288,
                "z": 0.19426114857196808
            }
        },
        "name": "move_to_magneteinheit_A"
    },
    "id": "KPIECE_move_to_magneteinheit_A_100",
    "joint_names": [
        "shoulder_pan_joint",
        "shoulder_lift_joint",
        "elbow_joint",
        "wrist_1_joint",
        "wrist_2_joint",
        "wrist_3_joint"
    ],
    "metrics": {
        "cart_traj_len": 1.0526408348099994,
        "distance_elbow_joint": 0.41427354085150725,
        "distance_shoulder_lift_joint": 0.34990032413150485,
        "distance_shoulder_pan_joint": 1.240958378680535,
        "distance_wrist_1_joint": 2.3447068098074846,
        "distance_wrist_2_joint": 1.7031654769414002,
        "distance_wrist_3_joint": 1.106717688643394,
        "smoothness": 0.0,
        "time": 0.26912293600000003,
        "traj_len": 2.67576572574204,
        "weighted_distance": 3.6634723805552976
    },
    "planner": "KPIECE",
    "start": {
        "state": {
            "elbow_joint": 1.5739458966750683,
            "shoulder_lift_joint": -1.4977259741207325,
            "shoulder_pan_joint": -1.1188672016454206,
            "wrist_1_joint": 1.494575848278785,
            "wrist_2_joint": -1.5706037134824402,
            "wrist_3_joint": -2.0226957942261072
        }
    },
    "waypoints": [
        {
            "positions": [
                -1.1188672016454206,
                -1.4977259741207325,
                1.5739458966750683,
                1.494575848278785,
                -1.5706037134824402,
                -2.0226957942261072
            ]
        },
        {
            "positions": [
                -1.0535536027674977,
                -1.4793101675874953,
                1.5957497672462002,
                1.37117022670997,
                -1.4809634252223665,
                -2.080944093628391
            ]
        },
        {
            "positions": [
                -0.9882400038895749,
                -1.4608943610542584,
                1.6175536378173323,
                1.247764605141155,
                -1.391323136962293,
                -2.139192393030675
            ]
        },
        {
            "positions": [
                -0.9229264050116519,
                -1.4424785545210213,
                1.6393575083884642,
                1.12435898357234,
                -1.3016828487022192,
                -2.197440692432959
            ]
        },
        {
            "positions": [
                -0.8576128061337291,
                -1.424062747987784,
                1.6611613789595963,
                1.0009533620035251,
                -1.2120425604421454,
                -2.255688991835243
            ]
        },
        {
            "positions": [
                -0.7922992072558062,
                -1.405646941454547,
                1.6829652495307281,
                0.8775477404347102,
                -1.1224022721820717,
                -2.3139372912375267
            ]
        },
        {
            "positions": [
                -0.7269856083778833,
                -1.38723113492131,
                1.7047691201018602,
                0.7541421188658951,
                -1.032761983921998,
                -2.372185590639811
            ]
        },
        {
            "positions": [
                -0.6616720094999604,
                -1.3688153283880728,
                1.726572990672992,
                0.6307364972970801,
                -0.9431216956619244,
                -2.4304338900420945
            ]
        },
        {
            "positions": [
                -0.5963584106220375,
                -1.3503995218548357,
                1.748376861244124,
                0.5073308757282652,
                -0.8534814074018507,
                -2.4886821894443782
            ]
        },
        {
            "positions": [
                -0.5310448117441147,
                -1.3319837153215985,
                1.770180731815256,
                0.3839252541594502,
                -0.763841119141777,
                -2.5469304888466624
            ]
        },
        {
            "positions": [
                -0.4657312128661918,
                -1.3135679087883616,
                1.791984602386388,
                0.2605196325906354,
                -0.6742008308817034,
                -2.605178788248946
            ]
        },
        {
            "positions": [
                -0.4004176139882688,
                -1.2951521022551244,
                1.81378847295752,
                0.13711401102182008,
                -0.5845605426216295,
                -2.6634270876512303
            ]
        },
        {
            "positions": [
                -0.33510401511034593,
                -1.2767362957218873,
                1.8355923435286519,
                0.013708389453005232,
                -0.49492025436155584,
                -2.721675387053514
            ]
        },
        {
            "positions": [
                -0.26979041623242306,
                -1.2583204891886501,
                1.8573962140997837,
                -0.10969723211580984,
                -0.4052799661014821,
                -2.779923686455798
            ]
        },
        {
            "positions": [
                -0.20447681735450018,
                -1.2399046826554132,
                1.8792000846709158,
                -0.2331028536846247,
                -0.31563967784140856,
                -2.838171985858082
            ]
        },
        {
            "positions": [
                -0.1391632184765773,
                -1.221488876122176,
                1.9010039552420477,
                -0.35650847525343976,
                -0.2259993895813348,
                -2.8964202852603655
            ]
        },
        {
            "positions": [
                -0.07384961959865444,
                -1.203073069588939,
                1.9228078258131798,
                -0.4799140968222546,
                -0.13635910132126128,
                -2.9546685846626497
            ]
        },
        {
            "positions": [
                -0.008536020720731452,
                -1.1846572630557017,
                1.9446116963843116,
                -0.6033197183910695,
                -0.0467188130611873,
                -3.0129168840649334
            ]
        },
        {
            "positions": [
                0.05677757815719131,
                -1.1662414565224648,
                1.9664155669554435,
                -0.7267253399598845,
                0.04292147519888623,
                -3.071165183467217
            ]
        },
        {
            "positions": [
                0.12209117703511428,
                -1.1478256499892276,
                1.9882194375265756,
                -0.8501309615286998,
                0.13256176345895995,
                -3.1294134828695013
            ]
        }
    ]
}