{
    "goal": {
        "global_pose": {
            "orientation": {
                "w": 0.005598929693374612,
                "x": 0.007748599140229565,
                "y": 0.7110244013736278,
                "z": -0.7031023480610252
            },
            "position": {
                "x": 0.1141497679147869,
                "y": -0.7141253447532654,
                "z": 0.3711530566215515
            }
        },
        "name": "move_to_auspresseinheit_B"
    },
    "id": "KPIECE_move_to_auspresseinheit_B_135",
    "joint_names": [
        "shoulder_pan_joint",
        "shoulder_lift_joint",
        "elbow_joint",
        "wrist_1_joint",
        "wrist_2_joint",
        "wrist_3_joint"
    ],
    "metrics": {
        "cart_traj_len": 0.5645382219908237,
        "distance_elbow_joint": 0.06477146591074656,
        "distance_shoulder_lift_joint": 0.29316787977813386,
        "distance_shoulder_pan_joint": 0.5772525860133313,
        "distance_wrist_1_joint": 0.33346509952436,
        "distance_wrist_2_joint": 0.9911454063525293,
        "distance_wrist_3_joint": 0.008066754905900808,
        "smoothness": 3.806478935924272e-16,
        "time": 0.28395562900000004,
        "traj_len": 1.5059446180006093,
        "weighted_distance": 1.8996350197271297
    },
    "planner": "KPIECE",
    "start": {
        "state": {
            "elbow_joint": 2.019306165916698,
            "shoulder_lift_joint": -1.1220205098164344,
            "shoulder_pan_joint": -1.095207207618794,
            "wrist_1_joint": -0.8559671824921639,
            "wrist_2_joint": 0.47596387242952726,
            "wrist_3_joint": 3.159081874673826
        }
    },
    "waypoints": [
        {
            "positions": [
                -1.095207207618794,
                -1.1220205098164344,
                2.019306165916698,
                -0.8559671824921639,
                0.47596387242952726,
                3.159081874673826
            ]
        },
        {
            "positions": [
                -1.1914159719543491,
                -1.17088182311279,
                2.00851092159824,
                -0.8003896659047706,
                0.6411547734882821,
                3.1577374155228424
            ]
        },
        {
            "positions": [
                -1.2876247362899045,
                -1.2197431364091458,
                1.9977156772797824,
                -0.7448121493173772,
                0.806345674547037,
                3.156392956371859
            ]
        },
        {
            "positions": [
                -1.3838335006254596,
                -1.2686044497055013,
                1.9869204329613246,
                -0.6892346327299839,
                0.9715365756057919,
                3.1550484972208754
            ]
        },
        {
            "positions": [
                -1.4800422649610148,
                -1.317465763001857,
                1.976125188642867,
                -0.6336571161425906,
                1.1367274766645468,
                3.153704038069892
            ]
        },
        {
            "positions": [
                -1.5762510292965701,
                -1.3663270762982127,
                1.9653299443244092,
                -0.5780795995551972,
                1.3019183777233017,
                3.1523595789189085
            ]
        },
        {
            "positions": [
                -1.6724597936321253,
                -1.4151883895945683,
                1.9545347000059514,
                -0.5225020829678039,
                1.4671092787820565,
                3.151015119767925
            ]
        }
    ]
}