{
    "goal": {
        "global_pose": {
            "orientation": {
                "w": 0.7031023502349854,
                "x": -0.7110244035720825,
                "y": 0.007748599164187908,
                "z": 0.005598929710686207
            },
            "position": {
                "x": 0.11585023208521307,
                "y": 0.44412534475326537,
                "z": 0.3711530566215515
            }
        },
        "name": "move_to_auspresseinheit_A"
    },
    "id": "KPIECE_move_to_auspresseinheit_A_68",
    "joint_names": [
        "shoulder_pan_joint",
        "shoulder_lift_joint",
        "elbow_joint",
        "wrist_1_joint",
        "wrist_2_joint",
        "wrist_3_joint"
    ],
    "metrics": {
        "cart_traj_len": 0.9562185793322597,
        "distance_elbow_joint": 0.6906998410395961,
        "distance_shoulder_lift_joint": 0.5999017824167086,
        "distance_shoulder_pan_joint": 1.0482996102896092,
        "distance_wrist_1_joint": 0.6803107618028102,
        "distance_wrist_2_joint": 0.5120715097096465,
        "distance_wrist_3_joint": 0.5607970717255002,
        "smoothness": 0.7213662413590166,
        "time": 0.09456339,
        "traj_len": 2.0228891657685724,
        "weighted_distance": 2.5310189631741853
    },
    "planner": "KPIECE",
    "start": {
        "state": {
            "elbow_joint": 2.4225747245308327,
            "shoulder_lift_joint": -1.373653427065438,
            "shoulder_pan_joint": -0.33786330853087027,
            "wrist_1_joint": -1.0288602302712604,
            "wrist_2_joint": 1.23302299562683,
            "wrist_3_joint": -3.094021725338297
        }
    },
    "waypoints": [
        {
            "positions": [
                -0.33786330853087027,
                -1.373653427065438,
                2.4225747245308327,
                -1.0288602302712604,
                1.23302299562683,
                -3.094021725338297
            ]
        },
        {
            "positions": [
                -0.27685510287656034,
                -1.4445012976519727,
                2.3775713027023584,
                -0.9510405632168168,
                1.1733563185565197,
                -3.061418829482204
            ]
        },
        {
            "positions": [
                -0.21584689722225042,
                -1.5153491682385076,
                2.332567880873884,
                -0.8732208961623733,
                1.1136896414862094,
                -3.0288159336261113
            ]
        },
        {
            "positions": [
                -0.1548386915679405,
                -1.5861970388250424,
                2.2875644590454094,
                -0.7954012291079297,
                1.054022964415899,
                -2.9962130377700182
            ]
        },
        {
            "positions": [
                -0.09383048591363058,
                -1.6570449094115771,
                2.242561037216935,
                -0.7175815620534861,
                0.9943562873455887,
                -2.963610141913925
            ]
        },
        {
            "positions": [
                -0.03282228025932066,
                -1.727892779998112,
                2.197557615388461,
                -0.6397618949990426,
                0.9346896102752784,
                -2.9310072460578325
            ]
        },
        {
            "positions": [
                0.028185925394989264,
                -1.7987406505846468,
                2.152554193559986,
                -0.5619422279445989,
                0.875022933204968,
                -2.8984043502017394
            ]
        },
        {
            "positions": [
                0.08919413104929919,
                -1.8695885211711816,
                2.107550771731512,
                -0.4841225608901554,
                0.8153562561346577,
                -2.8658014543456467
            ]
        },
        {
            "positions": [
                0.1502023367036091,
                -1.9404363917577165,
                2.0625473499030376,
                -0.4063028938357118,
                0.7556895790643474,
                -2.8331985584895536
            ]
        },
        {
            "positions": [
                0.28394290156738883,
                -1.9329889003898246,
                2.141957823953808,
                -0.42009360863477424,
                0.7470850798416839,
                -2.9055012878157647
            ]
        },
        {
            "positions": [
                0.41768346643116855,
                -1.9255414090219327,
                2.2213682980045784,
                -0.43388432343383676,
                0.7384805806190206,
                -2.9778040171419757
            ]
        },
        {
            "positions": [
                0.5514240312949483,
                -1.9180939176540408,
                2.3007787720553488,
                -0.4476750382328992,
                0.7298760813963572,
                -3.050106746468187
            ]
        },
        {
            "positions": [
                0.685164596158728,
                -1.910646426286149,
                2.380189246106119,
                -0.4614657530319617,
                0.7212715821736937,
                -3.122409475794398
            ]
        },
        {
            "positions": [
                0.7104363017587391,
                -1.9073175740332866,
                2.3932198163148386,
                -0.4640563192029735,
                0.7209514859171834,
                -3.1331724633663103
            ]
        }
    ]
}