{
    "goal": {
        "global_pose": {
            "orientation": {
                "w": -0.4816463035849501,
                "x": 0.5182115481033762,
                "y": 0.4908360881923453,
                "z": -0.5084816262002911
            },
            "position": {
                "x": -0.8240239810943604,
                "y": -0.300875300988555,
                "z": 0.16403168439865112
            }
        },
        "name": "move_to_storage_C"
    },
    "id": "KPIECE_move_to_storage_C_127",
    "joint_names": [
        "shoulder_pan_joint",
        "shoulder_lift_joint",
        "elbow_joint",
        "wrist_1_joint",
        "wrist_2_joint",
        "wrist_3_joint"
    ],
    "metrics": {
        "cart_traj_len": 0.5771031690496372,
        "distance_elbow_joint": 0.2603645380895363,
        "distance_shoulder_lift_joint": 0.18950219851352512,
        "distance_shoulder_pan_joint": 0.4936890252031505,
        "distance_wrist_1_joint": 0.08054777230968768,
        "distance_wrist_2_joint": 1.0748613653493577,
        "distance_wrist_3_joint": 0.05648932653248284,
        "smoothness": 5.075305295617109e-16,
        "time": 0.011296861,
        "traj_len": 1.4681465274276067,
        "weighted_distance": 1.8503626716732455
    },
    "planner": "KPIECE",
    "start": {
        "state": {
            "elbow_joint": 2.010868315001653,
            "shoulder_lift_joint": -1.1634956873357014,
            "shoulder_pan_joint": -2.4736205022346103,
            "wrist_1_joint": -0.8367026794713948,
            "wrist_2_joint": 0.6746043897044093,
            "wrist_3_joint": 3.1335220948105738
        }
    },
    "waypoints": [
        {
            "positions": [
                -2.4736205022346103,
                -1.1634956873357014,
                2.010868315001653,
                -0.8367026794713948,
                0.6746043897044093,
                3.1335220948105738
            ]
        },
        {
            "positions": [
                -2.555902006435135,
                -1.1319119875834471,
                1.9674742253200637,
                -0.8232780507531134,
                0.8537479505959689,
                3.1429369825659874
            ]
        },
        {
            "positions": [
                -2.6381835106356606,
                -1.100328287831193,
                1.9240801356384742,
                -0.8098534220348322,
                1.0328915114875286,
                3.1523518703214015
            ]
        },
        {
            "positions": [
                -2.7204650148361855,
                -1.0687445880789388,
                1.8806860459568848,
                -0.7964287933165509,
                1.2120350723790883,
                3.161766758076815
            ]
        },
        {
            "positions": [
                -2.8027465190367105,
                -1.0371608883266847,
                1.8372919562752956,
                -0.7830041645982696,
                1.3911786332706477,
                3.171181645832229
            ]
        },
        {
            "positions": [
                -2.885028023237236,
                -1.0055771885744305,
                1.7938978665937062,
                -0.7695795358799884,
                1.5703221941622074,
                3.180596533587643
            ]
        },
        {
            "positions": [
                -2.9673095274377608,
                -0.9739934888221763,
                1.7505037769121168,
                -0.7561549071617071,
                1.749465755053767,
                3.1900114213430566
            ]
        }
    ]
}