{
    "goal": {
        "global_pose": {
            "orientation": {
                "w": 0.5084816262002911,
                "x": -0.4908360881923452,
                "y": 0.5182115481033761,
                "z": -0.48164630358495003
            },
            "position": {
                "x": 0.5540239810943604,
                "y": -0.46912469901144505,
                "z": 0.16403168439865112
            }
        },
        "name": "move_to_storage_B"
    },
    "id": "KPIECE_move_to_storage_B_27",
    "joint_names": [
        "shoulder_pan_joint",
        "shoulder_lift_joint",
        "elbow_joint",
        "wrist_1_joint",
        "wrist_2_joint",
        "wrist_3_joint"
    ],
    "metrics": {
        "cart_traj_len": 1.3245161194505433,
        "distance_elbow_joint": 0.3856109756838608,
        "distance_shoulder_lift_joint": 0.46021723211545384,
        "distance_shoulder_pan_joint": 1.0537699648396286,
        "distance_wrist_1_joint": 3.6208151148189263,
        "distance_wrist_2_joint": 3.0268991633160116,
        "distance_wrist_3_joint": 3.604209055270187,
        "smoothness": 1.5895583458516676,
        "time": 0.051972044999999994,
        "traj_len": 3.4859032554051277,
        "weighted_distance": 5.099769984491396
    },
    "planner": "KPIECE",
    "start": {
        "state": {
            "elbow_joint": 1.6649325706314817,
            "shoulder_lift_joint": -0.6616388048112454,
            "shoulder_pan_joint": -0.9139837860083814,
            "wrist_1_joint": 2.146757197745094,
            "wrist_2_joint": -2.234196043158733,
            "wrist_3_joint": 0.005471033829999897
        }
    },
    "waypoints": [
        {
            "positions": [
                -0.9139837860083814,
                -0.6616388048112454,
                1.6649325706314817,
                2.146757197745094,
                -2.234196043158733,
                0.005471033829999897
            ]
        },
        {
            "positions": [
                -0.826682962696517,
                -0.6643171816476363,
                1.6614713320385694,
                2.0675779256642084,
                -2.1335754516093854,
                0.08065163873938576
            ]
        },
        {
            "positions": [
                -0.7393821393846526,
                -0.6669955584840273,
                1.6580100934456572,
                1.9883986535833227,
                -2.0329548600600384,
                0.1558322436487716
            ]
        },
        {
            "positions": [
                -0.6520813160727883,
                -0.6696739353204181,
                1.6545488548527447,
                1.909219381502437,
                -1.932334268510691,
                0.23101284855815743
            ]
        },
        {
            "positions": [
                -0.5647804927609239,
                -0.672352312156809,
                1.6510876162598325,
                1.830040109421551,
                -1.8317136769613438,
                0.30619345346754334
            ]
        },
        {
            "positions": [
                -0.4774796694490595,
                -0.6750306889932,
                1.6476263776669202,
                1.7508608373406653,
                -1.7310930854119966,
                0.38137405837692917
            ]
        },
        {
            "positions": [
                -0.5828159814078465,
                -0.7193382676720552,
                1.6526236445330362,
                1.8574451832839642,
                -1.783403584637592,
                0.3041428012614501
            ]
        },
        {
            "positions": [
                -0.6881522933666334,
                -0.7636458463509105,
                1.6576209113991525,
                1.9640295292272631,
                -1.8357140838631876,
                0.2269115441459711
            ]
        },
        {
            "positions": [
                -0.7934886053254204,
                -0.8079534250297657,
                1.6626181782652685,
                2.070613875170562,
                -1.888024583088783,
                0.14968028703049202
            ]
        },
        {
            "positions": [
                -0.8060409766755848,
                -0.8210327005254713,
                1.677339552520308,
                1.9495653036462037,
                -1.7894052202599293,
                0.2745391311711929
            ]
        },
        {
            "positions": [
                -0.8185933480257492,
                -0.8341119760211768,
                1.6920609267753477,
                1.8285167321218454,
                -1.6907858574310755,
                0.3993979753118937
            ]
        },
        {
            "positions": [
                -0.8311457193759136,
                -0.8471912515168825,
                1.7067823010303873,
                1.707468160597487,
                -1.5921664946022218,
                0.5242568194525945
            ]
        },
        {
            "positions": [
                -0.843698090726078,
                -0.860270527012588,
                1.721503675285427,
                1.5864195890731287,
                -1.4935471317733682,
                0.6491156635932953
            ]
        },
        {
            "positions": [
                -0.8562504620762424,
                -0.8733498025082935,
                1.7362250495404665,
                1.4653710175487704,
                -1.3949277689445143,
                0.7739745077339963
            ]
        },
        {
            "positions": [
                -0.8688028334264069,
                -0.8864290780039992,
                1.7509464237955061,
                1.344322446024412,
                -1.2963084061156607,
                0.8988333518746972
            ]
        },
        {
            "positions": [
                -0.8813552047765713,
                -0.8995083534997047,
                1.765667798050546,
                1.2232738745000538,
                -1.197689043286807,
                1.023692196015398
            ]
        },
        {
            "positions": [
                -0.8939075761267357,
                -0.9125876289954102,
                1.7803891723055856,
                1.1022253029756954,
                -1.0990696804579532,
                1.1485510401560988
            ]
        },
        {
            "positions": [
                -0.9064599474769001,
                -0.9256669044911158,
                1.7951105465606252,
                0.9811767314513371,
                -1.0004503176290995,
                1.2734098842967996
            ]
        },
        {
            "positions": [
                -0.9190123188270645,
                -0.9387461799868213,
                1.8098319208156648,
                0.8601281599269788,
                -0.9018309548002458,
                1.3982687284375006
            ]
        },
        {
            "positions": [
                -0.9315646901772289,
                -0.951825455482527,
                1.8245532950707044,
                0.7390795884026204,
                -0.8032115919713922,
                1.5231275725782014
            ]
        },
        {
            "positions": [
                -0.9441170615273933,
                -0.9649047309782325,
                1.839274669325744,
                0.6180310168782621,
                -0.7045922291425384,
                1.6479864167189022
            ]
        },
        {
            "positions": [
                -0.9566694328775577,
                -0.977984006473938,
                1.8539960435807836,
                0.4969824453539038,
                -0.6059728663136847,
                1.772845260859603
            ]
        },
        {
            "positions": [
                -0.9692218042277221,
                -0.9910632819696437,
                1.8687174178358232,
                0.37593387382954546,
                -0.5073535034848309,
                1.897704105000304
            ]
        },
        {
            "positions": [
                -0.9817741755778865,
                -1.004142557465349,
                1.8834387920908628,
                0.25488530230518713,
                -0.40873414065597724,
                2.0225629491410047
            ]
        },
        {
            "positions": [
                -0.9943265469280509,
                -1.0172218329610547,
                1.8981601663459025,
                0.1338367307808288,
                -0.3101147778271236,
                2.1474217932817052
            ]
        },
        {
            "positions": [
                -1.0068789182782152,
                -1.0303011084567604,
                1.9128815406009423,
                0.012788159256470255,
                -0.21149541499826974,
                2.2722806374224063
            ]
        },
        {
            "positions": [
                -1.0194312896283797,
                -1.0433803839524658,
                1.927602914855982,
                -0.10826041226788785,
                -0.1128760521694161,
                2.397139481563107
            ]
        },
        {
            "positions": [
                -1.0319836609785442,
                -1.0564596594481714,
                1.9423242891110215,
                -0.22930898379224596,
                -0.014256689340562456,
                2.521998325703808
            ]
        },
        {
            "positions": [
                -1.0445360323287085,
                -1.069538934943877,
                1.9570456633660611,
                -0.3503575553166045,
                0.0843626734882914,
                2.646857169844509
            ]
        },
        {
            "positions": [
                -1.0570884036788728,
                -1.0826182104395825,
                1.9717670376211007,
                -0.47140612684096306,
                0.18298203631714505,
                2.7717160139852095
            ]
        },
        {
            "positions": [
                -1.0696407750290373,
                -1.0956974859352882,
                1.9864884118761403,
                -0.5924546983653212,
                0.28160139914599847,
                2.8965748581259105
            ]
        },
        {
            "positions": [
                -1.0821931463792018,
                -1.1087767614309936,
                2.00120978613118,
                -0.7135032698896797,
                0.38022076197485277,
                3.0214337022666116
            ]
        },
        {
            "positions": [
                -1.0947455177293661,
                -1.1218560369266992,
                2.0159311603862196,
                -0.8345518414140378,
                0.4788401248037062,
                3.146292546407312
            ]
        }
    ]
}