{
    "goal": {
        "global_pose": {
            "orientation": {
                "w": 0.7047431468963623,
                "x": -0.7094548344612122,
                "y": 0.0024358443915843964,
                "z": -0.0022348060738295317
            },
            "position": {
                "x": 0.6094750761985779,
                "y": 0.3671506643295288,
                "z": 0.19426114857196808
            }
        },
        "name": "move_to_magneteinheit_A"
    },
    "id": "KPIECE_move_to_magneteinheit_A_143",
    "joint_names": [
        "shoulder_pan_joint",
        "shoulder_lift_joint",
        "elbow_joint",
        "wrist_1_joint",
        "wrist_2_joint",
        "wrist_3_joint"
    ],
    "metrics": {
        "cart_traj_len": 1.0538930030453613,
        "distance_elbow_joint": 0.38521700203439724,
        "distance_shoulder_lift_joint": 0.36483887848037977,
        "distance_shoulder_pan_joint": 1.2427137384026294,
        "distance_wrist_1_joint": 2.214099865501307,
        "distance_wrist_2_joint": 1.70485357372017,
        "distance_wrist_3_joint": 1.2306873778280645,
        "smoothness": 0.0,
        "time": 0.011770768,
        "traj_len": 2.6725288466108177,
        "weighted_distance": 3.6773276480135073
    },
    "planner": "KPIECE",
    "start": {
        "state": {
            "elbow_joint": 1.5739458966750683,
            "shoulder_lift_joint": -1.4977259741207325,
            "shoulder_pan_joint": -1.1188672016454206,
            "wrist_1_joint": 1.494575848278785,
            "wrist_2_joint": -1.5706037134824402,
            "wrist_3_joint": -2.0226957942261072
        }
    },
    "waypoints": [
        {
            "positions": [
                -1.1188672016454206,
                -1.4977259741207325,
                1.5739458966750683,
                1.494575848278785,
                -1.5706037134824402,
                -2.0226957942261072
            ]
        },
        {
            "positions": [
                -1.0534612154137033,
                -1.478523927884923,
                1.5942204757295102,
                1.3780442764102951,
                -1.480874578023484,
                -2.0874688141117947
            ]
        },
        {
            "positions": [
                -0.988055229181986,
                -1.4593218816491136,
                1.6144950547839523,
                1.2615127045418053,
                -1.3911454425645275,
                -2.1522418339974823
            ]
        },
        {
            "positions": [
                -0.9226492429502686,
                -1.440119835413304,
                1.6347696338383941,
                1.1449811326733155,
                -1.3014163071055713,
                -2.21701485388317
            ]
        },
        {
            "positions": [
                -0.8572432567185513,
                -1.4209177891774947,
                1.6550442128928362,
                1.0284495608048256,
                -1.211687171646615,
                -2.2817878737688577
            ]
        },
        {
            "positions": [
                -0.7918372704868339,
                -1.401715742941685,
                1.675318791947278,
                0.9119179889363358,
                -1.1219580361876587,
                -2.3465608936545452
            ]
        },
        {
            "positions": [
                -0.7264312842551166,
                -1.3825136967058758,
                1.6955933710017201,
                0.795386417067846,
                -1.0322289007287022,
                -2.4113339135402327
            ]
        },
        {
            "positions": [
                -0.6610252980233993,
                -1.3633116504700662,
                1.715867950056162,
                0.6788548451993561,
                -0.942499765269746,
                -2.4761069334259203
            ]
        },
        {
            "positions": [
                -0.5956193117916819,
                -1.3441096042342568,
                1.736142529110604,
                0.5623232733308663,
                -0.8527706298107898,
                -2.5408799533116078
            ]
        },
        {
            "positions": [
                -0.5302133255599646,
                -1.3249075579984473,
                1.756417108165046,
                0.44579170146237646,
                -0.7630414943518334,
                -2.6056529731972957
            ]
        },
        {
            "positions": [
                -0.46480733932824725,
                -1.305705511762638,
                1.776691687219488,
                0.3292601295938866,
                -0.6733123588928771,
                -2.6704259930829832
            ]
        },
        {
            "positions": [
                -0.3994013530965299,
                -1.2865034655268284,
                1.7969662662739299,
                0.21272855772539656,
                -0.5835832234339207,
                -2.735199012968671
            ]
        },
        {
            "positions": [
                -0.33399536686481257,
                -1.267301419291019,
                1.817240845328372,
                0.09619698585690695,
                -0.49385408797496444,
                -2.7999720328543587
            ]
        },
        {
            "positions": [
                -0.26858938063309523,
                -1.2480993730552095,
                1.8375154243828138,
                -0.02033458601158311,
                -0.404124952516008,
                -2.864745052740046
            ]
        },
        {
            "positions": [
                -0.2031833944013779,
                -1.2288973268194001,
                1.8577900034372559,
                -0.13686615788007273,
                -0.3143958170570518,
                -2.9295180726257337
            ]
        },
        {
            "positions": [
                -0.13777740816966055,
                -1.2096952805835905,
                1.8780645824916977,
                -0.2533977297485628,
                -0.22466668159809555,
                -2.9942910925114212
            ]
        },
        {
            "positions": [
                -0.07237142193794321,
                -1.1904932343477812,
                1.8983391615461396,
                -0.3699293016170524,
                -0.13493754613913933,
                -3.0590641123971087
            ]
        },
        {
            "positions": [
                -0.006965435706225875,
                -1.1712911881119716,
                1.9186137406005817,
                -0.48646087348554246,
                -0.04520841068018289,
                -3.1238371322827962
            ]
        },
        {
            "positions": [
                0.058440550525491464,
                -1.152089141876162,
                1.9388883196550237,
                -0.6029924453540321,
                0.044520724778773335,
                -3.1886101521684838
            ]
        },
        {
            "positions": [
                0.1238465367572087,
                -1.1328870956403527,
                1.9591628987094656,
                -0.7195240172225221,
                0.13424986023772975,
                -3.2533831720541717
            ]
        }
    ]
}