{
    "goal": {
        "global_pose": {
            "orientation": {
                "w": 0.005598929693374612,
                "x": 0.007748599140229565,
                "y": 0.7110244013736278,
                "z": -0.7031023480610252
            },
            "position": {
                "x": 0.1141497679147869,
                "y": -0.7141253447532654,
                "z": 0.3711530566215515
            }
        },
        "name": "move_to_auspresseinheit_B"
    },
    "id": "KPIECE_move_to_auspresseinheit_B_82",
    "joint_names": [
        "shoulder_pan_joint",
        "shoulder_lift_joint",
        "elbow_joint",
        "wrist_1_joint",
        "wrist_2_joint",
        "wrist_3_joint"
    ],
    "metrics": {
        "cart_traj_len": 0.5646432637803668,
        "distance_elbow_joint": 0.0652653184736165,
        "distance_shoulder_lift_joint": 0.2934991920034635,
        "distance_shoulder_pan_joint": 0.5777106040099664,
        "distance_wrist_1_joint": 0.3386176180585052,
        "distance_wrist_2_joint": 0.9916541965484713,
        "distance_wrist_3_joint": 0.009910715850431906,
        "smoothness": 5.075305295617109e-16,
        "time": 0.278782734,
        "traj_len": 1.5088597167876325,
        "weighted_distance": 1.9044030275265513
    },
    "planner": "KPIECE",
    "start": {
        "state": {
            "elbow_joint": 2.019306165916698,
            "shoulder_lift_joint": -1.1220205098164344,
            "shoulder_pan_joint": -1.095207207618794,
            "wrist_1_joint": -0.8559671824921639,
            "wrist_2_joint": 0.47596387242952726,
            "wrist_3_joint": 3.159081874673826
        }
    },
    "waypoints": [
        {
            "positions": [
                -1.095207207618794,
                -1.1220205098164344,
                2.019306165916698,
                -0.8559671824921639,
                0.47596387242952726,
                3.159081874673826
            ]
        },
        {
            "positions": [
                -1.1914923082871218,
                -1.1709370418170117,
                2.0084286128377618,
                -0.7995309128157463,
                0.6412395718542725,
                3.157430088698754
            ]
        },
        {
            "positions": [
                -1.2877774089554495,
                -1.2198535738175889,
                1.9975510597588257,
                -0.7430946431393288,
                0.8065152712790177,
                3.155778302723682
            ]
        },
        {
            "positions": [
                -1.384062509623777,
                -1.2687701058181662,
                1.9866735066798897,
                -0.6866583734629113,
                0.9717909707037629,
                3.15412651674861
            ]
        },
        {
            "positions": [
                -1.480347610292105,
                -1.3176866378187435,
                1.9757959536009537,
                -0.6302221037864937,
                1.1370666701285082,
                3.152474730773538
            ]
        },
        {
            "positions": [
                -1.5766327109604328,
                -1.3666031698193206,
                1.9649184005220175,
                -0.5737858341100761,
                1.3023423695532534,
                3.150822944798466
            ]
        },
        {
            "positions": [
                -1.6729178116287604,
                -1.415519701819898,
                1.9540408474430815,
                -0.5173495644336586,
                1.4676180689779985,
                3.149171158823394
            ]
        }
    ]
}