{
    "goal": {
        "global_pose": {
            "orientation": {
                "w": 0.5084816262002911,
                "x": -0.4908360881923452,
                "y": 0.5182115481033761,
                "z": -0.48164630358495003
            },
            "position": {
                "x": 0.5540239810943604,
                "y": -0.46912469901144505,
                "z": 0.16403168439865112
            }
        },
        "name": "move_to_storage_B"
    },
    "id": "KPIECE_move_to_storage_B_108",
    "joint_names": [
        "shoulder_pan_joint",
        "shoulder_lift_joint",
        "elbow_joint",
        "wrist_1_joint",
        "wrist_2_joint",
        "wrist_3_joint"
    ],
    "metrics": {
        "cart_traj_len": 3.3098195844668505,
        "distance_elbow_joint": 3.6805529453685724,
        "distance_shoulder_lift_joint": 0.458710068307699,
        "distance_shoulder_pan_joint": 2.3391295990973493,
        "distance_wrist_1_joint": 2.994482356628187,
        "distance_wrist_2_joint": 3.2447424911698954,
        "distance_wrist_3_joint": 3.7176746264943867,
        "smoothness": 0.29720594670293327,
        "time": 0.19488063,
        "traj_len": 4.054046384424589,
        "weighted_distance": 5.487245774325491
    },
    "planner": "KPIECE",
    "start": {
        "state": {
            "elbow_joint": 1.6649325706314817,
            "shoulder_lift_joint": -0.6616388048112454,
            "shoulder_pan_joint": -0.9139837860083814,
            "wrist_1_joint": 2.146757197745094,
            "wrist_2_joint": -2.234196043158733,
            "wrist_3_joint": 0.005471033829999897
        }
    },
    "waypoints": [
        {
            "positions": [
                -0.9139837860083814,
                -0.6616388048112454,
                1.6649325706314817,
                2.146757197745094,
                -2.234196043158733,
                0.005471033829999897
            ]
        },
        {
            "positions": [
                -0.882752049481857,
                -0.6731782829044577,
                1.6531072215004234,
                2.143983936693709,
                -2.2260602738053077,
                -0.015572908853848906
            ]
        },
        {
            "positions": [
                -0.8351270444802343,
                -0.688371093324035,
                1.5779956925827978,
                2.034187111282263,
                -2.091173920331707,
                -0.027760814456618522
            ]
        },
        {
            "positions": [
                -0.7875020394786116,
                -0.7035639037436124,
                1.502884163665172,
                1.9243902858708177,
                -1.9562875668581063,
                -0.03994872005938813
            ]
        },
        {
            "positions": [
                -0.7398770344769889,
                -0.7187567141631898,
                1.4277726347475463,
                1.8145934604593723,
                -1.8214012133845057,
                -0.052136625662157744
            ]
        },
        {
            "positions": [
                -0.6922520294753662,
                -0.7339495245827671,
                1.3526611058299205,
                1.704796635047927,
                -1.686514859910905,
                -0.06432453126492736
            ]
        },
        {
            "positions": [
                -0.6446270244737435,
                -0.7491423350023444,
                1.2775495769122949,
                1.5949998096364815,
                -1.551628506437304,
                -0.07651243686769697
            ]
        },
        {
            "positions": [
                -0.5970020194721208,
                -0.7643351454219218,
                1.202438047994669,
                1.4852029842250358,
                -1.4167421529637036,
                -0.08870034247046658
            ]
        },
        {
            "positions": [
                -0.5493770144704981,
                -0.7795279558414991,
                1.1273265190770432,
                1.3754061588135904,
                -1.2818557994901028,
                -0.1008882480732362
            ]
        },
        {
            "positions": [
                -0.5017520094688754,
                -0.7947207662610765,
                1.0522149901594176,
                1.265609333402145,
                -1.146969446016502,
                -0.11307615367600582
            ]
        },
        {
            "positions": [
                -0.4541270044672528,
                -0.8099135766806538,
                0.9771034612417918,
                1.1558125079906993,
                -1.0120830925429014,
                -0.12526405927877543
            ]
        },
        {
            "positions": [
                -0.40650199946563015,
                -0.8251063871002312,
                0.9019919323241661,
                1.046015682579254,
                -0.8771967390693007,
                -0.13745196488154504
            ]
        },
        {
            "positions": [
                -0.35887699446400745,
                -0.8402991975198085,
                0.8268804034065403,
                0.9362188571678085,
                -0.7423103855957001,
                -0.14963987048431465
            ]
        },
        {
            "positions": [
                -0.31125198946238475,
                -0.8554920079393858,
                0.7517688744889147,
                0.8264220317563631,
                -0.6074240321220994,
                -0.16182777608708426
            ]
        },
        {
            "positions": [
                -0.26362698446076205,
                -0.8706848183589633,
                0.6766573455712889,
                0.7166252063449174,
                -0.4725376786484985,
                -0.17401568168985387
            ]
        },
        {
            "positions": [
                -0.21600197945913935,
                -0.8858776287785406,
                0.6015458166536631,
                0.606828380933472,
                -0.33765132517489804,
                -0.18620358729262348
            ]
        },
        {
            "positions": [
                -0.16837697445751676,
                -0.9010704391981179,
                0.5264342877360375,
                0.4970315555220266,
                -0.20276497170129737,
                -0.1983914928953931
            ]
        },
        {
            "positions": [
                -0.12075196945589395,
                -0.9162632496176952,
                0.45132275881841166,
                0.38723473011058096,
                -0.06787861822769647,
                -0.21057939849816273
            ]
        },
        {
            "positions": [
                -0.07312696445427136,
                -0.9314560600372725,
                0.37621122990078604,
                0.27743790469913576,
                0.06700773524590398,
                -0.22276730410093232
            ]
        },
        {
            "positions": [
                -0.025501959452648548,
                -0.94664887045685,
                0.3010997009831602,
                0.16764107928769012,
                0.20189408871950487,
                -0.23495520970370196
            ]
        },
        {
            "positions": [
                0.02212304554897404,
                -0.9618416808764273,
                0.22598817206553434,
                0.0578442538762447,
                0.3367804421931053,
                -0.24714311530647157
            ]
        },
        {
            "positions": [
                0.06974805055059674,
                -0.9770344912960047,
                0.15087664314790872,
                -0.05195257153520094,
                0.4716667956667062,
                -0.2593310209092412
            ]
        },
        {
            "positions": [
                0.11737305555221944,
                -0.992227301715582,
                0.07576511423028287,
                -0.16174939694664658,
                0.6065531491403071,
                -0.2715189265120108
            ]
        },
        {
            "positions": [
                0.16499806055384214,
                -1.0074201121351594,
                0.0006535853126573288,
                -0.2715462223580917,
                0.7414395026139075,
                -0.2837068321147804
            ]
        },
        {
            "positions": [
                0.10199067292708591,
                -1.0130665501843485,
                0.10146728331514474,
                -0.30035516918434196,
                0.7279841553440447,
                -0.11228199408730011
            ]
        },
        {
            "positions": [
                0.038983285300329684,
                -1.018712988233538,
                0.20228098131763214,
                -0.3291641160105922,
                0.7145288080741818,
                0.05914284394018021
            ]
        },
        {
            "positions": [
                -0.024024102326426544,
                -1.0243594262827271,
                0.3030946793201196,
                -0.35797306283684244,
                0.7010734608043191,
                0.23056768196766053
            ]
        },
        {
            "positions": [
                -0.08703148995318277,
                -1.0300058643319163,
                0.403908377322607,
                -0.3867820096630927,
                0.6876181135344563,
                0.40199251999514085
            ]
        },
        {
            "positions": [
                -0.150038877579939,
                -1.0356523023811057,
                0.5047220753250944,
                -0.4155909564893429,
                0.6741627662645935,
                0.5734173580226212
            ]
        },
        {
            "positions": [
                -0.21304626520669523,
                -1.041298740430295,
                0.6055357733275818,
                -0.44439990331559315,
                0.6607074189947307,
                0.7448421960501015
            ]
        },
        {
            "positions": [
                -0.2760536528334514,
                -1.046945178479484,
                0.7063494713300692,
                -0.4732088501418434,
                0.647252071724868,
                0.9162670340775818
            ]
        },
        {
            "positions": [
                -0.3390610404602077,
                -1.0525916165286733,
                0.8071631693325566,
                -0.5020177969680937,
                0.6337967244550051,
                1.0876918721050621
            ]
        },
        {
            "positions": [
                -0.40206842808696397,
                -1.0582380545778627,
                0.907976867335044,
                -0.5308267437943439,
                0.6203413771851424,
                1.2591167101325424
            ]
        },
        {
            "positions": [
                -0.46507581571372014,
                -1.0638844926270519,
                1.0087905653375313,
                -0.5596356906205942,
                0.6068860299152796,
                1.4305415481600228
            ]
        },
        {
            "positions": [
                -0.5280832033404764,
                -1.069530930676241,
                1.1096042633400187,
                -0.5884446374468444,
                0.5934306826454168,
                1.6019663861875033
            ]
        },
        {
            "positions": [
                -0.5910905909672326,
                -1.0751773687254305,
                1.2104179613425061,
                -0.6172535842730946,
                0.5799753353755541,
                1.7733912242149834
            ]
        },
        {
            "positions": [
                -0.6540979785939889,
                -1.0808238067746196,
                1.3112316593449935,
                -0.6460625310993449,
                0.5665199881056913,
                1.9448160622424637
            ]
        },
        {
            "positions": [
                -0.7171053662207449,
                -1.0864702448238088,
                1.412045357347481,
                -0.6748714779255951,
                0.5530646408358285,
                2.1162409002699443
            ]
        },
        {
            "positions": [
                -0.7801127538475012,
                -1.092116682872998,
                1.5128590553499683,
                -0.7036804247518453,
                0.5396092935659658,
                2.2876657382974246
            ]
        },
        {
            "positions": [
                -0.8431201414742575,
                -1.0977631209221874,
                1.6136727533524557,
                -0.7324893715780956,
                0.5261539462961029,
                2.459090576324905
            ]
        },
        {
            "positions": [
                -0.9061275291010138,
                -1.1034095589713766,
                1.7144864513549432,
                -0.7612983184043458,
                0.5126985990262402,
                2.6305154143523852
            ]
        },
        {
            "positions": [
                -0.9691349167277701,
                -1.1090559970205658,
                1.8153001493574306,
                -0.790107265230596,
                0.49924325175637735,
                2.8019402523798655
            ]
        },
        {
            "positions": [
                -1.0321423043545261,
                -1.1147024350697552,
                1.916113847359918,
                -0.8189162120568463,
                0.4857879044865146,
                2.973365090407346
            ]
        },
        {
            "positions": [
                -1.0951496919812824,
                -1.1203488731189444,
                2.0169275453624054,
                -0.8477251588830965,
                0.4723325572166518,
                3.144789928434826
            ]
        }
    ]
}