{
    "goal": {
        "global_pose": {
            "orientation": {
                "w": -0.4816463035849501,
                "x": 0.5182115481033762,
                "y": 0.4908360881923453,
                "z": -0.5084816262002911
            },
            "position": {
                "x": -0.8240239810943604,
                "y": 0.19912469901144506,
                "z": 0.16403168439865112
            }
        },
        "name": "move_to_storage_D"
    },
    "id": "KPIECE_move_to_storage_D_83",
    "joint_names": [
        "shoulder_pan_joint",
        "shoulder_lift_joint",
        "elbow_joint",
        "wrist_1_joint",
        "wrist_2_joint",
        "wrist_3_joint"
    ],
    "metrics": {
        "cart_traj_len": 3.8951345934082915,
        "distance_elbow_joint": 4.210857673631339,
        "distance_shoulder_lift_joint": 1.2645544424815884,
        "distance_shoulder_pan_joint": 2.812187640822685,
        "distance_wrist_1_joint": 2.2783963921669352,
        "distance_wrist_2_joint": 0.867399234930604,
        "distance_wrist_3_joint": 3.1263568018778525,
        "smoothness": 3.7396986256905054e-16,
        "time": 0.086283742,
        "traj_len": 3.8157243330606314,
        "weighted_distance": 4.894717705523399
    },
    "planner": "KPIECE",
    "start": {
        "state": {
            "elbow_joint": -2.384821997420982,
            "shoulder_lift_joint": -2.2788054674887404,
            "shoulder_pan_joint": -0.18546946417610016,
            "wrist_1_joint": 1.4845937964226739,
            "wrist_2_joint": 0.1789877726866377,
            "wrist_3_joint": 0.03710572555276528
        }
    },
    "waypoints": [
        {
            "positions": [
                -0.18546946417610016,
                -2.2788054674887404,
                -2.384821997420982,
                1.4845937964226739,
                0.1789877726866377,
                0.03710572555276528
            ]
        },
        {
            "positions": [
                -0.10835090559690405,
                -2.2564424894008344,
                -2.2633483020079685,
                1.4091557998103812,
                0.20433197603707812,
                -0.03500644133610451
            ]
        },
        {
            "positions": [
                -0.03123234701770794,
                -2.234079511312929,
                -2.141874606594955,
                1.3337178031980885,
                0.22967617938751853,
                -0.1071186082249743
            ]
        },
        {
            "positions": [
                0.0458862115614882,
                -2.211716533225023,
                -2.020400911181942,
                1.2582798065857959,
                0.2550203827379589,
                -0.17923077511384408
            ]
        },
        {
            "positions": [
                0.12300477014068428,
                -2.189353555137117,
                -1.8989272157689288,
                1.1828418099735032,
                0.2803645860883993,
                -0.2513429420027139
            ]
        },
        {
            "positions": [
                0.20012332871988042,
                -2.1669905770492113,
                -1.7774535203559156,
                1.1074038133612105,
                0.3057087894388397,
                -0.3234551088915837
            ]
        },
        {
            "positions": [
                0.27724188729907656,
                -2.1446275989613053,
                -1.6559798249429023,
                1.0319658167489176,
                0.33105299278928013,
                -0.3955672757804535
            ]
        },
        {
            "positions": [
                0.3543604458782727,
                -2.1222646208733993,
                -1.534506129529889,
                0.956527820136625,
                0.35639719613972054,
                -0.46767944266932326
            ]
        },
        {
            "positions": [
                0.43147900445746873,
                -2.0999016427854933,
                -1.4130324341168756,
                0.8810898235243323,
                0.38174139949016095,
                -0.539791609558193
            ]
        },
        {
            "positions": [
                0.5085975630366648,
                -2.0775386646975877,
                -1.2915587387038625,
                0.8056518269120396,
                0.40708560284060136,
                -0.6119037764470628
            ]
        },
        {
            "positions": [
                0.5857161216158611,
                -2.0551756866096818,
                -1.1700850432908492,
                0.730213830299747,
                0.43242980619104177,
                -0.6840159433359326
            ]
        },
        {
            "positions": [
                0.6628346801950571,
                -2.0328127085217758,
                -1.0486113478778358,
                0.6547758336874543,
                0.4577740095414822,
                -0.7561281102248023
            ]
        },
        {
            "positions": [
                0.7399532387742533,
                -2.01044973043387,
                -0.9271376524648225,
                0.5793378370751614,
                0.4831182128919226,
                -0.8282402771136722
            ]
        },
        {
            "positions": [
                0.8170717973534494,
                -1.9880867523459642,
                -0.8056639570518092,
                0.5038998404628687,
                0.508462416242363,
                -0.900352444002542
            ]
        },
        {
            "positions": [
                0.8941903559326456,
                -1.9657237742580582,
                -0.684190261638796,
                0.42846184385057606,
                0.5338066195928034,
                -0.9724646108914118
            ]
        },
        {
            "positions": [
                0.9713089145118416,
                -1.9433607961701524,
                -0.5627165662257827,
                0.3530238472382834,
                0.5591508229432438,
                -1.0445767777802815
            ]
        },
        {
            "positions": [
                1.0484274730910377,
                -1.9209978180822467,
                -0.44124287081276936,
                0.2775858506259907,
                0.5844950262936842,
                -1.1166889446691513
            ]
        },
        {
            "positions": [
                1.125546031670234,
                -1.8986348399943407,
                -0.319769175399756,
                0.20214785401369806,
                0.6098392296441246,
                -1.188801111558021
            ]
        },
        {
            "positions": [
                1.20266459024943,
                -1.876271861906435,
                -0.19829547998674313,
                0.1267098574014054,
                0.635183432994565,
                -1.2609132784468908
            ]
        },
        {
            "positions": [
                1.279783148828626,
                -1.8539088838185291,
                -0.07682178457372979,
                0.05127186078911272,
                0.6605276363450054,
                -1.3330254453357606
            ]
        },
        {
            "positions": [
                1.3569017074078222,
                -1.8315459057306231,
                0.04465191083928355,
                -0.024166135823179946,
                0.6858718396954459,
                -1.4051376122246304
            ]
        },
        {
            "positions": [
                1.4340202659870183,
                -1.8091829276427174,
                0.1661256062522969,
                -0.09960413243547261,
                0.7112160430458863,
                -1.4772497791135002
            ]
        },
        {
            "positions": [
                1.5111388245662143,
                -1.7868199495548114,
                0.2875993016653102,
                -0.17504212904776528,
                0.7365602463963267,
                -1.5493619460023698
            ]
        },
        {
            "positions": [
                1.5882573831454108,
                -1.7644569714669056,
                0.40907299707832356,
                -0.2504801256600584,
                0.7619044497467671,
                -1.62147411289124
            ]
        },
        {
            "positions": [
                1.6653759417246068,
                -1.7420939933789996,
                0.5305466924913369,
                -0.32591812227235106,
                0.7872486530972075,
                -1.6935862797801096
            ]
        },
        {
            "positions": [
                1.7424945003038028,
                -1.7197310152910938,
                0.6520203879043502,
                -0.40135611888464373,
                0.8125928564476479,
                -1.7656984466689793
            ]
        },
        {
            "positions": [
                1.8196130588829988,
                -1.697368037203188,
                0.7734940833173636,
                -0.4767941154969364,
                0.8379370597980883,
                -1.8378106135578491
            ]
        },
        {
            "positions": [
                1.896731617462195,
                -1.675005059115282,
                0.8949677787303769,
                -0.5522321121092291,
                0.8632812631485287,
                -1.909922780446719
            ]
        },
        {
            "positions": [
                1.9738501760413913,
                -1.6526420810273763,
                1.0164414741433898,
                -0.6276701087215217,
                0.8886254664989691,
                -1.9820349473355887
            ]
        },
        {
            "positions": [
                2.050968734620587,
                -1.6302791029394705,
                1.1379151695564031,
                -0.7031081053338144,
                0.9139696698494095,
                -2.0541471142244587
            ]
        },
        {
            "positions": [
                2.1280872931997834,
                -1.6079161248515645,
                1.2593888649694163,
                -0.7785461019461073,
                0.9393138731998499,
                -2.1262592811133283
            ]
        },
        {
            "positions": [
                2.1993202765493263,
                -1.5231068248737913,
                1.3403384094324076,
                -0.7807256010601293,
                0.9546100352594773,
                -2.263829537572151
            ]
        },
        {
            "positions": [
                2.2705532598988696,
                -1.4382975248960181,
                1.421287953895399,
                -0.7829051001741514,
                0.9699061973191048,
                -2.4013997940309735
            ]
        },
        {
            "positions": [
                2.3417862432484124,
                -1.353488224918245,
                1.5022374983583904,
                -0.7850845992881734,
                0.9852023593787321,
                -2.5389700504897963
            ]
        },
        {
            "positions": [
                2.4130192265979558,
                -1.2686789249404717,
                1.5831870428213817,
                -0.7872640984021955,
                1.0004985214383595,
                -2.676540306948619
            ]
        },
        {
            "positions": [
                2.4842522099474986,
                -1.1838696249626983,
                1.6641365872843732,
                -0.7894435975162175,
                1.015794683497987,
                -2.814110563407442
            ]
        },
        {
            "positions": [
                2.5554851932970415,
                -1.0990603249849253,
                1.7450861317473643,
                -0.7916230966302396,
                1.0310908455576142,
                -2.9516808198662643
            ]
        },
        {
            "positions": [
                2.626718176646585,
                -1.014251025007152,
                1.8260356762103558,
                -0.7938025957442616,
                1.0463870076172417,
                -3.089251076325087
            ]
        }
    ]
}