{
    "goal": {
        "global_pose": {
            "orientation": {
                "w": 0.5084816262002911,
                "x": -0.4908360881923452,
                "y": 0.5182115481033761,
                "z": -0.48164630358495003
            },
            "position": {
                "x": 0.5540239810943604,
                "y": -0.46912469901144505,
                "z": 0.16403168439865112
            }
        },
        "name": "move_to_storage_B"
    },
    "id": "KPIECE_move_to_storage_B_67",
    "joint_names": [
        "shoulder_pan_joint",
        "shoulder_lift_joint",
        "elbow_joint",
        "wrist_1_joint",
        "wrist_2_joint",
        "wrist_3_joint"
    ],
    "metrics": {
        "cart_traj_len": 3.4961402153762067,
        "distance_elbow_joint": 1.0448082833433918,
        "distance_shoulder_lift_joint": 2.7956826450722856,
        "distance_shoulder_pan_joint": 3.1366161307186777,
        "distance_wrist_1_joint": 2.9790278698233803,
        "distance_wrist_2_joint": 2.7006356519494057,
        "distance_wrist_3_joint": 3.146068853068849,
        "smoothness": 0.3098393979329071,
        "time": 0.124499374,
        "traj_len": 3.9752785353954754,
        "weighted_distance": 5.2701651455989955
    },
    "planner": "KPIECE",
    "start": {
        "state": {
            "elbow_joint": 1.6649325706314817,
            "shoulder_lift_joint": -0.6616388048112454,
            "shoulder_pan_joint": -0.9139837860083814,
            "wrist_1_joint": 2.146757197745094,
            "wrist_2_joint": -2.234196043158733,
            "wrist_3_joint": 0.005471033829999897
        }
    },
    "waypoints": [
        {
            "positions": [
                -0.9139837860083814,
                -0.6616388048112454,
                1.6649325706314817,
                2.146757197745094,
                -2.234196043158733,
                0.005471033829999897
            ]
        },
        {
            "positions": [
                -0.794469999039364,
                -0.7562388142160179,
                1.6792200276889584,
                2.0704278693634697,
                -2.1816565343224896,
                0.007614328578548138
            ]
        },
        {
            "positions": [
                -0.6749562120703466,
                -0.8508388236207904,
                1.693507484746435,
                1.9940985409818455,
                -2.1291170254862464,
                0.009757623327096381
            ]
        },
        {
            "positions": [
                -0.5554424251013292,
                -0.945438833025563,
                1.7077949418039118,
                1.917769212600221,
                -2.0765775166500027,
                0.011900918075644622
            ]
        },
        {
            "positions": [
                -0.4359286381323118,
                -1.0400388424303357,
                1.7220823988613883,
                1.8414398842185966,
                -2.0240380078137594,
                0.014044212824192864
            ]
        },
        {
            "positions": [
                -0.3164148511632944,
                -1.1346388518351083,
                1.736369855918865,
                1.7651105558369724,
                -1.9714984989775162,
                0.01618750757274111
            ]
        },
        {
            "positions": [
                -0.1969010641942771,
                -1.2292388612398808,
                1.7506573129763416,
                1.688781227455348,
                -1.918958990141273,
                0.01833080232128935
            ]
        },
        {
            "positions": [
                -0.07738727722525968,
                -1.3238388706446533,
                1.7649447700338183,
                1.6124518990737235,
                -1.8664194813050294,
                0.02047409706983759
            ]
        },
        {
            "positions": [
                -0.0191591224782746,
                -1.411574685091003,
                1.7332479946373465,
                1.4899084142114956,
                -1.7892076336387843,
                0.030644187150268024
            ]
        },
        {
            "positions": [
                0.039069032268710474,
                -1.4993104995373527,
                1.7015512192408746,
                1.3673649293492678,
                -1.7119957859725392,
                0.040814277230698456
            ]
        },
        {
            "positions": [
                0.09729718701569554,
                -1.5870463139837023,
                1.6698544438444027,
                1.2448214444870398,
                -1.6347839383062943,
                0.05098436731112888
            ]
        },
        {
            "positions": [
                0.15552534176268062,
                -1.674782128430052,
                1.6381576684479309,
                1.122277959624812,
                -1.5575720906400492,
                0.061154457391559315
            ]
        },
        {
            "positions": [
                0.21375349650966569,
                -1.7625179428764017,
                1.606460893051459,
                0.999734474762584,
                -1.480360242973804,
                0.07132454747198974
            ]
        },
        {
            "positions": [
                0.27198165125665075,
                -1.8502537573227513,
                1.5747641176549871,
                0.8771909899003562,
                -1.403148395307559,
                0.08149463755242017
            ]
        },
        {
            "positions": [
                0.3302098060036358,
                -1.937989571769101,
                1.5430673422585153,
                0.7546475050381282,
                -1.325936547641314,
                0.0916647276328506
            ]
        },
        {
            "positions": [
                0.3884379607506209,
                -2.0257253862154507,
                1.5113705668620434,
                0.6321040201759003,
                -1.2487246999750687,
                0.10183481771328104
            ]
        },
        {
            "positions": [
                0.446666115497606,
                -2.1134612006618005,
                1.4796737914655715,
                0.5095605353136723,
                -1.1715128523088238,
                0.11200490779371149
            ]
        },
        {
            "positions": [
                0.5048942702445911,
                -2.20119701510815,
                1.4479770160690997,
                0.3870170504514445,
                -1.0943010046425787,
                0.1221749978741419
            ]
        },
        {
            "positions": [
                0.563122424991576,
                -2.2889328295544997,
                1.4162802406726278,
                0.26447356558921664,
                -1.0170891569763336,
                0.13234508795457234
            ]
        },
        {
            "positions": [
                0.49096981978641424,
                -2.2381333243228028,
                1.4421990039152306,
                0.21678903351671658,
                -0.9525879062908116,
                0.2636144270391061
            ]
        },
        {
            "positions": [
                0.41881721458125243,
                -2.1873338190911054,
                1.4681177671578334,
                0.16910450144421652,
                -0.8880866556052897,
                0.39488376612363985
            ]
        },
        {
            "positions": [
                0.34666460937609067,
                -2.1365343138594084,
                1.4940365304004362,
                0.12141996937171645,
                -0.8235854049197677,
                0.5261531052081736
            ]
        },
        {
            "positions": [
                0.27451200417092886,
                -2.0857348086277114,
                1.5199552936430392,
                0.07373543729921642,
                -0.7590841542342457,
                0.6574224442927074
            ]
        },
        {
            "positions": [
                0.2023593989657671,
                -2.0349353033960145,
                1.545874056885642,
                0.026050905226716353,
                -0.6945829035487237,
                0.7886917833772411
            ]
        },
        {
            "positions": [
                0.1302067937606053,
                -1.9841357981643173,
                1.5717928201282447,
                -0.021633626845783738,
                -0.6300816528632017,
                0.919961122461775
            ]
        },
        {
            "positions": [
                0.05805418855544342,
                -1.93333629293262,
                1.5977115833708475,
                -0.0693181589182838,
                -0.5655804021776798,
                1.0512304615463086
            ]
        },
        {
            "positions": [
                -0.014098416649718337,
                -1.8825367877009231,
                1.6236303466134503,
                -0.11700269099078381,
                -0.5010791514921578,
                1.1824998006308425
            ]
        },
        {
            "positions": [
                -0.0862510218548801,
                -1.831737282469226,
                1.649549109856053,
                -0.16468722306328393,
                -0.4365779008066357,
                1.3137691397153763
            ]
        },
        {
            "positions": [
                -0.15840362706004185,
                -1.7809377772375288,
                1.6754678730986559,
                -0.21237175513578394,
                -0.3720766501211138,
                1.4450384787999098
            ]
        },
        {
            "positions": [
                -0.23055623226520372,
                -1.7301382720058318,
                1.7013866363412586,
                -0.260056287208284,
                -0.30757539943559187,
                1.5763078178844436
            ]
        },
        {
            "positions": [
                -0.3027088374703655,
                -1.6793387667741349,
                1.7273053995838614,
                -0.3077408192807841,
                -0.24307414875006983,
                1.7075771569689775
            ]
        },
        {
            "positions": [
                -0.37486144267552723,
                -1.6285392615424377,
                1.7532241628264642,
                -0.3554253513532841,
                -0.1785728980645479,
                1.8388464960535114
            ]
        },
        {
            "positions": [
                -0.4470140478806892,
                -1.5777397563107405,
                1.7791429260690672,
                -0.40310988342578424,
                -0.11407164737902586,
                1.9701158351380452
            ]
        },
        {
            "positions": [
                -0.519166653085851,
                -1.5269402510790435,
                1.80506168931167,
                -0.45079441549828425,
                -0.04957039669350394,
                2.101385174222579
            ]
        },
        {
            "positions": [
                -0.5913192582910127,
                -1.4761407458473463,
                1.8309804525542728,
                -0.49847894757078426,
                0.0149308539920181,
                2.2326545133071125
            ]
        },
        {
            "positions": [
                -0.6634718634961745,
                -1.4253412406156492,
                1.8568992157968756,
                -0.5461634796432844,
                0.07943210467753992,
                2.3639238523916464
            ]
        },
        {
            "positions": [
                -0.7356244687013362,
                -1.3745417353839522,
                1.8828179790394786,
                -0.5938480117157845,
                0.14393335536306218,
                2.4951931914761802
            ]
        },
        {
            "positions": [
                -0.807777073906498,
                -1.323742230152255,
                1.9087367422820813,
                -0.6415325437882845,
                0.208434606048584,
                2.626462530560714
            ]
        },
        {
            "positions": [
                -0.8799296791116598,
                -1.272942724920558,
                1.9346555055246841,
                -0.6892170758607845,
                0.27293585673410603,
                2.7577318696452475
            ]
        },
        {
            "positions": [
                -0.9520822843168215,
                -1.2221432196888609,
                1.960574268767287,
                -0.7369016079332845,
                0.33743710741962785,
                2.8890012087297814
            ]
        },
        {
            "positions": [
                -1.0242348895219835,
                -1.1713437144571637,
                1.9864930320098897,
                -0.7845861400057846,
                0.4019383581051499,
                3.0202705478143153
            ]
        },
        {
            "positions": [
                -1.0963874947271453,
                -1.1205442092254667,
                2.0124117952524925,
                -0.8322706720782846,
                0.4664396087906718,
                3.151539886898849
            ]
        }
    ]
}