{
    "goal": {
        "global_pose": {
            "orientation": {
                "w": 0.7047431493862688,
                "x": -0.7094548369677653,
                "y": 0.0024358444001904,
                "z": -0.0022348060817251984
            },
            "position": {
                "x": -0.39052492380142206,
                "y": 0.3671506643295288,
                "z": 0.19426114857196808
            }
        },
        "name": "move_to_magneteinheit_D"
    },
    "id": "KPIECE_move_to_magneteinheit_D_109",
    "joint_names": [
        "shoulder_pan_joint",
        "shoulder_lift_joint",
        "elbow_joint",
        "wrist_1_joint",
        "wrist_2_joint",
        "wrist_3_joint"
    ],
    "metrics": {
        "cart_traj_len": 5.569290843770832,
        "distance_elbow_joint": 3.550968822492621,
        "distance_shoulder_lift_joint": 1.6356158708881816,
        "distance_shoulder_pan_joint": 4.662499007416248,
        "distance_wrist_1_joint": 2.195137085249441,
        "distance_wrist_2_joint": 1.210542850645086,
        "distance_wrist_3_joint": 3.0507870877433505,
        "smoothness": 0.5013558448289823,
        "time": 0.41275527599999995,
        "traj_len": 4.038013214990131,
        "weighted_distance": 5.080630358116614
    },
    "planner": "KPIECE",
    "start": {
        "state": {
            "elbow_joint": 0.7495348899011973,
            "shoulder_lift_joint": -0.6476975780737697,
            "shoulder_pan_joint": -2.711696901376276,
            "wrist_1_joint": -0.07506478080974305,
            "wrist_2_joint": 0.4329665971545858,
            "wrist_3_joint": 3.1361499051832524
        }
    },
    "waypoints": [
        {
            "positions": [
                -2.711696901376276,
                -0.6476975780737697,
                0.7495348899011973,
                -0.07506478080974305,
                0.4329665971545858,
                3.1361499051832524
            ]
        },
        {
            "positions": [
                -2.724454014114592,
                -0.6761657879791588,
                0.7900205661291821,
                -0.1418675512172697,
                0.40659932787828734,
                2.9336982655147166
            ]
        },
        {
            "positions": [
                -2.737211126852908,
                -0.704633997884548,
                0.830506242357167,
                -0.20867032162479637,
                0.38023205860198894,
                2.7312466258461807
            ]
        },
        {
            "positions": [
                -2.7499682395912237,
                -0.7331022077899371,
                0.8709919185851518,
                -0.275473092032323,
                0.3538647893256905,
                2.528794986177645
            ]
        },
        {
            "positions": [
                -2.76272535232954,
                -0.7615704176953262,
                0.9114775948131366,
                -0.3422758624398497,
                0.32749752004939203,
                2.326343346509109
            ]
        },
        {
            "positions": [
                -2.7754824650678556,
                -0.7900386276007153,
                0.9519632710411214,
                -0.40907863284737633,
                0.30113025077309363,
                2.123891706840573
            ]
        },
        {
            "positions": [
                -2.6595210533837714,
                -0.8380580304476339,
                0.8537726446625142,
                -0.36664641206752946,
                0.31668397521742825,
                2.0588656523000224
            ]
        },
        {
            "positions": [
                -2.5435596416996877,
                -0.8860774332945525,
                0.7555820182839071,
                -0.3242141912876826,
                0.3322376996617628,
                1.9938395977594716
            ]
        },
        {
            "positions": [
                -2.4275982300156036,
                -0.934096836141471,
                0.6573913919052999,
                -0.2817819705078357,
                0.3477914241060974,
                1.9288135432189208
            ]
        },
        {
            "positions": [
                -2.31163681833152,
                -0.9821162389883896,
                0.5592007655266928,
                -0.23934974972798886,
                0.363345148550432,
                1.86378748867837
            ]
        },
        {
            "positions": [
                -2.1956754066474358,
                -1.0301356418353083,
                0.4610101391480856,
                -0.19691752894814202,
                0.3788988729947666,
                1.7987614341378193
            ]
        },
        {
            "positions": [
                -2.0797139949633516,
                -1.0781550446822268,
                0.36281951276947844,
                -0.15448530816829514,
                0.3944525974391012,
                1.7337353795972685
            ]
        },
        {
            "positions": [
                -1.9637525832792677,
                -1.1261744475291453,
                0.26462888639087123,
                -0.11205308738844827,
                0.4100063218834358,
                1.6687093250567178
            ]
        },
        {
            "positions": [
                -1.8477911715951838,
                -1.174193850376064,
                0.16643826001226414,
                -0.0696208666086014,
                0.4255600463277704,
                1.603683270516167
            ]
        },
        {
            "positions": [
                -1.7318297599110997,
                -1.2222132532229826,
                0.06824763363365682,
                -0.02718864582875452,
                0.441113770772105,
                1.5386572159756162
            ]
        },
        {
            "positions": [
                -1.6158683482270157,
                -1.270232656069901,
                -0.02994299274495027,
                0.015243574951092298,
                0.45666749521643957,
                1.4736311614350655
            ]
        },
        {
            "positions": [
                -1.4999069365429318,
                -1.3182520589168196,
                -0.12813361912355736,
                0.05767579573093923,
                0.47222121966077424,
                1.4086051068945147
            ]
        },
        {
            "positions": [
                -1.383945524858848,
                -1.3662714617637381,
                -0.22632424550216457,
                0.10010801651078605,
                0.4877749441051088,
                1.3435790523539641
            ]
        },
        {
            "positions": [
                -1.2679841131747638,
                -1.414290864610657,
                -0.32451487188077177,
                0.14254023729063292,
                0.5033286685494434,
                1.2785529978134131
            ]
        },
        {
            "positions": [
                -1.1520227014906799,
                -1.4623102674575754,
                -0.422705498259379,
                0.1849724580704798,
                0.518882392993778,
                1.2135269432728626
            ]
        },
        {
            "positions": [
                -1.0360612898065957,
                -1.5103296703044942,
                -0.5208961246379862,
                0.22740467885032667,
                0.5344361174381126,
                1.1485008887323118
            ]
        },
        {
            "positions": [
                -0.920099878122512,
                -1.5583490731514127,
                -0.6190867510165932,
                0.26983689963017354,
                0.5499898418824472,
                1.083474834191761
            ]
        },
        {
            "positions": [
                -0.8041384664384281,
                -1.6063684759983312,
                -0.7172773773952004,
                0.3122691204100203,
                0.5655435663267818,
                1.0184487796512103
            ]
        },
        {
            "positions": [
                -0.6881770547543438,
                -1.6543878788452497,
                -0.8154680037738078,
                0.3547013411898673,
                0.5810972907711164,
                0.9534227251106595
            ]
        },
        {
            "positions": [
                -0.5722156430702601,
                -1.7024072816921683,
                -0.9136586301524148,
                0.39713356196971417,
                0.5966510152154509,
                0.8883966705701087
            ]
        },
        {
            "positions": [
                -0.45625423138617593,
                -1.7504266845390868,
                -1.011849256531022,
                0.43956578274956093,
                0.6122047396597856,
                0.823370616029558
            ]
        },
        {
            "positions": [
                -0.34029281970209224,
                -1.7984460873860053,
                -1.1100398829096287,
                0.4819980035294078,
                0.6277584641041201,
                0.7583445614890074
            ]
        },
        {
            "positions": [
                -0.2243314080180081,
                -1.8464654902329243,
                -1.2082305092882362,
                0.5244302243092548,
                0.6433121885484547,
                0.6933185069484564
            ]
        },
        {
            "positions": [
                -0.10836999633392397,
                -1.8944848930798428,
                -1.3064211356668436,
                0.5668624450891017,
                0.6588659129927894,
                0.6282924524079057
            ]
        },
        {
            "positions": [
                0.007591415350159725,
                -1.9425042959267613,
                -1.4046117620454506,
                0.6092946658689484,
                0.6744196374371239,
                0.5632663978673551
            ]
        },
        {
            "positions": [
                0.12355282703424386,
                -1.9905236987736799,
                -1.5028023884240576,
                0.6517268866487953,
                0.6899733618814585,
                0.49824034332680434
            ]
        },
        {
            "positions": [
                0.239514238718328,
                -2.0385431016205984,
                -1.600993014802665,
                0.6941591074286422,
                0.7055270863257932,
                0.43321428878625334
            ]
        },
        {
            "positions": [
                0.3554756504024117,
                -2.086562504467517,
                -1.699183641181272,
                0.736591328208489,
                0.7210808107701276,
                0.3681882342457028
            ]
        },
        {
            "positions": [
                0.47143706208649583,
                -2.1345819073144354,
                -1.7973742675598794,
                0.7790235489883359,
                0.7366345352144623,
                0.303162179705152
            ]
        },
        {
            "positions": [
                0.5873984737705795,
                -2.182601310161354,
                -1.8955648939384864,
                0.8214557697681828,
                0.7521882596587969,
                0.23813612516460125
            ]
        },
        {
            "positions": [
                0.7033598854546641,
                -2.230620713008273,
                -1.9937555203170938,
                0.8638879905480297,
                0.7677419841031315,
                0.17311007062405048
            ]
        },
        {
            "positions": [
                0.8193212971387477,
                -2.2786401158551914,
                -2.0919461466957006,
                0.9063202113278765,
                0.7832957085474661,
                0.10808401608349982
            ]
        },
        {
            "positions": [
                0.6759056283504529,
                -2.27797249683994,
                -2.1354648643551113,
                0.9842808383330985,
                0.698075559049006,
                0.10483813056298567
            ]
        },
        {
            "positions": [
                0.5324899595621582,
                -2.2773048778246885,
                -2.178983582014522,
                1.0622414653383205,
                0.6128554095505457,
                0.10159224504247152
            ]
        },
        {
            "positions": [
                0.38907429077386335,
                -2.276637258809437,
                -2.2225022996739328,
                1.1402020923435428,
                0.5276352600520856,
                0.09834635952195737
            ]
        },
        {
            "positions": [
                0.24565862198556854,
                -2.275969639794186,
                -2.2660210173333435,
                1.2181627193487647,
                0.4424151105536254,
                0.09510047400144322
            ]
        },
        {
            "positions": [
                0.10224295319727372,
                -2.2753020207789345,
                -2.3095397349927542,
                1.296123346353987,
                0.35719496105516524,
                0.09185458848092908
            ]
        },
        {
            "positions": [
                -0.04117271559102098,
                -2.274634401763683,
                -2.353058452652165,
                1.374083973359209,
                0.2719748115567051,
                0.08860870296041493
            ]
        },
        {
            "positions": [
                -0.1845883843793158,
                -2.2739667827484316,
                -2.3965771703115757,
                1.452044600364431,
                0.18675466205824484,
                0.08536281743990078
            ]
        }
    ]
}