{
    "goal": {
        "global_pose": {
            "orientation": {
                "w": 0.005598929693374612,
                "x": 0.007748599140229565,
                "y": 0.7110244013736278,
                "z": -0.7031023480610252
            },
            "position": {
                "x": 0.1141497679147869,
                "y": -0.7141253447532654,
                "z": 0.3711530566215515
            }
        },
        "name": "move_to_auspresseinheit_B"
    },
    "id": "KPIECE_move_to_auspresseinheit_B_7",
    "joint_names": [
        "shoulder_pan_joint",
        "shoulder_lift_joint",
        "elbow_joint",
        "wrist_1_joint",
        "wrist_2_joint",
        "wrist_3_joint"
    ],
    "metrics": {
        "cart_traj_len": 0.5648495829908843,
        "distance_elbow_joint": 0.06359231628963502,
        "distance_shoulder_lift_joint": 0.2949612580946457,
        "distance_shoulder_pan_joint": 0.57909282983274,
        "distance_wrist_1_joint": 0.3342142657508682,
        "distance_wrist_2_joint": 0.9858152529953192,
        "distance_wrist_3_joint": 0.004986961736716644,
        "smoothness": 1.0150610591234219e-15,
        "time": 0.31833889299999996,
        "traj_len": 1.5042150393809806,
        "weighted_distance": 1.8954330183152202
    },
    "planner": "KPIECE",
    "start": {
        "state": {
            "elbow_joint": 2.019306165916698,
            "shoulder_lift_joint": -1.1220205098164344,
            "shoulder_pan_joint": -1.095207207618794,
            "wrist_1_joint": -0.8559671824921639,
            "wrist_2_joint": 0.47596387242952726,
            "wrist_3_joint": 3.159081874673826
        }
    },
    "waypoints": [
        {
            "positions": [
                -1.095207207618794,
                -1.1220205098164344,
                2.019306165916698,
                -0.8559671824921639,
                0.47596387242952726,
                3.159081874673826
            ]
        },
        {
            "positions": [
                -1.191722679257584,
                -1.1711807194988753,
                2.0087074465350923,
                -0.8002648048670191,
                0.6402664145954138,
                3.158250714384373
            ]
        },
        {
            "positions": [
                -1.288238150896374,
                -1.2203409291813163,
                1.9981087271534863,
                -0.7445624272418745,
                0.8045689567613004,
                3.15741955409492
            ]
        },
        {
            "positions": [
                -1.384753622535164,
                -1.2695011388637574,
                1.9875100077718804,
                -0.6888600496167298,
                0.9688714989271869,
                3.1565883938054675
            ]
        },
        {
            "positions": [
                -1.481269094173954,
                -1.3186613485461982,
                1.9769112883902746,
                -0.633157671991585,
                1.1331740410930733,
                3.155757233516015
            ]
        },
        {
            "positions": [
                -1.577784565812744,
                -1.367821558228639,
                1.966312569008669,
                -0.5774552943664404,
                1.29747658325896,
                3.154926073226562
            ]
        },
        {
            "positions": [
                -1.674300037451534,
                -1.41698176791108,
                1.955713849627063,
                -0.5217529167412956,
                1.4617791254248464,
                3.154094912937109
            ]
        }
    ]
}