{
    "goal": {
        "global_pose": {
            "orientation": {
                "w": -0.00223480608172531,
                "x": 0.0024358444001904467,
                "y": 0.7094548369677653,
                "z": -0.704743149386269
            },
            "position": {
                "x": 0.6205249238014221,
                "y": -0.6371506643295288,
                "z": 0.19426114857196808
            }
        },
        "name": "move_to_magneteinheit_B"
    },
    "id": "KPIECE_move_to_magneteinheit_B_6",
    "joint_names": [
        "shoulder_pan_joint",
        "shoulder_lift_joint",
        "elbow_joint",
        "wrist_1_joint",
        "wrist_2_joint",
        "wrist_3_joint"
    ],
    "metrics": {
        "cart_traj_len": 4.314001048934866,
        "distance_elbow_joint": 4.291097088009526,
        "distance_shoulder_lift_joint": 1.1441659184561217,
        "distance_shoulder_pan_joint": 3.791373446537162,
        "distance_wrist_1_joint": 2.3370525602132433,
        "distance_wrist_2_joint": 0.6872872565928516,
        "distance_wrist_3_joint": 3.1818241769864497,
        "smoothness": 0.6748468478109098,
        "time": 4.331105809,
        "traj_len": 3.9284603150337865,
        "weighted_distance": 4.9820466294058665
    },
    "planner": "KPIECE",
    "start": {
        "state": {
            "elbow_joint": 2.3935871308073637,
            "shoulder_lift_joint": -1.9085141043777403,
            "shoulder_pan_joint": 0.7066247067284167,
            "wrist_1_joint": -0.46782909355067076,
            "wrist_2_joint": 0.7096259085804283,
            "wrist_3_joint": -3.1358149275257428
        }
    },
    "waypoints": [
        {
            "positions": [
                0.7066247067284167,
                -1.9085141043777403,
                2.3935871308073637,
                -0.46782909355067076,
                0.7096259085804283,
                -3.1358149275257428
            ]
        },
        {
            "positions": [
                0.6204540772299542,
                -1.911031439220563,
                2.4074884473060125,
                -0.4482073605973295,
                0.7454745855734994,
                -3.014838094773978
            ]
        },
        {
            "positions": [
                0.5342834477314916,
                -1.9135487740633856,
                2.421389763804661,
                -0.4285856276439883,
                0.7813232625665705,
                -2.8938612620222135
            ]
        },
        {
            "positions": [
                0.44332325113208654,
                -1.8819339238727604,
                2.4004820093944432,
                -0.37964343155508706,
                0.7547029787154942,
                -2.763131042347899
            ]
        },
        {
            "positions": [
                0.35236305453268146,
                -1.850319073682135,
                2.3795742549842256,
                -0.3307012354661858,
                0.7280826948644178,
                -2.6324008226735844
            ]
        },
        {
            "positions": [
                0.26140285793327633,
                -1.8187042234915098,
                2.358666500574008,
                -0.2817590393772846,
                0.7014624110133414,
                -2.50167060299927
            ]
        },
        {
            "positions": [
                0.17044266133387126,
                -1.7870893733008848,
                2.3377587461637903,
                -0.23281684328838334,
                0.6748421271622651,
                -2.370940383324955
            ]
        },
        {
            "positions": [
                0.07948246473446618,
                -1.7554745231102595,
                2.3168509917535727,
                -0.1838746471994821,
                0.6482218433111888,
                -2.2402101636506404
            ]
        },
        {
            "positions": [
                -0.011477731864938945,
                -1.7238596729196343,
                2.295943237343355,
                -0.1349324511105809,
                0.6216015594601124,
                -2.109479943976326
            ]
        },
        {
            "positions": [
                -0.10243792846434396,
                -1.692244822729009,
                2.2750354829331374,
                -0.08599025502167962,
                0.594981275609036,
                -1.9787497243020113
            ]
        },
        {
            "positions": [
                -0.1933981250637491,
                -1.6606299725383837,
                2.2541277285229198,
                -0.037048058932778405,
                0.5683609917579597,
                -1.8480195046276966
            ]
        },
        {
            "positions": [
                -0.11851909335005674,
                -1.6536785016791404,
                2.1203841609545093,
                -0.06011392905804387,
                0.5994571747746824,
                -1.7660435653541335
            ]
        },
        {
            "positions": [
                -0.043640061636364386,
                -1.646727030819897,
                1.9866405933860989,
                -0.08317979918330934,
                0.6305533577914052,
                -1.6840676260805703
            ]
        },
        {
            "positions": [
                0.031238970077327927,
                -1.6397755599606536,
                1.8528970258176887,
                -0.1062456693085748,
                0.6616495408081279,
                -1.6020916868070072
            ]
        },
        {
            "positions": [
                0.10611800179102032,
                -1.63282408910141,
                1.719153458249278,
                -0.12931153943384027,
                0.6927457238248507,
                -1.520115747533444
            ]
        },
        {
            "positions": [
                0.1809970335047126,
                -1.6258726182421668,
                1.5854098906808678,
                -0.15237740955910575,
                0.7238419068415733,
                -1.4381398082598809
            ]
        },
        {
            "positions": [
                0.2840037442601367,
                -1.6480028347617874,
                1.4461707935310546,
                -0.09153361934748447,
                0.7183865340139443,
                -1.3769579705960435
            ]
        },
        {
            "positions": [
                0.38701045501556075,
                -1.670133051281408,
                1.3069316963812416,
                -0.030689829135863184,
                0.7129311611863153,
                -1.3157761329322064
            ]
        },
        {
            "positions": [
                0.49001716577098486,
                -1.6922632678010285,
                1.1676925992314287,
                0.0301539610757581,
                0.7074757883586862,
                -1.2545942952683693
            ]
        },
        {
            "positions": [
                0.5930238765264089,
                -1.7143934843206492,
                1.0284535020816155,
                0.09099775128737939,
                0.7020204155310571,
                -1.193412457604532
            ]
        },
        {
            "positions": [
                0.6960305872818331,
                -1.7365237008402699,
                0.8892144049318024,
                0.15184154149900067,
                0.696565042703428,
                -1.1322306199406946
            ]
        },
        {
            "positions": [
                0.7990372980372571,
                -1.7586539173598905,
                0.7499753077819893,
                0.21268533171062196,
                0.691109669875799,
                -1.0710487822768575
            ]
        },
        {
            "positions": [
                0.9020440087926812,
                -1.7807841338795112,
                0.6107362106321761,
                0.2735291219222432,
                0.6856542970481699,
                -1.0098669446130204
            ]
        },
        {
            "positions": [
                1.005050719548105,
                -1.8029143503991316,
                0.4714971134823631,
                0.33437291213386455,
                0.6801989242205408,
                -0.9486851069491831
            ]
        },
        {
            "positions": [
                1.1080574303035293,
                -1.8250445669187523,
                0.33225801633255014,
                0.3952167023454858,
                0.6747435513929119,
                -0.8875032692853458
            ]
        },
        {
            "positions": [
                1.2110641410589535,
                -1.847174783438373,
                0.19301891918273695,
                0.4560604925571071,
                0.6692881785652828,
                -0.8263214316215086
            ]
        },
        {
            "positions": [
                1.3140708518143773,
                -1.8693049999579936,
                0.053779822032923974,
                0.5169042827687284,
                0.6638328057376537,
                -0.7651395939576714
            ]
        },
        {
            "positions": [
                1.4170775625698016,
                -1.891435216477614,
                -0.08545927511688922,
                0.5777480729803497,
                0.6583774329100247,
                -0.7039577562938342
            ]
        },
        {
            "positions": [
                1.5200842733252256,
                -1.9135654329972347,
                -0.2246983722667022,
                0.6385918631919709,
                0.6529220600823956,
                -0.642775918629997
            ]
        },
        {
            "positions": [
                1.6230909840806498,
                -1.9356956495168554,
                -0.3639374694165156,
                0.6994356534035923,
                0.6474666872547665,
                -0.5815940809661597
            ]
        },
        {
            "positions": [
                1.7260976948360738,
                -1.957825866036476,
                -0.5031765665663286,
                0.7602794436152136,
                0.6420113144271374,
                -0.5204122433023225
            ]
        },
        {
            "positions": [
                1.8291044055914978,
                -1.9799560825560967,
                -0.6424156637161416,
                0.8211232338268348,
                0.6365559415995085,
                -0.4592304056384853
            ]
        },
        {
            "positions": [
                1.932111116346922,
                -2.0020862990757173,
                -0.781654760865955,
                0.8819670240384561,
                0.6311005687718794,
                -0.39804856797464794
            ]
        },
        {
            "positions": [
                2.035117827102346,
                -2.024216515595338,
                -0.9208938580157675,
                0.9428108142500773,
                0.6256451959442503,
                -0.3368667303108108
            ]
        },
        {
            "positions": [
                2.13812453785777,
                -2.0463467321149587,
                -1.0601329551655805,
                1.0036546044616987,
                0.6201898231166213,
                -0.2756848926469737
            ]
        },
        {
            "positions": [
                2.2411312486131942,
                -2.0684769486345793,
                -1.199372052315394,
                1.06449839467332,
                0.6147344502889922,
                -0.21450305498313638
            ]
        },
        {
            "positions": [
                2.3441379593686182,
                -2.0906071651541995,
                -1.3386111494652069,
                1.1253421848849412,
                0.6092790774613631,
                -0.15332121731929904
            ]
        },
        {
            "positions": [
                2.447144670124042,
                -2.11273738167382,
                -1.4778502466150198,
                1.1861859750965624,
                0.603823704633734,
                -0.09213937965546193
            ]
        },
        {
            "positions": [
                2.5501513808794662,
                -2.134867598193441,
                -1.6170893437648333,
                1.2470297653081839,
                0.598368331806105,
                -0.030957541991624593
            ]
        },
        {
            "positions": [
                2.6531580916348902,
                -2.1569978147130615,
                -1.7563284409146465,
                1.307873555519805,
                0.592912958978476,
                0.03022429567221242
            ]
        },
        {
            "positions": [
                2.6660187234920545,
                -2.252529190448728,
                -1.7441864358399182,
                1.2202686347772462,
                0.561597301549563,
                0.0352786207119711
            ]
        },
        {
            "positions": [
                2.6788793553492187,
                -2.3480605661843947,
                -1.7320444307651899,
                1.1326637140346876,
                0.53028164412065,
                0.04033294575172977
            ]
        },
        {
            "positions": [
                2.6693427881832044,
                -2.4126941386879093,
                -1.7013983106934574,
                1.0549230298321897,
                0.5034884171238692,
                0.03749479389724214
            ]
        },
        {
            "positions": [
                2.6598062210171896,
                -2.4773277111914243,
                -1.6707521906217246,
                0.9771823456296916,
                0.4766951901270883,
                0.03465664204275452
            ]
        }
    ]
}