{
    "goal": {
        "global_pose": {
            "orientation": {
                "w": -0.00223480608172531,
                "x": 0.0024358444001904467,
                "y": 0.7094548369677653,
                "z": -0.704743149386269
            },
            "position": {
                "x": -0.37947507619857795,
                "y": -0.6371506643295288,
                "z": 0.19426114857196808
            }
        },
        "name": "move_to_magneteinheit_C"
    },
    "id": "KPIECE_move_to_magneteinheit_C_49",
    "joint_names": [
        "shoulder_pan_joint",
        "shoulder_lift_joint",
        "elbow_joint",
        "wrist_1_joint",
        "wrist_2_joint",
        "wrist_3_joint"
    ],
    "metrics": {
        "cart_traj_len": 2.6226995364907832,
        "distance_elbow_joint": 1.616999494673105,
        "distance_shoulder_lift_joint": 1.577693187500407,
        "distance_shoulder_pan_joint": 1.4387758079700101,
        "distance_wrist_1_joint": 1.6613480282220245,
        "distance_wrist_2_joint": 1.7214471939565856,
        "distance_wrist_3_joint": 6.325820776722708,
        "smoothness": 0.7792233554504708,
        "time": 2.110874833,
        "traj_len": 3.7870944652919403,
        "weighted_distance": 5.5114899314676125
    },
    "planner": "KPIECE",
    "start": {
        "state": {
            "elbow_joint": 1.9565354006590394,
            "shoulder_lift_joint": -1.4165861576513559,
            "shoulder_pan_joint": -1.6717766223277177,
            "wrist_1_joint": -0.5286633288215096,
            "wrist_2_joint": 1.4727565892594296,
            "wrist_3_joint": 3.1593482883155493
        }
    },
    "waypoints": [
        {
            "positions": [
                -1.6717766223277177,
                -1.4165861576513559,
                1.9565354006590394,
                -0.5286633288215096,
                1.4727565892594296,
                3.1593482883155493
            ]
        },
        {
            "positions": [
                -1.5625336371033531,
                -1.4367031819801892,
                1.927442869069727,
                -0.505266115179815,
                1.395491858229593,
                3.0839984447347
            ]
        },
        {
            "positions": [
                -1.5438592455989784,
                -1.4305436105017828,
                1.8552544426266322,
                -0.5456467864158412,
                1.309907718680587,
                2.985097501450076
            ]
        },
        {
            "positions": [
                -1.5678207079737263,
                -1.470615516244426,
                1.8161442331426763,
                -0.5773126829286728,
                1.2573767439717882,
                2.7970939275551565
            ]
        },
        {
            "positions": [
                -1.5917821703484745,
                -1.5106874219870692,
                1.77703402365872,
                -0.6089785794415042,
                1.2048457692629895,
                2.6090903536602372
            ]
        },
        {
            "positions": [
                -1.6157436327232224,
                -1.5507593277297125,
                1.737923814174764,
                -0.6406444759543358,
                1.1523147945541907,
                2.421086779765318
            ]
        },
        {
            "positions": [
                -1.6397050950979706,
                -1.5908312334723558,
                1.698813604690808,
                -0.6723103724671673,
                1.099783819845392,
                2.2330832058703987
            ]
        },
        {
            "positions": [
                -1.6636665574727185,
                -1.630903139214999,
                1.659703395206852,
                -0.7039762689799989,
                1.047252845136593,
                2.0450796319754794
            ]
        },
        {
            "positions": [
                -1.6876280198474665,
                -1.6709750449576422,
                1.620593185722896,
                -0.7356421654928305,
                0.9947218704277944,
                1.8570760580805596
            ]
        },
        {
            "positions": [
                -1.7115894822222146,
                -1.7110469507002855,
                1.5814829762389397,
                -0.767308062005662,
                0.9421908957189955,
                1.6690724841856404
            ]
        },
        {
            "positions": [
                -1.7355509445969626,
                -1.7511188564429285,
                1.5423727667549838,
                -0.7989739585184935,
                0.8896599210101968,
                1.481068910290721
            ]
        },
        {
            "positions": [
                -1.7595124069717105,
                -1.7911907621855718,
                1.5032625572710279,
                -0.830639855031325,
                0.837128946301398,
                1.2930653363958018
            ]
        },
        {
            "positions": [
                -1.7834738693464587,
                -1.8312626679282151,
                1.4641523477870717,
                -0.8623057515441566,
                0.7845979715925993,
                1.1050617625008825
            ]
        },
        {
            "positions": [
                -1.8074353317212066,
                -1.8713345736708584,
                1.4250421383031155,
                -0.8939716480569881,
                0.7320669968838005,
                0.9170581886059632
            ]
        },
        {
            "positions": [
                -1.8313967940959546,
                -1.9114064794135015,
                1.3859319288191596,
                -0.9256375445698197,
                0.6795360221750018,
                0.7290546147110435
            ]
        },
        {
            "positions": [
                -1.8553582564707027,
                -1.9514783851561448,
                1.3468217193352037,
                -0.9573034410826512,
                0.627005047466203,
                0.5410510408161242
            ]
        },
        {
            "positions": [
                -1.8793197188454507,
                -1.9915502908987879,
                1.3077115098512475,
                -0.9889693375954828,
                0.5744740727574041,
                0.3530474669212049
            ]
        },
        {
            "positions": [
                -1.9032811812201986,
                -2.031622196641431,
                1.2686013003672914,
                -1.0206352341083142,
                0.5219430980486054,
                0.16504389302628564
            ]
        },
        {
            "positions": [
                -1.9272426435949468,
                -2.0716941023840745,
                1.2294910908833354,
                -1.0523011306211458,
                0.46941212333980664,
                -0.022959680868633432
            ]
        },
        {
            "positions": [
                -2.0101367835163257,
                -2.0138256801775816,
                1.285229567382367,
                -0.9694459987451083,
                0.46806202820861303,
                0.07877939728469965
            ]
        },
        {
            "positions": [
                -2.0930309234377047,
                -1.9559572579710889,
                1.3409680438813987,
                -0.8865908668690706,
                0.4667119330774195,
                0.18051847543803273
            ]
        },
        {
            "positions": [
                -2.175925063359084,
                -1.8980888357645962,
                1.39670652038043,
                -0.8037357349930331,
                0.4653618379462259,
                0.28225755359136584
            ]
        },
        {
            "positions": [
                -2.258819203280463,
                -1.8402204135581033,
                1.4524449968794617,
                -0.7208806031169954,
                0.4640117428150323,
                0.3839966317446989
            ]
        },
        {
            "positions": [
                -2.341713343201842,
                -1.7823519913516104,
                1.5081834733784933,
                -0.6380254712409579,
                0.4626616476838387,
                0.48573570989803194
            ]
        },
        {
            "positions": [
                -2.4246074831232214,
                -1.7244835691451177,
                1.5639219498775248,
                -0.5551703393649203,
                0.4613115525526451,
                0.5874747880513651
            ]
        },
        {
            "positions": [
                -2.5075016230446003,
                -1.666615146938625,
                1.6196604263765564,
                -0.47231520748888267,
                0.45996145742145156,
                0.6892138662046982
            ]
        },
        {
            "positions": [
                -2.5903957629659793,
                -1.608746724732132,
                1.675398902875588,
                -0.3894600756128451,
                0.45861136229025795,
                0.7909529443580312
            ]
        },
        {
            "positions": [
                -2.6009914877159988,
                -1.5874625377300633,
                1.7306093291311913,
                -0.3908873941052325,
                0.5240688175422755,
                0.9991178638289961
            ]
        },
        {
            "positions": [
                -2.611587212466018,
                -1.5661783507279943,
                1.7858197553867943,
                -0.3923147125976199,
                0.589526272794293,
                1.207282783299961
            ]
        },
        {
            "positions": [
                -2.6221829372160377,
                -1.5448941637259255,
                1.8410301816423975,
                -0.39374203109000727,
                0.6549837280463107,
                1.4154477027709262
            ]
        },
        {
            "positions": [
                -2.6327786619660567,
                -1.5236099767238565,
                1.8962406078980005,
                -0.3951693495823947,
                0.7204411832983282,
                1.623612622241891
            ]
        },
        {
            "positions": [
                -2.643374386716076,
                -1.5023257897217877,
                1.9514510341536038,
                -0.39659666807478205,
                0.7858986385503457,
                1.8317775417128561
            ]
        },
        {
            "positions": [
                -2.6539701114660956,
                -1.4810416027197189,
                2.006661460409207,
                -0.3980239865671695,
                0.8513560938023632,
                2.039942461183821
            ]
        },
        {
            "positions": [
                -2.664565836216115,
                -1.4597574157176498,
                2.06187188666481,
                -0.39945130505955684,
                0.9168135490543808,
                2.248107380654786
            ]
        },
        {
            "positions": [
                -2.6328738627787596,
                -1.4100358468602414,
                2.052276155145489,
                -0.4691318908402212,
                0.8752969190171657,
                2.393515004990637
            ]
        },
        {
            "positions": [
                -2.6011818893414036,
                -1.3603142780028328,
                2.0426804236261678,
                -0.5388124766208856,
                0.8337802889799504,
                2.538922629326488
            ]
        },
        {
            "positions": [
                -2.569489915904048,
                -1.3105927091454244,
                2.033084692106847,
                -0.6084930624015501,
                0.7922636589427352,
                2.6843302536623392
            ]
        },
        {
            "positions": [
                -2.5377979424666925,
                -1.260871140288016,
                2.023488960587526,
                -0.6781736481822145,
                0.75074702890552,
                2.8297378779981903
            ]
        },
        {
            "positions": [
                -2.5061059690293366,
                -1.2111495714306073,
                2.013893229068205,
                -0.7478542339628789,
                0.7092303988683047,
                2.9751455023340414
            ]
        },
        {
            "positions": [
                -2.474413995591981,
                -1.161428002573199,
                2.0042974975488836,
                -0.8175348197435433,
                0.6677137688310896,
                3.1205531266698925
            ]
        }
    ]
}