{
    "goal": {
        "global_pose": {
            "orientation": {
                "w": 0.7031023502349854,
                "x": -0.7110244035720825,
                "y": 0.007748599164187908,
                "z": 0.005598929710686207
            },
            "position": {
                "x": 0.11585023208521307,
                "y": 0.44412534475326537,
                "z": 0.3711530566215515
            }
        },
        "name": "move_to_auspresseinheit_A"
    },
    "id": "KPIECE_move_to_auspresseinheit_A_116",
    "joint_names": [
        "shoulder_pan_joint",
        "shoulder_lift_joint",
        "elbow_joint",
        "wrist_1_joint",
        "wrist_2_joint",
        "wrist_3_joint"
    ],
    "metrics": {
        "cart_traj_len": 0.7042260844959718,
        "distance_elbow_joint": 0.4490062578125209,
        "distance_shoulder_lift_joint": 0.5364697535825409,
        "distance_shoulder_pan_joint": 1.0409656408081656,
        "distance_wrist_1_joint": 1.3483165806267985,
        "distance_wrist_2_joint": 0.7544944863472243,
        "distance_wrist_3_joint": 0.44004179507448793,
        "smoothness": 1.5110045385437922,
        "time": 0.6371592260000001,
        "traj_len": 2.1375908201177647,
        "weighted_distance": 2.748124664452968
    },
    "planner": "KPIECE",
    "start": {
        "state": {
            "elbow_joint": 2.4225747245308327,
            "shoulder_lift_joint": -1.373653427065438,
            "shoulder_pan_joint": -0.33786330853087027,
            "wrist_1_joint": -1.0288602302712604,
            "wrist_2_joint": 1.23302299562683,
            "wrist_3_joint": -3.094021725338297
        }
    },
    "waypoints": [
        {
            "positions": [
                -0.33786330853087027,
                -1.373653427065438,
                2.4225747245308327,
                -1.0288602302712604,
                1.23302299562683,
                -3.094021725338297
            ]
        },
        {
            "positions": [
                -0.2983575466899663,
                -1.4160892695766822,
                2.4505908908829492,
                -0.8925152309250606,
                1.1415173958922744,
                -3.1124403966445517
            ]
        },
        {
            "positions": [
                -0.25885178484906224,
                -1.4585251120879268,
                2.478607057235066,
                -0.7561702315788608,
                1.0500117961577191,
                -3.130859067950806
            ]
        },
        {
            "positions": [
                -0.21934602300815825,
                -1.5009609545991711,
                2.5066232235871824,
                -0.6198252322326611,
                0.9585061964231636,
                -3.1492777392570606
            ]
        },
        {
            "positions": [
                -0.17984026116725427,
                -1.5433967971104154,
                2.5346393899392994,
                -0.48348023288646125,
                0.8670005966886082,
                -3.167696410563315
            ]
        },
        {
            "positions": [
                -0.14033449932635025,
                -1.58583263962166,
                2.562655556291416,
                -0.34713523354026143,
                0.7754949969540528,
                -3.18611508186957
            ]
        },
        {
            "positions": [
                -0.10082873748544627,
                -1.6282684821329043,
                2.5906717226435325,
                -0.21079023419406173,
                0.6839893972194974,
                -3.204533753175824
            ]
        },
        {
            "positions": [
                -0.061322975644542255,
                -1.6707043246441486,
                2.618687888995649,
                -0.07444523484786192,
                0.5924837974849418,
                -3.2229524244820786
            ]
        },
        {
            "positions": [
                0.08116389132583329,
                -1.7185577660782614,
                2.5708619053652737,
                -0.1492002247302433,
                0.6143860812458937,
                -3.182176670134969
            ]
        },
        {
            "positions": [
                0.22365075829620884,
                -1.7664112075123741,
                2.5230359217348983,
                -0.22395521461262466,
                0.6362883650068455,
                -3.1414009157878597
            ]
        },
        {
            "positions": [
                0.36613762526658433,
                -1.8142646489464869,
                2.4752099381045225,
                -0.29871020449500607,
                0.6581906487677973,
                -3.10062516144075
            ]
        },
        {
            "positions": [
                0.5086244922369599,
                -1.8621180903805996,
                2.427383954474147,
                -0.3734651943773874,
                0.6800929325287491,
                -3.059849407093641
            ]
        },
        {
            "positions": [
                0.6511113592073354,
                -1.9099715318147124,
                2.3795579708437717,
                -0.4482201842597688,
                0.701995216289701,
                -3.019073652746531
            ]
        },
        {
            "positions": [
                0.7031023322772952,
                -1.909819882981446,
                2.393321146039599,
                -0.4683468200512618,
                0.6975513468891239,
                -3.12630597694169
            ]
        }
    ]
}