{
    "goal": {
        "global_pose": {
            "orientation": {
                "w": 0.7031023502349854,
                "x": -0.7110244035720825,
                "y": 0.007748599164187908,
                "z": 0.005598929710686207
            },
            "position": {
                "x": 0.11585023208521307,
                "y": 0.44412534475326537,
                "z": 0.3711530566215515
            }
        },
        "name": "move_to_auspresseinheit_A"
    },
    "id": "KPIECE_move_to_auspresseinheit_A_3",
    "joint_names": [
        "shoulder_pan_joint",
        "shoulder_lift_joint",
        "elbow_joint",
        "wrist_1_joint",
        "wrist_2_joint",
        "wrist_3_joint"
    ],
    "metrics": {
        "cart_traj_len": 2.2023240153535903,
        "distance_elbow_joint": 0.300335105651226,
        "distance_shoulder_lift_joint": 0.6982548235692956,
        "distance_shoulder_pan_joint": 6.299256954166236,
        "distance_wrist_1_joint": 5.580124266724753,
        "distance_wrist_2_joint": 0.8177675439949315,
        "distance_wrist_3_joint": 12.09537736021435,
        "smoothness": 0.5053101641307938,
        "time": 0.196991535,
        "traj_len": 5.078495451836182,
        "weighted_distance": 7.508645855643291
    },
    "planner": "KPIECE",
    "start": {
        "state": {
            "elbow_joint": 2.4225747245308327,
            "shoulder_lift_joint": -1.373653427065438,
            "shoulder_pan_joint": -0.33786330853087027,
            "wrist_1_joint": -1.0288602302712604,
            "wrist_2_joint": 1.23302299562683,
            "wrist_3_joint": -3.094021725338297
        }
    },
    "waypoints": [
        {
            "positions": [
                -0.33786330853087027,
                -1.373653427065438,
                2.4225747245308327,
                -1.0288602302712604,
                1.23302299562683,
                -3.094021725338297
            ]
        },
        {
            "positions": [
                -0.4199481001024874,
                -1.3929209668907065,
                2.4174026727524516,
                -0.9328039010517498,
                1.2377456007913035,
                -2.90567544697834
            ]
        },
        {
            "positions": [
                -0.5020328916741045,
                -1.4121885067159754,
                2.4122306209740705,
                -0.8367475718322392,
                1.242468205955777,
                -2.717329168618383
            ]
        },
        {
            "positions": [
                -0.5841176832457216,
                -1.431456046541244,
                2.407058569195689,
                -0.7406912426127287,
                1.2471908111202505,
                -2.528982890258426
            ]
        },
        {
            "positions": [
                -0.6662024748173387,
                -1.4507235863665129,
                2.401886517417308,
                -0.6446349133932181,
                1.251913416284724,
                -2.340636611898469
            ]
        },
        {
            "positions": [
                -0.7482872663889557,
                -1.4699911261917815,
                2.3967144656389268,
                -0.5485785841737075,
                1.2566360214491976,
                -2.152290333538512
            ]
        },
        {
            "positions": [
                -0.8303720579605729,
                -1.4892586660170504,
                2.3915424138605452,
                -0.45252225495419696,
                1.2613586266136712,
                -1.963944055178555
            ]
        },
        {
            "positions": [
                -0.9124568495321901,
                -1.508526205842319,
                2.386370362082164,
                -0.3564659257346864,
                1.2660812317781447,
                -1.775597776818598
            ]
        },
        {
            "positions": [
                -0.994541641103807,
                -1.5277937456675879,
                2.381198310303783,
                -0.2604095965151758,
                1.2708038369426182,
                -1.587251498458641
            ]
        },
        {
            "positions": [
                -1.0766264326754242,
                -1.5470612854928565,
                2.376026258525402,
                -0.16435326729566524,
                1.275526442107092,
                -1.398905220098684
            ]
        },
        {
            "positions": [
                -1.1587112242470412,
                -1.5663288253181253,
                2.370854206747021,
                -0.06829693807615467,
                1.2802490472715655,
                -1.210558941738727
            ]
        },
        {
            "positions": [
                -1.2407960158186584,
                -1.585596365143394,
                2.3656821549686393,
                0.027759391143355794,
                1.284971652436039,
                -1.0222126633787698
            ]
        },
        {
            "positions": [
                -1.3228808073902756,
                -1.6048639049686628,
                2.3605101031902582,
                0.12381572036286648,
                1.2896942576005126,
                -0.8338663850188128
            ]
        },
        {
            "positions": [
                -1.4049655989618925,
                -1.6241314447939315,
                2.355338051411877,
                0.21987204958237716,
                1.2944168627649861,
                -0.6455201066588558
            ]
        },
        {
            "positions": [
                -1.4870503905335097,
                -1.6433989846192003,
                2.3501659996334956,
                0.3159283788018876,
                1.2991394679294597,
                -0.45717382829889885
            ]
        },
        {
            "positions": [
                -1.5691351821051267,
                -1.662666524444469,
                2.3449939478551145,
                0.4119847080213981,
                1.3038620730939332,
                -0.26882754993894187
            ]
        },
        {
            "positions": [
                -1.651219973676744,
                -1.6819340642697376,
                2.3398218960767334,
                0.5080410372409088,
                1.3085846782584067,
                -0.08048127157898488
            ]
        },
        {
            "positions": [
                -1.733304765248361,
                -1.7012016040950064,
                2.3346498442983523,
                0.6040973664604194,
                1.3133072834228803,
                0.1078650067809721
            ]
        },
        {
            "positions": [
                -1.815389556819978,
                -1.7204691439202753,
                2.3294777925199712,
                0.7001536956799299,
                1.3180298885873538,
                0.2962112851409291
            ]
        },
        {
            "positions": [
                -1.8974743483915952,
                -1.739736683745544,
                2.3243057407415897,
                0.7962100248994404,
                1.3227524937518274,
                0.4845575635008861
            ]
        },
        {
            "positions": [
                -1.9795591399632122,
                -1.7590042235708125,
                2.3191336889632086,
                0.892266354118951,
                1.3274750989163009,
                0.6729038418608431
            ]
        },
        {
            "positions": [
                -2.0616439315348294,
                -1.7782717633960814,
                2.3139616371848275,
                0.9883226833384617,
                1.3321977040807744,
                0.8612501202208
            ]
        },
        {
            "positions": [
                -2.1437287231064466,
                -1.79753930322135,
                2.308789585406446,
                1.084379012557972,
                1.336920309245248,
                1.0495963985807575
            ]
        },
        {
            "positions": [
                -2.2258135146780638,
                -1.8168068430466189,
                2.303617533628065,
                1.1804353417774827,
                1.3416429144097215,
                1.237942676940714
            ]
        },
        {
            "positions": [
                -2.307898306249681,
                -1.8360743828718875,
                2.298445481849684,
                1.2764916709969933,
                1.3463655195741953,
                1.4262889553006715
            ]
        },
        {
            "positions": [
                -2.3899830978212977,
                -1.8553419226971564,
                2.2932734300713027,
                1.372548000216504,
                1.3510881247386688,
                1.614635233660628
            ]
        },
        {
            "positions": [
                -2.472067889392915,
                -1.874609462522425,
                2.2881013782929216,
                1.4686043294360147,
                1.3558107299031423,
                1.8029815120205854
            ]
        },
        {
            "positions": [
                -2.554152680964532,
                -1.8938770023476938,
                2.28292932651454,
                1.564660658655525,
                1.3605333350676159,
                1.991327790380542
            ]
        },
        {
            "positions": [
                -2.6362374725361493,
                -1.9131445421729625,
                2.277757274736159,
                1.6607169878750356,
                1.3652559402320894,
                2.1796740687404994
            ]
        },
        {
            "positions": [
                -2.7183222641077665,
                -1.9324120819982311,
                2.272585222957778,
                1.7567733170945463,
                1.369978545396563,
                2.368020347100456
            ]
        },
        {
            "positions": [
                -2.800407055679383,
                -1.9516796218235,
                2.2674131711793963,
                1.8528296463140566,
                1.3747011505610365,
                2.5563666254604134
            ]
        },
        {
            "positions": [
                -2.8824918472510004,
                -1.9709471616487688,
                2.2622411194010152,
                1.9488859755335672,
                1.37942375572551,
                2.74471290382037
            ]
        },
        {
            "positions": [
                -2.9645766388226176,
                -1.9902147014740375,
                2.257069067622634,
                2.044942304753078,
                1.3841463608899836,
                2.9330591821803274
            ]
        },
        {
            "positions": [
                -2.8565606498851324,
                -1.9878119500281346,
                2.261034639644488,
                1.971226959703066,
                1.3645391791625783,
                2.7545798747481
            ]
        },
        {
            "positions": [
                -2.748544660947647,
                -1.9854091985822317,
                2.2650002116663415,
                1.8975116146530537,
                1.344931997435173,
                2.5761005673158723
            ]
        },
        {
            "positions": [
                -2.640528672010162,
                -1.983006447136329,
                2.2689657836881953,
                1.8237962696030414,
                1.325324815707768,
                2.397621259883645
            ]
        },
        {
            "positions": [
                -2.532512683072677,
                -1.980603695690426,
                2.2729313557100492,
                1.7500809245530293,
                1.3057176339803627,
                2.2191419524514173
            ]
        },
        {
            "positions": [
                -2.424496694135192,
                -1.9782009442445234,
                2.276896927731903,
                1.6763655795030172,
                1.2861104522529574,
                2.04066264501919
            ]
        },
        {
            "positions": [
                -2.3164807051977068,
                -1.9757981927986206,
                2.2808624997537565,
                1.602650234453005,
                1.2665032705255521,
                1.862183337586962
            ]
        },
        {
            "positions": [
                -2.2084647162602216,
                -1.9733954413527177,
                2.2848280717756104,
                1.5289348894029928,
                1.246896088798147,
                1.6837040301547346
            ]
        },
        {
            "positions": [
                -2.1004487273227364,
                -1.9709926899068149,
                2.2887936437974643,
                1.4552195443529805,
                1.2272889070707418,
                1.505224722722507
            ]
        },
        {
            "positions": [
                -1.9924327383852514,
                -1.968589938460912,
                2.2927592158193177,
                1.3815041993029684,
                1.2076817253433365,
                1.3267454152902796
            ]
        },
        {
            "positions": [
                -1.8844167494477662,
                -1.9661871870150092,
                2.2967247878411716,
                1.307788854252956,
                1.1880745436159312,
                1.148266107858052
            ]
        },
        {
            "positions": [
                -1.7764007605102812,
                -1.9637844355691063,
                2.3006903598630255,
                1.2340735092029438,
                1.168467361888526,
                0.9697868004258243
            ]
        },
        {
            "positions": [
                -1.668384771572796,
                -1.9613816841232035,
                2.304655931884879,
                1.1603581641529317,
                1.1488601801611207,
                0.7913074929935968
            ]
        },
        {
            "positions": [
                -1.560368782635311,
                -1.9589789326773008,
                2.308621503906733,
                1.0866428191029196,
                1.1292529984337156,
                0.6128281855613698
            ]
        },
        {
            "positions": [
                -1.4523527936978258,
                -1.956576181231398,
                2.3125870759285867,
                1.0129274740529075,
                1.1096458167063104,
                0.4343488781291418
            ]
        },
        {
            "positions": [
                -1.3443368047603408,
                -1.9541734297854951,
                2.3165526479504406,
                0.9392121290028952,
                1.090038634978905,
                0.2558695706969143
            ]
        },
        {
            "positions": [
                -1.2363208158228556,
                -1.9517706783395923,
                2.320518219972294,
                0.8654967839528831,
                1.0704314532514998,
                0.07739026326468679
            ]
        },
        {
            "positions": [
                -1.1283048268853704,
                -1.9493679268936894,
                2.324483791994148,
                0.7917814389028708,
                1.0508242715240947,
                -0.10108904416754072
            ]
        },
        {
            "positions": [
                -1.0202888379478852,
                -1.9469651754477866,
                2.3284493640160018,
                0.7180660938528585,
                1.0312170897966895,
                -0.27956835159976823
            ]
        },
        {
            "positions": [
                -0.9122728490104,
                -1.9445624240018837,
                2.332414936037855,
                0.6443507488028464,
                1.0116099080692842,
                -0.45804765903199574
            ]
        },
        {
            "positions": [
                -0.8042568600729147,
                -1.9421596725559809,
                2.336380508059709,
                0.5706354037528341,
                0.9920027263418789,
                -0.6365269664642232
            ]
        },
        {
            "positions": [
                -0.6962408711354295,
                -1.939756921110078,
                2.340346080081563,
                0.49692005870282197,
                0.9723955446144736,
                -0.8150062738964512
            ]
        },
        {
            "positions": [
                -0.5882248821979448,
                -1.9373541696641754,
                2.344311652103417,
                0.42320471365280965,
                0.9527883628870685,
                -0.9934855813286787
            ]
        },
        {
            "positions": [
                -0.48020889326045957,
                -1.9349514182182725,
                2.3482772241252703,
                0.34948936860279756,
                0.9331811811596632,
                -1.1719648887609062
            ]
        },
        {
            "positions": [
                -0.37219290432297436,
                -1.9325486667723697,
                2.352242796147124,
                0.27577402355278524,
                0.913573999432258,
                -1.3504441961931337
            ]
        },
        {
            "positions": [
                -0.26417691538548915,
                -1.9301459153264668,
                2.356208368168978,
                0.20205867850277315,
                0.8939668177048528,
                -1.5289235036253612
            ]
        },
        {
            "positions": [
                -0.1561609264480044,
                -1.927743163880564,
                2.3601739401908315,
                0.12834333345276105,
                0.8743596359774476,
                -1.7074028110575878
            ]
        },
        {
            "positions": [
                -0.04814493751051918,
                -1.9253404124346611,
                2.3641395122126854,
                0.05462798840274896,
                0.8547524542500423,
                -1.8858821184898154
            ]
        },
        {
            "positions": [
                0.05987105142696603,
                -1.9229376609887583,
                2.3681050842345392,
                -0.019087356647263132,
                0.8351452725226371,
                -2.0643614259220437
            ]
        },
        {
            "positions": [
                0.16788704036445123,
                -1.9205349095428554,
                2.3720706562563927,
                -0.09280270169727567,
                0.8155380907952319,
                -2.2428407333542713
            ]
        },
        {
            "positions": [
                0.275903029301936,
                -1.9181321580969528,
                2.3760362282782466,
                -0.16651804674728776,
                0.7959309090678267,
                -2.4213200407864988
            ]
        },
        {
            "positions": [
                0.3839190182394212,
                -1.91572940665105,
                2.3800018003001004,
                -0.24023339179729986,
                0.7763237273404214,
                -2.5997993482187263
            ]
        },
        {
            "positions": [
                0.4919350071769064,
                -1.913326655205147,
                2.3839673723219543,
                -0.31394873684731195,
                0.7567165456130162,
                -2.7782786556509538
            ]
        },
        {
            "positions": [
                0.5999509961143916,
                -1.9109239037592443,
                2.3879329443438078,
                -0.3876640818973245,
                0.737109363885611,
                -2.9567579630831813
            ]
        },
        {
            "positions": [
                0.707966985051877,
                -1.9085211523133414,
                2.3918985163656616,
                -0.46137942694733647,
                0.7175021821582057,
                -3.135237270515409
            ]
        }
    ]
}