{
    "goal": {
        "global_pose": {
            "orientation": {
                "w": 0.7031023480610252,
                "x": -0.7110244013736278,
                "y": 0.0077485991402295624,
                "z": 0.005598929693374583
            },
            "position": {
                "x": -0.8841497679147869,
                "y": 0.44412534475326537,
                "z": 0.3711530566215515
            }
        },
        "name": "move_to_auspresseinheit_D"
    },
    "id": "KPIECE_move_to_auspresseinheit_D_108",
    "joint_names": [
        "shoulder_pan_joint",
        "shoulder_lift_joint",
        "elbow_joint",
        "wrist_1_joint",
        "wrist_2_joint",
        "wrist_3_joint"
    ],
    "metrics": {
        "cart_traj_len": 4.525454923772279,
        "distance_elbow_joint": 3.022209262153659,
        "distance_shoulder_lift_joint": 1.2310701053373245,
        "distance_shoulder_pan_joint": 2.7971154511155976,
        "distance_wrist_1_joint": 2.0631670413510745,
        "distance_wrist_2_joint": 1.2201757631699448,
        "distance_wrist_3_joint": 6.288611675542975,
        "smoothness": 2.826022266877708e-16,
        "time": 0.069379492,
        "traj_len": 4.077051544764988,
        "weighted_distance": 5.699378514739791
    },
    "planner": "KPIECE",
    "start": {
        "state": {
            "elbow_joint": 1.8268400409724999,
            "shoulder_lift_joint": -1.0144045787793008,
            "shoulder_pan_joint": 2.6280239544362485,
            "wrist_1_joint": -0.790705565816056,
            "wrist_2_joint": 1.0573557467365533,
            "wrist_3_joint": 3.1851377467193758
        }
    },
    "waypoints": [
        {
            "positions": [
                2.6280239544362485,
                -1.0144045787793008,
                1.8268400409724999,
                -0.790705565816056,
                1.0573557467365533,
                3.1851377467193758
            ]
        },
        {
            "positions": [
                2.557854866250974,
                -1.066022072342372,
                1.7278560469929136,
                -0.7965453185396786,
                1.056783381597691,
                3.0186700535631203
            ]
        },
        {
            "positions": [
                2.4876857780656993,
                -1.117639565905443,
                1.6288720530133276,
                -0.8023850712633012,
                1.056211016458829,
                2.852202360406865
            ]
        },
        {
            "positions": [
                2.417516689880425,
                -1.169257059468514,
                1.5298880590337414,
                -0.8082248239869237,
                1.0556386513199667,
                2.6857346672506095
            ]
        },
        {
            "positions": [
                2.3473476016951507,
                -1.2208745530315852,
                1.4309040650541553,
                -0.8140645767105463,
                1.0550662861811044,
                2.5192669740943536
            ]
        },
        {
            "positions": [
                2.277178513509876,
                -1.2724920465946563,
                1.3319200710745691,
                -0.8199043294341689,
                1.0544939210422424,
                2.3527992809380986
            ]
        },
        {
            "positions": [
                2.2070094253246015,
                -1.3241095401577274,
                1.2329360770949829,
                -0.8257440821577915,
                1.05392155590338,
                2.1863315877818428
            ]
        },
        {
            "positions": [
                2.136840337139327,
                -1.3757270337207987,
                1.1339520831153969,
                -0.8315838348814141,
                1.0533491907645178,
                2.0198638946255874
            ]
        },
        {
            "positions": [
                2.0666712489540524,
                -1.4273445272838698,
                1.0349680891358108,
                -0.8374235876050367,
                1.0527768256256558,
                1.853396201469332
            ]
        },
        {
            "positions": [
                1.9965021607687778,
                -1.478962020846941,
                0.9359840951562245,
                -0.8432633403286592,
                1.0522044604867935,
                1.6869285083130763
            ]
        },
        {
            "positions": [
                1.9263330725835033,
                -1.530579514410012,
                0.8370001011766385,
                -0.8491030930522818,
                1.0516320953479312,
                1.520460815156821
            ]
        },
        {
            "positions": [
                1.856163984398229,
                -1.5821970079730832,
                0.7380161071970524,
                -0.8549428457759045,
                1.0510597302090692,
                1.3539931220005654
            ]
        },
        {
            "positions": [
                1.7859948962129544,
                -1.6338145015361543,
                0.6390321132174661,
                -0.860782598499527,
                1.050487365070207,
                1.18752542884431
            ]
        },
        {
            "positions": [
                1.71582580802768,
                -1.6854319950992254,
                0.5400481192378801,
                -0.8666223512231497,
                1.0499149999313449,
                1.0210577356880548
            ]
        },
        {
            "positions": [
                1.6456567198424055,
                -1.7370494886622967,
                0.44106412525829386,
                -0.8724621039467723,
                1.0493426347924826,
                0.8545900425317989
            ]
        },
        {
            "positions": [
                1.575487631657131,
                -1.7886669822253678,
                0.3420801312787076,
                -0.8783018566703948,
                1.0487702696536203,
                0.6881223493755435
            ]
        },
        {
            "positions": [
                1.5053185434718563,
                -1.840284475788439,
                0.2430961372991216,
                -0.8841416093940174,
                1.0481979045147582,
                0.5216546562192881
            ]
        },
        {
            "positions": [
                1.435149455286582,
                -1.8919019693515098,
                0.1441121433195356,
                -0.88998136211764,
                1.047625539375896,
                0.35518696306303266
            ]
        },
        {
            "positions": [
                1.3649803671013072,
                -1.943519462914581,
                0.04512814933994913,
                -0.8958211148412626,
                1.0470531742370337,
                0.1887192699067768
            ]
        },
        {
            "positions": [
                1.2948112789160329,
                -1.9951369564776522,
                -0.053855844639636885,
                -0.9016608675648852,
                1.0464808090981716,
                0.022251576750521362
            ]
        },
        {
            "positions": [
                1.2246421907307583,
                -2.0467544500407233,
                -0.1528398386192229,
                -0.9075006202885078,
                1.0459084439593094,
                -0.14421611640573362
            ]
        },
        {
            "positions": [
                1.154473102545484,
                -2.0983719436037944,
                -0.2518238325988089,
                -0.9133403730121303,
                1.045336078820447,
                -0.31068380956198904
            ]
        },
        {
            "positions": [
                1.0843040143602094,
                -2.1499894371668655,
                -0.35080782657839515,
                -0.9191801257357529,
                1.044763713681585,
                -0.4771515027182449
            ]
        },
        {
            "positions": [
                1.0141349261749348,
                -2.2016069307299366,
                -0.4497918205579814,
                -0.9250198784593755,
                1.0441913485427228,
                -0.6436191958745003
            ]
        },
        {
            "positions": [
                0.9549736050322207,
                -2.203800318399271,
                -0.48707069058914043,
                -1.0214625148947634,
                0.9838407802939171,
                -0.7666119325219553
            ]
        },
        {
            "positions": [
                0.8958122838895066,
                -2.2059937060686057,
                -0.5243495606202995,
                -1.117905151330151,
                0.9234902120451114,
                -0.8896046691694102
            ]
        },
        {
            "positions": [
                0.8366509627467924,
                -2.2081870937379398,
                -0.5616284306514584,
                -1.2143477877655386,
                0.8631396437963057,
                -1.0125974058168652
            ]
        },
        {
            "positions": [
                0.7774896416040783,
                -2.2103804814072743,
                -0.5989073006826174,
                -1.3107904242009265,
                0.8027890755474999,
                -1.13559014246432
            ]
        },
        {
            "positions": [
                0.7183283204613642,
                -2.212573869076609,
                -0.6361861707137765,
                -1.4072330606363141,
                0.7424385072986942,
                -1.258582879111775
            ]
        },
        {
            "positions": [
                0.6591669993186501,
                -2.2147672567459433,
                -0.6734650407449355,
                -1.503675697071702,
                0.6820879390498885,
                -1.38157561575923
            ]
        },
        {
            "positions": [
                0.600005678175936,
                -2.216960644415278,
                -0.7107439107760944,
                -1.6001183335070897,
                0.6217373708010828,
                -1.5045683524066849
            ]
        },
        {
            "positions": [
                0.5408443570332218,
                -2.219154032084612,
                -0.7480227808072535,
                -1.6965609699424775,
                0.561386802552277,
                -1.6275610890541399
            ]
        },
        {
            "positions": [
                0.48168303589050765,
                -2.2213474197539465,
                -0.7853016508384125,
                -1.7930036063778652,
                0.5010362343034713,
                -1.750553825701595
            ]
        },
        {
            "positions": [
                0.42252171474779354,
                -2.223540807423281,
                -0.8225805208695716,
                -1.889446242813253,
                0.44068566605466564,
                -1.8735465623490497
            ]
        },
        {
            "positions": [
                0.3633603936050793,
                -2.2257341950926155,
                -0.8598593909007306,
                -1.9858888792486407,
                0.38033509780585983,
                -1.9965392989965047
            ]
        },
        {
            "positions": [
                0.3041990724623653,
                -2.22792758276195,
                -0.8971382609318896,
                -2.0823315156840283,
                0.31998452955705425,
                -2.1195320356439593
            ]
        },
        {
            "positions": [
                0.2450377513196511,
                -2.230120970431284,
                -0.9344171309630487,
                -2.1787741521194164,
                0.25963396130824845,
                -2.2425247722914143
            ]
        },
        {
            "positions": [
                0.1858764301769371,
                -2.2323143581006186,
                -0.9716960009942076,
                -2.275216788554804,
                0.19928339305944287,
                -2.3655175089388694
            ]
        },
        {
            "positions": [
                0.1267151090342229,
                -2.234507745769953,
                -1.0089748710253668,
                -2.3716594249901917,
                0.13893282481063707,
                -2.4885102455863244
            ]
        },
        {
            "positions": [
                0.06755378789150868,
                -2.2367011334392877,
                -1.0462537410565256,
                -2.4681020614255793,
                0.07858225656183127,
                -2.6115029822337794
            ]
        },
        {
            "positions": [
                0.00839246674879468,
                -2.238894521108622,
                -1.0835326110876846,
                -2.564544697860967,
                0.018231688313025574,
                -2.734495718881234
            ]
        },
        {
            "positions": [
                -0.05076885439391954,
                -2.2410879087779563,
                -1.1208114811188437,
                -2.6609873342963546,
                -0.04211887993578012,
                -2.8574884555286895
            ]
        },
        {
            "positions": [
                -0.10993017553663353,
                -2.243281296447291,
                -1.1580903511500027,
                -2.7574299707317422,
                -0.10246944818458581,
                -2.980481192176144
            ]
        },
        {
            "positions": [
                -0.16909149667934778,
                -2.2454746841166253,
                -1.1953692211811617,
                -2.8538726071671303,
                -0.1628200164333915,
                -3.103473928823599
            ]
        }
    ]
}