{
    "goal": {
        "global_pose": {
            "orientation": {
                "w": 0.005598929693374612,
                "x": 0.007748599140229565,
                "y": 0.7110244013736278,
                "z": -0.7031023480610252
            },
            "position": {
                "x": 0.1141497679147869,
                "y": -0.7141253447532654,
                "z": 0.3711530566215515
            }
        },
        "name": "move_to_auspresseinheit_B"
    },
    "id": "KPIECE_move_to_auspresseinheit_B_150",
    "joint_names": [
        "shoulder_pan_joint",
        "shoulder_lift_joint",
        "elbow_joint",
        "wrist_1_joint",
        "wrist_2_joint",
        "wrist_3_joint"
    ],
    "metrics": {
        "cart_traj_len": 0.5641158132574592,
        "distance_elbow_joint": 0.06593416205883385,
        "distance_shoulder_lift_joint": 0.2942155989937292,
        "distance_shoulder_pan_joint": 0.5769966384824572,
        "distance_wrist_1_joint": 0.33932864900991777,
        "distance_wrist_2_joint": 0.9881726536632307,
        "distance_wrist_3_joint": 9.100938004369397e-05,
        "smoothness": 2.5376526478085547e-16,
        "time": 0.257171626,
        "traj_len": 1.5049048845652049,
        "weighted_distance": 1.8953685744523274
    },
    "planner": "KPIECE",
    "start": {
        "state": {
            "elbow_joint": 2.019306165916698,
            "shoulder_lift_joint": -1.1220205098164344,
            "shoulder_pan_joint": -1.095207207618794,
            "wrist_1_joint": -0.8559671824921639,
            "wrist_2_joint": 0.47596387242952726,
            "wrist_3_joint": 3.159081874673826
        }
    },
    "waypoints": [
        {
            "positions": [
                -1.095207207618794,
                -1.1220205098164344,
                2.019306165916698,
                -0.8559671824921639,
                0.47596387242952726,
                3.159081874673826
            ]
        },
        {
            "positions": [
                -1.1913733140325369,
                -1.171056442982056,
                2.008317138906892,
                -0.7994124076571776,
                0.6406593147067323,
                3.159097042903833
            ]
        },
        {
            "positions": [
                -1.2875394204462798,
                -1.2200923761476774,
                1.9973281118970867,
                -0.7428576328221913,
                0.8053547569839374,
                3.1591122111338406
            ]
        },
        {
            "positions": [
                -1.3837055268600227,
                -1.269128309313299,
                1.986339084887281,
                -0.686302857987205,
                0.9700501992611426,
                3.1591273793638477
            ]
        },
        {
            "positions": [
                -1.4798716332737654,
                -1.3181642424789206,
                1.9753500578774754,
                -0.6297480831522186,
                1.1347456415383477,
                3.159142547593855
            ]
        },
        {
            "positions": [
                -1.5760377396875083,
                -1.367200175644542,
                1.9643610308676698,
                -0.5731933083172324,
                1.2994410838155528,
                3.1591577158238624
            ]
        },
        {
            "positions": [
                -1.6722038461012512,
                -1.4162361088101636,
                1.9533720038578641,
                -0.5166385334822461,
                1.464136526092758,
                3.1591728840538695
            ]
        }
    ]
}