{
    "goal": {
        "global_pose": {
            "orientation": {
                "w": -0.00223480608172531,
                "x": 0.0024358444001904467,
                "y": 0.7094548369677653,
                "z": -0.704743149386269
            },
            "position": {
                "x": 0.6205249238014221,
                "y": -0.6371506643295288,
                "z": 0.19426114857196808
            }
        },
        "name": "move_to_magneteinheit_B"
    },
    "id": "KPIECE_move_to_magneteinheit_B_44",
    "joint_names": [
        "shoulder_pan_joint",
        "shoulder_lift_joint",
        "elbow_joint",
        "wrist_1_joint",
        "wrist_2_joint",
        "wrist_3_joint"
    ],
    "metrics": {
        "cart_traj_len": 1.4518593022797341,
        "distance_elbow_joint": 0.7276702469425169,
        "distance_shoulder_lift_joint": 1.246449295038863,
        "distance_shoulder_pan_joint": 1.62114035337524,
        "distance_wrist_1_joint": 2.607972876907493,
        "distance_wrist_2_joint": 2.9377464414008765,
        "distance_wrist_3_joint": 3.1393348419928016,
        "smoothness": 2.775557567883112e-16,
        "time": 0.124585278,
        "traj_len": 3.504327903558369,
        "weighted_distance": 4.909654067034841
    },
    "planner": "KPIECE",
    "start": {
        "state": {
            "elbow_joint": 2.3935871308073637,
            "shoulder_lift_joint": -1.9085141043777403,
            "shoulder_pan_joint": 0.7066247067284167,
            "wrist_1_joint": -0.46782909355067076,
            "wrist_2_joint": 0.7096259085804283,
            "wrist_3_joint": -3.1358149275257428
        }
    },
    "waypoints": [
        {
            "positions": [
                0.7066247067284167,
                -1.9085141043777403,
                2.3935871308073637,
                -0.46782909355067076,
                0.7096259085804283,
                -3.1358149275257428
            ]
        },
        {
            "positions": [
                0.654329856619538,
                -1.8683060626022931,
                2.3701138970350244,
                -0.3837009362310742,
                0.6148598943416903,
                -3.034546061655007
            ]
        },
        {
            "positions": [
                0.6020350065106593,
                -1.8280980208268458,
                2.346640663262685,
                -0.29957277891147766,
                0.5200938801029524,
                -2.933277195784272
            ]
        },
        {
            "positions": [
                0.5497401564017805,
                -1.7878899790513987,
                2.323167429490346,
                -0.2154446215918811,
                0.42532786586421445,
                -2.832008329913536
            ]
        },
        {
            "positions": [
                0.49744530629290185,
                -1.7476819372759516,
                2.299694195718007,
                -0.13131646427228455,
                0.3305618516254765,
                -2.7307394640428004
            ]
        },
        {
            "positions": [
                0.44515045618402316,
                -1.7074738955005042,
                2.2762209619456675,
                -0.04718830695268805,
                0.23579583738673854,
                -2.629470598172065
            ]
        },
        {
            "positions": [
                0.39285560607514447,
                -1.667265853725057,
                2.252747728173328,
                0.036939850366908555,
                0.1410298231480006,
                -2.5282017323013295
            ]
        },
        {
            "positions": [
                0.3405607559662657,
                -1.62705781194961,
                2.229274494400989,
                0.12106800768650511,
                0.04626380890926263,
                -2.426932866430594
            ]
        },
        {
            "positions": [
                0.28826590585738704,
                -1.5868497701741626,
                2.20580126062865,
                0.20519616500610166,
                -0.048502205329475245,
                -2.3256640005598586
            ]
        },
        {
            "positions": [
                0.2359710557485083,
                -1.5466417283987155,
                2.1823280268563106,
                0.2893243223256982,
                -0.14326821956821334,
                -2.224395134689123
            ]
        },
        {
            "positions": [
                0.1836762056396296,
                -1.5064336866232684,
                2.158854793083971,
                0.37345247964529465,
                -0.2380342338069512,
                -2.123126268818387
            ]
        },
        {
            "positions": [
                0.13138135553075092,
                -1.466225644847821,
                2.135381559311632,
                0.4575806369648913,
                -0.3328002480456892,
                -2.021857402947652
            ]
        },
        {
            "positions": [
                0.07908650542187223,
                -1.426017603072374,
                2.1119083255392925,
                0.5417087942844878,
                -0.42756626228442707,
                -1.9205885370769165
            ]
        },
        {
            "positions": [
                0.026791655312993434,
                -1.3858095612969268,
                2.0884350917669536,
                0.6258369516040843,
                -0.5223322765231652,
                -1.8193196712061808
            ]
        },
        {
            "positions": [
                -0.025503194795885253,
                -1.3456015195214794,
                2.0649618579946143,
                0.7099651089236809,
                -0.617098290761903,
                -1.7180508053354453
            ]
        },
        {
            "positions": [
                -0.07779804490476394,
                -1.3053934777460323,
                2.041488624222275,
                0.7940932662432774,
                -0.7118643050006411,
                -1.6167819394647096
            ]
        },
        {
            "positions": [
                -0.13009289501364263,
                -1.2651854359705852,
                2.0180153904499356,
                0.878221423562874,
                -0.8066303192393788,
                -1.5155130735939744
            ]
        },
        {
            "positions": [
                -0.18238774512252132,
                -1.224977394195138,
                1.9945421566775965,
                0.9623495808824705,
                -0.9013963334781167,
                -1.4142442077232389
            ]
        },
        {
            "positions": [
                -0.23468259523140012,
                -1.1847693524196907,
                1.9710689229052571,
                1.0464777382020671,
                -0.996162347716855,
                -1.312975341852503
            ]
        },
        {
            "positions": [
                -0.2869774453402788,
                -1.1445613106442436,
                1.9475956891329178,
                1.1306058955216636,
                -1.090928361955593,
                -1.2117064759817675
            ]
        },
        {
            "positions": [
                -0.3392722954491575,
                -1.1043532688687963,
                1.9241224553605787,
                1.21473405284126,
                -1.1856943761943306,
                -1.110437610111032
            ]
        },
        {
            "positions": [
                -0.3915671455580362,
                -1.0641452270933494,
                1.9006492215882393,
                1.2988622101608567,
                -1.2804603904330687,
                -1.0091687442402968
            ]
        },
        {
            "positions": [
                -0.44386199566691487,
                -1.023937185317902,
                1.8771759878159,
                1.3829903674804533,
                -1.3752264046718068,
                -0.9078998783695611
            ]
        },
        {
            "positions": [
                -0.49615684577579355,
                -0.9837291435424548,
                1.8537027540435609,
                1.4671185248000498,
                -1.4699924189105449,
                -0.8066310124988254
            ]
        },
        {
            "positions": [
                -0.5484516958846722,
                -0.9435211017670077,
                1.8302295202712218,
                1.5512466821196464,
                -1.5647584331492825,
                -0.7053621466280902
            ]
        },
        {
            "positions": [
                -0.6007465459935509,
                -0.9033130599915604,
                1.8067562864988824,
                1.6353748394392427,
                -1.6595244473880206,
                -0.6040932807573545
            ]
        },
        {
            "positions": [
                -0.6530413961024298,
                -0.8631050182161131,
                1.783283052726543,
                1.7195029967588393,
                -1.7542904616267587,
                -0.5028244148866188
            ]
        },
        {
            "positions": [
                -0.7053362462113085,
                -0.822896976440666,
                1.7598098189542037,
                1.803631154078436,
                -1.8490564758654964,
                -0.40155554901588353
            ]
        },
        {
            "positions": [
                -0.7576310963201872,
                -0.7826889346652188,
                1.7363365851818646,
                1.8877593113980327,
                -1.9438224901042345,
                -0.30028668314514784
            ]
        },
        {
            "positions": [
                -0.8099259464290657,
                -0.7424808928897717,
                1.7128633514095255,
                1.9718874687176289,
                -2.038588504342972,
                -0.1990178172744126
            ]
        },
        {
            "positions": [
                -0.8622207965379446,
                -0.7022728511143244,
                1.6893901176371862,
                2.0560156260372255,
                -2.1333545185817107,
                -0.09774895140367645
            ]
        },
        {
            "positions": [
                -0.9145156466468233,
                -0.6620648093388772,
                1.6659168838648468,
                2.140143783356822,
                -2.2281205328204483,
                0.0035199144670589244
            ]
        }
    ]
}