{
    "goal": {
        "global_pose": {
            "orientation": {
                "w": 0.7031023480610252,
                "x": -0.7110244013736278,
                "y": 0.0077485991402295624,
                "z": 0.005598929693374583
            },
            "position": {
                "x": -0.8841497679147869,
                "y": 0.44412534475326537,
                "z": 0.3711530566215515
            }
        },
        "name": "move_to_auspresseinheit_D"
    },
    "id": "KPIECE_move_to_auspresseinheit_D_32",
    "joint_names": [
        "shoulder_pan_joint",
        "shoulder_lift_joint",
        "elbow_joint",
        "wrist_1_joint",
        "wrist_2_joint",
        "wrist_3_joint"
    ],
    "metrics": {
        "cart_traj_len": 3.551656141951272,
        "distance_elbow_joint": 3.0080921673117507,
        "distance_shoulder_lift_joint": 1.6652955216226155,
        "distance_shoulder_pan_joint": 2.796976470525685,
        "distance_wrist_1_joint": 6.005885564982846,
        "distance_wrist_2_joint": 1.2199763838507325,
        "distance_wrist_3_joint": 6.258523193667751,
        "smoothness": 0.14663054028399738,
        "time": 0.071382747,
        "traj_len": 4.577635776463804,
        "weighted_distance": 6.379471579851299
    },
    "planner": "KPIECE",
    "start": {
        "state": {
            "elbow_joint": 1.8268400409724999,
            "shoulder_lift_joint": -1.0144045787793008,
            "shoulder_pan_joint": 2.6280239544362485,
            "wrist_1_joint": -0.790705565816056,
            "wrist_2_joint": 1.0573557467365533,
            "wrist_3_joint": 3.1851377467193758
        }
    },
    "waypoints": [
        {
            "positions": [
                2.6280239544362485,
                -1.0144045787793008,
                1.8268400409724999,
                -0.790705565816056,
                1.0573557467365533,
                3.1851377467193758
            ]
        },
        {
            "positions": [
                2.6238291730957113,
                -1.00512082245211,
                1.7159341254733247,
                -0.706149471271786,
                1.0141939028681797,
                3.0464177099026544
            ]
        },
        {
            "positions": [
                2.619634391755174,
                -0.9958370661249191,
                1.6050282099741493,
                -0.621593376727516,
                0.9710320589998059,
                2.907697673085933
            ]
        },
        {
            "positions": [
                2.615439610414637,
                -0.9865533097977282,
                1.4941222944749741,
                -0.5370372821832461,
                0.9278702151314323,
                2.768977636269212
            ]
        },
        {
            "positions": [
                2.6112448290740993,
                -0.9772695534705372,
                1.3832163789757987,
                -0.45248118763897605,
                0.8847083712630587,
                2.6302575994524906
            ]
        },
        {
            "positions": [
                2.607050047733562,
                -0.9679857971433463,
                1.2723104634766236,
                -0.36792509309470606,
                0.8415465273946849,
                2.491537562635769
            ]
        },
        {
            "positions": [
                2.602855266393025,
                -0.9587020408161555,
                1.1614045479774484,
                -0.28336899855043607,
                0.7983846835263113,
                2.352817525819048
            ]
        },
        {
            "positions": [
                2.5986604850524877,
                -0.9494182844889646,
                1.050498632478273,
                -0.19881290400616602,
                0.7552228396579377,
                2.2140974890023264
            ]
        },
        {
            "positions": [
                2.5944657037119505,
                -0.9401345281617737,
                0.9395927169790979,
                -0.11425680946189609,
                0.712060995789564,
                2.075377452185605
            ]
        },
        {
            "positions": [
                2.5902709223714133,
                -0.9308507718345828,
                0.8286868014799226,
                -0.029700714917626048,
                0.6688991519211902,
                1.9366574153688838
            ]
        },
        {
            "positions": [
                2.586076141030876,
                -0.921567015507392,
                0.7177808859807473,
                0.054855379626643885,
                0.6257373080528166,
                1.7979373785521626
            ]
        },
        {
            "positions": [
                2.581881359690339,
                -0.912283259180201,
                0.6068749704815721,
                0.13941147417091393,
                0.582575464184443,
                1.6592173417354412
            ]
        },
        {
            "positions": [
                2.5776865783498013,
                -0.9029995028530101,
                0.49596905498239674,
                0.22396756871518386,
                0.5394136203160693,
                1.5204973049187198
            ]
        },
        {
            "positions": [
                2.573491797009264,
                -0.8937157465258192,
                0.3850631394832216,
                0.3085236632594537,
                0.4962517764476957,
                1.3817772681019986
            ]
        },
        {
            "positions": [
                2.569297015668727,
                -0.8844319901986284,
                0.2741572239840462,
                0.39307975780372395,
                0.45308993257932195,
                1.243057231285277
            ]
        },
        {
            "positions": [
                2.5651022343281897,
                -0.8751482338714375,
                0.16325130848487102,
                0.4776358523479938,
                0.4099280887109483,
                1.104337194468556
            ]
        },
        {
            "positions": [
                2.5609074529876525,
                -0.8658644775442466,
                0.05234539298569585,
                0.5621919468922638,
                0.3667662448425747,
                0.9656171576518346
            ]
        },
        {
            "positions": [
                2.5567126716471154,
                -0.8565807212170558,
                -0.05856052251347932,
                0.6467480414365336,
                0.32360440097420107,
                0.8268971208351132
            ]
        },
        {
            "positions": [
                2.552517890306578,
                -0.8472969648898648,
                -0.1694664380126547,
                0.7313041359808039,
                0.2804425571058272,
                0.6881770840183918
            ]
        },
        {
            "positions": [
                2.548323108966041,
                -0.8380132085626739,
                -0.2803723535118299,
                0.8158602305250737,
                0.2372807132374536,
                0.5494570472016704
            ]
        },
        {
            "positions": [
                2.5441283276255033,
                -0.828729452235483,
                -0.39127826901100526,
                0.9004163250693438,
                0.19411886936907996,
                0.4107370103849495
            ]
        },
        {
            "positions": [
                2.539933546284966,
                -0.8194456959082921,
                -0.5021841845101802,
                0.9849724196136136,
                0.15095702550070633,
                0.27201697356822807
            ]
        },
        {
            "positions": [
                2.535738764944429,
                -0.8101619395811013,
                -0.6130901000093556,
                1.0695285141578839,
                0.10779518163233259,
                0.13329693675150667
            ]
        },
        {
            "positions": [
                2.5315439836038918,
                -0.8008781832539104,
                -0.7239960155085312,
                1.1540846087021537,
                0.06463333776395894,
                -0.0054231000652146255
            ]
        },
        {
            "positions": [
                2.4444311932912037,
                -0.847709445386079,
                -0.7387462126321028,
                1.0230815315903912,
                0.05730256438079325,
                -0.10438962738402602
            ]
        },
        {
            "positions": [
                2.3573184029785157,
                -0.8945407075182474,
                -0.7534964097556746,
                0.8920784544786287,
                0.049971790997627566,
                -0.2033561547028374
            ]
        },
        {
            "positions": [
                2.2702056126658277,
                -0.941371969650416,
                -0.7682466068792462,
                0.7610753773668661,
                0.042641017614461874,
                -0.3023226820216488
            ]
        },
        {
            "positions": [
                2.1830928223531396,
                -0.9882032317825846,
                -0.7829968040028178,
                0.6300723002551036,
                0.03531024423129619,
                -0.4012892093404602
            ]
        },
        {
            "positions": [
                2.0959800320404516,
                -1.035034493914753,
                -0.7977470011263894,
                0.4990692231433411,
                0.027979470848130503,
                -0.5002557366592716
            ]
        },
        {
            "positions": [
                2.0088672417277635,
                -1.0818657560469216,
                -0.8124971982499611,
                0.3680661460315785,
                0.02064869746496481,
                -0.599222263978083
            ]
        },
        {
            "positions": [
                1.9217544514150755,
                -1.1286970181790903,
                -0.8272473953735328,
                0.237063068919816,
                0.013317924081799125,
                -0.6981887912968944
            ]
        },
        {
            "positions": [
                1.8346416611023875,
                -1.1755282803112588,
                -0.8419975924971044,
                0.10605999180805359,
                0.005987150698633439,
                -0.7971553186157058
            ]
        },
        {
            "positions": [
                1.7475288707896994,
                -1.2223595424434275,
                -0.8567477896206761,
                -0.024943085303709145,
                -0.001343622684532253,
                -0.8961218459345173
            ]
        },
        {
            "positions": [
                1.6604160804770116,
                -1.269190804575596,
                -0.8714979867442477,
                -0.15594616241547143,
                -0.008674396067697931,
                -0.9950883732533286
            ]
        },
        {
            "positions": [
                1.5733032901643234,
                -1.3160220667077644,
                -0.8862481838678193,
                -0.28694923952723417,
                -0.016005169450863624,
                -1.0940549005721403
            ]
        },
        {
            "positions": [
                1.4861904998516355,
                -1.362853328839933,
                -0.9009983809913911,
                -0.4179523166389967,
                -0.023335942834029316,
                -1.1930214278909514
            ]
        },
        {
            "positions": [
                1.3990777095389475,
                -1.4096845909721016,
                -0.9157485781149627,
                -0.5489553937507592,
                -0.03066671621719501,
                -1.291987955209763
            ]
        },
        {
            "positions": [
                1.3119649192262595,
                -1.4565158531042701,
                -0.9304987752385343,
                -0.6799584708625217,
                -0.03799748960036069,
                -1.3909544825285742
            ]
        },
        {
            "positions": [
                1.2248521289135714,
                -1.5033471152364388,
                -0.945248972362106,
                -0.8109615479742842,
                -0.04532826298352638,
                -1.4899210098473858
            ]
        },
        {
            "positions": [
                1.1377393386008834,
                -1.5501783773686073,
                -0.9599991694856775,
                -0.9419646250860465,
                -0.05265903636669206,
                -1.588887537166197
            ]
        },
        {
            "positions": [
                1.0506265482881956,
                -1.5970096395007758,
                -0.9747493666092493,
                -1.072967702197809,
                -0.059989809749857737,
                -1.6878540644850082
            ]
        },
        {
            "positions": [
                0.9635137579755073,
                -1.6438409016329443,
                -0.989499563732821,
                -1.203970779309572,
                -0.06732058313302344,
                -1.7868205918038198
            ]
        },
        {
            "positions": [
                0.8764009676628193,
                -1.6906721637651128,
                -1.0042497608563925,
                -1.3349738564213345,
                -0.07465135651618912,
                -1.8857871191226314
            ]
        },
        {
            "positions": [
                0.7892881773501315,
                -1.7375034258972815,
                -1.0189999579799642,
                -1.4659769335330965,
                -0.0819821298993548,
                -1.9847536464414426
            ]
        },
        {
            "positions": [
                0.7021753870374434,
                -1.78433468802945,
                -1.0337501551035357,
                -1.596980010644859,
                -0.08931290328252048,
                -2.083720173760254
            ]
        },
        {
            "positions": [
                0.6150625967247552,
                -1.8311659501616186,
                -1.0485003522271075,
                -1.727983087756622,
                -0.09664367666568618,
                -2.182686701079066
            ]
        },
        {
            "positions": [
                0.5279498064120673,
                -1.8779972122937871,
                -1.0632505493506792,
                -1.8589861648683845,
                -0.10397445004885186,
                -2.281653228397877
            ]
        },
        {
            "positions": [
                0.4408370160993793,
                -1.9248284744259556,
                -1.0780007464742507,
                -1.989989241980147,
                -0.11130522343201757,
                -2.380619755716688
            ]
        },
        {
            "positions": [
                0.35372422578669127,
                -1.971659736558124,
                -1.0927509435978224,
                -2.120992319091909,
                -0.11863599681518325,
                -2.4795862830354998
            ]
        },
        {
            "positions": [
                0.26661143547400323,
                -2.018490998690293,
                -1.1075011407213942,
                -2.251995396203672,
                -0.12596677019834895,
                -2.5785528103543114
            ]
        },
        {
            "positions": [
                0.1794986451613152,
                -2.0653222608224615,
                -1.1222513378449657,
                -2.3829984733154346,
                -0.13329754358151463,
                -2.6775193376731226
            ]
        },
        {
            "positions": [
                0.09238585484862716,
                -2.11215352295463,
                -1.1370015349685374,
                -2.514001550427197,
                -0.1406283169646803,
                -2.7764858649919337
            ]
        },
        {
            "positions": [
                0.00527306453593912,
                -2.1589847850867985,
                -1.1517517320921091,
                -2.645004627538959,
                -0.147959090347846,
                -2.8754523923107453
            ]
        },
        {
            "positions": [
                -0.08183972577674892,
                -2.205816047218967,
                -1.1665019292156806,
                -2.776007704650722,
                -0.1552898637310117,
                -2.974418919629557
            ]
        },
        {
            "positions": [
                -0.16895251608943695,
                -2.2526473093511354,
                -1.1812521263392524,
                -2.907010781762484,
                -0.16262063711417737,
                -3.073385446948368
            ]
        }
    ]
}