{
    "goal": {
        "global_pose": {
            "orientation": {
                "w": 0.7047431493862688,
                "x": -0.7094548369677653,
                "y": 0.0024358444001904,
                "z": -0.0022348060817251984
            },
            "position": {
                "x": -0.39052492380142206,
                "y": 0.3671506643295288,
                "z": 0.19426114857196808
            }
        },
        "name": "move_to_magneteinheit_D"
    },
    "id": "KPIECE_move_to_magneteinheit_D_53",
    "joint_names": [
        "shoulder_pan_joint",
        "shoulder_lift_joint",
        "elbow_joint",
        "wrist_1_joint",
        "wrist_2_joint",
        "wrist_3_joint"
    ],
    "metrics": {
        "cart_traj_len": 5.041104596923954,
        "distance_elbow_joint": 3.4303480490188805,
        "distance_shoulder_lift_joint": 1.6833842506135979,
        "distance_shoulder_pan_joint": 3.736311799215807,
        "distance_wrist_1_joint": 1.8658905676665998,
        "distance_wrist_2_joint": 0.8452371877633273,
        "distance_wrist_3_joint": 3.147837846750365,
        "smoothness": 0.9316260183992856,
        "time": 0.339589865,
        "traj_len": 3.8352326788642928,
        "weighted_distance": 4.869888412475097
    },
    "planner": "KPIECE",
    "start": {
        "state": {
            "elbow_joint": 0.7495348899011973,
            "shoulder_lift_joint": -0.6476975780737697,
            "shoulder_pan_joint": -2.711696901376276,
            "wrist_1_joint": -0.07506478080974305,
            "wrist_2_joint": 0.4329665971545858,
            "wrist_3_joint": 3.1361499051832524
        }
    },
    "waypoints": [
        {
            "positions": [
                -2.711696901376276,
                -0.6476975780737697,
                0.7495348899011973,
                -0.07506478080974305,
                0.4329665971545858,
                3.1361499051832524
            ]
        },
        {
            "positions": [
                -2.8152300608613148,
                -0.7113028193078226,
                0.8217984975678831,
                -0.06729846199041425,
                0.3565311404477417,
                3.1583868430602466
            ]
        },
        {
            "positions": [
                -2.9187632203463534,
                -0.7749080605418753,
                0.894062105234569,
                -0.05953214317108546,
                0.2800956837408976,
                3.180623780937241
            ]
        },
        {
            "positions": [
                -2.843527373260566,
                -0.7659663475803654,
                0.7719045137290004,
                -0.1158985683087741,
                0.34749787622557615,
                3.1678243764163363
            ]
        },
        {
            "positions": [
                -2.768291526174779,
                -0.7570246346188554,
                0.6497469222234318,
                -0.17226499344646273,
                0.4149000687102547,
                3.155024971895432
            ]
        },
        {
            "positions": [
                -2.6930556790889915,
                -0.7480829216573455,
                0.5275893307178632,
                -0.22863141858415137,
                0.48230226119493325,
                3.1422255673745276
            ]
        },
        {
            "positions": [
                -2.5546747704962556,
                -0.809667232467094,
                0.5100806431968492,
                -0.17801760647503242,
                0.46349027664945563,
                3.040196108004956
            ]
        },
        {
            "positions": [
                -2.41629386190352,
                -0.8712515432768426,
                0.4925719556758352,
                -0.12740379436591348,
                0.444678292103978,
                2.938166648635385
            ]
        },
        {
            "positions": [
                -2.2779129533107847,
                -0.9328358540865911,
                0.47506326815482125,
                -0.07678998225679451,
                0.42586630755850047,
                2.8361371892658136
            ]
        },
        {
            "positions": [
                -2.139532044718049,
                -0.9944201648963397,
                0.4575545806338073,
                -0.026176170147675565,
                0.40705432301302286,
                2.734107729896242
            ]
        },
        {
            "positions": [
                -2.001151136125313,
                -1.0560044757060882,
                0.44004589311279324,
                0.02443764196144338,
                0.38824233846754524,
                2.6320782705266703
            ]
        },
        {
            "positions": [
                -1.8627702275325775,
                -1.117588786515837,
                0.42253720559177926,
                0.07505145407056235,
                0.36943035392206763,
                2.530048811157099
            ]
        },
        {
            "positions": [
                -1.7243893189398418,
                -1.1791730973255854,
                0.4050285180707653,
                0.12566526617968132,
                0.3506183693765901,
                2.428019351787528
            ]
        },
        {
            "positions": [
                -1.5860084103471062,
                -1.2407574081353339,
                0.3875198305497513,
                0.17627907828880024,
                0.33180638483111247,
                2.3259898924179563
            ]
        },
        {
            "positions": [
                -1.4476275017543705,
                -1.3023417189450823,
                0.37001114302873733,
                0.2268928903979192,
                0.31299440028563486,
                2.2239604330483846
            ]
        },
        {
            "positions": [
                -1.3092465931616348,
                -1.363926029754831,
                0.3525024555077233,
                0.2775067025070381,
                0.29418241574015724,
                2.1219309736788134
            ]
        },
        {
            "positions": [
                -1.170865684568899,
                -1.4255103405645797,
                0.3349937679867093,
                0.3281205146161572,
                0.27537043119467963,
                2.019901514309242
            ]
        },
        {
            "positions": [
                -1.0324847759761635,
                -1.4870946513743282,
                0.31748508046569535,
                0.37873432672527607,
                0.256558446649202,
                1.9178720549396706
            ]
        },
        {
            "positions": [
                -0.8941038673834276,
                -1.5486789621840766,
                0.29997639294468137,
                0.42934813883439504,
                0.23774646210372444,
                1.815842595570099
            ]
        },
        {
            "positions": [
                -0.7557229587906922,
                -1.6102632729938253,
                0.2824677054236674,
                0.479961950943514,
                0.21893447755824685,
                1.7138131362005278
            ]
        },
        {
            "positions": [
                -0.6173420501979563,
                -1.671847583803574,
                0.2649590179026534,
                0.530575763052633,
                0.20012249301276924,
                1.6117836768309561
            ]
        },
        {
            "positions": [
                -0.47896114160522085,
                -1.7334318946133225,
                0.24745033038163944,
                0.5811895751617518,
                0.18131050846729163,
                1.509754217461385
            ]
        },
        {
            "positions": [
                -0.34058023301248497,
                -1.795016205423071,
                0.22994164286062546,
                0.6318033872708709,
                0.16249852392181402,
                1.4077247580918133
            ]
        },
        {
            "positions": [
                -0.20219932441974953,
                -1.8566005162328194,
                0.21243295533961148,
                0.6824171993799898,
                0.14368653937633646,
                1.305695298722242
            ]
        },
        {
            "positions": [
                -0.06381841582701364,
                -1.918184827042568,
                0.19492426781859745,
                0.7330310114891088,
                0.12487455483085885,
                1.2036658393526705
            ]
        },
        {
            "positions": [
                0.0745624927657218,
                -1.9797691378523166,
                0.17741558029758348,
                0.7836448235982276,
                0.10606257028538124,
                1.1016363799830993
            ]
        },
        {
            "positions": [
                0.2129434013584579,
                -2.0413534486620653,
                0.1599068927765695,
                0.8342586357073467,
                0.08725058573990363,
                0.9996069206135276
            ]
        },
        {
            "positions": [
                0.1836078835506699,
                -2.0597777022701935,
                -0.04986415880190659,
                0.88547433921361,
                0.09468085801327436,
                0.9247757783368341
            ]
        },
        {
            "positions": [
                0.1542723657428819,
                -2.0782019558783213,
                -0.2596352103803827,
                0.9366900427198732,
                0.10211113028664508,
                0.8499446360601406
            ]
        },
        {
            "positions": [
                0.12493684793509385,
                -2.0966262094864496,
                -0.46940626195885876,
                0.9879057462261365,
                0.10954140256001581,
                0.775113493783447
            ]
        },
        {
            "positions": [
                0.09560133012730584,
                -2.115050463094578,
                -0.6791773135373349,
                1.0391214497323997,
                0.11697167483338652,
                0.7002823515067534
            ]
        },
        {
            "positions": [
                0.06626581231951781,
                -2.133474716702706,
                -0.888948365115811,
                1.090337153238663,
                0.12440194710675725,
                0.6254512092300598
            ]
        },
        {
            "positions": [
                0.0369302945117298,
                -2.1518989703108344,
                -1.098719416694287,
                1.1415528567449265,
                0.13183221938012799,
                0.5506200669533663
            ]
        },
        {
            "positions": [
                0.0075947767039417635,
                -2.1703232239189623,
                -1.3084904682727632,
                1.1927685602511897,
                0.13926249165349872,
                0.47578892467667266
            ]
        },
        {
            "positions": [
                -0.021740741103846217,
                -2.1887474775270905,
                -1.5182615198512392,
                1.243984263757453,
                0.14669276392686942,
                0.40095778239997926
            ]
        },
        {
            "positions": [
                -0.051076258911634254,
                -2.207171731135219,
                -1.7280325714297153,
                1.2951999672637162,
                0.15412303620024015,
                0.3261266401232856
            ]
        },
        {
            "positions": [
                -0.08041177671942229,
                -2.2255959847433466,
                -1.9378036230081914,
                1.3464156707699795,
                0.16155330847361088,
                0.251295497846592
            ]
        },
        {
            "positions": [
                -0.10974729452721027,
                -2.244020238351475,
                -2.1475746745866675,
                1.3976313742762427,
                0.1689835807469816,
                0.1764643555698986
            ]
        },
        {
            "positions": [
                -0.1390828123349983,
                -2.262444491959603,
                -2.3573457261651436,
                1.448847077782506,
                0.17641385302035234,
                0.10163321329320502
            ]
        },
        {
            "positions": [
                -0.18459545718246212,
                -2.277431550918308,
                -2.3917587284509403,
                1.4526272360307249,
                0.17046909886022713,
                0.07725980994086501
            ]
        }
    ]
}