{
    "goal": {
        "global_pose": {
            "orientation": {
                "w": -0.00223480608172531,
                "x": 0.0024358444001904467,
                "y": 0.7094548369677653,
                "z": -0.704743149386269
            },
            "position": {
                "x": 0.6205249238014221,
                "y": -0.6371506643295288,
                "z": 0.19426114857196808
            }
        },
        "name": "move_to_magneteinheit_B"
    },
    "id": "KPIECE_move_to_magneteinheit_B_73",
    "joint_names": [
        "shoulder_pan_joint",
        "shoulder_lift_joint",
        "elbow_joint",
        "wrist_1_joint",
        "wrist_2_joint",
        "wrist_3_joint"
    ],
    "metrics": {
        "cart_traj_len": 4.374587291310669,
        "distance_elbow_joint": 4.047409325304432,
        "distance_shoulder_lift_joint": 0.5382894100721998,
        "distance_shoulder_pan_joint": 4.048825730612673,
        "distance_wrist_1_joint": 2.019525779864837,
        "distance_wrist_2_joint": 1.5703856411644592,
        "distance_wrist_3_joint": 6.262284691465826,
        "smoothness": 0.2450492493307851,
        "time": 0.32212123000000004,
        "traj_len": 4.299618655007025,
        "weighted_distance": 5.882278587626173
    },
    "planner": "KPIECE",
    "start": {
        "state": {
            "elbow_joint": 2.3935871308073637,
            "shoulder_lift_joint": -1.9085141043777403,
            "shoulder_pan_joint": 0.7066247067284167,
            "wrist_1_joint": -0.46782909355067076,
            "wrist_2_joint": 0.7096259085804283,
            "wrist_3_joint": -3.1358149275257428
        }
    },
    "waypoints": [
        {
            "positions": [
                0.7066247067284167,
                -1.9085141043777403,
                2.3935871308073637,
                -0.46782909355067076,
                0.7096259085804283,
                -3.1358149275257428
            ]
        },
        {
            "positions": [
                0.6029988057378668,
                -1.9214082401840336,
                2.384585425382437,
                -0.4427192734720071,
                0.6783410703068844,
                -3.124539110615067
            ]
        },
        {
            "positions": [
                0.4791089800751232,
                -1.9221718475510285,
                2.3003248663569993,
                -0.44945948303321026,
                0.6500454689745693,
                -3.0113090471315545
            ]
        },
        {
            "positions": [
                0.3552191544123796,
                -1.9229354549180235,
                2.216064307331562,
                -0.45619969259441345,
                0.6217498676422543,
                -2.8980789836480425
            ]
        },
        {
            "positions": [
                0.23132932874963597,
                -1.9236990622850185,
                2.1318037483061243,
                -0.46293990215561664,
                0.5934542663099391,
                -2.7848489201645306
            ]
        },
        {
            "positions": [
                0.10743950308689237,
                -1.9244626696520137,
                2.047543189280687,
                -0.4696801117168198,
                0.565158664977624,
                -2.671618856681018
            ]
        },
        {
            "positions": [
                -0.01645032257585133,
                -1.9252262770190087,
                1.9632826302552493,
                -0.4764203212780229,
                0.5368630636453089,
                -2.558388793197506
            ]
        },
        {
            "positions": [
                -0.14034014823859484,
                -1.9259898843860037,
                1.8790220712298118,
                -0.4831605308392261,
                0.5085674623129939,
                -2.445158729713994
            ]
        },
        {
            "positions": [
                -0.045699210709035015,
                -1.9209745673645495,
                1.764400208751022,
                -0.5359608455270202,
                0.5161200774463955,
                -2.336624938539942
            ]
        },
        {
            "positions": [
                0.048941726820524806,
                -1.9159592503430953,
                1.649778346272232,
                -0.5887611602148142,
                0.5236726925797972,
                -2.2280911473658898
            ]
        },
        {
            "positions": [
                0.14358266435008463,
                -1.9109439333216411,
                1.5351564837934422,
                -0.6415614749026082,
                0.5312253077131989,
                -2.1195573561918377
            ]
        },
        {
            "positions": [
                0.23822360187964445,
                -1.905928616300187,
                1.4205346213146521,
                -0.6943617895904022,
                0.5387779228466005,
                -2.0110235650177857
            ]
        },
        {
            "positions": [
                0.33286453940920424,
                -1.9009132992787328,
                1.3059127588358623,
                -0.7471621042781962,
                0.5463305379800022,
                -1.9024897738437336
            ]
        },
        {
            "positions": [
                0.42750547693876406,
                -1.8958979822572786,
                1.1912908963570725,
                -0.7999624189659902,
                0.5538831531134039,
                -1.7939559826696818
            ]
        },
        {
            "positions": [
                0.5221464144683239,
                -1.8908826652358244,
                1.0766690338782827,
                -0.8527627336537842,
                0.5614357682468055,
                -1.6854221914956298
            ]
        },
        {
            "positions": [
                0.6167873519978837,
                -1.8858673482143702,
                0.9620471713994926,
                -0.9055630483415783,
                0.5689883833802072,
                -1.5768884003215777
            ]
        },
        {
            "positions": [
                0.7114282895274435,
                -1.880852031192916,
                0.8474253089207029,
                -0.9583633630293723,
                0.5765409985136088,
                -1.468354609147526
            ]
        },
        {
            "positions": [
                0.8060692270570033,
                -1.8758367141714618,
                0.7328034464419129,
                -1.0111636777171664,
                0.5840936136470105,
                -1.3598208179734737
            ]
        },
        {
            "positions": [
                0.9007101645865632,
                -1.8708213971500076,
                0.6181815839631231,
                -1.0639639924049604,
                0.5916462287804122,
                -1.2512870267994218
            ]
        },
        {
            "positions": [
                0.995351102116123,
                -1.8658060801285534,
                0.503559721484333,
                -1.1167643070927544,
                0.5991988439138138,
                -1.1427532356253698
            ]
        },
        {
            "positions": [
                1.0899920396456828,
                -1.8607907631070995,
                0.38893785900554323,
                -1.1695646217805484,
                0.6067514590472156,
                -1.0342194444513177
            ]
        },
        {
            "positions": [
                1.1846329771752426,
                -1.8557754460856453,
                0.2743159965267534,
                -1.2223649364683424,
                0.6143040741806172,
                -0.9256856532772657
            ]
        },
        {
            "positions": [
                1.2792739147048022,
                -1.850760129064191,
                0.15969413404796362,
                -1.2751652511561364,
                0.6218566893140189,
                -0.8171518621032139
            ]
        },
        {
            "positions": [
                1.3739148522343623,
                -1.8457448120427369,
                0.04507227156917337,
                -1.3279655658439304,
                0.6294093044474206,
                -0.7086180709291616
            ]
        },
        {
            "positions": [
                1.468555789763922,
                -1.8407294950212827,
                -0.06954959090961643,
                -1.3807658805317244,
                0.6369619195808223,
                -0.6000842797551098
            ]
        },
        {
            "positions": [
                1.563196727293482,
                -1.8357141779998285,
                -0.18417145338840601,
                -1.4335661952195184,
                0.6445145347142239,
                -0.49155048858105777
            ]
        },
        {
            "positions": [
                1.6578376648230417,
                -1.8306988609783743,
                -0.2987933158671958,
                -1.4863665099073124,
                0.6520671498476256,
                -0.38301669740700595
            ]
        },
        {
            "positions": [
                1.7524786023526016,
                -1.8256835439569201,
                -0.41341517834598607,
                -1.5391668245951067,
                0.6596197649810273,
                -0.27448290623295346
            ]
        },
        {
            "positions": [
                1.8471195398821614,
                -1.820668226935466,
                -0.5280370408247759,
                -1.5919671392829007,
                0.6671723801144289,
                -0.16594911505890186
            ]
        },
        {
            "positions": [
                1.9417604774117212,
                -1.8156529099140117,
                -0.6426589033035657,
                -1.6447674539706947,
                0.6747249952478306,
                -0.05741532388484982
            ]
        },
        {
            "positions": [
                2.036401414941281,
                -1.8106375928925575,
                -0.7572807657823555,
                -1.6975677686584887,
                0.6822776103812322,
                0.05111846728920222
            ]
        },
        {
            "positions": [
                2.131042352470841,
                -1.8056222758711034,
                -0.8719026282611457,
                -1.7503680833462827,
                0.6898302255146339,
                0.15965225846325426
            ]
        },
        {
            "positions": [
                2.2256832900004007,
                -1.8006069588496492,
                -0.9865244907399355,
                -1.8031683980340767,
                0.6973828406480356,
                0.2681860496373063
            ]
        },
        {
            "positions": [
                2.3203242275299605,
                -1.795591641828195,
                -1.1011463532187253,
                -1.8559687127218707,
                0.7049354557814372,
                0.3767198408113583
            ]
        },
        {
            "positions": [
                2.410464499328535,
                -1.8387156993035574,
                -1.143884907970972,
                -1.9270997595112123,
                0.7006104545872527,
                0.47387276355048
            ]
        },
        {
            "positions": [
                2.50060477112711,
                -1.88183975677892,
                -1.1866234627232188,
                -1.998230806300554,
                0.6962854533930682,
                0.5710256862896017
            ]
        },
        {
            "positions": [
                2.5907450429256853,
                -1.9249638142542824,
                -1.2293620174754656,
                -2.0693618530898954,
                0.6919604521988838,
                0.6681786090287234
            ]
        },
        {
            "positions": [
                2.68088531472426,
                -1.9680878717296448,
                -1.2721005722277123,
                -2.1404928998792374,
                0.6876354510046992,
                0.7653315317678451
            ]
        },
        {
            "positions": [
                2.7710255865228346,
                -2.0112119292050075,
                -1.314839126979959,
                -2.211623946668579,
                0.6833104498105147,
                0.862484454506967
            ]
        },
        {
            "positions": [
                2.8611658583214097,
                -2.05433598668037,
                -1.3575776817322058,
                -2.2827549934579205,
                0.6789854486163303,
                0.9596373772460887
            ]
        },
        {
            "positions": [
                2.844833502040626,
                -2.0670946075683627,
                -1.3853828456748443,
                -2.299283632689954,
                0.5739691377982963,
                1.160651075422872
            ]
        },
        {
            "positions": [
                2.828501145759842,
                -2.0798532284563556,
                -1.4131880096174827,
                -2.315812271921988,
                0.4689528269802624,
                1.3616647735996554
            ]
        },
        {
            "positions": [
                2.812168789479058,
                -2.0926118493443484,
                -1.4409931735601214,
                -2.332340911154022,
                0.3639365161622285,
                1.5626784717764388
            ]
        },
        {
            "positions": [
                2.795836433198274,
                -2.1053704702323413,
                -1.4687983375027598,
                -2.3488695503860555,
                0.2589202053441945,
                1.7636921699532222
            ]
        },
        {
            "positions": [
                2.7795040769174904,
                -2.118129091120334,
                -1.4966035014453982,
                -2.365398189618089,
                0.1539038945261606,
                1.9647058681300056
            ]
        },
        {
            "positions": [
                2.7597218956372007,
                -2.1294420808226655,
                -1.5228066169540098,
                -2.3773543635581045,
                0.05024928783060989,
                2.158333184098351
            ]
        },
        {
            "positions": [
                2.7399397143569106,
                -2.140755070524997,
                -1.5490097324626215,
                -2.38931053749812,
                -0.05340531886494082,
                2.351960500066697
            ]
        },
        {
            "positions": [
                2.720157533076621,
                -2.1520680602273283,
                -1.575212847971233,
                -2.4012667114381347,
                -0.15705992556049153,
                2.5455878160350425
            ]
        },
        {
            "positions": [
                2.7003753517963314,
                -2.1633810499296597,
                -1.6014159634798446,
                -2.41322288537815,
                -0.26071453225604224,
                2.739215132003388
            ]
        },
        {
            "positions": [
                2.6805931705160413,
                -2.174694039631991,
                -1.6276190789884564,
                -2.4251790593181655,
                -0.36436913895159295,
                2.932842447971734
            ]
        },
        {
            "positions": [
                2.6608109892357517,
                -2.1860070293343226,
                -1.653822194497068,
                -2.437135233258181,
                -0.4680237456471437,
                3.1264697639400794
            ]
        }
    ]
}