{
    "goal": {
        "global_pose": {
            "orientation": {
                "w": 0.005598929693374612,
                "x": 0.007748599140229565,
                "y": 0.7110244013736278,
                "z": -0.7031023480610252
            },
            "position": {
                "x": -0.8858502320852131,
                "y": -0.7141253447532654,
                "z": 0.3711530566215515
            }
        },
        "name": "move_to_auspresseinheit_C"
    },
    "id": "KPIECE_move_to_auspresseinheit_C_130",
    "joint_names": [
        "shoulder_pan_joint",
        "shoulder_lift_joint",
        "elbow_joint",
        "wrist_1_joint",
        "wrist_2_joint",
        "wrist_3_joint"
    ],
    "metrics": {
        "cart_traj_len": 0.49399547833381363,
        "distance_elbow_joint": 1.0121708339177107,
        "distance_shoulder_lift_joint": 0.3308682517639274,
        "distance_shoulder_pan_joint": 0.2563884540470438,
        "distance_wrist_1_joint": 0.7004772763667896,
        "distance_wrist_2_joint": 1.308027084424408,
        "distance_wrist_3_joint": 0.07895648074331296,
        "smoothness": 8.074349294524176e-16,
        "time": 1.435033139,
        "traj_len": 1.9201271784085534,
        "weighted_distance": 2.4193605980797934
    },
    "planner": "KPIECE",
    "start": {
        "state": {
            "elbow_joint": 1.752795957773711,
            "shoulder_lift_joint": -0.9740617694225064,
            "shoulder_pan_joint": -2.967991417825858,
            "wrist_1_joint": -0.7595177689806859,
            "wrist_2_joint": 1.7443932448377395,
            "wrist_3_joint": 3.199131542505932
        }
    },
    "waypoints": [
        {
            "positions": [
                -2.967991417825858,
                -0.9740617694225064,
                1.752795957773711,
                -0.7595177689806859,
                1.7443932448377395,
                3.199131542505932
            ]
        },
        {
            "positions": [
                -2.9423525724211537,
                -0.9409749442461137,
                1.65157887438194,
                -0.6894700413440069,
                1.6135905363952987,
                3.1912358944316006
            ]
        },
        {
            "positions": [
                -2.9167137270164494,
                -0.907888119069721,
                1.550361790990169,
                -0.619422313707328,
                1.482787827952858,
                3.1833402463572695
            ]
        },
        {
            "positions": [
                -2.8910748816117446,
                -0.8748012938933282,
                1.4491447075983979,
                -0.549374586070649,
                1.351985119510417,
                3.1754445982829385
            ]
        },
        {
            "positions": [
                -2.8654360362070403,
                -0.8417144687169354,
                1.3479276242066267,
                -0.47932685843397005,
                1.2211824110679763,
                3.167548950208607
            ]
        },
        {
            "positions": [
                -2.839797190802336,
                -0.8086276435405427,
                1.2467105408148558,
                -0.4092791307972911,
                1.0903797026255355,
                3.1596533021342754
            ]
        },
        {
            "positions": [
                -2.8141583453976318,
                -0.77554081836415,
                1.1454934574230848,
                -0.3392314031606122,
                0.9595769941830947,
                3.1517576540599443
            ]
        },
        {
            "positions": [
                -2.7885194999929275,
                -0.7424539931877573,
                1.0442763740313137,
                -0.26918367552393324,
                0.828774285740654,
                3.1438620059856133
            ]
        },
        {
            "positions": [
                -2.7628806545882227,
                -0.7093671680113645,
                0.9430592906395425,
                -0.1991359478872542,
                0.6979715772982131,
                3.1359663579112818
            ]
        },
        {
            "positions": [
                -2.7372418091835184,
                -0.6762803428349717,
                0.8418422072477715,
                -0.12908822025057531,
                0.5671688688557723,
                3.1280707098369502
            ]
        },
        {
            "positions": [
                -2.711602963778814,
                -0.643193517658579,
                0.7406251238560004,
                -0.05904049261389629,
                0.4363661604133316,
                3.120175061762619
            ]
        }
    ]
}