{
    "goal": {
        "global_pose": {
            "orientation": {
                "w": 0.7031023480610252,
                "x": -0.7110244013736278,
                "y": 0.0077485991402295624,
                "z": 0.005598929693374583
            },
            "position": {
                "x": -0.8841497679147869,
                "y": 0.44412534475326537,
                "z": 0.3711530566215515
            }
        },
        "name": "move_to_auspresseinheit_D"
    },
    "id": "KPIECE_move_to_auspresseinheit_D_71",
    "joint_names": [
        "shoulder_pan_joint",
        "shoulder_lift_joint",
        "elbow_joint",
        "wrist_1_joint",
        "wrist_2_joint",
        "wrist_3_joint"
    ],
    "metrics": {
        "cart_traj_len": 4.386322357610824,
        "distance_elbow_joint": 3.195810029544094,
        "distance_shoulder_lift_joint": 1.831239301687099,
        "distance_shoulder_pan_joint": 2.7974969923440005,
        "distance_wrist_1_joint": 1.3143244970938017,
        "distance_wrist_2_joint": 0.898505495537297,
        "distance_wrist_3_joint": 3.0541981188185243,
        "smoothness": 0.03771709326498807,
        "time": 0.040348283,
        "traj_len": 3.618228079464424,
        "weighted_distance": 4.627396748204432
    },
    "planner": "KPIECE",
    "start": {
        "state": {
            "elbow_joint": 1.8268400409724999,
            "shoulder_lift_joint": -1.0144045787793008,
            "shoulder_pan_joint": 2.6280239544362485,
            "wrist_1_joint": -0.790705565816056,
            "wrist_2_joint": 1.0573557467365533,
            "wrist_3_joint": 3.1851377467193758
        }
    },
    "waypoints": [
        {
            "positions": [
                2.6280239544362485,
                -1.0144045787793008,
                1.8268400409724999,
                -0.790705565816056,
                1.0573557467365533,
                3.1851377467193758
            ]
        },
        {
            "positions": [
                2.543069155284669,
                -1.0949575608316702,
                1.737839052202829,
                -0.7814466659803937,
                1.0387661327180877,
                3.077410530961666
            ]
        },
        {
            "positions": [
                2.4581143561330894,
                -1.1755105428840396,
                1.6488380634331583,
                -0.7721877661447314,
                1.0201765186996221,
                2.969683315203957
            ]
        },
        {
            "positions": [
                2.37315955698151,
                -1.256063524936409,
                1.5598370746634875,
                -0.7629288663090692,
                1.0015869046811567,
                2.8619560994462474
            ]
        },
        {
            "positions": [
                2.2882047578299307,
                -1.3366165069887783,
                1.4708360858938168,
                -0.7536699664734069,
                0.9829972906626911,
                2.754228883688538
            ]
        },
        {
            "positions": [
                2.203249958678351,
                -1.4171694890411477,
                1.3818350971241458,
                -0.7444110666377446,
                0.9644076766442256,
                2.6465016679308286
            ]
        },
        {
            "positions": [
                2.1182951595267716,
                -1.497722471093517,
                1.2928341083544752,
                -0.7351521668020823,
                0.9458180626257601,
                2.538774452173119
            ]
        },
        {
            "positions": [
                2.0333403603751923,
                -1.5782754531458865,
                1.2038331195848042,
                -0.72589326696642,
                0.9272284486072946,
                2.4310472364154094
            ]
        },
        {
            "positions": [
                1.9483855612236125,
                -1.6588284351982558,
                1.1148321308151334,
                -0.7166343671307578,
                0.908638834588829,
                2.3233200206577
            ]
        },
        {
            "positions": [
                1.8634307620720332,
                -1.7393814172506252,
                1.0258311420454627,
                -0.7073754672950955,
                0.8900492205703634,
                2.2155928048999907
            ]
        },
        {
            "positions": [
                1.7784759629204538,
                -1.8199343993029946,
                0.9368301532757919,
                -0.6981165674594332,
                0.8714596065518979,
                2.107865589142281
            ]
        },
        {
            "positions": [
                1.693521163768874,
                -1.9004873813553642,
                0.847829164506121,
                -0.6888576676237709,
                0.8528699925334323,
                2.0001383733845715
            ]
        },
        {
            "positions": [
                1.6085663646172947,
                -1.9810403634077334,
                0.7588281757364503,
                -0.6795987677881086,
                0.8342803785149668,
                1.892411157626862
            ]
        },
        {
            "positions": [
                1.5236115654657152,
                -2.0615933454601025,
                0.6698271869667796,
                -0.6703398679524464,
                0.8156907644965012,
                1.7846839418691527
            ]
        },
        {
            "positions": [
                1.4386567663141359,
                -2.142146327512472,
                0.5808261981971088,
                -0.6610809681167841,
                0.7971011504780358,
                1.6769567261114433
            ]
        },
        {
            "positions": [
                1.3537019671625563,
                -2.2226993095648417,
                0.491825209427438,
                -0.6518220682811218,
                0.7785115364595703,
                1.5692295103537337
            ]
        },
        {
            "positions": [
                1.2687471680109768,
                -2.303252291617211,
                0.402824220657767,
                -0.6425631684454595,
                0.7599219224411047,
                1.461502294596024
            ]
        },
        {
            "positions": [
                1.1837923688593974,
                -2.38380527366958,
                0.31382323188809624,
                -0.6333042686097972,
                0.7413323084226391,
                1.3537750788383147
            ]
        },
        {
            "positions": [
                1.0988375697078179,
                -2.4643582557219497,
                0.22482224311842547,
                -0.624045368774135,
                0.7227426944041736,
                1.2460478630806053
            ]
        },
        {
            "positions": [
                1.0138827705562385,
                -2.5449112377743193,
                0.1358212543487547,
                -0.6147864689384727,
                0.7041530803857081,
                1.138320647322896
            ]
        },
        {
            "positions": [
                0.928927971404659,
                -2.6254642198266884,
                0.04682026557908392,
                -0.6055275691028104,
                0.6855634663672425,
                1.0305934315651866
            ]
        },
        {
            "positions": [
                0.8504707564537726,
                -2.609737101209566,
                -0.054307609717392985,
                -0.5248742476470564,
                0.6479410938552436,
                0.9663324455891628
            ]
        },
        {
            "positions": [
                0.7720135415028861,
                -2.594009982592444,
                -0.1554354850138699,
                -0.4442209261913024,
                0.6103187213432445,
                0.902071459613139
            ]
        },
        {
            "positions": [
                0.6935563265519996,
                -2.5782828639753217,
                -0.2565633603103468,
                -0.3635676047355484,
                0.5726963488312455,
                0.8378104736371151
            ]
        },
        {
            "positions": [
                0.6150991116011132,
                -2.5625557453581993,
                -0.3576912356068237,
                -0.28291428327979434,
                0.5350739763192465,
                0.7735494876610913
            ]
        },
        {
            "positions": [
                0.5366418966502267,
                -2.5468286267410774,
                -0.45881911090330063,
                -0.2022609618240403,
                0.4974516038072475,
                0.7092885016850674
            ]
        },
        {
            "positions": [
                0.4581846816993403,
                -2.531101508123955,
                -0.5599469861997776,
                -0.12160764036828636,
                0.4598292312952485,
                0.6450275157090437
            ]
        },
        {
            "positions": [
                0.3797274667484538,
                -2.5153743895068326,
                -0.6610748614962545,
                -0.04095431891253232,
                0.4222068587832495,
                0.5807665297330198
            ]
        },
        {
            "positions": [
                0.3012702517975674,
                -2.4996472708897106,
                -0.7622027367927313,
                0.03969900254322167,
                0.38458448627125047,
                0.5165055437569961
            ]
        },
        {
            "positions": [
                0.22281303684668086,
                -2.4839201522725882,
                -0.8633306120892084,
                0.12035232399897577,
                0.34696211375925146,
                0.45224455778097217
            ]
        },
        {
            "positions": [
                0.14435582189579443,
                -2.4681930336554663,
                -0.9644584873856852,
                0.20100564545472976,
                0.30933974124725244,
                0.38798357180494836
            ]
        },
        {
            "positions": [
                0.06589860694490801,
                -2.452465915038344,
                -1.0655863626821622,
                0.28165896691048364,
                0.2717173687352535,
                0.32372258582892455
            ]
        },
        {
            "positions": [
                -0.012558608005978411,
                -2.4367387964212215,
                -1.166714237978639,
                0.36231228836623763,
                0.23409499622325447,
                0.25946159985290085
            ]
        },
        {
            "positions": [
                -0.09101582295686494,
                -2.4210116778040995,
                -1.267842113275116,
                0.44296560982199185,
                0.19647262371125546,
                0.19520061387687693
            ]
        },
        {
            "positions": [
                -0.16947303790775142,
                -2.405284559186977,
                -1.368969988571593,
                0.5236189312777458,
                0.1588502511992565,
                0.13093962790085314
            ]
        }
    ]
}