{
    "goal": {
        "global_pose": {
            "orientation": {
                "w": 0.5084816262002911,
                "x": -0.4908360881923452,
                "y": 0.5182115481033761,
                "z": -0.48164630358495003
            },
            "position": {
                "x": 0.5540239810943604,
                "y": -0.46912469901144505,
                "z": 0.16403168439865112
            }
        },
        "name": "move_to_storage_B"
    },
    "id": "KPIECE_move_to_storage_B_47",
    "joint_names": [
        "shoulder_pan_joint",
        "shoulder_lift_joint",
        "elbow_joint",
        "wrist_1_joint",
        "wrist_2_joint",
        "wrist_3_joint"
    ],
    "metrics": {
        "cart_traj_len": 2.0901508413173686,
        "distance_elbow_joint": 2.194650554228696,
        "distance_shoulder_lift_joint": 0.45919966118795186,
        "distance_shoulder_pan_joint": 1.9092747677195736,
        "distance_wrist_1_joint": 3.215430046798774,
        "distance_wrist_2_joint": 2.7078348498436715,
        "distance_wrist_3_joint": 3.525198410536507,
        "smoothness": 0.2961039498659206,
        "time": 0.08344749900000001,
        "traj_len": 3.7432056168897767,
        "weighted_distance": 5.194732910172633
    },
    "planner": "KPIECE",
    "start": {
        "state": {
            "elbow_joint": 1.6649325706314817,
            "shoulder_lift_joint": -0.6616388048112454,
            "shoulder_pan_joint": -0.9139837860083814,
            "wrist_1_joint": 2.146757197745094,
            "wrist_2_joint": -2.234196043158733,
            "wrist_3_joint": 0.005471033829999897
        }
    },
    "waypoints": [
        {
            "positions": [
                -0.9139837860083814,
                -0.6616388048112454,
                1.6649325706314817,
                2.146757197745094,
                -2.234196043158733,
                0.005471033829999897
            ]
        },
        {
            "positions": [
                -0.7906334751313654,
                -0.6829355407200064,
                1.5331394695572906,
                2.1634676536416015,
                -2.175589588870645,
                -0.02251533262358371
            ]
        },
        {
            "positions": [
                -0.6672831642543493,
                -0.7042322766287675,
                1.4013463684830993,
                2.1801781095381094,
                -2.1169831345825574,
                -0.050501699077167325
            ]
        },
        {
            "positions": [
                -0.5439328533773333,
                -0.7255290125375286,
                1.269553267408908,
                2.196888565434617,
                -2.0583766802944696,
                -0.07848806553075093
            ]
        },
        {
            "positions": [
                -0.4205825425003173,
                -0.7468257484462897,
                1.137760166334717,
                2.2135990213311247,
                -1.9997702260063817,
                -0.10647443198433454
            ]
        },
        {
            "positions": [
                -0.29723223162330126,
                -0.7681224843550507,
                1.0059670652605257,
                2.230309477227632,
                -1.9411637717182937,
                -0.13446079843791817
            ]
        },
        {
            "positions": [
                -0.17388192074628528,
                -0.7894192202638117,
                0.8741739641863346,
                2.24701993312414,
                -1.882557317430206,
                -0.16244716489150177
            ]
        },
        {
            "positions": [
                -0.05053160986926922,
                -0.8107159561725729,
                0.7423808631121434,
                2.2637303890206475,
                -1.8239508631421182,
                -0.1904335313450854
            ]
        },
        {
            "positions": [
                -0.08659445785480234,
                -0.8214098358217669,
                0.7862463405848799,
                2.1568870491750194,
                -1.7447236331480818,
                -0.0756302952981398
            ]
        },
        {
            "positions": [
                -0.12265730584033546,
                -0.8321037154709607,
                0.8301118180576164,
                2.050043709329391,
                -1.6654964031540453,
                0.039172940748805785
            ]
        },
        {
            "positions": [
                -0.1587201538258686,
                -0.8427975951201547,
                0.8739772955303529,
                1.9432003694837625,
                -1.586269173160009,
                0.15397617679575137
            ]
        },
        {
            "positions": [
                -0.1947830018114017,
                -0.8534914747693486,
                0.9178427730030894,
                1.8363570296381342,
                -1.5070419431659725,
                0.26877941284269696
            ]
        },
        {
            "positions": [
                -0.23084584979693487,
                -0.8641853544185426,
                0.9617082504758259,
                1.729513689792506,
                -1.4278147131719359,
                0.3835826488896426
            ]
        },
        {
            "positions": [
                -0.26690869778246795,
                -0.8748792340677365,
                1.0055737279485624,
                1.6226703499468775,
                -1.3485874831778997,
                0.49838588493658814
            ]
        },
        {
            "positions": [
                -0.3029715457680011,
                -0.8855731137169305,
                1.0494392054212989,
                1.5158270101012494,
                -1.269360253183863,
                0.6131891209835338
            ]
        },
        {
            "positions": [
                -0.33903439375353417,
                -0.8962669933661244,
                1.0933046828940354,
                1.408983670255621,
                -1.1901330231898266,
                0.7279923570304794
            ]
        },
        {
            "positions": [
                -0.37509724173906733,
                -0.9069608730153184,
                1.1371701603667719,
                1.3021403304099928,
                -1.1109057931957902,
                0.8427955930774249
            ]
        },
        {
            "positions": [
                -0.4111600897246005,
                -0.9176547526645124,
                1.1810356378395084,
                1.1952969905643644,
                -1.0316785632017536,
                0.9575988291243707
            ]
        },
        {
            "positions": [
                -0.44722293771013355,
                -0.9283486323137062,
                1.2249011153122447,
                1.0884536507187361,
                -0.9524513332077174,
                1.072402065171316
            ]
        },
        {
            "positions": [
                -0.4832857856956667,
                -0.9390425119629002,
                1.2687665927849814,
                0.9816103108731078,
                -0.8732241032136809,
                1.1872053012182617
            ]
        },
        {
            "positions": [
                -0.5193486336811999,
                -0.9497363916120941,
                1.3126320702577177,
                0.8747669710274795,
                -0.7939968732196445,
                1.3020085372652073
            ]
        },
        {
            "positions": [
                -0.5554114816667329,
                -0.9604302712612881,
                1.3564975477304544,
                0.7679236311818511,
                -0.7147696432256079,
                1.416811773312153
            ]
        },
        {
            "positions": [
                -0.5914743296522661,
                -0.971124150910482,
                1.4003630252031907,
                0.6610802913362228,
                -0.6355424132315715,
                1.5316150093590986
            ]
        },
        {
            "positions": [
                -0.6275371776377991,
                -0.981818030559676,
                1.4442285026759274,
                0.5542369514905947,
                -0.556315183237535,
                1.646418245406044
            ]
        },
        {
            "positions": [
                -0.6636000256233323,
                -0.9925119102088699,
                1.4880939801486637,
                0.4473936116449664,
                -0.47708795324349884,
                1.7612214814529894
            ]
        },
        {
            "positions": [
                -0.6996628736088655,
                -1.0032057898580637,
                1.5319594576214004,
                0.34055027179933806,
                -0.3978607232494622,
                1.8760247174999352
            ]
        },
        {
            "positions": [
                -0.7357257215943985,
                -1.0138996695072577,
                1.5758249350941367,
                0.23370693195370995,
                -0.3186334932554258,
                1.990827953546881
            ]
        },
        {
            "positions": [
                -0.7717885695799318,
                -1.0245935491564517,
                1.6196904125668734,
                0.1268635921080814,
                -0.23940626326138914,
                2.1056311895938267
            ]
        },
        {
            "positions": [
                -0.8078514175654649,
                -1.0352874288056457,
                1.6635558900396097,
                0.020020252262453297,
                -0.16017903326735294,
                2.220434425640772
            ]
        },
        {
            "positions": [
                -0.8439142655509979,
                -1.0459813084548397,
                1.7074213675123462,
                -0.08682308758317525,
                -0.08095180327331652,
                2.3352376616877173
            ]
        },
        {
            "positions": [
                -0.8799771135365311,
                -1.0566751881040335,
                1.7512868449850827,
                -0.1936664274288038,
                -0.001724573279279884,
                2.4500408977346635
            ]
        },
        {
            "positions": [
                -0.9160399615220642,
                -1.0673690677532275,
                1.7951523224578192,
                -0.3005097672744319,
                0.07750265671475631,
                2.564844133781609
            ]
        },
        {
            "positions": [
                -0.9521028095075973,
                -1.0780629474024215,
                1.8390177999305557,
                -0.40735310712006,
                0.15672988670879273,
                2.679647369828554
            ]
        },
        {
            "positions": [
                -0.9881656574931305,
                -1.0887568270516155,
                1.8828832774032922,
                -0.5141964469656886,
                0.23595711670282915,
                2.7944506058755
            ]
        },
        {
            "positions": [
                -1.0242285054786635,
                -1.0994507067008095,
                1.9267487548760287,
                -0.6210397868113167,
                0.3151843466968658,
                2.9092538419224456
            ]
        },
        {
            "positions": [
                -1.0602913534641967,
                -1.1101445863500032,
                1.9706142323487652,
                -0.7278831266569452,
                0.39441157669090243,
                3.0240570779693914
            ]
        },
        {
            "positions": [
                -1.0963542014497298,
                -1.1208384659991972,
                2.0144797098215017,
                -0.8347264665025732,
                0.4736388066849385,
                3.1388603140163367
            ]
        }
    ]
}