{
    "goal": {
        "global_pose": {
            "orientation": {
                "w": 0.5084816217422485,
                "x": -0.49083608388900757,
                "y": 0.5182115435600281,
                "z": -0.4816462993621826
            },
            "position": {
                "x": 0.5540239810943604,
                "y": 0.030875300988554955,
                "z": 0.16403168439865112
            }
        },
        "name": "move_to_storage_A"
    },
    "id": "KPIECE_move_to_storage_A_96",
    "joint_names": [
        "shoulder_pan_joint",
        "shoulder_lift_joint",
        "elbow_joint",
        "wrist_1_joint",
        "wrist_2_joint",
        "wrist_3_joint"
    ],
    "metrics": {
        "cart_traj_len": 0.35290336058325833,
        "distance_elbow_joint": 0.4487054048414105,
        "distance_shoulder_lift_joint": 0.23335928956106478,
        "distance_shoulder_pan_joint": 0.45837899041565405,
        "distance_wrist_1_joint": 0.24203215738844375,
        "distance_wrist_2_joint": 1.110911018952451,
        "distance_wrist_3_joint": 0.10571284742377829,
        "smoothness": 1.2212453303493557e-15,
        "time": 0.06819420500000001,
        "traj_len": 1.612172356971426,
        "weighted_distance": 2.04045793384016
    },
    "planner": "KPIECE",
    "start": {
        "state": {
            "elbow_joint": 1.9715474177455299,
            "shoulder_lift_joint": -1.139484666580328,
            "shoulder_pan_joint": 0.12281154398918248,
            "wrist_1_joint": -0.7804687475355282,
            "wrist_2_joint": 0.12958649657246987,
            "wrist_3_joint": -3.1924925159053466
        }
    },
    "waypoints": [
        {
            "positions": [
                0.12281154398918248,
                -1.139484666580328,
                1.9715474177455299,
                -0.7804687475355282,
                0.12958649657246987,
                -3.1924925159053466
            ]
        },
        {
            "positions": [
                0.05732883107266047,
                -1.1728217079461944,
                2.0356481898657313,
                -0.8150447700195916,
                0.28828807070853435,
                -3.1773906805590926
            ]
        },
        {
            "positions": [
                -0.008153881843861538,
                -1.2061587493120607,
                2.099748961985933,
                -0.849620792503655,
                0.4469896448445988,
                -3.1622888452128386
            ]
        },
        {
            "positions": [
                -0.07363659476038353,
                -1.2394957906779271,
                2.1638497341061345,
                -0.8841968149877184,
                0.6056912189806632,
                -3.1471870098665846
            ]
        },
        {
            "positions": [
                -0.13911930767690556,
                -1.2728328320437936,
                2.227950506226336,
                -0.9187728374717817,
                0.7643927931167277,
                -3.13208517452033
            ]
        },
        {
            "positions": [
                -0.20460202059342758,
                -1.30616987340966,
                2.2920512783465377,
                -0.9533488599558452,
                0.9230943672527921,
                -3.116983339174076
            ]
        },
        {
            "positions": [
                -0.27008473350994955,
                -1.3395069147755263,
                2.356152050466739,
                -0.9879248824399085,
                1.0817959413888565,
                -3.1018815038278222
            ]
        },
        {
            "positions": [
                -0.33556744642647157,
                -1.3728439561413928,
                2.4202528225869404,
                -1.022500904923972,
                1.240497515524921,
                -3.0867796684815683
            ]
        }
    ]
}