{
    "goal": {
        "global_pose": {
            "orientation": {
                "w": 0.005598929693374612,
                "x": 0.007748599140229565,
                "y": 0.7110244013736278,
                "z": -0.7031023480610252
            },
            "position": {
                "x": 0.1141497679147869,
                "y": -0.7141253447532654,
                "z": 0.3711530566215515
            }
        },
        "name": "move_to_auspresseinheit_B"
    },
    "id": "KPIECE_move_to_auspresseinheit_B_52",
    "joint_names": [
        "shoulder_pan_joint",
        "shoulder_lift_joint",
        "elbow_joint",
        "wrist_1_joint",
        "wrist_2_joint",
        "wrist_3_joint"
    ],
    "metrics": {
        "cart_traj_len": 0.5651108482491335,
        "distance_elbow_joint": 0.060008074874110306,
        "distance_shoulder_lift_joint": 0.29490251457050887,
        "distance_shoulder_pan_joint": 0.5792917778235163,
        "distance_wrist_1_joint": 0.3169897056887683,
        "distance_wrist_2_joint": 0.9854601401843297,
        "distance_wrist_3_joint": 0.004967307999594439,
        "smoothness": 0.0,
        "time": 0.15080826,
        "traj_len": 1.4972039009903855,
        "weighted_distance": 1.8852066154703349
    },
    "planner": "KPIECE",
    "start": {
        "state": {
            "elbow_joint": 2.019306165916698,
            "shoulder_lift_joint": -1.1220205098164344,
            "shoulder_pan_joint": -1.095207207618794,
            "wrist_1_joint": -0.8559671824921639,
            "wrist_2_joint": 0.47596387242952726,
            "wrist_3_joint": 3.159081874673826
        }
    },
    "waypoints": [
        {
            "positions": [
                -1.095207207618794,
                -1.1220205098164344,
                2.019306165916698,
                -0.8559671824921639,
                0.47596387242952726,
                3.159081874673826
            ]
        },
        {
            "positions": [
                -1.1917558372560466,
                -1.1711709289115193,
                2.0093048201043464,
                -0.8031355648773691,
                0.6402072291269155,
                3.1582539900072266
            ]
        },
        {
            "positions": [
                -1.2883044668932995,
                -1.220321348006604,
                1.9993034742919946,
                -0.7503039472625744,
                0.8044505858243038,
                3.157426105340628
            ]
        },
        {
            "positions": [
                -1.384853096530552,
                -1.2694717671016889,
                1.9893021284796428,
                -0.6974723296477797,
                0.968693942521692,
                3.1565982206740286
            ]
        },
        {
            "positions": [
                -1.4814017261678047,
                -1.3186221861967737,
                1.979300782667291,
                -0.644640712032985,
                1.1329372992190803,
                3.1557703360074294
            ]
        },
        {
            "positions": [
                -1.5779503558050576,
                -1.3677726052918584,
                1.9692994368549395,
                -0.5918090944181903,
                1.2971806559164687,
                3.1549424513408306
            ]
        },
        {
            "positions": [
                -1.6744989854423102,
                -1.4169230243869433,
                1.9592980910425877,
                -0.5389774768033956,
                1.461424012613857,
                3.1541145666742314
            ]
        }
    ]
}