{
    "goal": {
        "global_pose": {
            "orientation": {
                "w": -0.4816463035849501,
                "x": 0.5182115481033762,
                "y": 0.4908360881923453,
                "z": -0.5084816262002911
            },
            "position": {
                "x": -0.8240239810943604,
                "y": -0.300875300988555,
                "z": 0.16403168439865112
            }
        },
        "name": "move_to_storage_C"
    },
    "id": "KPIECE_move_to_storage_C_12",
    "joint_names": [
        "shoulder_pan_joint",
        "shoulder_lift_joint",
        "elbow_joint",
        "wrist_1_joint",
        "wrist_2_joint",
        "wrist_3_joint"
    ],
    "metrics": {
        "cart_traj_len": 0.5772686870096275,
        "distance_elbow_joint": 0.2602706032798976,
        "distance_shoulder_lift_joint": 0.1890988113314247,
        "distance_shoulder_pan_joint": 0.4953633203926553,
        "distance_wrist_1_joint": 0.08438255551532226,
        "distance_wrist_2_joint": 1.0658658316840253,
        "distance_wrist_3_joint": 0.0613400143329903,
        "smoothness": 2.5376526478085547e-16,
        "time": 0.097621435,
        "traj_len": 1.4684417375355128,
        "weighted_distance": 1.8518233048543384
    },
    "planner": "KPIECE",
    "start": {
        "state": {
            "elbow_joint": 2.010868315001653,
            "shoulder_lift_joint": -1.1634956873357014,
            "shoulder_pan_joint": -2.4736205022346103,
            "wrist_1_joint": -0.8367026794713948,
            "wrist_2_joint": 0.6746043897044093,
            "wrist_3_joint": 3.1335220948105738
        }
    },
    "waypoints": [
        {
            "positions": [
                -2.4736205022346103,
                -1.1634956873357014,
                2.010868315001653,
                -0.8367026794713948,
                0.6746043897044093,
                3.1335220948105738
            ]
        },
        {
            "positions": [
                -2.5561810556333864,
                -1.131979218780464,
                1.9674898811216701,
                -0.8226389202188411,
                0.8522486949850802,
                3.143745430532739
            ]
        },
        {
            "positions": [
                -2.638741609032162,
                -1.1004627502252264,
                1.9241114472416871,
                -0.8085751609662873,
                1.029893000265751,
                3.153968766254904
            ]
        },
        {
            "positions": [
                -2.7213021624309377,
                -1.068946281669989,
                1.8807330133617044,
                -0.7945114017137336,
                1.2075373055464218,
                3.164192101977069
            ]
        },
        {
            "positions": [
                -2.803862715829714,
                -1.0374298131147517,
                1.8373545794817214,
                -0.7804476424611799,
                1.3851816108270927,
                3.174415437699234
            ]
        },
        {
            "positions": [
                -2.88642326922849,
                -1.005913344559514,
                1.7939761456017385,
                -0.7663838832086263,
                1.5628259161077636,
                3.184638773421399
            ]
        },
        {
            "positions": [
                -2.9689838226272656,
                -0.9743968760042767,
                1.7505977117217555,
                -0.7523201239560725,
                1.7404702213884347,
                3.194862109143564
            ]
        }
    ]
}