{
    "goal": {
        "global_pose": {
            "orientation": {
                "w": -0.4816463035849501,
                "x": 0.5182115481033762,
                "y": 0.4908360881923453,
                "z": -0.5084816262002911
            },
            "position": {
                "x": -0.8240239810943604,
                "y": -0.300875300988555,
                "z": 0.16403168439865112
            }
        },
        "name": "move_to_storage_C"
    },
    "id": "KPIECE_move_to_storage_C_38",
    "joint_names": [
        "shoulder_pan_joint",
        "shoulder_lift_joint",
        "elbow_joint",
        "wrist_1_joint",
        "wrist_2_joint",
        "wrist_3_joint"
    ],
    "metrics": {
        "cart_traj_len": 0.5772581093825937,
        "distance_elbow_joint": 0.25644796086306143,
        "distance_shoulder_lift_joint": 0.18974397991168246,
        "distance_shoulder_pan_joint": 0.49618478193588267,
        "distance_wrist_1_joint": 0.07126473254727506,
        "distance_wrist_2_joint": 1.0612404792021368,
        "distance_wrist_3_joint": 0.0679422242715062,
        "smoothness": 2.5376526478085547e-16,
        "time": 0.011720581999999998,
        "traj_len": 1.4638388431557432,
        "weighted_distance": 1.8469471619469704
    },
    "planner": "KPIECE",
    "start": {
        "state": {
            "elbow_joint": 2.010868315001653,
            "shoulder_lift_joint": -1.1634956873357014,
            "shoulder_pan_joint": -2.4736205022346103,
            "wrist_1_joint": -0.8367026794713948,
            "wrist_2_joint": 0.6746043897044093,
            "wrist_3_joint": 3.1335220948105738
        }
    },
    "waypoints": [
        {
            "positions": [
                -2.4736205022346103,
                -1.1634956873357014,
                2.010868315001653,
                -0.8367026794713948,
                0.6746043897044093,
                3.1335220948105738
            ]
        },
        {
            "positions": [
                -2.5563179658905906,
                -1.1318716906837543,
                1.968126988191143,
                -0.8248252240468489,
                0.8514778029047654,
                3.1448457988558247
            ]
        },
        {
            "positions": [
                -2.6390154295465713,
                -1.1002476940318073,
                1.9253856613806326,
                -0.8129477686223031,
                1.0283512161051216,
                3.1561695029010757
            ]
        },
        {
            "positions": [
                -2.7217128932025516,
                -1.0686236973798602,
                1.8826443345701223,
                -0.8010703131977572,
                1.2052246293054778,
                3.167493206946327
            ]
        },
        {
            "positions": [
                -2.804410356858532,
                -1.036999700727913,
                1.8399030077596121,
                -0.7891928577732114,
                1.3820980425058338,
                3.178816910991578
            ]
        },
        {
            "positions": [
                -2.8871078205145126,
                -1.005375704075966,
                1.797161680949102,
                -0.7773154023486656,
                1.55897145570619,
                3.190140615036829
            ]
        },
        {
            "positions": [
                -2.969805284170493,
                -0.973751707424019,
                1.7544203541385917,
                -0.7654379469241197,
                1.7358448689065462,
                3.20146431908208
            ]
        }
    ]
}