{
    "goal": {
        "global_pose": {
            "orientation": {
                "w": 0.5084816217422485,
                "x": -0.49083608388900757,
                "y": 0.5182115435600281,
                "z": -0.4816462993621826
            },
            "position": {
                "x": 0.5540239810943604,
                "y": 0.030875300988554955,
                "z": 0.16403168439865112
            }
        },
        "name": "move_to_storage_A"
    },
    "id": "KPIECE_move_to_storage_A_51",
    "joint_names": [
        "shoulder_pan_joint",
        "shoulder_lift_joint",
        "elbow_joint",
        "wrist_1_joint",
        "wrist_2_joint",
        "wrist_3_joint"
    ],
    "metrics": {
        "cart_traj_len": 0.3526050322176054,
        "distance_elbow_joint": 0.4493102291300355,
        "distance_shoulder_lift_joint": 0.2334667045939287,
        "distance_shoulder_pan_joint": 0.4616849165331675,
        "distance_wrist_1_joint": 0.24705702742460367,
        "distance_wrist_2_joint": 1.0942203719278734,
        "distance_wrist_3_joint": 0.10744897907642148,
        "smoothness": 4.440892098500626e-16,
        "time": 0.111694011,
        "traj_len": 1.6103379237557658,
        "weighted_distance": 2.0369986711314643
    },
    "planner": "KPIECE",
    "start": {
        "state": {
            "elbow_joint": 1.9715474177455299,
            "shoulder_lift_joint": -1.139484666580328,
            "shoulder_pan_joint": 0.12281154398918248,
            "wrist_1_joint": -0.7804687475355282,
            "wrist_2_joint": 0.12958649657246987,
            "wrist_3_joint": -3.1924925159053466
        }
    },
    "waypoints": [
        {
            "positions": [
                0.12281154398918248,
                -1.139484666580328,
                1.9715474177455299,
                -0.7804687475355282,
                0.12958649657246987,
                -3.1924925159053466
            ]
        },
        {
            "positions": [
                0.056856555913015694,
                -1.1728370529508891,
                2.035734593335535,
                -0.8157626085961859,
                0.2859036925621661,
                -3.177142661751572
            ]
        },
        {
            "positions": [
                -0.009098432163151093,
                -1.2061894393214505,
                2.09992176892554,
                -0.8510564696568436,
                0.44222088855186226,
                -3.1617928075977977
            ]
        },
        {
            "positions": [
                -0.07505342023931788,
                -1.2395418256920117,
                2.164108944515545,
                -0.8863503307175011,
                0.5985380845415585,
                -3.1464429534440232
            ]
        },
        {
            "positions": [
                -0.14100840831548467,
                -1.272894212062573,
                2.2282961201055502,
                -0.9216441917781588,
                0.7548552805312547,
                -3.1310930992902484
            ]
        },
        {
            "positions": [
                -0.20696339639165146,
                -1.3062465984331342,
                2.2924832956955554,
                -0.9569380528388165,
                0.911172476520951,
                -3.115743245136474
            ]
        },
        {
            "positions": [
                -0.27291838446781824,
                -1.3395989848036955,
                2.35667047128556,
                -0.9922319138994742,
                1.067489672510647,
                -3.1003933909826995
            ]
        },
        {
            "positions": [
                -0.33887337254398503,
                -1.3729513711742567,
                2.4208576468755654,
                -1.0275257749601319,
                1.2238068685003434,
                -3.085043536828925
            ]
        }
    ]
}