{
    "goal": {
        "global_pose": {
            "orientation": {
                "w": 0.5084816262002911,
                "x": -0.4908360881923452,
                "y": 0.5182115481033761,
                "z": -0.48164630358495003
            },
            "position": {
                "x": 0.5540239810943604,
                "y": -0.46912469901144505,
                "z": 0.16403168439865112
            }
        },
        "name": "move_to_storage_B"
    },
    "id": "KPIECE_move_to_storage_B_82",
    "joint_names": [
        "shoulder_pan_joint",
        "shoulder_lift_joint",
        "elbow_joint",
        "wrist_1_joint",
        "wrist_2_joint",
        "wrist_3_joint"
    ],
    "metrics": {
        "cart_traj_len": 1.3712314015204299,
        "distance_elbow_joint": 1.6247262830397686,
        "distance_shoulder_lift_joint": 0.4587363166199112,
        "distance_shoulder_pan_joint": 1.2304488436817416,
        "distance_wrist_1_joint": 2.9877328418731635,
        "distance_wrist_2_joint": 2.70297803207117,
        "distance_wrist_3_joint": 3.226220079212702,
        "smoothness": 0.2016572247491886,
        "time": 0.081739865,
        "traj_len": 3.4972621286512764,
        "weighted_distance": 4.937002474059355
    },
    "planner": "KPIECE",
    "start": {
        "state": {
            "elbow_joint": 1.6649325706314817,
            "shoulder_lift_joint": -0.6616388048112454,
            "shoulder_pan_joint": -0.9139837860083814,
            "wrist_1_joint": 2.146757197745094,
            "wrist_2_joint": -2.234196043158733,
            "wrist_3_joint": 0.005471033829999897
        }
    },
    "waypoints": [
        {
            "positions": [
                -0.9139837860083814,
                -0.6616388048112454,
                1.6649325706314817,
                2.146757197745094,
                -2.234196043158733,
                0.005471033829999897
            ]
        },
        {
            "positions": [
                -0.8091576830411515,
                -0.6723157091184265,
                1.5374535579427948,
                2.140178138668132,
                -2.170228935333449,
                -0.002818164964472715
            ]
        },
        {
            "positions": [
                -0.7043315800739218,
                -0.6829926134256077,
                1.409974545254108,
                2.133599079591169,
                -2.106261827508165,
                -0.011107363758945327
            ]
        },
        {
            "positions": [
                -0.5995054771066921,
                -0.6936695177327887,
                1.282495532565421,
                2.1270200205142067,
                -2.0422947196828813,
                -0.019396562553417936
            ]
        },
        {
            "positions": [
                -0.4946793741394623,
                -0.7043464220399699,
                1.1550165198767341,
                2.120440961437244,
                -1.9783276118575974,
                -0.027685761347890553
            ]
        },
        {
            "positions": [
                -0.3898532711722325,
                -0.715023326347151,
                1.0275375071880473,
                2.1138619023602816,
                -1.9143605040323135,
                -0.03597496014236316
            ]
        },
        {
            "positions": [
                -0.4160132092776248,
                -0.7300363557947068,
                1.0641053301360597,
                2.004423474712565,
                -1.826095967256582,
                0.08197963560727903
            ]
        },
        {
            "positions": [
                -0.44217314738301716,
                -0.7450493852422626,
                1.100673153084072,
                1.8949850470648482,
                -1.7378314304808504,
                0.19993423135692123
            ]
        },
        {
            "positions": [
                -0.46833308548840946,
                -0.7600624146898183,
                1.1372409760320843,
                1.7855466194171314,
                -1.6495668937051189,
                0.3178888271065634
            ]
        },
        {
            "positions": [
                -0.4944930235938018,
                -0.7750754441373741,
                1.1738087989800967,
                1.6761081917694147,
                -1.5613023569293873,
                0.4358434228562056
            ]
        },
        {
            "positions": [
                -0.5206529616991942,
                -0.7900884735849298,
                1.2103766219281091,
                1.566669764121698,
                -1.4730378201536558,
                0.5537980186058478
            ]
        },
        {
            "positions": [
                -0.5468128998045865,
                -0.8051015030324856,
                1.2469444448761215,
                1.4572313364739813,
                -1.3847732833779243,
                0.67175261435549
            ]
        },
        {
            "positions": [
                -0.5729728379099788,
                -0.8201145324800414,
                1.283512267824134,
                1.3477929088262646,
                -1.2965087466021927,
                0.7897072101051322
            ]
        },
        {
            "positions": [
                -0.5991327760153711,
                -0.8351275619275971,
                1.3200800907721462,
                1.238354481178548,
                -1.2082442098264614,
                0.9076618058547744
            ]
        },
        {
            "positions": [
                -0.6252927141207634,
                -0.8501405913751529,
                1.3566479137201586,
                1.1289160535308314,
                -1.1199796730507299,
                1.0256164016044165
            ]
        },
        {
            "positions": [
                -0.6514526522261557,
                -0.8651536208227086,
                1.393215736668171,
                1.0194776258831146,
                -1.0317151362749983,
                1.1435709973540586
            ]
        },
        {
            "positions": [
                -0.6776125903315481,
                -0.8801666502702644,
                1.4297835596161834,
                0.9100391982353979,
                -0.9434505994992668,
                1.2615255931037008
            ]
        },
        {
            "positions": [
                -0.7037725284369404,
                -0.8951796797178202,
                1.4663513825641958,
                0.8006007705876812,
                -0.8551860627235353,
                1.3794801888533432
            ]
        },
        {
            "positions": [
                -0.7299324665423327,
                -0.9101927091653759,
                1.502919205512208,
                0.6911623429399645,
                -0.7669215259478037,
                1.4974347846029854
            ]
        },
        {
            "positions": [
                -0.7560924046477251,
                -0.9252057386129316,
                1.5394870284602207,
                0.5817239152922478,
                -0.6786569891720722,
                1.6153893803526276
            ]
        },
        {
            "positions": [
                -0.7822523427531174,
                -0.9402187680604874,
                1.5760548514082329,
                0.47228548764453104,
                -0.5903924523963406,
                1.7333439761022698
            ]
        },
        {
            "positions": [
                -0.8084122808585097,
                -0.9552317975080432,
                1.6126226743562453,
                0.36284705999681455,
                -0.5021279156206093,
                1.851298571851912
            ]
        },
        {
            "positions": [
                -0.834572218963902,
                -0.970244826955599,
                1.6491904973042577,
                0.2534086323490976,
                -0.41386337884487756,
                1.9692531676015543
            ]
        },
        {
            "positions": [
                -0.8607321570692943,
                -0.9852578564031547,
                1.68575832025227,
                0.1439702047013811,
                -0.32559884206914624,
                2.087207763351196
            ]
        },
        {
            "positions": [
                -0.8868920951746867,
                -1.0002708858507106,
                1.7223261432002825,
                0.03453177705366439,
                -0.23733430529341448,
                2.2051623591008385
            ]
        },
        {
            "positions": [
                -0.9130520332800789,
                -1.0152839152982662,
                1.7588939661482947,
                -0.07490665059405233,
                -0.14906976851768317,
                2.32311695485048
            ]
        },
        {
            "positions": [
                -0.9392119713854714,
                -1.030296944745822,
                1.7954617890963072,
                -0.18434507824176904,
                -0.060805231741951404,
                2.441071550600123
            ]
        },
        {
            "positions": [
                -0.9653719094908637,
                -1.0453099741933778,
                1.8320296120443196,
                -0.29378350588948576,
                0.027459305033779913,
                2.5590261463497646
            ]
        },
        {
            "positions": [
                -0.991531847596256,
                -1.0603230036409337,
                1.868597434992332,
                -0.4032219335372025,
                0.11572384180951145,
                2.676980742099407
            ]
        },
        {
            "positions": [
                -1.0176917857016483,
                -1.0753360330884894,
                1.9051652579403444,
                -0.5126603611849192,
                0.203988378585243,
                2.7949353378490494
            ]
        },
        {
            "positions": [
                -1.0438517238070406,
                -1.090349062536045,
                1.9417330808883566,
                -0.6220987888326359,
                0.29225291536097453,
                2.9128899335986915
            ]
        },
        {
            "positions": [
                -1.070011661912433,
                -1.1053620919836007,
                1.978300903836369,
                -0.7315372164803526,
                0.38051745213670607,
                3.0308445293483337
            ]
        },
        {
            "positions": [
                -1.0961716000178252,
                -1.1203751214311566,
                2.0148687267843814,
                -0.8409756441280694,
                0.46878198891243766,
                3.148799125097976
            ]
        }
    ]
}