{
    "goal": {
        "global_pose": {
            "orientation": {
                "w": 0.5084816217422485,
                "x": -0.49083608388900757,
                "y": 0.5182115435600281,
                "z": -0.4816462993621826
            },
            "position": {
                "x": 0.5540239810943604,
                "y": 0.030875300988554955,
                "z": 0.16403168439865112
            }
        },
        "name": "move_to_storage_A"
    },
    "id": "KPIECE_move_to_storage_A_20",
    "joint_names": [
        "shoulder_pan_joint",
        "shoulder_lift_joint",
        "elbow_joint",
        "wrist_1_joint",
        "wrist_2_joint",
        "wrist_3_joint"
    ],
    "metrics": {
        "cart_traj_len": 0.35235252511561654,
        "distance_elbow_joint": 0.45247688322294666,
        "distance_shoulder_lift_joint": 0.23215748118831048,
        "distance_shoulder_pan_joint": 0.45987581078468204,
        "distance_wrist_1_joint": 0.2626823019154959,
        "distance_wrist_2_joint": 1.0997985428076658,
        "distance_wrist_3_joint": 0.11116536767808416,
        "smoothness": 6.661338200497456e-16,
        "time": 0.062386153,
        "traj_len": 1.6180718116317288,
        "weighted_distance": 2.050114135280403
    },
    "planner": "KPIECE",
    "start": {
        "state": {
            "elbow_joint": 1.9715474177455299,
            "shoulder_lift_joint": -1.139484666580328,
            "shoulder_pan_joint": 0.12281154398918248,
            "wrist_1_joint": -0.7804687475355282,
            "wrist_2_joint": 0.12958649657246987,
            "wrist_3_joint": -3.1924925159053466
        }
    },
    "waypoints": [
        {
            "positions": [
                0.12281154398918248,
                -1.139484666580328,
                1.9715474177455299,
                -0.7804687475355282,
                0.12958649657246987,
                -3.1924925159053466
            ]
        },
        {
            "positions": [
                0.05711499959137077,
                -1.1726500210358008,
                2.0361869724916652,
                -0.8179947906663133,
                0.28670057411642214,
                -3.176611749094192
            ]
        },
        {
            "positions": [
                -0.008581544806440938,
                -1.205815375491274,
                2.1008265272378,
                -0.8555208337970984,
                0.44381465166037437,
                -3.1607309822830367
            ]
        },
        {
            "positions": [
                -0.07427808920425266,
                -1.2389807299467468,
                2.1654660819839355,
                -0.8930468769278835,
                0.6009287292043267,
                -3.144850215471882
            ]
        },
        {
            "positions": [
                -0.13997463360206436,
                -1.2721460844022197,
                2.230105636730071,
                -0.9305729200586688,
                0.758042806748279,
                -3.128969448660727
            ]
        },
        {
            "positions": [
                -0.2056711779998761,
                -1.3053114388576925,
                2.2947451914762063,
                -0.9680989631894539,
                0.9151568842922313,
                -3.113088681849572
            ]
        },
        {
            "positions": [
                -0.2713677223976878,
                -1.3384767933131656,
                2.359384746222341,
                -1.005625006320239,
                1.0722709618361834,
                -3.097207915038417
            ]
        },
        {
            "positions": [
                -0.33706426679549956,
                -1.3716421477686385,
                2.4240243009684765,
                -1.043151049451024,
                1.2293850393801358,
                -3.0813271482272624
            ]
        }
    ]
}