{
    "goal": {
        "global_pose": {
            "orientation": {
                "w": -0.00223480608172531,
                "x": 0.0024358444001904467,
                "y": 0.7094548369677653,
                "z": -0.704743149386269
            },
            "position": {
                "x": -0.37947507619857795,
                "y": -0.6371506643295288,
                "z": 0.19426114857196808
            }
        },
        "name": "move_to_magneteinheit_C"
    },
    "id": "KPIECE_move_to_magneteinheit_C_124",
    "joint_names": [
        "shoulder_pan_joint",
        "shoulder_lift_joint",
        "elbow_joint",
        "wrist_1_joint",
        "wrist_2_joint",
        "wrist_3_joint"
    ],
    "metrics": {
        "cart_traj_len": 1.671897819070945,
        "distance_elbow_joint": 1.7097216188703337,
        "distance_shoulder_lift_joint": 1.082012128057386,
        "distance_shoulder_pan_joint": 1.0772985485335091,
        "distance_wrist_1_joint": 2.244004489923075,
        "distance_wrist_2_joint": 1.151526394532334,
        "distance_wrist_3_joint": 4.1848118990017955,
        "smoothness": 0.9758577128531225,
        "time": 0.11643268200000001,
        "traj_len": 3.3836925213320486,
        "weighted_distance": 4.818145884194191
    },
    "planner": "KPIECE",
    "start": {
        "state": {
            "elbow_joint": 1.9565354006590394,
            "shoulder_lift_joint": -1.4165861576513559,
            "shoulder_pan_joint": -1.6717766223277177,
            "wrist_1_joint": -0.5286633288215096,
            "wrist_2_joint": 1.4727565892594296,
            "wrist_3_joint": 3.1593482883155493
        }
    },
    "waypoints": [
        {
            "positions": [
                -1.6717766223277177,
                -1.4165861576513559,
                1.9565354006590394,
                -0.5286633288215096,
                1.4727565892594296,
                3.1593482883155493
            ]
        },
        {
            "positions": [
                -1.6061741253760724,
                -1.4395683299107924,
                1.974205329351924,
                -0.4793097768507688,
                1.4515374289723466,
                3.024686182869626
            ]
        },
        {
            "positions": [
                -1.540571628424427,
                -1.462550502170229,
                1.9918752580448087,
                -0.42995622488002805,
                1.4303182686852638,
                2.8900240774237025
            ]
        },
        {
            "positions": [
                -1.5580254775770508,
                -1.4692845258819065,
                1.9230195636205312,
                -0.35725247205743693,
                1.3658688761266846,
                2.7368215491105015
            ]
        },
        {
            "positions": [
                -1.5754793267296745,
                -1.4760185495935843,
                1.8541638691962534,
                -0.28454871923484587,
                1.3014194835681052,
                2.583619020797301
            ]
        },
        {
            "positions": [
                -1.5929331758822982,
                -1.4827525733052618,
                1.785308174771976,
                -0.21184496641225478,
                1.236970091009526,
                2.4304164924841
            ]
        },
        {
            "positions": [
                -1.610387025034922,
                -1.4894865970169393,
                1.7164524803476984,
                -0.1391412135896637,
                1.1725206984509469,
                2.2772139641708993
            ]
        },
        {
            "positions": [
                -1.6278408741875456,
                -1.496220620728617,
                1.6475967859234206,
                -0.06643746076707258,
                1.1080713058923675,
                2.1240114358576982
            ]
        },
        {
            "positions": [
                -1.6452947233401694,
                -1.5029546444402946,
                1.5787410914991429,
                0.006266292055518485,
                1.043621913333788,
                1.9708089075444974
            ]
        },
        {
            "positions": [
                -1.6627485724927928,
                -1.5096886681519721,
                1.5098853970748654,
                0.07897004487810966,
                0.9791725207752089,
                1.8176063792312966
            ]
        },
        {
            "positions": [
                -1.6802024216454166,
                -1.5164226918636499,
                1.4410297026505878,
                0.15167379770070066,
                0.9147231282166297,
                1.6644038509180958
            ]
        },
        {
            "positions": [
                -1.6976562707980403,
                -1.5231567155753274,
                1.37217400822631,
                0.22437755052329178,
                0.8502737356580503,
                1.511201322604895
            ]
        },
        {
            "positions": [
                -1.715110119950664,
                -1.529890739287005,
                1.3033183138020323,
                0.2970813033458829,
                0.785824343099471,
                1.357998794291694
            ]
        },
        {
            "positions": [
                -1.7325639691032877,
                -1.5366247629986827,
                1.234462619377755,
                0.3697850561684739,
                0.7213749505408918,
                1.2047962659784932
            ]
        },
        {
            "positions": [
                -1.7500178182559114,
                -1.5433587867103602,
                1.1656069249534773,
                0.442488808991065,
                0.6569255579823126,
                1.0515937376652924
            ]
        },
        {
            "positions": [
                -1.8316083436177577,
                -1.579274662877629,
                1.2247289597258988,
                0.40566267807843864,
                0.6789915458866944,
                1.165227596261556
            ]
        },
        {
            "positions": [
                -1.9131988689796038,
                -1.6151905390448977,
                1.2838509944983203,
                0.3688365471658123,
                0.7010575337910763,
                1.2788614548578194
            ]
        },
        {
            "positions": [
                -1.99478939434145,
                -1.6511064152121666,
                1.3429730292707418,
                0.33201041625318595,
                0.7231235216954581,
                1.3924953134540827
            ]
        },
        {
            "positions": [
                -2.0763799197032964,
                -1.6870222913794355,
                1.4020950640431633,
                0.2951842853405596,
                0.74518950959984,
                1.5061291720503462
            ]
        },
        {
            "positions": [
                -2.1579704450651427,
                -1.7229381675467044,
                1.461217098815585,
                0.25835815442793325,
                0.7672554975042218,
                1.6197630306466098
            ]
        },
        {
            "positions": [
                -2.2395609704269885,
                -1.7588540437139732,
                1.5203391335880065,
                0.22153202351530688,
                0.7893214854086037,
                1.733396889242873
            ]
        },
        {
            "positions": [
                -2.321151495788835,
                -1.794769919881242,
                1.579461168360428,
                0.18470589260268055,
                0.8113874733129856,
                1.8470307478391366
            ]
        },
        {
            "positions": [
                -2.402742021150681,
                -1.8306857960485108,
                1.6385832031328496,
                0.14787976169005418,
                0.8334534612173674,
                1.9606646064354
            ]
        },
        {
            "positions": [
                -2.4286202479583787,
                -1.7244787633584813,
                1.7629432661927829,
                0.05399416895300012,
                0.8154129817723972,
                1.9752031005334894
            ]
        },
        {
            "positions": [
                -2.4544984747660767,
                -1.618271730668452,
                1.8873033292527162,
                -0.03989142378405394,
                0.797372502327427,
                1.9897415946315784
            ]
        },
        {
            "positions": [
                -2.4803767015737743,
                -1.5120646979784225,
                2.0116633923126495,
                -0.13377701652110802,
                0.7793320228824567,
                2.0042800887296677
            ]
        },
        {
            "positions": [
                -2.4793286213269625,
                -1.453849466046732,
                2.0113205654736395,
                -0.24987477095416272,
                0.7618243526015815,
                2.1916752549441947
            ]
        },
        {
            "positions": [
                -2.4782805410801507,
                -1.3956342341150416,
                2.010977738634629,
                -0.3659725253872174,
                0.7443166823207064,
                2.3790704211587217
            ]
        },
        {
            "positions": [
                -2.4772324608333385,
                -1.337419002183351,
                2.010634911795619,
                -0.4820702798202721,
                0.7268090120398312,
                2.5664655873732487
            ]
        },
        {
            "positions": [
                -2.4761843805865267,
                -1.2792037702516605,
                2.010292084956609,
                -0.5981680342533269,
                0.7093013417589559,
                2.7538607535877757
            ]
        },
        {
            "positions": [
                -2.475136300339715,
                -1.2209885383199701,
                2.0099492581175986,
                -0.7142657886863815,
                0.6917936714780807,
                2.941255919802303
            ]
        },
        {
            "positions": [
                -2.474088220092903,
                -1.1627733063882797,
                2.0096064312785886,
                -0.8303635431194362,
                0.6742860011972055,
                3.12865108601683
            ]
        }
    ]
}