{
    "goal": {
        "global_pose": {
            "orientation": {
                "w": 0.005598929693374612,
                "x": 0.007748599140229565,
                "y": 0.7110244013736278,
                "z": -0.7031023480610252
            },
            "position": {
                "x": 0.1141497679147869,
                "y": -0.7141253447532654,
                "z": 0.3711530566215515
            }
        },
        "name": "move_to_auspresseinheit_B"
    },
    "id": "KPIECE_move_to_auspresseinheit_B_81",
    "joint_names": [
        "shoulder_pan_joint",
        "shoulder_lift_joint",
        "elbow_joint",
        "wrist_1_joint",
        "wrist_2_joint",
        "wrist_3_joint"
    ],
    "metrics": {
        "cart_traj_len": 0.5652127698529971,
        "distance_elbow_joint": 0.06295698844703312,
        "distance_shoulder_lift_joint": 0.2941262746825759,
        "distance_shoulder_pan_joint": 0.5769614088648609,
        "distance_wrist_1_joint": 0.323668896256207,
        "distance_wrist_2_joint": 0.9953228508021037,
        "distance_wrist_3_joint": 0.0037836992668514036,
        "smoothness": 5.075305255429287e-16,
        "time": 0.090856614,
        "traj_len": 1.5022716526379747,
        "weighted_distance": 1.8929815804470063
    },
    "planner": "KPIECE",
    "start": {
        "state": {
            "elbow_joint": 2.019306165916698,
            "shoulder_lift_joint": -1.1220205098164344,
            "shoulder_pan_joint": -1.095207207618794,
            "wrist_1_joint": -0.8559671824921639,
            "wrist_2_joint": 0.47596387242952726,
            "wrist_3_joint": 3.159081874673826
        }
    },
    "waypoints": [
        {
            "positions": [
                -1.095207207618794,
                -1.1220205098164344,
                2.019306165916698,
                -0.8559671824921639,
                0.47596387242952726,
                3.159081874673826
            ]
        },
        {
            "positions": [
                -1.1913674424296041,
                -1.1710415555968638,
                2.0088133345088592,
                -0.8020223664494627,
                0.6418510142298779,
                3.1584512581293507
            ]
        },
        {
            "positions": [
                -1.2875276772404143,
                -1.220062601377293,
                1.9983205031010203,
                -0.7480775504067615,
                0.8077381560302285,
                3.1578206415848755
            ]
        },
        {
            "positions": [
                -1.3836879120512244,
                -1.2690836471577223,
                1.9878276716931813,
                -0.6941327343640604,
                0.973625297830579,
                3.1571900250404
            ]
        },
        {
            "positions": [
                -1.4798481468620346,
                -1.3181046929381517,
                1.9773348402853426,
                -0.6401879183213592,
                1.1395124396309297,
                3.1565594084959248
            ]
        },
        {
            "positions": [
                -1.5760083816728447,
                -1.3671257387185811,
                1.9668420088775038,
                -0.5862431022786581,
                1.3053995814312804,
                3.1559287919514496
            ]
        },
        {
            "positions": [
                -1.672168616483655,
                -1.4161467844990103,
                1.9563491774696649,
                -0.5322982862359569,
                1.471286723231631,
                3.1552981754069744
            ]
        }
    ]
}