{
    "goal": {
        "global_pose": {
            "orientation": {
                "w": 0.005598929693374612,
                "x": 0.007748599140229565,
                "y": 0.7110244013736278,
                "z": -0.7031023480610252
            },
            "position": {
                "x": -0.8858502320852131,
                "y": -0.7141253447532654,
                "z": 0.3711530566215515
            }
        },
        "name": "move_to_auspresseinheit_C"
    },
    "id": "KPIECE_move_to_auspresseinheit_C_132",
    "joint_names": [
        "shoulder_pan_joint",
        "shoulder_lift_joint",
        "elbow_joint",
        "wrist_1_joint",
        "wrist_2_joint",
        "wrist_3_joint"
    ],
    "metrics": {
        "cart_traj_len": 0.49379628215302696,
        "distance_elbow_joint": 1.0167627476059282,
        "distance_shoulder_lift_joint": 0.33327480182798874,
        "distance_shoulder_pan_joint": 0.25571142677357006,
        "distance_wrist_1_joint": 0.7089509059457895,
        "distance_wrist_2_joint": 1.3192656534482154,
        "distance_wrist_3_joint": 0.0808645535762813,
        "smoothness": 6.459479416000911e-16,
        "time": 0.109123331,
        "traj_len": 1.9273894492753074,
        "weighted_distance": 2.429974435199749
    },
    "planner": "KPIECE",
    "start": {
        "state": {
            "elbow_joint": 1.752795957773711,
            "shoulder_lift_joint": -0.9740617694225064,
            "shoulder_pan_joint": -2.967991417825858,
            "wrist_1_joint": -0.7595177689806859,
            "wrist_2_joint": 1.7443932448377395,
            "wrist_3_joint": 3.199131542505932
        }
    },
    "waypoints": [
        {
            "positions": [
                -2.967991417825858,
                -0.9740617694225064,
                1.752795957773711,
                -0.7595177689806859,
                1.7443932448377395,
                3.199131542505932
            ]
        },
        {
            "positions": [
                -2.942420275148501,
                -0.9407342892397076,
                1.6511196830131183,
                -0.6886226783861069,
                1.6124666794929179,
                3.191045087148304
            ]
        },
        {
            "positions": [
                -2.916849132471144,
                -0.9074068090569087,
                1.5494434082525255,
                -0.617727587791528,
                1.4805401141480963,
                3.182958631790676
            ]
        },
        {
            "positions": [
                -2.891277989793787,
                -0.8740793288741098,
                1.4477671334919326,
                -0.546832497196949,
                1.3486135488032749,
                3.174872176433048
            ]
        },
        {
            "positions": [
                -2.8657068471164298,
                -0.8407518486913109,
                1.3460908587313398,
                -0.4759374066023701,
                1.2166869834584533,
                3.16678572107542
            ]
        },
        {
            "positions": [
                -2.840135704439073,
                -0.8074243685085121,
                1.244414583970747,
                -0.40504231600779117,
                1.0847604181136319,
                3.1586992657177912
            ]
        },
        {
            "positions": [
                -2.814564561761716,
                -0.7740968883257132,
                1.1427383092101542,
                -0.33414722541321223,
                0.9528338527688103,
                3.150612810360163
            ]
        },
        {
            "positions": [
                -2.788993419084359,
                -0.7407694081429144,
                1.0410620344495614,
                -0.2632521348186333,
                0.8209072874239888,
                3.142526355002535
            ]
        },
        {
            "positions": [
                -2.763422276407002,
                -0.7074419279601154,
                0.9393857596889685,
                -0.1923570442240543,
                0.688980722079167,
                3.134439899644907
            ]
        },
        {
            "positions": [
                -2.7378511337296447,
                -0.6741144477773165,
                0.8377094849283757,
                -0.12146195362947532,
                0.5570541567343457,
                3.126353444287279
            ]
        },
        {
            "positions": [
                -2.712279991052288,
                -0.6407869675945177,
                0.736033210167783,
                -0.050566863034896485,
                0.42512759138952405,
                3.118266988929651
            ]
        }
    ]
}