{
    "goal": {
        "global_pose": {
            "orientation": {
                "w": -0.4816463035849501,
                "x": 0.5182115481033762,
                "y": 0.4908360881923453,
                "z": -0.5084816262002911
            },
            "position": {
                "x": -0.8240239810943604,
                "y": -0.300875300988555,
                "z": 0.16403168439865112
            }
        },
        "name": "move_to_storage_C"
    },
    "id": "KPIECE_move_to_storage_C_80",
    "joint_names": [
        "shoulder_pan_joint",
        "shoulder_lift_joint",
        "elbow_joint",
        "wrist_1_joint",
        "wrist_2_joint",
        "wrist_3_joint"
    ],
    "metrics": {
        "cart_traj_len": 0.5762628647253284,
        "distance_elbow_joint": 0.2609733483075898,
        "distance_shoulder_lift_joint": 0.18894451975292503,
        "distance_shoulder_pan_joint": 0.4941315486214979,
        "distance_wrist_1_joint": 0.09023828520523935,
        "distance_wrist_2_joint": 1.0681346771558569,
        "distance_wrist_3_joint": 0.06435115796251978,
        "smoothness": 2.5376526478085547e-16,
        "time": 0.076614273,
        "traj_len": 1.4719964459894692,
        "weighted_distance": 1.8584533395519418
    },
    "planner": "KPIECE",
    "start": {
        "state": {
            "elbow_joint": 2.010868315001653,
            "shoulder_lift_joint": -1.1634956873357014,
            "shoulder_pan_joint": -2.4736205022346103,
            "wrist_1_joint": -0.8367026794713948,
            "wrist_2_joint": 0.6746043897044093,
            "wrist_3_joint": 3.1335220948105738
        }
    },
    "waypoints": [
        {
            "positions": [
                -2.4736205022346103,
                -1.1634956873357014,
                2.010868315001653,
                -0.8367026794713948,
                0.6746043897044093,
                3.1335220948105738
            ]
        },
        {
            "positions": [
                -2.5559757603381934,
                -1.1320049340435472,
                1.967372756950388,
                -0.8216629652705215,
                0.8526268358970521,
                3.144247287804327
            ]
        },
        {
            "positions": [
                -2.638331018441776,
                -1.100514180751393,
                1.9238771988991232,
                -0.8066232510696483,
                1.0306492820896949,
                3.1549724807980803
            ]
        },
        {
            "positions": [
                -2.720686276545359,
                -1.069023427459239,
                1.8803816408478582,
                -0.7915835368687751,
                1.2086717282823378,
                3.1656976737918336
            ]
        },
        {
            "positions": [
                -2.8030415346489423,
                -1.0375326741670847,
                1.8368860827965932,
                -0.7765438226679019,
                1.3866941744749806,
                3.176422866785587
            ]
        },
        {
            "positions": [
                -2.885396792752525,
                -1.0060419208749305,
                1.7933905247453283,
                -0.7615041084670287,
                1.5647166206676233,
                3.1871480597793402
            ]
        },
        {
            "positions": [
                -2.967752050856108,
                -0.9745511675827764,
                1.7498949666940633,
                -0.7464643942661554,
                1.7427390668602663,
                3.1978732527730935
            ]
        }
    ]
}