{
    "goal": {
        "global_pose": {
            "orientation": {
                "w": 0.7031023480610252,
                "x": -0.7110244013736278,
                "y": 0.0077485991402295624,
                "z": 0.005598929693374583
            },
            "position": {
                "x": -0.8841497679147869,
                "y": 0.44412534475326537,
                "z": 0.3711530566215515
            }
        },
        "name": "move_to_auspresseinheit_D"
    },
    "id": "KPIECE_move_to_auspresseinheit_D_88",
    "joint_names": [
        "shoulder_pan_joint",
        "shoulder_lift_joint",
        "elbow_joint",
        "wrist_1_joint",
        "wrist_2_joint",
        "wrist_3_joint"
    ],
    "metrics": {
        "cart_traj_len": 3.6722245569619396,
        "distance_elbow_joint": 3.172511294591475,
        "distance_shoulder_lift_joint": 1.4056072427952473,
        "distance_shoulder_pan_joint": 2.797229622517489,
        "distance_wrist_1_joint": 1.3995544474342956,
        "distance_wrist_2_joint": 0.8850646797986419,
        "distance_wrist_3_joint": 3.1505770707609813,
        "smoothness": 5.485807907716735e-16,
        "time": 0.172878319,
        "traj_len": 3.5791820794558817,
        "weighted_distance": 4.625615378158135
    },
    "planner": "KPIECE",
    "start": {
        "state": {
            "elbow_joint": 1.8268400409724999,
            "shoulder_lift_joint": -1.0144045787793008,
            "shoulder_pan_joint": 2.6280239544362485,
            "wrist_1_joint": -0.790705565816056,
            "wrist_2_joint": 1.0573557467365533,
            "wrist_3_joint": 3.1851377467193758
        }
    },
    "waypoints": [
        {
            "positions": [
                2.6280239544362485,
                -1.0144045787793008,
                1.8268400409724999,
                -0.790705565816056,
                1.0573557467365533,
                3.1851377467193758
            ]
        },
        {
            "positions": [
                2.562023687638411,
                -1.0367481933583917,
                1.6964559100907681,
                -0.7693866998653001,
                0.9805086573545351,
                3.142315278014957
            ]
        },
        {
            "positions": [
                2.4960234208405736,
                -1.0590918079374827,
                1.5660717792090364,
                -0.7480678339145442,
                0.9036615679725168,
                3.099492809310538
            ]
        },
        {
            "positions": [
                2.430023154042736,
                -1.0814354225165739,
                1.4356876483273047,
                -0.7267489679637883,
                0.8268144785904985,
                3.0566703406061184
            ]
        },
        {
            "positions": [
                2.3640228872448987,
                -1.1037790370956648,
                1.305303517445573,
                -0.7054301020130325,
                0.7499673892084803,
                3.0138478719016994
            ]
        },
        {
            "positions": [
                2.2980226204470613,
                -1.1261226516747558,
                1.1749193865638412,
                -0.6841112360622765,
                0.673120299826462,
                2.9710254031972805
            ]
        },
        {
            "positions": [
                2.2099073244281935,
                -1.172332979171177,
                1.0848982922715977,
                -0.6379340890022581,
                0.6552335415090138,
                2.8661516629387487
            ]
        },
        {
            "positions": [
                2.1217920284093257,
                -1.2185433066675981,
                0.9948771979793545,
                -0.5917569419422397,
                0.6373467831915656,
                2.7612779226802173
            ]
        },
        {
            "positions": [
                2.0336767323904574,
                -1.2647536341640193,
                0.904856103687111,
                -0.5455797948822213,
                0.6194600248741173,
                2.6564041824216855
            ]
        },
        {
            "positions": [
                1.9455614363715896,
                -1.3109639616604403,
                0.8148350093948677,
                -0.49940264782220284,
                0.6015732665566691,
                2.5515304421631537
            ]
        },
        {
            "positions": [
                1.8574461403527218,
                -1.3571742891568617,
                0.7248139151026243,
                -0.4532255007621844,
                0.5836865082392209,
                2.4466567019046224
            ]
        },
        {
            "positions": [
                1.769330844333854,
                -1.4033846166532826,
                0.6347928208103809,
                -0.407048353702166,
                0.5657997499217726,
                2.3417829616460906
            ]
        },
        {
            "positions": [
                1.681215548314986,
                -1.4495949441497038,
                0.5447717265181375,
                -0.36087120664214756,
                0.5479129916043244,
                2.2369092213875588
            ]
        },
        {
            "positions": [
                1.593100252296118,
                -1.495805271646125,
                0.4547506322258942,
                -0.31469405958212915,
                0.5300262332868761,
                2.1320354811290274
            ]
        },
        {
            "positions": [
                1.5049849562772502,
                -1.5420155991425462,
                0.3647295379336507,
                -0.2685169125221107,
                0.5121394749694279,
                2.0271617408704956
            ]
        },
        {
            "positions": [
                1.4168696602583823,
                -1.5882259266389673,
                0.27470844364140734,
                -0.22233976546209228,
                0.4942527166519797,
                1.9222880006119638
            ]
        },
        {
            "positions": [
                1.3287543642395145,
                -1.6344362541353885,
                0.1846873493491641,
                -0.17616261840207392,
                0.47636595833453144,
                1.8174142603534322
            ]
        },
        {
            "positions": [
                1.2406390682206465,
                -1.6806465816318097,
                0.09466625505692061,
                -0.12998547134205551,
                0.4584792000170832,
                1.7125405200949007
            ]
        },
        {
            "positions": [
                1.1525237722017785,
                -1.7268569091282306,
                0.0046451607646771365,
                -0.083808324282037,
                0.44059244169963496,
                1.6076667798363689
            ]
        },
        {
            "positions": [
                1.0644084761829107,
                -1.773067236624652,
                -0.08537593352756612,
                -0.037631177222018586,
                0.4227056833821867,
                1.5027930395778373
            ]
        },
        {
            "positions": [
                0.9762931801640429,
                -1.819277564121073,
                -0.17539702781980937,
                0.008545969837999823,
                0.4048189250647385,
                1.3979192993193057
            ]
        },
        {
            "positions": [
                0.8881778841451748,
                -1.8654878916174942,
                -0.26541812211205285,
                0.05472311689801823,
                0.38693216674729025,
                1.2930455590607741
            ]
        },
        {
            "positions": [
                0.800062588126307,
                -1.9116982191139154,
                -0.3554392164042961,
                0.10090026395803664,
                0.369045408429842,
                1.1881718188022425
            ]
        },
        {
            "positions": [
                0.711947292107439,
                -1.9579085466103368,
                -0.4454603106965398,
                0.14707741101805516,
                0.3511586501123938,
                1.0832980785437105
            ]
        },
        {
            "positions": [
                0.6238319960885712,
                -2.0041188741067577,
                -0.535481404988783,
                0.19325455807807357,
                0.33327189179494554,
                0.9784243382851789
            ]
        },
        {
            "positions": [
                0.5357167000697032,
                -2.050329201603179,
                -0.6255024992810265,
                0.23943170513809198,
                0.3153851334774973,
                0.8735505980266471
            ]
        },
        {
            "positions": [
                0.44760140405083537,
                -2.0965395290996,
                -0.7155235935732698,
                0.2856088521981104,
                0.29749837516004907,
                0.7686768577681158
            ]
        },
        {
            "positions": [
                0.35948610803196757,
                -2.142749856596021,
                -0.805544687865513,
                0.3317859992581287,
                0.27961161684260083,
                0.663803117509584
            ]
        },
        {
            "positions": [
                0.27137081201309954,
                -2.1889601840924424,
                -0.8955657821577565,
                0.3779631463181472,
                0.2617248585251526,
                0.5589293772510526
            ]
        },
        {
            "positions": [
                0.18325551599423173,
                -2.2351705115888634,
                -0.98558687645,
                0.4241402933781655,
                0.24383810020770436,
                0.45405563699252083
            ]
        },
        {
            "positions": [
                0.09514021997536348,
                -2.2813808390852848,
                -1.0756079707422435,
                0.47031744043818424,
                0.22595134189025612,
                0.34918189673398903
            ]
        },
        {
            "positions": [
                0.007024923956495677,
                -2.3275911665817057,
                -1.165629065034487,
                0.5164945874982025,
                0.20806458357280788,
                0.24430815647545723
            ]
        },
        {
            "positions": [
                -0.08109037206237213,
                -2.373801494078127,
                -1.25565015932673,
                0.5626717345582211,
                0.19017782525535964,
                0.13943441621692587
            ]
        },
        {
            "positions": [
                -0.16920566808123988,
                -2.420011821574548,
                -1.3456712536189737,
                0.6088488816182395,
                0.17229106693791138,
                0.03456067595839409
            ]
        }
    ]
}