{
    "goal": {
        "global_pose": {
            "orientation": {
                "w": 0.7047431493862688,
                "x": -0.7094548369677653,
                "y": 0.0024358444001904,
                "z": -0.0022348060817251984
            },
            "position": {
                "x": -0.39052492380142206,
                "y": 0.3671506643295288,
                "z": 0.19426114857196808
            }
        },
        "name": "move_to_magneteinheit_D"
    },
    "id": "KPIECE_move_to_magneteinheit_D_50",
    "joint_names": [
        "shoulder_pan_joint",
        "shoulder_lift_joint",
        "elbow_joint",
        "wrist_1_joint",
        "wrist_2_joint",
        "wrist_3_joint"
    ],
    "metrics": {
        "cart_traj_len": 4.3717861117613985,
        "distance_elbow_joint": 4.835419500669005,
        "distance_shoulder_lift_joint": 1.6251628373495222,
        "distance_shoulder_pan_joint": 3.050664486768131,
        "distance_wrist_1_joint": 1.736523775742062,
        "distance_wrist_2_joint": 0.864117296685165,
        "distance_wrist_3_joint": 3.076340857641865,
        "smoothness": 0.5414866883540129,
        "time": 0.252045511,
        "traj_len": 3.8972078151999736,
        "weighted_distance": 4.893010478485275
    },
    "planner": "KPIECE",
    "start": {
        "state": {
            "elbow_joint": 0.7495348899011973,
            "shoulder_lift_joint": -0.6476975780737697,
            "shoulder_pan_joint": -2.711696901376276,
            "wrist_1_joint": -0.07506478080974305,
            "wrist_2_joint": 0.4329665971545858,
            "wrist_3_joint": 3.1361499051832524
        }
    },
    "waypoints": [
        {
            "positions": [
                -2.711696901376276,
                -0.6476975780737697,
                0.7495348899011973,
                -0.07506478080974305,
                0.4329665971545858,
                3.1361499051832524
            ]
        },
        {
            "positions": [
                -2.7201807365552524,
                -0.7011920402115528,
                0.8140805877090733,
                -0.08394607462957118,
                0.4566712491097472,
                3.1455391392229783
            ]
        },
        {
            "positions": [
                -2.717205350140375,
                -0.8414114825378466,
                0.9700817033997713,
                -0.1040735567589445,
                0.5136257143087406,
                3.13623898560569
            ]
        },
        {
            "positions": [
                -2.714229963725497,
                -0.9816309248641404,
                1.1260828190904695,
                -0.12420103888831784,
                0.570580179507734,
                3.1269388319884013
            ]
        },
        {
            "positions": [
                -2.711254577310619,
                -1.121850367190434,
                1.2820839347811672,
                -0.14432852101769117,
                0.6275346447067274,
                3.117638678371113
            ]
        },
        {
            "positions": [
                -2.7082791908957415,
                -1.2620698095167278,
                1.4380850504718654,
                -0.1644560031470645,
                0.6844891099057208,
                3.108338524753824
            ]
        },
        {
            "positions": [
                -2.705303804480864,
                -1.4022892518430217,
                1.5940861661625634,
                -0.1845834852764378,
                0.7414435751047141,
                3.099038371136536
            ]
        },
        {
            "positions": [
                -2.615842479170024,
                -1.4282391558357272,
                1.4832353280497603,
                -0.13439462628456506,
                0.725311521864281,
                3.005184785350183
            ]
        },
        {
            "positions": [
                -2.526381153859184,
                -1.4541890598284326,
                1.3723844899369573,
                -0.08420576729269227,
                0.709179468623848,
                2.9113311995638305
            ]
        },
        {
            "positions": [
                -2.4369198285483438,
                -1.4801389638211382,
                1.261533651824154,
                -0.03401690830081949,
                0.6930474153834149,
                2.8174776137774775
            ]
        },
        {
            "positions": [
                -2.3474585032375037,
                -1.5060888678138438,
                1.150682813711351,
                0.01617195069105326,
                0.6769153621429818,
                2.723624027991125
            ]
        },
        {
            "positions": [
                -2.257997177926663,
                -1.5320387718065491,
                1.039831975598548,
                0.06636080968292601,
                0.6607833089025488,
                2.629770442204772
            ]
        },
        {
            "positions": [
                -2.1685358526158236,
                -1.5579886757992547,
                0.9289811374857447,
                0.11654966867479882,
                0.6446512556621157,
                2.535916856418419
            ]
        },
        {
            "positions": [
                -2.079074527304983,
                -1.58393857979196,
                0.8181302993729417,
                0.16673852766667158,
                0.6285192024216826,
                2.4420632706320666
            ]
        },
        {
            "positions": [
                -1.989613201994143,
                -1.6098884837846656,
                0.7072794612601386,
                0.21692738665854433,
                0.6123871491812495,
                2.3482096848457137
            ]
        },
        {
            "positions": [
                -1.900151876683303,
                -1.6358383877773712,
                0.5964286231473354,
                0.26711624565041714,
                0.5962550959408164,
                2.2543560990593607
            ]
        },
        {
            "positions": [
                -1.810690551372463,
                -1.6617882917700766,
                0.4855777850345324,
                0.31730510464228984,
                0.5801230427003833,
                2.1605025132730082
            ]
        },
        {
            "positions": [
                -1.7212292260616229,
                -1.6877381957627822,
                0.37472694692172914,
                0.3674939636341627,
                0.5639909894599502,
                2.0666489274866553
            ]
        },
        {
            "positions": [
                -1.6317679007507828,
                -1.7136880997554877,
                0.2638761088089261,
                0.41768282262603545,
                0.5478589362195171,
                1.9727953417003026
            ]
        },
        {
            "positions": [
                -1.5423065754399425,
                -1.739638003748193,
                0.15302527069612304,
                0.4678716816179082,
                0.531726882979084,
                1.8789417559139499
            ]
        },
        {
            "positions": [
                -1.4528452501291025,
                -1.7655879077408987,
                0.04217443258331999,
                0.5180605406097809,
                0.515594829738651,
                1.7850881701275971
            ]
        },
        {
            "positions": [
                -1.3633839248182624,
                -1.7915378117336043,
                -0.06867640552948329,
                0.5682493996016538,
                0.49946277649821785,
                1.6912345843412442
            ]
        },
        {
            "positions": [
                -1.2739225995074224,
                -1.8174877157263096,
                -0.17952724364228612,
                0.6184382585935264,
                0.48333072325778476,
                1.5973809985548917
            ]
        },
        {
            "positions": [
                -1.1844612741965823,
                -1.8434376197190152,
                -0.29037808175508917,
                0.6686271175853993,
                0.4671986700173517,
                1.503527412768539
            ]
        },
        {
            "positions": [
                -1.094999948885742,
                -1.8693875237117208,
                -0.40122891986789266,
                0.7188159765772721,
                0.45106661677691856,
                1.4096738269821858
            ]
        },
        {
            "positions": [
                -1.005538623574902,
                -1.8953374277044261,
                -0.5120797579806957,
                0.7690048355691448,
                0.4349345635364855,
                1.3158202411958333
            ]
        },
        {
            "positions": [
                -0.9160772982640619,
                -1.9212873316971317,
                -0.6229305960934985,
                0.8191936945610174,
                0.4188025102960524,
                1.2219666554094806
            ]
        },
        {
            "positions": [
                -0.8266159729532221,
                -1.9472372356898373,
                -0.7337814342063018,
                0.8693825535528903,
                0.4026704570556193,
                1.1281130696231279
            ]
        },
        {
            "positions": [
                -0.7371546476423816,
                -1.9731871396825427,
                -0.8446322723191051,
                0.9195714125447632,
                0.3865384038151862,
                1.0342594838367747
            ]
        },
        {
            "positions": [
                -0.6476933223315418,
                -1.9991370436752482,
                -0.9554831104319079,
                0.9697602715366358,
                0.37040635057475313,
                0.9404058980504222
            ]
        },
        {
            "positions": [
                -0.5582319970207017,
                -2.025086947667954,
                -1.0663339485447112,
                1.0199491305285087,
                0.3542742973343201,
                0.8465523122640692
            ]
        },
        {
            "positions": [
                -0.46877067170986164,
                -2.051036851660659,
                -1.177184786657514,
                1.0701379895203813,
                0.338142244093887,
                0.7526987264777167
            ]
        },
        {
            "positions": [
                -0.37930934639902114,
                -2.0769867556533645,
                -1.2880356247703173,
                1.1203268485122542,
                0.3220101908534539,
                0.6588451406913638
            ]
        },
        {
            "positions": [
                -0.2898480210881811,
                -2.1029366596460703,
                -1.3988864628831206,
                1.170515707504127,
                0.3058781376130208,
                0.5649915549050109
            ]
        },
        {
            "positions": [
                -0.20038669577734103,
                -2.1288865636387757,
                -1.5097373009959234,
                1.2207045664959997,
                0.28974608437258775,
                0.47113796911865835
            ]
        },
        {
            "positions": [
                -0.11092537046650142,
                -2.154836467631481,
                -1.6205881391087262,
                1.2708934254878723,
                0.27361403113215466,
                0.37728438333230585
            ]
        },
        {
            "positions": [
                -0.021464045155660916,
                -2.180786371624187,
                -1.73143897722153,
                1.3210822844797454,
                0.25748197789172156,
                0.28343079754595246
            ]
        },
        {
            "positions": [
                0.06799728015517897,
                -2.2067362756168922,
                -1.8422898153343326,
                1.371271143471618,
                0.24134992465128846,
                0.18957721175959993
            ]
        },
        {
            "positions": [
                -0.01667026480439522,
                -2.2287776555523586,
                -2.0271205629712465,
                1.3949879576473885,
                0.22283436855741812,
                0.15258064638001312
            ]
        },
        {
            "positions": [
                -0.10133780976396942,
                -2.2508190354878255,
                -2.211951310608161,
                1.4187047718231591,
                0.20431881246354777,
                0.11558408100042629
            ]
        },
        {
            "positions": [
                -0.18600535472354363,
                -2.272860415423292,
                -2.396782058245075,
                1.4424215859989296,
                0.18580325636967743,
                0.07858751562083946
            ]
        }
    ]
}