{
    "goal": {
        "global_pose": {
            "orientation": {
                "w": 0.7031023502349854,
                "x": -0.7110244035720825,
                "y": 0.007748599164187908,
                "z": 0.005598929710686207
            },
            "position": {
                "x": 0.11585023208521307,
                "y": 0.44412534475326537,
                "z": 0.3711530566215515
            }
        },
        "name": "move_to_auspresseinheit_A"
    },
    "id": "KPIECE_move_to_auspresseinheit_A_128",
    "joint_names": [
        "shoulder_pan_joint",
        "shoulder_lift_joint",
        "elbow_joint",
        "wrist_1_joint",
        "wrist_2_joint",
        "wrist_3_joint"
    ],
    "metrics": {
        "cart_traj_len": 0.8528537103256388,
        "distance_elbow_joint": 0.44529529248909583,
        "distance_shoulder_lift_joint": 0.5818110713933808,
        "distance_shoulder_pan_joint": 1.0442028454904126,
        "distance_wrist_1_joint": 0.5499111262183938,
        "distance_wrist_2_joint": 0.6869951648974056,
        "distance_wrist_3_joint": 0.7282463703485416,
        "smoothness": 0.8278970840731025,
        "time": 0.28686368100000004,
        "traj_len": 2.009094788912965,
        "weighted_distance": 2.594197545032011
    },
    "planner": "KPIECE",
    "start": {
        "state": {
            "elbow_joint": 2.4225747245308327,
            "shoulder_lift_joint": -1.373653427065438,
            "shoulder_pan_joint": -0.33786330853087027,
            "wrist_1_joint": -1.0288602302712604,
            "wrist_2_joint": 1.23302299562683,
            "wrist_3_joint": -3.094021725338297
        }
    },
    "waypoints": [
        {
            "positions": [
                -0.33786330853087027,
                -1.373653427065438,
                2.4225747245308327,
                -1.0288602302712604,
                1.23302299562683,
                -3.094021725338297
            ]
        },
        {
            "positions": [
                -0.273264519584068,
                -1.4536062422579528,
                2.388833123422474,
                -0.9640138997245395,
                1.1461720060667266,
                -3.044087879011773
            ]
        },
        {
            "positions": [
                -0.20866573063726573,
                -1.5335590574504676,
                2.3550915223141153,
                -0.8991675691778186,
                1.0593210165066234,
                -2.9941540326852483
            ]
        },
        {
            "positions": [
                -0.14406694169046347,
                -1.6135118726429822,
                2.3213499212057567,
                -0.8343212386310978,
                0.9724700269465201,
                -2.944220186358724
            ]
        },
        {
            "positions": [
                -0.0794681527436612,
                -1.693464687835497,
                2.2876083200973976,
                -0.7694749080843768,
                0.8856190373864168,
                -2.8942863400321994
            ]
        },
        {
            "positions": [
                -0.014869363796858936,
                -1.773417503028012,
                2.253866718989039,
                -0.704628577537656,
                0.7987680478263135,
                -2.8443524937056752
            ]
        },
        {
            "positions": [
                0.04972942514994333,
                -1.8533703182205268,
                2.2201251178806802,
                -0.6397822469909351,
                0.7119170582662102,
                -2.7944186473791506
            ]
        },
        {
            "positions": [
                0.11432821409674557,
                -1.9333231334130416,
                2.1863835167723216,
                -0.5749359164442142,
                0.6250660687061069,
                -2.7444848010526264
            ]
        },
        {
            "positions": [
                0.24196177977658362,
                -1.9280032982367756,
                2.232591029845987,
                -0.5531133458654593,
                0.6430429361584925,
                -2.829081383143426
            ]
        },
        {
            "positions": [
                0.3695953454564217,
                -1.9226834630605096,
                2.2787985429196516,
                -0.5312907752867045,
                0.6610198036108781,
                -2.913677965234225
            ]
        },
        {
            "positions": [
                0.49722891113625967,
                -1.9173636278842436,
                2.3250060559933168,
                -0.5094682047079497,
                0.6789966710632638,
                -2.998274547325024
            ]
        },
        {
            "positions": [
                0.6248624768160977,
                -1.9120437927079776,
                2.371213569066982,
                -0.4876456341291949,
                0.6969735385156494,
                -3.0828711294158233
            ]
        },
        {
            "positions": [
                0.7063395369595422,
                -1.9111817683672645,
                2.3954876015029063,
                -0.47894910405286667,
                0.7041043066827896,
                -3.123194247115497
            ]
        }
    ]
}