{
    "goal": {
        "global_pose": {
            "orientation": {
                "w": 0.7047431493862688,
                "x": -0.7094548369677653,
                "y": 0.0024358444001904,
                "z": -0.0022348060817251984
            },
            "position": {
                "x": -0.39052492380142206,
                "y": 0.3671506643295288,
                "z": 0.19426114857196808
            }
        },
        "name": "move_to_magneteinheit_D"
    },
    "id": "KPIECE_move_to_magneteinheit_D_131",
    "joint_names": [
        "shoulder_pan_joint",
        "shoulder_lift_joint",
        "elbow_joint",
        "wrist_1_joint",
        "wrist_2_joint",
        "wrist_3_joint"
    ],
    "metrics": {
        "cart_traj_len": 3.914020182139769,
        "distance_elbow_joint": 3.2283462257504922,
        "distance_shoulder_lift_joint": 1.634313490927643,
        "distance_shoulder_pan_joint": 2.885383155380802,
        "distance_wrist_1_joint": 2.4078873790475317,
        "distance_wrist_2_joint": 1.1278454468289238,
        "distance_wrist_3_joint": 3.1596152400549995,
        "smoothness": 0.19073853012294562,
        "time": 0.427950149,
        "traj_len": 3.8004461498606186,
        "weighted_distance": 4.929336085516674
    },
    "planner": "KPIECE",
    "start": {
        "state": {
            "elbow_joint": 0.7495348899011973,
            "shoulder_lift_joint": -0.6476975780737697,
            "shoulder_pan_joint": -2.711696901376276,
            "wrist_1_joint": -0.07506478080974305,
            "wrist_2_joint": 0.4329665971545858,
            "wrist_3_joint": 3.1361499051832524
        }
    },
    "waypoints": [
        {
            "positions": [
                -2.711696901376276,
                -0.6476975780737697,
                0.7495348899011973,
                -0.07506478080974305,
                0.4329665971545858,
                3.1361499051832524
            ]
        },
        {
            "positions": [
                -2.704652077321247,
                -0.7296285592220242,
                0.7673447124228685,
                0.03498572228881161,
                0.5386886077018793,
                3.0910425941302524
            ]
        },
        {
            "positions": [
                -2.697607253266218,
                -0.8115595403702787,
                0.7851545349445397,
                0.14503622538736627,
                0.6444106182491729,
                3.045935283077252
            ]
        },
        {
            "positions": [
                -2.6905624292111887,
                -0.8934905215185331,
                0.8029643574662109,
                0.25508672848592095,
                0.7501326287964665,
                3.000827972024252
            ]
        },
        {
            "positions": [
                -2.589320473352343,
                -0.9274325470517535,
                0.7035456043285653,
                0.3157494452778882,
                0.7310767841730283,
                2.9193117069509182
            ]
        },
        {
            "positions": [
                -2.4880785174934967,
                -0.9613745725849738,
                0.6041268511909196,
                0.37641216206985545,
                0.7120209395495901,
                2.837795441877584
            ]
        },
        {
            "positions": [
                -2.386836561634651,
                -0.9953165981181942,
                0.504708098053274,
                0.4370748788618227,
                0.692965094926152,
                2.7562791768042505
            ]
        },
        {
            "positions": [
                -2.285594605775805,
                -1.0292586236514145,
                0.40528934491562835,
                0.49773759565378994,
                0.6739092503027138,
                2.674762911730917
            ]
        },
        {
            "positions": [
                -2.184352649916959,
                -1.0632006491846349,
                0.3058705917779827,
                0.5584003124457573,
                0.6548534056792756,
                2.5932466466575828
            ]
        },
        {
            "positions": [
                -2.083110694058113,
                -1.0971426747178552,
                0.20645183864033712,
                0.6190630292377244,
                0.6357975610558375,
                2.511730381584249
            ]
        },
        {
            "positions": [
                -1.9818687381992675,
                -1.1310847002510753,
                0.10703308550269153,
                0.6797257460296917,
                0.6167417164323993,
                2.4302141165109155
            ]
        },
        {
            "positions": [
                -1.8806267823404217,
                -1.165026725784296,
                0.007614332365045828,
                0.7403884628216589,
                0.5976858718089612,
                2.3486978514375814
            ]
        },
        {
            "positions": [
                -1.779384826481576,
                -1.198968751317516,
                -0.09180442077259976,
                0.8010511796136262,
                0.5786300271855229,
                2.2671815863642477
            ]
        },
        {
            "positions": [
                -1.6781428706227297,
                -1.2329107768507364,
                -0.19122317391024546,
                0.8617138964055935,
                0.5595741825620848,
                2.185665321290914
            ]
        },
        {
            "positions": [
                -1.576900914763884,
                -1.2668528023839567,
                -0.29064192704789105,
                0.9223766131975606,
                0.5405183379386467,
                2.1041490562175804
            ]
        },
        {
            "positions": [
                -1.475658958905038,
                -1.300794827917177,
                -0.39006068018553663,
                0.9830393299895279,
                0.5214624933152084,
                2.0226327911442463
            ]
        },
        {
            "positions": [
                -1.3744170030461922,
                -1.3347368534503974,
                -0.4894794333231822,
                1.0437020467814953,
                0.5024066486917703,
                1.9411165260709127
            ]
        },
        {
            "positions": [
                -1.2731750471873464,
                -1.3686788789836177,
                -0.5888981864608278,
                1.1043647635734624,
                0.48335080406833214,
                1.859600260997579
            ]
        },
        {
            "positions": [
                -1.1719330913285007,
                -1.402620904516838,
                -0.6883169395984734,
                1.1650274803654295,
                0.46429495944489396,
                1.7780839959242452
            ]
        },
        {
            "positions": [
                -1.0706911354696544,
                -1.4365629300500584,
                -0.7877356927361192,
                1.2256901971573968,
                0.4452391148214558,
                1.6965677308509113
            ]
        },
        {
            "positions": [
                -0.9694491796108087,
                -1.4705049555832788,
                -0.8871544458737648,
                1.2863529139493641,
                0.4261832701980176,
                1.6150514657775774
            ]
        },
        {
            "positions": [
                -0.8682072237519629,
                -1.5044469811164989,
                -0.9865731990114104,
                1.3470156307413315,
                0.4071274255745795,
                1.5335352007042438
            ]
        },
        {
            "positions": [
                -0.7669652678931169,
                -1.5383890066497194,
                -1.0859919521490558,
                1.4076783475332983,
                0.3880715809511413,
                1.4520189356309101
            ]
        },
        {
            "positions": [
                -0.6657233120342707,
                -1.5723310321829396,
                -1.1854107052867018,
                1.4683410643252661,
                0.36901573632770307,
                1.370502670557576
            ]
        },
        {
            "positions": [
                -0.5644813561754249,
                -1.6062730577161601,
                -1.2848294584243474,
                1.529003781117233,
                0.34995989170426495,
                1.2889864054842424
            ]
        },
        {
            "positions": [
                -0.4632394003165792,
                -1.6402150832493803,
                -1.384248211561993,
                1.5896664979092003,
                0.33090404708082677,
                1.2074701404109087
            ]
        },
        {
            "positions": [
                -0.3619974444577334,
                -1.6741571087826006,
                -1.4836669646996385,
                1.6503292147011677,
                0.31184820245738865,
                1.1259538753375748
            ]
        },
        {
            "positions": [
                -0.2607554885988872,
                -1.708099134315821,
                -1.5830857178372841,
                1.710991931493135,
                0.2927923578339504,
                1.044437610264241
            ]
        },
        {
            "positions": [
                -0.15951353274004143,
                -1.7420411598490413,
                -1.6825044709749297,
                1.7716546482851023,
                0.2737365132105123,
                0.9629213451909071
            ]
        },
        {
            "positions": [
                -0.0582715768811958,
                -1.7759831853822616,
                -1.7819232241125755,
                1.8323173650770694,
                0.2546806685870741,
                0.8814050801175735
            ]
        },
        {
            "positions": [
                -0.032180785034307616,
                -1.8223083147056505,
                -1.8309902903146178,
                1.8813682924120685,
                0.22711462899267462,
                0.8855766997583048
            ]
        },
        {
            "positions": [
                -0.006089993187419436,
                -1.868633444029039,
                -1.88005735651666,
                1.9304192197470678,
                0.19954858939827513,
                0.8897483193990362
            ]
        },
        {
            "positions": [
                -0.013331839322500311,
                -1.980280662990776,
                -1.971305073064672,
                1.9279379809896982,
                0.1511599635186202,
                0.8004648234401782
            ]
        },
        {
            "positions": [
                -0.020573685457581186,
                -2.091927881952513,
                -2.062552789612684,
                1.9254567422323288,
                0.10277133763896529,
                0.7111813274813201
            ]
        },
        {
            "positions": [
                -0.027815531592662063,
                -2.20357510091425,
                -2.1538005061606955,
                1.9229755034749592,
                0.05438271175931038,
                0.6218978315224621
            ]
        },
        {
            "positions": [
                -0.05942567335000281,
                -2.2192622945316827,
                -2.19743088507241,
                1.8439835710312367,
                0.07736861138928774,
                0.49616249395620515
            ]
        },
        {
            "positions": [
                -0.09103581510734356,
                -2.234949488149115,
                -2.2410612639841245,
                1.7649916385875142,
                0.10035451101926512,
                0.3704271563899482
            ]
        },
        {
            "positions": [
                -0.12264595686468428,
                -2.2506366817665477,
                -2.284691642895839,
                1.685999706143792,
                0.12334041064924249,
                0.24469181882369123
            ]
        },
        {
            "positions": [
                -0.15425609862202505,
                -2.2663238753839803,
                -2.3283220218075535,
                1.6070077737000694,
                0.14632631027921988,
                0.1189564812574343
            ]
        },
        {
            "positions": [
                -0.18586624037936578,
                -2.282011069001413,
                -2.371952400719268,
                1.528015841256347,
                0.16931220990919724,
                -0.00677885630882272
            ]
        }
    ]
}