{
    "goal": {
        "global_pose": {
            "orientation": {
                "w": 0.005598929693374612,
                "x": 0.007748599140229565,
                "y": 0.7110244013736278,
                "z": -0.7031023480610252
            },
            "position": {
                "x": -0.8858502320852131,
                "y": -0.7141253447532654,
                "z": 0.3711530566215515
            }
        },
        "name": "move_to_auspresseinheit_C"
    },
    "id": "KPIECE_move_to_auspresseinheit_C_124",
    "joint_names": [
        "shoulder_pan_joint",
        "shoulder_lift_joint",
        "elbow_joint",
        "wrist_1_joint",
        "wrist_2_joint",
        "wrist_3_joint"
    ],
    "metrics": {
        "cart_traj_len": 0.49350624277948785,
        "distance_elbow_joint": 1.0075845098561012,
        "distance_shoulder_lift_joint": 0.328877537673111,
        "distance_shoulder_pan_joint": 0.2566620173324128,
        "distance_wrist_1_joint": 0.6959768737888129,
        "distance_wrist_2_joint": 1.3098969678395274,
        "distance_wrist_3_joint": 0.06889907670606732,
        "smoothness": 8.074349308362242e-16,
        "time": 0.904502945,
        "traj_len": 1.9151754444948466,
        "weighted_distance": 2.4107195975966405
    },
    "planner": "KPIECE",
    "start": {
        "state": {
            "elbow_joint": 1.752795957773711,
            "shoulder_lift_joint": -0.9740617694225064,
            "shoulder_pan_joint": -2.967991417825858,
            "wrist_1_joint": -0.7595177689806859,
            "wrist_2_joint": 1.7443932448377395,
            "wrist_3_joint": 3.199131542505932
        }
    },
    "waypoints": [
        {
            "positions": [
                -2.967991417825858,
                -0.9740617694225064,
                1.752795957773711,
                -0.7595177689806859,
                1.7443932448377395,
                3.199131542505932
            ]
        },
        {
            "positions": [
                -2.9423252160926165,
                -0.9411740156551953,
                1.652037506788101,
                -0.6899200816018046,
                1.6134035480537867,
                3.1922416348353253
            ]
        },
        {
            "positions": [
                -2.9166590143593756,
                -0.9082862618878842,
                1.551279055802491,
                -0.6203223942229233,
                1.482413851269834,
                3.1853517271647185
            ]
        },
        {
            "positions": [
                -2.890992812626134,
                -0.8753985081205732,
                1.4505206048168808,
                -0.5507247068440421,
                1.3514241544858814,
                3.178461819494112
            ]
        },
        {
            "positions": [
                -2.8653266108928928,
                -0.8425107543532621,
                1.3497621538312705,
                -0.48112701946516073,
                1.2204344577019284,
                3.1715719118235053
            ]
        },
        {
            "positions": [
                -2.8396604091596513,
                -0.8096230005859509,
                1.2490037028456604,
                -0.41152933208627945,
                1.0894447609179758,
                3.1646820041528985
            ]
        },
        {
            "positions": [
                -2.8139942074264104,
                -0.7767352468186398,
                1.1482452518600503,
                -0.3419316447073982,
                0.9584550641340231,
                3.1577920964822916
            ]
        },
        {
            "positions": [
                -2.788328005693169,
                -0.7438474930513288,
                1.0474868008744402,
                -0.2723339573285169,
                0.8274653673500704,
                3.150902188811685
            ]
        },
        {
            "positions": [
                -2.7626618039599276,
                -0.7109597392840177,
                0.9467283498888301,
                -0.20273626994963556,
                0.6964756705661175,
                3.1440122811410784
            ]
        },
        {
            "positions": [
                -2.7369956022266866,
                -0.6780719855167066,
                0.84596989890322,
                -0.13313858257075428,
                0.5654859737821649,
                3.1371223734704716
            ]
        },
        {
            "positions": [
                -2.711329400493445,
                -0.6451842317493954,
                0.74521144791761,
                -0.06354089519187305,
                0.434496276998212,
                3.130232465799865
            ]
        }
    ]
}