{
    "goal": {
        "global_pose": {
            "orientation": {
                "w": 0.7031023480610252,
                "x": -0.7110244013736278,
                "y": 0.0077485991402295624,
                "z": 0.005598929693374583
            },
            "position": {
                "x": -0.8841497679147869,
                "y": 0.44412534475326537,
                "z": 0.3711530566215515
            }
        },
        "name": "move_to_auspresseinheit_D"
    },
    "id": "KPIECE_move_to_auspresseinheit_D_37",
    "joint_names": [
        "shoulder_pan_joint",
        "shoulder_lift_joint",
        "elbow_joint",
        "wrist_1_joint",
        "wrist_2_joint",
        "wrist_3_joint"
    ],
    "metrics": {
        "cart_traj_len": 3.847586405525536,
        "distance_elbow_joint": 3.0232295400471907,
        "distance_shoulder_lift_joint": 1.6293015426257176,
        "distance_shoulder_pan_joint": 2.7967855850601557,
        "distance_wrist_1_joint": 3.2861100888941643,
        "distance_wrist_2_joint": 1.2249266333020528,
        "distance_wrist_3_joint": 0.0627846691678342,
        "smoothness": 0.24710759507278707,
        "time": 0.103375261,
        "traj_len": 3.467439697975599,
        "weighted_distance": 4.081634981184501
    },
    "planner": "KPIECE",
    "start": {
        "state": {
            "elbow_joint": 1.8268400409724999,
            "shoulder_lift_joint": -1.0144045787793008,
            "shoulder_pan_joint": 2.6280239544362485,
            "wrist_1_joint": -0.790705565816056,
            "wrist_2_joint": 1.0573557467365533,
            "wrist_3_joint": 3.1851377467193758
        }
    },
    "waypoints": [
        {
            "positions": [
                2.6280239544362485,
                -1.0144045787793008,
                1.8268400409724999,
                -0.790705565816056,
                1.0573557467365533,
                3.1851377467193758
            ]
        },
        {
            "positions": [
                2.588435573377219,
                -0.992165970860597,
                1.6126170179799977,
                -0.7230438815116363,
                1.0404114466159,
                3.180747011077801
            ]
        },
        {
            "positions": [
                2.5488471923181897,
                -0.9699273629418932,
                1.3983939949874957,
                -0.6553821972072168,
                1.0234671464952467,
                3.176356275436226
            ]
        },
        {
            "positions": [
                2.5092588112591603,
                -0.9476887550231895,
                1.1841709719949938,
                -0.5877205129027971,
                1.0065228463745934,
                3.1719655397946513
            ]
        },
        {
            "positions": [
                2.469670430200131,
                -0.9254501471044857,
                0.9699479490024916,
                -0.5200588285983776,
                0.9895785462539403,
                3.1675748041530767
            ]
        },
        {
            "positions": [
                2.430082049141102,
                -0.9032115391857819,
                0.7557249260099894,
                -0.4523971442939579,
                0.9726342461332871,
                3.1631840685115016
            ]
        },
        {
            "positions": [
                2.3904936680820725,
                -0.8809729312670782,
                0.5415019030174875,
                -0.3847354599895383,
                0.9556899460126338,
                3.158793332869927
            ]
        },
        {
            "positions": [
                2.350905287023043,
                -0.8587343233483744,
                0.3272788800249853,
                -0.3170737756851187,
                0.9387456458919805,
                3.1544025972283523
            ]
        },
        {
            "positions": [
                2.3113169059640137,
                -0.8364957154296706,
                0.11305585703248333,
                -0.24941209138069909,
                0.9218013457713273,
                3.150011861586777
            ]
        },
        {
            "positions": [
                2.2717285249049843,
                -0.8142571075109668,
                -0.10116716596001882,
                -0.1817504070762794,
                0.904857045650674,
                3.1456211259452025
            ]
        },
        {
            "positions": [
                2.1656202572732934,
                -0.8763942410482444,
                -0.1487855282693524,
                -0.29814844751777453,
                0.8582297442499709,
                3.1466327802231877
            ]
        },
        {
            "positions": [
                2.0595119896416025,
                -0.9385313745855219,
                -0.19640389057868599,
                -0.4145464879592696,
                0.8116024428492676,
                3.147644434501173
            ]
        },
        {
            "positions": [
                1.9534037220099114,
                -1.0006685081227995,
                -0.24402225288801957,
                -0.5309445284007648,
                0.7649751414485645,
                3.148656088779158
            ]
        },
        {
            "positions": [
                1.8472954543782205,
                -1.062805641660077,
                -0.2916406151973532,
                -0.6473425688422599,
                0.7183478400478613,
                3.1496677430571434
            ]
        },
        {
            "positions": [
                1.7411871867465296,
                -1.1249427751973546,
                -0.33925897750668677,
                -0.7637406092837551,
                0.6717205386471581,
                3.1506793973351286
            ]
        },
        {
            "positions": [
                1.6350789191148385,
                -1.1870799087346322,
                -0.38687733981602035,
                -0.8801386497252502,
                0.6250932372464548,
                3.1516910516131142
            ]
        },
        {
            "positions": [
                1.5289706514831476,
                -1.2492170422719098,
                -0.43449570212535393,
                -0.9965366901667454,
                0.5784659358457517,
                3.1527027058910995
            ]
        },
        {
            "positions": [
                1.4228623838514567,
                -1.3113541758091871,
                -0.4821140644346875,
                -1.1129347306082404,
                0.5318386344450485,
                3.1537143601690847
            ]
        },
        {
            "positions": [
                1.3167541162197658,
                -1.373491309346465,
                -0.5297324267440211,
                -1.2293327710497357,
                0.4852113330443453,
                3.15472601444707
            ]
        },
        {
            "positions": [
                1.210645848588075,
                -1.4356284428837423,
                -0.5773507890533547,
                -1.3457308114912307,
                0.4385840316436421,
                3.155737668725055
            ]
        },
        {
            "positions": [
                1.1045375809563838,
                -1.4977655764210198,
                -0.6249691513626883,
                -1.4621288519327258,
                0.391956730242939,
                3.1567493230030403
            ]
        },
        {
            "positions": [
                0.9984293133246929,
                -1.5599027099582974,
                -0.6725875136720219,
                -1.578526892374221,
                0.3453294288422357,
                3.1577609772810256
            ]
        },
        {
            "positions": [
                0.892321045693002,
                -1.6220398434955747,
                -0.7202058759813554,
                -1.694924932815716,
                0.29870212744153257,
                3.158772631559011
            ]
        },
        {
            "positions": [
                0.7862127780613108,
                -1.6841769770328525,
                -0.767824238290689,
                -1.8113229732572114,
                0.2520748260408293,
                3.159784285836996
            ]
        },
        {
            "positions": [
                0.68010451042962,
                -1.74631411057013,
                -0.8154426006000226,
                -1.9277210136987064,
                0.20544752464012617,
                3.160795940114981
            ]
        },
        {
            "positions": [
                0.573996242797929,
                -1.8084512441074074,
                -0.8630609629093562,
                -2.0441190541402015,
                0.15882022323942302,
                3.1618075943929664
            ]
        },
        {
            "positions": [
                0.46788797516623815,
                -1.870588377644685,
                -0.9106793252186898,
                -2.1605170945816963,
                0.11219292183871987,
                3.1628192486709517
            ]
        },
        {
            "positions": [
                0.361779707534547,
                -1.9327255111819628,
                -0.9582976875280234,
                -2.276915135023192,
                0.06556562043801661,
                3.1638309029489373
            ]
        },
        {
            "positions": [
                0.2556714399028559,
                -1.9948626447192401,
                -1.005916049837357,
                -2.393313175464687,
                0.018938319037313467,
                3.1648425572269225
            ]
        },
        {
            "positions": [
                0.14956317227116545,
                -2.0569997782565177,
                -1.0535344121466905,
                -2.509711215906182,
                -0.02768898236338979,
                3.1658542115049078
            ]
        },
        {
            "positions": [
                0.043454904639474545,
                -2.1191369117937953,
                -1.1011527744560239,
                -2.626109256347677,
                -0.07431628376409294,
                3.166865865782893
            ]
        },
        {
            "positions": [
                -0.0626533629922168,
                -2.181274045331073,
                -1.1487711367653577,
                -2.742507296789172,
                -0.12094358516479609,
                3.167877520060878
            ]
        },
        {
            "positions": [
                -0.16876163062390775,
                -2.2434111788683504,
                -1.1963894990746913,
                -2.8589053372306674,
                -0.16757088656549943,
                3.1688891743388634
            ]
        }
    ]
}