{
    "goal": {
        "global_pose": {
            "orientation": {
                "w": 0.5084816217422485,
                "x": -0.49083608388900757,
                "y": 0.5182115435600281,
                "z": -0.4816462993621826
            },
            "position": {
                "x": 0.5540239810943604,
                "y": 0.030875300988554955,
                "z": 0.16403168439865112
            }
        },
        "name": "move_to_storage_A"
    },
    "id": "KPIECE_move_to_storage_A_118",
    "joint_names": [
        "shoulder_pan_joint",
        "shoulder_lift_joint",
        "elbow_joint",
        "wrist_1_joint",
        "wrist_2_joint",
        "wrist_3_joint"
    ],
    "metrics": {
        "cart_traj_len": 0.3525825368528399,
        "distance_elbow_joint": 0.4530545865140114,
        "distance_shoulder_lift_joint": 0.233955828187705,
        "distance_shoulder_pan_joint": 0.46229601664289466,
        "distance_wrist_1_joint": 0.25984563830191953,
        "distance_wrist_2_joint": 1.0922617413141267,
        "distance_wrist_3_joint": 0.11028491345996372,
        "smoothness": 0.0,
        "time": 0.021972239999999997,
        "traj_len": 1.6160750986326784,
        "weighted_distance": 2.0455747189864746
    },
    "planner": "KPIECE",
    "start": {
        "state": {
            "elbow_joint": 1.9715474177455299,
            "shoulder_lift_joint": -1.139484666580328,
            "shoulder_pan_joint": 0.12281154398918248,
            "wrist_1_joint": -0.7804687475355282,
            "wrist_2_joint": 0.12958649657246987,
            "wrist_3_joint": -3.1924925159053466
        }
    },
    "waypoints": [
        {
            "positions": [
                0.12281154398918248,
                -1.139484666580328,
                1.9715474177455299,
                -0.7804687475355282,
                0.12958649657246987,
                -3.1924925159053466
            ]
        },
        {
            "positions": [
                0.05676925589734039,
                -1.1729069277500002,
                2.036269501533246,
                -0.817589553007231,
                0.2856238881887737,
                -3.176737528268209
            ]
        },
        {
            "positions": [
                -0.009273032194501707,
                -1.2063291889196723,
                2.1009915853209615,
                -0.8547103584789337,
                0.4416612798050775,
                -3.160982540631071
            ]
        },
        {
            "positions": [
                -0.0753153202863438,
                -1.2397514500893445,
                2.1657136691086776,
                -0.8918311639506366,
                0.5976986714213813,
                -3.1452275529939335
            ]
        },
        {
            "positions": [
                -0.1413576083781859,
                -1.2731737112590165,
                2.2304357528963936,
                -0.9289519694223394,
                0.7537360630376851,
                -3.129472565356796
            ]
        },
        {
            "positions": [
                -0.207399896470028,
                -1.3065959724286886,
                2.2951578366841097,
                -0.9660727748940421,
                0.909773454653989,
                -3.113717577719658
            ]
        },
        {
            "positions": [
                -0.2734421845618701,
                -1.3400182335983608,
                2.3598799204718253,
                -1.003193580365745,
                1.0658108462702927,
                -3.0979625900825205
            ]
        },
        {
            "positions": [
                -0.3394844726537122,
                -1.373440494768033,
                2.4246020042595413,
                -1.0403143858374477,
                1.2218482378865965,
                -3.082207602445383
            ]
        }
    ]
}