{
    "goal": {
        "global_pose": {
            "orientation": {
                "w": 0.005598929693374612,
                "x": 0.007748599140229565,
                "y": 0.7110244013736278,
                "z": -0.7031023480610252
            },
            "position": {
                "x": 0.1141497679147869,
                "y": -0.7141253447532654,
                "z": 0.3711530566215515
            }
        },
        "name": "move_to_auspresseinheit_B"
    },
    "id": "KPIECE_move_to_auspresseinheit_B_55",
    "joint_names": [
        "shoulder_pan_joint",
        "shoulder_lift_joint",
        "elbow_joint",
        "wrist_1_joint",
        "wrist_2_joint",
        "wrist_3_joint"
    ],
    "metrics": {
        "cart_traj_len": 0.564827919093585,
        "distance_elbow_joint": 0.06670589901525714,
        "distance_shoulder_lift_joint": 0.2924369123863291,
        "distance_shoulder_pan_joint": 0.5771744131863803,
        "distance_wrist_1_joint": 0.33762704987575365,
        "distance_wrist_2_joint": 0.9912448829034988,
        "distance_wrist_3_joint": 0.007703211618992789,
        "smoothness": 0.0,
        "time": 0.268788428,
        "traj_len": 1.507611478128968,
        "weighted_distance": 1.9018860967480282
    },
    "planner": "KPIECE",
    "start": {
        "state": {
            "elbow_joint": 2.019306165916698,
            "shoulder_lift_joint": -1.1220205098164344,
            "shoulder_pan_joint": -1.095207207618794,
            "wrist_1_joint": -0.8559671824921639,
            "wrist_2_joint": 0.47596387242952726,
            "wrist_3_joint": 3.159081874673826
        }
    },
    "waypoints": [
        {
            "positions": [
                -1.095207207618794,
                -1.1220205098164344,
                2.019306165916698,
                -0.8559671824921639,
                0.47596387242952726,
                3.159081874673826
            ]
        },
        {
            "positions": [
                -1.1914029431498574,
                -1.1707599952141559,
                2.0081885160808217,
                -0.7996960075128716,
                0.6411713529134437,
                3.1577980060706605
            ]
        },
        {
            "positions": [
                -1.2875986786809208,
                -1.2194994806118775,
                1.9970708662449457,
                -0.7434248325335793,
                0.8063788333973602,
                3.1565141374674948
            ]
        },
        {
            "positions": [
                -1.3837944142119842,
                -1.268238966009599,
                1.9859532164090694,
                -0.687153657554287,
                0.9715863138812766,
                3.1552302688643294
            ]
        },
        {
            "positions": [
                -1.4799901497430474,
                -1.3169784514073204,
                1.9748355665731931,
                -0.6308824825749948,
                1.1367937943651931,
                3.153946400261164
            ]
        },
        {
            "positions": [
                -1.5761858852741109,
                -1.365717936805042,
                1.963717916737317,
                -0.5746113075957024,
                1.3020012748491097,
                3.1526625316579984
            ]
        },
        {
            "positions": [
                -1.6723816208051743,
                -1.4144574222027635,
                1.9526002669014408,
                -0.5183401326164102,
                1.467208755333026,
                3.151378663054833
            ]
        }
    ]
}