{
    "goal": {
        "global_pose": {
            "orientation": {
                "w": 0.005598929693374612,
                "x": 0.007748599140229565,
                "y": 0.7110244013736278,
                "z": -0.7031023480610252
            },
            "position": {
                "x": 0.1141497679147869,
                "y": -0.7141253447532654,
                "z": 0.3711530566215515
            }
        },
        "name": "move_to_auspresseinheit_B"
    },
    "id": "KPIECE_move_to_auspresseinheit_B_103",
    "joint_names": [
        "shoulder_pan_joint",
        "shoulder_lift_joint",
        "elbow_joint",
        "wrist_1_joint",
        "wrist_2_joint",
        "wrist_3_joint"
    ],
    "metrics": {
        "cart_traj_len": 0.5640070445258022,
        "distance_elbow_joint": 0.06266207495017362,
        "distance_shoulder_lift_joint": 0.2949413956424578,
        "distance_shoulder_pan_joint": 0.5738448657986592,
        "distance_wrist_1_joint": 0.32881853806020267,
        "distance_wrist_2_joint": 1.0078600879373996,
        "distance_wrist_3_joint": 0.009688899169375986,
        "smoothness": 6.344131583732827e-16,
        "time": 0.5154413210000001,
        "traj_len": 1.5092434732534936,
        "weighted_distance": 1.9062718289621297
    },
    "planner": "KPIECE",
    "start": {
        "state": {
            "elbow_joint": 2.019306165916698,
            "shoulder_lift_joint": -1.1220205098164344,
            "shoulder_pan_joint": -1.095207207618794,
            "wrist_1_joint": -0.8559671824921639,
            "wrist_2_joint": 0.47596387242952726,
            "wrist_3_joint": 3.159081874673826
        }
    },
    "waypoints": [
        {
            "positions": [
                -1.095207207618794,
                -1.1220205098164344,
                2.019306165916698,
                -0.8559671824921639,
                0.47596387242952726,
                3.159081874673826
            ]
        },
        {
            "positions": [
                -1.1908480185852373,
                -1.1711774090901774,
                2.0088624867583356,
                -0.8011640928154634,
                0.6439405537524272,
                3.1606966912020553
            ]
        },
        {
            "positions": [
                -1.2864888295516803,
                -1.2203343083639204,
                1.9984188075999734,
                -0.746361003138763,
                0.8119172350753271,
                3.1623115077302844
            ]
        },
        {
            "positions": [
                -1.3821296405181236,
                -1.2694912076376634,
                1.9879751284416112,
                -0.6915579134620625,
                0.979893916398227,
                3.163926324258514
            ]
        },
        {
            "positions": [
                -1.4777704514845666,
                -1.3186481069114062,
                1.977531449283249,
                -0.6367548237853621,
                1.147870597721127,
                3.1655411407867433
            ]
        },
        {
            "positions": [
                -1.57341126245101,
                -1.3678050061851492,
                1.9670877701248866,
                -0.5819517341086616,
                1.315847279044027,
                3.1671559573149723
            ]
        },
        {
            "positions": [
                -1.6690520734174532,
                -1.4169619054588922,
                1.9566440909665244,
                -0.5271486444319612,
                1.4838239603669268,
                3.168770773843202
            ]
        }
    ]
}