{
    "goal": {
        "global_pose": {
            "orientation": {
                "w": -0.00223480608172531,
                "x": 0.0024358444001904467,
                "y": 0.7094548369677653,
                "z": -0.704743149386269
            },
            "position": {
                "x": -0.37947507619857795,
                "y": -0.6371506643295288,
                "z": 0.19426114857196808
            }
        },
        "name": "move_to_magneteinheit_C"
    },
    "id": "KPIECE_move_to_magneteinheit_C_87",
    "joint_names": [
        "shoulder_pan_joint",
        "shoulder_lift_joint",
        "elbow_joint",
        "wrist_1_joint",
        "wrist_2_joint",
        "wrist_3_joint"
    ],
    "metrics": {
        "cart_traj_len": 1.799568871113977,
        "distance_elbow_joint": 0.6383796992081558,
        "distance_shoulder_lift_joint": 1.393450270130296,
        "distance_shoulder_pan_joint": 1.64899954636953,
        "distance_wrist_1_joint": 5.221891109687515,
        "distance_wrist_2_joint": 4.161646089738401,
        "distance_wrist_3_joint": 5.079286023994407,
        "smoothness": 0.679674338464709,
        "time": 3.2703130209999998,
        "traj_len": 4.259536681275125,
        "weighted_distance": 6.138873022513419
    },
    "planner": "KPIECE",
    "start": {
        "state": {
            "elbow_joint": 1.9565354006590394,
            "shoulder_lift_joint": -1.4165861576513559,
            "shoulder_pan_joint": -1.6717766223277177,
            "wrist_1_joint": -0.5286633288215096,
            "wrist_2_joint": 1.4727565892594296,
            "wrist_3_joint": 3.1593482883155493
        }
    },
    "waypoints": [
        {
            "positions": [
                -1.6717766223277177,
                -1.4165861576513559,
                1.9565354006590394,
                -0.5286633288215096,
                1.4727565892594296,
                3.1593482883155493
            ]
        },
        {
            "positions": [
                -1.7207618876089399,
                -1.4393758404475825,
                1.944808507795668,
                -0.4301480178108319,
                1.3736304690001575,
                3.057032451928663
            ]
        },
        {
            "positions": [
                -1.769747152890162,
                -1.462165523243809,
                1.933081614932297,
                -0.3316327068001542,
                1.2745043487408854,
                2.954716615541777
            ]
        },
        {
            "positions": [
                -1.8187324181713842,
                -1.4849552060400357,
                1.9213547220689255,
                -0.2331173957894765,
                1.1753782284816134,
                2.8524007791548907
            ]
        },
        {
            "positions": [
                -1.8677176834526064,
                -1.5077448888362623,
                1.9096278292055544,
                -0.13460208477879881,
                1.0762521082223413,
                2.7500849427680047
            ]
        },
        {
            "positions": [
                -1.9167029487338287,
                -1.530534571632489,
                1.897900936342183,
                -0.03608677376812108,
                0.9771259879630692,
                2.6477691063811184
            ]
        },
        {
            "positions": [
                -1.965688214015051,
                -1.5533242544287156,
                1.886174043478812,
                0.06242853724255659,
                0.8779998677037972,
                2.5454532699942325
            ]
        },
        {
            "positions": [
                -2.014673479296273,
                -1.5761139372249422,
                1.8744471506154405,
                0.16094384825323427,
                0.778873747444525,
                2.443137433607346
            ]
        },
        {
            "positions": [
                -2.063658744577495,
                -1.5989036200211688,
                1.8627202577520694,
                0.25945915926391194,
                0.679747627185253,
                2.34082159722046
            ]
        },
        {
            "positions": [
                -2.1126440098587174,
                -1.6216933028173954,
                1.850993364888698,
                0.3579744702745896,
                0.5806215069259809,
                2.238505760833574
            ]
        },
        {
            "positions": [
                -2.1616292751399397,
                -1.644482985613622,
                1.8392664720253267,
                0.4564897812852674,
                0.48149538666670877,
                2.136189924446688
            ]
        },
        {
            "positions": [
                -2.2106145404211617,
                -1.6672726684098484,
                1.8275395791619555,
                0.555005092295945,
                0.38236926640743674,
                2.0338740880598016
            ]
        },
        {
            "positions": [
                -2.259599805702384,
                -1.690062351206075,
                1.8158126862985842,
                0.6535204033066228,
                0.2832431461481648,
                1.9315582516729155
            ]
        },
        {
            "positions": [
                -2.308585070983606,
                -1.7128520340023017,
                1.804085793435213,
                0.7520357143173003,
                0.18411702588889245,
                1.8292424152860292
            ]
        },
        {
            "positions": [
                -2.3575703362648284,
                -1.7356417167985283,
                1.7923589005718417,
                0.8505510253279781,
                0.0849909056296203,
                1.726926578899143
            ]
        },
        {
            "positions": [
                -2.4065556015460503,
                -1.758431399594755,
                1.7806320077084705,
                0.9490663363386557,
                -0.014135214629651616,
                1.624610742512257
            ]
        },
        {
            "positions": [
                -2.4555408668272727,
                -1.7812210823909815,
                1.7689051148450992,
                1.0475816473493333,
                -0.11326133488892376,
                1.5222949061253708
            ]
        },
        {
            "positions": [
                -2.504526132108495,
                -1.8040107651872082,
                1.7571782219817278,
                1.1460969583600114,
                -0.2123874551481959,
                1.4199790697384844
            ]
        },
        {
            "positions": [
                -2.553511397389717,
                -1.8268004479834348,
                1.7454513291183567,
                1.244612269370689,
                -0.3115135754074678,
                1.3176632333515985
            ]
        },
        {
            "positions": [
                -2.6024966626709394,
                -1.8495901307796614,
                1.7337244362549853,
                1.3431275803813665,
                -0.41063969566673997,
                1.2153473969647124
            ]
        },
        {
            "positions": [
                -2.6514819279521613,
                -1.872379813575888,
                1.7219975433916141,
                1.4416428913920445,
                -0.5097658159260121,
                1.1130315605778263
            ]
        },
        {
            "positions": [
                -2.7004671932333837,
                -1.8951694963721146,
                1.7102706505282428,
                1.540158202402722,
                -0.6088919361852838,
                1.01071572419094
            ]
        },
        {
            "positions": [
                -2.7494524585146056,
                -1.9179591791683412,
                1.6985437576648716,
                1.6386735134133996,
                -0.7080180564445562,
                0.908399887804054
            ]
        },
        {
            "positions": [
                -2.798437723795828,
                -1.9407488619645679,
                1.6868168648015003,
                1.7371888244240776,
                -0.8071441767038285,
                0.8060840514171677
            ]
        },
        {
            "positions": [
                -2.8474229890770504,
                -1.9635385447607945,
                1.675089971938129,
                1.8357041354347552,
                -0.9062702969631,
                0.7037682150302818
            ]
        },
        {
            "positions": [
                -2.8964082543582723,
                -1.986328227557021,
                1.6633630790747578,
                1.9342194464454328,
                -1.0053964172223724,
                0.6014523786433954
            ]
        },
        {
            "positions": [
                -2.8771188037065007,
                -1.9488869457286289,
                1.6790543235122066,
                1.808809976699043,
                -0.9288740043470725,
                0.7160610202034978
            ]
        },
        {
            "positions": [
                -2.857829353054729,
                -1.9114456639002364,
                1.6947455679496555,
                1.6834005069526534,
                -0.8523515914717725,
                0.8306696617636002
            ]
        },
        {
            "positions": [
                -2.8385399024029576,
                -1.8740043820718442,
                1.7104368123871043,
                1.5579910372062638,
                -0.7758291785964726,
                0.9452783033237027
            ]
        },
        {
            "positions": [
                -2.819250451751186,
                -1.836563100243452,
                1.7261280568245532,
                1.4325815674598739,
                -0.6993067657211727,
                1.059886944883805
            ]
        },
        {
            "positions": [
                -2.7999610010994145,
                -1.7991218184150595,
                1.741819301262002,
                1.3071720977134842,
                -0.6227843528458727,
                1.1744955864439075
            ]
        },
        {
            "positions": [
                -2.7806715504476425,
                -1.7616805365866672,
                1.7575105456994506,
                1.1817626279670945,
                -0.5462619399705728,
                1.28910422800401
            ]
        },
        {
            "positions": [
                -2.761382099795871,
                -1.724239254758275,
                1.7732017901368995,
                1.0563531582207049,
                -0.4697395270952728,
                1.4037128695641123
            ]
        },
        {
            "positions": [
                -2.7420926491440993,
                -1.6867979729298828,
                1.7888930345743483,
                0.930943688474315,
                -0.39321711421997285,
                1.518321511124215
            ]
        },
        {
            "positions": [
                -2.7228031984923278,
                -1.6493566911014903,
                1.8045842790117972,
                0.8055342187279253,
                -0.3166947013446729,
                1.6329301526843174
            ]
        },
        {
            "positions": [
                -2.703513747840556,
                -1.611915409273098,
                1.820275523449246,
                0.6801247489815356,
                -0.240172288469373,
                1.7475387942444198
            ]
        },
        {
            "positions": [
                -2.6842242971887846,
                -1.5744741274447058,
                1.8359667678866949,
                0.554715279235146,
                -0.16364987559407307,
                1.8621474358045222
            ]
        },
        {
            "positions": [
                -2.664934846537013,
                -1.5370328456163134,
                1.8516580123241437,
                0.4293058094887563,
                -0.08712746271877325,
                1.9767560773646247
            ]
        },
        {
            "positions": [
                -2.6456453958852415,
                -1.4995915637879211,
                1.8673492567615926,
                0.3038963397423664,
                -0.010605049843473102,
                2.0913647189247273
            ]
        },
        {
            "positions": [
                -2.62635594523347,
                -1.462150281959529,
                1.8830405011990414,
                0.17848686999597696,
                0.06591736303182683,
                2.2059733604848297
            ]
        },
        {
            "positions": [
                -2.6070664945816984,
                -1.4247090001311364,
                1.89873174563649,
                0.05307740024958729,
                0.14243977590712653,
                2.320582002044932
            ]
        },
        {
            "positions": [
                -2.5877770439299264,
                -1.3872677183027442,
                1.914422990073939,
                -0.07233206949680282,
                0.21896218878242668,
                2.4351906436050346
            ]
        },
        {
            "positions": [
                -2.568487593278155,
                -1.349826436474352,
                1.9301142345113877,
                -0.19774153924319204,
                0.2954846016577266,
                2.549799285165137
            ]
        },
        {
            "positions": [
                -2.5491981426263832,
                -1.3123851546459595,
                1.9458054789488366,
                -0.32315100898958216,
                0.37200701453302654,
                2.6644079267252394
            ]
        },
        {
            "positions": [
                -2.5299086919746117,
                -1.2749438728175673,
                1.9614967233862854,
                -0.4485604787359718,
                0.44852942740832646,
                2.779016568285342
            ]
        },
        {
            "positions": [
                -2.51061924132284,
                -1.237502590989175,
                1.9771879678237343,
                -0.5739699484823615,
                0.5250518402836264,
                2.8936252098454442
            ]
        },
        {
            "positions": [
                -2.4913297906710685,
                -1.2000613091607826,
                1.9928792122611831,
                -0.6993794182287512,
                0.6015742531589263,
                3.0082338514055467
            ]
        },
        {
            "positions": [
                -2.472040340019297,
                -1.1626200273323903,
                2.008570456698632,
                -0.8247888879751409,
                0.6780966660342262,
                3.122842492965649
            ]
        }
    ]
}