{
    "goal": {
        "global_pose": {
            "orientation": {
                "w": 0.7031023502349854,
                "x": -0.7110244035720825,
                "y": 0.007748599164187908,
                "z": 0.005598929710686207
            },
            "position": {
                "x": 0.11585023208521307,
                "y": 0.44412534475326537,
                "z": 0.3711530566215515
            }
        },
        "name": "move_to_auspresseinheit_A"
    },
    "id": "KPIECE_move_to_auspresseinheit_A_57",
    "joint_names": [
        "shoulder_pan_joint",
        "shoulder_lift_joint",
        "elbow_joint",
        "wrist_1_joint",
        "wrist_2_joint",
        "wrist_3_joint"
    ],
    "metrics": {
        "cart_traj_len": 0.6915418152510536,
        "distance_elbow_joint": 0.08143555913926415,
        "distance_shoulder_lift_joint": 0.5321992625366982,
        "distance_shoulder_pan_joint": 1.0473641419224853,
        "distance_wrist_1_joint": 0.6905531957063907,
        "distance_wrist_2_joint": 0.517036360846797,
        "distance_wrist_3_joint": 0.3063885091094263,
        "smoothness": 0.6514673847902754,
        "time": 0.583677888,
        "traj_len": 1.781846522364107,
        "weighted_distance": 2.235026533183242
    },
    "planner": "KPIECE",
    "start": {
        "state": {
            "elbow_joint": 2.4225747245308327,
            "shoulder_lift_joint": -1.373653427065438,
            "shoulder_pan_joint": -0.33786330853087027,
            "wrist_1_joint": -1.0288602302712604,
            "wrist_2_joint": 1.23302299562683,
            "wrist_3_joint": -3.094021725338297
        }
    },
    "waypoints": [
        {
            "positions": [
                -0.33786330853087027,
                -1.373653427065438,
                2.4225747245308327,
                -1.0288602302712604,
                1.23302299562683,
                -3.094021725338297
            ]
        },
        {
            "positions": [
                -0.20298154519502476,
                -1.4488037947846404,
                2.414442843300828,
                -0.938433614131688,
                1.1700572318932154,
                -3.075648601074998
            ]
        },
        {
            "positions": [
                -0.06809978185917925,
                -1.5239541625038429,
                2.406310962070823,
                -0.8480069979921157,
                1.1070914681596011,
                -3.0572754768116988
            ]
        },
        {
            "positions": [
                0.06678198147666625,
                -1.5991045302230453,
                2.3981790808408183,
                -0.7575803818525433,
                1.0441257044259866,
                -3.0389023525483996
            ]
        },
        {
            "positions": [
                0.20166374481251176,
                -1.674254897942248,
                2.3900471996108132,
                -0.667153765712971,
                0.9811599406923722,
                -3.0205292282851004
            ]
        },
        {
            "positions": [
                0.3365455081483573,
                -1.7494052656614505,
                2.3819153183808086,
                -0.5767271495733985,
                0.9181941769587578,
                -3.002156104021801
            ]
        },
        {
            "positions": [
                0.47142727148420277,
                -1.824555633380653,
                2.3737834371508035,
                -0.4863005334338263,
                0.8552284132251433,
                -2.983782979758502
            ]
        },
        {
            "positions": [
                0.6063090348200484,
                -1.8997060010998554,
                2.365651555920799,
                -0.3958739172942539,
                0.7922626494915289,
                -2.965409855495203
            ]
        },
        {
            "positions": [
                0.6579049341058317,
                -1.9027793453509958,
                2.377907751185414,
                -0.42465735865894605,
                0.7541246421357809,
                -3.054298175128369
            ]
        },
        {
            "positions": [
                0.7095008333916151,
                -1.9058526896021362,
                2.3901639464500293,
                -0.4534408000236382,
                0.7159866347800329,
                -3.143186494761535
            ]
        }
    ]
}