{
    "goal": {
        "global_pose": {
            "orientation": {
                "w": 0.005598929693374612,
                "x": 0.007748599140229565,
                "y": 0.7110244013736278,
                "z": -0.7031023480610252
            },
            "position": {
                "x": 0.1141497679147869,
                "y": -0.7141253447532654,
                "z": 0.3711530566215515
            }
        },
        "name": "move_to_auspresseinheit_B"
    },
    "id": "KPIECE_move_to_auspresseinheit_B_40",
    "joint_names": [
        "shoulder_pan_joint",
        "shoulder_lift_joint",
        "elbow_joint",
        "wrist_1_joint",
        "wrist_2_joint",
        "wrist_3_joint"
    ],
    "metrics": {
        "cart_traj_len": 0.5644408784538701,
        "distance_elbow_joint": 0.05989222431832042,
        "distance_shoulder_lift_joint": 0.29642241448595597,
        "distance_shoulder_pan_joint": 0.5757147114711374,
        "distance_wrist_1_joint": 0.31771187600850914,
        "distance_wrist_2_joint": 0.9992831801827651,
        "distance_wrist_3_joint": 0.006088693032343162,
        "smoothness": 0.0,
        "time": 0.14069946,
        "traj_len": 1.5017033993099407,
        "weighted_distance": 1.8932209437239467
    },
    "planner": "KPIECE",
    "start": {
        "state": {
            "elbow_joint": 2.019306165916698,
            "shoulder_lift_joint": -1.1220205098164344,
            "shoulder_pan_joint": -1.095207207618794,
            "wrist_1_joint": -0.8559671824921639,
            "wrist_2_joint": 0.47596387242952726,
            "wrist_3_joint": 3.159081874673826
        }
    },
    "waypoints": [
        {
            "positions": [
                -1.095207207618794,
                -1.1220205098164344,
                2.019306165916698,
                -0.8559671824921639,
                0.47596387242952726,
                3.159081874673826
            ]
        },
        {
            "positions": [
                -1.1911596595306502,
                -1.1714242455640937,
                2.009324128530311,
                -0.8030152031574124,
                0.6425110691266548,
                3.158067092501769
            ]
        },
        {
            "positions": [
                -1.2871121114425064,
                -1.220827981311753,
                1.9993420911439246,
                -0.7500632238226608,
                0.8090582658237823,
                3.1570523103297115
            ]
        },
        {
            "positions": [
                -1.3830645633543628,
                -1.2702317170594124,
                1.9893600537575378,
                -0.6971112444879093,
                0.9756054625209098,
                3.156037528157654
            ]
        },
        {
            "positions": [
                -1.4790170152662188,
                -1.3196354528070717,
                1.979378016371151,
                -0.6441592651531578,
                1.1421526592180373,
                3.155022745985597
            ]
        },
        {
            "positions": [
                -1.5749694671780752,
                -1.369039188554731,
                1.9693959789847644,
                -0.5912072858184062,
                1.3086998559151648,
                3.15400796381354
            ]
        },
        {
            "positions": [
                -1.6709219190899314,
                -1.4184429243023904,
                1.9594139415983776,
                -0.5382553064836547,
                1.4752470526122923,
                3.1529931816414827
            ]
        }
    ]
}