{
    "goal": {
        "global_pose": {
            "orientation": {
                "w": 0.7031023480610252,
                "x": -0.7110244013736278,
                "y": 0.0077485991402295624,
                "z": 0.005598929693374583
            },
            "position": {
                "x": -0.8841497679147869,
                "y": 0.44412534475326537,
                "z": 0.3711530566215515
            }
        },
        "name": "move_to_auspresseinheit_D"
    },
    "id": "KPIECE_move_to_auspresseinheit_D_107",
    "joint_names": [
        "shoulder_pan_joint",
        "shoulder_lift_joint",
        "elbow_joint",
        "wrist_1_joint",
        "wrist_2_joint",
        "wrist_3_joint"
    ],
    "metrics": {
        "cart_traj_len": 1.2239645647969648,
        "distance_elbow_joint": 0.6848119693239743,
        "distance_shoulder_lift_joint": 0.9518584396234131,
        "distance_shoulder_pan_joint": 0.7702515296617092,
        "distance_wrist_1_joint": 3.3214984956330835,
        "distance_wrist_2_joint": 3.6663670922539087,
        "distance_wrist_3_joint": 3.2643614375288,
        "smoothness": 0.24328681844421637,
        "time": 1.163551337,
        "traj_len": 3.5579697812130013,
        "weighted_distance": 5.116222964939026
    },
    "planner": "KPIECE",
    "start": {
        "state": {
            "elbow_joint": 1.8268400409724999,
            "shoulder_lift_joint": -1.0144045787793008,
            "shoulder_pan_joint": 2.6280239544362485,
            "wrist_1_joint": -0.790705565816056,
            "wrist_2_joint": 1.0573557467365533,
            "wrist_3_joint": 3.1851377467193758
        }
    },
    "waypoints": [
        {
            "positions": [
                2.6280239544362485,
                -1.0144045787793008,
                1.8268400409724999,
                -0.790705565816056,
                1.0573557467365533,
                3.1851377467193758
            ]
        },
        {
            "positions": [
                2.606883308304876,
                -1.0325957942504458,
                1.803598668771588,
                -0.6878843031813151,
                0.9955569253342877,
                3.03064479407268
            ]
        },
        {
            "positions": [
                2.5857426621735033,
                -1.050787009721591,
                1.7803572965706762,
                -0.5850630405465742,
                0.9337581039320222,
                2.8761518414259846
            ]
        },
        {
            "positions": [
                2.564602016042131,
                -1.068978225192736,
                1.7571159243697643,
                -0.4822417779118333,
                0.8719592825297566,
                2.721658888779289
            ]
        },
        {
            "positions": [
                2.543461369910758,
                -1.087169440663881,
                1.7338745521688526,
                -0.3794205152770924,
                0.8101604611274911,
                2.567165936132594
            ]
        },
        {
            "positions": [
                2.522320723779386,
                -1.1053606561350262,
                1.7106331799679406,
                -0.2765992526423514,
                0.7483616397252255,
                2.412672983485898
            ]
        },
        {
            "positions": [
                2.501180077648013,
                -1.1235518716061712,
                1.687391807767029,
                -0.17377799000761063,
                0.68656281832296,
                2.2581800308392026
            ]
        },
        {
            "positions": [
                2.4800394315166407,
                -1.1417430870773162,
                1.664150435566117,
                -0.07095672737286962,
                0.6247639969206943,
                2.103687078192507
            ]
        },
        {
            "positions": [
                2.458898785385268,
                -1.1599343025484614,
                1.6409090633652053,
                0.03186453526187116,
                0.5629651755184288,
                1.9491941255458116
            ]
        },
        {
            "positions": [
                2.4377581392538956,
                -1.1781255180196064,
                1.6176676911642933,
                0.13468579789661217,
                0.5011663541161632,
                1.794701172899116
            ]
        },
        {
            "positions": [
                2.4166174931225233,
                -1.1963167334907514,
                1.5944263189633814,
                0.23750706053135318,
                0.4393675327138976,
                1.6402082202524204
            ]
        },
        {
            "positions": [
                2.3954768469911505,
                -1.2145079489618966,
                1.5711849467624697,
                0.34032832316609407,
                0.37756871131163194,
                1.4857152676057248
            ]
        },
        {
            "positions": [
                2.374336200859778,
                -1.2326991644330416,
                1.547943574561558,
                0.44314958580083474,
                0.3157698899093665,
                1.3312223149590294
            ]
        },
        {
            "positions": [
                2.3531955547284054,
                -1.2508903799041866,
                1.524702202360646,
                0.5459708484355759,
                0.25397106850710094,
                1.1767293623123338
            ]
        },
        {
            "positions": [
                2.332054908597033,
                -1.2690815953753318,
                1.501460830159734,
                0.6487921110703168,
                0.19217224710483527,
                1.0222364096656382
            ]
        },
        {
            "positions": [
                2.3109142624656602,
                -1.2872728108464768,
                1.4782194579588221,
                0.7516133737050577,
                0.1303734257025697,
                0.8677434570189426
            ]
        },
        {
            "positions": [
                2.289773616334288,
                -1.3054640263176218,
                1.4549780857579104,
                0.8544346363397983,
                0.06857460430030426,
                0.7132505043722475
            ]
        },
        {
            "positions": [
                2.2686329702029155,
                -1.323655241788767,
                1.4317367135569987,
                0.9572558989745394,
                0.006775782898038596,
                0.5587575517255519
            ]
        },
        {
            "positions": [
                2.2474923240715428,
                -1.341846457259912,
                1.4084953413560868,
                1.0600771616092803,
                -0.055023038504226934,
                0.40426459907885637
            ]
        },
        {
            "positions": [
                2.3142861070337384,
                -1.3180680551829358,
                1.440869628000666,
                1.0858347929890422,
                -0.15610600568087438,
                0.31907698314271443
            ]
        },
        {
            "positions": [
                2.381079889995934,
                -1.2942896531059593,
                1.4732439146452452,
                1.111592424368804,
                -0.25718897285752185,
                0.23388936720657247
            ]
        },
        {
            "positions": [
                2.4478736729581296,
                -1.270511251028983,
                1.5056182012898245,
                1.1373500557485658,
                -0.3582719400341693,
                0.1487017512704305
            ]
        },
        {
            "positions": [
                2.46348170408509,
                -1.2296119452424308,
                1.499360464277172,
                1.2431773419551728,
                -0.5376947801632856,
                0.1325080003242458
            ]
        },
        {
            "positions": [
                2.47908973521205,
                -1.1887126394558785,
                1.4931027272645194,
                1.3490046281617798,
                -0.7171176202924019,
                0.11631424937806109
            ]
        },
        {
            "positions": [
                2.4946977663390104,
                -1.1478133336693261,
                1.486844990251867,
                1.4548319143683868,
                -0.8965404604215181,
                0.1001204984318764
            ]
        },
        {
            "positions": [
                2.510305797465971,
                -1.1069140278827738,
                1.4805872532392146,
                1.560659200574994,
                -1.0759633005506344,
                0.08392674748569169
            ]
        },
        {
            "positions": [
                2.5259138285929312,
                -1.0660147220962215,
                1.4743295162265622,
                1.666486486781601,
                -1.2553861406797506,
                0.067732996539507
            ]
        },
        {
            "positions": [
                2.541521859719891,
                -1.0251154163096692,
                1.4680717792139095,
                1.772313772988208,
                -1.4348089808088669,
                0.05153924559332229
            ]
        },
        {
            "positions": [
                2.5571298908468516,
                -0.9842161105231169,
                1.461814042201257,
                1.8781410591948149,
                -1.6142318209379831,
                0.035345494647137585
            ]
        },
        {
            "positions": [
                2.572737921973812,
                -0.9433168047365645,
                1.4555563051886047,
                1.983968345401422,
                -1.7936546610670998,
                0.019151743700952878
            ]
        },
        {
            "positions": [
                2.5883459531007724,
                -0.9024174989500122,
                1.4492985681759523,
                2.089795631608029,
                -1.973077501196216,
                0.0029579927547681573
            ]
        },
        {
            "positions": [
                2.6039539842277324,
                -0.86151819316346,
                1.4430408311632996,
                2.195622917814636,
                -2.1525003413253323,
                -0.013235758191416508
            ]
        },
        {
            "positions": [
                2.619562015354693,
                -0.8206188873769077,
                1.4367830941506472,
                2.301450204021243,
                -2.3319231814544485,
                -0.029429509137601242
            ]
        },
        {
            "positions": [
                2.6107369113477663,
                -0.769024391747009,
                1.386528442833324,
                2.416121566919135,
                -2.4704672634859017,
                -0.004532418301689725
            ]
        },
        {
            "positions": [
                2.6019118073408394,
                -0.7174298961171102,
                1.336273791516001,
                2.5307929298170273,
                -2.6090113455173554,
                0.020364672534221796
            ]
        }
    ]
}