{
    "goal": {
        "global_pose": {
            "orientation": {
                "w": 0.7047431493862688,
                "x": -0.7094548369677653,
                "y": 0.0024358444001904,
                "z": -0.0022348060817251984
            },
            "position": {
                "x": -0.39052492380142206,
                "y": 0.3671506643295288,
                "z": 0.19426114857196808
            }
        },
        "name": "move_to_magneteinheit_D"
    },
    "id": "KPIECE_move_to_magneteinheit_D_137",
    "joint_names": [
        "shoulder_pan_joint",
        "shoulder_lift_joint",
        "elbow_joint",
        "wrist_1_joint",
        "wrist_2_joint",
        "wrist_3_joint"
    ],
    "metrics": {
        "cart_traj_len": 4.60227558151629,
        "distance_elbow_joint": 4.940232447743844,
        "distance_shoulder_lift_joint": 1.0989004851582702,
        "distance_shoulder_pan_joint": 2.8157897716360036,
        "distance_wrist_1_joint": 3.4591856621010417,
        "distance_wrist_2_joint": 2.052797923702552,
        "distance_wrist_3_joint": 6.301556066012102,
        "smoothness": 0.19582282370572204,
        "time": 1.193001233,
        "traj_len": 4.546258060906112,
        "weighted_distance": 6.227644665054487
    },
    "planner": "KPIECE",
    "start": {
        "state": {
            "elbow_joint": 0.7495348899011973,
            "shoulder_lift_joint": -0.6476975780737697,
            "shoulder_pan_joint": -2.711696901376276,
            "wrist_1_joint": -0.07506478080974305,
            "wrist_2_joint": 0.4329665971545858,
            "wrist_3_joint": 3.1361499051832524
        }
    },
    "waypoints": [
        {
            "positions": [
                -2.711696901376276,
                -0.6476975780737697,
                0.7495348899011973,
                -0.07506478080974305,
                0.4329665971545858,
                3.1361499051832524
            ]
        },
        {
            "positions": [
                -2.7055558565055025,
                -0.6632483924216045,
                0.8208389036049124,
                -0.021687032957672485,
                0.3768413004564899,
                2.9631622653537684
            ]
        },
        {
            "positions": [
                -2.6994148116347287,
                -0.6787992067694392,
                0.8921429173086275,
                0.03169071489439808,
                0.320716003758394,
                2.7901746255242847
            ]
        },
        {
            "positions": [
                -2.6932737667639555,
                -0.694350021117274,
                0.9634469310123426,
                0.08506846274646862,
                0.2645907070602981,
                2.6171869856948007
            ]
        },
        {
            "positions": [
                -2.6871327218931818,
                -0.7099008354651087,
                1.0347509447160577,
                0.1384462105985392,
                0.2084654103622022,
                2.444199345865317
            ]
        },
        {
            "positions": [
                -2.680991677022408,
                -0.7254516498129435,
                1.1060549584197727,
                0.19182395845060973,
                0.15234011366410632,
                2.271211706035833
            ]
        },
        {
            "positions": [
                -2.6748506321516343,
                -0.7410024641607782,
                1.1773589721234878,
                0.2452017063026803,
                0.09621481696601042,
                2.0982240662063494
            ]
        },
        {
            "positions": [
                -2.6687095872808606,
                -0.756553278508613,
                1.248662985827203,
                0.2985794541547509,
                0.040089520267914514,
                1.9252364263768653
            ]
        },
        {
            "positions": [
                -2.662568542410087,
                -0.7721040928564478,
                1.3199669995309182,
                0.35195720200682146,
                -0.016035776430181392,
                1.7522487865473815
            ]
        },
        {
            "positions": [
                -2.6564274975393136,
                -0.7876549072042824,
                1.3912710132346333,
                0.405334949858892,
                -0.0721610731282773,
                1.5792611467178976
            ]
        },
        {
            "positions": [
                -2.65028645266854,
                -0.8032057215521172,
                1.4625750269383484,
                0.4587126977109625,
                -0.12828636982637315,
                1.4062735068884138
            ]
        },
        {
            "positions": [
                -2.644145407797766,
                -0.818756535899952,
                1.5338790406420635,
                0.5120904455630332,
                -0.1844116665244691,
                1.23328586705893
            ]
        },
        {
            "positions": [
                -2.6081300642414993,
                -0.84778745949908,
                1.5829527252862823,
                0.5542787809904699,
                -0.22609806181649336,
                1.0501772915158005
            ]
        },
        {
            "positions": [
                -2.572114720685232,
                -0.8768183830982079,
                1.6320264099305009,
                0.5964671164179067,
                -0.2677844571085176,
                0.8670687159726713
            ]
        },
        {
            "positions": [
                -2.4715391623093033,
                -0.9319855528331576,
                1.6386333535228255,
                0.594938355438868,
                -0.30773076628401247,
                0.6924160537068405
            ]
        },
        {
            "positions": [
                -2.3709636039333746,
                -0.9871527225681074,
                1.64524029711515,
                0.5934095944598293,
                -0.3476770754595073,
                0.5177633914410095
            ]
        },
        {
            "positions": [
                -2.2703880455574463,
                -1.042319892303057,
                1.651847240707475,
                0.5918808334807906,
                -0.38762338463500223,
                0.3431107291751786
            ]
        },
        {
            "positions": [
                -2.1698124871815176,
                -1.0974870620380068,
                1.6584541842997995,
                0.5903520725017519,
                -0.4275696938104971,
                0.16845806690934761
            ]
        },
        {
            "positions": [
                -2.069236928805589,
                -1.1526542317729565,
                1.6650611278921241,
                0.5888233115227132,
                -0.46751600298599194,
                -0.006194595356483312
            ]
        },
        {
            "positions": [
                -2.0016125651775063,
                -1.1676778410311572,
                1.5417304699865588,
                0.4997187946802788,
                -0.44414133473885736,
                0.058895753575579024
            ]
        },
        {
            "positions": [
                -1.9339882015494239,
                -1.182701450289358,
                1.4183998120809935,
                0.4106142778378445,
                -0.4207666664917228,
                0.12398610250764136
            ]
        },
        {
            "positions": [
                -1.8663638379213412,
                -1.1977250595475588,
                1.2950691541754282,
                0.3215097609954101,
                -0.3973919982445882,
                0.1890764514397037
            ]
        },
        {
            "positions": [
                -1.7987394742932588,
                -1.2127486688057596,
                1.171738496269863,
                0.2324052441529758,
                -0.37401732999745363,
                0.25416680037176603
            ]
        },
        {
            "positions": [
                -1.731115110665176,
                -1.2277722780639604,
                1.0484078383642976,
                0.14330072731054144,
                -0.35064266175031905,
                0.31925714930382837
            ]
        },
        {
            "positions": [
                -1.6634907470370934,
                -1.2427958873221612,
                0.9250771804587321,
                0.054196210468107076,
                -0.3272679935031845,
                0.3843474982358907
            ]
        },
        {
            "positions": [
                -1.595866383409011,
                -1.257819496580362,
                0.8017465225531668,
                -0.03490830637432729,
                -0.3038933252560499,
                0.44943784716795304
            ]
        },
        {
            "positions": [
                -1.5282420197809283,
                -1.2728431058385627,
                0.6784158646476015,
                -0.12401282321676155,
                -0.2805186570089153,
                0.5145281961000154
            ]
        },
        {
            "positions": [
                -1.4606176561528459,
                -1.2878667150967635,
                0.5550852067420362,
                -0.21311734005919591,
                -0.25714398876178074,
                0.5796185450320777
            ]
        },
        {
            "positions": [
                -1.3929932925247632,
                -1.3028903243549643,
                0.4317545488364709,
                -0.3022218569016303,
                -0.23376932051464616,
                0.6447088939641401
            ]
        },
        {
            "positions": [
                -1.3253689288966806,
                -1.3179139336131651,
                0.3084238909309056,
                -0.39132637374406454,
                -0.21039465226751158,
                0.7097992428962023
            ]
        },
        {
            "positions": [
                -1.257744565268598,
                -1.332937542871366,
                0.1850932330253401,
                -0.480430890586499,
                -0.187019984020377,
                0.7748895918282648
            ]
        },
        {
            "positions": [
                -1.1901202016405155,
                -1.3479611521295667,
                0.06176257511977479,
                -0.5695354074289333,
                -0.16364531577324243,
                0.839979940760327
            ]
        },
        {
            "positions": [
                -1.122495838012433,
                -1.3629847613877675,
                -0.06156808278579051,
                -0.6586399242713677,
                -0.14027064752610785,
                0.9050702896923895
            ]
        },
        {
            "positions": [
                -1.0548714743843504,
                -1.3780083706459683,
                -0.1848987406913558,
                -0.747744441113802,
                -0.11689597927897327,
                0.9701606386244517
            ]
        },
        {
            "positions": [
                -0.9872471107562677,
                -1.393031979904169,
                -0.3082293985969211,
                -0.8368489579562363,
                -0.0935213110318387,
                1.0352509875565141
            ]
        },
        {
            "positions": [
                -0.9196227471281853,
                -1.4080555891623698,
                -0.4315600565024864,
                -0.9259534747986707,
                -0.07014664278470412,
                1.1003413364885763
            ]
        },
        {
            "positions": [
                -0.8519983835001026,
                -1.4230791984205706,
                -0.5548907144080517,
                -1.0150579916411049,
                -0.04677197453756954,
                1.1654316854206388
            ]
        },
        {
            "positions": [
                -0.7843740198720202,
                -1.4381028076787714,
                -0.678221372313617,
                -1.1041625084835394,
                -0.02339730629043496,
                1.230522034352701
            ]
        },
        {
            "positions": [
                -0.7167496562439375,
                -1.4531264169369722,
                -0.8015520302191823,
                -1.1932670253259738,
                -2.263804330038255e-05,
                1.2956123832847635
            ]
        },
        {
            "positions": [
                -0.649125292615855,
                -1.468150026195173,
                -0.9248826881247476,
                -1.2823715421684079,
                0.02335203020383414,
                1.3607027322168257
            ]
        },
        {
            "positions": [
                -0.5815009289877724,
                -1.4831736354533738,
                -1.048213346030313,
                -1.3714760590108424,
                0.04672669845096877,
                1.4257930811488881
            ]
        },
        {
            "positions": [
                -0.5138765653596897,
                -1.4981972447115746,
                -1.1715440039358787,
                -1.4605805758532768,
                0.0701013666981034,
                1.4908834300809506
            ]
        },
        {
            "positions": [
                -0.44625220173160707,
                -1.5132208539697753,
                -1.294874661841444,
                -1.5496850926957113,
                0.09347603494523793,
                1.5559737790130128
            ]
        },
        {
            "positions": [
                -0.3786278381035246,
                -1.5282444632279761,
                -1.4182053197470093,
                -1.6387896095381458,
                0.11685070319237256,
                1.6210641279450753
            ]
        },
        {
            "positions": [
                -0.31100347447544197,
                -1.543268072486177,
                -1.5415359776525746,
                -1.7278941263805798,
                0.14022537143950708,
                1.6861544768771375
            ]
        },
        {
            "positions": [
                -0.24337911084735953,
                -1.5582916817443777,
                -1.6648666355581399,
                -1.8169986432230143,
                0.16360003968664172,
                1.7512448258092
            ]
        },
        {
            "positions": [
                -0.17575474721927686,
                -1.5733152910025785,
                -1.7881972934637052,
                -1.9061031600654488,
                0.18697470793377624,
                1.8163351747412622
            ]
        },
        {
            "positions": [
                -0.10813038359119442,
                -1.5883389002607793,
                -1.9115279513692705,
                -1.9952076769078828,
                0.21034937618091087,
                1.8814255236733246
            ]
        },
        {
            "positions": [
                -0.040506019963111754,
                -1.60336250951898,
                -2.0348586092748358,
                -2.0843121937503173,
                0.23372404442804542,
                1.9465158726053868
            ]
        },
        {
            "positions": [
                -0.04304685515363553,
                -1.6032346861687332,
                -2.161968102302226,
                -2.154330152221216,
                0.25743305166576314,
                2.0672181908997027
            ]
        },
        {
            "positions": [
                -0.06672319765902127,
                -1.6270859745625355,
                -2.194914265561987,
                -2.160472901593594,
                0.18620534018072635,
                2.2481846541023986
            ]
        },
        {
            "positions": [
                -0.09039954016440702,
                -1.6509372629563375,
                -2.227860428821748,
                -2.1666156509659724,
                0.11497762869568956,
                2.429151117305095
            ]
        },
        {
            "positions": [
                -0.11407588266979275,
                -1.6747885513501397,
                -2.260806592081509,
                -2.1727584003383504,
                0.043749917210652745,
                2.610117580507791
            ]
        },
        {
            "positions": [
                -0.1377522251751785,
                -1.698639839743942,
                -2.2937527553412695,
                -2.1789011497107285,
                -0.027477794274384015,
                2.791084043710487
            ]
        },
        {
            "positions": [
                -0.16142856768056424,
                -1.722491128137744,
                -2.3266989186010307,
                -2.185043899083107,
                -0.09870550575942089,
                2.9720505069131833
            ]
        },
        {
            "positions": [
                -0.18510491018594996,
                -1.7463424165315462,
                -2.3596450818607915,
                -2.191186648455485,
                -0.16993321724445765,
                3.1530169701158792
            ]
        }
    ]
}