{
    "goal": {
        "global_pose": {
            "orientation": {
                "w": 0.005598929693374612,
                "x": 0.007748599140229565,
                "y": 0.7110244013736278,
                "z": -0.7031023480610252
            },
            "position": {
                "x": 0.1141497679147869,
                "y": -0.7141253447532654,
                "z": 0.3711530566215515
            }
        },
        "name": "move_to_auspresseinheit_B"
    },
    "id": "KPIECE_move_to_auspresseinheit_B_35",
    "joint_names": [
        "shoulder_pan_joint",
        "shoulder_lift_joint",
        "elbow_joint",
        "wrist_1_joint",
        "wrist_2_joint",
        "wrist_3_joint"
    ],
    "metrics": {
        "cart_traj_len": 0.5642991289751783,
        "distance_elbow_joint": 0.05929207724670116,
        "distance_shoulder_lift_joint": 0.2958575805153085,
        "distance_shoulder_pan_joint": 0.5764325783685564,
        "distance_wrist_1_joint": 0.31589388907955684,
        "distance_wrist_2_joint": 0.9955297967161467,
        "distance_wrist_3_joint": 0.005831711731411726,
        "smoothness": 0.0,
        "time": 0.401893324,
        "traj_len": 1.499612494499056,
        "weighted_distance": 1.8899536351234143
    },
    "planner": "KPIECE",
    "start": {
        "state": {
            "elbow_joint": 2.019306165916698,
            "shoulder_lift_joint": -1.1220205098164344,
            "shoulder_pan_joint": -1.095207207618794,
            "wrist_1_joint": -0.8559671824921639,
            "wrist_2_joint": 0.47596387242952726,
            "wrist_3_joint": 3.159081874673826
        }
    },
    "waypoints": [
        {
            "positions": [
                -1.095207207618794,
                -1.1220205098164344,
                2.019306165916698,
                -0.8559671824921639,
                0.47596387242952726,
                3.159081874673826
            ]
        },
        {
            "positions": [
                -1.1912793040135534,
                -1.1713301065689858,
                2.009424153042248,
                -0.8033182009789044,
                0.6418855052155517,
                3.160053826629061
            ]
        },
        {
            "positions": [
                -1.2873514004083129,
                -1.2206397033215373,
                1.9995421401677975,
                -0.7506692194656449,
                0.8078071380015761,
                3.1610257785842966
            ]
        },
        {
            "positions": [
                -1.383423496803072,
                -1.2699493000740887,
                1.9896601272933474,
                -0.6980202379523854,
                0.9737287707876006,
                3.1619977305395315
            ]
        },
        {
            "positions": [
                -1.4794955931978315,
                -1.31925889682664,
                1.9797781144188973,
                -0.645371256439126,
                1.139650403573625,
                3.162969682494767
            ]
        },
        {
            "positions": [
                -1.575567689592591,
                -1.3685684935791915,
                1.969896101544447,
                -0.5927222749258665,
                1.3055720363596495,
                3.163941634450002
            ]
        },
        {
            "positions": [
                -1.6716397859873504,
                -1.417878090331743,
                1.9600140886699968,
                -0.540073293412607,
                1.471493669145674,
                3.1649135864052376
            ]
        }
    ]
}