{
    "goal": {
        "global_pose": {
            "orientation": {
                "w": 0.7047431493862688,
                "x": -0.7094548369677653,
                "y": 0.0024358444001904,
                "z": -0.0022348060817251984
            },
            "position": {
                "x": -0.39052492380142206,
                "y": 0.3671506643295288,
                "z": 0.19426114857196808
            }
        },
        "name": "move_to_magneteinheit_D"
    },
    "id": "KPIECE_move_to_magneteinheit_D_44",
    "joint_names": [
        "shoulder_pan_joint",
        "shoulder_lift_joint",
        "elbow_joint",
        "wrist_1_joint",
        "wrist_2_joint",
        "wrist_3_joint"
    ],
    "metrics": {
        "cart_traj_len": 3.980886867767093,
        "distance_elbow_joint": 3.292635816876938,
        "distance_shoulder_lift_joint": 1.6301296865217534,
        "distance_shoulder_pan_joint": 2.9543015155478964,
        "distance_wrist_1_joint": 1.817915226835403,
        "distance_wrist_2_joint": 0.815983519172799,
        "distance_wrist_3_joint": 3.0656797870984676,
        "smoothness": 0.28846865185140874,
        "time": 0.165745065,
        "traj_len": 3.684649990440511,
        "weighted_distance": 4.726722318082414
    },
    "planner": "KPIECE",
    "start": {
        "state": {
            "elbow_joint": 0.7495348899011973,
            "shoulder_lift_joint": -0.6476975780737697,
            "shoulder_pan_joint": -2.711696901376276,
            "wrist_1_joint": -0.07506478080974305,
            "wrist_2_joint": 0.4329665971545858,
            "wrist_3_joint": 3.1361499051832524
        }
    },
    "waypoints": [
        {
            "positions": [
                -2.711696901376276,
                -0.6476975780737697,
                0.7495348899011973,
                -0.07506478080974305,
                0.4329665971545858,
                3.1361499051832524
            ]
        },
        {
            "positions": [
                -2.7267257221921626,
                -0.6830838835076275,
                0.7752234754808185,
                0.01960329600381505,
                0.364184789837231,
                3.040462465674514
            ]
        },
        {
            "positions": [
                -2.7417545430080486,
                -0.7184701889414853,
                0.8009120610604398,
                0.11427137281737315,
                0.2954029825198762,
                2.944775026165775
            ]
        },
        {
            "positions": [
                -2.756783363823935,
                -0.7538564943753431,
                0.8266006466400609,
                0.20893944963093125,
                0.2266211752025214,
                2.849087586657036
            ]
        },
        {
            "positions": [
                -2.7048278787199713,
                -0.811757284285359,
                0.787474683866796,
                0.17407817308890805,
                0.2059190981019398,
                2.7046289182760828
            ]
        },
        {
            "positions": [
                -2.652872393616008,
                -0.8696580741953748,
                0.7483487210935311,
                0.13921689654688488,
                0.1852170210013582,
                2.5601702498951298
            ]
        },
        {
            "positions": [
                -2.600916908512045,
                -0.9275588641053907,
                0.7092227583202662,
                0.10435562000486169,
                0.1645149439007766,
                2.4157115815141763
            ]
        },
        {
            "positions": [
                -2.5489614234080813,
                -0.9854596540154066,
                0.6700967955470012,
                0.0694943434628385,
                0.143812866800195,
                2.271252913133223
            ]
        },
        {
            "positions": [
                -2.4181754474007198,
                -1.0174934424520043,
                0.5370569195432393,
                0.08827534576286815,
                0.130613562271296,
                2.2056407929431616
            ]
        },
        {
            "positions": [
                -2.2873894713933582,
                -1.0495272308886021,
                0.4040170435394775,
                0.1070563480628978,
                0.11741425774239703,
                2.1400286727531004
            ]
        },
        {
            "positions": [
                -2.1566034953859967,
                -1.0815610193251997,
                0.2709771675357156,
                0.12583735036292742,
                0.10421495321349802,
                2.074416552563039
            ]
        },
        {
            "positions": [
                -2.025817519378635,
                -1.1135948077617974,
                0.13793729153195378,
                0.14461835266295708,
                0.09101564868459905,
                2.008804432372978
            ]
        },
        {
            "positions": [
                -1.8950315433712737,
                -1.1456285961983952,
                0.004897415528191895,
                0.16339935496298674,
                0.07781634415570005,
                1.9431923121829164
            ]
        },
        {
            "positions": [
                -1.7642455673639121,
                -1.177662384634993,
                -0.12814246047556999,
                0.18218035726301637,
                0.06461703962680106,
                1.8775801919928552
            ]
        },
        {
            "positions": [
                -1.6334595913565506,
                -1.2096961730715905,
                -0.26118233647933187,
                0.20096135956304603,
                0.05141773509790207,
                1.811968071802794
            ]
        },
        {
            "positions": [
                -1.502673615349189,
                -1.2417299615081883,
                -0.39422221248309364,
                0.21974236186307566,
                0.03821843056900308,
                1.7463559516127325
            ]
        },
        {
            "positions": [
                -1.3718876393418276,
                -1.273763749944786,
                -0.5272620884868555,
                0.23852336416310532,
                0.02501912604010409,
                1.6807438314226713
            ]
        },
        {
            "positions": [
                -1.241101663334466,
                -1.3057975383813838,
                -0.6603019644906174,
                0.2573043664631349,
                0.011819821511205086,
                1.61513171123261
            ]
        },
        {
            "positions": [
                -1.1103156873271045,
                -1.3378313268179816,
                -0.7933418404943795,
                0.27608536876316464,
                -0.0013794830176939166,
                1.5495195910425488
            ]
        },
        {
            "positions": [
                -0.979529711319743,
                -1.369865115254579,
                -0.9263817164981412,
                0.29486637106319424,
                -0.014578787546592892,
                1.4839074708524875
            ]
        },
        {
            "positions": [
                -0.8487437353123815,
                -1.4018989036911769,
                -1.0594215925019033,
                0.3136473733632239,
                -0.027778092075491895,
                1.418295350662426
            ]
        },
        {
            "positions": [
                -0.7179577593050199,
                -1.4339326921277746,
                -1.192461468505665,
                0.33242837566325356,
                -0.04097739660439087,
                1.352683230472365
            ]
        },
        {
            "positions": [
                -0.5871717832976584,
                -1.4659664805643724,
                -1.3255013445094268,
                0.3512093779632832,
                -0.05417670113328987,
                1.2870711102823036
            ]
        },
        {
            "positions": [
                -0.4563858072902969,
                -1.4980002690009702,
                -1.4585412205131885,
                0.3699903802633128,
                -0.06737600566218885,
                1.2214589900922423
            ]
        },
        {
            "positions": [
                -0.32559983128293535,
                -1.5300340574375677,
                -1.5915810965169506,
                0.3887713825633425,
                -0.08057531019108785,
                1.1558468699021809
            ]
        },
        {
            "positions": [
                -0.19481385527557382,
                -1.5620678458741655,
                -1.7246209725207122,
                0.40755238486337214,
                -0.09377461471998683,
                1.0902347497121199
            ]
        },
        {
            "positions": [
                -0.06402787926821218,
                -1.5941016343107632,
                -1.8576608485244743,
                0.4263333871634018,
                -0.10697391924888582,
                1.0246226295220584
            ]
        },
        {
            "positions": [
                -0.057178491781020024,
                -1.6525692327433819,
                -1.9254675220877697,
                0.5474937442559062,
                -0.0850791818010872,
                0.9269240394391064
            ]
        },
        {
            "positions": [
                -0.050329104293827864,
                -1.7110368311760003,
                -1.993274195651065,
                0.6686541013484106,
                -0.0631844443532886,
                0.8292254493561544
            ]
        },
        {
            "positions": [
                -0.043479716806635704,
                -1.7695044296086189,
                -2.0610808692143605,
                0.789814458440915,
                -0.041289706905489984,
                0.7315268592732023
            ]
        },
        {
            "positions": [
                -0.03663032931944355,
                -1.8279720280412373,
                -2.1288875427776555,
                0.9109748155334194,
                -0.01939496945769137,
                0.6338282691902504
            ]
        },
        {
            "positions": [
                -0.02978094183225139,
                -1.8864396264738559,
                -2.196694216340951,
                1.032135172625924,
                0.002499767990107246,
                0.5361296791072983
            ]
        },
        {
            "positions": [
                -0.02293155434505923,
                -1.9449072249064743,
                -2.2645008899042463,
                1.1532955297184282,
                0.024394505437905847,
                0.43843108902434624
            ]
        },
        {
            "positions": [
                -0.01608216685786707,
                -2.003374823339093,
                -2.3323075634675416,
                1.2744558868109328,
                0.04628924288570448,
                0.3407324989413943
            ]
        },
        {
            "positions": [
                -0.057639210895987336,
                -2.09195967503502,
                -2.3672753571928826,
                1.3599791128013874,
                0.08463647115810084,
                0.24130224789210847
            ]
        },
        {
            "positions": [
                -0.12111761694401256,
                -2.1848934698152718,
                -2.3781223853454474,
                1.411969673245431,
                0.12685277733927133,
                0.15588618298844703
            ]
        },
        {
            "positions": [
                -0.18459602299203778,
                -2.277827264595523,
                -2.3889694134980126,
                1.4639602336894744,
                0.1690690835204418,
                0.0704701180847856
            ]
        }
    ]
}