{
    "goal": {
        "global_pose": {
            "orientation": {
                "w": -0.00223480608172531,
                "x": 0.0024358444001904467,
                "y": 0.7094548369677653,
                "z": -0.704743149386269
            },
            "position": {
                "x": 0.6205249238014221,
                "y": -0.6371506643295288,
                "z": 0.19426114857196808
            }
        },
        "name": "move_to_magneteinheit_B"
    },
    "id": "KPIECE_move_to_magneteinheit_B_74",
    "joint_names": [
        "shoulder_pan_joint",
        "shoulder_lift_joint",
        "elbow_joint",
        "wrist_1_joint",
        "wrist_2_joint",
        "wrist_3_joint"
    ],
    "metrics": {
        "cart_traj_len": 1.4526761807744346,
        "distance_elbow_joint": 0.7300731903106825,
        "distance_shoulder_lift_joint": 1.2490909525013008,
        "distance_shoulder_pan_joint": 1.6218951602220981,
        "distance_wrist_1_joint": 2.6025187028880112,
        "distance_wrist_2_joint": 2.9395979517906294,
        "distance_wrist_3_joint": 3.1345586277007933,
        "smoothness": 3.330669084591233e-16,
        "time": 0.17268792100000002,
        "traj_len": 3.5039598435789068,
        "weighted_distance": 4.908051394952354
    },
    "planner": "KPIECE",
    "start": {
        "state": {
            "elbow_joint": 2.3935871308073637,
            "shoulder_lift_joint": -1.9085141043777403,
            "shoulder_pan_joint": 0.7066247067284167,
            "wrist_1_joint": -0.46782909355067076,
            "wrist_2_joint": 0.7096259085804283,
            "wrist_3_joint": -3.1358149275257428
        }
    },
    "waypoints": [
        {
            "positions": [
                0.7066247067284167,
                -1.9085141043777403,
                2.3935871308073637,
                -0.46782909355067076,
                0.7096259085804283,
                -3.1358149275257428
            ]
        },
        {
            "positions": [
                0.6543055080115748,
                -1.8682208478454403,
                2.3700363827328257,
                -0.38387687732847686,
                0.6148001682000854,
                -3.0347001330837817
            ]
        },
        {
            "positions": [
                0.601986309294733,
                -1.8279275913131403,
                2.3464856346582876,
                -0.2999246611062829,
                0.5199744278197425,
                -2.9335853386418207
            ]
        },
        {
            "positions": [
                0.5496671105778911,
                -1.78763433478084,
                2.322934886583749,
                -0.215972444884089,
                0.42514868743939965,
                -2.8324705441998597
            ]
        },
        {
            "positions": [
                0.4973479118610492,
                -1.7473410782485401,
                2.299384138509211,
                -0.1320202286618951,
                0.33032294705905674,
                -2.7313557497578986
            ]
        },
        {
            "positions": [
                0.44502871314420733,
                -1.7070478217162401,
                2.275833390434673,
                -0.04806801243970121,
                0.23549720667871388,
                -2.630240955315937
            ]
        },
        {
            "positions": [
                0.39270951442736546,
                -1.6667545651839402,
                2.252282642360135,
                0.03588420378249274,
                0.14067146629837102,
                -2.529126160873976
            ]
        },
        {
            "positions": [
                0.3403903157105236,
                -1.6264613086516402,
                2.228731894285597,
                0.11983642000468658,
                0.04584572591802816,
                -2.428011366432015
            ]
        },
        {
            "positions": [
                0.2880711169936817,
                -1.5861680521193402,
                2.2051811462110584,
                0.20378863622688054,
                -0.048980014462314814,
                -2.326896571990054
            ]
        },
        {
            "positions": [
                0.23575191827683978,
                -1.54587479558704,
                2.1816303981365204,
                0.2877408524490745,
                -0.14380575484265778,
                -2.225781777548093
            ]
        },
        {
            "positions": [
                0.18343271955999796,
                -1.50558153905474,
                2.1580796500619823,
                0.37169306867126833,
                -0.23863149522300053,
                -2.124666983106132
            ]
        },
        {
            "positions": [
                0.13111352084315608,
                -1.46528828252244,
                2.1345289019874443,
                0.4556452848934623,
                -0.3334572356033435,
                -2.023552188664171
            ]
        },
        {
            "positions": [
                0.07879432212631421,
                -1.42499502599014,
                2.1109781539129058,
                0.5395975011156562,
                -0.42828297598368625,
                -1.92243739422221
            ]
        },
        {
            "positions": [
                0.026475123409472334,
                -1.3847017694578398,
                2.0874274058383677,
                0.6235497173378501,
                -0.5231087163640292,
                -1.8213225997802487
            ]
        },
        {
            "positions": [
                -0.02584407530736954,
                -1.3444085129255399,
                2.0638766577638297,
                0.7075019335600439,
                -0.617934456744372,
                -1.7202078053382877
            ]
        },
        {
            "positions": [
                -0.07816327402421142,
                -1.3041152563932399,
                2.0403259096892916,
                0.7914541497822378,
                -0.712760197124715,
                -1.6190930108963266
            ]
        },
        {
            "positions": [
                -0.1304824727410533,
                -1.26382199986094,
                2.0167751616147536,
                0.8754063660044318,
                -0.8075859375050579,
                -1.5179782164543656
            ]
        },
        {
            "positions": [
                -0.18280167145789505,
                -1.22352874332864,
                1.9932244135402153,
                0.9593585822266255,
                -0.9024116778854007,
                -1.4168634220124046
            ]
        },
        {
            "positions": [
                -0.23512087017473715,
                -1.18323548679634,
                1.969673665465677,
                1.0433107984488197,
                -0.9972374182657439,
                -1.3157486275704433
            ]
        },
        {
            "positions": [
                -0.2874400688915789,
                -1.14294223026404,
                1.946122917391139,
                1.1272630146710134,
                -1.0920631586460865,
                -1.2146338331284823
            ]
        },
        {
            "positions": [
                -0.3397592676084208,
                -1.1026489737317398,
                1.922572169316601,
                1.2112152308932074,
                -1.1868888990264295,
                -1.1135190386865212
            ]
        },
        {
            "positions": [
                -0.39207846632526266,
                -1.0623557171994398,
                1.8990214212420626,
                1.295167447115401,
                -1.281714639406772,
                -1.0124042442445602
            ]
        },
        {
            "positions": [
                -0.44439766504210454,
                -1.0220624606671396,
                1.8754706731675244,
                1.3791196633375953,
                -1.3765403797871154,
                -0.9112894498025992
            ]
        },
        {
            "positions": [
                -0.4967168637589464,
                -0.9817692041348397,
                1.8519199250929863,
                1.4630718795597892,
                -1.4713661201674584,
                -0.8101746553606382
            ]
        },
        {
            "positions": [
                -0.5490360624757883,
                -0.9414759476025397,
                1.8283691770184483,
                1.5470240957819832,
                -1.566191860547801,
                -0.7090598609186771
            ]
        },
        {
            "positions": [
                -0.6013552611926302,
                -0.9011826910702396,
                1.8048184289439102,
                1.6309763120041767,
                -1.6610176009281439,
                -0.6079450664767161
            ]
        },
        {
            "positions": [
                -0.653674459909472,
                -0.8608894345379396,
                1.781267680869372,
                1.714928528226371,
                -1.7558433413084868,
                -0.5068302720347546
            ]
        },
        {
            "positions": [
                -0.7059936586263139,
                -0.8205961780056397,
                1.7577169327948337,
                1.7988807444485646,
                -1.8506690816888298,
                -0.4057154775927936
            ]
        },
        {
            "positions": [
                -0.7583128573431558,
                -0.7803029214733397,
                1.7341661847202956,
                1.8828329606707586,
                -1.9454948220691723,
                -0.30460068315083255
            ]
        },
        {
            "positions": [
                -0.8106320560599977,
                -0.7400096649410397,
                1.7106154366457575,
                1.9667851768929525,
                -2.0403205624495153,
                -0.20348588870887196
            ]
        },
        {
            "positions": [
                -0.8629512547768395,
                -0.6997164084087395,
                1.6870646885712195,
                2.0507373931151465,
                -2.1351463028298583,
                -0.10237109426691049
            ]
        },
        {
            "positions": [
                -0.9152704534936814,
                -0.6594231518764395,
                1.6635139404966812,
                2.1346896093373404,
                -2.2299720432102013,
                -0.001256299824949608
            ]
        }
    ]
}