{
    "goal": {
        "global_pose": {
            "orientation": {
                "w": 0.7047431493862688,
                "x": -0.7094548369677653,
                "y": 0.0024358444001904,
                "z": -0.0022348060817251984
            },
            "position": {
                "x": -0.39052492380142206,
                "y": 0.3671506643295288,
                "z": 0.19426114857196808
            }
        },
        "name": "move_to_magneteinheit_D"
    },
    "id": "KPIECE_move_to_magneteinheit_D_122",
    "joint_names": [
        "shoulder_pan_joint",
        "shoulder_lift_joint",
        "elbow_joint",
        "wrist_1_joint",
        "wrist_2_joint",
        "wrist_3_joint"
    ],
    "metrics": {
        "cart_traj_len": 5.006480844582774,
        "distance_elbow_joint": 3.7300118274933443,
        "distance_shoulder_lift_joint": 1.117386576060516,
        "distance_shoulder_pan_joint": 5.541306351975937,
        "distance_wrist_1_joint": 3.3331626020689917,
        "distance_wrist_2_joint": 4.818459955222509,
        "distance_wrist_3_joint": 3.792501100160963,
        "smoothness": 0.6191488900135121,
        "time": 0.359933133,
        "traj_len": 4.725762204447263,
        "weighted_distance": 6.170044827276029
    },
    "planner": "KPIECE",
    "start": {
        "state": {
            "elbow_joint": 0.7495348899011973,
            "shoulder_lift_joint": -0.6476975780737697,
            "shoulder_pan_joint": -2.711696901376276,
            "wrist_1_joint": -0.07506478080974305,
            "wrist_2_joint": 0.4329665971545858,
            "wrist_3_joint": 3.1361499051832524
        }
    },
    "waypoints": [
        {
            "positions": [
                -2.711696901376276,
                -0.6476975780737697,
                0.7495348899011973,
                -0.07506478080974305,
                0.4329665971545858,
                3.1361499051832524
            ]
        },
        {
            "positions": [
                -2.7119655297428,
                -0.683653975661327,
                0.7751449623047544,
                -0.003242904497513313,
                0.48178155043192333,
                2.950778256923195
            ]
        },
        {
            "positions": [
                -2.7122341581093234,
                -0.7196103732488843,
                0.8007550347083113,
                0.06857897181471642,
                0.5305965037092609,
                2.7654066086631373
            ]
        },
        {
            "positions": [
                -2.7125027864758473,
                -0.7555667708364415,
                0.8263651071118684,
                0.14040084812694617,
                0.5794114569865985,
                2.58003496040308
            ]
        },
        {
            "positions": [
                -2.712771414842371,
                -0.7915231684239988,
                0.8519751795154255,
                0.2122227244391759,
                0.628226410263936,
                2.3946633121430225
            ]
        },
        {
            "positions": [
                -2.713040043208895,
                -0.8274795660115561,
                0.8775852519189824,
                0.28404460075140564,
                0.6770413635412735,
                2.209291663882965
            ]
        },
        {
            "positions": [
                -2.7133086715754184,
                -0.8634359635991135,
                0.9031953243225395,
                0.3558664770636354,
                0.7258563168186111,
                2.0239200156229074
            ]
        },
        {
            "positions": [
                -2.7135772999419423,
                -0.8993923611866708,
                0.9288053967260965,
                0.4276883533758652,
                0.7746712700959486,
                1.8385483673628498
            ]
        },
        {
            "positions": [
                -2.7189352930449004,
                -0.9635913894740364,
                0.9011367962911054,
                0.44913949907788964,
                0.6164208426690899,
                1.77268053638103
            ]
        },
        {
            "positions": [
                -2.7242932861478586,
                -1.0277904177614021,
                0.8734681958561142,
                0.4705906447799141,
                0.45817041524223123,
                1.7068127053992104
            ]
        },
        {
            "positions": [
                -2.7296512792508167,
                -1.091989446048768,
                0.8457995954211232,
                0.4920417904819385,
                0.29991998781537266,
                1.6409448744173907
            ]
        },
        {
            "positions": [
                -2.735009272353775,
                -1.1561884743361337,
                0.818130994986132,
                0.513492936183963,
                0.14166956038851386,
                1.575077043435571
            ]
        },
        {
            "positions": [
                -2.740367265456733,
                -1.2203875026234994,
                0.7904623945511409,
                0.5349440818859874,
                -0.016580867038344757,
                1.5092092124537513
            ]
        },
        {
            "positions": [
                -2.618163651330319,
                -1.2200890247895144,
                0.6910045943222852,
                0.4823117200276644,
                0.03667264963460167,
                1.5668178444340553
            ]
        },
        {
            "positions": [
                -2.4959600372039055,
                -1.2197905469555295,
                0.5915467940934296,
                0.42967935816934144,
                0.0899261663075481,
                1.6244264764143592
            ]
        },
        {
            "positions": [
                -2.3737564230774915,
                -1.2194920691215443,
                0.4920889938645739,
                0.37704699631101846,
                0.14317968298049455,
                1.6820351083946634
            ]
        },
        {
            "positions": [
                -2.251552808951078,
                -1.2191935912875593,
                0.39263119363571825,
                0.32441463445269547,
                0.19643319965344097,
                1.7396437403749674
            ]
        },
        {
            "positions": [
                -2.129349194824664,
                -1.2188951134535744,
                0.29317339340686255,
                0.2717822725943725,
                0.2496867163263874,
                1.7972523723552714
            ]
        },
        {
            "positions": [
                -2.0071455806982503,
                -1.2185966356195894,
                0.1937155931780069,
                0.21914991073604945,
                0.3029402329993338,
                1.8548610043355753
            ]
        },
        {
            "positions": [
                -1.8849419665718363,
                -1.2182981577856045,
                0.09425779294915126,
                0.16651754887772646,
                0.35619374967228024,
                1.9124696363158793
            ]
        },
        {
            "positions": [
                -1.7627383524454225,
                -1.2179996799516193,
                -0.005200007279704377,
                0.11388518701940348,
                0.40944726634522666,
                1.9700782682961833
            ]
        },
        {
            "positions": [
                -1.640534738319009,
                -1.2177012021176343,
                -0.10465780750856002,
                0.06125282516108055,
                0.462700783018173,
                2.0276869002764872
            ]
        },
        {
            "positions": [
                -1.518331124192595,
                -1.2174027242836494,
                -0.20411560773741577,
                0.008620463302757564,
                0.5159542996911196,
                2.0852955322567914
            ]
        },
        {
            "positions": [
                -1.3961275100661812,
                -1.2171042464496644,
                -0.3035734079662713,
                -0.04401189855556542,
                0.5692078163640659,
                2.142904164237095
            ]
        },
        {
            "positions": [
                -1.2739238959397674,
                -1.2168057686156792,
                -0.40303120819512706,
                -0.09664426041388852,
                0.6224613330370125,
                2.2005127962173994
            ]
        },
        {
            "positions": [
                -1.1517202818133536,
                -1.2165072907816943,
                -0.5024890084239826,
                -0.1492766222722114,
                0.6757148497099589,
                2.258121428197703
            ]
        },
        {
            "positions": [
                -1.0295166676869398,
                -1.2162088129477093,
                -0.6019468086528383,
                -0.20190898413053449,
                0.7289683663829053,
                2.3157300601780073
            ]
        },
        {
            "positions": [
                -0.907313053560526,
                -1.2159103351137244,
                -0.7014046088816939,
                -0.25454134598885736,
                0.7822218830558517,
                2.3733386921583115
            ]
        },
        {
            "positions": [
                -0.785109439434112,
                -1.2156118572797394,
                -0.8008624091105496,
                -0.30717370784718045,
                0.8354753997287981,
                2.4309473241386153
            ]
        },
        {
            "positions": [
                -0.6629058253076985,
                -1.2153133794457542,
                -0.9003202093394054,
                -0.35980606970550333,
                0.8887289164017446,
                2.4885559561189194
            ]
        },
        {
            "positions": [
                -0.5407022111812849,
                -1.2150149016117693,
                -0.9997780095682609,
                -0.4124384315638263,
                0.9419824330746909,
                2.546164588099223
            ]
        },
        {
            "positions": [
                -0.41849859705487047,
                -1.2147164237777843,
                -1.0992358097971169,
                -0.4650707934221494,
                0.9952359497476375,
                2.6037732200795274
            ]
        },
        {
            "positions": [
                -0.2962949829284569,
                -1.2144179459437994,
                -1.1986936100259724,
                -0.5177031552804723,
                1.048489466420584,
                2.661381852059831
            ]
        },
        {
            "positions": [
                -0.17409136880204334,
                -1.2141194681098144,
                -1.2981514102548277,
                -0.5703355171387954,
                1.1017429830935304,
                2.7189904840401353
            ]
        },
        {
            "positions": [
                -0.05188775467562934,
                -1.2138209902758292,
                -1.3976092104836835,
                -0.6229678789971183,
                1.1549964997664766,
                2.7765991160204395
            ]
        },
        {
            "positions": [
                0.07031585945078467,
                -1.2135225124418443,
                -1.4970670107125392,
                -0.6756002408554413,
                1.2082500164394232,
                2.8342077480007433
            ]
        },
        {
            "positions": [
                0.19251947357719823,
                -1.2132240346078593,
                -1.596524810941395,
                -0.7282326027137644,
                1.2615035331123696,
                2.8918163799810475
            ]
        },
        {
            "positions": [
                0.31472308770361224,
                -1.2129255567738744,
                -1.6959826111702507,
                -0.7808649645720873,
                1.314757049785316,
                2.9494250119613517
            ]
        },
        {
            "positions": [
                0.4369267018300258,
                -1.2126270789398892,
                -1.795440411399106,
                -0.8334973264304102,
                1.3680105664582625,
                3.0070336439416554
            ]
        },
        {
            "positions": [
                0.5591303159564398,
                -1.2123286011059042,
                -1.8948982116279622,
                -0.8861296882887333,
                1.4212640831312089,
                3.0646422759219596
            ]
        },
        {
            "positions": [
                0.6813339300828534,
                -1.2120301232719193,
                -1.9943560118568175,
                -0.9387620501470564,
                1.4745175998041553,
                3.1222509079022633
            ]
        },
        {
            "positions": [
                0.8035375442092674,
                -1.2117316454379343,
                -2.0938138120856733,
                -0.9913944120053793,
                1.5277711164771017,
                3.1798595398825675
            ]
        },
        {
            "positions": [
                0.9257411583356809,
                -1.2114331676039494,
                -2.1932716123145286,
                -1.0440267738637021,
                1.5810246331500482,
                3.2374681718628713
            ]
        },
        {
            "positions": [
                1.047944772462095,
                -1.2111346897699642,
                -2.292729412543385,
                -1.0966591357220252,
                1.6342781498229946,
                3.2950768038431755
            ]
        },
        {
            "positions": [
                1.170148386588509,
                -1.2108362119359792,
                -2.39218721277224,
                -1.1492914975803483,
                1.687531666495941,
                3.3526854358234797
            ]
        },
        {
            "positions": [
                1.2923520007149225,
                -1.2105377341019943,
                -2.491645013001096,
                -1.2019238594386712,
                1.7407851831688874,
                3.4102940678037834
            ]
        },
        {
            "positions": [
                1.1866436634489348,
                -1.248741082886943,
                -2.482338519362435,
                -1.2723728450135714,
                1.6030611049589145,
                3.391402956940824
            ]
        },
        {
            "positions": [
                1.080935326182947,
                -1.2869444316718917,
                -2.473032025723774,
                -1.3428218305884716,
                1.4653370267489418,
                3.372511846077865
            ]
        },
        {
            "positions": [
                0.9752269889169595,
                -1.3251477804568403,
                -2.463725532085113,
                -1.413270816163372,
                1.327612948538969,
                3.3536207352149057
            ]
        },
        {
            "positions": [
                0.8695186516509719,
                -1.3633511292417888,
                -2.4544190384464524,
                -1.4837198017382722,
                1.1898888703289963,
                3.3347296243519464
            ]
        },
        {
            "positions": [
                0.763810314384984,
                -1.4015544780267375,
                -2.4451125448077917,
                -1.5541687873131727,
                1.0521647921190231,
                3.315838513488987
            ]
        },
        {
            "positions": [
                0.6581019771189964,
                -1.4397578268116862,
                -2.4358060511691306,
                -1.6246177728880729,
                0.9144407139090505,
                3.296947402626028
            ]
        },
        {
            "positions": [
                0.5523936398530087,
                -1.4779611755966349,
                -2.4264995575304695,
                -1.695066758462973,
                0.7767166356990776,
                3.2780562917630682
            ]
        },
        {
            "positions": [
                0.4466853025870211,
                -1.5161645243815836,
                -2.417193063891809,
                -1.7655157440378733,
                0.6389925574891049,
                3.259165180900109
            ]
        },
        {
            "positions": [
                0.3409769653210333,
                -1.5543678731665322,
                -2.4078865702531482,
                -1.8359647296127737,
                0.5012684792791318,
                3.2402740700371497
            ]
        },
        {
            "positions": [
                0.23526862805504556,
                -1.5925712219514807,
                -2.398580076614487,
                -1.9064137151876739,
                0.3635444010691591,
                3.2213829591741905
            ]
        },
        {
            "positions": [
                0.12956029078905806,
                -1.6307745707364294,
                -2.389273582975826,
                -1.976862700762574,
                0.22582032285918618,
                3.2024918483112312
            ]
        },
        {
            "positions": [
                0.023851953523070346,
                -1.668977919521378,
                -2.3799670893371654,
                -2.0473116863374745,
                0.0880962446492135,
                3.183600737448272
            ]
        },
        {
            "positions": [
                -0.08185638374291737,
                -1.7071812683063268,
                -2.3706605956985047,
                -2.1177606719123747,
                -0.049627833560759615,
                3.1647096265853127
            ]
        },
        {
            "positions": [
                -0.187564721008905,
                -1.7453846170912755,
                -2.3613541020598436,
                -2.188209657487275,
                -0.1873519117707322,
                3.1458185157223535
            ]
        }
    ]
}