{
    "goal": {
        "global_pose": {
            "orientation": {
                "w": 0.7031023480610252,
                "x": -0.7110244013736278,
                "y": 0.0077485991402295624,
                "z": 0.005598929693374583
            },
            "position": {
                "x": -0.8841497679147869,
                "y": 0.44412534475326537,
                "z": 0.3711530566215515
            }
        },
        "name": "move_to_auspresseinheit_D"
    },
    "id": "KPIECE_move_to_auspresseinheit_D_45",
    "joint_names": [
        "shoulder_pan_joint",
        "shoulder_lift_joint",
        "elbow_joint",
        "wrist_1_joint",
        "wrist_2_joint",
        "wrist_3_joint"
    ],
    "metrics": {
        "cart_traj_len": 3.7698258835644998,
        "distance_elbow_joint": 3.1954972486656983,
        "distance_shoulder_lift_joint": 1.3909322523713876,
        "distance_shoulder_pan_joint": 2.7971921786989453,
        "distance_wrist_1_joint": 1.309023213378726,
        "distance_wrist_2_joint": 1.4358110140186187,
        "distance_wrist_3_joint": 3.940047648802386,
        "smoothness": 0.18264780588692295,
        "time": 0.067703016,
        "traj_len": 3.7508003887084898,
        "weighted_distance": 4.969248744119969
    },
    "planner": "KPIECE",
    "start": {
        "state": {
            "elbow_joint": 1.8268400409724999,
            "shoulder_lift_joint": -1.0144045787793008,
            "shoulder_pan_joint": 2.6280239544362485,
            "wrist_1_joint": -0.790705565816056,
            "wrist_2_joint": 1.0573557467365533,
            "wrist_3_joint": 3.1851377467193758
        }
    },
    "waypoints": [
        {
            "positions": [
                2.6280239544362485,
                -1.0144045787793008,
                1.8268400409724999,
                -0.790705565816056,
                1.0573557467365533,
                3.1851377467193758
            ]
        },
        {
            "positions": [
                2.5698020001692963,
                -1.0415852909051186,
                1.7205901061650948,
                -0.7602547163486494,
                1.0141239902176242,
                3.0555225492950644
            ]
        },
        {
            "positions": [
                2.511580045902344,
                -1.0687660030309365,
                1.61434017135769,
                -0.7298038668812429,
                0.9708922336986954,
                2.9259073518707526
            ]
        },
        {
            "positions": [
                2.453358091635392,
                -1.0959467151567543,
                1.5080902365502848,
                -0.6993530174138363,
                0.9276604771797663,
                2.796292154446441
            ]
        },
        {
            "positions": [
                2.3951361373684397,
                -1.1231274272825722,
                1.40184030174288,
                -0.6689021679464298,
                0.8844287206608373,
                2.6666769570221294
            ]
        },
        {
            "positions": [
                2.3369141831014875,
                -1.15030813940839,
                1.295590366935475,
                -0.6384513184790231,
                0.8411969641419084,
                2.537061759597818
            ]
        },
        {
            "positions": [
                2.2786922288345353,
                -1.177488851534208,
                1.1893404321280698,
                -0.6080004690116165,
                0.7979652076229793,
                2.407446562173506
            ]
        },
        {
            "positions": [
                2.220470274567583,
                -1.2046695636600255,
                1.083090497320665,
                -0.57754961954421,
                0.7547334511040504,
                2.277831364749195
            ]
        },
        {
            "positions": [
                2.162248320300631,
                -1.2318502757858434,
                0.97684056251326,
                -0.5470987700768034,
                0.7115016945851214,
                2.1482161673248834
            ]
        },
        {
            "positions": [
                2.1040263660336787,
                -1.2590309879116612,
                0.870590627705855,
                -0.5166479206093968,
                0.6682699380661924,
                2.0186009699005716
            ]
        },
        {
            "positions": [
                2.0458044117667264,
                -1.286211700037479,
                0.76434069289845,
                -0.4861970711419903,
                0.6250381815472634,
                1.88898577247626
            ]
        },
        {
            "positions": [
                1.9875824574997742,
                -1.313392412163297,
                0.6580907580910451,
                -0.4557462216745837,
                0.5818064250283344,
                1.7593705750519484
            ]
        },
        {
            "positions": [
                1.929360503232822,
                -1.3405731242891148,
                0.55184082328364,
                -0.4252953722071771,
                0.5385746685094054,
                1.6297553776276368
            ]
        },
        {
            "positions": [
                1.8711385489658698,
                -1.3677538364149326,
                0.4455908884762352,
                -0.39484452273977055,
                0.4953429119904764,
                1.5001401802033252
            ]
        },
        {
            "positions": [
                1.8129165946989176,
                -1.3949345485407505,
                0.3393409536688301,
                -0.364393673272364,
                0.45211115547154745,
                1.3705249827790136
            ]
        },
        {
            "positions": [
                1.7546946404319654,
                -1.4221152606665683,
                0.23309101886142503,
                -0.3339428238049574,
                0.4088793989526184,
                1.2409097853547018
            ]
        },
        {
            "positions": [
                1.6964726861650135,
                -1.4492959727923862,
                0.12684108405402017,
                -0.3034919743375508,
                0.3656476424336894,
                1.1112945879303906
            ]
        },
        {
            "positions": [
                1.638250731898061,
                -1.476476684918204,
                0.020591149246615092,
                -0.2730411248701442,
                0.32241588591476034,
                0.9816793905060788
            ]
        },
        {
            "positions": [
                1.580028777631109,
                -1.5036573970440217,
                -0.08565878556078976,
                -0.2425902754027377,
                0.2791841293958315,
                0.8520641930817674
            ]
        },
        {
            "positions": [
                1.5218068233641568,
                -1.5308381091698395,
                -0.19190872036819506,
                -0.21213942593533108,
                0.2359523728769024,
                0.7224489956574556
            ]
        },
        {
            "positions": [
                1.4635848690972046,
                -1.5580188212956574,
                -0.2981586551755999,
                -0.18168857646792458,
                0.19272061635797344,
                0.5928337982331442
            ]
        },
        {
            "positions": [
                1.4053629148302524,
                -1.5851995334214752,
                -0.4044085899830048,
                -0.15123772700051796,
                0.14948885983904436,
                0.46321860080883237
            ]
        },
        {
            "positions": [
                1.3471409605633002,
                -1.612380245547293,
                -0.5106585247904096,
                -0.12078687753311135,
                0.10625710332011551,
                0.333603403384521
            ]
        },
        {
            "positions": [
                1.288919006296348,
                -1.639560957673111,
                -0.6169084595978149,
                -0.09033602806570473,
                0.06302534680118643,
                0.20398820596020917
            ]
        },
        {
            "positions": [
                1.2306970520293958,
                -1.6667416697989288,
                -0.7231583944052198,
                -0.05988517859829823,
                0.019793590282257467,
                0.07437300853589779
            ]
        },
        {
            "positions": [
                1.1724750977624436,
                -1.6939223819247466,
                -0.8294083292126246,
                -0.029434329130891612,
                -0.02343816623667161,
                -0.055242188888414034
            ]
        },
        {
            "positions": [
                1.1142531434954914,
                -1.7211030940505645,
                -0.9356582640200295,
                0.0010165203365148923,
                -0.06666992275560046,
                -0.1848573863127254
            ]
        },
        {
            "positions": [
                1.0560311892285392,
                -1.7482838061763823,
                -1.0419081988274348,
                0.031467369803921535,
                -0.10990167927452948,
                -0.3144725837370371
            ]
        },
        {
            "positions": [
                0.9198979210628463,
                -1.8212896978401942,
                -1.0782136442569643,
                0.08556184511044916,
                -0.08006239171813666,
                -0.2655351039208178
            ]
        },
        {
            "positions": [
                0.7837646528971534,
                -1.894295589504006,
                -1.1145190896864938,
                0.1396563204169768,
                -0.05022310416174384,
                -0.21659762410459846
            ]
        },
        {
            "positions": [
                0.6476313847314603,
                -1.9673014811678178,
                -1.1508245351160233,
                0.19375079572350443,
                -0.02038381660535102,
                -0.1676601442883791
            ]
        },
        {
            "positions": [
                0.5114981165657674,
                -2.0403073728316294,
                -1.1871299805455529,
                0.24784527103003204,
                0.009455470951041808,
                -0.11872266447215979
            ]
        },
        {
            "positions": [
                0.37536484840007434,
                -2.1133132644954413,
                -1.2234354259750824,
                0.30193974633655973,
                0.039294758507434635,
                -0.06978518465594041
            ]
        },
        {
            "positions": [
                0.2392315802343814,
                -2.186319156159253,
                -1.2597408714046119,
                0.3560342216430873,
                0.06913404606382745,
                -0.020847704839721093
            ]
        },
        {
            "positions": [
                0.10309831206868847,
                -2.259325047823065,
                -1.2960463168341414,
                0.41012869694961496,
                0.09897333362022029,
                0.028089774976498227
            ]
        },
        {
            "positions": [
                -0.033034956097004464,
                -2.3323309394868765,
                -1.332351762263671,
                0.4642231722561425,
                0.1288126211766131,
                0.07702725479271755
            ]
        },
        {
            "positions": [
                -0.1691682242626974,
                -2.4053368311506884,
                -1.3686572076932004,
                0.5183176475626702,
                0.15865190873300594,
                0.12596473460893692
            ]
        }
    ]
}