{
    "goal": {
        "global_pose": {
            "orientation": {
                "w": -0.4816463035849501,
                "x": 0.5182115481033762,
                "y": 0.4908360881923453,
                "z": -0.5084816262002911
            },
            "position": {
                "x": -0.8240239810943604,
                "y": 0.19912469901144506,
                "z": 0.16403168439865112
            }
        },
        "name": "move_to_storage_D"
    },
    "id": "KPIECE_move_to_storage_D_102",
    "joint_names": [
        "shoulder_pan_joint",
        "shoulder_lift_joint",
        "elbow_joint",
        "wrist_1_joint",
        "wrist_2_joint",
        "wrist_3_joint"
    ],
    "metrics": {
        "cart_traj_len": 3.900278828919633,
        "distance_elbow_joint": 4.217225732952421,
        "distance_shoulder_lift_joint": 1.2656247407813577,
        "distance_shoulder_pan_joint": 2.8134818688897667,
        "distance_wrist_1_joint": 2.267111157646823,
        "distance_wrist_2_joint": 0.8696772751528222,
        "distance_wrist_3_joint": 3.157238436411068,
        "smoothness": 0.081571977092004,
        "time": 0.13487317399999998,
        "traj_len": 3.819732871790154,
        "weighted_distance": 4.903225929676913
    },
    "planner": "KPIECE",
    "start": {
        "state": {
            "elbow_joint": -2.384821997420982,
            "shoulder_lift_joint": -2.2788054674887404,
            "shoulder_pan_joint": -0.18546946417610016,
            "wrist_1_joint": 1.4845937964226739,
            "wrist_2_joint": 0.1789877726866377,
            "wrist_3_joint": 0.03710572555276528
        }
    },
    "waypoints": [
        {
            "positions": [
                -0.18546946417610016,
                -2.2788054674887404,
                -2.384821997420982,
                1.4845937964226739,
                0.1789877726866377,
                0.03710572555276528
            ]
        },
        {
            "positions": [
                -0.16014038304387446,
                -2.252431031394928,
                -2.389387787593886,
                1.4732558257331887,
                0.19269205541899204,
                0.02715610908908432
            ]
        },
        {
            "positions": [
                -0.08620526764992642,
                -2.222087039678139,
                -2.2766199514185863,
                1.4082273411600879,
                0.21731545873582886,
                0.10938479159676234
            ]
        },
        {
            "positions": [
                -0.012270152255978384,
                -2.19174304796135,
                -2.163852115243287,
                1.3431988565869872,
                0.24193886205266568,
                0.19161347410444035
            ]
        },
        {
            "positions": [
                0.06166496313796968,
                -2.1613990562445613,
                -2.051084279067987,
                1.2781703720138864,
                0.26656226536950256,
                0.2738421566121184
            ]
        },
        {
            "positions": [
                0.1356000785319177,
                -2.131055064527772,
                -1.9383164428926876,
                1.2131418874407855,
                0.2911856686863393,
                0.3560708391197964
            ]
        },
        {
            "positions": [
                0.20953519392586573,
                -2.100711072810983,
                -1.8255486067173878,
                1.148113402867685,
                0.3158090720031762,
                0.4382995216274745
            ]
        },
        {
            "positions": [
                0.2834703093198138,
                -2.070367081094194,
                -1.7127807705420883,
                1.083084918294584,
                0.34043247532001303,
                0.5205282041351526
            ]
        },
        {
            "positions": [
                0.3574054247137618,
                -2.040023089377405,
                -1.6000129343667888,
                1.0180564337214832,
                0.36505587863684985,
                0.6027568866428304
            ]
        },
        {
            "positions": [
                0.43134054010770984,
                -2.0096790976606163,
                -1.4872450981914893,
                0.9530279491483826,
                0.3896792819536867,
                0.6849855691505085
            ]
        },
        {
            "positions": [
                0.5052756555016579,
                -1.9793351059438271,
                -1.3744772620161896,
                0.8879994645752818,
                0.4143026852705235,
                0.7672142516581866
            ]
        },
        {
            "positions": [
                0.5792107708956059,
                -1.9489911142270382,
                -1.26170942584089,
                0.822970980002181,
                0.4389260885873604,
                0.8494429341658646
            ]
        },
        {
            "positions": [
                0.653145886289554,
                -1.9186471225102493,
                -1.1489415896655903,
                0.7579424954290802,
                0.4635494919041972,
                0.9316716166735426
            ]
        },
        {
            "positions": [
                0.7270810016835021,
                -1.8883031307934601,
                -1.0361737534902908,
                0.6929140108559795,
                0.488172895221034,
                1.0139002991812207
            ]
        },
        {
            "positions": [
                0.8010161170774499,
                -1.8579591390766712,
                -0.9234059173149916,
                0.6278855262828789,
                0.5127962985378708,
                1.0961289816888986
            ]
        },
        {
            "positions": [
                0.874951232471398,
                -1.8276151473598823,
                -0.8106380811396918,
                0.562857041709778,
                0.5374197018547076,
                1.1783576641965767
            ]
        },
        {
            "positions": [
                0.9488863478653461,
                -1.7972711556430934,
                -0.6978702449643923,
                0.4978285571366773,
                0.5620431051715444,
                1.2605863467042548
            ]
        },
        {
            "positions": [
                1.022821463259294,
                -1.7669271639263042,
                -0.5851024087890926,
                0.43280007256357655,
                0.5866665084883813,
                1.3428150292119327
            ]
        },
        {
            "positions": [
                1.0967565786532423,
                -1.7365831722095153,
                -0.4723345726137931,
                0.3677715879904757,
                0.6112899118052182,
                1.4250437117196109
            ]
        },
        {
            "positions": [
                1.17069169404719,
                -1.7062391804927262,
                -0.35956673643849335,
                0.30274310341737487,
                0.635913315122055,
                1.507272394227289
            ]
        },
        {
            "positions": [
                1.2446268094411383,
                -1.6758951887759372,
                -0.24679890026319384,
                0.23771461884427425,
                0.6605367184388917,
                1.5895010767349669
            ]
        },
        {
            "positions": [
                1.3185619248350862,
                -1.6455511970591483,
                -0.13403106408789434,
                0.1726861342711734,
                0.6851601217557286,
                1.671729759242645
            ]
        },
        {
            "positions": [
                1.3924970402290344,
                -1.6152072053423594,
                -0.02126322791259483,
                0.10765764969807257,
                0.7097835250725655,
                1.7539584417503231
            ]
        },
        {
            "positions": [
                1.4664321556229822,
                -1.5848632136255705,
                0.09150460826270512,
                0.042629165124971724,
                0.7344069283894024,
                1.836187124258001
            ]
        },
        {
            "positions": [
                1.5403672710169305,
                -1.5545192219087813,
                0.20427244443800463,
                -0.022399319448128896,
                0.7590303317062391,
                1.9184158067656791
            ]
        },
        {
            "positions": [
                1.6143023864108788,
                -1.5241752301919922,
                0.31704028061330414,
                -0.08742780402122974,
                0.783653735023076,
                2.0006444892733573
            ]
        },
        {
            "positions": [
                1.6882375018048266,
                -1.4938312384752033,
                0.42980811678860364,
                -0.15245628859433058,
                0.8082771383399128,
                2.082873171781035
            ]
        },
        {
            "positions": [
                1.7621726171987744,
                -1.4634872467584144,
                0.5425759529639027,
                -0.21748477316743098,
                0.8329005416567495,
                2.1651018542887126
            ]
        },
        {
            "positions": [
                1.8361077325927222,
                -1.4331432550416254,
                0.6553437891392027,
                -0.2825132577405318,
                0.8575239449735864,
                2.2473305367963907
            ]
        },
        {
            "positions": [
                1.9100428479866705,
                -1.4027992633248365,
                0.7681116253145022,
                -0.34754174231363266,
                0.8821473482904232,
                2.329559219304069
            ]
        },
        {
            "positions": [
                1.9839779633806183,
                -1.3724552716080476,
                0.8808794614898017,
                -0.4125702268867333,
                0.9067707516072601,
                2.411787901811747
            ]
        },
        {
            "positions": [
                2.0579130787745665,
                -1.3421112798912587,
                0.9936472976651012,
                -0.4775987114598341,
                0.9313941549240969,
                2.494016584319425
            ]
        },
        {
            "positions": [
                2.1318481941685143,
                -1.3117672881744695,
                1.1064151338404007,
                -0.542627196032935,
                0.9560175582409337,
                2.5762452668271028
            ]
        },
        {
            "positions": [
                2.2057833095624626,
                -1.2814232964576804,
                1.2191829700157006,
                -0.6076556806060356,
                0.9806409615577706,
                2.658473949334781
            ]
        },
        {
            "positions": [
                2.2797184249564104,
                -1.2510793047408915,
                1.3319508061910001,
                -0.6726841651791367,
                1.0052643648746074,
                2.740702631842459
            ]
        },
        {
            "positions": [
                2.3536535403503587,
                -1.2207353130241025,
                1.4447186423662997,
                -0.7377126497522373,
                1.0298877681914442,
                2.822931314350137
            ]
        },
        {
            "positions": [
                2.4222432564411855,
                -1.1688466664449226,
                1.5393570205711327,
                -0.7489138276202152,
                1.0345820881034482,
                2.9108097180217207
            ]
        },
        {
            "positions": [
                2.4908329725320124,
                -1.1169580198657427,
                1.6339953987759654,
                -0.7601150054881931,
                1.0392764080154522,
                2.9986881216933043
            ]
        },
        {
            "positions": [
                2.5594226886228397,
                -1.0650693732865626,
                1.7286337769807982,
                -0.7713161833561711,
                1.043970727927456,
                3.086566525364888
            ]
        },
        {
            "positions": [
                2.6280124047136666,
                -1.0131807267073827,
                1.8232721551856312,
                -0.782517361224149,
                1.04866504783946,
                3.1744449290364716
            ]
        }
    ]
}