{
    "goal": {
        "global_pose": {
            "orientation": {
                "w": 0.005598929693374612,
                "x": 0.007748599140229565,
                "y": 0.7110244013736278,
                "z": -0.7031023480610252
            },
            "position": {
                "x": -0.8858502320852131,
                "y": -0.7141253447532654,
                "z": 0.3711530566215515
            }
        },
        "name": "move_to_auspresseinheit_C"
    },
    "id": "KPIECE_move_to_auspresseinheit_C_100",
    "joint_names": [
        "shoulder_pan_joint",
        "shoulder_lift_joint",
        "elbow_joint",
        "wrist_1_joint",
        "wrist_2_joint",
        "wrist_3_joint"
    ],
    "metrics": {
        "cart_traj_len": 0.49284415118911196,
        "distance_elbow_joint": 1.0111650561511687,
        "distance_shoulder_lift_joint": 0.3302638157679906,
        "distance_shoulder_pan_joint": 0.2560467523256156,
        "distance_wrist_1_joint": 0.7111569540973262,
        "distance_wrist_2_joint": 1.3060760736716839,
        "distance_wrist_3_joint": 0.08692522591781016,
        "smoothness": 4.844609574787718e-16,
        "time": 1.585322803,
        "traj_len": 1.9239630656360311,
        "weighted_distance": 2.4274919891806492
    },
    "planner": "KPIECE",
    "start": {
        "state": {
            "elbow_joint": 1.752795957773711,
            "shoulder_lift_joint": -0.9740617694225064,
            "shoulder_pan_joint": -2.967991417825858,
            "wrist_1_joint": -0.7595177689806859,
            "wrist_2_joint": 1.7443932448377395,
            "wrist_3_joint": 3.199131542505932
        }
    },
    "waypoints": [
        {
            "positions": [
                -2.967991417825858,
                -0.9740617694225064,
                1.752795957773711,
                -0.7595177689806859,
                1.7443932448377395,
                3.199131542505932
            ]
        },
        {
            "positions": [
                -2.9423867425932966,
                -0.9410353878457074,
                1.6516794521585942,
                -0.6884020735709533,
                1.613785637470571,
                3.1904390199141512
            ]
        },
        {
            "positions": [
                -2.9167820673607348,
                -0.9080090062689083,
                1.5505629465434774,
                -0.6172863781612207,
                1.4831780301034028,
                3.18174649732237
            ]
        },
        {
            "positions": [
                -2.8911773921281734,
                -0.8749826246921093,
                1.4494464409283605,
                -0.5461706827514881,
                1.3525704227362343,
                3.173053974730589
            ]
        },
        {
            "positions": [
                -2.8655727168956115,
                -0.8419562431153103,
                1.3483299353132436,
                -0.47505498734175544,
                1.221962815369066,
                3.164361452138808
            ]
        },
        {
            "positions": [
                -2.83996804166305,
                -0.8089298615385112,
                1.2472134296981268,
                -0.4039392919320228,
                1.0913552080018976,
                3.1556689295470273
            ]
        },
        {
            "positions": [
                -2.814363366430489,
                -0.7759034799617122,
                1.14609692408301,
                -0.3328235965222902,
                0.9607476006347292,
                3.146976406955246
            ]
        },
        {
            "positions": [
                -2.788758691197927,
                -0.7428770983849131,
                1.044980418467893,
                -0.26170790111255765,
                0.8301399932675608,
                3.138283884363465
            ]
        },
        {
            "positions": [
                -2.7631540159653656,
                -0.709850716808114,
                0.9438639128527762,
                -0.19059220570282498,
                0.6995323859003924,
                3.129591361771684
            ]
        },
        {
            "positions": [
                -2.7375493407328038,
                -0.6768243352313149,
                0.8427474072376593,
                -0.11947651029309236,
                0.5689247785332239,
                3.120898839179903
            ]
        },
        {
            "positions": [
                -2.7119446655002424,
                -0.6437979536545159,
                0.7416309016225423,
                -0.0483608148833598,
                0.4383171711660556,
                3.112206316588122
            ]
        }
    ]
}