{
    "goal": {
        "global_pose": {
            "orientation": {
                "w": -0.4816463035849501,
                "x": 0.5182115481033762,
                "y": 0.4908360881923453,
                "z": -0.5084816262002911
            },
            "position": {
                "x": -0.8240239810943604,
                "y": -0.300875300988555,
                "z": 0.16403168439865112
            }
        },
        "name": "move_to_storage_C"
    },
    "id": "KPIECE_move_to_storage_C_130",
    "joint_names": [
        "shoulder_pan_joint",
        "shoulder_lift_joint",
        "elbow_joint",
        "wrist_1_joint",
        "wrist_2_joint",
        "wrist_3_joint"
    ],
    "metrics": {
        "cart_traj_len": 0.576924346959791,
        "distance_elbow_joint": 0.2583161159908749,
        "distance_shoulder_lift_joint": 0.1885546036168788,
        "distance_shoulder_pan_joint": 0.4945597621044704,
        "distance_wrist_1_joint": 0.07915657216454774,
        "distance_wrist_2_joint": 1.0721831494605811,
        "distance_wrist_3_joint": 0.057020839089429565,
        "smoothness": 0.0,
        "time": 0.011335289,
        "traj_len": 1.4662165741890871,
        "weighted_distance": 1.848018517826802
    },
    "planner": "KPIECE",
    "start": {
        "state": {
            "elbow_joint": 2.010868315001653,
            "shoulder_lift_joint": -1.1634956873357014,
            "shoulder_pan_joint": -2.4736205022346103,
            "wrist_1_joint": -0.8367026794713948,
            "wrist_2_joint": 0.6746043897044093,
            "wrist_3_joint": 3.1335220948105738
        }
    },
    "waypoints": [
        {
            "positions": [
                -2.4736205022346103,
                -1.1634956873357014,
                2.010868315001653,
                -0.8367026794713948,
                0.6746043897044093,
                3.1335220948105738
            ]
        },
        {
            "positions": [
                -2.556047129252022,
                -1.1320699200662216,
                1.9678156290031739,
                -0.8235099174439702,
                0.8533015812811728,
                3.1430255679921455
            ]
        },
        {
            "positions": [
                -2.6384737562694336,
                -1.1006441527967419,
                1.9247629430046949,
                -0.8103171554165455,
                1.0319987728579363,
                3.152529041173717
            ]
        },
        {
            "positions": [
                -2.7209003832868452,
                -1.069218385527262,
                1.8817102570062156,
                -0.7971243933891209,
                1.2106959644347,
                3.1620325143552885
            ]
        },
        {
            "positions": [
                -2.8033270103042573,
                -1.0377926182577821,
                1.8386575710077364,
                -0.7839316313616963,
                1.3893931560114634,
                3.1715359875368603
            ]
        },
        {
            "positions": [
                -2.885753637321669,
                -1.0063668509883024,
                1.7956048850092574,
                -0.7707388693342716,
                1.5680903475882269,
                3.1810394607184316
            ]
        },
        {
            "positions": [
                -2.9681802643390807,
                -0.9749410837188226,
                1.7525521990107782,
                -0.757546107306847,
                1.7467875391649903,
                3.1905429339000033
            ]
        }
    ]
}