{
    "goal": {
        "global_pose": {
            "orientation": {
                "w": 0.7047431493862688,
                "x": -0.7094548369677653,
                "y": 0.0024358444001904,
                "z": -0.0022348060817251984
            },
            "position": {
                "x": -0.39052492380142206,
                "y": 0.3671506643295288,
                "z": 0.19426114857196808
            }
        },
        "name": "move_to_magneteinheit_D"
    },
    "id": "KPIECE_move_to_magneteinheit_D_3",
    "joint_names": [
        "shoulder_pan_joint",
        "shoulder_lift_joint",
        "elbow_joint",
        "wrist_1_joint",
        "wrist_2_joint",
        "wrist_3_joint"
    ],
    "metrics": {
        "cart_traj_len": 7.9765793024832625,
        "distance_elbow_joint": 4.037228251787503,
        "distance_shoulder_lift_joint": 2.227873805249997,
        "distance_shoulder_pan_joint": 9.014850881730526,
        "distance_wrist_1_joint": 3.376927623141793,
        "distance_wrist_2_joint": 6.277982727923278,
        "distance_wrist_3_joint": 8.695203549909401,
        "smoothness": 0.5695673954754205,
        "time": 0.219331903,
        "traj_len": 5.799143629859714,
        "weighted_distance": 7.789440563392621
    },
    "planner": "KPIECE",
    "start": {
        "state": {
            "elbow_joint": 0.7495348899011973,
            "shoulder_lift_joint": -0.6476975780737697,
            "shoulder_pan_joint": -2.711696901376276,
            "wrist_1_joint": -0.07506478080974305,
            "wrist_2_joint": 0.4329665971545858,
            "wrist_3_joint": 3.1361499051832524
        }
    },
    "waypoints": [
        {
            "positions": [
                -2.711696901376276,
                -0.6476975780737697,
                0.7495348899011973,
                -0.07506478080974305,
                0.4329665971545858,
                3.1361499051832524
            ]
        },
        {
            "positions": [
                -2.7450986921245413,
                -0.6892983551453458,
                0.7775237275079925,
                0.016947079435696566,
                0.5227660018403961,
                3.124677487861685
            ]
        },
        {
            "positions": [
                -2.778500482872806,
                -0.7308991322169217,
                0.8055125651147875,
                0.10895893968113618,
                0.6125654065262064,
                3.1132050705401175
            ]
        },
        {
            "positions": [
                -2.7461492658929054,
                -0.7927172449353155,
                0.807226832665968,
                0.20911718422411524,
                0.7268525434592403,
                3.0385444836802096
            ]
        },
        {
            "positions": [
                -2.713798048913005,
                -0.8545353576537091,
                0.8089411002171483,
                0.30927542876709435,
                0.8411396803922744,
                2.9638838968203016
            ]
        },
        {
            "positions": [
                -2.6814468319331044,
                -0.9163534703721029,
                0.8106553677683287,
                0.4094336733100734,
                0.9554268173253083,
                2.8892233099603932
            ]
        },
        {
            "positions": [
                -2.649095614953204,
                -0.9781715830904967,
                0.8123696353195091,
                0.5095919178530525,
                1.0697139542583423,
                2.8145627231004853
            ]
        },
        {
            "positions": [
                -2.5684161221111914,
                -0.9974280374575724,
                0.7415951207219778,
                0.4476950135769888,
                1.0458744509941533,
                2.6777973719659025
            ]
        },
        {
            "positions": [
                -2.487736629269179,
                -1.016684491824648,
                0.6708206061244464,
                0.38579810930092523,
                1.0220349477299642,
                2.54103202083132
            ]
        },
        {
            "positions": [
                -2.4070571364271665,
                -1.0359409461917237,
                0.6000460915269149,
                0.3239012050248616,
                0.9981954444657752,
                2.4042666696967374
            ]
        },
        {
            "positions": [
                -2.326377643585154,
                -1.0551974005587996,
                0.5292715769293835,
                0.262004300748798,
                0.9743559412015862,
                2.2675013185621546
            ]
        },
        {
            "positions": [
                -2.2456981507431415,
                -1.0744538549258753,
                0.4584970623318521,
                0.20010739647273434,
                0.9505164379373972,
                2.1307359674275723
            ]
        },
        {
            "positions": [
                -2.165018657901129,
                -1.093710309292951,
                0.38772254773432074,
                0.1382104921966707,
                0.9266769346732081,
                1.9939706162929896
            ]
        },
        {
            "positions": [
                -2.0843391650591165,
                -1.1129667636600267,
                0.3169480331367894,
                0.0763135879206071,
                0.9028374314090192,
                1.8572052651584068
            ]
        },
        {
            "positions": [
                -2.003659672217104,
                -1.1322232180271024,
                0.24617351853925795,
                0.01441668364454346,
                0.8789979281448301,
                1.7204399140238242
            ]
        },
        {
            "positions": [
                -1.9229801793750918,
                -1.151479672394178,
                0.17539900394172658,
                -0.04748022063152013,
                0.8551584248806411,
                1.5836745628892415
            ]
        },
        {
            "positions": [
                -1.8423006865330793,
                -1.1707361267612537,
                0.1046244893441951,
                -0.10937712490758378,
                0.831318921616452,
                1.446909211754659
            ]
        },
        {
            "positions": [
                -1.7616211936910668,
                -1.1899925811283296,
                0.033849974746663736,
                -0.17127402918364742,
                0.8074794183522631,
                1.3101438606200762
            ]
        },
        {
            "positions": [
                -1.6809417008490544,
                -1.2092490354954053,
                -0.03692453985086763,
                -0.23317093345971107,
                0.783639915088074,
                1.1733785094854936
            ]
        },
        {
            "positions": [
                -1.600262208007042,
                -1.228505489862481,
                -0.10769905444839889,
                -0.2950678377357746,
                0.759800411823885,
                1.036613158350911
            ]
        },
        {
            "positions": [
                -1.5195827151650296,
                -1.2477619442295567,
                -0.17847356904593037,
                -0.35696474201183825,
                0.7359609085596961,
                0.8998478072163285
            ]
        },
        {
            "positions": [
                -1.4389032223230172,
                -1.2670183985966323,
                -0.24924808364346185,
                -0.4188616462879019,
                0.7121214052955069,
                0.763082456081746
            ]
        },
        {
            "positions": [
                -1.3582237294810047,
                -1.286274852963708,
                -0.3200225982409932,
                -0.48075855056396555,
                0.688281902031318,
                0.6263171049471632
            ]
        },
        {
            "positions": [
                -1.2775442366389922,
                -1.3055313073307837,
                -0.3907971128385246,
                -0.5426554548400292,
                0.664442398767129,
                0.4895517538125804
            ]
        },
        {
            "positions": [
                -1.1968647437969797,
                -1.3247877616978596,
                -0.46157162743605595,
                -0.6045523591160927,
                0.6406028955029399,
                0.35278640267799766
            ]
        },
        {
            "positions": [
                -1.1161852509549672,
                -1.3440442160649353,
                -0.5323461420335873,
                -0.6664492633921565,
                0.616763392238751,
                0.2160210515434149
            ]
        },
        {
            "positions": [
                -1.0355057581129548,
                -1.363300670432011,
                -0.6031206566311189,
                -0.72834616766822,
                0.5929238889745618,
                0.07925570040883256
            ]
        },
        {
            "positions": [
                -0.9548262652709423,
                -1.3825571247990867,
                -0.6738951712286503,
                -0.7902430719442838,
                0.5690843857103729,
                -0.057509650725750205
            ]
        },
        {
            "positions": [
                -0.8741467724289298,
                -1.4018135791661623,
                -0.7446696858261816,
                -0.8521399762203473,
                0.5452448824461839,
                -0.19427500186033297
            ]
        },
        {
            "positions": [
                -0.7934672795869173,
                -1.4210700335332382,
                -0.815444200423713,
                -0.9140368804964111,
                0.5214053791819948,
                -0.33104035299491574
            ]
        },
        {
            "positions": [
                -0.7127877867449048,
                -1.440326487900314,
                -0.8862187150212444,
                -0.9759337847724746,
                0.49756587591780577,
                -0.46780570412949807
            ]
        },
        {
            "positions": [
                -0.6321082939028924,
                -1.4595829422673896,
                -0.956993229618776,
                -1.0378306890485383,
                0.47372637265361683,
                -0.6045710552640808
            ]
        },
        {
            "positions": [
                -0.5514288010608803,
                -1.478839396634465,
                -1.027767744216307,
                -1.0997275933246016,
                0.4498868693894278,
                -0.7413364063986632
            ]
        },
        {
            "positions": [
                -0.47074930821886785,
                -1.498095851001541,
                -1.0985422588138385,
                -1.1616244976006653,
                0.42604736612523886,
                -0.8781017575332459
            ]
        },
        {
            "positions": [
                -0.39006981537685537,
                -1.5173523053686166,
                -1.1693167734113699,
                -1.223521401876729,
                0.4022078628610498,
                -1.0148671086678283
            ]
        },
        {
            "positions": [
                -0.3093903225348429,
                -1.5366087597356923,
                -1.2400912880089014,
                -1.2854183061527928,
                0.37836835959686077,
                -1.151632459802411
            ]
        },
        {
            "positions": [
                -0.2287108296928304,
                -1.5558652141027682,
                -1.3108658026064328,
                -1.3473152104288562,
                0.3545288563326717,
                -1.2883978109369933
            ]
        },
        {
            "positions": [
                -0.14803133685081793,
                -1.5751216684698437,
                -1.3816403172039642,
                -1.40921211470492,
                0.3306893530684827,
                -1.4251631620715766
            ]
        },
        {
            "positions": [
                -0.06735184400880545,
                -1.5943781228369196,
                -1.4524148318014956,
                -1.4711090189809837,
                0.30684984980429375,
                -1.5619285132061589
            ]
        },
        {
            "positions": [
                0.013327648833207029,
                -1.6136345772039953,
                -1.523189346399027,
                -1.533005923257047,
                0.2830103465401047,
                -1.698693864340742
            ]
        },
        {
            "positions": [
                0.09400714167521951,
                -1.632891031571071,
                -1.593963860996558,
                -1.594902827533111,
                0.2591708432759157,
                -1.8354592154753246
            ]
        },
        {
            "positions": [
                0.2389253211696937,
                -1.6049922046709892,
                -1.573379103947894,
                -1.6004056408644238,
                0.12768488051878069,
                -1.7725500588511205
            ]
        },
        {
            "positions": [
                0.3838435006641679,
                -1.5770933777709073,
                -1.5527943468992296,
                -1.6059084541957367,
                -0.0038010822383543474,
                -1.7096409022269166
            ]
        },
        {
            "positions": [
                0.5287616801586421,
                -1.5491945508708256,
                -1.5322095898505654,
                -1.6114112675270496,
                -0.13528704499548933,
                -1.6467317456027124
            ]
        },
        {
            "positions": [
                0.6736798596531163,
                -1.5212957239707436,
                -1.511624832801901,
                -1.6169140808583624,
                -0.2667730077526244,
                -1.5838225889785085
            ]
        },
        {
            "positions": [
                0.8185980391475904,
                -1.493396897070662,
                -1.491040075753237,
                -1.6224168941896755,
                -0.3982589705097594,
                -1.5209134323543043
            ]
        },
        {
            "positions": [
                0.9635162186420646,
                -1.4654980701705802,
                -1.4704553187045728,
                -1.6279197075209884,
                -0.5297449332668944,
                -1.4580042757301004
            ]
        },
        {
            "positions": [
                1.1084343981365388,
                -1.4375992432704983,
                -1.4498705616559084,
                -1.6334225208523012,
                -0.6612308960240294,
                -1.3950951191058962
            ]
        },
        {
            "positions": [
                1.253352577631013,
                -1.4097004163704165,
                -1.4292858046072443,
                -1.638925334183614,
                -0.7927168587811646,
                -1.332185962481692
            ]
        },
        {
            "positions": [
                1.3982707571254873,
                -1.3818015894703346,
                -1.40870104755858,
                -1.644428147514927,
                -0.9242028215382996,
                -1.2692768058574881
            ]
        },
        {
            "positions": [
                1.5431889366199614,
                -1.3539027625702529,
                -1.3881162905099158,
                -1.6499309608462398,
                -1.0556887842954346,
                -1.2063676492332842
            ]
        },
        {
            "positions": [
                1.6881071161144356,
                -1.3260039356701712,
                -1.3675315334612517,
                -1.6554337741775527,
                -1.1871747470525698,
                -1.14345849260908
            ]
        },
        {
            "positions": [
                1.8330252956089097,
                -1.2981051087700892,
                -1.3469467764125873,
                -1.6609365875088655,
                -1.3186607098097045,
                -1.080549335984876
            ]
        },
        {
            "positions": [
                1.977943475103384,
                -1.2702062818700075,
                -1.3263620193639232,
                -1.6664394008401784,
                -1.4501466725668397,
                -1.0176401793606717
            ]
        },
        {
            "positions": [
                2.122861654597858,
                -1.2423074549699256,
                -1.3057772623152588,
                -1.6719422141714912,
                -1.5816326353239745,
                -0.9547310227364679
            ]
        },
        {
            "positions": [
                2.267779834092332,
                -1.2144086280698438,
                -1.2851925052665947,
                -1.677445027502804,
                -1.7131185980811097,
                -0.8918218661122639
            ]
        },
        {
            "positions": [
                2.4126980135868066,
                -1.1865098011697621,
                -1.2646077482179305,
                -1.6829478408341172,
                -1.8446045608382449,
                -0.8289127094880597
            ]
        },
        {
            "positions": [
                2.5576161930812806,
                -1.1586109742696802,
                -1.2440229911692662,
                -1.68845065416543,
                -1.9760905235953798,
                -0.7660035528638558
            ]
        },
        {
            "positions": [
                2.702534372575755,
                -1.1307121473695982,
                -1.223438234120602,
                -1.693953467496743,
                -2.1075764863525146,
                -0.7030943962396516
            ]
        },
        {
            "positions": [
                2.8474525520702287,
                -1.1028133204695165,
                -1.2028534770719377,
                -1.6994562808280558,
                -2.2390624491096496,
                -0.6401852396154477
            ]
        },
        {
            "positions": [
                2.9923707315647032,
                -1.0749144935694348,
                -1.1822687200232735,
                -1.7049590941593686,
                -2.3705484118667846,
                -0.5772760829912436
            ]
        },
        {
            "positions": [
                2.8701716513417614,
                -1.1012492556367832,
                -1.2267442919109597,
                -1.7271790907926985,
                -2.285895603993923,
                -0.6720995944053489
            ]
        },
        {
            "positions": [
                2.747972571118819,
                -1.1275840177041316,
                -1.271219863798646,
                -1.7493990874260281,
                -2.2012427961210617,
                -0.7669231058194543
            ]
        },
        {
            "positions": [
                2.6257734908958774,
                -1.1539187797714803,
                -1.3156954356863322,
                -1.771619084059358,
                -2.1165899882482,
                -0.8617466172335597
            ]
        },
        {
            "positions": [
                2.503574410672935,
                -1.1802535418388287,
                -1.3601710075740183,
                -1.7938390806926878,
                -2.0319371803753388,
                -0.9565701286476651
            ]
        },
        {
            "positions": [
                2.3813753304499934,
                -1.206588303906177,
                -1.4046465794617047,
                -1.8160590773260175,
                -1.947284372502477,
                -1.0513936400617705
            ]
        },
        {
            "positions": [
                2.259176250227051,
                -1.2329230659735255,
                -1.4491221513493908,
                -1.8382790739593473,
                -1.8626315646296159,
                -1.1462171514758759
            ]
        },
        {
            "positions": [
                2.1369771700041094,
                -1.259257828040874,
                -1.493597723237077,
                -1.860499070592677,
                -1.7779787567567542,
                -1.241040662889981
            ]
        },
        {
            "positions": [
                2.014778089781167,
                -1.2855925901082226,
                -1.538073295124763,
                -1.8827190672260068,
                -1.6933259488838928,
                -1.3358641743040867
            ]
        },
        {
            "positions": [
                1.8925790095582256,
                -1.311927352175571,
                -1.5825488670124495,
                -1.9049390638593366,
                -1.6086731410110313,
                -1.4306876857181918
            ]
        },
        {
            "positions": [
                1.7703799293352833,
                -1.3382621142429194,
                -1.6270244389001356,
                -1.9271590604926665,
                -1.5240203331381699,
                -1.5255111971322974
            ]
        },
        {
            "positions": [
                1.6481808491123415,
                -1.3645968763102678,
                -1.6715000107878217,
                -1.9493790571259961,
                -1.4393675252653084,
                -1.6203347085464026
            ]
        },
        {
            "positions": [
                1.5259817688893993,
                -1.3909316383776162,
                -1.715975582675508,
                -1.971599053759326,
                -1.354714717392447,
                -1.715158219960508
            ]
        },
        {
            "positions": [
                1.4037826886664575,
                -1.4172664004449649,
                -1.7604511545631942,
                -1.9938190503926556,
                -1.2700619095195855,
                -1.8099817313746134
            ]
        },
        {
            "positions": [
                1.2815836084435157,
                -1.443601162512313,
                -1.8049267264508804,
                -2.0160390470259855,
                -1.185409101646724,
                -1.9048052427887188
            ]
        },
        {
            "positions": [
                1.1593845282205737,
                -1.4699359245796617,
                -1.8494022983385667,
                -2.0382590436593153,
                -1.1007562937738626,
                -1.999628754202824
            ]
        },
        {
            "positions": [
                1.0371854479976315,
                -1.4962706866470101,
                -1.8938778702262529,
                -2.060479040292645,
                -1.016103485901001,
                -2.0944522656169298
            ]
        },
        {
            "positions": [
                0.9149863677746897,
                -1.5226054487143585,
                -1.938353442113939,
                -2.082699036925975,
                -0.9314506780281397,
                -2.189275777031035
            ]
        },
        {
            "positions": [
                0.7927872875517479,
                -1.5489402107817072,
                -1.9828290140016254,
                -2.1049190335593044,
                -0.8467978701552783,
                -2.28409928844514
            ]
        },
        {
            "positions": [
                0.6705882073288056,
                -1.5752749728490554,
                -2.0273045858893113,
                -2.1271390301926343,
                -0.7621450622824169,
                -2.3789227998592457
            ]
        },
        {
            "positions": [
                0.5483891271058634,
                -1.601609734916404,
                -2.0717801577769976,
                -2.149359026825964,
                -0.6774922544095552,
                -2.4737463112733513
            ]
        },
        {
            "positions": [
                0.4261900468829216,
                -1.6279444969837524,
                -2.116255729664684,
                -2.171579023459294,
                -0.5928394465366937,
                -2.5685698226874565
            ]
        },
        {
            "positions": [
                0.3039909666599798,
                -1.6542792590511008,
                -2.16073130155237,
                -2.193799020092624,
                -0.5081866386638323,
                -2.6633933341015616
            ]
        },
        {
            "positions": [
                0.18179188643703803,
                -1.6806140211184495,
                -2.2052068734400563,
                -2.2160190167259533,
                -0.42353383079097107,
                -2.758216845515667
            ]
        },
        {
            "positions": [
                0.05959280621409535,
                -1.706948783185798,
                -2.2496824453277426,
                -2.2382390133592835,
                -0.3388810229181094,
                -2.8530403569297724
            ]
        },
        {
            "positions": [
                -0.06260627400884644,
                -1.7332835452531463,
                -2.2941580172154286,
                -2.260459009992613,
                -0.25422821504524773,
                -2.947863868343878
            ]
        },
        {
            "positions": [
                -0.18480535423178832,
                -1.7596183073204947,
                -2.338633589103115,
                -2.282679006625943,
                -0.16957540717238673,
                -3.042687379757983
            ]
        }
    ]
}