{
    "goal": {
        "global_pose": {
            "orientation": {
                "w": -0.00223480608172531,
                "x": 0.0024358444001904467,
                "y": 0.7094548369677653,
                "z": -0.704743149386269
            },
            "position": {
                "x": -0.37947507619857795,
                "y": -0.6371506643295288,
                "z": 0.19426114857196808
            }
        },
        "name": "move_to_magneteinheit_C"
    },
    "id": "KPIECE_move_to_magneteinheit_C_2",
    "joint_names": [
        "shoulder_pan_joint",
        "shoulder_lift_joint",
        "elbow_joint",
        "wrist_1_joint",
        "wrist_2_joint",
        "wrist_3_joint"
    ],
    "metrics": {
        "cart_traj_len": 3.381722268200335,
        "distance_elbow_joint": 2.6670162061463127,
        "distance_shoulder_lift_joint": 0.9478046461290754,
        "distance_shoulder_pan_joint": 2.9530380507332015,
        "distance_wrist_1_joint": 2.2358105805259516,
        "distance_wrist_2_joint": 1.8123027486619385,
        "distance_wrist_3_joint": 6.966439390501256,
        "smoothness": 0.9276185182121035,
        "time": 0.98101578,
        "traj_len": 4.1931386362363146,
        "weighted_distance": 5.963505993363983
    },
    "planner": "KPIECE",
    "start": {
        "state": {
            "elbow_joint": 1.9565354006590394,
            "shoulder_lift_joint": -1.4165861576513559,
            "shoulder_pan_joint": -1.6717766223277177,
            "wrist_1_joint": -0.5286633288215096,
            "wrist_2_joint": 1.4727565892594296,
            "wrist_3_joint": 3.1593482883155493
        }
    },
    "waypoints": [
        {
            "positions": [
                -1.6717766223277177,
                -1.4165861576513559,
                1.9565354006590394,
                -0.5286633288215096,
                1.4727565892594296,
                3.1593482883155493
            ]
        },
        {
            "positions": [
                -1.5471394075590168,
                -1.3849958874977546,
                1.9611760517414107,
                -0.6247165603208957,
                1.4960434817520867,
                3.0732574214708084
            ]
        },
        {
            "positions": [
                -1.4225021927903159,
                -1.3534056173441535,
                1.965816702823782,
                -0.7207697918202819,
                1.519330374244744,
                2.987166554626068
            ]
        },
        {
            "positions": [
                -1.297864978021615,
                -1.3218153471905523,
                1.9704573539061534,
                -0.816823023319668,
                1.542617266737401,
                2.901075687781327
            ]
        },
        {
            "positions": [
                -1.173227763252914,
                -1.2902250770369512,
                1.9750980049885247,
                -0.9128762548190542,
                1.5659041592300582,
                2.814984820936586
            ]
        },
        {
            "positions": [
                -1.048590548484213,
                -1.25863480688335,
                1.979738656070896,
                -1.0089294863184404,
                1.5891910517227152,
                2.7288939540918458
            ]
        },
        {
            "positions": [
                -1.0287492145603023,
                -1.2553680249974737,
                1.8906822935514114,
                -0.9396747819150068,
                1.5485216630601493,
                2.6001585391560704
            ]
        },
        {
            "positions": [
                -1.0089078806363914,
                -1.2521012431115972,
                1.8016259310319265,
                -0.8704200775115731,
                1.5078522743975833,
                2.471423124220295
            ]
        },
        {
            "positions": [
                -0.9890665467124806,
                -1.248834461225721,
                1.7125695685124418,
                -0.8011653731081395,
                1.467182885735017,
                2.3426877092845197
            ]
        },
        {
            "positions": [
                -0.9692252127885698,
                -1.2455676793398447,
                1.6235132059929571,
                -0.7319106687047059,
                1.4265134970724511,
                2.2139522943487444
            ]
        },
        {
            "positions": [
                -0.949383878864659,
                -1.2423008974539682,
                1.5344568434734722,
                -0.6626559643012723,
                1.3858441084098851,
                2.085216879412969
            ]
        },
        {
            "positions": [
                -0.9295425449407482,
                -1.239034115568092,
                1.4454004809539875,
                -0.5934012598978387,
                1.3451747197473192,
                1.9564814644771937
            ]
        },
        {
            "positions": [
                -0.9791136992172158,
                -1.23883358150184,
                1.3781407888863848,
                -0.5735783167387755,
                1.2936102328780816,
                1.8249757275331109
            ]
        },
        {
            "positions": [
                -1.0286848534936834,
                -1.238633047435588,
                1.3108810968187823,
                -0.5537553735797122,
                1.242045746008844,
                1.6934699905890283
            ]
        },
        {
            "positions": [
                -1.0782560077701513,
                -1.2384325133693361,
                1.2436214047511795,
                -0.533932430420649,
                1.1904812591396063,
                1.5619642536449454
            ]
        },
        {
            "positions": [
                -1.127827162046619,
                -1.238231979303084,
                1.176361712683577,
                -0.5141094872615858,
                1.1389167722703688,
                1.4304585167008628
            ]
        },
        {
            "positions": [
                -1.1773983163230866,
                -1.2380314452368322,
                1.1091020206159743,
                -0.49428654410252254,
                1.0873522854011313,
                1.29895277975678
            ]
        },
        {
            "positions": [
                -1.2777136579411135,
                -1.2415019085663506,
                1.0903352299197164,
                -0.46400497766072946,
                1.0166388851182446,
                1.1460738895947822
            ]
        },
        {
            "positions": [
                -1.3780289995591406,
                -1.2449723718958687,
                1.0715684392234583,
                -0.43372341121893637,
                0.9459254848353581,
                0.9931949994327842
            ]
        },
        {
            "positions": [
                -1.4783443411771675,
                -1.248442835225387,
                1.0528016485272005,
                -0.4034418447771433,
                0.8752120845524715,
                0.8403161092707865
            ]
        },
        {
            "positions": [
                -1.5786596827951946,
                -1.2519132985549053,
                1.0340348578309426,
                -0.3731602783353502,
                0.8044986842695849,
                0.6874372191087886
            ]
        },
        {
            "positions": [
                -1.6789750244132216,
                -1.2553837618844237,
                1.0152680671346848,
                -0.3428787118935571,
                0.7337852839866983,
                0.5345583289467909
            ]
        },
        {
            "positions": [
                -1.7792903660312485,
                -1.2588542252139419,
                0.9965012764384267,
                -0.31259714545176404,
                0.6630718837038116,
                0.38167943878479316
            ]
        },
        {
            "positions": [
                -1.8796057076492754,
                -1.26232468854346,
                0.9777344857421688,
                -0.28231557900997095,
                0.5923584834209251,
                0.2288005486227953
            ]
        },
        {
            "positions": [
                -1.9799210492673027,
                -1.2657951518729784,
                0.9589676950459108,
                -0.25203401256817787,
                0.5216450831380385,
                0.07592165846079735
            ]
        },
        {
            "positions": [
                -2.0802363908853296,
                -1.2692656152024968,
                0.9402009043496529,
                -0.22175244612638478,
                0.45093168285515184,
                -0.07695723170120039
            ]
        },
        {
            "positions": [
                -2.1805517325033565,
                -1.272736078532015,
                0.921434113653395,
                -0.1914708796845917,
                0.3802182825722653,
                -0.22983612186319807
            ]
        },
        {
            "positions": [
                -2.2381539802686996,
                -1.1823321875718062,
                0.8383811851328968,
                -0.23628552174875772,
                0.3748562484295355,
                -0.18861394722464003
            ]
        },
        {
            "positions": [
                -2.2957562280340422,
                -1.0919282966115977,
                0.7553282566123988,
                -0.2811001638129238,
                0.3694942142868058,
                -0.147391772586082
            ]
        },
        {
            "positions": [
                -2.3533584757993853,
                -1.001524405651389,
                0.6722753280919006,
                -0.3259148058770898,
                0.364132180144076,
                -0.10616959794752395
            ]
        },
        {
            "positions": [
                -2.504443545405316,
                -0.9513373769990519,
                0.7326400611707761,
                -0.27416944767162166,
                0.33833593647496,
                -0.14498391324076668
            ]
        },
        {
            "positions": [
                -2.6555286150112467,
                -0.9011503483467147,
                0.7930047942496515,
                -0.22242408946615344,
                0.312539692805844,
                -0.1837982285340094
            ]
        },
        {
            "positions": [
                -2.8066136846171776,
                -0.8509633196943776,
                0.853369527328527,
                -0.17067873126068525,
                0.286743449136728,
                -0.22261254382725212
            ]
        },
        {
            "positions": [
                -2.785755382512815,
                -0.8705116035432358,
                0.9255729912984542,
                -0.2112040947348271,
                0.3113322418625196,
                -0.014040949419308196
            ]
        },
        {
            "positions": [
                -2.7648970804084523,
                -0.890059887392094,
                0.9977764552683812,
                -0.25172945820896897,
                0.3359210345883112,
                0.19453064498863573
            ]
        },
        {
            "positions": [
                -2.74403877830409,
                -0.9096081712409522,
                1.0699799192383084,
                -0.29225482168311084,
                0.3605098273141028,
                0.40310223939657963
            ]
        },
        {
            "positions": [
                -2.723180476199727,
                -0.9291564550898104,
                1.1421833832082355,
                -0.3327801851572527,
                0.38509862003989437,
                0.6116738338045236
            ]
        },
        {
            "positions": [
                -2.7023221740953645,
                -0.9487047389386687,
                1.2143868471781627,
                -0.37330554863139453,
                0.409687412765686,
                0.8202454282124674
            ]
        },
        {
            "positions": [
                -2.6814638719910016,
                -0.9682530227875269,
                1.2865903111480899,
                -0.4138309121055364,
                0.4342762054914776,
                1.0288170226204114
            ]
        },
        {
            "positions": [
                -2.660605569886639,
                -0.9878013066363851,
                1.3587937751180168,
                -0.4543562755796783,
                0.4588649982172692,
                1.2373886170283555
            ]
        },
        {
            "positions": [
                -2.639747267782276,
                -1.0073495904852434,
                1.4309972390879442,
                -0.4948816390538201,
                0.4834537909430608,
                1.4459602114362993
            ]
        },
        {
            "positions": [
                -2.6188889656779137,
                -1.0268978743341015,
                1.5032007030578711,
                -0.535407002527962,
                0.5080425836688524,
                1.654531805844243
            ]
        },
        {
            "positions": [
                -2.5980306635735513,
                -1.0464461581829598,
                1.5754041670277985,
                -0.5759323660021038,
                0.532631376394644,
                1.863103400252187
            ]
        },
        {
            "positions": [
                -2.5771723614691884,
                -1.065994442031818,
                1.6476076309977254,
                -0.6164577294762457,
                0.5572201691204356,
                2.0716749946601314
            ]
        },
        {
            "positions": [
                -2.556314059364826,
                -1.0855427258806762,
                1.7198110949676526,
                -0.6569830929503876,
                0.5818089618462272,
                2.280246589068075
            ]
        },
        {
            "positions": [
                -2.535455757260463,
                -1.1050910097295343,
                1.7920145589375798,
                -0.6975084564245294,
                0.6063977545720187,
                2.488818183476019
            ]
        },
        {
            "positions": [
                -2.5145974551561006,
                -1.1246392935783927,
                1.8642180229075067,
                -0.7380338198986712,
                0.6309865472978105,
                2.6973897778839633
            ]
        },
        {
            "positions": [
                -2.493739153051738,
                -1.144187577427251,
                1.936421486877434,
                -0.7785591833728132,
                0.655575340023602,
                2.905961372291907
            ]
        },
        {
            "positions": [
                -2.472880850947375,
                -1.163735861276109,
                2.008624950847361,
                -0.819084546846955,
                0.6801641327493936,
                3.114532966699851
            ]
        }
    ]
}