{
    "goal": {
        "global_pose": {
            "orientation": {
                "w": -0.4816463035849501,
                "x": 0.5182115481033762,
                "y": 0.4908360881923453,
                "z": -0.5084816262002911
            },
            "position": {
                "x": -0.8240239810943604,
                "y": 0.19912469901144506,
                "z": 0.16403168439865112
            }
        },
        "name": "move_to_storage_D"
    },
    "id": "KPIECE_move_to_storage_D_93",
    "joint_names": [
        "shoulder_pan_joint",
        "shoulder_lift_joint",
        "elbow_joint",
        "wrist_1_joint",
        "wrist_2_joint",
        "wrist_3_joint"
    ],
    "metrics": {
        "cart_traj_len": 3.454691131836691,
        "distance_elbow_joint": 4.52090172579218,
        "distance_shoulder_lift_joint": 1.266148341393816,
        "distance_shoulder_pan_joint": 2.8130236565801847,
        "distance_wrist_1_joint": 2.2600233544053925,
        "distance_wrist_2_joint": 1.1357096494665488,
        "distance_wrist_3_joint": 3.140111697293464,
        "smoothness": 0.10807958446153065,
        "time": 0.303786579,
        "traj_len": 3.8904907691615964,
        "weighted_distance": 4.9811519574683185
    },
    "planner": "KPIECE",
    "start": {
        "state": {
            "elbow_joint": -2.384821997420982,
            "shoulder_lift_joint": -2.2788054674887404,
            "shoulder_pan_joint": -0.18546946417610016,
            "wrist_1_joint": 1.4845937964226739,
            "wrist_2_joint": 0.1789877726866377,
            "wrist_3_joint": 0.03710572555276528
        }
    },
    "waypoints": [
        {
            "positions": [
                -0.18546946417610016,
                -2.2788054674887404,
                -2.384821997420982,
                1.4845937964226739,
                0.1789877726866377,
                0.03710572555276528
            ]
        },
        {
            "positions": [
                -0.11622110312012145,
                -2.1864505562727157,
                -2.424205074923211,
                1.4728492943852582,
                0.20922912118962536,
                -0.0696533828965763
            ]
        },
        {
            "positions": [
                -0.04697274206414273,
                -2.094095645056691,
                -2.46358815242544,
                1.4611047923478426,
                0.23947046969261304,
                -0.17641249134591788
            ]
        },
        {
            "positions": [
                0.022275618991836,
                -2.0017407338406668,
                -2.502971229927669,
                1.4493602903104268,
                0.2697118181956007,
                -0.2831715997952595
            ]
        },
        {
            "positions": [
                0.0915239800478147,
                -1.909385822624642,
                -2.542354307429898,
                1.4376157882730112,
                0.29995316669858835,
                -0.3899307082446011
            ]
        },
        {
            "positions": [
                0.17120928783513553,
                -1.8913898572687715,
                -2.3927425387717056,
                1.365692974969821,
                0.29444643404335935,
                -0.4573847094403175
            ]
        },
        {
            "positions": [
                0.25089459562245636,
                -1.873393891912901,
                -2.2431307701135133,
                1.2937701616666308,
                0.2889397013881304,
                -0.5248387106360339
            ]
        },
        {
            "positions": [
                0.33057990340977716,
                -1.8553979265570306,
                -2.0935190014553204,
                1.2218473483634404,
                0.2834329687329014,
                -0.5922927118317505
            ]
        },
        {
            "positions": [
                0.410265211197098,
                -1.83740196120116,
                -1.943907232797128,
                1.1499245350602503,
                0.2779262360776724,
                -0.6597467130274669
            ]
        },
        {
            "positions": [
                0.4899505189844189,
                -1.8194059958452895,
                -1.7942954641389355,
                1.07800172175706,
                0.2724195034224434,
                -0.7272007142231833
            ]
        },
        {
            "positions": [
                0.5696358267717396,
                -1.8014100304894192,
                -1.644683695480743,
                1.00607890845387,
                0.2669127707672145,
                -0.7946547154188999
            ]
        },
        {
            "positions": [
                0.6493211345590606,
                -1.7834140651335486,
                -1.4950719268225505,
                0.9341560951506797,
                0.2614060381119855,
                -0.8621087166146163
            ]
        },
        {
            "positions": [
                0.7290064423463813,
                -1.765418099777678,
                -1.3454601581643582,
                0.8622332818474895,
                0.2558993054567565,
                -0.9295627178103327
            ]
        },
        {
            "positions": [
                0.8086917501337022,
                -1.7474221344218075,
                -1.1958483895061656,
                0.7903104685442992,
                0.2503925728015275,
                -0.9970167190060492
            ]
        },
        {
            "positions": [
                0.8883770579210231,
                -1.729426169065937,
                -1.046236620847973,
                0.718387655241109,
                0.24488584014629852,
                -1.0644707202017658
            ]
        },
        {
            "positions": [
                0.9680623657083438,
                -1.7114302037100666,
                -0.8966248521897806,
                0.6464648419379189,
                0.23937910749106955,
                -1.131924721397482
            ]
        },
        {
            "positions": [
                1.0477476734956648,
                -1.693434238354196,
                -0.747013083531588,
                0.5745420286347286,
                0.23387237483584056,
                -1.1993787225931984
            ]
        },
        {
            "positions": [
                1.1274329812829855,
                -1.6754382729983255,
                -0.5974013148733957,
                0.5026192153315384,
                0.2283656421806116,
                -1.266832723788915
            ]
        },
        {
            "positions": [
                1.2071182890703065,
                -1.6574423076424551,
                -0.44778954621520306,
                0.43069640202834814,
                0.22285890952538262,
                -1.3342867249846315
            ]
        },
        {
            "positions": [
                1.2868035968576272,
                -1.6394463422865846,
                -0.2981777775570107,
                0.35877358872515797,
                0.21735217687015362,
                -1.4017407261803478
            ]
        },
        {
            "positions": [
                1.366488904644948,
                -1.621450376930714,
                -0.14856600889881832,
                0.2868507754219678,
                0.21184544421492466,
                -1.4691947273760644
            ]
        },
        {
            "positions": [
                1.446174212432269,
                -1.6034544115748435,
                0.0010457597593744872,
                0.2149279621187774,
                0.20633871155969566,
                -1.536648728571781
            ]
        },
        {
            "positions": [
                1.5258595202195897,
                -1.585458446218973,
                0.15065752841756685,
                0.14300514881558724,
                0.2008319789044667,
                -1.6041027297674972
            ]
        },
        {
            "positions": [
                1.6055448280069105,
                -1.5674624808631026,
                0.3002692970757592,
                0.07108233551239707,
                0.1953252462492377,
                -1.6715567309632138
            ]
        },
        {
            "positions": [
                1.6852301357942314,
                -1.549466515507232,
                0.44988106573395203,
                -0.0008404777907931038,
                0.1898185135940087,
                -1.7390107321589303
            ]
        },
        {
            "positions": [
                1.7649154435815522,
                -1.5314705501513615,
                0.5994928343921444,
                -0.07276329109398327,
                0.18431178093877976,
                -1.8064647333546466
            ]
        },
        {
            "positions": [
                1.844600751368873,
                -1.5134745847954911,
                0.7491046030503368,
                -0.14468610439717344,
                0.17880504828355076,
                -1.873918734550363
            ]
        },
        {
            "positions": [
                1.9242860591561939,
                -1.4954786194396206,
                0.8987163717085296,
                -0.21660891770036383,
                0.17329831562832176,
                -1.9413727357460797
            ]
        },
        {
            "positions": [
                2.0039713669435146,
                -1.47748265408375,
                1.048328140366722,
                -0.28853173100355395,
                0.1677915829730928,
                -2.008826736941796
            ]
        },
        {
            "positions": [
                2.0575922714864627,
                -1.4384373795852003,
                1.115657346383756,
                -0.3308473007137813,
                0.24257774674317673,
                -2.1016150349134013
            ]
        },
        {
            "positions": [
                2.1112131760294113,
                -1.3993921050866507,
                1.1829865524007899,
                -0.3731628704240087,
                0.3173639105132607,
                -2.1944033328850066
            ]
        },
        {
            "positions": [
                2.1648340805723594,
                -1.360346830588101,
                1.250315758417824,
                -0.41547844013423607,
                0.3921500742833446,
                -2.287191630856612
            ]
        },
        {
            "positions": [
                2.2184549851153075,
                -1.3213015560895514,
                1.3176449644348578,
                -0.4577940098444634,
                0.46693623805342854,
                -2.379979928828217
            ]
        },
        {
            "positions": [
                2.2720758896582556,
                -1.2822562815910017,
                1.3849741704518919,
                -0.5001095795546908,
                0.5417224018235125,
                -2.4727682267998223
            ]
        },
        {
            "positions": [
                2.325696794201204,
                -1.243211007092452,
                1.452303376468926,
                -0.5424251492649181,
                0.6165085655935963,
                -2.565556524771428
            ]
        },
        {
            "positions": [
                2.379317698744152,
                -1.2041657325939021,
                1.51963258248596,
                -0.5847407189751455,
                0.6912947293636804,
                -2.6583448227430333
            ]
        },
        {
            "positions": [
                2.4329386032871003,
                -1.1651204580953525,
                1.5869617885029939,
                -0.6270562886853729,
                0.7660808931337644,
                -2.7511331207146386
            ]
        },
        {
            "positions": [
                2.486559507830049,
                -1.1260751835968028,
                1.654290994520028,
                -0.6693718583956003,
                0.8408670569038483,
                -2.843921418686244
            ]
        },
        {
            "positions": [
                2.540180412372997,
                -1.0870299090982531,
                1.7216202005370618,
                -0.7116874281058276,
                0.9156532206739322,
                -2.936709716657849
            ]
        },
        {
            "positions": [
                2.593801316915945,
                -1.0479846345997035,
                1.7889494065540958,
                -0.754002997816055,
                0.9904393844440161,
                -3.0294980146294543
            ]
        },
        {
            "positions": [
                2.627554192404084,
                -1.0126571260949244,
                1.8210151083533686,
                -0.7754295579827188,
                1.0503742547021953,
                -3.1030059717406986
            ]
        }
    ]
}