{
    "goal": {
        "global_pose": {
            "orientation": {
                "w": 0.5084816217422485,
                "x": -0.49083608388900757,
                "y": 0.5182115435600281,
                "z": -0.4816462993621826
            },
            "position": {
                "x": 0.5540239810943604,
                "y": 0.030875300988554955,
                "z": 0.16403168439865112
            }
        },
        "name": "move_to_storage_A"
    },
    "id": "KPIECE_move_to_storage_A_105",
    "joint_names": [
        "shoulder_pan_joint",
        "shoulder_lift_joint",
        "elbow_joint",
        "wrist_1_joint",
        "wrist_2_joint",
        "wrist_3_joint"
    ],
    "metrics": {
        "cart_traj_len": 0.3530539069762388,
        "distance_elbow_joint": 0.45080468707884913,
        "distance_shoulder_lift_joint": 0.23263228150540272,
        "distance_shoulder_pan_joint": 0.4627059552388327,
        "distance_wrist_1_joint": 0.2547363137144608,
        "distance_wrist_2_joint": 1.092904623333455,
        "distance_wrist_3_joint": 0.09947181321713039,
        "smoothness": 6.661338165333112e-16,
        "time": 0.099701014,
        "traj_len": 1.6103588650012552,
        "weighted_distance": 2.034659735083561
    },
    "planner": "KPIECE",
    "start": {
        "state": {
            "elbow_joint": 1.9715474177455299,
            "shoulder_lift_joint": -1.139484666580328,
            "shoulder_pan_joint": 0.12281154398918248,
            "wrist_1_joint": -0.7804687475355282,
            "wrist_2_joint": 0.12958649657246987,
            "wrist_3_joint": -3.1924925159053466
        }
    },
    "waypoints": [
        {
            "positions": [
                0.12281154398918248,
                -1.139484666580328,
                1.9715474177455299,
                -0.7804687475355282,
                0.12958649657246987,
                -3.1924925159053466
            ]
        },
        {
            "positions": [
                0.05671069324077782,
                -1.1727178496525283,
                2.0359480873282227,
                -0.8168596494947369,
                0.2857157284772492,
                -3.178282256874328
            ]
        },
        {
            "positions": [
                -0.00939015750762684,
                -1.2059510327247287,
                2.100348756910915,
                -0.8532505514539456,
                0.4418449603820285,
                -3.164071997843309
            ]
        },
        {
            "positions": [
                -0.0754910082560315,
                -1.239184215796929,
                2.164749426493608,
                -0.8896414534131543,
                0.5979741922868078,
                -3.1498617388122905
            ]
        },
        {
            "positions": [
                -0.14159185900443616,
                -1.2724173988691296,
                2.229150096076301,
                -0.926032355372363,
                0.7541034241915872,
                -3.1356514797812722
            ]
        },
        {
            "positions": [
                -0.20769270975284088,
                -1.30565058194133,
                2.2935507656589937,
                -0.9624232573315716,
                0.9102326560963665,
                -3.1214412207502535
            ]
        },
        {
            "positions": [
                -0.2737935605012455,
                -1.3388837650135303,
                2.357951435241686,
                -0.9988141592907803,
                1.0663618880011456,
                -3.107230961719235
            ]
        },
        {
            "positions": [
                -0.3398944112496502,
                -1.3721169480857307,
                2.422352104824379,
                -1.035205061249989,
                1.222491119905925,
                -3.093020702688216
            ]
        }
    ]
}