{
    "goal": {
        "global_pose": {
            "orientation": {
                "w": 0.005598929693374612,
                "x": 0.007748599140229565,
                "y": 0.7110244013736278,
                "z": -0.7031023480610252
            },
            "position": {
                "x": -0.8858502320852131,
                "y": -0.7141253447532654,
                "z": 0.3711530566215515
            }
        },
        "name": "move_to_auspresseinheit_C"
    },
    "id": "KPIECE_move_to_auspresseinheit_C_117",
    "joint_names": [
        "shoulder_pan_joint",
        "shoulder_lift_joint",
        "elbow_joint",
        "wrist_1_joint",
        "wrist_2_joint",
        "wrist_3_joint"
    ],
    "metrics": {
        "cart_traj_len": 0.49382585525614786,
        "distance_elbow_joint": 1.012600222472869,
        "distance_shoulder_lift_joint": 0.33013412390555896,
        "distance_shoulder_pan_joint": 0.2563009544869592,
        "distance_wrist_1_joint": 0.7093840044580308,
        "distance_wrist_2_joint": 1.3111321082547212,
        "distance_wrist_3_joint": 0.09007489296544913,
        "smoothness": 0.0,
        "time": 0.49695449599999997,
        "traj_len": 1.9260390199950748,
        "weighted_distance": 2.4311092540622763
    },
    "planner": "KPIECE",
    "start": {
        "state": {
            "elbow_joint": 1.752795957773711,
            "shoulder_lift_joint": -0.9740617694225064,
            "shoulder_pan_joint": -2.967991417825858,
            "wrist_1_joint": -0.7595177689806859,
            "wrist_2_joint": 1.7443932448377395,
            "wrist_3_joint": 3.199131542505932
        }
    },
    "waypoints": [
        {
            "positions": [
                -2.967991417825858,
                -0.9740617694225064,
                1.752795957773711,
                -0.7595177689806859,
                1.7443932448377395,
                3.199131542505932
            ]
        },
        {
            "positions": [
                -2.942361322377162,
                -0.9410483570319506,
                1.6515359355264243,
                -0.6885793685348828,
                1.6132800340122673,
                3.190124053209387
            ]
        },
        {
            "positions": [
                -2.916731226928466,
                -0.9080349446413947,
                1.5502759132791373,
                -0.6176409680890798,
                1.4821668231867953,
                3.1811165639128425
            ]
        },
        {
            "positions": [
                -2.89110113147977,
                -0.8750215322508388,
                1.4490158910318505,
                -0.5467025676432766,
                1.3510536123613233,
                3.1721090746162974
            ]
        },
        {
            "positions": [
                -2.8654710360310744,
                -0.8420081198602829,
                1.3477558687845634,
                -0.47576416719747355,
                1.219940401535851,
                3.1631015853197524
            ]
        },
        {
            "positions": [
                -2.8398409405823783,
                -0.808994707469727,
                1.2464958465372766,
                -0.4048257667516705,
                1.0888271907103788,
                3.154094096023208
            ]
        },
        {
            "positions": [
                -2.8142108451336822,
                -0.7759812950791711,
                1.1452358242899896,
                -0.3338873663058674,
                0.9577139798849068,
                3.1450866067266627
            ]
        },
        {
            "positions": [
                -2.7885807496849866,
                -0.7429678826886152,
                1.043975802042703,
                -0.26294896586006433,
                0.8266007690594348,
                3.1360791174301177
            ]
        },
        {
            "positions": [
                -2.7629506542362905,
                -0.7099544702980592,
                0.9427157797954159,
                -0.1920105654142612,
                0.6954875582339626,
                3.1270716281335726
            ]
        },
        {
            "positions": [
                -2.737320558787595,
                -0.6769410579075034,
                0.8414557575481291,
                -0.12107216496845807,
                0.5643743474084904,
                3.118064138837028
            ]
        },
        {
            "positions": [
                -2.7116904633388987,
                -0.6439276455169475,
                0.7401957353008422,
                -0.0501337645226551,
                0.4332611365830184,
                3.109056649540483
            ]
        }
    ]
}