{
    "goal": {
        "global_pose": {
            "orientation": {
                "w": 0.7031023480610252,
                "x": -0.7110244013736278,
                "y": 0.0077485991402295624,
                "z": 0.005598929693374583
            },
            "position": {
                "x": -0.8841497679147869,
                "y": 0.44412534475326537,
                "z": 0.3711530566215515
            }
        },
        "name": "move_to_auspresseinheit_D"
    },
    "id": "KPIECE_move_to_auspresseinheit_D_76",
    "joint_names": [
        "shoulder_pan_joint",
        "shoulder_lift_joint",
        "elbow_joint",
        "wrist_1_joint",
        "wrist_2_joint",
        "wrist_3_joint"
    ],
    "metrics": {
        "cart_traj_len": 1.4541003608006826,
        "distance_elbow_joint": 1.1669218815902205,
        "distance_shoulder_lift_joint": 0.4457096329441568,
        "distance_shoulder_pan_joint": 0.46285674764530294,
        "distance_wrist_1_joint": 3.3498322392551105,
        "distance_wrist_2_joint": 3.6654670166065575,
        "distance_wrist_3_joint": 3.1350329112989526,
        "smoothness": 0.1228451526723138,
        "time": 0.7601832239999999,
        "traj_len": 3.4965440694120105,
        "weighted_distance": 5.050859878060356
    },
    "planner": "KPIECE",
    "start": {
        "state": {
            "elbow_joint": 1.8268400409724999,
            "shoulder_lift_joint": -1.0144045787793008,
            "shoulder_pan_joint": 2.6280239544362485,
            "wrist_1_joint": -0.790705565816056,
            "wrist_2_joint": 1.0573557467365533,
            "wrist_3_joint": 3.1851377467193758
        }
    },
    "waypoints": [
        {
            "positions": [
                2.6280239544362485,
                -1.0144045787793008,
                1.8268400409724999,
                -0.790705565816056,
                1.0573557467365533,
                3.1851377467193758
            ]
        },
        {
            "positions": [
                2.6178172315410446,
                -1.017673853878743,
                1.7925781465435635,
                -0.6721977720791317,
                0.9392685117361441,
                3.073383270412542
            ]
        },
        {
            "positions": [
                2.6076105086458408,
                -1.0209431289781854,
                1.7583162521146272,
                -0.5536899783422073,
                0.821181276735735,
                2.961628794105708
            ]
        },
        {
            "positions": [
                2.597403785750637,
                -1.0242124040776277,
                1.7240543576856908,
                -0.4351821846052829,
                0.7030940417353259,
                2.849874317798874
            ]
        },
        {
            "positions": [
                2.5871970628554335,
                -1.0274816791770702,
                1.6897924632567545,
                -0.3166743908683586,
                0.5850068067349168,
                2.73811984149204
            ]
        },
        {
            "positions": [
                2.5769903399602296,
                -1.0307509542765125,
                1.6555305688278181,
                -0.19816659713143414,
                0.4669195717345075,
                2.626365365185206
            ]
        },
        {
            "positions": [
                2.566783617065026,
                -1.0340202293759548,
                1.6212686743988818,
                -0.07965880339450981,
                0.3488323367340984,
                2.514610888878372
            ]
        },
        {
            "positions": [
                2.556576894169822,
                -1.0372895044753971,
                1.5870067799699454,
                0.038848990342414624,
                0.23074510173368923,
                2.402856412571538
            ]
        },
        {
            "positions": [
                2.546370171274618,
                -1.0405587795748394,
                1.552744885541009,
                0.15735678407933884,
                0.11265786673328015,
                2.2911019362647043
            ]
        },
        {
            "positions": [
                2.536163448379414,
                -1.043828054674282,
                1.5184829911120727,
                0.2758645778162634,
                -0.005429368267129142,
                2.17934745995787
            ]
        },
        {
            "positions": [
                2.5259567254842104,
                -1.0470973297737243,
                1.4842210966831364,
                0.3943723715531877,
                -0.12351660326753833,
                2.067592983651036
            ]
        },
        {
            "positions": [
                2.5157500025890065,
                -1.0503666048731666,
                1.4499592022542,
                0.512880165290112,
                -0.2416038382679473,
                1.9558385073442024
            ]
        },
        {
            "positions": [
                2.5055432796938026,
                -1.0536358799726089,
                1.4156973078252637,
                0.6313879590270364,
                -0.3596910732683565,
                1.8440840310373683
            ]
        },
        {
            "positions": [
                2.4953365567985992,
                -1.0569051550720512,
                1.3814354133963274,
                0.7498957527639607,
                -0.47777830826876544,
                1.7323295547305344
            ]
        },
        {
            "positions": [
                2.4851298339033954,
                -1.0601744301714935,
                1.347173518967391,
                0.8684035465008852,
                -0.5958655432691748,
                1.6205750784237003
            ]
        },
        {
            "positions": [
                2.4749231110081915,
                -1.0634437052709358,
                1.3129116245384547,
                0.9869113402378094,
                -0.7139527782695838,
                1.5088206021168664
            ]
        },
        {
            "positions": [
                2.4647163881129877,
                -1.0667129803703783,
                1.2786497301095183,
                1.1054191339747337,
                -0.832040013269993,
                1.3970661258100325
            ]
        },
        {
            "positions": [
                2.454509665217784,
                -1.0699822554698206,
                1.244387835680582,
                1.2239269277116585,
                -0.9501272482704022,
                1.2853116495031984
            ]
        },
        {
            "positions": [
                2.44430294232258,
                -1.073251530569263,
                1.2101259412516456,
                1.3424347214485828,
                -1.0682144832708116,
                1.1735571731963645
            ]
        },
        {
            "positions": [
                2.434096219427376,
                -1.0765208056687052,
                1.1758640468227093,
                1.4609425151855067,
                -1.1863017182712206,
                1.0618026968895307
            ]
        },
        {
            "positions": [
                2.4238894965321727,
                -1.0797900807681475,
                1.141602152393773,
                1.5794503089224314,
                -1.30438895327163,
                0.9500482205826963
            ]
        },
        {
            "positions": [
                2.413682773636969,
                -1.08305935586759,
                1.1073402579648366,
                1.6979581026593558,
                -1.422476188272039,
                0.8382937442758629
            ]
        },
        {
            "positions": [
                2.403476050741765,
                -1.0863286309670324,
                1.0730783635359002,
                1.81646589639628,
                -1.5405634232724479,
                0.726539267969029
            ]
        },
        {
            "positions": [
                2.393269327846561,
                -1.0895979060664747,
                1.038816469106964,
                1.9349736901332044,
                -1.6586506582728573,
                0.6147847916621947
            ]
        },
        {
            "positions": [
                2.3830626049513572,
                -1.092867181165917,
                1.0045545746780276,
                2.053481483870129,
                -1.7767378932732663,
                0.503030315355361
            ]
        },
        {
            "positions": [
                2.416821494342538,
                -1.045274550188432,
                1.0554590829386188,
                2.1212465880748836,
                -1.893150283379035,
                0.4451249200657618
            ]
        },
        {
            "positions": [
                2.450580383733719,
                -0.9976819192109468,
                1.10636359119921,
                2.1890116922796383,
                -2.0095626734848038,
                0.3872195247761626
            ]
        },
        {
            "positions": [
                2.4843392731249,
                -0.9500892882334617,
                1.1572680994598012,
                2.256776796484393,
                -2.1259750635905723,
                0.3293141294865634
            ]
        },
        {
            "positions": [
                2.518098162516081,
                -0.9024966572559767,
                1.2081726077203925,
                2.3245419006891477,
                -2.2423874536963413,
                0.2714087341969642
            ]
        },
        {
            "positions": [
                2.551857051907262,
                -0.8549040262784917,
                1.2590771159809837,
                2.3923070048939024,
                -2.3587998438021103,
                0.213503338907365
            ]
        },
        {
            "positions": [
                2.585615941298443,
                -0.8073113953010066,
                1.309981624241575,
                2.460072109098657,
                -2.475212233907879,
                0.1555979436177658
            ]
        },
        {
            "positions": [
                2.5932869722051057,
                -0.7664657729546915,
                1.3295863071076752,
                2.509599391268856,
                -2.5416617518889417,
                0.10285138951909463
            ]
        },
        {
            "positions": [
                2.600958003111769,
                -0.7256201506083764,
                1.3491909899737757,
                2.5591266734390548,
                -2.6081112698700046,
                0.05010483542042346
            ]
        }
    ]
}