{
    "goal": {
        "global_pose": {
            "orientation": {
                "w": 0.005598929693374612,
                "x": 0.007748599140229565,
                "y": 0.7110244013736278,
                "z": -0.7031023480610252
            },
            "position": {
                "x": 0.1141497679147869,
                "y": -0.7141253447532654,
                "z": 0.3711530566215515
            }
        },
        "name": "move_to_auspresseinheit_B"
    },
    "id": "KPIECE_move_to_auspresseinheit_B_139",
    "joint_names": [
        "shoulder_pan_joint",
        "shoulder_lift_joint",
        "elbow_joint",
        "wrist_1_joint",
        "wrist_2_joint",
        "wrist_3_joint"
    ],
    "metrics": {
        "cart_traj_len": 0.5640913946965866,
        "distance_elbow_joint": 0.06478258721658214,
        "distance_shoulder_lift_joint": 0.2931444466170834,
        "distance_shoulder_pan_joint": 0.5763580033476878,
        "distance_wrist_1_joint": 0.3362492193507216,
        "distance_wrist_2_joint": 0.9951069035009004,
        "distance_wrist_3_joint": 0.006274013916709897,
        "smoothness": 6.344131583732827e-16,
        "time": 0.30128703,
        "traj_len": 1.5072873561301061,
        "weighted_distance": 1.901530784561409
    },
    "planner": "KPIECE",
    "start": {
        "state": {
            "elbow_joint": 2.019306165916698,
            "shoulder_lift_joint": -1.1220205098164344,
            "shoulder_pan_joint": -1.095207207618794,
            "wrist_1_joint": -0.8559671824921639,
            "wrist_2_joint": 0.47596387242952726,
            "wrist_3_joint": 3.159081874673826
        }
    },
    "waypoints": [
        {
            "positions": [
                -1.095207207618794,
                -1.1220205098164344,
                2.019306165916698,
                -0.8559671824921639,
                0.47596387242952726,
                3.159081874673826
            ]
        },
        {
            "positions": [
                -1.1912668748434085,
                -1.1708779175859483,
                2.0085090680472675,
                -0.7999256459337103,
                0.6418150230130106,
                3.1580362056877074
            ]
        },
        {
            "positions": [
                -1.2873265420680233,
                -1.2197353253554621,
                1.9977119701778372,
                -0.7438841093752566,
                0.8076661735964941,
                3.1569905367015894
            ]
        },
        {
            "positions": [
                -1.383386209292638,
                -1.2685927331249762,
                1.986914872308407,
                -0.687842572816803,
                0.9735173241799775,
                3.155944867715471
            ]
        },
        {
            "positions": [
                -1.4794458765172525,
                -1.31745014089449,
                1.9761177744389766,
                -0.6318010362583495,
                1.1393684747634607,
                3.1548991987293524
            ]
        },
        {
            "positions": [
                -1.5755055437418672,
                -1.366307548664004,
                1.9653206765695461,
                -0.5757594996998958,
                1.3052196253469444,
                3.1538535297432344
            ]
        },
        {
            "positions": [
                -1.6715652109664818,
                -1.4151649564335178,
                1.9545235787001158,
                -0.5197179631414423,
                1.4710707759304276,
                3.152807860757116
            ]
        }
    ]
}