{
    "goal": {
        "global_pose": {
            "orientation": {
                "w": 0.7031023502349854,
                "x": -0.7110244035720825,
                "y": 0.007748599164187908,
                "z": 0.005598929710686207
            },
            "position": {
                "x": 0.11585023208521307,
                "y": 0.44412534475326537,
                "z": 0.3711530566215515
            }
        },
        "name": "move_to_auspresseinheit_A"
    },
    "id": "KPIECE_move_to_auspresseinheit_A_140",
    "joint_names": [
        "shoulder_pan_joint",
        "shoulder_lift_joint",
        "elbow_joint",
        "wrist_1_joint",
        "wrist_2_joint",
        "wrist_3_joint"
    ],
    "metrics": {
        "cart_traj_len": 1.4051174587028978,
        "distance_elbow_joint": 1.2614622057616334,
        "distance_shoulder_lift_joint": 0.6062983924408023,
        "distance_shoulder_pan_joint": 1.0436994671098763,
        "distance_wrist_1_joint": 1.0815918498402897,
        "distance_wrist_2_joint": 0.7643872068430208,
        "distance_wrist_3_joint": 2.9822508068512597,
        "smoothness": 1.1103030634108375,
        "time": 0.368737138,
        "traj_len": 2.7820298217033694,
        "weighted_distance": 3.94337046182992
    },
    "planner": "KPIECE",
    "start": {
        "state": {
            "elbow_joint": 2.4225747245308327,
            "shoulder_lift_joint": -1.373653427065438,
            "shoulder_pan_joint": -0.33786330853087027,
            "wrist_1_joint": -1.0288602302712604,
            "wrist_2_joint": 1.23302299562683,
            "wrist_3_joint": -3.094021725338297
        }
    },
    "waypoints": [
        {
            "positions": [
                -0.33786330853087027,
                -1.373653427065438,
                2.4225747245308327,
                -1.0288602302712604,
                1.23302299562683,
                -3.094021725338297
            ]
        },
        {
            "positions": [
                -0.2935074671260005,
                -1.3979442753303744,
                2.379137332817809,
                -1.047903178598188,
                1.1947178116218105,
                -3.009580484983207
            ]
        },
        {
            "positions": [
                -0.24915162572113078,
                -1.422235123595311,
                2.335699941104785,
                -1.066946126925116,
                1.1564126276167912,
                -2.9251392446281175
            ]
        },
        {
            "positions": [
                -0.19143124158075567,
                -1.4686094711177293,
                2.2847152002553246,
                -1.0226236306103376,
                1.108658822427983,
                -2.8071066229530612
            ]
        },
        {
            "positions": [
                -0.13371085744038055,
                -1.5149838186401474,
                2.2337304594058645,
                -0.978301134295559,
                1.0609050172391745,
                -2.6890740012780046
            ]
        },
        {
            "positions": [
                -0.07599047330000547,
                -1.5613581661625657,
                2.182745718556404,
                -0.9339786379807806,
                1.0131512120503663,
                -2.5710413796029483
            ]
        },
        {
            "positions": [
                -0.018270089159630326,
                -1.607732513684984,
                2.1317609777069437,
                -0.8896561416660022,
                0.9653974068615581,
                -2.4530087579278916
            ]
        },
        {
            "positions": [
                0.03945029498074473,
                -1.6541068612074024,
                2.080776236857483,
                -0.8453336453512237,
                0.9176436016727497,
                -2.3349761362528354
            ]
        },
        {
            "positions": [
                0.09717067912111985,
                -1.7004812087298204,
                2.029791496008023,
                -0.8010111490364453,
                0.8698897964839415,
                -2.216943514577779
            ]
        },
        {
            "positions": [
                0.15489106326149496,
                -1.7468555562522388,
                1.9788067551585624,
                -0.7566886527216669,
                0.8221359912951332,
                -2.0989108929027225
            ]
        },
        {
            "positions": [
                0.21261144740187013,
                -1.793229903774657,
                1.927822014309102,
                -0.7123661564068884,
                0.7743821861063249,
                -1.9808782712276662
            ]
        },
        {
            "positions": [
                0.27033183154224516,
                -1.8396042512970754,
                1.8768372734596417,
                -0.6680436600921099,
                0.7266283809175166,
                -1.8628456495526098
            ]
        },
        {
            "positions": [
                0.3280522156826202,
                -1.8859785988194935,
                1.8258525326101813,
                -0.6237211637773316,
                0.6788745757287082,
                -1.7448130278775535
            ]
        },
        {
            "positions": [
                0.3857725998229954,
                -1.9323529463419118,
                1.774867791760721,
                -0.5793986674625531,
                0.6311207705399,
                -1.626780406202497
            ]
        },
        {
            "positions": [
                0.39591837271607316,
                -1.9261017575271044,
                1.8678547283210913,
                -0.5225395490210163,
                0.6236217593068609,
                -1.7989339859553306
            ]
        },
        {
            "positions": [
                0.4060641456091509,
                -1.9198505687122969,
                1.960841664881462,
                -0.4656804305794795,
                0.616122748073822,
                -1.9710875657081641
            ]
        },
        {
            "positions": [
                0.41620991850222866,
                -1.9135993798974895,
                2.0538286014418325,
                -0.4088213121379427,
                0.608623736840783,
                -2.1432411454609976
            ]
        },
        {
            "positions": [
                0.42635569139530644,
                -1.9073481910826822,
                2.146815538002203,
                -0.35196219369640597,
                0.6011247256077439,
                -2.315394725213831
            ]
        },
        {
            "positions": [
                0.43650146428838416,
                -1.9010970022678746,
                2.2398024745625733,
                -0.2951030752548692,
                0.5936257143747048,
                -2.4875483049666647
            ]
        },
        {
            "positions": [
                0.44664723718146193,
                -1.8948458134530672,
                2.3327894111229437,
                -0.23824395681333238,
                0.5861267031416658,
                -2.659701884719498
            ]
        },
        {
            "positions": [
                0.5330435443139766,
                -1.8982097268782285,
                2.3514006289993765,
                -0.30984521783821584,
                0.6252903412609514,
                -2.820397887785651
            ]
        },
        {
            "positions": [
                0.6194398514464914,
                -1.9015736403033898,
                2.37001184687581,
                -0.38144647886309935,
                0.6644539793802369,
                -2.981093890851804
            ]
        },
        {
            "positions": [
                0.7058361585790061,
                -1.9049375537285511,
                2.3886230647522426,
                -0.4530477398879828,
                0.7036176174995225,
                -3.1417898939179567
            ]
        }
    ]
}