{
    "goal": {
        "global_pose": {
            "orientation": {
                "w": 0.5084816217422485,
                "x": -0.49083608388900757,
                "y": 0.5182115435600281,
                "z": -0.4816462993621826
            },
            "position": {
                "x": 0.5540239810943604,
                "y": 0.030875300988554955,
                "z": 0.16403168439865112
            }
        },
        "name": "move_to_storage_A"
    },
    "id": "KPIECE_move_to_storage_A_37",
    "joint_names": [
        "shoulder_pan_joint",
        "shoulder_lift_joint",
        "elbow_joint",
        "wrist_1_joint",
        "wrist_2_joint",
        "wrist_3_joint"
    ],
    "metrics": {
        "cart_traj_len": 0.3531739826505381,
        "distance_elbow_joint": 0.45094403488662227,
        "distance_shoulder_lift_joint": 0.23468499964055045,
        "distance_shoulder_pan_joint": 0.4631896751307331,
        "distance_wrist_1_joint": 0.24496526156907794,
        "distance_wrist_2_joint": 1.0934945998033938,
        "distance_wrist_3_joint": 0.09480959009783785,
        "smoothness": 4.440892098500626e-16,
        "time": 0.056061564,
        "traj_len": 1.6068877251159197,
        "weighted_distance": 2.02735473035588
    },
    "planner": "KPIECE",
    "start": {
        "state": {
            "elbow_joint": 1.9715474177455299,
            "shoulder_lift_joint": -1.139484666580328,
            "shoulder_pan_joint": 0.12281154398918248,
            "wrist_1_joint": -0.7804687475355282,
            "wrist_2_joint": 0.12958649657246987,
            "wrist_3_joint": -3.1924925159053466
        }
    },
    "waypoints": [
        {
            "positions": [
                0.12281154398918248,
                -1.139484666580328,
                1.9715474177455299,
                -0.7804687475355282,
                0.12958649657246987,
                -3.1924925159053466
            ]
        },
        {
            "positions": [
                0.05664159039907775,
                -1.1730110951004067,
                2.0359679941579043,
                -0.8154637849025393,
                0.2858000108300976,
                -3.1789482887485128
            ]
        },
        {
            "positions": [
                -0.009528363191026984,
                -1.2065375236204852,
                2.100388570570279,
                -0.8504588222695505,
                0.4420135250877253,
                -3.1654040615916785
            ]
        },
        {
            "positions": [
                -0.0756983167811317,
                -1.2400639521405639,
                2.1648091469826536,
                -0.8854538596365615,
                0.598227039345353,
                -3.1518598344348447
            ]
        },
        {
            "positions": [
                -0.14186827037123645,
                -1.2735903806606426,
                2.2292297233950285,
                -0.9204488970035727,
                0.7544405536029808,
                -3.1383156072780105
            ]
        },
        {
            "positions": [
                -0.2080382239613412,
                -1.3071168091807213,
                2.293650299807403,
                -0.9554439343705838,
                0.9106540678606085,
                -3.1247713801211767
            ]
        },
        {
            "positions": [
                -0.2742081775514459,
                -1.3406432377007997,
                2.3580708762197773,
                -0.990438971737595,
                1.066867582118236,
                -3.1112271529643425
            ]
        },
        {
            "positions": [
                -0.34037813114155063,
                -1.3741696662208784,
                2.422491452632152,
                -1.0254340091046061,
                1.2230810963758638,
                -3.0976829258075087
            ]
        }
    ]
}