{
    "goal": {
        "global_pose": {
            "orientation": {
                "w": -0.00223480608172531,
                "x": 0.0024358444001904467,
                "y": 0.7094548369677653,
                "z": -0.704743149386269
            },
            "position": {
                "x": -0.37947507619857795,
                "y": -0.6371506643295288,
                "z": 0.19426114857196808
            }
        },
        "name": "move_to_magneteinheit_C"
    },
    "id": "KPIECE_move_to_magneteinheit_C_127",
    "joint_names": [
        "shoulder_pan_joint",
        "shoulder_lift_joint",
        "elbow_joint",
        "wrist_1_joint",
        "wrist_2_joint",
        "wrist_3_joint"
    ],
    "metrics": {
        "cart_traj_len": 1.7723677093495025,
        "distance_elbow_joint": 1.17072896518563,
        "distance_shoulder_lift_joint": 0.8727184702225008,
        "distance_shoulder_pan_joint": 1.4442142780057683,
        "distance_wrist_1_joint": 2.389949547133879,
        "distance_wrist_2_joint": 1.8874026706972202,
        "distance_wrist_3_joint": 4.601005990000139,
        "smoothness": 0.7404195104738319,
        "time": 0.175944624,
        "traj_len": 3.5165352154137657,
        "weighted_distance": 5.0838355716010835
    },
    "planner": "KPIECE",
    "start": {
        "state": {
            "elbow_joint": 1.9565354006590394,
            "shoulder_lift_joint": -1.4165861576513559,
            "shoulder_pan_joint": -1.6717766223277177,
            "wrist_1_joint": -0.5286633288215096,
            "wrist_2_joint": 1.4727565892594296,
            "wrist_3_joint": 3.1593482883155493
        }
    },
    "waypoints": [
        {
            "positions": [
                -1.6717766223277177,
                -1.4165861576513559,
                1.9565354006590394,
                -0.5286633288215096,
                1.4727565892594296,
                3.1593482883155493
            ]
        },
        {
            "positions": [
                -1.6131285805852356,
                -1.4453152569342322,
                1.939156537817945,
                -0.4699250682749958,
                1.420475030453268,
                3.051166891448962
            ]
        },
        {
            "positions": [
                -1.5544805388427534,
                -1.4740443562171088,
                1.9217776749768505,
                -0.411186807728482,
                1.3681934716471065,
                2.9429854945823752
            ]
        },
        {
            "positions": [
                -1.4958324971002712,
                -1.5027734554999852,
                1.904398812135756,
                -0.35244854718196816,
                1.3159119128409449,
                2.834804097715788
            ]
        },
        {
            "positions": [
                -1.437184455357789,
                -1.5315025547828616,
                1.8870199492946615,
                -0.2937102866354544,
                1.2636303540347833,
                2.7266227008492008
            ]
        },
        {
            "positions": [
                -1.432268044799219,
                -1.547689742339086,
                1.8512979718806615,
                -0.22576741175026963,
                1.1688969573846828,
                2.5695942450813316
            ]
        },
        {
            "positions": [
                -1.4273516342406494,
                -1.5638769298953108,
                1.8155759944666614,
                -0.15782453686508485,
                1.0741635607345825,
                2.4125657893134624
            ]
        },
        {
            "positions": [
                -1.4224352236820794,
                -1.5800641174515353,
                1.7798540170526613,
                -0.08988166197990008,
                0.979430164084482,
                2.2555373335455933
            ]
        },
        {
            "positions": [
                -1.4175188131235097,
                -1.59625130500776,
                1.7441320396386613,
                -0.021938787094715306,
                0.8846967674343817,
                2.098508877777724
            ]
        },
        {
            "positions": [
                -1.4126024025649397,
                -1.6124384925639845,
                1.7084100622246612,
                0.046004087790469494,
                0.7899633707842812,
                1.941480422009855
            ]
        },
        {
            "positions": [
                -1.4076859920063698,
                -1.628625680120209,
                1.6726880848106611,
                0.11394696267565424,
                0.6952299741341809,
                1.784451966241986
            ]
        },
        {
            "positions": [
                -1.4027695814478,
                -1.6448128676764338,
                1.636966107396661,
                0.18188983756083904,
                0.6004965774840804,
                1.6274235104741168
            ]
        },
        {
            "positions": [
                -1.3978531708892301,
                -1.6610000552326583,
                1.6012441299826612,
                0.24983271244602379,
                0.5057631808339801,
                1.4703950547062479
            ]
        },
        {
            "positions": [
                -1.3929367603306604,
                -1.677187242788883,
                1.5655221525686611,
                0.3177755873312086,
                0.4110297841838797,
                1.3133665989383787
            ]
        },
        {
            "positions": [
                -1.3880203497720904,
                -1.6933744303451075,
                1.529800175154661,
                0.3857184622163934,
                0.3162963875337792,
                1.1563381431705093
            ]
        },
        {
            "positions": [
                -1.3831039392135207,
                -1.7095616179013322,
                1.494078197740661,
                0.4536613371015781,
                0.22156299088367892,
                0.9993096874026404
            ]
        },
        {
            "positions": [
                -1.3781875286549508,
                -1.7257488054575567,
                1.458356220326661,
                0.5216042119867629,
                0.1268295942335784,
                0.8422812316347712
            ]
        },
        {
            "positions": [
                -1.4689524975246666,
                -1.6927905282713238,
                1.5074754250220204,
                0.45492256813890486,
                0.1470101051935289,
                0.9569421808264075
            ]
        },
        {
            "positions": [
                -1.5597174663943827,
                -1.6598322510850907,
                1.5565946297173798,
                0.38824092429104684,
                0.16719061615347938,
                1.0716031300180437
            ]
        },
        {
            "positions": [
                -1.6504824352640985,
                -1.6268739738988578,
                1.6057138344127393,
                0.3215592804431888,
                0.18737112711342988,
                1.1862640792096801
            ]
        },
        {
            "positions": [
                -1.7412474041338144,
                -1.593915696712625,
                1.6548330391080988,
                0.25487763659533086,
                0.20755163807338037,
                1.3009250284013163
            ]
        },
        {
            "positions": [
                -1.8320123730035303,
                -1.5609574195263918,
                1.7039522438034582,
                0.18819599274747284,
                0.2277321490333309,
                1.4155859775929525
            ]
        },
        {
            "positions": [
                -1.9227773418732461,
                -1.5279991423401589,
                1.7530714484988175,
                0.12151434889961482,
                0.24791265999328138,
                1.5302469267845888
            ]
        },
        {
            "positions": [
                -2.013542310742962,
                -1.495040865153926,
                1.802190653194177,
                0.0548327050517568,
                0.2680931709532319,
                1.6449078759762252
            ]
        },
        {
            "positions": [
                -2.1043072796126783,
                -1.4620825879676929,
                1.8513098578895364,
                -0.01184893879610116,
                0.28827368191318237,
                1.7595688251678614
            ]
        },
        {
            "positions": [
                -2.195072248482394,
                -1.42912431078146,
                1.9004290625848959,
                -0.07853058264395918,
                0.30845419287313286,
                1.8742297743594976
            ]
        },
        {
            "positions": [
                -2.28583721735211,
                -1.396166033595227,
                1.9495482672802553,
                -0.1452122264918172,
                0.32863470383308335,
                1.988890723551134
            ]
        },
        {
            "positions": [
                -2.3766021862218256,
                -1.3632077564089942,
                1.9986674719756148,
                -0.21189387033967522,
                0.34881521479303385,
                2.1035516727427703
            ]
        },
        {
            "positions": [
                -2.4673671550915417,
                -1.330249479222761,
                2.0477866766709742,
                -0.27857551418753324,
                0.36899572575298434,
                2.2182126219344065
            ]
        },
        {
            "positions": [
                -2.4997594843701973,
                -1.3015309358883989,
                2.0684696234150723,
                -0.3640275487048649,
                0.41702580003939765,
                2.3672663947300085
            ]
        },
        {
            "positions": [
                -2.5003081178765587,
                -1.2697515186399901,
                2.0602597709659474,
                -0.4671845781699119,
                0.4735992118896687,
                2.5399171319617735
            ]
        },
        {
            "positions": [
                -2.5008567513829196,
                -1.2379721013915814,
                2.0520499185168224,
                -0.5703416076349589,
                0.5301726237399398,
                2.712567869193539
            ]
        },
        {
            "positions": [
                -2.501405384889281,
                -1.2061926841431727,
                2.0438400660676974,
                -0.6734986371000059,
                0.5867460355902108,
                2.885218606425304
            ]
        },
        {
            "positions": [
                -2.4877017208399455,
                -1.1841928335922147,
                2.0249366538589646,
                -0.7457882157194244,
                0.6275256527475794,
                3.0057193856897184
            ]
        },
        {
            "positions": [
                -2.47399805679061,
                -1.1621929830412567,
                2.0060332416502322,
                -0.8180777943388429,
                0.6683052699049481,
                3.1262201649541326
            ]
        }
    ]
}