{
    "goal": {
        "global_pose": {
            "orientation": {
                "w": 0.7031023502349854,
                "x": -0.7110244035720825,
                "y": 0.007748599164187908,
                "z": 0.005598929710686207
            },
            "position": {
                "x": 0.11585023208521307,
                "y": 0.44412534475326537,
                "z": 0.3711530566215515
            }
        },
        "name": "move_to_auspresseinheit_A"
    },
    "id": "KPIECE_move_to_auspresseinheit_A_145",
    "joint_names": [
        "shoulder_pan_joint",
        "shoulder_lift_joint",
        "elbow_joint",
        "wrist_1_joint",
        "wrist_2_joint",
        "wrist_3_joint"
    ],
    "metrics": {
        "cart_traj_len": 0.6843177689840458,
        "distance_elbow_joint": 0.025544406984638002,
        "distance_shoulder_lift_joint": 0.5860554477354234,
        "distance_shoulder_pan_joint": 1.0459302096718508,
        "distance_wrist_1_joint": 0.5564743760392579,
        "distance_wrist_2_joint": 0.5127643207780407,
        "distance_wrist_3_joint": 0.03586938857945654,
        "smoothness": 0.2622343785464167,
        "time": 0.571792166,
        "traj_len": 1.6621185727223757,
        "weighted_distance": 1.9757569748744097
    },
    "planner": "KPIECE",
    "start": {
        "state": {
            "elbow_joint": 2.4225747245308327,
            "shoulder_lift_joint": -1.373653427065438,
            "shoulder_pan_joint": -0.33786330853087027,
            "wrist_1_joint": -1.0288602302712604,
            "wrist_2_joint": 1.23302299562683,
            "wrist_3_joint": -3.094021725338297
        }
    },
    "waypoints": [
        {
            "positions": [
                -0.33786330853087027,
                -1.373653427065438,
                2.4225747245308327,
                -1.0288602302712604,
                1.23302299562683,
                -3.094021725338297
            ]
        },
        {
            "positions": [
                -0.2116004211906284,
                -1.4539363936899816,
                2.4217490954398944,
                -0.9609479774222707,
                1.1608609435354318,
                -3.0965071859490534
            ]
        },
        {
            "positions": [
                -0.08533753385038656,
                -1.5342193603145253,
                2.4209234663489565,
                -0.893035724573281,
                1.0886988914440336,
                -3.0989926465598097
            ]
        },
        {
            "positions": [
                0.040925353489855265,
                -1.614502326939069,
                2.420097837258018,
                -0.8251234717242911,
                1.0165368393526355,
                -3.101478107170566
            ]
        },
        {
            "positions": [
                0.16718824083009715,
                -1.6947852935636125,
                2.41927220816708,
                -0.7572112188753014,
                0.9443747872612374,
                -3.1039635677813227
            ]
        },
        {
            "positions": [
                0.2934511281703391,
                -1.7750682601881562,
                2.4184465790761416,
                -0.6892989660263116,
                0.8722127351698392,
                -3.106449028392079
            ]
        },
        {
            "positions": [
                0.4197140155105808,
                -1.8553512268127,
                2.4176209499852037,
                -0.6213867131773219,
                0.8000506830784411,
                -3.108934489002835
            ]
        },
        {
            "positions": [
                0.5459769028508228,
                -1.9356341934372436,
                2.4167953208942654,
                -0.5534744603283321,
                0.7278886309870429,
                -3.1114199496135915
            ]
        },
        {
            "positions": [
                0.7080669011409805,
                -1.911559512073626,
                2.3970303175461947,
                -0.47238585423200247,
                0.7202586748487892,
                -3.1298911139177537
            ]
        }
    ]
}