{
    "goal": {
        "global_pose": {
            "orientation": {
                "w": -0.00223480608172531,
                "x": 0.0024358444001904467,
                "y": 0.7094548369677653,
                "z": -0.704743149386269
            },
            "position": {
                "x": -0.37947507619857795,
                "y": -0.6371506643295288,
                "z": 0.19426114857196808
            }
        },
        "name": "move_to_magneteinheit_C"
    },
    "id": "KPIECE_move_to_magneteinheit_C_9",
    "joint_names": [
        "shoulder_pan_joint",
        "shoulder_lift_joint",
        "elbow_joint",
        "wrist_1_joint",
        "wrist_2_joint",
        "wrist_3_joint"
    ],
    "metrics": {
        "cart_traj_len": 2.775357310187352,
        "distance_elbow_joint": 3.071655480998167,
        "distance_shoulder_lift_joint": 0.9555619188831705,
        "distance_shoulder_pan_joint": 1.3339646220008223,
        "distance_wrist_1_joint": 4.817691208325367,
        "distance_wrist_2_joint": 6.463330595190599,
        "distance_wrist_3_joint": 5.647250194908676,
        "smoothness": 0.7767818550416605,
        "time": 1.113198188,
        "traj_len": 4.721170831510632,
        "weighted_distance": 6.698132292933615
    },
    "planner": "KPIECE",
    "start": {
        "state": {
            "elbow_joint": 1.9565354006590394,
            "shoulder_lift_joint": -1.4165861576513559,
            "shoulder_pan_joint": -1.6717766223277177,
            "wrist_1_joint": -0.5286633288215096,
            "wrist_2_joint": 1.4727565892594296,
            "wrist_3_joint": 3.1593482883155493
        }
    },
    "waypoints": [
        {
            "positions": [
                -1.6717766223277177,
                -1.4165861576513559,
                1.9565354006590394,
                -0.5286633288215096,
                1.4727565892594296,
                3.1593482883155493
            ]
        },
        {
            "positions": [
                -1.6840422801528816,
                -1.4724011456587713,
                1.9954873207160273,
                -0.49891020686180826,
                1.3314141737661689,
                3.0897252384662437
            ]
        },
        {
            "positions": [
                -1.6963079379780455,
                -1.528216133666187,
                2.034439240773015,
                -0.46915708490210695,
                1.1900717582729081,
                3.0201021886169386
            ]
        },
        {
            "positions": [
                -1.6682411829858088,
                -1.5403109466111584,
                1.9481939025215302,
                -0.5361616111921289,
                1.0946594779040717,
                2.9182492897899
            ]
        },
        {
            "positions": [
                -1.6401744279935724,
                -1.5524057595561298,
                1.8619485642700453,
                -0.6031661374821509,
                0.9992471975352352,
                2.8163963909628613
            ]
        },
        {
            "positions": [
                -1.6498599292114504,
                -1.5364464726258236,
                1.784617861265395,
                -0.6998732842937864,
                0.8771563422901171,
                2.77162960964586
            ]
        },
        {
            "positions": [
                -1.6595454304293282,
                -1.5204871856955176,
                1.7072871582607447,
                -0.7965804311054219,
                0.7550654870449989,
                2.726862828328859
            ]
        },
        {
            "positions": [
                -1.6692309316472063,
                -1.5045278987652113,
                1.6299564552560943,
                -0.8932875779170573,
                0.6329746317998808,
                2.6820960470118576
            ]
        },
        {
            "positions": [
                -1.6789164328650843,
                -1.488568611834905,
                1.5526257522514442,
                -0.9899947247286929,
                0.5108837765547627,
                2.6373292656948566
            ]
        },
        {
            "positions": [
                -1.6886019340829623,
                -1.472609324904599,
                1.4752950492467938,
                -1.0867018715403283,
                0.3887929213096446,
                2.592562484377855
            ]
        },
        {
            "positions": [
                -1.6982874353008401,
                -1.4566500379742928,
                1.3979643462421434,
                -1.1834090183519637,
                0.2667020660645265,
                2.547795703060854
            ]
        },
        {
            "positions": [
                -1.7079729365187182,
                -1.4406907510439866,
                1.3206336432374932,
                -1.2801161651635993,
                0.14461121081940842,
                2.503028921743853
            ]
        },
        {
            "positions": [
                -1.7176584377365962,
                -1.4247314641136803,
                1.2433029402328428,
                -1.3768233119752349,
                0.02252035557429022,
                2.4582621404268514
            ]
        },
        {
            "positions": [
                -1.727343938954474,
                -1.4087721771833743,
                1.1659722372281927,
                -1.47353045878687,
                -0.09957049967082787,
                2.4134953591098505
            ]
        },
        {
            "positions": [
                -1.737029440172352,
                -1.392812890253068,
                1.0886415342235423,
                -1.5702376055985057,
                -0.22166135491594602,
                2.368728577792849
            ]
        },
        {
            "positions": [
                -1.8158127902019074,
                -1.3468761642343876,
                1.059254748033795,
                -1.6810351526530325,
                -0.34350408326261883,
                2.3621951326206125
            ]
        },
        {
            "positions": [
                -1.8945961402314628,
                -1.3009394382157071,
                1.0298679618440476,
                -1.7918326997075595,
                -0.4653468116092917,
                2.3556616874483756
            ]
        },
        {
            "positions": [
                -1.9733794902610182,
                -1.2550027121970264,
                1.0004811756543004,
                -1.9026302467620864,
                -0.5871895399559646,
                2.349128242276139
            ]
        },
        {
            "positions": [
                -2.0521628402905736,
                -1.209065986178346,
                0.9710943894645531,
                -2.0134277938166134,
                -0.7090322683026373,
                2.3425947971039025
            ]
        },
        {
            "positions": [
                -2.130946190320129,
                -1.1631292601596654,
                0.9417076032748057,
                -2.1242253408711402,
                -0.8308749966493103,
                2.3360613519316655
            ]
        },
        {
            "positions": [
                -2.2097295403496844,
                -1.117192534140985,
                0.9123208170850585,
                -2.235022887925667,
                -0.9527177249959831,
                2.329527906759429
            ]
        },
        {
            "positions": [
                -2.341693010644309,
                -1.0737681884435548,
                0.9973199308693093,
                -2.269849101757117,
                -0.9520747215678036,
                2.3171544911199726
            ]
        },
        {
            "positions": [
                -2.454968150754779,
                -1.047084712555332,
                1.1136988184191636,
                -2.248970190699432,
                -0.8840907414516359,
                2.3089406859828294
            ]
        },
        {
            "positions": [
                -2.5313142304587286,
                -1.0328625778586022,
                1.2196378708173092,
                -2.191356880039782,
                -0.7898159355541085,
                2.329551450324733
            ]
        },
        {
            "positions": [
                -2.607660310162678,
                -1.0186404431618725,
                1.325576923215455,
                -2.133743569380132,
                -0.6955411296565811,
                2.350162214666637
            ]
        },
        {
            "positions": [
                -2.6840063898666275,
                -1.0044183084651428,
                1.4315159756136007,
                -2.0761302587204815,
                -0.6012663237590536,
                2.3707729790085406
            ]
        },
        {
            "positions": [
                -2.681874911862776,
                -1.0171021693625106,
                1.4883795422488666,
                -2.1212723373897737,
                -0.4555103704374894,
                2.25390480682894
            ]
        },
        {
            "positions": [
                -2.679743433858924,
                -1.0297860302598787,
                1.5452431088841325,
                -2.166414416059066,
                -0.3097544171159251,
                2.13703663464934
            ]
        },
        {
            "positions": [
                -2.6776119558550726,
                -1.0424698911572465,
                1.6021066755193984,
                -2.211556494728358,
                -0.16399846379436084,
                2.0201684624697394
            ]
        },
        {
            "positions": [
                -2.6754804778512207,
                -1.0551537520546144,
                1.6589702421546644,
                -2.2566985733976503,
                -0.01824251047279657,
                1.9033002902901388
            ]
        },
        {
            "positions": [
                -2.673348999847369,
                -1.0678376129519824,
                1.7158338087899303,
                -2.3018406520669425,
                0.12751344284876776,
                1.7864321181105385
            ]
        },
        {
            "positions": [
                -2.6712175218435177,
                -1.0805214738493503,
                1.7726973754251962,
                -2.3469827307362348,
                0.27326939617033197,
                1.6695639459309382
            ]
        },
        {
            "positions": [
                -2.6690860438396657,
                -1.093205334746718,
                1.829560942060462,
                -2.392124809405527,
                0.41902534949189607,
                1.5526957737513376
            ]
        },
        {
            "positions": [
                -2.6669545658358143,
                -1.1058891956440862,
                1.886424508695728,
                -2.437266888074819,
                0.5647813028134605,
                1.4358276015717373
            ]
        },
        {
            "positions": [
                -2.6648230878319623,
                -1.118573056541454,
                1.9432880753309938,
                -2.4824089667441114,
                0.7105372561350247,
                1.3189594293921367
            ]
        },
        {
            "positions": [
                -2.662691609828111,
                -1.1312569174388218,
                2.00015164196626,
                -2.5275510454134036,
                0.8562932094565892,
                1.2020912572125364
            ]
        },
        {
            "positions": [
                -2.660560131824259,
                -1.14394077833619,
                2.0570152086015256,
                -2.572693124082696,
                1.0020491627781534,
                1.0852230850329359
            ]
        },
        {
            "positions": [
                -2.6584286538204074,
                -1.1566246392335577,
                2.113878775236792,
                -2.617835202751988,
                1.1478051160997176,
                0.9683549128533355
            ]
        },
        {
            "positions": [
                -2.656297175816556,
                -1.1693085001309256,
                2.1707423418720575,
                -2.66297728142128,
                1.2935610694212816,
                0.8514867406737352
            ]
        },
        {
            "positions": [
                -2.654165697812704,
                -1.1819923610282936,
                2.227605908507323,
                -2.7081193600905724,
                1.4393170227428458,
                0.7346185684941349
            ]
        },
        {
            "positions": [
                -2.6520342198088525,
                -1.1946762219256615,
                2.2844694751425894,
                -2.7532614387598646,
                1.5850729760644104,
                0.6177503963145343
            ]
        },
        {
            "positions": [
                -2.6499027418050005,
                -1.2073600828230295,
                2.3413330417778555,
                -2.798403517429157,
                1.7308289293859747,
                0.500882224134934
            ]
        },
        {
            "positions": [
                -2.647771263801149,
                -1.2200439437203974,
                2.398196608413121,
                -2.843545596098449,
                1.8765848827075389,
                0.38401405195533345
            ]
        },
        {
            "positions": [
                -2.637581104481885,
                -1.2167422242714472,
                2.375504995126758,
                -2.7261127274433696,
                1.8054934901644994,
                0.5456758973963357
            ]
        },
        {
            "positions": [
                -2.627390945162621,
                -1.2134405048224968,
                2.352813381840395,
                -2.6086798587882902,
                1.73440209762146,
                0.707337742837338
            ]
        },
        {
            "positions": [
                -2.617200785843357,
                -1.2101387853735466,
                2.330121768554032,
                -2.491246990133211,
                1.6633107050784206,
                0.8689995882783402
            ]
        },
        {
            "positions": [
                -2.607010626524093,
                -1.2068370659245962,
                2.307430155267669,
                -2.373814121478131,
                1.5922193125353812,
                1.0306614337193425
            ]
        },
        {
            "positions": [
                -2.596820467204829,
                -1.203535346475646,
                2.284738541981306,
                -2.2563812528230516,
                1.5211279199923418,
                1.1923232791603446
            ]
        },
        {
            "positions": [
                -2.586630307885565,
                -1.2002336270266956,
                2.262046928694943,
                -2.138948384167972,
                1.4500365274493023,
                1.353985124601347
            ]
        },
        {
            "positions": [
                -2.576440148566301,
                -1.1969319075777454,
                2.23935531540858,
                -2.0215155155128928,
                1.378945134906263,
                1.5156469700423492
            ]
        },
        {
            "positions": [
                -2.566249989247037,
                -1.193630188128795,
                2.216663702122217,
                -1.9040826468578134,
                1.3078537423632235,
                1.6773088154833515
            ]
        },
        {
            "positions": [
                -2.556059829927773,
                -1.1903284686798448,
                2.193972088835854,
                -1.786649778202734,
                1.236762349820184,
                1.8389706609243537
            ]
        },
        {
            "positions": [
                -2.5458696706085093,
                -1.1870267492308944,
                2.1712804755494908,
                -1.6692169095476543,
                1.1656709572771446,
                2.0006325063653563
            ]
        },
        {
            "positions": [
                -2.535679511289245,
                -1.1837250297819442,
                2.1485888622631277,
                -1.551784040892575,
                1.0945795647341052,
                2.1622943518063584
            ]
        },
        {
            "positions": [
                -2.525489351969981,
                -1.1804233103329937,
                2.1258972489767647,
                -1.4343511722374955,
                1.0234881721910658,
                2.3239561972473606
            ]
        },
        {
            "positions": [
                -2.5152991926507173,
                -1.1771215908840436,
                2.1032056356904016,
                -1.3169183035824161,
                0.9523967796480265,
                2.4856180426883627
            ]
        },
        {
            "positions": [
                -2.505109033331453,
                -1.1738198714350931,
                2.0805140224040386,
                -1.1994854349273367,
                0.881305387104987,
                2.647279888129365
            ]
        },
        {
            "positions": [
                -2.494918874012189,
                -1.170518151986143,
                2.0578224091176756,
                -1.0820525662722573,
                0.8102139945619475,
                2.808941733570367
            ]
        },
        {
            "positions": [
                -2.4847287146929253,
                -1.1672164325371925,
                2.0351307958313125,
                -0.9646196976171777,
                0.7391226020189081,
                2.9706035790113696
            ]
        },
        {
            "positions": [
                -2.474538555373661,
                -1.1639147130882423,
                2.0124391825449495,
                -0.8471868289620982,
                0.6680312094758686,
                3.1322654244523718
            ]
        }
    ]
}