{
    "goal": {
        "global_pose": {
            "orientation": {
                "w": -0.4816463035849501,
                "x": 0.5182115481033762,
                "y": 0.4908360881923453,
                "z": -0.5084816262002911
            },
            "position": {
                "x": -0.8240239810943604,
                "y": 0.19912469901144506,
                "z": 0.16403168439865112
            }
        },
        "name": "move_to_storage_D"
    },
    "id": "KPIECE_move_to_storage_D_54",
    "joint_names": [
        "shoulder_pan_joint",
        "shoulder_lift_joint",
        "elbow_joint",
        "wrist_1_joint",
        "wrist_2_joint",
        "wrist_3_joint"
    ],
    "metrics": {
        "cart_traj_len": 4.153256288333726,
        "distance_elbow_joint": 4.210256278772856,
        "distance_shoulder_lift_joint": 1.26368942282332,
        "distance_shoulder_pan_joint": 2.811657999627573,
        "distance_wrist_1_joint": 2.263670867987383,
        "distance_wrist_2_joint": 0.8702566365617034,
        "distance_wrist_3_joint": 3.130392397504772,
        "smoothness": 3.9734297472834665e-16,
        "time": 0.056725717,
        "traj_len": 3.814436210408769,
        "weighted_distance": 4.893325648558068
    },
    "planner": "KPIECE",
    "start": {
        "state": {
            "elbow_joint": -2.384821997420982,
            "shoulder_lift_joint": -2.2788054674887404,
            "shoulder_pan_joint": -0.18546946417610016,
            "wrist_1_joint": 1.4845937964226739,
            "wrist_2_joint": 0.1789877726866377,
            "wrist_3_joint": 0.03710572555276528
        }
    },
    "waypoints": [
        {
            "positions": [
                -0.18546946417610016,
                -2.2788054674887404,
                -2.384821997420982,
                1.4845937964226739,
                0.1789877726866377,
                0.03710572555276528
            ]
        },
        {
            "positions": [
                -0.06135334873006981,
                -2.2442202602563457,
                -2.3036128811263255,
                1.454165093174903,
                0.20941274241052116,
                -0.055723434969788176
            ]
        },
        {
            "positions": [
                0.06276276671596054,
                -2.209635053023951,
                -2.2224037648316695,
                1.4237363899271323,
                0.23983771213440463,
                -0.14855259549234162
            ]
        },
        {
            "positions": [
                0.1868788821619909,
                -2.1750498457915564,
                -2.141194648537013,
                1.3933076866793614,
                0.27026268185828806,
                -0.24138175601489506
            ]
        },
        {
            "positions": [
                0.31099499760802124,
                -2.1404646385591617,
                -2.0599855322423566,
                1.3628789834315906,
                0.30068765158217153,
                -0.33421091653744855
            ]
        },
        {
            "positions": [
                0.43511111305405165,
                -2.1058794313267666,
                -1.9787764159477004,
                1.3324502801838198,
                0.331112621306055,
                -0.427040077060002
            ]
        },
        {
            "positions": [
                0.5592272285000819,
                -2.071294224094372,
                -1.8975672996530442,
                1.302021576936049,
                0.36153759102993843,
                -0.5198692375825554
            ]
        },
        {
            "positions": [
                0.6833433439461123,
                -2.0367090168619773,
                -1.8163581833583877,
                1.2715928736882782,
                0.39196256075382196,
                -0.612698398105109
            ]
        },
        {
            "positions": [
                0.8074594593921427,
                -2.0021238096295826,
                -1.7351490670637313,
                1.2411641704405074,
                0.4223875304777054,
                -0.7055275586276624
            ]
        },
        {
            "positions": [
                0.9315755748381731,
                -1.967538602397188,
                -1.653939950769075,
                1.2107354671927366,
                0.4528125002015889,
                -0.7983567191502159
            ]
        },
        {
            "positions": [
                1.0556916902842035,
                -1.9329533951647933,
                -1.5727308344744189,
                1.1803067639449658,
                0.48323746992547234,
                -0.8911858796727693
            ]
        },
        {
            "positions": [
                1.179807805730234,
                -1.8983681879323986,
                -1.4915217181797624,
                1.149878060697195,
                0.5136624396493558,
                -0.9840150401953228
            ]
        },
        {
            "positions": [
                1.303923921176264,
                -1.863782980700004,
                -1.4103126018851062,
                1.1194493574494242,
                0.5440874093732392,
                -1.076844200717876
            ]
        },
        {
            "positions": [
                1.4280400366222945,
                -1.829197773467609,
                -1.3291034855904498,
                1.0890206542016534,
                0.5745123790971227,
                -1.1696733612404295
            ]
        },
        {
            "positions": [
                1.552156152068325,
                -1.7946125662352144,
                -1.2478943692957936,
                1.0585919509538826,
                0.6049373488210061,
                -1.262502521762983
            ]
        },
        {
            "positions": [
                1.5988532122154182,
                -1.7607214131234843,
                -1.1142713844850254,
                0.9786932978009003,
                0.6242550471004554,
                -1.3421018326407668
            ]
        },
        {
            "positions": [
                1.6455502723625117,
                -1.726830260011754,
                -0.9806483996742572,
                0.898794644647918,
                0.6435727453799048,
                -1.4217011435185503
            ]
        },
        {
            "positions": [
                1.692247332509605,
                -1.692939106900024,
                -0.847025414863489,
                0.8188959914949359,
                0.6628904436593541,
                -1.501300454396334
            ]
        },
        {
            "positions": [
                1.7389443926566983,
                -1.6590479537882936,
                -0.7134024300527209,
                0.7389973383419536,
                0.6822081419388035,
                -1.5808997652741175
            ]
        },
        {
            "positions": [
                1.7856414528037918,
                -1.6251568006765635,
                -0.5797794452419528,
                0.6590986851889713,
                0.7015258402182528,
                -1.6604990761519012
            ]
        },
        {
            "positions": [
                1.8323385129508851,
                -1.5912656475648332,
                -0.4461564604311846,
                0.5792000320359891,
                0.7208435384977022,
                -1.740098387029685
            ]
        },
        {
            "positions": [
                1.8790355730979784,
                -1.5573744944531032,
                -0.31253347562041633,
                0.49930137888300674,
                0.7401612367771515,
                -1.8196976979074684
            ]
        },
        {
            "positions": [
                1.925732633245072,
                -1.523483341341373,
                -0.17891049080964816,
                0.4194027257300246,
                0.7594789350566009,
                -1.899297008785252
            ]
        },
        {
            "positions": [
                1.9724296933921652,
                -1.4895921882296428,
                -0.045287505998879984,
                0.3395040725770423,
                0.7787966333360502,
                -1.9788963196630358
            ]
        },
        {
            "positions": [
                2.0191267535392585,
                -1.4557010351179127,
                0.08833547881188797,
                0.25960541942406,
                0.7981143316154996,
                -2.0584956305408193
            ]
        },
        {
            "positions": [
                2.065823813686352,
                -1.4218098820061824,
                0.22195846362265637,
                0.17970676627107773,
                0.8174320298949489,
                -2.1380949414186032
            ]
        },
        {
            "positions": [
                2.1125208738334456,
                -1.3879187288944523,
                0.3555814484334243,
                0.09980811311809556,
                0.8367497281743983,
                -2.2176942522963863
            ]
        },
        {
            "positions": [
                2.1592179339805386,
                -1.3540275757827223,
                0.4892044332441925,
                0.019909459965113285,
                0.8560674264538476,
                -2.29729356317417
            ]
        },
        {
            "positions": [
                2.205914994127632,
                -1.320136422670992,
                0.6228274180549609,
                -0.059989193187869105,
                0.875385124733297,
                -2.376892874051954
            ]
        },
        {
            "positions": [
                2.2526120542747257,
                -1.2862452695592617,
                0.7564504028657288,
                -0.13988784634085127,
                0.8947028230127463,
                -2.456492184929737
            ]
        },
        {
            "positions": [
                2.2993091144218187,
                -1.2523541164475316,
                0.8900733876764972,
                -0.21978649949383344,
                0.9140205212921957,
                -2.536091495807521
            ]
        },
        {
            "positions": [
                2.3460061745689123,
                -1.2184629633358015,
                1.0236963724872652,
                -0.2996851526468156,
                0.933338219571645,
                -2.6156908066853046
            ]
        },
        {
            "positions": [
                2.3927032347160058,
                -1.1845718102240712,
                1.1573193572980336,
                -0.379583805799798,
                0.9526559178510943,
                -2.695290117563088
            ]
        },
        {
            "positions": [
                2.439400294863099,
                -1.150680657112341,
                1.2909423421088015,
                -0.45948245895278017,
                0.9719736161305437,
                -2.774889428440872
            ]
        },
        {
            "positions": [
                2.4860973550101924,
                -1.1167895040006108,
                1.4245653269195695,
                -0.5393811121057626,
                0.9912913144099931,
                -2.8544887393186555
            ]
        },
        {
            "positions": [
                2.5327944151572854,
                -1.0828983508888808,
                1.558188311730338,
                -0.6192797652587447,
                1.0106090126894425,
                -2.934088050196439
            ]
        },
        {
            "positions": [
                2.579491475304379,
                -1.0490071977771507,
                1.6918112965411063,
                -0.6991784184117271,
                1.0299267109688917,
                -3.013687361074223
            ]
        },
        {
            "positions": [
                2.6261885354514725,
                -1.0151160446654204,
                1.8254342813518742,
                -0.7790770715647092,
                1.049244409248341,
                -3.0932866719520065
            ]
        }
    ]
}