{
    "goal": {
        "global_pose": {
            "orientation": {
                "w": 0.5084816262002911,
                "x": -0.4908360881923452,
                "y": 0.5182115481033761,
                "z": -0.48164630358495003
            },
            "position": {
                "x": 0.5540239810943604,
                "y": -0.46912469901144505,
                "z": 0.16403168439865112
            }
        },
        "name": "move_to_storage_B"
    },
    "id": "KPIECE_move_to_storage_B_22",
    "joint_names": [
        "shoulder_pan_joint",
        "shoulder_lift_joint",
        "elbow_joint",
        "wrist_1_joint",
        "wrist_2_joint",
        "wrist_3_joint"
    ],
    "metrics": {
        "cart_traj_len": 0.7175474474708745,
        "distance_elbow_joint": 0.361218511943451,
        "distance_shoulder_lift_joint": 0.46209017189949897,
        "distance_shoulder_pan_joint": 0.37077973642423234,
        "distance_wrist_1_joint": 3.0262293432412775,
        "distance_wrist_2_joint": 2.7198437473141555,
        "distance_wrist_3_joint": 4.215132085477414,
        "smoothness": 0.18279151008651326,
        "time": 0.072164646,
        "traj_len": 3.339954130867673,
        "weighted_distance": 5.033053830211862
    },
    "planner": "KPIECE",
    "start": {
        "state": {
            "elbow_joint": 1.6649325706314817,
            "shoulder_lift_joint": -0.6616388048112454,
            "shoulder_pan_joint": -0.9139837860083814,
            "wrist_1_joint": 2.146757197745094,
            "wrist_2_joint": -2.234196043158733,
            "wrist_3_joint": 0.005471033829999897
        }
    },
    "waypoints": [
        {
            "positions": [
                -0.9139837860083814,
                -0.6616388048112454,
                1.6649325706314817,
                2.146757197745094,
                -2.234196043158733,
                0.005471033829999897
            ]
        },
        {
            "positions": [
                -0.9445704779695189,
                -0.695098954691078,
                1.6940724312495938,
                2.0350041964509833,
                -2.131101199513664,
                -0.05289031597304786
            ]
        },
        {
            "positions": [
                -0.9751571699306565,
                -0.7285591045709107,
                1.723212291867706,
                1.923251195156872,
                -2.0280063558685955,
                -0.1112516657760956
            ]
        },
        {
            "positions": [
                -1.005743861891794,
                -0.7620192544507433,
                1.752352152485818,
                1.8114981938627612,
                -1.9249115122235265,
                -0.16961301557914338
            ]
        },
        {
            "positions": [
                -1.0363305538529315,
                -0.7954794043305758,
                1.7814920131039302,
                1.69974519256865,
                -1.8218166685784578,
                -0.22797436538219112
            ]
        },
        {
            "positions": [
                -1.066917245814069,
                -0.8289395542104085,
                1.8106318737220426,
                1.5879921912745392,
                -1.718721824933389,
                -0.28633571518523887
            ]
        },
        {
            "positions": [
                -1.0975039377752065,
                -0.8623997040902411,
                1.8397717343401547,
                1.4762391899804281,
                -1.6156269812883204,
                -0.3446970649882866
            ]
        },
        {
            "positions": [
                -1.1280906297363442,
                -0.8958598539700737,
                1.8689115949582669,
                1.364486188686317,
                -1.5125321376432517,
                -0.4030584147913344
            ]
        },
        {
            "positions": [
                -1.1586773216974817,
                -0.9293200038499063,
                1.898051455576379,
                1.252733187392206,
                -1.4094372939981827,
                -0.4614197645943821
            ]
        },
        {
            "positions": [
                -1.1892640136586192,
                -0.962780153729739,
                1.9271913161944911,
                1.140980186098095,
                -1.306342450353114,
                -0.5197811143974299
            ]
        },
        {
            "positions": [
                -1.1844890382199196,
                -0.9708275948787893,
                1.9321393045135131,
                1.0399575695183811,
                -1.2167429426276872,
                -0.3352871175349307
            ]
        },
        {
            "positions": [
                -1.1797140627812197,
                -0.9788750360278395,
                1.9370872928325353,
                0.9389349529386671,
                -1.1271434349022604,
                -0.15079312067243145
            ]
        },
        {
            "positions": [
                -1.17493908734252,
                -0.9869224771768899,
                1.9420352811515573,
                0.8379123363589532,
                -1.0375439271768336,
                0.033700876190067786
            ]
        },
        {
            "positions": [
                -1.1701641119038204,
                -0.9949699183259401,
                1.9469832694705795,
                0.7368897197792392,
                -0.9479444194514067,
                0.21819487305256702
            ]
        },
        {
            "positions": [
                -1.1653891364651205,
                -1.0030173594749903,
                1.9519312577896015,
                0.6358671031995253,
                -0.8583449117259799,
                0.40268886991506625
            ]
        },
        {
            "positions": [
                -1.160614161026421,
                -1.0110648006240406,
                1.9568792461086235,
                0.5348444866198114,
                -0.7687454040005531,
                0.5871828667775655
            ]
        },
        {
            "positions": [
                -1.1558391855877213,
                -1.019112241773091,
                1.9618272344276457,
                0.43382187004009753,
                -0.6791458962751263,
                0.7716768636400647
            ]
        },
        {
            "positions": [
                -1.1510642101490214,
                -1.0271596829221412,
                1.9667752227466677,
                0.3327992534603834,
                -0.5895463885496994,
                0.956170860502564
            ]
        },
        {
            "positions": [
                -1.1462892347103217,
                -1.0352071240711913,
                1.97172321106569,
                0.23177663688066952,
                -0.49994688082427263,
                1.140664857365063
            ]
        },
        {
            "positions": [
                -1.1415142592716219,
                -1.0432545652202416,
                1.976671199384712,
                0.13075402030095562,
                -0.41034737309884584,
                1.3251588542275625
            ]
        },
        {
            "positions": [
                -1.1367392838329222,
                -1.051302006369292,
                1.981619187703734,
                0.0297314037212415,
                -0.32074786537341893,
                1.509652851090062
            ]
        },
        {
            "positions": [
                -1.1319643083942226,
                -1.0593494475183423,
                1.9865671760227561,
                -0.07129121285847217,
                -0.23114835764799224,
                1.694146847952561
            ]
        },
        {
            "positions": [
                -1.1271893329555227,
                -1.0673968886673926,
                1.991515164341778,
                -0.1723138294381863,
                -0.14154884992256545,
                1.8786408448150604
            ]
        },
        {
            "positions": [
                -1.122414357516823,
                -1.0754443298164427,
                1.9964631526608003,
                -0.27333644601789997,
                -0.05194934219713865,
                2.0631348416775595
            ]
        },
        {
            "positions": [
                -1.1176393820781234,
                -1.083491770965493,
                2.0014111409798225,
                -0.3743590625976141,
                0.03765016552828837,
                2.247628838540059
            ]
        },
        {
            "positions": [
                -1.1128644066394235,
                -1.0915392121145433,
                2.0063591292988443,
                -0.4753816791773282,
                0.12724967325371517,
                2.432122835402558
            ]
        },
        {
            "positions": [
                -1.108089431200724,
                -1.0995866532635936,
                2.0113071176178665,
                -0.5764042957570419,
                0.21684918097914196,
                2.616616832265057
            ]
        },
        {
            "positions": [
                -1.1033144557620242,
                -1.107634094412644,
                2.0162551059368887,
                -0.677426912336756,
                0.30644868870456876,
                2.8011108291275564
            ]
        },
        {
            "positions": [
                -1.0985394803233244,
                -1.115681535561694,
                2.0212030942559105,
                -0.7784495289164697,
                0.39604819642999556,
                2.9856048259900554
            ]
        },
        {
            "positions": [
                -1.0937645048846247,
                -1.1237289767107443,
                2.0261510825749327,
                -0.879472145496184,
                0.48564770415542236,
                3.170098822852555
            ]
        }
    ]
}