{
    "goal": {
        "global_pose": {
            "orientation": {
                "w": -0.4816463035849501,
                "x": 0.5182115481033762,
                "y": 0.4908360881923453,
                "z": -0.5084816262002911
            },
            "position": {
                "x": -0.8240239810943604,
                "y": 0.19912469901144506,
                "z": 0.16403168439865112
            }
        },
        "name": "move_to_storage_D"
    },
    "id": "KPIECE_move_to_storage_D_51",
    "joint_names": [
        "shoulder_pan_joint",
        "shoulder_lift_joint",
        "elbow_joint",
        "wrist_1_joint",
        "wrist_2_joint",
        "wrist_3_joint"
    ],
    "metrics": {
        "cart_traj_len": 2.947051879140611,
        "distance_elbow_joint": 2.6447837876907387,
        "distance_shoulder_lift_joint": 1.8298879178445455,
        "distance_shoulder_pan_joint": 1.615507452073014,
        "distance_wrist_1_joint": 3.9774572528018157,
        "distance_wrist_2_joint": 1.7827031668177316,
        "distance_wrist_3_joint": 3.115129681353641,
        "smoothness": 0.32923695448909895,
        "time": 0.078186695,
        "traj_len": 3.8685228781256407,
        "weighted_distance": 5.19190610863759
    },
    "planner": "KPIECE",
    "start": {
        "state": {
            "elbow_joint": -2.384821997420982,
            "shoulder_lift_joint": -2.2788054674887404,
            "shoulder_pan_joint": -0.18546946417610016,
            "wrist_1_joint": 1.4845937964226739,
            "wrist_2_joint": 0.1789877726866377,
            "wrist_3_joint": 0.03710572555276528
        }
    },
    "waypoints": [
        {
            "positions": [
                -0.18546946417610016,
                -2.2788054674887404,
                -2.384821997420982,
                1.4845937964226739,
                0.1789877726866377,
                0.03710572555276528
            ]
        },
        {
            "positions": [
                -0.15528660199589117,
                -2.206792337852892,
                -2.3792253229386358,
                1.5218764276395953,
                0.16008466251169642,
                -0.033506468771742855
            ]
        },
        {
            "positions": [
                -0.12510373981568218,
                -2.1347792082170436,
                -2.3736286484562896,
                1.5591590588565167,
                0.14118155233675514,
                -0.10411866309625098
            ]
        },
        {
            "positions": [
                -0.06181137254745403,
                -2.069657897351566,
                -2.251318968569118,
                1.5038594662715272,
                0.12188034199426898,
                -0.1532237410002911
            ]
        },
        {
            "positions": [
                0.0014809947207741203,
                -2.0045365864860885,
                -2.1290092886819463,
                1.4485598736865375,
                0.10257913165178281,
                -0.20232881890433121
            ]
        },
        {
            "positions": [
                0.06477336198900227,
                -1.939415275620611,
                -2.006699608794775,
                1.393260281101548,
                0.08327792130929665,
                -0.25143389680837136
            ]
        },
        {
            "positions": [
                0.12806572925723042,
                -1.8742939647551333,
                -1.884389928907603,
                1.3379606885165582,
                0.06397671096681048,
                -0.3005389747124114
            ]
        },
        {
            "positions": [
                0.19135809652545854,
                -1.8091726538896558,
                -1.7620802490204313,
                1.2826610959315687,
                0.04467550062432432,
                -0.3496440526164516
            ]
        },
        {
            "positions": [
                0.2546504637936867,
                -1.7440513430241782,
                -1.6397705691332596,
                1.2273615033465792,
                0.025374290281838158,
                -0.39874913052049166
            ]
        },
        {
            "positions": [
                0.3179428310619148,
                -1.6789300321587006,
                -1.5174608892460881,
                1.1720619107615897,
                0.006073079939351994,
                -0.4478542084245317
            ]
        },
        {
            "positions": [
                0.381235198330143,
                -1.613808721293223,
                -1.3951512093589162,
                1.1167623181766,
                -0.01322813040313417,
                -0.4969592863285719
            ]
        },
        {
            "positions": [
                0.4445275655983711,
                -1.5486874104277455,
                -1.2728415294717448,
                1.0614627255916105,
                -0.03252934074562033,
                -0.546064364232612
            ]
        },
        {
            "positions": [
                0.5078199328665993,
                -1.483566099562268,
                -1.1505318495845729,
                1.0061631330066207,
                -0.0518305510881065,
                -0.5951694421366521
            ]
        },
        {
            "positions": [
                0.5711123001348275,
                -1.4184447886967904,
                -1.0282221696974014,
                0.9508635404216312,
                -0.07113176143059266,
                -0.6442745200406922
            ]
        },
        {
            "positions": [
                0.6344046674030557,
                -1.3533234778313128,
                -0.9059124898102298,
                0.8955639478366416,
                -0.09043297177307882,
                -0.6933795979447324
            ]
        },
        {
            "positions": [
                0.6976970346712836,
                -1.2882021669658352,
                -0.783602809923058,
                0.8402643552516521,
                -0.10973418211556499,
                -0.7424846758487724
            ]
        },
        {
            "positions": [
                0.6684033965422583,
                -1.3217735516587008,
                -0.8253453939307707,
                0.7129044637811278,
                -0.16949343059618613,
                -0.8359062470468566
            ]
        },
        {
            "positions": [
                0.6391097584132331,
                -1.3553449363515664,
                -0.8670879779384832,
                0.5855445723106034,
                -0.2292526790768073,
                -0.9293278182449407
            ]
        },
        {
            "positions": [
                0.6098161202842078,
                -1.388916321044432,
                -0.9088305619461959,
                0.45818468084007913,
                -0.28901192755742844,
                -1.0227493894430248
            ]
        },
        {
            "positions": [
                0.5805224821551827,
                -1.4224877057372978,
                -0.9505731459539086,
                0.33082478936955484,
                -0.3487711760380496,
                -1.116170960641109
            ]
        },
        {
            "positions": [
                0.5512288440261573,
                -1.4560590904301633,
                -0.9923157299616212,
                0.20346489789903044,
                -0.4085304245186707,
                -1.2095925318391934
            ]
        },
        {
            "positions": [
                0.5219352058971322,
                -1.489630475123029,
                -1.034058313969334,
                0.07610500642850615,
                -0.4682896729992918,
                -1.3030141030372775
            ]
        },
        {
            "positions": [
                0.49264156776810686,
                -1.5232018598158945,
                -1.0758008979770466,
                -0.05125488504201825,
                -0.5280489214799131,
                -1.3964356742353616
            ]
        },
        {
            "positions": [
                0.46334792963908167,
                -1.55677324450876,
                -1.1175434819847592,
                -0.17861477651254243,
                -0.5878081699605342,
                -1.4898572454334458
            ]
        },
        {
            "positions": [
                0.4340542915100564,
                -1.590344629201626,
                -1.1592860659924717,
                -0.3059746679830667,
                -0.6475674184411553,
                -1.58327881663153
            ]
        },
        {
            "positions": [
                0.4047606533810311,
                -1.6239160138944915,
                -1.2010286500001845,
                -0.43333455945359123,
                -0.7073266669217765,
                -1.676700387829614
            ]
        },
        {
            "positions": [
                0.37546701525200593,
                -1.657487398587357,
                -1.2427712340078971,
                -0.5606944509241155,
                -0.7670859154023976,
                -1.7701219590276982
            ]
        },
        {
            "positions": [
                0.3461733771229807,
                -1.6910587832802226,
                -1.28451381801561,
                -0.6880543423946398,
                -0.8268451638830187,
                -1.8635435302257823
            ]
        },
        {
            "positions": [
                0.3168797389939554,
                -1.7246301679730882,
                -1.3262564020233225,
                -0.8154142338651641,
                -0.88660441236364,
                -1.9569651014238665
            ]
        },
        {
            "positions": [
                0.28758610086493014,
                -1.758201552665954,
                -1.367998986031035,
                -0.9427741253356886,
                -0.9463636608442612,
                -2.0503866726219506
            ]
        },
        {
            "positions": [
                0.25829246273590495,
                -1.7917729373588194,
                -1.4097415700387477,
                -1.0701340168062128,
                -1.0061229093248822,
                -2.1438082438200348
            ]
        },
        {
            "positions": [
                0.22899882460687965,
                -1.8253443220516852,
                -1.4514841540464603,
                -1.197493908276737,
                -1.0658821578055033,
                -2.237229815018119
            ]
        },
        {
            "positions": [
                0.1997051864778544,
                -1.8589157067445508,
                -1.493226738054173,
                -1.3248537997472618,
                -1.1256414062861246,
                -2.3306513862162035
            ]
        },
        {
            "positions": [
                0.1704115483488292,
                -1.8924870914374163,
                -1.5349693220618856,
                -1.4522136912177857,
                -1.1854006547667457,
                -2.424072957414287
            ]
        },
        {
            "positions": [
                0.1411179102198039,
                -1.926058476130282,
                -1.5767119060695984,
                -1.5795735826883104,
                -1.2451599032473668,
                -2.5174945286123718
            ]
        },
        {
            "positions": [
                0.11182427209077861,
                -1.9596298608231475,
                -1.618454490077311,
                -1.7069334741588347,
                -1.3049191517279881,
                -2.6109160998104555
            ]
        },
        {
            "positions": [
                0.08253063396175342,
                -1.993201245516013,
                -1.6601970740850236,
                -1.8342933656293585,
                -1.3646784002086092,
                -2.7043376710085396
            ]
        },
        {
            "positions": [
                0.05323699583272823,
                -2.0267726302088787,
                -1.7019396580927362,
                -1.9616532570998833,
                -1.4244376486892303,
                -2.7977592422066238
            ]
        },
        {
            "positions": [
                0.023943357703702928,
                -2.0603440149017445,
                -1.743682242100449,
                -2.0890131485704075,
                -1.4841968971698516,
                -2.8911808134047083
            ]
        },
        {
            "positions": [
                -0.0053502804253222624,
                -2.09391539959461,
                -1.7854248261081618,
                -2.216373040040932,
                -1.5439561456504725,
                -2.984602384602792
            ]
        },
        {
            "positions": [
                -0.03464391855434761,
                -2.1274867842874756,
                -1.8271674101158744,
                -2.343732931511456,
                -1.6037153941310938,
                -3.078023955800876
            ]
        }
    ]
}