{
    "goal": {
        "global_pose": {
            "orientation": {
                "w": -0.4816463035849501,
                "x": 0.5182115481033762,
                "y": 0.4908360881923453,
                "z": -0.5084816262002911
            },
            "position": {
                "x": -0.8240239810943604,
                "y": 0.19912469901144506,
                "z": 0.16403168439865112
            }
        },
        "name": "move_to_storage_D"
    },
    "id": "KPIECE_move_to_storage_D_10",
    "joint_names": [
        "shoulder_pan_joint",
        "shoulder_lift_joint",
        "elbow_joint",
        "wrist_1_joint",
        "wrist_2_joint",
        "wrist_3_joint"
    ],
    "metrics": {
        "cart_traj_len": 3.7748722827011134,
        "distance_elbow_joint": 4.207862888884595,
        "distance_shoulder_lift_joint": 1.264294602904953,
        "distance_shoulder_pan_joint": 2.811629231682106,
        "distance_wrist_1_joint": 2.2610700175570058,
        "distance_wrist_2_joint": 0.8747256445033739,
        "distance_wrist_3_joint": 3.1415736466234043,
        "smoothness": 0.0046088892652573306,
        "time": 0.297019249,
        "traj_len": 3.8159082840334935,
        "weighted_distance": 4.8969479257454465
    },
    "planner": "KPIECE",
    "start": {
        "state": {
            "elbow_joint": -2.384821997420982,
            "shoulder_lift_joint": -2.2788054674887404,
            "shoulder_pan_joint": -0.18546946417610016,
            "wrist_1_joint": 1.4845937964226739,
            "wrist_2_joint": 0.1789877726866377,
            "wrist_3_joint": 0.03710572555276528
        }
    },
    "waypoints": [
        {
            "positions": [
                -0.18546946417610016,
                -2.2788054674887404,
                -2.384821997420982,
                1.4845937964226739,
                0.1789877726866377,
                0.03710572555276528
            ]
        },
        {
            "positions": [
                -0.09503051343635247,
                -2.2776034687241538,
                -2.2239969592598685,
                1.47392838268757,
                0.17683985619309028,
                0.14974238100637843
            ]
        },
        {
            "positions": [
                -0.017440356974798565,
                -2.244588984531105,
                -2.1101273997808767,
                1.4180643112275115,
                0.19926695991508603,
                0.23468287884579536
            ]
        },
        {
            "positions": [
                0.060149799486755334,
                -2.211574500338056,
                -1.996257840301885,
                1.362200239767453,
                0.22169406363708175,
                0.3196233766852123
            ]
        },
        {
            "positions": [
                0.13773995594830923,
                -2.178560016145007,
                -1.8823882808228931,
                1.3063361683073946,
                0.24412116735907746,
                0.4045638745246292
            ]
        },
        {
            "positions": [
                0.21533011240986313,
                -2.1455455319519583,
                -1.7685187213439013,
                1.2504720968473362,
                0.2665482710810732,
                0.48950437236404615
            ]
        },
        {
            "positions": [
                0.2929202688714171,
                -2.1125310477589094,
                -1.6546491618649095,
                1.194608025387278,
                0.28897537480306895,
                0.574444870203463
            ]
        },
        {
            "positions": [
                0.37051042533297096,
                -2.0795165635658606,
                -1.5407796023859177,
                1.1387439539272195,
                0.31140247852506464,
                0.6593853680428801
            ]
        },
        {
            "positions": [
                0.44810058179452483,
                -2.0465020793728117,
                -1.426910042906926,
                1.082879882467161,
                0.3338295822470604,
                0.7443258658822969
            ]
        },
        {
            "positions": [
                0.5256907382560787,
                -2.013487595179763,
                -1.3130404834279341,
                1.0270158110071026,
                0.35625668596905613,
                0.8292663637217139
            ]
        },
        {
            "positions": [
                0.6032808947176327,
                -1.980473110986714,
                -1.1991709239489423,
                0.9711517395470441,
                0.3786837896910519,
                0.914206861561131
            ]
        },
        {
            "positions": [
                0.6808710511791866,
                -1.9474586267936653,
                -1.0853013644699505,
                0.9152876680869858,
                0.4011108934130476,
                0.9991473594005478
            ]
        },
        {
            "positions": [
                0.7584612076407405,
                -1.9144441426006165,
                -0.9714318049909587,
                0.8594235966269274,
                0.42353799713504336,
                1.0840878572399648
            ]
        },
        {
            "positions": [
                0.8360513641022943,
                -1.8814296584075676,
                -0.8575622455119669,
                0.8035595251668689,
                0.44596510085703905,
                1.1690283550793816
            ]
        },
        {
            "positions": [
                0.9136415205638484,
                -1.8484151742145187,
                -0.7436926860329751,
                0.7476954537068105,
                0.4683922045790348,
                1.2539688529187987
            ]
        },
        {
            "positions": [
                0.9912316770254022,
                -1.8154006900214699,
                -0.6298231265539833,
                0.6918313822467521,
                0.4908193083010305,
                1.3389093507582155
            ]
        },
        {
            "positions": [
                1.0688218334869561,
                -1.782386205828421,
                -0.5159535670749915,
                0.6359673107866937,
                0.5132464120230262,
                1.4238498485976325
            ]
        },
        {
            "positions": [
                1.14641198994851,
                -1.7493717216353721,
                -0.4020840075959997,
                0.5801032393266352,
                0.535673515745022,
                1.5087903464370493
            ]
        },
        {
            "positions": [
                1.2240021464100639,
                -1.7163572374423235,
                -0.28821444811700814,
                0.5242391678665769,
                0.5581006194670177,
                1.5937308442764662
            ]
        },
        {
            "positions": [
                1.3015923028716179,
                -1.6833427532492744,
                -0.17434488863801612,
                0.4683750964065183,
                0.5805277231890135,
                1.6786713421158834
            ]
        },
        {
            "positions": [
                1.3791824593331716,
                -1.6503282690562255,
                -0.060475329159024316,
                0.41251102494645986,
                0.6029548269110092,
                1.7636118399553002
            ]
        },
        {
            "positions": [
                1.4567726157947256,
                -1.617313784863177,
                0.053394230319967484,
                0.35664695348640163,
                0.6253819306330048,
                1.848552337794717
            ]
        },
        {
            "positions": [
                1.5343627722562794,
                -1.584299300670128,
                0.16726378979895928,
                0.3007828820263432,
                0.6478090343550006,
                1.9334928356341339
            ]
        },
        {
            "positions": [
                1.6119529287178336,
                -1.5512848164770792,
                0.2811333492779511,
                0.24491881056628473,
                0.6702361380769963,
                2.018433333473551
            ]
        },
        {
            "positions": [
                1.6895430851793873,
                -1.5182703322840303,
                0.3950029087569429,
                0.18905473910622628,
                0.6926632417989921,
                2.1033738313129677
            ]
        },
        {
            "positions": [
                1.767133241640941,
                -1.4852558480909814,
                0.5088724682359347,
                0.13319066764616783,
                0.7150903455209878,
                2.1883143291523846
            ]
        },
        {
            "positions": [
                1.844723398102495,
                -1.4522413638979326,
                0.6227420277149265,
                0.0773265961861096,
                0.7375174492429835,
                2.2732548269918014
            ]
        },
        {
            "positions": [
                1.9223135545640493,
                -1.4192268797048837,
                0.7366115871939183,
                0.021462524726050924,
                0.7599445529649793,
                2.3581953248312186
            ]
        },
        {
            "positions": [
                1.999903711025603,
                -1.3862123955118348,
                0.8504811466729101,
                -0.034401546734007526,
                0.7823716566869751,
                2.4431358226706354
            ]
        },
        {
            "positions": [
                2.077493867487157,
                -1.353197911318786,
                0.9643507061519019,
                -0.09026561819406576,
                0.8047987604089707,
                2.5280763205100523
            ]
        },
        {
            "positions": [
                2.1550840239487106,
                -1.320183427125737,
                1.0782202656308937,
                -0.1461296896541242,
                0.8272258641309664,
                2.613016818349469
            ]
        },
        {
            "positions": [
                2.2326741804102648,
                -1.2871689429326882,
                1.1920898251098855,
                -0.20199376111418266,
                0.8496529678529622,
                2.6979573161888863
            ]
        },
        {
            "positions": [
                2.3102643368718185,
                -1.2541544587396394,
                1.3059593845888773,
                -0.2578578325742411,
                0.8720800715749579,
                2.782897814028303
            ]
        },
        {
            "positions": [
                2.3629135753108494,
                -1.214213859713664,
                1.3921396357346667,
                -0.3442942306675897,
                0.9016363236796178,
                2.8488614070529477
            ]
        },
        {
            "positions": [
                2.415562813749881,
                -1.1742732606876887,
                1.4783198868804561,
                -0.43073062876093826,
                0.9311925757842775,
                2.914825000077592
            ]
        },
        {
            "positions": [
                2.468212052188912,
                -1.1343326616617133,
                1.5645001380262455,
                -0.517167026854287,
                0.9607488278889373,
                2.980788593102236
            ]
        },
        {
            "positions": [
                2.520861290627943,
                -1.094392062635738,
                1.650680389172035,
                -0.6036034249476354,
                0.9903050799935972,
                3.0467521861268807
            ]
        },
        {
            "positions": [
                2.573510529066974,
                -1.0544514636097626,
                1.7368606403178244,
                -0.6900398230409841,
                1.019861332098257,
                3.112715779151525
            ]
        },
        {
            "positions": [
                2.6261597675060053,
                -1.0145108645837873,
                1.8230408914636138,
                -0.7764762211343327,
                1.0494175842029168,
                3.1786793721761697
            ]
        }
    ]
}