{
    "goal": {
        "global_pose": {
            "orientation": {
                "w": -0.4816463035849501,
                "x": 0.5182115481033762,
                "y": 0.4908360881923453,
                "z": -0.5084816262002911
            },
            "position": {
                "x": -0.8240239810943604,
                "y": -0.300875300988555,
                "z": 0.16403168439865112
            }
        },
        "name": "move_to_storage_C"
    },
    "id": "KPIECE_move_to_storage_C_112",
    "joint_names": [
        "shoulder_pan_joint",
        "shoulder_lift_joint",
        "elbow_joint",
        "wrist_1_joint",
        "wrist_2_joint",
        "wrist_3_joint"
    ],
    "metrics": {
        "cart_traj_len": 0.5769522265821075,
        "distance_elbow_joint": 0.2581670475022644,
        "distance_shoulder_lift_joint": 0.18909165833554165,
        "distance_shoulder_pan_joint": 0.49306186971726884,
        "distance_wrist_1_joint": 0.07307725403448506,
        "distance_wrist_2_joint": 1.0807129775975453,
        "distance_wrist_3_joint": 0.06301565552233201,
        "smoothness": 2.5376526478085547e-16,
        "time": 0.012382994,
        "traj_len": 1.4687159230802387,
        "weighted_distance": 1.853900753920266
    },
    "planner": "KPIECE",
    "start": {
        "state": {
            "elbow_joint": 2.010868315001653,
            "shoulder_lift_joint": -1.1634956873357014,
            "shoulder_pan_joint": -2.4736205022346103,
            "wrist_1_joint": -0.8367026794713948,
            "wrist_2_joint": 0.6746043897044093,
            "wrist_3_joint": 3.1335220948105738
        }
    },
    "waypoints": [
        {
            "positions": [
                -2.4736205022346103,
                -1.1634956873357014,
                2.010868315001653,
                -0.8367026794713948,
                0.6746043897044093,
                3.1335220948105738
            ]
        },
        {
            "positions": [
                -2.555797480520822,
                -1.1319804109464444,
                1.9678404737512758,
                -0.824523137132314,
                0.8547232193040002,
                3.1440247040642957
            ]
        },
        {
            "positions": [
                -2.637974458807033,
                -1.1004651345571874,
                1.9248126325008983,
                -0.812343594793233,
                1.034842048903591,
                3.1545273133180176
            ]
        },
        {
            "positions": [
                -2.7201514370932447,
                -1.0689498581679306,
                1.8817847912505208,
                -0.8001640524541522,
                1.2149608785031818,
                3.1650299225717395
            ]
        },
        {
            "positions": [
                -2.8023284153794563,
                -1.0374345817786736,
                1.8387569500001435,
                -0.7879845101150714,
                1.3950797081027728,
                3.175532531825462
            ]
        },
        {
            "positions": [
                -2.8845053936656675,
                -1.0059193053894167,
                1.7957291087497662,
                -0.7758049677759905,
                1.5751985377023638,
                3.186035141079184
            ]
        },
        {
            "positions": [
                -2.966682371951879,
                -0.9744040290001598,
                1.7527012674993887,
                -0.7636254254369097,
                1.7553173673019544,
                3.1965377503329058
            ]
        }
    ]
}