{
    "goal": {
        "global_pose": {
            "orientation": {
                "w": 0.005598929693374612,
                "x": 0.007748599140229565,
                "y": 0.7110244013736278,
                "z": -0.7031023480610252
            },
            "position": {
                "x": 0.1141497679147869,
                "y": -0.7141253447532654,
                "z": 0.3711530566215515
            }
        },
        "name": "move_to_auspresseinheit_B"
    },
    "id": "KPIECE_move_to_auspresseinheit_B_68",
    "joint_names": [
        "shoulder_pan_joint",
        "shoulder_lift_joint",
        "elbow_joint",
        "wrist_1_joint",
        "wrist_2_joint",
        "wrist_3_joint"
    ],
    "metrics": {
        "cart_traj_len": 0.5640225152590026,
        "distance_elbow_joint": 0.06424366169906204,
        "distance_shoulder_lift_joint": 0.2937034251294972,
        "distance_shoulder_pan_joint": 0.5755898033842712,
        "distance_wrist_1_joint": 0.33068301758716234,
        "distance_wrist_2_joint": 0.995130994050385,
        "distance_wrist_3_joint": 0.005747735883606442,
        "smoothness": 0.0,
        "time": 0.199458291,
        "traj_len": 1.5050244641646142,
        "weighted_distance": 1.8980010856526779
    },
    "planner": "KPIECE",
    "start": {
        "state": {
            "elbow_joint": 2.019306165916698,
            "shoulder_lift_joint": -1.1220205098164344,
            "shoulder_pan_joint": -1.095207207618794,
            "wrist_1_joint": -0.8559671824921639,
            "wrist_2_joint": 0.47596387242952726,
            "wrist_3_joint": 3.159081874673826
        }
    },
    "waypoints": [
        {
            "positions": [
                -1.095207207618794,
                -1.1220205098164344,
                2.019306165916698,
                -0.8559671824921639,
                0.47596387242952726,
                3.159081874673826
            ]
        },
        {
            "positions": [
                -1.1911388415161726,
                -1.1709710806713507,
                2.0085988889668545,
                -0.8008533462276368,
                0.6418190381045914,
                3.158123918693225
            ]
        },
        {
            "positions": [
                -1.2870704754135511,
                -1.2199216515262667,
                1.9978916120170107,
                -0.7457395099631098,
                0.8076742037796556,
                3.157165962712624
            ]
        },
        {
            "positions": [
                -1.3830021093109295,
                -1.268872222381183,
                1.987184335067167,
                -0.6906256736985827,
                0.9735293694547198,
                3.1562080067320224
            ]
        },
        {
            "positions": [
                -1.478933743208308,
                -1.3178227932360993,
                1.9764770581173232,
                -0.6355118374340556,
                1.1393845351297838,
                3.1552500507514214
            ]
        },
        {
            "positions": [
                -1.5748653771056866,
                -1.3667733640910154,
                1.9657697811674797,
                -0.5803980011695286,
                1.3052397008048482,
                3.1542920947708204
            ]
        },
        {
            "positions": [
                -1.6707970110030652,
                -1.4157239349459316,
                1.955062504217636,
                -0.5252841649050015,
                1.4710948664799122,
                3.1533341387902194
            ]
        }
    ]
}