{
    "goal": {
        "global_pose": {
            "orientation": {
                "w": 0.7047431493862688,
                "x": -0.7094548369677653,
                "y": 0.0024358444001904,
                "z": -0.0022348060817251984
            },
            "position": {
                "x": -0.39052492380142206,
                "y": 0.3671506643295288,
                "z": 0.19426114857196808
            }
        },
        "name": "move_to_magneteinheit_D"
    },
    "id": "KPIECE_move_to_magneteinheit_D_4",
    "joint_names": [
        "shoulder_pan_joint",
        "shoulder_lift_joint",
        "elbow_joint",
        "wrist_1_joint",
        "wrist_2_joint",
        "wrist_3_joint"
    ],
    "metrics": {
        "cart_traj_len": 4.564688934376506,
        "distance_elbow_joint": 3.1603688165264017,
        "distance_shoulder_lift_joint": 1.0980536676127055,
        "distance_shoulder_pan_joint": 3.250831031624137,
        "distance_wrist_1_joint": 2.1119364232556217,
        "distance_wrist_2_joint": 0.8656113646000814,
        "distance_wrist_3_joint": 6.270777812892867,
        "smoothness": 0.2459649672481466,
        "time": 1.4904136289999999,
        "traj_len": 4.093602217669887,
        "weighted_distance": 5.681257125861603
    },
    "planner": "KPIECE",
    "start": {
        "state": {
            "elbow_joint": 0.7495348899011973,
            "shoulder_lift_joint": -0.6476975780737697,
            "shoulder_pan_joint": -2.711696901376276,
            "wrist_1_joint": -0.07506478080974305,
            "wrist_2_joint": 0.4329665971545858,
            "wrist_3_joint": 3.1361499051832524
        }
    },
    "waypoints": [
        {
            "positions": [
                -2.711696901376276,
                -0.6476975780737697,
                0.7495348899011973,
                -0.07506478080974305,
                0.4329665971545858,
                3.1361499051832524
            ]
        },
        {
            "positions": [
                -2.7304847586165435,
                -0.7423822558257263,
                0.7603175759174188,
                -0.1121513341709932,
                0.38922857751687284,
                3.0092150627379937
            ]
        },
        {
            "positions": [
                -2.7492726158568104,
                -0.8370669335776827,
                0.7711002619336401,
                -0.14923788753224335,
                0.3454905578791599,
                2.8822802202927353
            ]
        },
        {
            "positions": [
                -2.74639567975421,
                -0.8455437635415322,
                0.7738632147201376,
                -0.15062587685147605,
                0.3434993856265768,
                2.861630502308098
            ]
        },
        {
            "positions": [
                -2.6704474316882414,
                -0.8669977557306313,
                0.7028850669599616,
                -0.19547731191360895,
                0.3263302782641724,
                2.705151096989704
            ]
        },
        {
            "positions": [
                -2.594499183622273,
                -0.8884517479197304,
                0.6319069191997855,
                -0.24032874697574189,
                0.309161170901768,
                2.5486716916713106
            ]
        },
        {
            "positions": [
                -2.5185509355563047,
                -0.9099057401088295,
                0.5609287714396094,
                -0.28518018203787476,
                0.2919920635393636,
                2.3921922863529166
            ]
        },
        {
            "positions": [
                -2.442602687490336,
                -0.9313597322979287,
                0.4899506236794334,
                -0.3300316171000077,
                0.2748229561769592,
                2.235712881034523
            ]
        },
        {
            "positions": [
                -2.3666544394243676,
                -0.9528137244870278,
                0.4189724759192573,
                -0.37488305216214063,
                0.2576538488145548,
                2.079233475716129
            ]
        },
        {
            "positions": [
                -2.290706191358399,
                -0.9742677166761269,
                0.34799432815908127,
                -0.41973448722427353,
                0.24048474145215037,
                1.922754070397735
            ]
        },
        {
            "positions": [
                -2.2147579432924305,
                -0.995721708865226,
                0.2770161803989052,
                -0.4645859222864065,
                0.22331563408974597,
                1.7662746650793413
            ]
        },
        {
            "positions": [
                -2.138809695226462,
                -1.0171757010543252,
                0.2060380326387291,
                -0.5094373573485393,
                0.20614652672734157,
                1.6097952597609475
            ]
        },
        {
            "positions": [
                -2.0628614471604934,
                -1.0386296932434242,
                0.13505988487855303,
                -0.5542887924106723,
                0.18897741936493717,
                1.4533158544425537
            ]
        },
        {
            "positions": [
                -1.9869131990945252,
                -1.0600836854325235,
                0.06408173711837695,
                -0.5991402274728053,
                0.17180831200253277,
                1.29683644912416
            ]
        },
        {
            "positions": [
                -1.9109649510285567,
                -1.0815376776216226,
                -0.006896410641799133,
                -0.6439916625349382,
                0.15463920464012837,
                1.140357043805766
            ]
        },
        {
            "positions": [
                -1.8350167029625881,
                -1.1029916698107216,
                -0.0778745584019751,
                -0.688843097597071,
                0.13747009727772397,
                0.9838776384873722
            ]
        },
        {
            "positions": [
                -1.7590684548966196,
                -1.1244456619998209,
                -0.1488527061621513,
                -0.7336945326592039,
                0.12030098991531957,
                0.8273982331689784
            ]
        },
        {
            "positions": [
                -1.6831202068306512,
                -1.14589965418892,
                -0.21983085392232726,
                -0.7785459677213369,
                0.10313188255291517,
                0.6709188278505844
            ]
        },
        {
            "positions": [
                -1.6071719587646827,
                -1.167353646378019,
                -0.29080900168250334,
                -0.8233974027834698,
                0.08596277519051077,
                0.5144394225321904
            ]
        },
        {
            "positions": [
                -1.531223710698714,
                -1.1888076385671182,
                -0.3617871494426794,
                -0.8682488378456028,
                0.06879366782810636,
                0.3579600172137969
            ]
        },
        {
            "positions": [
                -1.4552754626327455,
                -1.2102616307562173,
                -0.4327652972028555,
                -0.9131002729077358,
                0.05162456046570196,
                0.2014806118954029
            ]
        },
        {
            "positions": [
                -1.3793272145667772,
                -1.2317156229453166,
                -0.5037434449630316,
                -0.9579517079698685,
                0.03445545310329756,
                0.045001206577009345
            ]
        },
        {
            "positions": [
                -1.3033789665008086,
                -1.2531696151344156,
                -0.5747215927232077,
                -1.0028031430320015,
                0.01728634574089316,
                -0.11147819874138465
            ]
        },
        {
            "positions": [
                -1.2274307184348403,
                -1.2746236073235147,
                -0.6456997404833837,
                -1.0476545780941344,
                0.00011723837848875984,
                -0.2679576040597782
            ]
        },
        {
            "positions": [
                -1.1514824703688715,
                -1.296077599512614,
                -0.71667788824356,
                -1.0925060131562674,
                -0.017051868983915697,
                -0.42443700937817264
            ]
        },
        {
            "positions": [
                -1.0755342223029032,
                -1.317531591701713,
                -0.7876560360037359,
                -1.1373574482184003,
                -0.03422097634632004,
                -0.5809164146965662
            ]
        },
        {
            "positions": [
                -0.9995859742369346,
                -1.3389855838908122,
                -0.858634183763912,
                -1.1822088832805333,
                -0.05139008370872444,
                -0.7373958200149597
            ]
        },
        {
            "positions": [
                -0.9236377261709663,
                -1.3604395760799113,
                -0.9296123315240878,
                -1.227060318342666,
                -0.06855919107112884,
                -0.8938752253333537
            ]
        },
        {
            "positions": [
                -0.8476894781049975,
                -1.3818935682690103,
                -1.0005904792842641,
                -1.2719117534047992,
                -0.0857282984335333,
                -1.0503546306517477
            ]
        },
        {
            "positions": [
                -0.7717412300390292,
                -1.4033475604581094,
                -1.0715686270444402,
                -1.316763188466932,
                -0.10289740579593765,
                -1.2068340359701413
            ]
        },
        {
            "positions": [
                -0.6957929819730606,
                -1.4248015526472086,
                -1.142546774804616,
                -1.361614623529065,
                -0.12006651315834205,
                -1.3633134412885353
            ]
        },
        {
            "positions": [
                -0.6198447339070925,
                -1.4462555448363077,
                -1.2135249225647922,
                -1.4064660585911979,
                -0.13723562052074645,
                -1.5197928466069293
            ]
        },
        {
            "positions": [
                -0.5438964858411235,
                -1.467709537025407,
                -1.2845030703249685,
                -1.4513174936533308,
                -0.15440472788315085,
                -1.6762722519253233
            ]
        },
        {
            "positions": [
                -0.4679482377751554,
                -1.489163529214506,
                -1.3554812180851443,
                -1.4961689287154638,
                -0.17157383524555525,
                -1.8327516572437172
            ]
        },
        {
            "positions": [
                -0.3919999897091868,
                -1.510617521403605,
                -1.4264593658453206,
                -1.5410203637775965,
                -0.18874294260795965,
                -1.9892310625621104
            ]
        },
        {
            "positions": [
                -0.31605174164321825,
                -1.532071513592704,
                -1.4974375136054965,
                -1.5858717988397295,
                -0.20591204997036405,
                -2.1457104678805043
            ]
        },
        {
            "positions": [
                -0.2401034935772497,
                -1.5535255057818036,
                -1.5684156613656728,
                -1.6307232339018625,
                -0.22308115733276845,
                -2.3021898731988983
            ]
        },
        {
            "positions": [
                -0.16415524551128113,
                -1.5749794979709026,
                -1.6393938091258486,
                -1.6755746689639954,
                -0.24025026469517285,
                -2.4586692785172923
            ]
        },
        {
            "positions": [
                -0.08820699744531302,
                -1.5964334901600017,
                -1.7103719568860245,
                -1.7204261040261282,
                -0.25741937205757726,
                -2.6151486838356854
            ]
        },
        {
            "positions": [
                -0.012258749379344458,
                -1.6178874823491007,
                -1.7813501046462008,
                -1.7652775390882611,
                -0.27458847941998166,
                -2.7716280891540794
            ]
        },
        {
            "positions": [
                0.0636894986866241,
                -1.6393414745381998,
                -1.852328252406377,
                -1.810128974150394,
                -0.29175758678238606,
                -2.9281074944724734
            ]
        },
        {
            "positions": [
                0.13963774675259255,
                -1.660795466727299,
                -1.923306400166553,
                -1.854980409212527,
                -0.30892669414479046,
                -3.0845868997908674
            ]
        },
        {
            "positions": [
                0.05855150811904254,
                -1.682034411467093,
                -2.0330241193717455,
                -1.9379856079257365,
                -0.2779971758196142,
                -3.097097151770554
            ]
        },
        {
            "positions": [
                -0.022534730514507467,
                -1.7032733562068871,
                -2.1427418385769386,
                -2.0209908066389457,
                -0.24706765749443796,
                -3.109607403750241
            ]
        },
        {
            "positions": [
                -0.10362096914805746,
                -1.7245123009466812,
                -2.252459557782131,
                -2.103996005352155,
                -0.21613813916926172,
                -3.1221176557299275
            ]
        },
        {
            "positions": [
                -0.18470720778160749,
                -1.7457512456864752,
                -2.3621772769873237,
                -2.1870012040653646,
                -0.18520862084408546,
                -3.134627907709614
            ]
        }
    ]
}