{
    "goal": {
        "global_pose": {
            "orientation": {
                "w": 0.7031023480610252,
                "x": -0.7110244013736278,
                "y": 0.0077485991402295624,
                "z": 0.005598929693374583
            },
            "position": {
                "x": -0.8841497679147869,
                "y": 0.44412534475326537,
                "z": 0.3711530566215515
            }
        },
        "name": "move_to_auspresseinheit_D"
    },
    "id": "KPIECE_move_to_auspresseinheit_D_36",
    "joint_names": [
        "shoulder_pan_joint",
        "shoulder_lift_joint",
        "elbow_joint",
        "wrist_1_joint",
        "wrist_2_joint",
        "wrist_3_joint"
    ],
    "metrics": {
        "cart_traj_len": 3.5272546208608135,
        "distance_elbow_joint": 3.1839554210251,
        "distance_shoulder_lift_joint": 1.3978151678278516,
        "distance_shoulder_pan_joint": 2.7970408647752905,
        "distance_wrist_1_joint": 1.3574284171466056,
        "distance_wrist_2_joint": 0.8913407075572928,
        "distance_wrist_3_joint": 3.0965987703775433,
        "smoothness": 6.008265797521003e-16,
        "time": 0.076825169,
        "traj_len": 3.567096767500102,
        "weighted_distance": 4.600667996516231
    },
    "planner": "KPIECE",
    "start": {
        "state": {
            "elbow_joint": 1.8268400409724999,
            "shoulder_lift_joint": -1.0144045787793008,
            "shoulder_pan_joint": 2.6280239544362485,
            "wrist_1_joint": -0.790705565816056,
            "wrist_2_joint": 1.0573557467365533,
            "wrist_3_joint": 3.1851377467193758
        }
    },
    "waypoints": [
        {
            "positions": [
                2.6280239544362485,
                -1.0144045787793008,
                1.8268400409724999,
                -0.790705565816056,
                1.0573557467365533,
                3.1851377467193758
            ]
        },
        {
            "positions": [
                2.588174223431886,
                -1.0230982068723453,
                1.7375023000188463,
                -0.7151940561838905,
                0.9993391125972639,
                3.0875816580599853
            ]
        },
        {
            "positions": [
                2.548324492427523,
                -1.0317918349653898,
                1.6481645590651928,
                -0.639682546551725,
                0.9413224784579745,
                2.9900255694005944
            ]
        },
        {
            "positions": [
                2.50847476142316,
                -1.0404854630584344,
                1.5588268181115394,
                -0.5641710369195595,
                0.8833058443186851,
                2.8924694807412035
            ]
        },
        {
            "positions": [
                2.4686250304187976,
                -1.049179091151479,
                1.469489077157886,
                -0.4886595272873939,
                0.8252892101793956,
                2.794913392081813
            ]
        },
        {
            "positions": [
                2.4287752994144345,
                -1.0578727192445236,
                1.3801513362042326,
                -0.41314801765522846,
                0.7672725760401062,
                2.6973573034224225
            ]
        },
        {
            "positions": [
                2.388925568410072,
                -1.0665663473375682,
                1.290813595250579,
                -0.337636508023063,
                0.7092559419008169,
                2.5998012147630316
            ]
        },
        {
            "positions": [
                2.3490758374057092,
                -1.0752599754306127,
                1.2014758542969255,
                -0.26212499839089753,
                0.6512393077615275,
                2.5022451261036407
            ]
        },
        {
            "positions": [
                2.309226106401346,
                -1.0839536035236572,
                1.112138113343272,
                -0.18661348875873185,
                0.5932226736222379,
                2.40468903744425
            ]
        },
        {
            "positions": [
                2.2693763753969836,
                -1.0926472316167017,
                1.0228003723896184,
                -0.11110197912656639,
                0.5352060394829485,
                2.3071329487848597
            ]
        },
        {
            "positions": [
                2.229526644392621,
                -1.1013408597097463,
                0.9334626314359651,
                -0.03559046949440087,
                0.47718940534365917,
                2.209576860125469
            ]
        },
        {
            "positions": [
                2.1252421420129832,
                -1.158335593922677,
                0.8338722831103753,
                -0.009402933806359544,
                0.4636600850756418,
                2.1173578217000935
            ]
        },
        {
            "positions": [
                2.020957639633346,
                -1.2153303281356076,
                0.7342819347847854,
                0.01678460188168178,
                0.45013076480762454,
                2.025138783274718
            ]
        },
        {
            "positions": [
                1.9166731372537082,
                -1.2723250623485383,
                0.6346915864591957,
                0.04297213756972311,
                0.4366014445396072,
                1.9329197448493423
            ]
        },
        {
            "positions": [
                1.8123886348740708,
                -1.3293197965614691,
                0.5351012381336058,
                0.06915967325776443,
                0.4230721242715899,
                1.8407007064239669
            ]
        },
        {
            "positions": [
                1.7081041324944333,
                -1.3863145307743998,
                0.43551088980801606,
                0.09534720894580576,
                0.40954280400357257,
                1.7484816679985915
            ]
        },
        {
            "positions": [
                1.6038196301147958,
                -1.4433092649873305,
                0.3359205414824262,
                0.12153474463384709,
                0.3960134837355553,
                1.656262629573216
            ]
        },
        {
            "positions": [
                1.4995351277351583,
                -1.5003039992002611,
                0.23633019315683634,
                0.14772228032188842,
                0.38248416346753794,
                1.5640435911478403
            ]
        },
        {
            "positions": [
                1.3952506253555206,
                -1.5572987334131918,
                0.13673984483124657,
                0.17390981600992972,
                0.36895484319952065,
                1.471824552722465
            ]
        },
        {
            "positions": [
                1.290966122975883,
                -1.6142934676261227,
                0.0371494965056568,
                0.20009735169797108,
                0.3554255229315033,
                1.3796055142970893
            ]
        },
        {
            "positions": [
                1.1866816205962456,
                -1.6712882018390531,
                -0.062440851819932974,
                0.22628488738601238,
                0.34189620266348597,
                1.287386475871714
            ]
        },
        {
            "positions": [
                1.082397118216608,
                -1.728282936051984,
                -0.16203120014552286,
                0.2524724230740537,
                0.32836688239546863,
                1.1951674374463384
            ]
        },
        {
            "positions": [
                0.9781126158369706,
                -1.7852776702649147,
                -0.26162154847111263,
                0.27865995876209504,
                0.3148375621274514,
                1.102948399020963
            ]
        },
        {
            "positions": [
                0.8738281134573331,
                -1.8422724044778453,
                -0.3612118967967024,
                0.3048474944501363,
                0.30130824185943406,
                1.0107293605955876
            ]
        },
        {
            "positions": [
                0.7695436110776954,
                -1.8992671386907762,
                -0.4608022451222924,
                0.3310350301381777,
                0.2877789215914167,
                0.9185103221702118
            ]
        },
        {
            "positions": [
                0.6652591086980579,
                -1.9562618729037067,
                -0.5603925934478822,
                0.35722256582621903,
                0.2742496013233994,
                0.8262912837448364
            ]
        },
        {
            "positions": [
                0.5609746063184204,
                -2.0132566071166376,
                -0.6599829417734719,
                0.3834101015142603,
                0.2607202810553821,
                0.734072245319461
            ]
        },
        {
            "positions": [
                0.45669010393878295,
                -2.070251341329568,
                -0.7595732900990615,
                0.40959763720230163,
                0.24719096078736477,
                0.6418532068940856
            ]
        },
        {
            "positions": [
                0.35240560155914524,
                -2.127246075542499,
                -0.8591636384246515,
                0.435785172890343,
                0.23366164051934743,
                0.5496341684687098
            ]
        },
        {
            "positions": [
                0.24812109917950775,
                -2.18424080975543,
                -0.9587539867502413,
                0.4619727085783843,
                0.22013232025133012,
                0.45741513004333445
            ]
        },
        {
            "positions": [
                0.14383659679987026,
                -2.2412355439683602,
                -1.058344335075831,
                0.4881602442664256,
                0.20660299998331283,
                0.3651960916179591
            ]
        },
        {
            "positions": [
                0.039552094420233,
                -2.2982302781812907,
                -1.157934683401421,
                0.5143477799544669,
                0.1930736797152955,
                0.2729770531925837
            ]
        },
        {
            "positions": [
                -0.06473240795940516,
                -2.3552250123942216,
                -1.2575250317270108,
                0.5405353156425083,
                0.17954435944727815,
                0.18075801476720788
            ]
        },
        {
            "positions": [
                -0.1690169103390423,
                -2.4122197466071524,
                -1.3571153800526006,
                0.5667228513305496,
                0.16601503917926083,
                0.08853897634183258
            ]
        }
    ]
}