{
    "goal": {
        "global_pose": {
            "orientation": {
                "w": 0.005598929693374612,
                "x": 0.007748599140229565,
                "y": 0.7110244013736278,
                "z": -0.7031023480610252
            },
            "position": {
                "x": -0.8858502320852131,
                "y": -0.7141253447532654,
                "z": 0.3711530566215515
            }
        },
        "name": "move_to_auspresseinheit_C"
    },
    "id": "KPIECE_move_to_auspresseinheit_C_106",
    "joint_names": [
        "shoulder_pan_joint",
        "shoulder_lift_joint",
        "elbow_joint",
        "wrist_1_joint",
        "wrist_2_joint",
        "wrist_3_joint"
    ],
    "metrics": {
        "cart_traj_len": 0.4941658274143655,
        "distance_elbow_joint": 1.013278986667355,
        "distance_shoulder_lift_joint": 0.3317510671334777,
        "distance_shoulder_pan_joint": 0.25620618768430603,
        "distance_wrist_1_joint": 0.6976077657738546,
        "distance_wrist_2_joint": 1.3161701539759172,
        "distance_wrist_3_joint": 0.0764452111377878,
        "smoothness": 7.266914297721266e-16,
        "time": 3.094330912,
        "traj_len": 1.9213170931349925,
        "weighted_distance": 2.4203569394612123
    },
    "planner": "KPIECE",
    "start": {
        "state": {
            "elbow_joint": 1.752795957773711,
            "shoulder_lift_joint": -0.9740617694225064,
            "shoulder_pan_joint": -2.967991417825858,
            "wrist_1_joint": -0.7595177689806859,
            "wrist_2_joint": 1.7443932448377395,
            "wrist_3_joint": 3.199131542505932
        }
    },
    "waypoints": [
        {
            "positions": [
                -2.967991417825858,
                -0.9740617694225064,
                1.752795957773711,
                -0.7595177689806859,
                1.7443932448377395,
                3.199131542505932
            ]
        },
        {
            "positions": [
                -2.9423707990574273,
                -0.9408866627091587,
                1.6514680591069757,
                -0.6897569924033005,
                1.6127762294401478,
                3.1914870213921533
            ]
        },
        {
            "positions": [
                -2.9167501802889966,
                -0.9077115559958109,
                1.55014016044024,
                -0.6199962158259149,
                1.481159214042556,
                3.1838425002783746
            ]
        },
        {
            "positions": [
                -2.8911295615205663,
                -0.8745364492824631,
                1.4488122617735046,
                -0.5502354392485296,
                1.3495421986449643,
                3.176197979164596
            ]
        },
        {
            "positions": [
                -2.8655089427521356,
                -0.8413613425691153,
                1.347484363106769,
                -0.480474662671144,
                1.2179251832473725,
                3.168553458050817
            ]
        },
        {
            "positions": [
                -2.839888323983705,
                -0.8081862358557677,
                1.2461564644400336,
                -0.4107138860937586,
                1.086308167849781,
                3.1609089369370382
            ]
        },
        {
            "positions": [
                -2.8142677052152743,
                -0.7750111291424199,
                1.144828565773298,
                -0.34095310951637314,
                0.9546911524521892,
                3.1532644158232594
            ]
        },
        {
            "positions": [
                -2.7886470864468436,
                -0.7418360224290721,
                1.0435006671065628,
                -0.2711923329389877,
                0.8230741370545975,
                3.1456198947094807
            ]
        },
        {
            "positions": [
                -2.7630264676784133,
                -0.7086609157157242,
                0.942172768439827,
                -0.20143155636160215,
                0.6914571216570058,
                3.137975373595702
            ]
        },
        {
            "positions": [
                -2.7374058489099826,
                -0.6754858090023765,
                0.8408448697730916,
                -0.1316707797842167,
                0.559840106259414,
                3.130330852481923
            ]
        },
        {
            "positions": [
                -2.711785230141552,
                -0.6423107022890288,
                0.7395169711063562,
                -0.06191000320683123,
                0.42822309086182236,
                3.1226863313681443
            ]
        }
    ]
}