{
    "goal": {
        "global_pose": {
            "orientation": {
                "w": 0.005598929693374612,
                "x": 0.007748599140229565,
                "y": 0.7110244013736278,
                "z": -0.7031023480610252
            },
            "position": {
                "x": -0.8858502320852131,
                "y": -0.7141253447532654,
                "z": 0.3711530566215515
            }
        },
        "name": "move_to_auspresseinheit_C"
    },
    "id": "KPIECE_move_to_auspresseinheit_C_32",
    "joint_names": [
        "shoulder_pan_joint",
        "shoulder_lift_joint",
        "elbow_joint",
        "wrist_1_joint",
        "wrist_2_joint",
        "wrist_3_joint"
    ],
    "metrics": {
        "cart_traj_len": 0.49490077048355,
        "distance_elbow_joint": 1.0201535641468806,
        "distance_shoulder_lift_joint": 0.3344002011225219,
        "distance_shoulder_pan_joint": 0.2565975775715552,
        "distance_wrist_1_joint": 0.7151598920377154,
        "distance_wrist_2_joint": 1.313912532179125,
        "distance_wrist_3_joint": 0.07921660446043566,
        "smoothness": 4.844609574787718e-16,
        "time": 0.605822389,
        "traj_len": 1.9285850698162716,
        "weighted_distance": 2.430420952151282
    },
    "planner": "KPIECE",
    "start": {
        "state": {
            "elbow_joint": 1.752795957773711,
            "shoulder_lift_joint": -0.9740617694225064,
            "shoulder_pan_joint": -2.967991417825858,
            "wrist_1_joint": -0.7595177689806859,
            "wrist_2_joint": 1.7443932448377395,
            "wrist_3_joint": 3.199131542505932
        }
    },
    "waypoints": [
        {
            "positions": [
                -2.967991417825858,
                -0.9740617694225064,
                1.752795957773711,
                -0.7595177689806859,
                1.7443932448377395,
                3.199131542505932
            ]
        },
        {
            "positions": [
                -2.9423316600687026,
                -0.9406217493102542,
                1.6507806013590232,
                -0.6880017797769143,
                1.613001991619827,
                3.1912098820598884
            ]
        },
        {
            "positions": [
                -2.916671902311547,
                -0.9071817291980021,
                1.548765244944335,
                -0.6164857905731428,
                1.4816107384019146,
                3.183288221613845
            ]
        },
        {
            "positions": [
                -2.8910121445543915,
                -0.8737417090857499,
                1.4467498885296468,
                -0.5449698013693713,
                1.350219485184002,
                3.1753665611678015
            ]
        },
        {
            "positions": [
                -2.8653523867972357,
                -0.8403016889734977,
                1.3447345321149589,
                -0.47345381216559973,
                1.2188282319660895,
                3.1674449007217578
            ]
        },
        {
            "positions": [
                -2.8396926290400804,
                -0.8068616688612456,
                1.242719175700271,
                -0.40193782296182823,
                1.087436978748177,
                3.159523240275714
            ]
        },
        {
            "positions": [
                -2.814032871282925,
                -0.7734216487489933,
                1.1407038192855827,
                -0.3304218337580567,
                0.9560457255302646,
                3.151601579829671
            ]
        },
        {
            "positions": [
                -2.788373113525769,
                -0.7399816286367411,
                1.0386884628708946,
                -0.2589058445542852,
                0.8246544723123521,
                3.143679919383627
            ]
        },
        {
            "positions": [
                -2.762713355768614,
                -0.7065416085244889,
                0.9366731064562066,
                -0.18738985535051356,
                0.6932632190944394,
                3.1357582589375834
            ]
        },
        {
            "positions": [
                -2.737053598011458,
                -0.6731015884122367,
                0.8346577500415185,
                -0.11587386614674211,
                0.561871965876527,
                3.12783659849154
            ]
        },
        {
            "positions": [
                -2.7113938402543027,
                -0.6396615682999846,
                0.7326423936268305,
                -0.04435787694297061,
                0.4304807126586145,
                3.1199149380454965
            ]
        }
    ]
}