{
    "goal": {
        "global_pose": {
            "orientation": {
                "w": 0.5084816217422485,
                "x": -0.49083608388900757,
                "y": 0.5182115435600281,
                "z": -0.4816462993621826
            },
            "position": {
                "x": 0.5540239810943604,
                "y": 0.030875300988554955,
                "z": 0.16403168439865112
            }
        },
        "name": "move_to_storage_A"
    },
    "id": "KPIECE_move_to_storage_A_17",
    "joint_names": [
        "shoulder_pan_joint",
        "shoulder_lift_joint",
        "elbow_joint",
        "wrist_1_joint",
        "wrist_2_joint",
        "wrist_3_joint"
    ],
    "metrics": {
        "cart_traj_len": 0.35380335350361,
        "distance_elbow_joint": 0.4491771200468042,
        "distance_shoulder_lift_joint": 0.23373115341554662,
        "distance_shoulder_pan_joint": 0.4636945662995378,
        "distance_wrist_1_joint": 0.23819381114720628,
        "distance_wrist_2_joint": 1.0954758962986024,
        "distance_wrist_3_joint": 0.09497113031300053,
        "smoothness": 1.4432899257867367e-15,
        "time": 0.068596505,
        "traj_len": 1.604756578899335,
        "weighted_distance": 2.0245630752319146
    },
    "planner": "KPIECE",
    "start": {
        "state": {
            "elbow_joint": 1.9715474177455299,
            "shoulder_lift_joint": -1.139484666580328,
            "shoulder_pan_joint": 0.12281154398918248,
            "wrist_1_joint": -0.7804687475355282,
            "wrist_2_joint": 0.12958649657246987,
            "wrist_3_joint": -3.1924925159053466
        }
    },
    "waypoints": [
        {
            "positions": [
                0.12281154398918248,
                -1.139484666580328,
                1.9715474177455299,
                -0.7804687475355282,
                0.12958649657246987,
                -3.1924925159053466
            ]
        },
        {
            "positions": [
                0.05656946308924851,
                -1.1728748313539774,
                2.035715577752216,
                -0.814496434842272,
                0.28608305318655597,
                -3.178925211574918
            ]
        },
        {
            "positions": [
                -0.009672617810685458,
                -1.206264996127627,
                2.0998837377589026,
                -0.8485241221490157,
                0.44257960980064204,
                -3.165357907244489
            ]
        },
        {
            "positions": [
                -0.07591469871061943,
                -1.2396551609012765,
                2.1640518977655887,
                -0.8825518094557594,
                0.5990761664147282,
                -3.1517906029140605
            ]
        },
        {
            "positions": [
                -0.1421567796105534,
                -1.2730453256749261,
                2.2282200577722753,
                -0.9165794967625032,
                0.7555727230288143,
                -3.138223298583632
            ]
        },
        {
            "positions": [
                -0.2083988605104874,
                -1.3064354904485755,
                2.2923882177789614,
                -0.9506071840692469,
                0.9120692796429004,
                -3.1246559942532035
            ]
        },
        {
            "positions": [
                -0.27464094141042134,
                -1.3398256552222252,
                2.3565563777856475,
                -0.9846348713759907,
                1.0685658362569863,
                -3.1110886899227745
            ]
        },
        {
            "positions": [
                -0.34088302231035533,
                -1.3732158199958746,
                2.420724537792334,
                -1.0186625586827345,
                1.2250623928710724,
                -3.097521385592346
            ]
        }
    ]
}