{
    "goal": {
        "global_pose": {
            "orientation": {
                "w": -0.00223480608172531,
                "x": 0.0024358444001904467,
                "y": 0.7094548369677653,
                "z": -0.704743149386269
            },
            "position": {
                "x": -0.37947507619857795,
                "y": -0.6371506643295288,
                "z": 0.19426114857196808
            }
        },
        "name": "move_to_magneteinheit_C"
    },
    "id": "KPIECE_move_to_magneteinheit_C_12",
    "joint_names": [
        "shoulder_pan_joint",
        "shoulder_lift_joint",
        "elbow_joint",
        "wrist_1_joint",
        "wrist_2_joint",
        "wrist_3_joint"
    ],
    "metrics": {
        "cart_traj_len": 1.8438289218151442,
        "distance_elbow_joint": 1.1702402857166159,
        "distance_shoulder_lift_joint": 1.3018015718690858,
        "distance_shoulder_pan_joint": 1.426147346691808,
        "distance_wrist_1_joint": 1.8143301223119104,
        "distance_wrist_2_joint": 1.6108928884034457,
        "distance_wrist_3_joint": 4.481591915457396,
        "smoothness": 2.0058854560619217,
        "time": 1.477769397,
        "traj_len": 3.435841109604788,
        "weighted_distance": 4.918679799710528
    },
    "planner": "KPIECE",
    "start": {
        "state": {
            "elbow_joint": 1.9565354006590394,
            "shoulder_lift_joint": -1.4165861576513559,
            "shoulder_pan_joint": -1.6717766223277177,
            "wrist_1_joint": -0.5286633288215096,
            "wrist_2_joint": 1.4727565892594296,
            "wrist_3_joint": 3.1593482883155493
        }
    },
    "waypoints": [
        {
            "positions": [
                -1.6717766223277177,
                -1.4165861576513559,
                1.9565354006590394,
                -0.5286633288215096,
                1.4727565892594296,
                3.1593482883155493
            ]
        },
        {
            "positions": [
                -1.6105053509552194,
                -1.4305038121334976,
                1.9349605916608228,
                -0.4944158156700944,
                1.414969035349785,
                3.0543169340974785
            ]
        },
        {
            "positions": [
                -1.5278807799050813,
                -1.443643524496624,
                1.8579167368910008,
                -0.420424443185332,
                1.4582948683079606,
                3.0664692651439345
            ]
        },
        {
            "positions": [
                -1.4452562088549432,
                -1.4567832368597502,
                1.7808728821211788,
                -0.34643307070056967,
                1.5016207012661362,
                3.0786215961903904
            ]
        },
        {
            "positions": [
                -1.4804752135726718,
                -1.4636773306080255,
                1.7885313163855472,
                -0.3215903063887272,
                1.4284415629222207,
                2.8551728232697124
            ]
        },
        {
            "positions": [
                -1.5156942182904,
                -1.4705714243563008,
                1.7961897506499156,
                -0.2967475420768847,
                1.3552624245783054,
                2.6317240503490344
            ]
        },
        {
            "positions": [
                -1.5509132230081286,
                -1.4774655181045762,
                1.803848184914284,
                -0.27190477776504224,
                1.2820832862343898,
                2.4082752774283565
            ]
        },
        {
            "positions": [
                -1.5861322277258572,
                -1.4843596118528517,
                1.8115066191786526,
                -0.24706201345319975,
                1.2089041478904745,
                2.1848265045076785
            ]
        },
        {
            "positions": [
                -1.6213512324435857,
                -1.491253705601127,
                1.819165053443021,
                -0.22221924914135727,
                1.135725009546559,
                1.9613777315870005
            ]
        },
        {
            "positions": [
                -1.656570237161314,
                -1.4981477993494023,
                1.8268234877073894,
                -0.19737648482951478,
                1.0625458712026437,
                1.7379289586663225
            ]
        },
        {
            "positions": [
                -1.6917892418790426,
                -1.5050418930976777,
                1.8344819219717579,
                -0.1725337205176723,
                0.9893667328587281,
                1.5144801857456445
            ]
        },
        {
            "positions": [
                -1.7413115063272513,
                -1.5720782218129616,
                1.7826037485933561,
                -0.10752167439071122,
                1.0435302862104723,
                1.4309407352196621
            ]
        },
        {
            "positions": [
                -1.7908337707754602,
                -1.6391145505282458,
                1.7307255752149546,
                -0.042509628263750154,
                1.0976938395622164,
                1.3474012846936798
            ]
        },
        {
            "positions": [
                -1.8403560352236692,
                -1.7061508792435298,
                1.678847401836553,
                0.022502417863210916,
                1.1518573929139606,
                1.2638618341676975
            ]
        },
        {
            "positions": [
                -1.889878299671878,
                -1.7731872079588138,
                1.6269692284581512,
                0.08751446399017199,
                1.206020946265705,
                1.1803223836417152
            ]
        },
        {
            "positions": [
                -1.9394005641200867,
                -1.840223536674098,
                1.5750910550797497,
                0.15252651011713309,
                1.2601844996174492,
                1.0967829331157328
            ]
        },
        {
            "positions": [
                -1.9889228285682956,
                -1.907259865389382,
                1.523212881701348,
                0.21753855624409413,
                1.3143480529691933,
                1.0132434825897505
            ]
        },
        {
            "positions": [
                -1.9849227143152712,
                -1.8254999607865245,
                1.59817929629204,
                0.1520721384480314,
                1.2406852013041805,
                1.0542575534723473
            ]
        },
        {
            "positions": [
                -1.9809226000622469,
                -1.743740056183667,
                1.6731457108827321,
                0.08660572065196873,
                1.1670223496391676,
                1.095271624354944
            ]
        },
        {
            "positions": [
                -1.9769224858092223,
                -1.6619801515808095,
                1.748112125473424,
                0.021139302855906067,
                1.093359497974155,
                1.136285695237541
            ]
        },
        {
            "positions": [
                -1.9729223715561979,
                -1.580220246977952,
                1.823078540064116,
                -0.044327114940156676,
                1.0196966463091421,
                1.1772997661201379
            ]
        },
        {
            "positions": [
                -1.9689222573031735,
                -1.4984603423750946,
                1.8980449546548082,
                -0.10979353273621933,
                0.9460337946441293,
                1.2183138370027347
            ]
        },
        {
            "positions": [
                -2.168762482593242,
                -1.448294230732719,
                1.9205879593851662,
                -0.14473679699100264,
                0.9443071077883602,
                1.173346604688299
            ]
        },
        {
            "positions": [
                -2.3686027078833107,
                -1.398128119090343,
                1.9431309641155246,
                -0.17968006124578595,
                0.9425804209325912,
                1.128379372373863
            ]
        },
        {
            "positions": [
                -2.406954999547989,
                -1.415401037127788,
                1.986255445404355,
                -0.17394625297758878,
                0.9243498762246198,
                1.205885935187182
            ]
        },
        {
            "positions": [
                -2.445307291212668,
                -1.4326739551652334,
                2.029379926693186,
                -0.16821244470939162,
                0.9061193315166485,
                1.283392498000501
            ]
        },
        {
            "positions": [
                -2.4686767972799517,
                -1.3989292668285835,
                2.042521779556785,
                -0.2120182325133006,
                0.8759478838939495,
                1.4831498049067142
            ]
        },
        {
            "positions": [
                -2.4920463033472355,
                -1.3651845784919336,
                2.055663632420385,
                -0.25582402031720963,
                0.8457764362712505,
                1.6829071118129273
            ]
        },
        {
            "positions": [
                -2.515415809414519,
                -1.3314398901552837,
                2.068805485283985,
                -0.2996298081211186,
                0.8156049886485516,
                1.8826644187191404
            ]
        },
        {
            "positions": [
                -2.5387853154818028,
                -1.2976952018186338,
                2.081947338147584,
                -0.3434355959250276,
                0.7854335410258526,
                2.0824217256253537
            ]
        },
        {
            "positions": [
                -2.525565978669417,
                -1.2712008961365278,
                2.067754292025278,
                -0.44027936632590675,
                0.7653727674026055,
                2.289987848275839
            ]
        },
        {
            "positions": [
                -2.512346641857031,
                -1.2447065904544217,
                2.053561245902972,
                -0.5371231367267859,
                0.7453119937793584,
                2.497553970926324
            ]
        },
        {
            "positions": [
                -2.4991273050446448,
                -1.2182122847723154,
                2.0393681997806663,
                -0.633966907127665,
                0.7252512201561114,
                2.7051200935768094
            ]
        },
        {
            "positions": [
                -2.485907968232259,
                -1.1917179790902093,
                2.02517515365836,
                -0.7308106775285443,
                0.7051904465328643,
                2.9126862162272946
            ]
        },
        {
            "positions": [
                -2.472688631419873,
                -1.1652236734081032,
                2.010982107536054,
                -0.8276544479294234,
                0.6851296729096172,
                3.12025233887778
            ]
        }
    ]
}