{
    "goal": {
        "global_pose": {
            "orientation": {
                "w": 0.005598929693374612,
                "x": 0.007748599140229565,
                "y": 0.7110244013736278,
                "z": -0.7031023480610252
            },
            "position": {
                "x": 0.1141497679147869,
                "y": -0.7141253447532654,
                "z": 0.3711530566215515
            }
        },
        "name": "move_to_auspresseinheit_B"
    },
    "id": "KPIECE_move_to_auspresseinheit_B_33",
    "joint_names": [
        "shoulder_pan_joint",
        "shoulder_lift_joint",
        "elbow_joint",
        "wrist_1_joint",
        "wrist_2_joint",
        "wrist_3_joint"
    ],
    "metrics": {
        "cart_traj_len": 0.564834878294489,
        "distance_elbow_joint": 0.06167406144612064,
        "distance_shoulder_lift_joint": 0.2955407897562323,
        "distance_shoulder_pan_joint": 0.5778922589078552,
        "distance_wrist_1_joint": 0.32818416128316763,
        "distance_wrist_2_joint": 0.9938907395727445,
        "distance_wrist_3_joint": 0.009032731190036447,
        "smoothness": 0.0,
        "time": 0.278664622,
        "traj_len": 1.5053952112837867,
        "weighted_distance": 1.899040574972568
    },
    "planner": "KPIECE",
    "start": {
        "state": {
            "elbow_joint": 2.019306165916698,
            "shoulder_lift_joint": -1.1220205098164344,
            "shoulder_pan_joint": -1.095207207618794,
            "wrist_1_joint": -0.8559671824921639,
            "wrist_2_joint": 0.47596387242952726,
            "wrist_3_joint": 3.159081874673826
        }
    },
    "waypoints": [
        {
            "positions": [
                -1.095207207618794,
                -1.1220205098164344,
                2.019306165916698,
                -0.8559671824921639,
                0.47596387242952726,
                3.159081874673826
            ]
        },
        {
            "positions": [
                -1.1915225841034365,
                -1.1712773081091399,
                2.009027155675678,
                -0.8012698222783026,
                0.6416123290249847,
                3.160587329872165
            ]
        },
        {
            "positions": [
                -1.287837960588079,
                -1.2205341064018451,
                1.9987481454346578,
                -0.7465724620644413,
                0.8072607856204421,
                3.1620927850705045
            ]
        },
        {
            "positions": [
                -1.3841533370727217,
                -1.2697909046945506,
                1.9884691351936377,
                -0.69187510185058,
                0.9729092422158996,
                3.1635982402688443
            ]
        },
        {
            "positions": [
                -1.480468713557364,
                -1.319047702987256,
                1.9781901249526175,
                -0.6371777416367188,
                1.1385576988113568,
                3.1651036954671836
            ]
        },
        {
            "positions": [
                -1.5767840900420067,
                -1.3683045012799613,
                1.9679111147115975,
                -0.5824803814228574,
                1.3042061554068145,
                3.166609150665523
            ]
        },
        {
            "positions": [
                -1.6730994665266492,
                -1.4175612995726667,
                1.9576321044705773,
                -0.5277830212089962,
                1.4698546120022717,
                3.1681146058638623
            ]
        }
    ]
}