{
    "goal": {
        "global_pose": {
            "orientation": {
                "w": 0.5084816217422485,
                "x": -0.49083608388900757,
                "y": 0.5182115435600281,
                "z": -0.4816462993621826
            },
            "position": {
                "x": 0.5540239810943604,
                "y": 0.030875300988554955,
                "z": 0.16403168439865112
            }
        },
        "name": "move_to_storage_A"
    },
    "id": "KPIECE_move_to_storage_A_137",
    "joint_names": [
        "shoulder_pan_joint",
        "shoulder_lift_joint",
        "elbow_joint",
        "wrist_1_joint",
        "wrist_2_joint",
        "wrist_3_joint"
    ],
    "metrics": {
        "cart_traj_len": 0.3525022763076163,
        "distance_elbow_joint": 0.44860834096588453,
        "distance_shoulder_lift_joint": 0.23584102298337495,
        "distance_shoulder_pan_joint": 0.4623869581819357,
        "distance_wrist_1_joint": 0.23486647546007877,
        "distance_wrist_2_joint": 1.092082296429882,
        "distance_wrist_3_joint": 0.09854344470543897,
        "smoothness": 4.440892098500626e-16,
        "time": 0.028448743,
        "traj_len": 1.603848041033375,
        "weighted_distance": 2.0239476771960865
    },
    "planner": "KPIECE",
    "start": {
        "state": {
            "elbow_joint": 1.9715474177455299,
            "shoulder_lift_joint": -1.139484666580328,
            "shoulder_pan_joint": 0.12281154398918248,
            "wrist_1_joint": -0.7804687475355282,
            "wrist_2_joint": 0.12958649657246987,
            "wrist_3_joint": -3.1924925159053466
        }
    },
    "waypoints": [
        {
            "positions": [
                0.12281154398918248,
                -1.139484666580328,
                1.9715474177455299,
                -0.7804687475355282,
                0.12958649657246987,
                -3.1924925159053466
            ]
        },
        {
            "positions": [
                0.05675626424890595,
                -1.1731762412922386,
                2.035634323597799,
                -0.8140211011726823,
                0.2855982532053102,
                -3.1784148809474266
            ]
        },
        {
            "positions": [
                -0.009299015491370577,
                -1.2068678160041495,
                2.0997212294500684,
                -0.8475734548098364,
                0.44161000983815046,
                -3.1643372459895067
            ]
        },
        {
            "positions": [
                -0.0753542952316471,
                -1.2405593907160601,
                2.1638081353023377,
                -0.8811258084469905,
                0.5976217664709907,
                -3.150259611031587
            ]
        },
        {
            "positions": [
                -0.14140957497192364,
                -1.2742509654279708,
                2.2278950411546066,
                -0.9146781620841447,
                0.7536335231038311,
                -3.1361819760736673
            ]
        },
        {
            "positions": [
                -0.20746485471220016,
                -1.3079425401398814,
                2.291981947006876,
                -0.9482305157212987,
                0.9096452797366715,
                -3.1221043411157474
            ]
        },
        {
            "positions": [
                -0.2735201344524767,
                -1.3416341148517923,
                2.356068852859145,
                -0.9817828693584528,
                1.0656570363695117,
                -3.1080267061578275
            ]
        },
        {
            "positions": [
                -0.3395754141927532,
                -1.375325689563703,
                2.4201557587114144,
                -1.015335222995607,
                1.221668793002352,
                -3.0939490711999076
            ]
        }
    ]
}