{
    "goal": {
        "global_pose": {
            "orientation": {
                "w": 0.7047431493862688,
                "x": -0.7094548369677653,
                "y": 0.0024358444001904,
                "z": -0.0022348060817251984
            },
            "position": {
                "x": -0.39052492380142206,
                "y": 0.3671506643295288,
                "z": 0.19426114857196808
            }
        },
        "name": "move_to_magneteinheit_D"
    },
    "id": "KPIECE_move_to_magneteinheit_D_27",
    "joint_names": [
        "shoulder_pan_joint",
        "shoulder_lift_joint",
        "elbow_joint",
        "wrist_1_joint",
        "wrist_2_joint",
        "wrist_3_joint"
    ],
    "metrics": {
        "cart_traj_len": 4.490365577045146,
        "distance_elbow_joint": 3.1418913211107586,
        "distance_shoulder_lift_joint": 1.6948266165938906,
        "distance_shoulder_pan_joint": 3.9239731071528166,
        "distance_wrist_1_joint": 1.7963794957230073,
        "distance_wrist_2_joint": 1.9222526843194867,
        "distance_wrist_3_joint": 3.0530229549905386,
        "smoothness": 0.6705440523366748,
        "time": 0.07783782,
        "traj_len": 3.941109765014228,
        "weighted_distance": 5.035575862790081
    },
    "planner": "KPIECE",
    "start": {
        "state": {
            "elbow_joint": 0.7495348899011973,
            "shoulder_lift_joint": -0.6476975780737697,
            "shoulder_pan_joint": -2.711696901376276,
            "wrist_1_joint": -0.07506478080974305,
            "wrist_2_joint": 0.4329665971545858,
            "wrist_3_joint": 3.1361499051832524
        }
    },
    "waypoints": [
        {
            "positions": [
                -2.711696901376276,
                -0.6476975780737697,
                0.7495348899011973,
                -0.07506478080974305,
                0.4329665971545858,
                3.1361499051832524
            ]
        },
        {
            "positions": [
                -2.7715532943054324,
                -0.6314245426483187,
                0.6838279404008308,
                -0.14454778858662032,
                0.5478137691131051,
                3.127633793433901
            ]
        },
        {
            "positions": [
                -2.831409687234588,
                -0.6151515072228677,
                0.6181209909004644,
                -0.21403079636349762,
                0.6626609410716244,
                3.1191176816845503
            ]
        },
        {
            "positions": [
                -2.7527524805424113,
                -0.7258775441541812,
                0.6124188094315016,
                -0.1186681711562336,
                0.6870440097120559,
                3.051070237546858
            ]
        },
        {
            "positions": [
                -2.6740952738502344,
                -0.8366035810854946,
                0.6067166279625389,
                -0.02330554594896958,
                0.7114270783524873,
                2.983022793409165
            ]
        },
        {
            "positions": [
                -2.595438067158058,
                -0.947329618016808,
                0.6010144464935763,
                0.07205707925829438,
                0.7358101469929188,
                2.9149753492714727
            ]
        },
        {
            "positions": [
                -2.516780860465881,
                -1.0580556549481215,
                0.5953122650246135,
                0.16741970446555846,
                0.7601932156333503,
                2.84692790513378
            ]
        },
        {
            "positions": [
                -2.438123653773704,
                -1.1687816918794347,
                0.5896100835556508,
                0.26278232967282245,
                0.7845762842737818,
                2.7788804609960875
            ]
        },
        {
            "positions": [
                -2.359466447081527,
                -1.2795077288107484,
                0.5839079020866881,
                0.35814495488008635,
                0.8089593529142132,
                2.710833016858395
            ]
        },
        {
            "positions": [
                -2.2808092403893507,
                -1.3902337657420616,
                0.5782057206177253,
                0.45350758008735037,
                0.8333424215546447,
                2.6427855727207024
            ]
        },
        {
            "positions": [
                -2.202152033697174,
                -1.5009598026733753,
                0.5725035391487627,
                0.5488702052946145,
                0.8577254901950762,
                2.57473812858301
            ]
        },
        {
            "positions": [
                -2.123494827004997,
                -1.6116858396046885,
                0.5668013576798,
                0.6442328305018784,
                0.8821085588355075,
                2.506690684445317
            ]
        },
        {
            "positions": [
                -2.04483762031282,
                -1.722411876536002,
                0.5610991762108373,
                0.7395954557091424,
                0.906491627475939,
                2.438643240307625
            ]
        },
        {
            "positions": [
                -1.9339930617745928,
                -1.7277430175184052,
                0.43049923002625656,
                0.7403596419143088,
                0.8568339171612653,
                2.3502945676901703
            ]
        },
        {
            "positions": [
                -1.8231485032363657,
                -1.7330741585008085,
                0.2998992838416759,
                0.7411238281194751,
                0.8071762068465916,
                2.2619458950727154
            ]
        },
        {
            "positions": [
                -1.7123039446981387,
                -1.738405299483212,
                0.16929933765709526,
                0.7418880143246415,
                0.7575184965319179,
                2.173597222455261
            ]
        },
        {
            "positions": [
                -1.6014593861599116,
                -1.7437364404656153,
                0.038699391472514555,
                0.7426522005298077,
                0.7078607862172441,
                2.085248549837806
            ]
        },
        {
            "positions": [
                -1.4906148276216844,
                -1.7490675814480185,
                -0.09190055471206604,
                0.7434163867349741,
                0.6582030759025705,
                1.9968998772203514
            ]
        },
        {
            "positions": [
                -1.3797702690834575,
                -1.7543987224304218,
                -0.22250050089664675,
                0.7441805729401404,
                0.6085453655878967,
                1.908551204602897
            ]
        },
        {
            "positions": [
                -1.2689257105452303,
                -1.7597298634128253,
                -0.35310044708122745,
                0.7449447591453068,
                0.5588876552732231,
                1.820202531985442
            ]
        },
        {
            "positions": [
                -1.1580811520070031,
                -1.7650610043952286,
                -0.48370039326580816,
                0.745708945350473,
                0.5092299449585493,
                1.7318538593679875
            ]
        },
        {
            "positions": [
                -1.047236593468776,
                -1.770392145377632,
                -0.614300339450389,
                0.7464731315556394,
                0.45957223464387564,
                1.6435051867505326
            ]
        },
        {
            "positions": [
                -0.936392034930549,
                -1.7757232863600352,
                -0.7449002856349694,
                0.7472373177608057,
                0.40991452432920195,
                1.555156514133078
            ]
        },
        {
            "positions": [
                -0.8255474763923218,
                -1.7810544273424385,
                -0.8755002318195502,
                0.7480015039659721,
                0.36025681401452825,
                1.4668078415156234
            ]
        },
        {
            "positions": [
                -0.7147029178540949,
                -1.786385568324842,
                -1.0061001780041308,
                0.7487656901711385,
                0.31059910369985455,
                1.3784591688981689
            ]
        },
        {
            "positions": [
                -0.6038583593158675,
                -1.7917167093072452,
                -1.1367001241887116,
                0.7495298763763047,
                0.26094139338518085,
                1.290110496280714
            ]
        },
        {
            "positions": [
                -0.49301380077764057,
                -1.7970478502896485,
                -1.2673000703732922,
                0.7502940625814711,
                0.21128368307050716,
                1.2017618236632595
            ]
        },
        {
            "positions": [
                -0.3821692422394136,
                -1.8023789912720518,
                -1.3979000165578728,
                0.7510582487866374,
                0.16162597275583346,
                1.1134131510458047
            ]
        },
        {
            "positions": [
                -0.27132468370118623,
                -1.8077101322544553,
                -1.5284999627424536,
                0.7518224349918038,
                0.11196826244115965,
                1.02506447842835
            ]
        },
        {
            "positions": [
                -0.1604801251629593,
                -1.8130412732368586,
                -1.6590999089270342,
                0.7525866211969701,
                0.06231055212648606,
                0.9367158058108953
            ]
        },
        {
            "positions": [
                -0.0496355666247319,
                -1.8183724142192619,
                -1.7896998551116152,
                0.7533508074021364,
                0.012652841811812254,
                0.8483671331934406
            ]
        },
        {
            "positions": [
                0.06120899191349505,
                -1.8237035552016652,
                -1.9202998012961958,
                0.7541149936073027,
                -0.03700486850286144,
                0.7600184605759859
            ]
        },
        {
            "positions": [
                0.172053550451722,
                -1.8290346961840687,
                -2.050899747480776,
                0.7548791798124691,
                -0.08666257881753514,
                0.6716697879585314
            ]
        },
        {
            "positions": [
                0.2828981089899494,
                -1.834365837166472,
                -2.181499693665357,
                0.7556433660176354,
                -0.13632028913220895,
                0.5833211153410764
            ]
        },
        {
            "positions": [
                0.3937426675281763,
                -1.8396969781488752,
                -2.312099639849938,
                0.7564075522228018,
                -0.18597799944688254,
                0.49497244272362195
            ]
        },
        {
            "positions": [
                0.31101295802364204,
                -1.902230560265587,
                -2.3235648957584556,
                0.8545468567346521,
                -0.1350839955789808,
                0.4361373723620637
            ]
        },
        {
            "positions": [
                0.22828324851910772,
                -1.9647641423822984,
                -2.3350301516669734,
                0.9526861612465024,
                -0.08418999171107905,
                0.3773023020005054
            ]
        },
        {
            "positions": [
                0.14555353901457344,
                -2.02729772449901,
                -2.346495407575491,
                1.050825465758353,
                -0.033295987843177305,
                0.3184672316389471
            ]
        },
        {
            "positions": [
                0.06282382951003912,
                -2.0898313066157215,
                -2.3579606634840085,
                1.148964770270203,
                0.01759801602472444,
                0.25963216127738886
            ]
        },
        {
            "positions": [
                -0.019905879994495224,
                -2.152364888732433,
                -2.3694259193925262,
                1.2471040747820534,
                0.06849201989262621,
                0.20079709091583053
            ]
        },
        {
            "positions": [
                -0.10263558949902946,
                -2.214898470849145,
                -2.380891175301044,
                1.3452433792939038,
                0.11938602376052793,
                0.14196202055427226
            ]
        },
        {
            "positions": [
                -0.1853652990035638,
                -2.2774320529658563,
                -2.3923564312095618,
                1.4433826838057542,
                0.1702800276284297,
                0.08312695019271396
            ]
        }
    ]
}