{
    "goal": {
        "global_pose": {
            "orientation": {
                "w": 0.7047431468963623,
                "x": -0.7094548344612122,
                "y": 0.0024358443915843964,
                "z": -0.0022348060738295317
            },
            "position": {
                "x": 0.6094750761985779,
                "y": 0.3671506643295288,
                "z": 0.19426114857196808
            }
        },
        "name": "move_to_magneteinheit_A"
    },
    "id": "KPIECE_move_to_magneteinheit_A_30",
    "joint_names": [
        "shoulder_pan_joint",
        "shoulder_lift_joint",
        "elbow_joint",
        "wrist_1_joint",
        "wrist_2_joint",
        "wrist_3_joint"
    ],
    "metrics": {
        "cart_traj_len": 1.0547564933020916,
        "distance_elbow_joint": 0.3765347580392402,
        "distance_shoulder_lift_joint": 0.37137808243479187,
        "distance_shoulder_pan_joint": 1.2421134941042753,
        "distance_wrist_1_joint": 2.1896782508430745,
        "distance_wrist_2_joint": 1.6935418445389545,
        "distance_wrist_3_joint": 1.240799952480518,
        "smoothness": 9.349246597189412e-17,
        "time": 0.107271366,
        "traj_len": 2.6672169732589914,
        "weighted_distance": 3.6713575667297675
    },
    "planner": "KPIECE",
    "start": {
        "state": {
            "elbow_joint": 1.5739458966750683,
            "shoulder_lift_joint": -1.4977259741207325,
            "shoulder_pan_joint": -1.1188672016454206,
            "wrist_1_joint": 1.494575848278785,
            "wrist_2_joint": -1.5706037134824402,
            "wrist_3_joint": -2.0226957942261072
        }
    },
    "waypoints": [
        {
            "positions": [
                -1.1188672016454206,
                -1.4977259741207325,
                1.5739458966750683,
                1.494575848278785,
                -1.5706037134824402,
                -2.0226957942261072
            ]
        },
        {
            "positions": [
                -1.0498608964174054,
                -1.4770938584299107,
                1.594864494343915,
                1.372927056565281,
                -1.4765180554524984,
                -2.091629124919469
            ]
        },
        {
            "positions": [
                -0.98085459118939,
                -1.456461742739089,
                1.6157830920127616,
                1.2512782648517766,
                -1.3824323974225563,
                -2.1605624556128316
            ]
        },
        {
            "positions": [
                -0.9118482859613748,
                -1.435829627048267,
                1.6367016896816085,
                1.1296294731382726,
                -1.2883467393926145,
                -2.2294957863061935
            ]
        },
        {
            "positions": [
                -0.8428419807333595,
                -1.4151975113574453,
                1.657620287350455,
                1.0079806814247685,
                -1.1942610813626726,
                -2.2984291169995554
            ]
        },
        {
            "positions": [
                -0.7738356755053442,
                -1.3945653956666237,
                1.6785388850193017,
                0.8863318897112642,
                -1.1001754233327306,
                -2.367362447692918
            ]
        },
        {
            "positions": [
                -0.704829370277329,
                -1.373933279975802,
                1.6994574826881483,
                0.7646830979977601,
                -1.0060897653027887,
                -2.4362957783862798
            ]
        },
        {
            "positions": [
                -0.6358230650493135,
                -1.3533011642849802,
                1.7203760803569952,
                0.643034306284256,
                -0.9120041072728468,
                -2.505229109079642
            ]
        },
        {
            "positions": [
                -0.5668167598212983,
                -1.3326690485941584,
                1.7412946780258418,
                0.5213855145707519,
                -0.8179184492429049,
                -2.574162439773004
            ]
        },
        {
            "positions": [
                -0.497810454593283,
                -1.3120369329033366,
                1.7622132756946884,
                0.3997367228572477,
                -0.723832791212963,
                -2.643095770466366
            ]
        },
        {
            "positions": [
                -0.4288041493652677,
                -1.2914048172125148,
                1.783131873363535,
                0.2780879311437434,
                -0.629747133183021,
                -2.7120291011597284
            ]
        },
        {
            "positions": [
                -0.35979784413725235,
                -1.270772701521693,
                1.8040504710323817,
                0.15643913943023935,
                -0.535661475153079,
                -2.7809624318530908
            ]
        },
        {
            "positions": [
                -0.29079153890923715,
                -1.2501405858308712,
                1.8249690687012285,
                0.03479034771673528,
                -0.4415758171231372,
                -2.8498957625464527
            ]
        },
        {
            "positions": [
                -0.22178523368122183,
                -1.2295084701400496,
                1.8458876663700752,
                -0.08685844399676879,
                -0.34749015909319536,
                -2.9188290932398147
            ]
        },
        {
            "positions": [
                -0.1527789284532065,
                -1.2088763544492278,
                1.8668062640389218,
                -0.20850723571027308,
                -0.2534045010632533,
                -2.9877624239331766
            ]
        },
        {
            "positions": [
                -0.08377262322519119,
                -1.188244238758406,
                1.8877248617077687,
                -0.33015602742377714,
                -0.15931884303331145,
                -3.056695754626539
            ]
        },
        {
            "positions": [
                -0.014766317997175982,
                -1.1676121230675842,
                1.908643459376615,
                -0.4518048191372812,
                -0.06523318500336961,
                -3.125629085319901
            ]
        },
        {
            "positions": [
                0.054239987230839226,
                -1.1469800073767624,
                1.929562057045462,
                -0.5734536108507855,
                0.028852473026572234,
                -3.1945624160132633
            ]
        },
        {
            "positions": [
                0.12324629245885461,
                -1.1263478916859406,
                1.9504806547143085,
                -0.6951024025642896,
                0.1229381310565143,
                -3.2634957467066252
            ]
        }
    ]
}