{
    "goal": {
        "global_pose": {
            "orientation": {
                "w": -0.00223480608172531,
                "x": 0.0024358444001904467,
                "y": 0.7094548369677653,
                "z": -0.704743149386269
            },
            "position": {
                "x": 0.6205249238014221,
                "y": -0.6371506643295288,
                "z": 0.19426114857196808
            }
        },
        "name": "move_to_magneteinheit_B"
    },
    "id": "KPIECE_move_to_magneteinheit_B_42",
    "joint_names": [
        "shoulder_pan_joint",
        "shoulder_lift_joint",
        "elbow_joint",
        "wrist_1_joint",
        "wrist_2_joint",
        "wrist_3_joint"
    ],
    "metrics": {
        "cart_traj_len": 4.142419561550328,
        "distance_elbow_joint": 5.610566639276101,
        "distance_shoulder_lift_joint": 1.2775495966491957,
        "distance_shoulder_pan_joint": 2.596535440145024,
        "distance_wrist_1_joint": 2.2472495275582203,
        "distance_wrist_2_joint": 3.6741148643075467,
        "distance_wrist_3_joint": 4.510853913958348,
        "smoothness": 1.5211949570450447,
        "time": 2.8580600229999997,
        "traj_len": 4.462832058446121,
        "weighted_distance": 5.9042308729992
    },
    "planner": "KPIECE",
    "start": {
        "state": {
            "elbow_joint": 2.3935871308073637,
            "shoulder_lift_joint": -1.9085141043777403,
            "shoulder_pan_joint": 0.7066247067284167,
            "wrist_1_joint": -0.46782909355067076,
            "wrist_2_joint": 0.7096259085804283,
            "wrist_3_joint": -3.1358149275257428
        }
    },
    "waypoints": [
        {
            "positions": [
                0.7066247067284167,
                -1.9085141043777403,
                2.3935871308073637,
                -0.46782909355067076,
                0.7096259085804283,
                -3.1358149275257428
            ]
        },
        {
            "positions": [
                0.6290829053374787,
                -1.9393322563673383,
                2.3825776556177614,
                -0.4706531218922322,
                0.7747443919834418,
                -3.0931742670176323
            ]
        },
        {
            "positions": [
                0.5589585039908924,
                -1.9567382496184922,
                2.308176716280877,
                -0.43979635142809725,
                0.8259809033782204,
                -2.9865643476411763
            ]
        },
        {
            "positions": [
                0.570947275905793,
                -1.9354060150222845,
                2.2073656315166184,
                -0.38627133000664504,
                0.8038123394399098,
                -2.8849126119529016
            ]
        },
        {
            "positions": [
                0.5829360478206936,
                -1.9140737804260768,
                2.10655454675236,
                -0.33274630858519283,
                0.7816437755015992,
                -2.7832608762646274
            ]
        },
        {
            "positions": [
                0.649320250088115,
                -1.9158083825908878,
                1.9665632980190373,
                -0.2839817531808485,
                0.7571431440972212,
                -2.6717569863953665
            ]
        },
        {
            "positions": [
                0.7157044523555364,
                -1.9175429847556986,
                1.8265720492857147,
                -0.23521719777650424,
                0.7326425126928432,
                -2.5602530965261057
            ]
        },
        {
            "positions": [
                0.7820886546229577,
                -1.9192775869205096,
                1.686580800552392,
                -0.18645264237215994,
                0.7081418812884651,
                -2.4487492066568453
            ]
        },
        {
            "positions": [
                0.8484728568903791,
                -1.9210121890853207,
                1.5465895518190693,
                -0.13768808696781565,
                0.6836412498840871,
                -2.3372453167875844
            ]
        },
        {
            "positions": [
                0.9148570591578005,
                -1.9227467912501317,
                1.4065983030857465,
                -0.08892353156347135,
                0.6591406184797091,
                -2.2257414269183236
            ]
        },
        {
            "positions": [
                0.9812412614252218,
                -1.9244813934149425,
                1.266607054352424,
                -0.04015897615912706,
                0.6346399870753311,
                -2.114237537049063
            ]
        },
        {
            "positions": [
                1.0476254636926432,
                -1.9262159955797535,
                1.1266158056191014,
                0.008605579245217265,
                0.610139355670953,
                -2.0027336471798023
            ]
        },
        {
            "positions": [
                1.1140096659600647,
                -1.9279505977445646,
                0.9866245568857788,
                0.05737013464956153,
                0.585638724266575,
                -1.8912297573105414
            ]
        },
        {
            "positions": [
                1.180393868227486,
                -1.9296851999093754,
                0.846633308152456,
                0.10613469005390586,
                0.561138092862197,
                -1.7797258674412806
            ]
        },
        {
            "positions": [
                1.2467780704949072,
                -1.9314198020741864,
                0.7066420594191332,
                0.15489924545825012,
                0.5366374614578189,
                -1.66822197757202
            ]
        },
        {
            "positions": [
                1.3131622727623287,
                -1.9331544042389974,
                0.5666508106858108,
                0.2036638008625944,
                0.5121368300534409,
                -1.5567180877027593
            ]
        },
        {
            "positions": [
                1.3795464750297501,
                -1.9348890064038082,
                0.426659561952488,
                0.2524283562669387,
                0.4876361986490629,
                -1.4452141978334985
            ]
        },
        {
            "positions": [
                1.4459306772971714,
                -1.9366236085686193,
                0.2866683132191654,
                0.3011929116712829,
                0.46313556724468485,
                -1.3337103079642378
            ]
        },
        {
            "positions": [
                1.5123148795645929,
                -1.9383582107334303,
                0.1466770644858426,
                0.34995746707562736,
                0.43863493584030677,
                -1.222206418094977
            ]
        },
        {
            "positions": [
                1.5786990818320141,
                -1.9400928128982413,
                0.006685815752519808,
                0.39872202247997157,
                0.4141343044359288,
                -1.1107025282257164
            ]
        },
        {
            "positions": [
                1.6450832840994356,
                -1.9418274150630521,
                -0.13330543298080233,
                0.4474865778843159,
                0.3896336730315508,
                -0.9991986383564555
            ]
        },
        {
            "positions": [
                1.7114674863668569,
                -1.9435620172278631,
                -0.27329668171412536,
                0.4962511332886602,
                0.3651330416271727,
                -0.8876947484871947
            ]
        },
        {
            "positions": [
                1.7778516886342781,
                -1.9452966193926742,
                -0.41328793044744794,
                0.5450156886930045,
                0.34063241022279467,
                -0.7761908586179338
            ]
        },
        {
            "positions": [
                1.8442358909016994,
                -1.947031221557485,
                -0.5532791791807705,
                0.5937802440973488,
                0.3161317788184167,
                -0.6646869687486734
            ]
        },
        {
            "positions": [
                1.910620093169121,
                -1.948765823722296,
                -0.6932704279140935,
                0.6425447995016931,
                0.2916311474140386,
                -0.5531830788794125
            ]
        },
        {
            "positions": [
                1.9770042954365423,
                -1.950500425887107,
                -0.8332616766474157,
                0.6913093549060373,
                0.26713051600966065,
                -0.4416791890101517
            ]
        },
        {
            "positions": [
                2.0433884977039636,
                -1.952235028051918,
                -0.9732529253807383,
                0.7400739103103816,
                0.24262988460528256,
                -0.3301752991408913
            ]
        },
        {
            "positions": [
                2.1097726999713853,
                -1.9539696302167289,
                -1.1132441741140613,
                0.7888384657147259,
                0.21812925320090448,
                -0.21867140927163042
            ]
        },
        {
            "positions": [
                2.1761569022388065,
                -1.95570423238154,
                -1.253235422847384,
                0.8376030211190703,
                0.1936286217965265,
                -0.10716751940236935
            ]
        },
        {
            "positions": [
                2.261476274853051,
                -1.9395808466133218,
                -1.2856999935713003,
                0.7719640375369359,
                0.28650739516289164,
                -0.034304566405242626
            ]
        },
        {
            "positions": [
                2.3467956474672955,
                -1.9234574608451036,
                -1.3181645642952162,
                0.7063250539548015,
                0.3793861685292568,
                0.0385583865918841
            ]
        },
        {
            "positions": [
                2.4321150200815405,
                -1.9073340750768857,
                -1.3506291350191324,
                0.6406860703726671,
                0.47226494189562185,
                0.11142133958901079
            ]
        },
        {
            "positions": [
                2.517434392695785,
                -1.8912106893086675,
                -1.3830937057430484,
                0.5750470867905327,
                0.565143715261987,
                0.18428429258613754
            ]
        },
        {
            "positions": [
                2.6027537653100294,
                -1.8750873035404494,
                -1.4155582764669645,
                0.5094081032083984,
                0.6580224886283521,
                0.25714724558326424
            ]
        },
        {
            "positions": [
                2.559471518086788,
                -1.932185331442962,
                -1.447929208074384,
                0.6020133396161645,
                0.5501557596852954,
                0.2015523592780722
            ]
        },
        {
            "positions": [
                2.516189270863547,
                -1.9892833593454746,
                -1.4803001396818036,
                0.6946185760239307,
                0.4422890307422387,
                0.14595747297288017
            ]
        },
        {
            "positions": [
                2.472907023640306,
                -2.0463813872479872,
                -1.512671071289223,
                0.7872238124316969,
                0.334422301799182,
                0.09036258666768815
            ]
        },
        {
            "positions": [
                2.4296247764170644,
                -2.1034794151505,
                -1.5450420028966425,
                0.8798290488394631,
                0.22655557285612524,
                0.0347677003624961
            ]
        },
        {
            "positions": [
                2.430271910002111,
                -2.1835253793764506,
                -1.5162033666402066,
                0.920679891215083,
                0.13803964379224584,
                -0.03989199248369202
            ]
        },
        {
            "positions": [
                2.4309190435871573,
                -2.2635713436024014,
                -1.4873647303837707,
                0.9615307335907028,
                0.04952371472836645,
                -0.11455168532988014
            ]
        },
        {
            "positions": [
                2.4315661771722032,
                -2.3436173078283518,
                -1.4585260941273348,
                1.0023815759663228,
                -0.03899221433551295,
                -0.18921137817606826
            ]
        },
        {
            "positions": [
                2.4322133107572497,
                -2.4236632720543025,
                -1.429687457870899,
                1.0432324183419426,
                -0.12750814339939232,
                -0.2638710710222564
            ]
        },
        {
            "positions": [
                2.4509166938604983,
                -2.3905086809983644,
                -1.5580836372455495,
                1.0421133961184614,
                0.03460351320478516,
                -0.28567747007767574
            ]
        },
        {
            "positions": [
                2.4696200769637473,
                -2.3573540899424263,
                -1.6864798166202004,
                1.0409943738949803,
                0.19671516980896264,
                -0.3074838691330951
            ]
        },
        {
            "positions": [
                2.488323460066996,
                -2.3241994988864882,
                -1.8148759959948513,
                1.0398753516714991,
                0.3588268264131401,
                -0.3292902681885145
            ]
        },
        {
            "positions": [
                2.5070268431702445,
                -2.29104490783055,
                -1.943272175369502,
                1.0387563294480178,
                0.5209384830173176,
                -0.35109666724393385
            ]
        },
        {
            "positions": [
                2.525730226273493,
                -2.257890316774612,
                -2.071668354744153,
                1.0376373072245366,
                0.6830501396214952,
                -0.3729030662993532
            ]
        },
        {
            "positions": [
                2.544433609376742,
                -2.224735725718674,
                -2.2000645341188036,
                1.0365182850010555,
                0.8451617962256726,
                -0.3947094653547726
            ]
        },
        {
            "positions": [
                2.5631369924799907,
                -2.191581134662736,
                -2.3284607134934543,
                1.0353992627775743,
                1.0072734528298501,
                -0.41651586441019195
            ]
        },
        {
            "positions": [
                2.5795424543354026,
                -2.2388737172484117,
                -2.2188257626728216,
                1.0243464348447786,
                0.9171565373566422,
                -0.34247775926754453
            ]
        },
        {
            "positions": [
                2.5959479161908146,
                -2.2861662998340875,
                -2.109190811852189,
                1.013293606911983,
                0.8270396218834342,
                -0.2684396541248971
            ]
        },
        {
            "positions": [
                2.612353378046226,
                -2.3334588824197633,
                -1.9995558610315562,
                1.0022407789791872,
                0.7369227064102261,
                -0.19440154898224968
            ]
        },
        {
            "positions": [
                2.628758839901638,
                -2.380751465005439,
                -1.8899209102109238,
                0.9911879510463913,
                0.6468057909370181,
                -0.12036344383960229
            ]
        },
        {
            "positions": [
                2.64516430175705,
                -2.428044047591115,
                -1.7802859593902909,
                0.9801351231135956,
                0.55668887546381,
                -0.04632533869695482
            ]
        },
        {
            "positions": [
                2.661569763612462,
                -2.4753366301767907,
                -1.6706510085696584,
                0.9690822951807999,
                0.46657195999060197,
                0.02771276644569258
            ]
        }
    ]
}