{
    "goal": {
        "global_pose": {
            "orientation": {
                "w": 0.7047431493862688,
                "x": -0.7094548369677653,
                "y": 0.0024358444001904,
                "z": -0.0022348060817251984
            },
            "position": {
                "x": -0.39052492380142206,
                "y": 0.3671506643295288,
                "z": 0.19426114857196808
            }
        },
        "name": "move_to_magneteinheit_D"
    },
    "id": "KPIECE_move_to_magneteinheit_D_89",
    "joint_names": [
        "shoulder_pan_joint",
        "shoulder_lift_joint",
        "elbow_joint",
        "wrist_1_joint",
        "wrist_2_joint",
        "wrist_3_joint"
    ],
    "metrics": {
        "cart_traj_len": 4.848762533518572,
        "distance_elbow_joint": 3.110505622226649,
        "distance_shoulder_lift_joint": 1.6683536785765882,
        "distance_shoulder_pan_joint": 3.582309254313053,
        "distance_wrist_1_joint": 2.1131412234673066,
        "distance_wrist_2_joint": 2.117848354663085,
        "distance_wrist_3_joint": 4.747211926909511,
        "smoothness": 0.4635769980965408,
        "time": 0.277435554,
        "traj_len": 4.164056923260799,
        "weighted_distance": 5.573579055876539
    },
    "planner": "KPIECE",
    "start": {
        "state": {
            "elbow_joint": 0.7495348899011973,
            "shoulder_lift_joint": -0.6476975780737697,
            "shoulder_pan_joint": -2.711696901376276,
            "wrist_1_joint": -0.07506478080974305,
            "wrist_2_joint": 0.4329665971545858,
            "wrist_3_joint": 3.1361499051832524
        }
    },
    "waypoints": [
        {
            "positions": [
                -2.711696901376276,
                -0.6476975780737697,
                0.7495348899011973,
                -0.07506478080974305,
                0.4329665971545858,
                3.1361499051832524
            ]
        },
        {
            "positions": [
                -2.7680747008659683,
                -0.7254190335445873,
                0.7359811089865902,
                -0.15347614388418457,
                0.32206961809113266,
                3.1023978787799957
            ]
        },
        {
            "positions": [
                -2.824452500355661,
                -0.8031404890154048,
                0.7224273280719831,
                -0.23188750695862606,
                0.21117263902767947,
                3.0686458523767395
            ]
        },
        {
            "positions": [
                -2.880830299845353,
                -0.8808619444862223,
                0.7088735471573759,
                -0.31029887003306755,
                0.10027565996422627,
                3.034893825973483
            ]
        },
        {
            "positions": [
                -2.937208099335045,
                -0.9585833999570399,
                0.6953197662427688,
                -0.3887102331075091,
                -0.010621319099226867,
                3.001141799570226
            ]
        },
        {
            "positions": [
                -2.9935858988247377,
                -1.0363048554278576,
                0.6817659853281617,
                -0.4671215961819506,
                -0.12151829816268006,
                2.9673897731669694
            ]
        },
        {
            "positions": [
                -3.04996369831443,
                -1.114026310898675,
                0.6682122044135546,
                -0.545532959256392,
                -0.23241527722613325,
                2.933637746763713
            ]
        },
        {
            "positions": [
                -3.106341497804122,
                -1.1917477663694926,
                0.6546584234989474,
                -0.6239443223308336,
                -0.3433122562895865,
                2.8998857203604564
            ]
        },
        {
            "positions": [
                -2.9675212469440915,
                -1.2221951194962606,
                0.6051364211843933,
                -0.6567594868794209,
                -0.31177814355664624,
                2.8031844233799705
            ]
        },
        {
            "positions": [
                -2.828700996084061,
                -1.2526424726230285,
                0.5556144188698391,
                -0.6895746514280081,
                -0.2802440308237059,
                2.7064831263994846
            ]
        },
        {
            "positions": [
                -2.6898807452240305,
                -1.2830898257497965,
                0.5060924165552849,
                -0.7223898159765955,
                -0.24870991809076565,
                2.6097818294189983
            ]
        },
        {
            "positions": [
                -2.551060494364,
                -1.3135371788765644,
                0.45657041424073075,
                -0.7552049805251827,
                -0.21717580535782532,
                2.5130805324385124
            ]
        },
        {
            "positions": [
                -2.4122402435039696,
                -1.3439845320033323,
                0.4070484119261766,
                -0.7880201450737699,
                -0.18564169262488506,
                2.4163792354580265
            ]
        },
        {
            "positions": [
                -2.273419992643939,
                -1.3744318851301,
                0.3575264096116224,
                -0.8208353096223573,
                -0.15410757989194476,
                2.3196779384775406
            ]
        },
        {
            "positions": [
                -2.1345997417839087,
                -1.404879238256868,
                0.30800440729706824,
                -0.8536504741709445,
                -0.12257346715900447,
                2.2229766414970547
            ]
        },
        {
            "positions": [
                -1.9957794909238777,
                -1.435326591383636,
                0.25848240498251407,
                -0.8864656387195318,
                -0.09103935442606415,
                2.1262753445165687
            ]
        },
        {
            "positions": [
                -1.8569592400638473,
                -1.4657739445104039,
                0.2089604026679599,
                -0.919280803268119,
                -0.05950524169312388,
                2.0295740475360824
            ]
        },
        {
            "positions": [
                -1.7181389892038168,
                -1.4962212976371718,
                0.15943840035340573,
                -0.9520959678167062,
                -0.02797112896018361,
                1.9328727505555965
            ]
        },
        {
            "positions": [
                -1.5793187383437863,
                -1.5266686507639398,
                0.10991639803885156,
                -0.9849111323652936,
                0.0035629837727567115,
                1.8361714535751106
            ]
        },
        {
            "positions": [
                -1.4404984874837559,
                -1.5571160038907077,
                0.06039439572429739,
                -1.0177262969138807,
                0.03509709650569698,
                1.7394701565946247
            ]
        },
        {
            "positions": [
                -1.3016782366237252,
                -1.5875633570174756,
                0.01087239340974322,
                -1.0505414614624682,
                0.0666312092386373,
                1.6427688596141385
            ]
        },
        {
            "positions": [
                -1.162857985763695,
                -1.6180107101442436,
                -0.03864960890481095,
                -1.0833566260110554,
                0.09816532197157757,
                1.5460675626336526
            ]
        },
        {
            "positions": [
                -1.0240377349036645,
                -1.6484580632710113,
                -0.08817161121936512,
                -1.1161717905596427,
                0.12969943470451784,
                1.4493662656531667
            ]
        },
        {
            "positions": [
                -0.8852174840436335,
                -1.6789054163977792,
                -0.1376936135339193,
                -1.14898695510823,
                0.1612335474374582,
                1.3526649686726806
            ]
        },
        {
            "positions": [
                -0.7463972331836035,
                -1.7093527695245472,
                -0.18721561584847346,
                -1.1818021196568171,
                0.19276766017039848,
                1.2559636716921947
            ]
        },
        {
            "positions": [
                -0.6075769823235726,
                -1.7398001226513151,
                -0.23673761816302763,
                -1.2146172842054046,
                0.22430177290333875,
                1.1592623747117086
            ]
        },
        {
            "positions": [
                -0.46875673146354213,
                -1.770247475778083,
                -0.2862596204775818,
                -1.2474324487539916,
                0.255835885636279,
                1.0625610777312227
            ]
        },
        {
            "positions": [
                -0.32993648060351166,
                -1.800694828904851,
                -0.33578162279213597,
                -1.280247613302579,
                0.2873699983692193,
                0.9658597807507368
            ]
        },
        {
            "positions": [
                -0.1911162297434812,
                -1.831142182031619,
                -0.38530362510669014,
                -1.3130627778511663,
                0.31890411110215966,
                0.8691584837702506
            ]
        },
        {
            "positions": [
                -0.052295978883450514,
                -1.8615895351583869,
                -0.43482562742124425,
                -1.3458779423997536,
                0.3504382238350999,
                0.7724571867897647
            ]
        },
        {
            "positions": [
                -0.054213802206397,
                -1.8355738711741496,
                -0.5844003826923185,
                -1.4223293199850708,
                0.3558829065969603,
                0.8838891939494506
            ]
        },
        {
            "positions": [
                -0.05613162552934349,
                -1.8095582071899123,
                -0.7339751379633928,
                -1.498780697570388,
                0.36132758935882064,
                0.9953212011091366
            ]
        },
        {
            "positions": [
                -0.05804944885228998,
                -1.783542543205675,
                -0.883549893234467,
                -1.5752320751557052,
                0.36677227212068103,
                1.1067532082688225
            ]
        },
        {
            "positions": [
                -0.05996727217523647,
                -1.7575268792214378,
                -1.0331246485055412,
                -1.6516834527410222,
                0.3722169548825414,
                1.2181852154285084
            ]
        },
        {
            "positions": [
                -0.06188509549818296,
                -1.7315112152372005,
                -1.1826994037766154,
                -1.7281348303263395,
                0.37766163764440175,
                1.3296172225881944
            ]
        },
        {
            "positions": [
                -0.06380291882112946,
                -1.7054955512529633,
                -1.3322741590476896,
                -1.8045862079116568,
                0.38310632040626214,
                1.4410492297478803
            ]
        },
        {
            "positions": [
                -0.06572074214407594,
                -1.6794798872687258,
                -1.481848914318764,
                -1.881037585496974,
                0.3885510031681225,
                1.5524812369075662
            ]
        },
        {
            "positions": [
                -0.06763856546702243,
                -1.6534642232844885,
                -1.6314236695898383,
                -1.9574889630822911,
                0.39399568592998285,
                1.6639132440672522
            ]
        },
        {
            "positions": [
                -0.06955638878996892,
                -1.6274485593002512,
                -1.7809984248609125,
                -2.033940340667608,
                0.39944036869184324,
                1.775345251226938
            ]
        },
        {
            "positions": [
                -0.07147421211291541,
                -1.601432895316014,
                -1.9305731801319868,
                -2.1103917182529255,
                0.40488505145370357,
                1.886777258386624
            ]
        },
        {
            "positions": [
                -0.0733920354358619,
                -1.5754172313317767,
                -2.080147935403061,
                -2.1868430958382428,
                0.41032973421556396,
                1.99820926554631
            ]
        },
        {
            "positions": [
                -0.0921458825045495,
                -1.603465467609337,
                -2.126951734890126,
                -2.1870702472447108,
                0.3123418157632702,
                2.1911704538395567
            ]
        },
        {
            "positions": [
                -0.11089972957323711,
                -1.631513703886897,
                -2.1737555343771913,
                -2.1872973986511783,
                0.2143538973109764,
                2.384131642132803
            ]
        },
        {
            "positions": [
                -0.12965357664192473,
                -1.659561940164457,
                -2.220559333864256,
                -2.1875245500576463,
                0.1163659788586826,
                2.5770928304260496
            ]
        },
        {
            "positions": [
                -0.14840742371061233,
                -1.6876101764420173,
                -2.267363133351321,
                -2.1877517014641144,
                0.01837806040638884,
                2.7700540187192964
            ]
        },
        {
            "positions": [
                -0.16716127077929996,
                -1.7156584127195775,
                -2.3141669328383863,
                -2.187978852870582,
                -0.07960985804590498,
                2.9630152070125426
            ]
        },
        {
            "positions": [
                -0.18591511784798756,
                -1.7437066489971376,
                -2.3609707323254514,
                -2.18820600427705,
                -0.17759777649819877,
                3.1559763953057893
            ]
        }
    ]
}