{
    "goal": {
        "global_pose": {
            "orientation": {
                "w": 0.005598929693374612,
                "x": 0.007748599140229565,
                "y": 0.7110244013736278,
                "z": -0.7031023480610252
            },
            "position": {
                "x": -0.8858502320852131,
                "y": -0.7141253447532654,
                "z": 0.3711530566215515
            }
        },
        "name": "move_to_auspresseinheit_C"
    },
    "id": "KPIECE_move_to_auspresseinheit_C_45",
    "joint_names": [
        "shoulder_pan_joint",
        "shoulder_lift_joint",
        "elbow_joint",
        "wrist_1_joint",
        "wrist_2_joint",
        "wrist_3_joint"
    ],
    "metrics": {
        "cart_traj_len": 0.493394232588893,
        "distance_elbow_joint": 0.9955852094321795,
        "distance_shoulder_lift_joint": 0.3234722154710036,
        "distance_shoulder_pan_joint": 0.25663923868749805,
        "distance_wrist_1_joint": 0.6605140286832735,
        "distance_wrist_2_joint": 1.3119465835593038,
        "distance_wrist_3_joint": 0.03822664094897643,
        "smoothness": 1.2918958832001822e-15,
        "time": 0.012502989,
        "traj_len": 1.8937750438693173,
        "weighted_distance": 2.373878221586517
    },
    "planner": "KPIECE",
    "start": {
        "state": {
            "elbow_joint": 1.752795957773711,
            "shoulder_lift_joint": -0.9740617694225064,
            "shoulder_pan_joint": -2.967991417825858,
            "wrist_1_joint": -0.7595177689806859,
            "wrist_2_joint": 1.7443932448377395,
            "wrist_3_joint": 3.199131542505932
        }
    },
    "waypoints": [
        {
            "positions": [
                -2.967991417825858,
                -0.9740617694225064,
                1.752795957773711,
                -0.7595177689806859,
                1.7443932448377395,
                3.199131542505932
            ]
        },
        {
            "positions": [
                -2.9423274939571082,
                -0.9417145478754061,
                1.6532374368304932,
                -0.6934663661123586,
                1.613198586481809,
                3.1953088784110344
            ]
        },
        {
            "positions": [
                -2.9166635700883585,
                -0.9093673263283057,
                1.5536789158872752,
                -0.6274149632440312,
                1.4820039281258788,
                3.1914862143161367
            ]
        },
        {
            "positions": [
                -2.8909996462196084,
                -0.8770201047812054,
                1.4541203949440573,
                -0.5613635603757039,
                1.3508092697699483,
                3.1876635502212394
            ]
        },
        {
            "positions": [
                -2.8653357223508586,
                -0.844672883234105,
                1.3545618740008392,
                -0.4953121575073765,
                1.219614611414018,
                3.1838408861263416
            ]
        },
        {
            "positions": [
                -2.839671798482109,
                -0.8123256616870047,
                1.2550033530576212,
                -0.42926075463904917,
                1.0884199530580876,
                3.180018222031444
            ]
        },
        {
            "positions": [
                -2.814007874613359,
                -0.7799784401399044,
                1.1554448321144033,
                -0.36320935177072183,
                0.9572252947021572,
                3.176195557936546
            ]
        },
        {
            "positions": [
                -2.7883439507446095,
                -0.747631218592804,
                1.0558863111711854,
                -0.2971579489023945,
                0.8260306363462269,
                3.1723728938416484
            ]
        },
        {
            "positions": [
                -2.7626800268758593,
                -0.7152839970457036,
                0.9563277902279674,
                -0.2311065460340671,
                0.6948359779902964,
                3.168550229746751
            ]
        },
        {
            "positions": [
                -2.7370161030071096,
                -0.6829367754986032,
                0.8567692692847495,
                -0.16505514316573977,
                0.5636413196343659,
                3.1647275656518534
            ]
        },
        {
            "positions": [
                -2.71135217913836,
                -0.6505895539515029,
                0.7572107483415316,
                -0.09900374029741245,
                0.4324466612784356,
                3.1609049015569557
            ]
        }
    ]
}