{
    "goal": {
        "global_pose": {
            "orientation": {
                "w": -0.4816463035849501,
                "x": 0.5182115481033762,
                "y": 0.4908360881923453,
                "z": -0.5084816262002911
            },
            "position": {
                "x": -0.8240239810943604,
                "y": -0.300875300988555,
                "z": 0.16403168439865112
            }
        },
        "name": "move_to_storage_C"
    },
    "id": "KPIECE_move_to_storage_C_49",
    "joint_names": [
        "shoulder_pan_joint",
        "shoulder_lift_joint",
        "elbow_joint",
        "wrist_1_joint",
        "wrist_2_joint",
        "wrist_3_joint"
    ],
    "metrics": {
        "cart_traj_len": 0.5767004468382101,
        "distance_elbow_joint": 0.26073616404649114,
        "distance_shoulder_lift_joint": 0.19020118067340408,
        "distance_shoulder_pan_joint": 0.4951284915928804,
        "distance_wrist_1_joint": 0.08496403526089935,
        "distance_wrist_2_joint": 1.0598951069801452,
        "distance_wrist_3_joint": 0.06785351989222344,
        "smoothness": 0.0,
        "time": 0.051323356,
        "traj_len": 1.469278223634327,
        "weighted_distance": 1.854547028379581
    },
    "planner": "KPIECE",
    "start": {
        "state": {
            "elbow_joint": 2.010868315001653,
            "shoulder_lift_joint": -1.1634956873357014,
            "shoulder_pan_joint": -2.4736205022346103,
            "wrist_1_joint": -0.8367026794713948,
            "wrist_2_joint": 0.6746043897044093,
            "wrist_3_joint": 3.1335220948105738
        }
    },
    "waypoints": [
        {
            "positions": [
                -2.4736205022346103,
                -1.1634956873357014,
                2.010868315001653,
                -0.8367026794713948,
                0.6746043897044093,
                3.1335220948105738
            ]
        },
        {
            "positions": [
                -2.5561419175000903,
                -1.1317954905568008,
                1.9674122876605713,
                -0.8225420069279116,
                0.8512535742011001,
                3.144831014792611
            ]
        },
        {
            "positions": [
                -2.6386633327655704,
                -1.1000952937779,
                1.9239562603194893,
                -0.8083813343844283,
                1.027902758697791,
                3.1561399347746484
            ]
        },
        {
            "positions": [
                -2.7211847480310505,
                -1.0683950969989993,
                1.8805002329784075,
                -0.7942206618409451,
                1.204551943194482,
                3.1674488547566853
            ]
        },
        {
            "positions": [
                -2.8037061632965306,
                -1.0366949002200987,
                1.8370442056373257,
                -0.7800599892974619,
                1.3812011276911726,
                3.1787577747387226
            ]
        },
        {
            "positions": [
                -2.8862275785620106,
                -1.0049947034411981,
                1.7935881782962437,
                -0.7658993167539786,
                1.5578503121878637,
                3.19006669472076
            ]
        },
        {
            "positions": [
                -2.9687489938274907,
                -0.9732945066622973,
                1.750132150955162,
                -0.7517386442104954,
                1.7344994966845546,
                3.201375614702797
            ]
        }
    ]
}