{
    "goal": {
        "global_pose": {
            "orientation": {
                "w": 0.5084816217422485,
                "x": -0.49083608388900757,
                "y": 0.5182115435600281,
                "z": -0.4816462993621826
            },
            "position": {
                "x": 0.5540239810943604,
                "y": 0.030875300988554955,
                "z": 0.16403168439865112
            }
        },
        "name": "move_to_storage_A"
    },
    "id": "KPIECE_move_to_storage_A_144",
    "joint_names": [
        "shoulder_pan_joint",
        "shoulder_lift_joint",
        "elbow_joint",
        "wrist_1_joint",
        "wrist_2_joint",
        "wrist_3_joint"
    ],
    "metrics": {
        "cart_traj_len": 0.3529760566725853,
        "distance_elbow_joint": 0.4494399150607924,
        "distance_shoulder_lift_joint": 0.2360016594112444,
        "distance_shoulder_pan_joint": 0.46216272966092503,
        "distance_wrist_1_joint": 0.2348731517123882,
        "distance_wrist_2_joint": 1.09711599321124,
        "distance_wrist_3_joint": 0.09709055970136449,
        "smoothness": 0.0,
        "time": 0.070941844,
        "traj_len": 1.6052052855500927,
        "weighted_distance": 2.0255503630086102
    },
    "planner": "KPIECE",
    "start": {
        "state": {
            "elbow_joint": 1.9715474177455299,
            "shoulder_lift_joint": -1.139484666580328,
            "shoulder_pan_joint": 0.12281154398918248,
            "wrist_1_joint": -0.7804687475355282,
            "wrist_2_joint": 0.12958649657246987,
            "wrist_3_joint": -3.1924925159053466
        }
    },
    "waypoints": [
        {
            "positions": [
                0.12281154398918248,
                -1.139484666580328,
                1.9715474177455299,
                -0.7804687475355282,
                0.12958649657246987,
                -3.1924925159053466
            ]
        },
        {
            "positions": [
                0.056788296894764625,
                -1.1731991893533629,
                2.0357531198970715,
                -0.8140220549230123,
                0.2863173527455042,
                -3.1786224359480086
            ]
        },
        {
            "positions": [
                -0.00923495019965323,
                -1.2069137121263978,
                2.0999588220486136,
                -0.8475753623104962,
                0.44304820891853847,
                -3.164752355990671
            ]
        },
        {
            "positions": [
                -0.0752581972940711,
                -1.2406282348994326,
                2.1641645242001553,
                -0.8811286696979803,
                0.5997790650915727,
                -3.1508822760333333
            ]
        },
        {
            "positions": [
                -0.14128144438848894,
                -1.2743427576724677,
                2.228370226351697,
                -0.9146819770854643,
                0.7565099212646071,
                -3.1370121960759954
            ]
        },
        {
            "positions": [
                -0.2073046914829068,
                -1.3080572804455026,
                2.292575928503239,
                -0.9482352844729484,
                0.9132407774376415,
                -3.1231421161186574
            ]
        },
        {
            "positions": [
                -0.2733279385773247,
                -1.3417718032185375,
                2.3567816306547806,
                -0.9817885918604323,
                1.0699716336106757,
                -3.10927203616132
            ]
        },
        {
            "positions": [
                -0.33935118567174255,
                -1.3754863259915724,
                2.4209873328063223,
                -1.0153418992479164,
                1.22670248978371,
                -3.095401956203982
            ]
        }
    ]
}