{
    "goal": {
        "global_pose": {
            "orientation": {
                "w": -0.4816463035849501,
                "x": 0.5182115481033762,
                "y": 0.4908360881923453,
                "z": -0.5084816262002911
            },
            "position": {
                "x": -0.8240239810943604,
                "y": 0.19912469901144506,
                "z": 0.16403168439865112
            }
        },
        "name": "move_to_storage_D"
    },
    "id": "KPIECE_move_to_storage_D_69",
    "joint_names": [
        "shoulder_pan_joint",
        "shoulder_lift_joint",
        "elbow_joint",
        "wrist_1_joint",
        "wrist_2_joint",
        "wrist_3_joint"
    ],
    "metrics": {
        "cart_traj_len": 2.722030788741182,
        "distance_elbow_joint": 2.1253940224984924,
        "distance_shoulder_lift_joint": 0.7362095572092437,
        "distance_shoulder_pan_joint": 2.317410490384199,
        "distance_wrist_1_joint": 3.8211679978869753,
        "distance_wrist_2_joint": 3.6311343950263755,
        "distance_wrist_3_joint": 5.228264630525411,
        "smoothness": 0.4053574971214102,
        "time": 0.042608726,
        "traj_len": 4.226059759815365,
        "weighted_distance": 5.980669924640122
    },
    "planner": "KPIECE",
    "start": {
        "state": {
            "elbow_joint": -2.384821997420982,
            "shoulder_lift_joint": -2.2788054674887404,
            "shoulder_pan_joint": -0.18546946417610016,
            "wrist_1_joint": 1.4845937964226739,
            "wrist_2_joint": 0.1789877726866377,
            "wrist_3_joint": 0.03710572555276528
        }
    },
    "waypoints": [
        {
            "positions": [
                -0.18546946417610016,
                -2.2788054674887404,
                -2.384821997420982,
                1.4845937964226739,
                0.1789877726866377,
                0.03710572555276528
            ]
        },
        {
            "positions": [
                -0.09726930939633054,
                -2.2470532785052346,
                -2.2891286605671493,
                1.4595613766110642,
                0.24521228726518052,
                -0.037145284401952285
            ]
        },
        {
            "positions": [
                -0.00906915461656091,
                -2.215301089521729,
                -2.193435323713316,
                1.4345289567994546,
                0.3114368018437233,
                -0.11139629435666984
            ]
        },
        {
            "positions": [
                0.07913100016320873,
                -2.183548900538223,
                -2.0977419868594835,
                1.409496536987845,
                0.3776613164222661,
                -0.1856473043113874
            ]
        },
        {
            "positions": [
                0.16733115494297834,
                -2.1517967115547174,
                -2.002048650005651,
                1.3844641171762355,
                0.4438858310008089,
                -0.259898314266105
            ]
        },
        {
            "positions": [
                0.255531309722748,
                -2.120044522571212,
                -1.906355313151818,
                1.3594316973646259,
                0.5101103455793518,
                -0.33414932422082255
            ]
        },
        {
            "positions": [
                0.3437314645025176,
                -2.0882923335877064,
                -1.8106619762979852,
                1.3343992775530162,
                0.5763348601578945,
                -0.4084003341755401
            ]
        },
        {
            "positions": [
                0.43193161928228724,
                -2.0565401446042006,
                -1.7149686394441526,
                1.3093668577414066,
                0.6425593747364373,
                -0.4826513441302577
            ]
        },
        {
            "positions": [
                0.5201317740620568,
                -2.024787955620695,
                -1.6192753025903197,
                1.284334437929797,
                0.70878388931498,
                -0.5569023540849752
            ]
        },
        {
            "positions": [
                0.6083319288418265,
                -1.9930357666371892,
                -1.5235819657364869,
                1.2593020181181873,
                0.7750084038935229,
                -0.6311533640396928
            ]
        },
        {
            "positions": [
                0.6965320836215962,
                -1.9612835776536834,
                -1.4278886288826542,
                1.234269598306578,
                0.8412329184720657,
                -0.7054043739944104
            ]
        },
        {
            "positions": [
                0.7847322384013657,
                -1.9295313886701777,
                -1.3321952920288214,
                1.209237178494968,
                0.9074574330506084,
                -0.7796553839491279
            ]
        },
        {
            "positions": [
                0.8729323931811355,
                -1.8977791996866722,
                -1.2365019551749887,
                1.1842047586833586,
                0.9736819476291512,
                -0.8539063939038455
            ]
        },
        {
            "positions": [
                0.9611325479609052,
                -1.8660270107031665,
                -1.1408086183211557,
                1.159172338871749,
                1.0399064622076941,
                -0.928157403858563
            ]
        },
        {
            "positions": [
                1.0493327027406747,
                -1.8342748217196607,
                -1.045115281467323,
                1.1341399190601393,
                1.1061309767862368,
                -1.0024084138132805
            ]
        },
        {
            "positions": [
                1.0155011926323176,
                -1.8433897877021659,
                -1.069668009796849,
                1.0256801027937505,
                1.021631252069775,
                -0.8715099609645504
            ]
        },
        {
            "positions": [
                0.9816696825239608,
                -1.852504753684671,
                -1.094220738126375,
                0.9172202865273618,
                0.9371315273533133,
                -0.7406115081158202
            ]
        },
        {
            "positions": [
                0.9478381724156039,
                -1.8616197196671762,
                -1.118773466455901,
                0.808760470260973,
                0.8526318026368516,
                -0.6097130552670901
            ]
        },
        {
            "positions": [
                0.9140066623072469,
                -1.8707346856496812,
                -1.1433261947854272,
                0.7003006539945842,
                0.7681320779203897,
                -0.47881460241835994
            ]
        },
        {
            "positions": [
                0.88017515219889,
                -1.8798496516321863,
                -1.1678789231149531,
                0.5918408377281953,
                0.683632353203928,
                -0.3479161495696298
            ]
        },
        {
            "positions": [
                0.846343642090533,
                -1.8889646176146915,
                -1.1924316514444793,
                0.4833810214618065,
                0.5991326284874663,
                -0.21701769672089966
            ]
        },
        {
            "positions": [
                0.812512131982176,
                -1.8980795835971966,
                -1.2169843797740052,
                0.3749212051954177,
                0.5146329037710045,
                -0.08611924387216952
            ]
        },
        {
            "positions": [
                0.7786806218738191,
                -1.9071945495797018,
                -1.2415371081035314,
                0.26646138892902893,
                0.43013317905454274,
                0.044779208976560625
            ]
        },
        {
            "positions": [
                0.7448491117654621,
                -1.916309515562207,
                -1.2660898364330573,
                0.15800157266264014,
                0.345633454338081,
                0.17567766182529088
            ]
        },
        {
            "positions": [
                0.7110176016571053,
                -1.925424481544712,
                -1.2906425647625834,
                0.049541756396251246,
                0.2611337296216192,
                0.3065761146740209
            ]
        },
        {
            "positions": [
                0.6771860915487482,
                -1.934539447527217,
                -1.3151952930921094,
                -0.05891805987013754,
                0.17663400490515746,
                0.43747456752275093
            ]
        },
        {
            "positions": [
                0.6433545814403913,
                -1.9436544135097222,
                -1.3397480214216353,
                -0.16737787613652633,
                0.09213428018869574,
                0.5683730203714812
            ]
        },
        {
            "positions": [
                0.6095230713320343,
                -1.9527693794922274,
                -1.3643007497511614,
                -0.2758376924029151,
                0.007634555472233906,
                0.6992714732202114
            ]
        },
        {
            "positions": [
                0.5756915612236774,
                -1.9618843454747326,
                -1.3888534780806876,
                -0.3842975086693039,
                -0.07686516924422793,
                0.8301699260689415
            ]
        },
        {
            "positions": [
                0.5418600511153204,
                -1.9709993114572377,
                -1.4134062064102135,
                -0.4927573249356927,
                -0.16136489396068954,
                0.9610683789176715
            ]
        },
        {
            "positions": [
                0.5080285410069635,
                -1.9801142774397427,
                -1.4379589347397395,
                -0.6012171412020815,
                -0.24586461867715137,
                1.0919668317664017
            ]
        },
        {
            "positions": [
                0.47419703089860654,
                -1.9892292434222478,
                -1.4625116630692656,
                -0.7096769574684703,
                -0.3303643433936132,
                1.222865284615132
            ]
        },
        {
            "positions": [
                0.4403655207902496,
                -1.998344209404753,
                -1.4870643913987918,
                -0.818136773734859,
                -0.4148640681100748,
                1.3537637374638622
            ]
        },
        {
            "positions": [
                0.40653401068189265,
                -2.0074591753872584,
                -1.5116171197283177,
                -0.9265965900012478,
                -0.49936379282653665,
                1.484662190312592
            ]
        },
        {
            "positions": [
                0.3727025005735357,
                -2.0165741413697633,
                -1.5361698480578436,
                -1.0350564062676368,
                -0.5838635175429985,
                1.6155606431613223
            ]
        },
        {
            "positions": [
                0.33887099046517877,
                -2.0256891073522683,
                -1.5607225763873698,
                -1.1435162225340254,
                -0.6683632422594601,
                1.7464590960100526
            ]
        },
        {
            "positions": [
                0.3050394803568218,
                -2.0348040733347736,
                -1.585275304716896,
                -1.2519760388004144,
                -0.7528629669759219,
                1.8773575488587824
            ]
        },
        {
            "positions": [
                0.2712079702484649,
                -2.0439190393172786,
                -1.6098280330464219,
                -1.360435855066803,
                -0.8373626916923838,
                2.0082560017075126
            ]
        },
        {
            "positions": [
                0.23737646014010783,
                -2.053034005299784,
                -1.6343807613759478,
                -1.468895671333192,
                -0.9218624164088454,
                2.139154454556243
            ]
        },
        {
            "positions": [
                0.20354495003175088,
                -2.062148971282289,
                -1.6589334897054737,
                -1.5773554875995806,
                -1.0063621411253074,
                2.270052907404973
            ]
        },
        {
            "positions": [
                0.16971343992339394,
                -2.071263937264794,
                -1.6834862180349999,
                -1.6858153038659696,
                -1.090861865841769,
                2.4009513602537034
            ]
        },
        {
            "positions": [
                0.135881929815037,
                -2.0803789032472992,
                -1.708038946364526,
                -1.7942751201323581,
                -1.1753615905582306,
                2.531849813102433
            ]
        },
        {
            "positions": [
                0.10205041970668005,
                -2.089493869229804,
                -1.732591674694052,
                -1.9027349363987471,
                -1.2598613152746927,
                2.6627482659511634
            ]
        },
        {
            "positions": [
                0.06821890959832311,
                -2.0986088352123096,
                -1.7571444030235779,
                -2.0111947526651357,
                -1.3443610399911543,
                2.7936467187998937
            ]
        },
        {
            "positions": [
                0.034387399489966164,
                -2.1077238011948145,
                -1.781697131353104,
                -2.1196545689315247,
                -1.428860764707616,
                2.9245451716486235
            ]
        },
        {
            "positions": [
                0.0005558893816093313,
                -2.11683876717732,
                -1.8062498596826302,
                -2.2281143851979133,
                -1.513360489424078,
                3.0554436244973537
            ]
        },
        {
            "positions": [
                -0.03327562072674778,
                -2.125953733159825,
                -1.8308025880121561,
                -2.3365742014643023,
                -1.5978602141405396,
                3.1863420773460844
            ]
        }
    ]
}