{
    "goal": {
        "global_pose": {
            "orientation": {
                "w": -0.4816463035849501,
                "x": 0.5182115481033762,
                "y": 0.4908360881923453,
                "z": -0.5084816262002911
            },
            "position": {
                "x": -0.8240239810943604,
                "y": -0.300875300988555,
                "z": 0.16403168439865112
            }
        },
        "name": "move_to_storage_C"
    },
    "id": "KPIECE_move_to_storage_C_114",
    "joint_names": [
        "shoulder_pan_joint",
        "shoulder_lift_joint",
        "elbow_joint",
        "wrist_1_joint",
        "wrist_2_joint",
        "wrist_3_joint"
    ],
    "metrics": {
        "cart_traj_len": 0.5767993629215391,
        "distance_elbow_joint": 0.2590227755339003,
        "distance_shoulder_lift_joint": 0.1893830145630352,
        "distance_shoulder_pan_joint": 0.49393430034792773,
        "distance_wrist_1_joint": 0.08288227435521689,
        "distance_wrist_2_joint": 1.076580089002504,
        "distance_wrist_3_joint": 0.06559492760043018,
        "smoothness": 0.0,
        "time": 0.011139779,
        "traj_len": 1.4722083349183344,
        "weighted_distance": 1.8595831790919155
    },
    "planner": "KPIECE",
    "start": {
        "state": {
            "elbow_joint": 2.010868315001653,
            "shoulder_lift_joint": -1.1634956873357014,
            "shoulder_pan_joint": -2.4736205022346103,
            "wrist_1_joint": -0.8367026794713948,
            "wrist_2_joint": 0.6746043897044093,
            "wrist_3_joint": 3.1335220948105738
        }
    },
    "waypoints": [
        {
            "positions": [
                -2.4736205022346103,
                -1.1634956873357014,
                2.010868315001653,
                -0.8367026794713948,
                0.6746043897044093,
                3.1335220948105738
            ]
        },
        {
            "positions": [
                -2.5559428856259316,
                -1.1319318515751955,
                1.9676978524126696,
                -0.8228889670788586,
                0.8540344045381599,
                3.144454582743979
            ]
        },
        {
            "positions": [
                -2.638265269017253,
                -1.1003680158146896,
                1.9245273898236863,
                -0.8090752546863225,
                1.0334644193719105,
                3.1553870706773837
            ]
        },
        {
            "positions": [
                -2.7205876524085744,
                -1.0688041800541839,
                1.881356927234703,
                -0.7952615422937863,
                1.2128944342056611,
                3.166319558610789
            ]
        },
        {
            "positions": [
                -2.8029100357998953,
                -1.037240344293678,
                1.8381864646457196,
                -0.7814478299012502,
                1.3923244490394118,
                3.177252046544194
            ]
        },
        {
            "positions": [
                -2.8852324191912166,
                -1.005676508533172,
                1.795016002056736,
                -0.767634117508714,
                1.5717544638731624,
                3.1881845344775988
            ]
        },
        {
            "positions": [
                -2.967554802582538,
                -0.9741126727726662,
                1.7518455394677528,
                -0.7538204051161779,
                1.7511844787069133,
                3.199117022411004
            ]
        }
    ]
}