{
    "goal": {
        "global_pose": {
            "orientation": {
                "w": 0.7031023480610252,
                "x": -0.7110244013736278,
                "y": 0.0077485991402295624,
                "z": 0.005598929693374583
            },
            "position": {
                "x": -0.8841497679147869,
                "y": 0.44412534475326537,
                "z": 0.3711530566215515
            }
        },
        "name": "move_to_auspresseinheit_D"
    },
    "id": "KPIECE_move_to_auspresseinheit_D_5",
    "joint_names": [
        "shoulder_pan_joint",
        "shoulder_lift_joint",
        "elbow_joint",
        "wrist_1_joint",
        "wrist_2_joint",
        "wrist_3_joint"
    ],
    "metrics": {
        "cart_traj_len": 4.025396797379143,
        "distance_elbow_joint": 3.198607347542728,
        "distance_shoulder_lift_joint": 1.3885328412431388,
        "distance_shoulder_pan_joint": 2.7970267958674517,
        "distance_wrist_1_joint": 1.9628963068809793,
        "distance_wrist_2_joint": 0.8916594772192155,
        "distance_wrist_3_joint": 3.050778372682953,
        "smoothness": 0.07795658347898299,
        "time": 0.088622426,
        "traj_len": 3.6454768057740354,
        "weighted_distance": 4.716525593156743
    },
    "planner": "KPIECE",
    "start": {
        "state": {
            "elbow_joint": 1.8268400409724999,
            "shoulder_lift_joint": -1.0144045787793008,
            "shoulder_pan_joint": 2.6280239544362485,
            "wrist_1_joint": -0.790705565816056,
            "wrist_2_joint": 1.0573557467365533,
            "wrist_3_joint": 3.1851377467193758
        }
    },
    "waypoints": [
        {
            "positions": [
                2.6280239544362485,
                -1.0144045787793008,
                1.8268400409724999,
                -0.790705565816056,
                1.0573557467365533,
                3.1851377467193758
            ]
        },
        {
            "positions": [
                2.5683294439167805,
                -1.049907189823338,
                1.7077703462760563,
                -0.7251646654187276,
                1.0416479451003566,
                3.095453099262875
            ]
        },
        {
            "positions": [
                2.508634933397312,
                -1.0854098008673754,
                1.5887006515796125,
                -0.6596237650213992,
                1.02594014346416,
                3.005768451806374
            ]
        },
        {
            "positions": [
                2.448940422877844,
                -1.1209124119114124,
                1.469630956883169,
                -0.5940828646240709,
                1.0102323418279635,
                2.916083804349873
            ]
        },
        {
            "positions": [
                2.3892459123583762,
                -1.1564150229554497,
                1.3505612621867251,
                -0.5285419642267425,
                0.9945245401917667,
                2.826399156893372
            ]
        },
        {
            "positions": [
                2.329551401838908,
                -1.191917633999487,
                1.2314915674902815,
                -0.46300106382941414,
                0.9788167385555702,
                2.736714509436871
            ]
        },
        {
            "positions": [
                2.26985689131944,
                -1.2274202450435243,
                1.112421872793838,
                -0.3974601634320858,
                0.9631089369193735,
                2.6470298619803705
            ]
        },
        {
            "positions": [
                2.2101623807999715,
                -1.2629228560875616,
                0.9933521780973942,
                -0.3319192630347574,
                0.9474011352831768,
                2.5573452145238695
            ]
        },
        {
            "positions": [
                2.1504678702805036,
                -1.2984254671315987,
                0.8742824834009505,
                -0.266378362637429,
                0.9316933336469803,
                2.4676605670673686
            ]
        },
        {
            "positions": [
                2.0907733597610356,
                -1.333928078175636,
                0.755212788704507,
                -0.20083746224010068,
                0.9159855320107836,
                2.3779759196108676
            ]
        },
        {
            "positions": [
                2.0310788492415672,
                -1.3694306892196733,
                0.6361430940080632,
                -0.13529656184277228,
                0.900277730374587,
                2.2882912721543667
            ]
        },
        {
            "positions": [
                1.9713843387220993,
                -1.4049333002637105,
                0.5170733993116197,
                -0.06975566144544387,
                0.8845699287383904,
                2.1986066246978657
            ]
        },
        {
            "positions": [
                1.9116898282026313,
                -1.4404359113077478,
                0.39800370461517587,
                -0.004214761048115578,
                0.8688621271021937,
                2.1089219772413648
            ]
        },
        {
            "positions": [
                1.851995317683163,
                -1.4759385223517851,
                0.2789340099187323,
                0.06132613934921283,
                0.853154325465997,
                2.019237329784864
            ]
        },
        {
            "positions": [
                1.792300807163695,
                -1.5114411333958224,
                0.1598643152222885,
                0.12686703974654123,
                0.8374465238298004,
                1.9295526823283629
            ]
        },
        {
            "positions": [
                1.732606296644227,
                -1.5469437444398595,
                0.04079462052584493,
                0.19240794014386953,
                0.8217387221936039,
                1.8398680348718621
            ]
        },
        {
            "positions": [
                1.6729117861247587,
                -1.5824463554838968,
                -0.07827507417059887,
                0.25794884054119804,
                0.8060309205574072,
                1.750183387415361
            ]
        },
        {
            "positions": [
                1.6132172756052905,
                -1.617948966527934,
                -0.19734476886704266,
                0.32348974093852645,
                0.7903231189212105,
                1.66049873995886
            ]
        },
        {
            "positions": [
                1.5535227650858225,
                -1.6534515775719711,
                -0.3164144635634858,
                0.38903064133585463,
                0.7746153172850139,
                1.5708140925023593
            ]
        },
        {
            "positions": [
                1.4938282545663544,
                -1.6889541886160084,
                -0.4354841582599298,
                0.45457154173318304,
                0.7589075156488173,
                1.4811294450458583
            ]
        },
        {
            "positions": [
                1.4341337440468862,
                -1.7244567996600457,
                -0.5545538529563734,
                0.5201124421305114,
                0.7431997140126206,
                1.3914447975893574
            ]
        },
        {
            "positions": [
                1.3744392335274183,
                -1.759959410704083,
                -0.673623547652817,
                0.5856533425278396,
                0.7274919123764241,
                1.3017601501328566
            ]
        },
        {
            "positions": [
                1.31474472300795,
                -1.7954620217481203,
                -0.7926932423492605,
                0.6511942429251683,
                0.7117841107402274,
                1.2120755026763554
            ]
        },
        {
            "positions": [
                1.255050212488482,
                -1.8309646327921576,
                -0.9117629370457045,
                0.7167351433224967,
                0.6960763091040307,
                1.1223908552198547
            ]
        },
        {
            "positions": [
                1.195355701969014,
                -1.8664672438361947,
                -1.0308326317421481,
                0.7822760437198248,
                0.6803685074678342,
                1.0327062077633538
            ]
        },
        {
            "positions": [
                1.1356611914495458,
                -1.901969854880232,
                -1.1499023264385917,
                0.8478169441171532,
                0.6646607058316375,
                0.9430215603068526
            ]
        },
        {
            "positions": [
                1.005194788161471,
                -1.9520666113944527,
                -1.1720888244517556,
                0.8153795644223762,
                0.6147642622002075,
                0.8621553416798093
            ]
        },
        {
            "positions": [
                0.874728384873396,
                -2.0021633679086737,
                -1.1942753224649192,
                0.7829421847275992,
                0.5648678185687775,
                0.7812891230527662
            ]
        },
        {
            "positions": [
                0.7442619815853211,
                -2.052260124422894,
                -1.216461820478083,
                0.7505048050328224,
                0.5149713749373476,
                0.700422904425723
            ]
        },
        {
            "positions": [
                0.6137955782972463,
                -2.102356880937115,
                -1.238648318491247,
                0.7180674253380454,
                0.4650749313059176,
                0.6195566857986798
            ]
        },
        {
            "positions": [
                0.4833291750091714,
                -2.1524536374513357,
                -1.2608348165044108,
                0.6856300456432683,
                0.4151784876744877,
                0.5386904671716366
            ]
        },
        {
            "positions": [
                0.3528627717210965,
                -2.2025503939655566,
                -1.2830213145175744,
                0.6531926659484913,
                0.3652820440430577,
                0.4578242485445934
            ]
        },
        {
            "positions": [
                0.22239636843302169,
                -2.252647150479777,
                -1.3052078125307383,
                0.6207552862537145,
                0.3153856004116278,
                0.37695802991755023
            ]
        },
        {
            "positions": [
                0.09192996514494678,
                -2.302743906993998,
                -1.3273943105439021,
                0.5883179065589375,
                0.26548915678019774,
                0.296091811290507
            ]
        },
        {
            "positions": [
                -0.03853643814312813,
                -2.3528406635082186,
                -1.3495808085570657,
                0.5558805268641605,
                0.21559271314876782,
                0.21522559266346375
            ]
        },
        {
            "positions": [
                -0.16900284143120312,
                -2.4029374200224396,
                -1.3717673065702296,
                0.5234431471693834,
                0.16569626951733787,
                0.1343593740364206
            ]
        }
    ]
}