{
    "goal": {
        "global_pose": {
            "orientation": {
                "w": -0.00223480608172531,
                "x": 0.0024358444001904467,
                "y": 0.7094548369677653,
                "z": -0.704743149386269
            },
            "position": {
                "x": 0.6205249238014221,
                "y": -0.6371506643295288,
                "z": 0.19426114857196808
            }
        },
        "name": "move_to_magneteinheit_B"
    },
    "id": "KPIECE_move_to_magneteinheit_B_84",
    "joint_names": [
        "shoulder_pan_joint",
        "shoulder_lift_joint",
        "elbow_joint",
        "wrist_1_joint",
        "wrist_2_joint",
        "wrist_3_joint"
    ],
    "metrics": {
        "cart_traj_len": 3.319819535023796,
        "distance_elbow_joint": 4.323495539317483,
        "distance_shoulder_lift_joint": 0.5672141890868632,
        "distance_shoulder_pan_joint": 1.9959342206479778,
        "distance_wrist_1_joint": 1.9450057277325508,
        "distance_wrist_2_joint": 1.121414411528884,
        "distance_wrist_3_joint": 3.3329434227101973,
        "smoothness": 0.4443386733301958,
        "time": 3.665092048,
        "traj_len": 3.644997600962716,
        "weighted_distance": 4.797740561525371
    },
    "planner": "KPIECE",
    "start": {
        "state": {
            "elbow_joint": 2.3935871308073637,
            "shoulder_lift_joint": -1.9085141043777403,
            "shoulder_pan_joint": 0.7066247067284167,
            "wrist_1_joint": -0.46782909355067076,
            "wrist_2_joint": 0.7096259085804283,
            "wrist_3_joint": -3.1358149275257428
        }
    },
    "waypoints": [
        {
            "positions": [
                0.7066247067284167,
                -1.9085141043777403,
                2.3935871308073637,
                -0.46782909355067076,
                0.7096259085804283,
                -3.1358149275257428
            ]
        },
        {
            "positions": [
                0.7260665235904329,
                -1.9470458545108804,
                2.4008063123922097,
                -0.47644236604557477,
                0.6326347672996122,
                -2.958971427050748
            ]
        },
        {
            "positions": [
                0.745508340452449,
                -1.9855776046440206,
                2.408025493977055,
                -0.4850556385404788,
                0.5556436260187962,
                -2.782127926575753
            ]
        },
        {
            "positions": [
                0.7649501573144651,
                -2.0241093547771607,
                2.415244675561901,
                -0.4936689110353828,
                0.4786524847379802,
                -2.6052844261007584
            ]
        },
        {
            "positions": [
                0.8299309739209895,
                -2.027426979116377,
                2.260019706019641,
                -0.43789144325397716,
                0.46400559622850546,
                -2.5116340090967273
            ]
        },
        {
            "positions": [
                0.8949117905275139,
                -2.0307446034555934,
                2.1047947364773814,
                -0.38211397547257153,
                0.4493587077190307,
                -2.4179835920926958
            ]
        },
        {
            "positions": [
                0.9598926071340382,
                -2.03406222779481,
                1.9495697669351215,
                -0.32633650769116584,
                0.4347118192095559,
                -2.3243331750886647
            ]
        },
        {
            "positions": [
                1.0248734237405626,
                -2.0373798521340265,
                1.7943447973928617,
                -0.27055903990976027,
                0.4200649307000812,
                -2.2306827580846336
            ]
        },
        {
            "positions": [
                1.089854240347087,
                -2.040697476473243,
                1.6391198278506016,
                -0.21478157212835458,
                0.40541804219060645,
                -2.137032341080602
            ]
        },
        {
            "positions": [
                1.1548350569536114,
                -2.044015100812459,
                1.4838948583083418,
                -0.15900410434694895,
                0.3907711536811317,
                -2.043381924076571
            ]
        },
        {
            "positions": [
                1.2198158735601357,
                -2.0473327251516755,
                1.328669888766082,
                -0.10322663656554332,
                0.3761242651716569,
                -1.9497315070725398
            ]
        },
        {
            "positions": [
                1.28479669016666,
                -2.050650349490892,
                1.173444919223822,
                -0.047449168784137685,
                0.36147737666218216,
                -1.8560810900685085
            ]
        },
        {
            "positions": [
                1.3497775067731843,
                -2.0539679738301087,
                1.018219949681562,
                0.008328298997267947,
                0.3468304881527074,
                -1.7624306730644772
            ]
        },
        {
            "positions": [
                1.4147583233797087,
                -2.057285598169325,
                0.8629949801393022,
                0.06410576677867363,
                0.33218359964323263,
                -1.668780256060446
            ]
        },
        {
            "positions": [
                1.4797391399862332,
                -2.0606032225085413,
                0.7077700105970424,
                0.11988323456007921,
                0.3175367111337579,
                -1.5751298390564148
            ]
        },
        {
            "positions": [
                1.5447199565927576,
                -2.0639208468477577,
                0.5525450410547825,
                0.1756607023414849,
                0.3028898226242831,
                -1.4814794220523835
            ]
        },
        {
            "positions": [
                1.609700773199282,
                -2.067238471186974,
                0.3973200715125227,
                0.23143817012289047,
                0.2882429341148084,
                -1.3878290050483524
            ]
        },
        {
            "positions": [
                1.6746815898058063,
                -2.070556095526191,
                0.24209510197026285,
                0.28721563790429616,
                0.2735960456053336,
                -1.294178588044321
            ]
        },
        {
            "positions": [
                1.739662406412331,
                -2.073873719865407,
                0.08687013242800257,
                0.34299310568570185,
                0.25894915709585886,
                -1.2005281710402897
            ]
        },
        {
            "positions": [
                1.804643223018855,
                -2.0771913442046235,
                -0.06835483711425683,
                0.3987705734671074,
                0.2443022685863841,
                -1.1068777540362587
            ]
        },
        {
            "positions": [
                1.8696240396253794,
                -2.08050896854384,
                -0.2235798066565171,
                0.4545480412485131,
                0.2296553800769093,
                -1.0132273370322271
            ]
        },
        {
            "positions": [
                1.9346048562319038,
                -2.083826592883056,
                -0.37880477619877695,
                0.5103255090299187,
                0.21500849156743457,
                -0.919576920028196
            ]
        },
        {
            "positions": [
                1.9995856728384283,
                -2.087144217222273,
                -0.5340297457410368,
                0.5661029768113245,
                0.2003616030579598,
                -0.8259265030241647
            ]
        },
        {
            "positions": [
                2.0645664894449527,
                -2.0904618415614893,
                -0.6892547152832966,
                0.6218804445927301,
                0.1857147145484851,
                -0.7322760860201336
            ]
        },
        {
            "positions": [
                2.129547306051477,
                -2.0937794659007056,
                -0.8444796848255565,
                0.6776579123741356,
                0.17106782603901027,
                -0.6386256690161023
            ]
        },
        {
            "positions": [
                2.194528122658001,
                -2.097097090239922,
                -0.9997046543678163,
                0.7334353801555412,
                0.15642093752953556,
                -0.5449752520120712
            ]
        },
        {
            "positions": [
                2.2595089392645256,
                -2.1004147145791383,
                -1.1549296239100766,
                0.789212847936947,
                0.14177404902006074,
                -0.45132483500803966
            ]
        },
        {
            "positions": [
                2.32448975587105,
                -2.1037323389183546,
                -1.310154593452336,
                0.8449903157183526,
                0.12712716051058603,
                -0.35767441800400857
            ]
        },
        {
            "positions": [
                2.3894705724775744,
                -2.1070499632575714,
                -1.4653795629945963,
                0.9007677834997582,
                0.11248027200111127,
                -0.26402400099997747
            ]
        },
        {
            "positions": [
                2.454451389084099,
                -2.1103675875967878,
                -1.6206045325368557,
                0.9565452512811637,
                0.0978333834916365,
                -0.17037358399594638
            ]
        },
        {
            "positions": [
                2.5194322056906233,
                -2.113685211936004,
                -1.7758295020791155,
                1.0123227190625697,
                0.08318649498216171,
                -0.07672316699191492
            ]
        },
        {
            "positions": [
                2.5734129578914806,
                -2.168525279352944,
                -1.7769655684156302,
                1.075206194038177,
                0.23240898445526068,
                -0.01357157734683899
            ]
        },
        {
            "positions": [
                2.6273937100923384,
                -2.2233653467698837,
                -1.778101634752145,
                1.1380896690137845,
                0.3816314739283596,
                0.04958001229823694
            ]
        },
        {
            "positions": [
                2.6813744622931956,
                -2.2782054141868238,
                -1.7792377010886598,
                1.2009731439893918,
                0.5308539634014586,
                0.11273160194331289
            ]
        },
        {
            "positions": [
                2.6707822297515964,
                -2.3769668538257136,
                -1.7255598921324675,
                1.0887112163778598,
                0.5072001986457984,
                0.07053315532274179
            ]
        },
        {
            "positions": [
                2.6601899972099967,
                -2.4757282934646034,
                -1.6718820831762753,
                0.9764492887663277,
                0.48354643389013796,
                0.02833470870217069
            ]
        }
    ]
}