{
    "goal": {
        "global_pose": {
            "orientation": {
                "w": 0.005598929693374612,
                "x": 0.007748599140229565,
                "y": 0.7110244013736278,
                "z": -0.7031023480610252
            },
            "position": {
                "x": 0.1141497679147869,
                "y": -0.7141253447532654,
                "z": 0.3711530566215515
            }
        },
        "name": "move_to_auspresseinheit_B"
    },
    "id": "KPIECE_move_to_auspresseinheit_B_9",
    "joint_names": [
        "shoulder_pan_joint",
        "shoulder_lift_joint",
        "elbow_joint",
        "wrist_1_joint",
        "wrist_2_joint",
        "wrist_3_joint"
    ],
    "metrics": {
        "cart_traj_len": 0.5638964945978362,
        "distance_elbow_joint": 0.059519578942991425,
        "distance_shoulder_lift_joint": 0.29621725631164164,
        "distance_shoulder_pan_joint": 0.5774777454863214,
        "distance_wrist_1_joint": 0.3185948644638926,
        "distance_wrist_2_joint": 0.9870902429837338,
        "distance_wrist_3_joint": 0.0019094251295350695,
        "smoothness": 2.5376526478085547e-16,
        "time": 0.1379902,
        "traj_len": 1.496933236092417,
        "weighted_distance": 1.8842274467337568
    },
    "planner": "KPIECE",
    "start": {
        "state": {
            "elbow_joint": 2.019306165916698,
            "shoulder_lift_joint": -1.1220205098164344,
            "shoulder_pan_joint": -1.095207207618794,
            "wrist_1_joint": -0.8559671824921639,
            "wrist_2_joint": 0.47596387242952726,
            "wrist_3_joint": 3.159081874673826
        }
    },
    "waypoints": [
        {
            "positions": [
                -1.095207207618794,
                -1.1220205098164344,
                2.019306165916698,
                -0.8559671824921639,
                0.47596387242952726,
                3.159081874673826
            ]
        },
        {
            "positions": [
                -1.1914534985331808,
                -1.1713900525350414,
                2.0093862360928663,
                -0.8028680384148484,
                0.6404789129268162,
                3.159400112195415
            ]
        },
        {
            "positions": [
                -1.2876997894475677,
                -1.2207595952536483,
                1.999466306269034,
                -0.749768894337533,
                0.8049939534241052,
                3.159718349717004
            ]
        },
        {
            "positions": [
                -1.3839460803619548,
                -1.2701291379722552,
                1.9895463764452024,
                -0.6966697502602175,
                0.9695089939213941,
                3.1600365872385936
            ]
        },
        {
            "positions": [
                -1.4801923712763414,
                -1.3194986806908622,
                1.9796264466213704,
                -0.6435706061829021,
                1.1340240344186832,
                3.1603548247601827
            ]
        },
        {
            "positions": [
                -1.5764386621907285,
                -1.3688682234094691,
                1.9697065167975385,
                -0.5904714621055867,
                1.2985390749159722,
                3.160673062281772
            ]
        },
        {
            "positions": [
                -1.6726849531051153,
                -1.418237766128076,
                1.9597865869737066,
                -0.5373723180282712,
                1.463054115413261,
                3.160991299803361
            ]
        }
    ]
}