{
    "goal": {
        "global_pose": {
            "orientation": {
                "w": -0.00223480608172531,
                "x": 0.0024358444001904467,
                "y": 0.7094548369677653,
                "z": -0.704743149386269
            },
            "position": {
                "x": -0.37947507619857795,
                "y": -0.6371506643295288,
                "z": 0.19426114857196808
            }
        },
        "name": "move_to_magneteinheit_C"
    },
    "id": "KPIECE_move_to_magneteinheit_C_7",
    "joint_names": [
        "shoulder_pan_joint",
        "shoulder_lift_joint",
        "elbow_joint",
        "wrist_1_joint",
        "wrist_2_joint",
        "wrist_3_joint"
    ],
    "metrics": {
        "cart_traj_len": 1.5484537310138335,
        "distance_elbow_joint": 1.2650370077640853,
        "distance_shoulder_lift_joint": 0.7495744137903182,
        "distance_shoulder_pan_joint": 1.3659474666453897,
        "distance_wrist_1_joint": 1.3361771766120873,
        "distance_wrist_2_joint": 1.0233245359889496,
        "distance_wrist_3_joint": 3.9584835269956904,
        "smoothness": 0.49193857334092206,
        "time": 2.3439455060000003,
        "traj_len": 3.1142485655124776,
        "weighted_distance": 4.469341438555455
    },
    "planner": "KPIECE",
    "start": {
        "state": {
            "elbow_joint": 1.9565354006590394,
            "shoulder_lift_joint": -1.4165861576513559,
            "shoulder_pan_joint": -1.6717766223277177,
            "wrist_1_joint": -0.5286633288215096,
            "wrist_2_joint": 1.4727565892594296,
            "wrist_3_joint": 3.1593482883155493
        }
    },
    "waypoints": [
        {
            "positions": [
                -1.6717766223277177,
                -1.4165861576513559,
                1.9565354006590394,
                -0.5286633288215096,
                1.4727565892594296,
                3.1593482883155493
            ]
        },
        {
            "positions": [
                -1.606314141660092,
                -1.4228640085473363,
                1.9398380554868886,
                -0.47667486537326065,
                1.4516925540466412,
                2.9645919691368854
            ]
        },
        {
            "positions": [
                -1.5408516609924663,
                -1.429141859443317,
                1.9231407103147375,
                -0.4246864019250117,
                1.4306285188338526,
                2.769835649958221
            ]
        },
        {
            "positions": [
                -1.4753891803248405,
                -1.4354197103392974,
                1.9064433651425867,
                -0.3726979384767628,
                1.4095644836210641,
                2.575079330779557
            ]
        },
        {
            "positions": [
                -1.5037220596374505,
                -1.4453099057621188,
                1.8445677732932897,
                -0.3319710834578564,
                1.3320200748607416,
                2.425329140293211
            ]
        },
        {
            "positions": [
                -1.5320549389500604,
                -1.4552001011849405,
                1.7826921814439929,
                -0.29124422843895004,
                1.254475666100419,
                2.2755789498068646
            ]
        },
        {
            "positions": [
                -1.5603878182626705,
                -1.465090296607762,
                1.7208165895946959,
                -0.25051737342004365,
                1.1769312573400963,
                2.1258287593205183
            ]
        },
        {
            "positions": [
                -1.5887206975752806,
                -1.4749804920305833,
                1.6589409977453988,
                -0.20979051840113724,
                1.0993868485797738,
                1.976078568834172
            ]
        },
        {
            "positions": [
                -1.6170535768878904,
                -1.484870687453405,
                1.5970654058961018,
                -0.1690636633822308,
                1.0218424398194512,
                1.8263283783478257
            ]
        },
        {
            "positions": [
                -1.6453864562005005,
                -1.4947608828762264,
                1.535189814046805,
                -0.12833680836332445,
                0.9442980310591287,
                1.6765781878614794
            ]
        },
        {
            "positions": [
                -1.6737193355131106,
                -1.5046510782990479,
                1.473314222197508,
                -0.08760995334441801,
                0.866753622298806,
                1.526827997375133
            ]
        },
        {
            "positions": [
                -1.7020522148257204,
                -1.5145412737218695,
                1.4114386303482112,
                -0.046883098325511685,
                0.7892092135384835,
                1.3770778068887868
            ]
        },
        {
            "positions": [
                -1.7303850941383305,
                -1.524431469144691,
                1.3495630384989141,
                -0.006156243306605257,
                0.7116648047781609,
                1.2273276164024405
            ]
        },
        {
            "positions": [
                -1.8617612689596081,
                -1.551974320997099,
                1.377919092073231,
                -0.033148228375419475,
                0.6731412296636303,
                1.1926527028954097
            ]
        },
        {
            "positions": [
                -1.9931374437808858,
                -1.5795171728495072,
                1.4062751456475477,
                -0.06014021344423369,
                0.6346176545490998,
                1.157977789388379
            ]
        },
        {
            "positions": [
                -2.075486858749473,
                -1.597070001495662,
                1.4464099148797085,
                -0.08754197607440176,
                0.6290724746796446,
                1.1663764242292824
            ]
        },
        {
            "positions": [
                -2.1759618667126857,
                -1.6138388392331182,
                1.5400837103140284,
                -0.12803444674618314,
                0.6495575910643692,
                1.2496288486423208
            ]
        },
        {
            "positions": [
                -2.2764368746758987,
                -1.6306076769705744,
                1.6337575057483482,
                -0.16852691741796452,
                0.6700427074490938,
                1.3328812730553592
            ]
        },
        {
            "positions": [
                -2.376911882639112,
                -1.6473765147080306,
                1.727431301182668,
                -0.2090193880897459,
                0.6905278238338184,
                1.4161336974683973
            ]
        },
        {
            "positions": [
                -2.4773868906023244,
                -1.6641453524454868,
                1.821105096616988,
                -0.2495118587615273,
                0.711012940218543,
                1.4993861218814357
            ]
        },
        {
            "positions": [
                -2.4978149008273847,
                -1.6326219476203732,
                1.8647855167207597,
                -0.2986687434707676,
                0.7193066158743193,
                1.6455899859638194
            ]
        },
        {
            "positions": [
                -2.518242911052445,
                -1.6010985427952593,
                1.9084659368245314,
                -0.34782562818000795,
                0.7276002915300956,
                1.791793850046203
            ]
        },
        {
            "positions": [
                -2.5386709212775047,
                -1.5695751379701457,
                1.9521463569283033,
                -0.39698251288924824,
                0.7358939671858721,
                1.9379977141285867
            ]
        },
        {
            "positions": [
                -2.559098931502565,
                -1.538051733145032,
                1.995826777032075,
                -0.4461393975984886,
                0.7441876428416484,
                2.0842015782109704
            ]
        },
        {
            "positions": [
                -2.5419288768096076,
                -1.4628674132058856,
                1.9981869584462348,
                -0.5208767849595487,
                0.7312825921922163,
                2.290379426060156
            ]
        },
        {
            "positions": [
                -2.5247588221166497,
                -1.387683093266739,
                2.0005471398603945,
                -0.5956141723206088,
                0.7183775415427841,
                2.496557273909342
            ]
        },
        {
            "positions": [
                -2.5075887674236923,
                -1.3124987733275926,
                2.0029073212745545,
                -0.6703515596816688,
                0.7054724908933521,
                2.7027351217585274
            ]
        },
        {
            "positions": [
                -2.4904187127307345,
                -1.237314453388446,
                2.0052675026887146,
                -0.7450889470427289,
                0.6925674402439199,
                2.908912969607713
            ]
        },
        {
            "positions": [
                -2.473248658037777,
                -1.1621301334492995,
                2.007627684102874,
                -0.8198263344037889,
                0.6796623895944878,
                3.115090817456899
            ]
        }
    ]
}