{
    "goal": {
        "global_pose": {
            "orientation": {
                "w": 0.7047431493862688,
                "x": -0.7094548369677653,
                "y": 0.0024358444001904,
                "z": -0.0022348060817251984
            },
            "position": {
                "x": -0.39052492380142206,
                "y": 0.3671506643295288,
                "z": 0.19426114857196808
            }
        },
        "name": "move_to_magneteinheit_D"
    },
    "id": "KPIECE_move_to_magneteinheit_D_119",
    "joint_names": [
        "shoulder_pan_joint",
        "shoulder_lift_joint",
        "elbow_joint",
        "wrist_1_joint",
        "wrist_2_joint",
        "wrist_3_joint"
    ],
    "metrics": {
        "cart_traj_len": 7.067661943540689,
        "distance_elbow_joint": 3.482720565090326,
        "distance_shoulder_lift_joint": 1.0998749680760473,
        "distance_shoulder_pan_joint": 8.670269337739224,
        "distance_wrist_1_joint": 8.863829911273658,
        "distance_wrist_2_joint": 1.9391837562299974,
        "distance_wrist_3_joint": 8.369293634264665,
        "smoothness": 0.3489417044194043,
        "time": 0.16125822899999998,
        "traj_len": 5.694310508979459,
        "weighted_distance": 7.743821608786382
    },
    "planner": "KPIECE",
    "start": {
        "state": {
            "elbow_joint": 0.7495348899011973,
            "shoulder_lift_joint": -0.6476975780737697,
            "shoulder_pan_joint": -2.711696901376276,
            "wrist_1_joint": -0.07506478080974305,
            "wrist_2_joint": 0.4329665971545858,
            "wrist_3_joint": 3.1361499051832524
        }
    },
    "waypoints": [
        {
            "positions": [
                -2.711696901376276,
                -0.6476975780737697,
                0.7495348899011973,
                -0.07506478080974305,
                0.4329665971545858,
                3.1361499051832524
            ]
        },
        {
            "positions": [
                -2.721267811058579,
                -0.6631857987853935,
                0.7739822925666402,
                -0.16622485750234514,
                0.48482535042978203,
                3.0303394584681316
            ]
        },
        {
            "positions": [
                -2.7308387207408815,
                -0.6786740194970173,
                0.7984296952320831,
                -0.25738493419494723,
                0.5366841037049782,
                2.9245290117530107
            ]
        },
        {
            "positions": [
                -2.7404096304231844,
                -0.6941622402086411,
                0.8228770978975259,
                -0.34854501088754936,
                0.5885428569801745,
                2.81871856503789
            ]
        },
        {
            "positions": [
                -2.7499805401054873,
                -0.709650460920265,
                0.8473245005629688,
                -0.4397050875801514,
                0.6404016102553707,
                2.712908118322769
            ]
        },
        {
            "positions": [
                -2.737030958610578,
                -0.7384839814729041,
                0.8623486916277359,
                -0.5498638691829094,
                0.7060070934159647,
                2.5702361937642064
            ]
        },
        {
            "positions": [
                -2.7240813771156684,
                -0.7673175020255432,
                0.877372882692503,
                -0.6600226507856672,
                0.7716125765765586,
                2.4275642692056443
            ]
        },
        {
            "positions": [
                -2.7111317956207595,
                -0.7961510225781823,
                0.8923970737572701,
                -0.7701814323884253,
                0.8372180597371526,
                2.2848923446470817
            ]
        },
        {
            "positions": [
                -2.69818221412585,
                -0.8249845431308214,
                0.9074212648220371,
                -0.8803402139911831,
                0.9028235428977465,
                2.1422204200885195
            ]
        },
        {
            "positions": [
                -2.6852326326309406,
                -0.8538180636834605,
                0.9224454558868043,
                -0.9904989955939412,
                0.9684290260583406,
                1.999548495529957
            ]
        },
        {
            "positions": [
                -2.672283051136031,
                -0.8826515842360996,
                0.9374696469515713,
                -1.100657777196699,
                1.0340345092189345,
                1.8568765709713946
            ]
        },
        {
            "positions": [
                -2.592335392904932,
                -0.9239816920591166,
                0.898176520701985,
                -1.1397504578336326,
                1.066349367890242,
                1.7607259174267722
            ]
        },
        {
            "positions": [
                -2.512387734673833,
                -0.9653117998821336,
                0.8588833944523986,
                -1.178843138470566,
                1.0986642265615496,
                1.66457526388215
            ]
        },
        {
            "positions": [
                -2.359205876041737,
                -0.9824121893934279,
                0.7906944100589917,
                -1.082721750808187,
                1.0733238994201124,
                1.6948327920132866
            ]
        },
        {
            "positions": [
                -2.2060240174096415,
                -0.9995125789047221,
                0.7225054256655846,
                -0.986600363145808,
                1.0479835722786752,
                1.7250903201444234
            ]
        },
        {
            "positions": [
                -2.0528421587775463,
                -1.0166129684160166,
                0.6543164412721776,
                -0.8904789754834289,
                1.0226432451372378,
                1.75534784827556
            ]
        },
        {
            "positions": [
                -1.8996603001454506,
                -1.0337133579273108,
                0.5861274568787707,
                -0.7943575878210499,
                0.9973029179958006,
                1.7856053764066968
            ]
        },
        {
            "positions": [
                -1.746478441513355,
                -1.050813747438605,
                0.5179384724853637,
                -0.6982362001586709,
                0.9719625908543634,
                1.8158629045378334
            ]
        },
        {
            "positions": [
                -1.5932965828812593,
                -1.0679141369498995,
                0.4497494880919567,
                -0.6021148124962918,
                0.9466222637129261,
                1.8461204326689702
            ]
        },
        {
            "positions": [
                -1.4401147242491639,
                -1.0850145264611937,
                0.3815605036985497,
                -0.5059934248339129,
                0.9212819365714889,
                1.8763779608001068
            ]
        },
        {
            "positions": [
                -1.2869328656170682,
                -1.102114915972488,
                0.31337151930514273,
                -0.40987203717153387,
                0.8959416094300516,
                1.9066354889312436
            ]
        },
        {
            "positions": [
                -1.1337510069849728,
                -1.1192153054837823,
                0.2451825349117358,
                -0.3137506495091549,
                0.8706012822886144,
                1.9368930170623802
            ]
        },
        {
            "positions": [
                -0.9805691483528771,
                -1.1363156949950766,
                0.17699355051832888,
                -0.2176292618467759,
                0.8452609551471773,
                1.967150545193517
            ]
        },
        {
            "positions": [
                -0.8273872897207817,
                -1.1534160845063708,
                0.10880456612492184,
                -0.1215078741843969,
                0.81992062800574,
                1.9974080733246535
            ]
        },
        {
            "positions": [
                -0.674205431088686,
                -1.1705164740176652,
                0.040615581731514805,
                -0.025386486522017693,
                0.7945803008643026,
                2.0276656014557903
            ]
        },
        {
            "positions": [
                -0.5210235724565904,
                -1.1876168635289595,
                -0.02757340266189212,
                0.0707349011403613,
                0.7692399737228655,
                2.057923129586927
            ]
        },
        {
            "positions": [
                -0.36784171382449493,
                -1.2047172530402537,
                -0.09576238705529916,
                0.16685628880274028,
                0.7438996465814283,
                2.0881806577180635
            ]
        },
        {
            "positions": [
                -0.21465985519239927,
                -1.2218176425515481,
                -0.16395137144870597,
                0.26297767646511927,
                0.7185593194399911,
                2.1184381858492003
            ]
        },
        {
            "positions": [
                -0.061477996560303616,
                -1.2389180320628423,
                -0.23214035584211312,
                0.35909906412749826,
                0.6932189922985538,
                2.148695713980337
            ]
        },
        {
            "positions": [
                0.09170386207179204,
                -1.2560184215741366,
                -0.30032934023552005,
                0.45522045178987725,
                0.6678786651571165,
                2.178953242111474
            ]
        },
        {
            "positions": [
                0.24488572070388726,
                -1.273118811085431,
                -0.368518324628927,
                0.5513418394522562,
                0.6425383380156793,
                2.2092107702426103
            ]
        },
        {
            "positions": [
                0.3980675793359829,
                -1.2902192005967252,
                -0.4367073090223339,
                0.6474632271146352,
                0.6171980108742421,
                2.239468298373747
            ]
        },
        {
            "positions": [
                0.5512494379680786,
                -1.3073195901080195,
                -0.5048962934157408,
                0.7435846147770142,
                0.5918576837328048,
                2.269725826504884
            ]
        },
        {
            "positions": [
                0.7044312966001742,
                -1.324419979619314,
                -0.573085277809148,
                0.8397060024393934,
                0.5665173565913676,
                2.29998335463602
            ]
        },
        {
            "positions": [
                0.8576131552322694,
                -1.3415203691306081,
                -0.6412742622025549,
                0.9358273901017722,
                0.5411770294499303,
                2.330240882767157
            ]
        },
        {
            "positions": [
                1.010795013864365,
                -1.3586207586419026,
                -0.7094632465959618,
                1.0319487777641514,
                0.5158367023084931,
                2.360498410898294
            ]
        },
        {
            "positions": [
                1.1639768724964608,
                -1.3757211481531968,
                -0.777652230989369,
                1.1280701654265306,
                0.4904963751670558,
                2.3907559390294306
            ]
        },
        {
            "positions": [
                1.3171587311285564,
                -1.3928215376644912,
                -0.8458412153827759,
                1.2241915530889094,
                0.4651560480256185,
                2.4210134671605674
            ]
        },
        {
            "positions": [
                1.470340589760652,
                -1.4099219271757855,
                -0.9140301997761828,
                1.3203129407512886,
                0.4398157208841813,
                2.451270995291704
            ]
        },
        {
            "positions": [
                1.6235224483927477,
                -1.4270223166870797,
                -0.98221918416959,
                1.4164343284136678,
                0.414475393742744,
                2.4815285234228406
            ]
        },
        {
            "positions": [
                1.776704307024843,
                -1.4441227061983741,
                -1.050408168562997,
                1.5125557160760466,
                0.3891350666013068,
                2.5117860515539774
            ]
        },
        {
            "positions": [
                1.929886165656939,
                -1.4612230957096684,
                -1.1185971529564038,
                1.6086771037384258,
                0.3637947394598695,
                2.542043579685114
            ]
        },
        {
            "positions": [
                2.0830680242890343,
                -1.4783234852209626,
                -1.1867861373498105,
                1.7047984914008045,
                0.33845441231843243,
                2.5723011078162505
            ]
        },
        {
            "positions": [
                2.2362498829211295,
                -1.495423874732257,
                -1.2549751217432175,
                1.8009198790631833,
                0.3131140851769951,
                2.6025586359473873
            ]
        },
        {
            "positions": [
                2.3894317415532256,
                -1.5125242642435512,
                -1.3231641061366248,
                1.8970412667255625,
                0.28777375803555794,
                2.632816164078524
            ]
        },
        {
            "positions": [
                2.542613600185321,
                -1.5296246537548455,
                -1.3913530905300318,
                1.9931626543879417,
                0.26243343089412063,
                2.663073692209661
            ]
        },
        {
            "positions": [
                2.695795458817417,
                -1.54672504326614,
                -1.4595420749234387,
                2.0892840420503207,
                0.23709310375268344,
                2.6933312203407973
            ]
        },
        {
            "positions": [
                2.8489773174495117,
                -1.5638254327774341,
                -1.5277310593168454,
                2.1854054297127,
                0.21175277661124614,
                2.723588748471934
            ]
        },
        {
            "positions": [
                2.768032215933394,
                -1.568471158875484,
                -1.5498869935745154,
                2.067900619887381,
                0.20193219135584706,
                2.569010475388383
            ]
        },
        {
            "positions": [
                2.687087114417277,
                -1.5731168849735337,
                -1.5720429278321857,
                1.9503958100620615,
                0.192111606100448,
                2.4144322023048317
            ]
        },
        {
            "positions": [
                2.6061420129011594,
                -1.5777626110715837,
                -1.594198862089856,
                1.8328910002367422,
                0.18229102084504892,
                2.2598539292212805
            ]
        },
        {
            "positions": [
                2.5251969113850423,
                -1.5824083371696334,
                -1.616354796347526,
                1.7153861904114232,
                0.17247043558964986,
                2.1052756561377293
            ]
        },
        {
            "positions": [
                2.4442518098689248,
                -1.5870540632676833,
                -1.638510730605196,
                1.5978813805861038,
                0.16264985033425078,
                1.9506973830541783
            ]
        },
        {
            "positions": [
                2.3633067083528077,
                -1.591699789365733,
                -1.6606666648628663,
                1.4803765707607845,
                0.1528292650788517,
                1.796119109970627
            ]
        },
        {
            "positions": [
                2.28236160683669,
                -1.596345515463783,
                -1.6828225991205366,
                1.3628717609354655,
                0.14300867982345264,
                1.6415408368870759
            ]
        },
        {
            "positions": [
                2.201416505320573,
                -1.6009912415618328,
                -1.7049785333782066,
                1.2453669511101464,
                0.13318809456805358,
                1.4869625638035247
            ]
        },
        {
            "positions": [
                2.1204714038044554,
                -1.6056369676598825,
                -1.7271344676358766,
                1.127862141284827,
                0.12336750931265449,
                1.3323842907199737
            ]
        },
        {
            "positions": [
                2.039526302288338,
                -1.6102826937579324,
                -1.749290401893547,
                1.0103573314595078,
                0.11354692405725542,
                1.1778060176364225
            ]
        },
        {
            "positions": [
                1.9585812007722208,
                -1.6149284198559821,
                -1.771446336151217,
                0.8928525216341887,
                0.10372633880185635,
                1.0232277445528712
            ]
        },
        {
            "positions": [
                1.8776360992561034,
                -1.619574145954032,
                -1.7936022704088872,
                0.7753477118088694,
                0.09390575354645728,
                0.86864947146932
            ]
        },
        {
            "positions": [
                1.796690997739986,
                -1.6242198720520817,
                -1.8157582046665572,
                0.6578429019835503,
                0.0840851682910582,
                0.7140711983857688
            ]
        },
        {
            "positions": [
                1.7157458962238687,
                -1.6288655981501317,
                -1.8379141389242275,
                0.540338092158231,
                0.07426458303565914,
                0.5594929253022176
            ]
        },
        {
            "positions": [
                1.6348007947077512,
                -1.6335113242481816,
                -1.8600700731818978,
                0.42283328233291173,
                0.06444399778026005,
                0.4049146522186664
            ]
        },
        {
            "positions": [
                1.5538556931916339,
                -1.6381570503462313,
                -1.8822260074395678,
                0.30532847250759265,
                0.054623412524861,
                0.2503363791351152
            ]
        },
        {
            "positions": [
                1.4729105916755165,
                -1.6428027764442812,
                -1.9043819416972378,
                0.18782366268227335,
                0.044802827269461915,
                0.09575810605156443
            ]
        },
        {
            "positions": [
                1.3919654901593992,
                -1.6474485025423309,
                -1.926537875954908,
                0.07031885285695427,
                0.03498224201406283,
                -0.05882016703198678
            ]
        },
        {
            "positions": [
                1.311020388643282,
                -1.6520942286403808,
                -1.9486938102125781,
                -0.047185956968364806,
                0.025161656758663803,
                -0.213398440115538
            ]
        },
        {
            "positions": [
                1.2300752871271645,
                -1.6567399547384305,
                -1.9708497444702484,
                -0.16469076679368433,
                0.015341071503264692,
                -0.3679767131990892
            ]
        },
        {
            "positions": [
                1.1491301856110474,
                -1.6613856808364804,
                -1.9930056787279185,
                -0.28219557661900296,
                0.005520486247865636,
                -0.52255498628264
            ]
        },
        {
            "positions": [
                1.0681850840949298,
                -1.6660314069345303,
                -2.0151616129855885,
                -0.3997003864443225,
                -0.004300099007533448,
                -0.6771332593661916
            ]
        },
        {
            "positions": [
                0.9872399825788125,
                -1.67067713303258,
                -2.0373175472432585,
                -0.5172051962696416,
                -0.014120684262932504,
                -0.8317115324497424
            ]
        },
        {
            "positions": [
                0.9062948810626952,
                -1.67532285913063,
                -2.059473481500929,
                -0.6347100060949611,
                -0.023941269518331587,
                -0.986289805533294
            ]
        },
        {
            "positions": [
                0.8253497795465781,
                -1.6799685852286796,
                -2.081629415758599,
                -0.7522148159202802,
                -0.03376185477373064,
                -1.1408680786168448
            ]
        },
        {
            "positions": [
                0.7444046780304605,
                -1.6846143113267296,
                -2.1037853500162695,
                -0.8697196257455992,
                -0.043582440029129754,
                -1.2954463517003965
            ]
        },
        {
            "positions": [
                0.6634595765143434,
                -1.6892600374247793,
                -2.1259412842739396,
                -0.9872244355709183,
                -0.05340302528452878,
                -1.4500246247839468
            ]
        },
        {
            "positions": [
                0.5825144749982258,
                -1.6939057635228292,
                -2.1480972185316096,
                -1.1047292453962378,
                -0.06322361053992787,
                -1.6046028978674989
            ]
        },
        {
            "positions": [
                0.5015693734821083,
                -1.698551489620879,
                -2.1702531527892797,
                -1.222234055221557,
                -0.07304419579532695,
                -1.7591811709510492
            ]
        },
        {
            "positions": [
                0.4206242719659907,
                -1.7031972157189288,
                -2.1924090870469497,
                -1.3397388650468764,
                -0.08286478105072603,
                -1.9137594440346013
            ]
        },
        {
            "positions": [
                0.3396791704498736,
                -1.7078429418169787,
                -2.2145650213046197,
                -1.457243674872195,
                -0.09268536630612506,
                -2.0683377171181516
            ]
        },
        {
            "positions": [
                0.25873406893375606,
                -1.7124886679150284,
                -2.2367209555622902,
                -1.5747484846975146,
                -0.10250595156152414,
                -2.2229159902017037
            ]
        },
        {
            "positions": [
                0.17778896741763894,
                -1.7171343940130783,
                -2.2588768898199603,
                -1.6922532945228337,
                -0.11232653681692323,
                -2.377494263285254
            ]
        },
        {
            "positions": [
                0.09684386590152139,
                -1.721780120111128,
                -2.2810328240776303,
                -1.8097581043481532,
                -0.12214712207232231,
                -2.5320725363688052
            ]
        },
        {
            "positions": [
                0.015898764385404274,
                -1.726425846209178,
                -2.303188758335301,
                -1.9272629141734723,
                -0.13196770732772134,
                -2.6866508094523565
            ]
        },
        {
            "positions": [
                -0.06504633713071328,
                -1.7310715723072279,
                -2.325344692592971,
                -2.0447677239987914,
                -0.14178829258312048,
                -2.8412290825359077
            ]
        },
        {
            "positions": [
                -0.1459914386468305,
                -1.7357172984052776,
                -2.347500626850641,
                -2.16227253382411,
                -0.1516088778385195,
                -2.9958073556194584
            ]
        },
        {
            "positions": [
                -0.18405052400550262,
                -1.747572546149817,
                -2.3573161610883835,
                -2.210397555716874,
                -0.17482190026148517,
                -3.115116759901844
            ]
        }
    ]
}