{
    "goal": {
        "global_pose": {
            "orientation": {
                "w": 0.5084816262002911,
                "x": -0.4908360881923452,
                "y": 0.5182115481033761,
                "z": -0.48164630358495003
            },
            "position": {
                "x": 0.5540239810943604,
                "y": -0.46912469901144505,
                "z": 0.16403168439865112
            }
        },
        "name": "move_to_storage_B"
    },
    "id": "KPIECE_move_to_storage_B_113",
    "joint_names": [
        "shoulder_pan_joint",
        "shoulder_lift_joint",
        "elbow_joint",
        "wrist_1_joint",
        "wrist_2_joint",
        "wrist_3_joint"
    ],
    "metrics": {
        "cart_traj_len": 2.019849782078633,
        "distance_elbow_joint": 0.3466915830172892,
        "distance_shoulder_lift_joint": 0.457518737938742,
        "distance_shoulder_pan_joint": 2.155753638157541,
        "distance_wrist_1_joint": 4.680952249259609,
        "distance_wrist_2_joint": 2.7006647377279087,
        "distance_wrist_3_joint": 4.634218592612102,
        "smoothness": 0.43272704983962296,
        "time": 0.10383240699999999,
        "traj_len": 3.8698578189273563,
        "weighted_distance": 5.623686843248378
    },
    "planner": "KPIECE",
    "start": {
        "state": {
            "elbow_joint": 1.6649325706314817,
            "shoulder_lift_joint": -0.6616388048112454,
            "shoulder_pan_joint": -0.9139837860083814,
            "wrist_1_joint": 2.146757197745094,
            "wrist_2_joint": -2.234196043158733,
            "wrist_3_joint": 0.005471033829999897
        }
    },
    "waypoints": [
        {
            "positions": [
                -0.9139837860083814,
                -0.6616388048112454,
                1.6649325706314817,
                2.146757197745094,
                -2.234196043158733,
                0.005471033829999897
            ]
        },
        {
            "positions": [
                -0.8242972177435186,
                -0.6947561444983683,
                1.6709427175611926,
                2.224186770662761,
                -2.140726161537715,
                0.07318619349754807
            ]
        },
        {
            "positions": [
                -0.7346106494786557,
                -0.7278734841854912,
                1.6769528644909037,
                2.301616343580428,
                -2.047256279916697,
                0.14090135316509622
            ]
        },
        {
            "positions": [
                -0.6449240812137931,
                -0.7609908238726142,
                1.6829630114206147,
                2.3790459164980953,
                -1.9537863982956791,
                0.20861651283264437
            ]
        },
        {
            "positions": [
                -0.5552375129489302,
                -0.7941081635597371,
                1.6889731583503256,
                2.4564754894157623,
                -1.8603165166746611,
                0.2763316725001926
            ]
        },
        {
            "positions": [
                -0.46555094468406744,
                -0.8272255032468601,
                1.6949833052800365,
                2.533905062333429,
                -1.7668466350536431,
                0.34404683216774073
            ]
        },
        {
            "positions": [
                -0.37586437641920467,
                -0.860342842933983,
                1.7009934522097476,
                2.611334635251096,
                -1.6733767534326254,
                0.4117619918352889
            ]
        },
        {
            "positions": [
                -0.2861778081543419,
                -0.8934601826211059,
                1.7070035991394585,
                2.688764208168763,
                -1.5799068718116074,
                0.47947715150283704
            ]
        },
        {
            "positions": [
                -0.19649123988947903,
                -0.9265775223082289,
                1.7130137460691695,
                2.76619378108643,
                -1.4864369901905894,
                0.5471923111703852
            ]
        },
        {
            "positions": [
                -0.10680467162461627,
                -0.9596948619953518,
                1.7190238929988804,
                2.843623354004097,
                -1.3929671085695714,
                0.6149074708379334
            ]
        },
        {
            "positions": [
                -0.0171181033597535,
                -0.9928122016824747,
                1.7250340399285915,
                2.921052926921764,
                -1.2994972269485536,
                0.6826226305054816
            ]
        },
        {
            "positions": [
                0.07256846490510926,
                -1.0259295413695977,
                1.7310441868583024,
                2.9984824998394313,
                -1.2060273453275356,
                0.7503377901730297
            ]
        },
        {
            "positions": [
                0.030811272503536054,
                -1.0292591128474688,
                1.741064899957962,
                2.8617243945835287,
                -1.146295343902653,
                0.6114323674491343
            ]
        },
        {
            "positions": [
                -0.010945919898037157,
                -1.0325886843253398,
                1.7510856130576216,
                2.724966289327626,
                -1.0865633424777705,
                0.4725269447252389
            ]
        },
        {
            "positions": [
                -0.05270311229961036,
                -1.035918255803211,
                1.7611063261572812,
                2.588208184071724,
                -1.026831341052888,
                0.3336215220013435
            ]
        },
        {
            "positions": [
                -0.09446030470118358,
                -1.039247827281082,
                1.7711270392569407,
                2.4514500788158213,
                -0.9670993396280055,
                0.19471609927744804
            ]
        },
        {
            "positions": [
                -0.1362174971027568,
                -1.042577398758953,
                1.7811477523566004,
                2.3146919735599187,
                -0.9073673382031229,
                0.05581067655355254
            ]
        },
        {
            "positions": [
                -0.17797468950432999,
                -1.045906970236824,
                1.7911684654562599,
                2.177933868304016,
                -0.8476353367782404,
                -0.08309474617034274
            ]
        },
        {
            "positions": [
                -0.2197318819059032,
                -1.0492365417146952,
                1.8011891785559195,
                2.0411757630481135,
                -0.7879033353533579,
                -0.22200016889423824
            ]
        },
        {
            "positions": [
                -0.2614890743074764,
                -1.052566113192566,
                1.8112098916555792,
                1.9044176577922112,
                -0.7281713339284754,
                -0.3609055916181336
            ]
        },
        {
            "positions": [
                -0.30324626670904964,
                -1.0558956846704373,
                1.8212306047552387,
                1.7676595525363084,
                -0.6684393325035928,
                -0.4998110143420291
            ]
        },
        {
            "positions": [
                -0.34500345911062286,
                -1.0592252561483082,
                1.8312513178548984,
                1.630901447280406,
                -0.6087073310787102,
                -0.6387164370659246
            ]
        },
        {
            "positions": [
                -0.386760651512196,
                -1.0625548276261794,
                1.8412720309545578,
                1.4941433420245034,
                -0.5489753296538278,
                -0.7776218597898199
            ]
        },
        {
            "positions": [
                -0.42851784391376924,
                -1.0658843991040503,
                1.8512927440542175,
                1.357385236768601,
                -0.48924332822894523,
                -0.9165272825137152
            ]
        },
        {
            "positions": [
                -0.4702750363153425,
                -1.0692139705819215,
                1.861313457153877,
                1.2206271315126982,
                -0.4295113268040627,
                -1.055432705237611
            ]
        },
        {
            "positions": [
                -0.5120322287169157,
                -1.0725435420597926,
                1.8713341702535367,
                1.0838690262567958,
                -0.3697793253791801,
                -1.1943381279615062
            ]
        },
        {
            "positions": [
                -0.5537894211184888,
                -1.0758731135376636,
                1.8813548833531963,
                0.9471109210008932,
                -0.31004732395429757,
                -1.3332435506854017
            ]
        },
        {
            "positions": [
                -0.5955466135200621,
                -1.0792026850155347,
                1.8913755964528558,
                0.8103528157449911,
                -0.25031532252941513,
                -1.472148973409297
            ]
        },
        {
            "positions": [
                -0.6373038059216353,
                -1.0825322564934057,
                1.9013963095525155,
                0.6735947104890885,
                -0.1905833211045327,
                -1.6110543961331922
            ]
        },
        {
            "positions": [
                -0.6790609983232085,
                -1.0858618279712768,
                1.911417022652175,
                0.5368366052331854,
                -0.1308513196796499,
                -1.749959818857088
            ]
        },
        {
            "positions": [
                -0.7208181907247817,
                -1.0891913994491478,
                1.9214377357518346,
                0.40007849997728284,
                -0.07111931825476736,
                -1.8888652415809832
            ]
        },
        {
            "positions": [
                -0.762575383126355,
                -1.092520970927019,
                1.9314584488514943,
                0.2633203947213807,
                -0.011387316829884808,
                -2.027770664304879
            ]
        },
        {
            "positions": [
                -0.8043325755279281,
                -1.0958505424048899,
                1.9414791619511538,
                0.1265622894654781,
                0.048344684594997744,
                -2.1666760870287742
            ]
        },
        {
            "positions": [
                -0.8460897679295013,
                -1.099180113882761,
                1.9514998750508132,
                -0.0101958157904245,
                0.10807668601988007,
                -2.3055815097526695
            ]
        },
        {
            "positions": [
                -0.8878469603310746,
                -1.102509685360632,
                1.961520588150473,
                -0.14695392104632665,
                0.16780868744476263,
                -2.444486932476565
            ]
        },
        {
            "positions": [
                -0.9296041527326477,
                -1.1058392568385031,
                1.9715413012501326,
                -0.28371202630222925,
                0.22754068886964518,
                -2.58339235520046
            ]
        },
        {
            "positions": [
                -0.9713613451342211,
                -1.109168828316374,
                1.981562014349792,
                -0.4204701315581323,
                0.28727269029452795,
                -2.722297777924356
            ]
        },
        {
            "positions": [
                -1.0131185375357943,
                -1.1124983997942453,
                1.9915827274494518,
                -0.5572282368140349,
                0.3470046917194103,
                -2.8612032006482515
            ]
        },
        {
            "positions": [
                -1.0548757299373674,
                -1.1158279712721164,
                2.001603440549111,
                -0.693986342069937,
                0.40673669314429284,
                -3.000108623372147
            ]
        },
        {
            "positions": [
                -1.0966329223389406,
                -1.1191575427499874,
                2.011624153648771,
                -0.8307444473258399,
                0.4664686945691755,
                -3.139014046096042
            ]
        }
    ]
}