{
    "goal": {
        "global_pose": {
            "orientation": {
                "w": 0.7047431468963623,
                "x": -0.7094548344612122,
                "y": 0.0024358443915843964,
                "z": -0.0022348060738295317
            },
            "position": {
                "x": 0.6094750761985779,
                "y": 0.3671506643295288,
                "z": 0.19426114857196808
            }
        },
        "name": "move_to_magneteinheit_A"
    },
    "id": "KPIECE_move_to_magneteinheit_A_31",
    "joint_names": [
        "shoulder_pan_joint",
        "shoulder_lift_joint",
        "elbow_joint",
        "wrist_1_joint",
        "wrist_2_joint",
        "wrist_3_joint"
    ],
    "metrics": {
        "cart_traj_len": 1.052948601821317,
        "distance_elbow_joint": 0.4000655196212084,
        "distance_shoulder_lift_joint": 0.3563995149716177,
        "distance_shoulder_pan_joint": 1.2418838321781804,
        "distance_wrist_1_joint": 2.2904297142915793,
        "distance_wrist_2_joint": 1.6959486999739637,
        "distance_wrist_3_joint": 1.1553023440077221,
        "smoothness": 0.0,
        "time": 0.10534272900000001,
        "traj_len": 2.672083386618814,
        "weighted_distance": 3.6656531106100667
    },
    "planner": "KPIECE",
    "start": {
        "state": {
            "elbow_joint": 1.5739458966750683,
            "shoulder_lift_joint": -1.4977259741207325,
            "shoulder_pan_joint": -1.1188672016454206,
            "wrist_1_joint": 1.494575848278785,
            "wrist_2_joint": -1.5706037134824402,
            "wrist_3_joint": -2.0226957942261072
        }
    },
    "waypoints": [
        {
            "positions": [
                -1.1188672016454206,
                -1.4977259741207325,
                1.5739458966750683,
                1.494575848278785,
                -1.5706037134824402,
                -2.0226957942261072
            ]
        },
        {
            "positions": [
                -1.0535048946886743,
                -1.4789681049117,
                1.595001976655132,
                1.3740269159476493,
                -1.4813432555890738,
                -2.0835011807528296
            ]
        },
        {
            "positions": [
                -0.988142587731928,
                -1.4602102357026674,
                1.6160580566351956,
                1.2534779836165135,
                -1.392082797695707,
                -2.1443065672795516
            ]
        },
        {
            "positions": [
                -0.9227802807751816,
                -1.441452366493635,
                1.637114136615259,
                1.1329290512853778,
                -1.3028223398023406,
                -2.205111953806274
            ]
        },
        {
            "positions": [
                -0.8574179738184353,
                -1.4226944972846025,
                1.6581702165953227,
                1.012380118954242,
                -1.2135618819089742,
                -2.265917340332996
            ]
        },
        {
            "positions": [
                -0.7920556668616889,
                -1.4039366280755698,
                1.6792262965753864,
                0.8918311866231062,
                -1.1243014240156077,
                -2.3267227268597184
            ]
        },
        {
            "positions": [
                -0.7266933599049425,
                -1.3851787588665374,
                1.70028237655545,
                0.7712822542919705,
                -1.0350409661222413,
                -2.3875281133864403
            ]
        },
        {
            "positions": [
                -0.6613310529481963,
                -1.366420889657505,
                1.7213384565355137,
                0.6507333219608348,
                -0.9457805082288747,
                -2.4483334999131627
            ]
        },
        {
            "positions": [
                -0.59596874599145,
                -1.3476630204484725,
                1.742394536515577,
                0.530184389629699,
                -0.8565200503355082,
                -2.509138886439885
            ]
        },
        {
            "positions": [
                -0.5306064390347036,
                -1.3289051512394399,
                1.7634506164956407,
                0.4096354572985632,
                -0.7672595924421417,
                -2.569944272966607
            ]
        },
        {
            "positions": [
                -0.46524413207795734,
                -1.3101472820304074,
                1.7845066964757044,
                0.2890865249674275,
                -0.6779991345487751,
                -2.6307496594933295
            ]
        },
        {
            "positions": [
                -0.39988182512121084,
                -1.291389412821375,
                1.805562776455768,
                0.16853759263629176,
                -0.5887386766554086,
                -2.691555046020052
            ]
        },
        {
            "positions": [
                -0.33451951816446457,
                -1.2726315436123423,
                1.8266188564358314,
                0.04798866030515603,
                -0.4994782187620421,
                -2.752360432546774
            ]
        },
        {
            "positions": [
                -0.2691572112077182,
                -1.2538736744033099,
                1.847674936415895,
                -0.07256027202597992,
                -0.41021776086867545,
                -2.813165819073496
            ]
        },
        {
            "positions": [
                -0.2037949042509719,
                -1.2351158051942774,
                1.8687310163959587,
                -0.19310920435711543,
                -0.3209573029753092,
                -2.8739712056002182
            ]
        },
        {
            "positions": [
                -0.13843259729422552,
                -1.2163579359852448,
                1.8897870963760224,
                -0.3136581366882514,
                -0.23169684508194255,
                -2.9347765921269406
            ]
        },
        {
            "positions": [
                -0.07307029033747936,
                -1.1976000667762123,
                1.910843176356086,
                -0.4342070690193869,
                -0.1424363871885761,
                -2.9955819786536626
            ]
        },
        {
            "positions": [
                -0.0077079833807329745,
                -1.17884219756718,
                1.9318992563361497,
                -0.5547560013505228,
                -0.05317592929520942,
                -3.056387365180385
            ]
        },
        {
            "positions": [
                0.05765432357601341,
                -1.1600843283581472,
                1.952955336316213,
                -0.6753049336816586,
                0.036084528598156806,
                -3.1171927517071074
            ]
        },
        {
            "positions": [
                0.1230166305327599,
                -1.1413264591491148,
                1.9740114162962767,
                -0.7958538660127944,
                0.1253449864915235,
                -3.1779981382338294
            ]
        }
    ]
}