{
    "goal": {
        "global_pose": {
            "orientation": {
                "w": -0.00223480608172531,
                "x": 0.0024358444001904467,
                "y": 0.7094548369677653,
                "z": -0.704743149386269
            },
            "position": {
                "x": 0.6205249238014221,
                "y": -0.6371506643295288,
                "z": 0.19426114857196808
            }
        },
        "name": "move_to_magneteinheit_B"
    },
    "id": "KPIECE_move_to_magneteinheit_B_31",
    "joint_names": [
        "shoulder_pan_joint",
        "shoulder_lift_joint",
        "elbow_joint",
        "wrist_1_joint",
        "wrist_2_joint",
        "wrist_3_joint"
    ],
    "metrics": {
        "cart_traj_len": 1.452145791419589,
        "distance_elbow_joint": 0.727428714693644,
        "distance_shoulder_lift_joint": 1.2472273835728618,
        "distance_shoulder_pan_joint": 1.621548194860031,
        "distance_wrist_1_joint": 2.6075189287090605,
        "distance_wrist_2_joint": 2.9364503108873037,
        "distance_wrist_3_joint": 3.1281571422390524,
        "smoothness": 3.0531133340659197e-16,
        "time": 0.391246261,
        "traj_len": 3.5026176889523577,
        "weighted_distance": 4.905977394876216
    },
    "planner": "KPIECE",
    "start": {
        "state": {
            "elbow_joint": 2.3935871308073637,
            "shoulder_lift_joint": -1.9085141043777403,
            "shoulder_pan_joint": 0.7066247067284167,
            "wrist_1_joint": -0.46782909355067076,
            "wrist_2_joint": 0.7096259085804283,
            "wrist_3_joint": -3.1358149275257428
        }
    },
    "waypoints": [
        {
            "positions": [
                0.7066247067284167,
                -1.9085141043777403,
                2.3935871308073637,
                -0.46782909355067076,
                0.7096259085804283,
                -3.1358149275257428
            ]
        },
        {
            "positions": [
                0.6543167004426093,
                -1.8682809629721642,
                2.3701216883978913,
                -0.38371557972134623,
                0.6149017050034185,
                -3.0349066326148058
            ]
        },
        {
            "positions": [
                0.6020086941568018,
                -1.8280478215665878,
                2.346656245988419,
                -0.2996020658920217,
                0.5201775014264087,
                -2.9339983377038683
            ]
        },
        {
            "positions": [
                0.5497006878709944,
                -1.7878146801610117,
                2.323190803578947,
                -0.21548855206269718,
                0.4254532978493989,
                -2.8330900427929313
            ]
        },
        {
            "positions": [
                0.4973926815851869,
                -1.7475815387554356,
                2.2997253611694743,
                -0.13137503823337265,
                0.3307290942723891,
                -2.7321817478819943
            ]
        },
        {
            "positions": [
                0.44508467529937945,
                -1.7073483973498593,
                2.276259918760002,
                -0.04726152440404813,
                0.23600489069537933,
                -2.631273452971057
            ]
        },
        {
            "positions": [
                0.392776669013572,
                -1.6671152559442832,
                2.2527944763505294,
                0.0368519894252764,
                0.1412806871183695,
                -2.53036515806012
            ]
        },
        {
            "positions": [
                0.34046866272776455,
                -1.626882114538707,
                2.229329033941057,
                0.12096550325460093,
                0.04655648354135977,
                -2.4294568631491824
            ]
        },
        {
            "positions": [
                0.2881606564419571,
                -1.5866489731331308,
                2.2058635915315845,
                0.20507901708392545,
                -0.04816772003565006,
                -2.3285485682382454
            ]
        },
        {
            "positions": [
                0.2358526501561496,
                -1.5464158317275545,
                2.182398149122112,
                0.2891925309132501,
                -0.1428919236126599,
                -2.2276402733273084
            ]
        },
        {
            "positions": [
                0.1835446438703422,
                -1.5061826903219784,
                2.15893270671264,
                0.3733060447425745,
                -0.23761612718966962,
                -2.126731978416371
            ]
        },
        {
            "positions": [
                0.13123663758453474,
                -1.4659495489164023,
                2.1354672643031676,
                0.45741955857189914,
                -0.33234033076667957,
                -2.0258236835054335
            ]
        },
        {
            "positions": [
                0.07892863129872729,
                -1.425716407510826,
                2.112001821893695,
                0.5415330724012235,
                -0.4270645343436893,
                -1.9249153885944967
            ]
        },
        {
            "positions": [
                0.02662062501291984,
                -1.3854832661052499,
                2.0885363794842227,
                0.6256465862305483,
                -0.521788737920699,
                -1.8240070936835595
            ]
        },
        {
            "positions": [
                -0.02568738127288761,
                -1.3452501246996738,
                2.06507093707475,
                0.7097601000598726,
                -0.6165129414977087,
                -1.7230987987726223
            ]
        },
        {
            "positions": [
                -0.07799538755869506,
                -1.3050169832940974,
                2.0416054946652777,
                0.7938736138891973,
                -0.7112371450747187,
                -1.622190503861685
            ]
        },
        {
            "positions": [
                -0.1303033938445025,
                -1.2647838418885213,
                2.0181400522558057,
                0.8779871277185216,
                -0.8059613486517284,
                -1.521282208950748
            ]
        },
        {
            "positions": [
                -0.18261140013030985,
                -1.2245507004829452,
                1.9946746098463333,
                0.9621006415478461,
                -0.9006855522287381,
                -1.4203739140398108
            ]
        },
        {
            "positions": [
                -0.23491940641611753,
                -1.184317559077369,
                1.9712091674368608,
                1.0462141553771709,
                -0.9954097558057481,
                -1.3194656191288736
            ]
        },
        {
            "positions": [
                -0.28722741270192487,
                -1.1440844176717926,
                1.9477437250273884,
                1.1303276692064954,
                -1.090133959382758,
                -1.2185573242179364
            ]
        },
        {
            "positions": [
                -0.3395354189877323,
                -1.1038512762662167,
                1.924278282617916,
                1.2144411830358197,
                -1.1848581629597676,
                -1.1176490293069992
            ]
        },
        {
            "positions": [
                -0.39184342527353977,
                -1.0636181348606404,
                1.9008128402084437,
                1.2985546968651442,
                -1.2795823665367774,
                -1.0167407343960622
            ]
        },
        {
            "positions": [
                -0.4441514315593472,
                -1.023384993455064,
                1.8773473977989712,
                1.382668210694469,
                -1.3743065701137875,
                -0.9158324394851247
            ]
        },
        {
            "positions": [
                -0.49645943784515467,
                -0.983151852049488,
                1.853881955389499,
                1.4667817245237935,
                -1.4690307736907973,
                -0.8149241445741877
            ]
        },
        {
            "positions": [
                -0.5487674441309621,
                -0.9429187106439119,
                1.8304165129800265,
                1.5508952383531178,
                -1.563754977267807,
                -0.7140158496632507
            ]
        },
        {
            "positions": [
                -0.6010754504167696,
                -0.9026855692383358,
                1.806951070570554,
                1.6350087521824426,
                -1.6584791808448167,
                -0.6131075547523137
            ]
        },
        {
            "positions": [
                -0.653383456702577,
                -0.8624524278327594,
                1.7834856281610816,
                1.7191222660117673,
                -1.7532033844218264,
                -0.5121992598413763
            ]
        },
        {
            "positions": [
                -0.7056914629883845,
                -0.8222192864271833,
                1.7600201857516091,
                1.8032357798410916,
                -1.8479275879988362,
                -0.41129096493043926
            ]
        },
        {
            "positions": [
                -0.7579994692741919,
                -0.781986145021607,
                1.7365547433421369,
                1.887349293670416,
                -1.9426517915758459,
                -0.3103826700195018
            ]
        },
        {
            "positions": [
                -0.8103074755599994,
                -0.7417530036160309,
                1.7130893009326646,
                1.9714628074997407,
                -2.0373759951528556,
                -0.20947437510856481
            ]
        },
        {
            "positions": [
                -0.8626154818458068,
                -0.7015198622104546,
                1.6896238585231922,
                2.0555763213290654,
                -2.132100198729866,
                -0.10856608019762737
            ]
        },
        {
            "positions": [
                -0.9149234881316143,
                -0.6612867208048785,
                1.6661584161137197,
                2.1396898351583897,
                -2.2268244023068755,
                -0.0076577852866902205
            ]
        }
    ]
}