{
    "goal": {
        "global_pose": {
            "orientation": {
                "w": -0.4816463035849501,
                "x": 0.5182115481033762,
                "y": 0.4908360881923453,
                "z": -0.5084816262002911
            },
            "position": {
                "x": -0.8240239810943604,
                "y": 0.19912469901144506,
                "z": 0.16403168439865112
            }
        },
        "name": "move_to_storage_D"
    },
    "id": "KPIECE_move_to_storage_D_136",
    "joint_names": [
        "shoulder_pan_joint",
        "shoulder_lift_joint",
        "elbow_joint",
        "wrist_1_joint",
        "wrist_2_joint",
        "wrist_3_joint"
    ],
    "metrics": {
        "cart_traj_len": 3.6227319284314636,
        "distance_elbow_joint": 4.213632127358402,
        "distance_shoulder_lift_joint": 1.4449729598335597,
        "distance_shoulder_pan_joint": 2.813309249019116,
        "distance_wrist_1_joint": 2.2804942944509463,
        "distance_wrist_2_joint": 1.1325183767892644,
        "distance_wrist_3_joint": 3.1257714216370234,
        "smoothness": 0.023484539349973813,
        "time": 0.284748671,
        "traj_len": 3.874364261280592,
        "weighted_distance": 4.967419243792753
    },
    "planner": "KPIECE",
    "start": {
        "state": {
            "elbow_joint": -2.384821997420982,
            "shoulder_lift_joint": -2.2788054674887404,
            "shoulder_pan_joint": -0.18546946417610016,
            "wrist_1_joint": 1.4845937964226739,
            "wrist_2_joint": 0.1789877726866377,
            "wrist_3_joint": 0.03710572555276528
        }
    },
    "waypoints": [
        {
            "positions": [
                -0.18546946417610016,
                -2.2788054674887404,
                -2.384821997420982,
                1.4845937964226739,
                0.1789877726866377,
                0.03710572555276528
            ]
        },
        {
            "positions": [
                -0.07708357328823415,
                -2.219926665540822,
                -2.261312373059218,
                1.4093505239028792,
                0.17345837005154854,
                0.0178770950466945
            ]
        },
        {
            "positions": [
                0.03130231759963187,
                -2.161047863592904,
                -2.137802748697454,
                1.3341072513830845,
                0.16792896741645938,
                -0.001351535459376274
            ]
        },
        {
            "positions": [
                0.13968820848749786,
                -2.102169061644986,
                -2.01429312433569,
                1.2588639788632898,
                0.16239956478137021,
                -0.020580165965447053
            ]
        },
        {
            "positions": [
                0.2480740993753639,
                -2.0432902596970677,
                -1.8907834999739261,
                1.1836207063434951,
                0.15687016214628105,
                -0.039808796471517825
            ]
        },
        {
            "positions": [
                0.3564599902632299,
                -1.9844114577491494,
                -1.7672738756121622,
                1.1083774338237005,
                0.15134075951119189,
                -0.059037426977588604
            ]
        },
        {
            "positions": [
                0.4648458811510959,
                -1.9255326558012311,
                -1.6437642512503983,
                1.0331341613039056,
                0.14581135687610272,
                -0.07826605748365939
            ]
        },
        {
            "positions": [
                0.5732317720389619,
                -1.8666538538533128,
                -1.5202546268886343,
                0.9578908887841109,
                0.14028195424101353,
                -0.09749468798973016
            ]
        },
        {
            "positions": [
                0.681617662926828,
                -1.8077750519053948,
                -1.3967450025268704,
                0.8826476162643162,
                0.1347525516059244,
                -0.11672331849580092
            ]
        },
        {
            "positions": [
                0.7900035538146939,
                -1.7488962499574765,
                -1.2732353781651065,
                0.8074043437445214,
                0.1292231489708352,
                -0.1359519490018717
            ]
        },
        {
            "positions": [
                0.89838944470256,
                -1.6900174480095584,
                -1.1497257538033425,
                0.7321610712247268,
                0.12369374633574605,
                -0.15518057950794248
            ]
        },
        {
            "positions": [
                1.006775335590426,
                -1.6311386460616402,
                -1.0262161294415786,
                0.656917798704932,
                0.11816434370065688,
                -0.17440921001401327
            ]
        },
        {
            "positions": [
                1.115161226478292,
                -1.5722598441137219,
                -0.9027065050798146,
                0.5816745261851374,
                0.11263494106556772,
                -0.19363784052008404
            ]
        },
        {
            "positions": [
                1.2235471173661578,
                -1.5133810421658038,
                -0.7791968807180509,
                0.5064312536653427,
                0.10710553843047856,
                -0.2128664710261548
            ]
        },
        {
            "positions": [
                1.3319330082540242,
                -1.4545022402178853,
                -0.6556872563562868,
                0.4311879811455479,
                0.10157613579538938,
                -0.2320951015322256
            ]
        },
        {
            "positions": [
                1.44031889914189,
                -1.3956234382699673,
                -0.5321776319945228,
                0.3559447086257532,
                0.09604673316030023,
                -0.2513237320382964
            ]
        },
        {
            "positions": [
                1.5487047900297561,
                -1.3367446363220492,
                -0.4086680076327589,
                0.28070143610595855,
                0.09051733052521106,
                -0.27055236254436715
            ]
        },
        {
            "positions": [
                1.657090680917622,
                -1.277865834374131,
                -0.28515838327099496,
                0.20545816358616387,
                0.0849879278901219,
                -0.2897809930504379
            ]
        },
        {
            "positions": [
                1.7654765718054881,
                -1.2189870324262126,
                -0.16164875890923103,
                0.13021489106636897,
                0.07945852525503272,
                -0.30900962355650874
            ]
        },
        {
            "positions": [
                1.8738624626933542,
                -1.1601082304782946,
                -0.03813913454746709,
                0.054971618546574286,
                0.07392912261994355,
                -0.3282382540625795
            ]
        },
        {
            "positions": [
                1.98224835358122,
                -1.1012294285303763,
                0.08537048981429685,
                -0.02027165397322017,
                0.06839971998485439,
                -0.34746688456865027
            ]
        },
        {
            "positions": [
                2.090634244469086,
                -1.0423506265824583,
                0.20888011417606078,
                -0.09551492649301485,
                0.06287031734976524,
                -0.36669551507472103
            ]
        },
        {
            "positions": [
                2.1990201353569523,
                -0.9834718246345397,
                0.3323897385378247,
                -0.17075819901280975,
                0.05734091471467606,
                -0.38592414558079186
            ]
        },
        {
            "positions": [
                2.307406026244818,
                -0.9245930226866216,
                0.4558993628995886,
                -0.2460014715326044,
                0.0518115120795869,
                -0.4051527760868626
            ]
        },
        {
            "positions": [
                2.3274331361572056,
                -0.9302655548760866,
                0.541706285839453,
                -0.2803701606885837,
                0.11464539434097526,
                -0.5728723335866999
            ]
        },
        {
            "positions": [
                2.347460246069593,
                -0.9359380870655516,
                0.6275132087793176,
                -0.314738849844563,
                0.17747927660236362,
                -0.740591891086537
            ]
        },
        {
            "positions": [
                2.36748735598198,
                -0.9416106192550167,
                0.713320131719182,
                -0.3491075390005423,
                0.24031315886375199,
                -0.9083114485863742
            ]
        },
        {
            "positions": [
                2.3875144658943674,
                -0.9472831514444817,
                0.7991270546590465,
                -0.3834762281565216,
                0.30314704112514035,
                -1.0760310060862115
            ]
        },
        {
            "positions": [
                2.407541575806755,
                -0.9529556836339467,
                0.8849339775989109,
                -0.41784491731250095,
                0.3659809233865287,
                -1.2437505635860489
            ]
        },
        {
            "positions": [
                2.4275686857191423,
                -0.9586282158234117,
                0.9707409005387755,
                -0.45221360646848024,
                0.4288148056479171,
                -1.4114701210858858
            ]
        },
        {
            "positions": [
                2.4475957956315297,
                -0.9643007480128768,
                1.0565478234786398,
                -0.48658229562445954,
                0.49164868790930544,
                -1.5791896785857231
            ]
        },
        {
            "positions": [
                2.4676229055439167,
                -0.9699732802023417,
                1.1423547464185044,
                -0.5209509847804389,
                0.5544825701706938,
                -1.7469092360855605
            ]
        },
        {
            "positions": [
                2.487650015456304,
                -0.9756458123918068,
                1.2281616693583688,
                -0.5553196739364181,
                0.6173164524320821,
                -1.9146287935853974
            ]
        },
        {
            "positions": [
                2.5076771253686916,
                -0.9813183445812719,
                1.3139685922982334,
                -0.5896883630923975,
                0.6801503346934705,
                -2.0823483510852348
            ]
        },
        {
            "positions": [
                2.527704235281079,
                -0.9869908767707369,
                1.3997755152380977,
                -0.6240570522483768,
                0.742984216954859,
                -2.250067908585072
            ]
        },
        {
            "positions": [
                2.5477313451934664,
                -0.9926634089602019,
                1.4855824381779623,
                -0.6584257414043561,
                0.8058180992162473,
                -2.417787466084909
            ]
        },
        {
            "positions": [
                2.567758455105854,
                -0.998335941149667,
                1.5713893611178267,
                -0.6927944305603354,
                0.8686519814776356,
                -2.5855070235847464
            ]
        },
        {
            "positions": [
                2.587785565018241,
                -1.004008473339132,
                1.6571962840576913,
                -0.7271631197163148,
                0.931485863739024,
                -2.7532265810845837
            ]
        },
        {
            "positions": [
                2.6078126749306283,
                -1.009681005528597,
                1.7430032069975558,
                -0.761531808872294,
                0.9943197460004124,
                -2.9209461385844206
            ]
        },
        {
            "positions": [
                2.6278397848430157,
                -1.015353537718062,
                1.8288101299374202,
                -0.7959004980282733,
                1.0571536282618006,
                -3.088665696084258
            ]
        }
    ]
}