{
    "goal": {
        "global_pose": {
            "orientation": {
                "w": 0.7047431493862688,
                "x": -0.7094548369677653,
                "y": 0.0024358444001904,
                "z": -0.0022348060817251984
            },
            "position": {
                "x": -0.39052492380142206,
                "y": 0.3671506643295288,
                "z": 0.19426114857196808
            }
        },
        "name": "move_to_magneteinheit_D"
    },
    "id": "KPIECE_move_to_magneteinheit_D_42",
    "joint_names": [
        "shoulder_pan_joint",
        "shoulder_lift_joint",
        "elbow_joint",
        "wrist_1_joint",
        "wrist_2_joint",
        "wrist_3_joint"
    ],
    "metrics": {
        "cart_traj_len": 4.122715875405634,
        "distance_elbow_joint": 4.2037075875743755,
        "distance_shoulder_lift_joint": 1.0947380833853386,
        "distance_shoulder_pan_joint": 2.8813529504962223,
        "distance_wrist_1_joint": 3.8736424237517557,
        "distance_wrist_2_joint": 3.5283354694950626,
        "distance_wrist_3_joint": 5.938585400317548,
        "smoothness": 0.46813862098223386,
        "time": 0.183759164,
        "traj_len": 4.639004409894468,
        "weighted_distance": 6.387449460379489
    },
    "planner": "KPIECE",
    "start": {
        "state": {
            "elbow_joint": 0.7495348899011973,
            "shoulder_lift_joint": -0.6476975780737697,
            "shoulder_pan_joint": -2.711696901376276,
            "wrist_1_joint": -0.07506478080974305,
            "wrist_2_joint": 0.4329665971545858,
            "wrist_3_joint": 3.1361499051832524
        }
    },
    "waypoints": [
        {
            "positions": [
                -2.711696901376276,
                -0.6476975780737697,
                0.7495348899011973,
                -0.07506478080974305,
                0.4329665971545858,
                3.1361499051832524
            ]
        },
        {
            "positions": [
                -2.7066854188144562,
                -0.6943171339882307,
                0.8099509306133215,
                0.02447181330988024,
                0.30929849017954464,
                3.107266442151792
            ]
        },
        {
            "positions": [
                -2.7016739362526363,
                -0.7409366899026918,
                0.8703669713254457,
                0.12400840742950353,
                0.18563038320450348,
                3.078382979120332
            ]
        },
        {
            "positions": [
                -2.6966624536908164,
                -0.7875562458171528,
                0.9307830120375699,
                0.22354500154912682,
                0.06196227622946232,
                3.0494995160888716
            ]
        },
        {
            "positions": [
                -2.6916509711289964,
                -0.8341758017316138,
                0.9911990527496941,
                0.3230815956687501,
                -0.06170583074557884,
                3.0206160530574113
            ]
        },
        {
            "positions": [
                -2.6866394885671765,
                -0.8807953576460749,
                1.0516150934618183,
                0.42261818978837346,
                -0.18537393772062,
                2.9917325900259506
            ]
        },
        {
            "positions": [
                -2.6816280060053566,
                -0.9274149135605358,
                1.1120311341739424,
                0.5221547839079967,
                -0.30904204469566116,
                2.9628491269944903
            ]
        },
        {
            "positions": [
                -2.6766165234435366,
                -0.9740344694749969,
                1.1724471748860665,
                0.6216913780276201,
                -0.4327101516707023,
                2.93396566396303
            ]
        },
        {
            "positions": [
                -2.6716050408817167,
                -1.0206540253894578,
                1.232863215598191,
                0.7212279721472432,
                -0.5563782586457435,
                2.9050822009315698
            ]
        },
        {
            "positions": [
                -2.6665935583198968,
                -1.067273581303919,
                1.293279256310315,
                0.8207645662668666,
                -0.6800463656207847,
                2.8761987379001095
            ]
        },
        {
            "positions": [
                -2.5851920115448137,
                -1.0734743846221788,
                1.193842705408544,
                0.755732527185772,
                -0.6296168990402202,
                2.7858594223035706
            ]
        },
        {
            "positions": [
                -2.5037904647697307,
                -1.079675187940439,
                1.0944061545067731,
                0.6907004881046774,
                -0.5791874324596556,
                2.6955201067070322
            ]
        },
        {
            "positions": [
                -2.422388917994647,
                -1.0858759912586988,
                0.9949696036050022,
                0.625668449023583,
                -0.5287579658790912,
                2.6051807911104934
            ]
        },
        {
            "positions": [
                -2.340987371219564,
                -1.092076794576959,
                0.8955330527032312,
                0.5606364099424884,
                -0.4783284992985267,
                2.5148414755139545
            ]
        },
        {
            "positions": [
                -2.259585824444481,
                -1.0982775978952188,
                0.7960965018014603,
                0.49560437086139386,
                -0.42789903271796215,
                2.424502159917416
            ]
        },
        {
            "positions": [
                -2.178184277669398,
                -1.1044784012134787,
                0.6966599508996894,
                0.43057233178029936,
                -0.3774695661373977,
                2.3341628443208773
            ]
        },
        {
            "positions": [
                -2.0967827308943146,
                -1.1106792045317389,
                0.5972233999979184,
                0.36554029269920485,
                -0.32704009955683316,
                2.2438235287243384
            ]
        },
        {
            "positions": [
                -2.0153811841192315,
                -1.1168800078499987,
                0.49778684909614757,
                0.3005082536181103,
                -0.2766106329762687,
                2.1534842131278
            ]
        },
        {
            "positions": [
                -1.9339796373441485,
                -1.1230808111682586,
                0.3983502981943765,
                0.23547621453701573,
                -0.22618116639570418,
                2.063144897531261
            ]
        },
        {
            "positions": [
                -1.8525780905690652,
                -1.1292816144865188,
                0.29891374729260556,
                0.17044417545592117,
                -0.1757516998151396,
                1.9728055819347223
            ]
        },
        {
            "positions": [
                -1.7711765437939821,
                -1.1354824178047787,
                0.19947719639083483,
                0.10541213637482671,
                -0.12532223323457514,
                1.882466266338184
            ]
        },
        {
            "positions": [
                -1.6897749970188989,
                -1.1416832211230388,
                0.10004064548906366,
                0.04038009729373215,
                -0.07489276665401068,
                1.792126950741645
            ]
        },
        {
            "positions": [
                -1.6083734502438158,
                -1.1478840244412987,
                0.0006040945872927139,
                -0.024651941787362408,
                -0.024463300073446104,
                1.7017876351451064
            ]
        },
        {
            "positions": [
                -1.5269719034687326,
                -1.1540848277595586,
                -0.09883245631447823,
                -0.08968398086845686,
                0.02596616650711836,
                1.6114483195485676
            ]
        },
        {
            "positions": [
                -1.4455703566936493,
                -1.1602856310778187,
                -0.19826900721624918,
                -0.15471601994955142,
                0.07639563308768293,
                1.521109003952029
            ]
        },
        {
            "positions": [
                -1.3641688099185663,
                -1.1664864343960786,
                -0.2977055581180199,
                -0.21974805903064598,
                0.1268250996682473,
                1.4307696883554903
            ]
        },
        {
            "positions": [
                -1.2827672631434832,
                -1.1726872377143385,
                -0.39714210901979086,
                -0.2847800981117403,
                0.17725456624881175,
                1.3404303727589517
            ]
        },
        {
            "positions": [
                -1.2013657163684,
                -1.1788880410325986,
                -0.496578659921562,
                -0.3498121371928351,
                0.22768403282937633,
                1.2500910571624129
            ]
        },
        {
            "positions": [
                -1.119964169593317,
                -1.1850888443508585,
                -0.5960152108233328,
                -0.41484417627392944,
                0.2781134994099408,
                1.1597517415658742
            ]
        },
        {
            "positions": [
                -1.0385626228182336,
                -1.1912896476691186,
                -0.6954517617251039,
                -0.4798762153550242,
                0.3285429659905055,
                1.0694124259693354
            ]
        },
        {
            "positions": [
                -0.9571610760431506,
                -1.1974904509873785,
                -0.7948883126268746,
                -0.5449082544361186,
                0.37897243257106994,
                0.9790731103727968
            ]
        },
        {
            "positions": [
                -0.8757595292680675,
                -1.2036912543056384,
                -0.8943248635286454,
                -0.6099402935172131,
                0.4294018991516344,
                0.8887337947762584
            ]
        },
        {
            "positions": [
                -0.7943579824929843,
                -1.2098920576238985,
                -0.9937614144304165,
                -0.6749723325983077,
                0.47983136573219887,
                0.7983944791797195
            ]
        },
        {
            "positions": [
                -0.7129564357179012,
                -1.2160928609421584,
                -1.0931979653321877,
                -0.7400043716794023,
                0.5302608323127633,
                0.7080551635831807
            ]
        },
        {
            "positions": [
                -0.631554888942818,
                -1.2222936642604183,
                -1.1926345162339584,
                -0.8050364107604966,
                0.5806902988933278,
                0.6177158479866423
            ]
        },
        {
            "positions": [
                -0.5501533421677349,
                -1.2284944675786784,
                -1.2920710671357296,
                -0.8700684498415914,
                0.6311197654738925,
                0.5273765323901034
            ]
        },
        {
            "positions": [
                -0.4687517953926519,
                -1.2346952708969383,
                -1.3915076180375003,
                -0.9351004889226857,
                0.6815492320544567,
                0.43703721679356455
            ]
        },
        {
            "positions": [
                -0.3873502486175684,
                -1.2408960742151984,
                -1.4909441689392715,
                -1.0001325280037803,
                0.7319786986350214,
                0.3466979011970257
            ]
        },
        {
            "positions": [
                -0.30594870184248557,
                -1.2470968775334583,
                -1.5903807198410422,
                -1.0651645670848748,
                0.7824081652155859,
                0.25635858560048747
            ]
        },
        {
            "positions": [
                -0.23490784503245798,
                -1.248406226588933,
                -1.7039337631991511,
                -1.1251284583104244,
                0.7793185181053883,
                0.15963005622062632
            ]
        },
        {
            "positions": [
                -0.19699163110890144,
                -1.2741799941251526,
                -1.7953769988352841,
                -1.206410209983748,
                0.7241915286469738,
                0.259240214317486
            ]
        },
        {
            "positions": [
                -0.1590754171853449,
                -1.2999537616613723,
                -1.8868202344714173,
                -1.2876919616570714,
                0.6690645391885591,
                0.3588503724143457
            ]
        },
        {
            "positions": [
                -0.12115920326178835,
                -1.3257275291975918,
                -1.9782634701075503,
                -1.368973713330395,
                0.6139375497301445,
                0.4584605305112054
            ]
        },
        {
            "positions": [
                -0.08324298933823182,
                -1.3515012967338114,
                -2.0697067057436835,
                -1.4502554650037185,
                0.5588105602717299,
                0.5580706886080651
            ]
        },
        {
            "positions": [
                -0.04532677541467525,
                -1.377275064270031,
                -2.1611499413798163,
                -1.531537216677042,
                0.5036835708133154,
                0.6576808467049248
            ]
        },
        {
            "positions": [
                -0.007410561491118719,
                -1.4030488318062506,
                -2.2525931770159495,
                -1.6128189683503655,
                0.44855658135490073,
                0.7572910048017845
            ]
        },
        {
            "positions": [
                -0.02350752609212447,
                -1.4339021799565104,
                -2.2629650668194943,
                -1.6622943812647215,
                0.3922823638982974,
                0.9722368777812178
            ]
        },
        {
            "positions": [
                -0.03960449069313022,
                -1.4647555281067701,
                -2.2733369566230395,
                -1.7117697941790773,
                0.3360081464416941,
                1.1871827507606512
            ]
        },
        {
            "positions": [
                -0.05570145529413596,
                -1.4956088762570299,
                -2.2837088464265842,
                -1.7612452070934332,
                0.27973392898509075,
                1.4021286237400843
            ]
        },
        {
            "positions": [
                -0.07179841989514173,
                -1.5264622244072898,
                -2.2940807362301294,
                -1.8107206200077892,
                0.22345971152848737,
                1.6170744967195176
            ]
        },
        {
            "positions": [
                -0.08789538449614746,
                -1.5573155725575496,
                -2.304452626033674,
                -1.8601960329221452,
                0.16718549407188404,
                1.832020369698951
            ]
        },
        {
            "positions": [
                -0.10399234909715321,
                -1.5881689207078094,
                -2.3148245158372194,
                -1.909671445836501,
                0.11091127661528072,
                2.0469662426783843
            ]
        },
        {
            "positions": [
                -0.12008931369815896,
                -1.619022268858069,
                -2.325196405640764,
                -1.959146858750857,
                0.05463705915867739,
                2.2619121156578177
            ]
        },
        {
            "positions": [
                -0.13618627829916471,
                -1.649875617008329,
                -2.3355682954443093,
                -2.008622271665213,
                -0.001637158297925989,
                2.476857988637251
            ]
        },
        {
            "positions": [
                -0.15228324290017045,
                -1.6807289651585888,
                -2.345940185247854,
                -2.0580976845795687,
                -0.057911375754529315,
                2.6918038616166844
            ]
        },
        {
            "positions": [
                -0.1683802075011762,
                -1.7115823133088486,
                -2.3563120750513993,
                -2.107573097493925,
                -0.11418559321113264,
                2.9067497345961177
            ]
        },
        {
            "positions": [
                -0.18447717210218195,
                -1.7424356614591083,
                -2.366683964854944,
                -2.1570485104082806,
                -0.17045981066773597,
                3.121695607575551
            ]
        }
    ]
}