{
    "goal": {
        "global_pose": {
            "orientation": {
                "w": 0.5084816262002911,
                "x": -0.4908360881923452,
                "y": 0.5182115481033761,
                "z": -0.48164630358495003
            },
            "position": {
                "x": 0.5540239810943604,
                "y": -0.46912469901144505,
                "z": 0.16403168439865112
            }
        },
        "name": "move_to_storage_B"
    },
    "id": "KPIECE_move_to_storage_B_132",
    "joint_names": [
        "shoulder_pan_joint",
        "shoulder_lift_joint",
        "elbow_joint",
        "wrist_1_joint",
        "wrist_2_joint",
        "wrist_3_joint"
    ],
    "metrics": {
        "cart_traj_len": 2.2376837762318953,
        "distance_elbow_joint": 0.8222163899607844,
        "distance_shoulder_lift_joint": 1.9477899650146437,
        "distance_shoulder_pan_joint": 1.9403937301971348,
        "distance_wrist_1_joint": 2.9963027859910665,
        "distance_wrist_2_joint": 2.7041564309458233,
        "distance_wrist_3_joint": 4.8940216843322375,
        "smoothness": 0.30367534715449107,
        "time": 0.058372719000000003,
        "traj_len": 3.912145317653946,
        "weighted_distance": 5.54917863940629
    },
    "planner": "KPIECE",
    "start": {
        "state": {
            "elbow_joint": 1.6649325706314817,
            "shoulder_lift_joint": -0.6616388048112454,
            "shoulder_pan_joint": -0.9139837860083814,
            "wrist_1_joint": 2.146757197745094,
            "wrist_2_joint": -2.234196043158733,
            "wrist_3_joint": 0.005471033829999897
        }
    },
    "waypoints": [
        {
            "positions": [
                -0.9139837860083814,
                -0.6616388048112454,
                1.6649325706314817,
                2.146757197745094,
                -2.234196043158733,
                0.005471033829999897
            ]
        },
        {
            "positions": [
                -0.8590187661926639,
                -0.7369135924666851,
                1.701651584661356,
                2.1015764921197087,
                -2.1225738632906204,
                -0.04873186277886044
            ]
        },
        {
            "positions": [
                -0.8040537463769464,
                -0.8121883801221248,
                1.7383705986912306,
                2.056395786494323,
                -2.010951683422508,
                -0.10293475938772077
            ]
        },
        {
            "positions": [
                -0.7490887265612289,
                -0.8874631677775645,
                1.7750896127211049,
                2.0112150808689373,
                -1.8993295035543953,
                -0.1571376559965811
            ]
        },
        {
            "positions": [
                -0.6941237067455114,
                -0.9627379554330042,
                1.8118086267509794,
                1.966034375243552,
                -1.7877073236862828,
                -0.21134055260544146
            ]
        },
        {
            "positions": [
                -0.6391586869297939,
                -1.0380127430884438,
                1.8485276407808537,
                1.9208536696181664,
                -1.6760851438181703,
                -0.2655434492143018
            ]
        },
        {
            "positions": [
                -0.5841936671140764,
                -1.1132875307438836,
                1.8852466548107283,
                1.875672963992781,
                -1.564462963950058,
                -0.3197463458231621
            ]
        },
        {
            "positions": [
                -0.529228647298359,
                -1.1885623183993235,
                1.9219656688406026,
                1.8304922583673955,
                -1.4528407840819455,
                -0.37394924243202243
            ]
        },
        {
            "positions": [
                -0.47426362748264145,
                -1.263837106054763,
                1.958684682870477,
                1.78531155274201,
                -1.341218604213833,
                -0.4281521390408828
            ]
        },
        {
            "positions": [
                -0.41929860766692395,
                -1.3391118937102027,
                1.9954036969003515,
                1.7401308471166244,
                -1.2295964243457205,
                -0.48235503564974314
            ]
        },
        {
            "positions": [
                -0.3643335878512065,
                -1.4143866813656425,
                2.032122710930226,
                1.694950141491239,
                -1.117974244477608,
                -0.5365579322586035
            ]
        },
        {
            "positions": [
                -0.30936856803548896,
                -1.4896614690210823,
                2.0688417249601003,
                1.6497694358658532,
                -1.0063520646094954,
                -0.5907608288674638
            ]
        },
        {
            "positions": [
                -0.2544035482197715,
                -1.564936256676522,
                2.1055607389899746,
                1.6045887302404678,
                -0.8947298847413832,
                -0.6449637254763241
            ]
        },
        {
            "positions": [
                -0.19943852840405396,
                -1.6402110443319615,
                2.142279753019849,
                1.5594080246150823,
                -0.7831077048732706,
                -0.6991666220851844
            ]
        },
        {
            "positions": [
                -0.14447350858833652,
                -1.7154858319874013,
                2.1789987670497233,
                1.5142273189896969,
                -0.6714855250051581,
                -0.7533695186940448
            ]
        },
        {
            "positions": [
                -0.08950848877261897,
                -1.790760619642841,
                2.215717781079598,
                1.4690466133643114,
                -0.5598633451370456,
                -0.8075724153029051
            ]
        },
        {
            "positions": [
                -0.034543468956901524,
                -1.8660354072982808,
                2.2524367951094724,
                1.4238659077389257,
                -0.4482411652689331,
                -0.8617753119117655
            ]
        },
        {
            "positions": [
                -0.07874986117130389,
                -1.8350606838596304,
                2.242657121547689,
                1.329140428739555,
                -0.4099827672249321,
                -0.6939930061371624
            ]
        },
        {
            "positions": [
                -0.12295625338570626,
                -1.80408596042098,
                2.2328774479859064,
                1.2344149497401842,
                -0.3717243691809311,
                -0.5262107003625593
            ]
        },
        {
            "positions": [
                -0.16716264560010863,
                -1.7731112369823296,
                2.223097774424123,
                1.1396894707408136,
                -0.3334659711369301,
                -0.3584283945879563
            ]
        },
        {
            "positions": [
                -0.211369037814511,
                -1.7421365135436795,
                2.21331810086234,
                1.0449639917414428,
                -0.29520757309292917,
                -0.1906460888133532
            ]
        },
        {
            "positions": [
                -0.25557543002891336,
                -1.7111617901050291,
                2.203538427300557,
                0.950238512742072,
                -0.2569491750489281,
                -0.02286378303875014
            ]
        },
        {
            "positions": [
                -0.29978182224331573,
                -1.6801870666663787,
                2.193758753738774,
                0.8555130337427013,
                -0.21869077700492717,
                0.14491852273585293
            ]
        },
        {
            "positions": [
                -0.3439882144577181,
                -1.6492123432277284,
                2.1839790801769907,
                0.7607875547433305,
                -0.18043237896092618,
                0.312700828510456
            ]
        },
        {
            "positions": [
                -0.38819460667212047,
                -1.618237619789078,
                2.174199406615208,
                0.6660620757439598,
                -0.14217398091692524,
                0.48048313428505907
            ]
        },
        {
            "positions": [
                -0.43240099888652284,
                -1.5872628963504276,
                2.1644197330534247,
                0.571336596744589,
                -0.10391558287292424,
                0.6482654400596621
            ]
        },
        {
            "positions": [
                -0.4766073911009252,
                -1.5562881729117772,
                2.1546400594916415,
                0.47661111774521825,
                -0.06565718482892319,
                0.8160477458342652
            ]
        },
        {
            "positions": [
                -0.5208137833153276,
                -1.5253134494731269,
                2.1448603859298587,
                0.3818856387458476,
                -0.027398786784922247,
                0.9838300516088683
            ]
        },
        {
            "positions": [
                -0.5650201755297299,
                -1.4943387260344765,
                2.1350807123680755,
                0.2871601597464768,
                0.01085961125907875,
                1.1516123573834713
            ]
        },
        {
            "positions": [
                -0.6092265677441323,
                -1.4633640025958263,
                2.1253010388062923,
                0.19243468074710623,
                0.04911800930307969,
                1.3193946631580742
            ]
        },
        {
            "positions": [
                -0.6534329599585347,
                -1.432389279157176,
                2.1155213652445095,
                0.09770920174773523,
                0.08737640734708074,
                1.4871769689326775
            ]
        },
        {
            "positions": [
                -0.697639352172937,
                -1.4014145557185256,
                2.1057416916827263,
                0.002983722748364448,
                0.12563480539108174,
                1.6549592747072808
            ]
        },
        {
            "positions": [
                -0.7418457443873394,
                -1.3704398322798752,
                2.095962018120943,
                -0.09174175625100611,
                0.16389320343508262,
                1.8227415804818836
            ]
        },
        {
            "positions": [
                -0.7860521366017418,
                -1.3394651088412248,
                2.0861823445591603,
                -0.18646723525037712,
                0.20215160147908373,
                1.990523886256487
            ]
        },
        {
            "positions": [
                -0.8302585288161441,
                -1.3084903854025745,
                2.076402670997377,
                -0.2811927142497477,
                0.24040999952308462,
                2.1583061920310898
            ]
        },
        {
            "positions": [
                -0.8744649210305465,
                -1.2775156619639243,
                2.066622997435594,
                -0.37591819324911824,
                0.2786683975670856,
                2.3260884978056926
            ]
        },
        {
            "positions": [
                -0.9186713132449489,
                -1.246540938525274,
                2.056843323873811,
                -0.47064367224848924,
                0.3169267956110867,
                2.493870803580296
            ]
        },
        {
            "positions": [
                -0.9628777054593513,
                -1.2155662150866235,
                2.047063650312028,
                -0.5653691512478598,
                0.3551851936550876,
                2.6616531093548987
            ]
        },
        {
            "positions": [
                -1.0070840976737536,
                -1.1845914916479732,
                2.0372839767502446,
                -0.6600946302472306,
                0.3934435916990886,
                2.829435415129502
            ]
        },
        {
            "positions": [
                -1.051290489888156,
                -1.1536167682093228,
                2.027504303188462,
                -0.7548201092466014,
                0.4317019897430896,
                2.9972177209041053
            ]
        },
        {
            "positions": [
                -1.0954968821025584,
                -1.1226420447706724,
                2.0177246296266786,
                -0.8495455882459721,
                0.4699603877870906,
                3.1650000266787077
            ]
        }
    ]
}