{
    "goal": {
        "global_pose": {
            "orientation": {
                "w": 0.5084816217422485,
                "x": -0.49083608388900757,
                "y": 0.5182115435600281,
                "z": -0.4816462993621826
            },
            "position": {
                "x": 0.5540239810943604,
                "y": 0.030875300988554955,
                "z": 0.16403168439865112
            }
        },
        "name": "move_to_storage_A"
    },
    "id": "KPIECE_move_to_storage_A_127",
    "joint_names": [
        "shoulder_pan_joint",
        "shoulder_lift_joint",
        "elbow_joint",
        "wrist_1_joint",
        "wrist_2_joint",
        "wrist_3_joint"
    ],
    "metrics": {
        "cart_traj_len": 0.3536668121836004,
        "distance_elbow_joint": 0.4528009671046589,
        "distance_shoulder_lift_joint": 0.2351792739307197,
        "distance_shoulder_pan_joint": 0.4646273153582224,
        "distance_wrist_1_joint": 0.2522874285252962,
        "distance_wrist_2_joint": 1.0914022702681905,
        "distance_wrist_3_joint": 0.10640987170687843,
        "smoothness": 2.2204460668324854e-16,
        "time": 0.082853931,
        "traj_len": 1.6132907756799348,
        "weighted_distance": 2.0394157420940955
    },
    "planner": "KPIECE",
    "start": {
        "state": {
            "elbow_joint": 1.9715474177455299,
            "shoulder_lift_joint": -1.139484666580328,
            "shoulder_pan_joint": 0.12281154398918248,
            "wrist_1_joint": -0.7804687475355282,
            "wrist_2_joint": 0.12958649657246987,
            "wrist_3_joint": -3.1924925159053466
        }
    },
    "waypoints": [
        {
            "positions": [
                0.12281154398918248,
                -1.139484666580328,
                1.9715474177455299,
                -0.7804687475355282,
                0.12958649657246987,
                -3.1924925159053466
            ]
        },
        {
            "positions": [
                0.05643621322372215,
                -1.1730817057132878,
                2.0362332701890526,
                -0.8165098087534276,
                0.28550110661078276,
                -3.177291105661507
            ]
        },
        {
            "positions": [
                -0.00993911754173818,
                -1.206678744846248,
                2.1009191226325754,
                -0.8525508699713271,
                0.44141571664909574,
                -3.162089695417667
            ]
        },
        {
            "positions": [
                -0.07631444830719852,
                -1.2402757839792078,
                2.165604975076098,
                -0.8885919311892265,
                0.5973303266874086,
                -3.1468882851738273
            ]
        },
        {
            "positions": [
                -0.14268977907265884,
                -1.2738728231121679,
                2.2302908275196205,
                -0.924632992407126,
                0.7532449367257216,
                -3.1316868749299873
            ]
        },
        {
            "positions": [
                -0.2090651098381192,
                -1.3074698622451277,
                2.2949766799631433,
                -0.9606740536250254,
                0.9091595467640345,
                -3.1164854646861477
            ]
        },
        {
            "positions": [
                -0.27544044060357953,
                -1.3410669013780878,
                2.359662532406666,
                -0.996715114842925,
                1.0650741568023474,
                -3.1012840544423077
            ]
        },
        {
            "positions": [
                -0.3418157713690399,
                -1.3746639405110477,
                2.4243483848501888,
                -1.0327561760608244,
                1.2209887668406603,
                -3.086082644198468
            ]
        }
    ]
}