{
    "goal": {
        "global_pose": {
            "orientation": {
                "w": 0.005598929693374612,
                "x": 0.007748599140229565,
                "y": 0.7110244013736278,
                "z": -0.7031023480610252
            },
            "position": {
                "x": -0.8858502320852131,
                "y": -0.7141253447532654,
                "z": 0.3711530566215515
            }
        },
        "name": "move_to_auspresseinheit_C"
    },
    "id": "KPIECE_move_to_auspresseinheit_C_107",
    "joint_names": [
        "shoulder_pan_joint",
        "shoulder_lift_joint",
        "elbow_joint",
        "wrist_1_joint",
        "wrist_2_joint",
        "wrist_3_joint"
    ],
    "metrics": {
        "cart_traj_len": 0.49258189801644653,
        "distance_elbow_joint": 0.995927237058989,
        "distance_shoulder_lift_joint": 0.32332084079587475,
        "distance_shoulder_pan_joint": 0.2559520932009862,
        "distance_wrist_1_joint": 0.6678227090945784,
        "distance_wrist_2_joint": 1.3142499840241735,
        "distance_wrist_3_joint": 0.059327218651962,
        "smoothness": 1.1304088905813415e-15,
        "time": 0.809456974,
        "traj_len": 1.90173607075918,
        "weighted_distance": 2.3910933091891753
    },
    "planner": "KPIECE",
    "start": {
        "state": {
            "elbow_joint": 1.752795957773711,
            "shoulder_lift_joint": -0.9740617694225064,
            "shoulder_pan_joint": -2.967991417825858,
            "wrist_1_joint": -0.7595177689806859,
            "wrist_2_joint": 1.7443932448377395,
            "wrist_3_joint": 3.199131542505932
        }
    },
    "waypoints": [
        {
            "positions": [
                -2.967991417825858,
                -0.9740617694225064,
                1.752795957773711,
                -0.7595177689806859,
                1.7443932448377395,
                3.199131542505932
            ]
        },
        {
            "positions": [
                -2.9423962085057593,
                -0.941729685342919,
                1.6532032340678122,
                -0.692735498071228,
                1.612968246435322,
                3.193198820640736
            ]
        },
        {
            "positions": [
                -2.9168009991856607,
                -0.9093976012633315,
                1.5536105103619133,
                -0.6259532271617703,
                1.4815432480329047,
                3.18726609877554
            ]
        },
        {
            "positions": [
                -2.891205789865562,
                -0.877065517183744,
                1.4540177866560144,
                -0.5591709562523124,
                1.3501182496304875,
                3.1813333769103433
            ]
        },
        {
            "positions": [
                -2.8656105805454635,
                -0.8447334331041565,
                1.3544250629501156,
                -0.4923886853428545,
                1.21869325122807,
                3.1754006550451472
            ]
        },
        {
            "positions": [
                -2.840015371225365,
                -0.8124013490245691,
                1.2548323392442167,
                -0.4256064144333967,
                1.0872682528256528,
                3.169467933179951
            ]
        },
        {
            "positions": [
                -2.8144201619052662,
                -0.7800692649449816,
                1.1552396155383178,
                -0.3588241435239389,
                0.9558432544232355,
                3.163535211314755
            ]
        },
        {
            "positions": [
                -2.7888249525851676,
                -0.7477371808653941,
                1.0556468918324189,
                -0.29204187261448106,
                0.8244182560208181,
                3.157602489449559
            ]
        },
        {
            "positions": [
                -2.763229743265069,
                -0.7154050967858065,
                0.9560541681265199,
                -0.22525960170502313,
                0.6929932576184006,
                3.1516697675843623
            ]
        },
        {
            "positions": [
                -2.7376345339449704,
                -0.6830730127062192,
                0.856461444420621,
                -0.15847733079556536,
                0.5615682592159834,
                3.1457370457191662
            ]
        },
        {
            "positions": [
                -2.7120393246248717,
                -0.6507409286266317,
                0.7568687207147221,
                -0.09169505988610746,
                0.4301432608135661,
                3.13980432385397
            ]
        }
    ]
}