{
    "goal": {
        "global_pose": {
            "orientation": {
                "w": 0.7047431493862688,
                "x": -0.7094548369677653,
                "y": 0.0024358444001904,
                "z": -0.0022348060817251984
            },
            "position": {
                "x": -0.39052492380142206,
                "y": 0.3671506643295288,
                "z": 0.19426114857196808
            }
        },
        "name": "move_to_magneteinheit_D"
    },
    "id": "KPIECE_move_to_magneteinheit_D_149",
    "joint_names": [
        "shoulder_pan_joint",
        "shoulder_lift_joint",
        "elbow_joint",
        "wrist_1_joint",
        "wrist_2_joint",
        "wrist_3_joint"
    ],
    "metrics": {
        "cart_traj_len": 6.524446351454401,
        "distance_elbow_joint": 4.4864070295806915,
        "distance_shoulder_lift_joint": 1.105612507612898,
        "distance_shoulder_pan_joint": 7.461287141259675,
        "distance_wrist_1_joint": 2.176188848025376,
        "distance_wrist_2_joint": 1.6057934239576563,
        "distance_wrist_3_joint": 6.203509083099602,
        "smoothness": 0.4142467559013075,
        "time": 0.461700366,
        "traj_len": 4.799874793527005,
        "weighted_distance": 6.263209917583646
    },
    "planner": "KPIECE",
    "start": {
        "state": {
            "elbow_joint": 0.7495348899011973,
            "shoulder_lift_joint": -0.6476975780737697,
            "shoulder_pan_joint": -2.711696901376276,
            "wrist_1_joint": -0.07506478080974305,
            "wrist_2_joint": 0.4329665971545858,
            "wrist_3_joint": 3.1361499051832524
        }
    },
    "waypoints": [
        {
            "positions": [
                -2.711696901376276,
                -0.6476975780737697,
                0.7495348899011973,
                -0.07506478080974305,
                0.4329665971545858,
                3.1361499051832524
            ]
        },
        {
            "positions": [
                -2.7970454077136493,
                -0.7048039464121223,
                0.8400730675448209,
                -0.12593328525308908,
                0.4644118264021898,
                3.0626308614171243
            ]
        },
        {
            "positions": [
                -2.882393914051022,
                -0.7619103147504749,
                0.9306112451884444,
                -0.17680178969643512,
                0.49585705564979377,
                2.989111817650996
            ]
        },
        {
            "positions": [
                -2.967742420388395,
                -0.8190166830888275,
                1.0211494228320679,
                -0.22767029413978115,
                0.5273022848973977,
                2.915592773884868
            ]
        },
        {
            "positions": [
                -3.053090926725768,
                -0.87612305142718,
                1.1116876004756915,
                -0.27853879858312725,
                0.5587475141450018,
                2.8420737301187398
            ]
        },
        {
            "positions": [
                -3.138439433063141,
                -0.9332294197655326,
                1.202225778119315,
                -0.32940730302647325,
                0.5901927433926057,
                2.7685546863526116
            ]
        },
        {
            "positions": [
                -2.971962651743392,
                -0.9514820033432728,
                1.0758228601511626,
                -0.33412925164876356,
                0.601548423766151,
                2.7065652395654674
            ]
        },
        {
            "positions": [
                -2.8054858704236434,
                -0.969734586921013,
                0.9494199421830103,
                -0.33885120027105387,
                0.6129041041396963,
                2.644575792778323
            ]
        },
        {
            "positions": [
                -2.6390090891038946,
                -0.9879871704987532,
                0.8230170242148578,
                -0.34357314889334417,
                0.6242597845132416,
                2.582586345991179
            ]
        },
        {
            "positions": [
                -2.472532307784146,
                -1.0062397540764934,
                0.6966141062467054,
                -0.3482950975156345,
                0.6356154648867868,
                2.520596899204035
            ]
        },
        {
            "positions": [
                -2.3060555264643976,
                -1.0244923376542334,
                0.570211188278553,
                -0.3530170461379248,
                0.6469711452603321,
                2.458607452416891
            ]
        },
        {
            "positions": [
                -2.139578745144649,
                -1.0427449212319737,
                0.4438082703104005,
                -0.3577389947602151,
                0.6583268256338773,
                2.3966180056297466
            ]
        },
        {
            "positions": [
                -1.9731019638249,
                -1.060997504809714,
                0.3174053523422481,
                -0.36246094338250534,
                0.6696825060074226,
                2.3346285588426023
            ]
        },
        {
            "positions": [
                -1.8066251825051514,
                -1.079250088387454,
                0.1910024343740957,
                -0.3671828920047957,
                0.6810381863809679,
                2.272639112055458
            ]
        },
        {
            "positions": [
                -1.6401484011854028,
                -1.0975026719651941,
                0.06459951640594341,
                -0.37190484062708595,
                0.6923938667545132,
                2.210649665268314
            ]
        },
        {
            "positions": [
                -1.473671619865654,
                -1.1157552555429344,
                -0.06180340156220909,
                -0.37662678924937626,
                0.7037495471280585,
                2.1486602184811696
            ]
        },
        {
            "positions": [
                -1.3071948385459056,
                -1.1340078391206745,
                -0.18820631953036138,
                -0.38134873787166657,
                0.7151052275016037,
                2.086670771694026
            ]
        },
        {
            "positions": [
                -1.1407180572261566,
                -1.1522604226984148,
                -0.3146092374985141,
                -0.38607068649395687,
                0.7264609078751489,
                2.024681324906881
            ]
        },
        {
            "positions": [
                -0.9742412759064081,
                -1.1705130062761548,
                -0.4410121554666664,
                -0.3907926351162472,
                0.7378165882486942,
                1.9626918781197373
            ]
        },
        {
            "positions": [
                -0.8077644945866593,
                -1.1887655898538951,
                -0.5674150734348189,
                -0.3955145837385375,
                0.7491722686222395,
                1.900702431332593
            ]
        },
        {
            "positions": [
                -0.6412877132669106,
                -1.2070181734316354,
                -0.6938179914029712,
                -0.4002365323608278,
                0.7605279489957848,
                1.8387129845454488
            ]
        },
        {
            "positions": [
                -0.47481093194716184,
                -1.2252707570093755,
                -0.8202209093711237,
                -0.4049584809831181,
                0.7718836293693301,
                1.7767235377583046
            ]
        },
        {
            "positions": [
                -0.3083341506274131,
                -1.2435233405871156,
                -0.946623827339276,
                -0.4096804296054084,
                0.7832393097428754,
                1.7147340909711606
            ]
        },
        {
            "positions": [
                -0.1418573693076648,
                -1.2617759241648558,
                -1.0730267453074283,
                -0.4144023782276987,
                0.7945949901164207,
                1.6527446441840163
            ]
        },
        {
            "positions": [
                0.024619412012083952,
                -1.2800285077425961,
                -1.1994296632755805,
                -0.419124326849989,
                0.8059506704899659,
                1.590755197396872
            ]
        },
        {
            "positions": [
                0.1910961933318327,
                -1.2982810913203362,
                -1.3258325812437333,
                -0.42384627547227927,
                0.8173063508635111,
                1.528765750609728
            ]
        },
        {
            "positions": [
                0.35757297465158144,
                -1.3165336748980763,
                -1.4522354992118855,
                -0.4285682240945696,
                0.8286620312370564,
                1.4667763038225838
            ]
        },
        {
            "positions": [
                0.5240497559713297,
                -1.3347862584758166,
                -1.5786384171800378,
                -0.4332901727168599,
                0.8400177116106017,
                1.4047868570354396
            ]
        },
        {
            "positions": [
                0.6905265372910794,
                -1.3530388420535568,
                -1.7050413351481906,
                -0.43801212133915024,
                0.851373391984147,
                1.3427974102482954
            ]
        },
        {
            "positions": [
                0.8570033186108277,
                -1.371291425631297,
                -1.8314442531163433,
                -0.4427340699614405,
                0.8627290723576923,
                1.2808079634611511
            ]
        },
        {
            "positions": [
                1.0234800999305769,
                -1.389544009209037,
                -1.9578471710844956,
                -0.44745601858373085,
                0.8740847527312375,
                1.2188185166740069
            ]
        },
        {
            "positions": [
                1.1899568812503247,
                -1.4077965927867773,
                -2.084250089052648,
                -0.4521779672060211,
                0.8854404331047827,
                1.1568290698868628
            ]
        },
        {
            "positions": [
                1.3564336625700735,
                -1.4260491763645176,
                -2.2106530070208,
                -0.45689991582831146,
                0.896796113478328,
                1.0948396230997186
            ]
        },
        {
            "positions": [
                1.5229104438898222,
                -1.4443017599422576,
                -2.337055924988953,
                -0.4616218644506017,
                0.9081517938518733,
                1.0328501763125744
            ]
        },
        {
            "positions": [
                1.689387225209571,
                -1.4625543435199977,
                -2.463458842957105,
                -0.466343813072892,
                0.9195074742254186,
                0.9708607295254303
            ]
        },
        {
            "positions": [
                1.8558640065293197,
                -1.480806927097738,
                -2.5898617609252574,
                -0.47106576169518233,
                0.9308631545989638,
                0.9088712827382861
            ]
        },
        {
            "positions": [
                1.7708539577801385,
                -1.4921612253722767,
                -2.5797939024953407,
                -0.5452402561593463,
                0.8847007851609106,
                0.7431950135443428
            ]
        },
        {
            "positions": [
                1.6858439090309574,
                -1.5035155236468154,
                -2.5697260440654244,
                -0.6194147506235104,
                0.8385384157228574,
                0.5775187443503995
            ]
        },
        {
            "positions": [
                1.6008338602817762,
                -1.514869821921354,
                -2.5596581856355076,
                -0.6935892450876744,
                0.7923760462848042,
                0.4118424751564563
            ]
        },
        {
            "positions": [
                1.515823811532595,
                -1.5262241201958928,
                -2.549590327205591,
                -0.7677637395518384,
                0.7462136768467509,
                0.24616620596251304
            ]
        },
        {
            "positions": [
                1.4308137627834137,
                -1.5375784184704318,
                -2.539522468775674,
                -0.8419382340160025,
                0.7000513074086976,
                0.08048993676856975
            ]
        },
        {
            "positions": [
                1.3458037140342325,
                -1.5489327167449705,
                -2.529454610345758,
                -0.9161127284801666,
                0.6538889379706444,
                -0.08518633242537355
            ]
        },
        {
            "positions": [
                1.260793665285051,
                -1.5602870150195092,
                -2.519386751915841,
                -0.9902872229443306,
                0.6077265685325912,
                -0.25086260161931695
            ]
        },
        {
            "positions": [
                1.1757836165358702,
                -1.5716413132940479,
                -2.5093188934859243,
                -1.0644617174084945,
                0.5615641990945379,
                -0.41653887081326
            ]
        },
        {
            "positions": [
                1.0907735677866888,
                -1.5829956115685866,
                -2.499251035056008,
                -1.1386362118726587,
                0.5154018296564846,
                -0.5822151400072033
            ]
        },
        {
            "positions": [
                1.0057635190375076,
                -1.5943499098431253,
                -2.4891831766260912,
                -1.2128107063368228,
                0.46923946021843144,
                -0.7478914092011466
            ]
        },
        {
            "positions": [
                0.9207534702883265,
                -1.605704208117664,
                -2.4791153181961745,
                -1.2869852008009868,
                0.42307709078037825,
                -0.9135676783950899
            ]
        },
        {
            "positions": [
                0.8357434215391453,
                -1.617058506392203,
                -2.4690474597662577,
                -1.3611596952651508,
                0.37691472134232495,
                -1.0792439475890332
            ]
        },
        {
            "positions": [
                0.7507333727899641,
                -1.6284128046667417,
                -2.4589796013363414,
                -1.4353341897293148,
                0.33075235190427177,
                -1.2449202167829765
            ]
        },
        {
            "positions": [
                0.6657233240407827,
                -1.6397671029412804,
                -2.4489117429064247,
                -1.5095086841934788,
                0.28458998246621847,
                -1.41059648597692
            ]
        },
        {
            "positions": [
                0.5807132752916018,
                -1.651121401215819,
                -2.438843884476508,
                -1.5836831786576429,
                0.23842761302816529,
                -1.576272755170863
            ]
        },
        {
            "positions": [
                0.4957032265424206,
                -1.6624756994903578,
                -2.4287760260465916,
                -1.6578576731218069,
                0.192265243590112,
                -1.7419490243648061
            ]
        },
        {
            "positions": [
                0.4106931777932392,
                -1.6738299977648965,
                -2.418708167616675,
                -1.7320321675859711,
                0.1461028741520587,
                -1.9076252935587497
            ]
        },
        {
            "positions": [
                0.32568312904405805,
                -1.6851842960394352,
                -2.408640309186758,
                -1.8062066620501351,
                0.09994050471400551,
                -2.0733015627526927
            ]
        },
        {
            "positions": [
                0.24067308029487688,
                -1.696538594313974,
                -2.398572450756842,
                -1.880381156514299,
                0.05377813527595232,
                -2.238977831946636
            ]
        },
        {
            "positions": [
                0.1556630315456955,
                -1.7078928925885126,
                -2.388504592326925,
                -1.9545556509784632,
                0.0076157658378990245,
                -2.4046541011405793
            ]
        },
        {
            "positions": [
                0.07065298279651433,
                -1.7192471908630516,
                -2.3784367338970083,
                -2.028730145442627,
                -0.03854660360015427,
                -2.570330370334523
            ]
        },
        {
            "positions": [
                -0.014357065952666614,
                -1.7306014891375903,
                -2.3683688754670915,
                -2.102904639906791,
                -0.08470897303820735,
                -2.736006639528466
            ]
        },
        {
            "positions": [
                -0.099367114701848,
                -1.741955787412129,
                -2.358301017037175,
                -2.1770791343709552,
                -0.13087134247626064,
                -2.9016829087224094
            ]
        },
        {
            "positions": [
                -0.18437716345102895,
                -1.7533100856866677,
                -2.3482331586072585,
                -2.2512536288351193,
                -0.17703371191431405,
                -3.0673591779163525
            ]
        }
    ]
}