{
    "goal": {
        "global_pose": {
            "orientation": {
                "w": 0.5084816217422485,
                "x": -0.49083608388900757,
                "y": 0.5182115435600281,
                "z": -0.4816462993621826
            },
            "position": {
                "x": 0.5540239810943604,
                "y": 0.030875300988554955,
                "z": 0.16403168439865112
            }
        },
        "name": "move_to_storage_A"
    },
    "id": "KPIECE_move_to_storage_A_148",
    "joint_names": [
        "shoulder_pan_joint",
        "shoulder_lift_joint",
        "elbow_joint",
        "wrist_1_joint",
        "wrist_2_joint",
        "wrist_3_joint"
    ],
    "metrics": {
        "cart_traj_len": 0.3534408288282705,
        "distance_elbow_joint": 0.4535693275130743,
        "distance_shoulder_lift_joint": 0.23400058397691748,
        "distance_shoulder_pan_joint": 0.46111493212656446,
        "distance_wrist_1_joint": 0.26112733219676165,
        "distance_wrist_2_joint": 1.1039915826419517,
        "distance_wrist_3_joint": 0.09468761433998818,
        "smoothness": 4.440892098500626e-16,
        "time": 0.011697919,
        "traj_len": 1.6150824662521903,
        "weighted_distance": 2.040339559071957
    },
    "planner": "KPIECE",
    "start": {
        "state": {
            "elbow_joint": 1.9715474177455299,
            "shoulder_lift_joint": -1.139484666580328,
            "shoulder_pan_joint": 0.12281154398918248,
            "wrist_1_joint": -0.7804687475355282,
            "wrist_2_joint": 0.12958649657246987,
            "wrist_3_joint": -3.1924925159053466
        }
    },
    "waypoints": [
        {
            "positions": [
                0.12281154398918248,
                -1.139484666580328,
                1.9715474177455299,
                -0.7804687475355282,
                0.12958649657246987,
                -3.1924925159053466
            ]
        },
        {
            "positions": [
                0.056937982256816136,
                -1.1729133214341734,
                2.0363430359616834,
                -0.8177726521350656,
                0.2872995798070344,
                -3.1789657138567766
            ]
        },
        {
            "positions": [
                -0.00893557947555021,
                -1.2063419762880188,
                2.101138654177837,
                -0.8550765567346029,
                0.4450126630415989,
                -3.165438911808207
            ]
        },
        {
            "positions": [
                -0.07480914120791657,
                -1.2397706311418641,
                2.1659342723939905,
                -0.8923804613341403,
                0.6027257462761635,
                -3.151912109759637
            ]
        },
        {
            "positions": [
                -0.1406827029402829,
                -1.2731992859957093,
                2.2307298906101436,
                -0.9296843659336778,
                0.760438829510728,
                -3.1383853077110677
            ]
        },
        {
            "positions": [
                -0.20655626467264926,
                -1.3066279408495547,
                2.295525508826297,
                -0.9669882705332151,
                0.9181519127452926,
                -3.124858505662498
            ]
        },
        {
            "positions": [
                -0.2724298264050156,
                -1.3400565957034,
                2.3603211270424507,
                -1.0042921751327525,
                1.075864995979857,
                -3.1113317036139283
            ]
        },
        {
            "positions": [
                -0.338303388137382,
                -1.3734852505572455,
                2.425116745258604,
                -1.0415960797322898,
                1.2335780792144215,
                -3.0978049015653584
            ]
        }
    ]
}