{
    "goal": {
        "global_pose": {
            "orientation": {
                "w": 0.7047431493862688,
                "x": -0.7094548369677653,
                "y": 0.0024358444001904,
                "z": -0.0022348060817251984
            },
            "position": {
                "x": -0.39052492380142206,
                "y": 0.3671506643295288,
                "z": 0.19426114857196808
            }
        },
        "name": "move_to_magneteinheit_D"
    },
    "id": "KPIECE_move_to_magneteinheit_D_117",
    "joint_names": [
        "shoulder_pan_joint",
        "shoulder_lift_joint",
        "elbow_joint",
        "wrist_1_joint",
        "wrist_2_joint",
        "wrist_3_joint"
    ],
    "metrics": {
        "cart_traj_len": 4.839854620504758,
        "distance_elbow_joint": 5.363943719755882,
        "distance_shoulder_lift_joint": 1.5795488279537429,
        "distance_shoulder_pan_joint": 3.219992069960289,
        "distance_wrist_1_joint": 2.470130581555627,
        "distance_wrist_2_joint": 2.1682066677950997,
        "distance_wrist_3_joint": 6.667919632514073,
        "smoothness": 0.5736734978116956,
        "time": 0.129465082,
        "traj_len": 4.633545240907304,
        "weighted_distance": 6.280439316951768
    },
    "planner": "KPIECE",
    "start": {
        "state": {
            "elbow_joint": 0.7495348899011973,
            "shoulder_lift_joint": -0.6476975780737697,
            "shoulder_pan_joint": -2.711696901376276,
            "wrist_1_joint": -0.07506478080974305,
            "wrist_2_joint": 0.4329665971545858,
            "wrist_3_joint": 3.1361499051832524
        }
    },
    "waypoints": [
        {
            "positions": [
                -2.711696901376276,
                -0.6476975780737697,
                0.7495348899011973,
                -0.07506478080974305,
                0.4329665971545858,
                3.1361499051832524
            ]
        },
        {
            "positions": [
                -2.70500962644211,
                -0.6727667469547025,
                0.8160011928038609,
                -0.11857403685552043,
                0.35604689545175194,
                2.9623213789983107
            ]
        },
        {
            "positions": [
                -2.6983223515079438,
                -0.6978359158356353,
                0.8824674957065244,
                -0.1620832929012978,
                0.2791271937489181,
                2.7884928528133694
            ]
        },
        {
            "positions": [
                -2.6916350765737778,
                -0.7229050847165681,
                0.9489337986091878,
                -0.20559254894707515,
                0.20220749204608424,
                2.6146643266284277
            ]
        },
        {
            "positions": [
                -2.6849478016396113,
                -0.747974253597501,
                1.0154001015118514,
                -0.24910180499285253,
                0.12528779034325038,
                2.4408358004434865
            ]
        },
        {
            "positions": [
                -2.6782605267054453,
                -0.7730434224784338,
                1.0818664044145148,
                -0.2926110610386299,
                0.04836808864041653,
                2.2670072742585448
            ]
        },
        {
            "positions": [
                -2.671573251771279,
                -0.7981125913593666,
                1.1483327073171783,
                -0.33612031708440726,
                -0.028551613062417325,
                2.093178748073603
            ]
        },
        {
            "positions": [
                -2.664885976837113,
                -0.8231817602402994,
                1.2147990102198418,
                -0.37962957313018464,
                -0.10547131476525112,
                1.9193502218886618
            ]
        },
        {
            "positions": [
                -2.6581987019029465,
                -0.8482509291212322,
                1.2812653131225054,
                -0.423138829175962,
                -0.18239101646808503,
                1.74552169570372
            ]
        },
        {
            "positions": [
                -2.6515114269687805,
                -0.873320098002165,
                1.3477316160251687,
                -0.46664808522173934,
                -0.25931071817091883,
                1.5716931695187786
            ]
        },
        {
            "positions": [
                -2.644824152034614,
                -0.898389266883098,
                1.4141979189278322,
                -0.5101573412675168,
                -0.33623041987375274,
                1.3978646433338369
            ]
        },
        {
            "positions": [
                -2.638136877100448,
                -0.9234584357640307,
                1.4806642218304957,
                -0.5536665973132942,
                -0.41315012157658654,
                1.2240361171488956
            ]
        },
        {
            "positions": [
                -2.6314496021662817,
                -0.9485276046449636,
                1.5471305247331593,
                -0.5971758533590714,
                -0.49006982327942045,
                1.0502075909639537
            ]
        },
        {
            "positions": [
                -2.6247623272321157,
                -0.9735967735258964,
                1.6135968276358228,
                -0.6406851094048489,
                -0.5669895249822543,
                0.8763790647790126
            ]
        },
        {
            "positions": [
                -2.570776819994755,
                -1.0288594620681653,
                1.6185499746031318,
                -0.6371593864828937,
                -0.6005631618320127,
                0.7145236555600446
            ]
        },
        {
            "positions": [
                -2.5167913127573946,
                -1.0841221506104344,
                1.6235031215704407,
                -0.6336336635609385,
                -0.6341367986817712,
                0.5526682463410766
            ]
        },
        {
            "positions": [
                -2.434055102898829,
                -1.1488299392207653,
                1.5829800851282216,
                -0.6151273825221536,
                -0.6484979628040757,
                0.38519419866460725
            ]
        },
        {
            "positions": [
                -2.3513188930402626,
                -1.213537727831096,
                1.5424570486860025,
                -0.5966211014833687,
                -0.6628591269263802,
                0.2177201509881379
            ]
        },
        {
            "positions": [
                -2.2685826831816964,
                -1.2782455164414266,
                1.5019340122437834,
                -0.5781148204445837,
                -0.6772202910486845,
                0.05024610331166868
            ]
        },
        {
            "positions": [
                -2.1858464733231306,
                -1.3429533050517575,
                1.4614109758015643,
                -0.5596085394057987,
                -0.691581455170989,
                -0.11722794436480077
            ]
        },
        {
            "positions": [
                -2.103110263464565,
                -1.4076610936620884,
                1.4208879393593452,
                -0.5411022583670138,
                -0.7059426192932935,
                -0.28470199204127
            ]
        },
        {
            "positions": [
                -2.0203740536059986,
                -1.472368882272419,
                1.380364902917126,
                -0.5225959773282288,
                -0.720303783415598,
                -0.45217603971773923
            ]
        },
        {
            "positions": [
                -1.9376378437474326,
                -1.5370766708827497,
                1.339841866474907,
                -0.5040896962894439,
                -0.7346649475379023,
                -0.6196500873942086
            ]
        },
        {
            "positions": [
                -1.8549016338888666,
                -1.6017844594930806,
                1.2993188300326879,
                -0.48558341525065896,
                -0.7490261116602068,
                -0.7871241350706781
            ]
        },
        {
            "positions": [
                -1.7721654240303006,
                -1.6664922481034115,
                1.2587957935904688,
                -0.46707713421187397,
                -0.7633872757825113,
                -0.9545981827471473
            ]
        },
        {
            "positions": [
                -1.6894292141717346,
                -1.7312000367137421,
                1.2182727571482497,
                -0.44857085317308903,
                -0.7777484399048158,
                -1.1220722304236166
            ]
        },
        {
            "positions": [
                -1.615581749550374,
                -1.7309437843926059,
                1.0688600431237105,
                -0.5005928006403597,
                -0.7562583790451594,
                -1.2066744039385793
            ]
        },
        {
            "positions": [
                -1.5417342849290134,
                -1.7306875320714696,
                0.9194473290991714,
                -0.5526147481076304,
                -0.734768318185503,
                -1.291276577453542
            ]
        },
        {
            "positions": [
                -1.467886820307653,
                -1.7304312797503334,
                0.7700346150746321,
                -0.6046366955749012,
                -0.7132782573258466,
                -1.3758787509685049
            ]
        },
        {
            "positions": [
                -1.3940393556862922,
                -1.730175027429197,
                0.620621901050093,
                -0.6566586430421719,
                -0.6917881964661903,
                -1.4604809244834676
            ]
        },
        {
            "positions": [
                -1.3201918910649315,
                -1.7299187751080607,
                0.4712091870255537,
                -0.7086805905094427,
                -0.6702981356065338,
                -1.5450830979984302
            ]
        },
        {
            "positions": [
                -1.246344426443571,
                -1.7296625227869245,
                0.32179647300101455,
                -0.7607025379767133,
                -0.6488080747468775,
                -1.629685271513393
            ]
        },
        {
            "positions": [
                -1.1724969618222105,
                -1.7294062704657882,
                0.1723837589764754,
                -0.812724485443984,
                -0.6273180138872211,
                -1.7142874450283556
            ]
        },
        {
            "positions": [
                -1.0986494972008498,
                -1.729150018144652,
                0.022971044951936248,
                -0.8647464329112546,
                -0.6058279530275648,
                -1.7988896185433183
            ]
        },
        {
            "positions": [
                -1.024802032579489,
                -1.7288937658235155,
                -0.1264416690726029,
                -0.9167683803785254,
                -0.5843378921679083,
                -1.883491792058281
            ]
        },
        {
            "positions": [
                -0.9509545679581286,
                -1.7286375135023793,
                -0.2758543830971423,
                -0.9687903278457961,
                -0.5628478313082519,
                -1.968093965573244
            ]
        },
        {
            "positions": [
                -0.877107103336768,
                -1.728381261181243,
                -0.4252670971216814,
                -1.0208122753130668,
                -0.5413577704485956,
                -2.0526961390882064
            ]
        },
        {
            "positions": [
                -0.8032596387154074,
                -1.7281250088601068,
                -0.5746798111462206,
                -1.0728342227803376,
                -0.5198677095889392,
                -2.1372983126031695
            ]
        },
        {
            "positions": [
                -0.7294121740940469,
                -1.7278687565389705,
                -0.7240925251707597,
                -1.124856170247608,
                -0.4983776487292828,
                -2.221900486118132
            ]
        },
        {
            "positions": [
                -0.6555647094726862,
                -1.7276125042178343,
                -0.8735052391952989,
                -1.176878117714879,
                -0.4768875878696264,
                -2.306502659633095
            ]
        },
        {
            "positions": [
                -0.5817172448513257,
                -1.727356251896698,
                -1.0229179532198382,
                -1.2289000651821496,
                -0.45539752700997005,
                -2.3911048331480576
            ]
        },
        {
            "positions": [
                -0.507869780229965,
                -1.7270999995755616,
                -1.1723306672443772,
                -1.2809220126494203,
                -0.43390746615031367,
                -2.4757070066630202
            ]
        },
        {
            "positions": [
                -0.43402231560860427,
                -1.7268437472544254,
                -1.3217433812689166,
                -1.332943960116691,
                -0.41241740529065724,
                -2.560309180177983
            ]
        },
        {
            "positions": [
                -0.3601748509872438,
                -1.7265874949332891,
                -1.4711560952934555,
                -1.3849659075839618,
                -0.39092734443100086,
                -2.6449113536929456
            ]
        },
        {
            "positions": [
                -0.2863273863658833,
                -1.7263312426121529,
                -1.6205688093179949,
                -1.4369878550512325,
                -0.36943728357134453,
                -2.7295135272079083
            ]
        },
        {
            "positions": [
                -0.21247992174452257,
                -1.7260749902910166,
                -1.7699815233425342,
                -1.4890098025185032,
                -0.3479472227116881,
                -2.814115700722871
            ]
        },
        {
            "positions": [
                -0.13863245712316186,
                -1.7258187379698802,
                -1.9193942373670732,
                -1.5410317499857737,
                -0.3264571618520317,
                -2.8987178742378337
            ]
        },
        {
            "positions": [
                -0.06478499250180136,
                -1.725562485648744,
                -2.0688069513916125,
                -1.5930536974530445,
                -0.3049671009923754,
                -2.9833200477527964
            ]
        },
        {
            "positions": [
                0.00906247211955935,
                -1.7253062333276077,
                -2.218219665416152,
                -1.6450756449203152,
                -0.28347704013271896,
                -3.067922221267759
            ]
        },
        {
            "positions": [
                0.08290993674091973,
                -1.7250499810064714,
                -2.367632379440691,
                -1.697097592387586,
                -0.2619869792730626,
                -3.152524394782722
            ]
        },
        {
            "positions": [
                0.10233853403694466,
                -1.788248813031565,
                -2.430032706599099,
                -1.779227571170264,
                -0.19744010567240572,
                -3.105428161759796
            ]
        },
        {
            "positions": [
                0.1217671313329696,
                -1.8514476450566586,
                -2.492433033757507,
                -1.8613575499529422,
                -0.13289323207174886,
                -3.05833192873687
            ]
        },
        {
            "positions": [
                0.14119572862899454,
                -1.9146464770817524,
                -2.5548333609159153,
                -1.9434875287356204,
                -0.068346358471092,
                -3.011235695713944
            ]
        },
        {
            "positions": [
                0.16062432592501946,
                -1.977845309106846,
                -2.6172336880743234,
                -2.0256175075182985,
                -0.0037994848704351325,
                -2.964139462691018
            ]
        },
        {
            "positions": [
                0.07370661526027138,
                -1.9185700627303146,
                -2.554924018463854,
                -2.0594548431141866,
                -0.04968515379576402,
                -3.011854562805116
            ]
        },
        {
            "positions": [
                -0.013211095404476708,
                -1.8592948163537835,
                -2.492614348853385,
                -2.0932921787100742,
                -0.09557082272109291,
                -3.0595696629192144
            ]
        },
        {
            "positions": [
                -0.10012880606922481,
                -1.800019569977252,
                -2.4303046792429153,
                -2.1271295143059623,
                -0.1414564916464218,
                -3.107284763033313
            ]
        },
        {
            "positions": [
                -0.18704651673397288,
                -1.7407443236007207,
                -2.367995009632446,
                -2.1609668499018504,
                -0.18734216057175068,
                -3.154999863147411
            ]
        }
    ]
}