{
    "goal": {
        "global_pose": {
            "orientation": {
                "w": 0.7031023502349854,
                "x": -0.7110244035720825,
                "y": 0.007748599164187908,
                "z": 0.005598929710686207
            },
            "position": {
                "x": 0.11585023208521307,
                "y": 0.44412534475326537,
                "z": 0.3711530566215515
            }
        },
        "name": "move_to_auspresseinheit_A"
    },
    "id": "KPIECE_move_to_auspresseinheit_A_101",
    "joint_names": [
        "shoulder_pan_joint",
        "shoulder_lift_joint",
        "elbow_joint",
        "wrist_1_joint",
        "wrist_2_joint",
        "wrist_3_joint"
    ],
    "metrics": {
        "cart_traj_len": 2.0034909754984223,
        "distance_elbow_joint": 1.2842020008553936,
        "distance_shoulder_lift_joint": 2.0572182694263157,
        "distance_shoulder_pan_joint": 5.164135802221141,
        "distance_wrist_1_joint": 7.532954817286952,
        "distance_wrist_2_joint": 0.5277629654479029,
        "distance_wrist_3_joint": 7.496485031812988,
        "smoothness": 0.5386934011345605,
        "time": 0.34840295499999996,
        "traj_len": 4.905380605727826,
        "weighted_distance": 6.864142097408204
    },
    "planner": "KPIECE",
    "start": {
        "state": {
            "elbow_joint": 2.4225747245308327,
            "shoulder_lift_joint": -1.373653427065438,
            "shoulder_pan_joint": -0.33786330853087027,
            "wrist_1_joint": -1.0288602302712604,
            "wrist_2_joint": 1.23302299562683,
            "wrist_3_joint": -3.094021725338297
        }
    },
    "waypoints": [
        {
            "positions": [
                -0.33786330853087027,
                -1.373653427065438,
                2.4225747245308327,
                -1.0288602302712604,
                1.23302299562683,
                -3.094021725338297
            ]
        },
        {
            "positions": [
                -0.40433031349805365,
                -1.4154552373224132,
                2.4013511867983115,
                -0.8981575944178142,
                1.2263281273298463,
                -2.973748902490246
            ]
        },
        {
            "positions": [
                -0.47079731846523704,
                -1.4572570475793882,
                2.38012764906579,
                -0.767454958564368,
                1.2196332590328627,
                -2.853476079642195
            ]
        },
        {
            "positions": [
                -0.5372643234324204,
                -1.4990588578363635,
                2.3589041113332687,
                -0.6367523227109217,
                1.212938390735879,
                -2.733203256794144
            ]
        },
        {
            "positions": [
                -0.6037313283996038,
                -1.5408606680933388,
                2.3376805736007475,
                -0.5060496868574756,
                1.2062435224388957,
                -2.6129304339460933
            ]
        },
        {
            "positions": [
                -0.6701983333667871,
                -1.582662478350314,
                2.316457035868226,
                -0.37534705100402943,
                1.199548654141912,
                -2.4926576110980423
            ]
        },
        {
            "positions": [
                -0.7366653383339705,
                -1.624464288607289,
                2.2952334981357048,
                -0.24464441515058322,
                1.1928537858449284,
                -2.3723847882499913
            ]
        },
        {
            "positions": [
                -0.8031323433011539,
                -1.6662660988642644,
                2.274009960403183,
                -0.113941779297137,
                1.1861589175479448,
                -2.25211196540194
            ]
        },
        {
            "positions": [
                -0.8695993482683373,
                -1.7080679091212396,
                2.252786422670662,
                0.0167608565563091,
                1.1794640492509612,
                -2.131839142553889
            ]
        },
        {
            "positions": [
                -0.9360663532355207,
                -1.7498697193782147,
                2.231562884938141,
                0.14746349240975554,
                1.1727691809539775,
                -2.011566319705838
            ]
        },
        {
            "positions": [
                -1.002533358202704,
                -1.79167152963519,
                2.210339347205619,
                0.27816612826320153,
                1.166074312656994,
                -1.8912934968577872
            ]
        },
        {
            "positions": [
                -1.0690003631698874,
                -1.8334733398921652,
                2.189115809473098,
                0.40886876411664796,
                1.1593794443600103,
                -1.771020674009736
            ]
        },
        {
            "positions": [
                -1.1354673681370708,
                -1.8752751501491405,
                2.167892271740577,
                0.539571399970094,
                1.1526845760630269,
                -1.6507478511616853
            ]
        },
        {
            "positions": [
                -1.2019343731042542,
                -1.9170769604061157,
                2.1466687340080552,
                0.6702740358235402,
                1.1459897077660433,
                -1.5304750283136341
            ]
        },
        {
            "positions": [
                -1.2684013780714376,
                -1.9588787706630908,
                2.125445196275534,
                0.8009766716769864,
                1.1392948394690596,
                -1.4102022054655832
            ]
        },
        {
            "positions": [
                -1.334868383038621,
                -2.000680580920066,
                2.104221658543013,
                0.9316793075304326,
                1.132599971172076,
                -1.2899293826175322
            ]
        },
        {
            "positions": [
                -1.4013353880058044,
                -2.042482391177041,
                2.0829981208104913,
                1.0623819433838786,
                1.1259051028750924,
                -1.1696565597694812
            ]
        },
        {
            "positions": [
                -1.4678023929729878,
                -2.0842842014340164,
                2.06177458307797,
                1.1930845792373248,
                1.1192102345781088,
                -1.0493837369214303
            ]
        },
        {
            "positions": [
                -1.5342693979401711,
                -2.1260860116909917,
                2.040551045345449,
                1.3237872150907715,
                1.1125153662811251,
                -0.9291109140733793
            ]
        },
        {
            "positions": [
                -1.6007364029073545,
                -2.167887821947967,
                2.0193275076129273,
                1.4544898509442172,
                1.1058204979841415,
                -0.8088380912253283
            ]
        },
        {
            "positions": [
                -1.667203407874538,
                -2.2096896322049417,
                1.9981039698804062,
                1.5851924867976634,
                1.099125629687158,
                -0.6885652683772774
            ]
        },
        {
            "positions": [
                -1.7336704128417213,
                -2.251491442461917,
                1.9768804321478848,
                1.7158951226511097,
                1.0924307613901745,
                -0.5682924455292264
            ]
        },
        {
            "positions": [
                -1.8001374178089047,
                -2.2932932527188923,
                1.9556568944153634,
                1.8465977585045563,
                1.0857358930931909,
                -0.448019622681175
            ]
        },
        {
            "positions": [
                -1.866604422776088,
                -2.3350950629758676,
                1.9344333566828422,
                1.977300394358002,
                1.0790410247962072,
                -0.32774679983312405
            ]
        },
        {
            "positions": [
                -1.9330714277432715,
                -2.376896873232843,
                1.9132098189503208,
                2.1080030302114485,
                1.0723461564992236,
                -0.20747397698507353
            ]
        },
        {
            "positions": [
                -1.9995384327104548,
                -2.4186986834898176,
                1.8919862812177994,
                2.2387056660648943,
                1.06565128820224,
                -0.08720115413702256
            ]
        },
        {
            "positions": [
                -2.0660054376776382,
                -2.4605004937467934,
                1.8707627434852783,
                2.369408301918341,
                1.0589564199052564,
                0.033071668711028845
            ]
        },
        {
            "positions": [
                -2.1324724426448216,
                -2.502302304003768,
                1.8495392057527569,
                2.5001109377717867,
                1.052261551608273,
                0.1533444915590798
            ]
        },
        {
            "positions": [
                -2.198939447612005,
                -2.544104114260744,
                1.8283156680202355,
                2.6308135736252334,
                1.0455666833112893,
                0.2736173144071308
            ]
        },
        {
            "positions": [
                -2.2654064525791884,
                -2.5859059245177187,
                1.8070921302877143,
                2.761516209478679,
                1.0388718150143057,
                0.3938901372551813
            ]
        },
        {
            "positions": [
                -2.3318734575463718,
                -2.627707734774694,
                1.7858685925551927,
                2.892218845332126,
                1.032176946717322,
                0.5141629601032327
            ]
        },
        {
            "positions": [
                -2.398340462513555,
                -2.6695095450316693,
                1.7646450548226715,
                3.022921481185572,
                1.0254820784203384,
                0.6344357829512837
            ]
        },
        {
            "positions": [
                -2.298222441602637,
                -2.644949475629731,
                1.7848473880854854,
                2.910625574545891,
                1.01515233492868,
                0.5128865079989158
            ]
        },
        {
            "positions": [
                -2.198104420691719,
                -2.620389406227793,
                1.8050497213482994,
                2.7983296679062093,
                1.0048225914370217,
                0.3913372330465479
            ]
        },
        {
            "positions": [
                -2.097986399780801,
                -2.5958293368258545,
                1.8252520546111133,
                2.686033761266528,
                0.9944928479453632,
                0.26978795809417994
            ]
        },
        {
            "positions": [
                -1.997868378869883,
                -2.5712692674239164,
                1.8454543878739273,
                2.5737378546268466,
                0.9841631044537047,
                0.14823868314181204
            ]
        },
        {
            "positions": [
                -1.897750357958965,
                -2.5467091980219783,
                1.8656567211367412,
                2.4614419479871654,
                0.9738333609620463,
                0.026689408189444208
            ]
        },
        {
            "positions": [
                -1.797632337048047,
                -2.52214912862004,
                1.8858590543995553,
                2.349146041347484,
                0.9635036174703878,
                -0.0948598667629238
            ]
        },
        {
            "positions": [
                -1.6975143161371289,
                -2.4975890592181016,
                1.906061387662369,
                2.2368501347078027,
                0.9531738739787294,
                -0.2164091417152917
            ]
        },
        {
            "positions": [
                -1.5973962952262108,
                -2.4730289898161635,
                1.9262637209251832,
                2.1245542280681216,
                0.9428441304870709,
                -0.3379584166676596
            ]
        },
        {
            "positions": [
                -1.4972782743152928,
                -2.4484689204142254,
                1.946466054187997,
                2.01225832142844,
                0.9325143869954126,
                -0.4595076916200276
            ]
        },
        {
            "positions": [
                -1.397160253404375,
                -2.4239088510122873,
                1.966668387450811,
                1.8999624147887588,
                0.9221846435037542,
                -0.5810569665723953
            ]
        },
        {
            "positions": [
                -1.2970422324934567,
                -2.3993487816103487,
                1.986870720713625,
                1.7876665081490772,
                0.9118549000120957,
                -0.7026062415247634
            ]
        },
        {
            "positions": [
                -1.196924211582539,
                -2.3747887122084106,
                2.007073053976439,
                1.675370601509396,
                0.9015251565204373,
                -0.8241555164771313
            ]
        },
        {
            "positions": [
                -1.0968061906716209,
                -2.3502286428064725,
                2.027275387239253,
                1.5630746948697147,
                0.8911954130287788,
                -0.9457047914294991
            ]
        },
        {
            "positions": [
                -0.9966881697607028,
                -2.3256685734045344,
                2.0474777205020667,
                1.4507787882300334,
                0.8808656695371204,
                -1.067254066381867
            ]
        },
        {
            "positions": [
                -0.8965701488497848,
                -2.301108504002596,
                2.0676800537648807,
                1.338482881590352,
                0.8705359260454619,
                -1.188803341334235
            ]
        },
        {
            "positions": [
                -0.7964521279388668,
                -2.2765484346006577,
                2.087882387027695,
                1.2261869749506709,
                0.8602061825538035,
                -1.3103526162866028
            ]
        },
        {
            "positions": [
                -0.696334107027949,
                -2.2519883651987196,
                2.108084720290509,
                1.1138910683109895,
                0.8498764390621452,
                -1.4319018912389705
            ]
        },
        {
            "positions": [
                -0.5962160861170307,
                -2.2274282957967815,
                2.1282870535533225,
                1.001595161671308,
                0.8395466955704867,
                -1.5534511661913388
            ]
        },
        {
            "positions": [
                -0.49609806520611266,
                -2.202868226394843,
                2.1484893868161365,
                0.8892992550316268,
                0.8292169520788282,
                -1.6750004411437067
            ]
        },
        {
            "positions": [
                -0.39598004429519484,
                -2.178308156992905,
                2.1686917200789506,
                0.7770033483919456,
                0.8188872085871698,
                -1.7965497160960742
            ]
        },
        {
            "positions": [
                -0.2958620233842768,
                -2.1537480875909667,
                2.1888940533417642,
                0.6647074417522645,
                0.8085574650955114,
                -1.918098991048442
            ]
        },
        {
            "positions": [
                -0.19574400247335833,
                -2.129188018189028,
                2.2090963866045783,
                0.5524115351125825,
                0.7982277216038529,
                -2.0396482660008104
            ]
        },
        {
            "positions": [
                -0.09562598156244073,
                -2.1046279487870905,
                2.2292987198673924,
                0.4401156284729013,
                0.7878979781121944,
                -2.1611975409531783
            ]
        },
        {
            "positions": [
                0.004492039348477306,
                -2.080067879385152,
                2.2495010531302064,
                0.32781972183322017,
                0.777568234620536,
                -2.282746815905546
            ]
        },
        {
            "positions": [
                0.10461006025939534,
                -2.055507809983214,
                2.2697033863930205,
                0.21552381519353903,
                0.7672384911288777,
                -2.4042960908579136
            ]
        },
        {
            "positions": [
                0.20472808117031338,
                -2.0309477405812757,
                2.289905719655834,
                0.10322790855385744,
                0.7569087476372192,
                -2.525845365810282
            ]
        },
        {
            "positions": [
                0.3048461020812314,
                -2.006387671179337,
                2.310108052918648,
                -0.009067998085823703,
                0.7465790041455608,
                -2.64739464076265
            ]
        },
        {
            "positions": [
                0.40496412299214946,
                -1.981827601777399,
                2.3303103861814622,
                -0.12136390472550529,
                0.7362492606539024,
                -2.7689439157150177
            ]
        },
        {
            "positions": [
                0.5050821439030675,
                -1.957267532375461,
                2.350512719444276,
                -0.23365981136518643,
                0.7259195171622439,
                -2.890493190667385
            ]
        },
        {
            "positions": [
                0.6052001648139855,
                -1.9327074629735228,
                2.37071505270709,
                -0.345955718004868,
                0.7155897736705854,
                -3.0120424656197535
            ]
        },
        {
            "positions": [
                0.7053181857249036,
                -1.9081473935715845,
                2.390917385969904,
                -0.458251624644549,
                0.705260030178927,
                -3.1335917405721214
            ]
        }
    ]
}