{
    "goal": {
        "global_pose": {
            "orientation": {
                "w": -0.00223480608172531,
                "x": 0.0024358444001904467,
                "y": 0.7094548369677653,
                "z": -0.704743149386269
            },
            "position": {
                "x": -0.37947507619857795,
                "y": -0.6371506643295288,
                "z": 0.19426114857196808
            }
        },
        "name": "move_to_magneteinheit_C"
    },
    "id": "KPIECE_move_to_magneteinheit_C_119",
    "joint_names": [
        "shoulder_pan_joint",
        "shoulder_lift_joint",
        "elbow_joint",
        "wrist_1_joint",
        "wrist_2_joint",
        "wrist_3_joint"
    ],
    "metrics": {
        "cart_traj_len": 1.3060878100762072,
        "distance_elbow_joint": 1.7300956187960734,
        "distance_shoulder_lift_joint": 0.787977729368315,
        "distance_shoulder_pan_joint": 0.7998952150860372,
        "distance_wrist_1_joint": 0.9633070731036398,
        "distance_wrist_2_joint": 4.2240397832619445,
        "distance_wrist_3_joint": 2.7006947770256757,
        "smoothness": 0.999910759711895,
        "time": 0.8665567890000001,
        "traj_len": 3.3475379305754975,
        "weighted_distance": 4.66848440150105
    },
    "planner": "KPIECE",
    "start": {
        "state": {
            "elbow_joint": 1.9565354006590394,
            "shoulder_lift_joint": -1.4165861576513559,
            "shoulder_pan_joint": -1.6717766223277177,
            "wrist_1_joint": -0.5286633288215096,
            "wrist_2_joint": 1.4727565892594296,
            "wrist_3_joint": 3.1593482883155493
        }
    },
    "waypoints": [
        {
            "positions": [
                -1.6717766223277177,
                -1.4165861576513559,
                1.9565354006590394,
                -0.5286633288215096,
                1.4727565892594296,
                3.1593482883155493
            ]
        },
        {
            "positions": [
                -1.718876277488809,
                -1.4356777985020073,
                2.020120588768045,
                -0.573435021412334,
                1.5955134162687041,
                3.061328952995872
            ]
        },
        {
            "positions": [
                -1.7659759326499003,
                -1.4547694393526585,
                2.0837057768770504,
                -0.6182067140031585,
                1.7182702432779784,
                2.963309617676195
            ]
        },
        {
            "positions": [
                -1.8130755878109914,
                -1.4738610802033096,
                2.147290964986056,
                -0.662978406593983,
                1.8410270702872529,
                2.8652902823565176
            ]
        },
        {
            "positions": [
                -1.8601752429720828,
                -1.492952721053961,
                2.2108761530950614,
                -0.7077500991848075,
                1.9637838972965271,
                2.767270947036841
            ]
        },
        {
            "positions": [
                -1.907274898133174,
                -1.5120443619046124,
                2.274461341204067,
                -0.7525217917756319,
                2.0865407243058014,
                2.6692516117171636
            ]
        },
        {
            "positions": [
                -1.9543745532942651,
                -1.5311360027552636,
                2.338046529313072,
                -0.7972934843664565,
                2.2092975513150757,
                2.5712322763974864
            ]
        },
        {
            "positions": [
                -2.0014742084553565,
                -1.5502276436059148,
                2.4016317174220774,
                -0.8420651769572809,
                2.3320543783243504,
                2.473212941077809
            ]
        },
        {
            "positions": [
                -2.048573863616448,
                -1.5693192844565662,
                2.465216905531083,
                -0.8868368695481055,
                2.4548112053336246,
                2.375193605758132
            ]
        },
        {
            "positions": [
                -2.095673518777539,
                -1.5884109253072176,
                2.5288020936400883,
                -0.93160856213893,
                2.5775680323428993,
                2.2771742704384548
            ]
        },
        {
            "positions": [
                -2.14277317393863,
                -1.6075025661578688,
                2.592387281749094,
                -0.9763802547297544,
                2.7003248593521736,
                2.1791549351187776
            ]
        },
        {
            "positions": [
                -2.1898728290997216,
                -1.62659420700852,
                2.6559724698580993,
                -1.0211519473205788,
                2.823081686361448,
                2.081135599799101
            ]
        },
        {
            "positions": [
                -2.2369724842608125,
                -1.6456858478591714,
                2.719557657967105,
                -1.0659236399114034,
                2.945838513370722,
                1.9831162644794236
            ]
        },
        {
            "positions": [
                -2.284072139421904,
                -1.6647774887098228,
                2.7831428460761103,
                -1.1106953325022277,
                3.068595340379997,
                1.8850969291597464
            ]
        },
        {
            "positions": [
                -2.3311717945829953,
                -1.683869129560474,
                2.8467280341851158,
                -1.1554670250930523,
                3.191352167389271,
                1.7870775938400691
            ]
        },
        {
            "positions": [
                -2.340538464105046,
                -1.649156145729861,
                2.7907345018337826,
                -1.1330334666375792,
                3.0243225537137977,
                1.8756391993434156
            ]
        },
        {
            "positions": [
                -2.3499051336270966,
                -1.6144431618992476,
                2.7347409694824494,
                -1.110599908182106,
                2.857292940038324,
                1.9642008048467618
            ]
        },
        {
            "positions": [
                -2.3592718031491473,
                -1.5797301780686346,
                2.678747437131116,
                -1.088166349726633,
                2.6902633263628504,
                2.052762410350108
            ]
        },
        {
            "positions": [
                -2.368638472671198,
                -1.5450171942380215,
                2.6227539047797834,
                -1.0657327912711598,
                2.523233712687377,
                2.1413240158534546
            ]
        },
        {
            "positions": [
                -2.3780051421932487,
                -1.5103042104074083,
                2.5667603724284502,
                -1.0432992328156867,
                2.3562040990119035,
                2.229885621356801
            ]
        },
        {
            "positions": [
                -2.3873718117152993,
                -1.4755912265767952,
                2.510766840077117,
                -1.0208656743602136,
                2.18917448533643,
                2.3184472268601475
            ]
        },
        {
            "positions": [
                -2.39673848123735,
                -1.4408782427461821,
                2.454773307725784,
                -0.9984321159047403,
                2.0221448716609562,
                2.407008832363494
            ]
        },
        {
            "positions": [
                -2.4061051507594002,
                -1.4061652589155689,
                2.3987797753744506,
                -0.9759985574492672,
                1.8551152579854828,
                2.4955704378668404
            ]
        },
        {
            "positions": [
                -2.415471820281451,
                -1.3714522750849558,
                2.3427862430231174,
                -0.9535649989937941,
                1.6880856443100092,
                2.5841320433701864
            ]
        },
        {
            "positions": [
                -2.4248384898035016,
                -1.3367392912543428,
                2.2867927106717847,
                -0.931131440538321,
                1.5210560306345358,
                2.672693648873533
            ]
        },
        {
            "positions": [
                -2.4342051593255523,
                -1.3020263074237297,
                2.230799178320451,
                -0.9086978820828479,
                1.3540264169590623,
                2.7612552543768794
            ]
        },
        {
            "positions": [
                -2.443571828847603,
                -1.2673133235931164,
                2.1748056459691183,
                -0.8862643236273746,
                1.1869968032835887,
                2.8498168598802254
            ]
        },
        {
            "positions": [
                -2.4529384983696536,
                -1.2326003397625032,
                2.118812113617785,
                -0.8638307651719015,
                1.0199671896081148,
                2.938378465383572
            ]
        },
        {
            "positions": [
                -2.4623051678917043,
                -1.19788735593189,
                2.062818581266452,
                -0.8413972067164284,
                0.8529375759326414,
                3.0269400708869183
            ]
        },
        {
            "positions": [
                -2.471671837413755,
                -1.163174372101277,
                2.0068250489151187,
                -0.8189636482609552,
                0.6859079622571682,
                3.1155016763902648
            ]
        }
    ]
}