{
    "goal": {
        "global_pose": {
            "orientation": {
                "w": 0.7031023480610252,
                "x": -0.7110244013736278,
                "y": 0.0077485991402295624,
                "z": 0.005598929693374583
            },
            "position": {
                "x": -0.8841497679147869,
                "y": 0.44412534475326537,
                "z": 0.3711530566215515
            }
        },
        "name": "move_to_auspresseinheit_D"
    },
    "id": "KPIECE_move_to_auspresseinheit_D_7",
    "joint_names": [
        "shoulder_pan_joint",
        "shoulder_lift_joint",
        "elbow_joint",
        "wrist_1_joint",
        "wrist_2_joint",
        "wrist_3_joint"
    ],
    "metrics": {
        "cart_traj_len": 3.840301707698164,
        "distance_elbow_joint": 3.1695250944855404,
        "distance_shoulder_lift_joint": 1.4073269140648343,
        "distance_shoulder_pan_joint": 2.7973651571221807,
        "distance_wrist_1_joint": 1.3891342377332019,
        "distance_wrist_2_joint": 1.685125575232144,
        "distance_wrist_3_joint": 3.151020412509762,
        "smoothness": 0.09239639191398336,
        "time": 0.05798305200000001,
        "traj_len": 3.687749637807272,
        "weighted_distance": 4.793307629302811
    },
    "planner": "KPIECE",
    "start": {
        "state": {
            "elbow_joint": 1.8268400409724999,
            "shoulder_lift_joint": -1.0144045787793008,
            "shoulder_pan_joint": 2.6280239544362485,
            "wrist_1_joint": -0.790705565816056,
            "wrist_2_joint": 1.0573557467365533,
            "wrist_3_joint": 3.1851377467193758
        }
    },
    "waypoints": [
        {
            "positions": [
                2.6280239544362485,
                -1.0144045787793008,
                1.8268400409724999,
                -0.790705565816056,
                1.0573557467365533,
                3.1851377467193758
            ]
        },
        {
            "positions": [
                2.604106497096246,
                -1.0182314097002618,
                1.7148836643021563,
                -0.7327687372404762,
                1.096852145079146,
                3.0399881083729774
            ]
        },
        {
            "positions": [
                2.5801890397562435,
                -1.0220582406212229,
                1.6029272876318128,
                -0.6748319086648964,
                1.1363485434217389,
                2.8948384700265786
            ]
        },
        {
            "positions": [
                2.556271582416241,
                -1.0258850715421841,
                1.4909709109614693,
                -0.6168950800893166,
                1.1758449417643315,
                2.74968883168018
            ]
        },
        {
            "positions": [
                2.5323541250762385,
                -1.0297119024631451,
                1.3790145342911257,
                -0.5589582515137368,
                1.2153413401069244,
                2.6045391933337814
            ]
        },
        {
            "positions": [
                2.508436667736236,
                -1.0335387333841062,
                1.2670581576207822,
                -0.5010214229381571,
                1.254837738449517,
                2.459389554987383
            ]
        },
        {
            "positions": [
                2.484519210396234,
                -1.0373655643050672,
                1.1551017809504387,
                -0.44308459436257724,
                1.2943341367921097,
                2.3142399166409846
            ]
        },
        {
            "positions": [
                2.460601753056231,
                -1.0411923952260282,
                1.0431454042800952,
                -0.3851477657869975,
                1.3338305351347026,
                2.1690902782945862
            ]
        },
        {
            "positions": [
                2.436684295716229,
                -1.0450192261469895,
                0.9311890276097516,
                -0.32721093721141764,
                1.3733269334772953,
                2.0239406399481874
            ]
        },
        {
            "positions": [
                2.412766838376226,
                -1.0488460570679505,
                0.8192326509394081,
                -0.2692741086358379,
                1.4128233318198882,
                1.8787910016017888
            ]
        },
        {
            "positions": [
                2.388849381036224,
                -1.0526728879889116,
                0.7072762742690647,
                -0.21133728006025806,
                1.4523197301624808,
                1.7336413632553902
            ]
        },
        {
            "positions": [
                2.286521757687338,
                -1.1074352321831205,
                0.6252778211577804,
                -0.1789466419811619,
                1.4007132664902322,
                1.6656604020935593
            ]
        },
        {
            "positions": [
                2.184194134338451,
                -1.1621975763773293,
                0.5432793680464962,
                -0.14655600390206572,
                1.3491068028179836,
                1.597679440931728
            ]
        },
        {
            "positions": [
                2.081866510989565,
                -1.2169599205715385,
                0.46128091493521195,
                -0.11416536582296954,
                1.297500339145735,
                1.5296984797698971
            ]
        },
        {
            "positions": [
                1.979538887640679,
                -1.2717222647657473,
                0.3792824618239277,
                -0.08177472774387337,
                1.2458938754734863,
                1.461717518608066
            ]
        },
        {
            "positions": [
                1.8772112642917926,
                -1.3264846089599562,
                0.2972840087126435,
                -0.0493840896647772,
                1.1942874118012377,
                1.393736557446235
            ]
        },
        {
            "positions": [
                1.7748836409429063,
                -1.3812469531541653,
                0.21528555560135926,
                -0.016993451585681024,
                1.142680948128989,
                1.325755596284404
            ]
        },
        {
            "positions": [
                1.6725560175940202,
                -1.4360092973483742,
                0.13328710249007492,
                0.01539718649341515,
                1.0910744844567402,
                1.257774635122573
            ]
        },
        {
            "positions": [
                1.570228394245134,
                -1.4907716415425831,
                0.05128864937879074,
                0.04778782457251132,
                1.0394680207844915,
                1.1897936739607418
            ]
        },
        {
            "positions": [
                1.4679007708962477,
                -1.545533985736792,
                -0.030709803732493435,
                0.08017846265160747,
                0.9878615571122429,
                1.1218127127989108
            ]
        },
        {
            "positions": [
                1.3655731475473614,
                -1.600296329931001,
                -0.11270825684377772,
                0.11256910073070367,
                0.9362550934399942,
                1.0538317516370799
            ]
        },
        {
            "positions": [
                1.2632455241984752,
                -1.6550586741252098,
                -0.194706709955062,
                0.14495973880979982,
                0.8846486297677456,
                0.9858507904752488
            ]
        },
        {
            "positions": [
                1.160917900849589,
                -1.709821018319419,
                -0.2767051630663462,
                0.17735037688889602,
                0.833042166095497,
                0.9178698293134179
            ]
        },
        {
            "positions": [
                1.0585902775007028,
                -1.7645833625136278,
                -0.3587036161776306,
                0.20974101496799216,
                0.7814357024232483,
                0.8498888681515867
            ]
        },
        {
            "positions": [
                0.9562626541518164,
                -1.819345706707837,
                -0.44070206928891487,
                0.24213165304708836,
                0.7298292387509996,
                0.7819079069897557
            ]
        },
        {
            "positions": [
                0.8539350308029303,
                -1.8741080509020458,
                -0.5227005224001989,
                0.27452229112618454,
                0.6782227750787511,
                0.7139269458279247
            ]
        },
        {
            "positions": [
                0.751607407454044,
                -1.9288703950962547,
                -0.6046989755114832,
                0.3069129292052807,
                0.6266163114065023,
                0.6459459846660935
            ]
        },
        {
            "positions": [
                0.6492797841051576,
                -1.9836327392904636,
                -0.6866974286227675,
                0.33930356728437683,
                0.5750098477342537,
                0.5779650235042626
            ]
        },
        {
            "positions": [
                0.5469521607562715,
                -2.0383950834846725,
                -0.7686958817340516,
                0.371694205363473,
                0.523403384062005,
                0.5099840623424317
            ]
        },
        {
            "positions": [
                0.44462453740738517,
                -2.0931574276788814,
                -0.8506943348453359,
                0.40408484344256923,
                0.4717969203897564,
                0.4420031011806005
            ]
        },
        {
            "positions": [
                0.3422969140584988,
                -2.1479197718730907,
                -0.9326927879566201,
                0.4364754815216654,
                0.42019045671750765,
                0.37402214001876954
            ]
        },
        {
            "positions": [
                0.2399692907096127,
                -2.202682116067299,
                -1.0146912410679043,
                0.4688661196007615,
                0.36858399304525924,
                0.3060411788569386
            ]
        },
        {
            "positions": [
                0.13764166736072658,
                -2.2574444602615085,
                -1.0966896941791888,
                0.5012567576798577,
                0.3169775293730104,
                0.23806021769510743
            ]
        },
        {
            "positions": [
                0.03531404401184002,
                -2.3122068044557174,
                -1.1786881472904729,
                0.5336473957589539,
                0.26537106570076174,
                0.17007925653327627
            ]
        },
        {
            "positions": [
                -0.0670135793370461,
                -2.3669691486499262,
                -1.260686600401757,
                0.5660380338380501,
                0.2137646020285131,
                0.10209829537144555
            ]
        },
        {
            "positions": [
                -0.16934120268593242,
                -2.421731492844135,
                -1.3426850535130412,
                0.5984286719171462,
                0.16215813835626453,
                0.034117334209614394
            ]
        }
    ]
}