{
    "goal": {
        "global_pose": {
            "orientation": {
                "w": 0.5084816217422485,
                "x": -0.49083608388900757,
                "y": 0.5182115435600281,
                "z": -0.4816462993621826
            },
            "position": {
                "x": 0.5540239810943604,
                "y": 0.030875300988554955,
                "z": 0.16403168439865112
            }
        },
        "name": "move_to_storage_A"
    },
    "id": "KPIECE_move_to_storage_A_81",
    "joint_names": [
        "shoulder_pan_joint",
        "shoulder_lift_joint",
        "elbow_joint",
        "wrist_1_joint",
        "wrist_2_joint",
        "wrist_3_joint"
    ],
    "metrics": {
        "cart_traj_len": 0.3534652842570941,
        "distance_elbow_joint": 0.44845304409239795,
        "distance_shoulder_lift_joint": 0.23566691155899644,
        "distance_shoulder_pan_joint": 0.4636985665467676,
        "distance_wrist_1_joint": 0.23564039007039683,
        "distance_wrist_2_joint": 1.0934459968855554,
        "distance_wrist_3_joint": 0.10370046922477183,
        "smoothness": 8.881784197001252e-16,
        "time": 0.066782502,
        "traj_len": 1.6064262754259488,
        "weighted_distance": 2.029062025612914
    },
    "planner": "KPIECE",
    "start": {
        "state": {
            "elbow_joint": 1.9715474177455299,
            "shoulder_lift_joint": -1.139484666580328,
            "shoulder_pan_joint": 0.12281154398918248,
            "wrist_1_joint": -0.7804687475355282,
            "wrist_2_joint": 0.12958649657246987,
            "wrist_3_joint": -3.1924925159053466
        }
    },
    "waypoints": [
        {
            "positions": [
                0.12281154398918248,
                -1.139484666580328,
                1.9715474177455299,
                -0.7804687475355282,
                0.12958649657246987,
                -3.1924925159053466
            ]
        },
        {
            "positions": [
                0.05656889162535854,
                -1.1731513682316133,
                2.035612138330158,
                -0.8141316604027278,
                0.28579306755612066,
                -3.1776781631589506
            ]
        },
        {
            "positions": [
                -0.009673760738465403,
                -1.2068180698828983,
                2.0996768589147865,
                -0.8477945732699272,
                0.4419996385397714,
                -3.1628638104125546
            ]
        },
        {
            "positions": [
                -0.07591641310228933,
                -1.2404847715341836,
                2.1637415794994146,
                -0.8814574861371268,
                0.5982062095234223,
                -3.1480494576661586
            ]
        },
        {
            "positions": [
                -0.1421590654661133,
                -1.2741514731854688,
                2.227806300084043,
                -0.9151203990043264,
                0.754412780507073,
                -3.1332351049197626
            ]
        },
        {
            "positions": [
                -0.20840171782993727,
                -1.307818174836754,
                2.291871020668671,
                -0.9487833118715259,
                0.9106193514907239,
                -3.1184207521733667
            ]
        },
        {
            "positions": [
                -0.27464437019376114,
                -1.3414848764880392,
                2.3559357412532993,
                -0.9824462247387254,
                1.0668259224743746,
                -3.1036063994269707
            ]
        },
        {
            "positions": [
                -0.34088702255758513,
                -1.3751515781393244,
                2.420000461837928,
                -1.016109137605925,
                1.2230324934580254,
                -3.0887920466805747
            ]
        }
    ]
}