{
    "goal": {
        "global_pose": {
            "orientation": {
                "w": -0.00223480608172531,
                "x": 0.0024358444001904467,
                "y": 0.7094548369677653,
                "z": -0.704743149386269
            },
            "position": {
                "x": -0.37947507619857795,
                "y": -0.6371506643295288,
                "z": 0.19426114857196808
            }
        },
        "name": "move_to_magneteinheit_C"
    },
    "id": "KPIECE_move_to_magneteinheit_C_17",
    "joint_names": [
        "shoulder_pan_joint",
        "shoulder_lift_joint",
        "elbow_joint",
        "wrist_1_joint",
        "wrist_2_joint",
        "wrist_3_joint"
    ],
    "metrics": {
        "cart_traj_len": 2.805092101671968,
        "distance_elbow_joint": 2.861878026247151,
        "distance_shoulder_lift_joint": 2.830260929564031,
        "distance_shoulder_pan_joint": 2.4176672899709057,
        "distance_wrist_1_joint": 4.609357356453078,
        "distance_wrist_2_joint": 3.8020621805257258,
        "distance_wrist_3_joint": 9.283871219659131,
        "smoothness": 0.5541863655222455,
        "time": 0.74861374,
        "traj_len": 5.079871750587807,
        "weighted_distance": 7.265277625715144
    },
    "planner": "KPIECE",
    "start": {
        "state": {
            "elbow_joint": 1.9565354006590394,
            "shoulder_lift_joint": -1.4165861576513559,
            "shoulder_pan_joint": -1.6717766223277177,
            "wrist_1_joint": -0.5286633288215096,
            "wrist_2_joint": 1.4727565892594296,
            "wrist_3_joint": 3.1593482883155493
        }
    },
    "waypoints": [
        {
            "positions": [
                -1.6717766223277177,
                -1.4165861576513559,
                1.9565354006590394,
                -0.5286633288215096,
                1.4727565892594296,
                3.1593482883155493
            ]
        },
        {
            "positions": [
                -1.5831497382969046,
                -1.4037650695678696,
                1.9487716222143276,
                -0.5018306033284426,
                1.5038554080558424,
                3.1052967368564017
            ]
        },
        {
            "positions": [
                -1.4945228542660915,
                -1.3909439814843831,
                1.9410078437696159,
                -0.4749978778353758,
                1.5349542268522551,
                3.0512451853972546
            ]
        },
        {
            "positions": [
                -1.4815550901077983,
                -1.383265568621375,
                1.8732358078982467,
                -0.4758902571227688,
                1.5689522777799425,
                2.8601075793624107
            ]
        },
        {
            "positions": [
                -1.468587325949505,
                -1.375587155758367,
                1.8054637720268776,
                -0.4767826364101617,
                1.60295032870763,
                2.6689699733275667
            ]
        },
        {
            "positions": [
                -1.4556195617912118,
                -1.3679087428953587,
                1.7376917361555086,
                -0.4776750156975547,
                1.6369483796353177,
                2.4778323672927227
            ]
        },
        {
            "positions": [
                -1.4426517976329185,
                -1.3602303300323506,
                1.6699197002841395,
                -0.4785673949849477,
                1.670946430563005,
                2.2866947612578787
            ]
        },
        {
            "positions": [
                -1.446747222624013,
                -1.3472176271757281,
                1.583350115024547,
                -0.48612242603566236,
                1.7140793042727556,
                2.054437016558298
            ]
        },
        {
            "positions": [
                -1.4508426476151075,
                -1.3342049243191056,
                1.4967805297649543,
                -0.493677457086377,
                1.757212177982506,
                1.8221792718587169
            ]
        },
        {
            "positions": [
                -1.454938072606202,
                -1.321192221462483,
                1.4102109445053619,
                -0.5012324881370916,
                1.8003450516922566,
                1.589921527159136
            ]
        },
        {
            "positions": [
                -1.4590334975972965,
                -1.3081795186058605,
                1.3236413592457692,
                -0.5087875191878063,
                1.843477925402007,
                1.357663782459555
            ]
        },
        {
            "positions": [
                -1.463128922588391,
                -1.295166815749238,
                1.2370717739861767,
                -0.5163425502385209,
                1.8866107991117576,
                1.1254060377599742
            ]
        },
        {
            "positions": [
                -1.5390551880757173,
                -1.273148228199977,
                1.1716275989391693,
                -0.5446146316375051,
                1.918200226957914,
                0.9924657706479061
            ]
        },
        {
            "positions": [
                -1.6149814535630433,
                -1.2511296406507162,
                1.106183423892162,
                -0.5728867130364894,
                1.94978965480407,
                0.8595255035358379
            ]
        },
        {
            "positions": [
                -1.6909077190503696,
                -1.2291110531014553,
                1.0407392488451546,
                -0.6011587944354736,
                1.9813790826502264,
                0.7265852364237697
            ]
        },
        {
            "positions": [
                -1.7668339845376957,
                -1.2070924655521944,
                0.9752950737981472,
                -0.6294308758344579,
                2.012968510496383,
                0.5936449693117016
            ]
        },
        {
            "positions": [
                -1.842760250025022,
                -1.1850738780029335,
                0.9098508987511398,
                -0.6577029572334421,
                2.044557938342539,
                0.46070470219963344
            ]
        },
        {
            "positions": [
                -1.918686515512348,
                -1.1630552904536726,
                0.8444067237041324,
                -0.6859750386324264,
                2.0761473661886956,
                0.32776443508756536
            ]
        },
        {
            "positions": [
                -1.9946127809996743,
                -1.1410367029044117,
                0.778962548657125,
                -0.7142471200314106,
                2.1077367940348517,
                0.19482416797549712
            ]
        },
        {
            "positions": [
                -2.0369210825909985,
                -1.1925969054426984,
                0.8373811789213378,
                -0.6306310904168091,
                2.015822794817379,
                0.12715947820764295
            ]
        },
        {
            "positions": [
                -2.0792293841823226,
                -1.2441571079809852,
                0.8957998091855506,
                -0.5470150608022077,
                1.9239087955999066,
                0.05949478843978881
            ]
        },
        {
            "positions": [
                -2.1215376857736468,
                -1.2957173105192719,
                0.9542184394497633,
                -0.4633990311876063,
                1.8319947963824341,
                -0.008169901328065332
            ]
        },
        {
            "positions": [
                -2.163845987364971,
                -1.3472775130575585,
                1.0126370697139762,
                -0.3797830015730048,
                1.7400807971649617,
                -0.0758345910959195
            ]
        },
        {
            "positions": [
                -2.206154288956295,
                -1.3988377155958451,
                1.0710556999781888,
                -0.29616697195840336,
                1.6481667979474892,
                -0.14349928086377367
            ]
        },
        {
            "positions": [
                -2.2484625905476188,
                -1.450397918134132,
                1.1294743302424015,
                -0.212550942343802,
                1.5562527987300165,
                -0.21116397063162778
            ]
        },
        {
            "positions": [
                -2.2907708921389434,
                -1.5019581206724186,
                1.1878929605066144,
                -0.12893491272920043,
                1.464338799512544,
                -0.27882866039948195
            ]
        },
        {
            "positions": [
                -2.333079193730267,
                -1.5535183232107053,
                1.246311590770827,
                -0.045318883114599084,
                1.3724248002950716,
                -0.3464933501673361
            ]
        },
        {
            "positions": [
                -2.375387495321591,
                -1.6050785257489921,
                1.3047302210350398,
                0.038297146500002266,
                1.280510801077599,
                -0.41415803993519024
            ]
        },
        {
            "positions": [
                -2.4176957969129154,
                -1.6566387282872788,
                1.3631488512992527,
                0.12191317611460384,
                1.1885968018601265,
                -0.48182272970304446
            ]
        },
        {
            "positions": [
                -2.4600040985042395,
                -1.7081989308255654,
                1.4215674815634654,
                0.2055292057292052,
                1.096682802642654,
                -0.5494874194708985
            ]
        },
        {
            "positions": [
                -2.5023124000955637,
                -1.7597591333638523,
                1.479986111827678,
                0.28914523534380654,
                1.0047688034251816,
                -0.6171521092387526
            ]
        },
        {
            "positions": [
                -2.544620701686888,
                -1.8113193359021387,
                1.538404742091891,
                0.3727612649584081,
                0.9128548042077089,
                -0.6848167990066067
            ]
        },
        {
            "positions": [
                -2.586929003278212,
                -1.8628795384404255,
                1.5968233723561038,
                0.4563772945730097,
                0.8209408049902365,
                -0.7524814887744611
            ]
        },
        {
            "positions": [
                -2.629237304869536,
                -1.9144397409787122,
                1.6552420026203163,
                0.5399933241876108,
                0.729026805772764,
                -0.820146178542315
            ]
        },
        {
            "positions": [
                -2.6715456064608603,
                -1.9659999435169988,
                1.7136606328845292,
                0.6236093538022124,
                0.6371128065552913,
                -0.8878108683101693
            ]
        },
        {
            "positions": [
                -2.7138539080521844,
                -2.0175601460552857,
                1.772079263148742,
                0.707225383416814,
                0.5451988073378189,
                -0.9554755580780234
            ]
        },
        {
            "positions": [
                -2.7561622096435086,
                -2.0691203485935725,
                1.8304978934129545,
                0.7908414130314151,
                0.45328480812034644,
                -1.0231402478458775
            ]
        },
        {
            "positions": [
                -2.7984705112348323,
                -2.120680551131859,
                1.8889165236771674,
                0.8744574426460167,
                0.361370808902874,
                -1.0908049376137317
            ]
        },
        {
            "positions": [
                -2.840778812826157,
                -2.172240753670146,
                1.9473351539413801,
                0.9580734722606182,
                0.2694568096854013,
                -1.158469627381586
            ]
        },
        {
            "positions": [
                -2.8830871144174806,
                -2.223800956208432,
                2.005753784205593,
                1.0416895018752195,
                0.17754281046792886,
                -1.2261343171494399
            ]
        },
        {
            "positions": [
                -2.9253954160088047,
                -2.275361158746719,
                2.0641724144698057,
                1.125305531489821,
                0.0856288112504564,
                -1.2937990069172942
            ]
        },
        {
            "positions": [
                -2.967703717600129,
                -2.326921361285006,
                2.1225910447340186,
                1.2089215611044226,
                -0.00628518796701627,
                -1.3614636966851483
            ]
        },
        {
            "positions": [
                -3.010012019191453,
                -2.378481563823293,
                2.181009674998231,
                1.2925375907190237,
                -0.0981991871844885,
                -1.4291283864530024
            ]
        },
        {
            "positions": [
                -3.052320320782777,
                -2.430041766361579,
                2.239428305262444,
                1.3761536203336253,
                -0.19011318640196118,
                -1.4967930762208566
            ]
        },
        {
            "positions": [
                -3.0291653630977273,
                -2.3794135099071823,
                2.2304747285568474,
                1.2871119434173903,
                -0.15534390658942143,
                -1.3116838820159473
            ]
        },
        {
            "positions": [
                -3.0060104054126775,
                -2.3287852534527858,
                2.2215211518512508,
                1.1980702665011556,
                -0.12057462677688166,
                -1.1265746878110383
            ]
        },
        {
            "positions": [
                -2.9828554477276272,
                -2.278156996998389,
                2.2125675751456537,
                1.1090285895849206,
                -0.0858053469643419,
                -0.9414654936061292
            ]
        },
        {
            "positions": [
                -2.9597004900425774,
                -2.2275287405439923,
                2.203613998440057,
                1.0199869126686858,
                -0.051036067151802145,
                -0.75635629940122
            ]
        },
        {
            "positions": [
                -2.9365455323575276,
                -2.1769004840895954,
                2.1946604217344605,
                0.9309452357524508,
                -0.016266787339262373,
                -0.5712471051963108
            ]
        },
        {
            "positions": [
                -2.9133905746724778,
                -2.126272227635199,
                2.185706845028864,
                0.8419035588362159,
                0.01850249247327737,
                -0.3861379109914018
            ]
        },
        {
            "positions": [
                -2.890235616987428,
                -2.075643971180802,
                2.176753268323267,
                0.7528618819199809,
                0.05327177228581714,
                -0.20102871678649237
            ]
        },
        {
            "positions": [
                -2.8670806593023777,
                -2.025015714726405,
                2.1677996916176703,
                0.6638202050037461,
                0.08804105209835689,
                -0.015919522581583356
            ]
        },
        {
            "positions": [
                -2.843925701617328,
                -1.9743874582720085,
                2.1588461149120737,
                0.5747785280875112,
                0.12281033191089663,
                0.16918967162332565
            ]
        },
        {
            "positions": [
                -2.820770743932278,
                -1.9237592018176115,
                2.149892538206477,
                0.4857368511712763,
                0.15757961172343643,
                0.3542988658282349
            ]
        },
        {
            "positions": [
                -2.797615786247228,
                -1.873130945363215,
                2.14093896150088,
                0.3966951742550414,
                0.19234889153597617,
                0.5394080600331441
            ]
        },
        {
            "positions": [
                -2.7744608285621783,
                -1.822502688908818,
                2.1319853847952834,
                0.30765349733880654,
                0.22711817134851592,
                0.7245172542380529
            ]
        },
        {
            "positions": [
                -2.751305870877128,
                -1.7718744324544216,
                2.123031808089687,
                0.21861182042257155,
                0.26188745116105566,
                0.9096264484429626
            ]
        },
        {
            "positions": [
                -2.7281509131920783,
                -1.7212461760000246,
                2.1140782313840902,
                0.12957014350633655,
                0.29665673097359546,
                1.0947356426478718
            ]
        },
        {
            "positions": [
                -2.7049959555070284,
                -1.670617919545628,
                2.105124654678493,
                0.040528466590101786,
                0.3314260107861352,
                1.2798448368527806
            ]
        },
        {
            "positions": [
                -2.6818409978219786,
                -1.6199896630912312,
                2.0961710779728966,
                -0.048513210326133205,
                0.36619529059867495,
                1.4649540310576898
            ]
        },
        {
            "positions": [
                -2.6586860401369288,
                -1.5693614066368342,
                2.0872175012673,
                -0.1375548872423682,
                0.4009645704112147,
                1.650063225262599
            ]
        },
        {
            "positions": [
                -2.6355310824518785,
                -1.5187331501824377,
                2.0782639245617034,
                -0.22659656415860296,
                0.43573385022375444,
                1.8351724194675079
            ]
        },
        {
            "positions": [
                -2.6123761247668287,
                -1.4681048937280408,
                2.0693103478561063,
                -0.31563824107483773,
                0.4705031300362942,
                2.020281613672417
            ]
        },
        {
            "positions": [
                -2.589221167081779,
                -1.417476637273644,
                2.0603567711505097,
                -0.4046799179910727,
                0.505272409848834,
                2.2053908078773263
            ]
        },
        {
            "positions": [
                -2.566066209396729,
                -1.3668483808192475,
                2.051403194444913,
                -0.4937215949073075,
                0.5400416896613737,
                2.390500002082235
            ]
        },
        {
            "positions": [
                -2.542911251711679,
                -1.3162201243648506,
                2.0424496177393165,
                -0.5827632718235425,
                0.5748109694739135,
                2.575609196287145
            ]
        },
        {
            "positions": [
                -2.519756294026629,
                -1.2655918679104539,
                2.0334960410337195,
                -0.6718049487397777,
                0.6095802492864533,
                2.7607183904920536
            ]
        },
        {
            "positions": [
                -2.496601336341579,
                -1.2149636114560571,
                2.024542464328123,
                -0.7608466256560122,
                0.644349529098993,
                2.9458275846969624
            ]
        },
        {
            "positions": [
                -2.4734463786565293,
                -1.1643353550016604,
                2.0155888876225263,
                -0.8498883025722471,
                0.6791188089115328,
                3.1309367789018725
            ]
        }
    ]
}