{
    "goal": {
        "global_pose": {
            "orientation": {
                "w": 0.005598929693374612,
                "x": 0.007748599140229565,
                "y": 0.7110244013736278,
                "z": -0.7031023480610252
            },
            "position": {
                "x": 0.1141497679147869,
                "y": -0.7141253447532654,
                "z": 0.3711530566215515
            }
        },
        "name": "move_to_auspresseinheit_B"
    },
    "id": "KPIECE_move_to_auspresseinheit_B_69",
    "joint_names": [
        "shoulder_pan_joint",
        "shoulder_lift_joint",
        "elbow_joint",
        "wrist_1_joint",
        "wrist_2_joint",
        "wrist_3_joint"
    ],
    "metrics": {
        "cart_traj_len": 0.5647635198828356,
        "distance_elbow_joint": 0.0645089225103046,
        "distance_shoulder_lift_joint": 0.29591696342690543,
        "distance_shoulder_pan_joint": 0.5789532389443779,
        "distance_wrist_1_joint": 0.338979201137227,
        "distance_wrist_2_joint": 0.9851413489017888,
        "distance_wrist_3_joint": 0.008815492329746988,
        "smoothness": 7.612957943425664e-16,
        "time": 0.136447355,
        "traj_len": 1.5074200367682362,
        "weighted_distance": 1.9010698834995152
    },
    "planner": "KPIECE",
    "start": {
        "state": {
            "elbow_joint": 2.019306165916698,
            "shoulder_lift_joint": -1.1220205098164344,
            "shoulder_pan_joint": -1.095207207618794,
            "wrist_1_joint": -0.8559671824921639,
            "wrist_2_joint": 0.47596387242952726,
            "wrist_3_joint": 3.159081874673826
        }
    },
    "waypoints": [
        {
            "positions": [
                -1.095207207618794,
                -1.1220205098164344,
                2.019306165916698,
                -0.8559671824921639,
                0.47596387242952726,
                3.159081874673826
            ]
        },
        {
            "positions": [
                -1.1916994141095236,
                -1.1713400037209187,
                2.008554678831647,
                -0.7994706489692927,
                0.6401540972464921,
                3.1576126259522015
            ]
        },
        {
            "positions": [
                -1.2881916206002533,
                -1.2206594976254028,
                1.9978031917465964,
                -0.7429741154464216,
                0.8043443220634569,
                3.1561433772305767
            ]
        },
        {
            "positions": [
                -1.384683827090983,
                -1.2699789915298871,
                1.9870517046615457,
                -0.6864775819235504,
                0.9685345468804216,
                3.1546741285089523
            ]
        },
        {
            "positions": [
                -1.4811760335817126,
                -1.3192984854343714,
                1.976300217576495,
                -0.6299810484006791,
                1.1327247716973865,
                3.153204879787328
            ]
        },
        {
            "positions": [
                -1.5776682400724422,
                -1.3686179793388555,
                1.965548730491444,
                -0.573484514877808,
                1.2969149965143514,
                3.151735631065703
            ]
        },
        {
            "positions": [
                -1.6741604465631719,
                -1.4179374732433399,
                1.9547972434063934,
                -0.5169879813549368,
                1.461105221331316,
                3.150266382344079
            ]
        }
    ]
}