{
    "goal": {
        "global_pose": {
            "orientation": {
                "w": 0.7031023502349854,
                "x": -0.7110244035720825,
                "y": 0.007748599164187908,
                "z": 0.005598929710686207
            },
            "position": {
                "x": 0.11585023208521307,
                "y": 0.44412534475326537,
                "z": 0.3711530566215515
            }
        },
        "name": "move_to_auspresseinheit_A"
    },
    "id": "KPIECE_move_to_auspresseinheit_A_42",
    "joint_names": [
        "shoulder_pan_joint",
        "shoulder_lift_joint",
        "elbow_joint",
        "wrist_1_joint",
        "wrist_2_joint",
        "wrist_3_joint"
    ],
    "metrics": {
        "cart_traj_len": 0.6984831761337201,
        "distance_elbow_joint": 0.0896420241892919,
        "distance_shoulder_lift_joint": 0.5870515659917606,
        "distance_shoulder_pan_joint": 1.044857681889149,
        "distance_wrist_1_joint": 0.6931027270252911,
        "distance_wrist_2_joint": 0.5181180762002998,
        "distance_wrist_3_joint": 0.08424517874568815,
        "smoothness": 1.1038302565907196,
        "time": 0.264537588,
        "traj_len": 1.736956318979116,
        "weighted_distance": 2.0968377177927833
    },
    "planner": "KPIECE",
    "start": {
        "state": {
            "elbow_joint": 2.4225747245308327,
            "shoulder_lift_joint": -1.373653427065438,
            "shoulder_pan_joint": -0.33786330853087027,
            "wrist_1_joint": -1.0288602302712604,
            "wrist_2_joint": 1.23302299562683,
            "wrist_3_joint": -3.094021725338297
        }
    },
    "waypoints": [
        {
            "positions": [
                -0.33786330853087027,
                -1.373653427065438,
                2.4225747245308327,
                -1.0288602302712604,
                1.23302299562683,
                -3.094021725338297
            ]
        },
        {
            "positions": [
                -0.20561932324092785,
                -1.45389384149777,
                2.4141658592634787,
                -0.939537475447081,
                1.1625303243412606,
                -3.0910141266805673
            ]
        },
        {
            "positions": [
                -0.07337533795098544,
                -1.5341342559301019,
                2.405756993996125,
                -0.8502147206229016,
                1.092037653055691,
                -3.088006528022838
            ]
        },
        {
            "positions": [
                0.05886864733895697,
                -1.614374670362434,
                2.3973481287287712,
                -0.7608919657987223,
                1.0215449817701217,
                -3.084998929365108
            ]
        },
        {
            "positions": [
                0.19111263262889938,
                -1.694615084794766,
                2.3889392634614173,
                -0.6715692109745429,
                0.9510523104845521,
                -3.0819913307073787
            ]
        },
        {
            "positions": [
                0.3233566179188418,
                -1.774855499227098,
                2.3805303981940633,
                -0.5822464561503635,
                0.8805596391989827,
                -3.078983732049649
            ]
        },
        {
            "positions": [
                0.4556006032087842,
                -1.85509591365943,
                2.37212153292671,
                -0.4929237013261841,
                0.8100669679134133,
                -3.0759761333919196
            ]
        },
        {
            "positions": [
                0.5878445884987266,
                -1.9353363280917621,
                2.363712667659356,
                -0.40360094650200473,
                0.7395742966278438,
                -3.0729685347341897
            ]
        },
        {
            "positions": [
                0.7069943733582787,
                -1.9099676631263258,
                2.394492634977171,
                -0.47144438975804015,
                0.7149049194265301,
                -3.1361605228757705
            ]
        }
    ]
}