{
    "goal": {
        "global_pose": {
            "orientation": {
                "w": -0.00223480608172531,
                "x": 0.0024358444001904467,
                "y": 0.7094548369677653,
                "z": -0.704743149386269
            },
            "position": {
                "x": 0.6205249238014221,
                "y": -0.6371506643295288,
                "z": 0.19426114857196808
            }
        },
        "name": "move_to_magneteinheit_B"
    },
    "id": "KPIECE_move_to_magneteinheit_B_145",
    "joint_names": [
        "shoulder_pan_joint",
        "shoulder_lift_joint",
        "elbow_joint",
        "wrist_1_joint",
        "wrist_2_joint",
        "wrist_3_joint"
    ],
    "metrics": {
        "cart_traj_len": 1.453890448719987,
        "distance_elbow_joint": 0.7323617854259765,
        "distance_shoulder_lift_joint": 1.249595226172401,
        "distance_shoulder_pan_joint": 1.6216154177826572,
        "distance_wrist_1_joint": 2.604383816876465,
        "distance_wrist_2_joint": 2.9374919242270514,
        "distance_wrist_3_joint": 3.136640147136798,
        "smoothness": 4.575464599789371e-16,
        "time": 0.11029624,
        "traj_len": 3.5045810473751846,
        "weighted_distance": 4.908894412492335
    },
    "planner": "KPIECE",
    "start": {
        "state": {
            "elbow_joint": 2.3935871308073637,
            "shoulder_lift_joint": -1.9085141043777403,
            "shoulder_pan_joint": 0.7066247067284167,
            "wrist_1_joint": -0.46782909355067076,
            "wrist_2_joint": 0.7096259085804283,
            "wrist_3_joint": -3.1358149275257428
        }
    },
    "waypoints": [
        {
            "positions": [
                0.7066247067284167,
                -1.9085141043777403,
                2.3935871308073637,
                -0.46782909355067076,
                0.7096259085804283,
                -3.1358149275257428
            ]
        },
        {
            "positions": [
                0.6559492249227087,
                -1.8694642535598527,
                2.370700825012802,
                -0.3864420992732812,
                0.617829285948333,
                -3.0377949229277177
            ]
        },
        {
            "positions": [
                0.6052737431170007,
                -1.8304144027419653,
                2.34781451921824,
                -0.3050551049958917,
                0.5260326633162375,
                -2.939774918329693
            ]
        },
        {
            "positions": [
                0.5545982613112925,
                -1.7913645519240777,
                2.3249282134236786,
                -0.22366811071850218,
                0.43423604068414223,
                -2.841754913731668
            ]
        },
        {
            "positions": [
                0.5039227795055845,
                -1.7523147011061901,
                2.3020419076291168,
                -0.14228111644111263,
                0.34243941805204686,
                -2.743734909133643
            ]
        },
        {
            "positions": [
                0.45324729769987654,
                -1.7132648502883026,
                2.279155601834555,
                -0.060894122163723086,
                0.2506427954199515,
                -2.645714904535618
            ]
        },
        {
            "positions": [
                0.40257181589416846,
                -1.674214999470415,
                2.256269296039993,
                0.020492872113666405,
                0.15884617278785618,
                -2.5476948999375932
            ]
        },
        {
            "positions": [
                0.35189633408846044,
                -1.6351651486525276,
                2.233382990245431,
                0.101879866391056,
                0.06704955015576075,
                -2.449674895339568
            ]
        },
        {
            "positions": [
                0.3012208522827524,
                -1.59611529783464,
                2.2104966844508698,
                0.1832668606684455,
                -0.024747072476334564,
                -2.351654890741543
            ]
        },
        {
            "positions": [
                0.2505453704770444,
                -1.5570654470167524,
                2.187610378656308,
                0.264653854945835,
                -0.11654369510842988,
                -2.2536348861435185
            ]
        },
        {
            "positions": [
                0.19986988867133637,
                -1.518015596198865,
                2.164724072861746,
                0.3460408492232246,
                -0.2083403177405253,
                -2.1556148815454934
            ]
        },
        {
            "positions": [
                0.14919440686562835,
                -1.4789657453809775,
                2.141837767067184,
                0.4274278435006141,
                -0.30013694037262073,
                -2.0575948769474683
            ]
        },
        {
            "positions": [
                0.09851892505992021,
                -1.4399158945630899,
                2.118951461272623,
                0.5088148377780035,
                -0.39193356300471593,
                -1.9595748723494435
            ]
        },
        {
            "positions": [
                0.04784344325421219,
                -1.4008660437452023,
                2.096065155478061,
                0.590201832055393,
                -0.48373018563681136,
                -1.8615548677514184
            ]
        },
        {
            "positions": [
                -0.00283203855149583,
                -1.3618161929273147,
                2.073178849683499,
                0.6715888263327827,
                -0.5755268082689068,
                -1.7635348631533936
            ]
        },
        {
            "positions": [
                -0.05350752035720385,
                -1.3227663421094273,
                2.0502925438889372,
                0.7529758206101722,
                -0.667323430901002,
                -1.6655148585553685
            ]
        },
        {
            "positions": [
                -0.10418300216291188,
                -1.2837164912915398,
                2.0274062380943754,
                0.8343628148875617,
                -0.7591200535330974,
                -1.5674948539573437
            ]
        },
        {
            "positions": [
                -0.1548584839686199,
                -1.2446666404736522,
                2.0045199322998135,
                0.9157498091649512,
                -0.8509166761651928,
                -1.4694748493593188
            ]
        },
        {
            "positions": [
                -0.20553396577432792,
                -1.2056167896557648,
                1.9816336265052519,
                0.9971368034423407,
                -0.942713298797288,
                -1.3714548447612938
            ]
        },
        {
            "positions": [
                -0.25620944758003594,
                -1.1665669388378772,
                1.9587473207106902,
                1.0785237977197304,
                -1.0345099214293834,
                -1.273434840163269
            ]
        },
        {
            "positions": [
                -0.30688492938574397,
                -1.1275170880199896,
                1.9358610149161284,
                1.1599107919971199,
                -1.126306544061479,
                -1.1754148355652438
            ]
        },
        {
            "positions": [
                -0.357560411191452,
                -1.088467237202102,
                1.9129747091215665,
                1.2412977862745094,
                -1.2181031666935742,
                -1.077394830967219
            ]
        },
        {
            "positions": [
                -0.40823589299716,
                -1.0494173863842144,
                1.890088403327005,
                1.3226847805518989,
                -1.3098997893256699,
                -0.9793748263691939
            ]
        },
        {
            "positions": [
                -0.45891137480286803,
                -1.010367535566327,
                1.8672020975324433,
                1.4040717748292884,
                -1.401696411957765,
                -0.8813548217711689
            ]
        },
        {
            "positions": [
                -0.5095868566085763,
                -0.9713176847484395,
                1.8443157917378814,
                1.4854587691066778,
                -1.4934930345898603,
                -0.7833348171731442
            ]
        },
        {
            "positions": [
                -0.5602623384142843,
                -0.9322678339305519,
                1.8214294859433195,
                1.5668457633840673,
                -1.585289657221956,
                -0.6853148125751192
            ]
        },
        {
            "positions": [
                -0.6109378202199923,
                -0.8932179831126643,
                1.7985431801487577,
                1.6482327576614568,
                -1.6770862798540511,
                -0.5872948079770941
            ]
        },
        {
            "positions": [
                -0.6616133020257003,
                -0.854168132294777,
                1.775656874354196,
                1.7296197519388468,
                -1.7688829024861463,
                -0.4892748033790695
            ]
        },
        {
            "positions": [
                -0.7122887838314084,
                -0.8151182814768894,
                1.7527705685596344,
                1.8110067462162363,
                -1.860679525118242,
                -0.3912547987810444
            ]
        },
        {
            "positions": [
                -0.7629642656371164,
                -0.7760684306590018,
                1.7298842627650726,
                1.8923937404936257,
                -1.9524761477503372,
                -0.29323479418301934
            ]
        },
        {
            "positions": [
                -0.8136397474428244,
                -0.7370185798411144,
                1.7069979569705107,
                1.9737807347710152,
                -2.0442727703824324,
                -0.19521478958499427
            ]
        },
        {
            "positions": [
                -0.8643152292485324,
                -0.6979687290232268,
                1.6841116511759489,
                2.0551677290484047,
                -2.136069393014528,
                -0.09719478498696965
            ]
        },
        {
            "positions": [
                -0.9149907110542403,
                -0.6589188782053391,
                1.6612253453813872,
                2.136554723325794,
                -2.2278660156466232,
                0.0008252196110552247
            ]
        }
    ]
}