{
    "goal": {
        "global_pose": {
            "orientation": {
                "w": -0.4816463035849501,
                "x": 0.5182115481033762,
                "y": 0.4908360881923453,
                "z": -0.5084816262002911
            },
            "position": {
                "x": -0.8240239810943604,
                "y": 0.19912469901144506,
                "z": 0.16403168439865112
            }
        },
        "name": "move_to_storage_D"
    },
    "id": "KPIECE_move_to_storage_D_37",
    "joint_names": [
        "shoulder_pan_joint",
        "shoulder_lift_joint",
        "elbow_joint",
        "wrist_1_joint",
        "wrist_2_joint",
        "wrist_3_joint"
    ],
    "metrics": {
        "cart_traj_len": 3.9061649296543366,
        "distance_elbow_joint": 4.214360408272009,
        "distance_shoulder_lift_joint": 1.26539478403082,
        "distance_shoulder_pan_joint": 2.8140948225072546,
        "distance_wrist_1_joint": 2.287570774376621,
        "distance_wrist_2_joint": 0.9301624606361002,
        "distance_wrist_3_joint": 3.126746102280616,
        "smoothness": 0.029781337327759273,
        "time": 0.23429911,
        "traj_len": 3.826006972301987,
        "weighted_distance": 4.910148143557115
    },
    "planner": "KPIECE",
    "start": {
        "state": {
            "elbow_joint": -2.384821997420982,
            "shoulder_lift_joint": -2.2788054674887404,
            "shoulder_pan_joint": -0.18546946417610016,
            "wrist_1_joint": 1.4845937964226739,
            "wrist_2_joint": 0.1789877726866377,
            "wrist_3_joint": 0.03710572555276528
        }
    },
    "waypoints": [
        {
            "positions": [
                -0.18546946417610016,
                -2.2788054674887404,
                -2.384821997420982,
                1.4845937964226739,
                0.1789877726866377,
                0.03710572555276528
            ]
        },
        {
            "positions": [
                -0.0693709726218292,
                -2.2398994402031365,
                -2.3509569886668147,
                1.452328136851266,
                0.16773379315097958,
                0.019689027862387277
            ]
        },
        {
            "positions": [
                0.04672751893244177,
                -2.2009934129175326,
                -2.3170919799126475,
                1.4200624772798578,
                0.15647981361532146,
                0.0022723301720092813
            ]
        },
        {
            "positions": [
                0.12105178952199942,
                -2.163877917145388,
                -2.21168124583521,
                1.3486688046009394,
                0.17185767252310405,
                -0.08387130348232529
            ]
        },
        {
            "positions": [
                0.19537606011155706,
                -2.1267624213732432,
                -2.1062705117577725,
                1.2772751319220212,
                0.18723553143088661,
                -0.17001493713665985
            ]
        },
        {
            "positions": [
                0.2697003307011147,
                -2.0896469256010985,
                -2.000859777680335,
                1.2058814592431029,
                0.2026133903386692,
                -0.2561585707909944
            ]
        },
        {
            "positions": [
                0.34402460129067236,
                -2.052531429828954,
                -1.8954490436028975,
                1.1344877865641845,
                0.21799124924645177,
                -0.342302204445329
            ]
        },
        {
            "positions": [
                0.41834887188023,
                -2.015415934056809,
                -1.79003830952546,
                1.0630941138852663,
                0.23336910815423434,
                -0.4284458380996635
            ]
        },
        {
            "positions": [
                0.49267314246978766,
                -1.9783004382846645,
                -1.6846275754480224,
                0.991700441206348,
                0.24874696706201693,
                -0.5145894717539982
            ]
        },
        {
            "positions": [
                0.5669974130593453,
                -1.9411849425125198,
                -1.5792168413705847,
                0.9203067685274298,
                0.2641248259697995,
                -0.6007331054083327
            ]
        },
        {
            "positions": [
                0.641321683648903,
                -1.9040694467403751,
                -1.4738061072931472,
                0.8489130958485114,
                0.2795026848775821,
                -0.6868767390626673
            ]
        },
        {
            "positions": [
                0.7156459542384607,
                -1.8669539509682305,
                -1.3683953732157095,
                0.7775194231695931,
                0.29488054378536466,
                -0.773020372717002
            ]
        },
        {
            "positions": [
                0.7899702248280183,
                -1.829838455196086,
                -1.2629846391382722,
                0.7061257504906748,
                0.31025840269314725,
                -0.8591640063713364
            ]
        },
        {
            "positions": [
                0.864294495417576,
                -1.792722959423941,
                -1.1575739050608345,
                0.6347320778117564,
                0.32563626160092984,
                -0.945307640025671
            ]
        },
        {
            "positions": [
                0.9386187660071336,
                -1.7556074636517967,
                -1.0521631709833972,
                0.5633384051328383,
                0.3410141205087124,
                -1.0314512736800054
            ]
        },
        {
            "positions": [
                1.0129430365966914,
                -1.718491967879652,
                -0.9467524369059594,
                0.4919447324539199,
                0.35639197941649503,
                -1.11759490733434
            ]
        },
        {
            "positions": [
                1.0872673071862489,
                -1.6813764721075073,
                -0.8413417028285219,
                0.4205510597750016,
                0.37176983832427757,
                -1.2037385409886745
            ]
        },
        {
            "positions": [
                1.1615915777758066,
                -1.6442609763353626,
                -0.7359309687510844,
                0.34915738709608335,
                0.38714769723206016,
                -1.2898821746430091
            ]
        },
        {
            "positions": [
                1.2359158483653643,
                -1.607145480563218,
                -0.6305202346736469,
                0.27776371441716496,
                0.40252555613984276,
                -1.3760258082973438
            ]
        },
        {
            "positions": [
                1.3102401189549218,
                -1.5700299847910735,
                -0.5251095005962094,
                0.2063700417382468,
                0.4179034150476253,
                -1.4621694419516782
            ]
        },
        {
            "positions": [
                1.3845643895444797,
                -1.5329144890189286,
                -0.4196987665187717,
                0.13497636905932842,
                0.43328127395540794,
                -1.548313075606013
            ]
        },
        {
            "positions": [
                1.4588886601340372,
                -1.495798993246784,
                -0.3142880324413344,
                0.06358269638041003,
                0.4486591328631905,
                -1.6344567092603475
            ]
        },
        {
            "positions": [
                1.5332129307235949,
                -1.4586834974746394,
                -0.2088772983638969,
                -0.007810976298508132,
                0.464036991770973,
                -1.720600342914682
            ]
        },
        {
            "positions": [
                1.6075372013131524,
                -1.4215680017024948,
                -0.1034665642864594,
                -0.0792046489774263,
                0.47941485067875567,
                -1.8067439765690165
            ]
        },
        {
            "positions": [
                1.6818614719027103,
                -1.3844525059303499,
                0.001944169790978556,
                -0.1505983216563449,
                0.4947927095865382,
                -1.8928876102233512
            ]
        },
        {
            "positions": [
                1.7561857424922678,
                -1.3473370101582054,
                0.10735490386841606,
                -0.22199199433526307,
                0.5101705684943209,
                -1.9790312438776858
            ]
        },
        {
            "positions": [
                1.8305100130818255,
                -1.3102215143860607,
                0.21276563794585313,
                -0.29338566701418123,
                0.5255484274021034,
                -2.0651748775320202
            ]
        },
        {
            "positions": [
                1.904834283671383,
                -1.273106018613916,
                0.31817637202329063,
                -0.3647793396930996,
                0.5409262863098859,
                -2.151318511186355
            ]
        },
        {
            "positions": [
                1.979158554260941,
                -1.2359905228417714,
                0.4235871061007286,
                -0.436173012372018,
                0.5563041452176686,
                -2.2374621448406895
            ]
        },
        {
            "positions": [
                2.0534828248504984,
                -1.1988750270696267,
                0.5289978401781661,
                -0.5075666850509364,
                0.5716820041254511,
                -2.323605778495024
            ]
        },
        {
            "positions": [
                2.1278070954400556,
                -1.161759531297482,
                0.6344085742556036,
                -0.5789603577298545,
                0.5870598630332337,
                -2.4097494121493583
            ]
        },
        {
            "positions": [
                2.2021313660296133,
                -1.1246440355253373,
                0.7398193083330407,
                -0.6503540304087727,
                0.6024377219410163,
                -2.495893045803693
            ]
        },
        {
            "positions": [
                2.276455636619171,
                -1.0875285397531926,
                0.8452300424104786,
                -0.7217477030876911,
                0.6178155808487988,
                -2.5820366794580276
            ]
        },
        {
            "positions": [
                2.3507799072087288,
                -1.050413043981048,
                0.9506407764879161,
                -0.7931413757666097,
                0.6331934397565815,
                -2.6681803131123623
            ]
        },
        {
            "positions": [
                2.3970874823957997,
                -1.04424598389386,
                1.0971237155484346,
                -0.7947806427978328,
                0.7050169189938355,
                -2.738423657048277
            ]
        },
        {
            "positions": [
                2.4433950575828707,
                -1.038078923806672,
                1.243606654608953,
                -0.7964199098290559,
                0.7768403982310894,
                -2.8086670009841916
            ]
        },
        {
            "positions": [
                2.4897026327699416,
                -1.0319118637194842,
                1.3900895936694715,
                -0.7980591768602789,
                0.8486638774683435,
                -2.8789103449201066
            ]
        },
        {
            "positions": [
                2.5360102079570126,
                -1.0257448036322963,
                1.53657253272999,
                -0.7996984438915019,
                0.9204873567055974,
                -2.9491536888560215
            ]
        },
        {
            "positions": [
                2.5823177831440836,
                -1.0195777435451083,
                1.6830554717905084,
                -0.801337710922725,
                0.9923108359428515,
                -3.019397032791936
            ]
        },
        {
            "positions": [
                2.6286253583311545,
                -1.0134106834579204,
                1.8295384108510269,
                -0.8029769779539481,
                1.0641343151801055,
                -3.089640376727851
            ]
        }
    ]
}