{
    "goal": {
        "global_pose": {
            "orientation": {
                "w": 0.5084816217422485,
                "x": -0.49083608388900757,
                "y": 0.5182115435600281,
                "z": -0.4816462993621826
            },
            "position": {
                "x": 0.5540239810943604,
                "y": 0.030875300988554955,
                "z": 0.16403168439865112
            }
        },
        "name": "move_to_storage_A"
    },
    "id": "KPIECE_move_to_storage_A_19",
    "joint_names": [
        "shoulder_pan_joint",
        "shoulder_lift_joint",
        "elbow_joint",
        "wrist_1_joint",
        "wrist_2_joint",
        "wrist_3_joint"
    ],
    "metrics": {
        "cart_traj_len": 0.35288116558717286,
        "distance_elbow_joint": 0.4523800391855439,
        "distance_shoulder_lift_joint": 0.23470509314343557,
        "distance_shoulder_pan_joint": 0.46331635706300334,
        "distance_wrist_1_joint": 0.24900983940970367,
        "distance_wrist_2_joint": 1.0910918607330071,
        "distance_wrist_3_joint": 0.09507637236380484,
        "smoothness": 4.440892098500626e-16,
        "time": 0.045906324,
        "traj_len": 1.6079737441570674,
        "weighted_distance": 2.028751834692656
    },
    "planner": "KPIECE",
    "start": {
        "state": {
            "elbow_joint": 1.9715474177455299,
            "shoulder_lift_joint": -1.139484666580328,
            "shoulder_pan_joint": 0.12281154398918248,
            "wrist_1_joint": -0.7804687475355282,
            "wrist_2_joint": 0.12958649657246987,
            "wrist_3_joint": -3.1924925159053466
        }
    },
    "waypoints": [
        {
            "positions": [
                0.12281154398918248,
                -1.139484666580328,
                1.9715474177455299,
                -0.7804687475355282,
                0.12958649657246987,
                -3.1924925159053466
            ]
        },
        {
            "positions": [
                0.056623492980182,
                -1.1730139656008187,
                2.036173137629179,
                -0.8160415817369144,
                0.2854567623914709,
                -3.1789101769962316
            ]
        },
        {
            "positions": [
                -0.009564558028818476,
                -1.2065432646213097,
                2.100798857512828,
                -0.8516144159383007,
                0.44132702821047187,
                -3.1653278380871166
            ]
        },
        {
            "positions": [
                -0.07575260903781894,
                -1.2400725636418004,
                2.165424577396477,
                -0.8871872501396869,
                0.5971972940294729,
                -3.1517454991780016
            ]
        },
        {
            "positions": [
                -0.14194066004681943,
                -1.2736018626622911,
                2.230050297280126,
                -0.9227600843410732,
                0.753067559848474,
                -3.1381631602688866
            ]
        },
        {
            "positions": [
                -0.20812871105581993,
                -1.3071311616827819,
                2.2946760171637757,
                -0.9583329185424594,
                0.908937825667475,
                -3.1245808213597717
            ]
        },
        {
            "positions": [
                -0.27431676206482036,
                -1.3406604607032728,
                2.3593017370474247,
                -0.9939057527438456,
                1.064808091486476,
                -3.1109984824506567
            ]
        },
        {
            "positions": [
                -0.34050481307382086,
                -1.3741897597237636,
                2.423927456931074,
                -1.0294785869452319,
                1.220678357305477,
                -3.0974161435415417
            ]
        }
    ]
}