{
    "goal": {
        "global_pose": {
            "orientation": {
                "w": 0.005598929693374612,
                "x": 0.007748599140229565,
                "y": 0.7110244013736278,
                "z": -0.7031023480610252
            },
            "position": {
                "x": 0.1141497679147869,
                "y": -0.7141253447532654,
                "z": 0.3711530566215515
            }
        },
        "name": "move_to_auspresseinheit_B"
    },
    "id": "KPIECE_move_to_auspresseinheit_B_38",
    "joint_names": [
        "shoulder_pan_joint",
        "shoulder_lift_joint",
        "elbow_joint",
        "wrist_1_joint",
        "wrist_2_joint",
        "wrist_3_joint"
    ],
    "metrics": {
        "cart_traj_len": 0.5650113007540486,
        "distance_elbow_joint": 0.06525772895140536,
        "distance_shoulder_lift_joint": 0.29451356144509355,
        "distance_shoulder_pan_joint": 0.579298177722432,
        "distance_wrist_1_joint": 0.33954013572621444,
        "distance_wrist_2_joint": 0.9849104434017895,
        "distance_wrist_3_joint": 0.010091601076382961,
        "smoothness": 0.0,
        "time": 0.22821355299999999,
        "traj_len": 1.5078500085629598,
        "weighted_distance": 1.9021686122959993
    },
    "planner": "KPIECE",
    "start": {
        "state": {
            "elbow_joint": 2.019306165916698,
            "shoulder_lift_joint": -1.1220205098164344,
            "shoulder_pan_joint": -1.095207207618794,
            "wrist_1_joint": -0.8559671824921639,
            "wrist_2_joint": 0.47596387242952726,
            "wrist_3_joint": 3.159081874673826
        }
    },
    "waypoints": [
        {
            "positions": [
                -1.095207207618794,
                -1.1220205098164344,
                2.019306165916698,
                -0.8559671824921639,
                0.47596387242952726,
                3.159081874673826
            ]
        },
        {
            "positions": [
                -1.191756903905866,
                -1.1711061033906167,
                2.0084298777581306,
                -0.7993771598711281,
                0.6401156129964922,
                3.1573999411610956
            ]
        },
        {
            "positions": [
                -1.288306600192938,
                -1.220191696964799,
                1.9975535895995629,
                -0.7427871372500924,
                0.804267353563457,
                3.155718007648365
            ]
        },
        {
            "positions": [
                -1.38485629648001,
                -1.269277290538981,
                1.9866773014409953,
                -0.6861971146290566,
                0.968419094130422,
                3.154036074135634
            ]
        },
        {
            "positions": [
                -1.481405992767082,
                -1.3183628841131634,
                1.9758010132824277,
                -0.6296070920080209,
                1.1325708346973868,
                3.152354140622904
            ]
        },
        {
            "positions": [
                -1.577955689054154,
                -1.3674484776873457,
                1.9649247251238602,
                -0.5730170693869852,
                1.2967225752643519,
                3.1506722071101736
            ]
        },
        {
            "positions": [
                -1.674505385341226,
                -1.416534071261528,
                1.9540484369652926,
                -0.5164270467659494,
                1.4608743158313167,
                3.148990273597443
            ]
        }
    ]
}