{
    "goal": {
        "global_pose": {
            "orientation": {
                "w": 0.7047431493862688,
                "x": -0.7094548369677653,
                "y": 0.0024358444001904,
                "z": -0.0022348060817251984
            },
            "position": {
                "x": -0.39052492380142206,
                "y": 0.3671506643295288,
                "z": 0.19426114857196808
            }
        },
        "name": "move_to_magneteinheit_D"
    },
    "id": "KPIECE_move_to_magneteinheit_D_45",
    "joint_names": [
        "shoulder_pan_joint",
        "shoulder_lift_joint",
        "elbow_joint",
        "wrist_1_joint",
        "wrist_2_joint",
        "wrist_3_joint"
    ],
    "metrics": {
        "cart_traj_len": 4.495837267523866,
        "distance_elbow_joint": 3.8473843533112313,
        "distance_shoulder_lift_joint": 1.6260079214339447,
        "distance_shoulder_pan_joint": 3.1839246163790924,
        "distance_wrist_1_joint": 4.206787800079743,
        "distance_wrist_2_joint": 0.32579621936345504,
        "distance_wrist_3_joint": 3.2226507750830606,
        "smoothness": 0.3651681355827927,
        "time": 0.8238451790000001,
        "traj_len": 4.051240758786193,
        "weighted_distance": 5.233587417370598
    },
    "planner": "KPIECE",
    "start": {
        "state": {
            "elbow_joint": 0.7495348899011973,
            "shoulder_lift_joint": -0.6476975780737697,
            "shoulder_pan_joint": -2.711696901376276,
            "wrist_1_joint": -0.07506478080974305,
            "wrist_2_joint": 0.4329665971545858,
            "wrist_3_joint": 3.1361499051832524
        }
    },
    "waypoints": [
        {
            "positions": [
                -2.711696901376276,
                -0.6476975780737697,
                0.7495348899011973,
                -0.07506478080974305,
                0.4329665971545858,
                3.1361499051832524
            ]
        },
        {
            "positions": [
                -2.7220657791154177,
                -0.6695568587853578,
                0.788580417460638,
                -0.19585649436952624,
                0.4259129625774614,
                2.956709540995503
            ]
        },
        {
            "positions": [
                -2.732434656854559,
                -0.6914161394969459,
                0.8276259450200788,
                -0.3166482079293095,
                0.41885932800033704,
                2.7772691768077538
            ]
        },
        {
            "positions": [
                -2.742803534593701,
                -0.713275420208534,
                0.8666714725795195,
                -0.43743992148909266,
                0.4118056934232127,
                2.5978288126200044
            ]
        },
        {
            "positions": [
                -2.7531724123328427,
                -0.735134700920122,
                0.9057170001389602,
                -0.5582316350488759,
                0.40475205884608834,
                2.418388448432255
            ]
        },
        {
            "positions": [
                -2.7635412900719842,
                -0.7569939816317102,
                0.944762527698401,
                -0.6790233486086592,
                0.39769842426896396,
                2.2389480842445058
            ]
        },
        {
            "positions": [
                -2.7739101678111258,
                -0.7788532623432982,
                0.9838080552578417,
                -0.7998150621684423,
                0.3906447896918396,
                2.0595077200567564
            ]
        },
        {
            "positions": [
                -2.771425101710678,
                -0.8035627890743319,
                1.0019067746867614,
                -0.8906908190831848,
                0.38385487382580413,
                1.9010329805314397
            ]
        },
        {
            "positions": [
                -2.76894003561023,
                -0.8282723158053655,
                1.020005494115681,
                -0.9815665759979272,
                0.3770649579597687,
                1.7425582410061229
            ]
        },
        {
            "positions": [
                -2.766454969509782,
                -0.8529818425363992,
                1.038104213544601,
                -1.0724423329126695,
                0.37027504209373324,
                1.5840835014808061
            ]
        },
        {
            "positions": [
                -2.7639699034093343,
                -0.8776913692674329,
                1.0562029329735207,
                -1.163318089827412,
                0.3634851262276978,
                1.4256087619554894
            ]
        },
        {
            "positions": [
                -2.759128485231378,
                -0.9034468599885479,
                1.0709416466905266,
                -1.250804139357342,
                0.3565953264936117,
                1.2674557420526271
            ]
        },
        {
            "positions": [
                -2.7542870670534216,
                -0.9292023507096628,
                1.0856803604075322,
                -1.3382901888872716,
                0.34970552675952554,
                1.1093027221497649
            ]
        },
        {
            "positions": [
                -2.7494456488754655,
                -0.9549578414307779,
                1.100419074124538,
                -1.4257762384172015,
                0.34281572702543944,
                0.9511497022469027
            ]
        },
        {
            "positions": [
                -2.643939083026508,
                -0.9933302346629335,
                0.9806286542189947,
                -1.3466700031744443,
                0.33466213320374955,
                0.9136347677038956
            ]
        },
        {
            "positions": [
                -2.538432517177551,
                -1.0317026278950892,
                0.8608382343134513,
                -1.2675637679316873,
                0.3265085393820596,
                0.8761198331608886
            ]
        },
        {
            "positions": [
                -2.4329259513285932,
                -1.0700750211272447,
                0.7410478144079079,
                -1.1884575326889304,
                0.3183549455603697,
                0.8386048986178816
            ]
        },
        {
            "positions": [
                -2.3274193854796357,
                -1.1084474143594003,
                0.6212573945023645,
                -1.1093512974461732,
                0.31020135173867974,
                0.8010899640748745
            ]
        },
        {
            "positions": [
                -2.2219128196306785,
                -1.1468198075915559,
                0.5014669745968211,
                -1.030245062203416,
                0.30204775791698985,
                0.7635750295318675
            ]
        },
        {
            "positions": [
                -2.116406253781721,
                -1.1851922008237115,
                0.3816765546912777,
                -0.9511388269606591,
                0.29389416409529995,
                0.7260600949888605
            ]
        },
        {
            "positions": [
                -2.0108996879327634,
                -1.2235645940558673,
                0.2618861347857343,
                -0.872032591717902,
                0.28574057027361,
                0.6885451604458533
            ]
        },
        {
            "positions": [
                -1.9053931220838063,
                -1.2619369872880228,
                0.1420957148801909,
                -0.792926356475145,
                0.2775869764519201,
                0.6510302259028464
            ]
        },
        {
            "positions": [
                -1.7998865562348487,
                -1.3003093805201784,
                0.022305294974647616,
                -0.713820121232388,
                0.2694333826302302,
                0.6135152913598394
            ]
        },
        {
            "positions": [
                -1.6943799903858914,
                -1.338681773752334,
                -0.0974851249308959,
                -0.6347138859896309,
                0.26127978880854025,
                0.5760003568168323
            ]
        },
        {
            "positions": [
                -1.588873424536934,
                -1.3770541669844896,
                -0.21727554483643918,
                -0.5556076507468738,
                0.2531261949868503,
                0.5384854222738252
            ]
        },
        {
            "positions": [
                -1.4833668586879767,
                -1.4154265602166451,
                -0.3370659647419827,
                -0.47650141550411684,
                0.2449726011651604,
                0.5009704877308182
            ]
        },
        {
            "positions": [
                -1.3778602928390191,
                -1.4537989534488007,
                -0.456856384647526,
                -0.3973951802613598,
                0.2368190073434705,
                0.4634555531878112
            ]
        },
        {
            "positions": [
                -1.2723537269900616,
                -1.4921713466809563,
                -0.5766468045530695,
                -0.3182889450186026,
                0.22866541352178055,
                0.42594061864480404
            ]
        },
        {
            "positions": [
                -1.1668471611411044,
                -1.5305437399131119,
                -0.6964372244586128,
                -0.23918270977584566,
                0.22051181970009065,
                0.3884256841017971
            ]
        },
        {
            "positions": [
                -1.0613405952921469,
                -1.5689161331452677,
                -0.8162276443641563,
                -0.1600764745330885,
                0.21235822587840072,
                0.3509107495587901
            ]
        },
        {
            "positions": [
                -0.9558340294431895,
                -1.6072885263774233,
                -0.9360180642696996,
                -0.08097023929033131,
                0.2042046320567108,
                0.31339581501578295
            ]
        },
        {
            "positions": [
                -0.8503274635942322,
                -1.6456609196095788,
                -1.0558084841752429,
                -0.0018640040475745856,
                0.1960510382350209,
                0.27588088047277604
            ]
        },
        {
            "positions": [
                -0.7448208977452748,
                -1.6840333128417344,
                -1.1755989040807866,
                0.07724223119518259,
                0.18789744441333098,
                0.2383659459297689
            ]
        },
        {
            "positions": [
                -0.6393143318963173,
                -1.7224057060738902,
                -1.2953893239863299,
                0.15634846643793976,
                0.17974385059164105,
                0.20085101138676187
            ]
        },
        {
            "positions": [
                -0.5338077660473601,
                -1.7607780993060458,
                -1.4151797438918732,
                0.2354547016806967,
                0.17159025676995113,
                0.16333607684375495
            ]
        },
        {
            "positions": [
                -0.42830120019840257,
                -1.7991504925382014,
                -1.5349701637974165,
                0.3145609369234539,
                0.1634366629482612,
                0.1258211423007478
            ]
        },
        {
            "positions": [
                -0.322794634349445,
                -1.837522885770357,
                -1.6547605837029602,
                0.39366717216621083,
                0.15528306912657128,
                0.08830620775774078
            ]
        },
        {
            "positions": [
                -0.21728806850048787,
                -1.8758952790025125,
                -1.7745510036085035,
                0.4727734074089678,
                0.14712947530488138,
                0.050791273214733756
            ]
        },
        {
            "positions": [
                -0.11178150265153014,
                -1.914267672234668,
                -1.8943414235140466,
                0.551879642651725,
                0.13897588148319145,
                0.013276338671726711
            ]
        },
        {
            "positions": [
                -0.06358565638602232,
                -1.96718866298119,
                -2.015348240682846,
                0.695944092203711,
                0.14387922765288697,
                0.035419467575831254
            ]
        },
        {
            "positions": [
                -0.015389810120514491,
                -2.0201096537277117,
                -2.1363550578516457,
                0.840008541755697,
                0.1487825738225825,
                0.05756259647993579
            ]
        },
        {
            "positions": [
                0.032806036144993334,
                -2.0730306444742337,
                -2.257361875020445,
                0.9840729913076829,
                0.15368591999227804,
                0.07970572538404035
            ]
        },
        {
            "positions": [
                0.08100188241050116,
                -2.1259516352207557,
                -2.3783686921892446,
                1.128137440859669,
                0.15858926616197355,
                0.10184885428814489
            ]
        },
        {
            "positions": [
                -0.05239776745080721,
                -2.199828567364235,
                -2.3872248935762985,
                1.2792187724573756,
                0.16468532566861288,
                0.0962465078105874
            ]
        },
        {
            "positions": [
                -0.18579741731211555,
                -2.2737054995077144,
                -2.3960810949633524,
                1.4303001040550825,
                0.17078138517525224,
                0.09064416133302991
            ]
        }
    ]
}