{
    "goal": {
        "global_pose": {
            "orientation": {
                "w": -0.4816463035849501,
                "x": 0.5182115481033762,
                "y": 0.4908360881923453,
                "z": -0.5084816262002911
            },
            "position": {
                "x": -0.8240239810943604,
                "y": -0.300875300988555,
                "z": 0.16403168439865112
            }
        },
        "name": "move_to_storage_C"
    },
    "id": "KPIECE_move_to_storage_C_123",
    "joint_names": [
        "shoulder_pan_joint",
        "shoulder_lift_joint",
        "elbow_joint",
        "wrist_1_joint",
        "wrist_2_joint",
        "wrist_3_joint"
    ],
    "metrics": {
        "cart_traj_len": 0.5759077900808087,
        "distance_elbow_joint": 0.25710860933027324,
        "distance_shoulder_lift_joint": 0.18832938949452593,
        "distance_shoulder_pan_joint": 0.49390403230696034,
        "distance_wrist_1_joint": 0.07901801852987045,
        "distance_wrist_2_joint": 1.0712355129952096,
        "distance_wrist_3_joint": 0.06150196006020048,
        "smoothness": 2.5376526478085547e-16,
        "time": 0.010982941000000001,
        "traj_len": 1.4666620342522814,
        "weighted_distance": 1.8505012765092923
    },
    "planner": "KPIECE",
    "start": {
        "state": {
            "elbow_joint": 2.010868315001653,
            "shoulder_lift_joint": -1.1634956873357014,
            "shoulder_pan_joint": -2.4736205022346103,
            "wrist_1_joint": -0.8367026794713948,
            "wrist_2_joint": 0.6746043897044093,
            "wrist_3_joint": 3.1335220948105738
        }
    },
    "waypoints": [
        {
            "positions": [
                -2.4736205022346103,
                -1.1634956873357014,
                2.010868315001653,
                -0.8367026794713948,
                0.6746043897044093,
                3.1335220948105738
            ]
        },
        {
            "positions": [
                -2.555937840952437,
                -1.1321074557532804,
                1.9680168801132742,
                -0.8235330097164164,
                0.8531436418702776,
                3.1437724214872738
            ]
        },
        {
            "positions": [
                -2.6382551796702636,
                -1.1007192241708594,
                1.9251654452248954,
                -0.810363339961438,
                1.0316828940361458,
                3.1540227481639738
            ]
        },
        {
            "positions": [
                -2.7205725183880904,
                -1.0693309925884384,
                1.8823140103365166,
                -0.7971936702064595,
                1.210222146202014,
                3.1642730748406738
            ]
        },
        {
            "positions": [
                -2.8028898571059173,
                -1.0379427610060175,
                1.8394625754481375,
                -0.7840240004514811,
                1.3887613983678824,
                3.174523401517374
            ]
        },
        {
            "positions": [
                -2.8852071958237437,
                -1.0065545294235965,
                1.7966111405597587,
                -0.7708543306965028,
                1.5673006505337508,
                3.1847737281940742
            ]
        },
        {
            "positions": [
                -2.9675245345415706,
                -0.9751662978411755,
                1.7537597056713798,
                -0.7576846609415243,
                1.7458399026996188,
                3.1950240548707742
            ]
        }
    ]
}