{
    "goal": {
        "global_pose": {
            "orientation": {
                "w": 0.005598929693374612,
                "x": 0.007748599140229565,
                "y": 0.7110244013736278,
                "z": -0.7031023480610252
            },
            "position": {
                "x": 0.1141497679147869,
                "y": -0.7141253447532654,
                "z": 0.3711530566215515
            }
        },
        "name": "move_to_auspresseinheit_B"
    },
    "id": "KPIECE_move_to_auspresseinheit_B_14",
    "joint_names": [
        "shoulder_pan_joint",
        "shoulder_lift_joint",
        "elbow_joint",
        "wrist_1_joint",
        "wrist_2_joint",
        "wrist_3_joint"
    ],
    "metrics": {
        "cart_traj_len": 0.5642541935294392,
        "distance_elbow_joint": 0.06480999144000466,
        "distance_shoulder_lift_joint": 0.2946049368202619,
        "distance_shoulder_pan_joint": 0.5746382882351742,
        "distance_wrist_1_joint": 0.33955051046760876,
        "distance_wrist_2_joint": 1.0071568696189754,
        "distance_wrist_3_joint": 0.008731999870626339,
        "smoothness": 3.806478935924272e-16,
        "time": 0.17800545699999998,
        "traj_len": 1.5131069349033632,
        "weighted_distance": 1.9114559833489466
    },
    "planner": "KPIECE",
    "start": {
        "state": {
            "elbow_joint": 2.019306165916698,
            "shoulder_lift_joint": -1.1220205098164344,
            "shoulder_pan_joint": -1.095207207618794,
            "wrist_1_joint": -0.8559671824921639,
            "wrist_2_joint": 0.47596387242952726,
            "wrist_3_joint": 3.159081874673826
        }
    },
    "waypoints": [
        {
            "positions": [
                -1.095207207618794,
                -1.1220205098164344,
                2.019306165916698,
                -0.8559671824921639,
                0.47596387242952726,
                3.159081874673826
            ]
        },
        {
            "positions": [
                -1.1909802556579896,
                -1.1711213326198113,
                2.0085045006766973,
                -0.7993754307475625,
                0.6438233506993565,
                3.157626541362055
            ]
        },
        {
            "positions": [
                -1.2867533036971854,
                -1.2202221554231885,
                1.9977028354366964,
                -0.7427836790029609,
                0.8116828289691858,
                3.1561712080502837
            ]
        },
        {
            "positions": [
                -1.382526351736381,
                -1.2693229782265654,
                1.9869011701966957,
                -0.6861919272583594,
                0.979542307239015,
                3.1547158747385127
            ]
        },
        {
            "positions": [
                -1.4782993997755767,
                -1.3184238010299423,
                1.976099504956695,
                -0.629600175513758,
                1.147401785508844,
                3.1532605414267416
            ]
        },
        {
            "positions": [
                -1.5740724478147725,
                -1.3675246238333194,
                1.965297839716694,
                -0.5730084237691566,
                1.3152612637786736,
                3.1518052081149706
            ]
        },
        {
            "positions": [
                -1.6698454958539681,
                -1.4166254466366963,
                1.9544961744766933,
                -0.5164166720245551,
                1.4831207420485026,
                3.1503498748031995
            ]
        }
    ]
}