{
    "goal": {
        "global_pose": {
            "orientation": {
                "w": -0.00223480608172531,
                "x": 0.0024358444001904467,
                "y": 0.7094548369677653,
                "z": -0.704743149386269
            },
            "position": {
                "x": -0.37947507619857795,
                "y": -0.6371506643295288,
                "z": 0.19426114857196808
            }
        },
        "name": "move_to_magneteinheit_C"
    },
    "id": "KPIECE_move_to_magneteinheit_C_66",
    "joint_names": [
        "shoulder_pan_joint",
        "shoulder_lift_joint",
        "elbow_joint",
        "wrist_1_joint",
        "wrist_2_joint",
        "wrist_3_joint"
    ],
    "metrics": {
        "cart_traj_len": 0.6947855723800583,
        "distance_elbow_joint": 0.6022933175909007,
        "distance_shoulder_lift_joint": 0.3957797018567395,
        "distance_shoulder_pan_joint": 0.8007901621429898,
        "distance_wrist_1_joint": 2.8948360333770253,
        "distance_wrist_2_joint": 0.7899195779265092,
        "distance_wrist_3_joint": 2.1588875000488255,
        "smoothness": 0.5830343624440151,
        "time": 1.155379993,
        "traj_len": 2.7645083275228144,
        "weighted_distance": 3.9553807533970953
    },
    "planner": "KPIECE",
    "start": {
        "state": {
            "elbow_joint": 1.9565354006590394,
            "shoulder_lift_joint": -1.4165861576513559,
            "shoulder_pan_joint": -1.6717766223277177,
            "wrist_1_joint": -0.5286633288215096,
            "wrist_2_joint": 1.4727565892594296,
            "wrist_3_joint": 3.1593482883155493
        }
    },
    "waypoints": [
        {
            "positions": [
                -1.6717766223277177,
                -1.4165861576513559,
                1.9565354006590394,
                -0.5286633288215096,
                1.4727565892594296,
                3.1593482883155493
            ]
        },
        {
            "positions": [
                -1.6758954544823004,
                -1.4343771333697135,
                1.9386036032742846,
                -0.41955570739170944,
                1.4383158624502101,
                3.0155449918287305
            ]
        },
        {
            "positions": [
                -1.6800142866368832,
                -1.4521681090880711,
                1.9206718058895298,
                -0.3104480859619093,
                1.4038751356409904,
                2.871741695341912
            ]
        },
        {
            "positions": [
                -1.684133118791466,
                -1.4699590848064288,
                1.9027400085047752,
                -0.20134046453210913,
                1.3694344088317707,
                2.7279383988550934
            ]
        },
        {
            "positions": [
                -1.6882519509460487,
                -1.4877500605247864,
                1.8848082111200204,
                -0.092232843102309,
                1.3349936820225512,
                2.5841351023682746
            ]
        },
        {
            "positions": [
                -1.7533969462063133,
                -1.468056447359594,
                1.8627366781967838,
                0.031054496968482503,
                1.298369562489151,
                2.509329098652884
            ]
        },
        {
            "positions": [
                -1.8185419414665775,
                -1.448362834194402,
                1.840665145273547,
                0.154341837039274,
                1.2617454429557506,
                2.434523094937493
            ]
        },
        {
            "positions": [
                -1.883686936726842,
                -1.4286692210292096,
                1.8185936123503104,
                0.2776291771100655,
                1.2251213234223504,
                2.359717091222102
            ]
        },
        {
            "positions": [
                -1.9488319319871066,
                -1.4089756078640172,
                1.7965220794270735,
                0.400916517180857,
                1.18849720388895,
                2.284911087506712
            ]
        },
        {
            "positions": [
                -2.013976927247371,
                -1.3892819946988249,
                1.774450546503837,
                0.5242038572516485,
                1.1518730843555498,
                2.210105083791321
            ]
        },
        {
            "positions": [
                -2.0791219225076354,
                -1.3695883815336327,
                1.7523790135806,
                0.64749119732244,
                1.1152489648221495,
                2.13529908007593
            ]
        },
        {
            "positions": [
                -2.1442669177679,
                -1.3498947683684404,
                1.7303074806573635,
                0.7707785373932317,
                1.0786248452887492,
                2.0604930763605394
            ]
        },
        {
            "positions": [
                -2.261778630869495,
                -1.2971844180604606,
                1.6809211041448173,
                0.7481086320553884,
                1.056781810557907,
                2.147482337762723
            ]
        },
        {
            "positions": [
                -2.296080007946105,
                -1.2752848744991152,
                1.709967216881949,
                0.6347486693574048,
                1.033080067315328,
                2.246903492501812
            ]
        },
        {
            "positions": [
                -2.3303813850227155,
                -1.2533853309377698,
                1.7390133296190808,
                0.5213887066594213,
                1.0093783240727492,
                2.346324647240901
            ]
        },
        {
            "positions": [
                -2.3521997984016227,
                -1.2390445998073536,
                1.7684898867815062,
                0.4012401520861697,
                0.9834310952454324,
                2.432837061525267
            ]
        },
        {
            "positions": [
                -2.3740182117805304,
                -1.2247038686769376,
                1.7979664439439318,
                0.2810915975129182,
                0.9574838664181154,
                2.519349475809633
            ]
        },
        {
            "positions": [
                -2.3958366251594376,
                -1.2103631375465214,
                1.8274430011063572,
                0.1609430429396666,
                0.9315366375907986,
                2.605861890093999
            ]
        },
        {
            "positions": [
                -2.408624985044649,
                -1.2024916582123475,
                1.8574691884588803,
                -0.0033167358451199336,
                0.8900866998811523,
                2.691639135820725
            ]
        },
        {
            "positions": [
                -2.421413344929861,
                -1.1946201788781734,
                1.8874953758114035,
                -0.16757651462990647,
                0.8486367621715059,
                2.777416381547451
            ]
        },
        {
            "positions": [
                -2.434201704815073,
                -1.1867486995439993,
                1.9175215631639264,
                -0.33183629341469306,
                0.8071868244618595,
                2.863193627274177
            ]
        },
        {
            "positions": [
                -2.4469900647002842,
                -1.1788772202098254,
                1.9475477505164496,
                -0.49609607219947954,
                0.7657368867522132,
                2.9489708730009028
            ]
        },
        {
            "positions": [
                -2.4597784245854957,
                -1.1710057408756516,
                1.9775739378689727,
                -0.6603558509842662,
                0.7242869490425667,
                3.034748118727629
            ]
        },
        {
            "positions": [
                -2.4725667844707075,
                -1.1631342615414775,
                2.007600125221496,
                -0.8246156297690528,
                0.6828370113329204,
                3.120525364454355
            ]
        }
    ]
}