{
    "goal": {
        "global_pose": {
            "orientation": {
                "w": 0.7047431468963623,
                "x": -0.7094548344612122,
                "y": 0.0024358443915843964,
                "z": -0.0022348060738295317
            },
            "position": {
                "x": 0.6094750761985779,
                "y": 0.3671506643295288,
                "z": 0.19426114857196808
            }
        },
        "name": "move_to_magneteinheit_A"
    },
    "id": "KPIECE_move_to_magneteinheit_A_121",
    "joint_names": [
        "shoulder_pan_joint",
        "shoulder_lift_joint",
        "elbow_joint",
        "wrist_1_joint",
        "wrist_2_joint",
        "wrist_3_joint"
    ],
    "metrics": {
        "cart_traj_len": 1.0526414999926539,
        "distance_elbow_joint": 0.39607858266199836,
        "distance_shoulder_lift_joint": 0.35899669997121464,
        "distance_shoulder_pan_joint": 1.2409496999021983,
        "distance_wrist_1_joint": 2.2655279503438512,
        "distance_wrist_2_joint": 1.6949390390168277,
        "distance_wrist_3_joint": 1.172506384554005,
        "smoothness": 9.349246597189412e-17,
        "time": 0.200667449,
        "traj_len": 2.6700184187473495,
        "weighted_distance": 3.6653073697738887
    },
    "planner": "KPIECE",
    "start": {
        "state": {
            "elbow_joint": 1.5739458966750683,
            "shoulder_lift_joint": -1.4977259741207325,
            "shoulder_pan_joint": -1.1188672016454206,
            "wrist_1_joint": 1.494575848278785,
            "wrist_2_joint": -1.5706037134824402,
            "wrist_3_joint": -2.0226957942261072
        }
    },
    "waypoints": [
        {
            "positions": [
                -1.1188672016454206,
                -1.4977259741207325,
                1.5739458966750683,
                1.494575848278785,
                -1.5706037134824402,
                -2.0226957942261072
            ]
        },
        {
            "positions": [
                -1.049925551650854,
                -1.4777817130112205,
                1.5959502623785127,
                1.3687131843707934,
                -1.476440433537061,
                -2.087835037812441
            ]
        },
        {
            "positions": [
                -0.9809839016562876,
                -1.4578374519017085,
                1.617954628081957,
                1.2428505204628015,
                -1.3822771535916816,
                -2.1529742813987744
            ]
        },
        {
            "positions": [
                -0.9120422516617209,
                -1.4378931907921968,
                1.6399589937854013,
                1.1169878565548097,
                -1.2881138736463023,
                -2.218113524985108
            ]
        },
        {
            "positions": [
                -0.8431006016671544,
                -1.4179489296826848,
                1.6619633594888457,
                0.9911251926468181,
                -1.193950593700923,
                -2.2832527685714417
            ]
        },
        {
            "positions": [
                -0.7741589516725877,
                -1.3980046685731728,
                1.6839677251922902,
                0.8652625287388263,
                -1.0997873137555436,
                -2.3483920121577753
            ]
        },
        {
            "positions": [
                -0.7052173016780212,
                -1.3780604074636609,
                1.7059720908957345,
                0.7393998648308346,
                -1.0056240338101643,
                -2.413531255744109
            ]
        },
        {
            "positions": [
                -0.6362756516834547,
                -1.3581161463541491,
                1.7279764565991789,
                0.6135372009228428,
                -0.911460753864785,
                -2.4786704993304425
            ]
        },
        {
            "positions": [
                -0.5673340016888881,
                -1.3381718852446371,
                1.7499808223026232,
                0.4876745370148512,
                -0.8172974739194057,
                -2.543809742916776
            ]
        },
        {
            "positions": [
                -0.4983923516943215,
                -1.3182276241351252,
                1.7719851880060675,
                0.36181187310685936,
                -0.7231341939740263,
                -2.6089489865031097
            ]
        },
        {
            "positions": [
                -0.42945070169975486,
                -1.2982833630256132,
                1.7939895537095119,
                0.23594920919886753,
                -0.628970914028647,
                -2.6740882300894433
            ]
        },
        {
            "positions": [
                -0.3605090517051883,
                -1.2783391019161012,
                1.8159939194129562,
                0.11008654529087569,
                -0.5348076340832677,
                -2.739227473675777
            ]
        },
        {
            "positions": [
                -0.2915674017106218,
                -1.2583948408065895,
                1.8379982851164005,
                -0.015776118617115698,
                -0.4406443541378884,
                -2.8043667172621105
            ]
        },
        {
            "positions": [
                -0.22262575171605525,
                -1.2384505796970775,
                1.8600026508198448,
                -0.14163878252510753,
                -0.34648107419250906,
                -2.869505960848444
            ]
        },
        {
            "positions": [
                -0.1536841017214886,
                -1.2185063185875655,
                1.8820070165232892,
                -0.26750144643309937,
                -0.25231779424712975,
                -2.9346452044347777
            ]
        },
        {
            "positions": [
                -0.08474245172692196,
                -1.1985620574780536,
                1.9040113822267337,
                -0.3933641103410912,
                -0.15815451430175043,
                -2.9997844480211113
            ]
        },
        {
            "positions": [
                -0.01580080173235565,
                -1.1786177963685418,
                1.926015747930178,
                -0.5192267742490826,
                -0.06399123435637111,
                -3.064923691607445
            ]
        },
        {
            "positions": [
                0.053140848262211104,
                -1.1586735352590298,
                1.9480201136336224,
                -0.6450894381570744,
                0.030172045589008212,
                -3.1300629351937785
            ]
        },
        {
            "positions": [
                0.12208249825677774,
                -1.1387292741495179,
                1.9700244793370667,
                -0.7709521020650664,
                0.12433532553438748,
                -3.195202178780112
            ]
        }
    ]
}