{
    "goal": {
        "global_pose": {
            "orientation": {
                "w": 0.005598929693374612,
                "x": 0.007748599140229565,
                "y": 0.7110244013736278,
                "z": -0.7031023480610252
            },
            "position": {
                "x": 0.1141497679147869,
                "y": -0.7141253447532654,
                "z": 0.3711530566215515
            }
        },
        "name": "move_to_auspresseinheit_B"
    },
    "id": "KPIECE_move_to_auspresseinheit_B_66",
    "joint_names": [
        "shoulder_pan_joint",
        "shoulder_lift_joint",
        "elbow_joint",
        "wrist_1_joint",
        "wrist_2_joint",
        "wrist_3_joint"
    ],
    "metrics": {
        "cart_traj_len": 0.5653777717612496,
        "distance_elbow_joint": 0.06449667682062299,
        "distance_shoulder_lift_joint": 0.2946564642252003,
        "distance_shoulder_pan_joint": 0.5775923491809984,
        "distance_wrist_1_joint": 0.3304272760518434,
        "distance_wrist_2_joint": 0.9923015374563333,
        "distance_wrist_3_joint": 0.0031462161251178955,
        "smoothness": 0.0,
        "time": 0.12780086899999998,
        "traj_len": 1.504200957272703,
        "weighted_distance": 1.8951627280047822
    },
    "planner": "KPIECE",
    "start": {
        "state": {
            "elbow_joint": 2.019306165916698,
            "shoulder_lift_joint": -1.1220205098164344,
            "shoulder_pan_joint": -1.095207207618794,
            "wrist_1_joint": -0.8559671824921639,
            "wrist_2_joint": 0.47596387242952726,
            "wrist_3_joint": 3.159081874673826
        }
    },
    "waypoints": [
        {
            "positions": [
                -1.095207207618794,
                -1.1220205098164344,
                2.019306165916698,
                -0.8559671824921639,
                0.47596387242952726,
                3.159081874673826
            ]
        },
        {
            "positions": [
                -1.1914725991489603,
                -1.1711299205206345,
                2.0085567197799277,
                -0.8008959698168566,
                0.6413474620055828,
                3.1585575053196395
            ]
        },
        {
            "positions": [
                -1.2877379906791269,
                -1.2202393312248345,
                1.997807273643157,
                -0.7458247571415494,
                0.8067310515816384,
                3.158033135965453
            ]
        },
        {
            "positions": [
                -1.3840033822092932,
                -1.2693487419290346,
                1.9870578275063866,
                -0.6907535444662422,
                0.972114641157694,
                3.157508766611267
            ]
        },
        {
            "positions": [
                -1.4802687737394595,
                -1.3184581526332346,
                1.976308381369616,
                -0.6356823317909349,
                1.1374982307337493,
                3.1569843972570806
            ]
        },
        {
            "positions": [
                -1.576534165269626,
                -1.3675675633374347,
                1.9655589352328455,
                -0.5806111191156277,
                1.3028818203098051,
                3.1564600279028943
            ]
        },
        {
            "positions": [
                -1.6727995567997924,
                -1.4166769740416347,
                1.954809489096075,
                -0.5255399064403204,
                1.4682654098858605,
                3.155935658548708
            ]
        }
    ]
}