{
    "goal": {
        "global_pose": {
            "orientation": {
                "w": 0.7047431493862688,
                "x": -0.7094548369677653,
                "y": 0.0024358444001904,
                "z": -0.0022348060817251984
            },
            "position": {
                "x": -0.39052492380142206,
                "y": 0.3671506643295288,
                "z": 0.19426114857196808
            }
        },
        "name": "move_to_magneteinheit_D"
    },
    "id": "KPIECE_move_to_magneteinheit_D_37",
    "joint_names": [
        "shoulder_pan_joint",
        "shoulder_lift_joint",
        "elbow_joint",
        "wrist_1_joint",
        "wrist_2_joint",
        "wrist_3_joint"
    ],
    "metrics": {
        "cart_traj_len": 4.375945529091683,
        "distance_elbow_joint": 3.141880247146615,
        "distance_shoulder_lift_joint": 1.628871965757178,
        "distance_shoulder_pan_joint": 3.0509143593058403,
        "distance_wrist_1_joint": 1.5215883363225997,
        "distance_wrist_2_joint": 1.0135068286401914,
        "distance_wrist_3_joint": 3.0689840192781475,
        "smoothness": 0.24548435658252607,
        "time": 0.808358023,
        "traj_len": 3.664115958379398,
        "weighted_distance": 4.7009370299940905
    },
    "planner": "KPIECE",
    "start": {
        "state": {
            "elbow_joint": 0.7495348899011973,
            "shoulder_lift_joint": -0.6476975780737697,
            "shoulder_pan_joint": -2.711696901376276,
            "wrist_1_joint": -0.07506478080974305,
            "wrist_2_joint": 0.4329665971545858,
            "wrist_3_joint": 3.1361499051832524
        }
    },
    "waypoints": [
        {
            "positions": [
                -2.711696901376276,
                -0.6476975780737697,
                0.7495348899011973,
                -0.07506478080974305,
                0.4329665971545858,
                3.1361499051832524
            ]
        },
        {
            "positions": [
                -2.7153206511452517,
                -0.6776544802160908,
                0.7423116627516174,
                -0.05552862041621204,
                0.4504953800799024,
                3.139519860226359
            ]
        },
        {
            "positions": [
                -2.7126785224626877,
                -0.8000218392067242,
                0.7062991569182074,
                0.02297267417615384,
                0.5239383129130949,
                3.1142613468379157
            ]
        },
        {
            "positions": [
                -2.7100363937801237,
                -0.9223891981973577,
                0.6702866510847976,
                0.10147396876851972,
                0.5973812457462873,
                3.089002833449473
            ]
        },
        {
            "positions": [
                -2.7073942650975598,
                -1.044756557187991,
                0.6342741452513876,
                0.17997526336088562,
                0.6708241785794797,
                3.0637443200610295
            ]
        },
        {
            "positions": [
                -2.596183076427999,
                -1.0838444579377806,
                0.545893923476404,
                0.21800950889010967,
                0.6619881567590161,
                2.958458702912799
            ]
        },
        {
            "positions": [
                -2.484971887758438,
                -1.12293235868757,
                0.45751370170142036,
                0.25604375441933375,
                0.6531521349385524,
                2.8531730857645683
            ]
        },
        {
            "positions": [
                -2.3737606990888773,
                -1.1620202594373594,
                0.36913347992643675,
                0.29407799994855777,
                0.6443161131180888,
                2.747887468616338
            ]
        },
        {
            "positions": [
                -2.2625495104193165,
                -1.201108160187149,
                0.28075325815145313,
                0.33211224547778184,
                0.6354800912976251,
                2.6426018514681076
            ]
        },
        {
            "positions": [
                -2.1513383217497557,
                -1.2401960609369385,
                0.19237303637646952,
                0.3701464910070059,
                0.6266440694771614,
                2.537316234319877
            ]
        },
        {
            "positions": [
                -2.040127133080195,
                -1.279283961686728,
                0.1039928146014859,
                0.40818073653623,
                0.6178080476566977,
                2.4320306171716464
            ]
        },
        {
            "positions": [
                -1.9289159444106339,
                -1.3183718624365173,
                0.01561259282650218,
                0.44621498206545407,
                0.6089720258362341,
                2.3267450000234158
            ]
        },
        {
            "positions": [
                -1.8177047557410733,
                -1.3574597631863068,
                -0.07276762894848132,
                0.48424922759467814,
                0.6001360040157704,
                2.221459382875185
            ]
        },
        {
            "positions": [
                -1.7064935670715122,
                -1.3965476639360963,
                -0.16114785072346494,
                0.5222834731239021,
                0.5912999821953068,
                2.116173765726955
            ]
        },
        {
            "positions": [
                -1.5952823784019514,
                -1.4356355646858858,
                -0.24952807249844855,
                0.5603177186531262,
                0.582463960374843,
                2.0108881485787244
            ]
        },
        {
            "positions": [
                -1.4840711897323906,
                -1.4747234654356751,
                -0.33790829427343216,
                0.5983519641823503,
                0.5736279385543794,
                1.9056025314304939
            ]
        },
        {
            "positions": [
                -1.3728600010628298,
                -1.5138113661854646,
                -0.4262885160484158,
                0.6363862097115743,
                0.5647919167339157,
                1.8003169142822635
            ]
        },
        {
            "positions": [
                -1.261648812393269,
                -1.5528992669352542,
                -0.5146687378233994,
                0.6744204552407984,
                0.5559558949134521,
                1.6950312971340329
            ]
        },
        {
            "positions": [
                -1.150437623723708,
                -1.5919871676850437,
                -0.6030489595983832,
                0.7124547007700225,
                0.5471198730929884,
                1.5897456799858023
            ]
        },
        {
            "positions": [
                -1.0392264350541474,
                -1.631075068434833,
                -0.6914291813733666,
                0.7504889462992465,
                0.5382838512725248,
                1.484460062837572
            ]
        },
        {
            "positions": [
                -0.9280152463845865,
                -1.6701629691846225,
                -0.7798094031483502,
                0.7885231918284706,
                0.529447829452061,
                1.3791744456893413
            ]
        },
        {
            "positions": [
                -0.8168040577150255,
                -1.709250869934412,
                -0.8681896249233338,
                0.8265574373576947,
                0.5206118076315974,
                1.2738888285411107
            ]
        },
        {
            "positions": [
                -0.7055928690454647,
                -1.7483387706842013,
                -0.9565698466983175,
                0.8645916828869187,
                0.5117757858111338,
                1.1686032113928806
            ]
        },
        {
            "positions": [
                -0.5943816803759039,
                -1.787426671433991,
                -1.044950068473301,
                0.9026259284161428,
                0.5029397639906701,
                1.06331759424465
            ]
        },
        {
            "positions": [
                -0.4831704917063431,
                -1.8265145721837803,
                -1.1333302902482847,
                0.9406601739453668,
                0.49410374217020636,
                0.9580319770964194
            ]
        },
        {
            "positions": [
                -0.37195930303678226,
                -1.8656024729335698,
                -1.2217105120232683,
                0.9786944194745908,
                0.48526772034974275,
                0.8527463599481888
            ]
        },
        {
            "positions": [
                -0.26074811436722145,
                -1.9046903736833594,
                -1.310090733798252,
                1.016728665003815,
                0.4764316985292791,
                0.7474607427999582
            ]
        },
        {
            "positions": [
                -0.14953692569766064,
                -1.9437782744331487,
                -1.3984709555732355,
                1.054762910533039,
                0.4675956767088154,
                0.6421751256517276
            ]
        },
        {
            "positions": [
                -0.03832573702809983,
                -1.9828661751829382,
                -1.4868511773482191,
                1.092797156062263,
                0.45875965488835174,
                0.5368895085034975
            ]
        },
        {
            "positions": [
                0.07288545164146099,
                -2.0219540759327277,
                -1.5752313991232028,
                1.130831401591487,
                0.4499236330678881,
                0.431603891355267
            ]
        },
        {
            "positions": [
                0.05219643320694946,
                -2.032703918889314,
                -1.730898772823247,
                1.1547321899263696,
                0.366605104188654,
                0.39971058941043575
            ]
        },
        {
            "positions": [
                0.03150741477243794,
                -2.043453761845901,
                -1.8865661465232915,
                1.1786329782612524,
                0.2832865753094199,
                0.36781728746560444
            ]
        },
        {
            "positions": [
                0.010818396337926424,
                -2.0542036048024874,
                -2.042233520223336,
                1.2025337665961349,
                0.1999680464301859,
                0.3359239855207732
            ]
        },
        {
            "positions": [
                -0.00987062209658511,
                -2.0649534477590743,
                -2.1979008939233804,
                1.2264345549310176,
                0.11664951755095176,
                0.3040306835759419
            ]
        },
        {
            "positions": [
                -0.030559640531096624,
                -2.0757032907156607,
                -2.3535682676234244,
                1.2503353432659001,
                0.03333098867171773,
                0.2721373816311106
            ]
        },
        {
            "positions": [
                -0.09119107155632103,
                -2.1581363855510514,
                -2.3710152904416706,
                1.3307152576190053,
                0.08802003515888329,
                0.19527519683489436
            ]
        },
        {
            "positions": [
                -0.15182250258154542,
                -2.2405694803864424,
                -2.388462313259917,
                1.4110951719721103,
                0.14270908164604884,
                0.11841301203867813
            ]
        },
        {
            "positions": [
                -0.18619905510869075,
                -2.2765695438309477,
                -2.3923453572454183,
                1.4465235555128568,
                0.17148704597925304,
                0.07390579599131726
            ]
        }
    ]
}