{
    "goal": {
        "global_pose": {
            "orientation": {
                "w": 0.7031023480610252,
                "x": -0.7110244013736278,
                "y": 0.0077485991402295624,
                "z": 0.005598929693374583
            },
            "position": {
                "x": -0.8841497679147869,
                "y": 0.44412534475326537,
                "z": 0.3711530566215515
            }
        },
        "name": "move_to_auspresseinheit_D"
    },
    "id": "KPIECE_move_to_auspresseinheit_D_90",
    "joint_names": [
        "shoulder_pan_joint",
        "shoulder_lift_joint",
        "elbow_joint",
        "wrist_1_joint",
        "wrist_2_joint",
        "wrist_3_joint"
    ],
    "metrics": {
        "cart_traj_len": 3.7002402487239006,
        "distance_elbow_joint": 3.1917537320790204,
        "distance_shoulder_lift_joint": 1.3934116885405734,
        "distance_shoulder_pan_joint": 2.796446490172044,
        "distance_wrist_1_joint": 1.6677677631451107,
        "distance_wrist_2_joint": 0.9736997098412232,
        "distance_wrist_3_joint": 3.087854370354687,
        "smoothness": 0.08844836644225379,
        "time": 0.119672658,
        "traj_len": 3.6209023397673485,
        "weighted_distance": 4.682745985832284
    },
    "planner": "KPIECE",
    "start": {
        "state": {
            "elbow_joint": 1.8268400409724999,
            "shoulder_lift_joint": -1.0144045787793008,
            "shoulder_pan_joint": 2.6280239544362485,
            "wrist_1_joint": -0.790705565816056,
            "wrist_2_joint": 1.0573557467365533,
            "wrist_3_joint": 3.1851377467193758
        }
    },
    "waypoints": [
        {
            "positions": [
                2.6280239544362485,
                -1.0144045787793008,
                1.8268400409724999,
                -0.790705565816056,
                1.0573557467365533,
                3.1851377467193758
            ]
        },
        {
            "positions": [
                2.5611093485429124,
                -1.0730081570936605,
                1.743410363063137,
                -0.8182832434430268,
                1.064544239949048,
                3.0978961254605544
            ]
        },
        {
            "positions": [
                2.494194742649576,
                -1.1316117354080204,
                1.6599806851537742,
                -0.8458609210699977,
                1.0717327331615425,
                3.0106545042017334
            ]
        },
        {
            "positions": [
                2.4272801367562398,
                -1.19021531372238,
                1.576551007244411,
                -0.8734385986969685,
                1.078921226374037,
                2.9234128829429125
            ]
        },
        {
            "positions": [
                2.3603655308629037,
                -1.2488188920367398,
                1.4931213293350485,
                -0.9010162763239393,
                1.0861097195865317,
                2.836171261684091
            ]
        },
        {
            "positions": [
                2.293450924969567,
                -1.3074224703510997,
                1.4096916514256854,
                -0.9285939539509102,
                1.0932982127990263,
                2.7489296404252697
            ]
        },
        {
            "positions": [
                2.226536319076231,
                -1.3660260486654594,
                1.3262619735163226,
                -0.956171631577881,
                1.1004867060115209,
                2.6616880191664487
            ]
        },
        {
            "positions": [
                2.1439515309792645,
                -1.401949849308715,
                1.233462812667259,
                -0.9043681247715608,
                1.068398128405788,
                2.5732602728629397
            ]
        },
        {
            "positions": [
                2.0613667428822984,
                -1.4378736499519709,
                1.1406636518181954,
                -0.8525646179652406,
                1.036309550800055,
                2.4848325265594307
            ]
        },
        {
            "positions": [
                1.9787819547853318,
                -1.4737974505952265,
                1.047864490969132,
                -0.8007611111589205,
                1.0042209731943221,
                2.3964047802559216
            ]
        },
        {
            "positions": [
                1.8961971666883652,
                -1.509721251238482,
                0.9550653301200684,
                -0.7489576043526003,
                0.9721323955885891,
                2.307977033952413
            ]
        },
        {
            "positions": [
                1.813612378591399,
                -1.5456450518817377,
                0.8622661692710047,
                -0.69715409754628,
                0.9400438179828561,
                2.219549287648904
            ]
        },
        {
            "positions": [
                1.7310275904944326,
                -1.5815688525249936,
                0.7694670084219413,
                -0.6453505907399599,
                0.9079552403771232,
                2.131121541345395
            ]
        },
        {
            "positions": [
                1.648442802397466,
                -1.6174926531682492,
                0.6766678475728777,
                -0.5935470839336396,
                0.8758666627713902,
                2.042693795041886
            ]
        },
        {
            "positions": [
                1.5658580143004996,
                -1.6534164538115048,
                0.5838686867238142,
                -0.5417435771273195,
                0.8437780851656573,
                1.954266048738377
            ]
        },
        {
            "positions": [
                1.4832732262035333,
                -1.6893402544547604,
                0.4910695258747506,
                -0.4899400703209993,
                0.8116895075599243,
                1.865838302434868
            ]
        },
        {
            "positions": [
                1.4006884381065667,
                -1.7252640550980163,
                0.398270365025687,
                -0.4381365635146791,
                0.7796009299541913,
                1.777410556131359
            ]
        },
        {
            "positions": [
                1.3181036500096004,
                -1.761187855741272,
                0.30547120417662366,
                -0.38633305670835894,
                0.7475123523484584,
                1.6889828098278503
            ]
        },
        {
            "positions": [
                1.235518861912634,
                -1.7971116563845275,
                0.21267204332755996,
                -0.33452954990203876,
                0.7154237747427254,
                1.600555063524341
            ]
        },
        {
            "positions": [
                1.1529340738156675,
                -1.8330354570277834,
                0.11987288247849648,
                -0.2827260430957186,
                0.6833351971369925,
                1.512127317220832
            ]
        },
        {
            "positions": [
                1.070349285718701,
                -1.868959257671039,
                0.02707372162943278,
                -0.2309225362893983,
                0.6512466195312595,
                1.4236995709173232
            ]
        },
        {
            "positions": [
                0.9877644976217346,
                -1.9048830583142946,
                -0.0657254392196307,
                -0.17911902948307812,
                0.6191580419255265,
                1.3352718246138142
            ]
        },
        {
            "positions": [
                0.9051797095247682,
                -1.9408068589575502,
                -0.15852460006869418,
                -0.12731552267675794,
                0.5870694643197937,
                1.2468440783103054
            ]
        },
        {
            "positions": [
                0.8225949214278019,
                -1.9767306596008059,
                -0.25132376091775765,
                -0.07551201587043788,
                0.5549808867140608,
                1.1584163320067964
            ]
        },
        {
            "positions": [
                0.7400101333308353,
                -2.012654460244062,
                -0.34412292176682135,
                -0.02370850906411759,
                0.5228923091083277,
                1.0699885857032874
            ]
        },
        {
            "positions": [
                0.657425345233869,
                -2.048578260887317,
                -0.43692208261588483,
                0.028094997742202588,
                0.4908037315025948,
                0.9815608393997786
            ]
        },
        {
            "positions": [
                0.5748405571369024,
                -2.084502061530573,
                -0.5297212434649485,
                0.07989850454852276,
                0.4587151538968618,
                0.8931330930962693
            ]
        },
        {
            "positions": [
                0.49225576903993606,
                -2.120425862173829,
                -0.622520404314012,
                0.13170201135484305,
                0.4266265762911289,
                0.8047053467927605
            ]
        },
        {
            "positions": [
                0.4096709809429697,
                -2.1563496628170844,
                -0.7153195651630753,
                0.18350551816116312,
                0.39453799868539596,
                0.7162776004892517
            ]
        },
        {
            "positions": [
                0.32708619284600315,
                -2.19227346346034,
                -0.808118726012139,
                0.2353090249674834,
                0.36244942107966294,
                0.6278498541857425
            ]
        },
        {
            "positions": [
                0.2445014047490368,
                -2.2281972641035956,
                -0.9009178868612027,
                0.28711253177380347,
                0.33036084347393,
                0.5394221078822334
            ]
        },
        {
            "positions": [
                0.16191661665207047,
                -2.2641210647468513,
                -0.9937170477102659,
                0.33891603858012354,
                0.2982722658681971,
                0.45099436157872486
            ]
        },
        {
            "positions": [
                0.0793318285551039,
                -2.300044865390107,
                -1.0865162085593296,
                0.3907195453864438,
                0.2661836882624641,
                0.3625666152752154
            ]
        },
        {
            "positions": [
                -0.0032529595418622215,
                -2.335968666033363,
                -1.1793153694083933,
                0.4425230521927641,
                0.23409511065673116,
                0.2741388689717068
            ]
        },
        {
            "positions": [
                -0.08583774763882923,
                -2.3718924666766186,
                -1.272114530257457,
                0.4943265589990844,
                0.20200653305099814,
                0.18571112266819778
            ]
        },
        {
            "positions": [
                -0.16842253573579558,
                -2.407816267319874,
                -1.3649136911065203,
                0.5461300658054046,
                0.16991795544526525,
                0.09728337636468878
            ]
        }
    ]
}