{
    "goal": {
        "global_pose": {
            "orientation": {
                "w": 0.7047431468963623,
                "x": -0.7094548344612122,
                "y": 0.0024358443915843964,
                "z": -0.0022348060738295317
            },
            "position": {
                "x": 0.6094750761985779,
                "y": 0.3671506643295288,
                "z": 0.19426114857196808
            }
        },
        "name": "move_to_magneteinheit_A"
    },
    "id": "KPIECE_move_to_magneteinheit_A_105",
    "joint_names": [
        "shoulder_pan_joint",
        "shoulder_lift_joint",
        "elbow_joint",
        "wrist_1_joint",
        "wrist_2_joint",
        "wrist_3_joint"
    ],
    "metrics": {
        "cart_traj_len": 1.0534331970488373,
        "distance_elbow_joint": 0.39661779850796464,
        "distance_shoulder_lift_joint": 0.3585767381921223,
        "distance_shoulder_pan_joint": 1.2424793357670825,
        "distance_wrist_1_joint": 2.2711945100434754,
        "distance_wrist_2_joint": 1.6986776276764266,
        "distance_wrist_3_joint": 1.1670593847953739,
        "smoothness": 0.0,
        "time": 0.107177153,
        "traj_len": 2.6710682123417304,
        "weighted_distance": 3.6658691059956157
    },
    "planner": "KPIECE",
    "start": {
        "state": {
            "elbow_joint": 1.5739458966750683,
            "shoulder_lift_joint": -1.4977259741207325,
            "shoulder_pan_joint": -1.1188672016454206,
            "wrist_1_joint": 1.494575848278785,
            "wrist_2_joint": -1.5706037134824402,
            "wrist_3_joint": -2.0226957942261072
        }
    },
    "waypoints": [
        {
            "positions": [
                -1.1188672016454206,
                -1.4977259741207325,
                1.5739458966750683,
                1.494575848278785,
                -1.5706037134824402,
                -2.0226957942261072
            ]
        },
        {
            "positions": [
                -1.0534735523945216,
                -1.4788535142158838,
                1.5948205176491717,
                1.3750392951186021,
                -1.48119962781526,
                -2.084119972373232
            ]
        },
        {
            "positions": [
                -0.9880799031436225,
                -1.4599810543110354,
                1.6156951386232752,
                1.255502741958419,
                -1.3917955421480794,
                -2.145544150520357
            ]
        },
        {
            "positions": [
                -0.9226862538927234,
                -1.4411085944061868,
                1.6365697595973785,
                1.1359661887982362,
                -1.3023914564808992,
                -2.206968328667482
            ]
        },
        {
            "positions": [
                -0.8572926046418243,
                -1.4222361345013383,
                1.657444380571482,
                1.0164296356380533,
                -1.2129873708137189,
                -2.268392506814607
            ]
        },
        {
            "positions": [
                -0.7918989553909253,
                -1.4033636745964897,
                1.6783190015455853,
                0.8968930824778705,
                -1.1235832851465384,
                -2.329816684961732
            ]
        },
        {
            "positions": [
                -0.7265053061400262,
                -1.3844912146916413,
                1.6991936225196889,
                0.7773565293176875,
                -1.034179199479358,
                -2.391240863108857
            ]
        },
        {
            "positions": [
                -0.6611116568891271,
                -1.3656187547867926,
                1.7200682434937922,
                0.6578199761575046,
                -0.9447751138121778,
                -2.452665041255982
            ]
        },
        {
            "positions": [
                -0.595718007638228,
                -1.3467462948819442,
                1.7409428644678955,
                0.5382834229973217,
                -0.8553710281449974,
                -2.5140892194031066
            ]
        },
        {
            "positions": [
                -0.5303243583873289,
                -1.3278738349770955,
                1.761817485441999,
                0.4187468698371388,
                -0.7659669424778172,
                -2.575513397550232
            ]
        },
        {
            "positions": [
                -0.46493070913642986,
                -1.3090013750722471,
                1.7826921064161023,
                0.29921031667695597,
                -0.6765628568106368,
                -2.6369375756973565
            ]
        },
        {
            "positions": [
                -0.3995370598855308,
                -1.2901289151673985,
                1.8035667273902058,
                0.1796737635167729,
                -0.5871587711434564,
                -2.6983617538444817
            ]
        },
        {
            "positions": [
                -0.3341434106346317,
                -1.27125645526255,
                1.8244413483643092,
                0.06013721035659003,
                -0.497754685476276,
                -2.7597859319916065
            ]
        },
        {
            "positions": [
                -0.26874976138373263,
                -1.2523839953577014,
                1.8453159693384125,
                -0.05939934280359305,
                -0.4083505998090957,
                -2.8212101101387317
            ]
        },
        {
            "positions": [
                -0.20335611213283356,
                -1.233511535452853,
                1.866190590312516,
                -0.17893589596377568,
                -0.31894651414191544,
                -2.8826342882858564
            ]
        },
        {
            "positions": [
                -0.13796246288193448,
                -1.2146390755480043,
                1.8870652112866193,
                -0.29847244912395876,
                -0.22954242847473494,
                -2.944058466432981
            ]
        },
        {
            "positions": [
                -0.0725688136310354,
                -1.195766615643156,
                1.9079398322607228,
                -0.4180090022841416,
                -0.14013834280755466,
                -3.0054826445801064
            ]
        },
        {
            "positions": [
                -0.007175164380136323,
                -1.1768941557383072,
                1.9288144532348261,
                -0.5375455554443247,
                -0.050734257140374384,
                -3.066906822727231
            ]
        },
        {
            "positions": [
                0.058218484870762754,
                -1.1580216958334586,
                1.9496890742089295,
                -0.6570821086045073,
                0.038669828526805894,
                -3.128331000874356
            ]
        },
        {
            "positions": [
                0.12361213412166192,
                -1.1391492359286102,
                1.970563695183033,
                -0.7766186617646904,
                0.12807391419398645,
                -3.189755179021481
            ]
        }
    ]
}