{
    "goal": {
        "global_pose": {
            "orientation": {
                "w": -0.00223480608172531,
                "x": 0.0024358444001904467,
                "y": 0.7094548369677653,
                "z": -0.704743149386269
            },
            "position": {
                "x": -0.37947507619857795,
                "y": -0.6371506643295288,
                "z": 0.19426114857196808
            }
        },
        "name": "move_to_magneteinheit_C"
    },
    "id": "KPIECE_move_to_magneteinheit_C_30",
    "joint_names": [
        "shoulder_pan_joint",
        "shoulder_lift_joint",
        "elbow_joint",
        "wrist_1_joint",
        "wrist_2_joint",
        "wrist_3_joint"
    ],
    "metrics": {
        "cart_traj_len": 1.0585039574977275,
        "distance_elbow_joint": 1.4445827658807375,
        "distance_shoulder_lift_joint": 0.8200175811153843,
        "distance_shoulder_pan_joint": 1.1420027201169844,
        "distance_wrist_1_joint": 0.48439063882290423,
        "distance_wrist_2_joint": 1.2680630399881716,
        "distance_wrist_3_joint": 0.2787733012408511,
        "smoothness": 1.4048593668888507,
        "time": 0.44531013199999997,
        "traj_len": 2.3319155317388818,
        "weighted_distance": 2.783492469624772
    },
    "planner": "KPIECE",
    "start": {
        "state": {
            "elbow_joint": 1.9565354006590394,
            "shoulder_lift_joint": -1.4165861576513559,
            "shoulder_pan_joint": -1.6717766223277177,
            "wrist_1_joint": -0.5286633288215096,
            "wrist_2_joint": 1.4727565892594296,
            "wrist_3_joint": 3.1593482883155493
        }
    },
    "waypoints": [
        {
            "positions": [
                -1.6717766223277177,
                -1.4165861576513559,
                1.9565354006590394,
                -0.5286633288215096,
                1.4727565892594296,
                3.1593482883155493
            ]
        },
        {
            "positions": [
                -1.762146141355075,
                -1.4520152104013615,
                2.049963752555396,
                -0.5165499551563308,
                1.3435348437097254,
                3.140005728150042
            ]
        },
        {
            "positions": [
                -1.8525156603824322,
                -1.4874442631513671,
                2.1433921044517525,
                -0.5044365814911522,
                1.2143130981600212,
                3.1206631679845347
            ]
        },
        {
            "positions": [
                -1.9428851794097894,
                -1.5228733159013728,
                2.2368204563481093,
                -0.49232320782597355,
                1.085091352610317,
                3.1013206078190274
            ]
        },
        {
            "positions": [
                -2.0332546984371467,
                -1.5583023686513786,
                2.330248808244466,
                -0.4802098341607949,
                0.9558696070606127,
                3.08197804765352
            ]
        },
        {
            "positions": [
                -2.1236242174645037,
                -1.5937314214013842,
                2.4236771601408225,
                -0.4680964604956162,
                0.8266478615109085,
                3.062635487488013
            ]
        },
        {
            "positions": [
                -2.213993736491861,
                -1.6291604741513899,
                2.5171055120371792,
                -0.45598308683043753,
                0.6974261159612043,
                3.0432929273225056
            ]
        },
        {
            "positions": [
                -2.3043632555192186,
                -1.6645895269013955,
                2.6105338639335356,
                -0.44386971316525886,
                0.5682043704115001,
                3.0239503671569983
            ]
        },
        {
            "positions": [
                -2.3947327745465756,
                -1.7000185796514011,
                2.7039622158298924,
                -0.4317563395000802,
                0.4389826248617958,
                3.004607806991491
            ]
        },
        {
            "positions": [
                -2.360640920968003,
                -1.5953958147846126,
                2.576355428299039,
                -0.47771054900292864,
                0.45276447585729374,
                3.00746382428523
            ]
        },
        {
            "positions": [
                -2.32654906738943,
                -1.490773049917824,
                2.4487486407681853,
                -0.5236647585057772,
                0.4665463268527917,
                3.0103198415789687
            ]
        },
        {
            "positions": [
                -2.2924572138108577,
                -1.3861502850510354,
                2.3211418532373322,
                -0.5696189680086257,
                0.48032817784828963,
                3.013175858872708
            ]
        },
        {
            "positions": [
                -2.258365360232285,
                -1.2815275201842466,
                2.1935350657064787,
                -0.6155731775114741,
                0.4941100288437876,
                3.016031876166447
            ]
        },
        {
            "positions": [
                -2.224273506653712,
                -1.176904755317458,
                2.065928278175625,
                -0.6615273870143226,
                0.5078918798392855,
                3.0188878934601857
            ]
        },
        {
            "positions": [
                -2.3485671566563435,
                -1.17016908792676,
                2.0363672716478165,
                -0.7403836880079389,
                0.5905817901458096,
                3.0737642601842348
            ]
        },
        {
            "positions": [
                -2.472860806658975,
                -1.1634334205360621,
                2.006806265120008,
                -0.819239989001555,
                0.6732717004523336,
                3.128640626908284
            ]
        }
    ]
}