{
    "goal": {
        "global_pose": {
            "orientation": {
                "w": 0.7031023502349854,
                "x": -0.7110244035720825,
                "y": 0.007748599164187908,
                "z": 0.005598929710686207
            },
            "position": {
                "x": 0.11585023208521307,
                "y": 0.44412534475326537,
                "z": 0.3711530566215515
            }
        },
        "name": "move_to_auspresseinheit_A"
    },
    "id": "KPIECE_move_to_auspresseinheit_A_29",
    "joint_names": [
        "shoulder_pan_joint",
        "shoulder_lift_joint",
        "elbow_joint",
        "wrist_1_joint",
        "wrist_2_joint",
        "wrist_3_joint"
    ],
    "metrics": {
        "cart_traj_len": 3.1883228264334145,
        "distance_elbow_joint": 4.6419252161581515,
        "distance_shoulder_lift_joint": 0.5345402823226499,
        "distance_shoulder_pan_joint": 1.1415161457302871,
        "distance_wrist_1_joint": 1.0602511414166471,
        "distance_wrist_2_joint": 1.0804471743226265,
        "distance_wrist_3_joint": 4.981798922731609,
        "smoothness": 0.8186032087653298,
        "time": 0.379709541,
        "traj_len": 3.666125868363221,
        "weighted_distance": 5.054183914726933
    },
    "planner": "KPIECE",
    "start": {
        "state": {
            "elbow_joint": 2.4225747245308327,
            "shoulder_lift_joint": -1.373653427065438,
            "shoulder_pan_joint": -0.33786330853087027,
            "wrist_1_joint": -1.0288602302712604,
            "wrist_2_joint": 1.23302299562683,
            "wrist_3_joint": -3.094021725338297
        }
    },
    "waypoints": [
        {
            "positions": [
                -0.33786330853087027,
                -1.373653427065438,
                2.4225747245308327,
                -1.0288602302712604,
                1.23302299562683,
                -3.094021725338297
            ]
        },
        {
            "positions": [
                -0.2879623512041112,
                -1.377440350497009,
                2.292780124176066,
                -1.0030851474057827,
                1.2008697022847892,
                -2.9567786701653676
            ]
        },
        {
            "positions": [
                -0.23806139387735206,
                -1.38122727392858,
                2.162985523821299,
                -0.9773100645403049,
                1.1687164089427482,
                -2.819535614992438
            ]
        },
        {
            "positions": [
                -0.18816043655059295,
                -1.385014197360151,
                2.0331909234665324,
                -0.9515349816748272,
                1.1365631156007074,
                -2.6822925598195084
            ]
        },
        {
            "positions": [
                -0.13825947922383386,
                -1.3888011207917221,
                1.9033963231117657,
                -0.9257598988093494,
                1.1044098222586667,
                -2.545049504646579
            ]
        },
        {
            "positions": [
                -0.08835852189707472,
                -1.3925880442232934,
                1.773601722756999,
                -0.8999848159438717,
                1.0722565289166257,
                -2.4078064494736493
            ]
        },
        {
            "positions": [
                -0.03845756457031563,
                -1.3963749676548645,
                1.6438071224022321,
                -0.874209733078394,
                1.040103235574585,
                -2.2705633943007197
            ]
        },
        {
            "positions": [
                0.01144339275644346,
                -1.4001618910864355,
                1.5140125220474652,
                -0.8484346502129162,
                1.007949942232544,
                -2.13332033912779
            ]
        },
        {
            "positions": [
                0.06134435008320255,
                -1.4039488145180066,
                1.3842179216926984,
                -0.8226595673474384,
                0.9757966488905032,
                -1.9960772839548604
            ]
        },
        {
            "positions": [
                0.11124530740996169,
                -1.4077357379495776,
                1.2544233213379317,
                -0.7968844844819607,
                0.9436433555484625,
                -1.8588342287819308
            ]
        },
        {
            "positions": [
                0.16114626473672083,
                -1.4115226613811487,
                1.124628720983165,
                -0.771109401616483,
                0.9114900622064215,
                -1.7215911736090013
            ]
        },
        {
            "positions": [
                0.21104722206347998,
                -1.4153095848127197,
                0.9948341206283979,
                -0.7453343187510052,
                0.8793367688643807,
                -1.5843481184360715
            ]
        },
        {
            "positions": [
                0.260948179390239,
                -1.4190965082442908,
                0.8650395202736314,
                -0.7195592358855275,
                0.84718347552234,
                -1.4471050632631421
            ]
        },
        {
            "positions": [
                0.31084913671699815,
                -1.4228834316758618,
                0.7352449199188646,
                -0.6937841530200497,
                0.815030182180299,
                -1.3098620080902126
            ]
        },
        {
            "positions": [
                0.3607500940437572,
                -1.4266703551074331,
                0.6054503195640977,
                -0.668009070154572,
                0.7828768888382582,
                -1.1726189529172828
            ]
        },
        {
            "positions": [
                0.41065105137051633,
                -1.4304572785390042,
                0.4756557192093309,
                -0.6422339872890942,
                0.7507235954962174,
                -1.0353758977443532
            ]
        },
        {
            "positions": [
                0.46055200869727536,
                -1.4342442019705752,
                0.34586111885456416,
                -0.6164589044236165,
                0.7185703021541766,
                -0.8981328425714237
            ]
        },
        {
            "positions": [
                0.5104529660240344,
                -1.4380311254021463,
                0.2160665184997974,
                -0.5906838215581387,
                0.6864170088121357,
                -0.7608897873984941
            ]
        },
        {
            "positions": [
                0.5603539233507937,
                -1.4418180488337173,
                0.0862719181450308,
                -0.564908738692661,
                0.6542637154700949,
                -0.6236467322255645
            ]
        },
        {
            "positions": [
                0.5568388550800436,
                -1.466114101882021,
                0.2430838696777862,
                -0.5398921243085553,
                0.6380105573717112,
                -0.783466888156434
            ]
        },
        {
            "positions": [
                0.5533237868092935,
                -1.4904101549303244,
                0.39989582121054157,
                -0.5148755099244496,
                0.6217573992733274,
                -0.9432870440873034
            ]
        },
        {
            "positions": [
                0.5498087185385434,
                -1.514706207978628,
                0.556707772743297,
                -0.48985889554034395,
                0.6055042411749437,
                -1.1031072000181728
            ]
        },
        {
            "positions": [
                0.5462936502677933,
                -1.5390022610269316,
                0.7135197242760524,
                -0.46484228115623827,
                0.58925108307656,
                -1.2629273559490422
            ]
        },
        {
            "positions": [
                0.5427785819970432,
                -1.563298314075235,
                0.8703316758088079,
                -0.43982566677213253,
                0.5729979249781763,
                -1.4227475118799116
            ]
        },
        {
            "positions": [
                0.5392635137262931,
                -1.5875943671235386,
                1.0271436273415633,
                -0.4148090523880269,
                0.5567447668797926,
                -1.582567667810781
            ]
        },
        {
            "positions": [
                0.535748445455543,
                -1.611890420171842,
                1.1839555788743188,
                -0.38979243800392116,
                0.5404916087814089,
                -1.7423878237416504
            ]
        },
        {
            "positions": [
                0.5322333771847928,
                -1.6361864732201457,
                1.340767530407074,
                -0.3647758236198155,
                0.5242384506830251,
                -1.9022079796725198
            ]
        },
        {
            "positions": [
                0.5287183089140427,
                -1.6604825262684493,
                1.4975794819398298,
                -0.3397592092357098,
                0.5079852925846414,
                -2.062028135603389
            ]
        },
        {
            "positions": [
                0.5252032406432926,
                -1.684778579316753,
                1.654391433472585,
                -0.31474259485160405,
                0.4917321344862577,
                -2.2218482915342586
            ]
        },
        {
            "positions": [
                0.5216881723725425,
                -1.7090746323650563,
                1.8112033850053404,
                -0.2897259804674984,
                0.47547897638787395,
                -2.381668447465128
            ]
        },
        {
            "positions": [
                0.5181731041017924,
                -1.73337068541336,
                1.9680153365380957,
                -0.26470936608339274,
                0.4592258182894903,
                -2.5414886033959974
            ]
        },
        {
            "positions": [
                0.5146580358310423,
                -1.7576667384616633,
                2.124827288070851,
                -0.239692751699287,
                0.4429726601911065,
                -2.7013087593268668
            ]
        },
        {
            "positions": [
                0.5111429675602922,
                -1.781962791509967,
                2.2816392396036065,
                -0.21467613731518134,
                0.4267195020927228,
                -2.861128915257736
            ]
        },
        {
            "positions": [
                0.5596649570748227,
                -1.8135205209794971,
                2.30920301168205,
                -0.2761928994303234,
                0.49525542228985264,
                -2.929614351904412
            ]
        },
        {
            "positions": [
                0.6081869465893532,
                -1.8450782504490273,
                2.3367667837604937,
                -0.3377096615454654,
                0.5637913424869825,
                -2.998099788551088
            ]
        },
        {
            "positions": [
                0.6567089361038837,
                -1.8766359799185577,
                2.3643305558389374,
                -0.39922642366060745,
                0.6323272626841123,
                -3.0665852251977634
            ]
        },
        {
            "positions": [
                0.7052309256184142,
                -1.9081937093880879,
                2.391894327917381,
                -0.46074318577574946,
                0.7008631828812422,
                -3.1350706618444395
            ]
        }
    ]
}