{
    "goal": {
        "global_pose": {
            "orientation": {
                "w": 0.7047431493862688,
                "x": -0.7094548369677653,
                "y": 0.0024358444001904,
                "z": -0.0022348060817251984
            },
            "position": {
                "x": -0.39052492380142206,
                "y": 0.3671506643295288,
                "z": 0.19426114857196808
            }
        },
        "name": "move_to_magneteinheit_D"
    },
    "id": "KPIECE_move_to_magneteinheit_D_113",
    "joint_names": [
        "shoulder_pan_joint",
        "shoulder_lift_joint",
        "elbow_joint",
        "wrist_1_joint",
        "wrist_2_joint",
        "wrist_3_joint"
    ],
    "metrics": {
        "cart_traj_len": 7.0794939479353065,
        "distance_elbow_joint": 3.1069132146611738,
        "distance_shoulder_lift_joint": 1.4237010333093971,
        "distance_shoulder_pan_joint": 8.061753538687686,
        "distance_wrist_1_joint": 3.150510269273341,
        "distance_wrist_2_joint": 4.767432679351632,
        "distance_wrist_3_joint": 1.2738740700889153,
        "smoothness": 0.7725157404876687,
        "time": 0.238758516,
        "traj_len": 4.667353083426638,
        "weighted_distance": 5.678897418881147
    },
    "planner": "KPIECE",
    "start": {
        "state": {
            "elbow_joint": 0.7495348899011973,
            "shoulder_lift_joint": -0.6476975780737697,
            "shoulder_pan_joint": -2.711696901376276,
            "wrist_1_joint": -0.07506478080974305,
            "wrist_2_joint": 0.4329665971545858,
            "wrist_3_joint": 3.1361499051832524
        }
    },
    "waypoints": [
        {
            "positions": [
                -2.711696901376276,
                -0.6476975780737697,
                0.7495348899011973,
                -0.07506478080974305,
                0.4329665971545858,
                3.1361499051832524
            ]
        },
        {
            "positions": [
                -2.7833590249778193,
                -0.6081863639055625,
                0.6310146860913246,
                -0.0026323601689583337,
                0.4193646757645212,
                3.1833520123332457
            ]
        },
        {
            "positions": [
                -2.855021148579363,
                -0.5686751497373553,
                0.5124944822814519,
                0.06980006047182638,
                0.4057627543744565,
                3.230554119483239
            ]
        },
        {
            "positions": [
                -2.926683272180906,
                -0.5291639355691481,
                0.3939742784715792,
                0.1422324811126111,
                0.3921608329843919,
                3.2777562266332323
            ]
        },
        {
            "positions": [
                -2.922440989582334,
                -0.5181261684763158,
                0.3110492385387396,
                -0.016499837041085458,
                0.3209017990074624,
                3.253375782762258
            ]
        },
        {
            "positions": [
                -2.9181987069837616,
                -0.5070884013834835,
                0.22812419860590008,
                -0.17523215519478202,
                0.24964276503053287,
                3.2289953388912833
            ]
        },
        {
            "positions": [
                -2.913956424385189,
                -0.4960506342906512,
                0.14519915867306055,
                -0.33396447334847856,
                0.17838373105360333,
                3.2046148950203084
            ]
        },
        {
            "positions": [
                -2.909714141786617,
                -0.4850128671978189,
                0.062274118740220964,
                -0.49269679150217516,
                0.10712469707667382,
                3.180234451149334
            ]
        },
        {
            "positions": [
                -2.6986093862934926,
                -0.5220797528813493,
                0.025685572032396117,
                -0.5040414383188482,
                0.1869780309653449,
                3.16477228836748
            ]
        },
        {
            "positions": [
                -2.4875046308003683,
                -0.5591466385648797,
                -0.01090297467542873,
                -0.5153860851355211,
                0.266831364854016,
                3.1493101255856257
            ]
        },
        {
            "positions": [
                -2.276399875307244,
                -0.5962135242484101,
                -0.04749152138325357,
                -0.5267307319521941,
                0.34668469874268704,
                3.1338479628037716
            ]
        },
        {
            "positions": [
                -2.06529511981412,
                -0.6332804099319405,
                -0.08408006809107843,
                -0.5380753787688671,
                0.42653803263135814,
                3.118385800021918
            ]
        },
        {
            "positions": [
                -1.8541903643209954,
                -0.6703472956154709,
                -0.12066861479890328,
                -0.5494200255855402,
                0.5063913665200293,
                3.102923637240064
            ]
        },
        {
            "positions": [
                -1.6430856088278714,
                -0.7074141812990014,
                -0.1572571615067281,
                -0.5607646724022131,
                0.5862447004087004,
                3.08746147445821
            ]
        },
        {
            "positions": [
                -1.431980853334747,
                -0.7444810669825317,
                -0.19384570821455296,
                -0.5721093192188861,
                0.6660980342973715,
                3.0719993116763558
            ]
        },
        {
            "positions": [
                -1.2208760978416227,
                -0.7815479526660621,
                -0.23043425492237782,
                -0.5834539660355591,
                0.7459513681860425,
                3.0565371488945017
            ]
        },
        {
            "positions": [
                -1.0097713423484986,
                -0.8186148383495926,
                -0.2670228016302026,
                -0.594798612852232,
                0.8258047020747136,
                3.0410749861126476
            ]
        },
        {
            "positions": [
                -0.798666586855374,
                -0.8556817240331229,
                -0.3036113483380275,
                -0.606143259668905,
                0.9056580359633847,
                3.025612823330794
            ]
        },
        {
            "positions": [
                -0.5875618313622502,
                -0.8927486097166534,
                -0.3401998950458523,
                -0.617487906485578,
                0.9855113698520557,
                3.01015066054894
            ]
        },
        {
            "positions": [
                -0.3764570758691259,
                -0.9298154954001838,
                -0.37678844175367715,
                -0.628832553302251,
                1.0653647037407268,
                2.994688497767086
            ]
        },
        {
            "positions": [
                -0.16535232037600123,
                -0.9668823810837142,
                -0.413376988461502,
                -0.6401772001189241,
                1.1452180376293981,
                2.9792263349852317
            ]
        },
        {
            "positions": [
                0.045752435117123014,
                -1.0039492667672447,
                -0.44996553516932686,
                -0.651521846935597,
                1.225071371518069,
                2.9637641722033776
            ]
        },
        {
            "positions": [
                0.2568571906102468,
                -1.041016152450775,
                -0.4865540818771517,
                -0.66286649375227,
                1.3049247054067399,
                2.9483020094215235
            ]
        },
        {
            "positions": [
                0.4679619461033715,
                -1.0780830381343054,
                -0.5231426285849766,
                -0.674211140568943,
                1.3847780392954112,
                2.93283984663967
            ]
        },
        {
            "positions": [
                0.6790667015964957,
                -1.1151499238178357,
                -0.5597311752928015,
                -0.685555787385616,
                1.464631373184082,
                2.917377683857816
            ]
        },
        {
            "positions": [
                0.8901714570896195,
                -1.152216809501366,
                -0.5963197220006262,
                -0.696900434202289,
                1.5444847070727534,
                2.9019155210759617
            ]
        },
        {
            "positions": [
                1.1012762125827442,
                -1.1892836951848966,
                -0.6329082687084512,
                -0.708245081018962,
                1.6243380409614243,
                2.8864533582941077
            ]
        },
        {
            "positions": [
                1.312380968075869,
                -1.2263505808684272,
                -0.669496815416276,
                -0.7195897278356349,
                1.7041913748500956,
                2.8709911955122536
            ]
        },
        {
            "positions": [
                1.5234857235689927,
                -1.2634174665519575,
                -0.7060853621241008,
                -0.7309343746523079,
                1.7840447087387665,
                2.8555290327303995
            ]
        },
        {
            "positions": [
                1.7345904790621165,
                -1.3004843522354879,
                -0.7426739088319256,
                -0.742279021468981,
                1.8638980426274374,
                2.8400668699485454
            ]
        },
        {
            "positions": [
                1.9456952345552412,
                -1.3375512379190182,
                -0.7792624555397505,
                -0.7536236682856539,
                1.9437513765161087,
                2.8246047071666918
            ]
        },
        {
            "positions": [
                2.156799990048365,
                -1.3746181236025485,
                -0.8158510022475753,
                -0.7649683151023269,
                2.0236047104047796,
                2.8091425443848377
            ]
        },
        {
            "positions": [
                2.367904745541489,
                -1.411685009286079,
                -0.8524395489554002,
                -0.7763129619189999,
                2.103458044293451,
                2.7936803816029836
            ]
        },
        {
            "positions": [
                2.271975917781921,
                -1.4220426487828854,
                -0.910391961631007,
                -0.8583797735457033,
                1.9907763073162459,
                2.8180341537401774
            ]
        },
        {
            "positions": [
                2.176047090022353,
                -1.4324002882796918,
                -0.9683443743066138,
                -0.9404465851724068,
                1.878094570339041,
                2.8423879258773708
            ]
        },
        {
            "positions": [
                2.080118262262785,
                -1.442757927776498,
                -1.0262967869822206,
                -1.02251339679911,
                1.765412833361836,
                2.8667416980145646
            ]
        },
        {
            "positions": [
                1.984189434503217,
                -1.4531155672733043,
                -1.0842491996578274,
                -1.1045802084258136,
                1.6527310963846311,
                2.891095470151758
            ]
        },
        {
            "positions": [
                1.888260606743649,
                -1.4634732067701106,
                -1.1422016123334342,
                -1.186647020052517,
                1.540049359407426,
                2.9154492422889517
            ]
        },
        {
            "positions": [
                1.7923317789840807,
                -1.473830846266917,
                -1.200154025009041,
                -1.2687138316792204,
                1.427367622430221,
                2.9398030144261456
            ]
        },
        {
            "positions": [
                1.696402951224513,
                -1.4841884857637233,
                -1.2581064376846478,
                -1.3507806433059237,
                1.3146858854530161,
                2.964156786563339
            ]
        },
        {
            "positions": [
                1.6004741234649447,
                -1.4945461252605294,
                -1.3160588503602546,
                -1.4328474549326273,
                1.202004148475811,
                2.9885105587005327
            ]
        },
        {
            "positions": [
                1.5045452957053767,
                -1.5049037647573358,
                -1.3740112630358614,
                -1.5149142665593307,
                1.089322411498606,
                3.0128643308377265
            ]
        },
        {
            "positions": [
                1.4086164679458086,
                -1.5152614042541421,
                -1.4319636757114682,
                -1.596981078186034,
                0.9766406745214011,
                3.03721810297492
            ]
        },
        {
            "positions": [
                1.3126876401862404,
                -1.5256190437509485,
                -1.489916088387075,
                -1.6790478898127374,
                0.8639589375441958,
                3.0615718751121137
            ]
        },
        {
            "positions": [
                1.2167588124266724,
                -1.5359766832477548,
                -1.5478685010626818,
                -1.7611147014394408,
                0.751277200566991,
                3.085925647249307
            ]
        },
        {
            "positions": [
                1.1208299846671044,
                -1.5463343227445612,
                -1.6058209137382886,
                -1.8431815130661444,
                0.6385954635897859,
                3.110279419386501
            ]
        },
        {
            "positions": [
                1.0249011569075364,
                -1.5566919622413673,
                -1.6637733264138954,
                -1.9252483246928476,
                0.5259137266125811,
                3.1346331915236947
            ]
        },
        {
            "positions": [
                0.9289723291479681,
                -1.5670496017381736,
                -1.7217257390895022,
                -2.0073151363195514,
                0.413231989635376,
                3.158986963660888
            ]
        },
        {
            "positions": [
                0.8330435013884003,
                -1.57740724123498,
                -1.779678151765109,
                -2.0893819479462543,
                0.30055025265817115,
                3.183340735798082
            ]
        },
        {
            "positions": [
                0.7371146736288321,
                -1.5877648807317863,
                -1.8376305644407158,
                -2.171448759572958,
                0.18786851568096608,
                3.207694507935275
            ]
        },
        {
            "positions": [
                0.6411858458692641,
                -1.5981225202285927,
                -1.8955829771163226,
                -2.253515571199661,
                0.075186778703761,
                3.232048280072469
            ]
        },
        {
            "positions": [
                0.5452570181096958,
                -1.6084801597253988,
                -1.9535353897919294,
                -2.335582382826365,
                -0.037494958273443846,
                3.256402052209663
            ]
        },
        {
            "positions": [
                0.44932819035012805,
                -1.6188377992222052,
                -2.0114878024675362,
                -2.417649194453068,
                -0.1501766952506487,
                3.280755824346856
            ]
        },
        {
            "positions": [
                0.3533993625905598,
                -1.6291954387190115,
                -2.069440215143143,
                -2.4997160060797716,
                -0.262858432227854,
                3.30510959648405
            ]
        },
        {
            "positions": [
                0.21898092078812803,
                -1.658403876447075,
                -2.1414247425473514,
                -2.42689987604012,
                -0.24312319334394383,
                3.270918924302145
            ]
        },
        {
            "positions": [
                0.08456247898569624,
                -1.6876123141751385,
                -2.2134092699515597,
                -2.354083746000469,
                -0.22338795446003365,
                3.2367282521202396
            ]
        },
        {
            "positions": [
                -0.049855962816735544,
                -1.7168207519032017,
                -2.285393797355768,
                -2.281267615960818,
                -0.20365271557612347,
                3.2025375799383347
            ]
        },
        {
            "positions": [
                -0.1842744046191673,
                -1.7460291896312652,
                -2.3573783247599764,
                -2.2084514859211666,
                -0.1839174766922133,
                3.1683469077564297
            ]
        }
    ]
}