{
    "goal": {
        "global_pose": {
            "orientation": {
                "w": -0.4816463035849501,
                "x": 0.5182115481033762,
                "y": 0.4908360881923453,
                "z": -0.5084816262002911
            },
            "position": {
                "x": -0.8240239810943604,
                "y": 0.19912469901144506,
                "z": 0.16403168439865112
            }
        },
        "name": "move_to_storage_D"
    },
    "id": "KPIECE_move_to_storage_D_6",
    "joint_names": [
        "shoulder_pan_joint",
        "shoulder_lift_joint",
        "elbow_joint",
        "wrist_1_joint",
        "wrist_2_joint",
        "wrist_3_joint"
    ],
    "metrics": {
        "cart_traj_len": 3.889773298846582,
        "distance_elbow_joint": 4.206595318795728,
        "distance_shoulder_lift_joint": 1.265270916869483,
        "distance_shoulder_pan_joint": 2.813681469305046,
        "distance_wrist_1_joint": 2.2603820075655947,
        "distance_wrist_2_joint": 1.264546419311649,
        "distance_wrist_3_joint": 3.137149006199394,
        "smoothness": 0.015042324910903477,
        "time": 0.053493780000000005,
        "traj_len": 3.8662158680092977,
        "weighted_distance": 4.974620747084437
    },
    "planner": "KPIECE",
    "start": {
        "state": {
            "elbow_joint": -2.384821997420982,
            "shoulder_lift_joint": -2.2788054674887404,
            "shoulder_pan_joint": -0.18546946417610016,
            "wrist_1_joint": 1.4845937964226739,
            "wrist_2_joint": 0.1789877726866377,
            "wrist_3_joint": 0.03710572555276528
        }
    },
    "waypoints": [
        {
            "positions": [
                -0.18546946417610016,
                -2.2788054674887404,
                -2.384821997420982,
                1.4845937964226739,
                0.1789877726866377,
                0.03710572555276528
            ]
        },
        {
            "positions": [
                -0.0608475892501697,
                -2.214323096039448,
                -2.3544906893345856,
                1.4721747675019565,
                0.2682024833790163,
                -0.02509556151084861
            ]
        },
        {
            "positions": [
                0.06377428567576077,
                -2.1498407245901565,
                -2.3241593812481898,
                1.4597557385812392,
                0.35741719407139494,
                -0.08729684857446249
            ]
        },
        {
            "positions": [
                0.18839616060169123,
                -2.0853583531408644,
                -2.2938280731617935,
                1.4473367096605219,
                0.44663190476377357,
                -0.14949813563807637
            ]
        },
        {
            "positions": [
                0.3130180355276217,
                -2.0208759816915722,
                -2.2634967650753977,
                1.4349176807398043,
                0.5358466154561522,
                -0.21169942270169026
            ]
        },
        {
            "positions": [
                0.43763991045355216,
                -1.9563936102422803,
                -2.2331654569890014,
                1.422498651819087,
                0.6250613261485308,
                -0.2739007097653042
            ]
        },
        {
            "positions": [
                0.5622617853794827,
                -1.8919112387929884,
                -2.202834148902605,
                1.4100796228983696,
                0.7142760368409095,
                -0.33610199682891806
            ]
        },
        {
            "positions": [
                0.6868836603054131,
                -1.8274288673436963,
                -2.1725028408162093,
                1.3976605939776523,
                0.8034907475332881,
                -0.39830328389253195
            ]
        },
        {
            "positions": [
                0.8115055352313436,
                -1.7629464958944046,
                -2.142171532729813,
                1.385241565056935,
                0.8927054582256667,
                -0.46050457095614583
            ]
        },
        {
            "positions": [
                0.9361274101572741,
                -1.6984641244451124,
                -2.111840224643417,
                1.3728225361362174,
                0.9819201689180453,
                -0.5227058580197598
            ]
        },
        {
            "positions": [
                1.0607492850832045,
                -1.6339817529958203,
                -2.081508916557021,
                1.3604035072155,
                1.071134879610424,
                -0.5849071450833736
            ]
        },
        {
            "positions": [
                1.185371160009135,
                -1.5694993815465286,
                -2.051177608470625,
                1.3479844782947827,
                1.1603495903028027,
                -0.6471084321469874
            ]
        },
        {
            "positions": [
                1.3099930349350655,
                -1.5050170100972364,
                -2.0208463003842287,
                1.3355654493740654,
                1.2495643009951813,
                -0.7093097192106014
            ]
        },
        {
            "positions": [
                1.358815959757061,
                -1.4868139560424964,
                -1.8785270551338964,
                1.257367165651214,
                1.2423802309580292,
                -0.7978554066711949
            ]
        },
        {
            "positions": [
                1.4076388845790566,
                -1.4686109019877565,
                -1.736207809883564,
                1.1791688819283628,
                1.2351961609208773,
                -0.8864010941317886
            ]
        },
        {
            "positions": [
                1.4564618094010522,
                -1.4504078479330165,
                -1.5938885646332315,
                1.1009705982055114,
                1.228012090883725,
                -0.9749467815923821
            ]
        },
        {
            "positions": [
                1.5052847342230478,
                -1.4322047938782765,
                -1.4515693193828991,
                1.0227723144826601,
                1.2208280208465732,
                -1.0634924690529757
            ]
        },
        {
            "positions": [
                1.5541076590450433,
                -1.4140017398235367,
                -1.3092500741325668,
                0.9445740307598087,
                1.213643950809421,
                -1.1520381565135693
            ]
        },
        {
            "positions": [
                1.602930583867039,
                -1.3957986857687967,
                -1.1669308288822342,
                0.8663757470369575,
                1.206459880772269,
                -1.240583843974163
            ]
        },
        {
            "positions": [
                1.6517535086890345,
                -1.3775956317140567,
                -1.024611583631902,
                0.7881774633141061,
                1.199275810735117,
                -1.3291295314347567
            ]
        },
        {
            "positions": [
                1.70057643351103,
                -1.3593925776593168,
                -0.8822923383815695,
                0.7099791795912548,
                1.192091740697965,
                -1.41767521889535
            ]
        },
        {
            "positions": [
                1.7493993583330254,
                -1.3411895236045768,
                -0.7399730931312372,
                0.6317808958684035,
                1.1849076706608128,
                -1.5062209063559435
            ]
        },
        {
            "positions": [
                1.7982222831550212,
                -1.3229864695498368,
                -0.5976538478809048,
                0.5535826121455522,
                1.1777236006236609,
                -1.5947665938165372
            ]
        },
        {
            "positions": [
                1.8470452079770165,
                -1.3047834154950968,
                -0.45533460263057246,
                0.47538432842270084,
                1.1705395305865087,
                -1.6833122812771308
            ]
        },
        {
            "positions": [
                1.8958681327990123,
                -1.2865803614403568,
                -0.3130153573802399,
                0.3971860446998495,
                1.1633554605493568,
                -1.7718579687377245
            ]
        },
        {
            "positions": [
                1.9446910576210077,
                -1.268377307385617,
                -0.17069611212990754,
                0.3189877609769982,
                1.1561713905122046,
                -1.8604036561983182
            ]
        },
        {
            "positions": [
                1.9935139824430035,
                -1.250174253330877,
                -0.02837686687957519,
                0.2407894772541468,
                1.1489873204750527,
                -1.9489493436589118
            ]
        },
        {
            "positions": [
                2.042336907264999,
                -1.231971199276137,
                0.1139423783707576,
                0.16259119353129536,
                1.1418032504379005,
                -2.0374950311195055
            ]
        },
        {
            "positions": [
                2.091159832086994,
                -1.213768145221397,
                0.25626162362108973,
                0.08439290980844416,
                1.1346191804007486,
                -2.1260407185800987
            ]
        },
        {
            "positions": [
                2.13998275690899,
                -1.195565091166657,
                0.3985808688714223,
                0.006194626085592736,
                1.1274351103635964,
                -2.2145864060406923
            ]
        },
        {
            "positions": [
                2.1888056817309858,
                -1.1773620371119171,
                0.5409001141217544,
                -0.07200365763725847,
                1.1202510403264445,
                -2.303132093501286
            ]
        },
        {
            "positions": [
                2.237628606552981,
                -1.1591589830571771,
                0.683219359372087,
                -0.1502019413601099,
                1.1130669702892924,
                -2.3916777809618797
            ]
        },
        {
            "positions": [
                2.2864515313749765,
                -1.1409559290024371,
                0.8255386046224191,
                -0.2284002250829611,
                1.1058829002521404,
                -2.4802234684224733
            ]
        },
        {
            "positions": [
                2.3352744561969723,
                -1.1227528749476972,
                0.9678578498727517,
                -0.3065985088058125,
                1.0986988302149883,
                -2.568769155883067
            ]
        },
        {
            "positions": [
                2.384097381018968,
                -1.1045498208929572,
                1.1101770951230838,
                -0.3847967925286637,
                1.0915147601778363,
                -2.65731484334366
            ]
        },
        {
            "positions": [
                2.4329203058409634,
                -1.0863467668382172,
                1.2524963403734168,
                -0.46299507625151515,
                1.0843306901406842,
                -2.7458605308042543
            ]
        },
        {
            "positions": [
                2.4817432306629588,
                -1.0681437127834774,
                1.394815585623749,
                -0.5411933599743664,
                1.0771466201035322,
                -2.8344062182648475
            ]
        },
        {
            "positions": [
                2.5305661554849546,
                -1.0499406587287374,
                1.5371348308740815,
                -0.6193916436972178,
                1.06996255006638,
                -2.922951905725441
            ]
        },
        {
            "positions": [
                2.5793890803069504,
                -1.0317376046739974,
                1.6794540761244137,
                -0.697589927420069,
                1.0627784800292281,
                -3.011497593186035
            ]
        },
        {
            "positions": [
                2.6282120051289457,
                -1.0135345506192575,
                1.8217733213747462,
                -0.7757882111429203,
                1.055594409992076,
                -3.1000432806466285
            ]
        }
    ]
}