{
    "goal": {
        "global_pose": {
            "orientation": {
                "w": -0.00223480608172531,
                "x": 0.0024358444001904467,
                "y": 0.7094548369677653,
                "z": -0.704743149386269
            },
            "position": {
                "x": 0.6205249238014221,
                "y": -0.6371506643295288,
                "z": 0.19426114857196808
            }
        },
        "name": "move_to_magneteinheit_B"
    },
    "id": "KPIECE_move_to_magneteinheit_B_124",
    "joint_names": [
        "shoulder_pan_joint",
        "shoulder_lift_joint",
        "elbow_joint",
        "wrist_1_joint",
        "wrist_2_joint",
        "wrist_3_joint"
    ],
    "metrics": {
        "cart_traj_len": 3.6445300306431583,
        "distance_elbow_joint": 4.719974820452954,
        "distance_shoulder_lift_joint": 0.2985254226694336,
        "distance_shoulder_pan_joint": 2.5449646994191992,
        "distance_wrist_1_joint": 2.8826323585987526,
        "distance_wrist_2_joint": 1.305018205609197,
        "distance_wrist_3_joint": 6.283037665835125,
        "smoothness": 0.13177321269260173,
        "time": 0.816325626,
        "traj_len": 4.246663769664918,
        "weighted_distance": 5.89812504686556
    },
    "planner": "KPIECE",
    "start": {
        "state": {
            "elbow_joint": 2.3935871308073637,
            "shoulder_lift_joint": -1.9085141043777403,
            "shoulder_pan_joint": 0.7066247067284167,
            "wrist_1_joint": -0.46782909355067076,
            "wrist_2_joint": 0.7096259085804283,
            "wrist_3_joint": -3.1358149275257428
        }
    },
    "waypoints": [
        {
            "positions": [
                0.7066247067284167,
                -1.9085141043777403,
                2.3935871308073637,
                -0.46782909355067076,
                0.7096259085804283,
                -3.1358149275257428
            ]
        },
        {
            "positions": [
                0.6298030116148623,
                -1.9246988808941112,
                2.358853095362389,
                -0.35789551610092385,
                0.7375337870316947,
                -3.0316111705980817
            ]
        },
        {
            "positions": [
                0.5529813165013078,
                -1.940883657410482,
                2.3241190599174146,
                -0.247961938651177,
                0.7654416654829611,
                -2.9274074136704207
            ]
        },
        {
            "positions": [
                0.5373131339501824,
                -1.9380138626119834,
                2.2386408781436575,
                -0.20876932017105676,
                0.714093861288646,
                -2.82055637877769
            ]
        },
        {
            "positions": [
                0.5216449513990571,
                -1.9351440678134846,
                2.1531626963699004,
                -0.16957670169093653,
                0.6627460570943309,
                -2.7137053438849597
            ]
        },
        {
            "positions": [
                0.5059767688479317,
                -1.9322742730149858,
                2.067684514596143,
                -0.1303840832108163,
                0.6113982529000158,
                -2.606854308992229
            ]
        },
        {
            "positions": [
                0.49030858629680635,
                -1.9294044782164872,
                1.9822063328223858,
                -0.09119146473069606,
                0.5600504487057008,
                -2.500003274099498
            ]
        },
        {
            "positions": [
                0.5819259059351615,
                -1.931543898391595,
                1.8166386062694238,
                -0.08795294951112172,
                0.5383318832724111,
                -2.388919307424226
            ]
        },
        {
            "positions": [
                0.6735432255735166,
                -1.9336833185667028,
                1.651070879716462,
                -0.08471443429154736,
                0.5166133178391215,
                -2.277835340748954
            ]
        },
        {
            "positions": [
                0.7651605452118718,
                -1.9358227387418105,
                1.4855031531635,
                -0.08147591907197302,
                0.49489475240583186,
                -2.166751374073682
            ]
        },
        {
            "positions": [
                0.8567778648502269,
                -1.9379621589169185,
                1.319935426610538,
                -0.07823740385239866,
                0.47317618697254227,
                -2.0556674073984103
            ]
        },
        {
            "positions": [
                0.9483951844885822,
                -1.9401015790920262,
                1.154367700057576,
                -0.07499888863282432,
                0.4514576215392526,
                -1.9445834407231382
            ]
        },
        {
            "positions": [
                1.0400125041269372,
                -1.9422409992671341,
                0.988799973504614,
                -0.07176037341324998,
                0.42973905610596297,
                -1.833499474047866
            ]
        },
        {
            "positions": [
                1.1316298237652924,
                -1.9443804194422418,
                0.823232246951652,
                -0.06852185819367562,
                0.4080204906726733,
                -1.722415507372594
            ]
        },
        {
            "positions": [
                1.2232471434036476,
                -1.9465198396173498,
                0.6576645203986902,
                -0.06528334297410128,
                0.3863019252393838,
                -1.611331540697322
            ]
        },
        {
            "positions": [
                1.3148644630420028,
                -1.9486592597924575,
                0.49209679384572813,
                -0.06204482775452693,
                0.36458335980609413,
                -1.50024757402205
            ]
        },
        {
            "positions": [
                1.406481782680358,
                -1.9507986799675654,
                0.3265290672927661,
                -0.05880631253495258,
                0.3428647943728045,
                -1.389163607346778
            ]
        },
        {
            "positions": [
                1.4980991023187131,
                -1.952938100142673,
                0.16096134073980428,
                -0.05556779731537824,
                0.3211462289395149,
                -1.278079640671506
            ]
        },
        {
            "positions": [
                1.5897164219570683,
                -1.955077520317781,
                -0.004606385813157754,
                -0.05232928209580389,
                0.29942766350622524,
                -1.166995673996234
            ]
        },
        {
            "positions": [
                1.6813337415954235,
                -1.9572169404928887,
                -0.1701741123661198,
                -0.04909076687622955,
                0.27770909807293565,
                -1.055911707320962
            ]
        },
        {
            "positions": [
                1.7729510612337787,
                -1.9593563606679965,
                -0.3357418389190818,
                -0.04585225165665519,
                0.25599053263964594,
                -0.9448277406456898
            ]
        },
        {
            "positions": [
                1.8645683808721338,
                -1.9614957808431044,
                -0.5013095654720439,
                -0.04261373643708085,
                0.23427196720635635,
                -0.8337437739704179
            ]
        },
        {
            "positions": [
                1.9561857005104888,
                -1.963635201018212,
                -0.6668772920250055,
                -0.0393752212175065,
                0.21255340177306675,
                -0.722659807295146
            ]
        },
        {
            "positions": [
                2.047803020148844,
                -1.96577462119332,
                -0.8324450185779675,
                -0.03613670599793215,
                0.1908348363397771,
                -0.6115758406198737
            ]
        },
        {
            "positions": [
                2.139420339787199,
                -1.9679140413684277,
                -0.9980127451309295,
                -0.0328981907783578,
                0.1691162709064875,
                -0.5004918739446018
            ]
        },
        {
            "positions": [
                2.2310376594255543,
                -1.9700534615435357,
                -1.1635804716838916,
                -0.02965967555878346,
                0.14739770547319786,
                -0.3894079072693297
            ]
        },
        {
            "positions": [
                2.3226549790639095,
                -1.9721928817186434,
                -1.3291481982368536,
                -0.026421160339209104,
                0.1256791400399082,
                -0.27832394059405763
            ]
        },
        {
            "positions": [
                2.4142722987022647,
                -1.9743323018937513,
                -1.4947159247898152,
                -0.023182645119634762,
                0.10396057460661862,
                -0.16723997391878598
            ]
        },
        {
            "positions": [
                2.50588961834062,
                -1.976471722068859,
                -1.6602836513427772,
                -0.01994412990006042,
                0.08224200917332902,
                -0.056156007243513884
            ]
        },
        {
            "positions": [
                2.597506937978975,
                -1.978611142243967,
                -1.8258513778957393,
                -0.016705614680486064,
                0.06052344374003932,
                0.05492795943175821
            ]
        },
        {
            "positions": [
                2.68912425761733,
                -1.9807505624190747,
                -1.9914191044487013,
                -0.013467099460911723,
                0.03880487830674968,
                0.16601192610703033
            ]
        },
        {
            "positions": [
                2.694778857206687,
                -1.99430822194902,
                -1.9795453238582688,
                -0.15509692491465873,
                0.015538475278037912,
                0.3440721432272503
            ]
        },
        {
            "positions": [
                2.700433456796043,
                -2.0078658814789656,
                -1.9676715432678362,
                -0.29672675036840573,
                -0.007727927750673859,
                0.5221323603474703
            ]
        },
        {
            "positions": [
                2.7060880563853997,
                -2.021423541008911,
                -1.9557977626774035,
                -0.43835657582215276,
                -0.030994330779385626,
                0.7001925774676903
            ]
        },
        {
            "positions": [
                2.7117426559747564,
                -2.0349812005388563,
                -1.943923982086971,
                -0.5799864012758997,
                -0.0542607338080974,
                0.8782527945879103
            ]
        },
        {
            "positions": [
                2.7173972555641126,
                -2.0485388600688017,
                -1.9320502014965384,
                -0.7216162267296469,
                -0.07752713683680917,
                1.0563130117081305
            ]
        },
        {
            "positions": [
                2.7230518551534693,
                -2.062096519598747,
                -1.9201764209061059,
                -0.8632460521833938,
                -0.10079353986552093,
                1.2343732288283502
            ]
        },
        {
            "positions": [
                2.728706454742826,
                -2.0756541791286924,
                -1.908302640315673,
                -1.0048758776371407,
                -0.12405994289423271,
                1.4124334459485703
            ]
        },
        {
            "positions": [
                2.734361054332182,
                -2.089211838658638,
                -1.8964288597252406,
                -1.1465057030908876,
                -0.14732634592294447,
                1.5904936630687903
            ]
        },
        {
            "positions": [
                2.740015653921539,
                -2.102769498188583,
                -1.884555079134808,
                -1.2881355285446348,
                -0.17059274895165624,
                1.7685538801890104
            ]
        },
        {
            "positions": [
                2.7312443748812214,
                -2.1118041282408724,
                -1.8592101280366975,
                -1.4163135213696647,
                -0.20538919720410587,
                1.9217393088690518
            ]
        },
        {
            "positions": [
                2.722473095840904,
                -2.120838758293161,
                -1.833865176938587,
                -1.5444915141946947,
                -0.2401856454565555,
                2.074924737549093
            ]
        },
        {
            "positions": [
                2.7137018168005866,
                -2.1298733883454504,
                -1.8085202258404767,
                -1.6726695070197246,
                -0.2749820937090051,
                2.2281101662291345
            ]
        },
        {
            "positions": [
                2.7049305377602693,
                -2.138908018397739,
                -1.7831752747423661,
                -1.8008474998447546,
                -0.3097785419614547,
                2.381295594909176
            ]
        },
        {
            "positions": [
                2.696159258719952,
                -2.1479426484500284,
                -1.7578303236442556,
                -1.9290254926697847,
                -0.34457499021390436,
                2.5344810235892172
            ]
        },
        {
            "positions": [
                2.6873879796796345,
                -2.156977278502317,
                -1.732485372546145,
                -2.0572034854948145,
                -0.379371438466354,
                2.6876664522692586
            ]
        },
        {
            "positions": [
                2.678616700639317,
                -2.1660119085546063,
                -1.7071404214480346,
                -2.1853814783198446,
                -0.41416788671880367,
                2.8408518809493
            ]
        },
        {
            "positions": [
                2.6698454215989997,
                -2.175046538606895,
                -1.6817954703499243,
                -2.313559471144875,
                -0.4489643349712532,
                2.9940373096293413
            ]
        },
        {
            "positions": [
                2.6610741425586824,
                -2.1840811686591843,
                -1.6564505192518137,
                -2.4417374639699045,
                -0.4837607832237029,
                3.1472227383093827
            ]
        }
    ]
}