{
    "goal": {
        "global_pose": {
            "orientation": {
                "w": -0.4816463035849501,
                "x": 0.5182115481033762,
                "y": 0.4908360881923453,
                "z": -0.5084816262002911
            },
            "position": {
                "x": -0.8240239810943604,
                "y": -0.300875300988555,
                "z": 0.16403168439865112
            }
        },
        "name": "move_to_storage_C"
    },
    "id": "KPIECE_move_to_storage_C_117",
    "joint_names": [
        "shoulder_pan_joint",
        "shoulder_lift_joint",
        "elbow_joint",
        "wrist_1_joint",
        "wrist_2_joint",
        "wrist_3_joint"
    ],
    "metrics": {
        "cart_traj_len": 0.5769771025798116,
        "distance_elbow_joint": 0.25958412922646357,
        "distance_shoulder_lift_joint": 0.18982318163645961,
        "distance_shoulder_pan_joint": 0.4956997059405377,
        "distance_wrist_1_joint": 0.08418493266955096,
        "distance_wrist_2_joint": 1.0618115817354492,
        "distance_wrist_3_joint": 0.06448648005144664,
        "smoothness": 5.075305295617109e-16,
        "time": 0.086529408,
        "traj_len": 1.4681927704698412,
        "weighted_distance": 1.8521769585457544
    },
    "planner": "KPIECE",
    "start": {
        "state": {
            "elbow_joint": 2.010868315001653,
            "shoulder_lift_joint": -1.1634956873357014,
            "shoulder_pan_joint": -2.4736205022346103,
            "wrist_1_joint": -0.8367026794713948,
            "wrist_2_joint": 0.6746043897044093,
            "wrist_3_joint": 3.1335220948105738
        }
    },
    "waypoints": [
        {
            "positions": [
                -2.4736205022346103,
                -1.1634956873357014,
                2.010868315001653,
                -0.8367026794713948,
                0.6746043897044093,
                3.1335220948105738
            ]
        },
        {
            "positions": [
                -2.5562371198913665,
                -1.1318584903962914,
                1.967604293463909,
                -0.822671857359803,
                0.8515729866603174,
                3.144269841485815
            ]
        },
        {
            "positions": [
                -2.6388537375481227,
                -1.1002212934568816,
                1.9243402719261653,
                -0.8086410352482111,
                1.0285415836162257,
                3.155017588161056
            ]
        },
        {
            "positions": [
                -2.721470355204879,
                -1.0685840965174715,
                1.8810762503884213,
                -0.7946102131366193,
                1.205510180572134,
                3.165765334836297
            ]
        },
        {
            "positions": [
                -2.8040869728616356,
                -1.0369468995780617,
                1.8378122288506773,
                -0.7805793910250275,
                1.382478777528042,
                3.1765130815115383
            ]
        },
        {
            "positions": [
                -2.8867035905183918,
                -1.0053097026386517,
                1.7945482073129335,
                -0.7665485689134356,
                1.5594473744839503,
                3.1872608281867794
            ]
        },
        {
            "positions": [
                -2.969320208175148,
                -0.9736725056992418,
                1.7512841857751895,
                -0.7525177468018438,
                1.7364159714398584,
                3.1980085748620204
            ]
        }
    ]
}