{
    "goal": {
        "global_pose": {
            "orientation": {
                "w": 0.005598929693374612,
                "x": 0.007748599140229565,
                "y": 0.7110244013736278,
                "z": -0.7031023480610252
            },
            "position": {
                "x": -0.8858502320852131,
                "y": -0.7141253447532654,
                "z": 0.3711530566215515
            }
        },
        "name": "move_to_auspresseinheit_C"
    },
    "id": "KPIECE_move_to_auspresseinheit_C_93",
    "joint_names": [
        "shoulder_pan_joint",
        "shoulder_lift_joint",
        "elbow_joint",
        "wrist_1_joint",
        "wrist_2_joint",
        "wrist_3_joint"
    ],
    "metrics": {
        "cart_traj_len": 0.4923921729689555,
        "distance_elbow_joint": 0.9902176811754958,
        "distance_shoulder_lift_joint": 0.3207111389462094,
        "distance_shoulder_pan_joint": 0.2561751821496081,
        "distance_wrist_1_joint": 0.65565569976244,
        "distance_wrist_2_joint": 1.3168527147756155,
        "distance_wrist_3_joint": 0.05156374652605944,
        "smoothness": 3.2297397080004555e-16,
        "time": 0.163294532,
        "traj_len": 1.895039884365347,
        "weighted_distance": 2.3805066836548896
    },
    "planner": "KPIECE",
    "start": {
        "state": {
            "elbow_joint": 1.752795957773711,
            "shoulder_lift_joint": -0.9740617694225064,
            "shoulder_pan_joint": -2.967991417825858,
            "wrist_1_joint": -0.7595177689806859,
            "wrist_2_joint": 1.7443932448377395,
            "wrist_3_joint": 3.199131542505932
        }
    },
    "waypoints": [
        {
            "positions": [
                -2.967991417825858,
                -0.9740617694225064,
                1.752795957773711,
                -0.7595177689806859,
                1.7443932448377395,
                3.199131542505932
            ]
        },
        {
            "positions": [
                -2.9423738996108972,
                -0.9419906555278855,
                1.6537741896561615,
                -0.6939521990044419,
                1.612707973360178,
                3.1939751678533264
            ]
        },
        {
            "positions": [
                -2.9167563813959365,
                -0.9099195416332646,
                1.554752421538612,
                -0.6283866290281979,
                1.4810227018826163,
                3.18881879320072
            ]
        },
        {
            "positions": [
                -2.8911388631809753,
                -0.8778484277386436,
                1.4557306534210623,
                -0.5628210590519539,
                1.349337430405055,
                3.1836624185481144
            ]
        },
        {
            "positions": [
                -2.8655213449660146,
                -0.8457773138440227,
                1.3567088853035127,
                -0.4972554890757099,
                1.2176521589274931,
                3.178506043895508
            ]
        },
        {
            "positions": [
                -2.839903826751054,
                -0.8137061999494017,
                1.2576871171859632,
                -0.4316899190994659,
                1.0859668874499318,
                3.1733496692429024
            ]
        },
        {
            "positions": [
                -2.814286308536093,
                -0.7816350860547808,
                1.1586653490684138,
                -0.36612434912322195,
                0.9542816159723703,
                3.1681932945902966
            ]
        },
        {
            "positions": [
                -2.7886687903211325,
                -0.7495639721601599,
                1.0596435809508642,
                -0.30055877914697793,
                0.8225963444948087,
                3.1630369199376904
            ]
        },
        {
            "positions": [
                -2.7630512721061713,
                -0.7174928582655389,
                0.9606218128333144,
                -0.23499320917073385,
                0.690911073017247,
                3.1578805452850847
            ]
        },
        {
            "positions": [
                -2.7374337538912106,
                -0.685421744370918,
                0.8616000447157649,
                -0.1694276391944899,
                0.5592258015396856,
                3.1527241706324785
            ]
        },
        {
            "positions": [
                -2.71181623567625,
                -0.653350630476297,
                0.7625782765982153,
                -0.10386206921824592,
                0.42754053006212406,
                3.1475677959798727
            ]
        }
    ]
}