{
    "goal": {
        "global_pose": {
            "orientation": {
                "w": 0.7031023502349854,
                "x": -0.7110244035720825,
                "y": 0.007748599164187908,
                "z": 0.005598929710686207
            },
            "position": {
                "x": 0.11585023208521307,
                "y": 0.44412534475326537,
                "z": 0.3711530566215515
            }
        },
        "name": "move_to_auspresseinheit_A"
    },
    "id": "KPIECE_move_to_auspresseinheit_A_32",
    "joint_names": [
        "shoulder_pan_joint",
        "shoulder_lift_joint",
        "elbow_joint",
        "wrist_1_joint",
        "wrist_2_joint",
        "wrist_3_joint"
    ],
    "metrics": {
        "cart_traj_len": 0.9002880723084268,
        "distance_elbow_joint": 0.03740601230657825,
        "distance_shoulder_lift_joint": 1.0381577743536077,
        "distance_shoulder_pan_joint": 1.0461249922568747,
        "distance_wrist_1_joint": 0.54760705062258,
        "distance_wrist_2_joint": 0.5170247991879149,
        "distance_wrist_3_joint": 0.024703366985475927,
        "smoothness": 0.38549286835597496,
        "time": 0.906130176,
        "traj_len": 1.7919330332668773,
        "weighted_distance": 2.0796784798363612
    },
    "planner": "KPIECE",
    "start": {
        "state": {
            "elbow_joint": 2.4225747245308327,
            "shoulder_lift_joint": -1.373653427065438,
            "shoulder_pan_joint": -0.33786330853087027,
            "wrist_1_joint": -1.0288602302712604,
            "wrist_2_joint": 1.23302299562683,
            "wrist_3_joint": -3.094021725338297
        }
    },
    "waypoints": [
        {
            "positions": [
                -0.33786330853087027,
                -1.373653427065438,
                2.4225747245308327,
                -1.0288602302712604,
                1.23302299562683,
                -3.094021725338297
            ]
        },
        {
            "positions": [
                -0.3110044651605209,
                -1.6361254826391742,
                2.412152448050495,
                -0.9663204639457309,
                1.21656512332457,
                -3.1008924745889503
            ]
        },
        {
            "positions": [
                -0.28414562179017144,
                -1.8985975382129108,
                2.4017301715701564,
                -0.9037806976202015,
                1.2001072510223103,
                -3.1077632238396036
            ]
        },
        {
            "positions": [
                -0.25728677841982206,
                -2.1610695937866473,
                2.3913078950898186,
                -0.841240931294672,
                1.1836493787200504,
                -3.114633973090257
            ]
        },
        {
            "positions": [
                -0.09636203472885096,
                -2.119279325847914,
                2.3923310922340795,
                -0.7812429726870067,
                1.1057075150065279,
                -3.1153158262958427
            ]
        },
        {
            "positions": [
                0.06456270896212013,
                -2.0774890579091814,
                2.39335428937834,
                -0.7212450140793415,
                1.0277656512930053,
                -3.115997679501429
            ]
        },
        {
            "positions": [
                0.22548745265309128,
                -2.035698789970448,
                2.3943774865226004,
                -0.6612470554716763,
                0.9498237875794827,
                -3.116679532707015
            ]
        },
        {
            "positions": [
                0.3864121963440623,
                -1.9939085220317152,
                2.3954006836668613,
                -0.601249096864011,
                0.8718819238659602,
                -3.117361385912601
            ]
        },
        {
            "positions": [
                0.5473369400350335,
                -1.952118254092982,
                2.3964238808111222,
                -0.5412511382563456,
                0.7939400601524376,
                -3.118043239118187
            ]
        },
        {
            "positions": [
                0.7082616837260046,
                -1.910327986154249,
                2.3974470779553827,
                -0.4812531796486804,
                0.715998196438915,
                -3.118725092323773
            ]
        }
    ]
}