{
    "goal": {
        "global_pose": {
            "orientation": {
                "w": 0.7047431468963623,
                "x": -0.7094548344612122,
                "y": 0.0024358443915843964,
                "z": -0.0022348060738295317
            },
            "position": {
                "x": 0.6094750761985779,
                "y": 0.3671506643295288,
                "z": 0.19426114857196808
            }
        },
        "name": "move_to_magneteinheit_A"
    },
    "id": "KPIECE_move_to_magneteinheit_A_107",
    "joint_names": [
        "shoulder_pan_joint",
        "shoulder_lift_joint",
        "elbow_joint",
        "wrist_1_joint",
        "wrist_2_joint",
        "wrist_3_joint"
    ],
    "metrics": {
        "cart_traj_len": 1.054059514283672,
        "distance_elbow_joint": 0.38790931240643567,
        "distance_shoulder_lift_joint": 0.3639330117613655,
        "distance_shoulder_pan_joint": 1.2423649105549133,
        "distance_wrist_1_joint": 2.240474040708863,
        "distance_wrist_2_joint": 1.6969714204237223,
        "distance_wrist_3_joint": 1.1965149004992002,
        "smoothness": 1.8698493194378823e-16,
        "time": 0.043075031,
        "traj_len": 2.669862842236376,
        "weighted_distance": 3.668602303123832
    },
    "planner": "KPIECE",
    "start": {
        "state": {
            "elbow_joint": 1.5739458966750683,
            "shoulder_lift_joint": -1.4977259741207325,
            "shoulder_pan_joint": -1.1188672016454206,
            "wrist_1_joint": 1.494575848278785,
            "wrist_2_joint": -1.5706037134824402,
            "wrist_3_joint": -2.0226957942261072
        }
    },
    "waypoints": [
        {
            "positions": [
                -1.1188672016454206,
                -1.4977259741207325,
                1.5739458966750683,
                1.494575848278785,
                -1.5706037134824402,
                -2.0226957942261072
            ]
        },
        {
            "positions": [
                -1.0498469288368144,
                -1.4775074734673233,
                1.5954964140309815,
                1.3701050682394038,
                -1.4763275234589002,
                -2.0891688442538405
            ]
        },
        {
            "positions": [
                -0.9808266560282081,
                -1.457288972813914,
                1.6170469313868945,
                1.2456342882000224,
                -1.38205133343536,
                -2.155641894281574
            ]
        },
        {
            "positions": [
                -0.9118063832196017,
                -1.437070472160505,
                1.6385974487428077,
                1.1211635081606413,
                -1.2877751434118199,
                -2.222114944309307
            ]
        },
        {
            "positions": [
                -0.8427861104109955,
                -1.4168519715070957,
                1.6601479660987206,
                0.9966927281212599,
                -1.1934989533882798,
                -2.2885879943370404
            ]
        },
        {
            "positions": [
                -0.7737658376023892,
                -1.3966334708536865,
                1.6816984834546338,
                0.8722219480818786,
                -1.0992227633647396,
                -2.355061044364774
            ]
        },
        {
            "positions": [
                -0.7047455647937829,
                -1.3764149702002773,
                1.703249000810547,
                0.7477511680424974,
                -1.0049465733411995,
                -2.4215340943925074
            ]
        },
        {
            "positions": [
                -0.6357252919851766,
                -1.3561964695468682,
                1.72479951816646,
                0.6232803880031161,
                -0.9106703833176593,
                -2.4880071444202407
            ]
        },
        {
            "positions": [
                -0.5667050191765703,
                -1.335977968893459,
                1.7463500355223731,
                0.49880960796373486,
                -0.8163941932941192,
                -2.554480194447974
            ]
        },
        {
            "positions": [
                -0.497684746367964,
                -1.3157594682400497,
                1.7679005528782863,
                0.3743388279243536,
                -0.7221180032705791,
                -2.6209532444757073
            ]
        },
        {
            "positions": [
                -0.42866447355935766,
                -1.2955409675866405,
                1.7894510702341992,
                0.2498680478849722,
                -0.6278418132470389,
                -2.6874262945034406
            ]
        },
        {
            "positions": [
                -0.3596442007507513,
                -1.2753224669332313,
                1.8110015875901124,
                0.12539726784559102,
                -0.5335656232234987,
                -2.753899344531174
            ]
        },
        {
            "positions": [
                -0.2906239279421452,
                -1.2551039662798222,
                1.8325521049460254,
                0.0009264878062098525,
                -0.43928943319995883,
                -2.820372394558907
            ]
        },
        {
            "positions": [
                -0.22160365513353886,
                -1.234885465626413,
                1.8541026223019386,
                -0.12354429223317154,
                -0.34501324317641857,
                -2.8868454445866405
            ]
        },
        {
            "positions": [
                -0.15258338232493251,
                -1.2146669649730037,
                1.8756531396578517,
                -0.2480150722725527,
                -0.2507370531528783,
                -2.953318494614374
            ]
        },
        {
            "positions": [
                -0.08356310951632628,
                -1.1944484643195945,
                1.8972036570137647,
                -0.3724858523119341,
                -0.15646086312933827,
                -3.0197915446421075
            ]
        },
        {
            "positions": [
                -0.014542836707720053,
                -1.1742299636661855,
                1.9187541743696779,
                -0.49695663235131526,
                -0.06218467310579823,
                -3.0862645946698404
            ]
        },
        {
            "positions": [
                0.0544774361008864,
                -1.1540114630127762,
                1.9403046917255908,
                -0.6214274123906967,
                0.032091516917741814,
                -3.152737644697574
            ]
        },
        {
            "positions": [
                0.12349770890949258,
                -1.133792962359367,
                1.961855209081504,
                -0.745898192430078,
                0.12636770694128202,
                -3.2192106947253074
            ]
        }
    ]
}