{
    "goal": {
        "global_pose": {
            "orientation": {
                "w": 0.7031023502349854,
                "x": -0.7110244035720825,
                "y": 0.007748599164187908,
                "z": 0.005598929710686207
            },
            "position": {
                "x": 0.11585023208521307,
                "y": 0.44412534475326537,
                "z": 0.3711530566215515
            }
        },
        "name": "move_to_auspresseinheit_A"
    },
    "id": "KPIECE_move_to_auspresseinheit_A_122",
    "joint_names": [
        "shoulder_pan_joint",
        "shoulder_lift_joint",
        "elbow_joint",
        "wrist_1_joint",
        "wrist_2_joint",
        "wrist_3_joint"
    ],
    "metrics": {
        "cart_traj_len": 1.2121082812890687,
        "distance_elbow_joint": 1.0647540910201787,
        "distance_shoulder_lift_joint": 0.9532140688455171,
        "distance_shoulder_pan_joint": 1.1242434993591828,
        "distance_wrist_1_joint": 1.7130712591170263,
        "distance_wrist_2_joint": 0.7881132716177072,
        "distance_wrist_3_joint": 2.873370503755253,
        "smoothness": 0.6369043071236894,
        "time": 0.5715517999999999,
        "traj_len": 2.918349995068252,
        "weighted_distance": 4.094470934316191
    },
    "planner": "KPIECE",
    "start": {
        "state": {
            "elbow_joint": 2.4225747245308327,
            "shoulder_lift_joint": -1.373653427065438,
            "shoulder_pan_joint": -0.33786330853087027,
            "wrist_1_joint": -1.0288602302712604,
            "wrist_2_joint": 1.23302299562683,
            "wrist_3_joint": -3.094021725338297
        }
    },
    "waypoints": [
        {
            "positions": [
                -0.33786330853087027,
                -1.373653427065438,
                2.4225747245308327,
                -1.0288602302712604,
                1.23302299562683,
                -3.094021725338297
            ]
        },
        {
            "positions": [
                -0.2913902611484513,
                -1.4173619822261936,
                2.376927844207306,
                -0.9575254020548726,
                1.1929210677517816,
                -2.976092193722373
            ]
        },
        {
            "positions": [
                -0.24491721376603232,
                -1.461070537386949,
                2.3312809638837795,
                -0.8861905738384848,
                1.1528191398767336,
                -2.8581626621064498
            ]
        },
        {
            "positions": [
                -0.1984441663836133,
                -1.5047790925477047,
                2.2856340835602524,
                -0.814855745622097,
                1.1127172120016853,
                -2.740233130490526
            ]
        },
        {
            "positions": [
                -0.15197111900119434,
                -1.5484876477084601,
                2.239987203236726,
                -0.7435209174057091,
                1.072615284126637,
                -2.622303598874602
            ]
        },
        {
            "positions": [
                -0.10549807161877534,
                -1.5921962028692158,
                2.1943403229131992,
                -0.6721860891893213,
                1.0325133562515887,
                -2.504374067258678
            ]
        },
        {
            "positions": [
                -0.05902502423635636,
                -1.6359047580299713,
                2.1486934425896727,
                -0.6008512609729335,
                0.9924114283765406,
                -2.3864445356427546
            ]
        },
        {
            "positions": [
                -0.01255197685393733,
                -1.679613313190727,
                2.1030465622661456,
                -0.5295164327565456,
                0.9523095005014923,
                -2.2685150040268307
            ]
        },
        {
            "positions": [
                0.03392107052848159,
                -1.7233218683514826,
                2.057399681942619,
                -0.4581816045401579,
                0.9122075726264441,
                -2.1505854724109073
            ]
        },
        {
            "positions": [
                0.08039411791090062,
                -1.767030423512238,
                2.0117528016190924,
                -0.38684677632377007,
                0.8721056447513958,
                -2.0326559407949834
            ]
        },
        {
            "positions": [
                0.1268671652933196,
                -1.8107389786729937,
                1.9661059212955658,
                -0.31551194810738226,
                0.8320037168763477,
                -1.9147264091790595
            ]
        },
        {
            "positions": [
                0.17334021267573857,
                -1.8544475338337492,
                1.9204590409720392,
                -0.24417711989099444,
                0.7919017890012994,
                -1.796796877563136
            ]
        },
        {
            "positions": [
                0.21981326005815752,
                -1.8981560889945048,
                1.8748121606485124,
                -0.17284229167460663,
                0.7517998611262512,
                -1.678867345947212
            ]
        },
        {
            "positions": [
                0.3338549396178204,
                -1.9530439026990272,
                1.9540527383965822,
                -0.10054568850002696,
                0.7816682977862061,
                -1.718729588878534
            ]
        },
        {
            "positions": [
                0.44789661917748336,
                -2.007931716403549,
                2.0332933161446523,
                -0.028249085325447287,
                0.8115367344461608,
                -1.7585918318098561
            ]
        },
        {
            "positions": [
                0.5619382987371463,
                -2.0628195301080714,
                2.112533893892722,
                0.044047517849132384,
                0.8414051711061157,
                -1.798454074741178
            ]
        },
        {
            "positions": [
                0.6759799782968092,
                -2.1177073438125937,
                2.191774471640792,
                0.11634412102371203,
                0.8712736077660705,
                -1.8383163176725
            ]
        },
        {
            "positions": [
                0.7471400303978825,
                -2.1168304017312263,
                2.2828732965231984,
                0.08322283318065794,
                0.8894005205825284,
                -2.013426096486271
            ]
        },
        {
            "positions": [
                0.7406000036594775,
                -2.0821165333950606,
                2.301028361733727,
                -0.005901436815842043,
                0.8611856076390532,
                -2.2007023254571223
            ]
        },
        {
            "positions": [
                0.7340599769210725,
                -2.047402665058895,
                2.3191834269442557,
                -0.09502570681234203,
                0.8329706946955779,
                -2.387978554427974
            ]
        },
        {
            "positions": [
                0.7275199501826676,
                -2.0126887967227294,
                2.3373384921547844,
                -0.18414997680884204,
                0.8047557817521027,
                -2.5752547833988255
            ]
        },
        {
            "positions": [
                0.7209799234442626,
                -1.9779749283865637,
                2.3554935573653135,
                -0.273274246805342,
                0.7765408688086276,
                -2.762531012369677
            ]
        },
        {
            "positions": [
                0.7144398967058576,
                -1.9432610600503981,
                2.373648622575842,
                -0.36239851680184204,
                0.7483259558651524,
                -2.9498072413405287
            ]
        },
        {
            "positions": [
                0.7078998699674527,
                -1.9085471917142325,
                2.391803687786371,
                -0.45152278679834196,
                0.7201110429216772,
                -3.13708347031138
            ]
        }
    ]
}