{
    "goal": {
        "global_pose": {
            "orientation": {
                "w": -0.00223480608172531,
                "x": 0.0024358444001904467,
                "y": 0.7094548369677653,
                "z": -0.704743149386269
            },
            "position": {
                "x": -0.37947507619857795,
                "y": -0.6371506643295288,
                "z": 0.19426114857196808
            }
        },
        "name": "move_to_magneteinheit_C"
    },
    "id": "KPIECE_move_to_magneteinheit_C_28",
    "joint_names": [
        "shoulder_pan_joint",
        "shoulder_lift_joint",
        "elbow_joint",
        "wrist_1_joint",
        "wrist_2_joint",
        "wrist_3_joint"
    ],
    "metrics": {
        "cart_traj_len": 2.009796819567057,
        "distance_elbow_joint": 1.8023784659902207,
        "distance_shoulder_lift_joint": 1.1832367097996204,
        "distance_shoulder_pan_joint": 1.0591286472060273,
        "distance_wrist_1_joint": 2.198093237419245,
        "distance_wrist_2_joint": 1.0323250747682664,
        "distance_wrist_3_joint": 3.756107735345688,
        "smoothness": 1.7087515409994058,
        "time": 0.452206737,
        "traj_len": 3.3213355552441652,
        "weighted_distance": 4.666251563450899
    },
    "planner": "KPIECE",
    "start": {
        "state": {
            "elbow_joint": 1.9565354006590394,
            "shoulder_lift_joint": -1.4165861576513559,
            "shoulder_pan_joint": -1.6717766223277177,
            "wrist_1_joint": -0.5286633288215096,
            "wrist_2_joint": 1.4727565892594296,
            "wrist_3_joint": 3.1593482883155493
        }
    },
    "waypoints": [
        {
            "positions": [
                -1.6717766223277177,
                -1.4165861576513559,
                1.9565354006590394,
                -0.5286633288215096,
                1.4727565892594296,
                3.1593482883155493
            ]
        },
        {
            "positions": [
                -1.6107431702438804,
                -1.4369083298275154,
                1.9510425709060715,
                -0.5273658587004146,
                1.4286556128491021,
                3.0943997731104265
            ]
        },
        {
            "positions": [
                -1.5727809947125357,
                -1.288191097841263,
                1.968417654715178,
                -0.6246434917759536,
                1.34541706325084,
                3.1036081423678157
            ]
        },
        {
            "positions": [
                -1.5627663283059348,
                -1.337175159298595,
                1.9163454812372207,
                -0.6115433903884994,
                1.28055567621898,
                3.012106400544221
            ]
        },
        {
            "positions": [
                -1.552751661899334,
                -1.3861592207559268,
                1.8642733077592633,
                -0.5984432890010453,
                1.2156942891871203,
                2.9206046587206265
            ]
        },
        {
            "positions": [
                -1.542736995492733,
                -1.4351432822132588,
                1.812201134281306,
                -0.585343187613591,
                1.1508329021552604,
                2.829102916897032
            ]
        },
        {
            "positions": [
                -1.5786908543199323,
                -1.4295463470981342,
                1.9528415048956003,
                -0.5822295488892998,
                1.1563811221683096,
                2.7399471926597445
            ]
        },
        {
            "positions": [
                -1.6146447131471313,
                -1.4239494119830098,
                2.0934818755098945,
                -0.5791159101650084,
                1.1619293421813588,
                2.6507914684224567
            ]
        },
        {
            "positions": [
                -1.6505985719743306,
                -1.4183524768678852,
                2.2341222461241887,
                -0.5760022714407171,
                1.167477562194408,
                2.5616357441851694
            ]
        },
        {
            "positions": [
                -1.673673446438958,
                -1.4513885185071969,
                2.154768778557406,
                -0.4758323459039818,
                1.1788258098970499,
                2.4186131986647497
            ]
        },
        {
            "positions": [
                -1.6967483209035852,
                -1.4844245601465085,
                2.0754153109906235,
                -0.3756624203672465,
                1.1901740575996917,
                2.27559065314433
            ]
        },
        {
            "positions": [
                -1.7198231953682126,
                -1.51746060178582,
                1.9960618434238406,
                -0.2754924948305112,
                1.2015223053023334,
                2.1325681076239107
            ]
        },
        {
            "positions": [
                -1.74289806983284,
                -1.5504966434251317,
                1.916708375857058,
                -0.17532256929377588,
                1.2128705530049753,
                1.989545562103491
            ]
        },
        {
            "positions": [
                -1.7659729442974672,
                -1.5835326850644433,
                1.8373549082902754,
                -0.07515264375704056,
                1.2242188007076171,
                1.8465230165830713
            ]
        },
        {
            "positions": [
                -1.7890478187620946,
                -1.6165687267037547,
                1.7580014407234927,
                0.025017281779694756,
                1.235567048410259,
                1.7035004710626518
            ]
        },
        {
            "positions": [
                -1.812122693226722,
                -1.6496047683430664,
                1.67864797315671,
                0.12518720731643007,
                1.2469152961129006,
                1.560477925542232
            ]
        },
        {
            "positions": [
                -1.8351975676913492,
                -1.682640809982378,
                1.5992945055899273,
                0.2253571328531654,
                1.2582635438155425,
                1.4174553800218126
            ]
        },
        {
            "positions": [
                -1.8582724421559766,
                -1.7156768516216896,
                1.5199410380231446,
                0.3255270583899007,
                1.2696117915181844,
                1.2744328345013929
            ]
        },
        {
            "positions": [
                -1.9499517294282827,
                -1.702099134817455,
                1.5823401028460182,
                0.2832289779948037,
                1.2544833804790794,
                1.3970108039686184
            ]
        },
        {
            "positions": [
                -2.0416310167005887,
                -1.6885214180132204,
                1.644739167668892,
                0.24093089759970665,
                1.2393549694399744,
                1.519588773435844
            ]
        },
        {
            "positions": [
                -2.1333103039728947,
                -1.6749437012089856,
                1.7071382324917657,
                0.19863281720460962,
                1.2242265584008694,
                1.6421667429030695
            ]
        },
        {
            "positions": [
                -2.2249895912452007,
                -1.661365984404751,
                1.7695372973146395,
                0.15633473680951257,
                1.2090981473617644,
                1.764744712370295
            ]
        },
        {
            "positions": [
                -2.3166688785175067,
                -1.6477882676005164,
                1.831936362137513,
                0.11403665641441554,
                1.1939697363226593,
                1.8873226818375206
            ]
        },
        {
            "positions": [
                -2.342430051314592,
                -1.6073851643778867,
                1.854932145487443,
                0.03356108288851026,
                1.1508874986732405,
                2.0034335343182037
            ]
        },
        {
            "positions": [
                -2.368191224111677,
                -1.5669820611552572,
                1.877927928837373,
                -0.04691449063739503,
                1.1078052610238218,
                2.119544386798887
            ]
        },
        {
            "positions": [
                -2.3939523969087624,
                -1.5265789579326274,
                1.9009237121873028,
                -0.12739006416330032,
                1.064723023374403,
                2.2356552392795703
            ]
        },
        {
            "positions": [
                -2.4197135697058476,
                -1.4861758547099977,
                1.9239194955372327,
                -0.2078656376892056,
                1.0216407857249843,
                2.3517660917602536
            ]
        },
        {
            "positions": [
                -2.445474742502933,
                -1.4457727514873682,
                1.9469152788871626,
                -0.28834121121511086,
                0.9785585480755654,
                2.467876944240937
            ]
        },
        {
            "positions": [
                -2.4509449971751014,
                -1.3891275832810255,
                1.9589587731244285,
                -0.3954370741054599,
                0.9184446971038546,
                2.599743230896379
            ]
        },
        {
            "positions": [
                -2.45641525184727,
                -1.3324824150746828,
                1.9710022673616945,
                -0.5025329369958089,
                0.8583308461321437,
                2.731609517551821
            ]
        },
        {
            "positions": [
                -2.4618855065194385,
                -1.2758372468683403,
                1.9830457615989603,
                -0.6096287998861579,
                0.798216995160433,
                2.8634758042072628
            ]
        },
        {
            "positions": [
                -2.467355761191607,
                -1.2191920786619976,
                1.9950892558362263,
                -0.7167246627765069,
                0.7381031441887221,
                2.995342090862705
            ]
        },
        {
            "positions": [
                -2.4728260158637756,
                -1.162546910455655,
                2.007132750073492,
                -0.823820525666856,
                0.6779892932170113,
                3.127208377518147
            ]
        }
    ]
}