{
    "goal": {
        "global_pose": {
            "orientation": {
                "w": 0.5084816262002911,
                "x": -0.4908360881923452,
                "y": 0.5182115481033761,
                "z": -0.48164630358495003
            },
            "position": {
                "x": 0.5540239810943604,
                "y": -0.46912469901144505,
                "z": 0.16403168439865112
            }
        },
        "name": "move_to_storage_B"
    },
    "id": "KPIECE_move_to_storage_B_60",
    "joint_names": [
        "shoulder_pan_joint",
        "shoulder_lift_joint",
        "elbow_joint",
        "wrist_1_joint",
        "wrist_2_joint",
        "wrist_3_joint"
    ],
    "metrics": {
        "cart_traj_len": 2.367454071895515,
        "distance_elbow_joint": 1.8746371651739053,
        "distance_shoulder_lift_joint": 0.4711413628827772,
        "distance_shoulder_pan_joint": 1.9471744367867148,
        "distance_wrist_1_joint": 2.978234691404042,
        "distance_wrist_2_joint": 2.6983126820381544,
        "distance_wrist_3_joint": 4.3920287019601165,
        "smoothness": 0.3322569286202635,
        "time": 0.076295204,
        "traj_len": 3.78966080807316,
        "weighted_distance": 5.368624946632809
    },
    "planner": "KPIECE",
    "start": {
        "state": {
            "elbow_joint": 1.6649325706314817,
            "shoulder_lift_joint": -0.6616388048112454,
            "shoulder_pan_joint": -0.9139837860083814,
            "wrist_1_joint": 2.146757197745094,
            "wrist_2_joint": -2.234196043158733,
            "wrist_3_joint": 0.005471033829999897
        }
    },
    "waypoints": [
        {
            "positions": [
                -0.9139837860083814,
                -0.6616388048112454,
                1.6649325706314817,
                2.146757197745094,
                -2.234196043158733,
                0.005471033829999897
            ]
        },
        {
            "positions": [
                -0.8258001547444677,
                -0.7081275422010112,
                1.588629208641046,
                2.1422531688156736,
                -2.151791415602309,
                -0.057254170891394625
            ]
        },
        {
            "positions": [
                -0.7376165234805541,
                -0.7546162795907768,
                1.5123258466506102,
                2.137749139886253,
                -2.069386788045885,
                -0.11997937561278914
            ]
        },
        {
            "positions": [
                -0.6494328922166404,
                -0.8011050169805426,
                1.4360224846601746,
                2.1332451109568327,
                -1.986982160489461,
                -0.18270458033418363
            ]
        },
        {
            "positions": [
                -0.5612492609527266,
                -0.8475937543703083,
                1.359719122669739,
                2.128741082027412,
                -1.904577532933037,
                -0.2454297850555782
            ]
        },
        {
            "positions": [
                -0.473065629688813,
                -0.894082491760074,
                1.2834157606793033,
                2.1242370530979917,
                -1.8221729053766131,
                -0.30815498977697264
            ]
        },
        {
            "positions": [
                -0.38488199842489934,
                -0.9405712291498398,
                1.2071123986888677,
                2.1197330241685712,
                -1.7397682778201893,
                -0.3708801944983671
            ]
        },
        {
            "positions": [
                -0.29669836716098563,
                -0.9870599665396055,
                1.130809036698432,
                2.1152289952391508,
                -1.6573636502637652,
                -0.43360539921976166
            ]
        },
        {
            "positions": [
                -0.20851473589707192,
                -1.0335487039293714,
                1.0545056747079962,
                2.1107249663097303,
                -1.5749590227073411,
                -0.49633060394115625
            ]
        },
        {
            "positions": [
                -0.12033110463315833,
                -1.080037441319137,
                0.9782023127175605,
                2.10622093738031,
                -1.4925543951509175,
                -0.5590558086625507
            ]
        },
        {
            "positions": [
                -0.03214747336924459,
                -1.1265261787089027,
                0.9018989507271249,
                2.1017169084508893,
                -1.4101497675944934,
                -0.6217810133839452
            ]
        },
        {
            "positions": [
                -0.07019526351737237,
                -1.1263028219594342,
                0.9415990773438945,
                1.9969599655183952,
                -1.3432116816489965,
                -0.48732470428586766
            ]
        },
        {
            "positions": [
                -0.10824305366550017,
                -1.1260794652099655,
                0.9812992039606641,
                1.892203022585901,
                -1.2762735957034994,
                -0.3528683951877901
            ]
        },
        {
            "positions": [
                -0.14629084381362797,
                -1.125856108460497,
                1.0209993305774336,
                1.7874460796534068,
                -1.2093355097580025,
                -0.21841208608971258
            ]
        },
        {
            "positions": [
                -0.18433863396175576,
                -1.1256327517110285,
                1.0606994571942032,
                1.6826891367209127,
                -1.1423974238125056,
                -0.08395577699163503
            ]
        },
        {
            "positions": [
                -0.22238642410988357,
                -1.1254093949615598,
                1.1003995838109728,
                1.5779321937884183,
                -1.0754593378670085,
                0.050500532106442564
            ]
        },
        {
            "positions": [
                -0.2604342142580114,
                -1.1251860382120913,
                1.1400997104277424,
                1.4731752508559244,
                -1.0085212519215117,
                0.18495684120452005
            ]
        },
        {
            "positions": [
                -0.29848200440613915,
                -1.1249626814626228,
                1.179799837044512,
                1.36841830792343,
                -0.9415831659760147,
                0.31941315030259765
            ]
        },
        {
            "positions": [
                -0.3365297945542669,
                -1.124739324713154,
                1.2194999636612815,
                1.2636613649909358,
                -0.8746450800305178,
                0.45386945940067513
            ]
        },
        {
            "positions": [
                -0.3745775847023948,
                -1.1245159679636856,
                1.2592000902780511,
                1.1589044220584417,
                -0.8077069940850207,
                0.5883257684987528
            ]
        },
        {
            "positions": [
                -0.41262537485052253,
                -1.124292611214217,
                1.298900216894821,
                1.0541474791259473,
                -0.7407689081395238,
                0.7227820775968303
            ]
        },
        {
            "positions": [
                -0.4506731649986504,
                -1.1240692544647484,
                1.3386003435115903,
                0.9493905361934534,
                -0.6738308221940268,
                0.8572383866949078
            ]
        },
        {
            "positions": [
                -0.48872095514677816,
                -1.1238458977152799,
                1.3783004701283599,
                0.8446335932609592,
                -0.6068927362485299,
                0.9916946957929853
            ]
        },
        {
            "positions": [
                -0.526768745294906,
                -1.1236225409658114,
                1.4180005967451295,
                0.7398766503284648,
                -0.5399546503030328,
                1.126151004891063
            ]
        },
        {
            "positions": [
                -0.5648165354430338,
                -1.1233991842163427,
                1.4577007233618993,
                0.6351197073959707,
                -0.4730165643575359,
                1.2606073139891405
            ]
        },
        {
            "positions": [
                -0.6028643255911615,
                -1.1231758274668742,
                1.4974008499786686,
                0.5303627644634765,
                -0.40607847841203903,
                1.395063623087218
            ]
        },
        {
            "positions": [
                -0.6409121157392893,
                -1.1229524707174057,
                1.5371009765954384,
                0.42560582153098236,
                -0.33914039246654215,
                1.5295199321852955
            ]
        },
        {
            "positions": [
                -0.6789599058874172,
                -1.1227291139679372,
                1.5768011032122078,
                0.3208488785984882,
                -0.27220230652104505,
                1.663976241283373
            ]
        },
        {
            "positions": [
                -0.717007696035545,
                -1.1225057572184685,
                1.6165012298289776,
                0.21609193566599383,
                -0.20526422057554794,
                1.798432550381451
            ]
        },
        {
            "positions": [
                -0.7550554861836728,
                -1.122282400469,
                1.6562013564457472,
                0.11133499273349967,
                -0.13832613463005106,
                1.9328888594795284
            ]
        },
        {
            "positions": [
                -0.7931032763318006,
                -1.1220590437195315,
                1.6959014830625168,
                0.006578049801005292,
                -0.07138804868455417,
                2.0673451685776056
            ]
        },
        {
            "positions": [
                -0.8311510664799284,
                -1.1218356869700628,
                1.7356016096792863,
                -0.09817889313148864,
                -0.004449962739057067,
                2.2018014776756836
            ]
        },
        {
            "positions": [
                -0.8691988566280562,
                -1.1216123302205943,
                1.775301736296056,
                -0.20293583606398258,
                0.062488123206439816,
                2.3362577867737606
            ]
        },
        {
            "positions": [
                -0.9072466467761839,
                -1.1213889734711258,
                1.8150018629128253,
                -0.30769277899647696,
                0.1294262091519367,
                2.4707140958718385
            ]
        },
        {
            "positions": [
                -0.9452944369243117,
                -1.121165616721657,
                1.854701989529595,
                -0.4124497219289709,
                0.19636429509743358,
                2.6051704049699156
            ]
        },
        {
            "positions": [
                -0.9833422270724396,
                -1.1209422599721885,
                1.8944021161463647,
                -0.5172066648614657,
                0.2633023810429307,
                2.7396267140679935
            ]
        },
        {
            "positions": [
                -1.0213900172205674,
                -1.12071890322272,
                1.9341022427631342,
                -0.6219636077939596,
                0.3302404669884278,
                2.8740830231660714
            ]
        },
        {
            "positions": [
                -1.0594378073686952,
                -1.1204955464732513,
                1.9738023693799038,
                -0.726720550726454,
                0.3971785529339247,
                3.0085393322641485
            ]
        },
        {
            "positions": [
                -1.097485597516823,
                -1.1202721897237828,
                2.0135024959966734,
                -0.8314774936589481,
                0.46411663887942145,
                3.142995641362226
            ]
        }
    ]
}