{
    "goal": {
        "global_pose": {
            "orientation": {
                "w": 0.7031023502349854,
                "x": -0.7110244035720825,
                "y": 0.007748599164187908,
                "z": 0.005598929710686207
            },
            "position": {
                "x": 0.11585023208521307,
                "y": 0.44412534475326537,
                "z": 0.3711530566215515
            }
        },
        "name": "move_to_auspresseinheit_A"
    },
    "id": "KPIECE_move_to_auspresseinheit_A_11",
    "joint_names": [
        "shoulder_pan_joint",
        "shoulder_lift_joint",
        "elbow_joint",
        "wrist_1_joint",
        "wrist_2_joint",
        "wrist_3_joint"
    ],
    "metrics": {
        "cart_traj_len": 2.1083451277755625,
        "distance_elbow_joint": 2.095077198793021,
        "distance_shoulder_lift_joint": 1.36451984597353,
        "distance_shoulder_pan_joint": 2.0828640828497536,
        "distance_wrist_1_joint": 0.8342517796616864,
        "distance_wrist_2_joint": 2.551224730224055,
        "distance_wrist_3_joint": 2.30578354915209,
        "smoothness": 1.1038458151114012,
        "time": 0.417949301,
        "traj_len": 3.3516743855354054,
        "weighted_distance": 4.385289590761829
    },
    "planner": "KPIECE",
    "start": {
        "state": {
            "elbow_joint": 2.4225747245308327,
            "shoulder_lift_joint": -1.373653427065438,
            "shoulder_pan_joint": -0.33786330853087027,
            "wrist_1_joint": -1.0288602302712604,
            "wrist_2_joint": 1.23302299562683,
            "wrist_3_joint": -3.094021725338297
        }
    },
    "waypoints": [
        {
            "positions": [
                -0.33786330853087027,
                -1.373653427065438,
                2.4225747245308327,
                -1.0288602302712604,
                1.23302299562683,
                -3.094021725338297
            ]
        },
        {
            "positions": [
                -0.31721166780387205,
                -1.4086650554555173,
                2.3409177900382594,
                -1.0059679814028029,
                1.1143287018715151,
                -3.0066540319462365
            ]
        },
        {
            "positions": [
                -0.2965600270768739,
                -1.4436766838455968,
                2.2592608555456866,
                -0.9830757325343455,
                0.9956344081162003,
                -2.919286338554176
            ]
        },
        {
            "positions": [
                -0.2759083863498757,
                -1.4786883122356762,
                2.1776039210531133,
                -0.9601834836658881,
                0.8769401143608855,
                -2.8319186451621152
            ]
        },
        {
            "positions": [
                -0.25525674562287753,
                -1.5136999406257556,
                2.0959469865605405,
                -0.9372912347974307,
                0.7582458206055707,
                -2.7445509517700546
            ]
        },
        {
            "positions": [
                -0.23460510489587932,
                -1.548711569015835,
                2.014290052067967,
                -0.9143989859289732,
                0.6395515268502558,
                -2.657183258377994
            ]
        },
        {
            "positions": [
                -0.21395346416888117,
                -1.5837231974059147,
                1.932633117575394,
                -0.8915067370605159,
                0.520857233094941,
                -2.5698155649859333
            ]
        },
        {
            "positions": [
                -0.193301823441883,
                -1.6187348257959941,
                1.850976183082821,
                -0.8686144881920583,
                0.4021629393396262,
                -2.4824478715938727
            ]
        },
        {
            "positions": [
                -0.17265018271488478,
                -1.6537464541860736,
                1.7693192485902478,
                -0.8457222393236009,
                0.2834686455843114,
                -2.3950801782018116
            ]
        },
        {
            "positions": [
                -0.1519985419878866,
                -1.688758082576153,
                1.6876623140976748,
                -0.8228299904551435,
                0.16477435182899658,
                -2.3077124848097514
            ]
        },
        {
            "positions": [
                -0.1313469012608884,
                -1.7237697109662324,
                1.6060053796051017,
                -0.7999377415866861,
                0.04608005807368176,
                -2.2203447914176904
            ]
        },
        {
            "positions": [
                -0.11069526053389023,
                -1.7587813393563119,
                1.5243484451125284,
                -0.7770454927182286,
                -0.07261423568163305,
                -2.1329770980256297
            ]
        },
        {
            "positions": [
                -0.09004361980689204,
                -1.7937929677463913,
                1.4426915106199554,
                -0.7541532438497712,
                -0.19130852943694787,
                -2.045609404633569
            ]
        },
        {
            "positions": [
                -0.06939197907989386,
                -1.8288045961364707,
                1.3610345761273823,
                -0.7312609949813138,
                -0.3100028231922628,
                -1.9582417112415087
            ]
        },
        {
            "positions": [
                0.05994364905469399,
                -1.8782685962155525,
                1.4571577561620925,
                -0.7240924401366374,
                -0.2341477416582372,
                -1.9871037170083903
            ]
        },
        {
            "positions": [
                0.18927927718928184,
                -1.9277325962946343,
                1.5532809361968027,
                -0.7169238852919609,
                -0.15829266012421164,
                -2.0159657227752716
            ]
        },
        {
            "positions": [
                0.3186149053238696,
                -1.9771965963737161,
                1.649404116231513,
                -0.7097553304472846,
                -0.0824375785901861,
                -2.044827728542153
            ]
        },
        {
            "positions": [
                0.44795053345845753,
                -2.026660596452798,
                1.7455272962662232,
                -0.7025867756026081,
                -0.006582497056160486,
                -2.073689734309035
            ]
        },
        {
            "positions": [
                0.5772861615930454,
                -2.07612459653188,
                1.8416504763009334,
                -0.6954182207579317,
                0.06927258447786505,
                -2.102551740075916
            ]
        },
        {
            "positions": [
                0.706621789727633,
                -2.1255885966109616,
                1.9377736563356436,
                -0.6882496659132553,
                0.1451276660118906,
                -2.1314137458427975
            ]
        },
        {
            "positions": [
                0.8359574178622209,
                -2.175052596690043,
                2.033896836370354,
                -0.6810811110685788,
                0.22098274754591618,
                -2.160275751609679
            ]
        },
        {
            "positions": [
                0.965293045996809,
                -2.224516596769125,
                2.130020016405064,
                -0.6739125562239024,
                0.29683782907994183,
                -2.1891377573765602
            ]
        },
        {
            "positions": [
                1.0946286741313966,
                -2.273980596848207,
                2.226143196439774,
                -0.666744001379226,
                0.37269291061396737,
                -2.217999763143442
            ]
        },
        {
            "positions": [
                1.2239643022659845,
                -2.3234445969272888,
                2.3222663764744844,
                -0.6595754465345496,
                0.4485479921479929,
                -2.2468617689103234
            ]
        },
        {
            "positions": [
                1.1460928080536172,
                -2.2692412833713207,
                2.3302265852279866,
                -0.6050436420779455,
                0.4854741133632255,
                -2.364191464274579
            ]
        },
        {
            "positions": [
                1.0682213138412502,
                -2.215037969815353,
                2.3381867939814884,
                -0.5505118376213415,
                0.5224002345784581,
                -2.481521159638835
            ]
        },
        {
            "positions": [
                0.990349819628883,
                -2.160834656259385,
                2.3461470027349907,
                -0.4959800331647374,
                0.5593263557936906,
                -2.59885085500309
            ]
        },
        {
            "positions": [
                0.9124783254165159,
                -2.106631342703417,
                2.354107211488493,
                -0.44144822870813333,
                0.5962524770089231,
                -2.716180550367346
            ]
        },
        {
            "positions": [
                0.8346068312041487,
                -2.0524280291474493,
                2.3620674202419947,
                -0.3869164242515292,
                0.6331785982241558,
                -2.8335102457316017
            ]
        },
        {
            "positions": [
                0.7567353369917815,
                -1.9982247155914812,
                2.370027628995497,
                -0.3323846197949252,
                0.6701047194393883,
                -2.9508399410958575
            ]
        },
        {
            "positions": [
                0.7298315836024336,
                -1.9534703182035456,
                2.382299627756225,
                -0.4012727043876008,
                0.6841504038260438,
                -3.039542593696334
            ]
        },
        {
            "positions": [
                0.7029278302130856,
                -1.9087159208156097,
                2.394571626516953,
                -0.47016078898027647,
                0.6981960882126992,
                -3.1282452462968102
            ]
        }
    ]
}