{
    "goal": {
        "global_pose": {
            "orientation": {
                "w": 0.005598929693374612,
                "x": 0.007748599140229565,
                "y": 0.7110244013736278,
                "z": -0.7031023480610252
            },
            "position": {
                "x": 0.1141497679147869,
                "y": -0.7141253447532654,
                "z": 0.3711530566215515
            }
        },
        "name": "move_to_auspresseinheit_B"
    },
    "id": "KPIECE_move_to_auspresseinheit_B_97",
    "joint_names": [
        "shoulder_pan_joint",
        "shoulder_lift_joint",
        "elbow_joint",
        "wrist_1_joint",
        "wrist_2_joint",
        "wrist_3_joint"
    ],
    "metrics": {
        "cart_traj_len": 0.5639481945560832,
        "distance_elbow_joint": 0.062384638376266954,
        "distance_shoulder_lift_joint": 0.29378824925863944,
        "distance_shoulder_pan_joint": 0.5766269220275941,
        "distance_wrist_1_joint": 0.32449270482812453,
        "distance_wrist_2_joint": 0.9901145969543605,
        "distance_wrist_3_joint": 0.006022524635624915,
        "smoothness": 5.075305255429287e-16,
        "time": 0.17300164499999998,
        "traj_len": 1.5011427767139975,
        "weighted_distance": 1.8921104584918782
    },
    "planner": "KPIECE",
    "start": {
        "state": {
            "elbow_joint": 2.019306165916698,
            "shoulder_lift_joint": -1.1220205098164344,
            "shoulder_pan_joint": -1.095207207618794,
            "wrist_1_joint": -0.8559671824921639,
            "wrist_2_joint": 0.47596387242952726,
            "wrist_3_joint": 3.159081874673826
        }
    },
    "waypoints": [
        {
            "positions": [
                -1.095207207618794,
                -1.1220205098164344,
                2.019306165916698,
                -0.8559671824921639,
                0.47596387242952726,
                3.159081874673826
            ]
        },
        {
            "positions": [
                -1.191311694623393,
                -1.1709852180262077,
                2.00890872618732,
                -0.8018850650208098,
                0.6409829719219207,
                3.1580781205678883
            ]
        },
        {
            "positions": [
                -1.287416181627992,
                -1.219949926235981,
                1.9985112864579424,
                -0.7478029475494556,
                0.8060020714143141,
                3.1570743664619507
            ]
        },
        {
            "positions": [
                -1.383520668632591,
                -1.2689146344457543,
                1.9881138467285644,
                -0.6937208300781016,
                0.9710211709067076,
                3.1560706123560136
            ]
        },
        {
            "positions": [
                -1.47962515563719,
                -1.3178793426555273,
                1.9777164069991866,
                -0.6396387126067475,
                1.1360402703991008,
                3.155066858250076
            ]
        },
        {
            "positions": [
                -1.575729642641789,
                -1.3668440508653006,
                1.9673189672698088,
                -0.5855565951353934,
                1.3010593698914945,
                3.1540631041441385
            ]
        },
        {
            "positions": [
                -1.6718341296463881,
                -1.4158087590750739,
                1.956921527540431,
                -0.5314744776640393,
                1.4660784693838878,
                3.153059350038201
            ]
        }
    ]
}