{
    "goal": {
        "global_pose": {
            "orientation": {
                "w": -0.4816463035849501,
                "x": 0.5182115481033762,
                "y": 0.4908360881923453,
                "z": -0.5084816262002911
            },
            "position": {
                "x": -0.8240239810943604,
                "y": 0.19912469901144506,
                "z": 0.16403168439865112
            }
        },
        "name": "move_to_storage_D"
    },
    "id": "KPIECE_move_to_storage_D_126",
    "joint_names": [
        "shoulder_pan_joint",
        "shoulder_lift_joint",
        "elbow_joint",
        "wrist_1_joint",
        "wrist_2_joint",
        "wrist_3_joint"
    ],
    "metrics": {
        "cart_traj_len": 0.583758947856198,
        "distance_elbow_joint": 0.6735689477021998,
        "distance_shoulder_lift_joint": 0.15215642935674234,
        "distance_shoulder_pan_joint": 0.17872779552388182,
        "distance_wrist_1_joint": 4.086047199527017,
        "distance_wrist_2_joint": 1.8398836558685565,
        "distance_wrist_3_joint": 3.5508907658804687,
        "smoothness": 0.702041614387466,
        "time": 0.048479888,
        "traj_len": 3.2374796978296043,
        "weighted_distance": 4.848606725752809
    },
    "planner": "KPIECE",
    "start": {
        "state": {
            "elbow_joint": -2.384821997420982,
            "shoulder_lift_joint": -2.2788054674887404,
            "shoulder_pan_joint": -0.18546946417610016,
            "wrist_1_joint": 1.4845937964226739,
            "wrist_2_joint": 0.1789877726866377,
            "wrist_3_joint": 0.03710572555276528
        }
    },
    "waypoints": [
        {
            "positions": [
                -0.18546946417610016,
                -2.2788054674887404,
                -2.384821997420982,
                1.4845937964226739,
                0.1789877726866377,
                0.03710572555276528
            ]
        },
        {
            "positions": [
                -0.10311598301033972,
                -2.2212207402764204,
                -2.414360111582875,
                1.5501646823173687,
                0.19340692600950954,
                -0.06140025165229477
            ]
        },
        {
            "positions": [
                -0.020762501844579284,
                -2.1636360130641004,
                -2.443898225744768,
                1.6157355682120635,
                0.2078260793323814,
                -0.1599062288573548
            ]
        },
        {
            "positions": [
                -0.02132333517227372,
                -2.162156534066816,
                -2.4193185169696316,
                1.4575393511025585,
                0.13538426536346887,
                -0.02575107639854085
            ]
        },
        {
            "positions": [
                -0.021884168499968156,
                -2.1606770550695322,
                -2.394738808194495,
                1.2993431339930535,
                0.06294245139455637,
                0.10840407606027311
            ]
        },
        {
            "positions": [
                -0.02244500182766259,
                -2.159197576072248,
                -2.3701590994193587,
                1.1411469168835482,
                -0.009499362574356157,
                0.24255922851908698
            ]
        },
        {
            "positions": [
                -0.023005835155357028,
                -2.157718097074964,
                -2.3455793906442217,
                0.9829506997740431,
                -0.08194117654326866,
                0.376714380977901
            ]
        },
        {
            "positions": [
                -0.023566668483051462,
                -2.15623861807768,
                -2.3209996818690852,
                0.8247544826645381,
                -0.15438299051218118,
                0.5108695334367149
            ]
        },
        {
            "positions": [
                -0.0241275018107459,
                -2.154759139080396,
                -2.2964199730939487,
                0.6665582655550331,
                -0.2268248044810937,
                0.6450246858955287
            ]
        },
        {
            "positions": [
                -0.024688335138440334,
                -2.1532796600831117,
                -2.2718402643188123,
                0.5083620484455278,
                -0.29926661845000624,
                0.7791798383543429
            ]
        },
        {
            "positions": [
                -0.025249168466134772,
                -2.151800181085828,
                -2.2472605555436758,
                0.35016583133602275,
                -0.3717084324189187,
                0.9133349908131568
            ]
        },
        {
            "positions": [
                -0.025810001793829206,
                -2.1503207020885435,
                -2.2226808467685393,
                0.1919696142265177,
                -0.4441502463878312,
                1.0474901432719708
            ]
        },
        {
            "positions": [
                -0.02637083512152364,
                -2.1488412230912592,
                -2.198101137993403,
                0.03377339711701266,
                -0.5165920603567438,
                1.1816452957307848
            ]
        },
        {
            "positions": [
                -0.02693166844921808,
                -2.1473617440939754,
                -2.1735214292182663,
                -0.12442281999249238,
                -0.5890338743256562,
                1.3158004481895986
            ]
        },
        {
            "positions": [
                -0.027492501776912513,
                -2.145882265096691,
                -2.14894172044313,
                -0.28261903710199743,
                -0.6614756882945688,
                1.4499556006484124
            ]
        },
        {
            "positions": [
                -0.02805333510460695,
                -2.1444027860994073,
                -2.124362011667993,
                -0.4408152542115027,
                -0.7339175022634813,
                1.5841107531072267
            ]
        },
        {
            "positions": [
                -0.028614168432301385,
                -2.142923307102123,
                -2.0997823028928564,
                -0.599011471321008,
                -0.8063593162323939,
                1.7182659055660408
            ]
        },
        {
            "positions": [
                -0.029175001759995822,
                -2.141443828104839,
                -2.07520259411772,
                -0.7572076884305128,
                -0.8788011302013063,
                1.8524210580248544
            ]
        },
        {
            "positions": [
                -0.029735835087690256,
                -2.139964349107555,
                -2.0506228853425834,
                -0.915403905540018,
                -0.9512429441702188,
                1.9865762104836686
            ]
        },
        {
            "positions": [
                -0.03029666841538469,
                -2.1384848701102706,
                -2.026043176567447,
                -1.0736001226495233,
                -1.0236847581391315,
                2.1207313629424824
            ]
        },
        {
            "positions": [
                -0.03085750174307913,
                -2.1370053911129867,
                -2.0014634677923104,
                -1.2317963397590281,
                -1.0961265721080438,
                2.2548865154012963
            ]
        },
        {
            "positions": [
                -0.031418335070773566,
                -2.1355259121157024,
                -1.976883759017174,
                -1.389992556868533,
                -1.1685683860769565,
                2.38904166786011
            ]
        },
        {
            "positions": [
                -0.031979168398468,
                -2.1340464331184186,
                -1.9523040502420372,
                -1.5481887739780382,
                -1.241010200045869,
                2.5231968203189243
            ]
        },
        {
            "positions": [
                -0.032540001726162435,
                -2.1325669541211343,
                -1.9277243414669007,
                -1.706384991087543,
                -1.3134520140147814,
                2.657351972777738
            ]
        },
        {
            "positions": [
                -0.03310083505385687,
                -2.1310874751238504,
                -1.903144632691764,
                -1.8645812081970483,
                -1.3858938279836939,
                2.791507125236552
            ]
        },
        {
            "positions": [
                -0.03366166838155131,
                -2.129607996126566,
                -1.8785649239166275,
                -2.0227774253065536,
                -1.4583356419526066,
                2.9256622776953662
            ]
        },
        {
            "positions": [
                -0.03422250170924574,
                -2.1281285171292823,
                -1.853985215141491,
                -2.1809736424160584,
                -1.530777455921519,
                3.0598174301541796
            ]
        },
        {
            "positions": [
                -0.03478333503694018,
                -2.126649038131998,
                -1.8294055063663546,
                -2.3391698595255637,
                -1.6032192698904315,
                3.193972582612994
            ]
        }
    ]
}