{
    "goal": {
        "global_pose": {
            "orientation": {
                "w": 0.7031023480610252,
                "x": -0.7110244013736278,
                "y": 0.0077485991402295624,
                "z": 0.005598929693374583
            },
            "position": {
                "x": -0.8841497679147869,
                "y": 0.44412534475326537,
                "z": 0.3711530566215515
            }
        },
        "name": "move_to_auspresseinheit_D"
    },
    "id": "KPIECE_move_to_auspresseinheit_D_111",
    "joint_names": [
        "shoulder_pan_joint",
        "shoulder_lift_joint",
        "elbow_joint",
        "wrist_1_joint",
        "wrist_2_joint",
        "wrist_3_joint"
    ],
    "metrics": {
        "cart_traj_len": 3.7255687195178355,
        "distance_elbow_joint": 2.994243267526398,
        "distance_shoulder_lift_joint": 1.2457221000180971,
        "distance_shoulder_pan_joint": 2.7971251313969927,
        "distance_wrist_1_joint": 2.1554010665164056,
        "distance_wrist_2_joint": 1.215409162043184,
        "distance_wrist_3_joint": 6.221826862320562,
        "smoothness": 2.422304788793624e-16,
        "time": 0.23516458299999998,
        "traj_len": 4.077956300626778,
        "weighted_distance": 5.6959802969306645
    },
    "planner": "KPIECE",
    "start": {
        "state": {
            "elbow_joint": 1.8268400409724999,
            "shoulder_lift_joint": -1.0144045787793008,
            "shoulder_pan_joint": 2.6280239544362485,
            "wrist_1_joint": -0.790705565816056,
            "wrist_2_joint": 1.0573557467365533,
            "wrist_3_joint": 3.1851377467193758
        }
    },
    "waypoints": [
        {
            "positions": [
                2.6280239544362485,
                -1.0144045787793008,
                1.8268400409724999,
                -0.790705565816056,
                1.0573557467365533,
                3.1851377467193758
            ]
        },
        {
            "positions": [
                2.589662877387755,
                -1.031045976235517,
                1.7482490120332121,
                -0.8635439216400865,
                1.0196642187519203,
                3.0838907758367893
            ]
        },
        {
            "positions": [
                2.551301800339261,
                -1.0476873736917334,
                1.6696579830939242,
                -0.936382277464117,
                0.9819726907672872,
                2.9826438049542023
            ]
        },
        {
            "positions": [
                2.5129407232907672,
                -1.0643287711479497,
                1.5910669541546363,
                -1.0092206332881475,
                0.9442811627826542,
                2.881396834071616
            ]
        },
        {
            "positions": [
                2.4745796462422738,
                -1.0809701686041657,
                1.5124759252153486,
                -1.082058989112178,
                0.9065896347980212,
                2.7801498631890293
            ]
        },
        {
            "positions": [
                2.4362185691937803,
                -1.097611566060382,
                1.4338848962760609,
                -1.1548973449362085,
                0.8688981068133882,
                2.6789028923064424
            ]
        },
        {
            "positions": [
                2.3978574921452864,
                -1.1142529635165983,
                1.355293867336773,
                -1.227735700760239,
                0.8312065788287551,
                2.577655921423856
            ]
        },
        {
            "positions": [
                2.3284802308180965,
                -1.1452225233890523,
                1.2871128647991872,
                -1.2741781583702991,
                0.8044698222305015,
                2.425916866369125
            ]
        },
        {
            "positions": [
                2.2591029694909066,
                -1.1761920832615065,
                1.2189318622616017,
                -1.320620615980359,
                0.7777330656322479,
                2.2741778113143942
            ]
        },
        {
            "positions": [
                2.1897257081637163,
                -1.2071616431339605,
                1.150750859724016,
                -1.3670630735904192,
                0.7509963090339942,
                2.122438756259663
            ]
        },
        {
            "positions": [
                2.1203484468365263,
                -1.2381312030064144,
                1.0825698571864302,
                -1.4135055312004794,
                0.7242595524357405,
                1.9706997012049323
            ]
        },
        {
            "positions": [
                2.0509711855093364,
                -1.2691007628788684,
                1.0143888546488444,
                -1.4599479888105393,
                0.6975227958374868,
                1.8189606461502015
            ]
        },
        {
            "positions": [
                1.9815939241821463,
                -1.3000703227513226,
                0.9462078521112588,
                -1.5063904464205995,
                0.6707860392392332,
                1.6672215910954704
            ]
        },
        {
            "positions": [
                1.9122166628549562,
                -1.3310398826237766,
                0.8780268495736732,
                -1.5528329040306597,
                0.6440492826409795,
                1.5154825360407396
            ]
        },
        {
            "positions": [
                1.8428394015277663,
                -1.3620094424962308,
                0.8098458470360874,
                -1.5992753616407196,
                0.6173125260427259,
                1.3637434809860087
            ]
        },
        {
            "positions": [
                1.7734621402005764,
                -1.3929790023686848,
                0.7416648444985018,
                -1.6457178192507798,
                0.5905757694444722,
                1.2120044259312779
            ]
        },
        {
            "positions": [
                1.7040848788733862,
                -1.4239485622411387,
                0.673483841960916,
                -1.6921602768608397,
                0.5638390128462185,
                1.060265370876547
            ]
        },
        {
            "positions": [
                1.634707617546196,
                -1.4549181221135927,
                0.6053028394233304,
                -1.7386027344708999,
                0.5371022562479648,
                0.9085263158218162
            ]
        },
        {
            "positions": [
                1.5653303562190062,
                -1.485887681986047,
                0.5371218368857447,
                -1.7850451920809598,
                0.5103654996497111,
                0.7567872607670851
            ]
        },
        {
            "positions": [
                1.4959530948918163,
                -1.516857241858501,
                0.46894083434815903,
                -1.83148764969102,
                0.48362874305145753,
                0.6050482057123543
            ]
        },
        {
            "positions": [
                1.4265758335646261,
                -1.5478268017309549,
                0.4007598318105733,
                -1.8779301073010801,
                0.4568919864532039,
                0.4533091506576232
            ]
        },
        {
            "positions": [
                1.357198572237436,
                -1.578796361603409,
                0.33257882927298765,
                -1.92437256491114,
                0.4301552298549502,
                0.3015700956028926
            ]
        },
        {
            "positions": [
                1.287821310910246,
                -1.609765921475863,
                0.2643978267354019,
                -1.9708150225212002,
                0.40341847325669655,
                0.14983104054816154
            ]
        },
        {
            "positions": [
                1.218444049583056,
                -1.640735481348317,
                0.19621682419781616,
                -2.0172574801312604,
                0.3766817166584429,
                -0.001908014506569078
            ]
        },
        {
            "positions": [
                1.149066788255866,
                -1.671705041220771,
                0.12803582166023064,
                -2.0636999377413203,
                0.3499449600601892,
                -0.15364706956130014
            ]
        },
        {
            "positions": [
                1.0796895269286761,
                -1.702674601093225,
                0.0598548191226449,
                -2.1101423953513803,
                0.3232082034619356,
                -0.30538612461603076
            ]
        },
        {
            "positions": [
                1.010312265601486,
                -1.7336441609656792,
                -0.008326183414940846,
                -2.1565848529614406,
                0.2964714468636819,
                -0.4571251796707618
            ]
        },
        {
            "positions": [
                0.9409350042742961,
                -1.7646137208381332,
                -0.07650718595252637,
                -2.2030273105715006,
                0.2697346902654283,
                -0.6088642347254924
            ]
        },
        {
            "positions": [
                0.871557742947106,
                -1.7955832807105874,
                -0.1446881884901121,
                -2.2494697681815605,
                0.2429979336671746,
                -0.7606032897802235
            ]
        },
        {
            "positions": [
                0.8021804816199161,
                -1.8265528405830413,
                -0.21286919102769786,
                -2.2959122257916205,
                0.216261177068921,
                -0.9123423448349541
            ]
        },
        {
            "positions": [
                0.7328032202927259,
                -1.8575224004554953,
                -0.2810501935652836,
                -2.342354683401681,
                0.1895244204706672,
                -1.0640813998896856
            ]
        },
        {
            "positions": [
                0.663425958965536,
                -1.8884919603279493,
                -0.3492311961028691,
                -2.388797141011741,
                0.1627876638724136,
                -1.2158204549444163
            ]
        },
        {
            "positions": [
                0.5940486976383459,
                -1.9194615202004035,
                -0.41741219864045487,
                -2.435239598621801,
                0.13605090727415992,
                -1.3675595099991473
            ]
        },
        {
            "positions": [
                0.524671436311156,
                -1.9504310800728575,
                -0.4855932011780406,
                -2.481682056231861,
                0.10931415067590633,
                -1.519298565053878
            ]
        },
        {
            "positions": [
                0.45529417498396585,
                -1.9814006399453117,
                -0.5537742037156264,
                -2.528124513841921,
                0.08257739407765263,
                -1.6710376201086095
            ]
        },
        {
            "positions": [
                0.38591691365677594,
                -2.0123701998177657,
                -0.6219552062532119,
                -2.574566971451981,
                0.05584063747939905,
                -1.82277667516334
            ]
        },
        {
            "positions": [
                0.3165396523295856,
                -2.0433397596902196,
                -0.6901362087907976,
                -2.6210094290620414,
                0.02910388088114524,
                -1.9745157302180707
            ]
        },
        {
            "positions": [
                0.24716239100239612,
                -2.0743093195626736,
                -0.7583172113283834,
                -2.6674518866721013,
                0.0023671242828916528,
                -2.1262547852728013
            ]
        },
        {
            "positions": [
                0.17778512967520577,
                -2.1052788794351276,
                -0.8264982138659691,
                -2.7138943442821617,
                -0.024369632315362044,
                -2.277993840327533
            ]
        },
        {
            "positions": [
                0.10840786834801586,
                -2.1362484393075816,
                -0.8946792164035549,
                -2.7603368018922216,
                -0.05110638891361563,
                -2.4297328953822634
            ]
        },
        {
            "positions": [
                0.0390306070208255,
                -2.1672179991800355,
                -0.9628602189411406,
                -2.8067792595022816,
                -0.07784314551186933,
                -2.581471950436994
            ]
        },
        {
            "positions": [
                -0.030346654306363963,
                -2.1981875590524895,
                -1.031041221478726,
                -2.8532217171123415,
                -0.10457990211012302,
                -2.7332110054917247
            ]
        },
        {
            "positions": [
                -0.09972391563355432,
                -2.229157118924944,
                -1.0992222240163116,
                -2.899664174722402,
                -0.13131665870837672,
                -2.884950060546456
            ]
        },
        {
            "positions": [
                -0.16910117696074425,
                -2.260126678797398,
                -1.1674032265538974,
                -2.946106632332462,
                -0.1580534153066303,
                -3.0366891156011864
            ]
        }
    ]
}