{
    "goal": {
        "global_pose": {
            "orientation": {
                "w": 0.5084816217422485,
                "x": -0.49083608388900757,
                "y": 0.5182115435600281,
                "z": -0.4816462993621826
            },
            "position": {
                "x": 0.5540239810943604,
                "y": 0.030875300988554955,
                "z": 0.16403168439865112
            }
        },
        "name": "move_to_storage_A"
    },
    "id": "KPIECE_move_to_storage_A_35",
    "joint_names": [
        "shoulder_pan_joint",
        "shoulder_lift_joint",
        "elbow_joint",
        "wrist_1_joint",
        "wrist_2_joint",
        "wrist_3_joint"
    ],
    "metrics": {
        "cart_traj_len": 0.35256758838874297,
        "distance_elbow_joint": 0.4506210964519024,
        "distance_shoulder_lift_joint": 0.23463260259615848,
        "distance_shoulder_pan_joint": 0.45977635969773956,
        "distance_wrist_1_joint": 0.2508599951596068,
        "distance_wrist_2_joint": 1.1029050978821129,
        "distance_wrist_3_joint": 0.10139826266274543,
        "smoothness": 1.1102230263833737e-15,
        "time": 0.012191037,
        "traj_len": 1.6125115238193695,
        "weighted_distance": 2.038812162220315
    },
    "planner": "KPIECE",
    "start": {
        "state": {
            "elbow_joint": 1.9715474177455299,
            "shoulder_lift_joint": -1.139484666580328,
            "shoulder_pan_joint": 0.12281154398918248,
            "wrist_1_joint": -0.7804687475355282,
            "wrist_2_joint": 0.12958649657246987,
            "wrist_3_joint": -3.1924925159053466
        }
    },
    "waypoints": [
        {
            "positions": [
                0.12281154398918248,
                -1.139484666580328,
                1.9715474177455299,
                -0.7804687475355282,
                0.12958649657246987,
                -3.1924925159053466
            ]
        },
        {
            "positions": [
                0.0571292068895054,
                -1.1730036098083507,
                2.035921860095802,
                -0.8163058897011863,
                0.287144367698486,
                -3.1780070498106685
            ]
        },
        {
            "positions": [
                -0.008553130210171678,
                -1.2065225530363732,
                2.1002963024460732,
                -0.8521430318668444,
                0.4447022388245021,
                -3.163521583715991
            ]
        },
        {
            "positions": [
                -0.07423546730984876,
                -1.240041496264396,
                2.164670744796345,
                -0.8879801740325025,
                0.6022601099505183,
                -3.149036117621313
            ]
        },
        {
            "positions": [
                -0.13991780440952584,
                -1.2735604394924185,
                2.229045187146617,
                -0.9238173161981607,
                0.7598179810765344,
                -3.134550651526635
            ]
        },
        {
            "positions": [
                -0.20560014150920292,
                -1.3070793827204412,
                2.293419629496889,
                -0.9596544583638187,
                0.9173758522025506,
                -3.1200651854319568
            ]
        },
        {
            "positions": [
                -0.27128247860888,
                -1.3405983259484637,
                2.3577940718471604,
                -0.9954916005294768,
                1.0749337233285665,
                -3.105579719337279
            ]
        },
        {
            "positions": [
                -0.3369648157085571,
                -1.3741172691764865,
                2.4221685141974323,
                -1.031328742695135,
                1.2324915944545827,
                -3.091094253242601
            ]
        }
    ]
}