{
    "goal": {
        "global_pose": {
            "orientation": {
                "w": 0.005598929693374612,
                "x": 0.007748599140229565,
                "y": 0.7110244013736278,
                "z": -0.7031023480610252
            },
            "position": {
                "x": -0.8858502320852131,
                "y": -0.7141253447532654,
                "z": 0.3711530566215515
            }
        },
        "name": "move_to_auspresseinheit_C"
    },
    "id": "KPIECE_move_to_auspresseinheit_C_95",
    "joint_names": [
        "shoulder_pan_joint",
        "shoulder_lift_joint",
        "elbow_joint",
        "wrist_1_joint",
        "wrist_2_joint",
        "wrist_3_joint"
    ],
    "metrics": {
        "cart_traj_len": 0.4929735463688313,
        "distance_elbow_joint": 0.9985671893443008,
        "distance_shoulder_lift_joint": 0.32428076836201236,
        "distance_shoulder_pan_joint": 0.25693022303097557,
        "distance_wrist_1_joint": 0.6814062291705784,
        "distance_wrist_2_joint": 1.301056675847946,
        "distance_wrist_3_joint": 0.052596551107321865,
        "smoothness": 0.0,
        "time": 0.012452388,
        "traj_len": 1.901272636121168,
        "weighted_distance": 2.387989456445799
    },
    "planner": "KPIECE",
    "start": {
        "state": {
            "elbow_joint": 1.752795957773711,
            "shoulder_lift_joint": -0.9740617694225064,
            "shoulder_pan_joint": -2.967991417825858,
            "wrist_1_joint": -0.7595177689806859,
            "wrist_2_joint": 1.7443932448377395,
            "wrist_3_joint": 3.199131542505932
        }
    },
    "waypoints": [
        {
            "positions": [
                -2.967991417825858,
                -0.9740617694225064,
                1.752795957773711,
                -0.7595177689806859,
                1.7443932448377395,
                3.199131542505932
            ]
        },
        {
            "positions": [
                -2.9422983955227604,
                -0.9416336925863052,
                1.652939238839281,
                -0.6913771460636281,
                1.6142875772529448,
                3.1938718873952
            ]
        },
        {
            "positions": [
                -2.916605373219663,
                -0.909205615750104,
                1.553082519904851,
                -0.6232365231465702,
                1.4841819096681503,
                3.1886122322844677
            ]
        },
        {
            "positions": [
                -2.8909123509165653,
                -0.8767775389139028,
                1.4532258009704209,
                -0.5550959002295124,
                1.3540762420833556,
                3.1833525771737357
            ]
        },
        {
            "positions": [
                -2.8652193286134677,
                -0.8443494620777015,
                1.3533690820359907,
                -0.4869552773124545,
                1.2239705744985612,
                3.178092922063003
            ]
        },
        {
            "positions": [
                -2.83952630631037,
                -0.8119213852415003,
                1.2535123631015608,
                -0.4188146543953967,
                1.0938649069137665,
                3.172833266952271
            ]
        },
        {
            "positions": [
                -2.8138332840072726,
                -0.7794933084052991,
                1.1536556441671306,
                -0.3506740314783389,
                0.9637592393289719,
                3.167573611841539
            ]
        },
        {
            "positions": [
                -2.788140261704175,
                -0.7470652315690978,
                1.0537989252327007,
                -0.28253340856128106,
                0.8336535717441773,
                3.1623139567308067
            ]
        },
        {
            "positions": [
                -2.7624472394010775,
                -0.7146371547328965,
                0.9539422062982704,
                -0.21439278564422315,
                0.7035479041593826,
                3.1570543016200747
            ]
        },
        {
            "positions": [
                -2.73675421709798,
                -0.6822090778966954,
                0.8540854873638404,
                -0.14625216272716535,
                0.5734422365745879,
                3.1517946465093423
            ]
        },
        {
            "positions": [
                -2.7110611947948824,
                -0.6497810010604941,
                0.7542287684294103,
                -0.07811153981010753,
                0.44333656898979334,
                3.1465349913986103
            ]
        }
    ]
}