{
    "goal": {
        "global_pose": {
            "orientation": {
                "w": 0.7031023480610252,
                "x": -0.7110244013736278,
                "y": 0.0077485991402295624,
                "z": 0.005598929693374583
            },
            "position": {
                "x": -0.8841497679147869,
                "y": 0.44412534475326537,
                "z": 0.3711530566215515
            }
        },
        "name": "move_to_auspresseinheit_D"
    },
    "id": "KPIECE_move_to_auspresseinheit_D_117",
    "joint_names": [
        "shoulder_pan_joint",
        "shoulder_lift_joint",
        "elbow_joint",
        "wrist_1_joint",
        "wrist_2_joint",
        "wrist_3_joint"
    ],
    "metrics": {
        "cart_traj_len": 3.6838476833063662,
        "distance_elbow_joint": 3.1765763649098853,
        "distance_shoulder_lift_joint": 1.402716451202957,
        "distance_shoulder_pan_joint": 2.797044523559182,
        "distance_wrist_1_joint": 1.3772077677499004,
        "distance_wrist_2_joint": 0.8841872642497067,
        "distance_wrist_3_joint": 3.119255079335935,
        "smoothness": 3.395976330703621e-16,
        "time": 0.081689137,
        "traj_len": 3.5716925191017728,
        "weighted_distance": 4.610519779990001
    },
    "planner": "KPIECE",
    "start": {
        "state": {
            "elbow_joint": 1.8268400409724999,
            "shoulder_lift_joint": -1.0144045787793008,
            "shoulder_pan_joint": 2.6280239544362485,
            "wrist_1_joint": -0.790705565816056,
            "wrist_2_joint": 1.0573557467365533,
            "wrist_3_joint": 3.1851377467193758
        }
    },
    "waypoints": [
        {
            "positions": [
                2.6280239544362485,
                -1.0144045787793008,
                1.8268400409724999,
                -0.790705565816056,
                1.0573557467365533,
                3.1851377467193758
            ]
        },
        {
            "positions": [
                2.610985030966253,
                -1.0198163305611598,
                1.6808768164011796,
                -0.6974194685335094,
                1.0109328065197722,
                3.1403754357496223
            ]
        },
        {
            "positions": [
                2.593946107496258,
                -1.0252280823430187,
                1.534913591829859,
                -0.6041333712509629,
                0.964509866302991,
                3.095613124779869
            ]
        },
        {
            "positions": [
                2.5048181501859617,
                -1.0701278548475102,
                1.441860368740593,
                -0.5657257721159691,
                0.9389827248895669,
                2.9978798842186936
            ]
        },
        {
            "positions": [
                2.415690192875665,
                -1.115027627352002,
                1.348807145651327,
                -0.5273181729809753,
                0.913455583476143,
                2.9001466436575187
            ]
        },
        {
            "positions": [
                2.3265622355653686,
                -1.1599273998564934,
                1.2557539225620613,
                -0.4889105738459815,
                0.8879284420627189,
                2.8024134030963435
            ]
        },
        {
            "positions": [
                2.237434278255072,
                -1.204827172360985,
                1.1627006994727953,
                -0.45050297471098777,
                0.8624013006492949,
                2.7046801625351686
            ]
        },
        {
            "positions": [
                2.1483063209447755,
                -1.2497269448654766,
                1.0696474763835293,
                -0.41209537557599396,
                0.8368741592358709,
                2.6069469219739934
            ]
        },
        {
            "positions": [
                2.059178363634479,
                -1.2946267173699681,
                0.9765942532942633,
                -0.37368777644100015,
                0.8113470178224469,
                2.5092136814128185
            ]
        },
        {
            "positions": [
                1.9700504063241824,
                -1.3395264898744599,
                0.8835410302049973,
                -0.33528017730600634,
                0.7858198764090228,
                2.4114804408516433
            ]
        },
        {
            "positions": [
                1.880922449013886,
                -1.3844262623789514,
                0.7904878071157313,
                -0.2968725781710126,
                0.7602927349955989,
                2.313747200290468
            ]
        },
        {
            "positions": [
                1.7917944917035895,
                -1.429326034883443,
                0.6974345840264653,
                -0.2584649790360187,
                0.7347655935821749,
                2.216013959729293
            ]
        },
        {
            "positions": [
                1.702666534393293,
                -1.4742258073879344,
                0.6043813609371994,
                -0.22005737990102497,
                0.7092384521687509,
                2.118280719168118
            ]
        },
        {
            "positions": [
                1.6135385770829966,
                -1.5191255798924261,
                0.5113281378479333,
                -0.18164978076603117,
                0.6837113107553268,
                2.020547478606943
            ]
        },
        {
            "positions": [
                1.5244106197727,
                -1.5640253523969176,
                0.4182749147586675,
                -0.1432421816310374,
                0.6581841693419028,
                1.9228142380457678
            ]
        },
        {
            "positions": [
                1.4352826624624035,
                -1.6089251249014094,
                0.3252216916694013,
                -0.1048345824960436,
                0.6326570279284788,
                1.8250809974845927
            ]
        },
        {
            "positions": [
                1.346154705152107,
                -1.6538248974059009,
                0.2321684685801355,
                -0.0664269833610498,
                0.6071298865150547,
                1.7273477569234177
            ]
        },
        {
            "positions": [
                1.2570267478418105,
                -1.6987246699103924,
                0.1391152454908695,
                -0.028019384226055988,
                0.5816027451016308,
                1.6296145163622424
            ]
        },
        {
            "positions": [
                1.1678987905315141,
                -1.743624442414884,
                0.04606202240160351,
                0.01038821490893771,
                0.5560756036882069,
                1.5318812758010676
            ]
        },
        {
            "positions": [
                1.0787708332212176,
                -1.7885242149193756,
                -0.04699120068766227,
                0.04879581404393152,
                0.5305484622747828,
                1.4341480352398925
            ]
        },
        {
            "positions": [
                0.989642875910921,
                -1.8334239874238674,
                -0.1400444237769285,
                0.08720341317892544,
                0.5050213208613588,
                1.3364147946787173
            ]
        },
        {
            "positions": [
                0.9005149186006245,
                -1.8783237599283589,
                -0.2330976468661945,
                0.12561101231391913,
                0.4794941794479347,
                1.2386815541175422
            ]
        },
        {
            "positions": [
                0.8113869612903282,
                -1.9232235324328504,
                -0.3261508699554603,
                0.16401861144891294,
                0.4539670380345108,
                1.1409483135563672
            ]
        },
        {
            "positions": [
                0.7222590039800316,
                -1.9681233049373419,
                -0.4192040930447263,
                0.20242621058390664,
                0.4284398966210867,
                1.0432150729951921
            ]
        },
        {
            "positions": [
                0.6331310466697351,
                -2.013023077441834,
                -0.5122573161339925,
                0.24083380971890056,
                0.4029127552076627,
                0.9454818324340168
            ]
        },
        {
            "positions": [
                0.5440030893594385,
                -2.0579228499463253,
                -0.6053105392232585,
                0.27924140885389426,
                0.37738561379423863,
                0.847748591872842
            ]
        },
        {
            "positions": [
                0.4548751320491422,
                -2.102822622450817,
                -0.6983637623125241,
                0.31764900798888807,
                0.3518584723808147,
                0.7500153513116667
            ]
        },
        {
            "positions": [
                0.3657471747388459,
                -2.1477223949553084,
                -0.7914169854017901,
                0.35605660712388176,
                0.32633133096739064,
                0.6522821107504919
            ]
        },
        {
            "positions": [
                0.2766192174285491,
                -2.1926221674598,
                -0.8844702084910565,
                0.3944642062588757,
                0.3008041895539666,
                0.5545488701893166
            ]
        },
        {
            "positions": [
                0.1874912601182528,
                -2.2375219399642914,
                -0.9775234315803221,
                0.4328718053938694,
                0.27527704814054266,
                0.4568156296281414
            ]
        },
        {
            "positions": [
                0.09836330280795602,
                -2.282421712468783,
                -1.070576654669588,
                0.4712794045288633,
                0.2497499067271186,
                0.35908238906696655
            ]
        },
        {
            "positions": [
                0.009235345497659697,
                -2.3273214849732744,
                -1.163629877758854,
                0.509687003663857,
                0.22422276531369467,
                0.2613491485057917
            ]
        },
        {
            "positions": [
                -0.07989261181263707,
                -2.3722212574777664,
                -1.25668310084812,
                0.5480946027988509,
                0.1986956239002705,
                0.163615907944616
            ]
        },
        {
            "positions": [
                -0.16902056912293326,
                -2.417121029982258,
                -1.349736323937386,
                0.5865022019338445,
                0.17316848248684658,
                0.06588266738344113
            ]
        }
    ]
}