{
    "goal": {
        "global_pose": {
            "orientation": {
                "w": 0.7031023480610252,
                "x": -0.7110244013736278,
                "y": 0.0077485991402295624,
                "z": 0.005598929693374583
            },
            "position": {
                "x": -0.8841497679147869,
                "y": 0.44412534475326537,
                "z": 0.3711530566215515
            }
        },
        "name": "move_to_auspresseinheit_D"
    },
    "id": "KPIECE_move_to_auspresseinheit_D_55",
    "joint_names": [
        "shoulder_pan_joint",
        "shoulder_lift_joint",
        "elbow_joint",
        "wrist_1_joint",
        "wrist_2_joint",
        "wrist_3_joint"
    ],
    "metrics": {
        "cart_traj_len": 3.9768186769312766,
        "distance_elbow_joint": 3.1986703034246045,
        "distance_shoulder_lift_joint": 1.3893167859403586,
        "distance_shoulder_pan_joint": 2.7965798695479314,
        "distance_wrist_1_joint": 1.6225832188575833,
        "distance_wrist_2_joint": 1.8740290709026777,
        "distance_wrist_3_joint": 3.063409630243696,
        "smoothness": 0.13364802342743437,
        "time": 0.219044349,
        "traj_len": 3.7342454229625632,
        "weighted_distance": 4.854690559568603
    },
    "planner": "KPIECE",
    "start": {
        "state": {
            "elbow_joint": 1.8268400409724999,
            "shoulder_lift_joint": -1.0144045787793008,
            "shoulder_pan_joint": 2.6280239544362485,
            "wrist_1_joint": -0.790705565816056,
            "wrist_2_joint": 1.0573557467365533,
            "wrist_3_joint": 3.1851377467193758
        }
    },
    "waypoints": [
        {
            "positions": [
                2.6280239544362485,
                -1.0144045787793008,
                1.8268400409724999,
                -0.790705565816056,
                1.0573557467365533,
                3.1851377467193758
            ]
        },
        {
            "positions": [
                2.587150311194692,
                -1.054540393914714,
                1.7143062834459173,
                -0.8045748974409961,
                1.101949815779251,
                3.046614363553004
            ]
        },
        {
            "positions": [
                2.5462766679531352,
                -1.0946762090501272,
                1.6017725259193347,
                -0.8184442290659362,
                1.1465438848219491,
                2.9080909803866324
            ]
        },
        {
            "positions": [
                2.505403024711579,
                -1.1348120241855402,
                1.4892387683927524,
                -0.8323135606908763,
                1.191137953864647,
                2.7695675972202607
            ]
        },
        {
            "positions": [
                2.4645293814700224,
                -1.1749478393209534,
                1.3767050108661698,
                -0.8461828923158163,
                1.235732022907345,
                2.631044214053889
            ]
        },
        {
            "positions": [
                2.4236557382284656,
                -1.2150836544563666,
                1.2641712533395872,
                -0.8600522239407564,
                1.2803260919500428,
                2.4925208308875173
            ]
        },
        {
            "positions": [
                2.382782094986909,
                -1.2552194695917798,
                1.151637495813005,
                -0.8739215555656965,
                1.3249201609927406,
                2.3539974477211456
            ]
        },
        {
            "positions": [
                2.3419084517453523,
                -1.295355284727193,
                1.039103738286422,
                -0.8877908871906366,
                1.3695142300354384,
                2.215474064554774
            ]
        },
        {
            "positions": [
                2.301034808503796,
                -1.335491099862606,
                0.9265699807598397,
                -0.9016602188155767,
                1.4141082990781364,
                2.0769506813884018
            ]
        },
        {
            "positions": [
                2.2601611652622395,
                -1.3756269149980191,
                0.814036223233257,
                -0.9155295504405168,
                1.4587023681208344,
                1.9384272982220303
            ]
        },
        {
            "positions": [
                2.2192875220206827,
                -1.4157627301334323,
                0.7015024657066746,
                -0.9293988820654568,
                1.5032964371635322,
                1.7999039150556586
            ]
        },
        {
            "positions": [
                2.1784138787791263,
                -1.4558985452688455,
                0.5889687081800921,
                -0.9432682136903969,
                1.54789050620623,
                1.661380531889287
            ]
        },
        {
            "positions": [
                2.084535087023494,
                -1.4938114580468782,
                0.5105367493548041,
                -0.8844673908510673,
                1.49255073374891,
                1.5997944352727427
            ]
        },
        {
            "positions": [
                1.9906562952678615,
                -1.5317243708249106,
                0.4321047905295162,
                -0.8256665680117375,
                1.43721096129159,
                1.5382083386561982
            ]
        },
        {
            "positions": [
                1.8967775035122292,
                -1.5696372836029433,
                0.35367283170422825,
                -0.7668657451724079,
                1.3818711888342698,
                1.476622242039654
            ]
        },
        {
            "positions": [
                1.8028987117565967,
                -1.6075501963809757,
                0.27524087287894033,
                -0.7080649223330782,
                1.32653141637695,
                1.4150361454231095
            ]
        },
        {
            "positions": [
                1.7090199200009644,
                -1.6454631091590084,
                0.19680891405365242,
                -0.6492640994937484,
                1.2711916439196298,
                1.3534500488065653
            ]
        },
        {
            "positions": [
                1.615141128245332,
                -1.6833760219370408,
                0.1183769552283645,
                -0.5904632766544189,
                1.2158518714623097,
                1.291863952190021
            ]
        },
        {
            "positions": [
                1.5212623364896996,
                -1.7212889347150735,
                0.03994499640307647,
                -0.5316624538150891,
                1.1605120990049898,
                1.2302778555734766
            ]
        },
        {
            "positions": [
                1.427383544734067,
                -1.759201847493106,
                -0.03848696242221139,
                -0.47286163097575945,
                1.1051723265476696,
                1.1686917589569323
            ]
        },
        {
            "positions": [
                1.3335047529784347,
                -1.7971147602711386,
                -0.11691892124749925,
                -0.41406080813642976,
                1.0498325540903497,
                1.107105662340388
            ]
        },
        {
            "positions": [
                1.2396259612228024,
                -1.835027673049171,
                -0.19535088007278723,
                -0.3552599852971,
                0.9944927816330296,
                1.0455195657238436
            ]
        },
        {
            "positions": [
                1.1457471694671701,
                -1.8729405858272037,
                -0.2737828388980752,
                -0.2964591624577704,
                0.9391530091757095,
                0.9839334691072993
            ]
        },
        {
            "positions": [
                1.0518683777115376,
                -1.9108534986052361,
                -0.35221479772336306,
                -0.23765833961844074,
                0.8838132367183895,
                0.922347372490755
            ]
        },
        {
            "positions": [
                0.9579895859559053,
                -1.9487664113832688,
                -0.43064675654865114,
                -0.178857516779111,
                0.8284734642610694,
                0.8607612758742106
            ]
        },
        {
            "positions": [
                0.8641107942002728,
                -1.9866793241613014,
                -0.5090787153739391,
                -0.12005669393978124,
                0.7731336918037494,
                0.7991751792576662
            ]
        },
        {
            "positions": [
                0.7702320024446405,
                -2.0245922369393337,
                -0.5875106741992269,
                -0.06125587110045172,
                0.7177939193464293,
                0.737589082641122
            ]
        },
        {
            "positions": [
                0.676353210689008,
                -2.0625051497173663,
                -0.6659426330245148,
                -0.0024550482611219726,
                0.6624541468891093,
                0.6760029860245776
            ]
        },
        {
            "positions": [
                0.5824744189333757,
                -2.100418062495399,
                -0.7443745918498028,
                0.056345774578207775,
                0.6071143744317892,
                0.6144168894080333
            ]
        },
        {
            "positions": [
                0.4885956271777434,
                -2.1383309752734316,
                -0.8228065506750906,
                0.11514659741753741,
                0.5517746019744693,
                0.5528307927914891
            ]
        },
        {
            "positions": [
                0.3947168354221109,
                -2.176243888051464,
                -0.9012385095003785,
                0.17394742025686716,
                0.49643482951714923,
                0.4912446961749446
            ]
        },
        {
            "positions": [
                0.3008380436664786,
                -2.2141568008294965,
                -0.9796704683256665,
                0.2327482430961969,
                0.4410950570598291,
                0.42965859955840036
            ]
        },
        {
            "positions": [
                0.2069592519108463,
                -2.252069713607529,
                -1.0581024271509545,
                0.29154906593552643,
                0.3857552846025092,
                0.3680725029418561
            ]
        },
        {
            "positions": [
                0.113080460155214,
                -2.289982626385562,
                -1.1365343859762425,
                0.3503498887748562,
                0.33041551214518905,
                0.30648640632531166
            ]
        },
        {
            "positions": [
                0.019201668399581262,
                -2.3278955391635945,
                -1.2149663448015304,
                0.4091507116141859,
                0.2750757396878689,
                0.24490030970876742
            ]
        },
        {
            "positions": [
                -0.07467712335605103,
                -2.3658084519416267,
                -1.2933983036268182,
                0.46795153445351545,
                0.219735967230549,
                0.18331421309222318
            ]
        },
        {
            "positions": [
                -0.16855591511168327,
                -2.4037213647196594,
                -1.3718302624521062,
                0.5267523572928452,
                0.16439619477322884,
                0.12172811647567865
            ]
        }
    ]
}