{
    "goal": {
        "global_pose": {
            "orientation": {
                "w": 0.7047431468963623,
                "x": -0.7094548344612122,
                "y": 0.0024358443915843964,
                "z": -0.0022348060738295317
            },
            "position": {
                "x": 0.6094750761985779,
                "y": 0.3671506643295288,
                "z": 0.19426114857196808
            }
        },
        "name": "move_to_magneteinheit_A"
    },
    "id": "KPIECE_move_to_magneteinheit_A_27",
    "joint_names": [
        "shoulder_pan_joint",
        "shoulder_lift_joint",
        "elbow_joint",
        "wrist_1_joint",
        "wrist_2_joint",
        "wrist_3_joint"
    ],
    "metrics": {
        "cart_traj_len": 1.0538460881425673,
        "distance_elbow_joint": 0.38417474550232833,
        "distance_shoulder_lift_joint": 0.36622529385519975,
        "distance_shoulder_pan_joint": 1.241811049374742,
        "distance_wrist_1_joint": 2.2149076144408166,
        "distance_wrist_2_joint": 1.6979019665133652,
        "distance_wrist_3_joint": 1.2159476660035047,
        "smoothness": 9.349246597189412e-17,
        "time": 0.146154715,
        "traj_len": 2.668514256227603,
        "weighted_distance": 3.6695603617669446
    },
    "planner": "KPIECE",
    "start": {
        "state": {
            "elbow_joint": 1.5739458966750683,
            "shoulder_lift_joint": -1.4977259741207325,
            "shoulder_pan_joint": -1.1188672016454206,
            "wrist_1_joint": 1.494575848278785,
            "wrist_2_joint": -1.5706037134824402,
            "wrist_3_joint": -2.0226957942261072
        }
    },
    "waypoints": [
        {
            "positions": [
                -1.1188672016454206,
                -1.4977259741207325,
                1.5739458966750683,
                1.494575848278785,
                -1.5706037134824402,
                -2.0226957942261072
            ]
        },
        {
            "positions": [
                -1.0498776989023795,
                -1.4773801244621103,
                1.5952889380918645,
                1.3715254252542952,
                -1.47627582645392,
                -2.0902484423374132
            ]
        },
        {
            "positions": [
                -0.9808881961593382,
                -1.4570342748034881,
                1.6166319795086603,
                1.2484750022298055,
                -1.3819479394253997,
                -2.157801090448719
            ]
        },
        {
            "positions": [
                -0.9118986934162969,
                -1.436688425144866,
                1.6379750209254564,
                1.1254245792053155,
                -1.2876200523968793,
                -2.225353738560025
            ]
        },
        {
            "positions": [
                -0.8429091906732558,
                -1.4163425754862438,
                1.6593180623422523,
                1.0023741561808257,
                -1.193292165368359,
                -2.2929063866713304
            ]
        },
        {
            "positions": [
                -0.7739196879302145,
                -1.3959967258276214,
                1.6806611037590484,
                0.8793237331563359,
                -1.0989642783398388,
                -2.3604590347826364
            ]
        },
        {
            "positions": [
                -0.7049301851871733,
                -1.3756508761689992,
                1.7020041451758445,
                0.7562733101318462,
                -1.0046363913113185,
                -2.428011682893942
            ]
        },
        {
            "positions": [
                -0.635940682444132,
                -1.355305026510377,
                1.7233471865926404,
                0.6332228871073563,
                -0.9103085042827982,
                -2.495564331005248
            ]
        },
        {
            "positions": [
                -0.5669511797010909,
                -1.3349591768517548,
                1.7446902280094365,
                0.5101724640828665,
                -0.815980617254278,
                -2.563116979116554
            ]
        },
        {
            "positions": [
                -0.4979616769580496,
                -1.3146133271931326,
                1.7660332694262326,
                0.38712204105837666,
                -0.7216527302257576,
                -2.6306696272278596
            ]
        },
        {
            "positions": [
                -0.42897217421500833,
                -1.2942674775345104,
                1.7873763108430285,
                0.2640716180338869,
                -0.6273248431972372,
                -2.698222275339165
            ]
        },
        {
            "positions": [
                -0.35998267147196705,
                -1.2739216278758883,
                1.8087193522598246,
                0.14102119500939692,
                -0.5329969561687169,
                -2.765774923450471
            ]
        },
        {
            "positions": [
                -0.290993168728926,
                -1.253575778217266,
                1.8300623936766205,
                0.017970771984907374,
                -0.4386690691401969,
                -2.833327571561777
            ]
        },
        {
            "positions": [
                -0.22200366598588472,
                -1.2332299285586439,
                1.8514054350934166,
                -0.10507965103958261,
                -0.3443411821116764,
                -2.9008802196730827
            ]
        },
        {
            "positions": [
                -0.15301416324284345,
                -1.2128840789000215,
                1.8727484765102127,
                -0.22813007406407237,
                -0.2500132950831562,
                -2.9684328677843888
            ]
        },
        {
            "positions": [
                -0.08402466049980228,
                -1.1925382292413993,
                1.8940915179270086,
                -0.35118049708856236,
                -0.1556854080546357,
                -3.0359855158956943
            ]
        },
        {
            "positions": [
                -0.01503515775676112,
                -1.1721923795827771,
                1.9154345593438047,
                -0.4742309201130519,
                -0.06135752102611569,
                -3.1035381640070003
            ]
        },
        {
            "positions": [
                0.05395434498628027,
                -1.151846529924155,
                1.9367776007606006,
                -0.5972813431375419,
                0.03297036600240477,
                -3.1710908121183063
            ]
        },
        {
            "positions": [
                0.12294384772932133,
                -1.1315006802655327,
                1.9581206421773967,
                -0.7203317661620314,
                0.127298253030925,
                -3.238643460229612
            ]
        }
    ]
}