{
    "goal": {
        "global_pose": {
            "orientation": {
                "w": 0.7047431468963623,
                "x": -0.7094548344612122,
                "y": 0.0024358443915843964,
                "z": -0.0022348060738295317
            },
            "position": {
                "x": 0.6094750761985779,
                "y": 0.3671506643295288,
                "z": 0.19426114857196808
            }
        },
        "name": "move_to_magneteinheit_A"
    },
    "id": "KPIECE_move_to_magneteinheit_A_83",
    "joint_names": [
        "shoulder_pan_joint",
        "shoulder_lift_joint",
        "elbow_joint",
        "wrist_1_joint",
        "wrist_2_joint",
        "wrist_3_joint"
    ],
    "metrics": {
        "cart_traj_len": 1.0534108344511204,
        "distance_elbow_joint": 0.3783390434145233,
        "distance_shoulder_lift_joint": 0.3697493867171844,
        "distance_shoulder_pan_joint": 1.2401977199145156,
        "distance_wrist_1_joint": 2.188789964079911,
        "distance_wrist_2_joint": 1.6969470973201175,
        "distance_wrist_3_joint": 1.255111612119463,
        "smoothness": 2.3373116361120943e-16,
        "time": 0.037710949,
        "traj_len": 2.6700439740883883,
        "weighted_distance": 3.677648040419946
    },
    "planner": "KPIECE",
    "start": {
        "state": {
            "elbow_joint": 1.5739458966750683,
            "shoulder_lift_joint": -1.4977259741207325,
            "shoulder_pan_joint": -1.1188672016454206,
            "wrist_1_joint": 1.494575848278785,
            "wrist_2_joint": -1.5706037134824402,
            "wrist_3_joint": -2.0226957942261072
        }
    },
    "waypoints": [
        {
            "positions": [
                -1.1188672016454206,
                -1.4977259741207325,
                1.5739458966750683,
                1.494575848278785,
                -1.5706037134824402,
                -2.0226957942261072
            ]
        },
        {
            "positions": [
                -1.0499673283168365,
                -1.4771843415253334,
                1.5949647324203196,
                1.372976405829901,
                -1.4763288747424337,
                -2.092424217121633
            ]
        },
        {
            "positions": [
                -0.9810674549882523,
                -1.4566427089299343,
                1.615983568165571,
                1.2513769633810172,
                -1.3820540360024272,
                -2.1621526400171587
            ]
        },
        {
            "positions": [
                -0.912167581659668,
                -1.436101076334535,
                1.6370024039108222,
                1.1297775209321332,
                -1.2877791972624206,
                -2.2318810629126844
            ]
        },
        {
            "positions": [
                -0.8432677083310839,
                -1.415559443739136,
                1.6580212396560736,
                1.0081780784832493,
                -1.193504358522414,
                -2.30160948580821
            ]
        },
        {
            "positions": [
                -0.7743678350024996,
                -1.3950178111437368,
                1.6790400754013248,
                0.8865786360343653,
                -1.0992295197824076,
                -2.371337908703736
            ]
        },
        {
            "positions": [
                -0.7054679616739155,
                -1.3744761785483377,
                1.700058911146576,
                0.7649791935854814,
                -1.004954681042401,
                -2.4410663315992616
            ]
        },
        {
            "positions": [
                -0.6365680883453313,
                -1.3539345459529386,
                1.7210777468918275,
                0.6433797511365974,
                -0.9106798423023945,
                -2.5107947544947873
            ]
        },
        {
            "positions": [
                -0.5676682150167471,
                -1.3333929133575395,
                1.7420965826370787,
                0.5217803086877135,
                -0.816405003562388,
                -2.580523177390313
            ]
        },
        {
            "positions": [
                -0.49876834168816286,
                -1.3128512807621404,
                1.76311541838233,
                0.40018086623882954,
                -0.7221301648223815,
                -2.6502516002858387
            ]
        },
        {
            "positions": [
                -0.4298684683595786,
                -1.292309648166741,
                1.7841342541275813,
                0.27858142378994555,
                -0.6278553260823749,
                -2.7199800231813644
            ]
        },
        {
            "positions": [
                -0.36096859503099443,
                -1.271768015571342,
                1.8051530898728325,
                0.15698198134106156,
                -0.5335804873423684,
                -2.78970844607689
            ]
        },
        {
            "positions": [
                -0.29206872170241027,
                -1.251226382975943,
                1.826171925618084,
                0.035382538892177795,
                -0.4393056486023619,
                -2.859436868972416
            ]
        },
        {
            "positions": [
                -0.2231688483738261,
                -1.2306847503805438,
                1.8471907613633352,
                -0.08621690355670619,
                -0.34503080986235535,
                -2.9291652918679416
            ]
        },
        {
            "positions": [
                -0.15426897504524184,
                -1.2101431177851447,
                1.8682095971085864,
                -0.20781634600559018,
                -0.2507559711223488,
                -2.9988937147634673
            ]
        },
        {
            "positions": [
                -0.08536910171665757,
                -1.1896014851897454,
                1.8892284328538378,
                -0.32941578845447417,
                -0.1564811323823423,
                -3.068622137658993
            ]
        },
        {
            "positions": [
                -0.01646922838807363,
                -1.1690598525943465,
                1.910247268599089,
                -0.45101523090335793,
                -0.062206293642335764,
                -3.1383505605545188
            ]
        },
        {
            "positions": [
                0.05243064494051075,
                -1.1485182199989472,
                1.9312661043443402,
                -0.5726146733522419,
                0.032068545097670764,
                -3.2080789834500445
            ]
        },
        {
            "positions": [
                0.12133051826909483,
                -1.1279765874035481,
                1.9522849400895916,
                -0.6942141158011258,
                0.1263433838376772,
                -3.27780740634557
            ]
        }
    ]
}