{
    "goal": {
        "global_pose": {
            "orientation": {
                "w": 0.7031023502349854,
                "x": -0.7110244035720825,
                "y": 0.007748599164187908,
                "z": 0.005598929710686207
            },
            "position": {
                "x": 0.11585023208521307,
                "y": 0.44412534475326537,
                "z": 0.3711530566215515
            }
        },
        "name": "move_to_auspresseinheit_A"
    },
    "id": "KPIECE_move_to_auspresseinheit_A_118",
    "joint_names": [
        "shoulder_pan_joint",
        "shoulder_lift_joint",
        "elbow_joint",
        "wrist_1_joint",
        "wrist_2_joint",
        "wrist_3_joint"
    ],
    "metrics": {
        "cart_traj_len": 0.6832520585916333,
        "distance_elbow_joint": 0.23805177352106632,
        "distance_shoulder_lift_joint": 0.5320973749724305,
        "distance_shoulder_pan_joint": 1.042913337322075,
        "distance_wrist_1_joint": 2.028753004842453,
        "distance_wrist_2_joint": 1.793325286435381,
        "distance_wrist_3_joint": 2.794604225790635,
        "smoothness": 1.0667824894924822,
        "time": 0.203930464,
        "traj_len": 2.903402315023538,
        "weighted_distance": 4.2238645510649535
    },
    "planner": "KPIECE",
    "start": {
        "state": {
            "elbow_joint": 2.4225747245308327,
            "shoulder_lift_joint": -1.373653427065438,
            "shoulder_pan_joint": -0.33786330853087027,
            "wrist_1_joint": -1.0288602302712604,
            "wrist_2_joint": 1.23302299562683,
            "wrist_3_joint": -3.094021725338297
        }
    },
    "waypoints": [
        {
            "positions": [
                -0.33786330853087027,
                -1.373653427065438,
                2.4225747245308327,
                -1.0288602302712604,
                1.23302299562683,
                -3.094021725338297
            ]
        },
        {
            "positions": [
                -0.31169468058273886,
                -1.3802179135871218,
                2.4102628318786277,
                -0.9108235742194236,
                1.127211332643031,
                -2.969239321961358
            ]
        },
        {
            "positions": [
                -0.28552605263460745,
                -1.3867824001088054,
                2.397950939226423,
                -0.7927869181675868,
                1.021399669659232,
                -2.844456918584419
            ]
        },
        {
            "positions": [
                -0.25935742468647605,
                -1.3933468866304892,
                2.385639046574218,
                -0.6747502621157501,
                0.9155880066754332,
                -2.7196745152074797
            ]
        },
        {
            "positions": [
                -0.23318879673834458,
                -1.399911373152173,
                2.373327153922013,
                -0.5567136060639133,
                0.8097763436916341,
                -2.5948921118305406
            ]
        },
        {
            "positions": [
                -0.20702016879021318,
                -1.4064758596738567,
                2.3610152612698085,
                -0.4386769500120765,
                0.7039646807078352,
                -2.4701097084536014
            ]
        },
        {
            "positions": [
                -0.18085154084208177,
                -1.4130403461955405,
                2.3487033686176035,
                -0.32064029396023974,
                0.5981530177240363,
                -2.3453273050766623
            ]
        },
        {
            "positions": [
                -0.15468291289395036,
                -1.4196048327172242,
                2.336391475965399,
                -0.20260363790840286,
                0.4923413547402373,
                -2.220544901699723
            ]
        },
        {
            "positions": [
                -0.12851428494581893,
                -1.426169319238908,
                2.324079583313194,
                -0.08456698185656608,
                0.38652969175643836,
                -2.095762498322784
            ]
        },
        {
            "positions": [
                -0.1023456569976875,
                -1.4327338057605918,
                2.311767690660989,
                0.03346967419527069,
                0.2807180287726393,
                -1.970980094945845
            ]
        },
        {
            "positions": [
                -0.07617702904955609,
                -1.4392982922822755,
                2.2994557980087844,
                0.15150633024710736,
                0.17490636578884056,
                -1.8461976915689058
            ]
        },
        {
            "positions": [
                -0.05000840110142468,
                -1.4458627788039593,
                2.2871439053565794,
                0.26954298629894424,
                0.06909470280504147,
                -1.7214152881919667
            ]
        },
        {
            "positions": [
                0.018633274343359818,
                -1.487670780916133,
                2.2964730830244715,
                0.20314755100146717,
                0.12631261131536808,
                -1.850687814432358
            ]
        },
        {
            "positions": [
                0.08727494978814432,
                -1.5294787830283063,
                2.3058022606923636,
                0.1367521157039901,
                0.1835305198256947,
                -1.9799603406727493
            ]
        },
        {
            "positions": [
                0.1559166252329288,
                -1.57128678514048,
                2.3151314383602557,
                0.07035668040651302,
                0.24074842833602134,
                -2.109232866913141
            ]
        },
        {
            "positions": [
                0.22455830067771332,
                -1.6130947872526535,
                2.324460616028148,
                0.003961245109035949,
                0.29796633684634793,
                -2.238505393153532
            ]
        },
        {
            "positions": [
                0.2931999761224978,
                -1.6549027893648272,
                2.33378979369604,
                -0.06243419018844115,
                0.3551842453566746,
                -2.3677779193939235
            ]
        },
        {
            "positions": [
                0.36184165156728226,
                -1.6967107914770005,
                2.343118971363932,
                -0.1288296254859182,
                0.4124021538670012,
                -2.4970504456343146
            ]
        },
        {
            "positions": [
                0.4304833270120668,
                -1.7385187935891742,
                2.352448149031824,
                -0.1952250607833953,
                0.4696200623773278,
                -2.626322971874706
            ]
        },
        {
            "positions": [
                0.4991250024568513,
                -1.7803267957013478,
                2.361777326699716,
                -0.26162049608087234,
                0.5268379708876544,
                -2.755595498115097
            ]
        },
        {
            "positions": [
                0.5677666779016358,
                -1.8221347978135214,
                2.3711065043676083,
                -0.3280159313783495,
                0.5840558793979811,
                -2.8848680243554887
            ]
        },
        {
            "positions": [
                0.6364083533464203,
                -1.8639427999256948,
                2.3804356820355004,
                -0.39441136667582655,
                0.6412737879083077,
                -3.0141405505958803
            ]
        },
        {
            "positions": [
                0.7050500287912048,
                -1.9057508020378684,
                2.3897648597033925,
                -0.46080680197330354,
                0.6984916964186343,
                -3.1434130768362714
            ]
        }
    ]
}