{
    "goal": {
        "global_pose": {
            "orientation": {
                "w": -0.4816463035849501,
                "x": 0.5182115481033762,
                "y": 0.4908360881923453,
                "z": -0.5084816262002911
            },
            "position": {
                "x": -0.8240239810943604,
                "y": 0.19912469901144506,
                "z": 0.16403168439865112
            }
        },
        "name": "move_to_storage_D"
    },
    "id": "KPIECE_move_to_storage_D_75",
    "joint_names": [
        "shoulder_pan_joint",
        "shoulder_lift_joint",
        "elbow_joint",
        "wrist_1_joint",
        "wrist_2_joint",
        "wrist_3_joint"
    ],
    "metrics": {
        "cart_traj_len": 3.8641439271484255,
        "distance_elbow_joint": 4.214974297240854,
        "distance_shoulder_lift_joint": 1.2646370893606635,
        "distance_shoulder_pan_joint": 2.8133495809598603,
        "distance_wrist_1_joint": 2.412359994565934,
        "distance_wrist_2_joint": 1.1164664982830366,
        "distance_wrist_3_joint": 3.273009611536053,
        "smoothness": 0.16379000059509632,
        "time": 0.18406783599999998,
        "traj_len": 3.8852023205936654,
        "weighted_distance": 5.016935597341017
    },
    "planner": "KPIECE",
    "start": {
        "state": {
            "elbow_joint": -2.384821997420982,
            "shoulder_lift_joint": -2.2788054674887404,
            "shoulder_pan_joint": -0.18546946417610016,
            "wrist_1_joint": 1.4845937964226739,
            "wrist_2_joint": 0.1789877726866377,
            "wrist_3_joint": 0.03710572555276528
        }
    },
    "waypoints": [
        {
            "positions": [
                -0.18546946417610016,
                -2.2788054674887404,
                -2.384821997420982,
                1.4845937964226739,
                0.1789877726866377,
                0.03710572555276528
            ]
        },
        {
            "positions": [
                -0.14383351746308973,
                -2.244216262587544,
                -2.3790911521830953,
                1.4149278060077068,
                0.11981764670518853,
                0.006513137962118935
            ]
        },
        {
            "positions": [
                -0.10219757075007929,
                -2.2096270576863475,
                -2.3733603069452083,
                1.3452618155927398,
                0.06064752072373935,
                -0.024079449628527403
            ]
        },
        {
            "positions": [
                -0.027636449291505827,
                -2.178430611066543,
                -2.259366424566533,
                1.2761791221527825,
                0.08231411722401495,
                0.057545499635016054
            ]
        },
        {
            "positions": [
                0.04692467216706764,
                -2.147234164446738,
                -2.1453725421878573,
                1.2070964287128252,
                0.10398071372429055,
                0.1391704488985595
            ]
        },
        {
            "positions": [
                0.1214857936256411,
                -2.116037717826934,
                -2.031378659809182,
                1.1380137352728679,
                0.12564731022456616,
                0.22079539816210295
            ]
        },
        {
            "positions": [
                0.19604691508421457,
                -2.084841271207129,
                -1.9173847774305068,
                1.0689310418329105,
                0.14731390672484176,
                0.3024203474256464
            ]
        },
        {
            "positions": [
                0.27060803654278803,
                -2.0536448245873244,
                -1.8033908950518316,
                0.9998483483929531,
                0.16898050322511737,
                0.38404529668918985
            ]
        },
        {
            "positions": [
                0.3451691580013615,
                -2.0224483779675198,
                -1.6893970126731561,
                0.9307656549529957,
                0.19064709972539295,
                0.46567024595273326
            ]
        },
        {
            "positions": [
                0.4197302794599349,
                -1.9912519313477153,
                -1.5754031302944806,
                0.8616829615130384,
                0.21231369622566856,
                0.5472951952162768
            ]
        },
        {
            "positions": [
                0.49429140091850843,
                -1.9600554847279106,
                -1.4614092479158054,
                0.792600268073081,
                0.23398029272594417,
                0.6289201444798203
            ]
        },
        {
            "positions": [
                0.568852522377082,
                -1.928859038108106,
                -1.3474153655371301,
                0.7235175746331237,
                0.25564688922621975,
                0.7105450937433637
            ]
        },
        {
            "positions": [
                0.6434136438356554,
                -1.8976625914883014,
                -1.2334214831584547,
                0.6544348811931664,
                0.2773134857264954,
                0.7921700430069072
            ]
        },
        {
            "positions": [
                0.7179747652942288,
                -1.8664661448684967,
                -1.1194276007797792,
                0.585352187753209,
                0.29898008222677097,
                0.8737949922704507
            ]
        },
        {
            "positions": [
                0.7925358867528023,
                -1.835269698248692,
                -1.005433718401104,
                0.5162694943132516,
                0.32064667872704655,
                0.955419941533994
            ]
        },
        {
            "positions": [
                0.8670970082113758,
                -1.8040732516288875,
                -0.8914398360224287,
                0.4471868008732943,
                0.3423132752273222,
                1.0370448907975374
            ]
        },
        {
            "positions": [
                0.9416581296699491,
                -1.7728768050090828,
                -0.7774459536437532,
                0.3781041074333369,
                0.36397987172759777,
                1.1186698400610808
            ]
        },
        {
            "positions": [
                1.0162192511285226,
                -1.7416803583892784,
                -0.6634520712650778,
                0.30902141399337957,
                0.3856464682278734,
                1.2002947893246243
            ]
        },
        {
            "positions": [
                1.0907803725870961,
                -1.7104839117694737,
                -0.5494581888864025,
                0.23993872055342225,
                0.407313064728149,
                1.2819197385881678
            ]
        },
        {
            "positions": [
                1.1653414940456697,
                -1.679287465149669,
                -0.4354643065077273,
                0.17085602711346493,
                0.42897966122842457,
                1.3635446878517112
            ]
        },
        {
            "positions": [
                1.2399026155042432,
                -1.6480910185298645,
                -0.321470424129052,
                0.1017733336735076,
                0.4506462577287002,
                1.4451696371152547
            ]
        },
        {
            "positions": [
                1.3144637369628165,
                -1.6168945719100598,
                -0.20747654175037633,
                0.03269064023355028,
                0.4723128542289758,
                1.5267945863787982
            ]
        },
        {
            "positions": [
                1.38902485842139,
                -1.5856981252902553,
                -0.09348265937170108,
                -0.03639205320640704,
                0.4939794507292514,
                1.6084195356423416
            ]
        },
        {
            "positions": [
                1.4635859798799635,
                -1.5545016786704506,
                0.020511223006974166,
                -0.10547474664636458,
                0.515646047229527,
                1.690044484905885
            ]
        },
        {
            "positions": [
                1.5381471013385368,
                -1.523305232050646,
                0.13450510538564986,
                -0.1745574400863219,
                0.5373126437298026,
                1.7716694341694286
            ]
        },
        {
            "positions": [
                1.6127082227971103,
                -1.4921087854308412,
                0.2484989877643251,
                -0.24364013352627922,
                0.5589792402300782,
                1.853294383432972
            ]
        },
        {
            "positions": [
                1.6872693442556839,
                -1.4609123388110368,
                0.36249287014300036,
                -0.31272282696623654,
                0.5806458367303537,
                1.9349193326965153
            ]
        },
        {
            "positions": [
                1.7618304657142574,
                -1.4297158921912323,
                0.4764867525216756,
                -0.38180552040619387,
                0.6023124332306294,
                2.016544281960059
            ]
        },
        {
            "positions": [
                1.836391587172831,
                -1.3985194455714276,
                0.5904806349003509,
                -0.4508882138461512,
                0.623979029730905,
                2.0981692312236024
            ]
        },
        {
            "positions": [
                1.9109527086314044,
                -1.367322998951623,
                0.7044745172790265,
                -0.5199709072861085,
                0.6456456262311806,
                2.179794180487146
            ]
        },
        {
            "positions": [
                1.9855138300899775,
                -1.3361265523318182,
                0.8184683996577018,
                -0.589053600726066,
                0.6673122227314562,
                2.2614191297506894
            ]
        },
        {
            "positions": [
                2.0600749515485512,
                -1.3049301057120137,
                0.932462282036377,
                -0.6581362941660234,
                0.6889788192317318,
                2.343044079014233
            ]
        },
        {
            "positions": [
                2.1346360730071243,
                -1.273733659092209,
                1.0464561644150527,
                -0.7272189876059807,
                0.7106454157320075,
                2.4246690282777763
            ]
        },
        {
            "positions": [
                2.2091971944656983,
                -1.2425372124724046,
                1.160450046793728,
                -0.796301681045938,
                0.732312012232283,
                2.5062939775413198
            ]
        },
        {
            "positions": [
                2.2837583159242714,
                -1.2113407658525999,
                1.2744439291724032,
                -0.8653843744858954,
                0.7539786087325586,
                2.5879189268048632
            ]
        },
        {
            "positions": [
                2.3411119494008528,
                -1.178478701231846,
                1.3670619909469814,
                -0.8549874038763347,
                0.804777801784445,
                2.687889936791758
            ]
        },
        {
            "positions": [
                2.3984655828774346,
                -1.1456166366110923,
                1.4596800527215597,
                -0.8445904332667739,
                0.8555769948363315,
                2.787860946778653
            ]
        },
        {
            "positions": [
                2.455819216354016,
                -1.1127545719903384,
                1.5522981144961379,
                -0.8341934626572132,
                0.9063761878882179,
                2.887831956765548
            ]
        },
        {
            "positions": [
                2.5131728498305974,
                -1.0798925073695844,
                1.644916176270716,
                -0.8237964920476524,
                0.9571753809401043,
                2.9878029667524424
            ]
        },
        {
            "positions": [
                2.5705264833071793,
                -1.0470304427488306,
                1.7375342380452945,
                -0.8133995214380916,
                1.0079745739919908,
                3.0877739767393373
            ]
        },
        {
            "positions": [
                2.6278801167837607,
                -1.0141683781280768,
                1.8301522998198727,
                -0.8030025508285308,
                1.0587737670438773,
                3.187744986726232
            ]
        }
    ]
}