{
    "goal": {
        "global_pose": {
            "orientation": {
                "w": -0.00223480608172531,
                "x": 0.0024358444001904467,
                "y": 0.7094548369677653,
                "z": -0.704743149386269
            },
            "position": {
                "x": -0.37947507619857795,
                "y": -0.6371506643295288,
                "z": 0.19426114857196808
            }
        },
        "name": "move_to_magneteinheit_C"
    },
    "id": "KPIECE_move_to_magneteinheit_C_128",
    "joint_names": [
        "shoulder_pan_joint",
        "shoulder_lift_joint",
        "elbow_joint",
        "wrist_1_joint",
        "wrist_2_joint",
        "wrist_3_joint"
    ],
    "metrics": {
        "cart_traj_len": 1.4839003876017494,
        "distance_elbow_joint": 0.33806018137235583,
        "distance_shoulder_lift_joint": 0.826063034594263,
        "distance_shoulder_pan_joint": 0.8961292178436286,
        "distance_wrist_1_joint": 4.483848901100735,
        "distance_wrist_2_joint": 3.2602301362508914,
        "distance_wrist_3_joint": 4.05298197193849,
        "smoothness": 1.0965884836128998,
        "time": 0.627106384,
        "traj_len": 3.7225412614369175,
        "weighted_distance": 5.450445525306071
    },
    "planner": "KPIECE",
    "start": {
        "state": {
            "elbow_joint": 1.9565354006590394,
            "shoulder_lift_joint": -1.4165861576513559,
            "shoulder_pan_joint": -1.6717766223277177,
            "wrist_1_joint": -0.5286633288215096,
            "wrist_2_joint": 1.4727565892594296,
            "wrist_3_joint": 3.1593482883155493
        }
    },
    "waypoints": [
        {
            "positions": [
                -1.6717766223277177,
                -1.4165861576513559,
                1.9565354006590394,
                -0.5286633288215096,
                1.4727565892594296,
                3.1593482883155493
            ]
        },
        {
            "positions": [
                -1.6479705716755089,
                -1.4914541277981335,
                2.01303752037174,
                -0.43464648296098995,
                1.4828477092487404,
                3.156544508553496
            ]
        },
        {
            "positions": [
                -1.6241645210233,
                -1.5663220979449108,
                2.0695396400844412,
                -0.3406296371004703,
                1.4929388292380512,
                3.1537407287914427
            ]
        },
        {
            "positions": [
                -1.627739211470917,
                -1.5755012776621264,
                2.0663911383996796,
                -0.5587184942766394,
                1.4449121917494598,
                3.052214055811758
            ]
        },
        {
            "positions": [
                -1.631313901918534,
                -1.5846804573793418,
                2.0632426367149184,
                -0.7768073514528085,
                1.3968855542608685,
                2.950687382832074
            ]
        },
        {
            "positions": [
                -1.6348885923661511,
                -1.5938596370965574,
                2.0600941350301567,
                -0.9948962086289777,
                1.348858916772277,
                2.8491607098523892
            ]
        },
        {
            "positions": [
                -1.6384632828137682,
                -1.6030388168137728,
                2.056945633345395,
                -1.2129850658051469,
                1.3008322792836857,
                2.7476340368727046
            ]
        },
        {
            "positions": [
                -1.6420379732613852,
                -1.6122179965309884,
                2.053797131660634,
                -1.4310739229813159,
                1.2528056417950943,
                2.6461073638930204
            ]
        },
        {
            "positions": [
                -1.645612663709002,
                -1.6213971762482038,
                2.050648629975872,
                -1.6491627801574849,
                1.2047790043065032,
                2.5445806909133357
            ]
        },
        {
            "positions": [
                -1.649187354156619,
                -1.6305763559654194,
                2.047500128291111,
                -1.867251637333654,
                1.1567523668179118,
                2.443054017933651
            ]
        },
        {
            "positions": [
                -1.6527620446042361,
                -1.6397555356826348,
                2.0443516266063493,
                -2.0853404945098233,
                1.1087257293293205,
                2.341527344953967
            ]
        },
        {
            "positions": [
                -1.6563367350518532,
                -1.6489347153998504,
                2.0412031249215876,
                -2.3034293516859923,
                1.060699091840729,
                2.240000671974282
            ]
        },
        {
            "positions": [
                -1.6599114254994702,
                -1.6581138951170658,
                2.0380546232368264,
                -2.5215182088621617,
                1.0126724543521377,
                2.1384739989945976
            ]
        },
        {
            "positions": [
                -1.6634861159470873,
                -1.6672930748342814,
                2.0349061215520647,
                -2.7396070660383307,
                0.9646458168635463,
                2.0369473260149134
            ]
        },
        {
            "positions": [
                -1.716096436186406,
                -1.618217740537275,
                2.0425467271407967,
                -2.678252644822825,
                1.0751451947057498,
                1.9538918460382502
            ]
        },
        {
            "positions": [
                -1.7687067564257246,
                -1.569142406240269,
                2.050187332729529,
                -2.6168982236073193,
                1.1856445725479532,
                1.8708363660615868
            ]
        },
        {
            "positions": [
                -1.821317076665043,
                -1.5200670719432627,
                2.057827938318261,
                -2.5555438023918136,
                1.2961439503901564,
                1.7877808860849236
            ]
        },
        {
            "positions": [
                -1.8739273969043617,
                -1.4709917376462565,
                2.0654685439069933,
                -2.4941893811763074,
                1.4066433282323598,
                1.7047254061082602
            ]
        },
        {
            "positions": [
                -1.9265377171436804,
                -1.4219164033492504,
                2.0731091494957252,
                -2.4328349599608017,
                1.5171427060745633,
                1.621669926131597
            ]
        },
        {
            "positions": [
                -1.979148037382999,
                -1.3728410690522441,
                2.0807497550844576,
                -2.371480538745296,
                1.6276420839167667,
                1.5386144461549338
            ]
        },
        {
            "positions": [
                -2.0317583576223175,
                -1.3237657347552378,
                2.0883903606731895,
                -2.3101261175297902,
                1.7381414617589699,
                1.4555589661782706
            ]
        },
        {
            "positions": [
                -2.084368677861636,
                -1.2746904004582318,
                2.096030966261922,
                -2.248771696314284,
                1.8486408396011735,
                1.3725034862016072
            ]
        },
        {
            "positions": [
                -2.136978998100955,
                -1.2256150661612255,
                2.103671571850654,
                -2.1874172750987784,
                1.9591402174433767,
                1.2894480062249438
            ]
        },
        {
            "positions": [
                -2.1895893183402735,
                -1.1765397318642195,
                2.111312177439386,
                -2.1260628538832727,
                2.0696395952855804,
                1.2063925262482806
            ]
        },
        {
            "positions": [
                -2.242199638579592,
                -1.1274643975672132,
                2.118952783028118,
                -2.064708432667767,
                2.1801389731277836,
                1.1233370462716175
            ]
        },
        {
            "positions": [
                -2.260122719629226,
                -1.1297041817854596,
                2.1113702386134015,
                -1.9753755198968816,
                2.0703085500163105,
                1.2711294275507252
            ]
        },
        {
            "positions": [
                -2.27804580067886,
                -1.1319439660037058,
                2.103787694198685,
                -1.8860426071259961,
                1.960478126904838,
                1.4189218088298328
            ]
        },
        {
            "positions": [
                -2.295968881728494,
                -1.1341837502219523,
                2.096205149783968,
                -1.7967096943551109,
                1.850647703793365,
                1.5667141901089403
            ]
        },
        {
            "positions": [
                -2.3138919627781283,
                -1.1364235344401987,
                2.0886226053692516,
                -1.7073767815842256,
                1.7408172806818922,
                1.714506571388048
            ]
        },
        {
            "positions": [
                -2.331815043827762,
                -1.1386633186584452,
                2.081040060954535,
                -1.6180438688133403,
                1.6309868575704192,
                1.8622989526671556
            ]
        },
        {
            "positions": [
                -2.3497381248773963,
                -1.1409031028766914,
                2.073457516539819,
                -1.5287109560424548,
                1.5211564344589465,
                2.010091333946263
            ]
        },
        {
            "positions": [
                -2.36766120592703,
                -1.1431428870949378,
                2.065874972125102,
                -1.4393780432715695,
                1.4113260113474735,
                2.157883715225371
            ]
        },
        {
            "positions": [
                -2.3855842869766644,
                -1.1453826713131843,
                2.0582924277103856,
                -1.3500451305006842,
                1.3014955882360006,
                2.3056760965044787
            ]
        },
        {
            "positions": [
                -2.403507368026298,
                -1.1476224555314307,
                2.050709883295669,
                -1.260712217729799,
                1.1916651651245278,
                2.453468477783586
            ]
        },
        {
            "positions": [
                -2.4214304490759324,
                -1.149862239749677,
                2.0431273388809523,
                -1.1713793049589136,
                1.081834742013055,
                2.6012608590626938
            ]
        },
        {
            "positions": [
                -2.439353530125566,
                -1.1521020239679234,
                2.0355447944662357,
                -1.0820463921880281,
                0.9720043189015821,
                2.7490532403418015
            ]
        },
        {
            "positions": [
                -2.4504628992712143,
                -1.155731961882443,
                2.027888870007355,
                -1.0022873566575174,
                0.8759619610991397,
                2.879471418949926
            ]
        },
        {
            "positions": [
                -2.461572268416863,
                -1.1593618997969628,
                2.0202329455484747,
                -0.9225283211270068,
                0.7799196032966974,
                3.00988959755805
            ]
        },
        {
            "positions": [
                -2.472681637562511,
                -1.1629918377114825,
                2.012577021089594,
                -0.8427692855964961,
                0.683877245494255,
                3.1403077761661744
            ]
        }
    ]
}