{
    "goal": {
        "global_pose": {
            "orientation": {
                "w": 0.7031023480610252,
                "x": -0.7110244013736278,
                "y": 0.0077485991402295624,
                "z": 0.005598929693374583
            },
            "position": {
                "x": -0.8841497679147869,
                "y": 0.44412534475326537,
                "z": 0.3711530566215515
            }
        },
        "name": "move_to_auspresseinheit_D"
    },
    "id": "KPIECE_move_to_auspresseinheit_D_56",
    "joint_names": [
        "shoulder_pan_joint",
        "shoulder_lift_joint",
        "elbow_joint",
        "wrist_1_joint",
        "wrist_2_joint",
        "wrist_3_joint"
    ],
    "metrics": {
        "cart_traj_len": 4.231232975886069,
        "distance_elbow_joint": 3.5846161801533336,
        "distance_shoulder_lift_joint": 1.2384465372870368,
        "distance_shoulder_pan_joint": 2.7969031476704576,
        "distance_wrist_1_joint": 2.0971765484676714,
        "distance_wrist_2_joint": 1.215879119497393,
        "distance_wrist_3_joint": 6.272220734953629,
        "smoothness": 0.02507532944701494,
        "time": 0.08004921400000001,
        "traj_len": 4.147920234048567,
        "weighted_distance": 5.750020817866821
    },
    "planner": "KPIECE",
    "start": {
        "state": {
            "elbow_joint": 1.8268400409724999,
            "shoulder_lift_joint": -1.0144045787793008,
            "shoulder_pan_joint": 2.6280239544362485,
            "wrist_1_joint": -0.790705565816056,
            "wrist_2_joint": 1.0573557467365533,
            "wrist_3_joint": 3.1851377467193758
        }
    },
    "waypoints": [
        {
            "positions": [
                2.6280239544362485,
                -1.0144045787793008,
                1.8268400409724999,
                -0.790705565816056,
                1.0573557467365533,
                3.1851377467193758
            ]
        },
        {
            "positions": [
                2.5658883366181544,
                -1.0389635218139488,
                1.6835004007027816,
                -0.8017196071966313,
                1.0295727539989943,
                3.0614610126691444
            ]
        },
        {
            "positions": [
                2.503752718800061,
                -1.0635224648485968,
                1.5401607604330636,
                -0.8127336485772065,
                1.0017897612614353,
                2.937784278618913
            ]
        },
        {
            "positions": [
                2.4416171009819667,
                -1.088081407883245,
                1.3968211201633454,
                -0.8237476899577818,
                0.9740067685238764,
                2.8141075445686816
            ]
        },
        {
            "positions": [
                2.379481483163873,
                -1.112640350917893,
                1.2534814798936273,
                -0.8347617313383571,
                0.9462237757863173,
                2.6904308105184507
            ]
        },
        {
            "positions": [
                2.317345865345779,
                -1.137199293952541,
                1.110141839623909,
                -0.8457757727189323,
                0.9184407830487584,
                2.5667540764682193
            ]
        },
        {
            "positions": [
                2.2552102475276854,
                -1.1617582369871893,
                0.966802199354191,
                -0.8567898140995076,
                0.8906577903111994,
                2.443077342417988
            ]
        },
        {
            "positions": [
                2.1930746297095913,
                -1.1863171800218373,
                0.8234625590844729,
                -0.8678038554800829,
                0.8628747975736404,
                2.3194006083677565
            ]
        },
        {
            "positions": [
                2.1309390118914977,
                -1.2108761230564853,
                0.6801229188147548,
                -0.8788178968606581,
                0.8350918048360815,
                2.195723874317525
            ]
        },
        {
            "positions": [
                2.0688033940734036,
                -1.2354350660911333,
                0.5367832785450366,
                -0.8898319382412334,
                0.8073088120985225,
                2.072047140267294
            ]
        },
        {
            "positions": [
                2.00666777625531,
                -1.2599940091257815,
                0.3934436382753186,
                -0.9008459796218087,
                0.7795258193609635,
                1.9483704062170628
            ]
        },
        {
            "positions": [
                1.944532158437216,
                -1.2845529521604295,
                0.25010399800560035,
                -0.911860021002384,
                0.7517428266234045,
                1.8246936721668314
            ]
        },
        {
            "positions": [
                1.8823965406191223,
                -1.3091118951950775,
                0.10676435773588211,
                -0.9228740623829592,
                0.7239598338858455,
                1.7010169381166
            ]
        },
        {
            "positions": [
                1.8202609228010282,
                -1.3336708382297255,
                -0.03657528253383591,
                -0.9338881037635345,
                0.6961768411482866,
                1.5773402040663689
            ]
        },
        {
            "positions": [
                1.7581253049829344,
                -1.3582297812643738,
                -0.17991492280355414,
                -0.9449021451441098,
                0.6683938484107275,
                1.4536634700161373
            ]
        },
        {
            "positions": [
                1.6959896871648406,
                -1.3827887242990218,
                -0.3232545630732724,
                -0.955916186524685,
                0.6406108556731686,
                1.329986735965906
            ]
        },
        {
            "positions": [
                1.633854069346747,
                -1.4073476673336698,
                -0.4665942033429902,
                -0.9669302279052603,
                0.6128278629356096,
                1.206310001915675
            ]
        },
        {
            "positions": [
                1.571718451528653,
                -1.4319066103683178,
                -0.6099338436127084,
                -0.9779442692858356,
                0.5850448701980506,
                1.0826332678654436
            ]
        },
        {
            "positions": [
                1.509582833710559,
                -1.456465553402966,
                -0.7532734838824267,
                -0.9889583106664108,
                0.5572618774604916,
                0.9589565338152122
            ]
        },
        {
            "positions": [
                1.4474472158924652,
                -1.481024496437614,
                -0.8966131241521449,
                -0.9999723520469861,
                0.5294788847229327,
                0.8352797997649808
            ]
        },
        {
            "positions": [
                1.3853115980743713,
                -1.505583439472262,
                -1.0399527644218627,
                -1.0109863934275614,
                0.5016958919853737,
                0.7116030657147498
            ]
        },
        {
            "positions": [
                1.3231759802562775,
                -1.5301423825069103,
                -1.183292404691581,
                -1.0220004348081366,
                0.47391289924781477,
                0.5879263316645185
            ]
        },
        {
            "positions": [
                1.2610403624381836,
                -1.5547013255415583,
                -1.3266320449612992,
                -1.033014476188712,
                0.44612990651025564,
                0.4642495976142871
            ]
        },
        {
            "positions": [
                1.1989047446200898,
                -1.5792602685762063,
                -1.4699716852310174,
                -1.0440285175692872,
                0.4183469137726967,
                0.3405728635640556
            ]
        },
        {
            "positions": [
                1.1337721761508375,
                -1.6113360232185934,
                -1.456266711233407,
                -1.1318310697937843,
                0.39087690012824267,
                0.17735115633556484
            ]
        },
        {
            "positions": [
                1.0686396076815852,
                -1.6434117778609807,
                -1.4425617372357966,
                -1.2196336220182815,
                0.36340688648378855,
                0.014129449107074088
            ]
        },
        {
            "positions": [
                1.0035070392123326,
                -1.6754875325033678,
                -1.4288567632381861,
                -1.3074361742427785,
                0.3359368728393345,
                -0.14909225812141663
            ]
        },
        {
            "positions": [
                0.9383744707430803,
                -1.7075632871457551,
                -1.4151517892405758,
                -1.3952387264672756,
                0.30846685919488037,
                -0.3123139653499074
            ]
        },
        {
            "positions": [
                0.873241902273828,
                -1.7396390417881422,
                -1.4014468152429653,
                -1.4830412786917728,
                0.2809968455504263,
                -0.4755356725783981
            ]
        },
        {
            "positions": [
                0.8081093338045757,
                -1.7717147964305295,
                -1.387741841245355,
                -1.57084383091627,
                0.25352683190597225,
                -0.6387573798068888
            ]
        },
        {
            "positions": [
                0.7429767653353233,
                -1.8037905510729166,
                -1.3740368672477445,
                -1.6586463831407672,
                0.22605681826151813,
                -0.8019790870353797
            ]
        },
        {
            "positions": [
                0.6778441968660709,
                -1.835866305715304,
                -1.360331893250134,
                -1.7464489353652644,
                0.19858680461706407,
                -0.9652007942638704
            ]
        },
        {
            "positions": [
                0.6127116283968186,
                -1.867942060357691,
                -1.3466269192525238,
                -1.8342514875897615,
                0.17111679097260998,
                -1.128422501492361
            ]
        },
        {
            "positions": [
                0.5475790599275663,
                -1.9000178150000784,
                -1.3329219452549133,
                -1.9220540398142587,
                0.1436467773281559,
                -1.291644208720852
            ]
        },
        {
            "positions": [
                0.48244649145831375,
                -1.9320935696424655,
                -1.319216971257303,
                -2.009856592038756,
                0.11617676368370178,
                -1.454865915949343
            ]
        },
        {
            "positions": [
                0.41731392298906156,
                -1.9641693242848528,
                -1.3055119972596925,
                -2.097659144263253,
                0.08870675003924772,
                -1.6180876231778334
            ]
        },
        {
            "positions": [
                0.35218135451980914,
                -1.99624507892724,
                -1.291807023262082,
                -2.1854616964877502,
                0.0612367363947936,
                -1.7813093304063243
            ]
        },
        {
            "positions": [
                0.28704878605055684,
                -2.028320833569627,
                -1.2781020492644717,
                -2.2732642487122474,
                0.03376672275033954,
                -1.9445310376348148
            ]
        },
        {
            "positions": [
                0.22191621758130442,
                -2.0603965882120145,
                -1.2643970752668612,
                -2.3610668009367446,
                0.006296709105885423,
                -2.1077527448633058
            ]
        },
        {
            "positions": [
                0.156783649112052,
                -2.0924723428544016,
                -1.250692101269251,
                -2.4488693531612413,
                -0.021173304538568583,
                -2.2709744520917963
            ]
        },
        {
            "positions": [
                0.0916510806427997,
                -2.1245480974967887,
                -1.2369871272716404,
                -2.536671905385739,
                -0.0486433181830227,
                -2.434196159320287
            ]
        },
        {
            "positions": [
                0.026518512173547393,
                -2.156623852139176,
                -1.2232821532740301,
                -2.6244744576102357,
                -0.07611333182747676,
                -2.5974178665487777
            ]
        },
        {
            "positions": [
                -0.038614056295705135,
                -2.1886996067815634,
                -1.2095771792764196,
                -2.712277009834733,
                -0.10358334547193093,
                -2.7606395737772687
            ]
        },
        {
            "positions": [
                -0.10374662476495722,
                -2.2207753614239505,
                -1.1958722052788093,
                -2.80007956205923,
                -0.13105335911638494,
                -2.923861281005759
            ]
        },
        {
            "positions": [
                -0.16887919323420972,
                -2.2528511160663376,
                -1.1821672312811988,
                -2.887882114283727,
                -0.1585233727608391,
                -3.08708298823425
            ]
        }
    ]
}