{
    "goal": {
        "global_pose": {
            "orientation": {
                "w": -0.00223480608172531,
                "x": 0.0024358444001904467,
                "y": 0.7094548369677653,
                "z": -0.704743149386269
            },
            "position": {
                "x": 0.6205249238014221,
                "y": -0.6371506643295288,
                "z": 0.19426114857196808
            }
        },
        "name": "move_to_magneteinheit_B"
    },
    "id": "KPIECE_move_to_magneteinheit_B_18",
    "joint_names": [
        "shoulder_pan_joint",
        "shoulder_lift_joint",
        "elbow_joint",
        "wrist_1_joint",
        "wrist_2_joint",
        "wrist_3_joint"
    ],
    "metrics": {
        "cart_traj_len": 3.7898896808983236,
        "distance_elbow_joint": 4.756899148547086,
        "distance_shoulder_lift_joint": 0.8596455170785136,
        "distance_shoulder_pan_joint": 2.2642728296050696,
        "distance_wrist_1_joint": 1.7617077150455427,
        "distance_wrist_2_joint": 1.8307756053053459,
        "distance_wrist_3_joint": 3.6786257211888445,
        "smoothness": 0.22342610095691504,
        "time": 4.559521806999999,
        "traj_len": 3.8925475638417577,
        "weighted_distance": 5.108978498633458
    },
    "planner": "KPIECE",
    "start": {
        "state": {
            "elbow_joint": 2.3935871308073637,
            "shoulder_lift_joint": -1.9085141043777403,
            "shoulder_pan_joint": 0.7066247067284167,
            "wrist_1_joint": -0.46782909355067076,
            "wrist_2_joint": 0.7096259085804283,
            "wrist_3_joint": -3.1358149275257428
        }
    },
    "waypoints": [
        {
            "positions": [
                0.7066247067284167,
                -1.9085141043777403,
                2.3935871308073637,
                -0.46782909355067076,
                0.7096259085804283,
                -3.1358149275257428
            ]
        },
        {
            "positions": [
                0.6290382146235058,
                -1.917032474808813,
                2.3997172969170677,
                -0.5105693433040029,
                0.7219716900154101,
                -3.07020064111168
            ]
        },
        {
            "positions": [
                0.5514517225185951,
                -1.9255508452398857,
                2.405847463026772,
                -0.5533095930573351,
                0.7343174714503917,
                -3.0045863546976173
            ]
        },
        {
            "positions": [
                0.5553000008439446,
                -1.9191261082269966,
                2.2930502882103423,
                -0.5776142283435576,
                0.7128757849403792,
                -2.893087224340602
            ]
        },
        {
            "positions": [
                0.5591482791692941,
                -1.9127013712141077,
                2.1802531133939125,
                -0.6019188636297802,
                0.6914340984303667,
                -2.7815880939835864
            ]
        },
        {
            "positions": [
                0.5629965574946436,
                -1.9062766342012185,
                2.0674559385774827,
                -0.6262234989160027,
                0.6699924119203542,
                -2.670088963626571
            ]
        },
        {
            "positions": [
                0.6224466596724342,
                -1.9009972037417597,
                1.9029922726260025,
                -0.6253271426837345,
                0.6295842872922811,
                -2.5477583713792287
            ]
        },
        {
            "positions": [
                0.6818967618502247,
                -1.8957177732823012,
                1.7385286066745225,
                -0.6244307864514662,
                0.5891761626642081,
                -2.425427779131886
            ]
        },
        {
            "positions": [
                0.7413468640280153,
                -1.8904383428228424,
                1.5740649407230423,
                -0.623534430219198,
                0.548768038036135,
                -2.3030971868845436
            ]
        },
        {
            "positions": [
                0.8007969662058059,
                -1.8851589123633838,
                1.4096012747715623,
                -0.6226380739869297,
                0.5083599134080621,
                -2.180766594637201
            ]
        },
        {
            "positions": [
                0.8602470683835964,
                -1.879879481903925,
                1.245137608820082,
                -0.6217417177546615,
                0.467951788779989,
                -2.0584360023898585
            ]
        },
        {
            "positions": [
                0.919697170561387,
                -1.8746000514444665,
                1.0806739428686019,
                -0.6208453615223932,
                0.42754366415191597,
                -1.9361054101425164
            ]
        },
        {
            "positions": [
                0.9791472727391776,
                -1.8693206209850077,
                0.9162102769171216,
                -0.619949005290125,
                0.38713553952384294,
                -1.8137748178951738
            ]
        },
        {
            "positions": [
                1.0385973749169681,
                -1.8640411905255492,
                0.7517466109656417,
                -0.6190526490578567,
                0.3467274148957699,
                -1.6914442256478313
            ]
        },
        {
            "positions": [
                1.0980474770947586,
                -1.8587617600660904,
                0.5872829450141615,
                -0.6181562928255885,
                0.3063192902676969,
                -1.5691136334004887
            ]
        },
        {
            "positions": [
                1.1574975792725493,
                -1.8534823296066318,
                0.42281927906268124,
                -0.6172599365933202,
                0.2659111656396238,
                -1.4467830411531462
            ]
        },
        {
            "positions": [
                1.21694768145034,
                -1.848202899147173,
                0.25835561311120125,
                -0.616363580361052,
                0.22550304101155078,
                -1.3244524489058038
            ]
        },
        {
            "positions": [
                1.2763977836281304,
                -1.8429234686877143,
                0.09389194715972105,
                -0.6154672241287837,
                0.18509491638347775,
                -1.2021218566584613
            ]
        },
        {
            "positions": [
                1.3358478858059208,
                -1.8376440382282557,
                -0.07057171879175916,
                -0.6145708678965155,
                0.14468679175540478,
                -1.079791264411119
            ]
        },
        {
            "positions": [
                1.3952979879837115,
                -1.832364607768797,
                -0.23503538474323937,
                -0.6136745116642472,
                0.10427866712733169,
                -0.9574606721637762
            ]
        },
        {
            "positions": [
                1.4547480901615022,
                -1.8270851773093384,
                -0.3994990506947196,
                -0.612778155431979,
                0.06387054249925861,
                -0.8351300799164338
            ]
        },
        {
            "positions": [
                1.5141981923392926,
                -1.8218057468498796,
                -0.5639627166461993,
                -0.6118817991997108,
                0.023462417871185637,
                -0.7127994876690913
            ]
        },
        {
            "positions": [
                1.5736482945170833,
                -1.816526316390421,
                -0.7284263825976796,
                -0.6109854429674425,
                -0.016945706756887446,
                -0.5904688954217487
            ]
        },
        {
            "positions": [
                1.6330983966948738,
                -1.8112468859309623,
                -0.8928900485491598,
                -0.6100890867351743,
                -0.05735383138496042,
                -0.4681383031744062
            ]
        },
        {
            "positions": [
                1.6925484988726642,
                -1.8059674554715037,
                -1.05735371450064,
                -0.609192730502906,
                -0.0977619560130335,
                -0.3458077109270641
            ]
        },
        {
            "positions": [
                1.751998601050455,
                -1.800688025012045,
                -1.2218173804521202,
                -0.6082963742706378,
                -0.13817008064110659,
                -0.2234771186797211
            ]
        },
        {
            "positions": [
                1.8114487032282456,
                -1.7954085945525864,
                -1.3862810464036,
                -0.6074000180383695,
                -0.17857820526917956,
                -0.10114652643237898
            ]
        },
        {
            "positions": [
                1.870898805406036,
                -1.7901291640931276,
                -1.5507447123550802,
                -0.6065036618061013,
                -0.21898632989725264,
                0.02118406581496357
            ]
        },
        {
            "positions": [
                1.9303489075838267,
                -1.7848497336336688,
                -1.7152083783065604,
                -0.605607305573833,
                -0.2593944545253257,
                0.14351465806230612
            ]
        },
        {
            "positions": [
                1.9897990097616172,
                -1.7795703031742103,
                -1.8796720442580404,
                -0.6047109493415648,
                -0.29980257915339875,
                0.2658452503096487
            ]
        },
        {
            "positions": [
                2.1135635477450485,
                -1.8436567994208826,
                -1.9424368176732472,
                -0.4890844956290163,
                -0.2801389994451067,
                0.274786798227231
            ]
        },
        {
            "positions": [
                2.2373280857284796,
                -1.9077432956675546,
                -2.0052015910884537,
                -0.3734580419164678,
                -0.26047541973681465,
                0.28372834614481335
            ]
        },
        {
            "positions": [
                2.2844816963759387,
                -1.9667770362063104,
                -1.9745889953674836,
                -0.2368680806263781,
                -0.18723353429504835,
                0.25860431993127797
            ]
        },
        {
            "positions": [
                2.3316353070233973,
                -2.025810776745066,
                -1.9439763996465134,
                -0.10027811933628838,
                -0.11399164885328208,
                0.23348029371774257
            ]
        },
        {
            "positions": [
                2.377360054607249,
                -2.0834655504379027,
                -1.9136731251002408,
                0.0334917935576608,
                -0.042089186447659147,
                0.20882691077635762
            ]
        },
        {
            "positions": [
                2.4230848021911005,
                -2.1411203241307395,
                -1.8833698505539682,
                0.16726170645160998,
                0.029813275957963792,
                0.18417352783497265
            ]
        },
        {
            "positions": [
                2.468809549774952,
                -2.1987750978235763,
                -1.8530665760076956,
                0.30103161934555916,
                0.10171573836358674,
                0.1595201448935877
            ]
        },
        {
            "positions": [
                2.5145342973588036,
                -2.256429871516413,
                -1.822763301461423,
                0.43480153223950835,
                0.17361820076920967,
                0.13486676195220276
            ]
        },
        {
            "positions": [
                2.560259044942655,
                -2.31408464520925,
                -1.7924600269151505,
                0.5685714451334576,
                0.24552066317483265,
                0.11021337901081779
            ]
        },
        {
            "positions": [
                2.605983792526507,
                -2.3717394189020866,
                -1.762156752368878,
                0.7023413580274067,
                0.3174231255804556,
                0.08555999606943285
            ]
        },
        {
            "positions": [
                2.633267680220175,
                -2.4239689781134945,
                -1.7168842906224402,
                0.8397155843958073,
                0.3947922691293242,
                0.0551029473479798
            ]
        },
        {
            "positions": [
                2.660551567913843,
                -2.476198537324903,
                -1.6716118288760025,
                0.977089810764208,
                0.4721614126781928,
                0.024645898626526743
            ]
        }
    ]
}