{
    "goal": {
        "global_pose": {
            "orientation": {
                "w": -0.4816463035849501,
                "x": 0.5182115481033762,
                "y": 0.4908360881923453,
                "z": -0.5084816262002911
            },
            "position": {
                "x": -0.8240239810943604,
                "y": -0.300875300988555,
                "z": 0.16403168439865112
            }
        },
        "name": "move_to_storage_C"
    },
    "id": "KPIECE_move_to_storage_C_77",
    "joint_names": [
        "shoulder_pan_joint",
        "shoulder_lift_joint",
        "elbow_joint",
        "wrist_1_joint",
        "wrist_2_joint",
        "wrist_3_joint"
    ],
    "metrics": {
        "cart_traj_len": 0.5766683576652767,
        "distance_elbow_joint": 0.25704019457212257,
        "distance_shoulder_lift_joint": 0.18958653055610475,
        "distance_shoulder_pan_joint": 0.4938572385477835,
        "distance_wrist_1_joint": 0.07522031684962438,
        "distance_wrist_2_joint": 1.0764936297250665,
        "distance_wrist_3_joint": 0.06625488911850086,
        "smoothness": 2.5376526478085547e-16,
        "time": 0.01459975,
        "traj_len": 1.4691673830333978,
        "weighted_distance": 1.8554451013654096
    },
    "planner": "KPIECE",
    "start": {
        "state": {
            "elbow_joint": 2.010868315001653,
            "shoulder_lift_joint": -1.1634956873357014,
            "shoulder_pan_joint": -2.4736205022346103,
            "wrist_1_joint": -0.8367026794713948,
            "wrist_2_joint": 0.6746043897044093,
            "wrist_3_joint": 3.1335220948105738
        }
    },
    "waypoints": [
        {
            "positions": [
                -2.4736205022346103,
                -1.1634956873357014,
                2.010868315001653,
                -0.8367026794713948,
                0.6746043897044093,
                3.1335220948105738
            ]
        },
        {
            "positions": [
                -2.5559300419925743,
                -1.1318979322430174,
                1.968028282572966,
                -0.8241659599964574,
                0.854019994658587,
                3.144564576330324
            ]
        },
        {
            "positions": [
                -2.638239581750538,
                -1.1003001771503331,
                1.925188250144279,
                -0.81162924052152,
                1.0334355996127647,
                3.155607057850074
            ]
        },
        {
            "positions": [
                -2.720549121508502,
                -1.068702422057649,
                1.8823482177155917,
                -0.7990925210465826,
                1.2128512045669426,
                3.166649539369824
            ]
        },
        {
            "positions": [
                -2.802858661266466,
                -1.0371046669649648,
                1.8395081852869046,
                -0.7865558015716452,
                1.3922668095211201,
                3.1776920208895745
            ]
        },
        {
            "positions": [
                -2.8851682010244297,
                -1.0055069118722808,
                1.7966681528582176,
                -0.7740190820967078,
                1.571682414475298,
                3.1887345024093245
            ]
        },
        {
            "positions": [
                -2.967477740782394,
                -0.9739091567795967,
                1.7538281204295305,
                -0.7614823626217704,
                1.7510980194294758,
                3.1997769839290746
            ]
        }
    ]
}