{
    "goal": {
        "global_pose": {
            "orientation": {
                "w": 0.5084816217422485,
                "x": -0.49083608388900757,
                "y": 0.5182115435600281,
                "z": -0.4816462993621826
            },
            "position": {
                "x": 0.5540239810943604,
                "y": 0.030875300988554955,
                "z": 0.16403168439865112
            }
        },
        "name": "move_to_storage_A"
    },
    "id": "KPIECE_move_to_storage_A_102",
    "joint_names": [
        "shoulder_pan_joint",
        "shoulder_lift_joint",
        "elbow_joint",
        "wrist_1_joint",
        "wrist_2_joint",
        "wrist_3_joint"
    ],
    "metrics": {
        "cart_traj_len": 0.3523277447265928,
        "distance_elbow_joint": 0.4481515962260758,
        "distance_shoulder_lift_joint": 0.23463421710547405,
        "distance_shoulder_pan_joint": 0.46159689374253776,
        "distance_wrist_1_joint": 0.23552144805533948,
        "distance_wrist_2_joint": 1.0934690532598386,
        "distance_wrist_3_joint": 0.09144897998794077,
        "smoothness": 4.440892098500626e-16,
        "time": 0.10370311600000001,
        "traj_len": 1.601506224894929,
        "weighted_distance": 2.0190865879571054
    },
    "planner": "KPIECE",
    "start": {
        "state": {
            "elbow_joint": 1.9715474177455299,
            "shoulder_lift_joint": -1.139484666580328,
            "shoulder_pan_joint": 0.12281154398918248,
            "wrist_1_joint": -0.7804687475355282,
            "wrist_2_joint": 0.12958649657246987,
            "wrist_3_joint": -3.1924925159053466
        }
    },
    "waypoints": [
        {
            "positions": [
                0.12281154398918248,
                -1.139484666580328,
                1.9715474177455299,
                -0.7804687475355282,
                0.12958649657246987,
                -3.1924925159053466
            ]
        },
        {
            "positions": [
                0.056869130597391376,
                -1.1730038404525385,
                2.035569074349255,
                -0.814114668686291,
                0.2857963613238754,
                -3.179428375907069
            ]
        },
        {
            "positions": [
                -0.009073282794399729,
                -1.2065230143247492,
                2.09959073095298,
                -0.8477605898370537,
                0.44200622607528095,
                -3.1663642359087922
            ]
        },
        {
            "positions": [
                -0.07501569618619083,
                -1.2400421881969597,
                2.163612387556705,
                -0.8814065109878165,
                0.5982160908266865,
                -3.153300095910515
            ]
        },
        {
            "positions": [
                -0.14095810957798194,
                -1.2735613620691704,
                2.22763404416043,
                -0.9150524321385793,
                0.754425955578092,
                -3.1402359559122375
            ]
        },
        {
            "positions": [
                -0.20690052296977307,
                -1.3070805359413808,
                2.2916557007641556,
                -0.948698353289342,
                0.9106358203294976,
                -3.12717181591396
            ]
        },
        {
            "positions": [
                -0.27284293636156415,
                -1.3405997098135916,
                2.3556773573678806,
                -0.9823442744401049,
                1.066845685080903,
                -3.114107675915683
            ]
        },
        {
            "positions": [
                -0.3387853497533553,
                -1.374118883685802,
                2.4196990139716057,
                -1.0159901955908677,
                1.2230555498323086,
                -3.101043535917406
            ]
        }
    ]
}