{
    "goal": {
        "global_pose": {
            "orientation": {
                "w": 0.7031023480610252,
                "x": -0.7110244013736278,
                "y": 0.0077485991402295624,
                "z": 0.005598929693374583
            },
            "position": {
                "x": -0.8841497679147869,
                "y": 0.44412534475326537,
                "z": 0.3711530566215515
            }
        },
        "name": "move_to_auspresseinheit_D"
    },
    "id": "KPIECE_move_to_auspresseinheit_D_58",
    "joint_names": [
        "shoulder_pan_joint",
        "shoulder_lift_joint",
        "elbow_joint",
        "wrist_1_joint",
        "wrist_2_joint",
        "wrist_3_joint"
    ],
    "metrics": {
        "cart_traj_len": 3.6551109827243358,
        "distance_elbow_joint": 3.1829835563625735,
        "distance_shoulder_lift_joint": 1.9647851448472444,
        "distance_shoulder_pan_joint": 2.796833037737341,
        "distance_wrist_1_joint": 1.364224844447147,
        "distance_wrist_2_joint": 0.8889152837778896,
        "distance_wrist_3_joint": 3.1107785896762077,
        "smoothness": 0.055888286010017246,
        "time": 0.119658111,
        "traj_len": 3.6480844914623898,
        "weighted_distance": 4.6672494859848515
    },
    "planner": "KPIECE",
    "start": {
        "state": {
            "elbow_joint": 1.8268400409724999,
            "shoulder_lift_joint": -1.0144045787793008,
            "shoulder_pan_joint": 2.6280239544362485,
            "wrist_1_joint": -0.790705565816056,
            "wrist_2_joint": 1.0573557467365533,
            "wrist_3_joint": 3.1851377467193758
        }
    },
    "waypoints": [
        {
            "positions": [
                2.6280239544362485,
                -1.0144045787793008,
                1.8268400409724999,
                -0.790705565816056,
                1.0573557467365533,
                3.1851377467193758
            ]
        },
        {
            "positions": [
                2.6030562404188955,
                -0.9908484998924195,
                1.6702910153855137,
                -0.7050411967834481,
                1.0331713866189673,
                3.126385643738012
            ]
        },
        {
            "positions": [
                2.578088526401543,
                -0.9672924210055382,
                1.5137419897985278,
                -0.6193768277508402,
                1.0089870265013814,
                3.067633540756649
            ]
        },
        {
            "positions": [
                2.55312081238419,
                -0.9437363421186571,
                1.3571929642115417,
                -0.5337124587182323,
                0.9848026663837955,
                3.008881437775286
            ]
        },
        {
            "positions": [
                2.5281530983668374,
                -0.9201802632317758,
                1.2006439386245558,
                -0.44804808968562443,
                0.9606183062662096,
                2.9501293347939224
            ]
        },
        {
            "positions": [
                2.5031853843494845,
                -0.8966241843448945,
                1.0440949130375694,
                -0.3623837206530165,
                0.9364339461486237,
                2.891377231812559
            ]
        },
        {
            "positions": [
                2.478217670332132,
                -0.8730681054580133,
                0.8875458874505835,
                -0.2767193516204086,
                0.9122495860310378,
                2.8326251288311957
            ]
        },
        {
            "positions": [
                2.453249956314779,
                -0.849512026571132,
                0.7309968618635974,
                -0.19105498258780063,
                0.8880652259134518,
                2.7738730258498325
            ]
        },
        {
            "positions": [
                2.428282242297426,
                -0.8259559476842508,
                0.5744478362766114,
                -0.10539061355519286,
                0.863880865795866,
                2.715120922868469
            ]
        },
        {
            "positions": [
                2.4033145282800734,
                -0.8023998687973695,
                0.4178988106896253,
                -0.01972624452258498,
                0.83969650567828,
                2.6563688198871054
            ]
        },
        {
            "positions": [
                2.3783468142627204,
                -0.7788437899104883,
                0.2613497851026392,
                0.06593812451002301,
                0.8155121455606941,
                2.5976167169057423
            ]
        },
        {
            "positions": [
                2.353379100245368,
                -0.755287711023607,
                0.10480075951565326,
                0.15160249354263078,
                0.7913277854431082,
                2.538864613924379
            ]
        },
        {
            "positions": [
                2.328411386228015,
                -0.7317316321367258,
                -0.05174826607133276,
                0.23726686257523882,
                0.7671434253255223,
                2.4801125109430155
            ]
        },
        {
            "positions": [
                2.2198365832050104,
                -0.8048669451021462,
                -0.10846110299823458,
                0.2518865328385368,
                0.7411128617443545,
                2.3755145390343264
            ]
        },
        {
            "positions": [
                2.1112617801820055,
                -0.8780022580675666,
                -0.1651739399251364,
                0.2665062031018347,
                0.7150822981631867,
                2.2709165671256373
            ]
        },
        {
            "positions": [
                2.002686977159001,
                -0.951137571032987,
                -0.22188677685203825,
                0.2811258733651327,
                0.689051734582019,
                2.1663185952169486
            ]
        },
        {
            "positions": [
                1.894112174135996,
                -1.0242728839984074,
                -0.27859961377894005,
                0.2957455436284306,
                0.6630211710008512,
                2.0617206233082594
            ]
        },
        {
            "positions": [
                1.7855373711129916,
                -1.0974081969638279,
                -0.3353124507058419,
                0.31036521389172855,
                0.6369906074196834,
                1.9571226513995703
            ]
        },
        {
            "positions": [
                1.676962568089987,
                -1.1705435099292483,
                -0.39202528763274375,
                0.32498488415502647,
                0.6109600438385157,
                1.8525246794908812
            ]
        },
        {
            "positions": [
                1.5683877650669822,
                -1.2436788228946687,
                -0.44873812455964557,
                0.33960455441832443,
                0.5849294802573479,
                1.7479267075821923
            ]
        },
        {
            "positions": [
                1.4598129620439775,
                -1.3168141358600889,
                -0.5054509614865474,
                0.3542242246816224,
                0.5588989166761801,
                1.6433287356735033
            ]
        },
        {
            "positions": [
                1.3512381590209728,
                -1.3899494488255093,
                -0.5621637984134492,
                0.3688438949449203,
                0.5328683530950123,
                1.5387307637648142
            ]
        },
        {
            "positions": [
                1.242663355997968,
                -1.4630847617909297,
                -0.6188766353403511,
                0.3834635652082182,
                0.5068377895138445,
                1.434132791856125
            ]
        },
        {
            "positions": [
                1.1340885529749634,
                -1.5362200747563501,
                -0.6755894722672529,
                0.39808323547151625,
                0.4808072259326768,
                1.3295348199474362
            ]
        },
        {
            "positions": [
                1.0255137499519589,
                -1.6093553877217706,
                -0.7323023091941547,
                0.41270290573481416,
                0.45477666235150904,
                1.224936848038747
            ]
        },
        {
            "positions": [
                0.9169389469289542,
                -1.682490700687191,
                -0.7890151461210565,
                0.4273225759981121,
                0.42874609877034126,
                1.1203388761300581
            ]
        },
        {
            "positions": [
                0.8083641439059492,
                -1.7556260136526116,
                -0.8457279830479584,
                0.44194224626141004,
                0.40271553518917347,
                1.015740904221369
            ]
        },
        {
            "positions": [
                0.6997893408829448,
                -1.8287613266180318,
                -0.9024408199748603,
                0.456561916524708,
                0.3766849716080057,
                0.9111429323126798
            ]
        },
        {
            "positions": [
                0.59121453785994,
                -1.9018966395834522,
                -0.959153656901762,
                0.4711815867880059,
                0.35065440802683795,
                0.8065449604039909
            ]
        },
        {
            "positions": [
                0.48263973483693556,
                -1.9750319525488726,
                -1.0158664938286637,
                0.48580125705130384,
                0.3246238444456702,
                0.701946988495302
            ]
        },
        {
            "positions": [
                0.37406493181393063,
                -2.048167265514293,
                -1.0725793307555658,
                0.5004209273146019,
                0.2985932808645024,
                0.5973490165866127
            ]
        },
        {
            "positions": [
                0.26549012879092615,
                -2.1213025784797135,
                -1.1292921676824674,
                0.5150405975778998,
                0.27256271728333464,
                0.49275104467792374
            ]
        },
        {
            "positions": [
                0.15691532576792122,
                -2.194437891445134,
                -1.1860050046093695,
                0.5296602678411977,
                0.24653215370216686,
                0.3881530727692346
            ]
        },
        {
            "positions": [
                0.048340522744916736,
                -2.2675732044105543,
                -1.2427178415362712,
                0.5442799381044956,
                0.22050159012099912,
                0.2835551008605459
            ]
        },
        {
            "positions": [
                -0.06023428027808819,
                -2.3407085173759747,
                -1.2994306784631728,
                0.5588996083677936,
                0.19447102653983128,
                0.17895712895185678
            ]
        },
        {
            "positions": [
                -0.1688090833010925,
                -2.413843830341395,
                -1.356143515390075,
                0.5735192786310915,
                0.16844046295866358,
                0.07435915704316765
            ]
        }
    ]
}