{
    "goal": {
        "global_pose": {
            "orientation": {
                "w": 0.7047431468963623,
                "x": -0.7094548344612122,
                "y": 0.0024358443915843964,
                "z": -0.0022348060738295317
            },
            "position": {
                "x": 0.6094750761985779,
                "y": 0.3671506643295288,
                "z": 0.19426114857196808
            }
        },
        "name": "move_to_magneteinheit_A"
    },
    "id": "KPIECE_move_to_magneteinheit_A_104",
    "joint_names": [
        "shoulder_pan_joint",
        "shoulder_lift_joint",
        "elbow_joint",
        "wrist_1_joint",
        "wrist_2_joint",
        "wrist_3_joint"
    ],
    "metrics": {
        "cart_traj_len": 1.054092880905078,
        "distance_elbow_joint": 0.38703693836512953,
        "distance_shoulder_lift_joint": 0.36466613443976836,
        "distance_shoulder_pan_joint": 1.2420444244114228,
        "distance_wrist_1_joint": 2.2256869008439537,
        "distance_wrist_2_joint": 1.7076033829633097,
        "distance_wrist_3_joint": 1.2177448326747022,
        "smoothness": 1.7763568534659883e-16,
        "time": 0.10917333700000001,
        "traj_len": 2.6729726174613697,
        "weighted_distance": 3.6760797818946958
    },
    "planner": "KPIECE",
    "start": {
        "state": {
            "elbow_joint": 1.5739458966750683,
            "shoulder_lift_joint": -1.4977259741207325,
            "shoulder_pan_joint": -1.1188672016454206,
            "wrist_1_joint": 1.494575848278785,
            "wrist_2_joint": -1.5706037134824402,
            "wrist_3_joint": -2.0226957942261072
        }
    },
    "waypoints": [
        {
            "positions": [
                -1.1188672016454206,
                -1.4977259741207325,
                1.5739458966750683,
                1.494575848278785,
                -1.5706037134824402,
                -2.0226957942261072
            ]
        },
        {
            "positions": [
                -1.0534964424658722,
                -1.478533019676534,
                1.5943162618521804,
                1.3774344324448926,
                -1.4807298512212135,
                -2.086787627524776
            ]
        },
        {
            "positions": [
                -0.9881256832863234,
                -1.4593400652323358,
                1.6146866270292926,
                1.2602930166110005,
                -1.3908559889599865,
                -2.1508794608234445
            ]
        },
        {
            "positions": [
                -0.922754924106775,
                -1.4401471107881374,
                1.6350569922064047,
                1.143151600777108,
                -1.3009821266987598,
                -2.2149712941221127
            ]
        },
        {
            "positions": [
                -0.8573841649272264,
                -1.4209541563439392,
                1.6554273573835168,
                1.0260101849432157,
                -1.211108264437533,
                -2.2790631274207813
            ]
        },
        {
            "positions": [
                -0.7920134057476778,
                -1.4017612018997407,
                1.6757977225606286,
                0.9088687691093235,
                -1.121234402176306,
                -2.34315496071945
            ]
        },
        {
            "positions": [
                -0.7266426465681293,
                -1.3825682474555425,
                1.6961680877377407,
                0.7917273532754312,
                -1.0313605399150791,
                -2.4072467940181186
            ]
        },
        {
            "positions": [
                -0.6612718873885807,
                -1.363375293011344,
                1.7165384529148529,
                0.6745859374415389,
                -0.9414866776538524,
                -2.471338627316787
            ]
        },
        {
            "positions": [
                -0.5959011282090321,
                -1.3441823385671459,
                1.736908818091965,
                0.5574445216076467,
                -0.8516128153926257,
                -2.5354304606154554
            ]
        },
        {
            "positions": [
                -0.5305303690294836,
                -1.3249893841229474,
                1.757279183269077,
                0.4403031057737543,
                -0.7617389531313988,
                -2.599522293914124
            ]
        },
        {
            "positions": [
                -0.465159609849935,
                -1.3057964296787492,
                1.7776495484461892,
                0.32316168993986194,
                -0.671865090870172,
                -2.6636141272127927
            ]
        },
        {
            "positions": [
                -0.3997888506703864,
                -1.2866034752345508,
                1.7980199136233013,
                0.20602027410596957,
                -0.581991228608945,
                -2.7277059605114613
            ]
        },
        {
            "positions": [
                -0.3344180914908379,
                -1.2674105207903525,
                1.8183902788004134,
                0.08887885827207742,
                -0.4921173663477183,
                -2.7917977938101295
            ]
        },
        {
            "positions": [
                -0.2690473323112892,
                -1.248217566346154,
                1.8387606439775255,
                -0.02826255756181495,
                -0.40224350408649134,
                -2.855889627108798
            ]
        },
        {
            "positions": [
                -0.2036765731317407,
                -1.2290246119019559,
                1.8591310091546376,
                -0.1454039733957071,
                -0.3123696418252646,
                -2.9199814604074668
            ]
        },
        {
            "positions": [
                -0.1383058139521921,
                -1.2098316574577574,
                1.8795013743317495,
                -0.26254538922959947,
                -0.22249577956403788,
                -2.9840732937061354
            ]
        },
        {
            "positions": [
                -0.0729350547726435,
                -1.1906387030135592,
                1.8998717395088616,
                -0.3796868050634916,
                -0.13262191730281114,
                -3.048165127004804
            ]
        },
        {
            "positions": [
                -0.007564295593095016,
                -1.1714457485693608,
                1.9202421046859737,
                -0.4968282208973842,
                -0.04274805504158419,
                -3.1122569603034727
            ]
        },
        {
            "positions": [
                0.05780646358645347,
                -1.1522527941251623,
                1.9406124698630858,
                -0.6139696367312764,
                0.047125807219642546,
                -3.176348793602141
            ]
        },
        {
            "positions": [
                0.12317722276600222,
                -1.1330598396809641,
                1.9609828350401979,
                -0.7311110525651685,
                0.13699966948086942,
                -3.2404406269008095
            ]
        }
    ]
}