{
    "goal": {
        "global_pose": {
            "orientation": {
                "w": 0.7047431493862688,
                "x": -0.7094548369677653,
                "y": 0.0024358444001904,
                "z": -0.0022348060817251984
            },
            "position": {
                "x": -0.39052492380142206,
                "y": 0.3671506643295288,
                "z": 0.19426114857196808
            }
        },
        "name": "move_to_magneteinheit_D"
    },
    "id": "KPIECE_move_to_magneteinheit_D_77",
    "joint_names": [
        "shoulder_pan_joint",
        "shoulder_lift_joint",
        "elbow_joint",
        "wrist_1_joint",
        "wrist_2_joint",
        "wrist_3_joint"
    ],
    "metrics": {
        "cart_traj_len": 4.507694345725869,
        "distance_elbow_joint": 3.8600989179796033,
        "distance_shoulder_lift_joint": 1.094885406629996,
        "distance_shoulder_pan_joint": 2.9048100675562023,
        "distance_wrist_1_joint": 2.0917111695365147,
        "distance_wrist_2_joint": 1.3800235160127734,
        "distance_wrist_3_joint": 2.8784885096260586,
        "smoothness": 0.3782230637789817,
        "time": 0.33066382499999997,
        "traj_len": 3.7696176977700473,
        "weighted_distance": 4.841356141841101
    },
    "planner": "KPIECE",
    "start": {
        "state": {
            "elbow_joint": 0.7495348899011973,
            "shoulder_lift_joint": -0.6476975780737697,
            "shoulder_pan_joint": -2.711696901376276,
            "wrist_1_joint": -0.07506478080974305,
            "wrist_2_joint": 0.4329665971545858,
            "wrist_3_joint": 3.1361499051832524
        }
    },
    "waypoints": [
        {
            "positions": [
                -2.711696901376276,
                -0.6476975780737697,
                0.7495348899011973,
                -0.07506478080974305,
                0.4329665971545858,
                3.1361499051832524
            ]
        },
        {
            "positions": [
                -2.7046311120699578,
                -0.731969471128035,
                0.824028805123091,
                -0.12895357002116198,
                0.5100587359938884,
                3.101968678565314
            ]
        },
        {
            "positions": [
                -2.6975653227636394,
                -0.8162413641823003,
                0.8985227203449846,
                -0.18284235923258094,
                0.587150874833191,
                3.067787451947375
            ]
        },
        {
            "positions": [
                -2.6904995334573205,
                -0.9005132572365655,
                0.9730166355668781,
                -0.23673114844399987,
                0.6642430136724935,
                3.0336062253294367
            ]
        },
        {
            "positions": [
                -2.683433744151002,
                -0.9847851502908309,
                1.0475105507887719,
                -0.2906199376554188,
                0.741335152511796,
                2.999424998711498
            ]
        },
        {
            "positions": [
                -2.6763679548446837,
                -1.069057043345096,
                1.1220044660106654,
                -0.34450872686683776,
                0.8184272913510986,
                2.9652437720935594
            ]
        },
        {
            "positions": [
                -2.554538289100323,
                -1.0896623945224193,
                1.0125093717366793,
                -0.3948486522196407,
                0.793519107813018,
                2.9074309674644563
            ]
        },
        {
            "positions": [
                -2.4327086233559623,
                -1.1102677456997423,
                0.9030142774626932,
                -0.44518857757244373,
                0.7686109242749374,
                2.8496181628353527
            ]
        },
        {
            "positions": [
                -2.310878957611602,
                -1.1308730968770655,
                0.7935191831887073,
                -0.4955285029252467,
                0.7437027407368568,
                2.7918053582062496
            ]
        },
        {
            "positions": [
                -2.1890492918672413,
                -1.1514784480543885,
                0.6840240889147211,
                -0.5458684282780497,
                0.7187945571987762,
                2.7339925535771465
            ]
        },
        {
            "positions": [
                -2.067219626122881,
                -1.1720837992317117,
                0.5745289946407351,
                -0.5962083536308527,
                0.6938863736606956,
                2.676179748948043
            ]
        },
        {
            "positions": [
                -1.94538996037852,
                -1.1926891504090347,
                0.4650339003667492,
                -0.6465482789836556,
                0.668978190122615,
                2.61836694431894
            ]
        },
        {
            "positions": [
                -1.8235602946341594,
                -1.2132945015863579,
                0.355538806092763,
                -0.6968882043364586,
                0.6440700065845344,
                2.5605541396898364
            ]
        },
        {
            "positions": [
                -1.7017306288897989,
                -1.2338998527636809,
                0.24604371181877693,
                -0.7472281296892616,
                0.6191618230464537,
                2.5027413350607333
            ]
        },
        {
            "positions": [
                -1.5799009631454382,
                -1.254505203941004,
                0.13654861754479086,
                -0.7975680550420646,
                0.5942536395083732,
                2.44492853043163
            ]
        },
        {
            "positions": [
                -1.4580712974010777,
                -1.275110555118327,
                0.027053523270804902,
                -0.8479079803948676,
                0.5693454559702926,
                2.387115725802527
            ]
        },
        {
            "positions": [
                -1.336241631656717,
                -1.2957159062956503,
                -0.08244157100318117,
                -0.8982479057476705,
                0.544437272432212,
                2.3293029211734235
            ]
        },
        {
            "positions": [
                -1.2144119659123565,
                -1.3163212574729735,
                -0.19193666527716702,
                -0.9485878311004735,
                0.5195290888941313,
                2.2714901165443204
            ]
        },
        {
            "positions": [
                -1.0925823001679957,
                -1.3369266086502964,
                -0.3014317595511533,
                -0.9989277564532766,
                0.49462090535605074,
                2.213677311915217
            ]
        },
        {
            "positions": [
                -0.970752634423635,
                -1.3575319598276194,
                -0.4109268538251394,
                -1.0492676818060795,
                0.46971272181797014,
                2.155864507286114
            ]
        },
        {
            "positions": [
                -0.8489229686792745,
                -1.3781373110049426,
                -0.5204219480991252,
                -1.0996076071588825,
                0.4448045382798896,
                2.0980517026570107
            ]
        },
        {
            "positions": [
                -0.7270933029349138,
                -1.3987426621822658,
                -0.6299170423731115,
                -1.1499475325116855,
                0.4198963547418089,
                2.040238898027907
            ]
        },
        {
            "positions": [
                -0.6052636371905531,
                -1.4193480133595888,
                -0.7394121366470974,
                -1.2002874578644884,
                0.39498817120372837,
                1.982426093398804
            ]
        },
        {
            "positions": [
                -0.4834339714461926,
                -1.439953364536912,
                -0.8489072309210837,
                -1.2506273832172914,
                0.3700799876656477,
                1.9246132887697007
            ]
        },
        {
            "positions": [
                -0.3616043057018321,
                -1.4605587157142352,
                -0.9584023251950697,
                -1.3009673085700943,
                0.34517180412756715,
                1.8668004841405974
            ]
        },
        {
            "positions": [
                -0.2397746399574716,
                -1.4811640668915582,
                -1.0678974194690556,
                -1.3513072339228973,
                0.32026362058948654,
                1.8089876795114943
            ]
        },
        {
            "positions": [
                -0.11794497421311068,
                -1.5017694180688812,
                -1.1773925137430419,
                -1.4016471592757003,
                0.2953554370514059,
                1.7511748748823908
            ]
        },
        {
            "positions": [
                0.0038846915312499702,
                -1.5223747692462044,
                -1.286887608017028,
                -1.4519870846285032,
                0.2704472535133253,
                1.6933620702532877
            ]
        },
        {
            "positions": [
                -0.0012399283338506237,
                -1.5389939360371057,
                -1.416138314548274,
                -1.5159372048669852,
                0.2407128802682792,
                1.8374184101810007
            ]
        },
        {
            "positions": [
                -0.006364548198951218,
                -1.5556131028280071,
                -1.54538902107952,
                -1.5798873251054673,
                0.21097850702323306,
                1.9814747501087138
            ]
        },
        {
            "positions": [
                -0.011489168064051812,
                -1.5722322696189084,
                -1.674639727610766,
                -1.643837445343949,
                0.1812441337781869,
                2.125531090036427
            ]
        },
        {
            "positions": [
                -0.016613787929152406,
                -1.5888514364098096,
                -1.8038904341420121,
                -1.707787565582431,
                0.15150976053314077,
                2.26958742996414
            ]
        },
        {
            "positions": [
                -0.021738407794252998,
                -1.6054706032007109,
                -1.9331411406732582,
                -1.771737685820913,
                0.12177538728809464,
                2.413643769891853
            ]
        },
        {
            "positions": [
                -0.026863027659353594,
                -1.6220897699916121,
                -2.062391847204504,
                -1.8356878060593949,
                0.09204101404304849,
                2.557700109819566
            ]
        },
        {
            "positions": [
                -0.03198764752445419,
                -1.6387089367825136,
                -2.1916425537357505,
                -1.8996379262978769,
                0.062306640798002355,
                2.701756449747279
            ]
        },
        {
            "positions": [
                -0.03711226738955478,
                -1.6553281035734149,
                -2.3208932602669963,
                -1.9635880465363589,
                0.032572267552956224,
                2.845812789674992
            ]
        },
        {
            "positions": [
                -0.08652277263217875,
                -1.6844130639501984,
                -2.335803798797821,
                -2.031317347806325,
                -0.036996998453083296,
                2.940229441433122
            ]
        },
        {
            "positions": [
                -0.13593327787480275,
                -1.7134980243269822,
                -2.3507143373286463,
                -2.0990466490762913,
                -0.10656626445912282,
                3.0346460931912516
            ]
        },
        {
            "positions": [
                -0.18534378311742672,
                -1.7425829847037657,
                -2.365624875859471,
                -2.1667759503462576,
                -0.17613553046516234,
                3.1290627449493815
            ]
        }
    ]
}