{
    "goal": {
        "global_pose": {
            "orientation": {
                "w": -0.00223480608172531,
                "x": 0.0024358444001904467,
                "y": 0.7094548369677653,
                "z": -0.704743149386269
            },
            "position": {
                "x": -0.37947507619857795,
                "y": -0.6371506643295288,
                "z": 0.19426114857196808
            }
        },
        "name": "move_to_magneteinheit_C"
    },
    "id": "KPIECE_move_to_magneteinheit_C_73",
    "joint_names": [
        "shoulder_pan_joint",
        "shoulder_lift_joint",
        "elbow_joint",
        "wrist_1_joint",
        "wrist_2_joint",
        "wrist_3_joint"
    ],
    "metrics": {
        "cart_traj_len": 1.7187473382868106,
        "distance_elbow_joint": 1.0426288870643408,
        "distance_shoulder_lift_joint": 0.5229662616000303,
        "distance_shoulder_pan_joint": 2.102311920586287,
        "distance_wrist_1_joint": 7.891704091520973,
        "distance_wrist_2_joint": 3.025584658323319,
        "distance_wrist_3_joint": 1.949125799590453,
        "smoothness": 1.1075045701217265,
        "time": 1.4824867140000002,
        "traj_len": 4.066241706869552,
        "weighted_distance": 5.599094745377204
    },
    "planner": "KPIECE",
    "start": {
        "state": {
            "elbow_joint": 1.9565354006590394,
            "shoulder_lift_joint": -1.4165861576513559,
            "shoulder_pan_joint": -1.6717766223277177,
            "wrist_1_joint": -0.5286633288215096,
            "wrist_2_joint": 1.4727565892594296,
            "wrist_3_joint": 3.1593482883155493
        }
    },
    "waypoints": [
        {
            "positions": [
                -1.6717766223277177,
                -1.4165861576513559,
                1.9565354006590394,
                -0.5286633288215096,
                1.4727565892594296,
                3.1593482883155493
            ]
        },
        {
            "positions": [
                -1.590763887887624,
                -1.4616274004993905,
                2.00887153654288,
                -0.5822616008636516,
                1.5196715514080756,
                3.1602630956223163
            ]
        },
        {
            "positions": [
                -1.50975115344753,
                -1.506668643347425,
                2.06120767242672,
                -0.6358598729057936,
                1.5665865135567218,
                3.161177902929084
            ]
        },
        {
            "positions": [
                -1.4287384190074364,
                -1.5517098861954597,
                2.1135438083105607,
                -0.6894581449479357,
                1.6135014757053678,
                3.162092710235851
            ]
        },
        {
            "positions": [
                -1.4947053068446245,
                -1.5468921573272016,
                2.131309193751767,
                -0.5169736916092884,
                1.5268150596091434,
                3.11721958671953
            ]
        },
        {
            "positions": [
                -1.560672194681813,
                -1.5420744284589436,
                2.1490745791929733,
                -0.3444892382706411,
                1.4401286435129188,
                3.0723464632032087
            ]
        },
        {
            "positions": [
                -1.6266390825190011,
                -1.5372566995906856,
                2.1668399646341796,
                -0.1720047849319939,
                1.3534422274166944,
                3.0274733396868876
            ]
        },
        {
            "positions": [
                -1.6926059703561895,
                -1.5324389707224275,
                2.184605350075386,
                0.0004796684066534773,
                1.2667558113204698,
                2.9826002161705665
            ]
        },
        {
            "positions": [
                -1.7585728581933777,
                -1.5276212418541695,
                2.2023707355165922,
                0.17296412174530063,
                1.1800693952242454,
                2.9377270926542454
            ]
        },
        {
            "positions": [
                -1.824539746030566,
                -1.5228035129859114,
                2.2201361209577986,
                0.3454485750839479,
                1.093382979128021,
                2.8928539691379243
            ]
        },
        {
            "positions": [
                -1.890506633867754,
                -1.5179857841176534,
                2.237901506399005,
                0.5179330284225953,
                1.0066965630317963,
                2.847980845621603
            ]
        },
        {
            "positions": [
                -1.9564735217049425,
                -1.5131680552493953,
                2.255666891840211,
                0.6904174817612426,
                0.9200101469355718,
                2.803107722105282
            ]
        },
        {
            "positions": [
                -2.022440409542131,
                -1.5083503263811373,
                2.2734322772814175,
                0.8629019350998898,
                0.8333237308393472,
                2.7582345985889605
            ]
        },
        {
            "positions": [
                -2.088407297379319,
                -1.5035325975128793,
                2.291197662722624,
                1.0353863884385368,
                0.7466373147431228,
                2.71336147507264
            ]
        },
        {
            "positions": [
                -2.1543741852165073,
                -1.4987148686446212,
                2.30896304816383,
                1.2078708417771842,
                0.6599508986468983,
                2.6684883515563182
            ]
        },
        {
            "positions": [
                -2.2203410730536954,
                -1.4938971397763634,
                2.3267284336050365,
                1.3803552951158315,
                0.5732644825506739,
                2.6236152280399976
            ]
        },
        {
            "positions": [
                -2.286307960890884,
                -1.4890794109081054,
                2.3444938190462428,
                1.552839748454479,
                0.48657806645444923,
                2.578742104523676
            ]
        },
        {
            "positions": [
                -2.3522748487280722,
                -1.4842616820398473,
                2.362259204487449,
                1.7253242017931263,
                0.3998916503582248,
                2.5338689810073554
            ]
        },
        {
            "positions": [
                -2.4182417365652604,
                -1.4794439531715893,
                2.3800245899286554,
                1.8978086551317732,
                0.3132052342620004,
                2.488995857491034
            ]
        },
        {
            "positions": [
                -2.4842086244024486,
                -1.4746262243033312,
                2.3977899753698617,
                2.070293108470421,
                0.2265188181657758,
                2.4441227339747127
            ]
        },
        {
            "positions": [
                -2.550175512239637,
                -1.4698084954350732,
                2.415555360811068,
                2.242777561809068,
                0.13983240206955116,
                2.3992496104583916
            ]
        },
        {
            "positions": [
                -2.616142400076825,
                -1.4649907665668152,
                2.4333207462522743,
                2.4152620151477153,
                0.05314598597332654,
                2.3543764869420705
            ]
        },
        {
            "positions": [
                -2.682109287914013,
                -1.460173037698557,
                2.4510861316934807,
                2.5877464684863627,
                -0.03354043012289787,
                2.3095033634257494
            ]
        },
        {
            "positions": [
                -2.7480761757512013,
                -1.455355308830299,
                2.468851517134687,
                2.7602309218250096,
                -0.12022684621912227,
                2.2646302399094282
            ]
        },
        {
            "positions": [
                -2.81404306358839,
                -1.450537579962041,
                2.4866169025758933,
                2.9327153751636574,
                -0.2069132623153469,
                2.219757116393107
            ]
        },
        {
            "positions": [
                -2.880009951425578,
                -1.445719851093783,
                2.5043822880170996,
                3.1051998285023044,
                -0.2935996784115713,
                2.174883992876786
            ]
        },
        {
            "positions": [
                -2.8573431633784745,
                -1.4300613789852135,
                2.4768943991445287,
                2.8865192006165095,
                -0.23928086631376894,
                2.2281713628940687
            ]
        },
        {
            "positions": [
                -2.834676375331371,
                -1.4144029068766442,
                2.4494065102719573,
                2.6678385727307146,
                -0.18496205421596656,
                2.2814587329113514
            ]
        },
        {
            "positions": [
                -2.8120095872842676,
                -1.3987444347680746,
                2.421918621399386,
                2.44915794484492,
                -0.13064324211816417,
                2.3347461029286336
            ]
        },
        {
            "positions": [
                -2.789342799237164,
                -1.3830859626595053,
                2.394430732526815,
                2.230477316959125,
                -0.0763244300203618,
                2.3880334729459163
            ]
        },
        {
            "positions": [
                -2.7666760111900603,
                -1.3674274905509358,
                2.366942843654244,
                2.0117966890733303,
                -0.022005617922559395,
                2.441320842963199
            ]
        },
        {
            "positions": [
                -2.7440092231429567,
                -1.3517690184423663,
                2.3394549547816728,
                1.7931160611875354,
                0.032313194175242976,
                2.4946082129804816
            ]
        },
        {
            "positions": [
                -2.7213424350958535,
                -1.336110546333797,
                2.3119670659091014,
                1.5744354333017403,
                0.0866320062730454,
                2.5478955829977643
            ]
        },
        {
            "positions": [
                -2.69867564704875,
                -1.3204520742252275,
                2.2844791770365305,
                1.3557548054159456,
                0.14095081837084772,
                2.6011829530150465
            ]
        },
        {
            "positions": [
                -2.676008859001646,
                -1.304793602116658,
                2.2569912881639596,
                1.1370741775301507,
                0.19526963046865015,
                2.654470323032329
            ]
        },
        {
            "positions": [
                -2.6533420709545426,
                -1.2891351300080887,
                2.229503399291388,
                0.9183935496443558,
                0.24958844256645252,
                2.707757693049612
            ]
        },
        {
            "positions": [
                -2.630675282907439,
                -1.2734766578995191,
                2.202015510418817,
                0.6997129217585609,
                0.30390725466425494,
                2.7610450630668946
            ]
        },
        {
            "positions": [
                -2.6080084948603357,
                -1.2578181857909498,
                2.174527621546246,
                0.48103229387276647,
                0.35822606676205726,
                2.814332433084177
            ]
        },
        {
            "positions": [
                -2.585341706813232,
                -1.2421597136823803,
                2.147039732673675,
                0.26235166598697157,
                0.4125448788598597,
                2.8676198031014595
            ]
        },
        {
            "positions": [
                -2.5626749187661284,
                -1.2265012415738108,
                2.1195518438011036,
                0.04367103810117623,
                0.4668636909576621,
                2.920907173118742
            ]
        },
        {
            "positions": [
                -2.5400081307190248,
                -1.2108427694652415,
                2.0920639549285323,
                -0.17500958978461867,
                0.5211825030554644,
                2.974194543136025
            ]
        },
        {
            "positions": [
                -2.5173413426719216,
                -1.195184297356672,
                2.0645760660559613,
                -0.3936902176704131,
                0.5755013151532667,
                3.027481913153307
            ]
        },
        {
            "positions": [
                -2.494674554624818,
                -1.1795258252481027,
                2.0370881771833904,
                -0.612370845556208,
                0.6298201272510692,
                3.0807692831705897
            ]
        },
        {
            "positions": [
                -2.4720077665777143,
                -1.1638673531395332,
                2.009600288310819,
                -0.8310514734420028,
                0.6841389393488716,
                3.1340566531878724
            ]
        }
    ]
}