{
    "goal": {
        "global_pose": {
            "orientation": {
                "w": -0.00223480608172531,
                "x": 0.0024358444001904467,
                "y": 0.7094548369677653,
                "z": -0.704743149386269
            },
            "position": {
                "x": -0.37947507619857795,
                "y": -0.6371506643295288,
                "z": 0.19426114857196808
            }
        },
        "name": "move_to_magneteinheit_C"
    },
    "id": "KPIECE_move_to_magneteinheit_C_134",
    "joint_names": [
        "shoulder_pan_joint",
        "shoulder_lift_joint",
        "elbow_joint",
        "wrist_1_joint",
        "wrist_2_joint",
        "wrist_3_joint"
    ],
    "metrics": {
        "cart_traj_len": 2.099150446514127,
        "distance_elbow_joint": 1.3603768215453629,
        "distance_shoulder_lift_joint": 0.8094389688583787,
        "distance_shoulder_pan_joint": 1.8277379984558042,
        "distance_wrist_1_joint": 3.8717111823918056,
        "distance_wrist_2_joint": 2.551966941786987,
        "distance_wrist_3_joint": 4.109584162965211,
        "smoothness": 0.6345829659026891,
        "time": 0.296732799,
        "traj_len": 3.811930754355796,
        "weighted_distance": 5.401264900568455
    },
    "planner": "KPIECE",
    "start": {
        "state": {
            "elbow_joint": 1.9565354006590394,
            "shoulder_lift_joint": -1.4165861576513559,
            "shoulder_pan_joint": -1.6717766223277177,
            "wrist_1_joint": -0.5286633288215096,
            "wrist_2_joint": 1.4727565892594296,
            "wrist_3_joint": 3.1593482883155493
        }
    },
    "waypoints": [
        {
            "positions": [
                -1.6717766223277177,
                -1.4165861576513559,
                1.9565354006590394,
                -0.5286633288215096,
                1.4727565892594296,
                3.1593482883155493
            ]
        },
        {
            "positions": [
                -1.609726915286015,
                -1.3947318145297922,
                1.9359980484383223,
                -0.47801979705118836,
                1.502697687984579,
                3.141720847551335
            ]
        },
        {
            "positions": [
                -1.5476772082443122,
                -1.3728774714082286,
                1.915460696217605,
                -0.42737626528086714,
                1.5326387867097282,
                3.1240934067871216
            ]
        },
        {
            "positions": [
                -1.4859288934034696,
                -1.3927208865878398,
                1.8104412635016218,
                -0.4192218338305209,
                1.527030042606706,
                2.9393683353937443
            ]
        },
        {
            "positions": [
                -1.424180578562627,
                -1.4125643017674512,
                1.7054218307856388,
                -0.4110674023801747,
                1.5214212985036841,
                2.754643264000367
            ]
        },
        {
            "positions": [
                -1.46364187410731,
                -1.4324221700923108,
                1.6764942014542417,
                -0.5091367190505531,
                1.4503768116627351,
                2.634216003771428
            ]
        },
        {
            "positions": [
                -1.5031031696519932,
                -1.4522800384171701,
                1.6475665721228447,
                -0.6072060357209315,
                1.3793323248217861,
                2.5137887435424893
            ]
        },
        {
            "positions": [
                -1.5425644651966763,
                -1.4721379067420295,
                1.6186389427914478,
                -0.7052753523913099,
                1.3082878379808371,
                2.3933614833135506
            ]
        },
        {
            "positions": [
                -1.5820257607413597,
                -1.491995775066889,
                1.5897113134600507,
                -0.8033446690616883,
                1.2372433511398881,
                2.2729342230846115
            ]
        },
        {
            "positions": [
                -1.6214870562860428,
                -1.5118536433917487,
                1.5607836841286535,
                -0.9014139857320667,
                1.1661988642989392,
                2.1525069628556723
            ]
        },
        {
            "positions": [
                -1.660948351830726,
                -1.531711511716608,
                1.5318560547972566,
                -0.9994833024024451,
                1.0951543774579902,
                2.0320797026267337
            ]
        },
        {
            "positions": [
                -1.7004096473754091,
                -1.5515693800414674,
                1.5029284254658597,
                -1.0975526190728235,
                1.0241098906170412,
                1.9116524423977947
            ]
        },
        {
            "positions": [
                -1.7398709429200923,
                -1.571427248366327,
                1.4740007961344626,
                -1.1956219357432019,
                0.9530654037760923,
                1.7912251821688558
            ]
        },
        {
            "positions": [
                -1.7793322384647756,
                -1.5912851166911866,
                1.4450731668030654,
                -1.2936912524135802,
                0.8820209169351433,
                1.670797921939917
            ]
        },
        {
            "positions": [
                -1.8187935340094588,
                -1.611142985016046,
                1.4161455374716685,
                -1.3917605690839587,
                0.8109764300941943,
                1.550370661710978
            ]
        },
        {
            "positions": [
                -1.858254829554142,
                -1.6310008533409053,
                1.3872179081402716,
                -1.4898298857543368,
                0.7399319432532453,
                1.4299434014820391
            ]
        },
        {
            "positions": [
                -1.897716125098825,
                -1.6508587216657649,
                1.3582902788088744,
                -1.5878992024247156,
                0.6688874564122963,
                1.3095161412531002
            ]
        },
        {
            "positions": [
                -1.976447850004746,
                -1.634112473904286,
                1.4197932149106118,
                -1.6890226698248252,
                0.5870578153642002,
                1.2879538006276914
            ]
        },
        {
            "positions": [
                -2.055179574910667,
                -1.6173662261428072,
                1.4812961510123495,
                -1.7901461372249348,
                0.5052281743161041,
                1.2663914600022823
            ]
        },
        {
            "positions": [
                -2.133911299816588,
                -1.6006199783813284,
                1.5427990871140869,
                -1.8912696046250441,
                0.4233985332680081,
                1.2448291193768735
            ]
        },
        {
            "positions": [
                -2.2126430247225093,
                -1.5838737306198496,
                1.6043020232158243,
                -1.9923930720251537,
                0.341568892219912,
                1.2232667787514644
            ]
        },
        {
            "positions": [
                -2.2913747496284302,
                -1.5671274828583708,
                1.665804959317562,
                -2.0935165394252633,
                0.2597392511718159,
                1.2017044381260555
            ]
        },
        {
            "positions": [
                -2.370106474534351,
                -1.550381235096892,
                1.7273078954192993,
                -2.194640006825373,
                0.17790961012371986,
                1.1801420975006467
            ]
        },
        {
            "positions": [
                -2.448838199440272,
                -1.5336349873354131,
                1.7888108315210367,
                -2.2957634742254824,
                0.09607996907562376,
                1.1585797568752376
            ]
        },
        {
            "positions": [
                -2.5456909642669365,
                -1.5095661883271574,
                1.878092078853018,
                -2.3657049357309323,
                0.01503881217562096,
                1.1368579118499855
            ]
        },
        {
            "positions": [
                -2.6425437290936005,
                -1.4854973893189016,
                1.9673733261849993,
                -2.4356463972363827,
                -0.06600234472438184,
                1.1151360668247332
            ]
        },
        {
            "positions": [
                -2.739396493920265,
                -1.4614285903106459,
                2.0566545735169806,
                -2.5055878587418325,
                -0.14704350162438462,
                1.0934142217994811
            ]
        },
        {
            "positions": [
                -2.7231919635054647,
                -1.4364367139735392,
                2.057560622225311,
                -2.386076530170397,
                -0.08947472638052092,
                1.241862341996395
            ]
        },
        {
            "positions": [
                -2.7069874330906645,
                -1.4114448376364326,
                2.058466670933641,
                -2.266565201598961,
                -0.031905951136657215,
                1.3903104621933087
            ]
        },
        {
            "positions": [
                -2.690782902675864,
                -1.3864529612993262,
                2.059372719641971,
                -2.1470538730275255,
                0.025662824107206467,
                1.5387585823902226
            ]
        },
        {
            "positions": [
                -2.6745783722610637,
                -1.3614610849622195,
                2.0602787683503014,
                -2.0275425444560895,
                0.08323159935107019,
                1.6872067025871362
            ]
        },
        {
            "positions": [
                -2.6583738418462635,
                -1.3364692086251129,
                2.0611848170586318,
                -1.908031215884654,
                0.14080037459493389,
                1.8356548227840501
            ]
        },
        {
            "positions": [
                -2.6421693114314633,
                -1.3114773322880062,
                2.062090865766962,
                -1.7885198873132184,
                0.19836914983879755,
                1.984102942980964
            ]
        },
        {
            "positions": [
                -2.625964781016663,
                -1.2864854559508996,
                2.0629969144752924,
                -1.6690085587417824,
                0.2559379250826613,
                2.1325510631778775
            ]
        },
        {
            "positions": [
                -2.6097602506018625,
                -1.2614935796137932,
                2.0639029631836223,
                -1.549497230170347,
                0.313506700326525,
                2.2809991833747914
            ]
        },
        {
            "positions": [
                -2.5935557201870623,
                -1.2365017032766865,
                2.0648090118919527,
                -1.4299859015989111,
                0.37107547557038867,
                2.4294473035717052
            ]
        },
        {
            "positions": [
                -2.577351189772262,
                -1.2115098269395799,
                2.065715060600283,
                -1.3104745730274754,
                0.4286442508142524,
                2.577895423768619
            ]
        },
        {
            "positions": [
                -2.560950275501636,
                -1.2039758089843633,
                2.057237985130527,
                -1.2369980211863432,
                0.4661731872452197,
                2.6662577373564984
            ]
        },
        {
            "positions": [
                -2.539330320273024,
                -1.193759279065285,
                2.0456805245220187,
                -1.1392467806780122,
                0.5159696290284628,
                2.7839593825795297
            ]
        },
        {
            "positions": [
                -2.5177103650444126,
                -1.1835427491462065,
                2.03412306391351,
                -1.0414955401696815,
                0.5657660708117058,
                2.901661027802561
            ]
        },
        {
            "positions": [
                -2.496090409815801,
                -1.173326219227128,
                2.022565603305002,
                -0.9437442996613505,
                0.6155625125949488,
                3.019362673025592
            ]
        },
        {
            "positions": [
                -2.4744704545871894,
                -1.1631096893080497,
                2.0110081426964936,
                -0.8459930591530197,
                0.6653589543781918,
                3.137064318248623
            ]
        }
    ]
}