{
    "goal": {
        "global_pose": {
            "orientation": {
                "w": -0.00223480608172531,
                "x": 0.0024358444001904467,
                "y": 0.7094548369677653,
                "z": -0.704743149386269
            },
            "position": {
                "x": -0.37947507619857795,
                "y": -0.6371506643295288,
                "z": 0.19426114857196808
            }
        },
        "name": "move_to_magneteinheit_C"
    },
    "id": "KPIECE_move_to_magneteinheit_C_97",
    "joint_names": [
        "shoulder_pan_joint",
        "shoulder_lift_joint",
        "elbow_joint",
        "wrist_1_joint",
        "wrist_2_joint",
        "wrist_3_joint"
    ],
    "metrics": {
        "cart_traj_len": 3.287585829402814,
        "distance_elbow_joint": 1.563512818465235,
        "distance_shoulder_lift_joint": 1.609955218294051,
        "distance_shoulder_pan_joint": 3.077273056087108,
        "distance_wrist_1_joint": 0.8518383708318493,
        "distance_wrist_2_joint": 2.150753938111726,
        "distance_wrist_3_joint": 2.2717234674111393,
        "smoothness": 1.038383473371038,
        "time": 0.236222018,
        "traj_len": 3.3948574151503195,
        "weighted_distance": 4.367046612181619
    },
    "planner": "KPIECE",
    "start": {
        "state": {
            "elbow_joint": 1.9565354006590394,
            "shoulder_lift_joint": -1.4165861576513559,
            "shoulder_pan_joint": -1.6717766223277177,
            "wrist_1_joint": -0.5286633288215096,
            "wrist_2_joint": 1.4727565892594296,
            "wrist_3_joint": 3.1593482883155493
        }
    },
    "waypoints": [
        {
            "positions": [
                -1.6717766223277177,
                -1.4165861576513559,
                1.9565354006590394,
                -0.5286633288215096,
                1.4727565892594296,
                3.1593482883155493
            ]
        },
        {
            "positions": [
                -1.6018621747879347,
                -1.443537943317762,
                1.9578700680668422,
                -0.47513912315546514,
                1.4571521156894292,
                3.1034553486954346
            ]
        },
        {
            "positions": [
                -1.5287122549734828,
                -1.4900543127796502,
                1.9038591647327732,
                -0.4981810007024248,
                1.3529599401335282,
                3.0252424019067554
            ]
        },
        {
            "positions": [
                -1.455562335159031,
                -1.5365706822415386,
                1.8498482613987044,
                -0.5212228782493845,
                1.2487677645776274,
                2.9470294551180767
            ]
        },
        {
            "positions": [
                -1.3824124153445791,
                -1.5830870517034268,
                1.7958373580646354,
                -0.5442647557963443,
                1.1445755890217264,
                2.868816508329398
            ]
        },
        {
            "positions": [
                -1.3092624955301273,
                -1.629603421165315,
                1.7418264547305666,
                -0.567306633343304,
                1.0403834134658254,
                2.7906035615407188
            ]
        },
        {
            "positions": [
                -1.2361125757156755,
                -1.6761197906272034,
                1.6878155513964976,
                -0.5903485108902637,
                0.9361912379099245,
                2.7123906147520396
            ]
        },
        {
            "positions": [
                -1.1629626559012236,
                -1.7226361600890916,
                1.6338046480624289,
                -0.6133903884372234,
                0.8319990623540237,
                2.634177667963361
            ]
        },
        {
            "positions": [
                -1.0898127360867718,
                -1.76915252955098,
                1.5797937447283599,
                -0.6364322659841831,
                0.7278068867981227,
                2.555964721174682
            ]
        },
        {
            "positions": [
                -1.01666281627232,
                -1.8156688990128682,
                1.525782841394291,
                -0.6594741435311429,
                0.6236147112422218,
                2.477751774386003
            ]
        },
        {
            "positions": [
                -0.9435128964578681,
                -1.8621852684747564,
                1.471771938060222,
                -0.6825160210781025,
                0.5194225356863208,
                2.3995388275973237
            ]
        },
        {
            "positions": [
                -0.8703629766434162,
                -1.9087016379366446,
                1.4177610347261531,
                -0.7055578986250622,
                0.4152303601304199,
                2.321325880808645
            ]
        },
        {
            "positions": [
                -0.7972130568289644,
                -1.955218007398533,
                1.3637501313920843,
                -0.728599776172022,
                0.31103818457451893,
                2.2431129340199663
            ]
        },
        {
            "positions": [
                -0.7240631370145125,
                -2.001734376860421,
                1.3097392280580156,
                -0.7516416537189816,
                0.20684600901861816,
                2.164899987231287
            ]
        },
        {
            "positions": [
                -0.6509132172000607,
                -2.0482507463223096,
                1.2557283247239464,
                -0.7746835312659415,
                0.10265383346271717,
                2.086687040442608
            ]
        },
        {
            "positions": [
                -0.5777632973856088,
                -2.094767115784198,
                1.2017174213898776,
                -0.7977254088129011,
                -0.001538342093183806,
                2.008474093653929
            ]
        },
        {
            "positions": [
                -0.7263532086307571,
                -2.055587709894977,
                1.2622162878624636,
                -0.7802372799048011,
                0.047279700384797854,
                2.0673046172060343
            ]
        },
        {
            "positions": [
                -0.8749431198759056,
                -2.0164083040057563,
                1.32271515433505,
                -0.7627491509967012,
                0.09609774286277951,
                2.1261351407581395
            ]
        },
        {
            "positions": [
                -1.0235330311210538,
                -1.9772288981165353,
                1.383214020807636,
                -0.7452610220886011,
                0.14491578534076116,
                2.184965664310244
            ]
        },
        {
            "positions": [
                -1.1721229423662023,
                -1.9380494922273144,
                1.4437128872802223,
                -0.7277728931805012,
                0.19373382781874282,
                2.2437961878623494
            ]
        },
        {
            "positions": [
                -1.3207128536113506,
                -1.8988700863380936,
                1.5042117537528084,
                -0.7102847642724012,
                0.24255187029672448,
                2.3026267114144545
            ]
        },
        {
            "positions": [
                -1.469302764856499,
                -1.8596906804488726,
                1.5647106202253946,
                -0.6927966353643012,
                0.29136991277470614,
                2.3614572349665597
            ]
        },
        {
            "positions": [
                -1.6178926761016472,
                -1.820511274559652,
                1.6252094866979807,
                -0.6753085064562012,
                0.34018795525268775,
                2.4202877585186644
            ]
        },
        {
            "positions": [
                -1.7664825873467958,
                -1.781331868670431,
                1.685708353170567,
                -0.6578203775481013,
                0.38900599773066946,
                2.4791182820707696
            ]
        },
        {
            "positions": [
                -1.9150724985919438,
                -1.7421524627812102,
                1.746207219643153,
                -0.6403322486400013,
                0.43782404020865107,
                2.5379488056228747
            ]
        },
        {
            "positions": [
                -2.063662409837092,
                -1.7029730568919892,
                1.8067060861157394,
                -0.6228441197319012,
                0.4866420826866328,
                2.59677932917498
            ]
        },
        {
            "positions": [
                -2.2122523210822407,
                -1.6637936510027684,
                1.8672049525883254,
                -0.6053559908238013,
                0.5354601251646144,
                2.6556098527270846
            ]
        },
        {
            "positions": [
                -2.360842232327389,
                -1.6246142451135475,
                1.9277038190609117,
                -0.5878678619157014,
                0.5842781676425961,
                2.7144403762791898
            ]
        },
        {
            "positions": [
                -2.5094321435725373,
                -1.5854348392243267,
                1.9882026855334978,
                -0.5703797330076014,
                0.6330962101205777,
                2.773270899831295
            ]
        },
        {
            "positions": [
                -2.5179177530409578,
                -1.4669689175014895,
                2.0006313715776343,
                -0.6342345411112567,
                0.6498540757310879,
                2.875727534507047
            ]
        },
        {
            "positions": [
                -2.503549327877741,
                -1.3656435635419892,
                2.003001889641871,
                -0.695743672977728,
                0.6582096053760347,
                2.9602594784725142
            ]
        },
        {
            "positions": [
                -2.4891809027145246,
                -1.264318209582489,
                2.0053724077061084,
                -0.7572528048441992,
                0.6665651350209816,
                3.044791422437981
            ]
        },
        {
            "positions": [
                -2.474812477551308,
                -1.1629928556229887,
                2.007742925770345,
                -0.8187619367106705,
                0.6749206646659284,
                3.1293233664034483
            ]
        }
    ]
}