{
    "goal": {
        "global_pose": {
            "orientation": {
                "w": 0.5084816217422485,
                "x": -0.49083608388900757,
                "y": 0.5182115435600281,
                "z": -0.4816462993621826
            },
            "position": {
                "x": 0.5540239810943604,
                "y": 0.030875300988554955,
                "z": 0.16403168439865112
            }
        },
        "name": "move_to_storage_A"
    },
    "id": "KPIECE_move_to_storage_A_8",
    "joint_names": [
        "shoulder_pan_joint",
        "shoulder_lift_joint",
        "elbow_joint",
        "wrist_1_joint",
        "wrist_2_joint",
        "wrist_3_joint"
    ],
    "metrics": {
        "cart_traj_len": 0.3528333796436018,
        "distance_elbow_joint": 0.4479243913914548,
        "distance_shoulder_lift_joint": 0.23397647836008573,
        "distance_shoulder_pan_joint": 0.46095918704716926,
        "distance_wrist_1_joint": 0.2370979109812582,
        "distance_wrist_2_joint": 1.0995363550758475,
        "distance_wrist_3_joint": 0.10353902784395697,
        "smoothness": 4.440892098500626e-16,
        "time": 0.083802451,
        "traj_len": 1.6071818038727828,
        "weighted_distance": 2.031439310549245
    },
    "planner": "KPIECE",
    "start": {
        "state": {
            "elbow_joint": 1.9715474177455299,
            "shoulder_lift_joint": -1.139484666580328,
            "shoulder_pan_joint": 0.12281154398918248,
            "wrist_1_joint": -0.7804687475355282,
            "wrist_2_joint": 0.12958649657246987,
            "wrist_3_joint": -3.1924925159053466
        }
    },
    "waypoints": [
        {
            "positions": [
                0.12281154398918248,
                -1.139484666580328,
                1.9715474177455299,
                -0.7804687475355282,
                0.12958649657246987,
                -3.1924925159053466
            ]
        },
        {
            "positions": [
                0.05696023155387259,
                -1.1729098777746259,
                2.0355366165157376,
                -0.8143398776757079,
                0.28666311872616235,
                -3.177701226213353
            ]
        },
        {
            "positions": [
                -0.008891080881437308,
                -1.206335088968924,
                2.0995258152859457,
                -0.8482110078158877,
                0.4437397408798548,
                -3.1629099365213587
            ]
        },
        {
            "positions": [
                -0.0747423933167472,
                -1.2397603001632218,
                2.1635150140561534,
                -0.8820821379560674,
                0.6008163630335474,
                -3.148118646829365
            ]
        },
        {
            "positions": [
                -0.1405937057520571,
                -1.27318551135752,
                2.227504212826361,
                -0.9159532680962472,
                0.7578929851872398,
                -3.133327357137371
            ]
        },
        {
            "positions": [
                -0.206445018187367,
                -1.3066107225518178,
                2.2914934115965693,
                -0.949824398236427,
                0.9149696073409324,
                -3.1185360674453775
            ]
        },
        {
            "positions": [
                -0.2722963306226769,
                -1.3400359337461158,
                2.355482610366777,
                -0.9836955283766067,
                1.0720462294946247,
                -3.1037447777533833
            ]
        },
        {
            "positions": [
                -0.3381476430579868,
                -1.3734611449404137,
                2.4194718091369847,
                -1.0175666585167864,
                1.2291228516483172,
                -3.0889534880613896
            ]
        }
    ]
}