{
    "goal": {
        "global_pose": {
            "orientation": {
                "w": -0.4816463035849501,
                "x": 0.5182115481033762,
                "y": 0.4908360881923453,
                "z": -0.5084816262002911
            },
            "position": {
                "x": -0.8240239810943604,
                "y": -0.300875300988555,
                "z": 0.16403168439865112
            }
        },
        "name": "move_to_storage_C"
    },
    "id": "KPIECE_move_to_storage_C_44",
    "joint_names": [
        "shoulder_pan_joint",
        "shoulder_lift_joint",
        "elbow_joint",
        "wrist_1_joint",
        "wrist_2_joint",
        "wrist_3_joint"
    ],
    "metrics": {
        "cart_traj_len": 0.5766240040772579,
        "distance_elbow_joint": 0.2576418426011555,
        "distance_shoulder_lift_joint": 0.19057950740422047,
        "distance_shoulder_pan_joint": 0.4941502117206378,
        "distance_wrist_1_joint": 0.07238864807262924,
        "distance_wrist_2_joint": 1.0681642664495237,
        "distance_wrist_3_joint": 0.06994659682677629,
        "smoothness": 0.0,
        "time": 0.058913286999999995,
        "traj_len": 1.4672665310280006,
        "weighted_distance": 1.8529212560847392
    },
    "planner": "KPIECE",
    "start": {
        "state": {
            "elbow_joint": 2.010868315001653,
            "shoulder_lift_joint": -1.1634956873357014,
            "shoulder_pan_joint": -2.4736205022346103,
            "wrist_1_joint": -0.8367026794713948,
            "wrist_2_joint": 0.6746043897044093,
            "wrist_3_joint": 3.1335220948105738
        }
    },
    "waypoints": [
        {
            "positions": [
                -2.4736205022346103,
                -1.1634956873357014,
                2.010868315001653,
                -0.8367026794713948,
                0.6746043897044093,
                3.1335220948105738
            ]
        },
        {
            "positions": [
                -2.5559788708547164,
                -1.1317324361016647,
                1.9679280079014605,
                -0.8246379047926232,
                0.8526317674459966,
                3.1451798609483697
            ]
        },
        {
            "positions": [
                -2.638337239474823,
                -1.0999691848676278,
                1.924987700801268,
                -0.8125731301138517,
                1.0306591451875837,
                3.156837627086166
            ]
        },
        {
            "positions": [
                -2.720695608094929,
                -1.0682059336335912,
                1.8820473937010753,
                -0.8005083554350801,
                1.2086865229291712,
                3.168495393223962
            ]
        },
        {
            "positions": [
                -2.8030539767150353,
                -1.0364426823995545,
                1.8391070866008827,
                -0.7884435807563086,
                1.3867139006707583,
                3.180153159361758
            ]
        },
        {
            "positions": [
                -2.885412345335142,
                -1.0046794311655176,
                1.7961667795006901,
                -0.7763788060775371,
                1.5647412784123458,
                3.191810925499554
            ]
        },
        {
            "positions": [
                -2.967770713955248,
                -0.9729161799314809,
                1.7532264724004976,
                -0.7643140313987655,
                1.7427686561539328,
                3.20346869163735
            ]
        }
    ]
}