{
    "goal": {
        "global_pose": {
            "orientation": {
                "w": 0.7031023480610252,
                "x": -0.7110244013736278,
                "y": 0.0077485991402295624,
                "z": 0.005598929693374583
            },
            "position": {
                "x": -0.8841497679147869,
                "y": 0.44412534475326537,
                "z": 0.3711530566215515
            }
        },
        "name": "move_to_auspresseinheit_D"
    },
    "id": "KPIECE_move_to_auspresseinheit_D_119",
    "joint_names": [
        "shoulder_pan_joint",
        "shoulder_lift_joint",
        "elbow_joint",
        "wrist_1_joint",
        "wrist_2_joint",
        "wrist_3_joint"
    ],
    "metrics": {
        "cart_traj_len": 3.8230881456249666,
        "distance_elbow_joint": 3.0108919578468774,
        "distance_shoulder_lift_joint": 1.2362915228204305,
        "distance_shoulder_pan_joint": 2.7964584686421805,
        "distance_wrist_1_joint": 2.3238824787914227,
        "distance_wrist_2_joint": 1.2285559018100765,
        "distance_wrist_3_joint": 5.3409540855824265,
        "smoothness": 0.27781630542412233,
        "time": 0.05602035,
        "traj_len": 3.9921215431764363,
        "weighted_distance": 5.492848165320044
    },
    "planner": "KPIECE",
    "start": {
        "state": {
            "elbow_joint": 1.8268400409724999,
            "shoulder_lift_joint": -1.0144045787793008,
            "shoulder_pan_joint": 2.6280239544362485,
            "wrist_1_joint": -0.790705565816056,
            "wrist_2_joint": 1.0573557467365533,
            "wrist_3_joint": 3.1851377467193758
        }
    },
    "waypoints": [
        {
            "positions": [
                2.6280239544362485,
                -1.0144045787793008,
                1.8268400409724999,
                -0.790705565816056,
                1.0573557467365533,
                3.1851377467193758
            ]
        },
        {
            "positions": [
                2.5647990565154566,
                -1.075053898677951,
                1.7577234409659448,
                -0.7853592964134042,
                0.9980291295455488,
                3.052483061150343
            ]
        },
        {
            "positions": [
                2.5015741585946647,
                -1.135703218576601,
                1.6886068409593897,
                -0.7800130270107524,
                0.9387025123545443,
                2.919828375581311
            ]
        },
        {
            "positions": [
                2.438349260673873,
                -1.1963525384752511,
                1.6194902409528347,
                -0.7746667576081006,
                0.8793758951635399,
                2.787173690012278
            ]
        },
        {
            "positions": [
                2.375124362753081,
                -1.2570018583739013,
                1.5503736409462796,
                -0.7693204882054487,
                0.8200492779725354,
                2.6545190044432454
            ]
        },
        {
            "positions": [
                2.311899464832289,
                -1.3176511782725515,
                1.4812570409397243,
                -0.7639742188027969,
                0.760722660781531,
                2.521864318874213
            ]
        },
        {
            "positions": [
                2.248674566911497,
                -1.3783004981712015,
                1.4121404409331695,
                -0.758627949400145,
                0.7013960435905264,
                2.389209633305181
            ]
        },
        {
            "positions": [
                2.1854496689907053,
                -1.4389498180698517,
                1.3430238409266142,
                -0.7532816799974932,
                0.6420694263995219,
                2.256554947736148
            ]
        },
        {
            "positions": [
                2.1222247710699134,
                -1.4995991379685019,
                1.2739072409200591,
                -0.7479354105948414,
                0.5827428092085174,
                2.1239002621671155
            ]
        },
        {
            "positions": [
                2.0589998731491215,
                -1.5602484578671518,
                1.204790640913504,
                -0.7425891411921896,
                0.523416192017513,
                1.991245576598083
            ]
        },
        {
            "positions": [
                1.9957749752283296,
                -1.620897777765802,
                1.135674040906949,
                -0.7372428717895377,
                0.4640895748265085,
                1.8585908910290505
            ]
        },
        {
            "positions": [
                1.9325500773075377,
                -1.6815470976644522,
                1.066557440900394,
                -0.7318966023868859,
                0.40476295763550396,
                1.7259362054600178
            ]
        },
        {
            "positions": [
                1.8693251793867458,
                -1.7421964175631022,
                0.9974408408938389,
                -0.7265503329842341,
                0.34543634044449956,
                1.5932815198909855
            ]
        },
        {
            "positions": [
                1.806100281465954,
                -1.8028457374617524,
                0.9283242408872837,
                -0.7212040635815823,
                0.28610972325349504,
                1.4606268343219528
            ]
        },
        {
            "positions": [
                1.742875383545162,
                -1.8634950573604026,
                0.8592076408807288,
                -0.7158577941789305,
                0.22678310606249064,
                1.3279721487529206
            ]
        },
        {
            "positions": [
                1.6796504856243701,
                -1.9241443772590525,
                0.7900910408741737,
                -0.7105115247762785,
                0.167456488871486,
                1.1953174631838879
            ]
        },
        {
            "positions": [
                1.6164255877035782,
                -1.984793697157703,
                0.7209744408676184,
                -0.7051652553736267,
                0.10812987168048149,
                1.0626627776148552
            ]
        },
        {
            "positions": [
                1.5532006897827864,
                -2.045443017056353,
                0.6518578408610634,
                -0.6998189859709749,
                0.0488032544894772,
                0.9300080920458229
            ]
        },
        {
            "positions": [
                1.4899757918619945,
                -2.106092336955003,
                0.5827412408545083,
                -0.6944727165683231,
                -0.010523362701527317,
                0.7973534064767902
            ]
        },
        {
            "positions": [
                1.4267508939412026,
                -2.1667416568536533,
                0.5136246408479532,
                -0.6891264471656713,
                -0.06984997989253183,
                0.664698720907758
            ]
        },
        {
            "positions": [
                1.3635259960204107,
                -2.2273909767523032,
                0.4445080408413981,
                -0.6837801777630195,
                -0.12917659708353635,
                0.5320440353387252
            ]
        },
        {
            "positions": [
                1.290575495533442,
                -2.2285007446021807,
                0.36695756666445645,
                -0.7893495630362759,
                -0.13117771889258328,
                0.6600373864911909
            ]
        },
        {
            "positions": [
                1.2176249950464733,
                -2.229610512452058,
                0.28940709248751484,
                -0.8949189483095324,
                -0.13317884070163022,
                0.7880307376436566
            ]
        },
        {
            "positions": [
                1.1446744945595047,
                -2.2307202803019357,
                0.21185661831057315,
                -1.0004883335827888,
                -0.13517996251067713,
                0.9160240887961222
            ]
        },
        {
            "positions": [
                1.071723994072536,
                -2.231830048151813,
                0.1343061441336315,
                -1.1060577188560454,
                -0.13718108431972406,
                1.044017439948588
            ]
        },
        {
            "positions": [
                0.9987734935855673,
                -2.2329398160016907,
                0.05675566995668985,
                -1.2116271041293019,
                -0.139182206128771,
                1.1720107911010536
            ]
        },
        {
            "positions": [
                0.9258229930985986,
                -2.2340495838515686,
                -0.020794804220251817,
                -1.3171964894025583,
                -0.14118332793781793,
                1.3000041422535191
            ]
        },
        {
            "positions": [
                0.85287249261163,
                -2.235159351701446,
                -0.09834527839719348,
                -1.4227658746758147,
                -0.14318444974686487,
                1.427997493405985
            ]
        },
        {
            "positions": [
                0.7799219921246613,
                -2.2362691195513236,
                -0.1758957525741351,
                -1.5283352599490714,
                -0.14518557155591177,
                1.5559908445584505
            ]
        },
        {
            "positions": [
                0.7069714916376926,
                -2.237378887401201,
                -0.2534462267510768,
                -1.6339046452223278,
                -0.1471866933649587,
                1.6839841957109163
            ]
        },
        {
            "positions": [
                0.634020991150724,
                -2.2384886552510785,
                -0.3309967009280184,
                -1.7394740304955842,
                -0.14918781517400564,
                1.8119775468633819
            ]
        },
        {
            "positions": [
                0.5610704906637551,
                -2.239598423100956,
                -0.40854717510496014,
                -1.8450434157688407,
                -0.15118893698305258,
                1.9399708980158477
            ]
        },
        {
            "positions": [
                0.48811999017678653,
                -2.2407081909508335,
                -0.48609764928190174,
                -1.950612801042097,
                -0.15319005879209951,
                2.0679642491683135
            ]
        },
        {
            "positions": [
                0.4151694896898178,
                -2.241817958800711,
                -0.5636481234588433,
                -2.056182186315354,
                -0.15519118060114645,
                2.195957600320779
            ]
        },
        {
            "positions": [
                0.3422189892028493,
                -2.2429277266505885,
                -0.641198597635785,
                -2.16175157158861,
                -0.15719230241019336,
                2.3239509514732446
            ]
        },
        {
            "positions": [
                0.2692684887158805,
                -2.244037494500466,
                -0.7187490718127267,
                -2.267320956861867,
                -0.1591934242192403,
                2.4519443026257104
            ]
        },
        {
            "positions": [
                0.1963179882289119,
                -2.245147262350344,
                -0.7962995459896682,
                -2.372890342135123,
                -0.16119454602828723,
                2.5799376537781757
            ]
        },
        {
            "positions": [
                0.12336748774194306,
                -2.2462570302002214,
                -0.87385002016661,
                -2.4784597274083797,
                -0.16319566783733416,
                2.7079310049306415
            ]
        },
        {
            "positions": [
                0.050416987254974455,
                -2.247366798050099,
                -0.9514004943435517,
                -2.5840291126816357,
                -0.16519678964638107,
                2.8359243560831073
            ]
        },
        {
            "positions": [
                -0.02253351323199415,
                -2.2484765658999764,
                -1.0289509685204934,
                -2.6895984979548926,
                -0.167197911455428,
                2.963917707235573
            ]
        },
        {
            "positions": [
                -0.09548401371896276,
                -2.249586333749854,
                -1.106501442697435,
                -2.795167883228149,
                -0.16919903326447494,
                3.0919110583880385
            ]
        },
        {
            "positions": [
                -0.16843451420593158,
                -2.2506961015997313,
                -1.1840519168743766,
                -2.9007372685014055,
                -0.17120015507352188,
                3.2199044095405043
            ]
        }
    ]
}