{
    "goal": {
        "global_pose": {
            "orientation": {
                "w": 0.7047431493862688,
                "x": -0.7094548369677653,
                "y": 0.0024358444001904,
                "z": -0.0022348060817251984
            },
            "position": {
                "x": -0.39052492380142206,
                "y": 0.3671506643295288,
                "z": 0.19426114857196808
            }
        },
        "name": "move_to_magneteinheit_D"
    },
    "id": "KPIECE_move_to_magneteinheit_D_142",
    "joint_names": [
        "shoulder_pan_joint",
        "shoulder_lift_joint",
        "elbow_joint",
        "wrist_1_joint",
        "wrist_2_joint",
        "wrist_3_joint"
    ],
    "metrics": {
        "cart_traj_len": 5.014870937483727,
        "distance_elbow_joint": 4.572770444440556,
        "distance_shoulder_lift_joint": 1.6262475980337214,
        "distance_shoulder_pan_joint": 4.109671060944834,
        "distance_wrist_1_joint": 3.428868765411506,
        "distance_wrist_2_joint": 2.1514981211626045,
        "distance_wrist_3_joint": 4.095070822225682,
        "smoothness": 0.5648336794450266,
        "time": 0.135689693,
        "traj_len": 4.470360926392734,
        "weighted_distance": 5.80987395244031
    },
    "planner": "KPIECE",
    "start": {
        "state": {
            "elbow_joint": 0.7495348899011973,
            "shoulder_lift_joint": -0.6476975780737697,
            "shoulder_pan_joint": -2.711696901376276,
            "wrist_1_joint": -0.07506478080974305,
            "wrist_2_joint": 0.4329665971545858,
            "wrist_3_joint": 3.1361499051832524
        }
    },
    "waypoints": [
        {
            "positions": [
                -2.711696901376276,
                -0.6476975780737697,
                0.7495348899011973,
                -0.07506478080974305,
                0.4329665971545858,
                3.1361499051832524
            ]
        },
        {
            "positions": [
                -2.7055139727123954,
                -0.7374795068572776,
                0.8245333700407569,
                0.06504783602373132,
                0.37701527892064224,
                3.1410938790649374
            ]
        },
        {
            "positions": [
                -2.6993310440485145,
                -0.8272614356407855,
                0.8995318501803165,
                0.2051604528572057,
                0.3210639606866986,
                3.1460378529466224
            ]
        },
        {
            "positions": [
                -2.6931481153846333,
                -0.9170433644242935,
                0.974530330319876,
                0.3452730696906801,
                0.26511264245275507,
                3.150981826828307
            ]
        },
        {
            "positions": [
                -2.6869651867207525,
                -1.0068252932078012,
                1.0495288104594356,
                0.4853856865241544,
                0.2091613242188115,
                3.155925800709992
            ]
        },
        {
            "positions": [
                -2.6807822580568716,
                -1.0966072219913094,
                1.1245272905989951,
                0.6254983033576289,
                0.1532100059848679,
                3.160869774591677
            ]
        },
        {
            "positions": [
                -2.674599329392991,
                -1.1863891507748172,
                1.1995257707385547,
                0.7656109201911033,
                0.09725868775092435,
                3.165813748473362
            ]
        },
        {
            "positions": [
                -2.6304657997714354,
                -1.2527375736518556,
                1.2440964692042533,
                0.8444066041584275,
                0.07230675432702935,
                3.147563391643928
            ]
        },
        {
            "positions": [
                -2.480617828618036,
                -1.2902099805326463,
                1.23500205983427,
                0.8107722107586938,
                0.10998318912839962,
                3.068095568832659
            ]
        },
        {
            "positions": [
                -2.3307698574646367,
                -1.327682387413437,
                1.2259076504642867,
                0.7771378173589599,
                0.1476596239297699,
                2.98862774602139
            ]
        },
        {
            "positions": [
                -2.1809218863112374,
                -1.3651547942942277,
                1.2168132410943033,
                0.7435034239592262,
                0.18533605873114017,
                2.9091599232101215
            ]
        },
        {
            "positions": [
                -2.041611898082572,
                -1.3823636126978935,
                1.1746041344509541,
                0.7009088913129649,
                0.21857669438779184,
                2.8062879634267897
            ]
        },
        {
            "positions": [
                -1.9023019098539065,
                -1.3995724311015594,
                1.132395027807605,
                0.6583143586667035,
                0.2518173300444435,
                2.703416003643458
            ]
        },
        {
            "positions": [
                -1.7629919216252412,
                -1.4167812495052252,
                1.090185921164256,
                0.6157198260204423,
                0.2850579657010952,
                2.6005440438601264
            ]
        },
        {
            "positions": [
                -1.6236819333965755,
                -1.433990067908891,
                1.0479768145209065,
                0.5731252933741809,
                0.3182986013577469,
                2.4976720840767945
            ]
        },
        {
            "positions": [
                -1.4843719451679103,
                -1.451198886312557,
                1.0057677078775575,
                0.5305307607279196,
                0.35153923701439854,
                2.3948001242934627
            ]
        },
        {
            "positions": [
                -1.345061956939245,
                -1.4684077047162225,
                0.9635586012342083,
                0.4879362280816583,
                0.3847798726710502,
                2.291928164510131
            ]
        },
        {
            "positions": [
                -1.2057519687105795,
                -1.4856165231198883,
                0.9213494945908591,
                0.44534169543539703,
                0.4180205083277019,
                2.189056204726799
            ]
        },
        {
            "positions": [
                -1.0664419804819139,
                -1.5028253415235542,
                0.8791403879475099,
                0.4027471627891357,
                0.4512611439843536,
                2.0861842449434675
            ]
        },
        {
            "positions": [
                -0.9271319922532486,
                -1.52003415992722,
                0.8369312813041607,
                0.36015263014287435,
                0.48450177964100527,
                1.9833122851601357
            ]
        },
        {
            "positions": [
                -0.7878220040245831,
                -1.5372429783308859,
                0.7947221746608116,
                0.31755809749661307,
                0.5177424152976569,
                1.8804403253768038
            ]
        },
        {
            "positions": [
                -0.6485120157959177,
                -1.5544517967345517,
                0.7525130680174624,
                0.2749635648503517,
                0.5509830509543086,
                1.777568365593472
            ]
        },
        {
            "positions": [
                -0.5092020275672524,
                -1.5716606151382175,
                0.7103039613741133,
                0.23236903220409044,
                0.5842236866109602,
                1.6746964058101403
            ]
        },
        {
            "positions": [
                -0.3698920393385867,
                -1.5888694335418834,
                0.6680948547307641,
                0.1897744995578291,
                0.6174643222676119,
                1.5718244460268085
            ]
        },
        {
            "positions": [
                -0.23058205110992147,
                -1.606078251945549,
                0.625885748087415,
                0.14717996691156787,
                0.6507049579242636,
                1.4689524862434769
            ]
        },
        {
            "positions": [
                -0.09127206288125578,
                -1.6232870703492148,
                0.5836766414440657,
                0.10458543426530653,
                0.6839455935809153,
                1.366080526460145
            ]
        },
        {
            "positions": [
                0.04803792534740969,
                -1.6404958887528807,
                0.5414675348007165,
                0.06199090161904519,
                0.717186229237567,
                1.2632085666768131
            ]
        },
        {
            "positions": [
                0.18734791357607472,
                -1.6577047071565465,
                0.49925842815736743,
                0.01939636897278385,
                0.7504268648942185,
                1.1603366068934815
            ]
        },
        {
            "positions": [
                0.3266579018047402,
                -1.6749135255602123,
                0.4570493215140182,
                -0.02319816367347749,
                0.7836675005508704,
                1.0574646471101496
            ]
        },
        {
            "positions": [
                0.46596789003340566,
                -1.6921223439638782,
                0.41484021487066913,
                -0.06579269631973872,
                0.8169081362075219,
                0.954592687326818
            ]
        },
        {
            "positions": [
                0.6052778782620712,
                -1.709331162367544,
                0.37263110822731993,
                -0.10838722896600009,
                0.8501487718641736,
                0.8517207275434862
            ]
        },
        {
            "positions": [
                0.5761005848745819,
                -1.726393154728093,
                0.21542459515325962,
                -0.04570890888377574,
                0.8060660511603713,
                0.7853252701465971
            ]
        },
        {
            "positions": [
                0.5469232914870927,
                -1.743455147088642,
                0.05821808207919932,
                0.01696941119844861,
                0.7619833304565691,
                0.7189298127497081
            ]
        },
        {
            "positions": [
                0.5177459980996034,
                -1.760517139449191,
                -0.09898843099486099,
                0.07964773128067296,
                0.7179006097527667,
                0.6525343553528191
            ]
        },
        {
            "positions": [
                0.48856870471211417,
                -1.7775791318097398,
                -0.2561949440689213,
                0.1423260513628973,
                0.6738178890489644,
                0.5861388979559301
            ]
        },
        {
            "positions": [
                0.4593914113246249,
                -1.7946411241702889,
                -0.4134014571429816,
                0.20500437144512165,
                0.6297351683451622,
                0.5197434405590411
            ]
        },
        {
            "positions": [
                0.4302141179371356,
                -1.811703116530838,
                -0.5706079702170419,
                0.26768269152734603,
                0.5856524476413599,
                0.4533479831621522
            ]
        },
        {
            "positions": [
                0.4010368245496464,
                -1.8287651088913868,
                -0.7278144832911022,
                0.3303610116095703,
                0.5415697269375577,
                0.3869525257652632
            ]
        },
        {
            "positions": [
                0.3718595311621571,
                -1.8458271012519358,
                -0.8850209963651625,
                0.3930393316917947,
                0.49748700623375536,
                0.32055706836837417
            ]
        },
        {
            "positions": [
                0.34268223777466783,
                -1.862889093612485,
                -1.0422275094392228,
                0.455717651774019,
                0.4534042855299531,
                0.25416161097148515
            ]
        },
        {
            "positions": [
                0.3135049443871786,
                -1.8799510859730337,
                -1.1994340225132831,
                0.5183959718562434,
                0.4093215648261508,
                0.18776615357459614
            ]
        },
        {
            "positions": [
                0.28432765099968926,
                -1.8970130783335828,
                -1.3566405355873437,
                0.5810742919384678,
                0.36523884412234847,
                0.12137069617770713
            ]
        },
        {
            "positions": [
                0.2551503576122,
                -1.9140750706941319,
                -1.5138470486614037,
                0.6437526120206921,
                0.32115612341854627,
                0.054975238780818225
            ]
        },
        {
            "positions": [
                0.2259730642247107,
                -1.9311370630546807,
                -1.6710535617354643,
                0.7064309321029165,
                0.2770734027147439,
                -0.011420218616070898
            ]
        },
        {
            "positions": [
                0.1967957708372215,
                -1.9481990554152298,
                -1.8282600748095243,
                0.7691092521851408,
                0.23299068201094164,
                -0.0778156760129598
            ]
        },
        {
            "positions": [
                0.16761847744973218,
                -1.9652610477757788,
                -1.9854665878835849,
                0.8317875722673652,
                0.18890796130713938,
                -0.14421113340984892
            ]
        },
        {
            "positions": [
                0.13844118406224293,
                -1.9823230401363277,
                -2.142673100957645,
                0.8944658923495895,
                0.14482524060333712,
                -0.21060659080673783
            ]
        },
        {
            "positions": [
                0.10926389067475362,
                -1.9993850324968767,
                -2.2998796140317053,
                0.957144212431814,
                0.10074251989953475,
                -0.27700204820362684
            ]
        },
        {
            "positions": [
                0.08008659728726442,
                -2.0164470248574258,
                -2.4570861271057653,
                1.019822532514038,
                0.05665979919573261,
                -0.34339750560051585
            ]
        },
        {
            "positions": [
                0.050909303899775105,
                -2.0335090172179746,
                -2.6142926401798263,
                1.0825008525962625,
                0.012577078491930238,
                -0.40979296299740475
            ]
        },
        {
            "positions": [
                0.0032437625109366652,
                -2.081596248995878,
                -2.570328689029142,
                1.1556439457475918,
                0.04766199197706219,
                -0.3118329095044439
            ]
        },
        {
            "positions": [
                -0.044421778877901774,
                -2.1296834807737812,
                -2.526364737878458,
                1.228787038898921,
                0.08274690546219414,
                -0.21387285601148306
            ]
        },
        {
            "positions": [
                -0.09208732026674021,
                -2.1777707125516845,
                -2.482400786727774,
                1.3019301320502503,
                0.11783181894732607,
                -0.11591280251852226
            ]
        },
        {
            "positions": [
                -0.13975286165557865,
                -2.225857944329588,
                -2.43843683557709,
                1.3750732252015796,
                0.15291673243245804,
                -0.017952749025561376
            ]
        },
        {
            "positions": [
                -0.1874184030444171,
                -2.273945176107491,
                -2.394472884426406,
                1.4482163183529089,
                0.18800164591758997,
                0.08000730446739948
            ]
        }
    ]
}