{
    "goal": {
        "global_pose": {
            "orientation": {
                "w": 0.5084816262002911,
                "x": -0.4908360881923452,
                "y": 0.5182115481033761,
                "z": -0.48164630358495003
            },
            "position": {
                "x": 0.5540239810943604,
                "y": -0.46912469901144505,
                "z": 0.16403168439865112
            }
        },
        "name": "move_to_storage_B"
    },
    "id": "KPIECE_move_to_storage_B_55",
    "joint_names": [
        "shoulder_pan_joint",
        "shoulder_lift_joint",
        "elbow_joint",
        "wrist_1_joint",
        "wrist_2_joint",
        "wrist_3_joint"
    ],
    "metrics": {
        "cart_traj_len": 5.128385064745391,
        "distance_elbow_joint": 3.9024901344321767,
        "distance_shoulder_lift_joint": 1.460532571493498,
        "distance_shoulder_pan_joint": 4.626259331410036,
        "distance_wrist_1_joint": 2.9997227206512425,
        "distance_wrist_2_joint": 2.70409420895997,
        "distance_wrist_3_joint": 3.129284748788665,
        "smoothness": 0.34079485761244216,
        "time": 0.091336862,
        "traj_len": 4.338477119420546,
        "weighted_distance": 5.548402485664151
    },
    "planner": "KPIECE",
    "start": {
        "state": {
            "elbow_joint": 1.6649325706314817,
            "shoulder_lift_joint": -0.6616388048112454,
            "shoulder_pan_joint": -0.9139837860083814,
            "wrist_1_joint": 2.146757197745094,
            "wrist_2_joint": -2.234196043158733,
            "wrist_3_joint": 0.005471033829999897
        }
    },
    "waypoints": [
        {
            "positions": [
                -0.9139837860083814,
                -0.6616388048112454,
                1.6649325706314817,
                2.146757197745094,
                -2.234196043158733,
                0.005471033829999897
            ]
        },
        {
            "positions": [
                -0.8213786688141401,
                -0.7016262239762984,
                1.590968369979707,
                2.1058533498209657,
                -2.156271059737918,
                -0.05972156709898555
            ]
        },
        {
            "positions": [
                -0.728773551619899,
                -0.7416136431413514,
                1.5170041693279324,
                2.064949501896838,
                -2.0783460763171036,
                -0.12491416802797099
            ]
        },
        {
            "positions": [
                -0.6361684344256577,
                -0.7816010623064044,
                1.4430399686761577,
                2.0240456539727094,
                -2.0004210928962887,
                -0.19010676895695647
            ]
        },
        {
            "positions": [
                -0.5435633172314165,
                -0.8215884814714574,
                1.3690757680243828,
                1.9831418060485813,
                -1.9224961094754738,
                -0.2552993698859419
            ]
        },
        {
            "positions": [
                -0.4509582000371753,
                -0.8615759006365105,
                1.2951115673726081,
                1.942237958124453,
                -1.844571126054659,
                -0.32049197081492736
            ]
        },
        {
            "positions": [
                -0.3583530828429341,
                -0.9015633198015633,
                1.2211473667208335,
                1.901334110200325,
                -1.7666461426338442,
                -0.3856845717439128
            ]
        },
        {
            "positions": [
                -0.26574796564869285,
                -0.9415507389666165,
                1.1471831660690586,
                1.8604302622761968,
                -1.6887211592130296,
                -0.4508771726728983
            ]
        },
        {
            "positions": [
                -0.17314284845445171,
                -0.9815381581316693,
                1.0732189654172841,
                1.8195264143520684,
                -1.6107961757922147,
                -0.5160697736018837
            ]
        },
        {
            "positions": [
                -0.08053773126021047,
                -1.0215255772967224,
                0.9992547647655093,
                1.7786225664279403,
                -1.5328711923713998,
                -0.5812623745308692
            ]
        },
        {
            "positions": [
                0.012067385934030783,
                -1.0615129964617753,
                0.9252905641137346,
                1.737718718503812,
                -1.4549462089505851,
                -0.6464549754598546
            ]
        },
        {
            "positions": [
                0.10467250312827192,
                -1.1015004156268284,
                0.85132636346196,
                1.696814870579684,
                -1.3770212255297705,
                -0.71164757638884
            ]
        },
        {
            "positions": [
                0.19727762032251317,
                -1.1414878347918815,
                0.7773621628101852,
                1.6559110226555558,
                -1.2990962421089556,
                -0.7768401773178255
            ]
        },
        {
            "positions": [
                0.2898827375167542,
                -1.1814752539569344,
                0.7033979621584106,
                1.6150071747314274,
                -1.221171258688141,
                -0.8420327782468109
            ]
        },
        {
            "positions": [
                0.38248785471099567,
                -1.2214626731219873,
                0.6294337615066357,
                1.5741033268072993,
                -1.143246275267326,
                -0.9072253791757965
            ]
        },
        {
            "positions": [
                0.4750929719052369,
                -1.2614500922870404,
                0.555469560854861,
                1.533199478883171,
                -1.0653212918465114,
                -0.9724179801047819
            ]
        },
        {
            "positions": [
                0.5676980890994779,
                -1.3014375114520935,
                0.48150536020308654,
                1.492295630959043,
                -0.9873963084256965,
                -1.0376105810337672
            ]
        },
        {
            "positions": [
                0.6603032062937194,
                -1.3414249306171464,
                0.40754115955131165,
                1.4513917830349148,
                -0.9094713250048816,
                -1.1028031819627528
            ]
        },
        {
            "positions": [
                0.7529083234879604,
                -1.3814123497821995,
                0.333576958899537,
                1.4104879351107864,
                -0.8315463415840669,
                -1.1679957828917382
            ]
        },
        {
            "positions": [
                0.8455134406822015,
                -1.4213997689472524,
                0.2596127582477623,
                1.3695840871866582,
                -0.7536213581632523,
                -1.2331883838207236
            ]
        },
        {
            "positions": [
                0.9381185578764429,
                -1.4613871881123055,
                0.18564855759598742,
                1.32868023926253,
                -0.6756963747424374,
                -1.2983809847497092
            ]
        },
        {
            "positions": [
                1.0307236750706839,
                -1.5013746072773584,
                0.11168435694421297,
                1.2877763913384017,
                -0.5977713913216225,
                -1.3635735856786946
            ]
        },
        {
            "positions": [
                1.123328792264925,
                -1.5413620264424115,
                0.0377201562924383,
                1.2468725434142738,
                -0.5198464079008078,
                -1.42876618660768
            ]
        },
        {
            "positions": [
                1.2159339094591664,
                -1.5813494456074646,
                -0.03624404435933659,
                1.2059686954901454,
                -0.44192142447999294,
                -1.4939587875366656
            ]
        },
        {
            "positions": [
                1.3085390266534076,
                -1.6213368647725175,
                -0.11020824501111123,
                1.1650648475660172,
                -0.3639964410591783,
                -1.559151388465651
            ]
        },
        {
            "positions": [
                1.2083833383722307,
                -1.6004687601253413,
                -0.021568690061545215,
                1.0809802487963438,
                -0.3292508324399942,
                -1.6243456520695265
            ]
        },
        {
            "positions": [
                1.1082276500910535,
                -1.5796006554781654,
                0.0670708648880208,
                0.9968956500266701,
                -0.2945052238208102,
                -1.6895399156734021
            ]
        },
        {
            "positions": [
                1.0080719618098766,
                -1.5587325508309893,
                0.15571041983758685,
                0.9128110512569967,
                -0.25975961520162616,
                -1.7547341792772777
            ]
        },
        {
            "positions": [
                0.9079162735286996,
                -1.5378644461838131,
                0.24434997478715284,
                0.8287264524873231,
                -0.22501400658244208,
                -1.8199284428811533
            ]
        },
        {
            "positions": [
                0.8077605852475225,
                -1.516996341536637,
                0.3329895297367189,
                0.7446418537176496,
                -0.19026839796325803,
                -1.8851227064850289
            ]
        },
        {
            "positions": [
                0.7076048969663455,
                -1.496128236889461,
                0.4216290846862849,
                0.660557254947976,
                -0.15552278934407399,
                -1.9503169700889045
            ]
        },
        {
            "positions": [
                0.6074492086851685,
                -1.475260132242285,
                0.510268639635851,
                0.5764726561783025,
                -0.12077718072488991,
                -2.0155112336927803
            ]
        },
        {
            "positions": [
                0.5072935204039916,
                -1.4543920275951088,
                0.5989081945854169,
                0.492388057408629,
                -0.08603157210570589,
                -2.0807054972966554
            ]
        },
        {
            "positions": [
                0.4071378321228145,
                -1.4335239229479328,
                0.687547749534983,
                0.40830345863895534,
                -0.05128596348652181,
                -2.1458997609005315
            ]
        },
        {
            "positions": [
                0.30698214384163736,
                -1.4126558183007567,
                0.7761873044845491,
                0.3242188598692818,
                -0.016540354867337792,
                -2.211094024504407
            ]
        },
        {
            "positions": [
                0.20682645556046064,
                -1.3917877136535806,
                0.864826859434115,
                0.24013426109960834,
                0.01820525375184623,
                -2.2762882881082827
            ]
        },
        {
            "positions": [
                0.10667076727928348,
                -1.3709196090064046,
                0.9534664143836811,
                0.15604966232993478,
                0.052950862371030305,
                -2.3414825517121582
            ]
        },
        {
            "positions": [
                0.006515078998106549,
                -1.3500515043592285,
                1.042105969333247,
                0.07196506356026133,
                0.08769647099021433,
                -2.406676815316034
            ]
        },
        {
            "positions": [
                -0.09364060928307061,
                -1.3291833997120523,
                1.1307455242828133,
                -0.012119535209412335,
                0.12244207960939846,
                -2.4718710789199094
            ]
        },
        {
            "positions": [
                -0.19379629756424754,
                -1.3083152950648764,
                1.219385079232379,
                -0.09620413397908578,
                0.15718768822858242,
                -2.537065342523785
            ]
        },
        {
            "positions": [
                -0.2939519858454245,
                -1.2874471904177003,
                1.308024634181945,
                -0.18028873274875923,
                0.1919332968477665,
                -2.60225960612766
            ]
        },
        {
            "positions": [
                -0.39410767412660164,
                -1.2665790857705241,
                1.3966641891315112,
                -0.2643733315184329,
                0.22667890546695058,
                -2.667453869731536
            ]
        },
        {
            "positions": [
                -0.4942633624077786,
                -1.245710981123348,
                1.4853037440810772,
                -0.34845793028810657,
                0.26142451408613465,
                -2.732648133335412
            ]
        },
        {
            "positions": [
                -0.5944190506889555,
                -1.224842876476172,
                1.5739432990306432,
                -0.43254252905778,
                0.2961701227053186,
                -2.7978423969392874
            ]
        },
        {
            "positions": [
                -0.6945747389701329,
                -1.203974771828996,
                1.6625828539802094,
                -0.5166271278274537,
                0.3309157313245027,
                -2.863036660543163
            ]
        },
        {
            "positions": [
                -0.7947304272513098,
                -1.1831066671818198,
                1.7512224089297754,
                -0.6007117265971271,
                0.36566133994368677,
                -2.9282309241470386
            ]
        },
        {
            "positions": [
                -0.8948861155324863,
                -1.1622385625346436,
                1.8398619638793412,
                -0.6847963253668006,
                0.40040694856287073,
                -2.993425187750914
            ]
        },
        {
            "positions": [
                -0.9950418038136637,
                -1.1413704578874677,
                1.9285015188289074,
                -0.7688809241364742,
                0.4351525571820549,
                -3.0586194513547897
            ]
        },
        {
            "positions": [
                -1.0951974920948406,
                -1.1205023532402916,
                2.0171410737784736,
                -0.8529655229061476,
                0.46989816580123894,
                -3.1238137149586653
            ]
        }
    ]
}