{
    "goal": {
        "global_pose": {
            "orientation": {
                "w": -0.00223480608172531,
                "x": 0.0024358444001904467,
                "y": 0.7094548369677653,
                "z": -0.704743149386269
            },
            "position": {
                "x": -0.37947507619857795,
                "y": -0.6371506643295288,
                "z": 0.19426114857196808
            }
        },
        "name": "move_to_magneteinheit_C"
    },
    "id": "KPIECE_move_to_magneteinheit_C_32",
    "joint_names": [
        "shoulder_pan_joint",
        "shoulder_lift_joint",
        "elbow_joint",
        "wrist_1_joint",
        "wrist_2_joint",
        "wrist_3_joint"
    ],
    "metrics": {
        "cart_traj_len": 1.404260822411539,
        "distance_elbow_joint": 1.0454254422841296,
        "distance_shoulder_lift_joint": 0.46386119503000156,
        "distance_shoulder_pan_joint": 1.5070020805727329,
        "distance_wrist_1_joint": 1.5174475504433582,
        "distance_wrist_2_joint": 1.761692503526982,
        "distance_wrist_3_joint": 1.8246925219177603,
        "smoothness": 1.0992332889542413,
        "time": 2.302340716,
        "traj_len": 2.8495826525607155,
        "weighted_distance": 3.8792584847597906
    },
    "planner": "KPIECE",
    "start": {
        "state": {
            "elbow_joint": 1.9565354006590394,
            "shoulder_lift_joint": -1.4165861576513559,
            "shoulder_pan_joint": -1.6717766223277177,
            "wrist_1_joint": -0.5286633288215096,
            "wrist_2_joint": 1.4727565892594296,
            "wrist_3_joint": 3.1593482883155493
        }
    },
    "waypoints": [
        {
            "positions": [
                -1.6717766223277177,
                -1.4165861576513559,
                1.9565354006590394,
                -0.5286633288215096,
                1.4727565892594296,
                3.1593482883155493
            ]
        },
        {
            "positions": [
                -1.6004320851866165,
                -1.3979263763615946,
                1.9313757124563977,
                -0.44272461845702016,
                1.4193247325218592,
                3.0519715060144734
            ]
        },
        {
            "positions": [
                -1.5925296077882918,
                -1.4027093962991848,
                1.8858604650762774,
                -0.3796455444004368,
                1.3368145532813327,
                2.955428359835079
            ]
        },
        {
            "positions": [
                -1.584627130389967,
                -1.4074924162367752,
                1.8403452176961568,
                -0.31656647034385343,
                1.2543043740408062,
                2.8588852136556846
            ]
        },
        {
            "positions": [
                -1.5767246529916423,
                -1.4122754361743655,
                1.7948299703160364,
                -0.2534873962872701,
                1.1717941948002797,
                2.76234206747629
            ]
        },
        {
            "positions": [
                -1.5688221755933176,
                -1.4170584561119557,
                1.749314722935916,
                -0.19040832223068668,
                1.0892840155597532,
                2.6657989212968958
            ]
        },
        {
            "positions": [
                -1.6205823282216107,
                -1.4252462180626098,
                1.7156737241505449,
                -0.13946487237778699,
                0.9618388076874146,
                2.5843927468858023
            ]
        },
        {
            "positions": [
                -1.672342480849904,
                -1.4334339800132638,
                1.6820327253651737,
                -0.08852142252488729,
                0.834393599815076,
                2.5029865724747085
            ]
        },
        {
            "positions": [
                -1.724102633478197,
                -1.4416217419639177,
                1.6483917265798025,
                -0.03757797267198759,
                0.7069483919427373,
                2.421580398063615
            ]
        },
        {
            "positions": [
                -1.7758627861064902,
                -1.4498095039145718,
                1.6147507277944313,
                0.013365477180912105,
                0.5795031840703987,
                2.3401742236525216
            ]
        },
        {
            "positions": [
                -1.8619235149465565,
                -1.4561240930305528,
                1.6000852406575186,
                0.0473438021048842,
                0.4395649369225012,
                2.2835025932629422
            ]
        },
        {
            "positions": [
                -1.9479842437866226,
                -1.4624386821465338,
                1.5854197535206058,
                0.0813221270288563,
                0.2996266897746037,
                2.2268309628733625
            ]
        },
        {
            "positions": [
                -2.0386832861321196,
                -1.4469867625452546,
                1.6491845371069815,
                0.040104861416351986,
                0.2566002894862683,
                2.282831662907241
            ]
        },
        {
            "positions": [
                -2.1293823284776168,
                -1.4315348429439754,
                1.7129493206933573,
                -0.0011124041961523314,
                0.21357388919793288,
                2.338832362941119
            ]
        },
        {
            "positions": [
                -2.17853216861866,
                -1.4176023006808494,
                1.7672065322616741,
                -0.04515656555590526,
                0.21920329256661766,
                2.3964446573976934
            ]
        },
        {
            "positions": [
                -2.2491948439916727,
                -1.3956411325984464,
                1.8437895876368269,
                -0.12128573431870343,
                0.24004428754691406,
                2.4781396557024364
            ]
        },
        {
            "positions": [
                -2.3198575193646853,
                -1.3736799645160431,
                1.9203726430119799,
                -0.1974149030815016,
                0.26088528252721044,
                2.5598346540071795
            ]
        },
        {
            "positions": [
                -2.3905201947376984,
                -1.35171879643364,
                1.9969556983871328,
                -0.27354407184429974,
                0.28172627750750684,
                2.641529652311922
            ]
        },
        {
            "positions": [
                -2.461182870110711,
                -1.329757628351237,
                2.0735387537622856,
                -0.3496732406070979,
                0.30256727248780324,
                2.723224650616665
            ]
        },
        {
            "positions": [
                -2.5267592870555307,
                -1.2776970458721797,
                2.0418042643001137,
                -0.45234455663301304,
                0.39947065642323004,
                2.7325459875142992
            ]
        },
        {
            "positions": [
                -2.59233570400035,
                -1.2256364633931227,
                2.010069774837942,
                -0.5550158726589282,
                0.49637404035865684,
                2.7418673244119334
            ]
        },
        {
            "positions": [
                -2.657912120945169,
                -1.1735758809140657,
                1.9783352853757699,
                -0.6576871886848432,
                0.5932774242940837,
                2.7511886613095675
            ]
        },
        {
            "positions": [
                -2.7234885378899887,
                -1.1215152984350085,
                1.946600795913598,
                -0.7603585047107584,
                0.6901808082295104,
                2.7605099982072017
            ]
        },
        {
            "positions": [
                -2.6403614473761015,
                -1.1347705398496004,
                1.9663517415987075,
                -0.7822856589952175,
                0.6815465134182078,
                2.8800087185877796
            ]
        },
        {
            "positions": [
                -2.5572343568622142,
                -1.1480257812641923,
                1.9861026872838172,
                -0.8042128132796766,
                0.6729122186069053,
                2.999507438968358
            ]
        },
        {
            "positions": [
                -2.474107266348327,
                -1.1612810226787842,
                2.0058536329689267,
                -0.8261399675641358,
                0.6642779237956027,
                3.119006159348936
            ]
        }
    ]
}