{
    "goal": {
        "global_pose": {
            "orientation": {
                "w": -0.4816463035849501,
                "x": 0.5182115481033762,
                "y": 0.4908360881923453,
                "z": -0.5084816262002911
            },
            "position": {
                "x": -0.8240239810943604,
                "y": -0.300875300988555,
                "z": 0.16403168439865112
            }
        },
        "name": "move_to_storage_C"
    },
    "id": "KPIECE_move_to_storage_C_32",
    "joint_names": [
        "shoulder_pan_joint",
        "shoulder_lift_joint",
        "elbow_joint",
        "wrist_1_joint",
        "wrist_2_joint",
        "wrist_3_joint"
    ],
    "metrics": {
        "cart_traj_len": 0.5761349157809537,
        "distance_elbow_joint": 0.25843753525215196,
        "distance_shoulder_lift_joint": 0.18825484056242414,
        "distance_shoulder_pan_joint": 0.4951124165341767,
        "distance_wrist_1_joint": 0.0814793251100453,
        "distance_wrist_2_joint": 1.0602698587405106,
        "distance_wrist_3_joint": 0.07186706265995868,
        "smoothness": 5.075305295617109e-16,
        "time": 0.095785047,
        "traj_len": 1.4681352249909636,
        "weighted_distance": 1.8549674789682271
    },
    "planner": "KPIECE",
    "start": {
        "state": {
            "elbow_joint": 2.010868315001653,
            "shoulder_lift_joint": -1.1634956873357014,
            "shoulder_pan_joint": -2.4736205022346103,
            "wrist_1_joint": -0.8367026794713948,
            "wrist_2_joint": 0.6746043897044093,
            "wrist_3_joint": 3.1335220948105738
        }
    },
    "waypoints": [
        {
            "positions": [
                -2.4736205022346103,
                -1.1634956873357014,
                2.010868315001653,
                -0.8367026794713948,
                0.6746043897044093,
                3.1335220948105738
            ]
        },
        {
            "positions": [
                -2.55613923832364,
                -1.1321198805752974,
                1.9677953924596276,
                -0.8231227919530539,
                0.8513160328278278,
                3.1454999385872338
            ]
        },
        {
            "positions": [
                -2.638657974412669,
                -1.1007440738148935,
                1.9247224699176024,
                -0.809542904434713,
                1.0280276759512461,
                3.1574777823638933
            ]
        },
        {
            "positions": [
                -2.7211767105016986,
                -1.0693682670544893,
                1.8816495473755772,
                -0.7959630169163721,
                1.2047393190746645,
                3.169455626140553
            ]
        },
        {
            "positions": [
                -2.8036954465907282,
                -1.0379924602940853,
                1.8385766248335518,
                -0.7823831293980312,
                1.381450962198083,
                3.181433469917213
            ]
        },
        {
            "positions": [
                -2.8862141826797574,
                -1.0066166535336813,
                1.7955037022915263,
                -0.7688032418796904,
                1.5581626053215016,
                3.193411313693873
            ]
        },
        {
            "positions": [
                -2.968732918768787,
                -0.9752408467732773,
                1.7524307797495011,
                -0.7552233543613495,
                1.7348742484449198,
                3.2053891574705324
            ]
        }
    ]
}