{
    "goal": {
        "global_pose": {
            "orientation": {
                "w": 0.5084816262002911,
                "x": -0.4908360881923452,
                "y": 0.5182115481033761,
                "z": -0.48164630358495003
            },
            "position": {
                "x": 0.5540239810943604,
                "y": -0.46912469901144505,
                "z": 0.16403168439865112
            }
        },
        "name": "move_to_storage_B"
    },
    "id": "KPIECE_move_to_storage_B_91",
    "joint_names": [
        "shoulder_pan_joint",
        "shoulder_lift_joint",
        "elbow_joint",
        "wrist_1_joint",
        "wrist_2_joint",
        "wrist_3_joint"
    ],
    "metrics": {
        "cart_traj_len": 1.0601966826749225,
        "distance_elbow_joint": 0.8837111343572952,
        "distance_shoulder_lift_joint": 0.4570852466723416,
        "distance_shoulder_pan_joint": 0.7821565382638601,
        "distance_wrist_1_joint": 3.1575714353057522,
        "distance_wrist_2_joint": 2.703920931624638,
        "distance_wrist_3_joint": 3.1249355432582115,
        "smoothness": 0.20924045793449073,
        "time": 0.063247466,
        "traj_len": 3.333073780983869,
        "weighted_distance": 4.81879074902915
    },
    "planner": "KPIECE",
    "start": {
        "state": {
            "elbow_joint": 1.6649325706314817,
            "shoulder_lift_joint": -0.6616388048112454,
            "shoulder_pan_joint": -0.9139837860083814,
            "wrist_1_joint": 2.146757197745094,
            "wrist_2_joint": -2.234196043158733,
            "wrist_3_joint": 0.005471033829999897
        }
    },
    "waypoints": [
        {
            "positions": [
                -0.9139837860083814,
                -0.6616388048112454,
                1.6649325706314817,
                2.146757197745094,
                -2.234196043158733,
                0.005471033829999897
            ]
        },
        {
            "positions": [
                -0.8138430356351612,
                -0.719745001059698,
                1.575419594494953,
                2.176900356687242,
                -2.136450745875035,
                0.008306912910410864
            ]
        },
        {
            "positions": [
                -0.713702285261941,
                -0.7778511973081507,
                1.4859066183584242,
                2.20704351562939,
                -2.0387054485913376,
                0.01114279199082183
            ]
        },
        {
            "positions": [
                -0.6135615348887209,
                -0.8359573935566033,
                1.3963936422218954,
                2.2371866745715376,
                -1.9409601513076398,
                0.013978671071232797
            ]
        },
        {
            "positions": [
                -0.6320897767019593,
                -0.8468330342461027,
                1.4200541116814227,
                2.119219676168487,
                -1.8482414959317341,
                0.13384128284111663
            ]
        },
        {
            "positions": [
                -0.6506180185151977,
                -0.857708674935602,
                1.44371458114095,
                2.001252677765437,
                -1.7555228405558285,
                0.25370389461100046
            ]
        },
        {
            "positions": [
                -0.6691462603284363,
                -0.8685843156251014,
                1.4673750506004772,
                1.8832856793623867,
                -1.662804185179923,
                0.37356650638088423
            ]
        },
        {
            "positions": [
                -0.6876745021416747,
                -0.8794599563146007,
                1.4910355200600045,
                1.7653186809593362,
                -1.5700855298040175,
                0.49342911815076806
            ]
        },
        {
            "positions": [
                -0.7062027439549131,
                -0.8903355970041001,
                1.5146959895195318,
                1.647351682556286,
                -1.4773668744281119,
                0.613291729920652
            ]
        },
        {
            "positions": [
                -0.7247309857681516,
                -0.9012112376935995,
                1.538356458979059,
                1.5293846841532357,
                -1.3846482190522063,
                0.7331543416905357
            ]
        },
        {
            "positions": [
                -0.7432592275813901,
                -0.9120868783830989,
                1.5620169284385863,
                1.4114176857501852,
                -1.2919295636763009,
                0.8530169534604195
            ]
        },
        {
            "positions": [
                -0.7617874693946285,
                -0.9229625190725983,
                1.5856773978981136,
                1.2934506873471348,
                -1.1992109083003952,
                0.9728795652303034
            ]
        },
        {
            "positions": [
                -0.7803157112078669,
                -0.9338381597620976,
                1.6093378673576408,
                1.1754836889440847,
                -1.1064922529244896,
                1.092742177000187
            ]
        },
        {
            "positions": [
                -0.7988439530211053,
                -0.944713800451597,
                1.632998336817168,
                1.0575166905410343,
                -1.013773597548584,
                1.212604788770071
            ]
        },
        {
            "positions": [
                -0.8173721948343438,
                -0.9555894411410963,
                1.6566588062766954,
                0.939549692137984,
                -0.9210549421726786,
                1.3324674005399548
            ]
        },
        {
            "positions": [
                -0.8359004366475823,
                -0.9664650818305958,
                1.6803192757362226,
                0.8215826937349335,
                -0.8283362867967727,
                1.4523300123098386
            ]
        },
        {
            "positions": [
                -0.8544286784608207,
                -0.9773407225200952,
                1.70397974519575,
                0.7036156953318833,
                -0.7356176314208673,
                1.5721926240797224
            ]
        },
        {
            "positions": [
                -0.8729569202740591,
                -0.9882163632095945,
                1.7276402146552772,
                0.585648696928833,
                -0.6428989760449619,
                1.6920552358496062
            ]
        },
        {
            "positions": [
                -0.8914851620872976,
                -0.9990920038990938,
                1.7513006841148044,
                0.4676816985257828,
                -0.5501803206690563,
                1.81191784761949
            ]
        },
        {
            "positions": [
                -0.9100134039005361,
                -1.0099676445885932,
                1.7749611535743317,
                0.3497147001227321,
                -0.45746166529315047,
                1.931780459389374
            ]
        },
        {
            "positions": [
                -0.9285416457137745,
                -1.0208432852780926,
                1.798621623033859,
                0.23174770171968184,
                -0.36474300991724506,
                2.0516430711592575
            ]
        },
        {
            "positions": [
                -0.9470698875270129,
                -1.031718925967592,
                1.8222820924933862,
                0.11378070331663181,
                -0.27202435454133944,
                2.171505682929141
            ]
        },
        {
            "positions": [
                -0.9655981293402514,
                -1.0425945666570913,
                1.8459425619529135,
                -0.0041862950864186566,
                -0.17930569916543404,
                2.291368294699025
            ]
        },
        {
            "positions": [
                -0.9841263711534899,
                -1.0534702073465907,
                1.8696030314124408,
                -0.12215329348946913,
                -0.0865870437895282,
                2.411230906468909
            ]
        },
        {
            "positions": [
                -1.0026546129667282,
                -1.0643458480360901,
                1.893263500871968,
                -0.2401202918925196,
                0.006131611586377206,
                2.5310935182387926
            ]
        },
        {
            "positions": [
                -1.0211828547799668,
                -1.0752214887255895,
                1.9169239703314953,
                -0.3580872902955696,
                0.0988502669622826,
                2.6509561300086766
            ]
        },
        {
            "positions": [
                -1.039711096593205,
                -1.086097129415089,
                1.9405844397910226,
                -0.4760542886986201,
                0.19156892233818823,
                2.77081874177856
            ]
        },
        {
            "positions": [
                -1.0582393384064437,
                -1.0969727701045882,
                1.9642449092505498,
                -0.5940212871016706,
                0.2842875777140943,
                2.890681353548444
            ]
        },
        {
            "positions": [
                -1.076767580219682,
                -1.1078484107940876,
                1.987905378710077,
                -0.7119882855047206,
                0.3770062330899995,
                3.010543965318328
            ]
        },
        {
            "positions": [
                -1.0952958220329205,
                -1.118724051483587,
                2.0115658481696044,
                -0.829955283907771,
                0.4697248884659051,
                3.1304065770882117
            ]
        }
    ]
}