{
    "goal": {
        "global_pose": {
            "orientation": {
                "w": 0.005598929693374612,
                "x": 0.007748599140229565,
                "y": 0.7110244013736278,
                "z": -0.7031023480610252
            },
            "position": {
                "x": -0.8858502320852131,
                "y": -0.7141253447532654,
                "z": 0.3711530566215515
            }
        },
        "name": "move_to_auspresseinheit_C"
    },
    "id": "KPIECE_move_to_auspresseinheit_C_133",
    "joint_names": [
        "shoulder_pan_joint",
        "shoulder_lift_joint",
        "elbow_joint",
        "wrist_1_joint",
        "wrist_2_joint",
        "wrist_3_joint"
    ],
    "metrics": {
        "cart_traj_len": 0.5112471532633325,
        "distance_elbow_joint": 0.9871371414536587,
        "distance_shoulder_lift_joint": 0.3185874108085551,
        "distance_shoulder_pan_joint": 0.25662497846826016,
        "distance_wrist_1_joint": 0.6562218372361692,
        "distance_wrist_2_joint": 1.3035137108063395,
        "distance_wrist_3_joint": 0.43051513818711484,
        "smoothness": 0.22882638144875808,
        "time": 1.4469552449999998,
        "traj_len": 1.9881147393850531,
        "weighted_distance": 2.6025691232658614
    },
    "planner": "KPIECE",
    "start": {
        "state": {
            "elbow_joint": 1.752795957773711,
            "shoulder_lift_joint": -0.9740617694225064,
            "shoulder_pan_joint": -2.967991417825858,
            "wrist_1_joint": -0.7595177689806859,
            "wrist_2_joint": 1.7443932448377395,
            "wrist_3_joint": 3.199131542505932
        }
    },
    "waypoints": [
        {
            "positions": [
                -2.967991417825858,
                -0.9740617694225064,
                1.752795957773711,
                -0.7595177689806859,
                1.7443932448377395,
                3.199131542505932
            ]
        },
        {
            "positions": [
                -2.941451408826734,
                -0.945708777026344,
                1.65234454121098,
                -0.6952822268323309,
                1.6085311968574865,
                3.173049175649988
            ]
        },
        {
            "positions": [
                -2.9149113998276106,
                -0.9173557846301816,
                1.5518931246482492,
                -0.6310466846839757,
                1.4726691488772332,
                3.1469668087940437
            ]
        },
        {
            "positions": [
                -2.8883713908284867,
                -0.8890027922340192,
                1.4514417080855182,
                -0.5668111425356206,
                1.3368071008969802,
                3.1208844419380997
            ]
        },
        {
            "positions": [
                -2.8618313818293633,
                -0.8606497998378568,
                1.3509902915227872,
                -0.5025756003872656,
                1.200945052916727,
                3.0948020750821557
            ]
        },
        {
            "positions": [
                -2.8352913728302394,
                -0.8322968074416943,
                1.2505388749600561,
                -0.4383400582389104,
                1.065083004936474,
                3.068719708226211
            ]
        },
        {
            "positions": [
                -2.808751363831116,
                -0.803943815045532,
                1.150087458397325,
                -0.3741045160905554,
                0.9292209569562208,
                3.042637341370267
            ]
        },
        {
            "positions": [
                -2.782211354831992,
                -0.7755908226493695,
                1.049636041834594,
                -0.30986897394220025,
                0.7933589089759676,
                3.016554974514323
            ]
        },
        {
            "positions": [
                -2.7556713458328685,
                -0.7472378302532071,
                0.9491846252718632,
                -0.24563343179384522,
                0.6574968609957146,
                2.9904726076583787
            ]
        },
        {
            "positions": [
                -2.7291313368337446,
                -0.7188848378570447,
                0.8487332087091322,
                -0.1813978896454901,
                0.5216348130154613,
                2.9643902408024347
            ]
        },
        {
            "positions": [
                -2.7202488880956714,
                -0.687179598235498,
                0.8071960125145923,
                -0.14234691069500344,
                0.48125717352343067,
                3.0622771590442435
            ]
        },
        {
            "positions": [
                -2.711366439357598,
                -0.6554743586139513,
                0.7656588163200524,
                -0.10329593174451679,
                0.44087953403140007,
                3.160164077286052
            ]
        }
    ]
}