{
    "goal": {
        "global_pose": {
            "orientation": {
                "w": 0.7047431493862688,
                "x": -0.7094548369677653,
                "y": 0.0024358444001904,
                "z": -0.0022348060817251984
            },
            "position": {
                "x": -0.39052492380142206,
                "y": 0.3671506643295288,
                "z": 0.19426114857196808
            }
        },
        "name": "move_to_magneteinheit_D"
    },
    "id": "KPIECE_move_to_magneteinheit_D_25",
    "joint_names": [
        "shoulder_pan_joint",
        "shoulder_lift_joint",
        "elbow_joint",
        "wrist_1_joint",
        "wrist_2_joint",
        "wrist_3_joint"
    ],
    "metrics": {
        "cart_traj_len": 5.165320631344119,
        "distance_elbow_joint": 5.9801257102379575,
        "distance_shoulder_lift_joint": 3.5239497666733044,
        "distance_shoulder_pan_joint": 3.182852622441692,
        "distance_wrist_1_joint": 2.5868437726314437,
        "distance_wrist_2_joint": 0.8062659042007261,
        "distance_wrist_3_joint": 7.212908211978458,
        "smoothness": 0.48382423351099824,
        "time": 0.304075471,
        "traj_len": 4.826276617451968,
        "weighted_distance": 6.41185402898044
    },
    "planner": "KPIECE",
    "start": {
        "state": {
            "elbow_joint": 0.7495348899011973,
            "shoulder_lift_joint": -0.6476975780737697,
            "shoulder_pan_joint": -2.711696901376276,
            "wrist_1_joint": -0.07506478080974305,
            "wrist_2_joint": 0.4329665971545858,
            "wrist_3_joint": 3.1361499051832524
        }
    },
    "waypoints": [
        {
            "positions": [
                -2.711696901376276,
                -0.6476975780737697,
                0.7495348899011973,
                -0.07506478080974305,
                0.4329665971545858,
                3.1361499051832524
            ]
        },
        {
            "positions": [
                -2.7226468264165464,
                -0.6246757957162514,
                0.6833371543501727,
                -0.05570942632909993,
                0.40111003480201063,
                2.9103399511448766
            ]
        },
        {
            "positions": [
                -2.7335967514568167,
                -0.601654013358733,
                0.6171394187991481,
                -0.036354071848456807,
                0.3692534724494354,
                2.684529997106501
            ]
        },
        {
            "positions": [
                -2.7445466764970865,
                -0.5786322310012146,
                0.5509416832481235,
                -0.01699871736781368,
                0.33739691009686024,
                2.458720043068125
            ]
        },
        {
            "positions": [
                -2.7554966015373568,
                -0.5556104486436964,
                0.48474394769709894,
                0.002356637112829435,
                0.30554034774428507,
                2.2329100890297493
            ]
        },
        {
            "positions": [
                -2.766446526577627,
                -0.5325886662861781,
                0.41854621214607435,
                0.021711991593472577,
                0.27368378539170984,
                2.007100134991373
            ]
        },
        {
            "positions": [
                -2.7773964516178973,
                -0.5095668839286597,
                0.35234847659504975,
                0.04106734607411569,
                0.24182722303913465,
                1.7812901809529975
            ]
        },
        {
            "positions": [
                -2.7797481854284856,
                -0.4903691786239474,
                0.2799962044731865,
                0.05802312431802288,
                0.2069703988321609,
                1.5510591577867139
            ]
        },
        {
            "positions": [
                -2.7820999192390734,
                -0.47117147331923515,
                0.20764393235132328,
                0.07497890256193007,
                0.17211357462518712,
                1.3208281346204305
            ]
        },
        {
            "positions": [
                -2.7844516530496617,
                -0.4519737680145229,
                0.13529166022946004,
                0.09193468080583726,
                0.13725675041821334,
                1.090597111454147
            ]
        },
        {
            "positions": [
                -2.7868033868602495,
                -0.4327760627098106,
                0.0629393881075968,
                0.10889045904974445,
                0.10239992621123958,
                0.8603660882878634
            ]
        },
        {
            "positions": [
                -2.789155120670838,
                -0.41357835740509835,
                -0.009412884014266432,
                0.12584623729365163,
                0.0675431020042658,
                0.63013506512158
            ]
        },
        {
            "positions": [
                -2.791506854481426,
                -0.3943806521003861,
                -0.08176515613612967,
                0.14280201553755884,
                0.03268627779729205,
                0.3999040419552964
            ]
        },
        {
            "positions": [
                -2.793858588292014,
                -0.3751829467956738,
                -0.1541174282579929,
                0.15975779378146604,
                -0.0021705464096817007,
                0.16967301878901275
            ]
        },
        {
            "positions": [
                -2.7962103221026022,
                -0.35598524149096156,
                -0.2264697003798561,
                0.17671357202537322,
                -0.03702737061665551,
                -0.06055800437727055
            ]
        },
        {
            "positions": [
                -2.7349939951536713,
                -0.3665293812930419,
                -0.30932988039892734,
                0.16702670960256027,
                -0.07423364990502486,
                -0.19954375899905555
            ]
        },
        {
            "positions": [
                -2.67377766820474,
                -0.3770735210951222,
                -0.39219006041799864,
                0.1573398471797473,
                -0.11143992919339421,
                -0.33852951362084055
            ]
        },
        {
            "positions": [
                -2.612561341255809,
                -0.38761766089720257,
                -0.4750502404370699,
                0.14765298475693436,
                -0.14864620848176358,
                -0.4775152682426256
            ]
        },
        {
            "positions": [
                -2.5264209722450217,
                -0.46111715815505766,
                -0.4288326485404248,
                0.08601062599127432,
                -0.1453706126823395,
                -0.36409573474388984
            ]
        },
        {
            "positions": [
                -2.440280603234234,
                -0.5346166554129128,
                -0.38261505664377976,
                0.024368267225614262,
                -0.14209501688291543,
                -0.2506762012451541
            ]
        },
        {
            "positions": [
                -2.354140234223447,
                -0.6081161526707679,
                -0.3363974647471347,
                -0.037274091540045795,
                -0.13881942108349135,
                -0.13725666774641831
            ]
        },
        {
            "positions": [
                -2.26799986521266,
                -0.681615649928623,
                -0.29017987285048963,
                -0.09891645030570584,
                -0.13554382528406728,
                -0.02383713424768258
            ]
        },
        {
            "positions": [
                -2.1818594962018723,
                -0.7551151471864781,
                -0.24396228095384456,
                -0.16055880907136585,
                -0.1322682294846432,
                0.08958239925105316
            ]
        },
        {
            "positions": [
                -2.095719127191085,
                -0.8286146444443332,
                -0.1977446890571995,
                -0.22220116783702595,
                -0.12899263368521913,
                0.20300193274978895
            ]
        },
        {
            "positions": [
                -2.0095787581802975,
                -0.9021141417021883,
                -0.1515270971605544,
                -0.28384352660268597,
                -0.12571703788579505,
                0.31642146624852463
            ]
        },
        {
            "positions": [
                -1.9234383891695104,
                -0.9756136389600434,
                -0.10530950526390936,
                -0.345485885368346,
                -0.12244144208637098,
                0.4298409997472604
            ]
        },
        {
            "positions": [
                -1.8372980201587232,
                -1.0491131362178987,
                -0.05909191336726427,
                -0.40712824413400617,
                -0.11916584628694689,
                0.5432605332459963
            ]
        },
        {
            "positions": [
                -1.7511576511479359,
                -1.1226126334757538,
                -0.012874321470619232,
                -0.4687706028996661,
                -0.11589025048752283,
                0.6566800667447319
            ]
        },
        {
            "positions": [
                -1.6650172821371485,
                -1.196112130733609,
                0.03334327042602592,
                -0.5304129616653263,
                -0.11261465468809874,
                0.7700996002434677
            ]
        },
        {
            "positions": [
                -1.5788769131263614,
                -1.269611627991464,
                0.0795608623226709,
                -0.5920553204309863,
                -0.10933905888867468,
                0.8835191337422035
            ]
        },
        {
            "positions": [
                -1.492736544115574,
                -1.343111125249319,
                0.125778454219316,
                -0.6536976791966463,
                -0.10606346308925059,
                0.9969386672409393
            ]
        },
        {
            "positions": [
                -1.4065961751047866,
                -1.4166106225071742,
                0.1719960461159611,
                -0.7153400379623064,
                -0.10278786728982651,
                1.1103582007396748
            ]
        },
        {
            "positions": [
                -1.3204558060939993,
                -1.4901101197650295,
                0.21821363801260618,
                -0.7769823967279664,
                -0.09951227149040244,
                1.2237777342384106
            ]
        },
        {
            "positions": [
                -1.2343154370832121,
                -1.5636096170228844,
                0.26443122990925116,
                -0.8386247554936265,
                -0.09623667569097837,
                1.3371972677371464
            ]
        },
        {
            "positions": [
                -1.1481750680724248,
                -1.6371091142807395,
                0.31064882180589626,
                -0.9002671142592864,
                -0.09296107989155429,
                1.450616801235882
            ]
        },
        {
            "positions": [
                -1.0620346990616374,
                -1.7106086115385948,
                0.35686641370254135,
                -0.9619094730249467,
                -0.0896854840921302,
                1.5640363347346182
            ]
        },
        {
            "positions": [
                -0.97589433005085,
                -1.7841081087964499,
                0.40308400559918645,
                -1.0235518317906067,
                -0.08640988829270613,
                1.6774558682333536
            ]
        },
        {
            "positions": [
                -0.8897539610400629,
                -1.857607606054305,
                0.44930159749583143,
                -1.0851941905562665,
                -0.08313429249328207,
                1.7908754017320894
            ]
        },
        {
            "positions": [
                -0.8036135920292757,
                -1.93110710331216,
                0.4955191893924765,
                -1.1468365493219266,
                -0.07985869669385799,
                1.9042949352308252
            ]
        },
        {
            "positions": [
                -0.7174732230184881,
                -2.004606600570015,
                0.5417367812891217,
                -1.2084789080875868,
                -0.0765831008944339,
                2.0177144687295607
            ]
        },
        {
            "positions": [
                -0.631332854007701,
                -2.0781060978278703,
                0.5879543731857667,
                -1.2701212668532469,
                -0.07330750509500983,
                2.131134002228297
            ]
        },
        {
            "positions": [
                -0.5451924849969139,
                -2.151605595085725,
                0.6341719650824117,
                -1.331763625618907,
                -0.07003190929558577,
                2.2445535357270323
            ]
        },
        {
            "positions": [
                -0.4590521159861263,
                -2.2251050923435804,
                0.6803895569790567,
                -1.3934059843845668,
                -0.06675631349616169,
                2.3579730692257677
            ]
        },
        {
            "positions": [
                -0.37291174697533913,
                -2.2986045896014358,
                0.7266071488757019,
                -1.455048343150227,
                -0.0634807176967376,
                2.471392602724504
            ]
        },
        {
            "positions": [
                -0.28677137796455154,
                -2.3721040868592906,
                0.7728247407723469,
                -1.516690701915887,
                -0.06020512189731353,
                2.5848121362232392
            ]
        },
        {
            "positions": [
                -0.2006310089537644,
                -2.4456035841171455,
                0.8190423326689921,
                -1.578333060681547,
                -0.056929526097889455,
                2.6982316697219755
            ]
        },
        {
            "positions": [
                -0.11449063994297726,
                -2.519103081375001,
                0.865259924565637,
                -1.639975419447207,
                -0.053653930298465394,
                2.811651203220711
            ]
        },
        {
            "positions": [
                -0.02835027093218967,
                -2.592602578632856,
                0.9114775164622823,
                -1.7016177782128672,
                -0.050378334499041305,
                2.925070736719447
            ]
        },
        {
            "positions": [
                0.057790098078597474,
                -2.666102075890711,
                0.9576951083589273,
                -1.7632601369785272,
                -0.04710273869961723,
                3.038490270218183
            ]
        },
        {
            "positions": [
                0.03899480719135375,
                -2.5951697223760384,
                0.7020954751971047,
                -1.7936518070394831,
                -0.05657271014440421,
                3.044893154840627
            ]
        },
        {
            "positions": [
                0.02019951630411003,
                -2.5242373688613653,
                0.4464958420352819,
                -1.824043477100439,
                -0.06604268158919119,
                3.0512960394630713
            ]
        },
        {
            "positions": [
                0.0014042254168663143,
                -2.4533050153466927,
                0.19089620887345926,
                -1.8544351471613951,
                -0.07551265303397817,
                3.0576989240855155
            ]
        },
        {
            "positions": [
                -0.017391065470377415,
                -2.3823726618320196,
                -0.06470342428836351,
                -1.884826817222351,
                -0.08498262447876515,
                3.06410180870796
            ]
        },
        {
            "positions": [
                -0.03618635635762113,
                -2.311440308317347,
                -0.32030305745018617,
                -1.915218487283307,
                -0.09445259592355212,
                3.0705046933304043
            ]
        },
        {
            "positions": [
                -0.054981647244864845,
                -2.240507954802674,
                -0.5759026906120088,
                -1.9456101573442628,
                -0.1039225673683391,
                3.0769075779528485
            ]
        },
        {
            "positions": [
                -0.07377693813210856,
                -2.169575601288001,
                -0.8315023237738315,
                -1.976001827405219,
                -0.11339253881312607,
                3.0833104625752927
            ]
        },
        {
            "positions": [
                -0.0925722290193523,
                -2.098643247773328,
                -1.0871019569356544,
                -2.0063934974661746,
                -0.12286251025791305,
                3.089713347197737
            ]
        },
        {
            "positions": [
                -0.11136751990659599,
                -2.0277108942586555,
                -1.342701590097477,
                -2.036785167527131,
                -0.1323324817027,
                3.096116231820181
            ]
        },
        {
            "positions": [
                -0.13016281079383973,
                -1.9567785407439828,
                -1.5983012232592997,
                -2.067176837588087,
                -0.14180245314748702,
                3.102519116442626
            ]
        },
        {
            "positions": [
                -0.14895810168108345,
                -1.8858461872293097,
                -1.8539008564211223,
                -2.0975685076490427,
                -0.15127242459227397,
                3.10892200106507
            ]
        },
        {
            "positions": [
                -0.16775339256832716,
                -1.814913833714637,
                -2.109500489582945,
                -2.1279601777099986,
                -0.16074239603706098,
                3.115324885687514
            ]
        },
        {
            "positions": [
                -0.18654868345557088,
                -1.7439814801999642,
                -2.3651001227447677,
                -2.1583518477709545,
                -0.17021236748184793,
                3.1217277703099584
            ]
        }
    ]
}