{
    "goal": {
        "global_pose": {
            "orientation": {
                "w": -0.4816463035849501,
                "x": 0.5182115481033762,
                "y": 0.4908360881923453,
                "z": -0.5084816262002911
            },
            "position": {
                "x": -0.8240239810943604,
                "y": -0.300875300988555,
                "z": 0.16403168439865112
            }
        },
        "name": "move_to_storage_C"
    },
    "id": "KPIECE_move_to_storage_C_141",
    "joint_names": [
        "shoulder_pan_joint",
        "shoulder_lift_joint",
        "elbow_joint",
        "wrist_1_joint",
        "wrist_2_joint",
        "wrist_3_joint"
    ],
    "metrics": {
        "cart_traj_len": 0.5758394961446601,
        "distance_elbow_joint": 0.25730139364992577,
        "distance_shoulder_lift_joint": 0.18845545983026912,
        "distance_shoulder_pan_joint": 0.49429507888768853,
        "distance_wrist_1_joint": 0.07897650008651358,
        "distance_wrist_2_joint": 1.0662032516893305,
        "distance_wrist_3_joint": 0.061689686412325084,
        "smoothness": 0.0,
        "time": 0.218790472,
        "traj_len": 1.465237649856177,
        "weighted_distance": 1.8481018627652932
    },
    "planner": "KPIECE",
    "start": {
        "state": {
            "elbow_joint": 2.010868315001653,
            "shoulder_lift_joint": -1.1634956873357014,
            "shoulder_pan_joint": -2.4736205022346103,
            "wrist_1_joint": -0.8367026794713948,
            "wrist_2_joint": 0.6746043897044093,
            "wrist_3_joint": 3.1335220948105738
        }
    },
    "waypoints": [
        {
            "positions": [
                -2.4736205022346103,
                -1.1634956873357014,
                2.010868315001653,
                -0.8367026794713948,
                0.6746043897044093,
                3.1335220948105738
            ]
        },
        {
            "positions": [
                -2.5560030153825584,
                -1.1320864440306566,
                1.9679847493933322,
                -0.8235399294569758,
                0.852304931652631,
                3.143803709212628
            ]
        },
        {
            "positions": [
                -2.6383855285305065,
                -1.1006772007256118,
                1.9251011837850112,
                -0.8103771794425569,
                1.0300054736008528,
                3.154085323614682
            ]
        },
        {
            "positions": [
                -2.7207680416784545,
                -1.0692679574205668,
                1.88221761817669,
                -0.797214429428138,
                1.2077060155490744,
                3.1643669380167365
            ]
        },
        {
            "positions": [
                -2.8031505548264026,
                -1.037858714115522,
                1.8393340525683692,
                -0.784051679413719,
                1.3854065574972962,
                3.1746485524187906
            ]
        },
        {
            "positions": [
                -2.8855330679743507,
                -1.0064494708104772,
                1.7964504869600484,
                -0.7708889293993001,
                1.563107099445518,
                3.1849301668208447
            ]
        },
        {
            "positions": [
                -2.967915581122299,
                -0.9750402275054323,
                1.7535669213517273,
                -0.7577261793848812,
                1.74080764139374,
                3.195211781222899
            ]
        }
    ]
}