{
    "goal": {
        "global_pose": {
            "orientation": {
                "w": 0.005598929693374612,
                "x": 0.007748599140229565,
                "y": 0.7110244013736278,
                "z": -0.7031023480610252
            },
            "position": {
                "x": 0.1141497679147869,
                "y": -0.7141253447532654,
                "z": 0.3711530566215515
            }
        },
        "name": "move_to_auspresseinheit_B"
    },
    "id": "KPIECE_move_to_auspresseinheit_B_116",
    "joint_names": [
        "shoulder_pan_joint",
        "shoulder_lift_joint",
        "elbow_joint",
        "wrist_1_joint",
        "wrist_2_joint",
        "wrist_3_joint"
    ],
    "metrics": {
        "cart_traj_len": 0.5647749803156783,
        "distance_elbow_joint": 0.06648499698255272,
        "distance_shoulder_lift_joint": 0.2930400587207409,
        "distance_shoulder_pan_joint": 0.5775354222265572,
        "distance_wrist_1_joint": 0.3361099870446357,
        "distance_wrist_2_joint": 0.9872559354973223,
        "distance_wrist_3_joint": 0.003369175318658879,
        "smoothness": 0.0,
        "time": 0.303341933,
        "traj_len": 1.5045914979789257,
        "weighted_distance": 1.8957583835947405
    },
    "planner": "KPIECE",
    "start": {
        "state": {
            "elbow_joint": 2.019306165916698,
            "shoulder_lift_joint": -1.1220205098164344,
            "shoulder_pan_joint": -1.095207207618794,
            "wrist_1_joint": -0.8559671824921639,
            "wrist_2_joint": 0.47596387242952726,
            "wrist_3_joint": 3.159081874673826
        }
    },
    "waypoints": [
        {
            "positions": [
                -1.095207207618794,
                -1.1220205098164344,
                2.019306165916698,
                -0.8559671824921639,
                0.47596387242952726,
                3.159081874673826
            ]
        },
        {
            "positions": [
                -1.1914631113232201,
                -1.1708605196032247,
                2.0082253330862727,
                -0.7999488513180579,
                0.6405065283457476,
                3.159643403893602
            ]
        },
        {
            "positions": [
                -1.2877190150276463,
                -1.2197005293900147,
                1.997144500255847,
                -0.743930520143952,
                0.805049184261968,
                3.160204933113379
            ]
        },
        {
            "positions": [
                -1.3839749187320725,
                -1.2685405391768048,
                1.9860636674254217,
                -0.6879121889698461,
                0.9695918401781884,
                3.1607664623331555
            ]
        },
        {
            "positions": [
                -1.4802308224364986,
                -1.317380548963595,
                1.9749828345949962,
                -0.63189385779574,
                1.1341344960944086,
                3.1613279915529318
            ]
        },
        {
            "positions": [
                -1.576486726140925,
                -1.3662205587503853,
                1.9639020017645707,
                -0.5758755266216341,
                1.2986771520106293,
                3.161889520772708
            ]
        },
        {
            "positions": [
                -1.6727426298453512,
                -1.4150605685371753,
                1.9528211689341453,
                -0.5198571954475282,
                1.4632198079268495,
                3.1624510499924847
            ]
        }
    ]
}