{
    "goal": {
        "global_pose": {
            "orientation": {
                "w": 0.7031023502349854,
                "x": -0.7110244035720825,
                "y": 0.007748599164187908,
                "z": 0.005598929710686207
            },
            "position": {
                "x": 0.11585023208521307,
                "y": 0.44412534475326537,
                "z": 0.3711530566215515
            }
        },
        "name": "move_to_auspresseinheit_A"
    },
    "id": "KPIECE_move_to_auspresseinheit_A_56",
    "joint_names": [
        "shoulder_pan_joint",
        "shoulder_lift_joint",
        "elbow_joint",
        "wrist_1_joint",
        "wrist_2_joint",
        "wrist_3_joint"
    ],
    "metrics": {
        "cart_traj_len": 1.2576121564809455,
        "distance_elbow_joint": 1.5957924534722574,
        "distance_shoulder_lift_joint": 0.6990204795938924,
        "distance_shoulder_pan_joint": 1.044167586235467,
        "distance_wrist_1_joint": 1.4049683985918984,
        "distance_wrist_2_joint": 1.6900867062578102,
        "distance_wrist_3_joint": 1.1862236989834924,
        "smoothness": 0.8079222738420616,
        "time": 0.723361617,
        "traj_len": 2.7604817193987747,
        "weighted_distance": 3.6177011797481984
    },
    "planner": "KPIECE",
    "start": {
        "state": {
            "elbow_joint": 2.4225747245308327,
            "shoulder_lift_joint": -1.373653427065438,
            "shoulder_pan_joint": -0.33786330853087027,
            "wrist_1_joint": -1.0288602302712604,
            "wrist_2_joint": 1.23302299562683,
            "wrist_3_joint": -3.094021725338297
        }
    },
    "waypoints": [
        {
            "positions": [
                -0.33786330853087027,
                -1.373653427065438,
                2.4225747245308327,
                -1.0288602302712604,
                1.23302299562683,
                -3.094021725338297
            ]
        },
        {
            "positions": [
                -0.3041502115789413,
                -1.4065031136901514,
                2.348661568474308,
                -0.9389286509578331,
                1.1324695896029013,
                -3.042336630630737
            ]
        },
        {
            "positions": [
                -0.27043711462701236,
                -1.4393528003148648,
                2.2747484124177837,
                -0.8489970716444057,
                1.0319161835789727,
                -2.9906515359231776
            ]
        },
        {
            "positions": [
                -0.23672401767508341,
                -1.472202486939578,
                2.200835256361259,
                -0.7590654923309785,
                0.9313627775550444,
                -2.9389664412156176
            ]
        },
        {
            "positions": [
                -0.20301092072315446,
                -1.5050521735642914,
                2.1269221003047343,
                -0.6691339130175511,
                0.8308093715311158,
                -2.8872813465080576
            ]
        },
        {
            "positions": [
                -0.16929782377122551,
                -1.5379018601890049,
                2.05300894424821,
                -0.5792023337041239,
                0.7302559655071873,
                -2.8355962518004976
            ]
        },
        {
            "positions": [
                -0.13558472681929656,
                -1.5707515468137183,
                1.9790957881916853,
                -0.48927075439069656,
                0.6297025594832588,
                -2.783911157092938
            ]
        },
        {
            "positions": [
                -0.10187162986736759,
                -1.6036012334384318,
                1.9051826321351608,
                -0.39933917507726924,
                0.5291491534593302,
                -2.732226062385378
            ]
        },
        {
            "positions": [
                -0.06815853291543866,
                -1.6364509200631452,
                1.8312694760786363,
                -0.3094075957638419,
                0.42859574743540163,
                -2.680540967677818
            ]
        },
        {
            "positions": [
                -0.034445435963509685,
                -1.6693006066878584,
                1.7573563200221116,
                -0.21947601645041448,
                0.32804234141147304,
                -2.628855872970258
            ]
        },
        {
            "positions": [
                -0.0007323390115807626,
                -1.7021502933125718,
                1.6834431639655874,
                -0.12954443713698727,
                0.22748893538754467,
                -2.5771707782626985
            ]
        },
        {
            "positions": [
                0.03298075794034819,
                -1.7349999799372853,
                1.6095300079090626,
                -0.039612857823559985,
                0.12693552936361613,
                -2.5254856835551385
            ]
        },
        {
            "positions": [
                0.11212418562434859,
                -1.7859571230612084,
                1.722472410475067,
                -0.07824139936421749,
                0.13418754690480866,
                -2.5927608467091217
            ]
        },
        {
            "positions": [
                0.191267613308349,
                -1.8369142661851314,
                1.8354148130410715,
                -0.116869940904875,
                0.14143956444600117,
                -2.660036009863105
            ]
        },
        {
            "positions": [
                0.27041104099234936,
                -1.8878714093090547,
                1.9483572156070759,
                -0.1554984824455325,
                0.1486915819871937,
                -2.727311173017088
            ]
        },
        {
            "positions": [
                0.34955446867634976,
                -1.9388285524329778,
                2.0612996181730803,
                -0.19412702398619003,
                0.1559435995283862,
                -2.794586336171071
            ]
        },
        {
            "positions": [
                0.42869789636035016,
                -1.9897856955569009,
                2.1742420207390847,
                -0.2327555655268475,
                0.16319561706957875,
                -2.8618614993250544
            ]
        },
        {
            "positions": [
                0.48421917262919945,
                -1.973208053336415,
                2.2178491655431776,
                -0.27727122921502945,
                0.2727434475273055,
                -2.918123867611138
            ]
        },
        {
            "positions": [
                0.5397404488980487,
                -1.9566304111159292,
                2.261456310347271,
                -0.32178689290321144,
                0.38229127798503226,
                -2.9743862358972217
            ]
        },
        {
            "positions": [
                0.595261725166898,
                -1.9400527688954432,
                2.305063455151364,
                -0.3663025565913934,
                0.49183910844275897,
                -3.030648604183305
            ]
        },
        {
            "positions": [
                0.6507830014357473,
                -1.9234751266749575,
                2.348670599955457,
                -0.4108182202795754,
                0.6013869389004858,
                -3.0869109724693886
            ]
        },
        {
            "positions": [
                0.7063042777045966,
                -1.9068974844544715,
                2.39227774475955,
                -0.4553338839677573,
                0.7109347693582124,
                -3.1431733407554723
            ]
        }
    ]
}