{
    "goal": {
        "global_pose": {
            "orientation": {
                "w": 0.005598929693374612,
                "x": 0.007748599140229565,
                "y": 0.7110244013736278,
                "z": -0.7031023480610252
            },
            "position": {
                "x": 0.1141497679147869,
                "y": -0.7141253447532654,
                "z": 0.3711530566215515
            }
        },
        "name": "move_to_auspresseinheit_B"
    },
    "id": "KPIECE_move_to_auspresseinheit_B_74",
    "joint_names": [
        "shoulder_pan_joint",
        "shoulder_lift_joint",
        "elbow_joint",
        "wrist_1_joint",
        "wrist_2_joint",
        "wrist_3_joint"
    ],
    "metrics": {
        "cart_traj_len": 0.5643300184899884,
        "distance_elbow_joint": 0.06303813416333526,
        "distance_shoulder_lift_joint": 0.29469029818380044,
        "distance_shoulder_pan_joint": 0.5740996394140552,
        "distance_wrist_1_joint": 0.3274225278088846,
        "distance_wrist_2_joint": 1.006709483549061,
        "distance_wrist_3_joint": 0.0014226539885364708,
        "smoothness": 5.075305255429287e-16,
        "time": 0.269116573,
        "traj_len": 1.5057830976298257,
        "weighted_distance": 1.8985152241798566
    },
    "planner": "KPIECE",
    "start": {
        "state": {
            "elbow_joint": 2.019306165916698,
            "shoulder_lift_joint": -1.1220205098164344,
            "shoulder_pan_joint": -1.095207207618794,
            "wrist_1_joint": -0.8559671824921639,
            "wrist_2_joint": 0.47596387242952726,
            "wrist_3_joint": 3.159081874673826
        }
    },
    "waypoints": [
        {
            "positions": [
                -1.095207207618794,
                -1.1220205098164344,
                2.019306165916698,
                -0.8559671824921639,
                0.47596387242952726,
                3.159081874673826
            ]
        },
        {
            "positions": [
                -1.1908904808544698,
                -1.1711355595137345,
                2.0087998102228086,
                -0.8013967611906831,
                0.6437487863543707,
                3.1593189836719153
            ]
        },
        {
            "positions": [
                -1.2865737540901456,
                -1.2202506092110346,
                1.9982934545289195,
                -0.7468263398892023,
                0.8115337002792142,
                3.159556092670005
            ]
        },
        {
            "positions": [
                -1.3822570273258217,
                -1.2693656589083346,
                1.9877870988350304,
                -0.6922559185877215,
                0.9793186142040577,
                3.1597932016680943
            ]
        },
        {
            "positions": [
                -1.4779403005614973,
                -1.3184807086056347,
                1.9772807431411412,
                -0.6376854972862408,
                1.1471035281289013,
                3.1600303106661833
            ]
        },
        {
            "positions": [
                -1.5736235737971733,
                -1.3675957583029348,
                1.9667743874472519,
                -0.5831150759847601,
                1.3148884420537448,
                3.160267419664273
            ]
        },
        {
            "positions": [
                -1.6693068470328492,
                -1.4167108080002349,
                1.9562680317533627,
                -0.5285446546832793,
                1.4826733559785883,
                3.1605045286623623
            ]
        }
    ]
}