{
    "goal": {
        "global_pose": {
            "orientation": {
                "w": 0.7047431493862688,
                "x": -0.7094548369677653,
                "y": 0.0024358444001904,
                "z": -0.0022348060817251984
            },
            "position": {
                "x": -0.39052492380142206,
                "y": 0.3671506643295288,
                "z": 0.19426114857196808
            }
        },
        "name": "move_to_magneteinheit_D"
    },
    "id": "KPIECE_move_to_magneteinheit_D_76",
    "joint_names": [
        "shoulder_pan_joint",
        "shoulder_lift_joint",
        "elbow_joint",
        "wrist_1_joint",
        "wrist_2_joint",
        "wrist_3_joint"
    ],
    "metrics": {
        "cart_traj_len": 4.074201779235352,
        "distance_elbow_joint": 3.131373579355717,
        "distance_shoulder_lift_joint": 1.6313220051792139,
        "distance_shoulder_pan_joint": 3.9213929404907004,
        "distance_wrist_1_joint": 2.2534716112750255,
        "distance_wrist_2_joint": 1.6526963081703376,
        "distance_wrist_3_joint": 3.1030153948577843,
        "smoothness": 0.2048830423319221,
        "time": 0.079112672,
        "traj_len": 3.9614734429664904,
        "weighted_distance": 5.0799085177284145
    },
    "planner": "KPIECE",
    "start": {
        "state": {
            "elbow_joint": 0.7495348899011973,
            "shoulder_lift_joint": -0.6476975780737697,
            "shoulder_pan_joint": -2.711696901376276,
            "wrist_1_joint": -0.07506478080974305,
            "wrist_2_joint": 0.4329665971545858,
            "wrist_3_joint": 3.1361499051832524
        }
    },
    "waypoints": [
        {
            "positions": [
                -2.711696901376276,
                -0.6476975780737697,
                0.7495348899011973,
                -0.07506478080974305,
                0.4329665971545858,
                3.1361499051832524
            ]
        },
        {
            "positions": [
                -2.710849071092123,
                -0.7253252787119682,
                0.7459129836014838,
                0.06018841452027868,
                0.5461422908321802,
                3.08963082485505
            ]
        },
        {
            "positions": [
                -2.7100012408079697,
                -0.8029529793501667,
                0.7422910773017704,
                0.1954416098503004,
                0.6593179845097747,
                3.043111744526848
            ]
        },
        {
            "positions": [
                -2.7091534105238164,
                -0.8805806799883653,
                0.7386691710020568,
                0.3306948051803221,
                0.7724936781873692,
                2.996592664198645
            ]
        },
        {
            "positions": [
                -2.708305580239663,
                -0.9582083806265638,
                0.7350472647023433,
                0.4659480005103438,
                0.8856693718649638,
                2.950073583870443
            ]
        },
        {
            "positions": [
                -2.554979117490942,
                -0.9601695870397933,
                0.6295978691413024,
                0.5311401082588201,
                0.8417034121843523,
                2.9264807642686335
            ]
        },
        {
            "positions": [
                -2.4016526547422217,
                -0.9621307934530228,
                0.5241484735802615,
                0.5963322160072964,
                0.7977374525037408,
                2.9028879446668236
            ]
        },
        {
            "positions": [
                -2.2483261919935007,
                -0.9640919998662524,
                0.4186990780192207,
                0.6615243237557727,
                0.7537714928231294,
                2.8792951250650143
            ]
        },
        {
            "positions": [
                -2.0949997292447797,
                -0.9660532062794819,
                0.3132496824581798,
                0.726716431504249,
                0.7098055331425178,
                2.855702305463205
            ]
        },
        {
            "positions": [
                -1.941673266496059,
                -0.9680144126927114,
                0.20780028689713892,
                0.7919085392527254,
                0.6658395734619064,
                2.832109485861395
            ]
        },
        {
            "positions": [
                -1.7883468037473382,
                -0.9699756191059409,
                0.1023508913360981,
                0.8571006470012017,
                0.6218736137812949,
                2.8085166662595857
            ]
        },
        {
            "positions": [
                -1.6350203409986173,
                -0.9719368255191705,
                -0.003098504224942844,
                0.922292754749678,
                0.5779076541006835,
                2.7849238466577764
            ]
        },
        {
            "positions": [
                -1.4816938782498965,
                -0.9738980319324,
                -0.10854789978598367,
                0.9874848624981543,
                0.5339416944200719,
                2.7613310270559666
            ]
        },
        {
            "positions": [
                -1.3283674155011755,
                -0.9758592383456295,
                -0.2139972953470245,
                1.0526769702466305,
                0.4899757347394605,
                2.737738207454157
            ]
        },
        {
            "positions": [
                -1.1750409527524548,
                -0.977820444758859,
                -0.31944669090806543,
                1.117869077995107,
                0.44600977505884903,
                2.714145387852348
            ]
        },
        {
            "positions": [
                -1.0217144900037338,
                -0.9797816511720886,
                -0.42489608646910637,
                1.183061185743583,
                0.40204381537823747,
                2.690552568250538
            ]
        },
        {
            "positions": [
                -0.8683880272550131,
                -0.9817428575853181,
                -0.5303454820301471,
                1.2482532934920596,
                0.35807785569762607,
                2.6669597486487286
            ]
        },
        {
            "positions": [
                -0.7150615645062921,
                -0.9837040639985476,
                -0.635794877591188,
                1.3134454012405359,
                0.3141118960170145,
                2.6433669290469193
            ]
        },
        {
            "positions": [
                -0.5617351017575714,
                -0.9856652704117771,
                -0.741244273152229,
                1.3786375089890122,
                0.27014593633640316,
                2.6197741094451095
            ]
        },
        {
            "positions": [
                -0.4084086390088504,
                -0.9876264768250067,
                -0.8466936687132699,
                1.4438296167374884,
                0.2261799766557916,
                2.5961812898433
            ]
        },
        {
            "positions": [
                -0.25508217626012986,
                -0.9895876832382362,
                -0.9521430642743106,
                1.5090217244859647,
                0.18221401697518014,
                2.5725884702414907
            ]
        },
        {
            "positions": [
                -0.10175571351140889,
                -0.9915488896514657,
                -1.0575924598353517,
                1.574213832234441,
                0.13824805729456868,
                2.548995650639681
            ]
        },
        {
            "positions": [
                0.051570749237312086,
                -0.9935100960646952,
                -1.1630418553963922,
                1.6394059399829173,
                0.09428209761395723,
                2.5254028310378716
            ]
        },
        {
            "positions": [
                0.20489721198603306,
                -0.9954713024779247,
                -1.268491250957433,
                1.7045980477313938,
                0.05031613793334566,
                2.501810011436062
            ]
        },
        {
            "positions": [
                0.3582236747347536,
                -0.9974325088911543,
                -1.373940646518474,
                1.76979015547987,
                0.006350178252734318,
                2.4782171918342524
            ]
        },
        {
            "positions": [
                0.5115501374834746,
                -0.9993937153043838,
                -1.4793900420795152,
                1.8349822632283463,
                -0.0376157814278773,
                2.454624372232443
            ]
        },
        {
            "positions": [
                0.4659554406427869,
                -1.0718324226777227,
                -1.5380674743067606,
                1.8263232854496827,
                -0.04043350424307905,
                2.2679291296445725
            ]
        },
        {
            "positions": [
                0.4203607438020992,
                -1.1442711300510617,
                -1.5967449065340062,
                1.8176643076710188,
                -0.04325122705828081,
                2.0812338870567015
            ]
        },
        {
            "positions": [
                0.37476604696141147,
                -1.2167098374244008,
                -1.6554223387612517,
                1.8090053298923552,
                -0.04606894987348256,
                1.894538644468831
            ]
        },
        {
            "positions": [
                0.3291713501207238,
                -1.2891485447977398,
                -1.7140997709884973,
                1.8003463521136913,
                -0.04888667268868432,
                1.7078434018809603
            ]
        },
        {
            "positions": [
                0.28357665328003606,
                -1.3615872521710788,
                -1.7727772032157427,
                1.7916873743350277,
                -0.05170439550388607,
                1.5211481592930896
            ]
        },
        {
            "positions": [
                0.23798195643934839,
                -1.4340259595444178,
                -1.8314546354429884,
                1.783028396556364,
                -0.054522118319087834,
                1.3344529167052188
            ]
        },
        {
            "positions": [
                0.19238725959866065,
                -1.5064646669177568,
                -1.8901320676702338,
                1.7743694187777002,
                -0.05733984113428959,
                1.147757674117348
            ]
        },
        {
            "positions": [
                0.14679256275797303,
                -1.5789033742910958,
                -1.9488094998974792,
                1.7657104409990365,
                -0.060157563949491344,
                0.9610624315294776
            ]
        },
        {
            "positions": [
                0.1011978659172853,
                -1.6513420816644349,
                -2.007486932124725,
                1.7570514632203726,
                -0.0629752867646931,
                0.7743671889416066
            ]
        },
        {
            "positions": [
                0.05560316907659757,
                -1.7237807890377739,
                -2.0661643643519705,
                1.748392485441709,
                -0.06579300957989485,
                0.5876719463537359
            ]
        },
        {
            "positions": [
                0.010008472235909949,
                -1.796219496411113,
                -2.124841796579216,
                1.7397335076630451,
                -0.0686107323950966,
                0.4009767037658656
            ]
        },
        {
            "positions": [
                -0.03558622460477773,
                -1.868658203784452,
                -2.1835192288064613,
                1.7310745298843815,
                -0.07142845521029836,
                0.2142814611779946
            ]
        },
        {
            "positions": [
                -0.07333860949045182,
                -1.9712485486515847,
                -2.2330990939684763,
                1.671195321411139,
                -0.010704528614124076,
                0.16899472346486294
            ]
        },
        {
            "positions": [
                -0.11109099437612589,
                -2.073838893518718,
                -2.2826789591304912,
                1.6113161129378966,
                0.05001939798205021,
                0.12370798575173131
            ]
        },
        {
            "positions": [
                -0.14884337926179997,
                -2.176429238385851,
                -2.3322588242925058,
                1.551436904464654,
                0.1107433245782245,
                0.07842124803859965
            ]
        },
        {
            "positions": [
                -0.18659576414747406,
                -2.2790195832529836,
                -2.3818386894545207,
                1.4915576959914116,
                0.1714672511743988,
                0.033134510325468026
            ]
        }
    ]
}