{
    "goal": {
        "global_pose": {
            "orientation": {
                "w": 0.5084816217422485,
                "x": -0.49083608388900757,
                "y": 0.5182115435600281,
                "z": -0.4816462993621826
            },
            "position": {
                "x": 0.5540239810943604,
                "y": 0.030875300988554955,
                "z": 0.16403168439865112
            }
        },
        "name": "move_to_storage_A"
    },
    "id": "KPIECE_move_to_storage_A_95",
    "joint_names": [
        "shoulder_pan_joint",
        "shoulder_lift_joint",
        "elbow_joint",
        "wrist_1_joint",
        "wrist_2_joint",
        "wrist_3_joint"
    ],
    "metrics": {
        "cart_traj_len": 0.35319345664923946,
        "distance_elbow_joint": 0.4504008841774083,
        "distance_shoulder_lift_joint": 0.23645378687635832,
        "distance_shoulder_pan_joint": 0.4631269681664305,
        "distance_wrist_1_joint": 0.23689335755180296,
        "distance_wrist_2_joint": 1.0950412682131092,
        "distance_wrist_3_joint": 0.10275452059310641,
        "smoothness": 0.0,
        "time": 0.056435791,
        "traj_len": 1.6076911350064151,
        "weighted_distance": 2.030299104203452
    },
    "planner": "KPIECE",
    "start": {
        "state": {
            "elbow_joint": 1.9715474177455299,
            "shoulder_lift_joint": -1.139484666580328,
            "shoulder_pan_joint": 0.12281154398918248,
            "wrist_1_joint": -0.7804687475355282,
            "wrist_2_joint": 0.12958649657246987,
            "wrist_3_joint": -3.1924925159053466
        }
    },
    "waypoints": [
        {
            "positions": [
                0.12281154398918248,
                -1.139484666580328,
                1.9715474177455299,
                -0.7804687475355282,
                0.12958649657246987,
                -3.1924925159053466
            ]
        },
        {
            "positions": [
                0.056650548536835266,
                -1.1732637789912364,
                2.0358904011994454,
                -0.8143106557572143,
                0.2860209634600569,
                -3.17781329867776
            ]
        },
        {
            "positions": [
                -0.00951044691551195,
                -1.2070428914021447,
                2.100233384653361,
                -0.8481525639789005,
                0.4424554303476439,
                -3.163134081450173
            ]
        },
        {
            "positions": [
                -0.07567144236785917,
                -1.240822003813053,
                2.1645763681072765,
                -0.8819944722005866,
                0.5988898972352309,
                -3.1484548642225865
            ]
        },
        {
            "positions": [
                -0.14183243782020638,
                -1.2746011162239612,
                2.2289193515611916,
                -0.9158363804222728,
                0.755324364122818,
                -3.133775646995
            ]
        },
        {
            "positions": [
                -0.2079934332725536,
                -1.3083802286348696,
                2.293262335015107,
                -0.9496782886439589,
                0.9117588310104051,
                -3.1190964297674135
            ]
        },
        {
            "positions": [
                -0.2741544287249008,
                -1.342159341045778,
                2.3576053184690227,
                -0.9835201968656451,
                1.068193297897992,
                -3.104417212539827
            ]
        },
        {
            "positions": [
                -0.340315424177248,
                -1.3759384534566863,
                2.421948301922938,
                -1.0173621050873312,
                1.224627764785579,
                -3.08973799531224
            ]
        }
    ]
}