{
    "goal": {
        "global_pose": {
            "orientation": {
                "w": -0.4816463035849501,
                "x": 0.5182115481033762,
                "y": 0.4908360881923453,
                "z": -0.5084816262002911
            },
            "position": {
                "x": -0.8240239810943604,
                "y": -0.300875300988555,
                "z": 0.16403168439865112
            }
        },
        "name": "move_to_storage_C"
    },
    "id": "KPIECE_move_to_storage_C_92",
    "joint_names": [
        "shoulder_pan_joint",
        "shoulder_lift_joint",
        "elbow_joint",
        "wrist_1_joint",
        "wrist_2_joint",
        "wrist_3_joint"
    ],
    "metrics": {
        "cart_traj_len": 0.5768876203765122,
        "distance_elbow_joint": 0.26079912173787845,
        "distance_shoulder_lift_joint": 0.1890138748050525,
        "distance_shoulder_pan_joint": 0.4944518906536195,
        "distance_wrist_1_joint": 0.0898788678193474,
        "distance_wrist_2_joint": 1.0725876338045457,
        "distance_wrist_3_joint": 0.05863089494409124,
        "smoothness": 2.5376526478085547e-16,
        "time": 0.014507382,
        "traj_len": 1.4715170008411507,
        "weighted_distance": 1.856095518898909
    },
    "planner": "KPIECE",
    "start": {
        "state": {
            "elbow_joint": 2.010868315001653,
            "shoulder_lift_joint": -1.1634956873357014,
            "shoulder_pan_joint": -2.4736205022346103,
            "wrist_1_joint": -0.8367026794713948,
            "wrist_2_joint": 0.6746043897044093,
            "wrist_3_joint": 3.1335220948105738
        }
    },
    "waypoints": [
        {
            "positions": [
                -2.4736205022346103,
                -1.1634956873357014,
                2.010868315001653,
                -0.8367026794713948,
                0.6746043897044093,
                3.1335220948105738
            ]
        },
        {
            "positions": [
                -2.5560291506768804,
                -1.1319933748681927,
                1.9674017947120066,
                -0.8217228681681702,
                0.8533689953385002,
                3.143293910634589
            ]
        },
        {
            "positions": [
                -2.63843779911915,
                -1.1004910624006838,
                1.9239352744223603,
                -0.8067430568649456,
                1.0321336009725912,
                3.153065726458604
            ]
        },
        {
            "positions": [
                -2.72084644756142,
                -1.0689887499331752,
                1.8804687541327139,
                -0.7917632455617211,
                1.2108982066066822,
                3.1628375422826194
            ]
        },
        {
            "positions": [
                -2.80325509600369,
                -1.0374864374656665,
                1.8370022338430674,
                -0.7767834342584965,
                1.389662812240773,
                3.1726093581066346
            ]
        },
        {
            "positions": [
                -2.88566374444596,
                -1.0059841249981576,
                1.7935357135534211,
                -0.7618036229552719,
                1.568427417874864,
                3.18238117393065
            ]
        },
        {
            "positions": [
                -2.9680723928882298,
                -0.9744818125306489,
                1.7500691932637746,
                -0.7468238116520474,
                1.747192023508955,
                3.192152989754665
            ]
        }
    ]
}