{
    "goal": {
        "global_pose": {
            "orientation": {
                "w": 0.5084816262002911,
                "x": -0.4908360881923452,
                "y": 0.5182115481033761,
                "z": -0.48164630358495003
            },
            "position": {
                "x": 0.5540239810943604,
                "y": -0.46912469901144505,
                "z": 0.16403168439865112
            }
        },
        "name": "move_to_storage_B"
    },
    "id": "KPIECE_move_to_storage_B_5",
    "joint_names": [
        "shoulder_pan_joint",
        "shoulder_lift_joint",
        "elbow_joint",
        "wrist_1_joint",
        "wrist_2_joint",
        "wrist_3_joint"
    ],
    "metrics": {
        "cart_traj_len": 0.8481016245446428,
        "distance_elbow_joint": 0.5129857906191828,
        "distance_shoulder_lift_joint": 0.45998280737276676,
        "distance_shoulder_pan_joint": 0.6197541608611464,
        "distance_wrist_1_joint": 2.994078216319515,
        "distance_wrist_2_joint": 2.7086974004362685,
        "distance_wrist_3_joint": 3.2446556635375376,
        "smoothness": 0.17527353664397,
        "time": 0.105385326,
        "traj_len": 3.2465603396743483,
        "weighted_distance": 4.767833992808189
    },
    "planner": "KPIECE",
    "start": {
        "state": {
            "elbow_joint": 1.6649325706314817,
            "shoulder_lift_joint": -0.6616388048112454,
            "shoulder_pan_joint": -0.9139837860083814,
            "wrist_1_joint": 2.146757197745094,
            "wrist_2_joint": -2.234196043158733,
            "wrist_3_joint": 0.005471033829999897
        }
    },
    "waypoints": [
        {
            "positions": [
                -0.9139837860083814,
                -0.6616388048112454,
                1.6649325706314817,
                2.146757197745094,
                -2.234196043158733,
                0.005471033829999897
            ]
        },
        {
            "positions": [
                -0.8043863140134914,
                -0.7323742285288121,
                1.6249249644702253,
                2.098059913032313,
                -2.140466644591598,
                0.03029222226818324
            ]
        },
        {
            "positions": [
                -0.6947888420186014,
                -0.8031096522463788,
                1.5849173583089688,
                2.0493626283195323,
                -2.0467372460244633,
                0.05511341070636658
            ]
        },
        {
            "positions": [
                -0.710811210693456,
                -0.8158501306438841,
                1.6022361814408357,
                1.933495282443774,
                -1.9458877018923832,
                -0.07268712076008024
            ]
        },
        {
            "positions": [
                -0.7268335793683107,
                -0.8285906090413895,
                1.6195550045727025,
                1.817627936568016,
                -1.8450381577603034,
                -0.20048765222652706
            ]
        },
        {
            "positions": [
                -0.7428559480431653,
                -0.8413310874388947,
                1.6368738277045694,
                1.701760590692258,
                -1.7441886136282234,
                -0.32828818369297386
            ]
        },
        {
            "positions": [
                -0.75887831671802,
                -0.8540715658364001,
                1.654192650836436,
                1.5858932448164997,
                -1.6433390694961436,
                -0.45608871515942073
            ]
        },
        {
            "positions": [
                -0.7749006853928746,
                -0.8668120442339055,
                1.6715114739683028,
                1.4700258989407415,
                -1.5424895253640636,
                -0.5838892466258676
            ]
        },
        {
            "positions": [
                -0.7909230540677293,
                -0.8795525226314107,
                1.6888302971001696,
                1.3541585530649836,
                -1.4416399812319836,
                -0.7116897780923144
            ]
        },
        {
            "positions": [
                -0.806945422742584,
                -0.8922930010289161,
                1.7061491202320365,
                1.2382912071892251,
                -1.3407904370999035,
                -0.8394903095587614
            ]
        },
        {
            "positions": [
                -0.8229677914174386,
                -0.9050334794264214,
                1.7234679433639033,
                1.1224238613134672,
                -1.2399408929678237,
                -0.967290841025208
            ]
        },
        {
            "positions": [
                -0.8389901600922933,
                -0.9177739578239268,
                1.74078676649577,
                1.006556515437709,
                -1.139091348835744,
                -1.0950913724916547
            ]
        },
        {
            "positions": [
                -0.855012528767148,
                -0.9305144362214322,
                1.758105589627637,
                0.8906891695619508,
                -1.038241804703664,
                -1.2228919039581017
            ]
        },
        {
            "positions": [
                -0.8710348974420026,
                -0.9432549146189374,
                1.7754244127595036,
                0.7748218236861926,
                -0.9373922605715839,
                -1.3506924354245484
            ]
        },
        {
            "positions": [
                -0.8870572661168572,
                -0.9559953930164428,
                1.7927432358913704,
                0.6589544778104346,
                -0.8365427164395041,
                -1.4784929668909952
            ]
        },
        {
            "positions": [
                -0.9030796347917119,
                -0.9687358714139481,
                1.8100620590232372,
                0.5430871319346762,
                -0.735693172307424,
                -1.6062934983574422
            ]
        },
        {
            "positions": [
                -0.9191020034665666,
                -0.9814763498114535,
                1.827380882155104,
                0.42721978605891797,
                -0.634843628175344,
                -1.7340940298238892
            ]
        },
        {
            "positions": [
                -0.9351243721414212,
                -0.9942168282089587,
                1.844699705286971,
                0.31135244018316,
                -0.5339940840432642,
                -1.8618945612903357
            ]
        },
        {
            "positions": [
                -0.9511467408162759,
                -1.006957306606464,
                1.8620185284188375,
                0.1954850943074018,
                -0.4331445399111842,
                -1.9896950927567825
            ]
        },
        {
            "positions": [
                -0.9671691094911306,
                -1.0196977850039695,
                1.8793373515507046,
                0.0796177484316436,
                -0.33229499577910415,
                -2.1174956242232295
            ]
        },
        {
            "positions": [
                -0.9831914781659852,
                -1.0324382634014748,
                1.8966561746825712,
                -0.03624959744411438,
                -0.23144545164702457,
                -2.245296155689676
            ]
        },
        {
            "positions": [
                -0.9992138468408398,
                -1.0451787417989802,
                1.913974997814438,
                -0.1521169433198728,
                -0.13059590751494432,
                -2.373096687156123
            ]
        },
        {
            "positions": [
                -1.0152362155156944,
                -1.0579192201964855,
                1.9312938209463049,
                -0.2679842891956308,
                -0.029746363382864516,
                -2.50089721862257
            ]
        },
        {
            "positions": [
                -1.031258584190549,
                -1.0706596985939907,
                1.9486126440781715,
                -0.38385163507138875,
                0.07110318074921551,
                -2.6286977500890165
            ]
        },
        {
            "positions": [
                -1.0472809528654037,
                -1.083400176991496,
                1.9659314672100385,
                -0.4997189809471472,
                0.17195272488129554,
                -2.7564982815554635
            ]
        },
        {
            "positions": [
                -1.0633033215402585,
                -1.0961406553890014,
                1.9832502903419051,
                -0.6155863268229051,
                0.27280226901337556,
                -2.8842988130219105
            ]
        },
        {
            "positions": [
                -1.0793256902151132,
                -1.1088811337865068,
                2.000569113473772,
                -0.7314536726986631,
                0.37365181314545515,
                -3.012099344488357
            ]
        },
        {
            "positions": [
                -1.0953480588899678,
                -1.1216216121840121,
                2.017887936605639,
                -0.8473210185744213,
                0.474501357277535,
                -3.139899875954804
            ]
        }
    ]
}