{
    "goal": {
        "global_pose": {
            "orientation": {
                "w": 0.7031023480610252,
                "x": -0.7110244013736278,
                "y": 0.0077485991402295624,
                "z": 0.005598929693374583
            },
            "position": {
                "x": -0.8841497679147869,
                "y": 0.44412534475326537,
                "z": 0.3711530566215515
            }
        },
        "name": "move_to_auspresseinheit_D"
    },
    "id": "KPIECE_move_to_auspresseinheit_D_137",
    "joint_names": [
        "shoulder_pan_joint",
        "shoulder_lift_joint",
        "elbow_joint",
        "wrist_1_joint",
        "wrist_2_joint",
        "wrist_3_joint"
    ],
    "metrics": {
        "cart_traj_len": 3.7809856089555187,
        "distance_elbow_joint": 3.1879985993271793,
        "distance_shoulder_lift_joint": 1.3958869839553643,
        "distance_shoulder_pan_joint": 2.797702635658864,
        "distance_wrist_1_joint": 3.1382780737826694,
        "distance_wrist_2_joint": 0.8841671225808378,
        "distance_wrist_3_joint": 3.093817326481369,
        "smoothness": 0.14126872534801885,
        "time": 0.079778526,
        "traj_len": 3.807604331044166,
        "weighted_distance": 4.970707252606267
    },
    "planner": "KPIECE",
    "start": {
        "state": {
            "elbow_joint": 1.8268400409724999,
            "shoulder_lift_joint": -1.0144045787793008,
            "shoulder_pan_joint": 2.6280239544362485,
            "wrist_1_joint": -0.790705565816056,
            "wrist_2_joint": 1.0573557467365533,
            "wrist_3_joint": 3.1851377467193758
        }
    },
    "waypoints": [
        {
            "positions": [
                2.6280239544362485,
                -1.0144045787793008,
                1.8268400409724999,
                -0.790705565816056,
                1.0573557467365533,
                3.1851377467193758
            ]
        },
        {
            "positions": [
                2.570277763162654,
                -1.054319929096952,
                1.7228590074135812,
                -0.6970944012457514,
                1.04236591473638,
                3.1116338524285574
            ]
        },
        {
            "positions": [
                2.5125315718890597,
                -1.0942352794146033,
                1.6188779738546626,
                -0.6034832366754468,
                1.0273760827362064,
                3.0381299581377386
            ]
        },
        {
            "positions": [
                2.454785380615465,
                -1.1341506297322548,
                1.5148969402957437,
                -0.5098720721051422,
                1.012386250736033,
                2.96462606384692
            ]
        },
        {
            "positions": [
                2.3970391893418705,
                -1.174065980049906,
                1.410915906736825,
                -0.4162609075348376,
                0.9973964187358595,
                2.891122169556102
            ]
        },
        {
            "positions": [
                2.3392929980682764,
                -1.2139813303675573,
                1.3069348731779065,
                -0.32264974296453297,
                0.982406586735686,
                2.817618275265283
            ]
        },
        {
            "positions": [
                2.281546806794682,
                -1.2538966806852085,
                1.2029538396189876,
                -0.22903857839422836,
                0.9674167547355126,
                2.7441143809744646
            ]
        },
        {
            "positions": [
                2.2238006155210877,
                -1.2938120310028598,
                1.098972806060069,
                -0.13542741382392376,
                0.9524269227353392,
                2.6706104866836458
            ]
        },
        {
            "positions": [
                2.166054424247493,
                -1.333727381320511,
                0.9949917725011503,
                -0.04181624925361915,
                0.9374370907351658,
                2.5971065923928274
            ]
        },
        {
            "positions": [
                2.108308232973899,
                -1.3736427316381623,
                0.8910107389422317,
                0.05179491531668545,
                0.9224472587349923,
                2.5236026981020085
            ]
        },
        {
            "positions": [
                2.0505620417003043,
                -1.4135580819558138,
                0.7870297053833128,
                0.14540607988699006,
                0.9074574267348189,
                2.45009880381119
            ]
        },
        {
            "positions": [
                1.9928158504267097,
                -1.453473432273465,
                0.6830486718243942,
                0.23901724445729466,
                0.8924675947346454,
                2.376594909520372
            ]
        },
        {
            "positions": [
                1.9350696591531154,
                -1.4933887825911163,
                0.5790676382654756,
                0.33262840902759927,
                0.877477762734472,
                2.303091015229553
            ]
        },
        {
            "positions": [
                1.877323467879521,
                -1.5333041329087675,
                0.47508660470655695,
                0.4262395735979039,
                0.8624879307342985,
                2.2295871209387346
            ]
        },
        {
            "positions": [
                1.8195772766059264,
                -1.5732194832264188,
                0.3711055711476381,
                0.5198507381682085,
                0.8474980987341251,
                2.156083226647916
            ]
        },
        {
            "positions": [
                1.761831085332332,
                -1.6131348335440703,
                0.26712453758871946,
                0.6134619027385131,
                0.8325082667339516,
                2.0825793323570974
            ]
        },
        {
            "positions": [
                1.7040848940587376,
                -1.6530501838617213,
                0.16314350402980082,
                0.7070730673088177,
                0.8175184347337783,
                2.009075438066279
            ]
        },
        {
            "positions": [
                1.646338702785143,
                -1.6929655341793728,
                0.05916247047088197,
                0.8006842318791223,
                0.8025286027336047,
                1.9355715437754604
            ]
        },
        {
            "positions": [
                1.588592511511549,
                -1.732880884497024,
                -0.044818563088036445,
                0.8942953964494269,
                0.7875387707334314,
                1.8620676494846418
            ]
        },
        {
            "positions": [
                1.5308463202379543,
                -1.7727962348146753,
                -0.14879959664695508,
                0.9879065610197315,
                0.7725489387332578,
                1.7885637551938234
            ]
        },
        {
            "positions": [
                1.47310012896436,
                -1.8127115851323268,
                -0.25278063020587416,
                1.0815177255900361,
                0.7575591067330845,
                1.7150598609030048
            ]
        },
        {
            "positions": [
                1.4153539376907656,
                -1.8526269354499778,
                -0.35676166376479257,
                1.1751288901603407,
                0.742569274732911,
                1.6415559666121862
            ]
        },
        {
            "positions": [
                1.3576077464171712,
                -1.8925422857676293,
                -0.4607426973237114,
                1.2687400547306453,
                0.7275794427327376,
                1.5680520723213678
            ]
        },
        {
            "positions": [
                1.2998615551435766,
                -1.9324576360852805,
                -0.5647237308826303,
                1.36235121930095,
                0.7125896107325641,
                1.494548178030549
            ]
        },
        {
            "positions": [
                1.2421153638699822,
                -1.9723729864029318,
                -0.6687047644415487,
                1.4559623838712548,
                0.6975997787323907,
                1.4210442837397306
            ]
        },
        {
            "positions": [
                1.1412729320776538,
                -2.0036528847123414,
                -0.7181657497210581,
                1.3922759464358718,
                0.660141839119771,
                1.3260640077753219
            ]
        },
        {
            "positions": [
                1.0404305002853254,
                -2.034932783021751,
                -0.7676267350005674,
                1.3285895090004889,
                0.6226838995071514,
                1.231083731810913
            ]
        },
        {
            "positions": [
                0.939588068492997,
                -2.0662126813311605,
                -0.8170877202800768,
                1.264903071565106,
                0.5852259598945317,
                1.136103455846504
            ]
        },
        {
            "positions": [
                0.8387456367006687,
                -2.0974925796405697,
                -0.8665487055595861,
                1.201216634129723,
                0.5477680202819121,
                1.0411231798820952
            ]
        },
        {
            "positions": [
                0.7379032049083402,
                -2.1287724779499793,
                -0.9160096908390954,
                1.13753019669434,
                0.5103100806692924,
                0.9461429039176864
            ]
        },
        {
            "positions": [
                0.6370607731160118,
                -2.160052376259389,
                -0.9654706761186048,
                1.0738437592589571,
                0.47285214105667284,
                0.8511626279532776
            ]
        },
        {
            "positions": [
                0.5362183413236834,
                -2.1913322745687984,
                -1.0149316613981143,
                1.0101573218235744,
                0.43539420144405316,
                0.7561823519888687
            ]
        },
        {
            "positions": [
                0.4353759095313551,
                -2.222612172878208,
                -1.0643926466776235,
                0.9464708843881914,
                0.39793626183143355,
                0.6612020760244599
            ]
        },
        {
            "positions": [
                0.33453347773902653,
                -2.2538920711876176,
                -1.113853631957133,
                0.8827844469528084,
                0.3604783222188139,
                0.566221800060051
            ]
        },
        {
            "positions": [
                0.2336910459466981,
                -2.285171969497027,
                -1.1633146172366422,
                0.8190980095174255,
                0.32302038260619426,
                0.47124152409564224
            ]
        },
        {
            "positions": [
                0.13284861415436988,
                -2.3164518678064363,
                -1.2127756025161516,
                0.7554115720820427,
                0.2855624429935746,
                0.3762612481312335
            ]
        },
        {
            "positions": [
                0.032006182362041447,
                -2.347731766115846,
                -1.262236587795661,
                0.6917251346466597,
                0.24810450338095497,
                0.28128097216682457
            ]
        },
        {
            "positions": [
                -0.06883624943028699,
                -2.3790116644252555,
                -1.3116975730751703,
                0.6280386972112768,
                0.2106465637683353,
                0.18630069620241563
            ]
        },
        {
            "positions": [
                -0.16967868122261548,
                -2.410291562734665,
                -1.3611585583546797,
                0.5643522597758939,
                0.17318862415571562,
                0.09132042023800695
            ]
        }
    ]
}