{
    "goal": {
        "global_pose": {
            "orientation": {
                "w": 0.7031023480610252,
                "x": -0.7110244013736278,
                "y": 0.0077485991402295624,
                "z": 0.005598929693374583
            },
            "position": {
                "x": -0.8841497679147869,
                "y": 0.44412534475326537,
                "z": 0.3711530566215515
            }
        },
        "name": "move_to_auspresseinheit_D"
    },
    "id": "KPIECE_move_to_auspresseinheit_D_51",
    "joint_names": [
        "shoulder_pan_joint",
        "shoulder_lift_joint",
        "elbow_joint",
        "wrist_1_joint",
        "wrist_2_joint",
        "wrist_3_joint"
    ],
    "metrics": {
        "cart_traj_len": 4.0652051609311055,
        "distance_elbow_joint": 3.201717346178306,
        "distance_shoulder_lift_joint": 1.4562643728373283,
        "distance_shoulder_pan_joint": 2.822968422357771,
        "distance_wrist_1_joint": 2.9245214661928998,
        "distance_wrist_2_joint": 1.1612129921620888,
        "distance_wrist_3_joint": 3.0438725044476236,
        "smoothness": 0.13352470927285195,
        "time": 0.122534495,
        "traj_len": 3.8223758454887733,
        "weighted_distance": 4.978356814394308
    },
    "planner": "KPIECE",
    "start": {
        "state": {
            "elbow_joint": 1.8268400409724999,
            "shoulder_lift_joint": -1.0144045787793008,
            "shoulder_pan_joint": 2.6280239544362485,
            "wrist_1_joint": -0.790705565816056,
            "wrist_2_joint": 1.0573557467365533,
            "wrist_3_joint": 3.1851377467193758
        }
    },
    "waypoints": [
        {
            "positions": [
                2.6280239544362485,
                -1.0144045787793008,
                1.8268400409724999,
                -0.790705565816056,
                1.0573557467365533,
                3.1851377467193758
            ]
        },
        {
            "positions": [
                2.634270247088091,
                -0.9972769937669146,
                1.6957931110350686,
                -0.9015524932434557,
                1.1261456962035472,
                3.142962670931959
            ]
        },
        {
            "positions": [
                2.6405165397399335,
                -0.9801494087545283,
                1.5647461810976373,
                -1.0123994206708553,
                1.1949356456705411,
                3.1007875951445425
            ]
        },
        {
            "positions": [
                2.5452456382814055,
                -1.0261626831357535,
                1.482286066806768,
                -1.04490703098559,
                1.1890406722870555,
                2.968863886068354
            ]
        },
        {
            "positions": [
                2.4499747368228775,
                -1.0721759575169787,
                1.3998259525158991,
                -1.0774146413003247,
                1.18314569890357,
                2.8369401769921656
            ]
        },
        {
            "positions": [
                2.35470383536435,
                -1.1181892318982039,
                1.31736583822503,
                -1.1099222516150593,
                1.1772507255200844,
                2.7050164679159767
            ]
        },
        {
            "positions": [
                2.259432933905822,
                -1.164202506279429,
                1.234905723934161,
                -1.142429861929794,
                1.171355752136599,
                2.5730927588397883
            ]
        },
        {
            "positions": [
                2.164162032447294,
                -1.2102157806606542,
                1.1524456096432916,
                -1.1749374722445287,
                1.1654607787531133,
                2.4411690497636
            ]
        },
        {
            "positions": [
                2.068891130988766,
                -1.2562290550418793,
                1.0699854953524226,
                -1.2074450825592633,
                1.1595658053696278,
                2.3092453406874114
            ]
        },
        {
            "positions": [
                1.9736202295302379,
                -1.3022423294231045,
                0.9875253810615535,
                -1.239952692873998,
                1.1536708319861422,
                2.177321631611223
            ]
        },
        {
            "positions": [
                1.8783493280717098,
                -1.3482556038043296,
                0.9050652667706844,
                -1.2724603031887325,
                1.1477758586026567,
                2.0453979225350345
            ]
        },
        {
            "positions": [
                1.7830784266131818,
                -1.3942688781855548,
                0.8226051524798152,
                -1.3049679135034673,
                1.141880885219171,
                1.9134742134588456
            ]
        },
        {
            "positions": [
                1.6878075251546538,
                -1.44028215256678,
                0.7401450381889461,
                -1.3374755238182021,
                1.1359859118356854,
                1.781550504382657
            ]
        },
        {
            "positions": [
                1.592536623696126,
                -1.486295426948005,
                0.657684923898077,
                -1.3699831341329367,
                1.1300909384522,
                1.6496267953064685
            ]
        },
        {
            "positions": [
                1.4972657222375982,
                -1.5323087013292302,
                0.5752248096072079,
                -1.4024907444476713,
                1.1241959650687143,
                1.51770308623028
            ]
        },
        {
            "positions": [
                1.4019948207790702,
                -1.5783219757104554,
                0.4927646953163387,
                -1.434998354762406,
                1.118300991685229,
                1.3857793771540914
            ]
        },
        {
            "positions": [
                1.3067239193205422,
                -1.6243352500916806,
                0.41030458102546974,
                -1.4675059650771407,
                1.1124060183017432,
                1.253855668077903
            ]
        },
        {
            "positions": [
                1.2114530178620142,
                -1.670348524472906,
                0.32784446673460055,
                -1.5000135753918753,
                1.1065110449182578,
                1.1219319590017143
            ]
        },
        {
            "positions": [
                1.1161821164034864,
                -1.7163617988541309,
                0.24538435244373158,
                -1.53252118570661,
                1.1006160715347721,
                0.990008249925526
            ]
        },
        {
            "positions": [
                1.0209112149449584,
                -1.7623750732353562,
                0.1629242381528624,
                -1.5650287960213447,
                1.0947210981512867,
                0.8580845408493372
            ]
        },
        {
            "positions": [
                0.9256403134864304,
                -1.8083883476165814,
                0.0804641238619933,
                -1.5975364063360793,
                1.088826124767801,
                0.7261608317731489
            ]
        },
        {
            "positions": [
                0.8647736684419536,
                -1.8413755845027204,
                -0.0003881777528844804,
                -1.4798869271320305,
                1.0378525929719478,
                0.6936666323564047
            ]
        },
        {
            "positions": [
                0.8039070233974767,
                -1.8743628213888595,
                -0.08124047936776226,
                -1.362237447927982,
                0.9868790611760943,
                0.6611724329396604
            ]
        },
        {
            "positions": [
                0.7430403783529999,
                -1.9073500582749985,
                -0.16209278098264002,
                -1.2445879687239332,
                0.935905529380241,
                0.6286782335229162
            ]
        },
        {
            "positions": [
                0.6821737333085229,
                -1.9403372951611375,
                -0.2429450825975178,
                -1.1269384895198846,
                0.8849319975843876,
                0.5961840341061719
            ]
        },
        {
            "positions": [
                0.6213070882640461,
                -1.9733245320472765,
                -0.32379738421239557,
                -1.0092890103158356,
                0.8339584657885342,
                0.5636898346894276
            ]
        },
        {
            "positions": [
                0.5604404432195693,
                -2.006311768933416,
                -0.40464968582727334,
                -0.8916395311117871,
                0.7829849339926808,
                0.5311956352726833
            ]
        },
        {
            "positions": [
                0.4995737981750924,
                -2.039299005819555,
                -0.4855019874421511,
                -0.7739900519077384,
                0.7320114021968274,
                0.49870143585593907
            ]
        },
        {
            "positions": [
                0.43870715313061553,
                -2.072286242705694,
                -0.5663542890570289,
                -0.6563405727036897,
                0.6810378704009741,
                0.4662072364391948
            ]
        },
        {
            "positions": [
                0.37784050808613867,
                -2.105273479591833,
                -0.6472065906719067,
                -0.538691093499641,
                0.6300643386051206,
                0.4337130370224505
            ]
        },
        {
            "positions": [
                0.31697386304166175,
                -2.138260716477972,
                -0.7280588922867844,
                -0.42104161429559217,
                0.5790908068092672,
                0.4012188376057062
            ]
        },
        {
            "positions": [
                0.25610721799718494,
                -2.171247953364111,
                -0.8089111939016623,
                -0.3033921350915434,
                0.5281172750134138,
                0.36872463818896195
            ]
        },
        {
            "positions": [
                0.19524057295270814,
                -2.20423519025025,
                -0.88976349551654,
                -0.18574265588749483,
                0.4771437432175605,
                0.3362304387722177
            ]
        },
        {
            "positions": [
                0.13437392790823122,
                -2.237222427136389,
                -0.9706157971314177,
                -0.06809317668344606,
                0.4261702114217071,
                0.30373623935547345
            ]
        },
        {
            "positions": [
                0.07350728286375441,
                -2.270209664022528,
                -1.0514680987462957,
                0.0495563025206025,
                0.3751966796258537,
                0.27124203993872914
            ]
        },
        {
            "positions": [
                0.01264063781927749,
                -2.303196900908667,
                -1.1323204003611735,
                0.16720578172465128,
                0.3242231478300003,
                0.2387478405219849
            ]
        },
        {
            "positions": [
                -0.04822600722519932,
                -2.336184137794806,
                -1.2131727019760512,
                0.28485526092869984,
                0.273249616034147,
                0.2062536411052407
            ]
        },
        {
            "positions": [
                -0.10909265226967624,
                -2.369171374680945,
                -1.2940250035909289,
                0.40250474013274884,
                0.2222760842382936,
                0.17375944168849633
            ]
        },
        {
            "positions": [
                -0.16995929731415316,
                -2.402158611567084,
                -1.3748773052058068,
                0.5201542193367976,
                0.17130255244244016,
                0.14126524227175205
            ]
        }
    ]
}