{
    "goal": {
        "global_pose": {
            "orientation": {
                "w": -0.4816463035849501,
                "x": 0.5182115481033762,
                "y": 0.4908360881923453,
                "z": -0.5084816262002911
            },
            "position": {
                "x": -0.8240239810943604,
                "y": 0.19912469901144506,
                "z": 0.16403168439865112
            }
        },
        "name": "move_to_storage_D"
    },
    "id": "KPIECE_move_to_storage_D_39",
    "joint_names": [
        "shoulder_pan_joint",
        "shoulder_lift_joint",
        "elbow_joint",
        "wrist_1_joint",
        "wrist_2_joint",
        "wrist_3_joint"
    ],
    "metrics": {
        "cart_traj_len": 1.2038079835574413,
        "distance_elbow_joint": 0.5533454346123856,
        "distance_shoulder_lift_joint": 1.1003221941812047,
        "distance_shoulder_pan_joint": 0.17054759500357475,
        "distance_wrist_1_joint": 3.82063554750304,
        "distance_wrist_2_joint": 1.8930215257915377,
        "distance_wrist_3_joint": 3.151184288035595,
        "smoothness": 0.24251607040066936,
        "time": 0.08585837399999999,
        "traj_len": 3.2694122690672307,
        "weighted_distance": 4.764985019335644
    },
    "planner": "KPIECE",
    "start": {
        "state": {
            "elbow_joint": -2.384821997420982,
            "shoulder_lift_joint": -2.2788054674887404,
            "shoulder_pan_joint": -0.18546946417610016,
            "wrist_1_joint": 1.4845937964226739,
            "wrist_2_joint": 0.1789877726866377,
            "wrist_3_joint": 0.03710572555276528
        }
    },
    "waypoints": [
        {
            "positions": [
                -0.18546946417610016,
                -2.2788054674887404,
                -2.384821997420982,
                1.4845937964226739,
                0.1789877726866377,
                0.03710572555276528
            ]
        },
        {
            "positions": [
                -0.11804860224359888,
                -2.205260338360219,
                -2.355968259569895,
                1.4692463437257248,
                0.10890108889509231,
                0.045342132896497536
            ]
        },
        {
            "positions": [
                -0.0506277403110976,
                -2.1317152092316975,
                -2.327114521718809,
                1.4538988910287758,
                0.03881440510354693,
                0.05357854024022979
            ]
        },
        {
            "positions": [
                -0.04567646354460128,
                -2.063631293620293,
                -2.2880757269955776,
                1.3758330547869517,
                0.05743926069120964,
                -0.04051984316189594
            ]
        },
        {
            "positions": [
                -0.040725186778104966,
                -1.9955473780088882,
                -2.2490369322723462,
                1.2977672185451277,
                0.07606411627887234,
                -0.13461822656402167
            ]
        },
        {
            "positions": [
                -0.035773910011608644,
                -1.9274634623974833,
                -2.209998137549115,
                1.2197013823033036,
                0.09468897186653505,
                -0.22871660996614743
            ]
        },
        {
            "positions": [
                -0.03717472227637889,
                -1.888134986448131,
                -2.1648603020165345,
                1.0962782838168568,
                0.07579262041274869,
                -0.3462831307604207
            ]
        },
        {
            "positions": [
                -0.03857553454114914,
                -1.8488065104987783,
                -2.1197224664839536,
                0.9728551853304099,
                0.05689626895896232,
                -0.46384965155469404
            ]
        },
        {
            "positions": [
                -0.03997634680591938,
                -1.809478034549426,
                -2.074584630951373,
                0.8494320868439631,
                0.03799991750517595,
                -0.5814161723489674
            ]
        },
        {
            "positions": [
                -0.04137715907068963,
                -1.7701495586000733,
                -2.0294467954187922,
                0.7260089883575163,
                0.01910356605138959,
                -0.6989826931432406
            ]
        },
        {
            "positions": [
                -0.04277797133545988,
                -1.7308210826507209,
                -1.9843089598862118,
                0.6025858898710694,
                0.00020721459760321415,
                -0.8165492139375139
            ]
        },
        {
            "positions": [
                -0.04417878360023013,
                -1.6914926067013685,
                -1.9391711243536311,
                0.4791627913846226,
                -0.018689136856183147,
                -0.9341157347317872
            ]
        },
        {
            "positions": [
                -0.04557959586500038,
                -1.6521641307520158,
                -1.8940332888210505,
                0.35573969289817575,
                -0.03758548830996953,
                -1.0516822555260605
            ]
        },
        {
            "positions": [
                -0.044965909476906395,
                -1.678479733943376,
                -1.890557915153692,
                0.20619627934381238,
                -0.12451321782491143,
                -1.1644295153917184
            ]
        },
        {
            "positions": [
                -0.04435222308881242,
                -1.704795337134736,
                -1.8870825414863333,
                0.056652865789449,
                -0.2114409473398533,
                -1.2771767752573762
            ]
        },
        {
            "positions": [
                -0.043738536700718436,
                -1.7311109403260958,
                -1.8836071678189747,
                -0.09289054776491434,
                -0.29836867685479523,
                -1.389924035123034
            ]
        },
        {
            "positions": [
                -0.04312485031262445,
                -1.7574265435174559,
                -1.8801317941516162,
                -0.24243396131927775,
                -0.3852964063697371,
                -1.5026712949886916
            ]
        },
        {
            "positions": [
                -0.04251116392453048,
                -1.783742146708816,
                -1.8766564204842577,
                -0.39197737487364115,
                -0.4722241358846791,
                -1.6154185548543496
            ]
        },
        {
            "positions": [
                -0.041897477536436495,
                -1.810057749900176,
                -1.873181046816899,
                -0.5415207884280044,
                -0.5591518653996209,
                -1.7281658147200072
            ]
        },
        {
            "positions": [
                -0.04128379114834251,
                -1.836373353091536,
                -1.8697056731495405,
                -0.6910642019823678,
                -0.6460795949145629,
                -1.8409130745856652
            ]
        },
        {
            "positions": [
                -0.040670104760248536,
                -1.8626889562828959,
                -1.866230299482182,
                -0.8406076155367312,
                -0.7330073244295047,
                -1.9536603344513228
            ]
        },
        {
            "positions": [
                -0.040056418372154554,
                -1.889004559474256,
                -1.8627549258148233,
                -0.9901510290910946,
                -0.8199350539444467,
                -2.0664075943169804
            ]
        },
        {
            "positions": [
                -0.03944273198406057,
                -1.915320162665616,
                -1.8592795521474648,
                -1.139694442645458,
                -0.9068627834593886,
                -2.1791548541826384
            ]
        },
        {
            "positions": [
                -0.038829045595966595,
                -1.941635765856976,
                -1.8558041784801063,
                -1.2892378561998215,
                -0.9937905129743305,
                -2.2919021140482965
            ]
        },
        {
            "positions": [
                -0.03821535920787261,
                -1.967951369048336,
                -1.8523288048127478,
                -1.4387812697541846,
                -1.0807182424892723,
                -2.404649373913954
            ]
        },
        {
            "positions": [
                -0.03760167281977863,
                -1.994266972239696,
                -1.848853431145389,
                -1.588324683308548,
                -1.1676459720042143,
                -2.5173966337796116
            ]
        },
        {
            "positions": [
                -0.036987986431684654,
                -2.020582575431056,
                -1.8453780574780305,
                -1.7378680968629114,
                -1.2545737015191563,
                -2.6301438936452697
            ]
        },
        {
            "positions": [
                -0.03637430004359067,
                -2.046898178622416,
                -1.841902683810672,
                -1.887411510417275,
                -1.341501431034098,
                -2.7428911535109277
            ]
        },
        {
            "positions": [
                -0.035760613655496695,
                -2.073213781813776,
                -1.8384273101433135,
                -2.0369549239716385,
                -1.4284291605490398,
                -2.8556384133765853
            ]
        },
        {
            "positions": [
                -0.03514692726740271,
                -2.099529385005136,
                -1.8349519364759548,
                -2.186498337526001,
                -1.5153568900639818,
                -2.968385673242243
            ]
        },
        {
            "positions": [
                -0.03453324087930873,
                -2.125844988196496,
                -1.8314765628085963,
                -2.3360417510803653,
                -1.6022846195789238,
                -3.081132933107901
            ]
        }
    ]
}