{
    "goal": {
        "global_pose": {
            "orientation": {
                "w": -0.4816463035849501,
                "x": 0.5182115481033762,
                "y": 0.4908360881923453,
                "z": -0.5084816262002911
            },
            "position": {
                "x": -0.8240239810943604,
                "y": -0.300875300988555,
                "z": 0.16403168439865112
            }
        },
        "name": "move_to_storage_C"
    },
    "id": "KPIECE_move_to_storage_C_128",
    "joint_names": [
        "shoulder_pan_joint",
        "shoulder_lift_joint",
        "elbow_joint",
        "wrist_1_joint",
        "wrist_2_joint",
        "wrist_3_joint"
    ],
    "metrics": {
        "cart_traj_len": 0.5766089849857354,
        "distance_elbow_joint": 0.25373658012709965,
        "distance_shoulder_lift_joint": 0.18791015739045147,
        "distance_shoulder_pan_joint": 0.4960855559090609,
        "distance_wrist_1_joint": 0.0655465113204009,
        "distance_wrist_2_joint": 1.0610165471218331,
        "distance_wrist_3_joint": 0.05467458332328334,
        "smoothness": 1.2688263138573217e-16,
        "time": 0.011379255,
        "traj_len": 1.4556682091713515,
        "weighted_distance": 1.8316337407573957
    },
    "planner": "KPIECE",
    "start": {
        "state": {
            "elbow_joint": 2.010868315001653,
            "shoulder_lift_joint": -1.1634956873357014,
            "shoulder_pan_joint": -2.4736205022346103,
            "wrist_1_joint": -0.8367026794713948,
            "wrist_2_joint": 0.6746043897044093,
            "wrist_3_joint": 3.1335220948105738
        }
    },
    "waypoints": [
        {
            "positions": [
                -2.4736205022346103,
                -1.1634956873357014,
                2.010868315001653,
                -0.8367026794713948,
                0.6746043897044093,
                3.1335220948105738
            ]
        },
        {
            "positions": [
                -2.5563014282194536,
                -1.1321773277706262,
                1.9685788849804697,
                -0.8257782609179947,
                0.8514404808913815,
                3.1426345253644543
            ]
        },
        {
            "positions": [
                -2.6389823542042974,
                -1.100858968205551,
                1.9262894549592866,
                -0.8148538423645945,
                1.0282765720783535,
                3.151746955918335
            ]
        },
        {
            "positions": [
                -2.7216632801891407,
                -1.0695406086404757,
                1.8840000249381033,
                -0.8039294238111943,
                1.205112663265326,
                3.1608593864722154
            ]
        },
        {
            "positions": [
                -2.804344206173984,
                -1.0382222490754005,
                1.84171059491692,
                -0.7930050052577942,
                1.381948754452298,
                3.169971817026096
            ]
        },
        {
            "positions": [
                -2.887025132158828,
                -1.0069038895103253,
                1.7994211648957368,
                -0.7820805867043941,
                1.5587848456392703,
                3.1790842475799765
            ]
        },
        {
            "positions": [
                -2.969706058143671,
                -0.9755855299452499,
                1.7571317348745534,
                -0.7711561681509939,
                1.7356209368262425,
                3.188196678133857
            ]
        }
    ]
}