{
    "goal": {
        "global_pose": {
            "orientation": {
                "w": 0.005598929693374612,
                "x": 0.007748599140229565,
                "y": 0.7110244013736278,
                "z": -0.7031023480610252
            },
            "position": {
                "x": -0.8858502320852131,
                "y": -0.7141253447532654,
                "z": 0.3711530566215515
            }
        },
        "name": "move_to_auspresseinheit_C"
    },
    "id": "KPIECE_move_to_auspresseinheit_C_97",
    "joint_names": [
        "shoulder_pan_joint",
        "shoulder_lift_joint",
        "elbow_joint",
        "wrist_1_joint",
        "wrist_2_joint",
        "wrist_3_joint"
    ],
    "metrics": {
        "cart_traj_len": 0.4933783117708614,
        "distance_elbow_joint": 1.0028887878749644,
        "distance_shoulder_lift_joint": 0.3263954680261959,
        "distance_shoulder_pan_joint": 0.2554859787672945,
        "distance_wrist_1_joint": 0.6735230082568835,
        "distance_wrist_2_joint": 1.3209127353466477,
        "distance_wrist_3_joint": 0.053933662477851474,
        "smoothness": 1.6148698667872622e-16,
        "time": 3.0963009280000002,
        "traj_len": 1.9060796522574384,
        "weighted_distance": 2.3948784330961503
    },
    "planner": "KPIECE",
    "start": {
        "state": {
            "elbow_joint": 1.752795957773711,
            "shoulder_lift_joint": -0.9740617694225064,
            "shoulder_pan_joint": -2.967991417825858,
            "wrist_1_joint": -0.7595177689806859,
            "wrist_2_joint": 1.7443932448377395,
            "wrist_3_joint": 3.199131542505932
        }
    },
    "waypoints": [
        {
            "positions": [
                -2.967991417825858,
                -0.9740617694225064,
                1.752795957773711,
                -0.7595177689806859,
                1.7443932448377395,
                3.199131542505932
            ]
        },
        {
            "positions": [
                -2.9424428199491284,
                -0.9414222226198868,
                1.6525070789862146,
                -0.6921654681549976,
                1.6123019713030748,
                3.193738176258147
            ]
        },
        {
            "positions": [
                -2.9168942220723992,
                -0.9087826758172672,
                1.5522182001987181,
                -0.6248131673293091,
                1.48021069776841,
                3.1883448100103617
            ]
        },
        {
            "positions": [
                -2.8913456241956697,
                -0.8761431290146476,
                1.4519293214112219,
                -0.5574608665036209,
                1.348119424233745,
                3.1829514437625765
            ]
        },
        {
            "positions": [
                -2.86579702631894,
                -0.843503582212028,
                1.3516404426237254,
                -0.4901085656779325,
                1.2160281506990804,
                3.1775580775147914
            ]
        },
        {
            "positions": [
                -2.8402484284422105,
                -0.8108640354094085,
                1.251351563836229,
                -0.42275626485224416,
                1.0839368771644158,
                3.1721647112670066
            ]
        },
        {
            "positions": [
                -2.8146998305654813,
                -0.7782244886067889,
                1.1510626850487324,
                -0.35540396402655583,
                0.9518456036297509,
                3.1667713450192214
            ]
        },
        {
            "positions": [
                -2.7891512326887518,
                -0.7455849418041693,
                1.050773806261236,
                -0.2880516632008675,
                0.8197543300950862,
                3.1613779787714362
            ]
        },
        {
            "positions": [
                -2.763602634812022,
                -0.7129453950015496,
                0.9504849274737396,
                -0.22069936237517906,
                0.6876630565604214,
                3.155984612523651
            ]
        },
        {
            "positions": [
                -2.738054036935293,
                -0.6803058481989301,
                0.8501960486862431,
                -0.15334706154949074,
                0.5555717830257565,
                3.150591246275866
            ]
        },
        {
            "positions": [
                -2.7125054390585635,
                -0.6476663013963105,
                0.7499071698987468,
                -0.08599476072380244,
                0.4234805094910919,
                3.1451978800280807
            ]
        }
    ]
}