{
    "goal": {
        "global_pose": {
            "orientation": {
                "w": -0.00223480608172531,
                "x": 0.0024358444001904467,
                "y": 0.7094548369677653,
                "z": -0.704743149386269
            },
            "position": {
                "x": 0.6205249238014221,
                "y": -0.6371506643295288,
                "z": 0.19426114857196808
            }
        },
        "name": "move_to_magneteinheit_B"
    },
    "id": "KPIECE_move_to_magneteinheit_B_111",
    "joint_names": [
        "shoulder_pan_joint",
        "shoulder_lift_joint",
        "elbow_joint",
        "wrist_1_joint",
        "wrist_2_joint",
        "wrist_3_joint"
    ],
    "metrics": {
        "cart_traj_len": 1.4535846820084253,
        "distance_elbow_joint": 0.7319705155791842,
        "distance_shoulder_lift_joint": 1.248850200018537,
        "distance_shoulder_pan_joint": 1.6215697288935451,
        "distance_wrist_1_joint": 2.604930316285681,
        "distance_wrist_2_joint": 2.9402731758371945,
        "distance_wrist_3_joint": 3.1309540520466923,
        "smoothness": 3.0531133340659197e-16,
        "time": 0.044022786999999994,
        "traj_len": 3.5040759108017108,
        "weighted_distance": 4.9077142933220035
    },
    "planner": "KPIECE",
    "start": {
        "state": {
            "elbow_joint": 2.3935871308073637,
            "shoulder_lift_joint": -1.9085141043777403,
            "shoulder_pan_joint": 0.7066247067284167,
            "wrist_1_joint": -0.46782909355067076,
            "wrist_2_joint": 0.7096259085804283,
            "wrist_3_joint": -3.1358149275257428
        }
    },
    "waypoints": [
        {
            "positions": [
                0.7066247067284167,
                -1.9085141043777403,
                2.3935871308073637,
                -0.46782909355067076,
                0.7096259085804283,
                -3.1358149275257428
            ]
        },
        {
            "positions": [
                0.6543160057963668,
                -1.8682286140545616,
                2.3699751786919063,
                -0.38379908334790686,
                0.6147783867792285,
                -3.0348164097177848
            ]
        },
        {
            "positions": [
                0.6020073048643171,
                -1.827943123731383,
                2.3463632265764485,
                -0.29976907314514295,
                0.5199308649780287,
                -2.9338178919098272
            ]
        },
        {
            "positions": [
                0.5496986039322672,
                -1.7876576334082044,
                2.322751274460991,
                -0.21573906294237905,
                0.42508334317682883,
                -2.8328193741018692
            ]
        },
        {
            "positions": [
                0.49738990300021735,
                -1.7473721430850258,
                2.2991393223455336,
                -0.13170905273961514,
                0.330235821375629,
                -2.7318208562939117
            ]
        },
        {
            "positions": [
                0.4450812020681675,
                -1.7070866527618471,
                2.275527370230076,
                -0.047679042536851235,
                0.2353882995744292,
                -2.6308223384859537
            ]
        },
        {
            "positions": [
                0.39277250113611767,
                -1.6668011624386685,
                2.2519154181146184,
                0.03635096766591267,
                0.14054077777322938,
                -2.5298238206779957
            ]
        },
        {
            "positions": [
                0.3404638002040678,
                -1.6265156721154899,
                2.228303465999161,
                0.12038097786867658,
                0.045693255972029556,
                -2.428825302870038
            ]
        },
        {
            "positions": [
                0.288155099272018,
                -1.5862301817923115,
                2.204691513883703,
                0.20441098807144048,
                -0.04915426582917026,
                -2.32782678506208
            ]
        },
        {
            "positions": [
                0.23584639833996807,
                -1.5459446914691326,
                2.1810795617682457,
                0.2884409982742045,
                -0.1440017876303702,
                -2.226828267254122
            ]
        },
        {
            "positions": [
                0.18353769740791825,
                -1.5056592011459542,
                2.1574676096527883,
                0.3724710084769683,
                -0.2388493094315699,
                -2.1258297494461647
            ]
        },
        {
            "positions": [
                0.1312289964758684,
                -1.4653737108227753,
                2.1338556575373304,
                0.4565010186797323,
                -0.33369683123276983,
                -2.0248312316382067
            ]
        },
        {
            "positions": [
                0.07892029554381863,
                -1.425088220499597,
                2.110243705421873,
                0.540531028882496,
                -0.42854435303396954,
                -1.923832713830249
            ]
        },
        {
            "positions": [
                0.026611594611768763,
                -1.384802730176418,
                2.0866317533064156,
                0.6245610390852601,
                -0.5233918748351695,
                -1.8228341960222911
            ]
        },
        {
            "positions": [
                -0.025697106320281105,
                -1.3445172398532397,
                2.0630198011909577,
                0.7085910492880239,
                -0.6182393966363692,
                -1.7218356782143334
            ]
        },
        {
            "positions": [
                -0.07800580725233097,
                -1.304231749530061,
                2.0394078490755003,
                0.7926210594907879,
                -0.7130869184375691,
                -1.6208371604063754
            ]
        },
        {
            "positions": [
                -0.13031450818438073,
                -1.2639462592068824,
                2.015795896960043,
                0.8766510696935517,
                -0.8079344402387688,
                -1.5198386425984178
            ]
        },
        {
            "positions": [
                -0.1826232091164306,
                -1.223660768883704,
                1.9921839448445853,
                0.9606810798963155,
                -0.9027819620399685,
                -1.41884012479046
            ]
        },
        {
            "positions": [
                -0.23493191004848057,
                -1.1833752785605252,
                1.9685719927291276,
                1.0447110900990797,
                -0.9976294838411687,
                -1.3178416069825019
            ]
        },
        {
            "positions": [
                -0.28724061098053033,
                -1.1430897882373465,
                1.9449600406136702,
                1.1287411003018435,
                -1.0924770056423685,
                -1.2168430891745443
            ]
        },
        {
            "positions": [
                -0.3395493119125802,
                -1.102804297914168,
                1.9213480884982126,
                1.2127711105046073,
                -1.1873245274435682,
                -1.1158445713665865
            ]
        },
        {
            "positions": [
                -0.39185801284462995,
                -1.0625188075909895,
                1.897736136382755,
                1.296801120707371,
                -1.282172049244768,
                -1.0148460535586286
            ]
        },
        {
            "positions": [
                -0.44416671377667993,
                -1.0222333172678106,
                1.8741241842672975,
                1.3808311309101353,
                -1.377019571045968,
                -0.9138475357506706
            ]
        },
        {
            "positions": [
                -0.4964754147087297,
                -0.9819478269446321,
                1.85051223215184,
                1.4648611411128991,
                -1.4718670928471678,
                -0.812849017942713
            ]
        },
        {
            "positions": [
                -0.5487841156407794,
                -0.9416623366214535,
                1.8269002800363823,
                1.548891151315663,
                -1.5667146146483675,
                -0.711850500134755
            ]
        },
        {
            "positions": [
                -0.6010928165728292,
                -0.901376846298275,
                1.8032883279209249,
                1.6329211615184267,
                -1.6615621364495672,
                -0.6108519823267975
            ]
        },
        {
            "positions": [
                -0.6534015175048792,
                -0.8610913559750961,
                1.7796763758054672,
                1.716951171721191,
                -1.7564096582507673,
                -0.5098534645188395
            ]
        },
        {
            "positions": [
                -0.7057102184369289,
                -0.8208058656519177,
                1.7560644236900096,
                1.8009811819239547,
                -1.851257180051967,
                -0.4088549467108815
            ]
        },
        {
            "positions": [
                -0.7580189193689789,
                -0.7805203753287391,
                1.7324524715745522,
                1.8850111921267185,
                -1.9461047018531668,
                -0.307856428902924
            ]
        },
        {
            "positions": [
                -0.8103276203010287,
                -0.7402348850055605,
                1.7088405194590948,
                1.9690412023294823,
                -2.0409522236543665,
                -0.20685791109496643
            ]
        },
        {
            "positions": [
                -0.8626363212330787,
                -0.6999493946823818,
                1.685228567343637,
                2.0530712125322466,
                -2.1357997454555666,
                -0.105859393287008
            ]
        },
        {
            "positions": [
                -0.9149450221651285,
                -0.6596639043592032,
                1.6616166152281795,
                2.1371012227350104,
                -2.2306472672567663,
                -0.004860875479050449
            ]
        }
    ]
}