{
    "goal": {
        "global_pose": {
            "orientation": {
                "w": 0.7031023480610252,
                "x": -0.7110244013736278,
                "y": 0.0077485991402295624,
                "z": 0.005598929693374583
            },
            "position": {
                "x": -0.8841497679147869,
                "y": 0.44412534475326537,
                "z": 0.3711530566215515
            }
        },
        "name": "move_to_auspresseinheit_D"
    },
    "id": "KPIECE_move_to_auspresseinheit_D_136",
    "joint_names": [
        "shoulder_pan_joint",
        "shoulder_lift_joint",
        "elbow_joint",
        "wrist_1_joint",
        "wrist_2_joint",
        "wrist_3_joint"
    ],
    "metrics": {
        "cart_traj_len": 5.271260060320868,
        "distance_elbow_joint": 4.866904539350449,
        "distance_shoulder_lift_joint": 2.3710673769563786,
        "distance_shoulder_pan_joint": 5.045754930104575,
        "distance_wrist_1_joint": 4.893047019383319,
        "distance_wrist_2_joint": 4.958519379234797,
        "distance_wrist_3_joint": 4.978991768360421,
        "smoothness": 0.39654521188218933,
        "time": 0.40199324999999997,
        "traj_len": 5.207137890760135,
        "weighted_distance": 6.8500974408200115
    },
    "planner": "KPIECE",
    "start": {
        "state": {
            "elbow_joint": 1.8268400409724999,
            "shoulder_lift_joint": -1.0144045787793008,
            "shoulder_pan_joint": 2.6280239544362485,
            "wrist_1_joint": -0.790705565816056,
            "wrist_2_joint": 1.0573557467365533,
            "wrist_3_joint": 3.1851377467193758
        }
    },
    "waypoints": [
        {
            "positions": [
                2.6280239544362485,
                -1.0144045787793008,
                1.8268400409724999,
                -0.790705565816056,
                1.0573557467365533,
                3.1851377467193758
            ]
        },
        {
            "positions": [
                2.594706164212336,
                -1.0153799773944743,
                1.6935353452642707,
                -0.8477022466645775,
                1.0930977100492785,
                3.055661755847484
            ]
        },
        {
            "positions": [
                2.5613883739884233,
                -1.0163553760096475,
                1.5602306495560416,
                -0.904698927513099,
                1.1288396733620039,
                2.9261857649755916
            ]
        },
        {
            "positions": [
                2.528070583764511,
                -1.017330774624821,
                1.4269259538478123,
                -0.9616956083616205,
                1.164581636674729,
                2.7967097741036997
            ]
        },
        {
            "positions": [
                2.4947527935405986,
                -1.0183061732399943,
                1.2936212581395832,
                -1.018692289210142,
                1.2003235999874544,
                2.667233783231808
            ]
        },
        {
            "positions": [
                2.4614350033166863,
                -1.0192815718551678,
                1.1603165624313538,
                -1.0756889700586636,
                1.2360655633001796,
                2.5377577923599155
            ]
        },
        {
            "positions": [
                2.4281172130927735,
                -1.020256970470341,
                1.0270118667231247,
                -1.132685650907185,
                1.2718075266129047,
                2.408281801488024
            ]
        },
        {
            "positions": [
                2.394799422868861,
                -1.0212323690855145,
                0.8937071710148956,
                -1.1896823317557066,
                1.3075494899256301,
                2.2788058106161317
            ]
        },
        {
            "positions": [
                2.3066350135773175,
                -1.0114771471026447,
                0.8233485773697368,
                -1.2076576423594074,
                1.3021730021209588,
                2.1898234249843855
            ]
        },
        {
            "positions": [
                2.218470604285774,
                -1.0017219251197749,
                0.752989983724578,
                -1.2256329529631083,
                1.2967965143162874,
                2.1008410393526398
            ]
        },
        {
            "positions": [
                2.13030619499423,
                -0.991966703136905,
                0.6826313900794192,
                -1.243608263566809,
                1.291420026511616,
                2.0118586537208936
            ]
        },
        {
            "positions": [
                1.9265311406076386,
                -1.0277014483066984,
                0.7030641606177431,
                -1.2612579466062483,
                1.3111571551468852,
                1.9464886539497626
            ]
        },
        {
            "positions": [
                1.7227560862210471,
                -1.0634361934764915,
                0.7234969311560671,
                -1.2789076296456876,
                1.3308942837821542,
                1.8811186541786318
            ]
        },
        {
            "positions": [
                1.5189810318344557,
                -1.099170938646285,
                0.743929701694391,
                -1.2965573126851269,
                1.3506314124174235,
                1.8157486544075008
            ]
        },
        {
            "positions": [
                1.315205977447864,
                -1.1349056838160783,
                0.7643624722327149,
                -1.3142069957245663,
                1.3703685410526927,
                1.75037865463637
            ]
        },
        {
            "positions": [
                1.1114309230612722,
                -1.1706404289858716,
                0.7847952427710388,
                -1.3318566787640056,
                1.390105669687962,
                1.685008654865239
            ]
        },
        {
            "positions": [
                0.907655868674681,
                -1.2063751741556648,
                0.8052280133093628,
                -1.3495063618034449,
                1.409842798323231,
                1.6196386550941082
            ]
        },
        {
            "positions": [
                0.7038808142880894,
                -1.2421099193254581,
                0.8256607838476867,
                -1.367156044842884,
                1.4295799269585001,
                1.5542686553229772
            ]
        },
        {
            "positions": [
                0.6358356143532701,
                -1.2890097459689118,
                0.968108606305601,
                -1.3632230545525532,
                1.4580769429854568,
                1.6363871915761123
            ]
        },
        {
            "positions": [
                0.5677904144184509,
                -1.3359095726123655,
                1.1105564287635152,
                -1.3592900642622225,
                1.4865739590124136,
                1.7185057278292475
            ]
        },
        {
            "positions": [
                0.49974521448363163,
                -1.3828093992558192,
                1.2530042512214297,
                -1.3553570739718916,
                1.5150709750393703,
                1.8006242640823826
            ]
        },
        {
            "positions": [
                0.43170001454881235,
                -1.429709225899273,
                1.395452073679344,
                -1.351424083681561,
                1.543567991066327,
                1.8827428003355178
            ]
        },
        {
            "positions": [
                0.36365481461399307,
                -1.4766090525427265,
                1.5378998961372585,
                -1.34749109339123,
                1.5720650070932838,
                1.964861336588653
            ]
        },
        {
            "positions": [
                0.29560961467917385,
                -1.5235088791861802,
                1.6803477185951725,
                -1.3435581031008994,
                1.6005620231202404,
                2.046979872841788
            ]
        },
        {
            "positions": [
                0.22756441474435457,
                -1.5704087058296339,
                1.822795541053087,
                -1.3396251128105685,
                1.629059039147197,
                2.129098409094923
            ]
        },
        {
            "positions": [
                0.15951921480953535,
                -1.6173085324730876,
                1.9652433635110014,
                -1.3356921225202378,
                1.657556055174154,
                2.2112169453480583
            ]
        },
        {
            "positions": [
                0.09147401487471607,
                -1.6642083591165413,
                2.107691185968916,
                -1.331759132229907,
                1.6860530712011106,
                2.2933354816011935
            ]
        },
        {
            "positions": [
                0.19969544576628642,
                -1.7006411853322723,
                2.1974814770629676,
                -1.331971617077715,
                1.5871094679305098,
                2.3224400532653484
            ]
        },
        {
            "positions": [
                0.3079168766578568,
                -1.737074011548003,
                2.28727176815702,
                -1.332184101925523,
                1.4881658646599087,
                2.3515446249295033
            ]
        },
        {
            "positions": [
                0.41613830754942716,
                -1.7735068377637337,
                2.377062059251072,
                -1.3323965867733307,
                1.3892222613893077,
                2.380649196593658
            ]
        },
        {
            "positions": [
                0.5243597384409975,
                -1.8099396639794647,
                2.466852350345124,
                -1.3326090716211387,
                1.290278658118707,
                2.4097537682578127
            ]
        },
        {
            "positions": [
                0.6439508500859141,
                -1.8526117212253101,
                2.547992402856696,
                -1.3315305742836825,
                1.169411034228107,
                2.4204400833386566
            ]
        },
        {
            "positions": [
                0.7635419617308309,
                -1.8952837784711558,
                2.6291324553682682,
                -1.3304520769462262,
                1.0485434103375073,
                2.4311263984195004
            ]
        },
        {
            "positions": [
                0.8831330733757475,
                -1.9379558357170013,
                2.71027250787984,
                -1.3293735796087698,
                0.9276757864469074,
                2.4418127135003447
            ]
        },
        {
            "positions": [
                1.0027241850206643,
                -1.980627892962847,
                2.7914125603914126,
                -1.3282950822713135,
                0.8068081625563076,
                2.4524990285811885
            ]
        },
        {
            "positions": [
                1.122315296665581,
                -2.0232999502086924,
                2.8725526129029846,
                -1.3272165849338573,
                0.6859405386657078,
                2.4631853436620323
            ]
        },
        {
            "positions": [
                1.1664277485750134,
                -1.9945883432554168,
                2.8352375891767148,
                -1.1959592909714842,
                0.6006119368148094,
                2.3996718243859796
            ]
        },
        {
            "positions": [
                1.2105402004844459,
                -1.9658767363021412,
                2.7979225654504445,
                -1.0647019970091112,
                0.515283334963911,
                2.3361583051099273
            ]
        },
        {
            "positions": [
                1.2546526523938781,
                -1.9371651293488654,
                2.7606075417241747,
                -0.9334447030467382,
                0.4299547331130126,
                2.2726447858338745
            ]
        },
        {
            "positions": [
                1.2987651043033106,
                -1.9084535223955899,
                2.7232925179979044,
                -0.8021874090843651,
                0.34462613126211417,
                2.2091312665578218
            ]
        },
        {
            "positions": [
                1.342877556212743,
                -1.8797419154423143,
                2.6859774942716346,
                -0.6709301151219922,
                0.2592975294112158,
                2.1456177472817695
            ]
        },
        {
            "positions": [
                1.3869900081221753,
                -1.8510303084890387,
                2.6486624705453647,
                -0.5396728211596191,
                0.17396892756031734,
                2.0821042280057167
            ]
        },
        {
            "positions": [
                1.431102460031608,
                -1.822318701535763,
                2.6113474468190945,
                -0.40841552719724605,
                0.08864032570941893,
                2.018590708729664
            ]
        },
        {
            "positions": [
                1.4752149119410403,
                -1.7936070945824873,
                2.5740324230928247,
                -0.277158233234873,
                0.003311723858520521,
                1.9550771894536114
            ]
        },
        {
            "positions": [
                1.5193273638504727,
                -1.7648954876292118,
                2.5367173993665544,
                -0.14590093927249992,
                -0.08201687799237789,
                1.8915636701775589
            ]
        },
        {
            "positions": [
                1.5634398157599052,
                -1.7361838806759362,
                2.4994023756402846,
                -0.014643645310127074,
                -0.1673454798432762,
                1.8280501509015061
            ]
        },
        {
            "positions": [
                1.6075522676693377,
                -1.7074722737226606,
                2.4620873519140147,
                0.11661364865224622,
                -0.2526740816941747,
                1.7645366316254536
            ]
        },
        {
            "positions": [
                1.65166471957877,
                -1.6787606667693848,
                2.4247723281877445,
                0.24787094261461906,
                -0.3380026835450731,
                1.701023112349401
            ]
        },
        {
            "positions": [
                1.6957771714882024,
                -1.6500490598161093,
                2.3874573044614746,
                0.37912823657699213,
                -0.4233312853959714,
                1.6375095930733483
            ]
        },
        {
            "positions": [
                1.7398896233976349,
                -1.6213374528628337,
                2.350142280735205,
                0.5103855305393652,
                -0.50865988724687,
                1.5739960737972958
            ]
        },
        {
            "positions": [
                1.7840020753070673,
                -1.592625845909558,
                2.3128272570089345,
                0.6416428245017383,
                -0.5939884890977682,
                1.5104825545212432
            ]
        },
        {
            "positions": [
                1.8281145272164996,
                -1.5639142389562823,
                2.2755122332826647,
                0.7729001184641113,
                -0.6793170909486668,
                1.4469690352451905
            ]
        },
        {
            "positions": [
                1.872226979125932,
                -1.5352026320030068,
                2.238197209556395,
                0.9041574124264842,
                -0.7646456927995651,
                1.383455515969138
            ]
        },
        {
            "positions": [
                1.9163394310353645,
                -1.5064910250497312,
                2.2008821858301246,
                1.0354147063888575,
                -0.8499742946504636,
                1.3199419966930852
            ]
        },
        {
            "positions": [
                1.960451882944797,
                -1.4777794180964556,
                2.1635671621038544,
                1.1666720003512303,
                -0.9353028965013619,
                1.2564284774170327
            ]
        },
        {
            "positions": [
                2.0045643348542295,
                -1.44906781114318,
                2.1262521383775845,
                1.2979292943136032,
                -1.0206314983522602,
                1.1929149581409801
            ]
        },
        {
            "positions": [
                2.0486767867636617,
                -1.4203562041899045,
                2.0889371146513147,
                1.429186588275976,
                -1.1059601002031587,
                1.1294014388649276
            ]
        },
        {
            "positions": [
                2.0927892386730944,
                -1.3916445972366287,
                2.0516220909250444,
                1.5604438822383497,
                -1.1912887020540572,
                1.0658879195888749
            ]
        },
        {
            "positions": [
                2.1369016905825267,
                -1.3629329902833531,
                2.0143070671987746,
                1.6917011762007226,
                -1.2766173039049555,
                1.0023744003128223
            ]
        },
        {
            "positions": [
                2.181014142491959,
                -1.3342213833300773,
                1.9769920434725048,
                1.8229584701630954,
                -1.361945905755854,
                0.9388608810367698
            ]
        },
        {
            "positions": [
                2.2251265944013916,
                -1.3055097763768018,
                1.9396770197462347,
                1.9542157641254683,
                -1.4472745076067521,
                0.8753473617607173
            ]
        },
        {
            "positions": [
                2.269239046310824,
                -1.2767981694235262,
                1.9023619960199647,
                2.0854730580878416,
                -1.5326031094576507,
                0.8118338424846643
            ]
        },
        {
            "positions": [
                2.313351498220256,
                -1.2480865624702506,
                1.8650469722936946,
                2.2167303520502144,
                -1.6179317113085492,
                0.7483203232086117
            ]
        },
        {
            "positions": [
                2.357463950129689,
                -1.219374955516975,
                1.8277319485674246,
                2.3479876460125877,
                -1.7032603131594477,
                0.6848068039325592
            ]
        },
        {
            "positions": [
                2.401576402039121,
                -1.1906633485636995,
                1.7904169248411548,
                2.4792449399749605,
                -1.7885889150103458,
                0.6212932846565067
            ]
        },
        {
            "positions": [
                2.4456888539485533,
                -1.1619517416104237,
                1.7531019011148847,
                2.610502233937334,
                -1.8739175168612443,
                0.5577797653804539
            ]
        },
        {
            "positions": [
                2.489801305857986,
                -1.1332401346571481,
                1.7157868773886147,
                2.741759527899707,
                -1.959246118712143,
                0.4942662461044013
            ]
        },
        {
            "positions": [
                2.5082809224512803,
                -1.0643099916441108,
                1.6531187223687098,
                2.7074293464278014,
                -2.0679567750503023,
                0.41588509759317926
            ]
        },
        {
            "positions": [
                2.5267605390445746,
                -0.9953798486310733,
                1.5904505673488047,
                2.6730991649558957,
                -2.1766674313884615,
                0.3375039490819572
            ]
        },
        {
            "positions": [
                2.5452401556378685,
                -0.9264497056180359,
                1.5277824123288997,
                2.63876898348399,
                -2.285378087726621,
                0.2591228005707351
            ]
        },
        {
            "positions": [
                2.563719772231163,
                -0.8575195626049985,
                1.4651142573089948,
                2.6044388020120843,
                -2.3940887440647804,
                0.1807416520595131
            ]
        },
        {
            "positions": [
                2.582199388824457,
                -0.7885894195919609,
                1.40244610228909,
                2.5701086205401786,
                -2.5027994004029397,
                0.10236050354829102
            ]
        },
        {
            "positions": [
                2.6006790054177515,
                -0.7196592765789236,
                1.3397779472691849,
                2.535778439068273,
                -2.611510056741099,
                0.023979355037068995
            ]
        }
    ]
}