{
    "goal": {
        "global_pose": {
            "orientation": {
                "w": 0.7047431493862688,
                "x": -0.7094548369677653,
                "y": 0.0024358444001904,
                "z": -0.0022348060817251984
            },
            "position": {
                "x": -0.39052492380142206,
                "y": 0.3671506643295288,
                "z": 0.19426114857196808
            }
        },
        "name": "move_to_magneteinheit_D"
    },
    "id": "KPIECE_move_to_magneteinheit_D_54",
    "joint_names": [
        "shoulder_pan_joint",
        "shoulder_lift_joint",
        "elbow_joint",
        "wrist_1_joint",
        "wrist_2_joint",
        "wrist_3_joint"
    ],
    "metrics": {
        "cart_traj_len": 4.12463392747778,
        "distance_elbow_joint": 3.5323174859786777,
        "distance_shoulder_lift_joint": 1.6337386542347176,
        "distance_shoulder_pan_joint": 2.663749456481974,
        "distance_wrist_1_joint": 2.6322042748874575,
        "distance_wrist_2_joint": 2.8094920216424364,
        "distance_wrist_3_joint": 7.584411100386156,
        "smoothness": 0.4709021044451691,
        "time": 0.322842121,
        "traj_len": 4.566827453890874,
        "weighted_distance": 6.439443414683728
    },
    "planner": "KPIECE",
    "start": {
        "state": {
            "elbow_joint": 0.7495348899011973,
            "shoulder_lift_joint": -0.6476975780737697,
            "shoulder_pan_joint": -2.711696901376276,
            "wrist_1_joint": -0.07506478080974305,
            "wrist_2_joint": 0.4329665971545858,
            "wrist_3_joint": 3.1361499051832524
        }
    },
    "waypoints": [
        {
            "positions": [
                -2.711696901376276,
                -0.6476975780737697,
                0.7495348899011973,
                -0.07506478080974305,
                0.4329665971545858,
                3.1361499051832524
            ]
        },
        {
            "positions": [
                -2.7164928755426074,
                -0.7608226876450298,
                0.8166949579427015,
                -0.1210432121028688,
                0.4925220447503143,
                3.147112975572273
            ]
        },
        {
            "positions": [
                -2.7212888497089387,
                -0.8739477972162899,
                0.8838550259842057,
                -0.16702164339599454,
                0.5520774923460429,
                3.158076045961294
            ]
        },
        {
            "positions": [
                -2.72608482387527,
                -0.9870729067875501,
                0.9510150940257099,
                -0.2130000746891203,
                0.6116329399417714,
                3.169039116350315
            ]
        },
        {
            "positions": [
                -2.6452189903198176,
                -1.0082833573733778,
                0.8774076153027159,
                -0.18706591562073038,
                0.5808589345361093,
                3.0113486712273856
            ]
        },
        {
            "positions": [
                -2.5643531567643647,
                -1.0294938079592053,
                0.8038001365797219,
                -0.16113175655234047,
                0.5500849291304473,
                2.8536582261044563
            ]
        },
        {
            "positions": [
                -2.4834873232089123,
                -1.050704258545033,
                0.7301926578567279,
                -0.13519759748395058,
                0.5193109237247853,
                2.6959677809815275
            ]
        },
        {
            "positions": [
                -2.4026214896534595,
                -1.0719147091308607,
                0.656585179133734,
                -0.10926343841556066,
                0.48853691831912316,
                2.538277335858598
            ]
        },
        {
            "positions": [
                -2.321755656098007,
                -1.0931251597166882,
                0.5829777004107399,
                -0.08332927934717074,
                0.45776291291346105,
                2.380586890735669
            ]
        },
        {
            "positions": [
                -2.240889822542554,
                -1.114335610302516,
                0.509370221687746,
                -0.05739512027878085,
                0.42698890750779905,
                2.22289644561274
            ]
        },
        {
            "positions": [
                -2.160023988987102,
                -1.1355460608883434,
                0.43576274296475204,
                -0.031460961210390936,
                0.39621490210213695,
                2.0652060004898107
            ]
        },
        {
            "positions": [
                -2.0791581554316494,
                -1.1567565114741711,
                0.36215526424175803,
                -0.005526802142001019,
                0.36544089669647495,
                1.9075155553668814
            ]
        },
        {
            "positions": [
                -1.9982923218761965,
                -1.1779669620599988,
                0.28854778551876403,
                0.020407356926388898,
                0.3346668912908129,
                1.7498251102439524
            ]
        },
        {
            "positions": [
                -1.9174264883207441,
                -1.1991774126458263,
                0.21494030679577003,
                0.046341515994778815,
                0.3038928858851508,
                1.592134665121023
            ]
        },
        {
            "positions": [
                -1.8365606547652915,
                -1.220387863231654,
                0.14133282807277614,
                0.07227567506316868,
                0.2731188804794888,
                1.434444219998094
            ]
        },
        {
            "positions": [
                -1.7556948212098389,
                -1.2415983138174815,
                0.06772534934978203,
                0.0982098341315586,
                0.24234487507382674,
                1.276753774875165
            ]
        },
        {
            "positions": [
                -1.6748289876543863,
                -1.2628087644033092,
                -0.005882129373211975,
                0.12414399319994851,
                0.21157086966816463,
                1.1190633297522359
            ]
        },
        {
            "positions": [
                -1.5939631540989336,
                -1.284019214989137,
                -0.07948960809620587,
                0.15007815226833843,
                0.18079686426250258,
                0.9613728846293066
            ]
        },
        {
            "positions": [
                -1.513097320543481,
                -1.3052296655749647,
                -0.15309708681919998,
                0.17601231133672834,
                0.15002285885684052,
                0.8036824395063773
            ]
        },
        {
            "positions": [
                -1.4322314869880286,
                -1.3264401161607922,
                -0.22670456554219387,
                0.20194647040511826,
                0.11924885345117853,
                0.645991994383448
            ]
        },
        {
            "positions": [
                -1.351365653432576,
                -1.3476505667466196,
                -0.30031204426518776,
                0.22788062947350812,
                0.08847484804551653,
                0.48830154926051916
            ]
        },
        {
            "positions": [
                -1.2704998198771233,
                -1.3688610173324474,
                -0.3739195229881819,
                0.2538147885418981,
                0.05770084263985442,
                0.3306111041375899
            ]
        },
        {
            "positions": [
                -1.189633986321671,
                -1.390071467918275,
                -0.44752700171117576,
                0.27974894761028796,
                0.026926837234192313,
                0.17292065901466058
            ]
        },
        {
            "positions": [
                -1.108768152766218,
                -1.4112819185041028,
                -0.5211344804341699,
                0.30568310667867793,
                -0.0038471681714697947,
                0.015230213891731292
            ]
        },
        {
            "positions": [
                -1.0279023192107657,
                -1.4324923690899303,
                -0.5947419591571638,
                0.33161726574706785,
                -0.03462117357713179,
                -0.14246023123119755
            ]
        },
        {
            "positions": [
                -0.9470364856553131,
                -1.4537028196757578,
                -0.6683494378801577,
                0.35755142481545765,
                -0.06539517898279379,
                -0.30015067635412684
            ]
        },
        {
            "positions": [
                -0.8661706520998604,
                -1.4749132702615855,
                -0.741956916603152,
                0.3834855838838477,
                -0.0961691843884559,
                -0.45784112147705613
            ]
        },
        {
            "positions": [
                -0.7853048185444078,
                -1.4961237208474132,
                -0.8155643953261459,
                0.4094197429522375,
                -0.1269431897941179,
                -0.615531566599985
            ]
        },
        {
            "positions": [
                -0.7044389849889554,
                -1.517334171433241,
                -0.8891718740491398,
                0.4353539020206274,
                -0.15771719519978,
                -0.7732220117229143
            ]
        },
        {
            "positions": [
                -0.6235731514335026,
                -1.5385446220190684,
                -0.9627793527721339,
                0.4612880610890173,
                -0.1884912006054421,
                -0.9309124568458431
            ]
        },
        {
            "positions": [
                -0.5427073178780502,
                -1.5597550726048959,
                -1.0363868314951277,
                0.48722222015740724,
                -0.2192652060111041,
                -1.0886029019687724
            ]
        },
        {
            "positions": [
                -0.4618414843225973,
                -1.5809655231907236,
                -1.1099943102181218,
                0.5131563792257972,
                -0.2500392114167662,
                -1.2462933470917017
            ]
        },
        {
            "positions": [
                -0.3809756507671448,
                -1.6021759737765513,
                -1.183601788941116,
                0.5390905382941871,
                -0.2808132168224282,
                -1.4039837922146305
            ]
        },
        {
            "positions": [
                -0.3561678447646386,
                -1.6299234868177885,
                -1.19189983959947,
                0.6582925819175736,
                -0.3605718383242487,
                -1.5013249119608976
            ]
        },
        {
            "positions": [
                -0.3313600387621324,
                -1.6576709998590256,
                -1.2001978902578239,
                0.77749462554096,
                -0.4403304598260692,
                -1.5986660317071646
            ]
        },
        {
            "positions": [
                -0.3065522327596262,
                -1.6854185129002626,
                -1.208495940916178,
                0.8966966691643464,
                -0.5200890813278898,
                -1.6960071514534314
            ]
        },
        {
            "positions": [
                -0.28174442675711997,
                -1.7131660259414998,
                -1.2167939915745318,
                1.0158987127877328,
                -0.5998477028297102,
                -1.7933482711996984
            ]
        },
        {
            "positions": [
                -0.25693662075461376,
                -1.740913538982737,
                -1.225092042232886,
                1.1351007564111195,
                -0.6796063243315307,
                -1.8906893909459654
            ]
        },
        {
            "positions": [
                -0.2321288147521075,
                -1.768661052023974,
                -1.23339009289124,
                1.2543028000345058,
                -0.7593649458333512,
                -1.9880305106922322
            ]
        },
        {
            "positions": [
                -0.2073210087496013,
                -1.796408565065211,
                -1.241688143549594,
                1.3735048436578923,
                -0.8391235673351718,
                -2.085371630438499
            ]
        },
        {
            "positions": [
                -0.1825132027470951,
                -1.8241560781064483,
                -1.249986194207948,
                1.4927068872812788,
                -0.9188821888369922,
                -2.1827127501847663
            ]
        },
        {
            "positions": [
                -0.16971769658992605,
                -1.8830313615651075,
                -1.3502155942181373,
                1.5922639665607345,
                -0.9106102792851568,
                -2.0977328705365976
            ]
        },
        {
            "positions": [
                -0.156922190432757,
                -1.9419066450237668,
                -1.4504449942283268,
                1.6918210458401906,
                -0.9023383697333214,
                -2.0127529908884294
            ]
        },
        {
            "positions": [
                -0.14412668427558797,
                -2.000781928482426,
                -1.5506743942385162,
                1.7913781251196466,
                -0.8940664601814858,
                -1.9277731112402607
            ]
        },
        {
            "positions": [
                -0.13133117811841893,
                -2.059657211941085,
                -1.6509037942487055,
                1.8909352043991023,
                -0.8857945506296504,
                -1.8427932315920923
            ]
        },
        {
            "positions": [
                -0.13629553159352154,
                -2.0798189410653944,
                -1.7171691027559555,
                1.855450322406388,
                -0.7887742859142736,
                -1.6737159130383343
            ]
        },
        {
            "positions": [
                -0.14125988506862414,
                -2.0999806701897037,
                -1.7834344112632057,
                1.8199654404136736,
                -0.6917540211988966,
                -1.5046385944845762
            ]
        },
        {
            "positions": [
                -0.1462242385437267,
                -2.120142399314013,
                -1.8496997197704557,
                1.7844805584209593,
                -0.5947337564835198,
                -1.3355612759308184
            ]
        },
        {
            "positions": [
                -0.1511885920188293,
                -2.140304128438322,
                -1.9159650282777059,
                1.7489956764282448,
                -0.4977134917681429,
                -1.1664839573770602
            ]
        },
        {
            "positions": [
                -0.1561529454939319,
                -2.1604658575626314,
                -1.9822303367849559,
                1.7135107944355306,
                -0.40069322705276605,
                -0.9974066388233023
            ]
        },
        {
            "positions": [
                -0.1611172989690345,
                -2.180627586686941,
                -2.048495645292206,
                1.678025912442816,
                -0.30367296233738916,
                -0.8283293202695443
            ]
        },
        {
            "positions": [
                -0.1660816524441371,
                -2.2007893158112504,
                -2.114760953799456,
                1.6425410304501018,
                -0.20665269762201233,
                -0.6592520017157864
            ]
        },
        {
            "positions": [
                -0.17104600591923969,
                -2.2209510449355596,
                -2.1810262623067063,
                1.6070561484573873,
                -0.10963243290663538,
                -0.49017468316202817
            ]
        },
        {
            "positions": [
                -0.1760103593943423,
                -2.241112774059869,
                -2.2472915708139563,
                1.571571266464673,
                -0.012612168191258433,
                -0.3210973646082702
            ]
        },
        {
            "positions": [
                -0.1809747128694449,
                -2.261274503184178,
                -2.3135568793212062,
                1.5360863844719588,
                0.08440809652411829,
                -0.15202004605451225
            ]
        },
        {
            "positions": [
                -0.1859390663445475,
                -2.2814362323084874,
                -2.3798221878284562,
                1.5006015024792443,
                0.18142836123949516,
                0.0170572724992457
            ]
        }
    ]
}